1	2016-10-11 11:25:54	0	0	0	0	0	0	0	0	0	0	1	0	0	0	0	0	20	59	5	0	2217818	0
2	2016-10-11 11:35:55	0	0	0	0	0	0	1.33	0.59	0.02	33930	1	566	30015	33930	33364	199	96	336	29	29586	2217832	660
3	2016-10-11 11:45:54	0	0	0	0	0	0	1.86	0.73	0.04	64847	1	2566	42501	64847	62281	476	194	579	52	41241	2217848	1301
4	2016-10-11 11:55:57	0	0	0	0	0	0	3.15	0.81	0.06	90053	1	5436	74478	90053	84617	729	268	786	66	69917	2217866	1849
5	2016-10-11 12:05:57	0	0	0	0	0	0	3.55	0.89	0.08	107973	1	8191	84091	107973	99782	959	316	951	71	78796	2217888	2297
6	2016-10-11 12:15:56	0	0	0	0	0	0	3.89	0.92	0.1	122230	1	10752	93446	122230	111478	1128	372	1075	73	86251	2217901	2648
7	2016-10-11 12:26:01	0	0	0	0	0	0	4.18	0.96	0.11	135517	1	13294	102226	135517	122223	1301	408	1196	79	92650	2217920	2984
8	2016-10-11 12:35:58	0	0	0	0	0	0	4.46	0.99	0.12	147630	1	15891	109782	147630	131739	1465	462	1290	82	98816	2217945	3299
9	2016-10-11 12:46:02	0	0	0	0	0	0	4.63	1.01	0.13	158766	1	18331	115321	158766	140435	1611	502	1391	86	102774	2217964	3590
10	2016-10-11 12:56:03	0	0	0	0	0	0	4.83	1.04	0.14	169495	1	20692	118669	169495	148803	1756	530	1485	89	107176	2217985	3860
11	2016-10-11 13:06:01	0	0	0	0	0	0	5.07	1.04	0.15	179090	1	22949	128577	179090	156141	1860	560	1549	93	112442	2218019	4062
12	2016-10-11 13:16:07	0	0	0	0	0	0	5.18	1.06	0.15	187098	1	24774	132889	187098	162324	1980	600	1623	98	114802	2218034	4301
13	2016-10-11 13:26:00	0	0	0	0	0	0	5.18	1.06	0.15	187098	1	24774	132889	187098	162324	1980	616	1689	100	114802	2218052	4385
14	2016-10-11 13:35:56	0	0	0	0	0	0	5.18	1.06	0.15	187098	1	24774	132889	187098	162324	1980	628	1744	117	114802	2218070	4469
15	2016-10-11 13:45:56	0	0	0	0	0	0	5.18	1.06	0.15	187098	1	24774	132889	187098	162324	1980	656	1811	118	114802	2218091	4565
16	2016-10-11 13:55:59	0	0	0	0	0	0	5.18	1.06	0.15	187098	1	24774	132889	187098	162324	1980	682	1868	121	114802	2218111	4651
17	2016-10-11 14:05:58	0	0	0	0	0	0	5.18	1.06	0.15	187098	1	24774	132889	187098	162324	1980	704	1907	124	114802	2218130	4715
18	2016-10-11 14:15:58	0	0	0	0	0	0	5.18	1.06	0.15	187098	1	24774	132889	187098	162324	1980	728	1956	126	114802	2218144	4790
19	2016-10-11 14:25:56	0	0	0	0	0	0	5.18	1.06	0.15	187098	1	24774	132889	187098	162324	1980	760	2016	127	114802	2218165	4883
20	2016-10-11 14:35:58	0	0	0	0	0	0	5.18	1.06	0.15	187098	1	24774	132889	187098	162324	1980	774	2064	127	114802	2218198	4945
21	2016-10-11 14:45:57	0	0	0	0	0	0	5.98	1.06	0.18	228129	1	34530	156663	228129	193599	2422	788	2125	129	132678	2218223	5464
22	2016-10-11 14:56:02	0	0	0	0	0	0	6.66	1.08	0.2	266673	1	44033	178885	266673	222640	2879	814	2172	134	147640	2218261	5999
23	2016-10-11 15:06:02	0	0	0	0	0	0	6.75	1.09	0.2	273347	1	45833	181810	273347	227514	2970	832	2213	135	149721	2218278	6150
24	2016-10-11 15:15:59	0	0	0	0	0	0	6.87	1.09	0.2	279396	1	47406	185666	279396	231990	3051	842	2259	136	152295	2218299	6288
25	2016-10-11 15:25:59	0	0	0	0	0	0	6.95	1.1	0.21	285505	1	49047	188713	285505	236458	3135	848	2297	137	154138	2218327	6417
26	2016-10-11 15:36:00	0	0	0	0	0	0	7.1	1.1	0.21	292228	1	50702	192305	292228	241526	3205	864	2339	137	157597	2218348	6545
27	2016-10-11 15:46:01	0	0	0	0	0	0	7.26	1.1	0.21	298874	1	52256	197759	298874	246618	3288	888	2382	138	161049	2218365	6696
28	2016-10-11 15:56:13	0	0	0	0	0	0	7.35	1.1	0.21	305396	1	53768	202821	305396	251628	3374	908	2413	139	163082	2218398	6834
29	2016-10-11 16:06:08	0	0	0	0	0	0	7.45	1.11	0.22	311753	1	55392	205443	311753	256361	3450	924	2456	142	165381	2218417	6972
30	2016-10-11 16:16:01	0	0	0	0	0	0	7.59	1.1	0.22	317708	1	56936	209882	317708	260772	3510	936	2493	143	168403	2218444	7082
31	2016-10-11 16:25:59	0	0	0	0	0	0	7.72	1.11	0.22	323630	1	58419	212800	323630	265211	3581	948	2531	145	171209	2218458	7205
32	2016-10-11 16:36:21	0	0	0	0	0	0	7.89	1.11	0.22	329344	1	59904	219875	329344	269440	3659	958	2554	148	175059	2218484	7319
33	2016-10-11 16:46:17	0	0	0	0	0	0	7.96	1.11	0.22	334365	1	61305	221950	334365	273060	3719	968	2583	149	176661	2218518	7419
34	2016-10-11 16:56:01	0	0	0	0	0	0	8.04	1.11	0.23	339471	1	62728	224920	339471	276743	3774	980	2611	149	178431	2218540	7514
35	2016-10-11 17:05:59	0	0	0	0	0	0	8.11	1.11	0.23	344197	1	64145	228017	344197	280052	3827	986	2634	149	179850	2218553	7596
36	2016-10-11 17:16:00	0	0	0	0	0	0	8.22	1.11	0.23	348627	1	65418	232530	348627	283209	3881	996	2652	151	182444	2218592	7680
37	2016-10-11 17:26:28	0	0	0	0	0	0	8.27	1.11	0.23	352695	1	66543	234702	352695	286152	3919	1004	2672	151	183473	2218609	7746
38	2016-10-11 17:35:58	0	0	0	0	0	0	8.31	1.11	0.23	356786	1	67700	236486	356786	289086	3970	1020	2698	152	184474	2218635	7840
39	2016-10-11 17:46:00	0	0	0	0	0	0	8.36	1.11	0.24	361011	1	68829	238901	361011	292182	4020	1030	2720	152	185396	2218657	7922
40	2016-10-11 17:56:01	0	0	0	0	0	0	8.49	1.11	0.24	365221	1	69968	242886	365221	295253	4072	1040	2732	154	188449	2218683	7998
41	2016-10-11 18:06:00	0	0	0	0	0	0	8.6	1.11	0.24	369407	1	71133	246345	369407	298274	4111	1048	2750	156	190725	2218719	8065
42	2016-10-11 18:16:01	0	0	0	0	0	0	8.7	1.11	0.24	373264	1	72209	249848	373264	301055	4151	1052	2765	158	193028	2218755	8126
43	2016-10-11 18:26:00	0	0	0	0	0	0	8.76	1.11	0.24	376951	1	73234	251635	376951	303717	4190	1056	2781	158	194300	2218786	8185
44	2016-10-11 18:36:02	0	0	0	0	0	0	8.81	1.11	0.24	380750	1	74269	254173	380750	306481	4224	1066	2801	159	195390	2218814	8250
45	2016-10-11 18:46:01	0	0	0	0	0	0	8.88	1.11	0.24	384460	1	75256	255969	384460	309204	4260	1068	2817	159	196949	2218832	8304
46	2016-10-11 18:56:04	0	0	0	0	0	0	8.93	1.11	0.24	388081	1	76220	258431	388081	311861	4302	1078	2831	160	198102	2218863	8371
47	2016-10-11 19:06:03	0	0	0	0	0	0	8.97	1.11	0.25	391718	1	77186	259427	391718	314532	4334	1082	2852	160	199070	2218890	8428
48	2016-10-11 19:16:01	0	0	0	0	0	0	9.06	1.11	0.25	394998	1	78112	262084	394998	316886	4375	1090	2868	161	201074	2218911	8494
49	2016-10-11 19:26:00	0	0	0	0	0	0	9.11	1.1	0.25	398210	1	79035	264434	398210	319175	4399	1092	2884	161	202229	2218930	8536
50	2016-10-11 19:36:00	0	0	0	0	0	0	9.13	1.1	0.25	401584	1	80014	265221	401584	321570	4436	1104	2900	163	202666	2218953	8603
51	2016-10-11 19:56:02	0	0	0	0	0	0	9.29	1.11	0.25	408431	1	81952	269230	408431	326479	4523	1114	2922	166	206172	2219000	8725
52	2016-10-11 20:06:02	0	0	0	0	0	0	9.33	1.11	0.25	411828	1	82894	270997	411828	328934	4552	1122	2942	166	207110	2219021	8782
53	2016-10-11 20:16:02	0	0	0	0	0	0	9.39	1.11	0.25	415090	1	83769	273329	415090	331321	4589	1128	2958	166	208385	2219032	8841
54	2016-10-11 20:26:01	0	0	0	0	0	0	9.46	1.11	0.25	418317	1	84651	274821	418317	333666	4626	1134	2970	166	209847	2219054	8896
55	2016-10-11 20:36:03	0	0	0	0	0	0	9.56	1.11	0.25	421632	1	85600	277064	421632	336032	4666	1148	2991	167	212188	2219070	8972
56	2016-10-11 20:46:02	0	0	0	0	0	0	9.65	1.11	0.26	425053	1	86610	279130	425053	338443	4710	1158	3011	167	214180	2219096	9046
57	2016-10-11 20:56:05	0	0	0	0	0	0	9.69	1.11	0.26	428454	1	87521	280496	428454	340933	4747	1166	3026	169	214968	2219119	9108
58	2016-10-11 21:06:05	0	0	0	0	0	0	9.81	1.11	0.26	431538	1	88456	283709	431538	343082	4783	1180	3042	169	217658	2219135	9174
59	2016-10-11 21:16:03	0	0	0	0	0	0	9.88	1.11	0.26	434616	1	89438	285198	434616	345178	4820	1200	3061	169	219183	2219163	9250
60	2016-10-11 21:26:02	0	0	0	0	0	0	9.93	1.11	0.26	438012	1	90576	287185	438012	347436	4863	1208	3072	169	220261	2219192	9312
61	2016-10-11 21:36:05	0	0	0	0	0	0	9.99	1.11	0.26	441358	1	91673	288991	441358	349685	4889	1212	3082	169	221663	2219210	9352
62	2016-10-11 21:46:08	0	0	0	0	0	0	10.04	1.1	0.26	444821	1	92793	290728	444821	352028	4915	1220	3091	170	222843	2219236	9396
63	2016-10-11 21:56:06	0	0	0	0	0	0	10.09	1.11	0.27	448435	1	93988	292292	448435	354447	4957	1234	3108	170	223882	2219262	9469
64	2016-10-11 22:06:08	0	0	0	0	0	0	10.17	1.11	0.27	451751	1	95190	294451	451751	356561	5004	1242	3115	170	225672	2219276	9531
65	2016-10-11 22:16:09	0	0	0	0	0	0	10.24	1.11	0.27	455121	1	96367	298348	455121	358754	5031	1250	3134	170	227260	2219303	9585
66	2016-10-11 22:26:10	0	0	0	0	0	0	10.25	1.1	0.27	458368	1	97470	298924	458368	360898	5055	1254	3145	170	227544	2219329	9624
67	2016-10-11 22:36:10	0	0	0	0	0	0	10.31	1.1	0.27	461678	1	98577	300461	461678	363101	5083	1266	3166	170	228906	2219355	9685
68	2016-10-11 22:46:11	0	0	0	0	0	0	10.39	1.1	0.27	464840	1	99623	304509	464840	365217	5114	1272	3180	172	230577	2219391	9738
69	2016-10-11 22:56:10	0	0	0	0	0	0	10.42	1.1	0.27	467923	1	100544	304775	467923	367379	5151	1278	3198	173	231177	2219417	9800
70	2016-10-11 23:06:10	0	0	0	0	0	0	10.48	1.1	0.27	471129	1	101511	306791	471129	369618	5178	1286	3214	174	232544	2219442	9852
71	2016-10-11 23:16:08	0	0	0	0	0	0	10.51	1.1	0.28	474126	1	102464	307812	474126	371662	5213	1290	3237	174	233271	2219462	9914
72	2016-10-11 23:26:09	0	0	0	0	0	0	10.57	1.1	0.28	476965	1	103338	309211	476965	373627	5240	1290	3248	175	234641	2219476	9953
73	2016-10-11 23:36:09	0	0	0	0	0	0	10.62	1.1	0.28	479676	1	104216	310794	479676	375460	5265	1298	3260	175	235785	2219495	9998
74	2016-10-11 23:46:08	0	0	0	0	0	0	10.64	1.1	0.28	482231	1	105028	311733	482231	377203	5294	1306	3269	178	236253	2219520	10047
75	2016-10-11 23:56:11	0	0	0	0	0	0	10.66	1.1	0.28	484659	1	105807	313116	484659	378852	5322	1316	3275	178	236611	2219541	10091
76	2016-10-12 00:06:09	0	0	0	0	0	0	10.73	1.1	0.28	486963	1	106545	315966	486963	380418	5343	1330	3280	178	238235	2219551	10131
77	2016-10-12 00:16:05	0	0	0	0	0	0	10.76	1.1	0.28	489066	1	107245	316317	489066	381821	5372	1332	3290	178	238839	2219565	10172
78	2016-10-12 00:26:12	0	0	0	0	0	0	10.81	1.1	0.28	490979	1	107847	316770	490979	383132	5396	1334	3298	179	239950	2219576	10207
79	2016-10-12 00:36:11	0	0	0	0	0	0	10.82	1.1	0.28	492734	1	108369	317843	492734	384365	5417	1338	3310	180	240266	2219581	10245
80	2016-10-12 00:46:12	0	0	0	0	0	0	10.86	1.1	0.28	494474	1	108835	319301	494474	385639	5445	1342	3325	180	240986	2219591	10292
81	2016-10-12 00:56:11	0	0	0	0	0	0	10.87	1.1	0.28	495972	1	109216	319565	495972	386756	5469	1342	3331	180	241287	2219608	10322
82	2016-10-12 01:06:11	0	0	0	0	0	0	10.89	1.1	0.28	497354	1	109556	319928	497354	387798	5492	1346	3340	180	241777	2219617	10358
83	2016-10-12 01:16:06	0	0	0	0	0	0	10.95	1.1	0.28	498502	1	109838	321089	498502	388664	5506	1350	3345	181	242953	2219626	10382
84	2016-10-12 01:26:04	0	0	0	0	0	0	10.97	1.11	0.28	499528	1	110083	321089	499528	389445	5520	1354	3349	181	243564	2219628	10404
85	2016-10-12 01:36:11	0	0	0	0	0	0	11	1.1	0.28	500444	1	110263	321815	500444	390181	5529	1356	3358	181	244136	2219642	10424
86	2016-10-12 01:46:12	0	0	0	0	0	0	11.06	1.1	0.28	501320	1	110474	323695	501320	390846	5537	1358	3360	181	245527	2219644	10436
87	2016-10-12 01:56:07	0	0	0	0	0	0	11.07	1.11	0.28	502048	1	110641	323898	502048	391407	5548	1362	3363	181	245722	2219650	10454
88	2016-10-12 02:06:12	0	0	0	0	0	0	11.07	1.1	0.28	502713	1	110795	324034	502713	391918	5554	1364	3364	181	245878	2220241	10463
89	2016-10-12 02:16:11	0	0	0	0	0	0	11.11	1.1	0.28	503308	1	110938	324135	503308	392370	5557	1370	3368	181	246563	2220244	10476
90	2016-10-12 02:26:13	0	0	0	0	0	0	11.11	1.1	0.28	503851	1	111040	324405	503851	392811	5564	1370	3372	181	246719	2220250	10487
91	2016-10-12 02:36:13	0	0	0	0	0	0	11.14	1.1	0.28	504340	1	111133	325189	504340	393207	5567	1372	3375	181	247330	2220251	10495
92	2016-10-12 02:46:15	0	0	0	0	0	0	11.15	1.1	0.28	504783	1	111223	326113	504783	393560	5570	1374	3378	181	247627	2220254	10503
93	2016-10-12 02:56:10	0	0	0	0	0	0	11.17	1.1	0.28	505217	1	111324	326595	505217	393893	5572	1374	3379	181	247904	2220255	10506
94	2016-10-12 03:06:13	0	0	0	0	0	0	11.17	1.1	0.28	505579	1	111410	326595	505579	394169	5574	1374	3380	181	247904	2220256	10509
95	2016-10-12 03:16:11	0	0	0	0	0	0	11.17	1.1	0.28	505932	1	111502	326595	505932	394430	5577	1374	3380	181	247904	2220256	10512
96	2016-10-12 03:26:13	0	0	0	0	0	0	11.18	1.1	0.28	506256	1	111570	326802	506256	394686	5581	1374	3380	181	248183	2220261	10516
97	2016-10-12 03:36:11	0	0	0	0	0	0	11.2	1.1	0.28	506554	1	111638	327251	506554	394916	5586	1374	3380	181	248741	2220266	10521
98	2016-10-12 03:46:12	0	0	0	0	0	0	11.2	1.1	0.28	506856	1	111704	327251	506856	395152	5590	1374	3381	181	248741	2220265	10526
99	2016-10-12 03:56:12	0	0	0	0	0	0	11.22	1.1	0.28	507153	1	111770	327458	507153	395383	5593	1374	3383	181	249021	2220265	10531
100	2016-10-12 04:06:12	0	0	0	0	0	0	11.22	1.1	0.28	507430	1	111831	327736	507430	395599	5595	1374	3385	181	249181	2220267	10535
101	2016-10-12 04:16:10	0	0	0	0	0	0	11.22	1.1	0.28	507696	1	111888	328274	507696	395808	5598	1374	3388	182	249181	2220269	10542
102	2016-10-12 04:26:14	0	0	0	0	0	0	11.22	1.1	0.28	507947	1	111943	328274	507947	396004	5601	1374	3391	182	249181	2220269	10548
103	2016-10-12 04:36:09	0	0	0	0	0	0	11.22	1.1	0.28	508203	1	112009	328274	508203	396194	5602	1374	3391	182	249181	2220270	10549
104	2016-10-12 04:46:15	0	0	0	0	0	0	11.22	1.1	0.28	508456	1	112080	328274	508456	396376	5607	1374	3394	182	249181	2220271	10557
105	2016-10-12 04:56:13	0	0	0	0	0	0	11.25	1.1	0.28	508809	1	112187	328692	508809	396622	5610	1374	3395	183	249744	2220271	10562
106	2016-10-12 05:06:14	0	0	0	0	0	0	11.26	1.1	0.28	509158	1	112289	329112	509158	396869	5611	1378	3396	183	249986	2220271	10568
107	2016-10-12 05:16:07	0	0	0	0	0	0	11.27	1.1	0.28	509498	1	112387	329392	509498	397111	5612	1380	3400	183	250148	2220273	10575
108	2016-10-12 05:26:05	0	0	0	0	0	0	11.27	1.1	0.28	509896	1	112501	329392	509896	397395	5617	1382	3404	183	250228	2220276	10586
109	2016-10-12 05:36:04	0	0	0	0	0	0	11.28	1.1	0.28	510363	1	112627	329637	510363	397736	5617	1382	3405	183	250370	2220280	10587
110	2016-10-12 05:46:06	0	0	0	0	0	0	11.3	1.1	0.28	510837	1	112755	330552	510837	398082	5619	1380	3408	183	250979	2220282	10590
111	2016-10-12 05:56:09	0	0	0	0	0	0	11.31	1.1	0.28	511366	1	112899	330835	511366	398467	5625	1380	3410	183	251142	2220287	10598
112	2016-10-12 06:06:02	0	0	0	0	0	0	11.31	1.1	0.28	511976	1	113101	331116	511976	398875	5631	1380	3412	183	251142	2220292	10606
113	2016-10-12 06:16:05	0	0	0	0	0	0	11.32	1.1	0.28	512668	1	113310	332003	512668	399358	5640	1380	3412	183	251376	2220298	10615
114	2016-10-12 06:26:03	0	0	0	0	0	0	11.35	1.1	0.28	513396	1	113523	332288	513396	399873	5647	1382	3415	183	252113	2220300	10627
115	2016-10-12 06:36:13	0	0	0	0	0	0	11.36	1.1	0.28	514211	1	113754	333272	514211	400457	5652	1386	3419	184	252195	2220302	10641
116	2016-10-12 06:46:17	0	0	0	0	0	0	11.36	1.1	0.28	515059	1	114005	333415	515059	401054	5659	1388	3427	184	252277	2220308	10658
117	2016-10-12 06:56:14	0	0	0	0	0	0	11.41	1.1	0.28	515996	1	114313	334090	515996	401683	5669	1392	3434	185	253325	2220312	10680
118	2016-10-12 07:06:12	0	0	0	0	0	0	11.47	1.1	0.28	517095	1	114664	335934	517095	402431	5678	1396	3439	185	254635	2220316	10698
119	2016-10-12 07:16:13	0	0	0	0	0	0	11.48	1.1	0.29	518303	1	115025	336500	518303	403278	5687	1398	3446	185	254797	2220325	10716
120	2016-10-12 07:26:14	0	0	0	0	0	0	11.5	1.1	0.29	519680	1	115416	337960	519680	404264	5703	1402	3448	185	255296	2220331	10738
121	2016-10-12 07:36:14	0	0	0	0	0	0	11.55	1.1	0.29	521006	1	115815	339246	521006	405191	5720	1404	3456	185	256348	2220342	10765
122	2016-10-12 07:46:15	0	0	0	0	0	0	11.56	1.1	0.29	522449	1	116258	340440	522449	406191	5739	1406	3460	185	256773	2220349	10790
123	2016-10-12 07:56:18	0	0	0	0	0	0	11.58	1.1	0.29	523950	1	116663	341454	523950	407287	5758	1412	3468	185	257093	2220362	10823
124	2016-10-12 08:06:17	0	0	0	0	0	0	11.58	1.1	0.29	525508	1	117132	341977	525508	408376	5773	1414	3473	185	257210	2220380	10845
125	2016-10-12 08:16:15	0	0	0	0	0	0	11.61	1.1	0.29	527157	1	117621	342431	527157	409536	5785	1416	3482	186	257810	2220384	10869
126	2016-10-12 08:26:19	0	0	0	0	0	0	11.62	1.1	0.29	528897	1	118142	343452	528897	410755	5799	1424	3490	186	257982	2220395	10899
127	2016-10-12 08:36:16	0	0	0	0	0	0	11.65	1.09	0.29	530714	1	118715	344196	530714	411999	5809	1426	3496	187	258660	2220402	10918
128	2016-10-12 08:46:16	0	0	0	0	0	0	11.66	1.1	0.29	532501	1	119259	345021	532501	413242	5835	1428	3502	188	258980	2220413	10953
129	2016-10-12 08:56:18	0	0	0	0	0	0	11.68	1.1	0.29	534291	1	119793	345439	534291	414498	5854	1430	3507	188	259422	2220418	10979
130	2016-10-12 09:06:20	0	0	0	0	0	0	11.69	1.1	0.29	536085	1	120355	345671	536085	415730	5872	1432	3519	188	259552	2220422	11011
131	2016-10-12 09:16:17	0	0	0	0	0	0	11.7	1.09	0.29	537675	1	120838	346212	537675	416837	5887	1436	3526	189	259813	2220429	11038
132	2016-10-12 09:26:22	0	0	0	0	0	0	11.74	1.1	0.29	539327	1	121420	348393	539327	417907	5909	1436	3536	190	260645	2220436	11071
133	2016-10-12 09:36:17	0	0	0	0	0	0	11.81	1.1	0.29	540921	1	121993	349731	540921	418928	5926	1438	3546	191	262334	2220443	11101
134	2016-10-12 09:46:18	0	0	0	0	0	0	11.84	1.1	0.29	542506	1	122501	350285	542506	420005	5951	1444	3552	191	262868	2220458	11138
135	2016-10-12 09:56:19	0	0	0	0	0	0	11.88	1.1	0.29	544185	1	123092	351398	544185	421093	5973	1454	3563	191	263764	2220469	11181
136	2016-10-12 10:06:19	0	0	0	0	0	0	11.9	1.1	0.29	545766	1	123637	352358	545766	422129	5989	1460	3568	192	264214	2220482	11209
137	2016-10-12 10:16:18	0	0	0	0	0	0	11.94	1.1	0.29	547346	1	124178	353901	547346	423168	6008	1466	3572	192	265119	2220498	11238
138	2016-10-12 10:26:16	0	0	0	0	0	0	11.97	1.1	0.29	548892	1	124671	354773	548892	424221	6024	1470	3581	193	265825	2220505	11268
139	2016-10-12 10:36:19	0	0	0	0	0	0	11.99	1.1	0.29	550417	1	125195	355547	550417	425222	6037	1476	3589	193	266259	2220510	11295
140	2016-10-12 10:46:19	0	0	0	0	0	0	12.01	1.1	0.29	551935	1	125685	356160	551935	426250	6051	1478	3597	193	266695	2220522	11319
141	2016-10-12 10:56:17	0	0	0	0	0	0	12.03	1.1	0.3	553471	1	126215	356242	553471	427256	6073	1480	3602	195	267063	2220538	11350
142	2016-10-12 11:06:22	0	0	0	0	0	0	12.05	1.1	0.3	554896	1	126723	356961	554896	428173	6080	1486	3609	195	267652	2220550	11370
143	2016-10-12 11:16:21	0	0	0	0	0	0	12.05	1.1	0.3	556298	1	127230	356961	556298	429068	6093	1486	3614	195	267652	2220556	11388
144	2016-10-12 11:26:29	0	0	0	0	0	0	12.11	1.09	0.3	557581	1	127688	357517	557581	429893	6099	1490	3619	195	268825	2220564	11403
145	2016-10-12 11:36:26	0	0	0	0	0	0	12.12	1.09	0.3	558822	1	128105	357559	558822	430717	6114	1492	3623	196	269129	2220572	11425
146	2016-10-12 11:46:31	0	0	0	0	0	0	12.14	1.09	0.3	560062	1	128563	358176	560062	431499	6126	1496	3625	196	269480	2220576	11443
147	2016-10-12 11:56:34	0	0	0	0	0	0	12.15	1.09	0.3	561342	1	129050	358425	561342	432292	6140	1498	3635	196	269903	2220580	11469
148	2016-10-12 12:06:36	0	0	0	0	0	0	12.17	1.09	0.3	562478	1	129478	358841	562478	433000	6151	1502	3642	196	270138	2220588	11491
149	2016-10-12 12:16:31	0	0	0	0	0	0	12.18	1.09	0.3	563602	1	129922	359403	563602	433680	6164	1504	3646	196	270469	2220600	11510
150	2016-10-12 12:26:39	0	0	0	0	0	0	12.18	1.09	0.3	564639	1	130301	359570	564639	434338	6176	1506	3648	196	270469	2220610	11526
151	2016-10-12 12:36:26	0	0	0	0	0	0	12.25	1.09	0.3	565666	1	130713	360827	565666	434953	6185	1512	3654	197	271942	2220621	11548
152	2016-10-12 12:46:44	0	0	0	0	0	0	12.28	1.09	0.3	566608	1	131062	362283	566608	435546	6196	1514	3657	197	272768	2220633	11564
153	2016-10-12 12:56:41	0	0	0	0	0	0	12.29	1.09	0.3	567546	1	131462	362580	567546	436084	6206	1516	3660	197	272936	2220638	11579
154	2016-10-12 13:06:44	0	0	0	0	0	0	12.3	1.09	0.3	568430	1	131835	362665	568430	436595	6212	1518	3661	199	273213	2220652	11590
155	2016-10-12 13:16:36	0	0	0	0	0	0	12.3	1.09	0.3	569249	1	132212	362665	569249	437037	6224	1516	3662	199	273213	2220669	11601
156	2016-10-12 13:26:45	0	0	0	0	0	0	12.31	1.09	0.3	569980	1	132529	362920	569980	437451	6230	1522	3666	199	273358	2220679	11617
157	2016-10-12 13:36:38	0	0	0	0	0	0	12.32	1.09	0.3	570729	1	132832	363837	570729	437897	6237	1526	3666	199	273503	2220693	11628
158	2016-10-12 13:46:31	0	0	0	0	0	0	12.33	1.09	0.3	571570	1	133193	363966	571570	438377	6243	1528	3670	199	273793	2220708	11640
159	2016-10-12 13:56:37	0	0	0	0	0	0	12.33	1.09	0.3	572436	1	133569	363966	572436	438867	6250	1530	3673	199	273793	2220722	11652
160	2016-10-12 14:06:36	0	0	0	0	0	0	12.34	1.09	0.3	573213	1	133895	363966	573213	439318	6257	1534	0	199	273987	2220738	0
161	2016-10-12 14:16:36	0	0	0	0	0	0	12.34	1.09	0.31	574006	1	134232	363966	574006	439774	6268	1536	3681	200	273987	2220755	11685
162	2016-10-12 14:26:39	0	0	0	0	0	0	12.37	1.09	0.31	574732	1	134506	364737	574732	440226	6278	1536	3683	200	274741	2220763	11697
163	2016-10-12 14:36:33	0	0	0	0	0	0	12.39	1.09	0.31	575584	1	134870	365588	575584	440714	6287	1538	3685	200	275223	2220781	11710
164	2016-10-12 14:46:34	0	0	0	0	0	0	12.4	1.09	0.31	576435	1	135232	366150	576435	441203	6301	1548	3688	200	275370	2220792	11737
165	2016-10-12 14:57:05	0	0	0	0	0	0	12.43	1.09	0.31	577357	1	135608	367268	577357	441749	6308	1548	3690	200	276002	2220809	11746
166	2016-10-12 15:06:50	0	0	0	0	0	0	12.43	1.09	0.31	578177	1	135999	367268	578177	442178	6318	1552	3690	200	276051	2220821	11760
167	2016-10-12 15:16:21	0	0	0	0	0	0	12.45	1.09	0.31	578897	1	136284	367530	578897	442613	6328	1554	3692	200	276495	2220837	11774
168	2016-10-12 15:26:17	0	0	0	0	0	0	12.45	1.09	0.31	579738	1	136696	368399	579738	443042	6339	1554	3694	200	276594	2220847	11787
169	2016-10-12 15:36:38	0	0	0	0	0	0	12.48	1.09	0.31	580542	1	137041	369495	580542	443501	6346	1558	3699	200	277186	2220871	11803
170	2016-10-12 15:46:40	0	0	0	0	0	0	12.48	1.09	0.31	581329	1	137399	369495	581329	443930	6355	1560	3700	200	277186	2220894	11815
171	2016-10-12 15:56:40	0	0	0	0	0	0	12.49	1.09	0.31	582116	1	137777	370268	582116	444339	6370	1562	3702	201	277335	2220905	11835
172	2016-10-12 16:06:32	0	0	0	0	0	0	12.5	1.09	0.31	582881	1	138145	370534	582881	444736	6378	1566	3703	201	277683	2220917	11848
173	2016-10-12 16:16:23	0	0	0	0	0	0	12.52	1.09	0.31	583643	1	138511	370801	583643	445132	6385	1566	3709	201	278033	2220938	11861
174	2016-10-12 16:26:21	0	0	0	0	0	0	12.52	1.09	0.31	584403	1	138847	371869	584403	445556	6394	1566	3713	201	278132	2220959	11874
175	2016-10-12 16:36:20	0	0	0	0	0	0	12.53	1.09	0.31	585137	1	139183	372132	585137	445954	6404	1566	3715	201	278179	2220979	11886
176	2016-10-12 16:46:21	0	0	0	0	0	0	12.54	1.09	0.31	585793	1	139468	372199	585793	446325	6408	1566	3719	201	278567	2221000	11894
177	2016-10-12 16:56:22	0	0	0	0	0	0	12.56	1.09	0.31	586462	1	139755	372289	586462	446707	6414	1568	3723	201	278919	2221022	11906
178	2016-10-12 17:06:15	0	0	0	0	0	0	12.58	1.09	0.31	587132	1	140043	372782	587132	447089	6421	1570	3723	201	279296	2221032	11915
179	2016-10-12 17:16:16	0	0	0	0	0	0	12.58	1.09	0.31	587785	1	140313	373501	587785	447472	6430	1570	3724	201	279447	2221042	11925
180	2016-10-12 17:26:17	0	0	0	0	0	0	12.58	1.09	0.31	588452	1	140594	373501	588452	447858	6438	1574	3725	201	279447	2221054	11938
181	2016-10-12 17:36:14	0	0	0	0	0	0	12.61	1.09	0.31	589117	1	140880	374382	589117	448237	6440	1574	3729	201	280155	2221068	11944
182	2016-10-12 17:46:13	0	0	0	0	0	0	12.62	1.09	0.31	589745	1	141144	374824	589745	448601	6450	1574	3729	202	280402	2221080	11955
183	2016-10-12 17:56:22	0	0	0	0	0	0	12.63	1.09	0.31	590376	1	141394	375249	590376	448982	6456	1574	3731	202	280552	2221099	11963
184	2016-10-12 18:06:19	0	0	0	0	0	0	12.63	1.09	0.32	590948	1	141636	375249	590948	449312	6461	1580	3734	202	280552	2221118	11977
185	2016-10-12 18:16:17	0	0	0	0	0	0	12.64	1.09	0.32	591543	1	141907	376298	591543	449636	6467	1582	3738	202	280704	2221134	11989
186	2016-10-12 18:26:22	0	0	0	0	0	0	12.64	1.09	0.32	592180	1	142186	376344	592180	449994	6471	1582	3739	203	280832	2221151	11995
187	2016-10-12 18:36:18	0	0	0	0	0	0	12.65	1.09	0.32	592759	1	142439	376619	592759	450320	6476	1584	3743	203	281061	2221160	12006
188	2016-10-12 18:46:17	0	0	0	0	0	0	12.66	1.09	0.32	593481	1	142775	376710	593481	450706	6481	1594	3746	203	281112	2221178	12024
189	2016-10-12 18:56:17	0	0	0	0	0	0	12.68	1.09	0.32	594250	1	143147	377814	594250	451103	6488	1594	3748	204	281623	2221193	12034
190	2016-10-12 19:06:22	0	0	0	0	0	0	12.68	1.09	0.32	594922	1	143482	377998	594922	451440	6495	1594	3750	204	281623	2221213	12043
191	2016-10-12 19:16:25	0	0	0	0	0	0	12.68	1.09	0.32	595562	1	143777	378136	595562	451785	6506	1596	3751	204	281752	2221231	12057
192	2016-10-12 19:26:24	0	0	0	0	0	0	12.68	1.09	0.32	596163	1	144045	378206	596163	452118	6510	1598	3752	205	281752	2221257	12065
193	2016-10-12 19:36:17	0	0	0	0	0	0	12.69	1.09	0.32	596764	1	144314	378528	596764	452450	6515	1598	3755	206	281777	2221272	12074
194	2016-10-12 19:46:20	0	0	0	0	0	0	12.69	1.09	0.32	597402	1	144597	378528	597402	452805	6523	1600	3759	207	281777	2221294	12089
195	2016-10-12 19:56:18	0	0	0	0	0	0	12.7	1.09	0.32	598026	1	144893	379479	598026	453133	6527	1602	3760	208	282188	2221306	12097
196	2016-10-12 20:06:17	0	0	0	0	0	0	12.7	1.09	0.32	598677	1	145204	379619	598677	453473	6534	1604	3763	208	282188	2221321	12109
197	2016-10-12 20:16:22	0	0	0	0	0	0	12.72	1.09	0.32	599331	1	145514	379619	599331	453817	6538	1608	3768	209	282600	2221336	12123
198	2016-10-12 20:26:20	0	0	0	0	0	0	12.75	1.09	0.32	599910	1	145800	379990	599910	454110	6543	1610	3769	209	283220	2221357	12131
199	2016-10-12 20:36:20	0	0	0	0	0	0	12.77	1.09	0.32	600518	1	146080	379990	600518	454438	6549	1610	3770	209	283635	2221375	12138
200	2016-10-12 20:46:20	0	0	0	0	0	0	12.78	1.09	0.32	601091	1	146313	379990	601091	454778	6559	1610	3770	209	283947	2221393	12148
201	2016-10-12 20:56:23	0	0	0	0	0	0	12.8	1.09	0.32	601697	1	146559	380737	601697	455138	6567	1612	3773	210	284364	2221419	12162
202	2016-10-12 21:06:27	0	0	0	0	0	0	12.8	1.09	0.32	602351	1	146867	380925	602351	455484	6572	1616	3774	210	284364	2221446	12172
203	2016-10-12 21:16:21	0	0	0	0	0	0	12.8	1.09	0.32	602931	1	147106	380925	602931	455825	6576	1618	3778	210	284364	2221454	12182
204	2016-10-12 21:26:27	0	0	0	0	0	0	12.82	1.09	0.32	603605	1	147433	381606	603605	456172	6588	1622	3780	210	284704	2221470	12200
205	2016-10-12 21:36:20	0	0	0	0	0	0	12.84	1.09	0.32	604300	1	147755	382448	604300	456545	6594	1622	3783	210	285173	2221483	12209
206	2016-10-12 21:46:21	0	0	0	0	0	0	12.85	1.09	0.32	604963	1	148089	383111	604963	456874	6597	1624	3784	210	285541	2221502	12215
207	2016-10-12 21:56:26	0	0	0	0	0	0	12.86	1.09	0.32	605685	1	148413	383487	605685	457272	6603	1624	3788	210	285750	2221528	12225
208	2016-10-12 22:06:21	0	0	0	0	0	0	12.86	1.09	0.32	606312	1	148698	383653	606312	457614	6610	1624	3788	210	285750	2221546	12232
209	2016-10-12 22:16:25	0	0	0	0	0	0	12.86	1.09	0.33	606927	1	148976	383653	606927	457951	6614	1626	3789	210	285750	2221552	12239
210	2016-10-12 22:26:20	0	0	0	0	0	0	12.87	1.09	0.33	607524	1	149229	383987	607524	458295	6617	1626	3789	210	285935	2221560	12242
211	2016-10-12 22:36:19	0	0	0	0	0	0	12.89	1.09	0.33	608110	1	149485	383987	608110	458625	6618	1624	3792	210	286252	2221572	12244
212	2016-10-12 22:46:32	0	0	0	0	0	0	12.89	1.09	0.33	608648	1	149721	383987	608648	458927	6620	1626	3794	210	286252	2221584	12250
213	2016-10-12 22:56:26	0	0	0	0	0	0	12.9	1.09	0.33	609223	1	149955	384189	609223	459268	6628	1626	3795	210	286563	2221590	12259
214	2016-10-12 23:06:30	0	0	0	0	0	0	12.91	1.09	0.33	609729	1	150179	385331	609729	459550	6634	1626	3798	210	286774	2221606	12268
215	2016-10-12 23:16:35	0	0	0	0	0	0	12.92	1.09	0.33	610246	1	150388	385331	610246	459858	6635	1626	3800	210	286934	2221614	12271
216	2016-10-12 23:26:33	0	0	0	0	0	0	12.94	1.09	0.33	610743	1	150595	386483	610743	460148	6636	1630	3802	210	287572	2221625	12278
217	2016-10-12 23:36:27	0	0	0	0	0	0	12.95	1.09	0.33	611079	1	150775	386966	611079	460304	6639	1632	3804	210	287679	2221639	12285
218	2016-10-12 23:46:29	0	0	0	0	0	0	12.95	1.09	0.33	611347	1	150937	386966	611347	460410	6643	1632	3806	210	287679	2221657	12291
219	2016-10-12 23:56:26	0	0	0	0	0	0	12.95	1.09	0.33	611605	1	151104	386966	611605	460501	6648	1632	3807	211	287679	2221660	12298
220	2016-10-13 00:06:28	0	0	0	0	0	0	12.95	1.09	0.33	611801	1	151233	386966	611801	460568	6649	1632	3807	211	287679	2221667	12299
221	2016-10-13 00:16:30	0	0	0	0	0	0	12.95	1.09	0.33	611953	1	151334	386966	611953	460619	6651	1632	3807	211	287679	2221675	12301
222	2016-10-13 00:26:32	0	0	0	0	0	0	12.95	1.09	0.33	612127	1	151449	386966	612127	460678	6654	1632	3807	211	287679	2221679	12304
223	2016-10-13 00:36:35	0	0	0	0	0	0	12.95	1.09	0.33	612273	1	151543	386966	612273	460730	6656	1632	3807	211	287679	2221694	12306
224	2016-10-13 00:46:29	0	0	0	0	0	0	12.95	1.09	0.33	612401	1	151629	386966	612401	460772	6658	1632	3807	211	287679	2221703	12308
225	2016-10-13 00:56:25	0	0	0	0	0	0	12.95	1.09	0.33	612487	1	151683	386966	612487	460804	6658	1632	3808	211	287679	2221714	12309
226	2016-10-13 01:06:31	0	0	0	0	0	0	12.95	1.09	0.33	612553	1	151734	386966	612553	460819	6659	1632	3808	211	287679	2221715	12310
227	2016-10-13 01:16:29	0	0	0	0	0	0	12.95	1.09	0.33	612617	1	151783	386966	612617	460834	6659	1632	3808	211	287679	2221720	12310
228	2016-10-13 01:26:29	0	0	0	0	0	0	12.95	1.09	0.33	612673	1	151828	386966	612673	460845	6659	1632	3808	211	287679	2221726	12310
229	2016-10-13 01:36:27	0	0	0	0	0	0	12.95	1.09	0.33	612716	1	151858	387160	612716	460858	6660	1632	3808	211	287679	2221734	12311
230	2016-10-13 01:46:29	0	0	0	0	0	0	12.95	1.09	0.33	612760	1	151885	387160	612760	460875	6660	1632	3808	211	287679	2221735	12311
231	2016-10-13 01:56:26	0	0	0	0	0	0	12.95	1.09	0.33	612800	1	151912	387160	612800	460888	6660	1632	3808	211	287679	2221738	12311
232	2016-10-13 02:06:28	0	0	0	0	0	0	12.94	1.09	0.33	612844	1	151943	387160	612844	460901	6660	1632	3808	211	287679	2222611	12311
233	2016-10-13 02:16:29	0	0	0	0	0	0	12.94	1.09	0.33	612872	1	151963	387160	612872	460909	6660	1632	3808	211	287679	2222614	12311
234	2016-10-13 02:26:26	0	0	0	0	0	0	12.94	1.09	0.33	612891	1	151975	387160	612891	460916	6660	1632	3808	211	287679	2222617	12311
235	2016-10-13 02:36:35	0	0	0	0	0	0	12.94	1.09	0.33	612921	1	151997	387160	612921	460924	6660	1632	3808	211	287679	2222619	12311
236	2016-10-13 02:46:36	0	0	0	0	0	0	12.94	1.09	0.33	612943	1	152014	387160	612943	460929	6660	1632	3808	211	287679	2222620	12311
237	2016-10-13 02:56:33	0	0	0	0	0	0	12.94	1.09	0.33	612967	1	152035	387160	612967	460932	6660	1632	3808	211	287679	2222621	12311
238	2016-10-13 03:06:37	0	0	0	0	0	0	12.94	1.09	0.33	612990	1	152055	387160	612990	460935	6660	1632	3808	211	287679	2222623	12311
239	2016-10-13 03:16:35	0	0	0	0	0	0	12.94	1.09	0.33	613007	1	152071	387160	613007	460936	6660	1632	3808	211	287679	2222623	12311
240	2016-10-13 03:26:30	0	0	0	0	0	0	12.94	1.09	0.33	613027	1	152083	387160	613027	460944	6660	1632	3808	211	287679	2222626	12311
241	2016-10-13 03:36:35	0	0	0	0	0	0	12.94	1.09	0.33	613041	1	152094	387160	613041	460947	6660	1632	3808	211	287679	2222625	12311
242	2016-10-13 03:46:40	0	0	0	0	0	0	12.94	1.09	0.33	613055	1	152106	387160	613055	460949	6660	1632	3808	211	287679	2222624	12311
243	2016-10-13 03:56:35	0	0	0	0	0	0	12.94	1.09	0.33	613070	1	152117	387160	613070	460953	6660	1632	3808	211	287679	2222623	12311
244	2016-10-13 04:06:30	0	0	0	0	0	0	12.94	1.09	0.33	613086	1	152128	387160	613086	460958	6660	1632	3808	211	287679	2222623	12311
245	2016-10-13 04:16:38	0	0	0	0	0	0	12.94	1.09	0.33	613101	1	152137	387160	613101	460964	6660	1632	3808	211	287679	2222623	12311
246	2016-10-13 04:26:38	0	0	0	0	0	0	12.94	1.09	0.33	613116	1	152147	387160	613116	460969	6660	1632	3808	211	287679	2222623	12311
247	2016-10-13 04:36:36	0	0	0	0	0	0	12.94	1.09	0.33	613132	1	152162	387160	613132	460970	6660	1632	3808	211	287679	2222623	12311
248	2016-10-13 04:46:41	0	0	0	0	0	0	12.94	1.09	0.33	613149	1	152175	387160	613149	460974	6660	1632	3808	211	287679	2222625	12311
249	2016-10-13 04:56:31	0	0	0	0	0	0	12.94	1.09	0.33	613164	1	152186	387160	613164	460978	6661	1632	3808	211	287679	2222626	12312
250	2016-10-13 05:06:35	0	0	0	0	0	0	12.94	1.09	0.33	613178	1	152199	387160	613178	460979	6661	1632	3808	211	287679	2222626	12312
251	2016-10-13 05:16:36	0	0	0	0	0	0	12.94	1.09	0.33	613189	1	152210	387160	613189	460979	6661	1632	3808	211	287679	2222628	12312
252	2016-10-13 05:26:34	0	0	0	0	0	0	12.94	1.09	0.33	613215	1	152229	387160	613215	460986	6661	1632	3808	211	287679	2222632	12312
253	2016-10-13 05:36:32	0	0	0	0	0	0	12.94	1.09	0.33	613236	1	152243	387160	613236	460993	6661	1632	3808	211	287679	2222634	12312
254	2016-10-13 05:46:46	0	0	0	0	0	0	12.94	1.09	0.33	613260	1	152261	387160	613260	460999	6661	1632	3808	211	287679	2222634	12312
255	2016-10-13 05:56:42	0	0	0	0	0	0	12.94	1.09	0.33	613292	1	152290	387160	613292	461002	6661	1634	3808	211	287679	2222633	12314
256	2016-10-13 06:06:43	0	0	0	0	0	0	12.94	1.09	0.33	613325	1	152317	387160	613325	461008	6662	1634	3808	211	287679	2222633	12315
257	2016-10-13 06:16:36	0	0	0	0	0	0	12.94	1.09	0.33	613356	1	152344	387160	613356	461012	6663	1634	3808	211	287679	2222638	12316
258	2016-10-13 06:26:44	0	0	0	0	0	0	12.94	1.09	0.33	613387	1	152371	387160	613387	461016	6663	1634	3809	211	287679	2222639	12317
259	2016-10-13 06:36:42	0	0	0	0	0	0	12.95	1.09	0.33	613426	1	152405	387257	613426	461021	6664	1634	3809	211	287733	2222645	12318
260	2016-10-13 06:46:47	0	0	0	0	0	0	12.95	1.09	0.33	613464	1	152434	387257	613464	461030	6664	1634	3809	211	287733	2222649	12318
261	2016-10-13 06:56:45	0	0	0	0	0	0	12.95	1.09	0.33	613514	1	152476	387257	613514	461038	6664	1634	3809	211	287733	2222658	12318
262	2016-10-13 07:06:47	0	0	0	0	0	0	12.95	1.09	0.33	613556	1	152513	387257	613556	461043	6664	1634	3809	211	287733	2222670	12318
263	2016-10-13 07:16:44	0	0	0	0	0	0	12.95	1.09	0.33	613617	1	152568	387257	613617	461049	6664	1634	3809	211	287733	2222675	12318
264	2016-10-13 07:26:51	0	0	0	0	0	0	12.95	1.09	0.33	613682	1	152619	387451	613682	461063	6664	1634	3809	211	287733	2222683	12318
265	2016-10-13 07:36:49	0	0	0	0	0	0	12.95	1.09	0.33	613743	1	152669	387451	613743	461074	6665	1634	3809	211	287733	2222689	12319
266	2016-10-13 07:46:55	0	0	0	0	0	0	12.95	1.09	0.33	613809	1	152722	387451	613809	461087	6667	1634	3809	211	287733	2222700	12321
267	2016-10-13 07:56:44	0	0	0	0	0	0	12.95	1.09	0.33	613866	1	152772	387451	613866	461094	6670	1634	3809	211	287733	2222713	12324
268	2016-10-13 08:07:04	0	0	0	0	0	0	12.95	1.09	0.33	613926	1	152820	387451	613926	461106	6670	1634	3810	211	287733	2222724	12325
269	2016-10-13 08:16:50	0	0	0	0	0	0	12.94	1.09	0.33	613993	1	152872	387451	613993	461121	6670	1634	3811	211	287733	2222737	12326
270	2016-10-13 08:26:58	0	0	0	0	0	0	12.94	1.09	0.33	614067	1	152937	387451	614067	461130	6671	1636	3811	211	287733	2222748	12329
271	2016-10-13 08:36:49	0	0	0	0	0	0	12.94	1.09	0.33	614132	1	152996	387451	614132	461136	6672	1636	3811	211	287733	2222754	12330
272	2016-10-13 08:47:03	0	0	0	0	0	0	12.94	1.09	0.33	614192	1	153048	387742	614192	461144	6672	1636	3811	211	287733	2222766	12330
273	2016-10-13 08:56:57	0	0	0	0	0	0	12.94	1.09	0.33	614265	1	153107	387742	614265	461158	6672	1636	3811	211	287733	2222772	12330
274	2016-10-13 09:07:05	0	0	0	0	0	0	12.94	1.09	0.33	614325	1	153161	387742	614325	461164	6672	1636	3811	211	287733	2222779	12330
275	2016-10-13 09:17:10	0	0	0	0	0	0	12.94	1.09	0.33	614393	1	153214	387742	614393	461179	6673	1636	3811	211	287733	2222786	12331
276	2016-10-13 09:27:25	0	0	0	0	0	0	12.94	1.09	0.33	614461	1	153277	387742	614461	461184	6673	1636	3811	211	287733	2222793	12331
277	2016-10-13 09:36:50	0	0	0	0	0	0	12.94	1.09	0.33	614529	1	153337	387742	614529	461192	6674	1636	3811	211	287733	2222805	12332
278	2016-10-13 09:46:52	0	0	0	0	0	0	12.94	1.09	0.33	614602	1	153401	387742	614602	461201	6674	1636	3811	211	287733	2222811	12332
279	2016-10-13 09:56:48	0	0	0	0	0	0	12.94	1.09	0.33	614685	1	153465	387742	614685	461220	6674	1636	3811	211	287733	2222823	12332
280	2016-10-13 10:06:59	0	0	0	0	0	0	12.94	1.09	0.33	614749	1	153523	387839	614749	461226	6675	1636	3811	211	287733	2222830	12333
281	2016-10-13 10:17:08	0	0	0	0	0	0	12.94	1.09	0.33	614806	1	153574	387839	614806	461232	6676	1636	3811	211	287733	2222846	12334
282	2016-10-13 10:27:09	0	0	0	0	0	0	12.94	1.09	0.33	614873	1	153632	387839	614873	461241	6676	1636	3811	211	287733	2222855	12334
283	2016-10-13 10:36:33	0	0	0	0	0	0	12.94	1.09	0.33	614923	1	153674	387839	614923	461249	6677	1636	3811	211	287733	2222872	12335
284	2016-10-13 10:46:30	0	0	0	0	0	0	12.94	1.09	0.33	614982	1	153725	387839	614982	461257	6677	1636	3811	211	287733	2222885	12335
285	2016-10-13 10:56:31	0	0	0	0	0	0	12.94	1.09	0.33	615040	1	153773	387839	615040	461267	6677	1636	3811	211	287733	2222895	12335
286	2016-10-13 11:06:32	0	0	0	0	0	0	12.94	1.09	0.33	615087	1	153811	387839	615087	461276	6678	1636	3811	211	287733	2222905	12336
287	2016-10-13 11:16:29	0	0	0	0	0	0	12.94	1.09	0.33	615128	1	153851	387839	615128	461277	6678	1636	3811	211	287733	2222920	12336
288	2016-10-13 11:26:32	0	0	0	0	0	0	12.94	1.09	0.33	615169	1	153887	387839	615169	461282	6678	1636	3811	211	287733	2222927	12336
289	2016-10-13 11:28:59	0	0	0	0	0	0	12.94	1.09	0.33	615169	1	153887	387839	615169	461282	6678	1636	3811	211	287733	2222929	12336
290	2016-10-13 11:37:26	0	0	0	0	0	0	12.94	1.09	0.33	615213	1	153925	387839	615213	461288	6678	1636	3811	211	287733	2222944	12336
291	2016-10-13 11:43:21	0	0	0	0	0	0	12.94	1.09	0.33	615232	1	153944	387839	615232	461288	6678	1636	3811	211	287733	2222948	12336
292	2016-10-13 11:51:47	0	0	0	0	0	0	12.94	1.09	0.33	615276	1	153984	387839	615276	461292	6679	1636	3811	211	287733	2222953	12337
293	2016-10-13 12:01:56	0	0	0	0	0	0	12.94	1.09	0.33	615321	1	154024	387839	615321	461297	6679	1636	3812	211	287733	2222968	12338
294	2016-10-13 12:11:53	0	0	0	0	0	0	12.94	1.09	0.33	615352	1	154052	387839	615352	461300	6680	1636	3812	211	287733	2222978	12339
295	2016-10-13 12:21:57	0	0	0	0	0	0	12.94	1.09	0.33	615382	1	154076	387839	615382	461306	6680	1636	3812	211	287733	2222990	12339
296	2016-10-13 12:23:36	0	0	0	0	0	0	12.94	1.09	0.33	615382	1	154076	387839	615382	461306	6680	1636	3812	211	287733	2222992	12339
297	2016-10-13 12:33:46	0	0	0	0	0	0	12.94	1.09	0.33	615430	1	154120	387839	615430	461310	6680	1636	3812	211	287733	2222997	12339
298	2016-10-13 12:43:43	0	0	0	0	0	0	12.94	1.09	0.33	615476	1	154154	387985	615476	461322	6681	1636	3812	211	287733	2223006	12340
299	2016-10-13 12:53:43	0	0	0	0	0	0	12.94	1.09	0.33	615514	1	154188	387985	615514	461326	6681	1636	3812	211	287733	2223012	12340
300	2016-10-13 13:03:39	0	0	0	0	0	0	12.94	1.09	0.33	615553	1	154221	387985	615553	461332	6681	1636	3812	211	287733	2223022	12340
301	2016-10-13 13:13:31	0	0	0	0	0	0	12.94	1.09	0.33	615581	1	154244	387985	615581	461337	6683	1636	3812	211	287733	2223035	12342
302	2016-10-13 13:23:30	0	0	0	0	0	0	12.94	1.09	0.33	615607	1	154268	387985	615607	461339	6683	1636	3812	211	287733	2223051	12342
303	2016-10-13 13:33:35	0	0	0	0	0	0	12.94	1.09	0.33	615643	1	154302	387985	615643	461341	6683	1636	3812	211	287733	2223071	12342
304	2016-10-13 13:43:28	0	0	0	0	0	0	12.94	1.09	0.33	615684	1	154339	387985	615684	461345	6684	1636	3812	211	287733	2223089	12343
305	2016-10-13 13:53:40	0	0	0	0	0	0	12.94	1.09	0.33	615713	1	154366	387985	615713	461347	6684	1636	3812	211	287733	2223110	12343
306	2016-10-13 14:03:40	0	0	0	0	0	0	12.94	1.09	0.33	615713	1	154366	387985	615713	461347	6684	1636	3812	211	287733	2223119	12343
307	2016-10-13 14:13:32	0	0	0	0	0	0	12.94	1.09	0.33	615786	1	154426	387985	615786	461360	6684	1636	3812	211	287733	2223121	12343
308	2016-10-13 14:23:41	0	0	0	0	0	0	12.94	1.09	0.33	615821	1	154457	387985	615821	461364	6684	1636	3812	211	287733	2223133	12343
309	2016-10-13 14:33:40	0	0	0	0	0	0	12.94	1.09	0.33	615848	1	154481	387985	615848	461367	6685	1636	3812	211	287733	2223147	12344
310	2016-10-13 14:43:30	0	0	0	0	0	0	12.94	1.09	0.33	615883	1	154505	387985	615883	461378	6686	1636	3812	211	287733	2223163	12345
311	2016-10-13 14:53:39	0	0	0	0	0	0	12.94	1.09	0.33	615918	1	154533	387985	615918	461385	6687	1636	3812	211	287733	2223182	12346
312	2016-10-13 15:03:32	0	0	0	0	0	0	12.94	1.09	0.33	615946	1	154559	387985	615946	461387	6687	1636	3812	211	287733	2223189	12346
313	2016-10-13 15:13:40	0	0	0	0	0	0	12.94	1.09	0.34	615965	1	154574	387985	615965	461391	6687	1636	3812	211	287733	2223212	12346
314	2016-10-13 15:23:37	0	0	0	0	0	0	12.94	1.09	0.34	615998	1	154603	387985	615998	461395	6687	1636	3812	211	287733	2223221	12346
315	2016-10-13 15:33:33	0	0	0	0	0	0	12.94	1.09	0.34	616025	1	154628	387985	616025	461397	6688	1636	3812	211	287733	2223234	12347
316	2016-10-13 15:43:35	0	0	0	0	0	0	12.94	1.09	0.34	616058	1	154656	387985	616058	461402	6688	1636	3812	211	287733	2223250	12347
317	2016-10-13 15:53:39	0	0	0	0	0	0	12.94	1.09	0.34	616104	1	154689	387985	616104	461415	6688	1636	3812	211	287733	2223275	12347
318	2016-10-13 16:03:31	0	0	0	0	0	0	12.94	1.09	0.34	616136	1	154714	387985	616136	461422	6690	1636	3812	211	287733	2223305	12349
319	2016-10-13 16:13:38	0	0	0	0	0	0	12.94	1.09	0.34	616158	1	154732	387985	616158	461426	6690	1636	3812	211	287733	2223347	12349
320	2016-10-13 16:23:37	0	0	0	0	0	0	12.94	1.09	0.34	616184	1	154753	387985	616184	461431	6690	1636	3812	211	287733	2223392	12349
321	2016-10-13 16:33:37	0	0	0	0	0	0	12.94	1.09	0.34	616208	1	154771	387985	616208	461437	6690	1636	3812	211	287733	2223425	12349
322	2016-10-13 16:43:37	0	0	0	0	0	0	12.94	1.09	0.34	616244	1	154795	387985	616244	461449	6690	1636	3812	211	287733	2223457	12349
323	2016-10-13 16:53:29	0	0	0	0	0	0	12.94	1.09	0.34	616278	1	154823	387985	616278	461455	6691	1636	3812	211	287733	2223491	12350
324	2016-10-13 17:03:39	0	0	0	0	0	0	12.94	1.09	0.34	616304	1	154844	387985	616304	461460	6691	1634	3812	210	287733	2223515	12347
325	2016-10-13 17:13:30	0	0	0	0	0	0	12.94	1.09	0.34	616332	1	154867	387985	616332	461465	6691	1634	3812	210	287733	2223533	12347
326	2016-10-13 17:23:31	0	0	0	0	0	0	12.94	1.09	0.34	616366	1	154898	387985	616366	461468	6691	1634	3812	210	287733	2223573	12347
327	2016-10-13 17:33:40	0	0	0	0	0	0	12.94	1.09	0.34	616388	1	154914	387985	616388	461474	6691	1634	3812	210	287733	2223608	12347
328	2016-10-13 17:43:43	0	0	0	0	0	0	12.94	1.09	0.34	616417	1	154934	388021	616417	461483	6691	1634	3812	210	287733	2223639	12347
329	2016-10-13 17:49:44	0	0	0	0	0	0	12.94	1.09	0.34	616433	1	154945	388021	616433	461488	6691	1634	3812	210	287733	2223658	12347
330	2016-10-13 17:59:36	0	0	0	0	0	0	12.94	1.09	0.34	616459	1	154966	388021	616459	461493	6691	1634	3812	210	287733	2223684	12347
331	2016-10-13 18:09:31	0	0	0	0	0	0	12.94	1.09	0.34	616484	1	154986	388021	616484	461498	6691	1634	3812	210	287733	2223685	12347
332	2016-10-13 18:19:27	0	0	0	0	0	0	12.94	1.09	0.34	616510	1	155008	388021	616510	461502	6691	1634	3812	210	287733	2223710	12347
333	2016-10-13 18:29:28	0	0	0	0	0	0	12.94	1.09	0.34	616539	1	155026	388021	616539	461513	6691	1634	3812	210	287733	2223722	12347
334	2016-10-13 18:39:30	0	0	0	0	0	0	12.94	1.09	0.34	616564	1	155042	388021	616564	461522	6691	1634	3812	210	287733	2223748	12347
335	2016-10-13 18:49:30	0	0	0	0	0	0	12.94	1.09	0.34	616607	1	155072	388021	616607	461535	6692	1634	3812	210	287733	2223780	12348
336	2016-10-13 18:59:30	0	0	0	0	0	0	12.94	1.09	0.34	616630	1	155087	388021	616630	461543	6692	1634	3812	210	287733	2223803	12348
337	2016-10-13 19:09:30	0	0	0	0	0	0	12.94	1.09	0.34	616669	1	155118	388021	616669	461551	6692	1634	3812	210	287733	2223830	12348
338	2016-10-13 19:19:30	0	0	0	0	0	0	12.94	1.09	0.34	616704	1	155138	388021	616704	461566	6693	1634	3812	210	287733	2223861	12349
339	2016-10-13 19:29:21	0	0	0	0	0	0	12.94	1.09	0.34	616725	1	155156	388021	616725	461569	6693	1634	3812	210	287733	2223897	12349
340	2016-10-13 19:39:25	0	0	0	0	0	0	12.94	1.09	0.34	616749	1	155176	388021	616749	461573	6693	1634	3812	210	287733	2223917	12349
341	2016-10-13 19:49:28	0	0	0	0	0	0	12.94	1.09	0.34	616779	1	155197	388021	616779	461582	6693	1634	3812	210	287733	2223951	12349
342	2016-10-13 19:59:30	0	0	0	0	0	0	12.94	1.09	0.34	616811	1	155224	388021	616811	461587	6693	1634	3812	210	287733	2223983	12349
343	2016-10-13 20:09:33	0	0	0	0	0	0	12.94	1.09	0.34	616839	1	155245	388021	616839	461594	6693	1634	3812	210	287733	2224030	12349
344	2016-10-13 20:19:31	0	0	0	0	0	0	12.94	1.08	0.34	616870	1	155270	388021	616870	461600	6693	1634	3812	210	287733	2224074	12349
345	2016-10-13 20:29:23	0	0	0	0	0	0	12.94	1.08	0.34	616903	1	155296	388021	616903	461607	6693	1634	3812	210	287733	2224111	12349
346	2016-10-13 20:39:22	0	0	0	0	0	0	12.94	1.08	0.34	616928	1	155316	388021	616928	461612	6693	1634	3812	210	287733	2224162	12349
347	2016-10-13 20:49:24	0	0	0	0	0	0	12.94	1.08	0.34	616956	1	155338	388021	616956	461618	6693	1636	3813	210	287733	2224195	12352
348	2016-10-13 20:59:32	0	0	0	0	0	0	12.94	1.08	0.34	616982	1	155359	388021	616982	461623	6693	1636	3813	210	287733	2224237	12352
349	2016-10-13 21:09:41	0	0	0	0	0	0	12.94	1.08	0.34	617010	1	155378	388021	617010	461632	6693	1636	3813	210	287733	2224273	12352
350	2016-10-13 21:19:34	0	0	0	0	0	0	12.94	1.08	0.34	617033	1	155395	388021	617033	461638	6693	1636	3813	210	287733	2224310	12352
351	2016-10-13 21:29:30	0	0	0	0	0	0	12.94	1.08	0.34	617065	1	155422	388021	617065	461643	6693	1636	3813	210	287733	2224356	12352
352	2016-10-13 21:39:23	0	0	0	0	0	0	12.94	1.08	0.34	617081	1	155434	388021	617081	461647	6693	1636	3813	210	287733	2224386	12352
353	2016-10-13 21:49:43	0	0	0	0	0	0	12.94	1.08	0.34	617106	1	155455	388021	617106	461651	6693	1636	3813	210	287733	2224431	12352
354	2016-10-13 21:59:28	0	0	0	0	0	0	12.93	1.08	0.34	617134	1	155474	388021	617134	461660	6693	1636	3813	210	287733	2224464	12352
355	2016-10-13 22:09:46	0	0	0	0	0	0	12.93	1.08	0.34	617161	1	155493	388021	617161	461668	6693	1636	3813	210	287733	2224488	12352
356	2016-10-13 22:19:32	0	0	0	0	0	0	12.93	1.08	0.34	617200	1	155521	388021	617200	461679	6693	1636	3813	210	287733	2224522	12352
357	2016-10-13 22:29:24	0	0	0	0	0	0	12.93	1.08	0.34	617229	1	155541	388021	617229	461688	6693	1636	3814	210	287733	2224542	12353
358	2016-10-13 22:39:32	0	0	0	0	0	0	12.93	1.08	0.34	617273	1	155576	388021	617273	461697	6693	1636	3814	210	287733	2224574	12353
359	2016-10-13 22:49:31	0	0	0	0	0	0	12.93	1.08	0.34	617291	1	155588	388021	617291	461703	6694	1636	3814	210	287733	2224612	12354
360	2016-10-13 22:59:32	0	0	0	0	0	0	12.93	1.08	0.34	617323	1	155608	388216	617323	461715	6695	1636	3814	210	287733	2224636	12355
361	2016-10-13 23:09:23	0	0	0	0	0	0	12.93	1.08	0.34	617355	1	155633	388216	617355	461722	6695	1636	3813	210	287733	2224666	12354
362	2016-10-13 23:19:33	0	0	0	0	0	0	12.93	1.08	0.34	617379	1	155647	388216	617379	461732	6696	1636	3813	210	287733	2224675	12355
363	2016-10-13 23:29:31	0	0	0	0	0	0	12.93	1.08	0.34	617406	1	155665	388216	617406	461741	6697	1636	3813	210	287733	2224703	12356
364	2016-10-13 23:39:31	0	0	0	0	0	0	12.93	1.09	0.34	617428	1	155682	388216	617428	461746	6700	1636	3813	210	287733	2224732	12359
365	2016-10-13 23:49:24	0	0	0	0	0	0	12.93	1.09	0.34	617440	1	155690	388216	617440	461750	6700	1636	3813	210	287733	2224746	12359
366	2016-10-13 23:59:24	0	0	0	0	0	0	12.93	1.09	0.34	617457	1	155704	388216	617457	461753	6700	1636	3813	210	287733	2224763	12359
367	2016-10-14 00:09:25	0	0	0	0	0	0	12.93	1.09	0.34	617469	1	155713	388216	617469	461756	6700	1636	3813	210	287733	2224775	12359
368	2016-10-14 00:19:31	0	0	0	0	0	0	12.93	1.09	0.34	617474	1	155717	388216	617474	461757	6700	1636	3813	210	287733	2224793	12359
369	2016-10-14 00:29:35	0	0	0	0	0	0	12.93	1.09	0.34	617481	1	155723	388216	617481	461758	6700	1636	3813	210	287733	2224813	12359
370	2016-10-14 00:39:27	0	0	0	0	0	0	12.93	1.09	0.34	617493	1	155728	388216	617493	461765	6700	1636	3813	210	287733	2224820	12359
371	2016-10-14 00:49:38	0	0	0	0	0	0	12.93	1.09	0.34	617499	1	155732	388216	617499	461767	6700	1636	3813	210	287733	2224832	12359
372	2016-10-14 00:59:44	0	0	0	0	0	0	12.93	1.09	0.34	617507	1	155736	388216	617507	461771	6700	1636	3813	210	287733	2224855	12359
373	2016-10-14 01:09:38	0	0	0	0	0	0	12.93	1.09	0.34	617511	1	155740	388216	617511	461771	6700	1636	3813	210	287733	2224869	12359
374	2016-10-14 01:19:36	0	0	0	0	0	0	12.93	1.08	0.34	617517	1	155745	388216	617517	461772	6700	1636	3813	210	287733	2224880	12359
375	2016-10-14 01:29:36	0	0	0	0	0	0	12.93	1.08	0.34	617522	1	155749	388216	617522	461773	6700	1636	3813	210	287733	2224887	12359
376	2016-10-14 01:39:36	0	0	0	0	0	0	12.93	1.09	0.34	617526	1	155751	388216	617526	461775	6701	1636	3813	210	287733	2224897	12360
377	2016-10-14 01:49:37	0	0	0	0	0	0	12.93	1.09	0.34	617530	1	155755	388216	617530	461775	6701	1636	3813	210	287733	2224905	12360
378	2016-10-14 01:59:35	0	0	0	0	0	0	12.93	1.09	0.34	617531	1	155755	388216	617531	461776	6701	1636	3813	210	287733	2224907	12360
379	2016-10-14 02:09:43	0	0	0	0	0	0	12.93	1.09	0.34	617533	1	155756	388216	617533	461777	6701	1636	3813	210	287733	2224820	12360
380	2016-10-14 02:19:35	0	0	0	0	0	0	12.93	1.09	0.34	617535	1	155758	388216	617535	461777	6701	1636	3813	210	287733	2224823	12360
381	2016-10-14 02:29:46	0	0	0	0	0	0	12.93	1.09	0.34	617537	1	155758	388216	617537	461779	6701	1636	3813	210	287733	2224827	12360
382	2016-10-14 02:39:48	0	0	0	0	0	0	12.93	1.09	0.34	617538	1	155759	388216	617538	461779	6701	1636	3813	210	287733	2224829	12360
383	2016-10-14 02:49:38	0	0	0	0	0	0	12.93	1.09	0.34	617542	1	155761	388216	617542	461781	6701	1636	3813	210	287733	2224833	12360
384	2016-10-14 02:59:36	0	0	0	0	0	0	12.93	1.09	0.34	617544	1	155763	388216	617544	461781	6701	1636	3813	210	287733	2224838	12360
385	2016-10-14 03:09:39	0	0	0	0	0	0	12.93	1.09	0.34	617545	1	155763	388216	617545	461782	6701	1636	3813	210	287733	2224841	12360
386	2016-10-14 03:19:38	0	0	0	0	0	0	12.93	1.09	0.34	617548	1	155765	388216	617548	461783	6701	1636	3813	210	287733	2224852	12360
387	2016-10-14 03:29:39	0	0	0	0	0	0	12.93	1.09	0.34	617548	1	155765	388216	617548	461783	6701	1636	3813	210	287733	2224855	12360
388	2016-10-14 03:39:40	0	0	0	0	0	0	12.93	1.09	0.34	617548	1	155765	388216	617548	461783	6701	1636	3813	210	287733	2224857	12360
389	2016-10-14 03:49:40	0	0	0	0	0	0	12.93	1.09	0.34	617549	1	155765	388216	617549	461784	6701	1636	3813	210	287733	2224859	12360
390	2016-10-14 03:59:46	0	0	0	0	0	0	12.93	1.09	0.34	617550	1	155766	388216	617550	461784	6701	1636	3813	210	287733	2224862	12360
391	2016-10-14 04:09:50	0	0	0	0	0	0	12.93	1.09	0.34	617551	1	155767	388216	617551	461784	6701	1636	3813	210	287733	2224865	12360
392	2016-10-14 04:19:40	0	0	0	0	0	0	12.93	1.09	0.34	617553	1	155769	388216	617553	461784	6701	1636	3813	210	287733	2224868	12360
393	2016-10-14 04:29:38	0	0	0	0	0	0	12.93	1.09	0.34	617553	1	155769	388216	617553	461784	6701	1636	3813	210	287733	2224871	12360
394	2016-10-14 04:39:50	0	0	0	0	0	0	12.93	1.09	0.34	617556	1	155772	388216	617556	461784	6701	1636	3813	210	287733	2224875	12360
395	2016-10-14 04:49:43	0	0	0	0	0	0	12.93	1.09	0.34	617556	1	155772	388216	617556	461784	6701	1636	3813	210	287733	2224882	12360
396	2016-10-14 04:59:50	0	0	0	0	0	0	12.93	1.09	0.34	617559	1	155775	388216	617559	461784	6701	1636	3813	210	287733	2224886	12360
397	2016-10-14 05:09:57	0	0	0	0	0	0	12.93	1.09	0.34	617559	1	155775	388216	617559	461784	6701	1636	3813	210	287733	2224889	12360
398	2016-10-14 05:19:41	0	0	0	0	0	0	12.93	1.09	0.34	617559	1	155775	388216	617559	461784	6701	1636	3813	210	287733	2224893	12360
399	2016-10-14 05:29:56	0	0	0	0	0	0	12.93	1.09	0.34	617559	1	155775	388216	617559	461784	6701	1636	3813	210	287733	2224903	12360
400	2016-10-14 05:39:51	0	0	0	0	0	0	12.93	1.09	0.34	617561	1	155777	388216	617561	461784	6701	1636	3813	210	287733	2224905	12360
401	2016-10-14 05:49:55	0	0	0	0	0	0	12.93	1.09	0.34	617562	1	155778	388216	617562	461784	6701	1636	3813	210	287733	2224918	12360
402	2016-10-14 05:59:57	0	0	0	0	0	0	12.93	1.09	0.34	617563	1	155779	388216	617563	461784	6701	1636	3813	210	287733	2224923	12360
403	2016-10-14 06:09:45	0	0	0	0	0	0	12.93	1.09	0.34	617564	1	155779	388216	617564	461785	6701	1636	3813	210	287733	2224937	12360
404	2016-10-14 06:19:39	0	0	0	0	0	0	12.93	1.09	0.34	617567	1	155781	388216	617567	461786	6701	1636	3813	210	287733	2224956	12360
