1	2016-06-01 12:08:36	0	0	0	0	0	0	0	0	0	0	0	0	0	0	0	0	0	0	0	0	1837773	0
2	2016-06-01 12:18:31	0	0	0	0	0	0	0.96	0.81	0.01	20301	0	248	17845	20301	20053	165	27	172	9	17630	1837779	373
3	2016-06-01 12:28:31	0	0	0	0	0	0	2.89	1.12	0.04	65340	0	2675	55110	65340	62665	729	102	585	27	53064	1837788	1443
4	2016-06-01 12:38:33	0	0	0	0	0	0	3.5	1.21	0.05	81378	0	4159	68088	81378	77219	987	128	729	38	64344	1837805	1882
5	2016-06-01 12:48:32	0	0	0	0	0	0	4.59	1.3	0.08	112658	0	7914	90560	112658	104744	1461	181	1005	58	84394	1837820	2705
6	2016-06-01 12:58:33	0	0	0	0	0	0	5.47	1.42	0.1	140901	0	12359	109317	140901	128542	2001	223	1225	73	100519	1837836	3522
7	2016-06-01 13:08:33	0	0	0	0	0	0	5.79	1.44	0.1	153124	0	14472	116310	153124	138652	2212	237	1319	78	106443	1837855	3846
8	2016-06-01 13:18:32	0	0	0	0	0	0	6.35	1.48	0.12	173038	0	18285	128932	173038	154753	2561	257	1460	88	116748	1837869	4366
9	2016-06-01 13:28:34	0	0	0	0	0	0	6.61	1.5	0.12	183329	0	20332	134959	183329	162997	2746	270	1525	96	121535	1837882	4637
10	2016-06-01 13:38:33	0	0	0	0	0	0	7.2	1.51	0.14	204018	0	24712	150751	204018	179306	3077	299	1682	106	132320	1837902	5164
11	2016-06-01 13:48:34	0	0	0	0	0	0	7.48	1.51	0.14	212829	0	26634	157286	212829	186195	3214	310	1742	115	137489	1837928	5381
12	2016-06-01 13:58:34	0	0	0	0	0	0	7.82	1.52	0.15	230566	0	30756	165938	230566	199810	3497	328	1867	138	143702	1837947	5830
13	2016-06-01 14:08:34	0	0	0	0	0	0	7.95	1.52	0.16	239004	0	32904	169841	239004	206100	3631	337	1920	142	146188	1837975	6030
14	2016-06-01 14:18:38	0	0	0	0	0	0	8.24	1.52	0.17	252344	0	36247	176015	252344	216097	3847	351	2009	159	151523	1837991	6366
15	2016-06-01 14:28:34	0	0	0	0	0	0	8.56	1.54	0.18	264973	0	39561	181925	264973	225412	4070	370	2117	167	157307	1838006	6724
16	2016-06-01 14:38:35	0	0	0	0	0	0	8.75	1.54	0.18	271378	0	41331	186965	271378	230047	4177	380	2166	173	160811	1838026	6896
17	2016-06-01 14:48:35	0	0	0	0	0	0	9.1	1.56	0.19	285121	0	45258	198519	285121	239863	4440	398	2272	178	167315	1838045	7288
18	2016-06-01 14:58:35	0	0	0	0	0	0	9.27	1.56	0.19	292712	0	47444	201330	292712	245268	4575	404	2316	183	170369	1838060	7478
19	2016-06-01 15:08:37	0	0	0	0	0	0	9.4	1.57	0.2	298488	0	49065	204606	298488	249423	4687	412	2356	184	172692	1838070	7639
20	2016-06-01 15:18:35	0	0	0	0	0	0	9.67	1.57	0.2	311338	0	52613	211449	311338	258725	4891	431	2452	194	177664	1838092	7968
21	2016-06-01 15:28:35	0	0	0	0	0	0	10.04	1.57	0.21	322898	0	55829	220795	322898	267069	5078	440	2526	203	184463	1838110	8247
22	2016-06-01 15:38:35	0	0	0	0	0	0	10.11	1.57	0.21	328439	0	57384	222732	328439	271055	5172	444	2562	206	185762	1838123	8384
23	2016-06-01 15:48:36	0	0	0	0	0	0	10.27	1.57	0.22	339623	0	60697	227767	339623	278926	5334	456	2634	230	188812	1838154	8654
24	2016-06-01 15:58:37	0	0	0	0	0	0	10.42	1.57	0.22	344536	0	62237	231821	344536	282299	5415	460	2673	237	191591	1838192	8785
25	2016-06-01 16:08:36	0	0	0	0	0	0	10.62	1.57	0.23	354315	0	65261	238169	354315	289054	5569	467	2752	248	195193	1838225	9036
26	2016-06-01 16:18:36	0	0	0	0	0	0	10.7	1.57	0.23	358723	0	66566	241191	358723	292157	5630	469	2778	249	196617	1838264	9126
27	2016-06-01 16:28:35	0	0	0	0	0	0	10.98	1.58	0.23	367968	0	69456	247002	367968	298512	5818	481	2849	252	201913	1838297	9400
28	2016-06-01 16:38:36	0	0	0	0	0	0	11.05	1.58	0.23	372347	0	70784	249394	372347	301563	5884	486	2876	253	203219	1838322	9499
29	2016-06-01 16:48:38	0	0	0	0	0	0	11.22	1.58	0.24	382778	0	73937	255719	382778	308841	6047	498	2953	263	206297	1838360	9761
30	2016-06-01 16:58:39	0	0	0	0	0	0	11.31	1.58	0.24	387813	0	75551	258298	387813	312262	6127	504	2978	267	207988	1838384	9876
31	2016-06-01 17:08:41	0	0	0	0	0	0	11.45	1.58	0.25	395543	0	78159	262377	395543	317384	6263	512	3033	271	210447	1838412	10079
32	2016-06-01 17:18:35	0	0	0	0	0	0	11.55	1.59	0.25	399241	0	79421	264778	399241	319820	6335	514	3061	273	212280	1838440	10183
33	2016-06-01 17:28:35	0	0	0	0	0	0	11.78	1.59	0.25	406658	0	81919	269185	406658	324739	6459	518	3113	277	216487	1838458	10367
34	2016-06-01 17:38:35	0	0	0	0	0	0	11.86	1.59	0.25	409684	0	82932	270632	409684	326752	6522	519	3126	281	218111	1838483	10448
35	2016-06-01 17:48:35	0	0	0	0	0	0	12.11	1.59	0.26	417315	0	85461	276347	417315	331854	6647	528	3174	283	222638	1838517	10632
36	2016-06-01 17:58:37	0	0	0	0	0	0	12.2	1.6	0.26	421304	0	86732	278440	421304	334572	6727	534	3205	288	224274	1838546	10754
37	2016-06-01 18:08:36	0	0	0	0	0	0	12.34	1.6	0.26	428489	0	89122	282351	428489	339367	6838	547	3262	301	226791	1838571	10948
38	2016-06-01 18:18:36	0	0	0	0	0	0	12.43	1.6	0.26	432269	0	90412	284017	432269	341857	6902	548	3284	304	228554	1838600	11038
39	2016-06-01 18:28:36	0	0	0	0	0	0	12.63	1.6	0.27	439441	0	92739	288693	439441	346702	7024	554	3327	310	232137	1838630	11215
40	2016-06-01 18:38:36	0	0	0	0	0	0	12.78	1.6	0.27	446246	0	94966	292934	446246	351280	7119	557	3377	322	235023	1838651	11375
41	2016-06-01 18:48:36	0	0	0	0	0	0	12.85	1.6	0.27	449859	0	96117	294830	449859	353742	7180	560	3397	330	236188	1838676	11467
42	2016-06-01 18:58:39	0	0	0	0	0	0	13.06	1.59	0.28	457663	0	98745	300474	457663	358918	7284	566	3445	337	240121	1838707	11632
43	2016-06-01 19:08:37	0	0	0	0	0	0	13.16	1.59	0.28	461297	0	99966	301803	461297	361331	7346	574	3473	339	242038	1838729	11732
44	2016-06-01 19:18:37	0	0	0	0	0	0	13.32	1.59	0.28	468189	0	102362	306345	468189	365827	7449	584	3523	347	244932	1838751	11903
45	2016-06-01 19:28:37	0	0	0	0	0	0	13.59	1.59	0.28	474756	0	104654	313727	474756	370102	7542	590	3569	351	249940	1838774	12052
46	2016-06-01 19:38:38	0	0	0	0	0	0	13.63	1.59	0.28	477927	0	105736	315099	477927	372191	7593	592	3589	355	250566	1838793	12129
47	2016-06-01 19:48:38	0	0	0	0	0	0	13.73	1.59	0.29	485193	0	108210	318221	485193	376983	7700	596	3625	359	252486	1838817	12280
48	2016-06-01 19:58:38	0	0	0	0	0	0	13.79	1.58	0.29	488821	0	109434	319942	488821	379387	7743	599	3647	361	253569	1838836	12350
49	2016-06-01 20:08:38	0	0	0	0	0	0	13.96	1.58	0.29	495526	0	111688	324661	495526	383838	7840	603	3696	366	256658	1838860	12505
50	2016-06-01 20:28:39	0	0	0	0	0	0	14.18	1.58	0.29	504974	0	114955	331669	504974	390019	7986	608	3752	370	260699	1838892	12716
51	2016-06-01 20:38:40	0	0	0	0	0	0	14.23	1.58	0.3	508250	0	116050	332952	508250	392200	8032	608	3775	374	261669	1838924	12789
52	2016-06-01 20:48:39	0	0	0	0	0	0	14.33	1.58	0.3	513240	0	117708	336543	513240	395532	8100	608	3806	375	263607	1838943	12889
53	2016-06-01 20:58:43	0	0	0	0	0	0	14.41	1.58	0.3	516160	0	118732	337304	516160	397428	8148	615	3817	380	264955	1838964	12960
54	2016-06-01 21:08:39	0	0	0	0	0	0	14.53	1.57	0.3	522194	0	120934	341555	522194	401260	8214	617	3861	388	267207	1838986	13080
55	2016-06-01 21:18:39	0	0	0	0	0	0	14.61	1.57	0.3	524734	0	121868	343790	524734	402866	8249	618	3877	391	268714	1839018	13135
56	2016-06-01 21:28:38	0	0	0	0	0	0	14.76	1.57	0.3	530313	0	123853	347363	530313	406460	8317	620	3911	393	271414	1839037	13241
57	2016-06-01 21:38:40	0	0	0	0	0	0	14.89	1.56	0.31	535578	0	125650	350112	535578	409928	8381	623	3951	396	273814	1839057	13351
58	2016-06-01 21:48:41	0	0	0	0	0	0	14.93	1.56	0.31	538611	0	126694	350980	538611	411917	8421	626	3974	397	274543	1839084	13418
59	2016-06-01 21:58:39	0	0	0	0	0	0	15.08	1.56	0.31	544376	0	128682	353712	544376	415694	8489	628	4011	400	277324	1839111	13528
60	2016-06-01 22:08:39	0	0	0	0	0	0	15.13	1.56	0.31	547585	0	129767	354296	547585	417818	8540	633	4030	401	278332	1839132	13604
61	2016-06-01 22:18:38	0	0	0	0	0	0	15.29	1.56	0.31	554252	0	131905	358273	554252	422347	8628	641	4071	404	281138	1839160	13744
62	2016-06-01 22:28:39	0	0	0	0	0	0	15.44	1.55	0.31	559652	0	133628	363584	559652	426024	8687	645	4104	409	283935	1839182	13845
63	2016-06-01 22:38:39	0	0	0	0	0	0	15.52	1.55	0.31	562993	0	134650	365882	562993	428343	8728	647	4113	410	285400	1839217	13898
64	2016-06-01 22:48:39	0	0	0	0	0	0	15.6	1.55	0.32	566426	0	135685	368123	566426	430741	8767	648	4137	412	286988	1839235	13964
65	2016-06-01 22:58:38	0	0	0	0	0	0	15.7	1.55	0.32	573137	0	137727	370501	573137	435410	8859	650	4183	415	288808	1839260	14107
66	2016-06-01 23:08:39	0	0	0	0	0	0	15.77	1.54	0.32	576419	0	138727	371769	576419	437692	8896	653	4202	418	290012	1839290	14169
67	2016-06-01 23:18:39	0	0	0	0	0	0	15.97	1.54	0.32	583093	0	140755	375318	583093	442338	8965	657	4248	427	293774	1839307	14297
68	2016-06-01 23:28:39	0	0	0	0	0	0	16.08	1.54	0.32	586564	0	141840	378715	586564	444724	9012	658	4268	429	295823	1839325	14367
69	2016-06-01 23:38:39	0	0	0	0	0	0	16.25	1.53	0.32	592123	0	143582	383215	592123	448541	9088	662	4294	429	298922	1839350	14473
70	2016-06-01 23:48:38	0	0	0	0	0	0	16.41	1.53	0.32	595353	0	144540	387561	595353	450813	9137	665	4305	430	301821	1839365	14537
71	2016-06-01 23:58:38	0	0	0	0	0	0	16.58	1.53	0.32	600394	0	146030	391012	600394	454364	9195	668	4333	436	304882	1839377	14632
72	2016-06-02 00:08:38	0	0	0	0	0	0	16.59	1.53	0.32	602815	0	146743	391896	602815	456072	9222	669	4349	443	305239	1839388	14683
73	2016-06-02 00:18:39	0	0	0	0	0	0	16.68	1.53	0.32	606916	0	147942	394010	606916	458974	9281	674	4375	457	306838	1839392	14787
74	2016-06-02 00:28:38	0	0	0	0	0	0	16.75	1.53	0.32	610410	0	148929	396304	610410	461481	9338	676	4387	459	308167	1839403	14860
75	2016-06-02 00:38:38	0	0	0	0	0	0	16.83	1.53	0.32	612358	0	149482	398241	612358	462876	9369	676	4398	460	309584	1839412	14903
76	2016-06-02 00:48:39	0	0	0	0	0	0	16.95	1.53	0.32	615612	0	150362	401650	615612	465250	9398	680	4419	461	311813	1839417	14958
77	2016-06-02 00:58:38	0	0	0	0	0	0	17.01	1.53	0.32	616987	0	150754	403010	616987	466233	9425	680	4426	461	312821	1839421	14992
78	2016-06-02 01:08:38	0	0	0	0	0	0	17.07	1.53	0.32	619808	0	151527	404220	619808	468281	9485	680	4443	462	313995	1839426	15070
79	2016-06-02 01:18:38	0	0	0	0	0	0	17.11	1.53	0.32	620858	0	151819	405000	620858	469039	9495	680	4455	462	314657	1839430	15092
80	2016-06-02 01:28:38	0	0	0	0	0	0	17.11	1.53	0.32	622807	0	152390	405822	622807	470417	9530	683	4470	462	314657	1839438	15145
81	2016-06-02 01:38:38	0	0	0	0	0	0	17.12	1.53	0.32	624576	0	152815	406275	624576	471761	9552	685	4477	463	314897	1839444	15177
82	2016-06-02 01:48:38	0	0	0	0	0	0	17.12	1.53	0.32	625423	0	153053	406382	625423	472370	9580	686	4489	463	314961	1839448	15218
83	2016-06-02 01:58:38	0	0	0	0	0	0	17.17	1.53	0.32	626756	0	153414	406969	626756	473342	9597	687	4493	463	315797	1839450	15240
84	2016-06-02 02:08:39	0	0	0	0	0	0	17.18	1.53	0.32	627436	0	153597	406969	627436	473839	9609	688	4500	463	315797	1838313	15260
85	2016-06-02 02:18:39	0	0	0	0	0	0	17.2	1.53	0.32	628400	0	153851	407693	628400	474549	9622	689	4505	463	316232	1838316	15279
86	2016-06-02 02:28:38	0	0	0	0	0	0	17.23	1.53	0.32	628959	0	153989	408378	628959	474970	9626	689	4508	463	316709	1838317	15286
87	2016-06-02 02:38:38	0	0	0	0	0	0	17.24	1.53	0.32	630090	0	154268	408378	630090	475822	9642	689	4513	463	316839	1838317	15307
88	2016-06-02 02:48:38	0	0	0	0	0	0	17.24	1.53	0.32	630479	0	154375	408378	630479	476104	9645	689	4513	463	316839	1838320	15310
89	2016-06-02 02:58:38	0	0	0	0	0	0	17.24	1.53	0.32	631209	0	154556	408540	631209	476653	9656	690	4518	463	316839	1838323	15327
90	2016-06-02 03:08:38	0	0	0	0	0	0	17.24	1.53	0.32	631582	0	154659	408756	631582	476923	9662	690	4519	463	316968	1838326	15334
91	2016-06-02 03:18:38	0	0	0	0	0	0	17.25	1.53	0.32	632323	0	154847	408945	632323	477476	9677	691	4523	463	317082	1838328	15354
92	2016-06-02 03:28:38	0	0	0	0	0	0	17.25	1.53	0.32	632623	0	154924	410245	632623	477699	9686	692	4524	464	317082	1838327	15366
93	2016-06-02 03:38:38	0	0	0	0	0	0	17.29	1.53	0.32	633157	0	155044	411185	633157	478113	9694	693	4525	464	317774	1838329	15376
94	2016-06-02 03:48:38	0	0	0	0	0	0	17.29	1.53	0.32	633657	0	155171	411567	633657	478486	9703	693	4529	464	317806	1838327	15389
95	2016-06-02 03:58:38	0	0	0	0	0	0	17.29	1.53	0.32	633936	0	155254	411567	633936	478682	9706	693	4532	464	317806	1838326	15395
96	2016-06-02 04:08:38	0	0	0	0	0	0	17.29	1.53	0.32	634359	0	155381	412005	634359	478978	9710	693	4534	464	317806	1838328	15401
97	2016-06-02 04:18:38	0	0	0	0	0	0	17.29	1.53	0.32	634588	0	155457	412005	634588	479131	9710	693	4534	464	317806	1838331	15401
98	2016-06-02 04:28:38	0	0	0	0	0	0	17.29	1.53	0.32	635015	0	155608	412664	635015	479407	9716	693	4535	464	317806	1838330	15408
99	2016-06-02 04:38:38	0	0	0	0	0	0	17.29	1.53	0.32	635193	0	155664	412664	635193	479529	9718	693	4537	464	317806	1838333	15412
100	2016-06-02 04:48:38	0	0	0	0	0	0	17.29	1.53	0.32	635560	0	155769	412884	635560	479791	9726	693	4538	464	317806	1838334	15421
101	2016-06-02 04:58:38	0	0	0	0	0	0	17.29	1.53	0.32	636028	0	155913	412939	636028	480115	9729	693	4538	464	317839	1838336	15424
102	2016-06-02 05:08:38	0	0	0	0	0	0	17.29	1.53	0.32	636249	0	155988	412939	636249	480261	9741	694	4541	464	317839	1838338	15440
103	2016-06-02 05:18:38	0	0	0	0	0	0	17.29	1.53	0.32	636739	0	156172	413036	636739	480567	9744	694	4542	464	317896	1838344	15444
104	2016-06-02 05:28:39	0	0	0	0	0	0	17.3	1.53	0.33	637061	0	156288	413146	637061	480773	9748	695	4545	464	317961	1838348	15452
105	2016-06-02 05:38:38	0	0	0	0	0	0	17.3	1.53	0.33	637441	0	156426	413146	637441	481015	9751	695	4547	464	317961	1838350	15457
106	2016-06-02 05:48:39	0	0	0	0	0	0	17.32	1.53	0.33	638093	0	156670	413349	638093	481423	9764	696	4552	464	318444	1838352	15476
107	2016-06-02 05:58:38	0	0	0	0	0	0	17.33	1.53	0.33	638829	0	156938	413750	638829	481891	9774	697	4553	464	318501	1838356	15488
108	2016-06-02 06:08:44	0	0	0	0	0	0	17.33	1.53	0.33	639315	0	157099	413861	639315	482216	9778	697	4556	464	318566	1838357	15495
109	2016-06-02 06:18:43	0	0	0	0	0	0	17.33	1.53	0.33	640293	0	157452	414027	640293	482841	9790	699	4563	464	318665	1838356	15516
110	2016-06-02 06:28:39	0	0	0	0	0	0	17.34	1.53	0.33	640860	0	157665	414522	640860	483195	9795	700	4566	464	318695	1838360	15525
111	2016-06-02 06:38:40	0	0	0	0	0	0	17.34	1.53	0.33	641554	0	157916	414605	641554	483638	9804	701	4573	465	318745	1838366	15543
112	2016-06-02 06:48:43	0	0	0	0	0	0	17.44	1.53	0.33	643147	0	158470	416358	643147	484677	9826	703	4583	465	320591	1838377	15577
113	2016-06-02 06:58:39	0	0	0	0	0	0	17.45	1.53	0.33	643914	0	158742	416806	643914	485172	9831	703	4586	465	320857	1838379	15585
114	2016-06-02 07:08:39	0	0	0	0	0	0	17.5	1.53	0.33	645600	0	159414	418256	645600	486186	9856	707	4593	467	321782	1838383	15623
115	2016-06-02 07:18:39	0	0	0	0	0	0	17.53	1.53	0.33	646683	0	159815	420693	646683	486868	9867	709	4599	467	322184	1838386	15642
116	2016-06-02 07:28:40	0	0	0	0	0	0	17.58	1.52	0.33	648798	0	160534	422876	648798	488264	9891	711	4613	467	323159	1838394	15682
117	2016-06-02 07:38:40	0	0	0	0	0	0	17.59	1.52	0.33	649802	0	160902	423975	649802	488900	9906	711	4619	467	323293	1838403	15703
118	2016-06-02 07:48:40	0	0	0	0	0	0	17.66	1.52	0.33	651961	0	161627	425329	651961	490334	9931	712	4629	467	324624	1838414	15739
119	2016-06-02 07:58:40	0	0	0	0	0	0	17.69	1.52	0.33	654165	0	162370	425914	654165	491795	9970	715	4644	467	325237	1838422	15796
120	2016-06-02 08:08:50	0	0	0	0	0	0	17.75	1.52	0.33	655191	0	162716	427016	655191	492475	9987	717	4650	467	326266	1838430	15821
121	2016-06-02 08:18:39	0	0	0	0	0	0	17.77	1.52	0.33	657359	0	163503	428071	657359	493856	10008	717	4664	467	326743	1838441	15856
122	2016-06-02 08:28:40	0	0	0	0	0	0	17.78	1.52	0.33	658807	0	164044	428367	658807	494763	10028	718	4671	467	326916	1838454	15884
123	2016-06-02 08:38:40	0	0	0	0	0	0	17.83	1.52	0.33	661462	0	164925	429705	661462	496537	10065	719	4683	467	327798	1838464	15934
124	2016-06-02 08:48:40	0	0	0	0	0	0	17.85	1.52	0.33	662678	0	165355	430833	662678	497323	10084	720	4693	467	328180	1838471	15964
125	2016-06-02 08:58:43	0	0	0	0	0	0	17.97	1.52	0.33	665388	0	166326	434745	665388	499062	10124	722	4717	470	330446	1838482	16033
126	2016-06-02 09:08:41	0	0	0	0	0	0	18.01	1.52	0.33	666546	0	166732	435785	666546	499814	10140	723	4722	471	331047	1838502	16056
127	2016-06-02 09:18:42	0	0	0	0	0	0	18.01	1.52	0.33	669306	0	167787	436169	669306	501519	10182	728	4744	473	331197	1838511	16127
128	2016-06-02 09:28:43	0	0	0	0	0	0	18.13	1.52	0.34	671789	0	168754	438703	671789	503035	10210	730	4757	473	333336	1838523	16170
129	2016-06-02 09:38:51	0	0	0	0	0	0	18.21	1.52	0.34	673354	0	169365	440795	673354	503989	10251	738	4781	476	334796	1838540	16246
130	2016-06-02 09:48:40	0	0	0	0	0	0	18.21	1.52	0.34	674785	0	169962	440983	674785	504823	10278	739	4795	477	334796	1838551	16289
131	2016-06-02 09:58:41	0	0	0	0	0	0	18.3	1.52	0.34	677872	0	171271	442856	677872	506601	10330	741	4823	479	336531	1838559	16373
132	2016-06-02 10:07:22	0	0	0	0	0	0	18.32	1.52	0.34	679132	0	171818	443236	679132	507314	10348	744	4830	479	336898	1838570	16401
133	2016-06-02 10:17:20	0	0	0	0	0	0	18.37	1.52	0.34	680523	0	172440	443617	680523	508083	10371	744	4840	480	337669	1838582	16435
134	2016-06-02 10:27:22	0	0	0	0	0	0	18.43	1.52	0.34	682770	0	173441	444948	682770	509329	10406	747	4863	482	338796	1838594	16498
135	2016-06-02 10:37:21	0	0	0	0	0	0	18.46	1.53	0.34	684070	0	173995	445460	684070	510075	10436	748	4873	483	339465	1838602	16540
136	2016-06-02 10:47:22	0	0	0	0	0	0	18.54	1.53	0.34	686389	0	174988	446665	686389	511401	10480	751	4885	485	340800	1838613	16601
137	2016-06-02 10:57:25	0	0	0	0	0	0	18.57	1.53	0.34	688630	0	175924	448217	688630	512706	10507	754	4907	487	341439	1838617	16655
138	2016-06-02 11:07:27	0	0	0	0	0	0	18.58	1.53	0.34	689818	0	176461	448606	689818	513357	10532	754	4915	487	341665	1838624	16688
139	2016-06-02 11:17:26	0	0	0	0	0	0	18.59	1.53	0.34	690874	0	176955	448606	690874	513919	10549	755	4928	489	341741	1838631	16721
140	2016-06-02 11:27:25	0	0	0	0	0	0	18.62	1.53	0.35	693133	0	177984	450368	693133	515149	10577	758	4941	490	342383	1838637	16766
141	2016-06-02 11:37:23	0	0	0	0	0	0	18.65	1.52	0.35	695200	0	178891	452739	695200	516309	10591	759	4948	491	342914	1838648	16789
142	2016-06-02 11:47:23	0	0	0	0	0	0	18.72	1.52	0.35	696133	0	179323	452739	696133	516810	10612	762	4961	495	344191	1838663	16830
143	2016-06-02 11:57:24	0	0	0	0	0	0	18.73	1.53	0.35	698006	0	180168	454266	698006	517838	10648	763	4977	496	344402	1838675	16884
144	2016-06-02 12:07:24	0	0	0	0	0	0	18.75	1.53	0.35	699063	0	180654	455737	699063	518409	10662	765	4986	496	344708	1838684	16909
145	2016-06-02 12:17:42	0	0	0	0	0	0	18.76	1.52	0.35	700870	0	181455	456477	700870	519415	10684	766	5001	498	344996	1838694	16949
146	2016-06-02 12:27:26	0	0	0	0	0	0	18.79	1.52	0.35	701947	0	181947	457556	701947	520000	10701	766	5008	500	345458	1838702	16975
147	2016-06-02 12:37:26	0	0	0	0	0	0	18.82	1.52	0.35	703800	0	182793	458572	703800	521007	10730	767	5029	503	346037	1838708	17029
148	2016-06-02 12:47:25	0	0	0	0	0	0	18.84	1.52	0.35	704709	0	183212	459491	704709	521497	10746	767	5033	503	346483	1838710	17049
149	2016-06-02 12:57:24	0	0	0	0	0	0	18.91	1.52	0.35	706706	0	184134	460550	706706	522572	10763	768	5045	504	347708	1838721	17080
150	2016-06-02 13:07:25	0	0	0	0	0	0	18.91	1.52	0.35	707541	0	184510	460550	707541	523031	10777	769	5052	505	347708	1838728	17103
151	2016-06-02 13:17:25	0	0	0	0	0	0	18.91	1.52	0.35	709001	0	185197	460585	709001	523804	10797	769	5062	505	347728	1838728	17133
152	2016-06-02 13:27:45	0	0	0	0	0	0	18.92	1.52	0.35	709820	0	185565	462062	709820	524255	10809	770	5066	506	347806	1838738	17151
153	2016-06-02 13:37:26	0	0	0	0	0	0	18.98	1.52	0.35	711361	0	186262	464123	711361	525099	10838	772	5081	507	348943	1838745	17198
154	2016-06-02 13:47:25	0	0	0	0	0	0	18.98	1.52	0.36	712359	0	186732	465064	712359	525627	10859	774	5089	509	348943	1838756	17231
155	2016-06-02 13:57:26	0	0	0	0	0	0	18.99	1.52	0.36	714123	0	187552	465904	714123	526571	10878	774	5104	511	349179	1838768	17267
156	2016-06-02 14:07:27	0	0	0	0	0	0	18.99	1.52	0.36	714914	0	187928	465904	714914	526986	10890	774	5113	511	349179	1838778	17288
157	2016-06-02 14:17:26	0	0	0	0	0	0	19.02	1.52	0.36	716321	0	188570	466571	716321	527751	10909	776	5120	511	349790	1838783	17316
158	2016-06-02 14:27:25	0	0	0	0	0	0	19.02	1.52	0.36	717046	0	188905	466571	717046	528141	10916	778	5124	511	349790	1838790	17329
159	2016-06-02 14:37:25	0	0	0	0	0	0	19.06	1.52	0.36	718518	0	189631	466852	718518	528887	10939	781	5133	512	350384	1838800	17365
160	2016-06-02 14:47:25	0	0	0	0	0	0	19.09	1.52	0.36	719290	0	190002	467910	719290	529288	10956	785	5138	512	350980	1838810	17391
161	2016-06-02 14:57:41	0	0	0	0	0	0	19.11	1.52	0.36	720697	0	190664	468158	720697	530033	10977	788	5149	513	351358	1838816	17427
162	2016-06-02 15:07:27	0	0	0	0	0	0	19.11	1.52	0.36	721430	0	191018	468158	721430	530412	10985	788	5154	514	351358	1838827	17441
163	2016-06-02 15:17:26	0	0	0	0	0	0	19.11	1.52	0.36	722284	0	191459	469009	722284	530825	10996	789	5161	514	351438	1838838	17460
164	2016-06-02 15:27:26	0	0	0	0	0	0	19.14	1.52	0.36	723739	0	192179	470631	723739	531560	11008	789	5173	514	352037	1838855	17484
165	2016-06-02 15:37:27	0	0	0	0	0	0	19.15	1.52	0.36	724333	0	192463	470631	724333	531870	11019	789	5174	515	352197	1838873	17497
166	2016-06-02 15:47:28	0	0	0	0	0	0	19.15	1.52	0.36	725678	0	193113	471132	725678	532565	11047	790	5185	517	352197	1838882	17539
167	2016-06-02 15:57:58	0	0	0	0	0	0	19.19	1.52	0.36	726383	0	193473	471132	726383	532910	11055	791	5188	519	352829	1838897	17553
168	2016-06-02 16:07:29	0	0	0	0	0	0	19.22	1.52	0.36	727669	0	194071	471688	727669	533598	11062	791	5192	520	353433	1838908	17565
169	2016-06-02 16:17:27	0	0	0	0	0	0	19.22	1.52	0.36	728173	0	194283	471976	728173	533890	11087	791	5200	521	353433	1838919	17599
170	2016-06-02 16:27:27	0	0	0	0	0	0	19.23	1.52	0.36	728834	0	194563	472408	728834	534271	11097	791	5204	521	353676	1838925	17613
171	2016-06-02 16:37:26	0	0	0	0	0	0	19.23	1.52	0.36	730182	0	195174	472408	730182	535008	11115	792	5212	523	353676	1838934	17642
172	2016-06-02 16:47:38	0	0	0	0	0	0	19.26	1.52	0.37	730877	0	195488	472408	730877	535389	11121	793	5217	523	354161	1838948	17654
173	2016-06-02 16:57:31	0	0	0	0	0	0	19.26	1.52	0.37	732141	0	196054	474289	732141	536087	11146	794	5228	523	354242	1838963	17691
174	2016-06-02 17:07:29	0	0	0	0	0	0	19.34	1.52	0.37	733409	0	196625	476442	733409	536784	11155	796	5231	524	355605	1838993	17706
175	2016-06-02 17:17:29	0	0	0	0	0	0	19.34	1.52	0.37	733992	0	196903	476442	733992	537089	11185	796	5240	524	355605	1839012	17745
176	2016-06-02 17:27:28	0	0	0	0	0	0	19.34	1.52	0.37	735289	0	197493	476699	735289	537796	11202	796	5247	524	355748	1839026	17769
177	2016-06-02 17:37:27	0	0	0	0	0	0	19.34	1.52	0.37	735866	0	197777	476699	735866	538089	11210	799	5255	524	355748	1839036	17788
178	2016-06-02 17:47:27	0	0	0	0	0	0	19.37	1.52	0.37	736995	0	198348	477729	736995	538647	11227	800	5264	527	356280	1839042	17818
179	2016-06-02 17:57:28	0	0	0	0	0	0	19.37	1.52	0.37	737535	0	198606	477729	737535	538929	11232	800	5267	527	356280	1839050	17826
180	2016-06-02 18:07:28	0	0	0	0	0	0	19.4	1.52	0.37	738657	0	199169	478652	738657	539488	11259	804	5280	528	356773	1839061	17871
181	2016-06-02 18:17:28	0	0	0	0	0	0	19.4	1.52	0.37	739265	0	199485	479096	739265	539780	11269	804	5286	529	356855	1839068	17888
182	2016-06-02 18:27:28	0	0	0	0	0	0	19.43	1.52	0.37	740409	0	200099	479764	740409	540310	11279	806	5298	533	357391	1839078	17916
183	2016-06-02 18:37:29	0	0	0	0	0	0	19.43	1.52	0.37	740893	0	200346	480057	740893	540547	11291	807	5308	534	357391	1839086	17940
184	2016-06-02 18:47:28	0	0	0	0	0	0	19.43	1.52	0.37	742018	0	200920	480346	742018	541098	11301	810	5319	535	357391	1839096	17965
185	2016-06-02 18:57:32	0	0	0	0	0	0	19.44	1.52	0.37	742537	0	201176	480643	742537	541361	11307	811	5324	535	357555	1839111	17977
186	2016-06-02 19:07:37	0	0	0	0	0	0	19.46	1.52	0.37	743527	0	201675	481240	743527	541852	11321	811	5330	535	357968	1839117	17997
187	2016-06-02 19:17:34	0	0	0	0	0	0	19.47	1.52	0.37	743971	0	201902	482440	743971	542069	11333	811	5330	535	358051	1839121	18009
188	2016-06-02 19:27:28	0	0	0	0	0	0	19.54	1.52	0.37	745024	0	202445	485447	745024	542579	11353	813	5342	535	359381	1839131	18043
189	2016-06-02 19:37:29	0	0	0	0	0	0	19.55	1.52	0.37	745542	0	202712	485599	745542	542830	11360	813	5342	535	359631	1839140	18050
190	2016-06-02 19:47:32	0	0	0	0	0	0	19.55	1.52	0.37	746486	0	203178	485751	746486	543308	11373	814	5352	537	359631	1839153	18076
191	2016-06-02 19:57:29	0	0	0	0	0	0	19.58	1.52	0.37	747024	0	203468	486591	747024	543556	11380	815	5356	537	360092	1839160	18088
192	2016-06-02 20:07:29	0	0	0	0	0	0	19.59	1.52	0.37	748007	0	203971	486591	748007	544036	11392	816	5364	537	360259	1839164	18109
193	2016-06-02 20:17:31	0	0	0	0	0	0	19.59	1.52	0.38	748440	0	204183	486591	748440	544257	11401	816	5365	537	360259	1839173	18119
194	2016-06-02 20:27:29	0	0	0	0	0	0	19.6	1.52	0.38	749247	0	204612	487127	749247	544635	11417	819	5370	538	360553	1839189	18144
195	2016-06-02 20:37:30	0	0	0	0	0	0	19.61	1.52	0.38	750202	0	205134	487856	750202	545068	11428	820	5379	539	360616	1839196	18166
196	2016-06-02 20:47:30	0	0	0	0	0	0	19.63	1.52	0.38	750645	0	205363	489243	750645	545282	11433	821	5382	539	361120	1839204	18175
197	2016-06-02 20:57:31	0	0	0	0	0	0	19.63	1.52	0.38	751520	0	205844	489282	751520	545676	11450	821	5389	540	361120	1839212	18200
198	2016-06-02 21:07:30	0	0	0	0	0	0	19.65	1.52	0.38	752283	0	206231	490454	752283	546052	11460	821	5392	542	361463	1839216	18215
199	2016-06-02 21:17:29	0	0	0	0	0	0	19.69	1.52	0.38	752675	0	206427	490610	752675	546248	11465	821	5396	542	362203	1839223	18224
200	2016-06-02 21:27:30	0	0	0	0	0	0	19.69	1.52	0.38	753657	0	206979	491388	753657	546678	11480	822	5406	542	362203	1839242	18250
201	2016-06-02 21:37:29	0	0	0	0	0	0	19.69	1.52	0.38	754146	0	207212	491701	754146	546934	11485	824	5410	542	362203	1839252	18261
202	2016-06-02 21:47:29	0	0	0	0	0	0	19.69	1.52	0.38	755115	0	207708	491779	755115	547407	11500	824	5418	542	362203	1839266	18284
203	2016-06-02 21:57:30	0	0	0	0	0	0	19.71	1.52	0.38	755519	0	207901	493189	755519	547618	11507	824	5421	542	362457	1839271	18294
204	2016-06-02 22:07:30	0	0	0	0	0	0	19.71	1.52	0.38	756524	0	208438	493189	756524	548086	11522	827	5426	543	362457	1839281	18318
205	2016-06-02 22:17:30	0	0	0	0	0	0	19.72	1.52	0.38	756939	0	208652	493660	756939	548287	11526	829	5431	543	362712	1839294	18329
206	2016-06-02 22:27:30	0	0	0	0	0	0	19.74	1.52	0.38	757466	0	208930	493660	757466	548536	11540	831	5433	544	363052	1839308	18348
207	2016-06-02 22:37:30	0	0	0	0	0	0	19.76	1.52	0.38	758539	0	209500	495393	758539	549039	11556	832	5440	546	363476	1839319	18374
208	2016-06-02 22:47:29	0	0	0	0	0	0	19.76	1.52	0.38	759026	0	209781	495512	759026	549245	11566	832	5445	546	363476	1839331	18389
209	2016-06-02 22:57:30	0	0	0	0	0	0	19.76	1.52	0.38	759912	0	210254	495512	759912	549658	11576	832	5449	546	363476	1839341	18403
210	2016-06-02 23:07:30	0	0	0	0	0	0	19.8	1.52	0.38	760750	0	210720	496147	760750	550030	11586	832	5461	548	364160	1839352	18427
211	2016-06-02 23:17:30	0	0	0	0	0	0	19.8	1.52	0.38	761164	0	210928	496465	761164	550236	11592	832	5461	548	364160	1839358	18433
212	2016-06-02 23:27:30	0	0	0	0	0	0	19.8	1.52	0.38	761868	0	211271	496704	761868	550597	11596	833	5463	548	364160	1839361	18440
213	2016-06-02 23:37:30	0	0	0	0	0	0	19.8	1.52	0.38	762240	0	211476	496704	762240	550764	11598	834	5466	548	364160	1839374	18446
214	2016-06-02 23:47:30	0	0	0	0	0	0	19.8	1.52	0.38	763019	0	211902	496943	763019	551117	11608	835	5479	548	364288	1839380	18470
215	2016-06-02 23:57:30	0	0	0	0	0	0	19.8	1.52	0.38	763424	0	212119	496943	763424	551305	11615	836	5482	548	364288	1839388	18481
216	2016-06-03 00:07:31	0	0	0	0	0	0	19.8	1.52	0.39	764080	0	212446	496943	764080	551634	11627	836	5486	548	364288	1839395	18497
217	2016-06-03 00:17:33	0	0	0	0	0	0	19.8	1.52	0.39	764440	0	212625	496943	764440	551815	11631	836	5489	548	364288	1839401	18504
218	2016-06-03 00:27:30	0	0	0	0	0	0	19.84	1.52	0.39	765038	0	212917	498063	765038	552121	11637	837	5494	548	364889	1839411	18516
219	2016-06-03 00:37:30	0	0	0	0	0	0	19.84	1.52	0.39	765256	0	213058	498223	765256	552198	11641	838	5496	548	364889	1839417	18523
220	2016-06-03 00:47:30	0	0	0	0	0	0	19.84	1.52	0.39	765592	0	213279	498223	765592	552313	11650	838	5499	548	364889	1839420	18535
221	2016-06-03 00:57:29	0	0	0	0	0	0	19.84	1.52	0.39	765890	0	213478	498223	765890	552412	11660	839	5500	548	364889	1839427	18547
222	2016-06-03 01:07:30	0	0	0	0	0	0	19.85	1.52	0.39	766047	0	213586	498865	766047	552461	11665	841	5503	548	365061	1839431	18557
223	2016-06-03 01:17:29	0	0	0	0	0	0	19.85	1.52	0.39	766177	0	213680	499993	766177	552497	11668	841	5503	548	365061	1839431	18560
224	2016-06-03 01:27:30	0	0	0	0	0	0	19.85	1.52	0.39	766357	0	213806	500559	766357	552551	11671	841	5505	548	365061	1839439	18565
225	2016-06-03 01:37:27	0	0	0	0	0	0	19.85	1.52	0.39	766437	0	213870	500559	766437	552567	11672	842	5505	548	365061	1839442	18567
226	2016-06-03 01:47:28	0	0	0	0	0	0	19.85	1.52	0.39	766583	0	213982	500559	766583	552601	11673	842	5505	548	365061	1839445	18568
227	2016-06-03 01:57:28	0	0	0	0	0	0	19.85	1.52	0.39	766708	0	214072	500559	766708	552636	11676	842	5508	548	365061	1839446	18574
228	2016-06-03 02:07:30	0	0	0	0	0	0	19.84	1.52	0.39	766760	0	214110	500559	766760	552650	11678	842	5509	548	365061	1840047	18577
229	2016-06-03 02:17:28	0	0	0	0	0	0	19.84	1.52	0.39	766804	0	214142	500559	766804	552662	11680	842	5509	548	365061	1840051	18579
230	2016-06-03 02:27:28	0	0	0	0	0	0	19.84	1.52	0.39	766903	0	214215	500559	766903	552688	11681	842	5509	548	365061	1840053	18580
231	2016-06-03 02:37:30	0	0	0	0	0	0	19.84	1.52	0.39	766938	0	214243	500559	766938	552695	11681	842	5509	548	365061	1840056	18580
232	2016-06-03 02:47:30	0	0	0	0	0	0	19.84	1.52	0.39	767018	0	214303	500640	767018	552715	11683	842	5510	549	365061	1840055	18584
233	2016-06-03 02:57:30	0	0	0	0	0	0	19.84	1.52	0.39	767056	0	214333	500640	767056	552723	11685	842	5510	549	365061	1840055	18586
234	2016-06-03 03:07:30	0	0	0	0	0	0	19.84	1.52	0.39	767119	0	214388	500640	767119	552731	11686	842	5510	549	365061	1840057	18587
235	2016-06-03 03:17:30	0	0	0	0	0	0	19.84	1.52	0.39	767142	0	214405	500640	767142	552737	11686	842	5510	549	365061	1840057	18587
236	2016-06-03 03:27:30	0	0	0	0	0	0	19.84	1.52	0.39	767184	0	214435	500640	767184	552749	11686	842	5510	549	365061	1840057	18587
237	2016-06-03 03:37:31	0	0	0	0	0	0	19.84	1.52	0.39	767207	0	214455	500640	767207	552752	11686	842	5510	549	365061	1840057	18587
238	2016-06-03 03:47:30	0	0	0	0	0	0	19.84	1.52	0.39	767251	0	214497	500640	767251	552754	11686	842	5510	549	365061	1840056	18587
239	2016-06-03 03:57:30	0	0	0	0	0	0	19.84	1.52	0.39	767264	0	214507	500640	767264	552757	11686	842	5510	549	365061	1840056	18587
240	2016-06-03 04:17:31	0	0	0	0	0	0	19.84	1.52	0.39	767331	0	214557	501928	767331	552774	11688	842	5512	549	365061	1840058	18591
241	2016-06-03 04:27:31	0	0	0	0	0	0	19.84	1.52	0.39	767345	0	214567	501928	767345	552778	11688	842	5512	549	365061	1840057	18591
242	2016-06-03 04:37:30	0	0	0	0	0	0	19.84	1.52	0.39	767381	0	214596	501928	767381	552785	11688	842	5512	549	365061	1840058	18591
243	2016-06-03 04:47:30	0	0	0	0	0	0	19.84	1.52	0.39	767401	0	214614	501928	767401	552787	11689	843	5514	549	365061	1840058	18595
244	2016-06-03 04:57:31	0	0	0	0	0	0	19.84	1.52	0.39	767445	0	214648	501928	767445	552797	11690	843	5514	549	365061	1840058	18596
245	2016-06-03 05:07:30	0	0	0	0	0	0	19.84	1.52	0.39	767467	0	214670	501928	767467	552797	11690	843	5514	549	365061	1840058	18596
246	2016-06-03 05:17:30	0	0	0	0	0	0	19.84	1.52	0.39	767521	0	214711	501928	767521	552810	11692	843	5514	549	365061	1840059	18598
247	2016-06-03 05:27:34	0	0	0	0	0	0	19.84	1.52	0.39	767550	0	214734	501928	767550	552816	11693	843	5514	549	365061	1840061	18599
248	2016-06-03 05:37:38	0	0	0	0	0	0	19.84	1.52	0.39	767615	0	214793	501928	767615	552822	11694	843	5514	549	365061	1840059	18600
249	2016-06-03 05:47:31	0	0	0	0	0	0	19.84	1.52	0.39	767644	0	214817	501928	767644	552827	11695	843	5514	549	365061	1840058	18601
250	2016-06-03 05:57:30	0	0	0	0	0	0	19.84	1.52	0.39	767719	0	214879	501928	767719	552840	11696	843	5514	549	365061	1840062	18602
251	2016-06-03 06:07:30	0	0	0	0	0	0	19.84	1.52	0.39	767770	0	214921	501928	767770	552849	11696	843	5514	549	365061	1840062	18602
252	2016-06-03 06:17:31	0	0	0	0	0	0	19.84	1.52	0.39	767830	0	214971	501928	767830	552859	11696	843	5514	549	365061	1840062	18602
253	2016-06-03 06:27:30	0	0	0	0	0	0	19.84	1.52	0.39	767938	0	215059	501928	767938	552879	11696	844	5516	549	365061	1840065	18605
254	2016-06-03 06:37:31	0	0	0	0	0	0	19.84	1.52	0.39	767999	0	215113	501928	767999	552886	11697	844	5516	549	365061	1840066	18606
255	2016-06-03 06:47:31	0	0	0	0	0	0	19.84	1.52	0.39	768144	0	215237	502254	768144	552907	11697	844	5517	549	365061	1840068	18607
256	2016-06-03 06:57:31	0	0	0	0	0	0	19.84	1.52	0.39	768227	0	215304	502254	768227	552923	11697	844	5517	549	365061	1840069	18607
257	2016-06-03 07:07:31	0	0	0	0	0	0	19.84	1.52	0.39	768365	0	215417	502254	768365	552948	11704	844	5518	549	365061	1840072	18615
258	2016-06-03 07:17:32	0	0	0	0	0	0	19.84	1.52	0.39	768524	0	215484	502254	768524	552977	11704	844	5518	549	365061	1840074	18615
259	2016-06-03 07:27:32	0	0	0	0	0	0	19.84	1.52	0.39	768590	0	215602	502254	768590	552988	11708	844	5519	549	365061	1840075	18620
260	2016-06-03 07:37:32	0	0	0	0	0	0	19.84	1.52	0.39	768758	0	215731	502254	768758	553027	11710	845	5519	549	365061	1840076	18623
261	2016-06-03 07:47:33	0	0	0	0	0	0	19.84	1.52	0.39	768857	0	215806	502254	768857	553051	11712	845	5519	549	365061	1840083	18625
262	2016-06-03 07:57:32	0	0	0	0	0	0	19.84	1.52	0.39	769071	0	215890	502906	769071	553089	11714	845	5519	549	365061	1840088	18627
263	2016-06-03 08:07:33	0	0	0	0	0	0	19.84	1.52	0.39	769180	0	216068	502906	769180	553112	11717	845	5521	549	365061	1840093	18632
264	2016-06-03 08:17:32	0	0	0	0	0	0	19.84	1.52	0.39	769296	0	216164	502906	769296	553132	11719	845	5522	549	365061	1840097	18635
265	2016-06-03 08:27:32	0	0	0	0	0	0	19.84	1.52	0.39	769519	0	216346	502906	769519	553173	11724	845	5523	549	365061	1840108	18641
266	2016-06-03 08:37:32	0	0	0	0	0	0	19.84	1.52	0.39	769616	0	216428	502906	769616	553188	11725	845	5523	549	365061	1840115	18642
267	2016-06-03 08:47:32	0	0	0	0	0	0	19.84	1.52	0.39	769790	0	216575	502906	769790	553215	11728	845	5523	549	365061	1840115	18645
268	2016-06-03 08:57:32	0	0	0	0	0	0	19.84	1.52	0.39	769926	0	216680	502906	769926	553246	11731	846	5524	549	365061	1840121	18650
269	2016-06-03 09:07:32	0	0	0	0	0	0	19.84	1.52	0.39	770017	0	216757	502906	770017	553260	11732	846	5525	549	365061	1840131	18652
270	2016-06-03 09:17:33	0	0	0	0	0	0	19.84	1.52	0.39	770230	0	216947	502906	770230	553283	11734	846	5526	549	365061	1840140	18655
271	2016-06-03 09:27:33	0	0	0	0	0	0	19.84	1.52	0.39	770360	0	217059	502906	770360	553301	11735	846	5527	549	365061	1840148	18657
272	2016-06-03 09:37:33	0	0	0	0	0	0	19.84	1.52	0.39	770562	0	217241	502906	770562	553321	11738	846	5529	549	365061	1840155	18662
273	2016-06-03 09:47:32	0	0	0	0	0	0	19.84	1.52	0.39	770741	0	217394	502906	770741	553347	11742	846	5529	549	365061	1840161	18666
274	2016-06-03 09:57:33	0	0	0	0	0	0	19.85	1.52	0.39	770838	0	217475	503233	770838	553363	11743	846	5532	549	365234	1840160	18670
275	2016-06-03 10:07:33	0	0	0	0	0	0	19.85	1.52	0.39	771011	0	217620	503233	771011	553391	11748	846	5532	549	365234	1840166	18675
276	2016-06-03 10:17:35	0	0	0	0	0	0	19.85	1.52	0.39	771082	0	217677	503233	771082	553405	11748	846	5532	549	365234	1840180	18675
277	2016-06-03 10:27:34	0	0	0	0	0	0	19.85	1.52	0.39	771276	0	217839	503233	771276	553437	11751	847	5533	549	365234	1840178	18680
278	2016-06-03 10:37:34	0	0	0	0	0	0	19.85	1.52	0.39	771361	0	217919	503233	771361	553442	11754	847	5533	549	365234	1840184	18683
279	2016-06-03 10:47:35	0	0	0	0	0	0	19.85	1.52	0.39	771530	0	218060	503233	771530	553470	11757	847	5534	549	365234	1840188	18687
280	2016-06-03 10:57:34	0	0	0	0	0	0	19.85	1.52	0.39	771669	0	218181	503233	771669	553488	11757	847	5534	549	365234	1840197	18687
281	2016-06-03 11:07:34	0	0	0	0	0	0	19.85	1.52	0.39	771733	0	218236	503233	771733	553497	11758	848	5536	549	365234	1840205	18691
282	2016-06-03 11:17:37	0	0	0	0	0	0	19.85	1.52	0.39	771859	0	218350	503233	771859	553509	11759	848	5536	549	365234	1840215	18692
283	2016-06-03 11:27:35	0	0	0	0	0	0	19.85	1.52	0.39	771925	0	218413	503233	771925	553512	11761	848	5537	549	365234	1840224	18695
284	2016-06-03 11:37:36	0	0	0	0	0	0	19.85	1.52	0.39	772078	0	218547	503233	772078	553531	11762	848	5537	549	365234	1840229	18696
285	2016-06-03 11:47:34	0	0	0	0	0	0	19.85	1.52	0.39	772150	0	218612	503233	772150	553538	11762	848	5538	549	365234	1840235	18697
286	2016-06-03 11:57:40	0	0	0	0	0	0	19.85	1.52	0.4	772255	0	218705	503233	772255	553550	11764	848	5538	549	365234	1840248	18699
287	2016-06-03 12:07:46	0	0	0	0	0	0	19.85	1.52	0.4	772318	0	218765	503233	772318	553553	11766	848	5538	549	365234	1840255	18701
288	2016-06-03 12:17:41	0	0	0	0	0	0	19.85	1.52	0.4	772426	0	218856	503274	772426	553570	11768	848	5539	549	365234	1840267	18704
289	2016-06-03 12:27:40	0	0	0	0	0	0	19.85	1.52	0.4	772478	0	218899	503274	772478	553579	11771	848	5539	549	365234	1840277	18707
290	2016-06-03 12:37:36	0	0	0	0	0	0	19.85	1.52	0.4	772544	0	218959	503274	772544	553585	11773	848	5539	549	365234	1840289	18709
291	2016-06-03 12:47:35	0	0	0	0	0	0	19.85	1.52	0.4	772650	0	219056	503274	772650	553594	11776	848	5539	549	365234	1840296	18712
292	2016-06-03 12:57:40	0	0	0	0	0	0	19.85	1.52	0.4	772750	0	219142	503274	772750	553608	11776	848	5539	549	365234	1840304	18712
293	2016-06-03 13:07:36	0	0	0	0	0	0	19.85	1.52	0.4	772786	0	219171	503274	772786	553615	11776	848	5539	549	365234	1840304	18712
294	2016-06-03 13:17:35	0	0	0	0	0	0	19.85	1.52	0.4	772873	0	219244	503274	772873	553629	11777	848	5540	549	365234	1840279	18714
295	2016-06-03 13:27:37	0	0	0	0	0	0	19.85	1.52	0.4	772921	0	219285	503274	772921	553636	11778	848	5540	549	365234	1840289	18715
296	2016-06-03 13:37:36	0	0	0	0	0	0	19.85	1.52	0.4	773018	0	219372	503274	773018	553646	11779	849	5541	549	365234	1840290	18718
297	2016-06-03 13:47:36	0	0	0	0	0	0	19.85	1.52	0.4	773061	0	219410	503274	773061	553651	11779	849	5541	549	365234	1840295	18718
298	2016-06-03 13:57:43	0	0	0	0	0	0	19.85	1.52	0.4	773165	0	219505	503274	773165	553660	11779	849	5542	549	365234	1840308	18719
299	2016-06-03 14:07:48	0	0	0	0	0	0	19.85	1.52	0.4	773256	0	219541	503274	773256	553680	11779	849	5542	549	365234	1840311	18719
300	2016-06-03 14:17:36	0	0	0	0	0	0	19.85	1.52	0.4	773296	0	219609	503274	773296	553687	11780	849	5542	549	365234	1840318	18720
301	2016-06-03 14:27:34	0	0	0	0	0	0	19.85	1.52	0.4	773354	0	219663	503274	773354	553691	11781	849	5544	549	365234	1840321	18723
302	2016-06-03 14:37:35	0	0	0	0	0	0	19.85	1.52	0.4	773440	0	219739	503274	773440	553701	11781	849	5544	549	365234	1840325	18723
303	2016-06-03 14:47:34	0	0	0	0	0	0	19.85	1.52	0.4	773487	0	219783	503274	773487	553704	11782	849	5544	549	365234	1840335	18724
304	2016-06-03 14:57:38	0	0	0	0	0	0	19.85	1.52	0.4	773587	0	219875	503274	773587	553712	11783	849	5544	549	365234	1840334	18725
305	2016-06-03 15:07:36	0	0	0	0	0	0	19.85	1.52	0.4	773630	0	219913	503274	773630	553717	11784	849	5544	549	365234	1840340	18726
306	2016-06-03 15:17:36	0	0	0	0	0	0	19.85	1.52	0.4	773706	0	219975	503274	773706	553731	11784	849	5544	549	365234	1840351	18726
307	2016-06-03 15:27:36	0	0	0	0	0	0	19.85	1.52	0.4	773790	0	220050	503274	773790	553740	11785	849	5544	549	365234	1840362	18727
308	2016-06-03 15:37:36	0	0	0	0	0	0	19.85	1.52	0.4	773855	0	220102	503274	773855	553753	11785	849	5544	549	365234	1840379	18727
309	2016-06-03 15:47:36	0	0	0	0	0	0	19.85	1.52	0.4	773949	0	220183	503356	773949	553766	11785	849	5545	549	365234	1840395	18728
310	2016-06-03 15:57:37	0	0	0	0	0	0	19.85	1.52	0.4	773995	0	220226	503356	773995	553769	11786	850	5547	549	365234	1840415	18732
311	2016-06-03 16:07:37	0	0	0	0	0	0	19.85	1.52	0.4	774024	0	220254	503356	774024	553770	11786	850	5548	549	365234	1840420	18733
312	2016-06-03 16:17:39	0	0	0	0	0	0	19.84	1.52	0.4	774101	0	220317	503356	774101	553784	11789	850	5548	549	365234	1840440	18736
313	2016-06-03 16:27:40	0	0	0	0	0	0	19.84	1.52	0.4	774176	0	220351	503356	774176	553790	11789	850	5548	549	365234	1840458	18736
314	2016-06-03 16:37:37	0	0	0	0	0	0	19.84	1.52	0.4	774217	0	220420	503356	774217	553797	11789	850	5549	549	365234	1840477	18737
315	2016-06-03 16:47:37	0	0	0	0	0	0	19.84	1.52	0.4	774284	0	220480	503356	774284	553804	11789	850	5549	549	365234	1840499	18737
316	2016-06-03 16:57:40	0	0	0	0	0	0	19.84	1.52	0.4	774313	0	220505	503356	774313	553808	11789	850	5549	549	365234	1840529	18737
317	2016-06-03 17:07:38	0	0	0	0	0	0	19.84	1.52	0.4	774381	0	220562	503356	774381	553819	11789	850	5550	549	365234	1840550	18738
318	2016-06-03 17:17:39	0	0	0	0	0	0	19.84	1.52	0.4	774417	0	220597	503356	774417	553820	11789	850	5550	550	365234	1840564	18739
319	2016-06-03 17:27:44	0	0	0	0	0	0	19.84	1.52	0.4	774479	0	220648	503356	774479	553831	11789	850	5550	550	365234	1840581	18739
320	2016-06-03 17:37:56	0	0	0	0	0	0	19.84	1.52	0.4	774518	0	220683	503356	774518	553835	11792	850	5550	550	365234	1840592	18742
321	2016-06-03 17:47:49	0	0	0	0	0	0	19.84	1.52	0.4	774597	0	220747	503356	774597	553850	11794	850	5550	550	365234	1840605	18744
322	2016-06-03 17:57:39	0	0	0	0	0	0	19.84	1.52	0.4	774625	0	220773	503356	774625	553852	11794	850	5550	550	365234	1840623	18744
323	2016-06-03 18:07:38	0	0	0	0	0	0	19.84	1.52	0.4	774685	0	220820	503356	774685	553865	11794	850	5550	550	365234	1840636	18744
324	2016-06-03 18:17:42	0	0	0	0	0	0	19.84	1.52	0.4	774709	0	220839	503356	774709	553870	11794	850	5550	550	365234	1840659	18744
325	2016-06-03 18:27:39	0	0	0	0	0	0	19.84	1.52	0.4	774778	0	220898	503356	774778	553880	11794	850	5550	550	365234	1840680	18744
326	2016-06-03 18:37:41	0	0	0	0	0	0	19.84	1.52	0.4	774818	0	220933	503356	774818	553885	11794	850	5550	550	365234	1840699	18744
327	2016-06-03 18:47:39	0	0	0	0	0	0	19.84	1.52	0.4	774899	0	221000	503356	774899	553899	11794	850	5550	550	365234	1840733	18744
328	2016-06-03 18:57:40	0	0	0	0	0	0	19.84	1.52	0.4	774939	0	221035	503356	774939	553904	11794	850	5551	550	365234	1840757	18745
329	2016-06-03 19:07:42	0	0	0	0	0	0	19.84	1.52	0.4	775015	0	221101	503356	775015	553914	11795	851	5551	550	365234	1840775	18747
330	2016-06-03 19:17:39	0	0	0	0	0	0	19.84	1.52	0.4	775083	0	221150	503356	775083	553933	11795	851	5551	550	365234	1840809	18747
331	2016-06-03 19:27:39	0	0	0	0	0	0	19.84	1.52	0.4	775113	0	221178	503356	775113	553935	11795	851	5551	550	365234	1840830	18747
332	2016-06-03 19:37:38	0	0	0	0	0	0	19.84	1.52	0.4	775152	0	221208	503356	775152	553944	11795	851	5551	550	365234	1840859	18747
333	2016-06-03 19:47:39	0	0	0	0	0	0	19.84	1.52	0.4	775224	0	221258	503356	775224	553966	11796	851	5551	550	365234	1840888	18748
334	2016-06-03 19:57:40	0	0	0	0	0	0	19.85	1.52	0.4	775269	0	221294	503847	775269	553975	11796	851	5551	550	365492	1840916	18748
335	2016-06-03 20:07:40	0	0	0	0	0	0	19.85	1.52	0.4	775336	0	221356	503847	775336	553980	11796	851	5551	550	365492	1840935	18748
336	2016-06-03 20:17:41	0	0	0	0	0	0	19.85	1.52	0.4	775392	0	221402	503847	775392	553990	11796	851	5551	550	365492	1840972	18748
337	2016-06-03 20:27:43	0	0	0	0	0	0	19.85	1.52	0.4	775422	0	221427	504833	775422	553995	11796	851	5551	550	365492	1840998	18748
338	2016-06-03 20:37:39	0	0	0	0	0	0	19.85	1.52	0.4	775442	0	221444	504833	775442	553998	11796	851	5551	550	365492	1841016	18748
339	2016-06-03 20:47:41	0	0	0	0	0	0	19.85	1.52	0.4	775506	0	221496	505121	775506	554010	11796	851	5551	550	365492	1841042	18748
340	2016-06-03 20:57:40	0	0	0	0	0	0	19.85	1.52	0.4	775605	0	221587	505121	775605	554018	11796	852	5553	550	365492	1841063	18751
341	2016-06-03 21:07:39	0	0	0	0	0	0	19.85	1.52	0.4	775675	0	221652	505121	775675	554023	11797	852	5554	550	365492	1841090	18753
342	2016-06-03 21:17:41	0	0	0	0	0	0	19.85	1.52	0.4	775732	0	221699	505121	775732	554033	11798	852	5555	550	365492	1841135	18755
343	2016-06-03 21:27:40	0	0	0	0	0	0	19.85	1.52	0.4	775751	0	221716	505121	775751	554035	11799	852	5555	550	365492	1841176	18756
344	2016-06-03 21:37:39	0	0	0	0	0	0	19.85	1.52	0.4	775806	0	221766	505121	775806	554040	11799	852	5555	550	365492	1841225	18756
345	2016-06-03 21:47:42	0	0	0	0	0	0	19.85	1.52	0.4	775831	0	221786	505121	775831	554045	11799	852	5555	550	365492	1841275	18756
346	2016-06-03 21:57:40	0	0	0	0	0	0	19.85	1.52	0.4	775883	0	221831	505121	775883	554052	11800	852	5555	550	365492	1841317	18757
347	2016-06-03 22:07:42	0	0	0	0	0	0	19.85	1.52	0.4	775911	0	221855	505121	775911	554056	11800	852	5555	550	365492	1841368	18757
348	2016-06-03 22:17:40	0	0	0	0	0	0	19.85	1.52	0.4	775967	0	221906	505121	775967	554061	11800	852	5555	550	365492	1841409	18757
349	2016-06-03 22:27:41	0	0	0	0	0	0	19.85	1.52	0.4	776027	0	221953	505121	776027	554074	11801	852	5556	550	365492	1841450	18759
350	2016-06-03 22:37:39	0	0	0	0	0	0	19.85	1.52	0.4	776062	0	221979	505121	776062	554083	11802	852	5556	550	365492	1841489	18760
351	2016-06-03 22:47:39	0	0	0	0	0	0	19.85	1.52	0.4	776095	0	222003	505121	776095	554092	11802	852	5556	550	365492	1841515	18760
352	2016-06-03 22:57:41	0	0	0	0	0	0	19.85	1.52	0.4	776165	0	222065	505121	776165	554100	11802	852	5556	550	365492	1841545	18760
353	2016-06-03 23:07:40	0	0	0	0	0	0	19.85	1.52	0.4	776201	0	222091	505121	776201	554110	11802	852	5557	550	365492	1841581	18761
354	2016-06-03 23:17:39	0	0	0	0	0	0	19.85	1.52	0.4	776233	0	222115	505121	776233	554118	11803	852	5557	550	365492	1841613	18762
355	2016-06-03 23:27:39	0	0	0	0	0	0	19.85	1.52	0.4	776265	0	222142	505121	776265	554123	11803	852	5557	550	365492	1841651	18762
356	2016-06-03 23:37:41	0	0	0	0	0	0	19.85	1.52	0.4	776298	0	222171	505121	776298	554127	11803	853	5558	550	365492	1841691	18764
357	2016-06-03 23:47:40	0	0	0	0	0	0	19.85	1.52	0.4	776328	0	222196	505121	776328	554132	11803	853	5558	551	365492	1841716	18765
358	2016-06-03 23:57:39	0	0	0	0	0	0	19.84	1.52	0.4	776369	0	222229	505121	776369	554140	11803	853	5559	551	365492	1841742	18766
359	2016-06-04 00:07:40	0	0	0	0	0	0	19.84	1.52	0.4	776384	0	222243	505121	776384	554141	11803	853	5559	551	365492	1841767	18766
360	2016-06-04 00:17:40	0	0	0	0	0	0	19.84	1.52	0.4	776418	0	222271	505121	776418	554147	11803	853	5560	551	365492	1841792	18767
361	2016-06-04 00:27:39	0	0	0	0	0	0	19.84	1.52	0.4	776434	0	222284	505121	776434	554150	11804	853	5560	551	365492	1841815	18768
362	2016-06-04 00:37:41	0	0	0	0	0	0	19.84	1.52	0.4	776469	0	222313	505121	776469	554156	11807	853	5560	551	365492	1841836	18771
363	2016-06-04 00:47:40	0	0	0	0	0	0	19.84	1.52	0.4	776489	0	222329	505121	776489	554160	11807	853	5560	551	365492	1841863	18771
364	2016-06-04 00:57:40	0	0	0	0	0	0	19.84	1.52	0.4	776497	0	222335	505121	776497	554162	11807	853	5560	551	365492	1841888	18771
365	2016-06-04 01:07:40	0	0	0	0	0	0	19.84	1.52	0.4	776521	0	222357	505121	776521	554164	11807	853	5560	551	365492	1841911	18771
366	2016-06-04 01:17:39	0	0	0	0	0	0	19.84	1.52	0.4	776529	0	222364	505121	776529	554165	11807	853	5560	551	365492	1841926	18771
367	2016-06-04 01:27:41	0	0	0	0	0	0	19.84	1.52	0.4	776548	0	222380	505121	776548	554168	11807	853	5560	551	365492	1841950	18771
368	2016-06-04 01:37:40	0	0	0	0	0	0	19.84	1.52	0.4	776569	0	222399	505121	776569	554170	11807	853	5560	551	365492	1841960	18771
369	2016-06-04 01:47:39	0	0	0	0	0	0	19.84	1.52	0.4	776577	0	222405	505121	776577	554172	11807	853	5561	551	365492	1841977	18772
370	2016-06-04 01:57:40	0	0	0	0	0	0	19.84	1.52	0.4	776594	0	222419	505121	776594	554175	11807	853	5562	551	365492	1841987	18773
371	2016-06-04 02:07:41	0	0	0	0	0	0	19.83	1.52	0.4	776598	0	222422	505121	776598	554176	11808	853	5562	551	365492	1843002	18774
372	2016-06-04 02:17:41	0	0	0	0	0	0	19.83	1.52	0.4	776606	0	222430	505286	776606	554176	11808	853	5562	551	365492	1843005	18774
373	2016-06-04 02:27:40	0	0	0	0	0	0	19.83	1.52	0.4	776610	0	222431	505286	776610	554179	11808	853	5562	551	365492	1843008	18774
374	2016-06-04 02:37:42	0	0	0	0	0	0	19.83	1.52	0.4	776622	0	222442	505286	776622	554180	11809	853	5562	551	365492	1843013	18775
375	2016-06-04 02:47:39	0	0	0	0	0	0	19.83	1.52	0.4	776627	0	222445	505286	776627	554182	11809	853	5562	551	365492	1843018	18775
376	2016-06-04 02:57:40	0	0	0	0	0	0	19.83	1.52	0.4	776629	0	222446	505286	776629	554183	11810	853	5562	551	365492	1843021	18776
377	2016-06-04 03:07:40	0	0	0	0	0	0	19.83	1.52	0.4	776629	0	222446	505286	776629	554183	11810	853	5562	551	365492	1843022	18776
378	2016-06-04 03:17:40	0	0	0	0	0	0	19.83	1.52	0.4	776632	0	222449	505286	776632	554183	11810	853	5562	551	365492	1843024	18776
379	2016-06-04 03:27:40	0	0	0	0	0	0	19.83	1.52	0.4	776636	0	222453	505286	776636	554183	11810	853	5562	551	365492	1843028	18776
380	2016-06-04 03:37:40	0	0	0	0	0	0	19.83	1.52	0.4	776642	0	222458	505286	776642	554184	11810	853	5562	551	365492	1843032	18776
381	2016-06-04 03:47:39	0	0	0	0	0	0	19.83	1.52	0.4	776649	0	222465	505286	776649	554184	11810	853	5562	551	365492	1843036	18776
382	2016-06-04 03:57:40	0	0	0	0	0	0	19.83	1.52	0.4	776650	0	222465	505286	776650	554185	11810	853	5562	551	365492	1843037	18776
383	2016-06-04 04:07:40	0	0	0	0	0	0	19.83	1.52	0.4	776655	0	222470	505286	776655	554185	11811	853	5562	551	365492	1843037	18777
384	2016-06-04 04:17:40	0	0	0	0	0	0	19.83	1.52	0.4	776656	0	222471	505286	776656	554185	11811	853	5562	551	365492	1843040	18777
385	2016-06-04 04:27:40	0	0	0	0	0	0	19.83	1.52	0.4	776661	0	222474	505286	776661	554187	11811	853	5562	551	365492	1843040	18777
386	2016-06-04 04:37:40	0	0	0	0	0	0	19.83	1.52	0.4	776665	0	222478	505286	776665	554187	11811	853	5562	551	365492	1843045	18777
387	2016-06-04 04:47:40	0	0	0	0	0	0	19.83	1.52	0.4	776667	0	222480	505286	776667	554187	11811	853	5562	551	365492	1843046	18777
388	2016-06-04 04:57:40	0	0	0	0	0	0	19.83	1.52	0.4	776670	0	222483	505286	776670	554187	11811	853	5562	551	365492	1843047	18777
389	2016-06-04 05:07:43	0	0	0	0	0	0	19.83	1.52	0.4	776671	0	222484	505286	776671	554187	11811	853	5562	551	365492	1843055	18777
390	2016-06-04 05:17:39	0	0	0	0	0	0	19.83	1.52	0.4	776673	0	222485	505286	776673	554188	11811	853	5562	551	365492	1843058	18777
391	2016-06-04 05:27:40	0	0	0	0	0	0	19.83	1.52	0.4	776676	0	222485	505286	776676	554188	11811	853	5562	551	365492	1843061	18777
392	2016-06-04 05:37:40	0	0	0	0	0	0	19.83	1.52	0.4	776678	0	222490	505286	776678	554188	11811	853	5562	551	365492	1843063	18777
393	2016-06-04 05:47:40	0	0	0	0	0	0	19.83	1.52	0.4	776681	0	222491	505286	776681	554190	11811	853	5562	551	365492	1843064	18777
394	2016-06-04 05:57:40	0	0	0	0	0	0	19.83	1.52	0.4	776686	0	222496	505286	776686	554190	11811	853	5562	551	365492	1843065	18777
395	2016-06-04 06:07:40	0	0	0	0	0	0	19.83	1.52	0.4	776689	0	222497	505286	776689	554192	11811	853	5562	551	365492	1843065	18777
396	2016-06-04 06:17:40	0	0	0	0	0	0	19.83	1.52	0.4	776694	0	222502	505286	776694	554192	11811	853	5562	551	365492	1843067	18777
397	2016-06-04 06:27:43	0	0	0	0	0	0	19.83	1.52	0.4	776701	0	222507	505286	776701	554194	11811	853	5562	551	365492	1843075	18777
398	2016-06-04 06:37:41	0	0	0	0	0	0	19.83	1.52	0.4	776705	0	222511	505286	776705	554194	11811	853	5562	551	365492	1843076	18777
399	2016-06-04 06:47:41	0	0	0	0	0	0	19.83	1.52	0.4	776709	0	222514	505286	776709	554195	11811	853	5562	551	365492	1843084	18777
400	2016-06-04 06:57:42	0	0	0	0	0	0	19.83	1.52	0.4	776713	0	222516	505286	776713	554197	11811	853	5562	551	365492	1843093	18777
401	2016-06-04 07:07:41	0	0	0	0	0	0	19.83	1.52	0.4	776715	0	222516	505286	776715	554197	11811	853	5562	551	365492	1843098	18777
