1	2018-06-18 15:56:14		0	0	0	0	0	0	0.03	7.68	0	1250	0	4	1054	1250	1250	96	1	7	0	6	0	0	0	1	1204	3876895	105
2	2018-06-18 16:06:19		0	0	0	0	0	0	0.46	9.78	0	18533	0	59	14340	18533	18533	1813	16	53	0	114	0	0	0	11	17751	3876920	1893
3	2018-06-18 16:16:15		0	0	0	0	0	0	0.76	10.18	0.01	31319	0	203	24045	31319	31319	3187	30	78	2	180	3	0	0	19	29421	3876934	3314
4	2018-06-18 16:26:20		0	0	0	0	0	0	1.04	10.13	0.01	43331	0	394	32830	43331	43331	4391	40	103	4	237	3	0	0	23	40286	3876945	4557
5	2018-06-18 16:36:16		0	0	0	0	0	0	1.27	10.18	0.01	53300	0	592	36599	53300	53300	5428	47	120	4	289	4	0	0	24	49126	3876957	5619
6	2018-06-18 16:46:17		0	0	0	0	0	0	1.47	10.1	0.01	62160	0	788	46105	62160	62160	6279	51	136	4	343	4	0	0	24	56935	3876966	6490
7	2018-06-18 16:56:17		0	0	0	0	0	0	1.64	10.03	0.01	69637	0	968	51710	69637	69637	6988	54	152	4	368	4	0	0	25	63430	3876973	7219
8	2018-06-18 17:06:19		0	0	0	0	0	0	1.76	9.97	0.01	75062	0	1101	55265	75062	75062	7480	54	161	4	381	4	0	0	25	68062	3876985	7720
9	2018-06-18 17:16:20		0	0	0	0	0	0	1.86	9.89	0.02	79968	0	1242	58162	79968	79968	7908	55	170	4	395	4	0	1	27	72263	3876996	8160
10	2018-06-18 17:26:21		0	0	0	0	0	0	1.97	9.85	0.02	84740	0	1337	61694	84740	84740	8346	56	179	5	419	4	0	1	27	76387	3876999	8608
11	2018-06-18 17:36:24		0	0	0	0	0	0	2.07	9.82	0.02	89111	0	1443	65162	89111	89111	8752	57	191	6	436	4	0	1	28	80122	3877001	9028
12	2018-06-18 17:46:22		0	0	0	0	0	0	2.16	9.77	0.02	93464	0	1551	68691	93464	93464	9133	58	201	6	449	5	0	1	29	83791	3877016	9421
13	2018-06-18 17:56:22		0	0	0	0	0	0	2.25	9.71	0.02	97715	0	1682	72039	97715	97715	9487	60	210	6	460	5	0	1	29	87362	3877031	9786
14	2018-06-18 18:06:24		0	0	0	0	0	0	2.33	9.7	0.02	101390	0	1819	74193	101390	101390	9833	62	214	6	478	5	0	1	30	90421	3877045	10139
15	2018-06-18 18:16:24		0	0	0	0	0	0	2.41	9.63	0.02	104809	0	1923	76226	104809	104809	10094	64	220	7	492	5	0	1	32	93312	3877058	10410
16	2018-06-18 18:26:27		0	0	0	0	0	0	2.48	9.6	0.02	108315	0	2021	79458	108315	108315	10399	69	228	7	514	6	0	1	33	96303	3877078	10729
17	2018-06-18 18:36:27		0	0	0	0	0	0	2.55	9.57	0.02	111531	0	2140	81065	111531	111531	10669	72	236	7	523	6	0	1	34	99018	3877095	11011
18	2018-06-18 18:46:27		0	0	0	0	0	0	2.63	9.53	0.02	114896	0	2250	82709	114896	114896	10948	73	241	7	537	6	0	1	34	101854	3877110	11296
19	2018-06-18 18:56:30		0	0	0	0	0	0	2.69	9.48	0.02	118042	0	2356	84285	118042	118042	11185	74	246	7	546	6	0	1	34	104389	3877115	11539
20	2018-06-18 19:06:30		0	0	0	0	0	0	2.75	9.45	0.02	120699	0	2424	86748	120699	120699	11403	75	253	7	552	6	0	1	34	106467	3877122	11765
21	2018-06-18 19:16:30		0	0	0	0	0	0	2.8	9.38	0.02	123416	0	2523	87710	123416	123416	11580	78	259	8	560	6	0	1	34	108553	3877130	11951
22	2018-06-18 19:26:31		0	0	0	0	0	0	2.86	9.34	0.02	126262	0	2612	90705	126262	126262	11794	83	262	8	575	7	0	1	34	110869	3877128	12173
23	2018-06-18 19:36:31		0	0	0	0	0	0	2.92	9.3	0.02	128999	0	2721	92215	128999	128999	11999	83	263	9	584	7	1	1	35	113092	3877135	12380
24	2018-06-18 19:46:31		0	0	0	0	0	0	2.97	9.26	0.02	131700	0	2838	93842	131700	131700	12192	83	266	9	590	7	1	1	35	115326	3877136	12576
25	2018-06-18 19:56:33		0	0	0	0	0	0	3.03	9.23	0.02	134251	0	2939	96458	134251	134251	12386	83	269	9	600	7	1	1	36	117362	3877151	12774
26	2018-06-18 20:06:39		0	0	0	0	0	0	3.08	9.2	0.02	136629	0	3041	97830	136629	136629	12569	83	273	9	607	7	1	1	37	119379	3877166	12962
27	2018-06-18 20:16:38		0	0	0	0	0	0	3.13	9.15	0.02	138926	0	3140	98802	138926	138926	12715	86	278	9	613	7	1	1	37	121243	3877182	13116
28	2018-06-18 20:26:36		0	0	0	0	0	0	3.17	9.13	0.02	141178	0	3234	100324	141178	141178	12887	87	281	9	616	8	1	1	38	123092	3877206	13293
29	2018-06-18 20:38:21		0	0	0	0	0	0	3.22	9.1	0.02	143357	0	3322	101388	143357	143357	13042	91	287	9	625	8	1	1	38	124871	3877218	13458
30	2018-06-18 20:46:37		0	0	0	0	0	0	3.27	9.07	0.02	145569	0	3430	102936	145569	145569	13202	92	288	9	633	8	1	1	38	126687	3877252	13620
31	2018-06-18 20:56:38		0	0	0	0	0	0	3.31	9.03	0.02	147720	0	3523	104438	147720	147720	13341	92	288	9	638	8	1	2	38	128441	3877280	13759
32	2018-06-18 21:06:39		0	0	0	0	0	0	3.35	9.01	0.02	149677	0	3605	105132	149677	149677	13487	93	293	9	642	8	1	2	38	130045	3877325	13911
33	2018-06-18 21:16:38		0	0	0	0	0	0	3.4	8.97	0.02	151712	0	3683	106431	151712	151712	13605	93	297	10	649	8	1	2	39	131729	3877354	14034
34	2018-06-18 21:26:41		0	0	0	0	0	0	3.44	8.94	0.02	153674	0	3746	107560	153674	153674	13739	93	299	10	656	8	1	2	39	133314	3877400	14170
35	2018-06-18 21:36:40		0	0	0	0	0	0	3.48	8.93	0.02	155652	0	3837	108822	155652	155652	13899	93	304	10	663	8	1	2	40	134950	3877454	14336
36	2018-06-18 21:46:44		0	0	0	0	0	0	3.52	8.91	0.02	157686	0	3906	109892	157686	157686	14046	95	309	10	675	8	1	2	40	136634	3877486	14490
37	2018-06-18 21:56:41		0	0	0	0	0	0	3.56	8.88	0.02	159636	0	3987	110595	159636	159636	14183	98	312	10	681	8	1	2	40	138206	3877522	14633
38	2018-06-18 22:06:42		0	0	0	0	0	0	3.6	8.88	0.03	161493	0	4076	111720	161493	161493	14338	100	316	10	691	9	1	2	40	139685	3877582	14794
39	2018-06-18 22:16:46		0	0	0	0	0	0	3.64	8.86	0.03	163389	0	4138	112421	163389	163389	14470	101	318	10	697	9	1	2	40	141196	3877627	14929
40	2018-06-18 22:26:52		0	0	0	0	0	0	3.68	8.85	0.03	165349	0	4217	113722	165349	165349	14635	101	321	10	704	9	1	2	41	142769	3877668	15098
41	2018-06-18 22:36:47		0	0	0	0	0	0	3.72	8.84	0.03	167228	0	4290	114976	167228	167228	14782	101	321	10	709	9	1	2	42	144340	3877728	15246
42	2018-06-18 22:46:50		0	0	0	0	0	0	3.76	8.83	0.03	168993	0	4364	116083	168993	168993	14927	104	323	10	717	9	1	2	42	145791	3877783	15396
43	2018-06-18 22:56:48		0	0	0	0	0	0	3.8	8.83	0.03	170765	0	4455	117272	170765	170765	15074	104	324	10	727	9	1	2	42	147223	3877839	15544
44	2018-06-18 23:06:47		0	0	0	0	0	0	3.83	8.81	0.03	172500	0	4543	118770	172500	172500	15200	105	325	10	734	9	1	2	42	148619	3877894	15672
45	2018-06-18 23:16:51		0	0	0	0	0	0	3.87	8.8	0.03	174165	0	4617	119768	174165	174165	15325	105	326	10	738	9	1	2	42	149977	3877949	15798
46	2018-06-18 23:26:50		0	0	0	0	0	0	3.9	8.8	0.03	175665	0	4676	120796	175665	175665	15462	106	327	10	748	10	1	2	42	151208	3878014	15937
47	2018-06-18 23:36:48		0	0	0	0	0	0	3.93	8.79	0.03	177110	0	4746	121468	177110	177110	15563	106	329	10	752	10	1	2	42	152373	3878064	16040
48	2018-06-18 23:46:48		0	0	0	0	0	0	3.96	8.78	0.03	178486	0	4800	122230	178486	178486	15666	107	330	11	755	10	1	2	42	153493	3878100	16145
49	2018-06-18 23:56:48		0	0	0	0	0	0	3.98	8.77	0.03	179785	0	4860	122684	179785	179785	15770	107	332	11	761	10	1	2	42	154537	3878130	16251
50	2018-06-19 00:06:50		0	0	0	0	0	0	4.01	8.76	0.03	180945	0	4889	124217	180945	180945	15857	108	335	11	767	10	1	2	42	155491	3878169	16342
51	2018-06-19 00:16:50		0	0	0	0	0	0	4.03	8.76	0.03	182038	0	4923	125091	182038	182038	15944	108	335	11	772	10	1	2	42	156395	3878200	16429
52	2018-06-19 00:26:52		0	0	0	0	0	0	4.06	8.76	0.03	183076	0	4959	126045	183076	183076	16032	107	339	12	775	10	1	2	42	157273	3878232	16520
53	2018-06-19 00:36:51		0	0	0	0	0	0	4.07	8.76	0.03	183924	0	4991	126561	183924	183924	16112	107	341	12	777	10	1	2	43	158001	3878255	16603
54	2018-06-19 00:46:52		0	0	0	0	0	0	4.09	8.76	0.03	184699	0	5030	127625	184699	184699	16176	108	342	12	780	10	1	2	43	158654	3878273	16669
55	2018-06-19 00:56:51		0	0	0	0	0	0	4.11	8.76	0.03	185439	0	5046	127899	185439	185439	16238	109	344	12	781	10	1	2	43	159271	3878294	16734
56	2018-06-19 01:06:52		0	0	0	0	0	0	4.12	8.75	0.03	186152	0	5075	128268	186152	186152	16296	109	344	12	785	10	1	2	43	159873	3878320	16792
57	2018-06-19 01:16:52		0	0	0	0	0	0	4.14	8.75	0.03	186754	0	5099	128561	186754	186754	16340	109	344	12	788	10	1	2	43	160381	3878341	16836
58	2018-06-19 01:26:53		0	0	0	0	0	0	4.15	8.75	0.03	187363	0	5120	128871	187363	187363	16387	109	345	13	792	10	1	2	43	160889	3878356	16884
59	2018-06-19 01:36:54		0	0	0	0	0	0	4.16	8.74	0.03	187879	0	5139	129086	187879	187879	16421	110	346	13	794	10	1	2	43	161316	3878367	16920
60	2018-06-19 01:46:54		0	0	0	0	0	0	4.17	8.75	0.03	188286	0	5158	129162	188286	188286	16468	111	347	13	796	10	1	2	44	161658	3878378	16970
61	2018-06-19 01:56:54		0	0	0	0	0	0	4.18	8.74	0.03	188694	0	5174	129594	188694	188694	16500	112	348	13	797	10	1	2	44	162012	3878386	17004
62	2018-06-19 02:06:56		0	0	0	0	0	0	4.18	8.75	0.03	189045	0	5180	129594	189045	189045	16536	112	349	13	805	10	1	2	45	162310	3878395	17042
63	2018-06-19 02:16:56		0	0	0	0	0	0	4.19	8.75	0.03	189323	0	5188	129716	189323	189323	16557	112	350	13	805	10	1	2	45	162546	3878403	17064
64	2018-06-19 02:26:56		0	0	0	0	0	0	4.2	8.75	0.03	189667	0	5199	130000	189667	189667	16592	112	350	13	807	10	1	2	45	162834	3878409	17099
65	2018-06-19 02:36:56		0	0	0	0	0	0	4.21	8.75	0.03	189989	0	5211	130131	189989	189989	16630	112	351	13	809	10	1	2	45	163110	3878412	17138
66	2018-06-19 02:47:01		0	0	0	0	0	0	4.21	8.75	0.03	190270	0	5218	130174	190270	190270	16651	112	351	13	811	10	1	2	45	163347	3878414	17159
67	2018-06-19 02:56:57		0	0	0	0	0	0	4.22	8.75	0.03	190546	0	5230	130525	190546	190546	16670	112	353	13	811	10	1	2	46	163590	3878414	17181
68	2018-06-19 03:06:58		0	0	0	0	0	0	4.22	8.75	0.03	190774	0	5240	130702	190774	190774	16693	112	354	13	811	10	1	2	46	163793	3878415	17205
69	2018-06-19 03:16:59		0	0	0	0	0	0	4.23	8.75	0.03	190982	0	5249	130790	190982	190982	16706	112	355	13	813	10	1	2	46	163973	3878411	17219
70	2018-06-19 03:26:59		0	0	0	0	0	0	4.23	8.74	0.03	191179	0	5257	131145	191179	191179	16717	112	356	13	815	10	1	2	46	164137	3878413	17231
71	2018-06-19 03:36:59		0	0	0	0	0	0	4.24	8.75	0.03	191360	0	5263	131222	191360	191360	16737	112	357	13	817	10	1	2	46	164302	3878412	17252
72	2018-06-19 03:47:00		0	0	0	0	0	0	4.24	8.75	0.03	191522	0	5268	131284	191522	191522	16750	112	357	13	817	10	1	2	46	164444	3878412	17265
73	2018-06-19 03:57:06		0	0	0	0	0	0	4.24	8.75	0.03	191682	0	5269	131306	191682	191682	16767	112	358	13	818	10	1	2	46	164580	3878412	17283
74	2018-06-19 04:07:01		0	0	0	0	0	0	4.25	8.75	0.03	191854	0	5279	131317	191854	191854	16778	112	359	13	818	10	1	2	46	164722	3878414	17295
75	2018-06-19 04:17:02		0	0	0	0	0	0	4.25	8.74	0.03	192007	0	5284	131473	192007	192007	16790	112	359	13	819	10	1	2	46	164854	3878415	17307
76	2018-06-19 04:27:03		0	0	0	0	0	0	4.25	8.74	0.03	192161	0	5287	131729	192161	192161	16802	112	359	13	819	10	1	2	46	164981	3878414	17319
77	2018-06-19 04:37:02		0	0	0	0	0	0	4.26	8.74	0.03	192318	0	5289	132156	192318	192318	16818	112	359	13	819	10	1	2	46	165115	3878416	17335
78	2018-06-19 04:47:02		0	0	0	0	0	0	4.26	8.74	0.03	192434	0	5297	132428	192434	192434	16828	112	361	13	819	10	1	2	46	165208	3878414	17347
79	2018-06-19 04:57:09		0	0	0	0	0	0	4.26	8.75	0.03	192585	0	5299	132450	192585	192585	16842	112	361	13	819	10	1	2	46	165334	3878420	17361
80	2018-06-19 05:07:06		0	0	0	0	0	0	4.27	8.75	0.03	192767	0	5312	132473	192767	192767	16860	112	361	13	819	10	1	2	46	165490	3878425	17379
81	2018-06-19 05:17:10		0	0	0	0	0	0	4.27	8.75	0.03	192967	0	5320	132632	192967	192967	16877	112	361	13	819	10	1	2	46	165675	3878424	17396
82	2018-06-19 05:27:05		0	0	0	0	0	0	4.28	8.75	0.03	193167	0	5330	132632	193167	193167	16894	112	361	13	819	10	1	2	46	165844	3878427	17413
83	2018-06-19 05:37:10		0	0	0	0	0	0	4.28	8.74	0.03	193385	0	5335	132837	193385	193385	16910	113	362	13	819	10	1	2	46	166020	3878426	17431
84	2018-06-19 05:47:06		0	0	0	0	0	0	4.29	8.75	0.03	193644	0	5340	132980	193644	193644	16936	113	362	13	819	10	1	2	46	166248	3878434	17457
85	2018-06-19 05:57:10		0	0	0	0	0	0	4.29	8.75	0.03	193963	0	5353	133082	193963	193963	16968	113	362	13	820	10	1	2	46	166524	3878445	17489
86	2018-06-19 06:07:08		0	0	0	0	0	0	4.3	8.75	0.03	194249	0	5364	133311	194249	194249	16999	113	362	13	820	10	1	2	46	166776	3878459	17520
87	2018-06-19 06:17:08		0	0	0	0	0	0	4.31	8.74	0.03	194570	0	5373	133599	194570	194570	17014	113	363	13	822	10	1	2	46	167053	3878463	17536
88	2018-06-19 06:27:11		0	0	0	0	0	0	4.32	8.74	0.03	194970	0	5387	133818	194970	194970	17050	114	363	13	824	10	1	2	46	167403	3878472	17573
89	2018-06-19 06:37:08		0	0	0	0	0	0	4.33	8.74	0.03	195419	0	5405	134037	195419	195419	17086	114	365	13	825	10	1	2	47	167807	3878486	17612
90	2018-06-19 06:47:10		0	0	0	0	0	0	4.34	8.74	0.03	195886	0	5413	134211	195886	195886	17119	114	365	13	826	10	1	2	47	168217	3878502	17645
91	2018-06-19 06:57:15		0	0	0	0	0	0	4.35	8.74	0.03	196435	0	5438	134561	196435	196435	17168	114	365	13	828	10	1	2	48	168670	3878515	17695
92	2018-06-19 07:07:14		0	0	0	0	0	0	4.36	8.74	0.03	196969	0	5455	134935	196969	196969	17206	114	365	13	829	10	1	2	48	169131	3878536	17733
93	2018-06-19 07:17:15		0	0	0	0	0	0	4.37	8.73	0.03	197478	0	5484	134935	197478	197478	17243	114	365	13	831	10	1	2	48	169580	3878553	17770
94	2018-06-19 07:27:12		0	0	0	0	0	0	4.38	8.73	0.03	197982	0	5508	135253	197982	197982	17280	115	366	13	835	10	1	2	48	169981	3878569	17809
95	2018-06-19 07:37:12		0	0	0	0	0	0	4.39	8.73	0.03	198518	0	5546	135392	198518	198518	17326	117	367	13	837	10	1	2	48	170432	3878587	17858
96	2018-06-19 07:47:13		0	0	0	0	0	0	4.41	8.73	0.03	199063	0	5581	135603	199063	199063	17374	117	367	13	839	10	1	2	48	170914	3878600	17906
97	2018-06-19 07:57:13		0	0	0	0	0	0	4.42	8.73	0.03	199659	0	5622	136115	199659	199659	17429	117	367	13	840	10	1	2	48	171412	3878617	17961
98	2018-06-19 08:07:14		0	0	0	0	0	0	4.43	8.72	0.03	200293	0	5663	136391	200293	200293	17472	118	367	13	841	10	1	2	48	171951	3878641	18005
99	2018-06-19 08:17:14		0	0	0	0	0	0	4.45	8.72	0.03	200933	0	5677	136668	200933	200614	17527	118	368	13	844	10	1	2	48	172483	3878672	18061
100	2018-06-19 08:27:15		0	0	0	0	0	0	4.46	8.73	0.03	201587	0	5729	136873	201587	201587	17590	119	369	13	845	10	1	2	48	173025	3878696	18126
101	2018-06-19 08:37:17		0	0	0	0	0	0	4.47	8.72	0.03	202227	0	5759	137213	202227	202227	17643	119	370	13	845	10	1	2	48	173549	3878725	18180
102	2018-06-19 08:47:17		0	0	0	0	0	0	4.49	8.72	0.03	202860	0	5802	137989	202860	202860	17697	120	370	13	846	10	1	2	48	174079	3878755	18235
103	2018-06-19 08:52:29		0	0	0	0	0	0	4.49	8.72	0.03	203203	0	5829	138254	203203	203203	17727	120	371	13	846	10	1	2	48	174079	3878769	18266
104	2018-06-19 09:02:30		0	0	0	0	0	0	4.51	8.73	0.03	203830	0	5875	138464	203830	203830	17789	120	371	13	852	10	1	2	48	174871	3878800	18328
105	2018-06-19 09:12:30		0	0	0	0	0	0	4.52	8.73	0.03	204433	0	5898	139932	204433	204433	17855	120	371	13	853	10	1	2	48	175369	3878830	18394
106	2018-06-19 09:22:30		0	0	0	0	0	0	4.53	8.73	0.03	205078	0	5928	139979	205078	205078	17899	120	371	13	856	10	1	2	49	175906	3878863	18439
107	2018-06-19 09:32:30		0	0	0	0	0	0	4.55	8.73	0.03	205700	0	5960	140475	205700	205700	17954	120	372	13	859	10	1	2	49	176412	3878889	18495
108	2018-06-19 09:42:31		0	0	0	0	0	0	4.56	8.72	0.03	206367	0	5995	141292	206367	206367	18005	120	373	13	861	10	1	2	49	176934	3878926	18547
109	2018-06-19 09:52:30		0	0	0	0	0	0	4.57	8.72	0.03	206942	0	6024	141641	206942	206942	18054	120	373	13	863	10	1	2	50	177397	3878968	18597
110	2018-06-19 10:02:32		0	0	0	0	0	0	4.59	8.72	0.03	207507	0	6054	142187	207507	207507	18097	120	373	13	867	10	1	2	50	177868	3879013	18640
111	2018-06-19 10:12:31		0	0	0	0	0	0	4.6	8.72	0.03	208094	0	6084	142580	208094	208094	18146	120	374	13	870	10	1	2	50	178332	3879049	18690
112	2018-06-19 10:22:32		0	0	0	0	0	0	4.61	8.72	0.03	208650	0	6110	142725	208650	208650	18192	120	374	13	870	10	1	2	50	178779	3879080	18736
113	2018-06-19 10:32:32		0	0	0	0	0	0	4.62	8.71	0.03	209174	0	6138	143035	209174	209174	18229	120	375	13	871	10	1	2	51	179202	3879112	18775
114	2018-06-19 10:42:34		0	0	0	0	0	0	4.63	8.71	0.03	209675	0	6162	143167	209675	209675	18271	121	376	13	874	10	1	2	51	179589	3879149	18819
115	2018-06-19 10:52:51		0	0	0	0	0	0	4.64	8.71	0.03	210183	0	6202	143708	210183	210183	18311	123	378	13	878	10	1	2	53	180014	3879175	18865
116	2018-06-19 11:02:37		0	0	0	0	0	0	4.65	8.71	0.03	210662	0	6233	143708	210662	210662	18349	124	379	13	881	10	1	2	53	180408	3879213	18905
117	2018-06-19 11:12:37		0	0	0	0	0	0	4.66	8.71	0.03	211151	0	6262	144002	211151	211151	18388	124	379	13	885	10	1	2	53	180808	3879252	18944
118	2018-06-19 11:22:40		0	0	0	0	0	0	4.67	8.71	0.03	211646	0	6283	144281	211646	211646	18437	124	380	14	892	10	1	2	53	181226	3879288	18994
119	2018-06-19 11:32:39		0	0	0	0	0	0	4.68	8.71	0.03	212099	0	6318	144645	212099	212099	18473	124	380	14	895	10	1	2	54	181620	3879323	19031
120	2018-06-19 11:42:39		0	0	0	0	0	0	4.69	8.7	0.03	212561	0	6348	144902	212561	212561	18502	125	380	14	895	10	1	2	54	181996	3879360	19061
121	2018-06-19 11:52:43		0	0	0	0	0	0	4.7	8.7	0.03	212960	0	6377	145376	212960	212960	18537	125	382	14	896	10	1	2	54	182345	3879397	19098
122	2018-06-19 12:02:45		0	0	0	0	0	0	4.71	8.7	0.03	213367	0	6415	145540	213367	213367	18562	125	383	14	898	10	1	2	54	182684	3879429	19124
123	2018-06-19 12:12:48		0	0	0	0	0	0	4.72	8.7	0.03	213767	0	6445	145690	213767	213767	18604	125	386	14	899	10	1	2	54	183018	3879457	19169
124	2018-06-19 12:22:43		0	0	0	0	0	0	4.72	8.7	0.03	214088	0	6466	146124	214088	214088	18633	125	386	14	901	10	1	2	54	183294	3879489	19198
125	2018-06-19 12:32:43		0	0	0	0	0	0	4.73	8.7	0.03	214448	0	6492	146310	214448	214448	18659	126	388	14	902	10	1	2	54	183577	3879528	19227
126	2018-06-19 12:42:43		0	0	0	0	0	0	4.75	8.7	0.03	215300	0	6513	146802	215300	215300	18723	126	390	14	903	10	1	2	55	184357	3879556	19294
127	2018-06-19 12:52:45		0	0	0	0	0	0	4.77	8.7	0.03	216116	0	6543	147326	216116	216116	18799	126	391	14	909	10	1	2	55	185102	3879585	19371
128	2018-06-19 13:02:47		0	0	0	0	0	0	4.78	8.7	0.03	216547	0	6565	147551	216547	216547	18836	126	391	14	911	10	1	2	55	185484	3879609	19408
129	2018-06-19 13:12:49		0	0	0	0	0	0	4.79	8.7	0.03	216942	0	6592	147620	216942	216942	18865	126	392	14	914	10	1	2	56	185834	3879644	19439
130	2018-06-19 13:22:47		0	0	0	0	0	0	4.8	8.69	0.03	217311	0	6621	147690	217311	217311	18895	126	394	14	916	10	1	2	56	186146	3879681	19471
131	2018-06-19 13:32:46		0	0	0	0	0	0	4.81	8.69	0.03	217664	0	6631	148028	217664	217664	18923	126	394	14	917	10	1	2	56	186446	3879698	19499
132	2018-06-19 13:42:47		0	0	0	0	0	0	4.81	8.69	0.03	218050	0	6651	148071	218050	218050	18954	126	395	14	919	10	1	2	56	186777	3879728	19531
133	2018-06-19 13:52:47		0	0	0	0	0	0	4.82	8.69	0.03	218423	0	6675	148212	218423	218423	18984	127	397	14	921	10	1	2	56	187103	3879759	19564
134	2018-06-19 14:02:49		0	0	0	0	0	0	4.83	8.69	0.03	218805	0	6692	148732	218805	218805	19019	127	397	14	925	10	1	2	56	187443	3879785	19599
135	2018-06-19 14:12:49		0	0	0	0	0	0	4.84	8.69	0.03	219149	0	6713	149004	219149	219149	19050	127	398	14	927	10	1	2	56	187745	3879814	19631
136	2018-06-19 14:22:49		0	0	0	0	0	0	4.85	8.69	0.03	219513	0	6736	149259	219513	219513	19075	127	399	14	928	10	1	2	56	188065	3879847	19657
137	2018-06-19 14:32:50		0	0	0	0	0	0	4.85	8.69	0.03	219841	0	6752	149345	219841	219841	19101	127	399	14	928	10	1	2	56	188356	3879868	19683
138	2018-06-19 14:42:50		0	0	0	0	0	0	4.86	8.69	0.03	220190	0	6760	149475	220190	220190	19131	127	399	14	930	10	1	2	56	188669	3879902	19713
139	2018-06-19 14:52:51		0	0	0	0	0	0	4.87	8.69	0.03	220611	0	6790	149670	220611	220611	19163	127	402	14	934	10	1	2	56	189037	3879931	19748
140	2018-06-19 15:02:53		0	0	0	0	0	0	4.88	8.68	0.03	221014	0	6815	149873	221014	221014	19194	127	402	14	938	10	1	2	57	189399	3879959	19780
141	2018-06-19 15:12:52		0	0	0	0	0	0	4.89	8.68	0.03	221387	0	6833	150251	221387	221387	19220	127	402	14	938	10	1	2	57	189721	3879983	19806
142	2018-06-19 15:22:53		0	0	0	0	0	0	4.9	8.68	0.03	221822	0	6845	150543	221822	221822	19252	127	402	14	940	10	1	2	57	190097	3880013	19838
143	2018-06-19 15:23:22		0	0	0	0	0	0	4.9	8.68	0.03	221822	0	6845	150543	221822	221822	19252	127	402	14	940	10	1	2	57	190097	3880014	19838
144	2018-06-19 15:33:22		0	0	0	0	0	0	4.91	8.68	0.03	222173	0	6866	150623	222173	222173	19279	127	404	14	941	10	1	2	57	190406	3880048	19867
145	2018-06-19 15:43:23		0	0	0	0	0	0	4.91	8.68	0.03	222505	0	6894	150828	222505	222505	19313	129	405	15	943	10	1	2	57	190696	3880066	19904
146	2018-06-19 15:53:24		0	0	0	0	0	0	4.92	8.68	0.03	222872	0	6906	150843	222872	222872	19348	129	405	15	945	10	1	2	57	191016	3880100	19939
147	2018-06-19 16:03:31		0	0	0	0	0	0	4.93	8.68	0.03	223209	0	6930	151211	223209	223209	19378	129	405	15	947	10	1	2	57	191303	3880123	19969
148	2018-06-19 16:13:31		0	0	0	0	0	0	4.94	8.68	0.03	223466	0	6941	151359	223466	223466	19403	129	405	15	948	10	1	2	57	191536	3880157	19994
149	2018-06-19 16:23:56		0	0	0	0	0	0	4.94	8.68	0.03	223775	0	6964	151567	223775	223775	19425	129	405	15	953	10	1	2	57	191817	3880194	20016
150	2018-06-19 16:33:37		0	0	0	0	0	0	4.95	8.68	0.03	224045	0	6977	151790	224045	224045	19453	129	405	15	953	10	1	2	57	192057	3880220	20044
151	2018-06-19 16:43:39		0	0	0	0	0	0	4.96	8.69	0.03	224316	0	6993	151994	224316	224316	19483	129	406	15	954	10	1	2	57	192289	3880252	20075
152	2018-06-19 16:53:29		0	0	0	0	0	0	4.96	8.68	0.03	224607	0	7008	152349	224607	224607	19504	129	406	15	955	10	1	2	57	192533	3880273	20096
153	2018-06-19 17:03:30		0	0	0	0	0	0	4.97	8.68	0.03	224896	0	7018	152590	224896	224896	19527	129	407	15	955	10	1	2	57	192792	3880292	20120
154	2018-06-19 17:13:30		0	0	0	0	0	0	4.97	8.68	0.03	225111	0	7029	152590	225111	225111	19549	129	407	15	956	10	1	2	57	192977	3880314	20142
155	2018-06-19 17:23:31		0	0	0	0	0	0	4.98	8.68	0.03	225386	0	7039	153091	225386	225386	19568	129	407	15	957	10	1	2	57	193205	3880343	20161
156	2018-06-19 17:33:32		0	0	0	0	0	0	4.99	8.68	0.03	225690	0	7053	153669	225690	225690	19591	129	407	15	957	10	1	2	57	193466	3880367	20184
157	2018-06-19 17:43:34		0	0	0	0	0	0	4.99	8.68	0.03	225958	0	7067	154036	225958	225958	19606	129	408	15	958	10	1	2	57	193704	3880400	20200
158	2018-06-19 17:53:36		0	0	0	0	0	0	5	8.67	0.03	226241	0	7076	154428	226241	226241	19626	129	410	15	960	10	1	2	57	193948	3880423	20222
159	2018-06-19 18:03:36		0	0	0	0	0	0	5	8.67	0.03	226537	0	7086	154428	226537	226537	19652	129	410	15	962	10	1	2	57	194215	3880448	20248
160	2018-06-19 18:13:37		0	0	0	0	0	0	5.01	8.67	0.03	226779	0	7095	154736	226779	226779	19669	129	412	15	963	10	1	2	57	194428	3880472	20267
161	2018-06-19 18:23:36		0	0	0	0	0	0	5.02	8.67	0.03	227061	0	7105	155108	227061	227061	19687	129	412	15	964	10	1	2	57	194659	3880487	20285
162	2018-06-19 18:33:36		0	0	0	0	0	0	5.02	8.67	0.03	227329	0	7111	155998	227329	227329	19699	129	412	15	966	10	1	2	57	194889	3880513	20297
163	2018-06-19 18:43:36		0	0	0	0	0	0	5.03	8.66	0.03	227638	0	7120	156014	227638	227638	19720	129	412	15	968	10	1	2	57	195153	3880538	20318
164	2018-06-19 18:53:38		0	0	0	0	0	0	5.04	8.66	0.03	227927	0	7131	156203	227927	227927	19740	129	412	15	968	10	1	2	57	195394	3880547	20338
165	2018-06-19 19:03:41		0	0	0	0	0	0	5.04	8.66	0.03	228156	0	7142	156282	228156	228156	19759	129	412	15	968	10	1	2	57	195591	3880577	20357
166	2018-06-19 19:13:40		0	0	0	0	0	0	5.05	8.66	0.03	228389	0	7152	156282	228389	228389	19774	129	412	15	969	10	1	2	57	195781	3880608	20372
167	2018-06-19 19:23:40		0	0	0	0	0	0	5.05	8.66	0.03	228614	0	7160	156392	228614	228614	19798	129	412	15	969	10	1	2	57	195974	3880643	20396
168	2018-06-19 19:33:42		0	0	0	0	0	0	5.05	8.66	0.03	228835	0	7169	156416	228835	228835	19812	129	412	15	971	10	1	2	57	196161	3880673	20410
169	2018-06-19 19:43:42		0	0	0	0	0	0	5.06	8.66	0.03	229063	0	7174	156542	229063	229063	19833	129	412	15	971	10	1	2	57	196364	3880693	20431
170	2018-06-19 19:53:43		0	0	0	0	0	0	5.07	8.66	0.03	229317	0	7190	156669	229317	229317	19859	129	412	15	971	10	1	2	57	196586	3880712	20457
171	2018-06-19 20:03:47		0	0	0	0	0	0	5.07	8.66	0.03	229563	0	7202	156764	229563	229563	19873	130	412	15	972	10	1	2	57	196792	3880736	20472
172	2018-06-19 20:13:44		0	0	0	0	0	0	5.08	8.65	0.03	229790	0	7224	156772	229790	229790	19887	130	412	15	974	10	1	2	57	196981	3880765	20486
173	2018-06-19 20:23:45		0	0	0	0	0	0	5.08	8.65	0.03	230012	0	7236	156836	230012	230012	19900	130	412	15	974	10	1	2	57	197174	3880785	20499
174	2018-06-19 20:33:45		0	0	0	0	0	0	5.09	8.65	0.03	230237	0	7249	156836	230237	230237	19918	130	412	15	976	10	1	2	57	197362	3880814	20517
175	2018-06-19 20:43:46		0	0	0	0	0	0	5.09	8.65	0.03	230441	0	7258	156899	230441	230441	19938	130	412	15	978	10	1	2	57	197542	3880846	20537
176	2018-06-19 20:53:47		0	0	0	0	0	0	5.09	8.65	0.03	230638	0	7272	156899	230638	230638	19954	130	412	15	978	10	1	2	57	197710	3880867	20553
177	2018-06-19 21:03:48		0	0	0	0	0	0	5.1	8.65	0.03	230853	0	7281	157090	230853	230853	19976	130	412	15	979	10	1	2	57	197895	3880899	20575
178	2018-06-19 21:13:50		0	0	0	0	0	0	5.1	8.65	0.03	231088	0	7288	157146	231088	231088	19990	130	412	15	979	10	1	2	57	198090	3880928	20589
179	2018-06-19 21:23:49		0	0	0	0	0	0	5.11	8.65	0.03	231310	0	7294	157272	231310	231310	20008	130	412	15	981	10	1	2	57	198281	3880949	20607
180	2018-06-19 21:33:50		0	0	0	0	0	0	5.11	8.65	0.03	231566	0	7311	157320	231566	231566	20026	130	412	15	982	10	1	2	58	198489	3880980	20626
181	2018-06-19 21:43:51		0	0	0	0	0	0	5.12	8.64	0.03	231818	0	7326	157432	231818	231818	20040	130	412	15	982	10	1	2	58	198713	3880994	20640
182	2018-06-19 21:53:52		0	0	0	0	0	0	5.13	8.64	0.03	232052	0	7334	157560	232052	232052	20056	130	412	15	984	10	1	2	58	198920	3881021	20656
183	2018-06-19 22:03:52		0	0	0	0	0	0	5.13	8.64	0.03	232361	0	7343	157785	232361	232361	20079	130	412	15	986	10	1	2	58	199185	3881060	20679
184	2018-06-19 22:13:53		0	0	0	0	0	0	5.14	8.64	0.03	232579	0	7350	157785	232579	232579	20089	130	412	15	987	10	1	2	58	199375	3881082	20689
185	2018-06-19 22:23:54		0	0	0	0	0	0	5.14	8.64	0.03	232812	0	7361	157785	232812	232812	20106	130	412	15	988	10	1	2	58	199568	3881124	20706
186	2018-06-19 22:33:55		0	0	0	0	0	0	5.15	8.63	0.03	233045	0	7370	157913	233045	233045	20119	130	413	15	988	10	1	2	58	199776	3881145	20720
187	2018-06-19 22:43:55		0	0	0	0	0	0	5.15	8.63	0.03	233281	0	7383	158040	233281	233281	20131	130	414	15	988	10	1	2	58	199975	3881170	20733
188	2018-06-19 22:53:56		0	0	0	0	0	0	5.16	8.63	0.03	233503	0	7391	158105	233503	233503	20151	130	414	15	988	10	1	2	59	200170	3881200	20754
189	2018-06-19 23:03:58		0	0	0	0	0	0	5.16	8.63	0.03	233747	0	7405	158234	233747	233747	20170	130	415	15	988	10	1	2	59	200370	3881234	20774
190	2018-06-19 23:13:57		0	0	0	0	0	0	5.17	8.63	0.03	233981	0	7409	158348	233981	233981	20181	131	415	15	988	10	1	2	59	200568	3881272	20786
191	2018-06-19 23:23:56		0	0	0	0	0	0	5.17	8.62	0.03	234215	0	7432	158672	234215	234215	20194	131	415	15	989	10	1	2	59	200765	3881311	20799
192	2018-06-19 23:33:57		0	0	0	0	0	0	5.18	8.62	0.03	234454	0	7444	158672	234454	234454	20213	131	415	15	989	10	1	2	59	200978	3881328	20818
193	2018-06-19 23:43:58		0	0	0	0	0	0	5.18	8.62	0.03	234653	0	7450	158737	234653	234653	20229	131	415	15	989	10	1	2	59	201157	3881345	20834
194	2018-06-19 23:53:58		0	0	0	0	0	0	5.19	8.62	0.03	234841	0	7458	158933	234841	234841	20247	131	415	15	990	10	1	2	59	201299	3881354	20852
195	2018-06-20 00:04:00		0	0	0	0	0	0	5.19	8.62	0.03	235048	0	7473	159161	235048	235048	20258	131	415	15	991	10	1	2	59	201470	3881370	20863
196	2018-06-20 00:14:13		0	0	0	0	0	0	5.19	8.62	0.03	235223	0	7479	159194	235223	235223	20278	131	415	15	991	10	1	2	59	201627	3881390	20883
197	2018-06-20 00:24:01		0	0	0	0	0	0	5.2	8.62	0.03	235357	0	7482	159194	235357	235357	20286	131	415	15	991	10	1	2	59	201744	3881409	20891
198	2018-06-20 00:34:00		0	0	0	0	0	0	5.2	8.62	0.03	235491	0	7486	159194	235491	235491	20297	131	415	15	992	10	1	2	59	201858	3881422	20902
199	2018-06-20 00:44:00		0	0	0	0	0	0	5.2	8.62	0.03	235618	0	7491	159194	235618	235618	20309	131	415	15	992	10	1	2	59	201974	3881436	20914
200	2018-06-20 00:54:01		0	0	0	0	0	0	5.21	8.62	0.03	235754	0	7493	159325	235754	235754	20321	131	416	15	992	10	1	2	59	202102	3881451	20927
201	2018-06-20 01:04:02		0	0	0	0	0	0	5.21	8.62	0.03	235861	0	7499	159325	235861	235861	20330	131	416	15	993	10	1	2	59	202192	3881468	20936
202	2018-06-20 01:14:02		0	0	0	0	0	0	5.21	8.62	0.03	235955	0	7501	159391	235955	235955	20338	131	417	15	993	10	1	2	59	202276	3881476	20945
203	2018-06-20 01:24:02		0	0	0	0	0	0	5.21	8.62	0.03	236031	0	7503	159391	236031	236031	20347	131	417	15	993	10	1	2	59	202342	3881483	20954
204	2018-06-20 01:34:03		0	0	0	0	0	0	5.22	8.62	0.03	236124	0	7510	159506	236124	236124	20353	131	417	15	993	10	1	2	59	202422	3881485	20960
205	2018-06-20 01:44:04		0	0	0	0	0	0	5.22	8.62	0.03	236207	0	7517	159506	236207	236207	20365	131	417	15	993	10	1	2	59	202493	3881484	20972
206	2018-06-20 01:54:05		0	0	0	0	0	0	5.22	8.62	0.03	236278	0	7517	159604	236278	236278	20368	131	417	15	993	10	1	2	59	202551	3881490	20975
207	2018-06-20 02:04:06		0	0	0	0	0	0	5.22	8.62	0.03	236333	0	7518	159604	236333	236333	20374	131	417	15	993	10	1	2	59	202599	3881497	20981
208	2018-06-20 02:14:07		0	0	0	0	0	0	5.22	8.62	0.03	236385	0	7518	159604	236385	236385	20379	131	418	15	993	10	1	2	59	202641	3881498	20987
209	2018-06-20 02:24:06		0	0	0	0	0	0	5.22	8.62	0.03	236431	0	7520	159670	236431	236431	20382	131	418	15	993	10	1	2	59	202678	3881501	20990
210	2018-06-20 02:34:07		0	0	0	0	0	0	5.22	8.62	0.03	236478	0	7523	159786	236478	236478	20385	131	418	15	993	10	1	2	59	202722	3881502	20993
211	2018-06-20 02:44:08		0	0	0	0	0	0	5.22	8.62	0.03	236520	0	7526	159794	236520	236520	20386	131	418	15	993	10	1	2	59	202762	3881501	20994
212	2018-06-20 02:54:09		0	0	0	0	0	0	5.22	8.62	0.03	236544	0	7527	159794	236544	236544	20387	131	418	15	993	10	1	2	59	202779	3881501	20995
213	2018-06-20 03:04:10		0	0	0	0	0	0	5.22	8.62	0.03	236572	0	7529	159794	236572	236572	20389	131	418	15	993	10	1	2	59	202802	3881508	20997
214	2018-06-20 03:14:10		0	0	0	0	0	0	5.23	8.62	0.03	236599	0	7529	159794	236599	236599	20393	131	418	15	993	10	1	2	59	202828	3881511	21001
215	2018-06-20 03:24:10		0	0	0	0	0	0	5.23	8.62	0.03	236621	0	7530	159794	236621	236621	20394	131	418	15	993	10	1	2	59	202848	3881508	21002
216	2018-06-20 03:34:22		0	0	0	0	0	0	5.23	8.62	0.03	236652	0	7531	159794	236652	236652	20394	131	418	15	993	10	1	2	59	202867	3881508	21002
217	2018-06-20 03:44:12		0	0	0	0	0	0	5.23	8.62	0.03	236666	0	7531	159794	236666	236666	20398	131	418	15	994	10	1	2	59	202879	3881510	21006
218	2018-06-20 03:54:26		0	0	0	0	0	0	5.23	8.62	0.03	236692	0	7531	159794	236692	236692	20401	131	418	15	994	10	1	2	59	202903	3881508	21009
219	2018-06-20 04:04:14		0	0	0	0	0	0	5.23	8.62	0.03	236719	0	7533	159794	236719	236719	20402	131	418	15	994	10	1	2	59	202927	3881504	21010
220	2018-06-20 04:14:14		0	0	0	0	0	0	5.23	8.62	0.03	236737	0	7534	159794	236737	236737	20402	131	418	15	994	10	1	2	59	202944	3881503	21010
221	2018-06-20 04:24:17		0	0	0	0	0	0	5.23	8.62	0.03	236751	0	7536	159794	236751	236751	20404	131	418	15	994	10	1	2	59	202956	3881503	21012
222	2018-06-20 04:34:14		0	0	0	0	0	0	5.23	8.62	0.03	236769	0	7537	159794	236769	236769	20407	131	418	15	994	10	1	2	59	202972	3881508	21015
223	2018-06-20 04:44:16		0	0	0	0	0	0	5.23	8.62	0.03	236799	0	7539	159794	236799	236799	20410	131	418	15	994	10	1	2	59	202998	3881511	21018
224	2018-06-20 04:54:16		0	0	0	0	0	0	5.23	8.62	0.03	236823	0	7540	159794	236823	236823	20411	131	418	15	994	10	1	2	59	203018	3881507	21019
225	2018-06-20 05:04:16		0	0	0	0	0	0	5.23	8.62	0.03	236849	0	7540	159794	236849	236849	20412	131	418	15	994	10	1	2	59	203040	3881506	21020
226	2018-06-20 05:14:16		0	0	0	0	0	0	5.23	8.62	0.03	236870	0	7540	159794	236870	236870	20415	131	418	15	994	10	1	2	59	203059	3881508	21023
227	2018-06-20 05:24:17		0	0	0	0	0	0	5.23	8.62	0.03	236895	0	7540	159794	236895	236895	20417	131	418	15	994	10	1	2	59	203080	3881508	21025
228	2018-06-20 05:34:18		0	0	0	0	0	0	5.23	8.62	0.03	236923	0	7540	159794	236923	236923	20420	131	418	15	994	10	1	2	59	203106	3881509	21028
229	2018-06-20 05:44:21		0	0	0	0	0	0	5.23	8.62	0.03	236948	0	7541	159794	236948	236948	20421	131	418	15	994	10	1	2	59	203127	3881514	21029
230	2018-06-20 05:54:21		0	0	0	0	0	0	5.23	8.62	0.03	236987	0	7542	159794	236987	236987	20426	131	418	15	994	10	1	2	59	203164	3881516	21034
231	2018-06-20 06:04:23		0	0	0	0	0	0	5.24	8.62	0.03	237037	0	7543	159794	237037	237037	20429	131	418	15	994	10	1	2	59	203209	3881521	21037
232	2018-06-20 06:14:21		0	0	0	0	0	0	5.24	8.62	0.03	237099	0	7546	159794	237099	237099	20431	131	418	15	994	10	1	2	59	203264	3881518	21039
233	2018-06-20 06:24:20		0	0	0	0	0	0	5.24	8.62	0.03	237155	0	7549	159988	237155	237155	20433	131	418	15	994	10	1	2	59	203315	3881519	21041
234	2018-06-20 06:34:20		0	0	0	0	0	0	5.24	8.62	0.03	237230	0	7553	159988	237230	237230	20438	131	418	15	994	10	1	2	59	203382	3881523	21046
235	2018-06-20 06:44:21		0	0	0	0	0	0	5.24	8.61	0.03	237301	0	7553	159988	237301	237301	20442	131	418	15	994	10	1	2	59	203442	3881525	21050
236	2018-06-20 06:54:21		0	0	0	0	0	0	5.24	8.61	0.03	237387	0	7555	160187	237387	237387	20445	131	418	15	994	10	1	2	59	203521	3881529	21053
237	2018-06-20 07:04:23		0	0	0	0	0	0	5.24	8.61	0.03	237464	0	7558	160249	237464	237464	20450	131	418	15	994	10	1	2	59	203586	3881530	21058
238	2018-06-20 07:14:23		0	0	0	0	0	0	5.25	8.61	0.03	237571	0	7558	160249	237571	237571	20458	131	418	15	994	10	1	2	59	203688	3881530	21066
239	2018-06-20 07:24:25		0	0	0	0	0	0	5.25	8.61	0.03	237679	0	7559	160373	237679	237679	20468	132	418	15	995	10	1	2	59	203794	3881534	21077
240	2018-06-20 07:34:27		0	0	0	0	0	0	5.25	8.61	0.03	237775	0	7560	160373	237775	237775	20475	132	418	15	995	10	1	2	59	203880	3881537	21084
241	2018-06-20 07:44:26		0	0	0	0	0	0	5.26	8.61	0.03	237881	0	7561	160373	237881	237881	20482	132	418	15	995	10	1	2	59	203977	3881543	21091
242	2018-06-20 07:54:26		0	0	0	0	0	0	5.26	8.61	0.03	237975	0	7561	160373	237975	237975	20492	132	418	15	995	10	1	2	59	204062	3881548	21101
243	2018-06-20 08:04:26		0	0	0	0	0	0	5.26	8.61	0.03	238129	0	7561	160373	238129	238129	20503	132	418	15	996	10	1	2	59	204199	3881558	21112
244	2018-06-20 08:14:27		0	0	0	0	0	0	5.26	8.61	0.03	238255	0	7569	160373	238255	238255	20515	132	418	15	996	10	1	2	59	204315	3881561	21124
245	2018-06-20 08:24:27		0	0	0	0	0	0	5.27	8.61	0.03	238366	0	7575	160373	238366	238366	20520	132	418	15	996	10	1	2	59	204418	3881565	21129
246	2018-06-20 08:34:28		0	0	0	0	0	0	5.27	8.61	0.03	238473	0	7576	160506	238473	238473	20526	132	418	15	996	10	1	2	59	204513	3881571	21135
247	2018-06-20 08:44:28		0	0	0	0	0	0	5.27	8.61	0.03	238576	0	7579	160506	238576	238576	20537	132	418	15	996	10	1	2	59	204612	3881576	21146
248	2018-06-20 08:54:29		0	0	0	0	0	0	5.27	8.61	0.03	238683	0	7584	160640	238683	238683	20543	132	418	15	996	10	1	2	59	204708	3881581	21152
249	2018-06-20 09:04:30		0	0	0	0	0	0	5.28	8.61	0.03	238790	0	7589	160640	238790	238790	20553	132	418	15	997	10	1	2	60	204798	3881579	21163
250	2018-06-20 09:14:31		0	0	0	0	0	0	5.28	8.61	0.03	238898	0	7597	160640	238898	238898	20563	132	418	15	997	10	1	2	60	204895	3881583	21173
251	2018-06-20 09:24:33		0	0	0	0	0	0	5.28	8.61	0.03	238995	0	7602	161158	238995	238995	20567	132	418	15	997	10	1	2	60	204980	3881580	21177
252	2018-06-20 09:34:33		0	0	0	0	0	0	5.28	8.6	0.03	239102	0	7608	161208	239102	239102	20573	132	418	15	997	10	1	2	60	205069	3881579	21183
253	2018-06-20 09:44:49		0	0	0	0	0	0	5.28	8.6	0.03	239168	0	7613	161444	239168	239168	20578	133	418	15	999	10	1	2	60	205125	3881579	21189
254	2018-06-20 09:54:33		0	0	0	0	0	0	5.29	8.6	0.03	239280	0	7618	161494	239280	239280	20583	133	419	15	999	10	1	2	60	205227	3881586	21195
255	2018-06-20 10:04:34		0	0	0	0	0	0	5.29	8.6	0.03	239397	0	7621	161764	239397	239397	20593	133	421	15	999	10	1	2	60	205326	3881589	21207
256	2018-06-20 10:14:34		0	0	0	0	0	0	5.29	8.6	0.03	239495	0	7630	161764	239495	239495	20605	134	421	15	1000	10	1	2	60	205411	3881599	21220
257	2018-06-20 10:24:34		0	0	0	0	0	0	5.29	8.6	0.03	239583	0	7643	161899	239583	239583	20614	134	421	15	1000	10	1	2	60	205477	3881611	21229
258	2018-06-20 10:34:36		0	0	0	0	0	0	5.3	8.61	0.03	239680	0	7651	161899	239680	239680	20625	134	421	15	1000	10	1	2	60	205561	3881621	21240
259	2018-06-20 10:44:36		0	0	0	0	0	0	5.3	8.6	0.03	239792	0	7659	162027	239792	239792	20629	134	422	15	1001	10	1	2	60	205654	3881634	21245
260	2018-06-20 10:54:36		0	0	0	0	0	0	5.3	8.6	0.03	239908	0	7669	162027	239908	239908	20638	134	423	15	1001	10	1	2	60	205752	3881635	21255
261	2018-06-20 11:04:38		0	0	0	0	0	0	5.3	8.6	0.03	240015	0	7676	162043	240015	240015	20649	134	423	15	1001	10	1	2	60	205845	3881645	21266
262	2018-06-20 11:14:38		0	0	0	0	0	0	5.3	8.6	0.03	240098	0	7686	162103	240098	240098	20653	134	423	15	1001	10	1	2	60	205905	3881651	21270
263	2018-06-20 11:24:39		0	0	0	0	0	0	5.31	8.6	0.03	240188	0	7698	162103	240188	240188	20659	134	425	15	1001	10	1	2	60	205969	3881661	21278
264	2018-06-20 11:34:54		0	0	0	0	0	0	5.31	8.6	0.03	240276	0	7704	162103	240276	240276	20663	134	425	15	1001	10	1	2	60	206044	3881671	21282
265	2018-06-20 11:44:57		0	0	0	0	0	0	5.31	8.6	0.03	240378	0	7711	162137	240378	240378	20673	134	425	15	1001	10	1	2	60	206131	3881679	21292
266	2018-06-20 11:49:44		0	0	0	0	0	0	5.31	8.6	0.03	240421	0	7711	162137	240421	240421	20675	134	425	15	1001	10	1	2	60	206131	3881680	21294
267	2018-06-20 11:59:18		0	0	0	0	0	0	5.31	8.6	0.03	240537	0	7724	162162	240537	240537	20686	134	425	15	1001	10	1	2	60	206258	3881679	21305
268	2018-06-20 12:09:21		0	0	0	0	0	0	5.32	8.6	0.03	240624	0	7724	162298	240624	240624	20698	134	425	15	1001	10	1	2	60	206333	3881688	21317
269	2018-06-20 12:19:19		0	0	0	0	0	0	5.32	8.6	0.03	240744	0	7734	162708	240744	240744	20708	134	425	15	1002	10	1	2	60	206438	3881692	21327
270	2018-06-20 12:29:19		0	0	0	0	0	0	5.32	8.6	0.03	240826	0	7742	162708	240826	240826	20712	134	425	15	1003	10	1	2	60	206506	3881694	21331
271	2018-06-20 12:39:20		0	0	0	0	0	0	5.32	8.6	0.03	240936	0	7752	162708	240936	240936	20725	134	426	15	1004	10	1	2	60	206597	3881701	21345
272	2018-06-20 12:49:21		0	0	0	0	0	0	5.32	8.6	0.03	241043	0	7756	162708	241043	241043	20731	134	426	15	1004	10	1	2	60	206694	3881713	21351
273	2018-06-20 12:59:22		0	0	0	0	0	0	5.33	8.6	0.03	241128	0	7769	162776	241128	241128	20743	134	426	15	1006	10	1	2	60	206768	3881722	21363
274	2018-06-20 13:09:27		0	0	0	0	0	0	5.33	8.6	0.03	241235	0	7776	162776	241235	241235	20748	134	426	15	1007	10	1	2	60	206854	3881733	21368
275	2018-06-20 13:19:23		0	0	0	0	0	0	5.33	8.6	0.03	241306	0	7779	162776	241306	241306	20753	134	427	15	1007	10	1	2	60	206915	3881741	21374
276	2018-06-20 13:29:45		0	0	0	0	0	0	5.33	8.6	0.03	241410	0	7790	162776	241410	241410	20760	134	427	15	1007	10	1	2	60	206999	3881750	21381
277	2018-06-20 13:39:25		0	0	0	0	0	0	5.33	8.6	0.03	241490	0	7795	162776	241490	241490	20764	134	427	15	1008	10	1	2	60	207071	3881751	21385
278	2018-06-20 13:49:24		0	0	0	0	0	0	5.34	8.6	0.03	241590	0	7803	162776	241590	241590	20773	134	427	15	1009	10	1	2	60	207161	3881760	21394
279	2018-06-20 13:59:25		0	0	0	0	0	0	5.34	8.6	0.03	241692	0	7814	162776	241692	241692	20782	135	427	15	1009	10	1	2	60	207244	3881772	21404
280	2018-06-20 14:09:26		0	0	0	0	0	0	5.34	8.6	0.03	241816	0	7820	162776	241816	241816	20790	135	427	15	1012	10	1	2	60	207352	3881779	21412
281	2018-06-20 14:19:26		0	0	0	0	0	0	5.34	8.6	0.03	241913	0	7825	162776	241913	241913	20800	135	427	15	1012	10	1	2	60	207441	3881780	21422
282	2018-06-20 14:29:26		0	0	0	0	0	0	5.35	8.6	0.03	242028	0	7830	162973	242028	242028	20811	135	427	15	1013	10	1	2	60	207542	3881780	21433
283	2018-06-20 14:39:27		0	0	0	0	0	0	5.35	8.6	0.03	242140	0	7840	162973	242140	242140	20815	135	427	15	1016	10	1	2	60	207636	3881786	21437
284	2018-06-20 14:49:29		0	0	0	0	0	0	5.35	8.6	0.03	242257	0	7847	162973	242257	242257	20823	135	427	15	1016	10	1	2	60	207741	3881792	21445
285	2018-06-20 14:59:28		0	0	0	0	0	0	5.35	8.59	0.03	242382	0	7854	162973	242382	242382	20832	135	427	15	1016	10	1	2	60	207851	3881800	21454
286	2018-06-20 15:09:31		0	0	0	0	0	0	5.36	8.59	0.03	242485	0	7861	162973	242485	242485	20840	135	428	15	1016	10	1	2	60	207942	3881811	21463
287	2018-06-20 15:19:29		0	0	0	0	0	0	5.36	8.6	0.03	242607	0	7872	163041	242607	242607	20854	135	428	15	1016	10	1	2	60	208053	3881827	21477
288	2018-06-20 15:29:30		0	0	0	0	0	0	5.36	8.59	0.03	242713	0	7875	163041	242713	242713	20859	135	428	15	1016	10	1	2	60	208145	3881837	21482
289	2018-06-20 15:39:31		0	0	0	0	0	0	5.36	8.59	0.03	242839	0	7883	163041	242839	242839	20870	135	428	15	1017	10	1	2	60	208245	3881854	21493
290	2018-06-20 15:49:31		0	0	0	0	0	0	5.37	8.59	0.03	242978	0	7887	163248	242978	242978	20875	135	428	15	1017	10	1	2	60	208368	3881860	21498
291	2018-06-20 15:59:31		0	0	0	0	0	0	5.37	8.59	0.03	243084	0	7895	163248	243084	243084	20879	135	428	15	1017	10	1	2	60	208457	3881867	21502
292	2018-06-20 16:09:40		0	0	0	0	0	0	5.37	8.59	0.03	243181	0	7900	163385	243181	243181	20887	135	428	15	1018	10	1	2	60	208542	3881874	21510
293	2018-06-20 16:19:36		0	0	0	0	0	0	5.37	8.59	0.03	243275	0	7907	163437	243275	243275	20893	135	428	15	1018	10	1	2	60	208623	3881878	21516
294	2018-06-20 16:29:33		0	0	0	0	0	0	5.38	8.59	0.03	243367	0	7911	163450	243367	243367	20899	135	428	15	1019	10	1	2	60	208705	3881883	21522
295	2018-06-20 16:39:33		0	0	0	0	0	0	5.38	8.59	0.03	243458	0	7914	163450	243458	243458	20906	135	428	15	1020	10	1	2	60	208787	3881894	21529
296	2018-06-20 16:49:35		0	0	0	0	0	0	5.38	8.59	0.03	243544	0	7921	163467	243544	243544	20911	135	428	15	1020	10	1	2	60	208865	3881903	21534
297	2018-06-20 16:59:35		0	0	0	0	0	0	5.38	8.59	0.03	243642	0	7926	163571	243642	243642	20923	135	428	15	1020	10	1	2	60	208949	3881913	21546
298	2018-06-20 17:09:38		0	0	0	0	0	0	5.38	8.59	0.03	243718	0	7935	163571	243718	243718	20928	135	428	15	1020	10	1	2	60	209008	3881907	21551
299	2018-06-20 17:19:38		0	0	0	0	0	0	5.39	8.59	0.03	243813	0	7938	163571	243813	243813	20940	135	428	15	1022	10	1	2	60	209096	3881911	21563
300	2018-06-20 17:29:39		0	0	0	0	0	0	5.39	8.59	0.03	243906	0	7948	163571	243906	243906	20950	135	428	15	1022	10	1	2	60	209178	3881923	21573
301	2018-06-20 17:39:37		0	0	0	0	0	0	5.39	8.59	0.03	244010	0	7960	163588	244010	244010	20960	136	429	15	1024	10	1	2	60	209264	3881927	21585
302	2018-06-20 17:49:37		0	0	0	0	0	0	5.39	8.59	0.03	244121	0	7972	163709	244121	244121	20969	136	429	15	1024	10	1	2	60	209359	3881932	21594
303	2018-06-20 17:59:38		0	0	0	0	0	0	5.4	8.59	0.03	244211	0	7978	163709	244211	244211	20975	136	429	15	1024	10	1	2	60	209437	3881939	21600
304	2018-06-20 18:09:39		0	0	0	0	0	0	5.4	8.59	0.03	244309	0	7984	163709	244309	244309	20988	136	429	15	1024	10	1	2	60	209517	3881941	21613
305	2018-06-20 18:19:39		0	0	0	0	0	0	5.4	8.59	0.03	244423	0	7989	163709	244423	244423	20998	136	429	15	1024	10	1	2	60	209618	3881953	21623
306	2018-06-20 18:29:43		0	0	0	0	0	0	5.4	8.59	0.03	244520	0	7994	163744	244520	244520	21001	136	430	15	1024	10	1	2	60	209703	3881964	21627
307	2018-06-20 18:39:41		0	0	0	0	0	0	5.4	8.59	0.03	244628	0	8003	163865	244628	244628	21006	136	430	15	1025	10	1	2	60	209793	3881974	21632
308	2018-06-20 18:49:43		0	0	0	0	0	0	5.41	8.59	0.03	244737	0	8015	163865	244737	244737	21013	136	430	15	1026	10	1	2	60	209877	3881988	21639
309	2018-06-20 18:59:44		0	0	0	0	0	0	5.41	8.59	0.03	244840	0	8017	163865	244840	244840	21023	136	430	15	1026	10	1	2	60	209965	3882003	21649
310	2018-06-20 19:09:59		0	0	0	0	0	0	5.41	8.59	0.03	244953	0	8026	164213	244953	244953	21032	137	430	15	1026	10	1	2	60	210057	3882006	21659
311	2018-06-20 19:19:45		0	0	0	0	0	0	5.41	8.58	0.03	245084	0	8033	164213	245084	245084	21039	137	430	15	1026	10	1	2	60	210176	3882015	21666
312	2018-06-20 19:29:45		0	0	0	0	0	0	5.42	8.58	0.03	245201	0	8047	164265	245201	245201	21045	137	430	15	1027	10	1	2	60	210278	3882021	21672
313	2018-06-20 19:39:46		0	0	0	0	0	0	5.42	8.58	0.03	245301	0	8052	164300	245301	245301	21052	137	430	15	1028	10	1	2	60	210368	3882021	21679
314	2018-06-20 19:49:48		0	0	0	0	0	0	5.42	8.58	0.03	245397	0	8058	164333	245397	245397	21063	137	430	15	1028	10	1	2	60	210454	3882027	21690
315	2018-06-20 19:59:51		0	0	0	0	0	0	5.42	8.58	0.03	245477	0	8064	164333	245477	245477	21065	137	430	15	1028	10	1	2	60	210514	3882031	21692
316	2018-06-20 20:09:52		0	0	0	0	0	0	5.42	8.58	0.03	245556	0	8067	164394	245556	245556	21071	137	430	15	1028	10	1	2	60	210580	3882039	21698
317	2018-06-20 20:19:48		0	0	0	0	0	0	5.43	8.58	0.03	245629	0	8075	164403	245629	245629	21075	137	430	15	1030	10	1	2	60	210639	3882042	21702
318	2018-06-20 20:29:49		0	0	0	0	0	0	5.43	8.58	0.03	245722	0	8080	164691	245722	245722	21081	136	431	15	1031	10	1	2	60	210722	3882043	21708
319	2018-06-20 20:39:50		0	0	0	0	0	0	5.43	8.58	0.03	245811	0	8084	164691	245811	245811	21084	136	432	15	1031	10	1	2	60	210800	3882047	21712
320	2018-06-20 20:49:50		0	0	0	0	0	0	5.43	8.58	0.03	245891	0	8094	164902	245891	245891	21089	136	432	15	1032	10	1	2	60	210859	3882058	21717
321	2018-06-20 20:59:51		0	0	0	0	0	0	5.43	8.58	0.03	245978	0	8101	164902	245978	245978	21095	136	434	15	1033	10	1	2	60	210935	3882066	21725
322	2018-06-20 21:09:53		0	0	0	0	0	0	5.44	8.58	0.03	246049	0	8105	165042	246049	246049	21103	137	434	15	1033	10	1	2	60	210991	3882076	21734
323	2018-06-20 21:19:53		0	0	0	0	0	0	5.44	8.58	0.03	246134	0	8109	165042	246134	246134	21108	136	434	15	1034	10	1	2	60	211066	3882082	21738
324	2018-06-20 21:29:55		0	0	0	0	0	0	5.44	8.58	0.03	246241	0	8110	165042	246241	246241	21121	137	434	15	1034	10	1	2	60	211161	3882089	21752
325	2018-06-20 21:39:58		0	0	0	0	0	0	5.44	8.58	0.03	246349	0	8112	165069	246349	246349	21127	137	434	15	1034	10	1	2	60	211260	3882101	21758
326	2018-06-20 21:49:56		0	0	0	0	0	0	5.44	8.58	0.03	246440	0	8122	165073	246440	246440	21135	137	434	15	1035	10	1	2	60	211334	3882117	21766
327	2018-06-20 21:59:57		0	0	0	0	0	0	5.45	8.58	0.03	246570	0	8129	165126	246570	246570	21145	137	435	15	1036	10	1	2	60	211443	3882120	21777
328	2018-06-20 22:10:01		0	0	0	0	0	0	5.45	8.58	0.03	246689	0	8136	165337	246689	246689	21154	137	435	15	1036	10	1	2	60	211542	3882127	21786
329	2018-06-20 22:20:03		0	0	0	0	0	0	5.45	8.58	0.03	246790	0	8149	165408	246790	246790	21164	138	435	15	1038	10	1	2	60	211624	3882133	21797
330	2018-06-20 22:30:02		0	0	0	0	0	0	5.45	8.57	0.03	246913	0	8158	165479	246913	246913	21172	138	437	15	1038	10	1	2	60	211730	3882147	21807
331	2018-06-20 22:40:00		0	0	0	0	0	0	5.46	8.58	0.03	247015	0	8161	165620	247015	247015	21183	138	437	15	1038	10	1	2	60	211815	3882154	21818
332	2018-06-20 22:49:59		0	0	0	0	0	0	5.46	8.58	0.03	247099	0	8164	165620	247099	247099	21193	138	438	15	1038	10	1	2	60	211883	3882161	21829
333	2018-06-20 23:00:00		0	0	0	0	0	0	5.46	8.58	0.03	247232	0	8169	165620	247232	247232	21201	138	439	15	1039	10	1	2	60	212003	3882168	21838
334	2018-06-20 23:10:00		0	0	0	0	0	0	5.46	8.57	0.03	247345	0	8173	165620	247345	247345	21208	138	440	15	1040	10	1	2	60	212111	3882178	21846
335	2018-06-20 23:19:59		0	0	0	0	0	0	5.47	8.57	0.03	247454	0	8191	165691	247454	247454	21215	138	440	15	1040	10	1	2	60	212190	3882190	21853
336	2018-06-20 23:30:00		0	0	0	0	0	0	5.47	8.57	0.03	247562	0	8200	165798	247562	247562	21220	138	440	15	1040	10	1	2	60	212287	3882198	21858
337	2018-06-20 23:40:01		0	0	0	0	0	0	5.47	8.57	0.03	247650	0	8203	165805	247650	247650	21224	139	443	15	1040	10	1	2	60	212364	3882203	21866
338	2018-06-20 23:50:02		0	0	0	0	0	0	5.47	8.57	0.03	247741	0	8210	165946	247741	247741	21230	139	443	15	1040	10	1	2	60	212443	3882208	21872
339	2018-06-21 00:00:03		0	0	0	0	0	0	5.47	8.57	0.03	247814	0	8212	165946	247814	247814	21237	139	443	15	1040	10	1	2	60	212509	3882211	21879
340	2018-06-21 00:10:03		0	0	0	0	0	0	5.48	8.57	0.03	247888	0	8215	165946	247888	247888	21247	139	443	15	1040	10	1	2	60	212568	3882219	21889
341	2018-06-21 00:20:03		0	0	0	0	0	0	5.48	8.57	0.03	247967	0	8218	165946	247967	247967	21248	139	443	15	1040	10	1	2	60	212639	3882224	21890
342	2018-06-21 00:30:04		0	0	0	0	0	0	5.48	8.57	0.03	248050	0	8225	165946	248050	248050	21256	139	443	15	1040	10	1	2	60	212712	3882221	21898
343	2018-06-21 00:40:04		0	0	0	0	0	0	5.48	8.57	0.03	248113	0	8230	166013	248113	248113	21261	139	443	15	1040	10	1	2	60	212764	3882224	21903
344	2018-06-21 00:50:05		0	0	0	0	0	0	5.48	8.57	0.03	248165	0	8230	166013	248165	248165	21263	139	443	15	1040	10	1	2	60	212807	3882230	21905
345	2018-06-21 01:00:05		0	0	0	0	0	0	5.48	8.57	0.03	248210	0	8232	166334	248210	248210	21266	139	443	15	1041	10	1	2	60	212848	3882231	21908
346	2018-06-21 01:10:06		0	0	0	0	0	0	5.48	8.57	0.03	248262	0	8232	166334	248262	248262	21270	139	443	15	1041	10	1	2	60	212891	3882233	21912
347	2018-06-21 01:20:06		0	0	0	0	0	0	5.48	8.57	0.03	248287	0	8234	166334	248287	248287	21271	139	444	15	1041	10	1	2	60	212914	3882232	21914
348	2018-06-21 01:30:09		0	0	0	0	0	0	5.49	8.57	0.03	248341	0	8237	166439	248341	248341	21274	139	444	15	1041	10	1	2	60	212965	3882232	21917
349	2018-06-21 01:40:09		0	0	0	0	0	0	5.49	8.57	0.03	248375	0	8241	166439	248375	248375	21275	139	444	15	1042	10	1	2	60	212994	3882229	21918
350	2018-06-21 01:50:09		0	0	0	0	0	0	5.49	8.57	0.03	248410	0	8243	166439	248410	248410	21279	139	444	15	1042	10	1	2	60	213027	3882228	21922
351	2018-06-21 02:00:09		0	0	0	0	0	0	5.49	8.57	0.03	248451	0	8246	166524	248451	248451	21280	139	444	15	1042	10	1	2	60	213062	3882231	21923
352	2018-06-21 02:10:10		0	0	0	0	0	0	5.49	8.57	0.03	248478	0	8247	166524	248478	248478	21285	139	444	15	1042	10	1	2	60	213086	3882229	21928
353	2018-06-21 02:20:11		0	0	0	0	0	0	5.49	8.57	0.03	248505	0	8250	166524	248505	248505	21286	139	444	15	1043	10	1	2	60	213109	3882229	21929
354	2018-06-21 02:30:11		0	0	0	0	0	0	5.49	8.57	0.03	248527	0	8254	166524	248527	248527	21288	139	444	15	1043	10	1	2	60	213125	3882228	21931
355	2018-06-21 02:40:11		0	0	0	0	0	0	5.49	8.57	0.03	248535	0	8254	166524	248535	248535	21288	139	444	15	1043	10	1	2	60	213133	3882226	21931
356	2018-06-21 02:50:11		0	0	0	0	0	0	5.49	8.57	0.03	248550	0	8254	166524	248550	248550	21289	139	444	15	1043	10	1	2	60	213145	3882224	21932
357	2018-06-21 03:00:12		0	0	0	0	0	0	5.49	8.57	0.03	248559	0	8255	166524	248559	248559	21290	139	444	15	1043	10	1	2	60	213153	3882220	21933
358	2018-06-21 03:10:13		0	0	0	0	0	0	5.49	8.57	0.03	248579	0	8255	166524	248579	248579	21294	139	444	15	1043	10	1	2	60	213171	3882218	21937
359	2018-06-21 03:20:13		0	0	0	0	0	0	5.49	8.57	0.03	248592	0	8255	166524	248592	248592	21298	139	444	15	1043	10	1	2	60	213183	3882215	21941
360	2018-06-21 03:30:14		0	0	0	0	0	0	5.49	8.57	0.03	248618	0	8256	166524	248618	248618	21303	139	444	15	1043	10	1	2	60	213203	3882214	21946
361	2018-06-21 03:40:14		0	0	0	0	0	0	5.49	8.57	0.03	248632	0	8256	166524	248632	248632	21306	139	444	15	1043	10	1	2	60	213215	3882208	21949
362	2018-06-21 03:50:15		0	0	0	0	0	0	5.49	8.57	0.03	248645	0	8256	166524	248645	248645	21309	139	444	15	1043	10	1	2	60	213225	3882208	21952
363	2018-06-21 04:00:15		0	0	0	0	0	0	5.49	8.57	0.03	248657	0	8257	166524	248657	248657	21311	139	444	15	1043	10	1	2	60	213235	3882208	21954
364	2018-06-21 04:10:16		0	0	0	0	0	0	5.49	8.57	0.03	248665	0	8257	166524	248665	248665	21312	139	444	15	1043	10	1	2	60	213241	3882207	21955
365	2018-06-21 04:20:16		0	0	0	0	0	0	5.49	8.57	0.03	248668	0	8257	166524	248668	248668	21312	139	444	15	1043	10	1	2	60	213244	3882208	21955
366	2018-06-21 04:30:17		0	0	0	0	0	0	5.49	8.57	0.03	248678	0	8257	166524	248678	248678	21312	139	444	15	1043	10	1	2	60	213254	3882208	21955
367	2018-06-21 04:40:17		0	0	0	0	0	0	5.49	8.57	0.03	248688	0	8261	166524	248688	248688	21313	139	444	15	1044	10	1	2	60	213262	3882204	21956
368	2018-06-21 04:50:17		0	0	0	0	0	0	5.49	8.57	0.03	248697	0	8261	166524	248697	248697	21314	139	444	15	1044	10	1	2	60	213271	3882201	21957
369	2018-06-21 05:00:18		0	0	0	0	0	0	5.49	8.57	0.03	248704	0	8261	166524	248704	248704	21315	139	444	15	1045	10	1	2	60	213278	3882201	21958
370	2018-06-21 05:10:19		0	0	0	0	0	0	5.49	8.57	0.03	248713	0	8261	166524	248713	248713	21316	139	444	15	1045	10	1	2	60	213286	3882203	21959
371	2018-06-21 05:20:21		0	0	0	0	0	0	5.49	8.57	0.03	248719	0	8262	166524	248719	248719	21316	139	444	15	1045	10	1	2	60	213289	3882204	21959
372	2018-06-21 05:30:21		0	0	0	0	0	0	5.49	8.57	0.03	248729	0	8263	166524	248729	248729	21317	139	444	15	1045	10	1	2	60	213298	3882207	21960
373	2018-06-21 05:40:20		0	0	0	0	0	0	5.49	8.57	0.03	248737	0	8263	166524	248737	248737	21318	139	444	15	1045	10	1	2	60	213305	3882204	21961
374	2018-06-21 05:50:21		0	0	0	0	0	0	5.49	8.57	0.03	248751	0	8264	166541	248751	248751	21320	139	444	15	1046	10	1	2	60	213316	3882202	21963
375	2018-06-21 06:00:22		0	0	0	0	0	0	5.49	8.57	0.03	248762	0	8266	166541	248762	248762	21321	139	444	15	1046	10	1	2	60	213326	3882200	21964
376	2018-06-21 06:10:23		0	0	0	0	0	0	5.5	8.57	0.03	248776	0	8270	166541	248776	248776	21322	139	444	15	1047	10	1	2	60	213336	3882202	21965
377	2018-06-21 06:20:22		0	0	0	0	0	0	5.5	8.57	0.03	248800	0	8272	166541	248800	248800	21326	139	444	15	1047	10	1	2	60	213355	3882203	21969
378	2018-06-21 06:30:23		0	0	0	0	0	0	5.5	8.57	0.03	248815	0	8276	166541	248815	248815	21326	139	444	15	1047	10	1	2	60	213369	3882204	21969
379	2018-06-21 06:40:23		0	0	0	0	0	0	5.5	8.57	0.03	248830	0	8278	166541	248830	248830	21327	139	444	15	1047	10	1	2	60	213381	3882207	21970
380	2018-06-21 06:50:24		0	0	0	0	0	0	5.5	8.57	0.03	248854	0	8278	166541	248854	248854	21327	139	445	15	1047	10	1	2	60	213405	3882208	21971
381	2018-06-21 07:00:37		0	0	0	0	0	0	5.5	8.57	0.03	248881	0	8281	166541	248881	248881	21329	139	445	15	1047	10	1	2	60	213429	3882213	21973
382	2018-06-21 07:10:27		0	0	0	0	0	0	5.5	8.57	0.03	248902	0	8285	166541	248902	248902	21331	139	445	15	1047	10	1	2	60	213445	3882218	21975
383	2018-06-21 07:20:27		0	0	0	0	0	0	5.5	8.57	0.03	248928	0	8292	166541	248928	248928	21333	139	446	15	1047	10	1	2	60	213463	3882220	21978
384	2018-06-21 07:30:28		0	0	0	0	0	0	5.5	8.57	0.03	248946	0	8294	166595	248946	248946	21333	139	446	15	1047	10	1	2	60	213477	3882225	21978
385	2018-06-21 07:40:27		0	0	0	0	0	0	5.5	8.57	0.03	248977	0	8299	166595	248977	248977	21337	139	446	15	1047	10	1	2	60	213503	3882223	21982
386	2018-06-21 07:50:28		0	0	0	0	0	0	5.5	8.57	0.03	249016	0	8303	166595	249016	249016	21339	139	446	15	1047	10	1	2	60	213532	3882224	21984
387	2018-06-21 08:00:29		0	0	0	0	0	0	5.5	8.57	0.03	249036	0	8306	166595	249036	249036	21343	139	446	15	1047	10	1	2	60	213549	3882227	21988
388	2018-06-21 08:10:30		0	0	0	0	0	0	5.5	8.57	0.03	249072	0	8310	166595	249072	249072	21344	139	447	15	1047	10	1	2	60	213577	3882230	21990
389	2018-06-21 08:20:29		0	0	0	0	0	0	5.5	8.57	0.03	249115	0	8319	166595	249115	249115	21346	139	447	15	1048	10	1	2	60	213608	3882228	21992
390	2018-06-21 08:30:29		0	0	0	0	0	0	5.5	8.57	0.03	249148	0	8322	166595	249148	249148	21349	139	447	15	1048	10	1	2	60	213635	3882234	21995
391	2018-06-21 08:40:30		0	0	0	0	0	0	5.5	8.57	0.03	249188	0	8328	166631	249188	249188	21351	139	447	15	1049	10	1	2	60	213667	3882241	21997
392	2018-06-21 08:50:31		0	0	0	0	0	0	5.5	8.57	0.03	249217	0	8332	166631	249217	249217	21355	139	447	15	1049	10	1	2	60	213689	3882243	22001
393	2018-06-21 09:00:33		0	0	0	0	0	0	5.5	8.57	0.03	249251	0	8336	166631	249251	249251	21356	139	447	15	1049	10	1	2	60	213717	3882244	22002
394	2018-06-21 09:10:34		0	0	0	0	0	0	5.51	8.57	0.03	249276	0	8338	166631	249276	249276	21356	139	447	15	1049	10	1	2	60	213735	3882244	22002
395	2018-06-21 09:20:36		0	0	0	0	0	0	5.51	8.57	0.03	249322	0	8343	166631	249322	249322	21361	139	447	15	1051	10	1	2	60	213778	3882250	22007
396	2018-06-21 09:30:35		0	0	0	0	0	0	5.51	8.57	0.03	249352	0	8346	166631	249352	249352	21364	139	447	15	1051	10	1	2	60	213804	3882255	22010
397	2018-06-21 09:40:34		0	0	0	0	0	0	5.51	8.57	0.03	249388	0	8353	166631	249388	249388	21368	139	447	15	1051	10	1	2	60	213834	3882256	22014
398	2018-06-21 09:50:34		0	0	0	0	0	0	5.51	8.57	0.03	249420	0	8355	166631	249420	249420	21371	139	447	15	1051	10	1	2	60	213863	3882262	22017
399	2018-06-21 10:00:36		0	0	0	0	0	0	5.51	8.57	0.03	249446	0	8362	166631	249446	249446	21373	139	447	15	1051	10	1	2	60	213879	3882269	22019
400	2018-06-21 10:10:37		0	0	0	0	0	0	5.51	8.57	0.03	249476	0	8369	166631	249476	249476	21377	139	447	15	1051	10	1	2	60	213901	3882272	22023
401	2018-06-21 10:20:36		0	0	0	0	0	0	5.51	8.57	0.03	249510	0	8373	166756	249510	249510	21378	139	447	15	1051	10	1	2	60	213929	3882273	22024
402	2018-06-21 10:30:37		0	0	0	0	0	0	5.51	8.57	0.03	249531	0	8379	166756	249531	249531	21382	139	448	15	1051	10	1	2	60	213942	3882283	22029
403	2018-06-21 10:40:37		0	0	0	0	0	0	5.51	8.57	0.03	249559	0	8383	166756	249559	249559	21386	139	448	15	1051	10	1	2	60	213968	3882287	22033
404	2018-06-21 10:50:40		0	0	0	0	0	0	5.51	8.57	0.03	249589	0	8386	166756	249589	249589	21387	139	448	15	1051	10	1	2	60	213995	3882297	22034
405	2018-06-21 11:00:43		0	0	0	0	0	0	5.51	8.57	0.03	249617	0	8391	166756	249617	249617	21390	139	448	15	1051	10	1	2	60	214016	3882306	22037
406	2018-06-21 11:10:45		0	0	0	0	0	0	5.51	8.57	0.03	249644	0	8395	166756	249644	249644	21391	139	448	15	1051	10	1	2	60	214041	3882307	22038
407	2018-06-21 11:20:40		0	0	0	0	0	0	5.51	8.57	0.03	249667	0	8398	166756	249667	249667	21391	139	448	15	1051	10	1	2	60	214058	3882317	22038
408	2018-06-21 11:30:42		0	0	0	0	0	0	5.51	8.57	0.03	249708	0	8405	166756	249708	249708	21392	139	448	15	1051	10	1	2	60	214088	3882317	22039
409	2018-06-21 11:40:45		0	0	0	0	0	0	5.51	8.57	0.03	249733	0	8409	166756	249733	249733	21392	139	449	15	1051	10	1	2	60	214106	3882317	22040
410	2018-06-21 11:50:42		0	0	0	0	0	0	5.52	8.57	0.03	249760	0	8413	166756	249760	249760	21392	139	449	15	1051	10	1	2	60	214129	3882322	22040
411	2018-06-21 12:00:46		0	0	0	0	0	0	5.52	8.57	0.03	249804	0	8419	166990	249804	249804	21397	139	449	15	1051	10	1	2	60	214168	3882322	22045
412	2018-06-21 12:10:44		0	0	0	0	0	0	5.52	8.57	0.03	249828	0	8422	167062	249828	249828	21398	139	449	15	1051	10	1	2	60	214188	3882330	22046
413	2018-06-21 12:20:44		0	0	0	0	0	0	5.52	8.57	0.03	249847	0	8423	167062	249847	249847	21401	139	450	15	1051	10	1	2	60	214205	3882337	22050
414	2018-06-21 12:30:44		0	0	0	0	0	0	5.52	8.56	0.03	249878	0	8425	167062	249878	249878	21402	139	450	15	1051	10	1	2	60	214233	3882342	22051
415	2018-06-21 12:40:45		0	0	0	0	0	0	5.52	8.56	0.03	249903	0	8426	167062	249903	249903	21404	139	450	15	1052	10	1	2	60	214256	3882354	22053
416	2018-06-21 12:50:46		0	0	0	0	0	0	5.52	8.56	0.03	249929	0	8427	167062	249929	249929	21405	139	450	15	1052	10	1	2	60	214279	3882366	22054
417	2018-06-21 13:00:47		0	0	0	0	0	0	5.52	8.56	0.03	249956	0	8433	167062	249956	249956	21406	139	450	15	1052	10	1	2	60	214299	3882368	22055
418	2018-06-21 13:10:48		0	0	0	0	0	0	5.52	8.56	0.03	249985	0	8436	167062	249985	249985	21409	139	450	15	1052	10	1	2	60	214315	3882374	22058
419	2018-06-21 13:20:48		0	0	0	0	0	0	5.52	8.56	0.03	250027	0	8447	167062	250027	250027	21411	139	450	15	1052	10	1	2	60	214347	3882387	22060
420	2018-06-21 13:30:51		0	0	0	0	0	0	5.52	8.56	0.03	250058	0	8452	167062	250058	250058	21414	139	451	15	1052	10	1	2	60	214372	3882388	22064
421	2018-06-21 13:40:50		0	0	0	0	0	0	5.52	8.56	0.03	250083	0	8453	167062	250083	250083	21416	139	451	15	1052	10	1	2	60	214392	3882390	22066
422	2018-06-21 13:51:00		0	0	0	0	0	0	5.52	8.56	0.03	250114	0	8456	167062	250114	250114	21417	139	453	15	1052	10	1	2	60	214421	3882396	22069
423	2018-06-21 14:00:52		0	0	0	0	0	0	5.52	8.56	0.03	250155	0	8458	167062	250155	250155	21419	139	453	15	1052	10	1	2	60	214456	3882398	22071
424	2018-06-21 14:10:52		0	0	0	0	0	0	5.52	8.56	0.03	250187	0	8463	167062	250187	250187	21419	139	453	15	1052	10	1	2	60	214477	3882405	22071
425	2018-06-21 14:20:54		0	0	0	0	0	0	5.52	8.56	0.03	250206	0	8466	167062	250206	250206	21420	139	453	15	1052	10	1	2	60	214494	3882408	22072
426	2018-06-21 14:30:54		0	0	0	0	0	0	5.53	8.56	0.03	250228	0	8466	167062	250228	250228	21420	139	453	15	1052	10	1	2	60	214513	3882409	22072
427	2018-06-21 14:40:56		0	0	0	0	0	0	5.53	8.56	0.03	250242	0	8472	167062	250242	250242	21421	139	453	15	1052	10	1	2	60	214524	3882413	22073
428	2018-06-21 14:50:54		0	0	0	0	0	0	5.53	8.56	0.03	250269	0	8479	167062	250269	250269	21423	139	453	15	1053	10	1	2	60	214541	3882413	22075
429	2018-06-21 15:00:57		0	0	0	0	0	0	5.53	8.56	0.03	250296	0	8484	167062	250296	250296	21426	139	453	15	1053	10	1	2	60	214560	3882419	22078
430	2018-06-21 15:10:58		0	0	0	0	0	0	5.53	8.56	0.03	250323	0	8490	167098	250323	250323	21426	139	453	15	1053	10	1	2	60	214580	3882425	22078
431	2018-06-21 15:20:58		0	0	0	0	0	0	5.53	8.56	0.03	250366	0	8492	167098	250366	250366	21431	139	454	15	1053	10	1	2	60	214622	3882425	22084
432	2018-06-21 15:31:01		0	0	0	0	0	0	5.53	8.56	0.03	250409	0	8495	167098	250409	250409	21435	139	454	15	1054	10	1	2	60	214657	3882428	22088
433	2018-06-21 15:41:00		0	0	0	0	0	0	5.53	8.56	0.03	250429	0	8496	167098	250429	250429	21436	139	454	15	1055	10	1	2	60	214675	3882429	22089
434	2018-06-21 15:50:58		0	0	0	0	0	0	5.53	8.56	0.03	250455	0	8498	167098	250455	250455	21438	139	454	15	1057	10	1	2	60	214697	3882429	22091
