1	2018-03-14 19:30:35		0	0	0	0	0	0	0.04	1.48	0	2030	0	6	1545	2030	2030	30	2	10	6	1491	3630338	48
2	2018-03-14 19:41:05		0	0	0	0	0	0	0.08	1.52	0.01	4144	0	27	3067	4144	4144	63	3	16	9	2954	3630344	91
3	2018-03-14 19:51:35		0	0	0	0	0	0	0.1	1.67	0.01	5077	0	44	3678	5077	5077	85	3	20	9	3543	3630349	117
4	2018-03-14 20:02:10		0	0	0	0	0	0	0.11	1.8	0.01	5662	0	56	4039	5662	5662	102	3	21	9	3893	3630359	135
5	2018-03-14 20:12:40		0	0	0	0	0	0	0.11	1.96	0.01	6063	0	70	4315	6063	6063	119	3	23	9	4135	3630362	154
6	2018-03-14 20:23:08		0	0	0	0	0	0	0.12	2.01	0.01	6382	0	84	4588	6382	6382	128	3	24	9	4357	3630383	164
7	2018-03-14 20:33:38		0	0	0	0	0	0	0.12	2.1	0.01	6655	0	89	4704	6655	6655	140	3	28	9	4478	3630391	180
8	2018-03-14 20:44:10		0	0	0	0	0	0	0.13	2.06	0.01	6878	0	95	4837	6878	6878	142	3	30	9	4578	3630405	184
9	2018-03-14 20:54:42		0	0	0	0	0	0	0.13	2.06	0.01	7073	0	97	4957	7073	7073	146	3	30	10	4714	3630420	189
10	2018-03-14 21:05:10		0	0	0	0	0	0	0.13	1.99	0.01	7351	0	100	5249	7351	7351	146	3	30	10	4880	3630430	189
11	2018-03-14 21:15:40		0	0	0	0	0	0	0.14	1.98	0.01	7558	0	103	5385	7558	7558	150	3	30	10	5026	3630439	193
12	2018-03-14 21:26:11		0	0	0	0	0	0	0.14	1.98	0.01	7719	0	106	5511	7719	7719	153	3	31	10	5183	3630454	197
13	2018-03-14 21:36:41		0	0	0	0	0	0	0.15	1.97	0.01	7900	0	111	5634	7900	7900	156	4	34	10	5281	3630463	204
14	2018-03-14 21:47:11		0	0	0	0	0	0	0.15	1.95	0.01	8066	0	118	5739	8066	8066	157	4	34	10	5377	3630467	205
15	2018-03-14 21:57:42		0	0	0	0	0	0	0.15	2	0.01	8220	0	119	5856	8220	8220	164	4	34	10	5452	3630472	212
16	2018-03-14 22:08:12		0	0	0	0	0	0	0.15	1.96	0.01	8370	0	121	5939	8370	8370	164	4	34	10	5512	3630479	212
17	2018-03-14 22:18:43		0	0	0	0	0	0	0.15	1.94	0.01	8460	0	122	6015	8460	8460	164	5	34	10	5581	3630491	213
18	2018-03-14 22:29:15		0	0	0	0	0	0	0.16	1.95	0.01	8578	0	123	6069	8578	8578	167	5	35	10	5638	3630500	217
19	2018-03-14 22:39:43		0	0	0	0	0	0	0.16	1.93	0.01	8691	0	127	6131	8691	8691	168	5	35	10	5683	3630513	218
20	2018-03-14 22:50:12		0	0	0	0	0	0	0.16	1.92	0.01	8854	0	130	6247	8854	8796	170	5	38	10	5738	3630519	223
21	2018-03-14 23:00:42		0	0	0	0	0	0	0.16	1.92	0.02	8958	0	136	6322	8958	8958	172	5	38	11	5816	3630532	226
22	2018-03-14 23:11:12		0	0	0	0	0	0	0.16	1.91	0.02	9038	0	137	6361	9038	9038	173	5	38	11	5854	3630544	227
23	2018-03-14 23:21:42		0	0	0	0	0	0	0.16	1.91	0.02	9131	0	138	6439	9131	9131	174	5	40	11	5914	3630544	230
24	2018-03-14 23:32:13		0	0	0	0	0	0	0.16	1.89	0.01	9218	0	138	6489	9218	9218	174	5	42	11	5962	3630555	232
25	2018-03-14 23:42:43		0	0	0	0	0	0	0.16	1.88	0.01	9271	0	138	6526	9271	9271	174	5	45	11	5984	3630559	235
26	2018-03-14 23:53:14		0	0	0	0	0	0	0.17	1.88	0.02	9365	0	151	6591	9365	9365	176	5	47	11	6036	3630565	239
27	2018-03-15 00:20:45		0	0	0	0	0	0	0.17	1.88	0.02	9555	0	153	6719	9555	9555	180	5	47	11	6117	3630573	243
28	2018-03-15 01:25:47		0	0	0	0	0	0	0.17	1.84	0.02	9809	0	155	6874	9809	9809	180	5	49	12	6216	3630586	246
29	2018-03-15 02:30:47		0	0	0	0	0	0	0.17	1.84	0.02	9921	0	156	6931	9921	9921	183	5	51	12	6271	3630585	251
30	2018-03-15 03:35:46		0	0	0	0	0	0	0.17	1.84	0.02	9986	0	156	6953	9986	9986	184	5	51	12	6277	3630579	252
31	2018-03-15 04:40:46		0	0	0	0	0	0	0.17	1.85	0.02	10026	0	157	6971	10026	10026	185	5	51	12	6280	3630582	253
32	2018-03-15 05:45:55		0	0	0	0	0	0	0.17	1.83	0.02	10099	0	157	7012	10099	10099	185	5	53	12	6316	3630577	255
33	2018-03-15 06:50:51		0	0	0	0	0	0	0.18	1.83	0.02	10228	0	161	7105	10228	10228	187	5	55	12	6401	3630588	259
34	2018-03-15 07:13:52		0	0	0	0	0	0	0.18	1.84	0.02	10296	0	161	7138	10296	10296	189	5	55	12	6424	3630594	261
35	2018-03-15 07:24:25		0	0	0	0	0	0	0.18	1.83	0.02	10336	0	161	7150	10336	10336	189	5	55	12	6431	3630597	261
36	2018-03-15 07:34:54		0	0	0	0	0	0	0.18	1.82	0.02	10365	0	161	7166	10365	10365	189	5	56	12	6442	3630606	262
37	2018-03-15 07:45:25		0	0	0	0	0	0	0.18	1.82	0.02	10414	0	162	7179	10414	10414	190	5	57	12	6452	3630609	264
38	2018-03-15 07:55:54		0	0	0	0	0	0	0.18	1.83	0.02	10461	0	164	7222	10461	10461	191	5	57	12	6495	3630617	265
39	2018-03-15 08:06:24		0	0	0	0	0	0	0.18	1.81	0.02	10526	0	164	7284	10526	10526	191	5	57	12	6532	3630618	265
40	2018-03-15 08:16:53		0	0	0	0	0	0	0.18	1.83	0.02	10568	0	164	7311	10568	10568	193	5	57	12	6554	3630616	267
41	2018-03-15 08:27:29		0	0	0	0	0	0	0.18	1.83	0.02	10614	0	164	7328	10614	10614	194	5	57	12	6558	3630624	268
42	2018-03-15 08:37:55		0	0	0	0	0	0	0.18	1.82	0.02	10658	0	164	7344	10658	10658	194	5	57	12	6571	3630637	268
43	2018-03-15 08:48:24		0	0	0	0	0	0	0.18	1.82	0.02	10720	0	166	7381	10720	10720	195	5	58	12	6592	3630648	270
44	2018-03-15 08:58:54		0	0	0	0	0	0	0.18	1.81	0.02	10764	0	167	7408	10764	10764	195	5	58	12	6623	3630654	270
45	2018-03-15 09:09:26		0	0	0	0	0	0	0.18	1.81	0.02	10806	0	167	7445	10806	10806	196	5	59	12	6650	3630660	272
46	2018-03-15 09:19:57		0	0	0	0	0	0	0.18	1.81	0.02	10854	0	167	7473	10854	10854	196	5	59	12	6658	3630665	272
47	2018-03-15 09:30:38		0	0	0	0	0	0	0.18	1.81	0.02	10897	0	168	7537	10897	10897	197	5	59	12	6702	3630670	273
48	2018-03-15 09:41:00		0	0	0	0	0	0	0.19	1.81	0.02	10968	0	170	7576	10968	10968	198	5	59	12	6735	3630670	274
49	2018-03-15 09:51:28		0	0	0	0	0	0	0.19	1.81	0.02	11021	0	170	7602	11021	11021	200	5	59	12	6748	3630671	276
50	2018-03-15 10:01:58		0	0	0	0	0	0	0.19	1.82	0.02	11067	0	171	7629	11067	11067	201	5	60	12	6770	3630682	278
51	2018-03-15 10:12:30		0	0	0	0	0	0	0.19	1.81	0.02	11118	0	174	7661	11118	11118	201	5	60	12	6790	3630682	278
52	2018-03-15 10:23:01		0	0	0	0	0	0	0.19	1.81	0.02	11163	0	177	7674	11163	11163	202	5	60	13	6803	3630686	280
53	2018-03-15 10:33:30		0	0	0	0	0	0	0.19	1.8	0.02	11203	0	178	7702	11203	11203	202	5	60	13	6822	3630696	280
54	2018-03-15 10:44:00		0	0	0	0	0	0	0.19	1.8	0.02	11241	0	178	7713	11241	11241	202	5	60	13	6830	3630710	280
55	2018-03-15 10:54:30		0	0	0	0	0	0	0.19	1.79	0.02	11301	0	178	7735	11301	11301	202	5	60	13	6867	3630717	280
56	2018-03-15 11:05:02		0	0	0	0	0	0	0.19	1.78	0.02	11351	0	178	7768	11351	11351	202	5	61	13	6882	3630718	281
57	2018-03-15 11:15:37		0	0	0	0	0	0	0.19	1.77	0.02	11392	0	178	7789	11392	11392	202	5	61	13	6896	3630715	281
58	2018-03-15 11:26:06		0	0	0	0	0	0	0.19	1.78	0.02	11427	0	178	7816	11427	11427	203	5	61	13	6916	3630724	282
59	2018-03-15 11:36:38		0	0	0	0	0	0	0.19	1.77	0.02	11481	0	178	7890	11481	11481	203	5	61	13	6994	3630731	282
60	2018-03-15 11:47:08		0	0	0	0	0	0	0.19	1.76	0.02	11528	0	179	7911	11528	11528	203	5	61	13	7007	3630740	282
61	2018-03-15 11:57:37		0	0	0	0	0	0	0.19	1.77	0.02	11558	0	179	7927	11558	11558	204	5	61	13	7017	3630747	283
62	2018-03-15 12:08:09		0	0	0	0	0	0	0.19	1.77	0.02	11598	0	179	7951	11598	11598	205	5	61	13	7039	3630750	284
63	2018-03-15 12:18:36		0	0	0	0	0	0	0.19	1.76	0.02	11627	0	180	7972	11627	11627	205	5	61	13	7056	3630757	284
64	2018-03-15 12:29:07		0	0	0	0	0	0	0.19	1.76	0.02	11662	0	180	7990	11662	11662	205	5	61	13	7070	3630756	284
65	2018-03-15 12:39:37		0	0	0	0	0	0	0.2	1.75	0.02	11688	0	180	8015	11688	11688	205	5	61	13	7080	3630760	284
66	2018-03-15 12:50:07		0	0	0	0	0	0	0.2	1.75	0.02	11719	0	181	8017	11719	11719	205	5	61	13	7081	3630770	284
67	2018-03-15 13:00:37		0	0	0	0	0	0	0.2	1.75	0.02	11746	0	181	8043	11746	11746	205	5	61	13	7104	3630776	284
68	2018-03-15 13:11:08		0	0	0	0	0	0	0.2	1.74	0.02	11775	0	181	8060	11775	11775	205	5	61	13	7118	3630782	284
69	2018-03-15 13:22:04		0	0	0	0	0	0	0.2	1.73	0.02	11832	0	185	8090	11832	11832	205	5	61	13	7147	3630782	284
70	2018-03-15 13:32:12		0	0	0	0	0	0	0.2	1.74	0.02	11867	0	185	8115	11867	11867	206	6	61	13	7166	3630785	286
71	2018-03-15 13:42:45		0	0	0	0	0	0	0.2	1.73	0.02	11904	0	185	8130	11904	11904	206	6	63	13	7174	3630787	288
72	2018-03-15 13:53:11		0	0	0	0	0	0	0.2	1.73	0.02	11936	0	185	8131	11936	11936	207	6	63	13	7178	3630791	289
73	2018-03-15 14:03:42		0	0	0	0	0	0	0.2	1.73	0.02	11960	0	186	8154	11960	11960	207	6	63	13	7188	3630803	289
74	2018-03-15 14:14:14		0	0	0	0	0	0	0.2	1.73	0.02	11989	0	187	8189	11989	11989	207	6	63	14	7218	3630813	290
75	2018-03-15 14:24:42		0	0	0	0	0	0	0.2	1.72	0.02	12030	0	187	8229	12030	12030	207	6	63	14	7237	3630820	290
76	2018-03-15 14:35:15		0	0	0	0	0	0	0.2	1.72	0.02	12069	0	187	8263	12069	12069	207	6	63	14	7246	3630826	290
77	2018-03-15 14:45:45		0	0	0	0	0	0	0.2	1.71	0.02	12107	0	188	8294	12107	12107	207	6	63	14	7268	3630837	290
78	2018-03-15 14:56:15		0	0	0	0	0	0	0.2	1.7	0.02	12158	0	190	8323	12158	12158	207	6	63	14	7294	3630841	290
79	2018-03-15 15:06:48		0	0	0	0	0	0	0.2	1.7	0.02	12203	0	191	8356	12203	12203	208	6	63	14	7306	3630846	291
80	2018-03-15 15:17:18		0	0	0	0	0	0	0.2	1.7	0.02	12234	0	192	8375	12234	12234	208	6	63	14	7323	3630846	291
81	2018-03-15 15:27:51		0	0	0	0	0	0	0.2	1.7	0.02	12269	0	192	8397	12269	12269	208	6	63	14	7361	3630848	291
82	2018-03-15 15:38:16		0	0	0	0	0	0	0.2	1.69	0.02	12306	0	192	8435	12306	12306	208	6	64	14	7386	3630862	292
83	2018-03-15 15:48:48		0	0	0	0	0	0	0.2	1.69	0.02	12341	0	192	8438	12341	12341	208	6	64	14	7388	3630875	292
84	2018-03-15 15:59:19		0	0	0	0	0	0	0.2	1.68	0.02	12373	0	192	8453	12373	12373	208	6	64	14	7395	3630886	292
85	2018-03-15 16:09:51		0	0	0	0	0	0	0.2	1.68	0.02	12414	0	192	8481	12414	12414	209	6	64	14	7411	3630898	293
86	2018-03-15 16:20:19		0	0	0	0	0	0	0.2	1.68	0.02	12445	0	192	8492	12445	12445	209	6	64	14	7434	3630904	293
87	2018-03-15 16:30:49		0	0	0	0	0	0	0.21	1.68	0.02	12472	0	193	8509	12472	12472	210	6	64	14	7447	3630910	294
88	2018-03-15 16:41:20		0	0	0	0	0	0	0.21	1.7	0.02	12511	0	193	8526	12511	12511	213	6	64	14	7472	3630916	297
89	2018-03-15 16:51:49		0	0	0	0	0	0	0.21	1.7	0.02	12543	0	194	8550	12543	12543	213	6	64	14	7488	3630928	297
90	2018-03-15 17:02:20		0	0	0	0	0	0	0.21	1.7	0.02	12575	0	194	8561	12575	12575	214	6	64	14	7490	3630935	298
91	2018-03-15 17:12:51		0	0	0	0	0	0	0.21	1.7	0.02	12606	0	195	8569	12606	12606	214	6	64	14	7495	3630944	298
92	2018-03-15 17:23:20		0	0	0	0	0	0	0.21	1.7	0.02	12628	0	196	8569	12628	12628	215	6	64	14	7495	3630946	299
93	2018-03-15 17:33:51		0	0	0	0	0	0	0.21	1.71	0.02	12665	0	196	8589	12665	12665	216	6	64	14	7508	3630951	300
94	2018-03-15 17:44:21		0	0	0	0	0	0	0.21	1.71	0.02	12700	0	196	8618	12700	12700	217	6	64	14	7522	3630956	301
95	2018-03-15 17:54:53		0	0	0	0	0	0	0.21	1.71	0.02	12735	0	196	8668	12735	12735	218	6	64	14	7558	3630965	302
96	2018-03-15 18:05:28		0	0	0	0	0	0	0.21	1.71	0.02	12755	0	196	8703	12755	12755	218	5	64	14	7592	3630975	301
97	2018-03-15 18:15:59		0	0	0	0	0	0	0.21	1.71	0.02	12777	0	198	8709	12777	12777	218	5	64	14	7596	3630976	301
98	2018-03-15 18:26:27		0	0	0	0	0	0	0.21	1.71	0.02	12826	0	198	8741	12826	12826	219	5	64	14	7634	3630987	302
99	2018-03-15 18:36:58		0	0	0	0	0	0	0.21	1.7	0.02	12866	0	199	8760	12866	12866	219	5	64	14	7656	3630994	302
100	2018-03-15 18:47:28		0	0	0	0	0	0	0.21	1.7	0.02	12901	0	200	8803	12901	12901	219	5	64	14	7688	3631006	302
101	2018-03-15 18:57:58		0	0	0	0	0	0	0.21	1.69	0.02	12933	0	200	8827	12933	12933	219	5	65	14	7707	3631007	303
102	2018-03-15 19:08:31		0	0	0	0	0	0	0.21	1.7	0.02	12967	0	200	8854	12967	12967	220	5	65	14	7738	3631011	304
103	2018-03-15 19:19:02		0	0	0	0	0	0	0.21	1.69	0.02	12992	0	200	8858	12992	12992	220	5	65	14	7753	3631018	304
104	2018-03-15 19:29:34		0	0	0	0	0	0	0.21	1.69	0.02	13019	0	200	8875	13019	13019	220	5	66	14	7772	3631029	305
105	2018-03-15 19:40:03		0	0	0	0	0	0	0.21	1.69	0.02	13055	0	200	8891	13055	13055	220	5	67	14	7781	3631031	306
106	2018-03-15 19:50:31		0	0	0	0	0	0	0.21	1.68	0.02	13096	0	200	8930	13096	13096	220	7	67	14	7806	3631029	308
107	2018-03-15 20:01:05		0	0	0	0	0	0	0.22	1.68	0.02	13133	0	200	9003	13133	13133	221	7	67	14	7859	3631033	309
108	2018-03-15 20:11:33		0	0	0	0	0	0	0.22	1.68	0.02	13173	0	201	9059	13173	13173	221	7	67	14	7893	3631039	309
109	2018-03-15 20:22:03		0	0	0	0	0	0	0.22	1.68	0.02	13202	0	201	9076	13202	13202	222	7	67	14	7929	3631048	310
110	2018-03-15 20:32:35		0	0	0	0	0	0	0.22	1.68	0.02	13232	0	201	9095	13232	13232	222	7	67	14	7935	3631057	310
111	2018-03-15 20:43:05		0	0	0	0	0	0	0.22	1.68	0.02	13254	0	201	9124	13254	13254	223	7	67	14	7946	3631066	311
112	2018-03-15 20:53:36		0	0	0	0	0	0	0.22	1.68	0.02	13293	0	201	9140	13293	13293	223	7	67	14	7954	3631065	311
113	2018-03-15 21:04:07		0	0	0	0	0	0	0.22	1.67	0.02	13316	0	201	9140	13316	13316	223	7	67	14	7954	3631074	311
114	2018-03-15 21:14:39		0	0	0	0	0	0	0.22	1.67	0.02	13339	0	201	9161	13339	13339	223	7	67	14	7971	3631076	311
115	2018-03-15 21:25:09		0	0	0	0	0	0	0.22	1.67	0.02	13355	0	201	9178	13355	13355	223	7	67	14	7984	3631076	311
116	2018-03-15 21:35:41		0	0	0	0	0	0	0.22	1.67	0.02	13385	0	202	9224	13385	13385	224	7	67	14	8010	3631086	312
117	2018-03-15 21:46:07		0	0	0	0	0	0	0.22	1.67	0.02	13418	0	204	9250	13418	13418	224	7	67	14	8030	3631094	312
118	2018-03-15 21:56:38		0	0	0	0	0	0	0.22	1.66	0.02	13477	0	204	9280	13477	13477	224	7	67	14	8047	3631096	312
119	2018-03-15 22:07:09		0	0	0	0	0	0	0.22	1.66	0.02	13515	0	205	9324	13515	13515	224	7	68	14	8072	3631097	313
120	2018-03-15 22:17:39		0	0	0	0	0	0	0.22	1.66	0.02	13528	0	205	9324	13528	13528	224	7	68	14	8072	3631106	313
121	2018-03-15 22:28:12		0	0	0	0	0	0	0.22	1.67	0.02	13554	0	205	9333	13554	13554	226	7	68	14	8079	3631110	315
122	2018-03-15 22:38:38		0	0	0	0	0	0	0.22	1.67	0.02	13586	0	206	9364	13586	13586	227	7	68	14	8101	3631119	316
123	2018-03-15 22:49:09		0	0	0	0	0	0	0.22	1.67	0.02	13616	0	206	9405	13616	13616	227	7	68	14	8121	3631127	316
124	2018-03-15 22:59:44		0	0	0	0	0	0	0.22	1.66	0.02	13635	0	208	9421	13635	13635	227	7	68	14	8136	3631127	316
125	2018-03-15 23:10:09		0	0	0	0	0	0	0.22	1.66	0.02	13653	0	208	9443	13653	13653	227	7	68	14	8147	3631132	316
126	2018-03-15 23:20:41		0	0	0	0	0	0	0.22	1.66	0.02	13663	0	208	9443	13663	13663	227	7	68	14	8147	3631140	316
127	2018-03-15 23:31:11		0	0	0	0	0	0	0.22	1.66	0.02	13680	0	208	9443	13680	13680	227	7	68	14	8147	3631142	316
128	2018-03-15 23:41:40		0	0	0	0	0	0	0.22	1.66	0.02	13700	0	209	9462	13700	13700	227	7	68	14	8161	3631137	316
129	2018-03-15 23:52:12		0	0	0	0	0	0	0.22	1.65	0.02	13718	0	209	9465	13718	13718	227	7	68	14	8164	3631145	316
130	2018-03-16 00:02:42		0	0	0	0	0	0	0.23	1.65	0.02	13726	0	209	9480	13726	13726	227	7	68	14	8175	3631143	316
131	2018-03-16 01:07:43		0	0	0	0	0	0	0.23	1.65	0.02	13783	0	211	9565	13783	13783	227	7	69	14	8256	3631145	317
132	2018-03-16 02:12:44		0	0	0	0	0	0	0.23	1.64	0.02	13815	0	211	9566	13815	13815	227	7	69	14	8268	3631146	317
133	2018-03-16 03:17:49		0	0	0	0	0	0	0.23	1.64	0.02	13830	0	211	9608	13830	13830	227	7	69	14	8302	3631138	317
134	2018-03-16 04:22:46		0	0	0	0	0	0	0.23	1.64	0.02	13844	0	211	9622	13844	13844	227	7	69	14	8307	3631133	317
135	2018-03-16 05:27:46		0	0	0	0	0	0	0.23	1.64	0.02	13858	0	212	9628	13858	13858	227	7	70	14	8311	3631122	318
136	2018-03-16 06:32:48		0	0	0	0	0	0	0.23	1.64	0.02	13882	0	212	9628	13882	13882	227	7	70	14	8313	3631070	318
137	2018-03-16 07:08:19		0	0	0	0	0	0	0.23	1.63	0.02	13917	0	212	9665	13917	13917	227	7	71	14	8333	3631054	319
138	2018-03-16 07:18:54		0	0	0	0	0	0	0.23	1.63	0.02	13934	0	212	9669	13934	13934	227	7	71	14	8333	3631052	319
139	2018-03-16 07:29:18		0	0	0	0	0	0	0.23	1.63	0.02	13945	0	212	9670	13945	13945	227	7	71	14	8333	3631046	319
140	2018-03-16 07:39:53		0	0	0	0	0	0	0.23	1.63	0.02	13949	0	213	9674	13949	13949	227	7	71	14	8333	3631042	319
141	2018-03-16 07:50:19		0	0	0	0	0	0	0.23	1.63	0.02	13952	0	213	9674	13952	13952	227	7	71	14	8333	3631034	319
142	2018-03-16 08:00:52		0	0	0	0	0	0	0.23	1.63	0.02	13964	0	213	9680	13964	13964	227	7	71	14	8333	3631012	319
143	2018-03-16 08:11:21		0	0	0	0	0	0	0.23	1.62	0.02	13971	0	213	9680	13971	13971	227	7	71	14	8333	3631009	319
144	2018-03-16 08:22:03		0	0	0	0	0	0	0.23	1.62	0.02	13986	0	213	9688	13986	13986	227	7	71	14	8339	3631004	319
145	2018-03-16 08:32:24		0	0	0	0	0	0	0.23	1.62	0.02	13992	0	213	9688	13992	13992	227	7	71	14	8339	3631004	319
146	2018-03-16 08:42:54		0	0	0	0	0	0	0.23	1.62	0.02	14000	0	213	9702	14000	14000	227	7	71	14	8349	3631000	319
147	2018-03-16 08:53:25		0	0	0	0	0	0	0.23	1.63	0.02	14008	0	214	9702	14008	14008	228	7	71	14	8349	3631003	320
148	2018-03-16 09:03:53		0	0	0	0	0	0	0.23	1.63	0.02	14014	0	214	9713	14014	14014	228	7	72	14	8349	3630999	321
149	2018-03-16 09:14:30		0	0	0	0	0	0	0.23	1.62	0.02	14035	0	214	9750	14035	14035	228	7	72	14	8356	3630996	321
150	2018-03-16 09:24:59		0	0	0	0	0	0	0.23	1.62	0.02	14053	0	214	9750	14053	14053	228	7	72	14	8356	3630993	321
151	2018-03-16 09:35:25		0	0	0	0	0	0	0.23	1.63	0.02	14060	0	214	9757	14060	14060	229	7	72	14	8361	3630982	322
152	2018-03-16 09:45:56		0	0	0	0	0	0	0.23	1.63	0.02	14065	0	214	9769	14065	14065	229	7	72	14	8361	3630974	322
153	2018-03-16 09:56:25		0	0	0	0	0	0	0.23	1.63	0.02	14079	0	214	9769	14079	14079	230	7	72	14	8367	3630966	323
154	2018-03-16 10:06:56		0	0	0	0	0	0	0.23	1.63	0.02	14098	0	215	9810	14098	14098	230	7	72	14	8378	3630968	323
155	2018-03-16 10:17:27		0	0	0	0	0	0	0.23	1.63	0.02	14121	0	215	9814	14121	14121	230	7	72	14	8380	3630972	323
156	2018-03-16 10:27:57		0	0	0	0	0	0	0.23	1.63	0.02	14133	0	215	9820	14133	14133	230	7	72	14	8393	3630973	323
157	2018-03-16 10:38:28		0	0	0	0	0	0	0.23	1.63	0.02	14142	0	215	9821	14142	14142	231	7	72	14	8393	3630977	324
158	2018-03-16 10:48:57		0	0	0	0	0	0	0.23	1.63	0.02	14164	0	215	9837	14164	14164	231	7	72	14	8405	3630973	324
159	2018-03-16 10:59:28		0	0	0	0	0	0	0.23	1.63	0.02	14170	0	215	9845	14170	14170	231	7	72	14	8411	3630979	324
160	2018-03-16 11:09:58		0	0	0	0	0	0	0.23	1.63	0.02	14191	0	215	9848	14191	14191	231	7	72	14	8417	3630974	324
161	2018-03-16 11:20:29		0	0	0	0	0	0	0.23	1.63	0.02	14197	0	215	9850	14197	14197	232	7	72	14	8417	3630975	325
162	2018-03-16 11:31:05		0	0	0	0	0	0	0.23	1.63	0.02	14215	0	215	9856	14215	14215	232	7	72	14	8420	3630981	325
163	2018-03-16 11:41:30		0	0	0	0	0	0	0.23	1.63	0.02	14227	0	215	9859	14227	14227	232	7	72	14	8422	3630979	325
164	2018-03-16 11:52:04		0	0	0	0	0	0	0.23	1.63	0.02	14241	0	215	9859	14241	14241	232	7	72	14	8422	3630982	325
165	2018-03-16 12:02:37		0	0	0	0	0	0	0.23	1.63	0.02	14253	0	216	9867	14253	14253	232	7	72	14	8428	3630974	325
166	2018-03-16 12:13:05		0	0	0	0	0	0	0.23	1.63	0.02	14260	0	216	9867	14260	14254	232	7	72	14	8428	3630968	325
167	2018-03-16 12:23:35		0	0	0	0	0	0	0.23	1.63	0.02	14274	0	216	9867	14274	14274	232	7	72	14	8431	3630956	325
168	2018-03-16 12:34:05		0	0	0	0	0	0	0.23	1.62	0.02	14291	0	216	9879	14291	14291	232	7	72	14	8439	3630956	325
169	2018-03-16 12:44:32		0	0	0	0	0	0	0.23	1.62	0.02	14303	0	216	9880	14303	14303	232	7	72	14	8440	3630958	325
170	2018-03-16 12:55:05		0	0	0	0	0	0	0.23	1.62	0.02	14316	0	216	9893	14316	14316	232	7	72	14	8460	3630957	325
171	2018-03-16 13:05:40		0	0	0	0	0	0	0.23	1.62	0.02	14331	0	216	9893	14331	14331	232	7	72	14	8466	3630960	325
172	2018-03-16 13:16:06		0	0	0	0	0	0	0.23	1.62	0.02	14343	0	216	9897	14343	14343	232	7	72	14	8469	3630954	325
173	2018-03-16 13:26:35		0	0	0	0	0	0	0.23	1.62	0.02	14348	0	216	9903	14348	14348	232	7	72	14	8469	3630952	325
174	2018-03-16 13:37:07		0	0	0	0	0	0	0.23	1.62	0.02	14352	0	216	9903	14352	14352	232	7	72	14	8469	3630950	325
175	2018-03-16 13:47:39		0	0	0	0	0	0	0.23	1.61	0.02	14370	0	216	9922	14370	14370	232	7	72	14	8489	3630965	325
176	2018-03-16 13:58:09		0	0	0	0	0	0	0.23	1.61	0.02	14379	0	216	9929	14379	14379	232	7	72	14	8495	3630978	325
177	2018-03-16 14:08:41		0	0	0	0	0	0	0.23	1.61	0.02	14394	0	216	9930	14394	14394	232	7	72	14	8500	3630979	325
178	2018-03-16 14:19:29		0	0	0	0	0	0	0.23	1.61	0.01	14405	0	216	9941	14405	14405	232	7	72	14	8508	3630978	325
179	2018-03-16 14:29:39		0	0	0	0	0	0	0.23	1.61	0.01	14410	0	216	9941	14410	14410	232	7	72	14	8508	3630992	325
180	2018-03-16 14:40:10		0	0	0	0	0	0	0.23	1.61	0.01	14425	0	216	9957	14425	14425	232	7	72	14	8520	3630991	325
181	2018-03-16 14:50:39		0	0	0	0	0	0	0.23	1.61	0.01	14429	0	216	9964	14429	14429	232	7	72	14	8520	3631000	325
182	2018-03-16 15:01:11		0	0	0	0	0	0	0.23	1.61	0.01	14435	0	216	9964	14435	14435	232	7	72	14	8520	3631000	325
183	2018-03-16 15:11:41		0	0	0	0	0	0	0.23	1.61	0.01	14442	0	216	9964	14442	14442	232	7	72	14	8520	3630999	325
184	2018-03-16 15:22:10		0	0	0	0	0	0	0.23	1.61	0.01	14446	0	216	9964	14446	14446	232	7	72	14	8520	3631004	325
185	2018-03-16 15:32:42		0	0	0	0	0	0	0.23	1.6	0.01	14458	0	216	9978	14458	14458	232	7	72	14	8530	3631006	325
186	2018-03-16 15:43:16		0	0	0	0	0	0	0.23	1.6	0.01	14470	0	216	9978	14470	14470	232	7	72	14	8530	3631006	325
187	2018-03-16 15:53:47		0	0	0	0	0	0	0.24	1.6	0.01	14477	0	216	9981	14477	14477	232	7	72	14	8538	3631008	325
188	2018-03-16 16:04:18		0	0	0	0	0	0	0.24	1.6	0.01	14489	0	216	9984	14489	14489	232	7	72	14	8538	3631016	325
189	2018-03-16 16:14:45		0	0	0	0	0	0	0.24	1.6	0.01	14495	0	216	9992	14495	14495	232	7	72	14	8544	3631024	325
190	2018-03-16 16:25:16		0	0	0	0	0	0	0.24	1.61	0.01	14510	0	216	9995	14510	14510	233	7	72	14	8547	3631034	326
191	2018-03-16 16:35:47		0	0	0	0	0	0	0.24	1.61	0.01	14517	0	216	9995	14517	14517	233	7	72	14	8547	3631039	326
192	2018-03-16 16:46:15		0	0	0	0	0	0	0.24	1.6	0.01	14524	0	216	10018	14524	14524	233	7	72	14	8564	3631051	326
193	2018-03-16 16:56:47		0	0	0	0	0	0	0.24	1.6	0.01	14533	0	216	10031	14533	14533	233	7	72	14	8573	3631071	326
194	2018-03-16 17:07:16		0	0	0	0	0	0	0.24	1.6	0.01	14549	0	216	10045	14549	14549	233	7	72	14	8583	3631082	326
195	2018-03-16 17:17:51		0	0	0	0	0	0	0.24	1.6	0.01	14562	0	216	10045	14562	14562	233	7	72	14	8590	3631092	326
196	2018-03-16 17:28:27		0	0	0	0	0	0	0.24	1.6	0.01	14566	0	216	10054	14566	14566	233	7	72	14	8590	3631103	326
197	2018-03-16 17:38:56		0	0	0	0	0	0	0.24	1.6	0.01	14577	0	216	10068	14577	14577	233	7	72	14	8600	3631132	326
198	2018-03-16 17:49:22		0	0	0	0	0	0	0.24	1.6	0.01	14585	0	216	10074	14585	14585	233	7	72	14	8605	3631159	326
199	2018-03-16 17:59:50		0	0	0	0	0	0	0.24	1.6	0.01	14594	0	216	10087	14594	14594	233	7	72	14	8614	3631187	326
200	2018-03-16 18:10:19		0	0	0	0	0	0	0.24	1.6	0.01	14603	0	216	10087	14603	14603	233	7	72	14	8620	3631203	326
201	2018-03-16 18:20:50		0	0	0	0	0	0	0.24	1.59	0.01	14613	0	216	10108	14613	14613	233	7	72	14	8635	3631222	326
202	2018-03-16 18:31:28		0	0	0	0	0	0	0.24	1.59	0.01	14619	0	216	10110	14619	14619	233	7	72	14	8648	3631242	326
203	2018-03-16 18:41:57		0	0	0	0	0	0	0.24	1.6	0.01	14627	0	216	10110	14627	14627	234	7	72	14	8654	3631245	327
204	2018-03-16 18:52:26		0	0	0	0	0	0	0.24	1.6	0.01	14637	0	217	10118	14637	14637	234	7	72	14	8659	3631257	327
205	2018-03-16 19:02:58		0	0	0	0	0	0	0.24	1.6	0.01	14648	0	217	10118	14648	14648	234	7	72	14	8659	3631272	327
206	2018-03-16 19:13:29		0	0	0	0	0	0	0.24	1.6	0.01	14655	0	217	10126	14655	14655	234	7	72	14	8666	3631288	327
207	2018-03-16 19:24:01		0	0	0	0	0	0	0.24	1.6	0.01	14665	0	217	10126	14665	14665	234	7	72	14	8666	3631294	327
208	2018-03-16 19:34:29		0	0	0	0	0	0	0.24	1.59	0.01	14674	0	217	10130	14674	14674	234	7	72	14	8666	3631303	327
209	2018-03-16 19:45:00		0	0	0	0	0	0	0.24	1.59	0.01	14685	0	217	10139	14685	14685	234	7	72	14	8672	3631323	327
210	2018-03-16 19:55:29		0	0	0	0	0	0	0.24	1.59	0.01	14689	0	217	10145	14689	14689	234	7	72	14	8675	3631340	327
211	2018-03-16 20:06:05		0	0	0	0	0	0	0.24	1.59	0.01	14695	0	217	10160	14695	14695	234	7	72	14	8686	3631348	327
212	2018-03-16 20:16:32		0	0	0	0	0	0	0.24	1.59	0.01	14706	0	217	10177	14706	14706	234	7	72	14	8686	3631348	327
213	2018-03-16 20:27:02		0	0	0	0	0	0	0.24	1.59	0.01	14714	0	217	10183	14714	14714	234	7	72	14	8697	3631350	327
214	2018-03-16 20:37:32		0	0	0	0	0	0	0.24	1.59	0.01	14722	0	217	10185	14722	14722	234	7	72	14	8698	3631364	327
215	2018-03-16 20:48:04		0	0	0	0	0	0	0.24	1.59	0.01	14738	0	217	10185	14738	14738	234	7	72	14	8698	3631376	327
216	2018-03-16 20:58:35		0	0	0	0	0	0	0.24	1.59	0.01	14749	0	217	10185	14749	14749	234	7	72	14	8698	3631393	327
217	2018-03-16 21:09:05		0	0	0	0	0	0	0.24	1.59	0.01	14760	0	217	10187	14760	14760	234	7	72	14	8700	3631411	327
218	2018-03-16 21:19:36		0	0	0	0	0	0	0.24	1.59	0.01	14774	0	217	10213	14774	14774	235	7	72	14	8700	3631426	328
219	2018-03-16 21:30:05		0	0	0	0	0	0	0.24	1.59	0.01	14781	0	217	10220	14781	14781	235	7	72	14	8704	3631439	328
220	2018-03-16 21:40:37		0	0	0	0	0	0	0.24	1.59	0.01	14793	0	217	10233	14793	14793	235	7	72	14	8714	3631447	328
221	2018-03-16 21:51:05		0	0	0	0	0	0	0.24	1.59	0.01	14802	0	218	10237	14802	14802	235	7	72	14	8714	3631457	328
222	2018-03-16 22:01:36		0	0	0	0	0	0	0.24	1.59	0.01	14806	0	218	10237	14806	14806	235	7	72	14	8714	3631478	328
223	2018-03-16 22:12:08		0	0	0	0	0	0	0.24	1.58	0.01	14828	0	218	10245	14828	14828	235	7	72	14	8716	3631494	328
224	2018-03-16 22:22:38		0	0	0	0	0	0	0.24	1.58	0.01	14835	0	218	10255	14835	14835	235	7	72	14	8724	3631506	328
225	2018-03-16 22:33:08		0	0	0	0	0	0	0.24	1.58	0.01	14855	0	218	10257	14855	14855	235	7	72	14	8725	3631514	328
226	2018-03-16 22:43:42		0	0	0	0	0	0	0.24	1.58	0.01	14868	0	218	10291	14868	14868	235	7	72	14	8738	3631529	328
227	2018-03-16 22:54:10		0	0	0	0	0	0	0.24	1.58	0.01	14874	0	220	10291	14874	14874	235	7	72	14	8738	3631548	328
228	2018-03-16 23:04:43		0	0	0	0	0	0	0.24	1.58	0.01	14881	0	220	10291	14881	14881	235	7	72	14	8738	3631562	328
229	2018-03-16 23:15:07		0	0	0	0	0	0	0.24	1.58	0.01	14886	0	220	10298	14886	14886	235	7	72	14	8738	3631576	328
230	2018-03-16 23:25:36		0	0	0	0	0	0	0.24	1.58	0.01	14897	0	220	10302	14897	14897	235	7	72	14	8741	3631588	328
231	2018-03-16 23:36:07		0	0	0	0	0	0	0.24	1.58	0.01	14909	0	220	10315	14909	14909	235	7	72	14	8750	3631605	328
232	2018-03-16 23:46:38		0	0	0	0	0	0	0.24	1.58	0.01	14911	0	220	10315	14911	14911	235	7	72	14	8750	3631619	328
233	2018-03-16 23:57:08		0	0	0	0	0	0	0.24	1.58	0.01	14917	0	220	10315	14917	14917	235	7	72	14	8750	3631628	328
234	2018-03-17 00:37:12		0	0	0	0	0	0	0.24	1.57	0.01	14948	0	220	10334	14948	14948	235	7	72	14	8761	3631658	328
235	2018-03-17 01:42:11		0	0	0	0	0	0	0.24	1.57	0.01	14986	0	220	10348	14986	14986	236	7	72	14	8770	3631676	329
236	2018-03-17 02:47:11		0	0	0	0	0	0	0.24	1.57	0.01	15003	0	220	10357	15003	15003	236	7	72	14	8770	3631688	329
237	2018-03-17 03:52:10		0	0	0	0	0	0	0.24	1.57	0.01	15014	0	220	10391	15014	15014	236	7	72	14	8770	3631701	329
238	2018-03-17 04:57:12		0	0	0	0	0	0	0.24	1.58	0.01	15024	0	220	10391	15024	15024	237	7	72	14	8770	3631696	330
239	2018-03-17 06:02:14		0	0	0	0	0	0	0.24	1.58	0.01	15036	0	220	10396	15036	15036	237	7	72	14	8779	3631699	330
240	2018-03-17 07:07:14		0	0	0	0	0	0	0.24	1.58	0.01	15046	0	220	10396	15046	15046	237	7	72	14	8779	3631712	330
241	2018-03-17 07:17:45		0	0	0	0	0	0	0.24	1.58	0.01	15047	0	220	10396	15047	15047	237	7	72	14	8779	3631717	330
242	2018-03-17 07:28:14		0	0	0	0	0	0	0.24	1.57	0.01	15053	0	220	10396	15053	15053	237	7	72	14	8779	3631724	330
243	2018-03-17 07:38:45		0	0	0	0	0	0	0.24	1.57	0.01	15069	0	220	10398	15069	15069	237	7	72	14	8781	3631736	330
244	2018-03-17 07:49:15		0	0	0	0	0	0	0.24	1.57	0.01	15071	0	220	10398	15071	15071	237	7	72	14	8781	3631745	330
245	2018-03-17 07:59:45		0	0	0	0	0	0	0.24	1.57	0.01	15084	0	220	10406	15084	15084	237	7	72	14	8793	3631753	330
246	2018-03-17 08:10:16		0	0	0	0	0	0	0.24	1.57	0.01	15089	0	220	10406	15089	15089	237	7	72	14	8793	3631751	330
247	2018-03-17 08:20:53		0	0	0	0	0	0	0.24	1.57	0.01	15095	0	220	10415	15095	15095	237	7	72	14	8793	3631757	330
248	2018-03-17 08:31:18		0	0	0	0	0	0	0.24	1.57	0.01	15097	0	220	10415	15097	15097	237	7	72	14	8793	3631773	330
249	2018-03-17 08:41:51		0	0	0	0	0	0	0.24	1.57	0.01	15110	0	222	10423	15110	15110	237	7	72	14	8799	3631789	330
250	2018-03-17 08:52:20		0	0	0	0	0	0	0.24	1.57	0.01	15119	0	222	10423	15119	15119	237	7	72	14	8799	3631798	330
251	2018-03-17 09:02:51		0	0	0	0	0	0	0.24	1.57	0.01	15120	0	222	10423	15120	15120	237	7	72	14	8799	3631804	330
252	2018-03-17 09:13:22		0	0	0	0	0	0	0.24	1.57	0.01	15127	0	222	10425	15127	15127	237	7	72	14	8801	3631813	330
253	2018-03-17 09:23:51		0	0	0	0	0	0	0.24	1.57	0.01	15138	0	222	10440	15138	15138	237	7	72	14	8811	3631836	330
254	2018-03-17 09:34:21		0	0	0	0	0	0	0.24	1.56	0.01	15149	0	222	10443	15149	15149	237	7	72	14	8831	3631856	330
255	2018-03-17 09:44:51		0	0	0	0	0	0	0.24	1.57	0.01	15155	0	222	10443	15155	15155	238	7	72	14	8831	3631873	331
256	2018-03-17 09:55:22		0	0	0	0	0	0	0.24	1.57	0.01	15169	0	222	10452	15169	15169	238	7	72	14	8838	3631901	331
257	2018-03-17 10:05:52		0	0	0	0	0	0	0.24	1.57	0.01	15178	0	222	10452	15178	15178	238	7	72	14	8838	3631921	331
258	2018-03-17 10:16:23		0	0	0	0	0	0	0.24	1.57	0.01	15184	0	223	10453	15184	15184	238	7	72	14	8838	3631941	331
259	2018-03-17 10:26:52		0	0	0	0	0	0	0.24	1.57	0.01	15190	0	223	10453	15190	15190	238	7	72	14	8838	3631955	331
260	2018-03-17 10:37:25		0	0	0	0	0	0	0.24	1.57	0.01	15196	0	223	10458	15196	15196	238	7	72	14	8842	3631982	331
261	2018-03-17 10:47:55		0	0	0	0	0	0	0.24	1.56	0.01	15209	0	223	10458	15209	15209	238	7	73	14	8842	3632003	332
262	2018-03-17 10:58:26		0	0	0	0	0	0	0.24	1.56	0.01	15222	0	223	10466	15222	15222	238	7	73	14	8864	3632023	332
263	2018-03-17 11:08:56		0	0	0	0	0	0	0.24	1.56	0.01	15234	0	223	10466	15234	15234	238	7	73	14	8864	3632047	332
264	2018-03-17 11:19:27		0	0	0	0	0	0	0.24	1.56	0.01	15246	0	223	10475	15246	15246	238	7	73	14	8870	3632063	332
265	2018-03-17 11:29:57		0	0	0	0	0	0	0.24	1.56	0.01	15252	0	223	10475	15252	15252	238	7	73	14	8870	3632080	332
266	2018-03-17 11:40:30		0	0	0	0	0	0	0.24	1.56	0.01	15262	0	223	10501	15262	15262	238	7	73	14	8889	3632098	332
267	2018-03-17 11:51:01		0	0	0	0	0	0	0.24	1.56	0.01	15275	0	223	10505	15275	15275	239	7	73	14	8891	3632119	333
268	2018-03-17 12:01:31		0	0	0	0	0	0	0.25	1.56	0.01	15282	0	223	10514	15282	15282	239	7	73	14	8904	3632149	333
269	2018-03-17 12:11:59		0	0	0	0	0	0	0.25	1.56	0.01	15288	0	224	10514	15288	15288	239	7	73	14	8924	3632164	333
270	2018-03-17 12:22:28		0	0	0	0	0	0	0.25	1.56	0.01	15298	0	224	10521	15298	15298	239	7	73	14	8929	3632183	333
271	2018-03-17 12:33:00		0	0	0	0	0	0	0.25	1.57	0.01	15308	0	224	10524	15308	15308	240	7	73	14	8931	3632201	334
272	2018-03-17 12:43:30		0	0	0	0	0	0	0.25	1.57	0.01	15311	0	224	10532	15311	15311	240	7	73	14	8937	3632227	334
273	2018-03-17 12:54:01		0	0	0	0	0	0	0.25	1.57	0.01	15318	0	224	10532	15318	15318	240	7	73	14	8937	3632255	334
274	2018-03-17 13:04:31		0	0	0	0	0	0	0.25	1.57	0.01	15326	0	226	10532	15326	15326	240	7	73	14	8937	3632267	334
275	2018-03-17 13:15:02		0	0	0	0	0	0	0.25	1.56	0.01	15337	0	226	10545	15337	15337	240	7	73	14	8943	3632282	334
276	2018-03-17 13:25:33		0	0	0	0	0	0	0.25	1.56	0.01	15343	0	227	10554	15343	15343	240	7	73	14	8950	3632304	334
277	2018-03-17 13:36:06		0	0	0	0	0	0	0.25	1.56	0.01	15350	0	227	10554	15350	15350	240	7	73	14	8950	3632317	334
278	2018-03-17 13:46:38		0	0	0	0	0	0	0.25	1.56	0.01	15357	0	227	10554	15357	15357	240	7	73	14	8950	3632347	334
279	2018-03-17 13:57:04		0	0	0	0	0	0	0.25	1.56	0.01	15372	0	227	10554	15372	15372	240	7	73	14	8950	3632353	334
280	2018-03-17 14:07:35		0	0	0	0	0	0	0.25	1.56	0.01	15376	0	227	10554	15376	15376	240	7	73	14	8950	3632366	334
281	2018-03-17 14:18:06		0	0	0	0	0	0	0.25	1.56	0.01	15386	0	227	10565	15386	15386	240	7	73	14	8963	3632370	334
282	2018-03-17 14:28:36		0	0	0	0	0	0	0.25	1.56	0.01	15393	0	227	10569	15393	15393	240	7	73	14	8966	3632388	334
283	2018-03-17 14:39:06		0	0	0	0	0	0	0.25	1.56	0.01	15396	0	227	10569	15396	15396	240	7	73	14	8966	3632408	334
284	2018-03-17 14:49:36		0	0	0	0	0	0	0.25	1.56	0.01	15411	0	227	10580	15411	15411	240	7	73	14	8974	3632426	334
285	2018-03-17 15:00:05		0	0	0	0	0	0	0.25	1.56	0.01	15417	0	227	10580	15417	15417	240	7	73	14	8974	3632447	334
286	2018-03-17 15:10:36		0	0	0	0	0	0	0.25	1.56	0.01	15424	0	227	10580	15424	15424	240	7	73	14	8974	3632466	334
287	2018-03-17 15:21:07		0	0	0	0	0	0	0.25	1.56	0.01	15431	0	227	10580	15431	15431	240	7	73	14	8974	3632480	334
288	2018-03-17 15:31:36		0	0	0	0	0	0	0.25	1.56	0.01	15433	0	227	10580	15433	15433	240	7	73	14	8974	3632494	334
289	2018-03-17 15:42:09		0	0	0	0	0	0	0.25	1.55	0.01	15438	0	227	10580	15438	15438	240	7	73	14	8974	3632500	334
290	2018-03-17 15:52:38		0	0	0	0	0	0	0.25	1.55	0.01	15444	0	227	10615	15444	15444	240	7	73	14	8974	3632519	334
291	2018-03-17 16:03:08		0	0	0	0	0	0	0.25	1.55	0.01	15447	0	227	10615	15447	15447	240	7	73	14	8974	3632531	334
292	2018-03-17 16:13:40		0	0	0	0	0	0	0.25	1.56	0.01	15457	0	227	10631	15457	15457	241	7	73	14	8979	3632543	335
293	2018-03-17 16:24:11		0	0	0	0	0	0	0.25	1.56	0.01	15468	0	227	10638	15468	15467	241	7	73	14	8990	3632565	335
294	2018-03-17 16:34:40		0	0	0	0	0	0	0.25	1.56	0.01	15483	0	227	10639	15483	15483	241	7	73	14	8990	3632578	335
295	2018-03-17 16:45:11		0	0	0	0	0	0	0.25	1.56	0.01	15487	0	227	10646	15487	15487	241	7	73	14	8995	3632584	335
296	2018-03-17 16:55:40		0	0	0	0	0	0	0.25	1.56	0.01	15490	0	227	10646	15490	15490	241	7	73	14	8995	3632591	335
297	2018-03-17 17:06:11		0	0	0	0	0	0	0.25	1.55	0.01	15504	0	227	10647	15504	15504	241	7	73	14	8996	3632596	335
298	2018-03-17 17:16:41		0	0	0	0	0	0	0.25	1.55	0.01	15508	0	227	10647	15508	15508	241	7	73	14	8996	3632610	335
299	2018-03-17 17:27:14		0	0	0	0	0	0	0.25	1.55	0.01	15511	0	227	10652	15511	15511	241	7	73	14	8996	3632618	335
300	2018-03-17 17:37:44		0	0	0	0	0	0	0.25	1.55	0.01	15521	0	229	10652	15521	15521	241	7	73	14	8996	3632623	335
301	2018-03-17 17:48:21		0	0	0	0	0	0	0.25	1.55	0.01	15527	0	229	10672	15527	15527	241	7	73	14	9017	3632627	335
302	2018-03-17 17:58:49		0	0	0	0	0	0	0.25	1.55	0.01	15537	0	229	10677	15537	15537	241	7	73	14	9021	3632642	335
303	2018-03-17 18:09:15		0	0	0	0	0	0	0.25	1.55	0.01	15549	0	229	10689	15549	15549	241	7	73	14	9022	3632653	335
304	2018-03-17 18:19:44		0	0	0	0	0	0	0.25	1.55	0.01	15551	0	229	10689	15551	15551	241	7	73	14	9022	3632666	335
305	2018-03-17 18:30:17		0	0	0	0	0	0	0.25	1.55	0.01	15556	0	230	10689	15556	15556	241	7	73	14	9022	3632675	335
306	2018-03-17 18:40:53		0	0	0	0	0	0	0.25	1.55	0.01	15566	0	230	10689	15566	15566	241	7	73	14	9022	3632687	335
307	2018-03-17 18:51:22		0	0	0	0	0	0	0.25	1.55	0.01	15574	0	230	10689	15574	15574	241	7	73	14	9022	3632693	335
308	2018-03-17 19:01:52		0	0	0	0	0	0	0.25	1.55	0.01	15579	0	230	10689	15579	15579	241	7	73	14	9022	3632701	335
309	2018-03-17 19:12:22		0	0	0	0	0	0	0.25	1.55	0.01	15584	0	230	10698	15584	15584	241	7	73	14	9022	3632709	335
310	2018-03-17 19:22:52		0	0	0	0	0	0	0.25	1.55	0.01	15587	0	230	10700	15587	15587	241	7	73	14	9022	3632714	335
