1	2017-10-22 11:52:23		0	0	0	0	0	0	3.01	0.8	0.08	141802	0	10287	109429	141802	131515	1138	265	860	255	103399	3439468	2518
2	2017-10-22 13:18:35		0	0	0	0	0	0	4.62	0.87	0.17	236012	0	34584	178833	236012	201428	2051	442	1316	367	158988	3439506	4176
3	2017-10-22 13:22:46		0	0	0	0	0	0	5.03	0.87	0.19	262570	0	42172	198469	262570	220398	2281	513	1428	398	173094	3439536	4620
4	2017-10-22 15:51:40		0	0	0	0	0	0	7.22	0.88	0.29	410173	0	91431	302440	410173	318742	3618	819	2077	558	248372	3439646	7072
5	2017-10-22 16:55:47		0	0	0	0	0	0	8.01	0.89	0.33	477191	0	119117	341716	477191	358074	4233	996	2321	611	275383	3439691	8161
6	2017-10-22 21:37:30		0	0	0	0	0	0	10.36	0.88	0.47	698990	0	222851	460682	698990	472122	6140	1415	2961	765	356222	3439922	11281
7	2017-10-22 23:40:47		0	0	0	0	0	0	11.41	0.87	0.51	781546	0	263581	526864	781546	517965	6819	1559	3183	831	392352	3440047	12392
8	2017-10-23 00:41:21		0	0	0	0	0	0	11.79	0.87	0.52	811640	0	277740	552015	811640	533900	7072	1606	3265	848	405449	3440086	12791
9	2017-10-23 01:41:40		0	0	0	0	0	0	11.94	0.87	0.52	825004	0	283797	560893	825004	541207	7182	1626	3311	860	410777	3440100	12979
10	2017-10-23 09:33:24		0	0	0	0	0	0	12.84	0.87	0.55	897586	0	318948	599607	897586	578638	7776	1766	3517	920	441840	3440196	13979
11	2017-10-23 09:44:22		0	0	0	0	0	0	12.89	0.87	0.55	901030	0	320664	602232	901030	580366	7803	1768	3527	921	443581	3440202	14019
12	2017-10-23 09:55:22		0	0	0	0	0	0	12.96	0.87	0.55	904526	0	322399	605648	904526	582127	7835	1771	3539	925	445929	3440211	14070
13	2017-10-23 10:06:22		0	0	0	0	0	0	12.99	0.87	0.56	907919	0	324064	607519	907919	583855	7864	1781	3548	930	446830	3440210	14123
14	2017-10-23 10:17:23		0	0	0	0	0	0	13	0.87	0.56	911304	0	325750	611041	911304	585554	7905	1785	3558	936	447088	3440214	14184
15	2017-10-23 10:28:22		0	0	0	0	0	0	13.1	0.87	0.56	916384	0	328271	617638	916384	588113	7938	1790	3568	938	450765	3440222	14234
16	2017-10-23 10:39:22		0	0	0	0	0	0	13.1	0.87	0.56	919398	0	329933	619988	919398	589465	7975	1794	3573	941	450782	3440214	14283
17	2017-10-23 10:50:23		0	0	0	0	0	0	13.15	0.87	0.56	922506	0	331635	623170	922506	590871	8005	1800	3580	945	452461	3440212	14330
18	2017-10-23 11:01:24		0	0	0	0	0	0	13.18	0.87	0.56	925366	0	333266	624049	925366	592100	8041	1803	3593	948	453322	3440205	14385
19	2017-10-23 11:12:23		0	0	0	0	0	0	13.22	0.87	0.56	927816	0	334856	625404	927816	592960	8065	1808	3602	950	454737	3440199	14425
20	2017-10-23 11:23:28		0	0	0	0	0	0	13.24	0.87	0.57	931560	0	337349	627082	931560	594211	8105	1816	3615	950	455506	3440196	14486
21	2017-10-23 11:34:24		0	0	0	0	0	0	13.24	0.87	0.57	933945	0	339017	627463	933945	594928	8125	1821	3622	955	455506	3440198	14523
22	2017-10-23 11:45:22		0	0	0	0	0	0	13.29	0.87	0.57	936213	0	340612	629376	936213	595601	8137	1824	3627	956	457120	3440196	14544
23	2017-10-23 11:56:24		0	0	0	0	0	0	13.32	0.87	0.57	938507	0	342282	629985	938507	596225	8167	1830	3631	959	458271	3440197	14587
24	2017-10-23 12:07:24		0	0	0	0	0	0	13.33	0.87	0.58	940779	0	343984	630851	940779	596795	8197	1835	3637	964	458678	3440204	14633
25	2017-10-23 12:18:23		0	0	0	0	0	0	13.35	0.87	0.58	943993	0	346333	632817	943993	597660	8218	1839	3643	965	459409	3440198	14665
26	2017-10-23 12:29:23		0	0	0	0	0	0	13.35	0.87	0.58	946021	0	347827	632817	946021	598194	8237	1846	3648	967	459409	3440198	14698
27	2017-10-23 12:40:23		0	0	0	0	0	0	13.36	0.87	0.58	948077	0	349386	633044	948077	598691	8255	1853	3654	970	459529	3440195	14732
28	2017-10-23 12:51:23		0	0	0	0	0	0	13.36	0.87	0.59	950061	0	350875	633303	950061	599186	8275	1855	3658	971	459529	3440188	14759
29	2017-10-23 13:02:24		0	0	0	0	0	0	13.38	0.87	0.59	952089	0	352359	635089	952089	599730	8306	1860	3662	972	460400	3440192	14800
30	2017-10-23 13:13:24		0	0	0	0	0	0	13.43	0.87	0.59	955156	0	354661	638444	955156	600495	8317	1864	3667	973	462032	3440187	14821
31	2017-10-23 13:24:25		0	0	0	0	0	0	13.43	0.87	0.59	957222	0	356210	639697	957222	601012	8338	1871	3671	976	462170	3440187	14856
32	2017-10-23 13:35:24		0	0	0	0	0	0	13.43	0.87	0.59	959193	0	357719	640227	959193	601474	8370	1876	3677	977	462170	3440183	14900
33	2017-10-23 13:46:25		0	0	0	0	0	0	13.44	0.87	0.6	961261	0	359297	640947	961261	601964	8391	1879	3679	980	462377	3440181	14929
34	2017-10-23 13:57:25		0	0	0	0	0	0	13.45	0.87	0.6	963170	0	360748	641811	963170	602422	8414	1880	3682	981	462860	3440184	14957
35	2017-10-23 14:08:24		0	0	0	0	0	0	13.46	0.87	0.6	965979	0	362877	642443	965979	603102	8434	1887	3688	982	462999	3440180	14991
36	2017-10-23 14:19:24		0	0	0	0	0	0	13.48	0.87	0.6	967930	0	364393	643712	967930	603537	8458	1891	3696	982	463658	3440179	15027
37	2017-10-23 14:30:24		0	0	0	0	0	0	13.53	0.87	0.61	969787	0	365791	645860	969787	603996	8469	1895	3700	985	465295	3440178	15049
38	2017-10-23 14:41:25		0	0	0	0	0	0	13.53	0.87	0.61	971666	0	367188	645860	971666	604478	8494	1900	3702	988	465435	3440181	15084
39	2017-10-23 14:52:26		0	0	0	0	0	0	13.53	0.87	0.61	973575	0	368608	646197	973575	604967	8512	1909	3708	990	465540	3440183	15119
40	2017-10-23 15:03:25		0	0	0	0	0	0	13.54	0.87	0.61	976459	0	370789	646974	976459	605670	8541	1913	3713	990	465750	3440179	15157
41	2017-10-23 15:14:24		0	0	0	0	0	0	13.54	0.87	0.61	978143	0	372069	647447	978143	606074	8557	1915	3716	991	465890	3440183	15179
42	2017-10-23 15:25:25		0	0	0	0	0	0	13.54	0.87	0.62	979821	0	373389	648498	979821	606432	8572	1915	3722	992	465890	3440183	15201
43	2017-10-23 15:36:25		0	0	0	0	0	0	13.55	0.87	0.62	981580	0	374728	649382	981580	606852	8583	1920	3724	995	466276	3440187	15222
44	2017-10-23 15:47:26		0	0	0	0	0	0	13.62	0.88	0.62	983342	0	376050	651508	983342	607292	8618	1925	3730	995	468445	3440191	15268
45	2017-10-23 15:58:24		0	0	0	0	0	0	13.63	0.88	0.62	986080	0	378169	654050	986080	607911	8641	1927	3735	998	468942	3440195	15301
46	2017-10-23 16:09:26		0	0	0	0	0	0	13.63	0.88	0.62	987899	0	379595	654240	987899	608304	8659	1929	3738	999	468942	3440202	15325
47	2017-10-23 16:20:27		0	0	0	0	0	0	13.63	0.88	0.63	989096	0	380511	654793	989096	608585	8672	1931	3740	999	468942	3440204	15342
48	2017-10-23 16:31:26		0	0	0	0	0	0	13.63	0.88	0.63	991595	0	382414	655053	991595	609181	8702	1933	3746	999	468942	3440198	15380
49	2017-10-23 16:42:33		0	0	0	0	0	0	13.63	0.88	0.63	993119	0	383579	656094	993119	609540	8717	1933	3748	999	468977	3440202	15397
50	2017-10-23 16:53:29		0	0	0	0	0	0	13.63	0.88	0.63	994745	0	384848	656581	994745	609897	8736	1936	3751	999	469013	3440210	15422
51	2017-10-23 17:04:27		0	0	0	0	0	0	13.64	0.88	0.63	997096	0	386674	658519	997096	610422	8773	1941	3751	1000	469155	3440207	15465
52	2017-10-23 17:15:26		0	0	0	0	0	0	13.65	0.88	0.64	998655	0	387899	659079	998655	610756	8783	1943	3757	1000	469439	3440212	15483
53	2017-10-23 17:26:29		0	0	0	0	0	0	13.65	0.88	0.64	1000363	0	389260	659500	1000363	611103	8806	1946	3763	1002	469439	3440217	15517
54	2017-10-23 17:37:26		0	0	0	0	0	0	13.66	0.88	0.64	1001910	0	390495	660556	1001910	611415	8819	1948	3770	1003	469831	3440223	15540
55	2017-10-23 17:48:26		0	0	0	0	0	0	13.66	0.88	0.64	1003376	0	391664	660556	1003376	611712	8830	1953	3771	1003	469831	3440222	15557
56	2017-10-23 17:59:26		0	0	0	0	0	0	13.66	0.88	0.64	1005497	0	393372	661685	1005497	612125	8851	1955	3775	1005	469831	3440226	15586
57	2017-10-23 18:10:27		0	0	0	0	0	0	13.66	0.88	0.64	1006892	0	394481	661809	1006892	612411	8863	1957	3779	1006	469831	3440231	15605
58	2017-10-23 18:21:28		0	0	0	0	0	0	13.69	0.88	0.65	1008246	0	395546	664436	1008246	612700	8878	1957	3782	1007	470831	3440235	15624
59	2017-10-23 18:32:27		0	0	0	0	0	0	13.69	0.88	0.65	1009599	0	396646	664436	1009599	612953	8899	1957	3786	1008	470831	3440241	15650
60	2017-10-23 18:43:27		0	0	0	0	0	0	13.69	0.88	0.65	1010925	0	397713	664543	1010925	613212	8910	1961	3788	1008	470885	3440249	15667
61	2017-10-23 18:54:26		0	0	0	0	0	0	13.7	0.88	0.65	1012877	0	399267	665864	1012877	613610	8928	1962	3793	1009	471243	3440252	15692
62	2017-10-23 19:05:27		0	0	0	0	0	0	13.71	0.88	0.65	1014210	0	400347	668595	1014210	613863	8940	1963	3796	1010	471530	3440256	15709
63	2017-10-23 19:16:28		0	0	0	0	0	0	13.71	0.88	0.65	1015463	0	401367	668740	1015463	614096	8962	1966	3797	1011	471530	3440264	15736
64	2017-10-23 19:27:35		0	0	0	0	0	0	13.72	0.88	0.65	1016747	0	402359	669155	1016747	614388	8976	1968	3805	1013	472105	3440264	15762
65	2017-10-23 19:38:26		0	0	0	0	0	0	13.72	0.88	0.66	1018038	0	403343	669155	1018038	614695	8989	1972	3809	1016	472141	3440265	15786
66	2017-10-23 19:49:27		0	0	0	0	0	0	13.74	0.88	0.66	1020126	0	404946	670006	1020126	615180	9000	1978	3813	1016	472564	3440271	15807
67	2017-10-23 20:00:30		0	0	0	0	0	0	13.74	0.88	0.66	1021604	0	406057	670006	1021604	615547	9012	1983	3817	1017	472564	3440275	15829
68	2017-10-23 20:11:28		0	0	0	0	0	0	13.74	0.88	0.66	1023064	0	407198	670873	1023064	615866	9028	1986	3822	1017	472564	3440276	15853
69	2017-10-23 20:22:29		0	0	0	0	0	0	13.74	0.88	0.66	1024490	0	408306	671127	1024490	616184	9035	1987	3826	1019	472853	3440282	15867
70	2017-10-23 20:33:28		0	0	0	0	0	0	13.78	0.88	0.66	1025865	0	409372	674269	1025865	616493	9046	1990	3830	1020	473975	3440279	15886
71	2017-10-23 20:44:31		0	0	0	0	0	0	13.78	0.88	0.67	1027892	0	410969	674563	1027892	616923	9054	1990	3833	1020	474120	3440279	15897
72	2017-10-23 20:55:30		0	0	0	0	0	0	13.79	0.88	0.67	1029166	0	411958	675078	1029166	617208	9066	1998	3835	1021	474374	3440281	15920
73	2017-10-23 21:06:31		0	0	0	0	0	0	13.81	0.88	0.67	1030591	0	413092	676257	1030591	617499	9084	1998	3838	1023	475102	3440281	15943
74	2017-10-23 21:17:32		0	0	0	0	0	0	13.81	0.88	0.67	1031876	0	414107	676257	1031876	617769	9094	2000	3839	1024	475102	3440280	15957
75	2017-10-23 21:28:35		0	0	0	0	0	0	13.81	0.88	0.67	1033169	0	415091	676553	1033169	618078	9109	2001	3842	1025	475102	3440283	15977
76	2017-10-23 21:39:32		0	0	0	0	0	0	13.81	0.88	0.67	1035165	0	416641	676553	1035165	618524	9127	2002	3847	1026	475102	3440289	16002
77	2017-10-23 21:51:22		0	0	0	0	0	0	13.85	0.88	0.68	1036634	0	417820	678034	1036634	618814	9140	2010	3852	1026	476418	3440295	16028
78	2017-10-23 22:01:34		0	0	0	0	0	0	13.85	0.88	0.68	1038070	0	418950	678777	1038070	619120	9162	2012	3854	1026	476418	3440301	16054
79	2017-10-23 22:12:29		0	0	0	0	0	0	13.85	0.88	0.68	1039328	0	419908	679737	1039328	619420	9179	2014	3858	1028	476418	3440316	16079
80	2017-10-23 22:23:46		0	0	0	0	0	0	13.85	0.88	0.68	1040587	0	420885	680484	1040587	619702	9191	2015	3865	1029	476565	3440329	16100
81	2017-10-23 22:34:31		0	0	0	0	0	0	13.85	0.88	0.68	1042621	0	422495	680745	1042621	620126	9213	2017	3868	1030	476565	3440335	16128
82	2017-10-23 22:45:35		0	0	0	0	0	0	13.85	0.88	0.68	1043811	0	423435	681195	1043811	620376	9226	2020	3871	1031	476638	3440346	16148
83	2017-10-23 22:56:32		0	0	0	0	0	0	13.85	0.88	0.68	1044920	0	424315	682396	1044920	620605	9240	2020	3874	1031	476638	3440360	16165
84	2017-10-23 23:07:31		0	0	0	0	0	0	13.86	0.88	0.68	1045943	0	425173	682518	1045943	620770	9244	2022	3877	1032	476670	3440363	16175
85	2017-10-23 23:18:31		0	0	0	0	0	0	13.86	0.88	0.69	1046920	0	425943	682819	1046920	620977	9251	2023	3878	1032	476670	3440370	16184
86	2017-10-23 23:29:34		0	0	0	0	0	0	13.86	0.88	0.69	1048198	0	426976	682970	1048198	621222	9264	2026	3880	1032	476744	3440387	16202
87	2017-10-23 23:40:33		0	0	0	0	0	0	13.89	0.88	0.69	1048984	0	427620	683083	1048984	621364	9271	2028	3881	1032	477755	3440410	16212
88	2017-10-23 23:51:31		0	0	0	0	0	0	13.89	0.88	0.69	1049719	0	428233	684290	1049719	621486	9276	2027	3882	1033	477755	3440447	16218
89	2017-10-24 00:03:05		0	0	0	0	0	0	13.89	0.88	0.69	1050375	0	428754	684290	1050375	621621	9281	2027	3882	1033	477902	3440478	16223
90	2017-10-24 01:02:38		0	0	0	0	0	0	13.9	0.88	0.69	1053032	0	430908	684953	1053032	622124	9315	2029	3889	1035	478161	3440528	16268
91	2017-10-24 02:02:33		0	0	0	0	0	0	13.9	0.88	0.69	1054487	0	432134	685180	1054487	622353	9329	2033	3894	1036	478161	3440547	16292
92	2017-10-24 03:02:49		0	0	0	0	0	0	13.9	0.89	0.7	1055095	0	432623	686091	1055095	622472	9339	2033	3896	1037	478161	3440569	16305
93	2017-10-24 04:02:46		0	0	0	0	0	0	13.9	0.89	0.7	1055508	0	432955	686091	1055508	622553	9345	2035	3897	1037	478161	3440569	16314
94	2017-10-24 05:02:48		0	0	0	0	0	0	13.9	0.89	0.7	1055853	0	433236	686091	1055853	622617	9353	2035	3899	1037	478161	3440560	16324
95	2017-10-24 06:04:47		0	0	0	0	0	0	13.9	0.89	0.7	1056484	0	433760	686091	1056484	622724	9359	2035	3901	1037	478161	3440572	16332
96	2017-10-24 07:04:10		0	0	0	0	0	0	13.9	0.89	0.7	1057541	0	434650	686167	1057541	622891	9365	2037	3904	1037	478161	3440597	16343
97	2017-10-24 07:15:11		0	0	0	0	0	0	13.9	0.89	0.7	1057786	0	434980	686167	1057786	622927	9368	2037	3905	1037	478161	3440611	16347
98	2017-10-24 07:34:29		0	0	0	0	0	0	13.9	0.89	0.7	1058335	0	435313	687233	1058335	623022	9372	2037	3907	1037	478161	3440615	16353
99	2017-10-24 07:42:06		0	0	0	0	0	0	13.9	0.89	0.7	1058628	0	435563	687844	1058628	623065	9376	2038	3907	1037	478161	3440616	16358
100	2017-10-24 07:53:05		0	0	0	0	0	0	13.9	0.89	0.7	1058942	0	435814	687844	1058942	623128	9379	2038	3907	1037	478161	3440619	16361
101	2017-10-24 08:04:07		0	0	0	0	0	0	13.9	0.89	0.7	1059283	0	436100	688455	1059283	623183	9382	2039	3907	1037	478161	3440628	16365
102	2017-10-24 08:15:11		0	0	0	0	0	0	13.9	0.89	0.7	1059639	0	436403	688455	1059639	623236	9389	2040	3907	1038	478161	3440641	16374
103	2017-10-24 08:26:17		0	0	0	0	0	0	13.9	0.89	0.7	1060209	0	436877	688455	1060209	623332	9392	2040	3907	1038	478161	3440654	16377
104	2017-10-24 08:37:16		0	0	0	0	0	0	13.9	0.89	0.7	1060567	0	437182	688455	1060567	623385	9404	2041	3909	1039	478161	3440659	16393
105	2017-10-24 08:48:17		0	0	0	0	0	0	13.9	0.89	0.7	1060970	0	437514	688455	1060970	623456	9409	2041	3910	1039	478161	3440657	16399
106	2017-10-24 09:10:28		0	0	0	0	0	0	13.9	0.89	0.7	1061691	0	438145	688455	1061691	623546	9418	2045	3911	1039	478161	3440675	16413
107	2017-10-24 09:31:31		0	0	0	0	0	0	13.9	0.89	0.7	1062461	0	438800	688455	1062461	623661	9426	2048	3913	1039	478161	3440700	16426
108	2017-10-24 09:42:01		0	0	0	0	0	0	13.9	0.89	0.7	1063087	0	439334	688762	1063087	623753	9431	2048	3914	1039	478161	3440715	16432
109	2017-10-24 09:52:12		0	0	0	0	0	0	13.9	0.89	0.7	1063492	0	439680	688762	1063492	623812	9435	2050	3915	1039	478161	3440720	16439
110	2017-10-24 10:03:14		0	0	0	0	0	0	13.9	0.89	0.71	1063878	0	440003	688992	1063878	623875	9437	2052	3915	1039	478161	3440728	16443
111	2017-10-24 10:14:15		0	0	0	0	0	0	13.9	0.89	0.71	1064221	0	440285	688992	1064221	623936	9440	2054	3915	1040	478161	3440741	16449
112	2017-10-24 10:30:36		0	0	0	0	0	0	13.9	0.89	0.71	1064870	0	440842	689605	1064870	624051	9443	2055	3919	1040	478161	3440772	16457
113	2017-10-24 10:42:21		0	0	0	0	0	0	13.9	0.89	0.71	1065408	0	441282	690066	1065408	624126	9445	2056	3920	1040	478161	3440782	16461
114	2017-10-24 10:56:27		0	0	0	0	0	0	13.9	0.89	0.71	1066022	0	441798	690836	1066022	624224	9452	2056	3923	1040	478382	3440796	16471
115	2017-10-24 11:11:11		0	0	0	0	0	0	13.9	0.89	0.71	1066649	0	442333	690836	1066649	624316	9458	2057	3923	1040	478382	3440820	16478
116	2017-10-24 11:24:23		0	0	0	0	0	0	13.9	0.89	0.71	1067108	0	442725	690836	1067108	624383	9462	2057	3924	1040	478382	3440826	16483
117	2017-10-24 11:53:24		0	0	0	0	0	0	13.9	0.89	0.71	1068372	0	443765	691376	1068372	624607	9477	2059	3925	1041	478382	3440855	16502
118	2017-10-24 12:07:10		0	0	0	0	0	0	13.9	0.89	0.71	1068935	0	444211	691376	1068935	624724	9482	2060	3927	1041	478382	3440868	16510
119	2017-10-24 12:20:14		0	0	0	0	0	0	13.9	0.89	0.71	1069295	0	444516	691376	1069295	624779	9485	2060	3927	1041	478382	3440885	16513
120	2017-10-24 12:31:22		0	0	0	0	0	0	13.9	0.89	0.71	1069822	0	444941	691528	1069822	624881	9489	2060	3927	1041	478455	3440902	16517
121	2017-10-24 12:54:03		0	0	0	0	0	0	13.9	0.89	0.71	1070534	0	445514	691528	1070534	625020	9495	2061	3928	1041	478455	3440921	16525
122	2017-10-24 13:08:26		0	0	0	0	0	0	13.9	0.89	0.71	1071096	0	445987	691528	1071096	625109	9502	2061	3928	1041	478455	3440948	16532
123	2017-10-24 13:31:25		0	0	0	0	0	0	13.9	0.89	0.71	1071812	0	446553	691953	1071812	625259	9513	2061	3928	1041	478455	3440967	16543
124	2017-10-24 13:48:17		0	0	0	0	0	0	13.9	0.89	0.72	1072656	0	447242	692263	1072656	625414	9520	2062	3930	1041	478455	3440982	16553
125	2017-10-24 14:04:16		0	0	0	0	0	0	13.9	0.89	0.72	1073227	0	447681	692263	1073227	625546	9525	2062	3931	1041	478455	3440992	16559
126	2017-10-24 14:11:10		0	0	0	0	0	0	13.9	0.89	0.72	1073728	0	448095	692263	1073728	625633	9529	2063	3931	1041	478455	3441002	16564
127	2017-10-24 14:22:19		0	0	0	0	0	0	13.9	0.89	0.72	1074170	0	448454	692263	1074170	625716	9536	2064	3931	1041	478455	3441017	16572
128	2017-10-24 14:36:45		0	0	0	0	0	0	13.93	0.89	0.72	1074869	0	449044	693037	1074869	625825	9542	2063	3933	1041	479492	3441032	16579
129	2017-10-24 15:05:36		0	0	0	0	0	0	13.93	0.89	0.72	1075978	0	449953	693037	1075978	626025	9551	2063	3936	1041	479492	3441052	16591
130	2017-10-24 15:20:27		0	0	0	0	0	0	13.93	0.89	0.72	1076595	0	450445	693348	1076595	626150	9559	2064	3937	1042	479492	3441080	16602
131	2017-10-24 15:30:50		0	0	0	0	0	0	13.93	0.89	0.72	1077011	0	450776	693348	1077011	626235	9563	2065	3937	1042	479492	3441081	16607
132	2017-10-24 15:43:06		0	0	0	0	0	0	13.93	0.89	0.72	1077610	0	451262	693348	1077610	626348	9572	2066	3937	1042	479492	3441087	16617
133	2017-10-24 16:13:42		0	0	0	0	0	0	13.97	0.89	0.72	1078859	0	452291	695763	1078859	626568	9598	2067	3940	1042	480646	3441100	16647
134	2017-10-24 16:42:12		0	0	0	0	0	0	13.97	0.89	0.72	1079783	0	453037	695763	1079783	626746	9608	2069	3940	1043	480646	3441124	16660
135	2017-10-24 16:53:13		0	0	0	0	0	0	13.97	0.89	0.72	1080302	0	453451	695763	1080302	626851	9611	2070	3941	1043	480646	3441141	16665
136	2017-10-24 17:21:06		0	0	0	0	0	0	13.98	0.89	0.72	1081237	0	454225	696232	1081237	627012	9621	2070	3942	1044	481169	3441171	16677
137	2017-10-24 17:45:47		0	0	0	0	0	0	13.98	0.89	0.73	1082161	0	454976	697526	1082161	627185	9625	2070	3944	1044	481169	3441192	16683
138	2017-10-24 17:51:39		0	0	0	0	0	0	13.98	0.89	0.73	1082520	0	455257	697526	1082520	627263	9626	2070	3945	1044	481169	3441205	16685
139	2017-10-24 18:18:57		0	0	0	0	0	0	13.98	0.89	0.73	1083477	0	456022	697998	1083477	627455	9635	2074	3946	1045	481169	3441221	16700
140	2017-10-24 18:32:42		0	0	0	0	0	0	13.99	0.89	0.73	1084093	0	456524	697998	1084093	627569	9646	2074	3946	1045	481468	3441234	16711
141	2017-10-24 19:20:00		0	0	0	0	0	0	14	0.89	0.73	1085796	0	457903	700485	1085796	627893	9665	2075	3949	1045	481918	3441269	16734
142	2017-10-24 19:30:40		0	0	0	0	0	0	14.02	0.89	0.73	1086188	0	458209	701914	1086188	627979	9674	2076	3950	1045	482444	3441281	16745
143	2017-10-24 19:43:13		0	0	0	0	0	0	14.02	0.89	0.73	1086781	0	458669	702073	1086781	628112	9680	2076	3950	1046	482519	3441303	16752
144	2017-10-24 19:55:11		0	0	0	0	0	0	14.02	0.89	0.73	1087146	0	458955	702073	1087146	628191	9684	2078	3951	1046	482519	3441321	16759
145	2017-10-24 20:10:18		0	0	0	0	0	0	14.03	0.89	0.73	1087709	0	459404	702073	1087709	628305	9686	2082	3953	1046	482744	3441344	16767
146	2017-10-24 20:22:03		0	0	0	0	0	0	14.03	0.89	0.73	1088258	0	459828	702073	1088258	628430	9691	2084	3954	1046	482744	3441366	16775
147	2017-10-24 20:49:29		0	0	0	0	0	0	14.03	0.89	0.73	1089387	0	460717	702073	1089387	628670	9704	2085	3955	1047	482744	3441424	16791
148	2017-10-24 21:52:40		0	0	0	0	0	0	14.05	0.89	0.74	1092025	0	462778	703748	1092025	629247	9729	2088	3957	1047	483649	3441570	16821
149	2017-10-24 22:04:38		0	0	0	0	0	0	14.05	0.89	0.74	1092424	0	463089	703748	1092424	629335	9732	2088	3958	1047	483649	3441596	16825
150	2017-10-24 22:34:41		0	0	0	0	0	0	14.05	0.89	0.74	1093625	0	463985	704069	1093625	629640	9742	2090	3960	1047	483649	3441668	16839
151	2017-10-24 22:53:44		0	0	0	0	0	0	14.06	0.89	0.74	1094457	0	464650	704369	1094457	629807	9747	2091	3960	1048	483791	3441731	16846
152	2017-10-24 23:13:28		0	0	0	0	0	0	14.06	0.89	0.74	1095313	0	465340	704369	1095313	629973	9758	2093	3961	1049	483791	3441791	16861
153	2017-10-24 23:24:56		0	0	0	0	0	0	14.06	0.89	0.74	1095705	0	465654	704369	1095705	630051	9763	2094	3962	1050	483791	3441830	16869
154	2017-10-24 23:57:17		0	0	0	0	0	0	14.06	0.89	0.74	1096606	0	466339	704529	1096606	630267	9770	2095	3962	1050	483791	3441890	16877
155	2017-10-25 01:40:09		0	0	0	0	0	0	14.06	0.89	0.74	1098061	0	467455	706700	1098061	630606	9784	2098	3964	1051	483791	3441997	16897
156	2017-10-25 02:18:44		0	0	0	0	0	0	14.06	0.89	0.74	1098371	0	467661	706700	1098371	630710	9785	2098	3964	1051	483791	3442001	16898
157	2017-10-25 03:38:59		0	0	0	0	0	0	14.06	0.89	0.74	1098599	0	467815	706861	1098599	630784	9786	2097	3964	1051	483791	3442000	16898
158	2017-10-25 04:46:49		0	0	0	0	0	0	14.06	0.89	0.74	1098739	0	467906	707023	1098739	630833	9787	2097	3964	1051	484018	3441998	16899
159	2017-10-25 05:56:20		0	0	0	0	0	0	14.06	0.89	0.74	1099042	0	468101	707023	1099042	630941	9788	2096	3965	1051	484018	3442020	16900
160	2017-10-25 07:22:35		0	0	0	0	0	0	14.06	0.89	0.74	1099774	0	468668	707023	1099774	631114	9793	2098	3967	1051	484018	3442078	16909
161	2017-10-25 07:37:39		0	0	0	0	0	0	14.06	0.89	0.74	1100006	0	468867	707023	1100006	631139	9793	2098	3968	1051	484018	3442100	16910
162	2017-10-25 08:23:53		0	0	0	0	0	0	14.06	0.89	0.74	1100605	0	469334	707023	1100605	631271	9797	2099	3969	1051	484018	3442159	16916
163	2017-10-25 09:14:27		0	0	0	0	0	0	14.06	0.89	0.74	1101489	0	470038	707265	1101489	631451	9804	2103	3972	1051	484018	3442240	16930
164	2017-10-25 10:02:47		0	0	0	0	0	0	14.06	0.89	0.75	1102408	0	470785	707265	1102408	631623	9820	2106	3973	1051	484018	3442320	16950
165	2017-10-25 10:13:46		0	0	0	0	0	0	14.06	0.89	0.75	1102578	0	470924	707265	1102578	631654	9822	2106	3974	1051	484018	3442336	16953
166	2017-10-25 10:24:46		0	0	0	0	0	0	14.06	0.89	0.75	1102752	0	471067	707265	1102752	631685	9822	2106	3974	1051	484018	3442357	16953
167	2017-10-25 10:35:48		0	0	0	0	0	0	14.06	0.89	0.75	1102906	0	471184	707265	1102906	631722	9823	2106	3975	1052	484018	3442375	16956
168	2017-10-25 10:46:47		0	0	0	0	0	0	14.06	0.89	0.75	1103095	0	471322	708641	1103095	631773	9827	2107	3975	1052	484018	3442391	16961
