1	2015-10-23 15:01:20	0	0	0	0	0	0	0	0	0	0	0	0	0	0	0	0	0	0	0	0	1256953	0
2	2015-10-23 15:07:22	0	0	0	0	0	0	0.05	1.16	0	602	0	0	568	602	602	7	0	1	0	568	1256966	0
3	2015-10-23 15:13:20	0	0	0	0	0	0	0.05	1.16	0.1	602	0	61	568	602	602	7	0	1	9	568	1256973	0
4	2015-10-23 15:19:20	0	0	0	0	0	0	4.18	4.41	0	63089	0	61	52878	63089	62795	2782	1	93	9	52485	1256977	2885
5	2015-10-23 15:25:21	0	0	0	0	0	0	4.18	4.41	0.01	63089	0	579	52878	63089	62795	2782	1	93	24	52485	1256982	2900
6	2015-10-23 15:31:21	0	0	0	0	0	0	6.28	4.7	0.01	102020	0	579	79745	102020	100986	4797	6	150	24	78981	1256991	4977
7	2015-10-23 15:37:20	0	0	0	0	0	0	6.28	4.7	0.02	102020	0	1561	79745	102020	100986	4797	6	150	36	78981	1256999	4989
8	2015-10-23 15:43:20	0	0	0	0	0	0	8.07	4.79	0.01	140421	0	1561	102788	140421	138294	6727	9	198	36	101413	1257009	6970
9	2015-10-23 15:49:21	0	0	0	0	0	0	8.07	4.79	0.02	140421	0	2629	102788	140421	138294	6727	9	198	45	101413	1257019	6979
10	2015-10-23 15:55:21	0	0	0	0	0	0	9.17	4.8	0.02	167790	0	2629	118032	167790	164631	8049	15	238	45	115312	1257033	8347
11	2015-10-23 16:01:22	0	0	0	0	0	0	9.17	4.8	0.02	167790	0	3603	118032	167790	164631	8049	15	238	55	115312	1257041	8357
12	2015-10-23 16:07:21	0	0	0	0	0	0	10.06	4.82	0.02	188845	0	3603	130150	188845	184754	9100	18	278	55	126426	1257052	9451
13	2015-10-23 16:13:13	0	0	0	0	0	0	10.06	4.82	0.02	188845	0	4612	130150	188845	184754	9100	18	278	64	126426	1257057	9460
14	2015-10-23 16:19:15	0	0	0	0	0	0	10.92	4.79	0.02	209433	0	4612	141420	209433	204316	10037	20	322	64	137222	1257066	10443
15	2015-10-23 16:25:17	0	0	0	0	0	0	10.92	4.79	0.03	209433	0	5640	141420	209433	204316	10037	20	322	67	137222	1257082	10446
16	2015-10-23 16:31:16	0	0	0	0	0	0	11.66	4.79	0.03	227222	0	5640	151511	227222	221159	10878	21	345	67	146536	1257101	11311
17	2015-10-23 16:37:17	0	0	0	0	0	0	11.66	4.79	0.03	227222	0	6542	151511	227222	221159	10878	21	345	78	146536	1257111	11322
18	2015-10-23 16:43:25	0	0	0	0	0	0	12.43	4.77	0.03	243280	0	6542	162462	243280	236335	11598	23	366	78	156221	1257116	12065
19	2015-10-23 16:49:16	0	0	0	0	0	0	12.43	4.77	0.03	243280	0	7366	162462	243280	236335	11598	23	366	81	156221	1257124	12068
20	2015-10-23 16:55:15	0	0	0	0	0	0	12.95	4.74	0.03	257522	0	7366	169339	257522	249807	12218	26	395	81	162749	1257134	12720
21	2015-10-23 17:01:17	0	0	0	0	0	0	12.95	4.74	0.03	257522	0	8084	169339	257522	249807	12218	26	395	84	162749	1257140	12723
22	2015-10-23 17:07:15	0	0	0	0	0	0	13.53	4.71	0.03	270717	0	8084	177564	270717	262313	12750	27	420	84	170056	1257144	13281
23	2015-10-23 17:13:16	0	0	0	0	0	0	13.53	4.71	0.03	270717	0	8823	177564	270717	262313	12750	27	420	86	170056	1257151	13283
24	2015-10-23 17:19:16	0	0	0	0	0	0	14.08	4.7	0.03	283907	0	8823	184885	283907	274766	13339	28	436	86	176951	1257160	13889
25	2015-10-23 17:25:16	0	0	0	0	0	0	14.08	4.7	0.03	283907	0	9417	184885	283907	274766	13339	28	436	87	176951	1257168	13890
26	2015-10-23 17:31:16	0	0	0	0	0	0	14.57	4.69	0.03	294900	0	9417	191088	294900	285133	13830	28	451	87	183230	1257178	14396
27	2015-10-23 17:37:22	0	0	0	0	0	0	14.57	4.69	0.04	294900	0	10108	191088	294900	285133	13830	28	451	92	183230	1257185	14401
28	2015-10-23 17:43:17	0	0	0	0	0	0	14.96	4.69	0.03	305181	0	10108	196808	305181	294790	14301	29	461	92	188020	1257190	14883
29	2015-10-23 17:49:16	0	0	0	0	0	0	14.96	4.69	0.04	305181	0	10682	196808	305181	294790	14301	29	461	94	188020	1257197	14885
30	2015-10-23 17:55:17	0	0	0	0	0	0	15.5	4.67	0.04	315895	0	10682	204557	315895	304942	14744	29	471	94	194907	1257204	15338
31	2015-10-23 18:01:17	0	0	0	0	0	0	15.5	4.67	0.04	315895	0	11252	204557	315895	304942	14744	29	471	99	194907	1257216	15343
32	2015-10-23 18:07:17	0	0	0	0	0	0	15.9	4.65	0.04	327145	0	11252	209949	327145	315560	15203	31	489	99	199848	1257224	15822
33	2015-10-23 18:13:18	0	0	0	0	0	0	15.9	4.65	0.04	327145	0	11919	209949	327145	315560	15203	31	489	102	199848	1257232	15825
34	2015-10-23 18:19:17	0	0	0	0	0	0	16.4	4.63	0.04	337727	0	11919	216923	337727	325479	15651	31	503	102	206158	1257242	16287
35	2015-10-23 18:25:18	0	0	0	0	0	0	16.4	4.63	0.04	337727	0	12476	216923	337727	325479	15651	31	503	104	206158	1257253	16289
36	2015-10-23 18:31:21	0	0	0	0	0	0	16.75	4.6	0.04	346701	0	12476	221727	346701	333912	15957	32	515	104	210585	1257261	16608
37	2015-10-23 18:37:17	0	0	0	0	0	0	16.75	4.6	0.04	346701	0	13046	221727	346701	333912	15957	32	515	106	210585	1257267	16610
38	2015-10-23 18:43:18	0	0	0	0	0	0	16.97	4.58	0.04	354426	0	13046	225059	354426	341114	16241	34	525	106	213367	1257280	16906
39	2015-10-23 18:49:18	0	0	0	0	0	0	16.97	4.58	0.04	354426	0	13565	225059	354426	341114	16241	34	525	110	213367	1257286	16910
40	2015-10-23 18:55:18	0	0	0	0	0	0	17.2	4.57	0.04	362636	0	13565	228318	362636	348782	16556	37	534	110	216234	1257293	17237
41	2015-10-23 19:01:17	0	0	0	0	0	0	17.2	4.57	0.04	362636	0	14123	228318	362636	348782	16556	37	534	112	216234	1257306	17239
42	2015-10-23 19:07:23	0	0	0	0	0	0	17.54	4.55	0.04	370925	0	14123	233126	370925	356515	16886	40	546	112	220589	1257311	17584
43	2015-10-23 19:13:24	0	0	0	0	0	0	17.54	4.55	0.04	370925	0	14659	233126	370925	356515	16886	40	546	113	220589	1257315	17585
44	2015-10-23 19:19:24	0	0	0	0	0	0	17.87	4.54	0.04	378497	0	14659	237327	378497	363594	17192	41	556	113	224742	1257327	17902
45	2015-10-23 19:25:23	0	0	0	0	0	0	17.87	4.54	0.04	378497	0	15129	237327	378497	363594	17192	41	556	113	224742	1257334	17902
46	2015-10-23 19:31:23	0	0	0	0	0	0	18.25	4.54	0.04	385924	0	15129	243036	385924	370599	17511	44	568	113	229441	1257337	18236
47	2015-10-23 19:37:23	0	0	0	0	0	0	18.25	4.54	0.04	385924	0	15539	243036	385924	370599	17511	44	568	114	229441	1257352	18237
48	2015-10-23 19:43:23	0	0	0	0	0	0	18.62	4.51	0.04	394743	0	15539	248572	394743	378932	17813	44	580	114	234130	1257357	18551
49	2015-10-23 19:49:24	0	0	0	0	0	0	18.62	4.51	0.04	394743	0	16047	248572	394743	378932	17813	44	580	118	234130	1257365	18555
50	2015-10-23 19:55:22	0	0	0	0	0	0	18.83	4.49	0.04	402962	0	16047	251570	402962	386616	18099	44	588	118	236824	1257374	18849
51	2015-10-23 20:01:24	0	0	0	0	0	0	18.83	4.49	0.04	402962	0	16622	251570	402962	386616	18099	44	588	120	236824	1257378	18851
52	2015-10-23 20:07:25	0	0	0	0	0	0	19.29	4.46	0.04	412279	0	16622	257469	412279	395395	18390	45	601	120	242499	1257384	19156
53	2015-10-23 20:13:24	0	0	0	0	0	0	19.29	4.46	0.04	412279	0	17183	257469	412279	395395	18390	45	601	123	242499	1257391	19159
54	2015-10-23 20:19:30	0	0	0	0	0	0	19.6	4.44	0.04	421389	0	17183	261331	421389	403946	18698	49	610	123	246471	1257399	19480
55	2015-10-23 20:25:27	0	0	0	0	0	0	19.6	4.44	0.04	421389	0	17697	261331	421389	403946	18698	49	610	125	246471	1257403	19482
56	2015-10-23 20:31:26	0	0	0	0	0	0	19.9	4.42	0.04	429613	0	17697	265592	429613	411694	18989	50	625	125	250181	1257415	19789
57	2015-10-23 20:37:28	0	0	0	0	0	0	19.9	4.42	0.04	429613	0	18205	265592	429613	411694	18989	50	625	129	250181	1257421	19793
58	2015-10-23 20:43:25	0	0	0	0	0	0	20.36	4.41	0.04	437568	0	18205	271680	437568	419138	19277	50	631	129	256062	1257429	20087
59	2015-10-23 20:49:24	0	0	0	0	0	0	20.36	4.41	0.04	437568	0	18593	271680	437568	419138	19277	50	631	132	256062	1257441	20090
60	2015-10-23 20:55:24	0	0	0	0	0	0	20.59	4.39	0.04	444200	0	18593	274624	444200	425350	19495	50	641	132	258882	1257450	20318
61	2015-10-23 21:01:23	0	0	0	0	0	0	20.59	4.39	0.04	444200	0	19118	274624	444200	425350	19495	50	641	135	258882	1257455	20321
62	2015-10-23 21:07:24	0	0	0	0	0	0	21.18	4.37	0.04	452525	0	19118	280467	452525	433185	19779	52	653	135	266270	1257460	20619
63	2015-10-23 21:13:24	0	0	0	0	0	0	21.18	4.37	0.05	452525	0	19542	280467	452525	433185	19779	52	653	136	266270	1257466	20620
64	2015-10-23 21:19:24	0	0	0	0	0	0	21.32	4.35	0.04	459816	0	19542	282342	459816	440040	20001	53	662	136	268099	1257472	20852
65	2015-10-23 21:25:24	0	0	0	0	0	0	21.32	4.35	0.04	459816	0	19776	282342	459816	440040	20001	53	662	136	268099	1257483	20852
66	2015-10-23 21:31:24	0	0	0	0	0	0	21.61	4.35	0.04	463907	0	19776	286390	463907	443839	20161	55	671	136	271746	1257488	21023
67	2015-10-23 21:37:25	0	0	0	0	0	0	21.61	4.35	0.05	463907	0	20314	286390	463907	443839	20161	55	671	138	271746	1257497	21025
68	2015-10-23 21:43:24	0	0	0	0	0	0	21.98	4.33	0.04	474111	0	20314	291075	474111	453335	20520	55	691	138	276428	1257505	21404
69	2015-10-23 21:49:25	0	0	0	0	0	0	21.98	4.33	0.05	474111	0	21001	291075	474111	453335	20520	55	691	144	276428	1257508	21410
70	2015-10-23 21:55:24	0	0	0	0	0	0	22.17	4.32	0.05	477643	0	21001	293473	477643	456642	20648	55	699	144	278791	1257515	21546
71	2015-10-23 22:01:25	0	0	0	0	0	0	22.17	4.32	0.05	477643	0	21276	293473	477643	456642	20648	55	699	144	278791	1257522	21546
72	2015-10-23 22:07:25	0	0	0	0	0	0	22.45	4.31	0.05	485597	0	21276	297298	485597	464045	20919	57	714	144	282344	1257531	21834
73	2015-10-23 22:13:24	0	0	0	0	0	0	22.45	4.31	0.05	485597	0	21814	297298	485597	464045	20919	57	714	146	282344	1257536	21836
74	2015-10-23 22:19:24	0	0	0	0	0	0	22.65	4.3	0.05	493235	0	21814	300188	493235	471157	21194	57	721	146	284844	1257548	22118
75	2015-10-23 22:25:24	0	0	0	0	0	0	22.65	4.3	0.05	493235	0	22350	300188	493235	471157	21194	57	721	147	284844	1257553	22119
76	2015-10-23 22:31:24	0	0	0	0	0	0	23.05	4.28	0.05	501223	0	22350	305357	501223	478604	21464	57	733	147	289928	1257560	22401
77	2015-10-23 22:37:26	0	0	0	0	0	0	23.05	4.28	0.05	501223	0	22818	305357	501223	478604	21464	57	733	148	289928	1257565	22402
78	2015-10-23 22:43:25	0	0	0	0	0	0	23.35	4.27	0.05	508724	0	22818	310622	508724	485655	21716	57	748	148	293664	1257573	22669
79	2015-10-23 22:49:24	0	0	0	0	0	0	23.35	4.27	0.05	508724	0	23310	310622	508724	485655	21716	57	748	151	293664	1257580	22672
80	2015-10-23 22:55:24	0	0	0	0	0	0	23.88	4.26	0.05	517161	0	23310	316731	517161	493561	22020	57	758	151	300366	1257588	22986
81	2015-10-23 23:01:25	0	0	0	0	0	0	23.88	4.26	0.05	517161	0	23836	316731	517161	493561	22020	57	758	151	300366	1257593	22986
82	2015-10-23 23:07:25	0	0	0	0	0	0	24.25	4.24	0.05	525271	0	23836	321262	525271	501169	22271	58	771	151	304978	1257601	23251
83	2015-10-23 23:13:24	0	0	0	0	0	0	24.25	4.24	0.05	525271	0	24318	321262	525271	501169	22271	58	771	152	304978	1257608	23252
84	2015-10-23 23:19:24	0	0	0	0	0	0	24.68	4.23	0.05	532098	0	24318	327102	532098	507549	22505	59	783	152	310360	1257615	23499
85	2015-10-23 23:25:24	0	0	0	0	0	0	24.68	4.23	0.05	532098	0	24773	327102	532098	507549	22505	59	783	155	310360	1257619	23502
86	2015-10-23 23:31:24	0	0	0	0	0	0	24.93	4.22	0.05	539286	0	24773	330541	539286	514277	22780	59	794	155	313582	1257626	23788
87	2015-10-23 23:37:24	0	0	0	0	0	0	24.93	4.22	0.05	539286	0	25238	330541	539286	514277	22780	59	794	155	313582	1257636	23788
88	2015-10-23 23:43:25	0	0	0	0	0	0	25.25	4.22	0.05	545886	0	25238	334903	545886	520502	23018	59	802	155	317504	1257643	24034
89	2015-10-23 23:49:24	0	0	0	0	0	0	25.25	4.22	0.05	545886	0	25516	334903	545886	520502	23018	59	802	156	317504	1257652	24035
90	2015-10-23 23:55:23	0	0	0	0	0	0	25.5	4.21	0.05	551746	0	25516	339185	551746	526065	23202	60	806	156	320693	1257657	24224
91	2015-10-24 00:01:23	0	0	0	0	0	0	25.5	4.21	0.05	551746	0	25850	339185	551746	526065	23202	60	806	156	320693	1257662	24224
92	2015-10-24 00:07:23	0	0	0	0	0	0	25.75	4.2	0.05	557605	0	25850	342136	557605	531612	23400	60	820	156	323838	1257661	24436
93	2015-10-24 00:13:23	0	0	0	0	0	0	25.75	4.2	0.05	557605	0	26126	342136	557605	531612	23400	60	820	156	323838	1257663	24436
94	2015-10-24 00:19:27	0	0	0	0	0	0	26.02	4.19	0.05	563061	0	26126	346413	563061	536753	23598	61	829	156	327294	1257669	24644
95	2015-10-24 00:25:23	0	0	0	0	0	0	26.02	4.19	0.05	563061	0	26459	346413	563061	536753	23598	61	829	156	327294	1257675	24644
96	2015-10-24 00:31:23	0	0	0	0	0	0	26.17	4.19	0.05	568366	0	26459	348431	568366	541797	23793	61	835	156	329095	1257678	24845
97	2015-10-24 00:37:23	0	0	0	0	0	0	26.17	4.19	0.05	568366	0	26569	348431	568366	541797	23793	61	835	157	329095	1257682	24846
98	2015-10-24 00:43:23	0	0	0	0	0	0	26.32	4.18	0.05	572971	0	26569	350541	572971	546129	23966	61	854	157	330977	1257685	25038
99	2015-10-24 00:49:24	0	0	0	0	0	0	26.32	4.18	0.05	572971	0	27010	350541	572971	546129	23966	61	854	159	330977	1257688	25040
100	2015-10-24 00:55:23	0	0	0	0	0	0	26.41	4.17	0.05	577455	0	27010	353482	577455	550255	24059	61	866	159	332113	1257689	25145
101	2015-10-24 01:01:24	0	0	0	0	0	0	26.41	4.17	0.05	577455	0	27352	353482	577455	550255	24059	61	866	163	332113	1257690	25149
102	2015-10-24 01:07:25	0	0	0	0	0	0	26.68	4.18	0.05	580742	0	27352	355869	580742	553259	24263	63	875	163	335595	1257694	25364
103	2015-10-24 01:13:23	0	0	0	0	0	0	26.68	4.18	0.05	580742	0	27613	355869	580742	553259	24263	63	875	164	335595	1257697	25365
104	2015-10-24 01:19:24	0	0	0	0	0	0	26.82	4.18	0.05	583877	0	27613	357182	583877	556130	24379	63	880	164	337349	1257702	25486
105	2015-10-24 01:25:24	0	0	0	0	0	0	26.82	4.18	0.05	583877	0	27861	357182	583877	556130	24379	63	880	165	337349	1257705	25487
106	2015-10-24 01:31:24	0	0	0	0	0	0	27.05	4.17	0.05	587196	0	27861	358983	587196	559215	24509	63	885	165	340147	1257707	25622
107	2015-10-24 01:37:25	0	0	0	0	0	0	27.04	4.17	0.05	587196	0	28108	358983	587196	559215	24509	63	885	166	340147	1257712	25623
108	2015-10-24 01:43:25	0	0	0	0	0	0	27.19	4.17	0.05	588650	0	28108	361073	588650	560542	24572	63	888	166	341948	1257711	25689
109	2015-10-24 01:49:25	0	0	0	0	0	0	27.19	4.17	0.05	588650	0	28260	361073	588650	560542	24572	63	888	166	341948	1257715	25689
110	2015-10-24 01:55:24	0	0	0	0	0	0	27.41	4.17	0.05	591745	0	28260	363572	591745	563406	24690	63	895	166	344802	1257720	25814
111	2015-10-24 02:01:24	0	0	0	0	0	0	27.42	4.17	0.05	591745	0	28413	363572	591745	563406	24690	63	895	166	344802	1257522	25814
112	2015-10-24 02:07:25	0	0	0	0	0	0	27.43	4.17	0.05	593574	0	28413	364257	593574	565093	24772	63	902	166	344955	1257523	25903
113	2015-10-24 02:13:24	0	0	0	0	0	0	27.43	4.17	0.05	593574	0	28548	364257	593574	565093	24772	63	902	166	344955	1257523	25903
114	2015-10-24 02:19:24	0	0	0	0	0	0	27.44	4.17	0.05	594483	0	28548	364385	594483	565935	24811	63	903	166	345071	1257527	25943
115	2015-10-24 02:25:24	0	0	0	0	0	0	27.44	4.17	0.05	594483	0	28617	364385	594483	565935	24811	63	903	167	345071	1257528	25944
116	2015-10-24 02:31:24	0	0	0	0	0	0	27.46	4.17	0.05	596593	0	28617	364727	596593	567893	24889	63	907	167	345377	1257528	26026
117	2015-10-24 02:37:23	0	0	0	0	0	0	27.46	4.17	0.05	596593	0	28700	364727	596593	567893	24889	63	907	167	345377	1257526	26026
118	2015-10-24 02:43:23	0	0	0	0	0	0	27.5	4.17	0.05	597262	0	28700	365243	597262	568513	24916	63	907	167	345840	1257521	26053
119	2015-10-24 02:49:24	0	0	0	0	0	0	27.5	4.17	0.05	597262	0	28853	365243	597262	568513	24916	63	907	168	345840	1257520	26054
120	2015-10-24 02:55:24	0	0	0	0	0	0	27.73	4.17	0.05	598906	0	28853	368493	598906	570003	24989	63	913	168	348752	1257520	26133
121	2015-10-24 03:01:24	0	0	0	0	0	0	27.73	4.17	0.05	598906	0	28937	368493	598906	570003	24989	63	913	168	348752	1257522	26133
122	2015-10-24 03:07:23	0	0	0	0	0	0	27.78	4.17	0.05	599927	0	28937	369416	599927	570943	25003	63	915	168	349303	1257519	26149
123	2015-10-24 03:13:24	0	0	0	0	0	0	27.78	4.17	0.05	599927	0	28984	369416	599927	570943	25003	63	915	168	349303	1257522	26149
124	2015-10-24 03:19:24	0	0	0	0	0	0	27.81	4.17	0.05	600496	0	28984	369835	600496	571462	25044	63	917	168	349677	1257523	26192
125	2015-10-24 03:25:25	0	0	0	0	0	0	27.81	4.17	0.05	600496	0	29116	369835	600496	571462	25044	63	917	168	349677	1257524	26192
126	2015-10-24 03:31:25	0	0	0	0	0	0	27.82	4.17	0.05	601710	0	29116	370089	601710	572556	25078	63	919	168	349905	1257525	26228
127	2015-10-24 03:37:25	0	0	0	0	0	0	27.82	4.17	0.05	601710	0	29154	370089	601710	572556	25078	63	919	168	349905	1257526	26228
128	2015-10-24 03:43:24	0	0	0	0	0	0	27.84	4.17	0.05	602508	0	29154	370244	602508	573291	25116	63	921	168	350043	1257526	26268
129	2015-10-24 03:49:24	0	0	0	0	0	0	27.84	4.17	0.05	602508	0	29243	370244	602508	573291	25116	63	921	168	350043	1257526	26268
130	2015-10-24 03:55:24	0	0	0	0	0	0	27.84	4.17	0.05	603161	0	29243	370244	603161	573895	25124	64	924	168	350043	1257526	26280
131	2015-10-24 04:01:24	0	0	0	0	0	0	27.84	4.17	0.05	603161	0	29288	370244	603161	573895	25124	64	924	168	350043	1257526	26280
132	2015-10-24 04:07:23	0	0	0	0	0	0	27.86	4.17	0.05	603807	0	29288	370554	603807	574495	25153	65	924	168	350320	1257526	26310
133	2015-10-24 04:13:23	0	0	0	0	0	0	27.86	4.17	0.05	603807	0	29335	370554	603807	574495	25153	65	924	168	350320	1257525	26310
134	2015-10-24 04:19:23	0	0	0	0	0	0	27.86	4.17	0.05	604061	0	29335	370554	604061	574726	25162	65	924	168	350320	1257525	26319
135	2015-10-24 04:25:24	0	0	0	0	0	0	27.86	4.17	0.05	604061	0	29360	370554	604061	574726	25162	65	924	168	350320	1257526	26319
136	2015-10-24 04:31:24	0	0	0	0	0	0	27.91	4.17	0.05	604877	0	29360	371889	604877	575477	25200	66	925	168	351035	1257527	26359
137	2015-10-24 04:37:25	0	0	0	0	0	0	27.91	4.17	0.05	604877	0	29400	371889	604877	575477	25200	66	925	168	351035	1257529	26359
138	2015-10-24 04:43:24	0	0	0	0	0	0	27.92	4.17	0.05	605368	0	29400	372024	605368	575910	25225	67	926	168	351155	1257529	26386
139	2015-10-24 04:49:24	0	0	0	0	0	0	27.92	4.17	0.05	605368	0	29458	372024	605368	575910	25225	67	926	168	351155	1257528	26386
140	2015-10-24 04:55:24	0	0	0	0	0	0	27.92	4.17	0.05	605663	0	29458	372024	605663	576174	25238	67	926	168	351155	1257528	26399
141	2015-10-24 05:01:24	0	0	0	0	0	0	27.92	4.17	0.05	605663	0	29533	372024	605663	576174	25238	67	926	168	351155	1257528	26399
142	2015-10-24 05:07:24	0	0	0	0	0	0	27.92	4.17	0.05	606092	0	29533	372024	606092	576559	25249	67	928	168	351155	1257528	26412
143	2015-10-24 05:13:24	0	0	0	0	0	0	27.92	4.17	0.05	606092	0	29590	372024	606092	576559	25249	67	928	168	351155	1257529	26412
144	2015-10-24 05:19:27	0	0	0	0	0	0	27.93	4.16	0.05	606540	0	29590	372113	606540	576950	25258	67	931	168	351234	1257529	26424
145	2015-10-24 05:25:24	0	0	0	0	0	0	27.93	4.16	0.05	606540	0	29620	372113	606540	576950	25258	67	931	168	351234	1257529	26424
146	2015-10-24 05:31:25	0	0	0	0	0	0	27.93	4.16	0.05	607029	0	29620	372113	607029	577375	25272	67	931	168	351234	1257531	26438
147	2015-10-24 05:37:24	0	0	0	0	0	0	27.93	4.16	0.05	607029	0	29687	372113	607029	577375	25272	67	931	168	351234	1257533	26438
148	2015-10-24 05:43:24	0	0	0	0	0	0	27.93	4.16	0.05	607462	0	29687	372225	607462	577747	25287	67	933	168	351264	1257533	26455
149	2015-10-24 05:49:26	0	0	0	0	0	0	27.93	4.16	0.05	607462	0	29755	372225	607462	577747	25287	67	933	168	351264	1257532	26455
150	2015-10-24 05:55:23	0	0	0	0	0	0	27.94	4.16	0.05	607964	0	29755	372292	607964	578184	25307	67	934	168	351324	1257534	26476
151	2015-10-24 06:01:23	0	0	0	0	0	0	27.94	4.16	0.05	607964	0	29816	372292	607964	578184	25307	67	934	168	351324	1257535	26476
152	2015-10-24 06:07:25	0	0	0	0	0	0	27.94	4.16	0.05	608687	0	29816	372605	608687	578792	25324	67	935	168	351324	1257534	26494
153	2015-10-24 06:13:23	0	0	0	0	0	0	27.94	4.16	0.05	608687	0	29924	372605	608687	578792	25324	67	935	168	351324	1257535	26494
154	2015-10-24 06:19:23	0	0	0	0	0	0	27.94	4.16	0.05	608961	0	29924	372605	608961	579037	25330	67	935	168	351324	1257535	26500
155	2015-10-24 06:25:24	0	0	0	0	0	0	27.94	4.16	0.05	608961	0	29989	372605	608961	579037	25330	67	935	168	351324	1257535	26500
156	2015-10-24 06:31:23	0	0	0	0	0	0	27.96	4.16	0.05	609553	0	29989	372605	609553	579564	25350	67	936	168	351643	1257535	26521
157	2015-10-24 06:37:25	0	0	0	0	0	0	27.96	4.16	0.05	609553	0	30036	372605	609553	579564	25350	67	936	169	351643	1257537	26522
158	2015-10-24 06:43:26	0	0	0	0	0	0	27.97	4.16	0.05	610628	0	30036	372645	610628	580488	25383	69	937	169	351678	1257539	26558
159	2015-10-24 06:49:24	0	0	0	0	0	0	27.97	4.16	0.05	610628	0	30191	372645	610628	580488	25383	69	937	171	351678	1257539	26560
160	2015-10-24 06:55:24	0	0	0	0	0	0	28.08	4.15	0.05	611318	0	30191	374425	611318	581084	25400	69	939	171	353102	1257542	26579
161	2015-10-24 07:01:23	0	0	0	0	0	0	28.08	4.15	0.05	611318	0	30296	374425	611318	581084	25400	69	939	171	353102	1257544	26579
162	2015-10-24 07:07:24	0	0	0	0	0	0	28.08	4.15	0.05	611791	0	30296	374425	611791	581495	25419	69	941	171	353102	1257543	26600
163	2015-10-24 07:13:24	0	0	0	0	0	0	28.08	4.15	0.05	611791	0	30361	374425	611791	581495	25419	69	941	171	353102	1257545	26600
164	2015-10-24 07:19:25	0	0	0	0	0	0	28.12	4.15	0.05	612699	0	30361	375060	612699	582285	25442	69	942	171	353667	1257546	26624
165	2015-10-24 07:25:24	0	0	0	0	0	0	28.12	4.15	0.05	612699	0	30477	375060	612699	582285	25442	69	942	171	353667	1257547	26624
166	2015-10-24 07:31:24	0	0	0	0	0	0	28.15	4.15	0.05	613816	0	30477	375412	613816	583255	25475	69	944	171	353980	1257548	26659
167	2015-10-24 07:37:25	0	0	0	0	0	0	28.15	4.15	0.05	613816	0	30614	375412	613816	583255	25475	69	944	171	353980	1257549	26659
168	2015-10-24 07:43:24	0	0	0	0	0	0	28.26	4.15	0.05	614904	0	30614	376325	614904	584221	25510	70	950	171	355443	1257550	26701
169	2015-10-24 07:49:24	0	0	0	0	0	0	28.26	4.15	0.05	614904	0	30772	376325	614904	584221	25510	70	950	171	355443	1257554	26701
170	2015-10-24 07:55:25	0	0	0	0	0	0	28.35	4.15	0.05	616303	0	30772	377288	616303	585432	25558	71	952	171	356466	1257556	26752
171	2015-10-24 08:01:24	0	0	0	0	0	0	28.35	4.15	0.05	616303	0	30969	377288	616303	585432	25558	71	952	171	356466	1257557	26752
172	2015-10-24 08:07:24	0	0	0	0	0	0	28.4	4.14	0.05	618405	0	30969	378788	618405	586588	25594	71	953	171	357185	1257558	26789
173	2015-10-24 08:13:24	0	0	0	0	0	0	28.4	4.14	0.05	618405	0	31147	378788	618405	586588	25594	71	953	171	357185	1257562	26789
174	2015-10-24 08:19:24	0	0	0	0	0	0	28.53	4.14	0.05	619390	0	31147	379926	619390	588110	25647	71	954	171	358820	1257564	26843
175	2015-10-24 08:25:24	0	0	0	0	0	0	28.53	4.14	0.05	619390	0	31383	379926	619390	588110	25647	71	954	171	358820	1257565	26843
176	2015-10-24 08:31:24	0	0	0	0	0	0	28.55	4.14	0.05	621242	0	31383	380206	621242	589719	25712	71	959	171	359070	1257566	26913
177	2015-10-24 08:37:25	0	0	0	0	0	0	28.55	4.14	0.05	621242	0	31771	380206	621242	589719	25712	71	959	171	359070	1257567	26913
178	2015-10-24 08:43:24	0	0	0	0	0	0	28.62	4.13	0.05	624058	0	31771	381636	624058	592172	25803	73	960	171	359968	1257571	27007
179	2015-10-24 08:49:24	0	0	0	0	0	0	28.62	4.13	0.05	624058	0	32012	381636	624058	592172	25803	73	960	172	359968	1257574	27008
180	2015-10-24 08:55:24	0	0	0	0	0	0	28.65	4.13	0.05	626345	0	32012	382154	626345	594203	25867	73	962	172	360303	1257574	27074
181	2015-10-24 09:01:25	0	0	0	0	0	0	28.65	4.13	0.05	626345	0	32248	382154	626345	594203	25867	73	962	174	360303	1257578	27076
182	2015-10-24 09:07:25	0	0	0	0	0	0	28.72	4.13	0.05	628478	0	32248	383307	628478	596072	25940	73	965	174	361159	1257586	27152
183	2015-10-24 09:13:25	0	0	0	0	0	0	28.72	4.13	0.05	628478	0	32549	383307	628478	596072	25940	73	965	178	361159	1257588	27156
184	2015-10-24 09:19:26	0	0	0	0	0	0	28.82	4.13	0.05	630979	0	32549	384688	630979	598273	26040	73	968	178	362385	1257589	27259
185	2015-10-24 09:25:26	0	0	0	0	0	0	28.82	4.13	0.05	630979	0	32870	384688	630979	598273	26040	73	968	178	362385	1257591	27259
186	2015-10-24 09:31:26	0	0	0	0	0	0	28.91	4.13	0.05	632358	0	32870	385971	632358	599488	26092	73	970	178	363608	1257595	27313
187	2015-10-24 09:37:26	0	0	0	0	0	0	28.91	4.13	0.06	632358	0	33041	385971	632358	599488	26092	73	970	180	363608	1257599	27315
188	2015-10-24 09:43:26	0	0	0	0	0	0	28.95	4.12	0.05	634808	0	33041	386428	634808	601638	26152	73	972	180	364014	1257603	27377
189	2015-10-24 09:49:25	0	0	0	0	0	0	28.94	4.12	0.06	634808	0	33425	386428	634808	601638	26152	73	972	180	364014	1257609	27377
190	2015-10-24 09:55:25	0	0	0	0	0	0	28.99	4.12	0.06	637104	0	33425	387050	637104	603679	26241	73	975	180	364566	1257611	27469
191	2015-10-24 10:01:26	0	0	0	0	0	0	28.99	4.12	0.06	637104	0	33716	387050	637104	603679	26241	73	975	181	364566	1257611	27470
192	2015-10-24 10:07:27	0	0	0	0	0	0	29.18	4.11	0.06	641066	0	33716	389852	641066	607194	26364	74	983	181	366921	1257610	27602
193	2015-10-24 10:13:26	0	0	0	0	0	0	29.18	4.11	0.06	641066	0	33872	389852	641066	607194	26364	74	983	182	366921	1257617	27603
194	2015-10-24 10:19:27	0	0	0	0	0	0	29.19	4.11	0.06	642435	0	33872	390086	642435	608377	26408	74	984	182	367127	1257619	27648
195	2015-10-24 10:25:25	0	0	0	0	0	0	29.19	4.11	0.06	642435	0	34348	390086	642435	608377	26408	74	984	184	367127	1257623	27650
196	2015-10-24 10:31:27	0	0	0	0	0	0	29.36	4.11	0.06	644778	0	34348	392758	644778	610430	26472	74	992	184	369251	1257626	27722
197	2015-10-24 10:37:25	0	0	0	0	0	0	29.36	4.11	0.06	644778	0	34539	392758	644778	610430	26472	74	992	189	369251	1257625	27727
198	2015-10-24 10:43:25	0	0	0	0	0	0	29.44	4.1	0.06	647402	0	34539	393907	647402	612698	26550	74	995	189	370266	1257639	27808
199	2015-10-24 10:49:26	0	0	0	0	0	0	29.44	4.1	0.06	647402	0	34885	393907	647402	612698	26550	74	995	191	370266	1257645	27810
200	2015-10-24 10:55:25	0	0	0	0	0	0	29.65	4.1	0.06	651069	0	34885	396340	651069	615908	26665	75	1001	191	372953	1257645	27932
201	2015-10-24 11:01:27	0	0	0	0	0	0	29.65	4.1	0.06	651069	0	35161	396340	651069	615908	26665	75	1001	191	372953	1257648	27932
202	2015-10-24 11:07:28	0	0	0	0	0	0	29.65	4.09	0.06	652523	0	35161	396340	652523	617183	26718	78	1003	191	372953	1257653	27990
203	2015-10-24 11:13:28	0	0	0	0	0	0	29.65	4.09	0.06	652523	0	35499	396340	652523	617183	26718	78	1003	191	372953	1257660	27990
204	2015-10-24 11:19:27	0	0	0	0	0	0	29.78	4.09	0.06	655035	0	35499	398328	655035	619370	26808	78	1005	191	374578	1257663	28082
205	2015-10-24 11:25:26	0	0	0	0	0	0	29.78	4.09	0.06	655035	0	35820	398328	655035	619370	26808	78	1005	191	374578	1257670	28082
206	2015-10-24 11:31:26	0	0	0	0	0	0	29.94	4.09	0.06	657569	0	35820	400401	657569	621538	26901	78	1013	191	376525	1257671	28183
207	2015-10-24 11:37:26	0	0	0	0	0	0	29.94	4.09	0.06	657569	0	36203	400401	657569	621538	26901	78	1013	192	376525	1257672	28184
208	2015-10-24 11:43:28	0	0	0	0	0	0	29.96	4.09	0.06	659706	0	36203	400816	659706	623363	26963	78	1015	192	376800	1257681	28248
209	2015-10-24 11:49:27	0	0	0	0	0	0	29.96	4.09	0.06	659706	0	36613	400816	659706	623363	26963	78	1015	193	376800	1257683	28249
210	2015-10-24 11:55:26	0	0	0	0	0	0	30.18	4.08	0.06	663095	0	36613	403000	663095	626312	27033	78	1021	193	379612	1257690	28325
211	2015-10-24 12:01:27	0	0	0	0	0	0	30.18	4.08	0.06	663095	0	36783	403000	663095	626312	27033	78	1021	194	379612	1257699	28326
212	2015-10-24 12:07:27	0	0	0	0	0	0	30.44	4.08	0.06	664478	0	36783	406612	664478	627499	27116	80	1025	194	382862	1257702	28415
213	2015-10-24 12:13:26	0	0	0	0	0	0	30.44	4.08	0.06	664478	0	37149	406612	664478	627499	27116	80	1025	195	382862	1257703	28416
214	2015-10-24 12:19:27	0	0	0	0	0	0	30.48	4.08	0.06	666758	0	37149	407094	666758	629468	27208	80	1031	195	383289	1257713	28514
215	2015-10-24 12:25:26	0	0	0	0	0	0	30.48	4.08	0.06	666758	0	37413	407094	666758	629468	27208	80	1031	195	383289	1257715	28514
216	2015-10-24 12:31:28	0	0	0	0	0	0	30.66	4.08	0.06	668962	0	37413	409618	668962	631407	27263	80	1038	195	385622	1257728	28576
217	2015-10-24 12:37:27	0	0	0	0	0	0	30.66	4.08	0.06	668962	0	37721	409618	668962	631407	27263	80	1038	196	385622	1257732	28577
218	2015-10-24 12:43:27	0	0	0	0	0	0	30.69	4.07	0.06	670846	0	37721	410025	670846	632989	27328	80	1040	196	385983	1257739	28644
219	2015-10-24 12:49:28	0	0	0	0	0	0	30.69	4.07	0.06	670846	0	38014	410025	670846	632989	27328	80	1040	196	385983	1257747	28644
220	2015-10-24 12:55:28	0	0	0	0	0	0	30.78	4.07	0.06	672712	0	38014	411387	672712	634566	27387	80	1044	196	387189	1257749	28707
221	2015-10-24 13:01:28	0	0	0	0	0	0	30.78	4.07	0.06	672712	0	38304	411387	672712	634566	27387	80	1044	197	387189	1257758	28708
222	2015-10-24 13:07:28	0	0	0	0	0	0	31	4.07	0.06	674473	0	38304	414498	674473	636050	27433	80	1045	197	389944	1257761	28755
223	2015-10-24 13:13:28	0	0	0	0	0	0	31	4.07	0.06	674473	0	38530	414498	674473	636050	27433	80	1045	197	389944	1257767	28755
224	2015-10-24 13:19:27	0	0	0	0	0	0	31.09	4.06	0.06	676179	0	38530	415695	676179	637547	27486	80	1050	197	391003	1257772	28813
225	2015-10-24 13:25:27	0	0	0	0	0	0	31.09	4.06	0.06	676179	0	38768	415695	676179	637547	27486	80	1050	198	391003	1257778	28814
226	2015-10-24 13:31:29	0	0	0	0	0	0	31.11	4.07	0.06	678007	0	38768	416030	678007	639130	27561	80	1053	198	391299	1257783	28892
227	2015-10-24 13:37:29	0	0	0	0	0	0	31.11	4.07	0.06	678007	0	38964	416030	678007	639130	27561	80	1053	199	391299	1257787	28893
228	2015-10-24 13:43:29	0	0	0	0	0	0	31.23	4.06	0.06	679555	0	38964	417685	679555	640501	27594	80	1054	199	392764	1257793	28927
229	2015-10-24 13:49:28	0	0	0	0	0	0	31.23	4.06	0.06	679555	0	39135	417685	679555	640501	27594	80	1054	199	392764	1257796	28927
230	2015-10-24 13:55:29	0	0	0	0	0	0	31.35	4.06	0.06	681589	0	39135	419482	681589	642334	27648	81	1057	199	394352	1257802	28985
231	2015-10-24 14:01:29	0	0	0	0	0	0	31.35	4.06	0.06	681589	0	39340	419482	681589	642334	27648	81	1057	199	394352	1257812	28985
232	2015-10-24 14:07:28	0	0	0	0	0	0	31.43	4.05	0.06	683697	0	39340	420400	683697	644266	27709	82	1059	199	395277	1257819	29049
233	2015-10-24 14:13:29	0	0	0	0	0	0	31.43	4.05	0.06	683697	0	39555	420400	683697	644266	27709	82	1059	201	395277	1257825	29051
234	2015-10-24 14:19:28	0	0	0	0	0	0	31.58	4.05	0.06	685855	0	39555	422379	685855	646199	27770	82	1065	201	397178	1257836	29118
235	2015-10-24 14:25:31	0	0	0	0	0	0	31.58	4.05	0.06	685855	0	39769	422379	685855	646199	27770	82	1065	201	397178	1257844	29118
236	2015-10-24 14:31:28	0	0	0	0	0	0	31.62	4.05	0.06	688169	0	39769	423014	688169	648245	27845	82	1069	201	397740	1257851	29197
237	2015-10-24 14:37:29	0	0	0	0	0	0	31.62	4.05	0.06	688169	0	40049	423014	688169	648245	27845	82	1069	202	397740	1257855	29198
238	2015-10-24 14:43:29	0	0	0	0	0	0	31.7	4.04	0.06	690087	0	40049	424173	690087	649929	27902	82	1072	202	398713	1257855	29258
239	2015-10-24 14:49:29	0	0	0	0	0	0	31.7	4.04	0.06	690087	0	40246	424173	690087	649929	27902	82	1072	202	398713	1257865	29258
240	2015-10-24 14:55:29	0	0	0	0	0	0	31.73	4.04	0.06	691821	0	40246	424696	691821	651468	27948	82	1072	202	399175	1257867	29304
241	2015-10-24 15:01:30	0	0	0	0	0	0	31.73	4.04	0.06	691821	0	40453	424696	691821	651468	27948	82	1072	202	399175	1257873	29304
242	2015-10-24 15:07:30	0	0	0	0	0	0	31.77	4.04	0.06	693514	0	40453	425630	693514	652980	27998	82	1075	202	399638	1257879	29357
243	2015-10-24 15:13:29	0	0	0	0	0	0	31.77	4.04	0.06	693514	0	40616	425630	693514	652980	27998	82	1075	202	399638	1257884	29357
244	2015-10-24 15:19:30	0	0	0	0	0	0	31.77	4.03	0.06	695184	0	40616	425688	695184	654489	28043	82	1075	202	399690	1257891	29402
245	2015-10-24 15:25:31	0	0	0	0	0	0	31.77	4.03	0.06	695184	0	40750	425688	695184	654489	28043	82	1075	202	399690	1257891	29402
246	2015-10-24 15:31:30	0	0	0	0	0	0	31.86	4.03	0.06	697095	0	40750	427156	697095	656243	28101	83	1081	202	400776	1257897	29467
247	2015-10-24 15:37:29	0	0	0	0	0	0	31.86	4.03	0.06	697095	0	40933	427156	697095	656243	28101	83	1081	202	400776	1257903	29467
248	2015-10-24 15:43:29	0	0	0	0	0	0	31.9	4.03	0.06	698693	0	40933	427274	698693	657677	28150	84	1082	202	401296	1257907	29518
249	2015-10-24 15:49:29	0	0	0	0	0	0	31.9	4.03	0.06	698693	0	41088	427274	698693	657677	28150	84	1082	202	401296	1257912	29518
250	2015-10-24 15:55:29	0	0	0	0	0	0	32	4.03	0.06	700372	0	41088	428649	700372	659202	28196	84	1085	202	402509	1257914	29567
251	2015-10-24 16:01:30	0	0	0	0	0	0	32	4.03	0.06	700372	0	41264	428649	700372	659202	28196	84	1085	202	402509	1257923	29567
252	2015-10-24 16:07:31	0	0	0	0	0	0	32.07	4.02	0.06	701987	0	41264	429720	701987	660644	28240	84	1086	202	403453	1257927	29612
253	2015-10-24 16:13:30	0	0	0	0	0	0	32.07	4.02	0.06	701987	0	41425	429720	701987	660644	28240	84	1086	202	403453	1257933	29612
254	2015-10-24 16:19:30	0	0	0	0	0	0	32.11	4.02	0.06	702786	0	41425	430190	702786	661361	28266	85	1089	202	403867	1257936	29642
255	2015-10-24 16:25:30	0	0	0	0	0	0	32.11	4.02	0.06	702786	0	41506	430190	702786	661361	28266	85	1089	202	403867	1257945	29642
256	2015-10-24 16:31:30	0	0	0	0	0	0	32.15	4.02	0.06	704316	0	41506	430849	704316	662743	28308	86	1089	202	404447	1257950	29685
257	2015-10-24 16:37:30	0	0	0	0	0	0	32.15	4.02	0.06	704316	0	41669	430849	704316	662743	28308	86	1089	202	404447	1257955	29685
258	2015-10-24 16:43:30	0	0	0	0	0	0	32.19	4.02	0.06	705870	0	41669	431449	705870	664134	28360	86	1092	202	404976	1257956	29740
259	2015-10-24 16:49:30	0	0	0	0	0	0	32.19	4.02	0.06	705870	0	41804	431449	705870	664134	28360	86	1092	202	404976	1257957	29740
260	2015-10-24 16:55:32	0	0	0	0	0	0	32.24	4.01	0.06	707439	0	41804	432172	707439	665575	28403	86	1094	202	405613	1257967	29785
261	2015-10-24 17:01:33	0	0	0	0	0	0	32.24	4.01	0.06	707439	0	41935	432172	707439	665575	28403	86	1094	202	405613	1257967	29785
262	2015-10-24 17:07:31	0	0	0	0	0	0	32.28	4.01	0.06	708636	0	41935	433230	708636	666639	28440	86	1096	202	406012	1257973	29824
263	2015-10-24 17:13:30	0	0	0	0	0	0	32.27	4.01	0.06	708636	0	42042	433230	708636	666639	28440	86	1096	202	406012	1257978	29824
264	2015-10-24 17:19:31	0	0	0	0	0	0	32.31	4.01	0.06	709794	0	42042	433712	709794	667691	28473	86	1099	202	406435	1257981	29860
265	2015-10-24 17:25:30	0	0	0	0	0	0	32.31	4.01	0.06	709794	0	42167	433712	709794	667691	28473	86	1099	202	406435	1257993	29860
266	2015-10-24 17:31:31	0	0	0	0	0	0	32.35	4.01	0.06	711064	0	42167	434350	711064	668835	28516	86	1102	202	406996	1257998	29906
267	2015-10-24 17:37:30	0	0	0	0	0	0	32.35	4.01	0.06	711064	0	42287	434350	711064	668835	28516	86	1102	202	406996	1258002	29906
268	2015-10-24 17:43:31	0	0	0	0	0	0	32.36	4.01	0.06	712334	0	42287	435328	712334	669988	28550	86	1105	202	407103	1258003	29943
269	2015-10-24 17:49:31	0	0	0	0	0	0	32.36	4.01	0.06	712334	0	42413	435328	712334	669988	28550	86	1105	202	407103	1258003	29943
270	2015-10-24 17:55:30	0	0	0	0	0	0	32.36	4.01	0.06	713637	0	42413	435328	713637	671167	28585	86	1106	202	407103	1258010	29979
271	2015-10-24 18:01:32	0	0	0	0	0	0	32.36	4.01	0.06	713637	0	42556	435328	713637	671167	28585	86	1106	202	407103	1258017	29979
272	2015-10-24 18:07:33	0	0	0	0	0	0	32.47	4	0.06	714846	0	42556	437063	714846	672249	28620	86	1109	202	408459	1258019	30017
273	2015-10-24 18:13:30	0	0	0	0	0	0	32.47	4	0.06	714846	0	42650	437063	714846	672249	28620	86	1109	202	408459	1258027	30017
274	2015-10-24 18:19:31	0	0	0	0	0	0	32.47	4	0.06	715975	0	42650	437075	715975	673227	28652	88	1114	202	408469	1258036	30056
275	2015-10-24 18:25:31	0	0	0	0	0	0	32.47	4	0.06	715975	0	42846	437075	715975	673227	28652	88	1114	202	408469	1258038	30056
276	2015-10-24 18:31:32	0	0	0	0	0	0	32.51	4	0.06	717237	0	42846	437817	717237	674291	28696	88	1117	202	409008	1258043	30103
277	2015-10-24 18:37:32	0	0	0	0	0	0	32.51	4	0.06	717237	0	43061	437817	717237	674291	28696	88	1117	202	409008	1258051	30103
278	2015-10-24 18:43:34	0	0	0	0	0	0	32.58	4	0.06	718476	0	43061	439276	718476	675317	28737	88	1118	202	409848	1258058	30145
279	2015-10-24 18:49:32	0	0	0	0	0	0	32.58	4	0.06	718476	0	43264	439276	718476	675317	28737	88	1118	203	409848	1258064	30146
280	2015-10-24 18:55:31	0	0	0	0	0	0	32.58	4	0.06	719754	0	43264	439276	719754	676387	28783	88	1119	203	409848	1258067	30193
281	2015-10-24 19:01:32	0	0	0	0	0	0	32.58	4	0.06	719754	0	43467	439276	719754	676387	28783	88	1119	203	409848	1258069	30193
282	2015-10-24 19:07:31	0	0	0	0	0	0	32.58	4	0.06	721115	0	43467	439276	721115	677566	28814	88	1125	203	409848	1258074	30230
283	2015-10-24 19:13:32	0	0	0	0	0	0	32.58	4	0.06	721115	0	43640	439276	721115	677566	28814	88	1125	204	409848	1258077	30231
284	2015-10-24 19:19:32	0	0	0	0	0	0	32.59	4	0.06	721725	0	43640	439526	721725	678085	28834	88	1128	204	410065	1258081	30254
285	2015-10-24 19:25:33	0	0	0	0	0	0	32.59	4	0.06	721725	0	43743	439526	721725	678085	28834	88	1128	205	410065	1258083	30255
286	2015-10-24 19:31:34	0	0	0	0	0	0	32.6	3.99	0.06	722906	0	43743	439619	722906	679072	28867	88	1129	205	410146	1258086	30289
287	2015-10-24 19:37:33	0	0	0	0	0	0	32.6	3.99	0.06	722906	0	43926	439619	722906	679072	28867	88	1129	206	410146	1258089	30290
288	2015-10-24 19:43:33	0	0	0	0	0	0	32.64	3.99	0.06	724148	0	43926	440589	724148	680147	28896	88	1129	206	410581	1258094	30319
289	2015-10-24 19:49:32	0	0	0	0	0	0	32.64	3.99	0.06	724148	0	44083	440589	724148	680147	28896	88	1129	206	410581	1258094	30319
290	2015-10-24 19:55:33	0	0	0	0	0	0	32.69	3.99	0.06	725063	0	44083	441343	725063	680925	28918	88	1130	206	411236	1258098	30342
291	2015-10-24 20:01:32	0	0	0	0	0	0	32.69	3.99	0.06	725063	0	44194	441343	725063	680925	28918	88	1130	207	411236	1258105	30343
292	2015-10-24 20:07:32	0	0	0	0	0	0	32.72	3.98	0.06	726400	0	44194	442091	726400	682105	28942	88	1131	207	411666	1258107	30368
293	2015-10-24 20:13:33	0	0	0	0	0	0	32.72	3.98	0.07	726400	0	44355	442091	726400	682105	28942	88	1131	207	411666	1258110	30368
294	2015-10-24 20:19:36	0	0	0	0	0	0	32.81	3.98	0.06	727374	0	44355	443482	727374	682928	28985	89	1134	207	412764	1258118	30415
295	2015-10-24 20:25:32	0	0	0	0	0	0	32.81	3.98	0.07	727374	0	44531	443482	727374	682928	28985	89	1134	207	412764	1258126	30415
296	2015-10-24 20:31:33	0	0	0	0	0	0	32.88	3.98	0.07	728364	0	44531	444501	728364	683780	29012	90	1136	207	413646	1258137	30445
297	2015-10-24 20:37:33	0	0	0	0	0	0	32.88	3.98	0.07	728364	0	44653	444501	728364	683780	29012	90	1136	208	413646	1258142	30446
298	2015-10-24 20:43:33	0	0	0	0	0	0	32.89	3.98	0.07	729328	0	44653	444692	729328	684589	29036	90	1137	208	413812	1258149	30471
299	2015-10-24 20:49:32	0	0	0	0	0	0	32.89	3.98	0.07	729328	0	44810	444692	729328	684589	29036	90	1137	208	413812	1258156	30471
300	2015-10-24 20:55:33	0	0	0	0	0	0	32.91	3.98	0.07	730333	0	44810	445012	730333	685467	29072	90	1139	208	414089	1258162	30509
301	2015-10-24 21:01:33	0	0	0	0	0	0	32.91	3.98	0.07	730333	0	44914	445012	730333	685467	29072	90	1139	208	414089	1258167	30509
302	2015-10-24 21:07:35	0	0	0	0	0	0	32.91	3.98	0.07	731247	0	44914	445780	731247	686262	29097	90	1139	208	414089	1258174	30534
303	2015-10-24 21:13:32	0	0	0	0	0	0	32.91	3.98	0.07	731247	0	45049	445780	731247	686262	29097	90	1139	208	414089	1258176	30534
304	2015-10-24 21:19:34	0	0	0	0	0	0	32.91	3.98	0.07	732234	0	45049	445780	732234	687125	29128	90	1141	208	414089	1258180	30567
305	2015-10-24 21:25:33	0	0	0	0	0	0	32.91	3.98	0.07	732234	0	45168	445780	732234	687125	29128	90	1141	208	414089	1258182	30567
306	2015-10-24 21:31:35	0	0	0	0	0	0	32.91	3.98	0.07	733175	0	45168	445909	733175	687938	29152	90	1145	208	414089	1258189	30595
307	2015-10-24 21:37:33	0	0	0	0	0	0	32.91	3.98	0.07	733175	0	45306	445909	733175	687938	29152	90	1145	208	414089	1258196	30595
308	2015-10-24 21:43:33	0	0	0	0	0	0	32.94	3.97	0.07	734228	0	45306	445909	734228	688845	29185	90	1145	208	414421	1258202	30628
309	2015-10-24 21:49:33	0	0	0	0	0	0	32.94	3.97	0.07	734228	0	45423	445909	734228	688845	29185	90	1145	208	414421	1258204	30628
310	2015-10-24 21:55:35	0	0	0	0	0	0	32.99	3.97	0.07	735198	0	45423	446681	735198	689711	29212	90	1147	208	415088	1258204	30657
311	2015-10-24 22:01:34	0	0	0	0	0	0	32.99	3.97	0.07	735198	0	45561	446681	735198	689711	29212	90	1147	208	415088	1258211	30657
312	2015-10-24 22:07:34	0	0	0	0	0	0	32.99	3.97	0.07	736230	0	45561	446729	736230	690606	29237	90	1149	208	415130	1258219	30684
313	2015-10-24 22:13:35	0	0	0	0	0	0	32.99	3.97	0.07	736230	0	45679	446729	736230	690606	29237	90	1149	209	415130	1258226	30685
314	2015-10-24 22:19:33	0	0	0	0	0	0	32.99	3.97	0.07	737207	0	45679	446753	737207	691463	29268	90	1152	209	415150	1258232	30719
315	2015-10-24 22:25:33	0	0	0	0	0	0	32.99	3.97	0.07	737207	0	45744	446753	737207	691463	29268	90	1152	209	415150	1258236	30719
316	2015-10-24 22:31:34	0	0	0	0	0	0	33.02	3.97	0.07	737726	0	45744	447124	737726	691881	29279	90	1156	209	415471	1258238	30734
317	2015-10-24 22:37:34	0	0	0	0	0	0	33.02	3.97	0.07	737726	0	45905	447124	737726	691881	29279	90	1156	209	415471	1258244	30734
318	2015-10-24 22:43:33	0	0	0	0	0	0	33.02	3.97	0.07	738879	0	45905	447124	738879	692865	29315	90	1156	209	415471	1258244	30770
319	2015-10-24 22:49:34	0	0	0	0	0	0	33.02	3.97	0.07	738879	0	46065	447124	738879	692865	29315	90	1156	209	415471	1258246	30770
320	2015-10-24 22:55:34	0	0	0	0	0	0	33.11	3.97	0.07	739670	0	46065	448419	739670	693550	29334	90	1158	209	416589	1258251	30791
321	2015-10-24 23:01:33	0	0	0	0	0	0	33.11	3.97	0.07	739670	0	46175	448419	739670	693550	29334	90	1158	209	416589	1258256	30791
322	2015-10-24 23:07:33	0	0	0	0	0	0	33.19	3.96	0.07	740552	0	46175	449885	740552	694311	29359	90	1161	209	417628	1258261	30819
323	2015-10-24 23:13:33	0	0	0	0	0	0	33.19	3.96	0.07	740552	0	46298	449885	740552	694311	29359	90	1161	209	417628	1258266	30819
324	2015-10-24 23:19:33	0	0	0	0	0	0	33.19	3.96	0.07	741405	0	46298	449885	741405	695050	29380	90	1161	209	417628	1258277	30840
325	2015-10-24 23:25:32	0	0	0	0	0	0	33.19	3.96	0.07	741405	0	46415	449885	741405	695050	29380	90	1161	209	417628	1258284	30840
326	2015-10-24 23:31:34	0	0	0	0	0	0	33.19	3.96	0.07	742349	0	46415	449885	742349	695862	29411	91	1161	209	417628	1258290	30872
327	2015-10-24 23:37:34	0	0	0	0	0	0	33.19	3.96	0.07	742349	0	46549	449885	742349	695862	29411	91	1161	209	417628	1258293	30872
328	2015-10-24 23:43:34	0	0	0	0	0	0	33.19	3.96	0.07	743189	0	46549	449885	743189	696589	29435	91	1161	209	417628	1258299	30896
329	2015-10-24 23:49:33	0	0	0	0	0	0	33.19	3.96	0.07	743189	0	46641	449885	743189	696589	29435	91	1161	209	417628	1258305	30896
330	2015-10-24 23:55:33	0	0	0	0	0	0	33.19	3.96	0.07	743948	0	46641	449885	743948	697267	29452	91	1161	209	417628	1258306	30913
331	2015-10-25 00:01:34	0	0	0	0	0	0	33.19	3.96	0.07	743948	0	46719	449885	743948	697267	29452	91	1161	209	417628	1258309	30913
332	2015-10-25 00:07:35	0	0	0	0	0	0	33.25	3.96	0.07	744800	0	46719	450720	744800	698041	29471	92	1163	209	418362	1258314	30935
333	2015-10-25 00:13:33	0	0	0	0	0	0	33.25	3.96	0.07	744800	0	46795	450720	744800	698041	29471	92	1163	209	418362	1258319	30935
334	2015-10-25 00:19:33	0	0	0	0	0	0	33.3	3.96	0.07	745493	0	46795	450983	745493	698655	29492	92	1165	209	419041	1258322	30958
335	2015-10-25 00:25:34	0	0	0	0	0	0	33.3	3.96	0.07	745493	0	46874	450983	745493	698655	29492	92	1165	209	419041	1258326	30958
336	2015-10-25 00:31:34	0	0	0	0	0	0	33.3	3.96	0.07	746163	0	46874	451476	746163	699231	29513	92	1166	209	419041	1258328	30980
337	2015-10-25 00:37:32	0	0	0	0	0	0	33.3	3.96	0.07	746163	0	46987	451476	746163	699231	29513	92	1166	210	419041	1258335	30981
338	2015-10-25 00:43:34	0	0	0	0	0	0	33.34	3.95	0.07	746843	0	46987	452003	746843	699795	29530	93	1170	210	419495	1258338	31003
339	2015-10-25 00:49:33	0	0	0	0	0	0	33.34	3.95	0.07	746843	0	47099	452003	746843	699795	29530	93	1170	210	419495	1258339	31003
340	2015-10-25 00:55:33	0	0	0	0	0	0	33.34	3.95	0.07	747520	0	47099	452267	747520	700371	29552	93	1170	210	419495	1258342	31025
341	2015-10-25 01:01:33	0	0	0	0	0	0	33.34	3.95	0.07	747520	0	47180	452267	747520	700371	29552	93	1170	210	419495	1258345	31025
342	2015-10-25 01:07:33	0	0	0	0	0	0	33.34	3.95	0.07	748077	0	47180	452267	748077	700860	29569	94	1171	210	419495	1258345	31044
343	2015-10-25 01:13:33	0	0	0	0	0	0	33.34	3.95	0.07	748077	0	47252	452267	748077	700860	29569	94	1171	210	419495	1258346	31044
344	2015-10-25 01:19:34	0	0	0	0	0	0	33.42	3.95	0.07	748581	0	47252	453459	748581	701284	29584	94	1174	210	420521	1258344	31062
345	2015-10-25 01:25:33	0	0	0	0	0	0	33.42	3.95	0.07	748581	0	47328	453459	748581	701284	29584	94	1174	210	420521	1258349	31062
346	2015-10-25 01:31:33	0	0	0	0	0	0	33.45	3.95	0.07	749100	0	47328	453858	749100	701745	29600	94	1174	210	420864	1258351	31078
347	2015-10-25 01:37:32	0	0	0	0	0	0	33.45	3.95	0.07	749100	0	47375	453858	749100	701745	29600	94	1174	210	420864	1258354	31078
348	2015-10-25 01:43:32	0	0	0	0	0	0	33.45	3.95	0.07	749527	0	47375	453858	749527	702130	29615	95	1174	210	420864	1258357	31094
349	2015-10-25 01:49:32	0	0	0	0	0	0	33.45	3.95	0.07	749527	0	47421	453858	749527	702130	29615	95	1174	211	420864	1258361	31095
350	2015-10-25 01:55:33	0	0	0	0	0	0	33.45	3.95	0.07	749928	0	47421	453858	749928	702485	29638	95	1174	211	420864	1258365	31118
351	2015-10-25 01:01:33	0	0	0	0	0	0	33.43	3.95	0.07	749928	0	47466	453858	749928	702485	29638	95	1174	211	420864	1258892	31118
352	2015-10-25 01:07:34	0	0	0	0	0	0	33.43	3.95	0.07	750285	0	47466	453858	750285	702799	29651	95	1174	211	420864	1258893	31131
353	2015-10-25 01:13:32	0	0	0	0	0	0	33.43	3.95	0.07	750285	0	47502	453858	750285	702799	29651	95	1174	211	420864	1258895	31131
354	2015-10-25 01:19:33	0	0	0	0	0	0	33.43	3.95	0.07	750635	0	47502	453858	750635	703117	29671	95	1174	211	420864	1258896	31151
355	2015-10-25 01:25:32	0	0	0	0	0	0	33.43	3.95	0.07	750635	0	47532	453858	750635	703117	29671	95	1174	211	420864	1258896	31151
356	2015-10-25 01:31:32	0	0	0	0	0	0	33.45	3.95	0.07	750945	0	47532	454124	750945	703397	29681	95	1174	211	421093	1258897	31161
357	2015-10-25 01:37:33	0	0	0	0	0	0	33.45	3.95	0.07	750945	0	47568	454124	750945	703397	29681	95	1174	214	421093	1258896	31164
358	2015-10-25 01:43:33	0	0	0	0	0	0	33.45	3.95	0.07	751104	0	47568	454124	751104	703536	29687	95	1174	214	421093	1258900	31170
359	2015-10-25 01:49:32	0	0	0	0	0	0	33.45	3.95	0.07	751104	0	47583	454124	751104	703536	29687	95	1174	214	421093	1258899	31170
360	2015-10-25 01:55:33	0	0	0	0	0	0	33.45	3.95	0.07	751522	0	47583	454124	751522	703919	29701	95	1174	214	421093	1258898	31184
361	2015-10-25 02:01:33	0	0	0	0	0	0	33.45	3.95	0.07	751522	0	47603	454124	751522	703919	29701	95	1174	214	421093	1258899	31184
362	2015-10-25 02:07:33	0	0	0	0	0	0	33.45	3.95	0.07	751652	0	47603	454124	751652	704033	29708	95	1176	214	421093	1258899	31193
363	2015-10-25 02:13:33	0	0	0	0	0	0	33.45	3.95	0.07	751652	0	47645	454124	751652	704033	29708	95	1176	214	421093	1258899	31193
364	2015-10-25 02:19:34	0	0	0	0	0	0	33.46	3.95	0.07	751840	0	47645	454258	751840	704187	29719	95	1177	214	421207	1258899	31205
365	2015-10-25 02:25:33	0	0	0	0	0	0	33.46	3.95	0.07	751840	0	47666	454258	751840	704187	29719	95	1177	214	421207	1258900	31205
366	2015-10-25 02:31:33	0	0	0	0	0	0	33.49	3.95	0.07	751922	0	47666	454658	751922	704241	29724	95	1177	214	421551	1258902	31210
367	2015-10-25 02:37:32	0	0	0	0	0	0	33.49	3.95	0.07	751922	0	47681	454658	751922	704241	29724	95	1177	214	421551	1258902	31210
368	2015-10-25 02:43:34	0	0	0	0	0	0	33.49	3.95	0.07	751974	0	47681	454658	751974	704274	29725	95	1177	214	421551	1258904	31211
369	2015-10-25 02:49:34	0	0	0	0	0	0	33.49	3.95	0.07	751974	0	47712	454658	751974	704274	29725	95	1177	214	421551	1258908	31211
370	2015-10-25 02:55:34	0	0	0	0	0	0	33.49	3.95	0.07	752002	0	47712	454658	752002	704290	29726	95	1177	214	421551	1258910	31212
371	2015-10-25 03:01:35	0	0	0	0	0	0	33.49	3.95	0.07	752002	0	47733	454658	752002	704290	29726	95	1177	214	421551	1258910	31212
372	2015-10-25 03:07:32	0	0	0	0	0	0	33.49	3.95	0.07	752087	0	47733	454658	752087	704345	29728	95	1179	214	421551	1258910	31216
373	2015-10-25 03:13:32	0	0	0	0	0	0	33.49	3.95	0.07	752087	0	47748	454658	752087	704345	29728	95	1179	214	421551	1258911	31216
374	2015-10-25 03:19:33	0	0	0	0	0	0	33.51	3.95	0.07	752134	0	47748	454958	752134	704379	29729	95	1179	214	421810	1258911	31217
375	2015-10-25 03:25:32	0	0	0	0	0	0	33.51	3.95	0.07	752134	0	47759	454958	752134	704379	29729	95	1179	214	421810	1258912	31217
376	2015-10-25 03:31:33	0	0	0	0	0	0	33.51	3.95	0.07	752171	0	47759	454958	752171	704404	29729	95	1179	214	421810	1258913	31217
377	2015-10-25 03:37:33	0	0	0	0	0	0	33.51	3.95	0.07	752171	0	47770	454958	752171	704404	29729	95	1179	214	421810	1258914	31217
378	2015-10-25 03:43:33	0	0	0	0	0	0	33.51	3.95	0.07	752203	0	47770	454958	752203	704428	29729	95	1179	214	421810	1258914	31217
379	2015-10-25 03:49:32	0	0	0	0	0	0	33.51	3.95	0.07	752203	0	47779	454958	752203	704428	29729	95	1179	214	421810	1258913	31217
380	2015-10-25 03:55:33	0	0	0	0	0	0	33.51	3.95	0.07	752233	0	47779	454958	752233	704446	29729	95	1179	214	421810	1258914	31217
381	2015-10-25 04:01:33	0	0	0	0	0	0	33.51	3.95	0.07	752233	0	47787	454958	752233	704446	29729	95	1179	214	421810	1258915	31217
382	2015-10-25 04:07:32	0	0	0	0	0	0	33.54	3.95	0.07	752253	0	47787	455427	752253	704460	29729	95	1179	214	422213	1258916	31217
383	2015-10-25 04:13:34	0	0	0	0	0	0	33.54	3.95	0.07	752253	0	47796	455427	752253	704460	29729	95	1179	214	422213	1258914	31217
384	2015-10-25 04:19:33	0	0	0	0	0	0	33.54	3.95	0.07	752273	0	47796	455427	752273	704471	29729	95	1179	214	422213	1258915	31217
385	2015-10-25 04:25:33	0	0	0	0	0	0	33.54	3.95	0.07	752273	0	47809	455427	752273	704471	29729	95	1179	214	422213	1258914	31217
386	2015-10-25 04:31:34	0	0	0	0	0	0	33.54	3.95	0.07	752300	0	47809	455427	752300	704487	29729	95	1179	214	422213	1258914	31217
387	2015-10-25 04:37:34	0	0	0	0	0	0	33.54	3.95	0.07	752300	0	47818	455427	752300	704487	29729	95	1179	214	422213	1258915	31217
388	2015-10-25 04:43:33	0	0	0	0	0	0	33.54	3.95	0.07	752313	0	47818	455427	752313	704495	29731	95	1179	214	422213	1258915	31219
389	2015-10-25 04:49:33	0	0	0	0	0	0	33.54	3.95	0.07	752313	0	47823	455427	752313	704495	29731	95	1179	214	422213	1258915	31219
390	2015-10-25 04:55:32	0	0	0	0	0	0	33.54	3.95	0.07	752345	0	47823	455427	752345	704512	29732	95	1179	214	422213	1258915	31220
391	2015-10-25 05:01:33	0	0	0	0	0	0	33.54	3.95	0.07	752345	0	47839	455427	752345	704512	29732	95	1179	214	422213	1258915	31220
392	2015-10-25 05:07:33	0	0	0	0	0	0	33.54	3.95	0.07	752385	0	47839	455427	752385	704534	29734	95	1179	214	422213	1258910	31222
393	2015-10-25 05:13:33	0	0	0	0	0	0	33.54	3.95	0.07	752385	0	47851	455427	752385	704534	29734	95	1179	214	422213	1258912	31222
394	2015-10-25 05:19:35	0	0	0	0	0	0	33.54	3.95	0.07	752402	0	47851	455427	752402	704544	29734	95	1179	214	422213	1258911	31222
395	2015-10-25 05:25:33	0	0	0	0	0	0	33.54	3.95	0.07	752402	0	47867	455427	752402	704544	29734	95	1179	214	422213	1258912	31222
396	2015-10-25 05:31:35	0	0	0	0	0	0	33.54	3.95	0.07	752439	0	47867	455427	752439	704565	29734	95	1179	214	422213	1258912	31222
397	2015-10-25 05:37:33	0	0	0	0	0	0	33.54	3.95	0.07	752439	0	47880	455427	752439	704565	29734	95	1179	214	422213	1258912	31222
398	2015-10-25 05:43:33	0	0	0	0	0	0	33.54	3.95	0.07	752471	0	47880	455427	752471	704587	29734	95	1179	214	422213	1258912	31222
399	2015-10-25 05:49:41	0	0	0	0	0	0	33.54	3.95	0.07	752471	0	47887	455427	752471	704587	29734	95	1179	214	422213	1258911	31222
400	2015-10-25 05:55:33	0	0	0	0	0	0	33.54	3.95	0.07	752507	0	47887	455427	752507	704613	29734	95	1179	214	422213	1258911	31222
401	2015-10-25 06:01:33	0	0	0	0	0	0	33.54	3.95	0.07	752507	0	47899	455427	752507	704613	29734	95	1179	214	422213	1258913	31222
402	2015-10-25 06:07:34	0	0	0	0	0	0	33.54	3.95	0.07	752529	0	47899	455427	752529	704628	29735	95	1179	214	422213	1258913	31223
403	2015-10-25 06:13:33	0	0	0	0	0	0	33.54	3.95	0.07	752529	0	47908	455427	752529	704628	29735	95	1179	214	422213	1258913	31223
404	2015-10-25 06:19:33	0	0	0	0	0	0	33.54	3.95	0.07	752566	0	47908	455427	752566	704647	29737	95	1179	214	422213	1258913	31225
405	2015-10-25 06:25:34	0	0	0	0	0	0	33.54	3.95	0.07	752566	0	47924	455427	752566	704647	29737	95	1179	214	422213	1258914	31225
406	2015-10-25 06:31:33	0	0	0	0	0	0	33.54	3.95	0.07	752593	0	47924	455427	752593	704663	29738	95	1179	214	422213	1258915	31226
407	2015-10-25 06:37:34	0	0	0	0	0	0	33.54	3.95	0.07	752593	0	47950	455427	752593	704663	29738	95	1179	214	422213	1258915	31226
408	2015-10-25 06:43:34	0	0	0	0	0	0	33.54	3.95	0.07	752636	0	47950	455427	752636	704680	29742	95	1179	214	422213	1258917	31230
409	2015-10-25 06:49:33	0	0	0	0	0	0	33.54	3.95	0.07	752636	0	47968	455427	752636	704680	29742	95	1179	214	422213	1258918	31230
410	2015-10-25 06:55:34	0	0	0	0	0	0	33.54	3.95	0.07	752686	0	47968	455427	752686	704710	29743	95	1179	214	422213	1258917	31231
411	2015-10-25 07:01:35	0	0	0	0	0	0	33.54	3.95	0.07	752686	0	47992	455427	752686	704710	29743	95	1179	214	422213	1258922	31231
412	2015-10-25 07:07:35	0	0	0	0	0	0	33.54	3.95	0.07	752766	0	47992	455427	752766	704755	29746	95	1179	214	422213	1258924	31234
413	2015-10-25 07:13:33	0	0	0	0	0	0	33.54	3.95	0.07	752766	0	48034	455427	752766	704755	29746	95	1179	214	422213	1258924	31234
414	2015-10-25 07:19:35	0	0	0	0	0	0	33.54	3.95	0.07	752857	0	48034	455494	752857	704803	29750	95	1179	214	422270	1258927	31238
415	2015-10-25 07:25:35	0	0	0	0	0	0	33.54	3.95	0.07	752857	0	48071	455494	752857	704803	29750	95	1179	214	422270	1258930	31238
416	2015-10-25 07:31:34	0	0	0	0	0	0	33.54	3.95	0.07	752958	0	48071	455494	752958	704869	29753	95	1179	214	422270	1258932	31241
417	2015-10-25 07:37:33	0	0	0	0	0	0	33.54	3.95	0.07	752958	0	48110	455494	752958	704869	29753	95	1179	214	422270	1258938	31241
418	2015-10-25 07:43:34	0	0	0	0	0	0	33.54	3.95	0.07	753081	0	48110	455494	753081	704953	29758	95	1179	214	422270	1258941	31246
419	2015-10-25 07:49:34	0	0	0	0	0	0	33.54	3.95	0.07	753081	0	48149	455494	753081	704953	29758	95	1179	216	422270	1258948	31248
420	2015-10-25 07:55:34	0	0	0	0	0	0	33.54	3.95	0.07	753202	0	48149	455494	753202	705016	29760	95	1179	216	422270	1258951	31250
421	2015-10-25 08:01:34	0	0	0	0	0	0	33.54	3.95	0.07	753202	0	48218	455494	753202	705016	29760	95	1179	216	422270	1258950	31250
422	2015-10-25 08:07:35	0	0	0	0	0	0	33.54	3.95	0.07	753344	0	48218	455494	753344	705091	29765	95	1180	216	422270	1258952	31256
423	2015-10-25 08:13:33	0	0	0	0	0	0	33.54	3.95	0.07	753344	0	48287	455494	753344	705091	29765	95	1180	216	422270	1258952	31256
424	2015-10-25 08:19:35	0	0	0	0	0	0	33.54	3.95	0.07	753507	0	48287	455494	753507	705175	29774	95	1180	216	422270	1258954	31265
425	2015-10-25 08:25:35	0	0	0	0	0	0	33.54	3.95	0.07	753507	0	48375	455494	753507	705175	29774	95	1180	216	422270	1258952	31265
426	2015-10-25 08:31:35	0	0	0	0	0	0	33.54	3.95	0.07	753648	0	48375	455494	753648	705242	29778	95	1180	216	422270	1258959	31269
427	2015-10-25 08:37:36	0	0	0	0	0	0	33.54	3.95	0.07	753648	0	48441	455494	753648	705242	29778	95	1180	216	422270	1258961	31269
428	2015-10-25 08:43:35	0	0	0	0	0	0	33.54	3.95	0.07	753791	0	48441	455745	753791	705322	29780	95	1180	216	422270	1258961	31271
429	2015-10-25 08:49:35	0	0	0	0	0	0	33.54	3.95	0.07	753791	0	48494	455745	753791	705322	29780	95	1180	216	422270	1258968	31271
430	2015-10-25 08:55:39	0	0	0	0	0	0	33.54	3.95	0.07	753946	0	48494	455745	753946	705425	29785	95	1181	216	422270	1258969	31277
431	2015-10-25 09:01:35	0	0	0	0	0	0	33.54	3.95	0.07	753946	0	48552	455745	753946	705425	29785	95	1181	216	422270	1258971	31277
432	2015-10-25 09:07:36	0	0	0	0	0	0	33.54	3.95	0.07	754066	0	48552	455745	754066	705484	29789	95	1181	216	422270	1258974	31281
433	2015-10-25 09:13:36	0	0	0	0	0	0	33.54	3.95	0.07	754066	0	48603	455745	754066	705484	29789	95	1181	216	422270	1258976	31281
434	2015-10-25 09:19:35	0	0	0	0	0	0	33.54	3.95	0.07	754161	0	48603	455745	754161	705540	29795	95	1181	216	422270	1258981	31287
435	2015-10-25 09:25:38	0	0	0	0	0	0	33.54	3.95	0.07	754161	0	48648	455745	754161	705540	29795	95	1181	217	422270	1258979	31288
436	2015-10-25 09:31:38	0	0	0	0	0	0	33.54	3.95	0.07	754309	0	48648	455745	754309	705641	29798	95	1181	217	422270	1258984	31291
437	2015-10-25 09:37:38	0	0	0	0	0	0	33.54	3.95	0.07	754309	0	48689	455745	754309	705641	29798	95	1181	217	422270	1258986	31291
438	2015-10-25 09:43:37	0	0	0	0	0	0	33.56	3.95	0.07	754408	0	48689	456014	754408	705702	29801	95	1181	217	422501	1258989	31294
439	2015-10-25 09:49:36	0	0	0	0	0	0	33.56	3.95	0.07	754408	0	48720	456014	754408	705702	29801	95	1181	217	422501	1258993	31294
440	2015-10-25 09:55:35	0	0	0	0	0	0	33.62	3.95	0.07	754498	0	48720	456956	754498	705763	29804	95	1181	217	423309	1259000	31297
441	2015-10-25 10:01:44	0	0	0	0	0	0	33.62	3.95	0.07	754498	0	48759	456956	754498	705763	29804	95	1181	217	423309	1259002	31297
442	2015-10-25 10:07:39	0	0	0	0	0	0	33.62	3.95	0.07	754614	0	48759	456956	754614	705824	29808	95	1181	217	423309	1259003	31301
443	2015-10-25 10:13:37	0	0	0	0	0	0	33.62	3.95	0.07	754614	0	48810	456956	754614	705824	29808	95	1181	217	423309	1259007	31301
444	2015-10-25 10:19:38	0	0	0	0	0	0	33.62	3.95	0.07	754709	0	48810	456956	754709	705888	29812	95	1181	217	423309	1259012	31305
445	2015-10-25 10:25:36	0	0	0	0	0	0	33.62	3.95	0.07	754709	0	48842	456956	754709	705888	29812	95	1181	217	423309	1259018	31305
446	2015-10-25 10:31:36	0	0	0	0	0	0	33.62	3.95	0.07	754821	0	48842	456956	754821	705958	29818	95	1181	217	423309	1259023	31311
447	2015-10-25 10:37:36	0	0	0	0	0	0	33.62	3.95	0.07	754821	0	48890	456956	754821	705958	29818	95	1181	217	423309	1259021	31311
448	2015-10-25 10:43:38	0	0	0	0	0	0	33.62	3.95	0.07	754928	0	48890	456956	754928	706017	29821	95	1181	217	423309	1259027	31314
449	2015-10-25 10:49:37	0	0	0	0	0	0	33.62	3.95	0.07	754928	0	48929	456956	754928	706017	29821	95	1181	217	423309	1259030	31314
450	2015-10-25 10:55:37	0	0	0	0	0	0	33.62	3.95	0.07	755019	0	48929	456956	755019	706073	29824	95	1181	217	423309	1259032	31317
451	2015-10-25 11:01:37	0	0	0	0	0	0	33.62	3.95	0.07	755019	0	48971	456956	755019	706073	29824	95	1181	217	423309	1259035	31317
452	2015-10-25 11:07:39	0	0	0	0	0	0	33.62	3.95	0.07	755112	0	48971	456956	755112	706130	29827	95	1181	217	423309	1259042	31320
453	2015-10-25 11:13:37	0	0	0	0	0	0	33.62	3.95	0.07	755112	0	48999	456956	755112	706130	29827	95	1181	217	423309	1259047	31320
454	2015-10-25 11:19:37	0	0	0	0	0	0	33.62	3.95	0.07	755154	0	48999	456956	755154	706155	29827	95	1181	217	423309	1259050	31320
455	2015-10-25 11:25:36	0	0	0	0	0	0	33.62	3.95	0.07	755154	0	49009	456956	755154	706155	29827	95	1181	217	423309	1259054	31320
456	2015-10-25 11:31:36	0	0	0	0	0	0	33.62	3.95	0.07	755286	0	49009	456956	755286	706221	29832	95	1181	217	423309	1259059	31325
457	2015-10-25 11:37:36	0	0	0	0	0	0	33.62	3.95	0.07	755286	0	49065	456956	755286	706221	29832	95	1181	217	423309	1259062	31325
458	2015-10-25 11:43:36	0	0	0	0	0	0	33.63	3.95	0.07	755370	0	49065	457023	755370	706274	29835	95	1181	217	423367	1259066	31328
459	2015-10-25 11:49:38	0	0	0	0	0	0	33.63	3.95	0.07	755370	0	49109	457023	755370	706274	29835	95	1181	217	423367	1259072	31328
460	2015-10-25 11:55:38	0	0	0	0	0	0	33.63	3.95	0.07	755402	0	49109	457023	755402	706293	29835	95	1181	217	423367	1259078	31328
461	2015-10-25 12:01:39	0	0	0	0	0	0	33.63	3.95	0.07	755402	0	49127	457023	755402	706293	29835	95	1181	217	423367	1259081	31328
462	2015-10-25 12:07:38	0	0	0	0	0	0	33.62	3.95	0.07	755525	0	49127	457023	755525	706370	29839	96	1181	217	423367	1259088	31333
463	2015-10-25 12:13:36	0	0	0	0	0	0	33.62	3.95	0.07	755525	0	49162	457023	755525	706370	29839	96	1181	217	423367	1259093	31333
464	2015-10-25 12:19:37	0	0	0	0	0	0	33.62	3.95	0.07	755552	0	49162	457023	755552	706390	29841	96	1181	217	423367	1259098	31335
465	2015-10-25 12:25:38	0	0	0	0	0	0	33.62	3.95	0.07	755552	0	49184	457023	755552	706390	29841	96	1181	217	423367	1259099	31335
466	2015-10-25 12:31:38	0	0	0	0	0	0	33.62	3.95	0.07	755639	0	49184	457023	755639	706444	29846	96	1181	217	423367	1259107	31340
467	2015-10-25 12:37:37	0	0	0	0	0	0	33.62	3.95	0.07	755639	0	49195	457023	755639	706444	29846	96	1181	217	423367	1259114	31340
468	2015-10-25 12:43:38	0	0	0	0	0	0	33.63	3.95	0.07	755711	0	49195	457057	755711	706493	29849	96	1181	217	423396	1259120	31343
469	2015-10-25 12:49:39	0	0	0	0	0	0	33.63	3.95	0.07	755711	0	49218	457057	755711	706493	29849	96	1181	217	423396	1259126	31343
470	2015-10-25 12:55:37	0	0	0	0	0	0	33.63	3.95	0.07	755739	0	49218	457057	755739	706507	29849	96	1182	217	423396	1259134	31344
471	2015-10-25 13:01:38	0	0	0	0	0	0	33.63	3.95	0.07	755739	0	49260	457057	755739	706507	29849	96	1182	217	423396	1259138	31344
472	2015-10-25 13:07:40	0	0	0	0	0	0	33.63	3.95	0.07	755836	0	49260	457057	755836	706560	29852	97	1182	217	423396	1259140	31348
473	2015-10-25 13:13:38	0	0	0	0	0	0	33.63	3.95	0.07	755836	0	49295	457057	755836	706560	29852	97	1182	217	423396	1259143	31348
474	2015-10-25 13:19:41	0	0	0	0	0	0	33.63	3.95	0.07	755899	0	49295	457057	755899	706592	29852	97	1182	217	423396	1259154	31348
475	2015-10-25 13:25:38	0	0	0	0	0	0	33.63	3.95	0.07	755899	0	49318	457057	755899	706592	29852	97	1182	217	423396	1259164	31348
476	2015-10-25 13:31:40	0	0	0	0	0	0	33.62	3.95	0.07	755967	0	49318	457057	755967	706635	29853	97	1182	217	423396	1259173	31349
477	2015-10-25 13:37:40	0	0	0	0	0	0	33.62	3.95	0.07	755967	0	49344	457057	755967	706635	29853	97	1182	217	423396	1259179	31349
478	2015-10-25 13:43:40	0	0	0	0	0	0	33.62	3.95	0.07	756033	0	49344	457057	756033	706679	29855	97	1182	217	423396	1259185	31351
479	2015-10-25 13:49:40	0	0	0	0	0	0	33.62	3.95	0.07	756033	0	49361	457057	756033	706679	29855	97	1182	217	423396	1259191	31351
480	2015-10-25 13:55:39	0	0	0	0	0	0	33.62	3.95	0.07	756089	0	49361	457057	756089	706697	29855	97	1182	217	423396	1259199	31351
481	2015-10-25 14:01:40	0	0	0	0	0	0	33.62	3.95	0.07	756089	0	49371	457057	756089	706697	29855	97	1182	217	423396	1259209	31351
482	2015-10-25 14:07:41	0	0	0	0	0	0	33.62	3.95	0.07	756128	0	49371	457057	756128	706740	29855	97	1183	217	423396	1259211	31352
483	2015-10-25 14:13:40	0	0	0	0	0	0	33.62	3.95	0.07	756128	0	49400	457057	756128	706740	29855	97	1183	217	423396	1259217	31352
484	2015-10-25 14:19:40	0	0	0	0	0	0	33.62	3.95	0.07	756196	0	49400	457057	756196	706780	29855	97	1183	217	423396	1259227	31352
485	2015-10-25 14:25:40	0	0	0	0	0	0	33.62	3.95	0.07	756196	0	49431	457057	756196	706780	29855	97	1183	217	423396	1259237	31352
486	2015-10-25 14:31:41	0	0	0	0	0	0	33.62	3.95	0.07	756255	0	49431	457057	756255	706809	29856	97	1183	217	423396	1259242	31353
487	2015-10-25 14:37:39	0	0	0	0	0	0	33.62	3.95	0.07	756255	0	49454	457057	756255	706809	29856	97	1183	217	423396	1259249	31353
488	2015-10-25 14:43:41	0	0	0	0	0	0	33.62	3.95	0.07	756295	0	49454	457057	756295	706834	29857	97	1183	217	423396	1259248	31354
489	2015-10-25 14:49:39	0	0	0	0	0	0	33.62	3.95	0.07	756295	0	49475	457057	756295	706834	29857	97	1183	217	423396	1259259	31354
490	2015-10-25 14:55:39	0	0	0	0	0	0	33.62	3.95	0.07	756357	0	49475	457057	756357	706868	29858	97	1183	217	423396	1259273	31355
491	2015-10-25 15:01:40	0	0	0	0	0	0	33.62	3.95	0.07	756357	0	49504	457057	756357	706868	29858	97	1183	217	423396	1259274	31355
492	2015-10-25 15:07:39	0	0	0	0	0	0	33.62	3.95	0.07	756426	0	49504	457057	756426	706909	29858	97	1183	217	423396	1259286	31355
493	2015-10-25 15:13:41	0	0	0	0	0	0	33.62	3.95	0.07	756426	0	49526	457057	756426	706909	29858	97	1183	217	423396	1259295	31355
494	2015-10-25 15:19:43	0	0	0	0	0	0	33.62	3.95	0.07	756479	0	49526	457057	756479	706940	29859	97	1183	217	423396	1259305	31356
495	2015-10-25 15:25:40	0	0	0	0	0	0	33.62	3.95	0.07	756479	0	49540	457057	756479	706940	29859	97	1183	217	423396	1259310	31356
496	2015-10-25 15:31:41	0	0	0	0	0	0	33.62	3.95	0.07	756524	0	49540	457057	756524	706967	29859	97	1183	217	423396	1259320	31356
497	2015-10-25 15:37:42	0	0	0	0	0	0	33.62	3.95	0.07	756524	0	49573	457057	756524	706967	29859	97	1183	217	423396	1259327	31356
498	2015-10-25 15:43:40	0	0	0	0	0	0	33.62	3.95	0.07	756581	0	49573	457057	756581	706996	29859	97	1183	217	423396	1259331	31356
499	2015-10-25 15:49:41	0	0	0	0	0	0	33.62	3.95	0.07	756581	0	49593	457057	756581	706996	29859	97	1183	217	423396	1259339	31356
500	2015-10-25 15:55:45	0	0	0	0	0	0	33.63	3.95	0.07	756619	0	49593	457158	756619	707020	29860	97	1183	217	423483	1259352	31357
501	2015-10-25 16:01:41	0	0	0	0	0	0	33.63	3.95	0.07	756619	0	49614	457158	756619	707020	29860	97	1183	217	423483	1259363	31357
502	2015-10-25 16:07:43	0	0	0	0	0	0	33.63	3.95	0.07	756661	0	49614	457158	756661	707042	29861	97	1183	217	423483	1259366	31358
503	2015-10-25 16:13:42	0	0	0	0	0	0	33.63	3.95	0.07	756661	0	49629	457158	756661	707042	29861	97	1183	217	423483	1259373	31358
504	2015-10-25 16:19:41	0	0	0	0	0	0	33.63	3.95	0.07	756711	0	49629	457158	756711	707073	29861	97	1183	217	423483	1259375	31358
505	2015-10-25 16:25:40	0	0	0	0	0	0	33.63	3.95	0.07	756711	0	49645	457158	756711	707073	29861	97	1183	217	423483	1259380	31358
506	2015-10-25 16:31:41	0	0	0	0	0	0	33.63	3.95	0.07	756748	0	49645	457158	756748	707097	29861	97	1183	217	423483	1259387	31358
507	2015-10-25 16:37:41	0	0	0	0	0	0	33.63	3.95	0.07	756748	0	49659	457158	756748	707097	29861	97	1183	217	423483	1259395	31358
508	2015-10-25 16:43:41	0	0	0	0	0	0	33.63	3.95	0.07	756787	0	49659	457158	756787	707128	29861	97	1183	217	423483	1259400	31358
509	2015-10-25 16:49:42	0	0	0	0	0	0	33.63	3.95	0.07	756787	0	49668	457158	756787	707128	29861	97	1183	217	423483	1259407	31358
510	2015-10-25 16:55:41	0	0	0	0	0	0	33.63	3.95	0.07	756838	0	49668	457158	756838	707161	29861	97	1184	217	423483	1259419	31359
511	2015-10-25 17:01:42	0	0	0	0	0	0	33.63	3.95	0.07	756838	0	49691	457158	756838	707161	29861	97	1184	217	423483	1259422	31359
512	2015-10-25 17:07:43	0	0	0	0	0	0	33.63	3.95	0.07	756877	0	49691	457158	756877	707179	29862	97	1184	217	423483	1259428	31360
513	2015-10-25 17:13:42	0	0	0	0	0	0	33.62	3.95	0.07	756877	0	49706	457158	756877	707179	29862	97	1184	217	423483	1259435	31360
514	2015-10-25 17:19:41	0	0	0	0	0	0	33.62	3.95	0.07	756945	0	49706	457158	756945	707223	29862	97	1184	217	423483	1259438	31360
515	2015-10-25 17:25:41	0	0	0	0	0	0	33.62	3.95	0.07	756945	0	49728	457158	756945	707223	29862	97	1184	217	423483	1259445	31360
516	2015-10-25 17:31:43	0	0	0	0	0	0	33.62	3.95	0.07	756972	0	49728	457158	756972	707238	29865	97	1184	217	423483	1259452	31363
517	2015-10-25 17:37:41	0	0	0	0	0	0	33.62	3.95	0.07	756972	0	49740	457158	756972	707238	29865	97	1184	217	423483	1259459	31363
518	2015-10-25 17:43:48	0	0	0	0	0	0	33.62	3.95	0.07	757033	0	49740	457158	757033	707279	29867	97	1184	217	423483	1259464	31365
519	2015-10-25 17:49:42	0	0	0	0	0	0	33.62	3.95	0.07	757033	0	49760	457158	757033	707279	29867	97	1184	217	423483	1259470	31365
520	2015-10-25 17:55:42	0	0	0	0	0	0	33.62	3.95	0.07	757074	0	49760	457158	757074	707298	29869	97	1184	217	423483	1259474	31367
521	2015-10-25 18:01:41	0	0	0	0	0	0	33.62	3.95	0.07	757074	0	49786	457158	757074	707298	29869	97	1184	217	423483	1259479	31367
522	2015-10-25 18:07:42	0	0	0	0	0	0	33.62	3.95	0.07	757129	0	49786	457158	757129	707340	29869	97	1184	217	423483	1259493	31367
523	2015-10-25 18:13:43	0	0	0	0	0	0	33.62	3.95	0.07	757129	0	49794	457158	757129	707340	29869	97	1184	217	423483	1259495	31367
524	2015-10-25 18:19:43	0	0	0	0	0	0	33.62	3.94	0.07	757183	0	49794	457158	757183	707378	29870	97	1184	217	423483	1259507	31368
525	2015-10-25 18:25:42	0	0	0	0	0	0	33.62	3.94	0.07	757183	0	49805	457158	757183	707378	29870	97	1184	217	423483	1259509	31368
526	2015-10-25 18:31:43	0	0	0	0	0	0	33.62	3.94	0.07	757199	0	49805	457158	757199	707386	29871	98	1185	217	423483	1259511	31371
527	2015-10-25 18:37:45	0	0	0	0	0	0	33.62	3.94	0.07	757199	0	49821	457158	757199	707386	29871	98	1185	217	423483	1259518	31371
528	2015-10-25 18:43:43	0	0	0	0	0	0	33.62	3.94	0.07	757242	0	49821	457158	757242	707415	29873	98	1185	217	423483	1259520	31373
529	2015-10-25 18:49:46	0	0	0	0	0	0	33.62	3.94	0.07	757242	0	49835	457158	757242	707415	29873	98	1185	217	423483	1259526	31373
530	2015-10-25 18:55:42	0	0	0	0	0	0	33.62	3.94	0.07	757292	0	49835	457158	757292	707449	29875	98	1185	217	423483	1259532	31375
531	2015-10-25 19:01:41	0	0	0	0	0	0	33.62	3.94	0.07	757292	0	49853	457158	757292	707449	29875	98	1185	217	423483	1259541	31375
532	2015-10-25 19:07:43	0	0	0	0	0	0	33.62	3.94	0.07	757337	0	49853	457158	757337	707476	29876	98	1185	217	423483	1259547	31376
533	2015-10-25 19:13:43	0	0	0	0	0	0	33.62	3.94	0.07	757337	0	49871	457158	757337	707476	29876	98	1185	217	423483	1259559	31376
534	2015-10-25 19:19:45	0	0	0	0	0	0	33.62	3.94	0.07	757377	0	49871	457158	757377	707500	29878	98	1185	217	423483	1259563	31378
535	2015-10-25 19:25:44	0	0	0	0	0	0	33.62	3.94	0.07	757377	0	49889	457158	757377	707500	29878	98	1185	217	423483	1259569	31378
536	2015-10-25 19:31:45	0	0	0	0	0	0	33.62	3.95	0.07	757435	0	49889	457158	757435	707538	29881	98	1185	217	423483	1259574	31381
537	2015-10-25 19:37:44	0	0	0	0	0	0	33.62	3.95	0.07	757435	0	49909	457158	757435	707538	29881	98	1185	217	423483	1259579	31381
538	2015-10-25 19:43:44	0	0	0	0	0	0	33.63	3.94	0.07	757488	0	49909	457361	757488	707565	29881	98	1185	217	423657	1259582	31381
539	2015-10-25 19:49:43	0	0	0	0	0	0	33.63	3.94	0.07	757488	0	49930	457361	757488	707565	29881	98	1185	217	423657	1259595	31381
540	2015-10-25 19:55:43	0	0	0	0	0	0	33.63	3.94	0.07	757530	0	49930	457361	757530	707583	29882	98	1185	217	423657	1259601	31382
541	2015-10-25 20:01:42	0	0	0	0	0	0	33.63	3.94	0.07	757530	0	49954	457361	757530	707583	29882	98	1185	217	423657	1259607	31382
542	2015-10-25 20:07:44	0	0	0	0	0	0	33.63	3.94	0.07	757576	0	49954	457361	757576	707606	29882	98	1185	217	423657	1259612	31382
543	2015-10-25 20:13:45	0	0	0	0	0	0	33.63	3.94	0.07	757576	0	49979	457361	757576	707606	29882	98	1185	217	423657	1259617	31382
544	2015-10-25 20:19:46	0	0	0	0	0	0	33.63	3.94	0.07	757619	0	49979	457361	757619	707628	29883	98	1185	217	423657	1259622	31383
545	2015-10-25 20:25:44	0	0	0	0	0	0	33.63	3.94	0.07	757619	0	49995	457361	757619	707628	29883	98	1185	217	423657	1259624	31383
546	2015-10-25 20:31:44	0	0	0	0	0	0	33.63	3.94	0.07	757658	0	49995	457361	757658	707649	29885	98	1185	217	423657	1259629	31385
547	2015-10-25 20:37:43	0	0	0	0	0	0	33.63	3.94	0.07	757658	0	50018	457361	757658	707649	29885	98	1185	217	423657	1259633	31385
548	2015-10-25 20:43:45	0	0	0	0	0	0	33.63	3.94	0.07	757708	0	50018	457361	757708	707680	29886	98	1185	217	423657	1259638	31386
549	2015-10-25 20:49:45	0	0	0	0	0	0	33.63	3.94	0.07	757708	0	50038	457361	757708	707680	29886	98	1185	217	423657	1259640	31386
550	2015-10-25 20:55:43	0	0	0	0	0	0	33.63	3.94	0.07	757769	0	50038	457361	757769	707719	29887	98	1185	217	423657	1259649	31387
551	2015-10-25 21:01:45	0	0	0	0	0	0	33.63	3.94	0.07	757769	0	50056	457361	757769	707719	29887	98	1185	217	423657	1259655	31387
552	2015-10-25 21:07:46	0	0	0	0	0	0	33.65	3.94	0.07	757816	0	50056	457564	757816	707745	29888	98	1185	217	423831	1259665	31388
553	2015-10-25 21:13:44	0	0	0	0	0	0	33.65	3.94	0.07	757816	0	50078	457564	757816	707745	29888	98	1185	217	423831	1259670	31388
554	2015-10-25 21:19:43	0	0	0	0	0	0	33.66	3.94	0.07	757852	0	50078	457834	757852	707769	29888	98	1185	217	424063	1259677	31388
555	2015-10-25 21:25:44	0	0	0	0	0	0	33.66	3.94	0.07	757852	0	50098	457834	757852	707769	29888	98	1185	217	424063	1259681	31388
556	2015-10-25 21:31:45	0	0	0	0	0	0	33.66	3.94	0.07	757905	0	50098	458105	757905	707791	29889	98	1185	217	424063	1259689	31389
557	2015-10-25 21:37:45	0	0	0	0	0	0	33.66	3.94	0.07	757905	0	50120	458105	757905	707791	29889	98	1185	217	424063	1259696	31389
558	2015-10-25 21:43:43	0	0	0	0	0	0	33.66	3.94	0.07	757949	0	50120	458105	757949	707819	29891	98	1185	217	424063	1259703	31391
559	2015-10-25 21:49:50	0	0	0	0	0	0	33.66	3.94	0.07	757949	0	50142	458105	757949	707819	29891	98	1185	217	424063	1259709	31391
560	2015-10-25 21:55:45	0	0	0	0	0	0	33.66	3.94	0.07	757995	0	50142	458105	757995	707847	29891	98	1185	217	424063	1259710	31391
561	2015-10-25 22:01:45	0	0	0	0	0	0	33.66	3.94	0.07	757995	0	50154	458105	757995	707847	29891	98	1185	217	424063	1259719	31391
562	2015-10-25 22:07:44	0	0	0	0	0	0	33.66	3.94	0.07	758028	0	50154	458105	758028	707872	29892	98	1185	217	424063	1259722	31392
563	2015-10-25 22:13:44	0	0	0	0	0	0	33.66	3.94	0.07	758028	0	50159	458105	758028	707872	29892	98	1185	217	424063	1259728	31392
564	2015-10-25 22:19:44	0	0	0	0	0	0	33.66	3.94	0.07	758057	0	50159	458105	758057	707893	29893	98	1185	217	424063	1259735	31393
565	2015-10-25 22:25:43	0	0	0	0	0	0	33.66	3.94	0.07	758057	0	50168	458105	758057	707893	29893	98	1185	217	424063	1259737	31393
566	2015-10-25 22:31:44	0	0	0	0	0	0	33.66	3.94	0.07	758090	0	50168	458105	758090	707915	29893	98	1185	217	424063	1259741	31393
567	2015-10-25 22:37:44	0	0	0	0	0	0	33.66	3.94	0.07	758090	0	50181	458105	758090	707915	29893	98	1185	217	424063	1259749	31393
568	2015-10-25 22:43:45	0	0	0	0	0	0	33.66	3.94	0.07	758124	0	50181	458105	758124	707935	29895	98	1185	217	424063	1259757	31395
569	2015-10-25 22:49:45	0	0	0	0	0	0	33.66	3.94	0.07	758124	0	50196	458105	758124	707935	29895	98	1185	217	424063	1259762	31395
570	2015-10-25 22:55:43	0	0	0	0	0	0	33.66	3.94	0.07	758150	0	50196	458105	758150	707948	29896	98	1185	217	424063	1259768	31396
571	2015-10-25 23:01:43	0	0	0	0	0	0	33.66	3.94	0.07	758150	0	50209	458105	758150	707948	29896	98	1185	217	424063	1259772	31396
572	2015-10-25 23:07:44	0	0	0	0	0	0	33.66	3.94	0.07	758177	0	50209	458105	758177	707964	29897	98	1185	217	424063	1259775	31397
573	2015-10-25 23:13:43	0	0	0	0	0	0	33.66	3.94	0.07	758177	0	50221	458105	758177	707964	29897	98	1185	217	424063	1259781	31397
574	2015-10-25 23:19:44	0	0	0	0	0	0	33.66	3.94	0.07	758203	0	50221	458105	758203	707978	29898	98	1185	217	424063	1259788	31398
575	2015-10-25 23:25:43	0	0	0	0	0	0	33.66	3.94	0.07	758203	0	50236	458105	758203	707978	29898	98	1185	217	424063	1259794	31398
576	2015-10-25 23:31:44	0	0	0	0	0	0	33.66	3.94	0.07	758247	0	50236	458105	758247	708004	29899	98	1186	217	424063	1259799	31400
577	2015-10-25 23:37:43	0	0	0	0	0	0	33.66	3.94	0.07	758247	0	50249	458105	758247	708004	29899	98	1186	217	424063	1259801	31400
578	2015-10-25 23:43:46	0	0	0	0	0	0	33.66	3.94	0.07	758273	0	50249	458105	758273	708018	29900	98	1186	217	424063	1259810	31401
579	2015-10-25 23:49:43	0	0	0	0	0	0	33.66	3.94	0.07	758273	0	50262	458105	758273	708018	29900	98	1186	217	424063	1259814	31401
580	2015-10-25 23:55:43	0	0	0	0	0	0	33.66	3.94	0.07	758300	0	50262	458105	758300	708033	29901	98	1186	217	424063	1259816	31402
581	2015-10-26 00:01:42	0	0	0	0	0	0	33.66	3.94	0.07	758300	0	50268	458105	758300	708033	29901	98	1186	217	424063	1259820	31402
582	2015-10-26 00:07:44	0	0	0	0	0	0	33.66	3.94	0.07	758313	0	50268	458105	758313	708039	29901	98	1186	217	424063	1259821	31402
583	2015-10-26 00:13:43	0	0	0	0	0	0	33.66	3.94	0.07	758313	0	50271	458105	758313	708039	29901	98	1186	217	424063	1259825	31402
584	2015-10-26 00:19:43	0	0	0	0	0	0	33.66	3.94	0.07	758328	0	50271	458105	758328	708054	29904	98	1186	217	424063	1259831	31405
585	2015-10-26 00:25:46	0	0	0	0	0	0	33.66	3.94	0.07	758328	0	50278	458105	758328	708054	29904	98	1186	217	424063	1259834	31405
586	2015-10-26 00:31:47	0	0	0	0	0	0	33.66	3.94	0.07	758346	0	50278	458105	758346	708065	29905	98	1186	217	424063	1259835	31406
587	2015-10-26 00:37:45	0	0	0	0	0	0	33.66	3.94	0.07	758346	0	50283	458105	758346	708065	29905	98	1186	217	424063	1259836	31406
588	2015-10-26 00:43:43	0	0	0	0	0	0	33.66	3.94	0.07	758359	0	50283	458105	758359	708075	29905	98	1186	217	424063	1259835	31406
589	2015-10-26 00:49:53	0	0	0	0	0	0	33.66	3.94	0.07	758359	0	50286	458105	758359	708075	29905	98	1186	217	424063	1259835	31406
590	2015-10-26 00:55:44	0	0	0	0	0	0	33.66	3.94	0.07	758372	0	50286	458105	758372	708082	29905	98	1186	217	424063	1259835	31406
591	2015-10-26 01:01:42	0	0	0	0	0	0	33.65	3.94	0.07	758372	0	50292	458105	758372	708082	29905	98	1186	217	424063	1260064	31406
592	2015-10-26 01:07:44	0	0	0	0	0	0	33.65	3.94	0.07	758381	0	50292	458105	758381	708087	29905	98	1186	217	424063	1260069	31406
593	2015-10-26 01:13:44	0	0	0	0	0	0	33.65	3.94	0.07	758381	0	50296	458105	758381	708087	29905	98	1186	217	424063	1260071	31406
594	2015-10-26 01:19:44	0	0	0	0	0	0	33.65	3.94	0.07	758392	0	50296	458105	758392	708093	29905	98	1186	217	424063	1260072	31406
595	2015-10-26 01:25:44	0	0	0	0	0	0	33.65	3.94	0.07	758392	0	50300	458105	758392	708093	29905	98	1186	217	424063	1260075	31406
596	2015-10-26 01:31:45	0	0	0	0	0	0	33.65	3.94	0.07	758395	0	50300	458105	758395	708095	29905	98	1186	217	424063	1260076	31406
597	2015-10-26 01:37:44	0	0	0	0	0	0	33.65	3.94	0.07	758395	0	50300	458105	758395	708095	29905	98	1186	217	424063	1260077	31406
598	2015-10-26 01:43:44	0	0	0	0	0	0	33.65	3.94	0.07	758398	0	50300	458105	758398	708098	29905	98	1186	217	424063	1260079	31406
599	2015-10-26 01:49:54	0	0	0	0	0	0	33.65	3.94	0.07	758398	0	50302	458105	758398	708098	29905	98	1186	217	424063	1260079	31406
600	2015-10-26 01:55:43	0	0	0	0	0	0	33.65	3.94	0.07	758405	0	50302	458105	758405	708103	29905	98	1186	217	424063	1260079	31406
601	2015-10-26 02:01:43	0	0	0	0	0	0	33.65	3.94	0.07	758405	0	50303	458105	758405	708103	29905	98	1186	217	424063	1260080	31406
602	2015-10-26 02:07:43	0	0	0	0	0	0	33.65	3.94	0.07	758414	0	50303	458105	758414	708108	29905	98	1186	217	424063	1260079	31406
603	2015-10-26 02:13:45	0	0	0	0	0	0	33.65	3.94	0.07	758414	0	50312	458105	758414	708108	29905	98	1186	217	424063	1260078	31406
604	2015-10-26 02:19:45	0	0	0	0	0	0	33.65	3.94	0.07	758423	0	50312	458105	758423	708111	29905	98	1186	217	424063	1260078	31406
605	2015-10-26 02:25:43	0	0	0	0	0	0	33.65	3.94	0.07	758423	0	50312	458105	758423	708111	29905	98	1186	217	424063	1260078	31406
606	2015-10-26 02:31:43	0	0	0	0	0	0	33.65	3.94	0.07	758424	0	50312	458105	758424	708112	29905	98	1186	217	424063	1260079	31406
607	2015-10-26 02:37:43	0	0	0	0	0	0	33.65	3.94	0.07	758424	0	50313	458105	758424	708112	29905	98	1186	217	424063	1260079	31406
608	2015-10-26 02:43:43	0	0	0	0	0	0	33.65	3.94	0.07	758427	0	50313	458105	758427	708113	29905	98	1186	217	424063	1260079	31406
609	2015-10-26 02:49:43	0	0	0	0	0	0	33.65	3.94	0.07	758427	0	50314	458105	758427	708113	29905	98	1186	217	424063	1260079	31406
610	2015-10-26 02:55:44	0	0	0	0	0	0	33.65	3.94	0.07	758427	0	50314	458105	758427	708113	29905	98	1186	217	424063	1260079	31406
611	2015-10-26 03:01:45	0	0	0	0	0	0	33.65	3.94	0.07	758427	0	50314	458105	758427	708113	29905	98	1186	217	424063	1260079	31406
612	2015-10-26 03:07:43	0	0	0	0	0	0	33.65	3.94	0.07	758427	0	50314	458105	758427	708113	29905	98	1186	217	424063	1260080	31406
613	2015-10-26 03:13:43	0	0	0	0	0	0	33.65	3.94	0.07	758427	0	50315	458105	758427	708113	29905	98	1186	217	424063	1260080	31406
614	2015-10-26 03:19:44	0	0	0	0	0	0	33.65	3.94	0.07	758430	0	50315	458105	758430	708115	29905	98	1186	217	424063	1260078	31406
615	2015-10-26 03:25:44	0	0	0	0	0	0	33.65	3.94	0.07	758430	0	50317	458105	758430	708115	29905	98	1186	217	424063	1260074	31406
616	2015-10-26 03:31:44	0	0	0	0	0	0	33.65	3.94	0.07	758436	0	50317	458105	758436	708117	29905	98	1186	217	424063	1260075	31406
617	2015-10-26 03:37:44	0	0	0	0	0	0	33.65	3.94	0.07	758436	0	50320	458105	758436	708117	29905	98	1186	217	424063	1260072	31406
618	2015-10-26 03:43:45	0	0	0	0	0	0	33.65	3.94	0.07	758438	0	50320	458105	758438	708118	29905	98	1186	217	424063	1260072	31406
619	2015-10-26 03:49:45	0	0	0	0	0	0	33.65	3.94	0.07	758438	0	50321	458105	758438	708118	29905	98	1186	217	424063	1260073	31406
620	2015-10-26 03:55:44	0	0	0	0	0	0	33.65	3.94	0.07	758439	0	50321	458105	758439	708118	29905	98	1186	217	424063	1260073	31406
621	2015-10-26 04:01:48	0	0	0	0	0	0	33.65	3.94	0.07	758439	0	50321	458105	758439	708118	29905	98	1186	217	424063	1260075	31406
622	2015-10-26 04:07:46	0	0	0	0	0	0	33.65	3.94	0.07	758442	0	50321	458105	758442	708121	29905	98	1186	217	424063	1260075	31406
623	2015-10-26 04:13:45	0	0	0	0	0	0	33.65	3.94	0.07	758442	0	50321	458105	758442	708121	29905	98	1186	217	424063	1260074	31406
624	2015-10-26 04:19:45	0	0	0	0	0	0	33.65	3.94	0.07	758442	0	50321	458105	758442	708121	29905	98	1186	217	424063	1260074	31406
625	2015-10-26 04:25:46	0	0	0	0	0	0	33.65	3.94	0.07	758442	0	50322	458105	758442	708121	29905	98	1186	217	424063	1260074	31406
626	2015-10-26 04:31:45	0	0	0	0	0	0	33.65	3.94	0.07	758445	0	50322	458105	758445	708122	29906	98	1186	217	424063	1260074	31407
627	2015-10-26 04:37:46	0	0	0	0	0	0	33.65	3.94	0.07	758445	0	50323	458105	758445	708122	29906	98	1186	217	424063	1260074	31407
628	2015-10-26 04:43:45	0	0	0	0	0	0	33.65	3.94	0.07	758449	0	50323	458105	758449	708124	29907	98	1186	217	424063	1260074	31408
629	2015-10-26 04:49:44	0	0	0	0	0	0	33.65	3.94	0.07	758449	0	50325	458105	758449	708124	29907	98	1186	217	424063	1260074	31408
630	2015-10-26 04:55:43	0	0	0	0	0	0	33.65	3.94	0.07	758451	0	50325	458105	758451	708125	29907	98	1186	217	424063	1260075	31408
631	2015-10-26 05:01:42	0	0	0	0	0	0	33.65	3.94	0.07	758451	0	50326	458105	758451	708125	29907	98	1186	217	424063	1260074	31408
632	2015-10-26 05:07:43	0	0	0	0	0	0	33.65	3.94	0.07	758453	0	50326	458105	758453	708126	29907	98	1186	217	424063	1260074	31408
633	2015-10-26 05:13:45	0	0	0	0	0	0	33.65	3.94	0.07	758453	0	50327	458105	758453	708126	29907	98	1186	217	424063	1260072	31408
634	2015-10-26 05:19:44	0	0	0	0	0	0	33.65	3.94	0.07	758456	0	50327	458105	758456	708128	29907	98	1186	217	424063	1260074	31408
635	2015-10-26 05:25:45	0	0	0	0	0	0	33.65	3.94	0.07	758456	0	50329	458105	758456	708128	29907	98	1186	217	424063	1260074	31408
636	2015-10-26 05:31:45	0	0	0	0	0	0	33.65	3.94	0.07	758459	0	50329	458105	758459	708129	29907	98	1186	217	424063	1260077	31408
637	2015-10-26 05:37:44	0	0	0	0	0	0	33.65	3.94	0.07	758459	0	50330	458105	758459	708129	29907	98	1186	217	424063	1260076	31408
638	2015-10-26 05:43:43	0	0	0	0	0	0	33.65	3.94	0.07	758462	0	50330	458105	758462	708131	29907	98	1186	217	424063	1260076	31408
639	2015-10-26 05:49:45	0	0	0	0	0	0	33.65	3.94	0.07	758462	0	50332	458105	758462	708131	29907	98	1186	217	424063	1260074	31408
640	2015-10-26 05:55:43	0	0	0	0	0	0	33.65	3.94	0.07	758471	0	50332	458105	758471	708137	29907	98	1186	217	424063	1260074	31408
641	2015-10-26 06:01:45	0	0	0	0	0	0	33.65	3.94	0.07	758471	0	50336	458105	758471	708137	29907	98	1186	217	424063	1260075	31408
642	2015-10-26 06:07:44	0	0	0	0	0	0	33.65	3.94	0.07	758475	0	50336	458105	758475	708137	29907	98	1186	217	424063	1260077	31408
643	2015-10-26 06:13:45	0	0	0	0	0	0	33.65	3.94	0.07	758475	0	50341	458105	758475	708137	29907	98	1186	217	424063	1260077	31408
644	2015-10-26 06:19:44	0	0	0	0	0	0	33.65	3.94	0.07	758484	0	50341	458105	758484	708139	29907	98	1186	217	424063	1260077	31408
645	2015-10-26 06:25:45	0	0	0	0	0	0	33.65	3.94	0.07	758484	0	50348	458105	758484	708139	29907	98	1186	217	424063	1260077	31408
646	2015-10-26 06:31:46	0	0	0	0	0	0	33.65	3.94	0.07	758490	0	50348	458105	758490	708141	29907	98	1186	217	424063	1260077	31408
647	2015-10-26 06:37:45	0	0	0	0	0	0	33.65	3.94	0.07	758490	0	50350	458105	758490	708141	29907	98	1186	217	424063	1260079	31408
648	2015-10-26 06:43:45	0	0	0	0	0	0	33.65	3.94	0.07	758496	0	50350	458105	758496	708144	29907	98	1186	217	424063	1260080	31408
649	2015-10-26 06:49:47	0	0	0	0	0	0	33.65	3.94	0.07	758496	0	50355	458105	758496	708144	29907	98	1186	217	424063	1260083	31408
650	2015-10-26 06:55:49	0	0	0	0	0	0	33.65	3.94	0.07	758505	0	50355	458105	758505	708149	29909	98	1186	217	424063	1260083	31410
651	2015-10-26 07:01:52	0	0	0	0	0	0	33.65	3.94	0.07	758505	0	50357	458105	758505	708149	29909	98	1186	217	424063	1260084	31410
652	2015-10-26 07:07:51	0	0	0	0	0	0	33.65	3.94	0.07	758514	0	50357	458105	758514	708157	29909	98	1186	217	424063	1260086	31410
653	2015-10-26 07:13:49	0	0	0	0	0	0	33.65	3.94	0.07	758514	0	50361	458105	758514	708157	29909	98	1186	217	424063	1260088	31410
654	2015-10-26 07:19:49	0	0	0	0	0	0	33.65	3.94	0.07	758521	0	50361	458105	758521	708158	29909	98	1186	217	424063	1260088	31410
655	2015-10-26 07:25:48	0	0	0	0	0	0	33.65	3.94	0.07	758521	0	50369	458105	758521	708158	29909	98	1186	217	424063	1260090	31410
656	2015-10-26 07:31:53	0	0	0	0	0	0	33.65	3.94	0.07	758535	0	50369	458105	758535	708164	29911	98	1186	217	424063	1260090	31412
657	2015-10-26 07:37:48	0	0	0	0	0	0	33.65	3.94	0.07	758535	0	50371	458105	758535	708164	29911	98	1186	217	424063	1260092	31412
658	2015-10-26 07:43:48	0	0	0	0	0	0	33.65	3.94	0.07	758543	0	50371	458105	758543	708171	29911	98	1186	217	424063	1260092	31412
659	2015-10-26 07:49:55	0	0	0	0	0	0	33.65	3.94	0.07	758543	0	50377	458105	758543	708171	29911	98	1186	217	424063	1260093	31412
660	2015-10-26 07:55:55	0	0	0	0	0	0	33.65	3.94	0.07	758553	0	50377	458105	758553	708173	29911	98	1186	217	424063	1260094	31412
661	2015-10-26 08:01:56	0	0	0	0	0	0	33.65	3.94	0.07	758553	0	50381	458105	758553	708173	29911	98	1186	217	424063	1260096	31412
662	2015-10-26 08:07:48	0	0	0	0	0	0	33.65	3.94	0.07	758564	0	50381	458105	758564	708180	29911	98	1186	217	424063	1260099	31412
663	2015-10-26 08:13:52	0	0	0	0	0	0	33.65	3.94	0.07	758564	0	50386	458105	758564	708180	29911	98	1186	217	424063	1260100	31412
664	2015-10-26 08:19:59	0	0	0	0	0	0	33.65	3.94	0.07	758579	0	50386	458105	758579	708190	29911	98	1186	217	424063	1260104	31412
665	2015-10-26 08:25:58	0	0	0	0	0	0	33.65	3.94	0.07	758579	0	50396	458105	758579	708190	29911	98	1186	217	424063	1260110	31412
666	2015-10-26 08:31:50	0	0	0	0	0	0	33.65	3.94	0.07	758621	0	50396	458105	758621	708208	29914	98	1186	217	424063	1260110	31415
667	2015-10-26 08:37:50	0	0	0	0	0	0	33.65	3.94	0.07	758621	0	50416	458105	758621	708208	29914	98	1186	217	424063	1260112	31415
668	2015-10-26 08:43:51	0	0	0	0	0	0	33.65	3.94	0.07	758636	0	50416	458105	758636	708220	29917	98	1186	217	424063	1260115	31418
669	2015-10-26 08:49:54	0	0	0	0	0	0	33.65	3.94	0.07	758636	0	50417	458105	758636	708220	29917	98	1186	218	424063	1260118	31419
670	2015-10-26 08:55:55	0	0	0	0	0	0	33.65	3.94	0.07	758651	0	50417	458105	758651	708228	29918	98	1186	218	424063	1260119	31420
671	2015-10-26 09:01:54	0	0	0	0	0	0	33.65	3.94	0.07	758651	0	50425	458105	758651	708228	29918	98	1186	218	424063	1260124	31420
672	2015-10-26 09:07:51	0	0	0	0	0	0	33.65	3.94	0.07	758666	0	50425	458105	758666	708238	29919	98	1186	218	424063	1260126	31421
673	2015-10-26 09:13:50	0	0	0	0	0	0	33.65	3.94	0.07	758666	0	50430	458105	758666	708238	29919	98	1186	218	424063	1260128	31421
674	2015-10-26 09:19:53	0	0	0	0	0	0	33.65	3.94	0.07	758691	0	50430	458105	758691	708257	29919	98	1186	218	424063	1260129	31421
675	2015-10-26 09:25:49	0	0	0	0	0	0	33.65	3.94	0.07	758691	0	50435	458105	758691	708257	29919	98	1186	218	424063	1260130	31421
676	2015-10-26 09:31:59	0	0	0	0	0	0	33.65	3.94	0.07	758701	0	50435	458105	758701	708265	29919	98	1186	218	424063	1260132	31421
677	2015-10-26 09:38:02	0	0	0	0	0	0	33.65	3.94	0.07	758701	0	50437	458105	758701	708265	29919	98	1186	218	424063	1260131	31421
678	2015-10-26 09:44:01	0	0	0	0	0	0	33.65	3.94	0.07	758714	0	50437	458105	758714	708273	29919	98	1186	218	424063	1260135	31421
679	2015-10-26 09:50:10	0	0	0	0	0	0	33.65	3.94	0.07	758714	0	50445	458105	758714	708273	29919	98	1186	218	424063	1260133	31421
680	2015-10-26 09:55:59	0	0	0	0	0	0	33.65	3.94	0.07	758726	0	50445	458105	758726	708279	29919	98	1186	218	424063	1260134	31421
681	2015-10-26 10:02:08	0	0	0	0	0	0	33.65	3.94	0.07	758726	0	50449	458105	758726	708279	29919	98	1186	218	424063	1260136	31421
682	2015-10-26 10:07:59	0	0	0	0	0	0	33.65	3.94	0.07	758736	0	50449	458105	758736	708286	29921	98	1186	218	424063	1260136	31423
683	2015-10-26 10:14:03	0	0	0	0	0	0	33.65	3.94	0.07	758736	0	50455	458105	758736	708286	29921	98	1186	218	424063	1260137	31423
684	2015-10-26 10:20:28	0	0	0	0	0	0	33.65	3.94	0.07	758753	0	50455	458173	758753	708295	29921	98	1186	218	424063	1260143	31423
685	2015-10-26 10:26:24	0	0	0	0	0	0	33.65	3.94	0.07	758753	0	50459	458173	758753	708295	29921	98	1186	218	424063	1260146	31423
686	2015-10-26 10:32:25	0	0	0	0	0	0	33.65	3.94	0.07	758766	0	50459	458173	758766	708303	29922	98	1186	218	424063	1260148	31424
687	2015-10-26 10:38:11	0	0	0	0	0	0	33.65	3.94	0.07	758766	0	50466	458173	758766	708303	29922	98	1186	218	424063	1260150	31424
688	2015-10-26 10:45:24	0	0	0	0	0	0	33.65	3.94	0.07	758782	0	50466	458173	758782	708311	29923	98	1186	218	424063	1260156	31425
689	2015-10-26 10:50:07	0	0	0	0	0	0	33.65	3.94	0.07	758782	0	50466	458173	758782	708311	29923	98	1186	218	424063	1260159	31425
690	2015-10-26 10:56:10	0	0	0	0	0	0	33.65	3.94	0.07	758787	0	50471	458173	758787	708316	29923	98	1186	218	424063	1260163	31425
691	2015-10-26 11:02:06	0	0	0	0	0	0	33.65	3.94	0.07	758787	0	50471	458173	758787	708316	29923	98	1186	218	424063	1260163	31425
692	2015-10-26 11:08:06	0	0	0	0	0	0	33.65	3.94	0.07	758801	0	50478	458173	758801	708323	29923	98	1186	218	424063	1260164	31425
693	2015-10-26 11:14:12	0	0	0	0	0	0	33.65	3.94	0.07	758801	0	50478	458173	758801	708323	29923	98	1186	218	424063	1260165	31425
694	2015-10-26 11:20:12	0	0	0	0	0	0	33.65	3.94	0.07	758820	0	50484	458173	758820	708336	29923	98	1186	218	424063	1260170	31425
695	2015-10-26 11:26:14	0	0	0	0	0	0	33.65	3.94	0.07	758820	0	50484	458173	758820	708336	29923	98	1186	218	424063	1260175	31425
696	2015-10-26 11:31:59	0	0	0	0	0	0	33.65	3.94	0.07	758826	0	50488	458173	758826	708338	29923	98	1186	218	424063	1260179	31425
697	2015-10-26 11:37:57	0	0	0	0	0	0	33.65	3.94	0.07	758826	0	50488	458173	758826	708338	29923	98	1186	218	424063	1260186	31425
698	2015-10-26 11:44:00	0	0	0	0	0	0	33.65	3.94	0.07	758835	0	50492	458173	758835	708343	29924	98	1186	218	424063	1260191	31426
699	2015-10-26 11:50:00	0	0	0	0	0	0	33.65	3.94	0.07	758835	0	50492	458173	758835	708343	29924	98	1186	218	424063	1260191	31426
700	2015-10-26 11:55:59	0	0	0	0	0	0	33.65	3.94	0.07	758848	0	50498	458173	758848	708350	29925	98	1186	218	424063	1260194	31427
701	2015-10-26 12:01:57	0	0	0	0	0	0	33.65	3.94	0.07	758848	0	50498	458173	758848	708350	29925	98	1186	218	424063	1260198	31427
702	2015-10-26 12:08:01	0	0	0	0	0	0	33.65	3.94	0.07	758868	0	50503	458173	758868	708365	29925	98	1186	218	424063	1260199	31427
703	2015-10-26 12:14:01	0	0	0	0	0	0	33.65	3.94	0.07	758868	0	50503	458173	758868	708365	29925	98	1186	218	424063	1260203	31427
704	2015-10-26 12:20:00	0	0	0	0	0	0	33.65	3.94	0.07	758870	0	50504	458173	758870	708366	29925	98	1186	218	424063	1260204	31427
705	2015-10-26 12:26:22	0	0	0	0	0	0	33.65	3.94	0.07	758870	0	50504	458173	758870	708366	29925	98	1186	218	424063	1260204	31427
706	2015-10-26 12:32:12	0	0	0	0	0	0	33.65	3.94	0.07	758877	0	50505	458173	758877	708372	29925	98	1186	218	424063	1260208	31427
707	2015-10-26 12:37:59	0	0	0	0	0	0	33.65	3.94	0.07	758877	0	50505	458173	758877	708372	29925	98	1186	218	424063	1260211	31427
708	2015-10-26 12:44:07	0	0	0	0	0	0	33.65	3.94	0.07	758888	0	50511	458173	758888	708377	29925	98	1186	218	424063	1260215	31427
709	2015-10-26 12:49:59	0	0	0	0	0	0	33.65	3.94	0.07	758888	0	50511	458173	758888	708377	29925	98	1186	218	424063	1260219	31427
710	2015-10-26 12:56:02	0	0	0	0	0	0	33.65	3.94	0.07	758900	0	50516	458173	758900	708384	29925	98	1186	218	424063	1260223	31427
711	2015-10-26 13:02:16	0	0	0	0	0	0	33.65	3.94	0.07	758900	0	50516	458173	758900	708384	29925	98	1186	218	424063	1260226	31427
712	2015-10-26 13:08:14	0	0	0	0	0	0	33.65	3.94	0.07	758911	0	50517	458173	758911	708394	29925	98	1186	218	424063	1260226	31427
713	2015-10-26 13:14:17	0	0	0	0	0	0	33.65	3.94	0.07	758911	0	50517	458173	758911	708394	29925	98	1186	218	424063	1260229	31427
714	2015-10-26 13:20:18	0	0	0	0	0	0	33.65	3.94	0.07	758917	0	50519	458173	758917	708398	29925	98	1186	218	424063	1260233	31427
715	2015-10-26 13:26:18	0	0	0	0	0	0	33.65	3.94	0.07	758917	0	50519	458173	758917	708398	29925	98	1186	218	424063	1260236	31427
716	2015-10-26 13:32:13	0	0	0	0	0	0	33.65	3.94	0.07	758930	0	50527	458173	758930	708403	29925	98	1186	218	424063	1260242	31427
717	2015-10-26 13:38:16	0	0	0	0	0	0	33.65	3.94	0.07	758930	0	50527	458173	758930	708403	29925	98	1186	218	424063	1260246	31427
718	2015-10-26 13:44:30	0	0	0	0	0	0	33.65	3.94	0.07	758939	0	50529	458173	758939	708410	29925	98	1186	218	424063	1260251	31427
719	2015-10-26 13:50:18	0	0	0	0	0	0	33.65	3.94	0.07	758939	0	50529	458173	758939	708410	29925	98	1186	218	424063	1260252	31427
720	2015-10-26 13:55:47	0	0	0	0	0	0	33.65	3.94	0.07	758956	0	50538	458173	758956	708418	29926	98	1186	218	424063	1260253	31428
721	2015-10-26 13:56:51	0	0	0	0	0	0	33.65	3.94	0.07	758956	0	50538	458173	758956	708418	29926	98	1186	218	424063	1260253	31428
