1	2017-09-07 09:30:31		0	0	0	0	0	0	0.23	0.66	0	8333	0	11	7728	8333	8322	55	22	37	3	7665	3335815	117
2	2017-09-07 09:48:23		0	0	0	0	0	0	0.56	1.1	0.01	21245	0	152	18801	21245	21093	234	52	83	7	18525	3335830	376
3	2017-09-07 10:00:50		0	0	0	0	0	0	0.68	1.16	0.01	26806	0	248	23067	26806	26558	312	60	95	10	22704	3335838	477
4	2017-09-07 10:31:09		0	0	0	0	0	0	0.94	1.29	0.01	39116	0	496	31947	39116	38620	504	78	132	14	31193	3335842	728
5	2017-09-07 10:42:08		0	0	0	0	0	0	0.99	1.32	0.01	41578	0	558	33961	41578	41020	548	78	143	15	33153	3335850	784
6	2017-09-07 10:53:09		0	0	0	0	0	0	1.04	1.38	0.01	43977	0	642	35605	43977	43335	608	82	148	15	34616	3335856	853
7	2017-09-07 11:04:09		0	0	0	0	0	0	1.1	1.45	0.02	46844	0	724	37137	46844	46120	681	88	155	15	36563	3335855	939
8	2017-09-07 11:15:08		0	0	0	0	0	0	1.12	1.45	0.02	48630	0	809	38011	48630	47821	707	90	161	15	37337	3335859	973
9	2017-09-07 11:26:09		0	0	0	0	0	0	1.15	1.46	0.02	50344	0	861	39522	50344	49483	734	92	168	15	38414	3335861	1009
10	2017-09-07 11:37:09		0	0	0	0	0	0	1.18	1.46	0.02	51908	0	933	40491	51908	50975	756	92	174	15	39259	3335866	1037
11	2017-09-07 11:48:09		0	0	0	0	0	0	1.21	1.47	0.02	53417	0	1003	42085	53417	52414	785	94	181	17	40409	3335869	1077
12	2017-09-07 11:59:11		0	0	0	0	0	0	1.26	1.47	0.02	55526	0	1098	43473	55526	54428	815	98	184	17	41872	3335875	1114
13	2017-09-07 12:10:12		0	0	0	0	0	0	1.29	1.49	0.02	57010	0	1155	44635	57010	55855	851	98	185	19	42987	3335875	1153
14	2017-09-07 12:21:10		0	0	0	0	0	0	1.31	1.51	0.02	58508	0	1220	45391	58508	57288	881	104	194	19	43683	3335873	1198
15	2017-09-07 12:32:11		0	0	0	0	0	0	1.34	1.51	0.02	59977	0	1298	46615	59977	58679	906	106	200	19	44687	3335879	1231
16	2017-09-07 12:43:09		0	0	0	0	0	0	1.37	1.51	0.02	61467	0	1366	47540	61467	60101	927	112	207	19	45648	3335883	1265
17	2017-09-07 12:54:09		0	0	0	0	0	0	1.39	1.52	0.02	62862	0	1462	48460	62862	61425	955	114	211	19	46512	3335883	1299
18	2017-09-07 13:05:10		0	0	0	0	0	0	1.43	1.5	0.02	64778	0	1540	49752	64778	63238	973	114	215	19	47684	3335888	1321
19	2017-09-07 13:16:09		0	0	0	0	0	0	1.45	1.5	0.02	66090	0	1596	50226	66090	64494	994	118	221	20	48275	3335899	1353
20	2017-09-07 13:27:11		0	0	0	0	0	0	1.48	1.51	0.03	67393	0	1672	51423	67393	65721	1015	120	224	22	49359	3335904	1381
21	2017-09-07 13:38:11		0	0	0	0	0	0	1.5	1.51	0.03	68679	0	1763	52107	68679	66916	1034	122	228	23	50041	3335903	1407
22	2017-09-07 13:49:10		0	0	0	0	0	0	1.53	1.52	0.03	70175	0	1829	53008	70175	68346	1064	124	231	23	50933	3335912	1442
23	2017-09-07 14:00:10		0	0	0	0	0	0	1.56	1.51	0.03	72320	0	1957	54206	72320	70363	1089	124	236	23	52024	3335919	1472
24	2017-09-07 14:11:12		0	0	0	0	0	0	1.59	1.51	0.03	73571	0	2010	55289	73571	71561	1108	128	241	25	53035	3335920	1502
25	2017-09-07 14:22:10		0	0	0	0	0	0	1.62	1.51	0.03	74957	0	2065	56140	74957	72892	1134	128	247	25	53907	3335925	1534
26	2017-09-07 14:33:11		0	0	0	0	0	0	1.64	1.51	0.03	76243	0	2125	56980	76243	74118	1150	128	251	27	54743	3335930	1556
27	2017-09-07 14:44:10		0	0	0	0	0	0	1.66	1.52	0.03	77397	0	2175	57610	77397	75222	1179	130	252	29	55277	3335934	1590
28	2017-09-07 14:55:12		0	0	0	0	0	0	1.69	1.51	0.03	79181	0	2262	58584	79181	76919	1196	136	256	29	56271	3335937	1617
29	2017-09-07 15:06:11		0	0	0	0	0	0	1.71	1.51	0.03	80284	0	2327	59401	80284	77957	1211	138	261	30	56974	3335947	1640
30	2017-09-07 15:17:11		0	0	0	0	0	0	1.72	1.51	0.03	81353	0	2380	59825	81353	78973	1228	138	264	31	57415	3335959	1661
31	2017-09-07 15:28:10		0	0	0	0	0	0	1.73	1.51	0.03	82348	0	2450	60316	82348	79898	1247	142	269	31	57837	3335966	1689
32	2017-09-07 15:39:14		0	0	0	0	0	0	1.74	1.52	0.03	83318	0	2518	60611	83318	80800	1267	144	269	31	58047	3335965	1711
33	2017-09-07 15:50:12		0	0	0	0	0	0	1.76	1.52	0.03	85032	0	2654	61343	85032	82378	1296	148	275	34	58754	3335971	1753
34	2017-09-07 16:01:12		0	0	0	0	0	0	1.78	1.53	0.03	86149	0	2766	61957	86149	83383	1314	152	281	34	59251	3335968	1781
35	2017-09-07 16:12:11		0	0	0	0	0	0	1.79	1.53	0.03	87249	0	2887	62406	87249	84362	1337	154	284	36	59662	3335972	1811
36	2017-09-07 16:23:12		0	0	0	0	0	0	1.81	1.53	0.04	88341	0	3008	63336	88341	85333	1356	154	289	36	60454	3335978	1835
37	2017-09-07 16:34:11		0	0	0	0	0	0	1.83	1.54	0.04	89219	0	3111	63983	89219	86108	1371	156	291	36	61044	3335982	1854
38	2017-09-07 16:45:12		0	0	0	0	0	0	1.85	1.54	0.04	90412	0	3236	64612	90412	87176	1390	156	294	36	61616	3335981	1876
39	2017-09-07 16:56:12		0	0	0	0	0	0	1.86	1.54	0.04	91268	0	3300	65207	91268	87968	1401	156	301	36	62156	3335983	1894
40	2017-09-07 17:07:11		0	0	0	0	0	0	1.89	1.54	0.04	92070	0	3369	66214	92070	88701	1415	156	307	36	62978	3335991	1914
41	2017-09-07 17:18:13		0	0	0	0	0	0	1.9	1.54	0.04	92901	0	3424	66713	92901	89477	1430	156	314	36	63430	3335992	1936
42	2017-09-07 17:29:13		0	0	0	0	0	0	1.91	1.54	0.04	93814	0	3487	66993	93814	90327	1443	158	320	36	63767	3335993	1957
43	2017-09-07 17:40:13		0	0	0	0	0	0	1.93	1.54	0.04	94944	0	3580	67544	94944	91364	1460	158	322	37	64330	3335995	1977
44	2017-09-07 17:51:14		0	0	0	0	0	0	1.94	1.54	0.04	95725	0	3630	67809	95725	92095	1474	160	325	38	64570	3336002	1997
45	2017-09-07 18:02:12		0	0	0	0	0	0	1.95	1.54	0.04	96470	0	3687	68347	96470	92783	1481	164	325	38	65146	3336002	2008
46	2017-09-07 18:13:13		0	0	0	0	0	0	1.97	1.54	0.04	97271	0	3754	68886	97271	93517	1495	166	328	38	65657	3336014	2027
47	2017-09-07 18:24:16		0	0	0	0	0	0	1.98	1.53	0.04	98073	0	3812	69472	98073	94261	1504	168	330	38	66189	3336018	2040
48	2017-09-07 18:35:15		0	0	0	0	0	0	1.99	1.53	0.04	99147	0	3890	69858	99147	95257	1519	170	330	38	66517	3336028	2057
49	2017-09-07 18:46:17		0	0	0	0	0	0	2	1.53	0.04	99879	0	3972	70114	99879	95907	1531	170	332	38	66748	3336034	2071
50	2017-09-07 18:57:13		0	0	0	0	0	0	2.01	1.53	0.04	100672	0	4037	70568	100672	96635	1537	170	334	39	67160	3336039	2080
51	2017-09-07 19:08:19		0	0	0	0	0	0	2.02	1.52	0.04	101426	0	4099	70904	101426	97327	1546	170	334	39	67441	3336042	2089
52	2017-09-07 19:19:15		0	0	0	0	0	0	2.04	1.53	0.04	102142	0	4159	71709	102142	97983	1558	170	337	39	68109	3336051	2104
53	2017-09-07 19:30:15		0	0	0	0	0	0	2.05	1.52	0.04	103191	0	4227	72160	103191	98964	1570	172	341	39	68467	3336055	2122
54	2017-09-07 19:41:15		0	0	0	0	0	0	2.06	1.52	0.04	103856	0	4260	72508	103856	99596	1574	172	342	39	68781	3336062	2127
55	2017-09-07 19:52:17		0	0	0	0	0	0	2.08	1.51	0.04	104508	0	4307	73267	104508	100201	1577	172	343	39	69288	3336068	2131
56	2017-09-07 20:03:15		0	0	0	0	0	0	2.08	1.51	0.04	105090	0	4353	73402	105090	100737	1582	174	345	39	69410	3336077	2140
57	2017-09-07 20:14:15		0	0	0	0	0	0	2.09	1.51	0.04	105688	0	4394	73706	105688	101294	1592	174	350	39	69757	3336084	2155
58	2017-09-07 20:25:17		0	0	0	0	0	0	2.1	1.5	0.04	106640	0	4458	74117	106640	102182	1599	174	353	39	70112	3336097	2165
59	2017-09-07 20:36:32		0	0	0	0	0	0	2.11	1.5	0.04	107278	0	4511	74485	107278	102767	1608	174	355	39	70531	3336099	2176
60	2017-09-07 20:47:16		0	0	0	0	0	0	2.12	1.5	0.04	107942	0	4575	74740	107942	103367	1614	178	358	39	70759	3336105	2189
61	2017-09-07 20:58:18		0	0	0	0	0	0	2.13	1.5	0.04	108630	0	4636	75026	108630	103994	1625	180	358	39	71016	3336114	2202
62	2017-09-07 21:09:17		0	0	0	0	0	0	2.13	1.49	0.05	109254	0	4718	75185	109254	104536	1630	180	358	39	71067	3336127	2207
63	2017-09-07 21:20:33		0	0	0	0	0	0	2.16	1.49	0.05	110237	0	4802	76217	110237	105435	1641	182	359	39	72016	3336146	2221
64	2017-09-07 21:31:30		0	0	0	0	0	0	2.16	1.49	0.05	110973	0	4878	76405	110973	106095	1649	184	362	39	72170	3336164	2234
65	2017-09-07 21:42:31		0	0	0	0	0	0	2.19	1.48	0.05	111726	0	4963	77326	111726	106763	1658	184	366	39	73026	3336189	2247
66	2017-09-07 21:53:28		0	0	0	0	0	0	2.2	1.48	0.05	112485	0	5035	77810	112485	107450	1667	186	367	39	73430	3336206	2259
67	2017-09-07 22:04:46		0	0	0	0	0	0	2.23	1.48	0.05	113155	0	5105	78883	113155	108050	1673	186	368	39	74427	3336229	2266
68	2017-09-07 22:15:55		0	0	0	0	0	0	2.25	1.47	0.05	114243	0	5178	79580	114243	109065	1680	186	372	39	75164	3336247	2277
69	2017-09-07 22:26:55		0	0	0	0	0	0	2.26	1.47	0.05	114969	0	5239	79834	114969	109730	1685	188	375	39	75453	3336265	2287
70	2017-09-07 22:38:04		0	0	0	0	0	0	2.28	1.46	0.05	115731	0	5295	80578	115731	110436	1690	190	376	39	76074	3336287	2295
71	2017-09-07 22:49:00		0	0	0	0	0	0	2.3	1.46	0.05	116473	0	5345	81365	116473	111128	1698	190	379	41	76691	3336303	2308
72	2017-09-07 23:00:00		0	0	0	0	0	0	2.33	1.46	0.05	117255	0	5417	82657	117255	111838	1711	192	379	41	77674	3336318	2323
73	2017-09-07 23:12:42		0	0	0	0	0	0	2.35	1.45	0.05	118329	0	5497	83433	118329	112832	1717	192	380	41	78253	3336332	2330
74	2017-09-07 23:22:07		0	0	0	0	0	0	2.35	1.45	0.05	118971	0	5545	83765	118971	113426	1720	192	382	41	78544	3336346	2335
75	2017-09-07 23:33:01		0	0	0	0	0	0	2.37	1.44	0.05	119587	0	5577	84166	119587	114010	1725	192	384	41	79025	3336371	2342
76	2017-09-07 23:45:48		0	0	0	0	0	0	2.38	1.44	0.05	120390	0	5633	84745	120390	114757	1735	192	385	41	79422	3336383	2353
77	2017-09-07 23:55:26		0	0	0	0	0	0	2.38	1.44	0.05	120796	0	5658	84852	120796	115138	1741	192	387	41	79516	3336398	2361
78	2017-09-08 00:23:40		0	0	0	0	0	0	2.43	1.43	0.05	122412	0	5764	86002	122412	116648	1751	194	389	41	81132	3337018	2375
79	2017-09-08 01:23:27		0	0	0	0	0	0	2.51	1.4	0.05	126073	0	5961	88595	126073	120112	1771	198	394	42	83726	3338520	2405
80	2017-09-08 02:23:58		0	0	0	0	0	0	2.54	1.39	0.05	127872	0	6074	89632	127872	121798	1783	198	394	42	84745	3338766	2417
81	2017-09-08 03:24:12		0	0	0	0	0	0	2.57	1.39	0.05	128747	0	6128	90734	128747	122619	1796	202	399	42	85729	3338846	2439
82	2017-09-08 04:24:00		0	0	0	0	0	0	2.57	1.39	0.05	129173	0	6156	90841	129173	123017	1798	202	400	42	85824	3338874	2442
83	2017-09-08 05:24:14		0	0	0	0	0	0	2.58	1.39	0.05	129529	0	6178	91049	129529	123351	1801	202	402	42	86010	3338899	2447
84	2017-09-08 06:23:55		0	0	0	0	0	0	2.59	1.39	0.05	130279	0	6227	91783	130279	124052	1805	202	403	42	86626	3338995	2452
85	2017-09-08 07:08:28		0	0	0	0	0	0	2.61	1.38	0.05	131196	0	6301	92222	131196	124895	1812	202	406	44	87017	3339133	2464
86	2017-09-08 07:19:24		0	0	0	0	0	0	2.61	1.38	0.05	131446	0	6320	92375	131446	125126	1813	202	406	44	87153	3339180	2465
87	2017-09-08 07:30:32		0	0	0	0	0	0	2.61	1.38	0.05	131759	0	6339	92507	131759	125420	1814	202	406	44	87271	3339238	2466
88	2017-09-08 07:43:30		0	0	0	0	0	0	2.62	1.38	0.05	132168	0	6361	92634	132168	125807	1821	202	407	44	87463	3339330	2474
89	2017-09-08 08:00:48		0	0	0	0	0	0	2.63	1.37	0.05	132662	0	6394	92965	132662	126268	1824	202	409	44	87738	3339416	2479
90	2017-09-08 08:20:59		0	0	0	0	0	0	2.63	1.37	0.05	133242	0	6439	93174	133242	126803	1828	202	410	44	87923	3339550	2484
91	2017-09-08 08:34:06		0	0	0	0	0	0	2.64	1.37	0.05	133771	0	6477	93286	133771	127294	1830	202	410	44	88144	3339641	2486
92	2017-09-08 08:45:02		0	0	0	0	0	0	2.65	1.37	0.05	134115	0	6510	93556	134115	127605	1832	202	413	44	88466	3339712	2491
93	2017-09-08 09:04:25		0	0	0	0	0	0	2.66	1.37	0.05	134806	0	6561	93834	134806	128245	1841	206	414	44	88714	3339796	2505
94	2017-09-08 09:16:29		0	0	0	0	0	0	2.66	1.37	0.05	135110	0	6589	93988	135110	128521	1847	208	417	45	88852	3339871	2517
95	2017-09-08 09:24:10		0	0	0	0	0	0	2.67	1.37	0.05	135398	0	6623	94257	135398	128775	1851	206	419	46	89195	3339912	2522
96	2017-09-08 09:38:29		0	0	0	0	0	0	2.68	1.37	0.05	135804	0	6673	94490	135804	129131	1857	208	420	46	89403	3339986	2531
97	2017-09-08 09:50:16		0	0	0	0	0	0	2.68	1.37	0.05	136035	0	6710	94536	136035	129325	1859	208	420	46	89445	3340037	2533
98	2017-09-08 10:04:14		0	0	0	0	0	0	2.68	1.37	0.05	136292	0	6748	94559	136292	129544	1863	210	420	46	89507	3340137	2539
99	2017-09-08 10:23:36		0	0	0	0	0	0	2.69	1.37	0.05	136577	0	6805	94744	136577	129772	1865	210	421	47	89751	3340222	2543
100	2017-09-08 10:47:24		0	0	0	0	0	0	2.69	1.37	0.05	136804	0	6869	94860	136804	129949	1869	210	421	47	89813	3340337	2547
101	2017-09-08 11:06:59		0	0	0	0	0	0	2.69	1.37	0.05	137049	0	6915	94860	137049	130134	1872	210	421	48	89813	3340438	2551
102	2017-09-08 11:18:53		0	0	0	0	0	0	2.69	1.37	0.05	137141	0	6933	95000	137141	130208	1872	210	421	48	89938	3340512	2551
103	2017-09-08 11:40:32		0	0	0	0	0	0	2.7	1.36	0.05	137330	0	6984	95304	137330	130346	1873	210	422	48	90211	3340613	2553
104	2017-09-08 11:51:16		0	0	0	0	0	0	2.7	1.36	0.05	137415	0	7008	95304	137415	130407	1874	210	422	48	90211	3340671	2554
105	2017-09-08 12:24:39		0	0	0	0	0	0	2.71	1.36	0.05	137655	0	7069	95504	137655	130586	1878	210	422	48	90432	3340823	2558
106	2017-09-08 12:35:12		0	0	0	0	0	0	2.71	1.36	0.05	137719	0	7092	95504	137719	130627	1878	210	422	48	90432	3340886	2558
107	2017-09-08 12:49:18		0	0	0	0	0	0	2.71	1.36	0.05	137803	0	7110	95610	137803	130693	1878	210	422	48	90496	3340971	2558
108	2017-09-08 13:00:31		0	0	0	0	0	0	2.71	1.36	0.05	137877	0	7137	95658	137877	130740	1879	210	422	48	90538	3341024	2559
109	2017-09-08 13:29:03		0	0	0	0	0	0	2.71	1.36	0.05	138063	0	7183	95705	138063	130880	1881	210	422	48	90580	3341131	2561
110	2017-09-08 13:40:16		0	0	0	0	0	0	2.71	1.36	0.05	138121	0	7197	95705	138121	130924	1881	210	422	48	90580	3341172	2561
111	2017-09-08 13:58:05		0	0	0	0	0	0	2.72	1.36	0.06	138268	0	7234	95942	138268	131034	1883	212	422	48	90793	3341237	2565
112	2017-09-08 14:09:02		0	0	0	0	0	0	2.72	1.36	0.06	138311	0	7246	95942	138311	131065	1883	212	422	48	90793	3341304	2565
113	2017-09-08 14:52:35		0	0	0	0	0	0	2.72	1.36	0.06	138529	0	7286	96037	138529	131243	1885	212	422	48	90878	3341519	2567
114	2017-09-08 14:57:35		0	0	0	0	0	0	2.72	1.36	0.06	138589	0	7299	96103	138589	131290	1885	212	422	48	90937	3341546	2567
115	2017-09-08 15:16:51		0	0	0	0	0	0	2.72	1.36	0.06	138670	0	7321	96198	138670	131349	1888	212	422	48	91022	3341646	2570
116	2017-09-08 16:04:22		0	0	0	0	0	0	2.72	1.36	0.06	138959	0	7398	96365	138959	131561	1892	212	422	48	91022	3341915	2574
117	2017-09-08 16:20:24		0	0	0	0	0	0	2.73	1.36	0.06	139067	0	7430	96473	139067	131637	1892	214	422	48	91087	3341999	2576
118	2017-09-08 16:31:15		0	0	0	0	0	0	2.73	1.36	0.06	139143	0	7443	96473	139143	131700	1892	214	422	48	91087	3342045	2576
119	2017-09-08 16:53:11		0	0	0	0	0	0	2.73	1.36	0.06	139299	0	7484	96592	139299	131815	1894	216	422	48	91087	3342127	2580
120	2017-09-08 17:05:19		0	0	0	0	0	0	2.73	1.36	0.06	139355	0	7499	96592	139355	131856	1894	216	422	48	91087	3342176	2580
121	2017-09-08 18:20:58		0	0	0	0	0	0	2.73	1.36	0.06	139813	0	7626	96707	139813	132187	1898	216	422	48	91189	3342535	2584
122	2017-09-08 18:56:48		0	0	0	0	0	0	2.73	1.36	0.06	140027	0	7672	96863	140027	132355	1899	216	423	48	91295	3342711	2586
123	2017-09-08 19:50:33		0	0	0	0	0	0	2.74	1.35	0.06	140318	0	7745	97069	140318	132573	1901	216	423	48	91477	3343025	2588
124	2017-09-08 20:01:26		0	0	0	0	0	0	2.74	1.35	0.06	140368	0	7758	97081	140368	132610	1901	216	423	48	91488	3343105	2588
125	2017-09-08 20:12:24		0	0	0	0	0	0	2.74	1.35	0.06	140459	0	7774	97178	140459	132685	1901	216	424	48	91575	3343196	2589
126	2017-09-08 20:23:26		0	0	0	0	0	0	2.74	1.35	0.06	140512	0	7786	97178	140512	132726	1901	216	425	48	91575	3343292	2590
127	2017-09-08 20:34:27		0	0	0	0	0	0	2.74	1.35	0.06	140564	0	7798	97221	140564	132766	1901	218	426	48	91613	3343378	2593
128	2017-09-08 20:45:25		0	0	0	0	0	0	2.74	1.35	0.06	140631	0	7819	97221	140631	132812	1903	218	426	48	91613	3343482	2595
129	2017-09-08 20:56:27		0	0	0	0	0	0	2.74	1.35	0.06	140696	0	7833	97221	140696	132863	1903	218	426	48	91613	3343582	2595
130	2017-09-08 21:07:25		0	0	0	0	0	0	2.74	1.35	0.06	140773	0	7855	97233	140773	132918	1906	218	426	48	91624	3343660	2598
131	2017-09-08 21:18:24		0	0	0	0	0	0	2.74	1.35	0.06	140838	0	7878	97306	140838	132960	1906	220	426	48	91689	3343728	2600
132	2017-09-08 21:29:25		0	0	0	0	0	0	2.74	1.35	0.06	140901	0	7906	97306	140901	132995	1906	222	426	48	91689	3343839	2602
133	2017-09-08 21:40:25		0	0	0	0	0	0	2.74	1.35	0.06	140959	0	7933	97331	140959	133026	1906	222	426	48	91689	3343933	2602
134	2017-09-08 21:51:26		0	0	0	0	0	0	2.74	1.35	0.06	141013	0	7946	97429	141013	133067	1906	222	426	48	91689	3344028	2602
135	2017-09-08 22:02:25		0	0	0	0	0	0	2.74	1.35	0.06	141110	0	7970	97466	141110	133140	1908	222	426	48	91721	3344112	2604
136	2017-09-08 22:13:26		0	0	0	0	0	0	2.74	1.35	0.06	141146	0	7976	97478	141146	133170	1909	222	426	48	91732	3344199	2605
137	2017-09-08 22:24:26		0	0	0	0	0	0	2.74	1.35	0.06	141176	0	7984	97478	141176	133192	1910	222	426	48	91732	3344302	2606
138	2017-09-08 22:35:29		0	0	0	0	0	0	2.74	1.35	0.06	141229	0	7999	97478	141229	133230	1910	222	426	48	91732	3344389	2606
139	2017-09-08 22:46:24		0	0	0	0	0	0	2.74	1.35	0.06	141286	0	8008	97626	141286	133278	1910	222	426	48	91732	3344486	2606
140	2017-09-08 22:57:27		0	0	0	0	0	0	2.74	1.35	0.06	141349	0	8022	97632	141349	133327	1912	222	426	48	91738	3344567	2608
141	2017-09-08 23:08:26		0	0	0	0	0	0	2.74	1.35	0.06	141399	0	8032	97632	141399	133367	1912	222	426	48	91738	3344637	2608
142	2017-09-08 23:19:26		0	0	0	0	0	0	2.74	1.35	0.06	141444	0	8046	97632	141444	133398	1913	222	426	48	91738	3344718	2609
143	2017-09-08 23:30:26		0	0	0	0	0	0	2.74	1.35	0.06	141481	0	8053	97632	141481	133428	1913	222	426	48	91738	3344816	2609
144	2017-09-08 23:41:25		0	0	0	0	0	0	2.74	1.35	0.06	141519	0	8059	97632	141519	133460	1913	222	426	48	91738	3344886	2609
145	2017-09-08 23:52:25		0	0	0	0	0	0	2.74	1.35	0.06	141582	0	8071	97632	141582	133511	1913	222	426	48	91738	3344976	2609
146	2017-09-09 00:20:28		0	0	0	0	0	0	2.74	1.35	0.06	141681	0	8084	97632	141681	133597	1914	222	426	48	91738	3345139	2610
147	2017-09-09 01:20:25		0	0	0	0	0	0	2.74	1.35	0.06	141813	0	8109	97632	141813	133704	1915	222	426	48	91738	3345429	2611
148	2017-09-09 02:20:40		0	0	0	0	0	0	2.74	1.35	0.06	141871	0	8128	97681	141871	133743	1915	222	426	48	91781	3345593	2611
149	2017-09-09 03:20:25		0	0	0	0	0	0	2.74	1.35	0.06	141905	0	8135	97681	141905	133770	1915	222	426	48	91781	3345663	2611
150	2017-09-09 04:20:28		0	0	0	0	0	0	2.74	1.35	0.06	141940	0	8143	97879	141940	133797	1917	222	427	48	91781	3345694	2614
151	2017-09-09 05:20:27		0	0	0	0	0	0	2.74	1.35	0.06	141953	0	8144	97879	141953	133809	1917	222	427	48	91781	3345724	2614
152	2017-09-09 06:20:28		0	0	0	0	0	0	2.74	1.35	0.06	141977	0	8150	97879	141977	133827	1919	222	427	48	91781	3345752	2616
153	2017-09-09 07:03:28		0	0	0	0	0	0	2.74	1.35	0.06	142020	0	8157	97928	142020	133863	1920	222	429	48	91825	3345817	2619
154	2017-09-09 07:14:28		0	0	0	0	0	0	2.74	1.35	0.06	142030	0	8158	97928	142030	133872	1920	222	429	48	91825	3345831	2619
155	2017-09-09 07:25:27		0	0	0	0	0	0	2.75	1.35	0.06	142043	0	8162	97965	142043	133881	1920	222	429	48	91857	3345856	2619
156	2017-09-09 07:36:29		0	0	0	0	0	0	2.75	1.35	0.06	142051	0	8165	98015	142051	133886	1920	222	429	48	91901	3345880	2619
157	2017-09-09 07:47:29		0	0	0	0	0	0	2.75	1.35	0.06	142057	0	8167	98015	142057	133890	1922	222	429	48	91901	3345911	2621
158	2017-09-09 07:58:34		0	0	0	0	0	0	2.75	1.35	0.06	142071	0	8169	98015	142071	133902	1922	222	429	48	91901	3345944	2621
159	2017-09-09 08:09:28		0	0	0	0	0	0	2.75	1.35	0.06	142089	0	8170	98015	142089	133919	1922	222	429	48	91901	3345975	2621
160	2017-09-09 08:20:27		0	0	0	0	0	0	2.75	1.35	0.06	142105	0	8172	98015	142105	133933	1922	222	429	48	91901	3346008	2621
161	2017-09-09 08:31:37		0	0	0	0	0	0	2.75	1.35	0.06	142126	0	8178	98015	142126	133948	1922	222	429	48	91901	3346040	2621
162	2017-09-09 08:42:28		0	0	0	0	0	0	2.75	1.35	0.06	142152	0	8185	98015	142152	133967	1923	222	429	48	91901	3346079	2622
163	2017-09-09 08:53:27		0	0	0	0	0	0	2.75	1.35	0.06	142180	0	8190	98021	142180	133990	1923	222	429	48	91906	3346122	2622
164	2017-09-09 09:04:29		0	0	0	0	0	0	2.75	1.35	0.06	142197	0	8194	98021	142197	134003	1923	222	429	48	91906	3346159	2622
165	2017-09-09 09:15:29		0	0	0	0	0	0	2.75	1.35	0.06	142218	0	8200	98214	142218	134018	1923	222	429	48	92070	3346202	2622
166	2017-09-09 09:26:41		0	0	0	0	0	0	2.75	1.35	0.06	142244	0	8206	98301	142244	134038	1923	222	429	48	92070	3346247	2622
167	2017-09-09 09:37:33		0	0	0	0	0	0	2.76	1.35	0.06	142259	0	8210	98314	142259	134049	1924	222	429	48	92235	3346302	2623
168	2017-09-09 09:48:35		0	0	0	0	0	0	2.76	1.35	0.06	142288	0	8218	98314	142288	134070	1924	222	429	48	92235	3346370	2623
169	2017-09-09 09:59:33		0	0	0	0	0	0	2.76	1.35	0.06	142317	0	8225	98314	142317	134092	1924	222	429	48	92235	3346429	2623
170	2017-09-09 10:10:39		0	0	0	0	0	0	2.76	1.35	0.06	142341	0	8227	98314	142341	134114	1924	222	430	48	92235	3346500	2624
171	2017-09-09 10:21:33		0	0	0	0	0	0	2.76	1.35	0.06	142361	0	8233	98314	142361	134128	1924	222	430	48	92235	3346564	2624
172	2017-09-09 10:32:41		0	0	0	0	0	0	2.76	1.35	0.06	142387	0	8239	98314	142387	134148	1924	222	430	48	92235	3346638	2624
173	2017-09-09 10:43:42		0	0	0	0	0	0	2.76	1.35	0.06	142419	0	8242	98339	142419	134177	1924	222	430	48	92301	3346694	2624
174	2017-09-09 10:54:42		0	0	0	0	0	0	2.76	1.35	0.06	142440	0	8243	98376	142440	134197	1924	222	430	48	92334	3346753	2624
175	2017-09-09 11:05:41		0	0	0	0	0	0	2.76	1.35	0.06	142449	0	8244	98376	142449	134205	1924	222	430	48	92334	3346824	2624
176	2017-09-09 11:16:44		0	0	0	0	0	0	2.76	1.35	0.06	142467	0	8251	98376	142467	134216	1924	222	430	48	92334	3346901	2624
177	2017-09-09 11:27:43		0	0	0	0	0	0	2.76	1.35	0.06	142483	0	8256	98376	142483	134227	1924	222	431	48	92334	3346956	2625
178	2017-09-09 11:38:47		0	0	0	0	0	0	2.76	1.35	0.06	142511	0	8261	98376	142511	134250	1924	222	431	48	92334	3347042	2625
179	2017-09-09 11:50:12		0	0	0	0	0	0	2.76	1.35	0.06	142520	0	8262	98376	142520	134258	1924	222	432	48	92334	3347100	2626
180	2017-09-09 12:00:55		0	0	0	0	0	0	2.76	1.35	0.06	142531	0	8263	98376	142531	134268	1924	222	432	48	92334	3347179	2626
181	2017-09-09 12:12:09		0	0	0	0	0	0	2.76	1.35	0.06	142554	0	8265	98376	142554	134289	1924	222	432	48	92334	3347245	2626
182	2017-09-09 12:23:06		0	0	0	0	0	0	2.76	1.35	0.06	142576	0	8267	98426	142576	134309	1924	222	432	48	92378	3347299	2626
183	2017-09-09 12:34:12		0	0	0	0	0	0	2.76	1.35	0.06	142601	0	8271	98426	142601	134330	1925	222	432	48	92378	3347362	2627
184	2017-09-09 12:46:47		0	0	0	0	0	0	2.76	1.35	0.06	142614	0	8271	98426	142614	134343	1926	222	432	48	92378	3347427	2628
185	2017-09-09 12:56:48		0	0	0	0	0	0	2.76	1.35	0.06	142633	0	8273	98501	142633	134360	1926	222	432	48	92444	3347482	2628
186	2017-09-09 13:07:54		0	0	0	0	0	0	2.76	1.35	0.06	142648	0	8275	98501	142648	134373	1926	222	432	48	92444	3347525	2628
187	2017-09-09 13:19:45		0	0	0	0	0	0	2.76	1.35	0.06	142671	0	8276	98501	142671	134395	1926	222	432	48	92444	3347571	2628
188	2017-09-09 13:30:42		0	0	0	0	0	0	2.76	1.35	0.06	142686	0	8277	98501	142686	134409	1926	222	432	48	92444	3347608	2628
189	2017-09-09 13:41:50		0	0	0	0	0	0	2.76	1.35	0.06	142702	0	8281	98501	142702	134421	1926	222	432	48	92444	3347643	2628
190	2017-09-09 13:57:15		0	0	0	0	0	0	2.76	1.35	0.06	142734	0	8284	98501	142734	134450	1926	222	432	48	92444	3347679	2628
191	2017-09-09 14:04:46		0	0	0	0	0	0	2.76	1.35	0.06	142751	0	8287	98501	142751	134464	1926	222	432	48	92444	3347695	2628
192	2017-09-09 14:15:46		0	0	0	0	0	0	2.76	1.35	0.06	142769	0	8287	98501	142769	134482	1926	222	432	48	92444	3347728	2628
193	2017-09-09 14:26:46		0	0	0	0	0	0	2.76	1.35	0.06	142786	0	8289	98577	142786	134497	1926	222	432	48	92511	3347763	2628
194	2017-09-09 14:38:36		0	0	0	0	0	0	2.76	1.35	0.06	142807	0	8291	98577	142807	134516	1926	222	432	48	92511	3347794	2628
195	2017-09-09 14:49:28		0	0	0	0	0	0	2.76	1.35	0.06	142839	0	8297	98577	142839	134542	1926	222	432	48	92555	3347818	2628
196	2017-09-09 15:00:31		0	0	0	0	0	0	2.76	1.35	0.06	142853	0	8298	98577	142853	134555	1926	222	432	48	92555	3347852	2628
197	2017-09-09 15:11:47		0	0	0	0	0	0	2.76	1.35	0.06	142869	0	8304	98577	142869	134565	1926	222	432	48	92555	3347872	2628
198	2017-09-09 15:23:38		0	0	0	0	0	0	2.76	1.35	0.06	142892	0	8306	98577	142892	134586	1926	222	433	48	92555	3347897	2629
199	2017-09-09 15:34:35		0	0	0	0	0	0	2.76	1.35	0.06	142909	0	8310	98577	142909	134599	1926	222	433	48	92555	3347931	2629
200	2017-09-09 15:45:56		0	0	0	0	0	0	2.76	1.35	0.06	142924	0	8312	98577	142924	134612	1927	222	433	48	92555	3347956	2630
201	2017-09-09 16:05:10		0	0	0	0	0	0	2.76	1.35	0.06	142959	0	8314	98577	142959	134645	1927	222	433	48	92555	3348021	2630
202	2017-09-09 16:15:19		0	0	0	0	0	0	2.76	1.35	0.06	142974	0	8317	98577	142974	134657	1927	222	433	48	92555	3348038	2630
203	2017-09-09 16:26:19		0	0	0	0	0	0	2.76	1.35	0.06	142981	0	8320	98577	142981	134661	1927	222	433	48	92555	3348062	2630
204	2017-09-09 16:54:24		0	0	0	0	0	0	2.76	1.35	0.06	143016	0	8326	98577	143016	134690	1927	222	433	48	92555	3348142	2630
205	2017-09-09 16:58:30		0	0	0	0	0	0	2.76	1.35	0.06	143025	0	8326	98577	143025	134699	1927	222	433	48	92555	3348158	2630
206	2017-09-09 17:09:34		0	0	0	0	0	0	2.77	1.35	0.06	143048	0	8330	98627	143048	134718	1929	222	433	48	92688	3348190	2632
207	2017-09-09 17:21:15		0	0	0	0	0	0	2.77	1.35	0.06	143062	0	8332	98627	143062	134730	1929	222	433	48	92688	3348214	2632
208	2017-09-09 17:45:45		0	0	0	0	0	0	2.77	1.35	0.06	143106	0	8335	98677	143106	134771	1931	222	433	48	92732	3348287	2634
209	2017-09-09 17:53:18		0	0	0	0	0	0	2.77	1.35	0.06	143112	0	8336	98677	143112	134776	1931	222	433	48	92732	3348313	2634
210	2017-09-09 18:04:32		0	0	0	0	0	0	2.77	1.35	0.06	143141	0	8339	98753	143141	134802	1931	222	433	48	92799	3348340	2634
211	2017-09-09 18:17:21		0	0	0	0	0	0	2.77	1.35	0.06	143164	0	8343	98753	143164	134821	1932	222	433	48	92799	3348377	2635
212	2017-09-09 18:29:51		0	0	0	0	0	0	2.77	1.35	0.06	143194	0	8347	98753	143194	134847	1933	222	433	48	92799	3348396	2636
213	2017-09-09 18:50:48		0	0	0	0	0	0	2.77	1.35	0.06	143214	0	8350	98841	143214	134864	1934	222	433	48	92877	3348429	2637
214	2017-09-09 19:09:41		0	0	0	0	0	0	2.77	1.35	0.06	143256	0	8357	98841	143256	134899	1934	222	433	48	92877	3348449	2637
215	2017-09-09 19:21:01		0	0	0	0	0	0	2.77	1.35	0.06	143296	0	8362	98841	143296	134934	1934	222	433	48	92877	3348494	2637
216	2017-09-09 19:32:35		0	0	0	0	0	0	2.77	1.35	0.06	143310	0	8364	98841	143310	134946	1934	222	433	48	92877	3348511	2637
217	2017-09-09 19:43:55		0	0	0	0	0	0	2.77	1.35	0.06	143326	0	8367	98891	143326	134960	1934	222	433	48	92921	3348529	2637
218	2017-09-09 20:09:26		0	0	0	0	0	0	2.77	1.35	0.06	143371	0	8372	98891	143371	134999	1934	222	433	48	92921	3348580	2637
219	2017-09-09 20:17:40		0	0	0	0	0	0	2.77	1.35	0.06	143395	0	8375	98891	143395	135020	1935	222	433	48	92921	3348597	2638
220	2017-09-09 20:30:59		0	0	0	0	0	0	2.77	1.35	0.06	143421	0	8381	98891	143421	135040	1935	222	433	48	92921	3348620	2638
221	2017-09-09 20:44:26		0	0	0	0	0	0	2.77	1.35	0.06	143450	0	8386	98891	143450	135064	1935	222	434	48	92921	3348642	2639
222	2017-09-09 21:00:13		0	0	0	0	0	0	2.78	1.35	0.06	143492	0	8394	98993	143492	135098	1936	222	434	48	93011	3348667	2640
223	2017-09-09 21:13:09		0	0	0	0	0	0	2.78	1.35	0.06	143509	0	8395	98993	143509	135114	1937	222	434	48	93011	3348700	2641
224	2017-09-09 21:55:47		0	0	0	0	0	0	2.78	1.35	0.06	143586	0	8405	98993	143586	135181	1938	222	434	48	93011	3348792	2642
225	2017-09-09 21:59:47		0	0	0	0	0	0	2.78	1.35	0.06	143604	0	8405	98993	143604	135199	1938	222	434	48	93011	3348802	2642
226	2017-09-09 22:10:54		0	0	0	0	0	0	2.78	1.35	0.06	143624	0	8408	99037	143624	135216	1938	222	434	48	93050	3348826	2642
227	2017-09-09 22:22:12		0	0	0	0	0	0	2.78	1.35	0.06	143650	0	8411	99037	143650	135239	1939	222	434	48	93050	3348843	2643
228	2017-09-09 22:48:38		0	0	0	0	0	0	2.78	1.35	0.06	143709	0	8419	99037	143709	135290	1940	222	434	48	93050	3348901	2644
229	2017-09-09 23:03:22		0	0	0	0	0	0	2.78	1.35	0.06	143742	0	8420	99088	143742	135322	1940	222	434	48	93095	3348937	2644
230	2017-09-09 23:10:51		0	0	0	0	0	0	2.78	1.35	0.06	143768	0	8424	99088	143768	135344	1940	222	434	48	93095	3348945	2644
231	2017-09-09 23:23:43		0	0	0	0	0	0	2.78	1.35	0.06	143784	0	8427	99088	143784	135357	1940	222	434	48	93095	3348973	2644
232	2017-09-10 00:00:27		0	0	0	0	0	0	2.78	1.35	0.06	143851	0	8432	99164	143851	135419	1941	222	434	48	93162	3349050	2645
233	2017-09-10 00:54:31		0	0	0	0	0	0	2.79	1.35	0.06	143927	0	8439	99355	143927	135488	1941	222	434	48	93330	3349138	2645
234	2017-09-10 02:13:30		0	0	0	0	0	0	2.79	1.35	0.06	143997	0	8446	99527	143997	135551	1941	222	434	48	93460	3349221	2645
235	2017-09-10 03:28:10		0	0	0	0	0	0	2.79	1.35	0.06	144044	0	8447	99527	144044	135597	1942	222	434	48	93460	3349257	2646
236	2017-09-10 04:33:43		0	0	0	0	0	0	2.79	1.35	0.06	144058	0	8448	99527	144058	135610	1942	222	434	48	93460	3349274	2646
237	2017-09-10 06:09:58		0	0	0	0	0	0	2.79	1.35	0.06	144078	0	8451	99527	144078	135627	1942	222	434	48	93460	3349289	2646
238	2017-09-10 07:10:12		0	0	0	0	0	0	2.79	1.35	0.06	144094	0	8452	99527	144094	135642	1942	222	434	48	93460	3349297	2646
239	2017-09-10 07:23:32		0	0	0	0	0	0	2.79	1.35	0.06	144102	0	8452	99527	144102	135650	1942	222	434	48	93460	3349305	2646
240	2017-09-10 07:35:17		0	0	0	0	0	0	2.79	1.35	0.06	144103	0	8452	99527	144103	135651	1943	222	434	48	93460	3349315	2647
241	2017-09-10 07:47:39		0	0	0	0	0	0	2.79	1.35	0.06	144114	0	8453	99527	144114	135661	1943	222	434	48	93460	3349319	2647
242	2017-09-10 07:58:53		0	0	0	0	0	0	2.79	1.35	0.06	144128	0	8456	99527	144128	135672	1943	222	434	48	93460	3349321	2647
