1	2018-05-01 11:30:15		0	0	0	0	0	0	0.16	0.35	0	7356	0	17	6232	7356	7356	26	13	27	2	6037	3718793	68
2	2018-05-01 11:40:15		0	0	0	0	0	0	0.34	0.43	0.01	15998	0	92	13073	15998	15998	69	36	48	5	12617	3718812	158
3	2018-05-01 11:50:16		0	0	0	0	0	0	0.47	0.48	0.01	22221	0	210	18505	22221	22221	106	52	72	7	17626	3718829	237
4	2018-05-01 12:00:16		0	0	0	0	0	0	0.58	0.53	0.01	27371	0	363	22691	27371	27371	146	67	88	7	21577	3718858	308
5	2018-05-01 12:10:19		0	0	0	0	0	0	0.66	0.56	0.02	32018	0	547	25939	32018	32018	180	85	103	12	24472	3718888	380
6	2018-05-01 12:20:17		0	0	0	0	0	0	0.74	0.59	0.02	36341	0	748	29213	36341	36341	215	93	124	12	27441	3718909	444
7	2018-05-01 12:30:17		0	0	0	0	0	0	0.8	0.61	0.02	40117	0	928	30596	40117	40117	246	103	137	12	29920	3718923	498
8	2018-05-01 12:40:18		0	0	0	0	0	0	0.85	0.64	0.03	42858	0	1111	33717	42858	42858	275	110	145	12	31558	3718933	542
9	2018-05-01 12:50:24		0	0	0	0	0	0	0.9	0.68	0.03	45446	0	1342	35988	45446	45446	307	118	151	12	33591	3718954	588
10	2018-05-01 13:00:22		0	0	0	0	0	0	0.94	0.7	0.03	47950	0	1559	37596	47950	47950	335	124	154	13	35045	3718974	626
11	2018-05-01 13:10:30		0	0	0	0	0	0	0.98	0.72	0.04	50030	0	1766	38317	50030	50030	362	128	158	12	36281	3718986	660
12	2018-05-01 13:20:22		0	0	0	0	0	0	1.01	0.73	0.04	52146	0	1943	40861	52146	52146	383	133	166	12	37600	3719008	694
13	2018-05-01 13:30:21		0	0	0	0	0	0	1.05	0.75	0.04	53984	0	2118	41522	53984	53984	407	140	168	12	38991	3719025	727
14	2018-05-01 13:40:22		0	0	0	0	0	0	1.08	0.74	0.04	55736	0	2300	43692	55736	55736	415	142	171	13	40317	3719044	741
15	2018-05-01 13:50:22		0	0	0	0	0	0	1.11	0.75	0.04	57363	0	2463	45053	57363	57363	428	148	174	13	41293	3719061	763
16	2018-05-01 14:00:23		0	0	0	0	0	0	1.14	0.74	0.04	58842	0	2616	46477	58842	58842	436	157	178	14	42477	3719073	785
17	2018-05-01 14:10:24		0	0	0	0	0	0	1.18	0.74	0.05	60214	0	2775	48003	60214	60214	445	159	182	14	43745	3719080	800
18	2018-05-01 14:20:23		0	0	0	0	0	0	1.2	0.73	0.05	61666	0	2972	49047	61666	61666	451	162	183	15	44546	3719097	811
19	2018-05-01 14:30:24		0	0	0	0	0	0	1.22	0.73	0.05	63110	0	3120	49781	63110	63110	458	169	189	15	45375	3719114	831
20	2018-05-01 14:40:28		0	0	0	0	0	0	1.24	0.72	0.05	64635	0	3286	51169	64635	64635	463	171	196	15	46298	3719129	845
21	2018-05-01 14:50:26		0	0	0	0	0	0	1.27	0.72	0.05	66133	0	3453	52099	66133	66133	475	175	202	16	47115	3719141	868
22	2018-05-01 15:00:29		0	0	0	0	0	0	1.28	0.71	0.05	67585	0	3602	52753	67585	67585	481	178	203	20	47638	3719151	882
23	2018-05-01 15:10:29		0	0	0	0	0	0	1.3	0.7	0.05	69004	0	3721	53681	69004	69004	486	178	205	21	48435	3719164	890
24	2018-05-01 15:20:27		0	0	0	0	0	0	1.33	0.7	0.05	70339	0	3829	54583	70339	70339	493	180	212	21	49444	3719179	906
25	2018-05-01 15:30:28		0	0	0	0	0	0	1.35	0.7	0.06	71792	0	3992	55940	71792	71792	500	185	214	22	50301	3719185	921
26	2018-05-01 15:40:28		0	0	0	0	0	0	1.38	0.69	0.06	73105	0	4128	56458	73105	73105	506	189	214	22	51166	3719211	931
27	2018-05-01 15:50:28		0	0	0	0	0	0	1.4	0.69	0.06	74520	0	4266	58015	74520	74520	515	190	215	23	52063	3719226	943
28	2018-05-01 16:00:28		0	0	0	0	0	0	1.42	0.68	0.06	75900	0	4406	58883	75900	75900	517	191	217	23	52978	3719237	948
29	2018-05-01 16:10:31		0	0	0	0	0	0	1.44	0.68	0.06	77095	0	4536	59241	77095	77095	521	191	219	23	53583	3719255	954
30	2018-05-01 16:20:29		0	0	0	0	0	0	1.45	0.67	0.06	78283	0	4669	60118	78283	78283	525	194	222	23	54104	3719269	964
31	2018-05-01 16:30:30		0	0	0	0	0	0	1.48	0.67	0.06	79450	0	4800	61150	79450	79450	534	195	225	24	54921	3719283	978
32	2018-05-01 16:40:31		0	0	0	0	0	0	1.49	0.67	0.06	80606	0	4920	61789	80606	80606	543	197	228	24	55551	3719297	992
33	2018-05-01 16:50:35		0	0	0	0	0	0	1.51	0.67	0.06	81818	0	5038	62162	81818	81818	546	198	231	24	56056	3719327	999
34	2018-05-01 17:00:43		0	0	0	0	0	0	1.52	0.66	0.06	82971	0	5151	63607	82971	82971	551	204	237	24	56680	3719343	1016
35	2018-05-01 17:10:33		0	0	0	0	0	0	1.56	0.66	0.06	84130	0	5250	64562	84130	84130	556	205	238	24	57866	3719355	1023
36	2018-05-01 17:20:32		0	0	0	0	0	0	1.58	0.66	0.06	85326	0	5341	65463	85326	85326	561	206	238	24	58589	3719369	1029
37	2018-05-01 17:30:33		0	0	0	0	0	0	1.59	0.65	0.06	86511	0	5455	66029	86511	86511	563	208	239	24	59169	3719391	1034
38	2018-05-01 17:40:33		0	0	0	0	0	0	1.61	0.65	0.06	87658	0	5569	66746	87658	87658	569	211	239	25	59845	3719407	1044
39	2018-05-01 17:50:34		0	0	0	0	0	0	1.62	0.64	0.06	88838	0	5700	67451	88838	88838	573	214	239	25	60431	3719420	1051
40	2018-05-01 18:00:35		0	0	0	0	0	0	1.65	0.64	0.06	90106	0	5822	68490	90106	90106	578	215	240	25	61391	3719439	1058
41	2018-05-01 18:10:35		0	0	0	0	0	0	1.66	0.64	0.07	91243	0	5968	68820	91243	91243	580	215	242	25	61609	3719460	1062
42	2018-05-01 18:20:36		0	0	0	0	0	0	1.67	0.64	0.07	92343	0	6078	69470	92343	92343	589	216	242	25	62131	3719462	1072
43	2018-05-01 18:30:36		0	0	0	0	0	0	1.68	0.64	0.07	93397	0	6183	70004	93397	93397	594	216	245	25	62553	3719468	1080
44	2018-05-01 18:40:41		0	0	0	0	0	0	1.7	0.63	0.07	94570	0	6309	70905	94570	94570	598	216	247	25	63274	3719483	1086
45	2018-05-01 18:50:40		0	0	0	0	0	0	1.72	0.63	0.07	95645	0	6422	71593	95645	95645	602	220	250	25	63810	3719499	1097
46	2018-05-01 19:00:41		0	0	0	0	0	0	1.74	0.62	0.07	96695	0	6512	72556	96695	96695	604	223	254	25	64596	3719513	1106
47	2018-05-01 19:10:43		0	0	0	0	0	0	1.75	0.63	0.07	97637	0	6618	72899	97637	97637	611	226	257	25	65031	3719523	1119
48	2018-05-01 19:20:42		0	0	0	0	0	0	1.76	0.62	0.07	98643	0	6727	73529	98643	98643	615	227	259	25	65493	3719536	1126
49	2018-05-01 19:30:45		0	0	0	0	0	0	1.78	0.62	0.07	99581	0	6816	74199	99581	99581	617	230	263	26	66035	3719554	1136
50	2018-05-01 19:40:43		0	0	0	0	0	0	1.81	0.62	0.07	100616	0	6908	75203	100616	100616	626	231	266	26	67195	3719567	1149
51	2018-05-01 19:50:43		0	0	0	0	0	0	1.84	0.62	0.07	101845	0	7047	76404	101845	101845	627	234	269	26	68433	3719591	1156
52	2018-05-01 20:00:44		0	0	0	0	0	0	1.87	0.61	0.07	102959	0	7183	77701	102959	102959	631	236	270	26	69496	3719611	1163
53	2018-05-01 20:10:47		0	0	0	0	0	0	1.9	0.61	0.07	104854	0	7348	78628	104854	104854	638	243	276	26	70550	3719624	1183
54	2018-05-01 20:20:46		0	0	0	0	0	0	1.92	0.6	0.07	106217	0	7491	79750	106217	106217	641	249	278	26	71479	3719640	1194
55	2018-05-01 20:30:46		0	0	0	0	0	0	1.95	0.6	0.07	107835	0	7647	81194	107835	107835	652	251	284	27	72487	3719660	1214
56	2018-05-01 20:40:47		0	0	0	0	0	0	1.98	0.6	0.07	109541	0	7800	82291	109541	109541	659	255	287	27	73562	3719676	1228
57	2018-05-01 20:50:47		0	0	0	0	0	0	2.01	0.6	0.07	111543	0	7992	83482	111543	111543	664	257	290	27	74797	3719695	1238
58	2018-05-01 21:00:49		0	0	0	0	0	0	2.03	0.59	0.07	113022	0	8170	84229	113022	113022	668	260	295	27	75647	3719713	1250
59	2018-05-01 21:10:49		0	0	0	0	0	0	2.05	0.59	0.07	114255	0	8361	85067	114255	114255	671	263	295	27	76351	3719725	1256
60	2018-05-01 21:20:49		0	0	0	0	0	0	2.07	0.58	0.07	115497	0	8518	85921	115497	115497	675	267	301	27	76993	3719737	1270
61	2018-05-01 21:30:50		0	0	0	0	0	0	2.1	0.58	0.07	116801	0	8675	87167	116801	116801	679	269	305	27	78118	3719758	1280
62	2018-05-01 21:40:50		0	0	0	0	0	0	2.11	0.58	0.08	117996	0	8860	87901	117996	117996	685	273	308	28	78643	3719781	1294
63	2018-05-01 21:50:50		0	0	0	0	0	0	2.13	0.58	0.08	119013	0	9072	88393	119013	119013	689	277	314	28	79069	3719806	1308
64	2018-05-01 22:00:51		0	0	0	0	0	0	2.13	0.58	0.08	119948	0	9264	88763	119948	119948	690	280	315	28	79340	3719843	1313
65	2018-05-01 22:10:54		0	0	0	0	0	0	2.14	0.57	0.08	120810	0	9445	89161	120810	120810	694	280	317	28	79634	3719859	1319
66	2018-05-01 22:20:52		0	0	0	0	0	0	2.15	0.58	0.08	121585	0	9653	89686	121585	121585	703	283	318	28	80019	3719879	1332
67	2018-05-01 22:31:05		0	0	0	0	0	0	2.17	0.58	0.08	122459	0	9850	90443	122459	122459	706	284	320	30	80563	3719902	1340
68	2018-05-01 22:40:53		0	0	0	0	0	0	2.18	0.58	0.08	123402	0	10028	91055	123402	123402	710	286	323	30	81001	3719919	1349
69	2018-05-01 22:50:54		0	0	0	0	0	0	2.19	0.57	0.08	124327	0	10191	91713	124327	124327	713	288	325	30	81478	3719933	1356
70	2018-05-01 23:00:56		0	0	0	0	0	0	2.21	0.57	0.08	125249	0	10401	92724	125249	125249	716	290	327	30	82159	3719956	1363
71	2018-05-01 23:10:56		0	0	0	0	0	0	2.22	0.57	0.08	126000	0	10559	93191	126000	126000	718	290	328	30	82421	3719977	1366
72	2018-05-01 23:20:57		0	0	0	0	0	0	2.22	0.57	0.08	126735	0	10702	93365	126735	126735	722	290	329	30	82676	3720001	1371
73	2018-05-01 23:30:57		0	0	0	0	0	0	2.24	0.57	0.09	127423	0	10842	93980	127423	127423	723	293	331	30	83229	3720021	1377
74	2018-05-01 23:40:55		0	0	0	0	0	0	2.25	0.57	0.09	128091	0	10985	94507	128091	128091	724	295	333	30	83586	3720036	1382
75	2018-05-01 23:50:56		0	0	0	0	0	0	2.26	0.56	0.09	128683	0	11092	94887	128683	128683	727	296	335	30	83951	3720055	1388
76	2018-05-02 00:00:58		0	0	0	0	0	0	2.27	0.56	0.09	129206	0	11203	95357	129206	129206	730	296	337	30	84298	3720070	1393
77	2018-05-02 00:10:58		0	0	0	0	0	0	2.28	0.56	0.09	129729	0	11287	95853	129729	129729	731	297	339	30	84867	3720081	1397
78	2018-05-02 00:20:57		0	0	0	0	0	0	2.29	0.56	0.09	130186	0	11355	97126	130186	130186	733	299	339	30	85362	3720086	1401
79	2018-05-02 00:30:58		0	0	0	0	0	0	2.3	0.56	0.09	130631	0	11432	97431	130631	130631	735	302	339	30	85598	3720092	1406
80	2018-05-02 00:40:58		0	0	0	0	0	0	2.32	0.56	0.09	130996	0	11492	97628	130996	130996	736	302	342	30	86198	3720110	1410
81	2018-05-02 00:50:58		0	0	0	0	0	0	2.32	0.56	0.09	131366	0	11550	97893	131366	131366	736	302	342	30	86404	3720118	1410
82	2018-05-02 01:00:59		0	0	0	0	0	0	2.33	0.56	0.09	131722	0	11604	98078	131722	131722	737	302	344	30	86515	3720131	1413
83	2018-05-02 01:10:59		0	0	0	0	0	0	2.34	0.56	0.09	132001	0	11655	98340	132001	132001	738	304	344	30	86894	3720142	1416
84	2018-05-02 01:20:59		0	0	0	0	0	0	2.34	0.56	0.09	132204	0	11689	98352	132204	132204	739	305	344	30	86903	3720150	1418
85	2018-05-02 01:31:03		0	0	0	0	0	0	2.34	0.56	0.09	132400	0	11719	98377	132400	132400	740	306	344	30	86991	3720152	1420
86	2018-05-02 01:41:01		0	0	0	0	0	0	2.34	0.56	0.09	132590	0	11741	98779	132590	132590	741	306	346	30	87197	3720157	1423
87	2018-05-02 01:51:01		0	0	0	0	0	0	2.34	0.56	0.09	132737	0	11767	98930	132737	132737	741	306	346	30	87197	3720158	1423
88	2018-05-02 02:01:03		0	0	0	0	0	0	2.35	0.56	0.09	132865	0	11780	99032	132865	132865	742	306	347	30	87315	3720156	1425
89	2018-05-02 02:11:05		0	0	0	0	0	0	2.35	0.56	0.09	132986	0	11797	99260	132986	132986	742	306	349	30	87492	3720160	1427
90	2018-05-02 02:21:03		0	0	0	0	0	0	2.35	0.56	0.09	133123	0	11814	99260	133123	133123	742	306	349	30	87492	3720164	1427
91	2018-05-02 02:31:03		0	0	0	0	0	0	2.36	0.56	0.09	133244	0	11827	99413	133244	133244	742	306	349	30	87611	3720166	1427
92	2018-05-02 02:41:03		0	0	0	0	0	0	2.36	0.56	0.09	133345	0	11840	99464	133345	133345	742	306	350	30	87611	3720166	1428
93	2018-05-02 02:51:04		0	0	0	0	0	0	2.36	0.56	0.09	133437	0	11858	99515	133437	133437	742	306	350	30	87611	3720163	1428
94	2018-05-02 03:01:05		0	0	0	0	0	0	2.36	0.56	0.09	133490	0	11862	99515	133490	133490	742	307	350	30	87611	3720164	1429
95	2018-05-02 03:11:05		0	0	0	0	0	0	2.36	0.56	0.09	133547	0	11869	99515	133547	133547	742	307	350	30	87611	3720161	1429
96	2018-05-02 03:21:06		0	0	0	0	0	0	2.36	0.56	0.09	133604	0	11882	99617	133604	133604	742	307	350	30	87691	3720149	1429
97	2018-05-02 03:31:22		0	0	0	0	0	0	2.36	0.56	0.09	133656	0	11891	99617	133656	133656	743	307	350	30	87730	3720149	1430
98	2018-05-02 03:41:08		0	0	0	0	0	0	2.36	0.56	0.09	133717	0	11902	99813	133717	133717	744	307	350	30	87882	3720147	1431
99	2018-05-02 03:51:17		0	0	0	0	0	0	2.36	0.56	0.09	133762	0	11910	99813	133762	133762	745	307	351	30	87882	3720143	1433
100	2018-05-02 04:01:09		0	0	0	0	0	0	2.36	0.56	0.09	133823	0	11923	99813	133823	133823	745	307	352	30	87882	3720140	1434
101	2018-05-02 04:11:08		0	0	0	0	0	0	2.36	0.56	0.09	133875	0	11931	99942	133875	133875	745	308	352	30	87912	3720138	1435
102	2018-05-02 04:21:08		0	0	0	0	0	0	2.36	0.56	0.09	133919	0	11935	99942	133919	133919	745	309	352	30	87912	3720138	1436
103	2018-05-02 04:31:09		0	0	0	0	0	0	2.37	0.56	0.09	133968	0	11938	100172	133968	133968	745	309	352	30	88072	3720139	1436
104	2018-05-02 04:41:09		0	0	0	0	0	0	2.37	0.56	0.09	134012	0	11944	100172	134012	134012	746	309	352	30	88072	3720138	1437
105	2018-05-02 04:51:10		0	0	0	0	0	0	2.37	0.56	0.09	134060	0	11953	100172	134060	134060	746	310	353	30	88072	3720141	1439
106	2018-05-02 05:01:11		0	0	0	0	0	0	2.37	0.56	0.09	134110	0	11964	100276	134110	134110	747	310	353	30	88072	3720143	1440
107	2018-05-02 05:11:11		0	0	0	0	0	0	2.37	0.56	0.09	134169	0	11981	100276	134169	134169	747	310	353	30	88072	3720145	1440
108	2018-05-02 05:21:14		0	0	0	0	0	0	2.37	0.56	0.09	134231	0	11991	100302	134231	134231	747	310	354	30	88132	3720147	1441
109	2018-05-02 05:31:14		0	0	0	0	0	0	2.37	0.56	0.09	134299	0	12002	100302	134299	134299	747	310	354	30	88132	3720146	1441
110	2018-05-02 05:41:21		0	0	0	0	0	0	2.37	0.56	0.09	134358	0	12010	100302	134358	134358	748	312	355	30	88132	3720149	1445
111	2018-05-02 05:51:13		0	0	0	0	0	0	2.37	0.56	0.09	134427	0	12029	100341	134427	134427	749	312	355	30	88132	3720154	1446
112	2018-05-02 06:01:14		0	0	0	0	0	0	2.37	0.56	0.09	134485	0	12040	100341	134485	134485	749	312	355	30	88132	3720158	1446
113	2018-05-02 06:11:14		0	0	0	0	0	0	2.37	0.56	0.09	134557	0	12056	100380	134557	134557	749	312	355	30	88163	3720162	1446
114	2018-05-02 06:21:15		0	0	0	0	0	0	2.37	0.56	0.09	134649	0	12078	100484	134649	134649	749	312	355	30	88323	3720166	1446
115	2018-05-02 06:31:15		0	0	0	0	0	0	2.38	0.56	0.09	134765	0	12118	100510	134765	134765	749	312	355	30	88465	3720171	1446
116	2018-05-02 06:41:16		0	0	0	0	0	0	2.38	0.56	0.09	134876	0	12157	100536	134876	134876	750	312	355	30	88485	3720173	1447
117	2018-05-02 06:51:16		0	0	0	0	0	0	2.38	0.56	0.09	134995	0	12181	100588	134995	134995	750	312	355	30	88526	3720180	1447
118	2018-05-02 07:01:18		0	0	0	0	0	0	2.38	0.56	0.09	135135	0	12226	100745	135135	135135	750	312	355	30	88647	3720185	1447
119	2018-05-02 07:11:18		0	0	0	0	0	0	2.38	0.56	0.09	135281	0	12268	100841	135281	135281	751	312	355	30	88690	3720192	1448
120	2018-05-02 07:21:21		0	0	0	0	0	0	2.39	0.55	0.09	135437	0	12316	101235	135437	135437	751	312	356	30	88976	3720194	1449
121	2018-05-02 07:31:20		0	0	0	0	0	0	2.39	0.56	0.09	135637	0	12377	101235	135637	135637	753	315	356	30	88976	3720201	1454
122	2018-05-02 07:41:21		0	0	0	0	0	0	2.39	0.55	0.09	135806	0	12413	101354	135806	135806	753	315	357	30	89047	3720213	1455
123	2018-05-02 07:51:20		0	0	0	0	0	0	2.39	0.55	0.09	136013	0	12465	101430	136013	136013	753	318	357	30	89088	3720215	1458
124	2018-05-02 08:01:20		0	0	0	0	0	0	2.4	0.55	0.09	136208	0	12516	101650	136208	136208	754	318	357	30	89186	3720238	1459
125	2018-05-02 08:11:21		0	0	0	0	0	0	2.4	0.55	0.09	136392	0	12575	101824	136392	136392	756	318	357	30	89242	3720253	1461
126	2018-05-02 08:21:20		0	0	0	0	0	0	2.4	0.55	0.09	136612	0	12640	101889	136612	136612	758	320	357	30	89283	3720267	1465
127	2018-05-02 08:31:21		0	0	0	0	0	0	2.4	0.55	0.09	136826	0	12705	101902	136826	136826	759	320	358	30	89294	3720282	1467
128	2018-05-02 08:41:22		0	0	0	0	0	0	2.41	0.55	0.09	137048	0	12765	101969	137048	137048	759	320	358	30	89511	3720295	1467
129	2018-05-02 08:51:23		0	0	0	0	0	0	2.41	0.55	0.09	137304	0	12824	102070	137304	137304	760	320	358	30	89671	3720306	1468
130	2018-05-02 09:01:24		0	0	0	0	0	0	2.41	0.55	0.09	137526	0	12886	102192	137526	137526	761	321	358	30	89734	3720318	1470
131	2018-05-02 09:11:25		0	0	0	0	0	0	2.41	0.55	0.09	137772	0	12977	102246	137772	137772	761	325	358	30	89775	3720330	1474
132	2018-05-02 09:21:25		0	0	0	0	0	0	2.41	0.55	0.09	137969	0	13039	102246	137969	137969	763	325	358	30	89775	3720346	1476
133	2018-05-02 09:31:26		0	0	0	0	0	0	2.42	0.55	0.09	138168	0	13100	102435	138168	138168	764	327	359	30	89942	3720352	1480
134	2018-05-02 09:41:25		0	0	0	0	0	0	2.42	0.55	0.1	138375	0	13166	102489	138375	138375	766	329	360	30	89942	3720367	1485
135	2018-05-02 09:51:26		0	0	0	0	0	0	2.42	0.56	0.1	138615	0	13235	102830	138615	138615	771	331	361	31	90120	3720389	1494
136	2018-05-02 10:01:27		0	0	0	0	0	0	2.43	0.56	0.1	138794	0	13282	103379	138794	138794	772	332	361	31	90288	3720390	1496
137	2018-05-02 10:12:19		0	0	0	0	0	0	2.43	0.56	0.1	138998	0	13352	103572	138998	138998	774	334	363	31	90415	3720410	1502
138	2018-05-02 10:21:44		0	0	0	0	0	0	2.43	0.56	0.1	139221	0	13420	103676	139221	139221	776	335	365	31	90494	3720432	1507
139	2018-05-02 10:31:45		0	0	0	0	0	0	2.44	0.56	0.1	139391	0	13466	103787	139391	139391	778	335	365	31	90621	3720448	1509
140	2018-05-02 10:41:45		0	0	0	0	0	0	2.44	0.56	0.1	139557	0	13512	104087	139557	139557	778	335	365	31	90850	3720468	1509
141	2018-05-02 10:51:46		0	0	0	0	0	0	2.45	0.56	0.1	139719	0	13567	104446	139719	139719	779	336	365	31	91166	3720484	1511
142	2018-05-02 11:01:49		0	0	0	0	0	0	2.45	0.56	0.1	139904	0	13617	104446	139904	139904	780	336	367	31	91166	3720506	1514
143	2018-05-02 11:12:05		0	0	0	0	0	0	2.45	0.56	0.1	140055	0	13675	104446	140055	140055	781	336	367	31	91198	3720520	1515
144	2018-05-02 11:21:51		0	0	0	0	0	0	2.45	0.56	0.1	140251	0	13739	104513	140251	140251	783	338	368	31	91249	3720535	1520
145	2018-05-02 11:31:51		0	0	0	0	0	0	2.45	0.56	0.1	140428	0	13797	104611	140428	140428	783	338	368	31	91324	3720548	1520
146	2018-05-02 11:41:50		0	0	0	0	0	0	2.46	0.56	0.1	140580	0	13841	104781	140580	140580	784	338	368	31	91400	3720556	1521
147	2018-05-02 11:51:51		0	0	0	0	0	0	2.46	0.56	0.1	140738	0	13894	104792	140738	140738	784	338	370	32	91408	3720565	1524
148	2018-05-02 12:01:53		0	0	0	0	0	0	2.46	0.56	0.1	140857	0	13939	104806	140857	140857	784	338	371	32	91408	3720584	1525
149	2018-05-02 12:11:51		0	0	0	0	0	0	2.46	0.56	0.1	140987	0	13991	105004	140987	140987	786	338	373	32	91537	3720606	1529
150	2018-05-02 12:21:51		0	0	0	0	0	0	2.46	0.56	0.1	141098	0	14045	105118	141098	141098	787	338	374	32	91537	3720614	1531
151	2018-05-02 12:31:52		0	0	0	0	0	0	2.46	0.56	0.1	141213	0	14102	105118	141213	141213	787	340	374	32	91575	3720636	1533
152	2018-05-02 12:41:52		0	0	0	0	0	0	2.46	0.56	0.1	141337	0	14165	105118	141337	141337	787	340	374	32	91575	3720662	1533
153	2018-05-02 12:52:00		0	0	0	0	0	0	2.46	0.56	0.1	141468	0	14227	105318	141468	141468	788	340	374	32	91618	3720673	1534
154	2018-05-02 13:01:56		0	0	0	0	0	0	2.47	0.56	0.1	141577	0	14274	105404	141577	141577	789	340	375	32	91814	3720681	1536
155	2018-05-02 13:11:59		0	0	0	0	0	0	2.47	0.56	0.1	141676	0	14327	105462	141676	141676	790	340	375	32	91814	3720690	1537
156	2018-05-02 13:22:06		0	0	0	0	0	0	2.47	0.56	0.1	141786	0	14384	105548	141786	141786	790	342	375	32	91879	3720701	1539
157	2018-05-02 13:32:00		0	0	0	0	0	0	2.47	0.56	0.1	141885	0	14427	105548	141885	141885	790	342	375	32	91879	3720714	1539
158	2018-05-02 13:41:57		0	0	0	0	0	0	2.47	0.56	0.1	141987	0	14476	105952	141987	141987	790	342	375	32	92076	3720727	1539
159	2018-05-02 13:51:57		0	0	0	0	0	0	2.47	0.56	0.1	142080	0	14515	105952	142080	142080	792	342	375	32	92076	3720732	1541
160	2018-05-02 14:01:58		0	0	0	0	0	0	2.47	0.56	0.1	142181	0	14560	105952	142181	142181	793	345	376	32	92076	3720743	1546
161	2018-05-02 14:11:58		0	0	0	0	0	0	2.47	0.56	0.1	142248	0	14601	105952	142248	142248	793	345	377	32	92076	3720755	1547
162	2018-05-02 14:21:59		0	0	0	0	0	0	2.47	0.56	0.1	142342	0	14637	105952	142342	142342	793	345	377	32	92076	3720768	1547
163	2018-05-02 14:31:59		0	0	0	0	0	0	2.48	0.56	0.1	142445	0	14668	105952	142445	142445	793	346	378	32	92120	3720789	1549
164	2018-05-02 14:42:01		0	0	0	0	0	0	2.48	0.56	0.1	142533	0	14703	106068	142533	142533	793	346	378	32	92207	3720807	1549
165	2018-05-02 14:52:02		0	0	0	0	0	0	2.48	0.56	0.1	142654	0	14744	106068	142654	142654	794	348	378	32	92207	3720824	1552
166	2018-05-02 15:02:04		0	0	0	0	0	0	2.49	0.56	0.1	142741	0	14775	106313	142741	142741	794	348	378	32	92569	3720829	1552
167	2018-05-02 15:12:04		0	0	0	0	0	0	2.49	0.56	0.1	142828	0	14819	106313	142828	142828	796	348	378	32	92569	3720851	1554
168	2018-05-02 15:22:03		0	0	0	0	0	0	2.49	0.56	0.1	142907	0	14859	106430	142907	142907	796	348	378	32	92658	3720861	1554
169	2018-05-02 15:32:13		0	0	0	0	0	0	2.49	0.56	0.1	142989	0	14907	106430	142989	142989	796	348	378	32	92658	3720884	1554
170	2018-05-02 15:42:05		0	0	0	0	0	0	2.49	0.56	0.1	143085	0	14957	106716	143085	143085	796	348	378	32	92835	3720899	1554
171	2018-05-02 15:52:09		0	0	0	0	0	0	2.5	0.56	0.1	143186	0	14994	106892	143186	143186	797	348	378	32	92924	3720920	1555
172	2018-05-02 16:02:09		0	0	0	0	0	0	2.5	0.56	0.1	143287	0	15040	106952	143287	143287	798	348	379	32	92924	3720931	1557
173	2018-05-02 16:12:06		0	0	0	0	0	0	2.5	0.56	0.11	143375	0	15086	106952	143375	143375	800	348	379	32	92924	3720941	1559
174	2018-05-02 16:22:06		0	0	0	0	0	0	2.5	0.56	0.11	143493	0	15124	107007	143493	143493	800	348	379	32	92924	3720956	1559
175	2018-05-02 16:32:12		0	0	0	0	0	0	2.5	0.56	0.11	143580	0	15160	107222	143580	143580	800	348	379	32	93086	3720973	1559
176	2018-05-02 16:42:08		0	0	0	0	0	0	2.5	0.56	0.11	143657	0	15190	107233	143657	143657	800	348	379	32	93095	3720985	1559
177	2018-05-02 16:52:10		0	0	0	0	0	0	2.5	0.56	0.11	143756	0	15230	107233	143756	143756	800	350	379	32	93095	3720994	1561
178	2018-05-02 17:02:11		0	0	0	0	0	0	2.5	0.56	0.11	143862	0	15277	107233	143862	143862	801	350	379	32	93095	3721009	1562
179	2018-05-02 17:12:10		0	0	0	0	0	0	2.5	0.56	0.11	143943	0	15324	107261	143943	143943	801	350	379	32	93095	3721021	1562
180	2018-05-02 17:22:10		0	0	0	0	0	0	2.5	0.56	0.11	144027	0	15360	107261	144027	144027	802	351	379	32	93095	3721042	1564
181	2018-05-02 17:32:10		0	0	0	0	0	0	2.5	0.56	0.11	144109	0	15400	107261	144109	144109	802	351	379	32	93095	3721062	1564
182	2018-05-02 17:42:11		0	0	0	0	0	0	2.5	0.56	0.11	144213	0	15446	107306	144213	144213	802	351	380	32	93095	3721071	1565
183	2018-05-02 17:52:12		0	0	0	0	0	0	2.5	0.56	0.11	144302	0	15489	107350	144302	144302	802	352	380	32	93128	3721085	1566
184	2018-05-02 18:02:12		0	0	0	0	0	0	2.5	0.56	0.11	144404	0	15535	107350	144404	144404	802	352	380	32	93128	3721107	1566
185	2018-05-02 18:12:12		0	0	0	0	0	0	2.5	0.56	0.11	144487	0	15577	107350	144487	144487	802	354	380	32	93128	3721125	1568
186	2018-05-02 18:22:13		0	0	0	0	0	0	2.5	0.56	0.11	144581	0	15632	107350	144581	144581	804	354	381	32	93128	3721139	1571
187	2018-05-02 18:32:13		0	0	0	0	0	0	2.5	0.56	0.11	144675	0	15668	107350	144675	144675	805	355	381	32	93128	3721163	1573
188	2018-05-02 18:42:22		0	0	0	0	0	0	2.51	0.56	0.11	144784	0	15703	107529	144784	144784	806	354	382	32	93263	3721183	1574
189	2018-05-02 18:52:18		0	0	0	0	0	0	2.51	0.56	0.11	144893	0	15769	107529	144893	144893	807	360	384	32	93263	3721209	1583
190	2018-05-02 19:02:20		0	0	0	0	0	0	2.51	0.56	0.11	144987	0	15823	107529	144987	144987	809	361	385	32	93263	3721227	1587
191	2018-05-02 19:12:19		0	0	0	0	0	0	2.51	0.56	0.11	145100	0	15889	107529	145100	145100	809	361	385	33	93353	3721245	1588
192	2018-05-02 19:22:20		0	0	0	0	0	0	2.51	0.56	0.11	145197	0	15929	107829	145197	145197	809	362	386	33	93420	3721262	1590
193	2018-05-02 19:32:21		0	0	0	0	0	0	2.51	0.56	0.11	145294	0	15977	107874	145294	145294	810	362	386	33	93454	3721278	1591
194	2018-05-02 19:42:21		0	0	0	0	0	0	2.51	0.56	0.11	145374	0	16001	108024	145374	145374	811	362	386	33	93522	3721287	1592
195	2018-05-02 19:52:21		0	0	0	0	0	0	2.52	0.56	0.11	145450	0	16031	108236	145450	145450	813	363	386	33	93680	3721295	1595
196	2018-05-02 20:02:26		0	0	0	0	0	0	2.52	0.56	0.11	145544	0	16091	108236	145544	145544	814	363	386	33	93680	3721311	1596
197	2018-05-02 20:12:23		0	0	0	0	0	0	2.52	0.56	0.11	145613	0	16128	108296	145613	145613	814	363	386	33	93885	3721330	1596
198	2018-05-02 20:22:23		0	0	0	0	0	0	2.52	0.56	0.11	145678	0	16162	108327	145678	145678	814	363	386	33	93908	3721349	1596
199	2018-05-02 20:32:24		0	0	0	0	0	0	2.52	0.56	0.11	145735	0	16188	108327	145735	145735	814	363	386	33	93908	3721379	1596
200	2018-05-02 20:42:24		0	0	0	0	0	0	2.52	0.56	0.11	145830	0	16234	108387	145830	145830	814	363	386	33	93908	3721400	1596
201	2018-05-02 20:52:25		0	0	0	0	0	0	2.52	0.56	0.11	145923	0	16278	108387	145923	145923	816	363	386	33	93908	3721413	1598
202	2018-05-02 21:02:26		0	0	0	0	0	0	2.52	0.56	0.11	145992	0	16303	108448	145992	145992	816	363	386	33	93908	3721438	1598
203	2018-05-02 21:12:27		0	0	0	0	0	0	2.52	0.56	0.11	146077	0	16346	108494	146077	146077	816	363	386	33	93908	3721460	1598
204	2018-05-02 21:22:27		0	0	0	0	0	0	2.53	0.56	0.11	146166	0	16385	108768	146166	146166	818	363	386	34	94068	3721482	1601
205	2018-05-02 21:32:28		0	0	0	0	0	0	2.53	0.56	0.11	146257	0	16428	108982	146257	146257	819	363	386	34	94090	3721504	1602
206	2018-05-02 21:42:31		0	0	0	0	0	0	2.53	0.56	0.11	146335	0	16464	109105	146335	146335	820	363	386	34	94251	3721531	1603
207	2018-05-02 21:52:39		0	0	0	0	0	0	2.53	0.56	0.11	146460	0	16513	109257	146460	146460	820	364	387	34	94320	3721544	1605
208	2018-05-02 22:02:30		0	0	0	0	0	0	2.53	0.56	0.11	146550	0	16559	109257	146550	146550	820	364	388	34	94320	3721565	1606
209	2018-05-02 22:12:30		0	0	0	0	0	0	2.54	0.56	0.11	146628	0	16598	109443	146628	146628	820	364	388	34	94458	3721589	1606
210	2018-05-02 22:22:30		0	0	0	0	0	0	2.54	0.56	0.11	146719	0	16634	109505	146719	146719	820	364	388	34	94458	3721603	1606
211	2018-05-02 22:32:31		0	0	0	0	0	0	2.54	0.56	0.11	146807	0	16664	109532	146807	146807	821	364	388	34	94640	3721628	1607
212	2018-05-02 22:42:32		0	0	0	0	0	0	2.54	0.56	0.11	146915	0	16712	109532	146915	146915	822	364	389	34	94640	3721645	1609
213	2018-05-02 22:52:32		0	0	0	0	0	0	2.54	0.56	0.11	146988	0	16733	109532	146988	146988	823	364	389	34	94686	3721677	1610
214	2018-05-02 23:02:33		0	0	0	0	0	0	2.54	0.56	0.11	147048	0	16752	109532	147048	147048	823	364	389	34	94686	3721690	1610
215	2018-05-02 23:12:33		0	0	0	0	0	0	2.54	0.56	0.11	147125	0	16783	109532	147125	147125	823	365	389	34	94686	3721717	1611
216	2018-05-02 23:22:34		0	0	0	0	0	0	2.54	0.56	0.11	147190	0	16818	109532	147190	147190	823	365	389	34	94686	3721737	1611
217	2018-05-02 23:32:34		0	0	0	0	0	0	2.55	0.56	0.11	147266	0	16843	109594	147266	147266	823	365	391	34	94732	3721752	1613
218	2018-05-02 23:42:32		0	0	0	0	0	0	2.55	0.56	0.11	147334	0	16882	109594	147334	147334	823	366	391	34	94732	3721764	1614
219	2018-05-02 23:52:35		0	0	0	0	0	0	2.55	0.56	0.11	147386	0	16903	109652	147386	147386	823	367	391	34	94776	3721779	1615
220	2018-05-03 00:02:36		0	0	0	0	0	0	2.55	0.56	0.11	147450	0	16931	109652	147450	147450	823	367	391	34	94776	3721789	1615
221	2018-05-03 00:12:34		0	0	0	0	0	0	2.55	0.56	0.11	147496	0	16953	109652	147496	147496	823	367	391	34	94776	3721799	1615
222	2018-05-03 00:22:35		0	0	0	0	0	0	2.55	0.56	0.12	147545	0	16968	109652	147545	147545	823	367	391	34	94776	3721817	1615
223	2018-05-03 00:32:34		0	0	0	0	0	0	2.55	0.56	0.12	147581	0	16987	109652	147581	147581	823	367	391	34	94776	3721823	1615
224	2018-05-03 00:42:34		0	0	0	0	0	0	2.55	0.56	0.12	147603	0	16996	109652	147603	147603	823	367	391	34	94776	3721829	1615
225	2018-05-03 00:52:35		0	0	0	0	0	0	2.55	0.56	0.12	147631	0	17007	109712	147631	147631	823	367	391	34	94867	3721835	1615
226	2018-05-03 01:02:36		0	0	0	0	0	0	2.55	0.56	0.12	147655	0	17022	109712	147655	147655	823	367	391	34	94867	3721835	1615
227	2018-05-03 01:12:36		0	0	0	0	0	0	2.55	0.56	0.12	147681	0	17031	109759	147681	147681	823	367	391	34	94867	3721840	1615
228	2018-05-03 01:22:36		0	0	0	0	0	0	2.55	0.56	0.12	147702	0	17040	109759	147702	147702	823	367	391	34	94867	3721841	1615
229	2018-05-03 01:32:39		0	0	0	0	0	0	2.55	0.56	0.12	147714	0	17047	109759	147714	147714	823	367	391	34	94867	3721844	1615
230	2018-05-03 01:42:37		0	0	0	0	0	0	2.55	0.56	0.12	147734	0	17056	109759	147734	147734	824	367	391	34	94867	3721837	1616
231	2018-05-03 01:52:38		0	0	0	0	0	0	2.55	0.56	0.12	147759	0	17060	109759	147759	147759	825	367	391	34	94867	3721843	1617
232	2018-05-03 02:02:39		0	0	0	0	0	0	2.55	0.56	0.12	147776	0	17066	109759	147776	147776	825	367	392	34	94867	3721849	1618
233	2018-05-03 02:12:38		0	0	0	0	0	0	2.55	0.56	0.12	147785	0	17067	109759	147785	147785	825	367	392	34	94867	3721850	1618
234	2018-05-03 02:22:39		0	0	0	0	0	0	2.55	0.56	0.12	147800	0	17074	109759	147800	147800	825	367	392	34	94867	3721854	1618
235	2018-05-03 02:32:40		0	0	0	0	0	0	2.55	0.56	0.12	147814	0	17078	109813	147814	147814	826	367	392	34	94867	3721857	1619
236	2018-05-03 02:42:40		0	0	0	0	0	0	2.55	0.56	0.12	147825	0	17081	109813	147825	147825	826	367	392	34	94867	3721857	1619
237	2018-05-03 02:52:41		0	0	0	0	0	0	2.55	0.56	0.12	147834	0	17083	109813	147834	147834	826	367	392	34	94867	3721858	1619
238	2018-05-03 03:02:42		0	0	0	0	0	0	2.55	0.56	0.12	147838	0	17084	109813	147838	147838	826	368	392	34	94867	3721860	1620
239	2018-05-03 03:12:47		0	0	0	0	0	0	2.55	0.56	0.12	147846	0	17090	109813	147846	147846	826	368	392	34	94867	3721857	1620
240	2018-05-03 03:22:42		0	0	0	0	0	0	2.55	0.56	0.12	147855	0	17093	109876	147855	147855	826	368	392	34	94867	3721854	1620
241	2018-05-03 03:32:44		0	0	0	0	0	0	2.55	0.56	0.12	147860	0	17094	109876	147860	147860	826	368	392	34	94867	3721851	1620
242	2018-05-03 03:42:43		0	0	0	0	0	0	2.55	0.56	0.12	147871	0	17100	109876	147871	147871	826	368	392	34	94867	3721852	1620
243	2018-05-03 03:52:44		0	0	0	0	0	0	2.55	0.56	0.12	147878	0	17104	109876	147878	147878	827	368	392	34	94867	3721853	1621
244	2018-05-03 04:02:46		0	0	0	0	0	0	2.55	0.56	0.12	147881	0	17104	109876	147881	147881	827	368	392	34	94867	3721854	1621
245	2018-05-03 04:12:46		0	0	0	0	0	0	2.55	0.56	0.12	147886	0	17104	109876	147886	147886	827	368	392	34	94867	3721855	1621
246	2018-05-03 04:22:45		0	0	0	0	0	0	2.55	0.56	0.12	147891	0	17106	109876	147891	147891	827	368	392	34	94867	3721856	1621
247	2018-05-03 04:32:46		0	0	0	0	0	0	2.55	0.56	0.12	147901	0	17107	109876	147901	147901	827	368	392	34	94867	3721857	1621
248	2018-05-03 04:42:46		0	0	0	0	0	0	2.55	0.56	0.12	147903	0	17108	109876	147903	147903	827	368	392	34	94867	3721856	1621
249	2018-05-03 04:52:47		0	0	0	0	0	0	2.55	0.56	0.12	147914	0	17112	109876	147914	147914	827	368	392	34	94867	3721857	1621
250	2018-05-03 05:02:47		0	0	0	0	0	0	2.55	0.56	0.12	147924	0	17115	109876	147924	147924	827	368	392	34	94867	3721856	1621
251	2018-05-03 05:12:47		0	0	0	0	0	0	2.55	0.56	0.12	147932	0	17122	109876	147932	147932	827	370	392	34	94867	3721852	1623
252	2018-05-03 05:22:48		0	0	0	0	0	0	2.55	0.56	0.12	147937	0	17126	109876	147937	147937	827	370	392	34	94867	3721850	1623
253	2018-05-03 05:32:50		0	0	0	0	0	0	2.55	0.56	0.12	147942	0	17128	109876	147942	147942	827	370	392	34	94867	3721851	1623
254	2018-05-03 05:42:53		0	0	0	0	0	0	2.55	0.56	0.12	147945	0	17128	109876	147945	147945	827	370	392	34	94867	3721852	1623
255	2018-05-03 05:52:50		0	0	0	0	0	0	2.55	0.56	0.12	147955	0	17132	109876	147955	147955	827	370	392	34	94867	3721853	1623
256	2018-05-03 06:02:52		0	0	0	0	0	0	2.55	0.56	0.12	147958	0	17132	109876	147958	147958	827	370	392	34	94867	3721858	1623
257	2018-05-03 06:12:51		0	0	0	0	0	0	2.55	0.56	0.12	147967	0	17138	109876	147967	147967	827	370	392	34	94867	3721859	1623
258	2018-05-03 06:22:51		0	0	0	0	0	0	2.55	0.56	0.12	147980	0	17144	109876	147980	147980	827	370	392	34	94867	3721866	1623
259	2018-05-03 06:32:51		0	0	0	0	0	0	2.55	0.56	0.12	147985	0	17146	109876	147985	147985	827	370	392	34	94867	3721869	1623
260	2018-05-03 06:42:52		0	0	0	0	0	0	2.55	0.56	0.12	147996	0	17149	109876	147996	147996	827	370	392	34	94867	3721870	1623
261	2018-05-03 06:52:53		0	0	0	0	0	0	2.55	0.56	0.12	148017	0	17156	109876	148017	148017	827	370	392	34	94867	3721874	1623
262	2018-05-03 07:02:54		0	0	0	0	0	0	2.55	0.56	0.12	148036	0	17167	109876	148036	148036	827	371	392	34	94867	3721877	1624
263	2018-05-03 07:12:53		0	0	0	0	0	0	2.55	0.56	0.12	148056	0	17179	109876	148056	148056	827	371	393	34	94867	3721886	1625
264	2018-05-03 07:22:54		0	0	0	0	0	0	2.55	0.56	0.12	148082	0	17189	110001	148082	148082	827	371	393	34	94960	3721892	1625
265	2018-05-03 07:32:55		0	0	0	0	0	0	2.55	0.56	0.12	148116	0	17207	110001	148116	148116	827	371	393	34	94960	3721902	1625
266	2018-05-03 07:43:04		0	0	0	0	0	0	2.55	0.56	0.12	148146	0	17229	110001	148146	148146	827	371	394	34	94960	3721910	1626
267	2018-05-03 07:52:57		0	0	0	0	0	0	2.55	0.56	0.12	148170	0	17240	110001	148170	148170	827	371	394	34	94960	3721917	1626
268	2018-05-03 08:03:01		0	0	0	0	0	0	2.55	0.56	0.12	148202	0	17255	110001	148202	148202	827	371	394	34	94995	3721925	1626
269	2018-05-03 08:12:57		0	0	0	0	0	0	2.55	0.56	0.12	148235	0	17268	110032	148235	148235	827	371	394	34	95019	3721930	1626
270	2018-05-03 08:22:58		0	0	0	0	0	0	2.55	0.56	0.12	148272	0	17280	110059	148272	148272	827	371	394	34	95039	3721948	1626
271	2018-05-03 08:33:17		0	0	0	0	0	0	2.55	0.56	0.12	148301	0	17294	110059	148301	148301	827	371	394	34	95039	3721955	1626
272	2018-05-03 08:42:58		0	0	0	0	0	0	2.55	0.56	0.12	148334	0	17309	110059	148334	148334	827	371	394	34	95039	3721964	1626
273	2018-05-03 08:53:00		0	0	0	0	0	0	2.55	0.56	0.12	148367	0	17322	110059	148367	148367	827	371	394	34	95039	3721976	1626
274	2018-05-03 09:03:01		0	0	0	0	0	0	2.55	0.56	0.12	148399	0	17331	110075	148399	148399	827	371	394	34	95039	3721988	1626
275	2018-05-03 09:13:00		0	0	0	0	0	0	2.55	0.56	0.12	148446	0	17348	110075	148446	148446	827	371	395	34	95039	3722009	1627
276	2018-05-03 09:23:01		0	0	0	0	0	0	2.55	0.56	0.12	148483	0	17365	110075	148483	148483	829	371	395	34	95039	3722022	1629
277	2018-05-03 09:33:02		0	0	0	0	0	0	2.56	0.56	0.12	148503	0	17371	110091	148503	148503	829	371	395	34	95214	3722032	1629
278	2018-05-03 09:43:02		0	0	0	0	0	0	2.56	0.56	0.12	148537	0	17385	110091	148537	148537	829	371	395	34	95214	3722045	1629
279	2018-05-03 09:53:04		0	0	0	0	0	0	2.56	0.56	0.12	148602	0	17422	110091	148602	148602	830	372	395	34	95214	3722056	1631
280	2018-05-03 10:03:05		0	0	0	0	0	0	2.56	0.56	0.12	148792	0	17591	110169	148792	148792	832	372	395	34	95250	3722070	1633
281	2018-05-03 10:13:05		0	0	0	0	0	0	2.56	0.56	0.12	148950	0	17706	110185	148950	148950	833	372	395	34	95261	3722082	1634
282	2018-05-03 10:23:05		0	0	0	0	0	0	2.56	0.56	0.12	149052	0	17787	110270	149052	149052	834	372	395	34	95308	3722096	1635
283	2018-05-03 10:33:05		0	0	0	0	0	0	2.56	0.56	0.12	149112	0	17821	110270	149112	149112	834	372	395	34	95308	3722110	1635
284	2018-05-03 10:43:05		0	0	0	0	0	0	2.56	0.56	0.12	149170	0	17859	110270	149170	149170	834	372	395	34	95308	3722121	1635
285	2018-05-03 10:53:06		0	0	0	0	0	0	2.56	0.56	0.12	149229	0	17892	110270	149229	149229	835	374	396	34	95308	3722135	1639
286	2018-05-03 11:03:07		0	0	0	0	0	0	2.56	0.56	0.12	149288	0	17924	110364	149288	149288	837	374	396	34	95378	3722140	1641
287	2018-05-03 11:13:07		0	0	0	0	0	0	2.56	0.56	0.12	149348	0	17957	110364	149348	149348	838	374	396	34	95378	3722143	1642
288	2018-05-03 11:23:08		0	0	0	0	0	0	2.56	0.56	0.12	149403	0	17990	110378	149403	149403	839	374	397	34	95378	3722161	1644
289	2018-05-03 11:33:08		0	0	0	0	0	0	2.56	0.56	0.12	149443	0	18012	110378	149443	149443	840	374	398	34	95378	3722173	1646
290	2018-05-03 11:43:09		0	0	0	0	0	0	2.56	0.56	0.12	149505	0	18054	110378	149505	149505	840	374	399	34	95378	3722178	1647
291	2018-05-03 11:53:10		0	0	0	0	0	0	2.56	0.56	0.12	149534	0	18068	110378	149534	149534	840	374	399	34	95378	3722187	1647
292	2018-05-03 12:03:14		0	0	0	0	0	0	2.56	0.56	0.12	149586	0	18095	110378	149586	149586	840	374	399	34	95378	3722195	1647
293	2018-05-03 12:13:14		0	0	0	0	0	0	2.56	0.56	0.12	149634	0	18114	110378	149634	149634	840	374	399	34	95378	3722203	1647
294	2018-05-03 12:23:13		0	0	0	0	0	0	2.56	0.56	0.12	149679	0	18139	110441	149679	149679	841	374	399	34	95378	3722213	1648
295	2018-05-03 12:33:13		0	0	0	0	0	0	2.56	0.56	0.12	149706	0	18152	110441	149706	149706	842	374	399	34	95378	3722223	1649
296	2018-05-03 12:43:13		0	0	0	0	0	0	2.56	0.56	0.12	149732	0	18166	110441	149732	149758	842	374	399	34	95378	3722228	1649
297	2018-05-03 12:53:14		0	0	0	0	0	0	2.56	0.56	0.12	149796	0	18202	110441	149796	149796	842	374	399	34	95378	3722236	1649
298	2018-05-03 13:03:19		0	0	0	0	0	0	2.56	0.56	0.12	149842	0	18236	110441	149842	149842	843	374	400	34	95378	3722244	1651
299	2018-05-03 13:13:14		0	0	0	0	0	0	2.56	0.56	0.12	149872	0	18255	110504	149872	149872	843	374	400	34	95425	3722251	1651
300	2018-05-03 13:23:14		0	0	0	0	0	0	2.56	0.56	0.12	149899	0	18271	110504	149899	149899	843	374	400	34	95425	3722257	1651
301	2018-05-03 13:33:14		0	0	0	0	0	0	2.56	0.56	0.12	149942	0	18288	110631	149942	149942	843	374	401	34	95425	3722268	1652
302	2018-05-03 13:43:40		0	0	0	0	0	0	2.56	0.56	0.12	149981	0	18306	110654	149981	149981	843	374	401	34	95425	3722279	1652
303	2018-05-03 13:53:16		0	0	0	0	0	0	2.56	0.56	0.12	150003	0	18320	110654	150003	150003	844	374	401	34	95425	3722296	1653
304	2018-05-03 14:03:17		0	0	0	0	0	0	2.56	0.56	0.12	150043	0	18335	110654	150043	150043	844	374	401	34	95425	3722300	1653
305	2018-05-03 14:13:17		0	0	0	0	0	0	2.56	0.56	0.12	150082	0	18351	110654	150082	150082	844	374	401	34	95425	3722315	1653
306	2018-05-03 14:23:18		0	0	0	0	0	0	2.56	0.56	0.12	150117	0	18373	110654	150117	150117	844	374	401	34	95425	3722323	1653
307	2018-05-03 14:33:18		0	0	0	0	0	0	2.56	0.56	0.12	150147	0	18388	110654	150147	150147	844	374	401	34	95425	3722319	1653
308	2018-05-03 14:43:37		0	0	0	0	0	0	2.56	0.56	0.12	150194	0	18406	110765	150194	150194	845	374	401	34	95460	3722327	1654
309	2018-05-03 14:53:20		0	0	0	0	0	0	2.57	0.56	0.12	150227	0	18417	110777	150227	150227	845	374	401	34	95552	3722348	1654
310	2018-05-03 15:03:23		0	0	0	0	0	0	2.57	0.56	0.12	150257	0	18435	110777	150257	150257	845	374	401	34	95552	3722362	1654
311	2018-05-03 15:13:22		0	0	0	0	0	0	2.57	0.56	0.12	150302	0	18453	110809	150302	150302	845	374	401	34	95552	3722376	1654
312	2018-05-03 15:23:23		0	0	0	0	0	0	2.57	0.56	0.12	150332	0	18466	110809	150332	150332	845	374	401	34	95552	3722379	1654
313	2018-05-03 15:33:24		0	0	0	0	0	0	2.57	0.56	0.12	150364	0	18477	110809	150364	150364	845	374	401	34	95552	3722387	1654
314	2018-05-03 15:43:26		0	0	0	0	0	0	2.57	0.56	0.12	150391	0	18485	110809	150391	150391	845	374	401	34	95693	3722397	1654
315	2018-05-03 15:53:44		0	0	0	0	0	0	2.57	0.56	0.12	150421	0	18500	110872	150421	150421	845	374	401	34	95741	3722405	1654
316	2018-05-03 16:03:28		0	0	0	0	0	0	2.57	0.56	0.12	150447	0	18507	110872	150447	150447	845	374	401	34	95741	3722416	1654
317	2018-05-03 16:13:27		0	0	0	0	0	0	2.57	0.56	0.12	150477	0	18519	110872	150477	150477	845	374	401	34	95741	3722423	1654
318	2018-05-03 16:23:27		0	0	0	0	0	0	2.57	0.56	0.12	150502	0	18526	110872	150502	150502	845	374	401	34	95741	3722434	1654
319	2018-05-03 16:33:28		0	0	0	0	0	0	2.57	0.56	0.12	150534	0	18542	110872	150534	150534	845	374	401	34	95741	3722441	1654
320	2018-05-03 16:43:28		0	0	0	0	0	0	2.57	0.56	0.12	150560	0	18555	110872	150560	150560	846	374	401	34	95741	3722451	1655
321	2018-05-03 16:53:29		0	0	0	0	0	0	2.57	0.56	0.12	150586	0	18561	110872	150586	150586	846	374	401	34	95741	3722455	1655
322	2018-05-03 17:03:29		0	0	0	0	0	0	2.57	0.56	0.12	150607	0	18569	110872	150607	150607	846	374	401	34	95741	3722457	1655
323	2018-05-03 17:13:31		0	0	0	0	0	0	2.57	0.56	0.12	150629	0	18573	110872	150629	150629	846	374	401	34	95741	3722461	1655
324	2018-05-03 17:23:30		0	0	0	0	0	0	2.57	0.56	0.12	150654	0	18584	110872	150654	150654	846	374	401	34	95741	3722474	1655
325	2018-05-03 17:33:31		0	0	0	0	0	0	2.57	0.56	0.12	150688	0	18600	110995	150688	150688	846	374	401	34	95833	3722478	1655
326	2018-05-03 17:43:31		0	0	0	0	0	0	2.57	0.56	0.12	150727	0	18618	110995	150727	150727	847	374	401	34	95833	3722501	1656
327	2018-05-03 17:53:32		0	0	0	0	0	0	2.57	0.56	0.12	150757	0	18633	110995	150757	150757	848	374	401	34	95833	3722516	1657
328	2018-05-03 18:03:34		0	0	0	0	0	0	2.57	0.56	0.12	150774	0	18639	110995	150774	150774	848	374	401	34	95833	3722524	1657
329	2018-05-03 18:13:34		0	0	0	0	0	0	2.57	0.56	0.12	150799	0	18646	110995	150799	150799	848	374	401	34	95833	3722536	1657
330	2018-05-03 18:23:51		0	0	0	0	0	0	2.57	0.56	0.12	150829	0	18654	110995	150829	150829	848	374	401	34	95833	3722537	1657
331	2018-05-03 18:33:36		0	0	0	0	0	0	2.58	0.56	0.12	150854	0	18660	111107	150854	150854	848	374	401	34	95916	3722536	1657
332	2018-05-03 18:43:38		0	0	0	0	0	0	2.58	0.56	0.12	150880	0	18670	111107	150880	150880	848	374	401	34	95916	3722537	1657
333	2018-05-03 18:54:00		0	0	0	0	0	0	2.58	0.56	0.12	150906	0	18680	111107	150906	150906	848	374	401	34	95916	3722551	1657
334	2018-05-03 19:03:39		0	0	0	0	0	0	2.58	0.56	0.12	150940	0	18696	111107	150940	150940	848	374	401	34	95916	3722559	1657
335	2018-05-03 19:13:40		0	0	0	0	0	0	2.58	0.56	0.12	150967	0	18711	111107	150967	150967	848	374	401	34	95916	3722562	1657
336	2018-05-03 19:23:39		0	0	0	0	0	0	2.58	0.56	0.12	150983	0	18715	111107	150983	150983	848	374	401	34	95916	3722581	1657
337	2018-05-03 19:33:40		0	0	0	0	0	0	2.58	0.56	0.12	151002	0	18721	111107	151002	151002	848	374	401	34	95916	3722591	1657
338	2018-05-03 19:43:40		0	0	0	0	0	0	2.58	0.56	0.12	151026	0	18732	111107	151026	151026	848	374	401	34	95916	3722601	1657
339	2018-05-03 19:53:41		0	0	0	0	0	0	2.58	0.56	0.12	151056	0	18742	111299	151056	151056	848	374	401	34	95963	3722609	1657
340	2018-05-03 20:03:46		0	0	0	0	0	0	2.58	0.56	0.12	151088	0	18754	111315	151088	151088	848	374	401	34	95975	3722614	1657
341	2018-05-03 20:13:42		0	0	0	0	0	0	2.58	0.56	0.12	151125	0	18762	111315	151125	151125	848	374	401	34	95975	3722625	1657
342	2018-05-03 20:23:42		0	0	0	0	0	0	2.58	0.56	0.12	151153	0	18779	111315	151153	151153	848	374	401	34	95975	3722651	1657
343	2018-05-03 20:33:44		0	0	0	0	0	0	2.58	0.56	0.12	151190	0	18800	111315	151190	151190	848	374	401	34	95975	3722686	1657
344	2018-05-03 20:43:44		0	0	0	0	0	0	2.58	0.56	0.12	151224	0	18815	111315	151224	151224	848	374	401	34	95975	3722701	1657
345	2018-05-03 20:53:45		0	0	0	0	0	0	2.58	0.56	0.12	151261	0	18824	111315	151261	151261	848	374	402	34	95975	3722714	1658
346	2018-05-03 21:03:45		0	0	0	0	0	0	2.58	0.56	0.12	151284	0	18832	111347	151284	151284	848	374	403	34	95975	3722727	1659
347	2018-05-03 21:13:47		0	0	0	0	0	0	2.58	0.56	0.12	151312	0	18847	111347	151312	151312	848	376	403	34	95975	3722736	1661
348	2018-05-03 21:23:47		0	0	0	0	0	0	2.58	0.56	0.12	151359	0	18867	111347	151359	151359	848	376	403	34	95975	3722754	1661
349	2018-05-03 21:34:10		0	0	0	0	0	0	2.58	0.56	0.12	151393	0	18879	111347	151393	151393	848	376	403	34	95975	3722769	1661
350	2018-05-03 21:44:09		0	0	0	0	0	0	2.58	0.56	0.12	151428	0	18897	111347	151428	151428	848	376	403	35	95975	3722790	1662
351	2018-05-03 21:54:10		0	0	0	0	0	0	2.58	0.56	0.12	151466	0	18911	111347	151466	151466	848	376	403	35	95975	3722815	1662
352	2018-05-03 22:04:11		0	0	0	0	0	0	2.58	0.56	0.12	151503	0	18922	111475	151503	151503	848	376	404	35	96070	3722836	1663
353	2018-05-03 22:14:11		0	0	0	0	0	0	2.58	0.56	0.12	151546	0	18935	111475	151546	151546	848	377	405	35	96070	3722858	1665
354	2018-05-03 22:24:12		0	0	0	0	0	0	2.58	0.56	0.13	151575	0	18947	111475	151575	151575	848	376	405	35	96070	3722893	1664
355	2018-05-03 22:34:12		0	0	0	0	0	0	2.58	0.56	0.13	151607	0	18956	111499	151607	151607	848	377	405	35	96070	3722918	1665
356	2018-05-03 22:44:12		0	0	0	0	0	0	2.58	0.56	0.13	151635	0	18959	111499	151635	151635	848	377	405	35	96070	3722943	1665
357	2018-05-03 22:54:13		0	0	0	0	0	0	2.58	0.56	0.13	151673	0	18975	111531	151673	151673	848	377	405	35	96070	3722973	1665
358	2018-05-03 23:04:14		0	0	0	0	0	0	2.58	0.56	0.13	151702	0	18985	111547	151702	151702	848	377	405	35	96082	3723004	1665
359	2018-05-03 23:14:15		0	0	0	0	0	0	2.58	0.56	0.13	151727	0	18990	111547	151727	151727	848	377	405	35	96082	3723031	1665
360	2018-05-03 23:24:16		0	0	0	0	0	0	2.58	0.56	0.13	151750	0	18998	111547	151750	151750	848	376	405	35	96082	3723071	1664
361	2018-05-03 23:34:16		0	0	0	0	0	0	2.58	0.56	0.13	151782	0	19013	111676	151782	151782	848	376	405	35	96082	3723109	1664
362	2018-05-03 23:44:17		0	0	0	0	0	0	2.58	0.56	0.13	151813	0	19024	111708	151813	151813	848	376	405	35	96106	3723139	1664
363	2018-05-03 23:54:13		0	0	0	0	0	0	2.58	0.56	0.13	151846	0	19036	111805	151846	151846	848	377	405	35	96106	3723161	1665
364	2018-05-04 00:04:15		0	0	0	0	0	0	2.58	0.56	0.13	151865	0	19041	111805	151865	151865	848	377	405	35	96106	3723178	1665
365	2018-05-04 00:14:14		0	0	0	0	0	0	2.58	0.56	0.13	151889	0	19049	111805	151889	151889	848	377	405	35	96106	3723198	1665
366	2018-05-04 00:24:14		0	0	0	0	0	0	2.58	0.56	0.13	151911	0	19058	111805	151911	151911	848	377	405	35	96106	3723207	1665
367	2018-05-04 00:34:15		0	0	0	0	0	0	2.58	0.56	0.13	151929	0	19062	111805	151929	151929	848	377	405	35	96106	3723223	1665
368	2018-05-04 00:44:15		0	0	0	0	0	0	2.58	0.56	0.13	151944	0	19069	111805	151944	151944	848	377	405	35	96106	3723232	1665
369	2018-05-04 00:54:16		0	0	0	0	0	0	2.58	0.56	0.13	151953	0	19072	111805	151953	151953	848	376	405	35	96106	3723245	1664
370	2018-05-04 01:04:18		0	0	0	0	0	0	2.58	0.56	0.13	151967	0	19079	111805	151967	151967	848	376	405	35	96106	3723265	1664
371	2018-05-04 01:14:18		0	0	0	0	0	0	2.58	0.56	0.13	151976	0	19079	111805	151976	151976	848	376	405	35	96106	3723280	1664
372	2018-05-04 01:24:18		0	0	0	0	0	0	2.58	0.56	0.13	151985	0	19083	111805	151985	151985	848	376	405	35	96106	3723288	1664
373	2018-05-04 01:34:17		0	0	0	0	0	0	2.58	0.56	0.13	151991	0	19084	111805	151991	151991	848	376	405	35	96106	3723294	1664
374	2018-05-04 01:44:19		0	0	0	0	0	0	2.58	0.56	0.13	151998	0	19085	111805	151998	151998	848	376	405	35	96106	3723293	1664
375	2018-05-04 01:54:20		0	0	0	0	0	0	2.58	0.56	0.13	152003	0	19086	111805	152003	152003	848	376	405	35	96106	3723298	1664
376	2018-05-04 02:04:20		0	0	0	0	0	0	2.58	0.56	0.13	152011	0	19089	111805	152011	152011	848	376	405	35	96106	3723298	1664
377	2018-05-04 02:14:20		0	0	0	0	0	0	2.58	0.56	0.13	152012	0	19089	111805	152012	152012	848	376	405	35	96106	3723299	1664
378	2018-05-04 02:24:20		0	0	0	0	0	0	2.58	0.56	0.13	152015	0	19091	111805	152015	152015	848	376	405	35	96106	3723296	1664
379	2018-05-04 02:34:20		0	0	0	0	0	0	2.58	0.56	0.13	152019	0	19092	111805	152019	152019	848	376	405	35	96106	3723298	1664
380	2018-05-04 02:44:22		0	0	0	0	0	0	2.58	0.56	0.13	152028	0	19095	111805	152028	152028	848	376	405	35	96106	3723301	1664
381	2018-05-04 02:54:22		0	0	0	0	0	0	2.58	0.56	0.13	152032	0	19097	111805	152032	152032	848	376	405	35	96106	3723302	1664
382	2018-05-04 03:04:24		0	0	0	0	0	0	2.58	0.56	0.13	152035	0	19097	111805	152035	152035	848	376	405	35	96106	3723304	1664
383	2018-05-04 03:14:23		0	0	0	0	0	0	2.58	0.56	0.13	152046	0	19099	111805	152046	152046	848	376	405	35	96106	3723306	1664
384	2018-05-04 03:24:23		0	0	0	0	0	0	2.58	0.56	0.13	152055	0	19102	111805	152055	152055	848	376	405	35	96106	3723306	1664
385	2018-05-04 03:34:24		0	0	0	0	0	0	2.58	0.56	0.13	152058	0	19104	111805	152058	152058	849	376	405	35	96106	3723308	1665
386	2018-05-04 03:44:24		0	0	0	0	0	0	2.58	0.56	0.13	152058	0	19104	111805	152058	152058	849	376	405	35	96106	3723305	1665
387	2018-05-04 03:54:25		0	0	0	0	0	0	2.58	0.56	0.13	152058	0	19104	111805	152058	152058	849	376	405	35	96106	3723304	1665
388	2018-05-04 04:04:26		0	0	0	0	0	0	2.58	0.56	0.13	152059	0	19105	111805	152059	152059	849	376	405	35	96106	3723301	1665
389	2018-05-04 04:14:25		0	0	0	0	0	0	2.58	0.56	0.13	152060	0	19105	111805	152060	152060	849	376	405	35	96106	3723304	1665
390	2018-05-04 04:24:26		0	0	0	0	0	0	2.58	0.56	0.13	152063	0	19106	111805	152063	152063	849	376	405	35	96106	3723304	1665
391	2018-05-04 04:34:26		0	0	0	0	0	0	2.58	0.56	0.13	152068	0	19109	111805	152068	152068	849	376	405	35	96106	3723304	1665
392	2018-05-04 04:44:28		0	0	0	0	0	0	2.58	0.56	0.13	152071	0	19109	111805	152071	152071	849	376	405	35	96106	3723305	1665
393	2018-05-04 04:54:27		0	0	0	0	0	0	2.58	0.56	0.13	152072	0	19109	111805	152072	152072	849	376	405	35	96106	3723304	1665
394	2018-05-04 05:04:28		0	0	0	0	0	0	2.58	0.56	0.13	152076	0	19113	111805	152076	152076	849	376	405	35	96106	3723300	1665
395	2018-05-04 05:14:30		0	0	0	0	0	0	2.58	0.56	0.13	152078	0	19115	111805	152078	152078	849	376	405	35	96106	3723300	1665
396	2018-05-04 05:24:30		0	0	0	0	0	0	2.58	0.56	0.13	152081	0	19118	111805	152081	152081	849	376	405	35	96106	3723301	1665
397	2018-05-04 05:34:34		0	0	0	0	0	0	2.58	0.56	0.13	152085	0	19121	111805	152085	152085	849	376	405	35	96106	3723303	1665
398	2018-05-04 05:44:30		0	0	0	0	0	0	2.58	0.56	0.13	152087	0	19121	111805	152087	152087	849	376	405	35	96106	3723305	1665
399	2018-05-04 05:54:30		0	0	0	0	0	0	2.58	0.56	0.13	152094	0	19122	111805	152094	152094	849	376	405	35	96106	3723307	1665
400	2018-05-04 06:04:31		0	0	0	0	0	0	2.58	0.56	0.13	152099	0	19124	111805	152099	152099	849	376	405	35	96106	3723309	1665
401	2018-05-04 06:14:31		0	0	0	0	0	0	2.58	0.56	0.13	152106	0	19126	111805	152106	152106	849	376	405	35	96106	3723311	1665
402	2018-05-04 06:24:31		0	0	0	0	0	0	2.58	0.56	0.13	152114	0	19128	111805	152114	152114	849	376	405	35	96106	3723313	1665
403	2018-05-04 06:34:32		0	0	0	0	0	0	2.58	0.56	0.13	152123	0	19132	111870	152123	152123	849	376	405	35	96106	3723321	1665
404	2018-05-04 06:44:33		0	0	0	0	0	0	2.58	0.56	0.13	152133	0	19138	111870	152133	152133	849	376	405	35	96106	3723327	1665
405	2018-05-04 06:54:34		0	0	0	0	0	0	2.58	0.56	0.13	152138	0	19140	111870	152138	152138	849	376	405	35	96106	3723334	1665
406	2018-05-04 07:04:35		0	0	0	0	0	0	2.58	0.56	0.13	152148	0	19143	111870	152148	152148	849	376	405	35	96106	3723338	1665
407	2018-05-04 07:14:36		0	0	0	0	0	0	2.58	0.56	0.13	152154	0	19147	111870	152154	152154	849	376	405	35	96106	3723345	1665
408	2018-05-04 07:24:36		0	0	0	0	0	0	2.58	0.56	0.13	152163	0	19152	111870	152163	152163	849	376	405	35	96106	3723356	1665
409	2018-05-04 07:34:36		0	0	0	0	0	0	2.58	0.56	0.13	152180	0	19161	111870	152180	152180	849	377	405	35	96106	3723359	1666
410	2018-05-04 07:44:36		0	0	0	0	0	0	2.58	0.56	0.13	152195	0	19172	111902	152195	152195	849	377	405	35	96130	3723376	1666
411	2018-05-04 07:54:37		0	0	0	0	0	0	2.58	0.56	0.13	152202	0	19173	111902	152202	152202	849	377	405	35	96130	3723383	1666
412	2018-05-04 08:04:38		0	0	0	0	0	0	2.58	0.56	0.13	152211	0	19177	111902	152211	152211	849	377	405	35	96130	3723399	1666
413	2018-05-04 08:14:38		0	0	0	0	0	0	2.58	0.56	0.13	152229	0	19185	111902	152229	152229	849	377	405	35	96130	3723413	1666
414	2018-05-04 08:24:38		0	0	0	0	0	0	2.58	0.56	0.13	152241	0	19188	111902	152241	152241	849	377	405	35	96130	3723415	1666
415	2018-05-04 08:34:42		0	0	0	0	0	0	2.58	0.56	0.13	152249	0	19192	112032	152249	152249	849	377	405	35	96130	3723421	1666
416	2018-05-04 08:44:40		0	0	0	0	0	0	2.58	0.56	0.13	152271	0	19201	112145	152271	152271	849	377	406	35	96214	3723435	1667
417	2018-05-04 08:54:41		0	0	0	0	0	0	2.58	0.56	0.13	152283	0	19205	112145	152283	152283	849	377	406	35	96214	3723444	1667
418	2018-05-04 09:04:43		0	0	0	0	0	0	2.58	0.56	0.13	152303	0	19209	112145	152303	152303	851	377	406	35	96214	3723457	1669
419	2018-05-04 09:14:42		0	0	0	0	0	0	2.58	0.56	0.13	152316	0	19210	112145	152316	152316	851	378	406	35	96214	3723473	1670
420	2018-05-04 09:24:45		0	0	0	0	0	0	2.58	0.56	0.13	152329	0	19214	112145	152329	152329	851	378	406	35	96214	3723492	1670
421	2018-05-04 09:34:42		0	0	0	0	0	0	2.59	0.56	0.13	152343	0	19220	112406	152343	152343	852	378	406	35	96393	3723519	1671
422	2018-05-04 09:44:43		0	0	0	0	0	0	2.59	0.56	0.13	152353	0	19222	112406	152353	152353	852	378	406	35	96393	3723536	1671
423	2018-05-04 09:54:43		0	0	0	0	0	0	2.59	0.56	0.13	152376	0	19227	112406	152376	152376	852	378	406	35	96393	3723559	1671
424	2018-05-04 10:04:44		0	0	0	0	0	0	2.59	0.56	0.13	152386	0	19233	112406	152386	152386	852	378	406	35	96393	3723578	1671
425	2018-05-04 10:14:44		0	0	0	0	0	0	2.59	0.56	0.13	152406	0	19241	112406	152406	152406	852	378	406	35	96393	3723603	1671
426	2018-05-04 10:24:44		0	0	0	0	0	0	2.59	0.56	0.13	152423	0	19246	112406	152423	152423	852	378	406	35	96393	3723619	1671
427	2018-05-04 10:34:45		0	0	0	0	0	0	2.59	0.56	0.13	152443	0	19255	112406	152443	152443	852	378	406	35	96393	3723640	1671
428	2018-05-04 10:44:46		0	0	0	0	0	0	2.59	0.56	0.13	152459	0	19266	112406	152459	152459	852	378	406	35	96393	3723668	1671
429	2018-05-04 10:55:08		0	0	0	0	0	0	2.59	0.56	0.13	152472	0	19272	112471	152472	152472	852	378	406	35	96393	3723683	1671
430	2018-05-04 11:04:50		0	0	0	0	0	0	2.59	0.56	0.13	152486	0	19276	112471	152486	152486	852	378	406	35	96393	3723698	1671
431	2018-05-04 11:14:49		0	0	0	0	0	0	2.59	0.56	0.13	152501	0	19286	112471	152501	152501	852	378	406	35	96393	3723723	1671
