1	2018-05-07 18:49:18		0	0	0	0	0	0	0.02	5.24	0	1049	0	3	879	1049	1049	55	1	27	1	852	3730707	84
2	2018-05-07 18:59:22		0	0	0	0	0	0	0.76	7.4	0	37234	0	92	29649	37234	37234	2756	9	86	7	28490	3730719	2858
3	2018-05-07 19:09:21		0	0	0	0	0	0	1.33	7.96	0	67754	0	254	40591	67754	67754	5393	12	142	14	49786	3730730	5561
4	2018-05-07 19:19:22		0	0	0	0	0	0	1.87	8.31	0	95894	0	417	73524	95894	95894	7967	16	185	21	69802	3730738	8189
5	2018-05-07 19:29:22		0	0	0	0	0	0	2.39	8.32	0	122048	0	609	94174	122048	122048	10157	24	223	23	89167	3730738	10427
6	2018-05-07 19:39:23		0	0	0	0	0	0	2.82	8.32	0.01	146082	0	876	111244	146082	146082	12160	31	260	27	105111	3730741	12478
7	2018-05-07 19:49:22		0	0	0	0	0	0	3.18	8.27	0.01	168566	0	1139	126014	168566	168566	13938	34	294	30	118690	3730741	14296
8	2018-05-07 19:59:24		0	0	0	0	0	0	3.51	8.27	0.01	189019	0	1434	138420	189019	189019	15623	36	326	34	130982	3730758	16019
9	2018-05-07 20:09:27		0	0	0	0	0	0	3.8	8.27	0.01	207718	0	1728	144635	207718	207718	17183	38	349	38	141854	3730770	17608
10	2018-05-07 20:19:25		0	0	0	0	0	0	4.16	8.25	0.01	225234	0	1942	163678	225234	225234	18580	39	370	38	155147	3730773	19027
11	2018-05-07 20:29:25		0	0	0	0	0	0	4.43	8.23	0.01	241825	0	2197	173995	241825	241825	19906	43	396	40	165197	3730780	20385
12	2018-05-07 20:39:26		0	0	0	0	0	0	4.68	8.19	0.01	257297	0	2431	183876	257297	257297	21067	47	423	42	174678	3730790	21579
13	2018-05-07 20:49:28		0	0	0	0	0	0	4.91	8.16	0.01	272094	0	2706	192759	272094	272094	22210	48	442	44	183356	3730802	22744
14	2018-05-07 20:59:28		0	0	0	0	0	0	5.18	8.16	0.01	285922	0	2921	203583	285922	285922	23320	49	461	44	193358	3730805	23874
15	2018-05-07 21:09:28		0	0	0	0	0	0	5.4	8.15	0.01	299087	0	3166	211783	299087	299087	24382	52	493	47	201288	3730814	24974
16	2018-05-07 21:19:30		0	0	0	0	0	0	5.65	8.14	0.01	311741	0	3439	221306	311741	311741	25367	54	502	49	210636	3730826	25972
17	2018-05-07 21:29:29		0	0	0	0	0	0	5.82	8.1	0.01	323671	0	3720	229574	323671	323671	26202	58	517	50	217316	3730831	26827
18	2018-05-07 21:39:29		0	0	0	0	0	0	6.08	8.05	0.01	335501	0	4040	239206	335501	335501	27016	59	533	52	226843	3730837	27660
19	2018-05-07 21:49:29		0	0	0	0	0	0	6.27	8.04	0.01	346584	0	4320	246659	346584	346584	27852	61	545	53	234102	3730841	28511
20	2018-05-07 21:59:30		0	0	0	0	0	0	6.49	8	0.01	357062	0	4562	256057	357062	357062	28575	62	553	53	242266	3730844	29243
21	2018-05-07 22:09:31		0	0	0	0	0	0	6.64	7.99	0.01	367090	0	4843	262338	367090	367090	29345	62	569	56	247623	3730845	30032
22	2018-05-07 22:19:31		0	0	0	0	0	0	6.8	7.97	0.01	377545	0	5066	269699	377545	377545	30083	64	582	57	253776	3730856	30786
23	2018-05-07 22:29:31		0	0	0	0	0	0	7.04	7.93	0.01	389788	0	5287	278374	389788	389788	30920	66	598	57	262796	3730868	31641
24	2018-05-07 22:39:33		0	0	0	0	0	0	7.3	7.9	0.01	401627	0	5529	288807	401627	401627	31711	69	615	58	272367	3730876	32453
25	2018-05-07 22:49:32		0	0	0	0	0	0	7.48	7.87	0.01	413662	0	5747	294707	413662	413662	32561	72	638	59	279211	3730890	33330
26	2018-05-07 22:59:34		0	0	0	0	0	0	7.71	7.84	0.01	424875	0	6001	303377	424875	424875	33306	74	652	60	287487	3730897	34092
27	2018-05-07 23:09:34		0	0	0	0	0	0	7.87	7.82	0.01	435533	0	6258	309983	435533	435533	34065	75	668	61	293495	3730910	34869
28	2018-05-07 23:19:34		0	0	0	0	0	0	8.05	7.8	0.01	445630	0	6440	317086	445630	445630	34775	75	690	63	300306	3730908	35603
29	2018-05-07 23:29:35		0	0	0	0	0	0	8.18	7.79	0.01	454505	0	6594	322485	454505	454505	35407	79	707	64	305054	3730908	36257
30	2018-05-07 23:39:36		0	0	0	0	0	0	8.3	7.78	0.01	463262	0	6801	327560	463262	463262	36040	80	722	65	309831	3730911	36907
31	2018-05-07 23:49:36		0	0	0	0	0	0	8.4	7.77	0.01	471233	0	6961	331589	471233	471233	36606	80	729	65	313276	3730913	37480
32	2018-05-07 23:59:59		0	0	0	0	0	0	8.51	7.76	0.01	478704	0	7107	336746	478704	478704	37152	81	745	67	317419	3730912	38045
33	2018-05-08 00:09:36		0	0	0	0	0	0	8.61	7.75	0.01	485727	0	7259	340941	485727	485727	37632	81	751	67	321143	3730915	38531
34	2018-05-08 00:19:37		0	0	0	0	0	0	8.71	7.74	0.02	492215	0	7420	344595	492215	492215	38109	82	763	70	325064	3730914	39024
35	2018-05-08 00:29:36		0	0	0	0	0	0	8.8	7.74	0.02	498460	0	7554	348978	498460	498460	38580	85	768	70	328473	3730916	39503
36	2018-05-08 00:39:36		0	0	0	0	0	0	8.88	7.74	0.02	504005	0	7701	352213	504005	504005	38990	85	778	71	331337	3730914	39924
37	2018-05-08 00:49:36		0	0	0	0	0	0	9	7.74	0.02	509005	0	7811	356517	509005	509005	39376	85	786	71	335725	3730918	40318
38	2018-05-08 00:59:37		0	0	0	0	0	0	9.04	7.73	0.02	513634	0	7922	358498	513634	513634	39728	86	791	71	337371	3730920	40676
39	2018-05-08 01:09:38		0	0	0	0	0	0	9.13	7.73	0.02	517499	0	8033	361829	517499	517499	40025	86	797	72	340618	3730928	40980
40	2018-05-08 01:19:38		0	0	0	0	0	0	9.19	7.73	0.02	521047	0	8121	364349	521047	521047	40283	87	807	72	342851	3730928	41249
41	2018-05-08 01:29:38		0	0	0	0	0	0	9.31	7.74	0.02	524138	0	8191	368797	524138	524138	40543	87	812	73	347214	3730933	41515
42	2018-05-08 01:39:39		0	0	0	0	0	0	9.34	7.73	0.02	526958	0	8261	370339	526958	526958	40738	87	814	73	348581	3730932	41712
43	2018-05-08 01:49:42		0	0	0	0	0	0	9.4	7.73	0.02	529382	0	8312	372635	529382	529382	40935	87	817	73	350773	3730935	41912
44	2018-05-08 01:59:41		0	0	0	0	0	0	9.44	7.73	0.02	531606	0	8356	374845	531606	531606	41093	87	818	74	352249	3730936	42072
45	2018-05-08 02:09:42		0	0	0	0	0	0	9.49	7.73	0.02	533580	0	8392	376229	533580	533580	41231	87	819	75	354239	3730934	42212
46	2018-05-08 02:19:41		0	0	0	0	0	0	9.52	7.73	0.02	535531	0	8426	377651	535531	535531	41382	87	821	75	355357	3730934	42365
47	2018-05-08 02:29:41		0	0	0	0	0	0	9.55	7.72	0.02	537205	0	8460	378459	537205	537205	41498	86	828	75	356359	3730931	42487
48	2018-05-08 02:39:41		0	0	0	0	0	0	9.56	7.72	0.02	538757	0	8481	378896	538757	538757	41604	86	833	75	356767	3730930	42598
49	2018-05-08 02:49:42		0	0	0	0	0	0	9.57	7.72	0.02	540107	0	8517	379267	540107	540107	41699	86	835	75	357096	3730932	42695
50	2018-05-08 02:59:43		0	0	0	0	0	0	9.58	7.71	0.02	541404	0	8536	379430	541404	541404	41768	86	836	75	357241	3730932	42765
51	2018-05-08 03:09:43		0	0	0	0	0	0	9.58	7.71	0.02	542612	0	8562	379802	542612	542612	41858	88	838	75	357571	3730932	42859
52	2018-05-08 03:19:44		0	0	0	0	0	0	9.6	7.71	0.02	543735	0	8582	380573	543735	543735	41937	89	839	75	358253	3730934	42940
53	2018-05-08 03:29:44		0	0	0	0	0	0	9.61	7.71	0.02	544721	0	8605	381264	544721	544721	42014	89	842	75	358585	3730938	43020
54	2018-05-08 03:39:49		0	0	0	0	0	0	9.62	7.71	0.02	545632	0	8620	381440	545632	545632	42089	89	842	75	359074	3730935	43095
55	2018-05-08 03:49:48		0	0	0	0	0	0	9.63	7.71	0.02	546578	0	8643	381628	546578	546578	42148	89	843	75	359407	3730934	43155
56	2018-05-08 03:59:47		0	0	0	0	0	0	9.64	7.71	0.02	547444	0	8660	382099	547444	547444	42197	89	845	75	359825	3730933	43206
57	2018-05-08 04:09:48		0	0	0	0	0	0	9.66	7.71	0.02	548304	0	8679	383341	548304	548304	42253	89	845	75	360590	3730938	43262
58	2018-05-08 04:19:47		0	0	0	0	0	0	9.67	7.71	0.02	549114	0	8698	383566	549114	549114	42314	89	846	76	360789	3730937	43325
59	2018-05-08 04:29:48		0	0	0	0	0	0	9.68	7.7	0.02	549935	0	8729	383804	549935	549935	42364	90	848	76	361000	3730937	43378
60	2018-05-08 04:39:48		0	0	0	0	0	0	9.69	7.7	0.02	550733	0	8746	384090	550733	550733	42414	90	849	76	361590	3730935	43429
61	2018-05-08 04:49:49		0	0	0	0	0	0	9.7	7.7	0.02	551527	0	8764	384471	551527	551527	42460	90	849	76	361928	3730934	43475
62	2018-05-08 04:59:49		0	0	0	0	0	0	9.73	7.7	0.02	552361	0	8781	385716	552361	552361	42509	90	849	76	363031	3730935	43524
63	2018-05-08 05:09:51		0	0	0	0	0	0	9.74	7.69	0.02	553317	0	8798	386101	553317	553317	42569	90	849	76	363543	3730934	43584
64	2018-05-08 05:19:51		0	0	0	0	0	0	9.77	7.69	0.02	554352	0	8817	387339	554352	554352	42644	91	851	76	364565	3730935	43662
65	2018-05-08 05:29:52		0	0	0	0	0	0	9.81	7.69	0.02	555612	0	8855	389085	555612	555612	42723	91	852	76	366046	3730935	43742
66	2018-05-08 05:39:53		0	0	0	0	0	0	9.82	7.69	0.02	556905	0	8890	389894	556905	556905	42813	91	854	76	366414	3730935	43834
67	2018-05-08 05:49:53		0	0	0	0	0	0	9.83	7.69	0.02	558418	0	8940	390176	558418	558418	42925	91	855	76	366838	3730939	43947
68	2018-05-08 05:59:56		0	0	0	0	0	0	9.84	7.68	0.02	560083	0	8989	390619	560083	560083	43042	91	857	76	367164	3730938	44066
69	2018-05-08 06:09:53		0	0	0	0	0	0	9.91	7.69	0.02	562002	0	9023	393186	562002	562002	43200	92	858	76	369607	3730938	44226
70	2018-05-08 06:19:54		0	0	0	0	0	0	10.01	7.68	0.02	564310	0	9090	397119	564310	564310	43367	92	860	77	373621	3730937	44396
71	2018-05-08 06:29:54		0	0	0	0	0	0	10.08	7.69	0.02	566731	0	9143	399734	566731	566731	43559	92	863	77	375935	3730937	44591
72	2018-05-08 06:39:55		0	0	0	0	0	0	10.15	7.68	0.02	569306	0	9222	402328	569306	569306	43711	92	867	77	378552	3730943	44747
73	2018-05-08 06:49:55		0	0	0	0	0	0	10.21	7.67	0.02	572184	0	9295	405433	572184	572184	43915	92	872	77	380924	3730946	44956
74	2018-05-08 06:59:56		0	0	0	0	0	0	10.26	7.68	0.02	575216	0	9379	408724	575216	575216	44153	93	877	77	382831	3730949	45200
75	2018-05-08 07:10:12		0	0	0	0	0	0	10.35	7.67	0.02	578728	0	9465	413555	578728	578728	44391	94	881	77	386294	3730950	45443
76	2018-05-08 07:19:59		0	0	0	0	0	0	10.42	7.67	0.02	582625	0	9563	415414	582625	582625	44677	94	887	78	388890	3730949	45736
77	2018-05-08 07:29:59		0	0	0	0	0	0	10.48	7.66	0.02	586717	0	9656	417754	586717	586717	44949	94	890	81	390940	3730954	46014
78	2018-05-08 07:39:59		0	0	0	0	0	0	10.56	7.66	0.02	590791	0	9757	420163	590791	590791	45254	94	892	82	394049	3730956	46322
79	2018-05-08 07:50:02		0	0	0	0	0	0	10.67	7.65	0.02	594875	0	9847	424658	594875	594875	45517	94	893	82	398102	3730959	46586
80	2018-05-08 08:00:04		0	0	0	0	0	0	10.75	7.64	0.02	599255	0	9936	427945	599255	599255	45800	95	898	82	400989	3730963	46875
81	2018-05-08 08:10:03		0	0	0	0	0	0	10.84	7.63	0.02	603669	0	10070	431658	603669	603669	46087	97	905	82	404301	3730967	47171
82	2018-05-08 08:20:03		0	0	0	0	0	0	10.86	7.63	0.02	608235	0	10181	433304	608235	608235	46382	98	915	82	405319	3730971	47477
83	2018-05-08 08:30:04		0	0	0	0	0	0	10.93	7.62	0.02	612790	0	10301	436307	612790	612790	46691	99	919	82	407946	3730973	47791
84	2018-05-08 08:40:04		0	0	0	0	0	0	11.01	7.62	0.02	617456	0	10449	439622	617456	617456	47023	101	926	82	410842	3730980	48132
85	2018-05-08 08:50:05		0	0	0	0	0	0	11.07	7.61	0.02	622181	0	10575	441770	622181	622181	47337	101	933	83	412883	3730987	48454
86	2018-05-08 09:00:08		0	0	0	0	0	0	11.15	7.6	0.02	626787	0	10729	445051	626787	626787	47651	104	941	83	416027	3730995	48779
87	2018-05-08 09:10:08		0	0	0	0	0	0	11.26	7.6	0.02	631584	0	10960	449191	631584	631584	47987	104	946	83	420155	3731004	49120
88	2018-05-08 09:20:10		0	0	0	0	0	0	11.4	7.59	0.02	636058	0	11174	453052	636058	636058	48284	105	951	84	425159	3731010	49424
89	2018-05-08 09:30:22		0	0	0	0	0	0	11.45	7.59	0.02	640363	0	11325	454516	640363	640363	48588	106	962	84	427036	3731023	49740
90	2018-05-08 09:40:10		0	0	0	0	0	0	11.51	7.58	0.02	644641	0	11536	457686	644641	644641	48845	106	968	85	429554	3731025	50004
91	2018-05-08 09:50:10		0	0	0	0	0	0	11.59	7.57	0.02	648708	0	11709	460305	648708	648708	49119	106	974	86	432584	3731030	50285
92	2018-05-08 10:00:09		0	0	0	0	0	0	11.63	7.56	0.02	652700	0	11883	461437	652700	652700	49369	107	980	88	433888	3731036	50544
93	2018-05-08 10:10:11		0	0	0	0	0	0	11.67	7.56	0.02	656894	0	12066	462955	656894	656894	49654	107	988	90	435352	3731035	50839
94	2018-05-08 10:20:11		0	0	0	0	0	0	11.7	7.55	0.02	660968	0	12261	464378	660968	660968	49917	108	997	90	436487	3731041	51112
95	2018-05-08 10:30:12		0	0	0	0	0	0	11.77	7.55	0.02	665002	0	12440	467640	665002	665002	50204	110	1009	90	438993	3731051	51413
96	2018-05-08 10:40:12		0	0	0	0	0	0	11.82	7.54	0.02	668966	0	12610	469581	668966	668966	50461	110	1019	90	440955	3731063	51680
97	2018-05-08 10:50:12		0	0	0	0	0	0	11.91	7.53	0.02	672869	0	12773	473237	672869	672869	50690	110	1024	90	444241	3731073	51914
98	2018-05-08 11:00:13		0	0	0	0	0	0	11.92	7.52	0.02	676648	0	12897	473853	676648	676648	50913	110	1025	90	444783	3731087	52138
99	2018-05-08 11:10:21		0	0	0	0	0	0	12.02	7.52	0.02	680197	0	13012	477047	680197	680197	51148	110	1031	92	448325	3731091	52381
100	2018-05-08 11:20:15		0	0	0	0	0	0	12.04	7.51	0.02	683533	0	13115	478743	683533	683533	51356	111	1040	92	449171	3731104	52599
101	2018-05-08 11:30:15		0	0	0	0	0	0	12.12	7.51	0.02	686784	0	13233	481470	686784	686784	51571	112	1046	94	452031	3731106	52823
102	2018-05-08 11:40:16		0	0	0	0	0	0	12.15	7.5	0.02	689747	0	13335	483151	689747	689747	51756	112	1052	93	453513	3731116	53013
103	2018-05-08 11:50:16		0	0	0	0	0	0	12.21	7.5	0.02	692357	0	13463	485480	692357	692357	51901	113	1062	93	455565	3731118	53169
104	2018-05-08 12:00:17		0	0	0	0	0	0	12.28	7.5	0.02	694836	0	13577	488404	694836	694836	52078	113	1065	93	458139	3731118	53349
105	2018-05-08 12:10:26		0	0	0	0	0	0	12.31	7.49	0.02	697269	0	13668	489950	697269	697269	52217	113	1067	93	459226	3731122	53490
106	2018-05-08 12:20:18		0	0	0	0	0	0	12.38	7.49	0.02	699533	0	13765	492404	699533	699533	52361	116	1068	96	461932	3731129	53641
107	2018-05-08 12:30:19		0	0	0	0	0	0	12.41	7.48	0.02	701790	0	13861	493857	701790	701790	52509	116	1073	96	463210	3731137	53794
108	2018-05-08 12:40:20		0	0	0	0	0	0	12.44	7.48	0.02	703934	0	13955	495042	703934	703934	52639	116	1077	97	464252	3731135	53929
109	2018-05-08 12:50:20		0	0	0	0	0	0	12.46	7.47	0.02	706193	0	14059	496620	706193	706193	52785	116	1082	97	464941	3731140	54080
110	2018-05-08 13:00:21		0	0	0	0	0	0	12.5	7.47	0.02	708364	0	14159	498298	708364	708364	52929	116	1088	97	466411	3731141	54230
111	2018-05-08 13:10:23		0	0	0	0	0	0	12.52	7.47	0.02	710465	0	14259	499988	710465	710465	53053	116	1091	97	467115	3731146	54357
112	2018-05-08 13:20:22		0	0	0	0	0	0	12.54	7.46	0.02	712400	0	14335	500918	712400	712400	53161	117	1096	97	467927	3731146	54471
113	2018-05-08 13:30:23		0	0	0	0	0	0	12.57	7.46	0.02	714514	0	14420	501405	714514	714514	53294	117	1100	97	469061	3731147	54608
114	2018-05-08 13:40:23		0	0	0	0	0	0	12.61	7.46	0.02	716579	0	14506	504206	716579	716579	53428	117	1106	97	470616	3731157	54748
115	2018-05-08 13:50:25		0	0	0	0	0	0	12.61	7.45	0.02	718679	0	14593	504206	718679	718679	53562	117	1110	98	470616	3731161	54887
116	2018-05-08 14:00:24		0	0	0	0	0	0	12.71	7.45	0.02	720872	0	14675	507491	720872	720872	53693	117	1112	100	474202	3731158	55022
117	2018-05-08 14:10:26		0	0	0	0	0	0	12.75	7.44	0.02	722908	0	14762	509894	722908	722908	53818	118	1119	101	475860	3731159	55156
118	2018-05-08 14:20:26		0	0	0	0	0	0	12.77	7.44	0.02	725031	0	14848	510714	725031	725031	53950	118	1124	101	476574	3731170	55293
119	2018-05-08 14:30:26		0	0	0	0	0	0	12.8	7.44	0.02	727161	0	14952	511896	727161	727161	54095	118	1129	101	477603	3731171	55443
120	2018-05-08 14:40:27		0	0	0	0	0	0	12.82	7.44	0.02	729238	0	15035	512447	729238	729238	54223	118	1132	101	478322	3731174	55574
121	2018-05-08 14:50:28		0	0	0	0	0	0	12.83	7.43	0.02	731150	0	15107	513296	731150	731150	54358	118	1138	101	478766	3731185	55715
122	2018-05-08 15:00:29		0	0	0	0	0	0	12.85	7.43	0.02	733185	0	15209	513892	733185	733185	54480	118	1143	101	479396	3731205	55842
123	2018-05-08 15:10:30		0	0	0	0	0	0	12.86	7.43	0.02	735186	0	15288	515087	735186	735186	54605	118	1147	101	479728	3731212	55971
124	2018-05-08 15:20:29		0	0	0	0	0	0	12.86	7.43	0.02	737118	0	15354	515087	737118	737118	54734	119	1151	101	479728	3731221	56105
125	2018-05-08 15:30:32		0	0	0	0	0	0	12.88	7.42	0.02	739013	0	15444	515902	739013	739013	54845	119	1152	101	480435	3731225	56217
126	2018-05-08 15:40:31		0	0	0	0	0	0	12.91	7.42	0.02	740813	0	15523	517281	740813	740813	54952	119	1153	101	481631	3731235	56325
127	2018-05-08 15:50:35		0	0	0	0	0	0	12.91	7.41	0.02	742699	0	15575	517454	742699	742699	55051	119	1158	101	481781	3731245	56429
128	2018-05-08 16:00:34		0	0	0	0	0	0	12.93	7.41	0.02	744569	0	15638	518904	744569	744569	55163	119	1159	101	482454	3731256	56542
129	2018-05-08 16:10:36		0	0	0	0	0	0	12.95	7.41	0.02	746383	0	15694	519470	746383	746383	55278	119	1159	101	483094	3731266	56657
130	2018-05-08 16:20:34		0	0	0	0	0	0	13	7.4	0.02	748221	0	15763	521657	748221	748221	55394	119	1163	101	484986	3731275	56777
131	2018-05-08 16:30:35		0	0	0	0	0	0	13.02	7.4	0.02	750294	0	15843	522626	750294	750294	55504	119	1164	101	485823	3731287	56888
132	2018-05-08 16:40:37		0	0	0	0	0	0	13.04	7.4	0.02	752351	0	15909	523333	752351	752351	55637	120	1165	102	486433	3731296	57024
133	2018-05-08 16:50:42		0	0	0	0	0	0	13.07	7.39	0.02	754541	0	15972	524963	754541	754541	55755	120	1168	102	487842	3731303	57145
134	2018-05-08 17:00:37		0	0	0	0	0	0	13.22	7.38	0.02	756762	0	16045	528864	756762	756762	55874	120	1171	102	493321	3731311	57267
135	2018-05-08 17:10:40		0	0	0	0	0	0	13.23	7.38	0.02	759018	0	16096	529576	759018	759018	55995	120	1175	102	493631	3731319	57392
136	2018-05-08 17:20:37		0	0	0	0	0	0	13.23	7.37	0.02	761112	0	16153	529746	761112	761112	56123	120	1180	102	493778	3731327	57525
137	2018-05-08 17:30:38		0	0	0	0	0	0	13.26	7.37	0.02	763142	0	16236	530722	763142	763142	56247	121	1182	102	494626	3731338	57652
138	2018-05-08 17:40:41		0	0	0	0	0	0	13.27	7.37	0.02	765079	0	16299	531268	765079	765079	56351	121	1188	102	495101	3731356	57762
139	2018-05-08 17:50:53		0	0	0	0	0	0	13.35	7.36	0.02	766904	0	16358	534847	766904	766904	56453	121	1188	102	498208	3731366	57864
140	2018-05-08 18:00:46		0	0	0	0	0	0	13.36	7.36	0.02	768781	0	16426	535379	768781	768781	56559	121	1191	102	498669	3731374	57973
141	2018-05-08 18:10:42		0	0	0	0	0	0	13.38	7.35	0.02	770660	0	16488	536242	770660	770660	56664	120	1196	102	499388	3731386	58082
142	2018-05-08 18:20:41		0	0	0	0	0	0	13.39	7.35	0.02	772427	0	16549	536521	772427	772427	56753	120	1199	102	499630	3731392	58174
143	2018-05-08 18:30:42		0	0	0	0	0	0	13.41	7.34	0.02	774136	0	16616	537534	774136	774136	56851	120	1202	102	500508	3731400	58275
144	2018-05-08 18:40:47		0	0	0	0	0	0	13.43	7.34	0.02	775873	0	16682	537995	775873	775873	56961	120	1203	102	501029	3731411	58386
145	2018-05-08 18:50:45		0	0	0	0	0	0	13.47	7.34	0.02	777563	0	16738	539707	777563	777563	57071	120	1207	102	502677	3731418	58500
146	2018-05-08 19:00:46		0	0	0	0	0	0	13.51	7.34	0.02	779027	0	16793	541405	779027	779027	57158	120	1208	102	504150	3731419	58588
147	2018-05-08 19:11:14		0	0	0	0	0	0	13.52	7.33	0.02	780330	0	16861	541689	780330	780330	57229	120	1209	102	504396	3731425	58660
148	2018-05-08 19:20:50		0	0	0	0	0	0	13.57	7.33	0.02	781521	0	16927	542447	781521	781521	57312	121	1209	102	506209	3731435	58744
149	2018-05-08 19:30:54		0	0	0	0	0	0	13.57	7.33	0.02	782676	0	16998	542732	782676	782676	57370	121	1211	103	506457	3731449	58805
150	2018-05-08 19:40:51		0	0	0	0	0	0	13.61	7.33	0.02	783754	0	17057	544139	783754	783754	57435	121	1213	103	507682	3731461	58872
151	2018-05-08 19:50:52		0	0	0	0	0	0	13.64	7.32	0.02	784801	0	17109	545481	784801	784801	57486	121	1213	103	508850	3731470	58923
152	2018-05-08 20:00:51		0	0	0	0	0	0	13.65	7.32	0.02	785881	0	17163	546058	785881	785881	57544	121	1215	103	509353	3731485	58983
153	2018-05-08 20:10:55		0	0	0	0	0	0	13.66	7.32	0.02	786862	0	17202	547084	786862	786862	57610	121	1218	103	509740	3731497	59052
154	2018-05-08 20:20:52		0	0	0	0	0	0	13.66	7.32	0.02	787835	0	17251	547277	787835	787835	57673	121	1218	103	509908	3731508	59115
155	2018-05-08 20:30:53		0	0	0	0	0	0	13.68	7.32	0.02	788696	0	17309	547906	788696	788696	57721	121	1218	103	510455	3731514	59163
156	2018-05-08 20:40:54		0	0	0	0	0	0	13.68	7.32	0.02	789609	0	17368	547906	789609	789609	57785	121	1218	103	510455	3731523	59227
157	2018-05-08 20:50:54		0	0	0	0	0	0	13.7	7.32	0.02	790552	0	17420	548878	790552	790552	57840	122	1221	103	511298	3731527	59286
158	2018-05-08 21:00:54		0	0	0	0	0	0	13.73	7.32	0.02	791435	0	17485	549267	791435	791435	57895	122	1221	103	512313	3731531	59341
159	2018-05-08 21:10:58		0	0	0	0	0	0	13.74	7.31	0.02	792301	0	17543	549608	792301	792301	57948	122	1221	103	512610	3731540	59394
160	2018-05-08 21:20:56		0	0	0	0	0	0	13.74	7.31	0.02	793265	0	17593	549608	793265	793265	58018	122	1222	103	512822	3731547	59465
161	2018-05-08 21:30:58		0	0	0	0	0	0	13.76	7.31	0.02	794049	0	17651	553867	794049	794049	58066	122	1223	104	513587	3731558	59515
162	2018-05-08 21:41:01		0	0	0	0	0	0	13.77	7.31	0.02	794851	0	17709	554263	794851	794851	58104	122	1223	104	513928	3731566	59553
163	2018-05-08 21:50:59		0	0	0	0	0	0	13.78	7.31	0.02	795600	0	17765	554561	795600	795600	58153	122	1224	104	514184	3731574	59603
164	2018-05-08 22:00:59		0	0	0	0	0	0	13.78	7.31	0.02	796427	0	17818	554760	796427	796427	58202	122	1224	104	514184	3731582	59652
165	2018-05-08 22:11:00		0	0	0	0	0	0	13.79	7.31	0.02	797158	0	17860	555030	797158	797158	58236	122	1225	104	514417	3731603	59687
166	2018-05-08 22:21:00		0	0	0	0	0	0	13.79	7.3	0.02	797980	0	17912	555459	797980	797980	58279	122	1226	104	514529	3731627	59731
167	2018-05-08 22:31:01		0	0	0	0	0	0	13.79	7.3	0.02	798762	0	17986	556058	798762	798762	58331	122	1227	104	514529	3731645	59784
168	2018-05-08 22:41:02		0	0	0	0	0	0	13.8	7.3	0.02	799518	0	18024	556858	799518	799518	58375	122	1228	104	514871	3731670	59829
169	2018-05-08 22:51:02		0	0	0	0	0	0	13.8	7.3	0.02	800248	0	18077	556908	800248	800248	58414	123	1229	104	514871	3731675	59870
170	2018-05-08 23:01:03		0	0	0	0	0	0	13.8	7.3	0.02	800899	0	18125	557108	800899	800899	58452	123	1230	104	515042	3731700	59909
171	2018-05-08 23:11:04		0	0	0	0	0	0	13.82	7.3	0.02	801537	0	18162	557108	801537	801537	58496	123	1232	104	515729	3731721	59955
172	2018-05-08 23:21:03		0	0	0	0	0	0	13.83	7.3	0.02	802168	0	18197	557510	802168	802168	58544	123	1233	104	516073	3731737	60004
173	2018-05-08 23:31:04		0	0	0	0	0	0	13.84	7.3	0.02	802827	0	18230	557962	802827	802827	58587	123	1233	104	516374	3731756	60047
174	2018-05-08 23:41:05		0	0	0	0	0	0	13.84	7.3	0.02	803431	0	18254	557962	803431	803431	58624	123	1233	104	516374	3731761	60084
175	2018-05-08 23:51:02		0	0	0	0	0	0	13.87	7.29	0.02	803970	0	18289	559348	803970	803970	58649	123	1233	104	517561	3731767	60109
176	2018-05-09 00:01:03		0	0	0	0	0	0	13.87	7.29	0.02	804384	0	18316	559348	804384	804384	58679	123	1235	104	517561	3731780	60141
177	2018-05-09 00:11:04		0	0	0	0	0	0	13.87	7.29	0.02	804834	0	18347	559348	804834	804834	58704	123	1235	104	517561	3731789	60166
178	2018-05-09 00:21:03		0	0	0	0	0	0	13.87	7.29	0.02	805269	0	18368	559348	805269	805269	58729	123	1236	104	517561	3731802	60192
179	2018-05-09 00:31:04		0	0	0	0	0	0	13.88	7.29	0.02	805672	0	18390	559752	805672	805672	58754	123	1238	104	517907	3731804	60219
180	2018-05-09 00:41:05		0	0	0	0	0	0	13.88	7.29	0.02	806014	0	18406	559752	806014	806014	58783	123	1240	104	517907	3731813	60250
181	2018-05-09 00:51:04		0	0	0	0	0	0	13.88	7.29	0.02	806373	0	18429	559955	806373	806373	58802	123	1242	104	518080	3731823	60271
182	2018-05-09 01:01:06		0	0	0	0	0	0	13.89	7.29	0.02	806648	0	18444	560259	806648	806648	58818	123	1242	104	518340	3731835	60287
183	2018-05-09 01:11:06		0	0	0	0	0	0	13.89	7.29	0.02	806912	0	18461	560259	806912	806912	58831	123	1243	104	518340	3731843	60301
184	2018-05-09 01:21:07		0	0	0	0	0	0	13.9	7.29	0.02	807149	0	18474	560563	807149	807149	58840	123	1243	104	518601	3731853	60310
185	2018-05-09 01:31:06		0	0	0	0	0	0	13.9	7.29	0.02	807355	0	18481	560563	807355	807355	58852	123	1243	104	518601	3731855	60322
186	2018-05-09 01:41:11		0	0	0	0	0	0	13.9	7.29	0.02	807546	0	18496	560766	807546	807546	58865	123	1243	104	518775	3731847	60335
187	2018-05-09 01:51:08		0	0	0	0	0	0	13.9	7.29	0.02	807694	0	18501	560766	807694	807694	58873	123	1243	104	518775	3731850	60343
188	2018-05-09 02:01:09		0	0	0	0	0	0	13.9	7.29	0.02	807822	0	18504	560766	807822	807822	58883	123	1244	104	518775	3731852	60354
189	2018-05-09 02:11:09		0	0	0	0	0	0	13.9	7.29	0.02	807961	0	18516	560766	807961	807961	58894	123	1246	104	518775	3731854	60367
190	2018-05-09 02:21:09		0	0	0	0	0	0	13.9	7.29	0.02	808095	0	18526	560766	808095	808095	58899	123	1246	104	518775	3731858	60372
191	2018-05-09 02:31:09		0	0	0	0	0	0	13.9	7.29	0.02	808247	0	18535	560766	808247	808247	58906	123	1246	104	518775	3731860	60379
192	2018-05-09 02:41:10		0	0	0	0	0	0	13.9	7.29	0.02	808382	0	18545	560766	808382	808382	58914	123	1247	104	518775	3731859	60388
193	2018-05-09 02:51:10		0	0	0	0	0	0	13.91	7.29	0.02	808496	0	18553	560969	808496	808496	58919	123	1247	104	518949	3731861	60393
194	2018-05-09 03:01:11		0	0	0	0	0	0	13.91	7.29	0.02	808631	0	18560	560969	808631	808631	58923	123	1248	104	518949	3731861	60398
195	2018-05-09 03:11:12		0	0	0	0	0	0	13.91	7.29	0.02	808739	0	18566	560969	808739	808739	58930	123	1248	104	518949	3731863	60405
196	2018-05-09 03:21:12		0	0	0	0	0	0	13.91	7.29	0.02	808816	0	18568	560969	808816	808816	58931	123	1248	104	518949	3731864	60406
197	2018-05-09 03:31:12		0	0	0	0	0	0	13.91	7.29	0.02	808899	0	18571	560969	808899	808899	58934	123	1248	104	518949	3731865	60409
198	2018-05-09 03:41:13		0	0	0	0	0	0	13.91	7.29	0.02	808973	0	18573	560969	808973	808973	58938	123	1248	104	518949	3731866	60413
199	2018-05-09 03:51:14		0	0	0	0	0	0	13.91	7.29	0.02	809034	0	18575	560969	809034	809034	58944	123	1248	104	518949	3731864	60419
200	2018-05-09 04:01:14		0	0	0	0	0	0	13.91	7.29	0.02	809104	0	18580	560969	809104	809104	58949	123	1248	104	518949	3731863	60424
201	2018-05-09 04:11:15		0	0	0	0	0	0	13.91	7.29	0.02	809178	0	18581	560969	809178	809178	58952	123	1248	104	518949	3731862	60427
202	2018-05-09 04:21:15		0	0	0	0	0	0	13.92	7.29	0.02	809250	0	18582	561580	809250	809250	58956	123	1248	104	519471	3731862	60431
203	2018-05-09 04:31:15		0	0	0	0	0	0	13.92	7.29	0.02	809299	0	18585	561580	809299	809299	58959	123	1248	104	519471	3731862	60434
204	2018-05-09 04:41:17		0	0	0	0	0	0	13.92	7.28	0.02	809380	0	18587	561580	809380	809380	58963	123	1248	104	519471	3731860	60438
205	2018-05-09 04:51:17		0	0	0	0	0	0	13.92	7.28	0.02	809427	0	18592	561580	809427	809427	58965	123	1248	104	519471	3731861	60440
206	2018-05-09 05:01:23		0	0	0	0	0	0	13.92	7.28	0.02	809479	0	18598	561580	809479	809479	58969	123	1248	104	519471	3731860	60444
207	2018-05-09 05:11:17		0	0	0	0	0	0	13.92	7.28	0.02	809544	0	18600	561580	809544	809544	58972	123	1248	104	519471	3731862	60447
208	2018-05-09 05:21:17		0	0	0	0	0	0	13.92	7.28	0.02	809630	0	18604	561580	809630	809630	58977	123	1248	104	519471	3731861	60452
209	2018-05-09 05:31:18		0	0	0	0	0	0	13.92	7.28	0.02	809717	0	18606	561580	809717	809717	58979	123	1248	104	519471	3731862	60454
210	2018-05-09 05:41:19		0	0	0	0	0	0	13.92	7.28	0.02	809805	0	18608	561580	809805	809805	58981	123	1248	104	519471	3731864	60456
211	2018-05-09 05:51:18		0	0	0	0	0	0	13.93	7.28	0.02	809898	0	18613	561580	809898	809898	58987	123	1249	104	519820	3731862	60463
212	2018-05-09 06:01:20		0	0	0	0	0	0	13.94	7.28	0.02	810025	0	18617	561975	810025	810025	58995	123	1249	104	520158	3731868	60471
213	2018-05-09 06:11:20		0	0	0	0	0	0	13.94	7.28	0.02	810153	0	18617	561975	810153	810153	59001	123	1249	104	520158	3731867	60477
214	2018-05-09 06:21:20		0	0	0	0	0	0	13.94	7.28	0.02	810293	0	18623	561975	810293	810293	59007	123	1250	104	520158	3731873	60484
215	2018-05-09 06:31:21		0	0	0	0	0	0	13.94	7.28	0.02	810504	0	18627	561975	810504	810504	59027	123	1250	104	520158	3731878	60504
216	2018-05-09 06:41:23		0	0	0	0	0	0	13.94	7.28	0.02	810710	0	18636	561975	810710	810710	59044	123	1250	104	520158	3731883	60521
217	2018-05-09 06:51:25		0	0	0	0	0	0	13.94	7.28	0.02	810931	0	18649	561975	810931	810931	59060	123	1251	104	520158	3731888	60538
218	2018-05-09 07:01:58		0	0	0	0	0	0	13.94	7.28	0.02	811119	0	18658	561975	811119	811119	59068	123	1251	104	520158	3731897	60546
219	2018-05-09 07:11:24		0	0	0	0	0	0	13.94	7.28	0.02	811323	0	18664	561975	811323	811323	59083	123	1251	104	520158	3731903	60561
220	2018-05-09 07:21:25		0	0	0	0	0	0	13.94	7.28	0.02	811515	0	18680	562172	811515	811515	59095	123	1251	104	520327	3731920	60573
221	2018-05-09 07:31:25		0	0	0	0	0	0	13.94	7.28	0.02	811751	0	18689	562172	811751	811751	59108	123	1251	104	520327	3731932	60586
222	2018-05-09 07:41:26		0	0	0	0	0	0	13.94	7.28	0.02	812009	0	18712	562172	812009	812009	59128	123	1251	104	520327	3731939	60606
223	2018-05-09 07:51:25		0	0	0	0	0	0	13.94	7.28	0.02	812254	0	18717	562172	812254	812254	59140	123	1251	104	520327	3731950	60618
224	2018-05-09 08:01:27		0	0	0	0	0	0	13.94	7.28	0.02	812488	0	18728	562990	812488	812488	59145	123	1252	104	520327	3731957	60624
225	2018-05-09 08:11:28		0	0	0	0	0	0	13.96	7.28	0.02	812791	0	18745	563605	812791	812791	59161	123	1253	104	520853	3731971	60641
226	2018-05-09 08:21:28		0	0	0	0	0	0	13.96	7.28	0.02	813088	0	18765	563605	813088	813088	59179	123	1253	104	520853	3731985	60659
227	2018-05-09 08:31:28		0	0	0	0	0	0	13.96	7.28	0.02	813344	0	18779	563605	813344	813344	59197	123	1253	104	520853	3732001	60677
228	2018-05-09 08:41:30		0	0	0	0	0	0	13.96	7.28	0.02	813592	0	18792	563861	813592	813592	59211	123	1253	104	521072	3732015	60691
229	2018-05-09 08:51:30		0	0	0	0	0	0	13.97	7.28	0.02	813887	0	18813	564272	813887	813887	59228	123	1253	104	521423	3732034	60708
230	2018-05-09 09:01:32		0	0	0	0	0	0	13.97	7.28	0.02	814155	0	18830	564292	814155	814155	59245	123	1254	104	521439	3732047	60726
231	2018-05-09 09:11:33		0	0	0	0	0	0	13.97	7.28	0.02	814405	0	18854	564292	814405	814405	59255	123	1254	104	521439	3732067	60736
232	2018-05-09 09:21:32		0	0	0	0	0	0	13.97	7.28	0.02	814663	0	18869	564292	814663	814663	59270	123	1254	104	521439	3732088	60751
233	2018-05-09 09:31:34		0	0	0	0	0	0	13.97	7.27	0.02	814891	0	18881	564292	814891	814891	59282	123	1255	104	521439	3732100	60764
234	2018-05-09 09:41:34		0	0	0	0	0	0	13.98	7.27	0.02	815132	0	18893	564700	815132	815132	59293	123	1255	104	521788	3732117	60775
235	2018-05-09 09:51:33		0	0	0	0	0	0	13.98	7.27	0.02	815368	0	18908	564700	815368	815368	59307	123	1256	104	521788	3732139	60790
236	2018-05-09 10:01:36		0	0	0	0	0	0	14.02	7.27	0.02	815599	0	18918	566560	815599	815599	59320	123	1256	104	523376	3732164	60803
237	2018-05-09 10:11:36		0	0	0	0	0	0	14.02	7.27	0.02	815858	0	18943	566560	815858	815858	59337	123	1256	104	523376	3732178	60820
238	2018-05-09 10:21:36		0	0	0	0	0	0	14.02	7.27	0.02	816082	0	18961	566560	816082	816082	59347	123	1256	104	523376	3732198	60830
239	2018-05-09 10:31:41		0	0	0	0	0	0	14.03	7.27	0.02	816288	0	18974	566768	816288	816288	59359	123	1256	104	523553	3732217	60842
240	2018-05-09 10:41:36		0	0	0	0	0	0	14.03	7.27	0.02	816515	0	18986	566768	816515	816515	59372	123	1256	104	523553	3732244	60855
241	2018-05-09 10:51:37		0	0	0	0	0	0	14.03	7.27	0.02	816704	0	18994	566768	816704	816704	59381	123	1256	104	523553	3732256	60864
242	2018-05-09 11:01:38		0	0	0	0	0	0	14.03	7.27	0.02	816887	0	19003	566768	816887	816887	59391	123	1256	104	523553	3732283	60874
243	2018-05-09 11:11:38		0	0	0	0	0	0	14.03	7.27	0.02	817043	0	19011	566768	817043	817043	59399	123	1256	104	523553	3732308	60882
244	2018-05-09 11:21:39		0	0	0	0	0	0	14.03	7.27	0.02	817261	0	19025	566768	817261	817261	59412	123	1256	104	523553	3732331	60895
245	2018-05-09 11:31:39		0	0	0	0	0	0	14.03	7.27	0.02	817445	0	19036	566768	817445	817445	59417	123	1256	104	523553	3732348	60900
246	2018-05-09 11:41:39		0	0	0	0	0	0	14.03	7.27	0.02	817617	0	19048	566768	817617	817617	59429	123	1256	104	523553	3732372	60912
247	2018-05-09 11:51:39		0	0	0	0	0	0	14.03	7.27	0.02	817774	0	19055	566768	817774	817774	59439	123	1256	104	523553	3732415	60922
248	2018-05-09 12:01:44		0	0	0	0	0	0	14.04	7.27	0.02	817941	0	19069	567391	817941	817941	59443	123	1256	104	524084	3732432	60926
249	2018-05-09 12:11:43		0	0	0	0	0	0	14.04	7.27	0.02	818123	0	19086	567391	818123	818123	59449	123	1256	104	524084	3732462	60932
250	2018-05-09 12:21:57		0	0	0	0	0	0	14.04	7.27	0.02	818315	0	19096	567391	818315	818315	59459	123	1256	104	524084	3732483	60942
251	2018-05-09 12:31:57		0	0	0	0	0	0	14.04	7.27	0.02	818533	0	19108	567599	818533	818533	59475	123	1257	104	524084	3732508	60959
252	2018-05-09 12:41:55		0	0	0	0	0	0	14.04	7.27	0.02	818728	0	19123	568224	818728	818728	59486	123	1257	104	524084	3732541	60970
253	2018-05-09 12:51:55		0	0	0	0	0	0	14.04	7.27	0.02	818891	0	19139	568224	818891	818891	59496	123	1257	104	524084	3732576	60980
254	2018-05-09 13:01:56		0	0	0	0	0	0	14.05	7.26	0.02	819037	0	19153	568641	819037	819037	59501	123	1257	104	524439	3732599	60985
255	2018-05-09 13:11:56		0	0	0	0	0	0	14.05	7.26	0.02	819169	0	19160	568667	819169	819169	59505	123	1258	104	524462	3732629	60990
256	2018-05-09 13:21:56		0	0	0	0	0	0	14.05	7.26	0.02	819303	0	19169	568667	819303	819303	59508	123	1258	104	524462	3732649	60993
257	2018-05-09 13:31:57		0	0	0	0	0	0	14.05	7.26	0.02	819427	0	19175	568667	819427	819427	59517	123	1258	104	524462	3732672	61002
258	2018-05-09 13:42:16		0	0	0	0	0	0	14.05	7.26	0.02	819598	0	19192	568667	819598	819598	59527	123	1258	104	524462	3732695	61012
259	2018-05-09 13:52:00		0	0	0	0	0	0	14.05	7.26	0.02	819759	0	19201	568768	819759	819759	59536	123	1258	104	524548	3732716	61021
260	2018-05-09 14:02:16		0	0	0	0	0	0	14.05	7.26	0.02	819933	0	19210	568768	819933	819933	59549	123	1259	104	524548	3732736	61035
261	2018-05-09 14:12:11		0	0	0	0	0	0	14.05	7.26	0.02	820099	0	19227	568768	820099	820099	59555	124	1260	104	524548	3732752	61043
262	2018-05-09 14:22:02		0	0	0	0	0	0	14.06	7.26	0.02	820270	0	19239	568951	820270	820270	59562	125	1260	104	524703	3732771	61051
263	2018-05-09 14:32:19		0	0	0	0	0	0	14.06	7.26	0.02	820431	0	19250	568951	820431	820431	59574	125	1260	104	524703	3732790	61063
264	2018-05-09 14:42:03		0	0	0	0	0	0	14.06	7.26	0.02	820638	0	19262	568951	820638	820638	59586	125	1260	104	524703	3732809	61075
265	2018-05-09 14:52:04		0	0	0	0	0	0	14.06	7.26	0.02	820770	0	19274	568951	820770	820770	59592	125	1260	104	524703	3732828	61081
266	2018-05-09 15:02:06		0	0	0	0	0	0	14.06	7.26	0.02	820949	0	19290	568951	820949	820949	59600	125	1260	104	524703	3732847	61089
267	2018-05-09 15:12:05		0	0	0	0	0	0	14.07	7.26	0.02	821115	0	19302	569357	821115	821115	59608	125	1260	104	525048	3732859	61097
268	2018-05-09 15:22:06		0	0	0	0	0	0	14.07	7.26	0.02	821249	0	19309	569357	821249	821249	59619	125	1260	104	525048	3732887	61108
269	2018-05-09 15:32:07		0	0	0	0	0	0	14.07	7.26	0.02	821436	0	19317	569357	821436	821436	59629	125	1260	104	525048	3732902	61118
270	2018-05-09 15:42:07		0	0	0	0	0	0	14.07	7.26	0.02	821604	0	19327	569357	821604	821604	59637	125	1260	104	525048	3732922	61126
271	2018-05-09 15:52:07		0	0	0	0	0	0	14.1	7.26	0.02	821787	0	19337	569357	821787	821787	59641	125	1260	104	526297	3732936	61130
272	2018-05-09 16:02:12		0	0	0	0	0	0	14.11	7.26	0.02	821942	0	19349	569907	821942	821942	59648	125	1260	104	526767	3732949	61137
273	2018-05-09 16:12:22		0	0	0	0	0	0	14.11	7.26	0.02	822111	0	19361	569907	822111	822111	59658	125	1260	104	526767	3732966	61147
274	2018-05-09 16:22:12		0	0	0	0	0	0	14.11	7.26	0.02	822288	0	19373	569907	822288	822288	59665	125	1260	104	526767	3732977	61154
275	2018-05-09 16:32:12		0	0	0	0	0	0	14.11	7.26	0.02	822463	0	19384	569907	822463	822463	59675	125	1260	104	526767	3732996	61164
276	2018-05-09 16:42:11		0	0	0	0	0	0	14.11	7.26	0.02	822635	0	19392	569907	822635	822635	59685	125	1260	104	526767	3733005	61174
277	2018-05-09 16:52:12		0	0	0	0	0	0	14.11	7.25	0.02	822815	0	19405	569907	822815	822815	59694	125	1260	104	526767	3733020	61183
278	2018-05-09 17:02:19		0	0	0	0	0	0	14.11	7.25	0.02	822986	0	19416	569907	822986	822986	59703	125	1260	104	526767	3733033	61192
279	2018-05-09 17:12:13		0	0	0	0	0	0	14.13	7.25	0.02	823189	0	19423	570642	823189	823189	59714	125	1260	104	527395	3733046	61203
280	2018-05-09 17:22:14		0	0	0	0	0	0	14.15	7.25	0.02	823354	0	19432	571485	823354	823354	59725	125	1260	104	528115	3733054	61214
281	2018-05-09 17:32:13		0	0	0	0	0	0	14.15	7.25	0.02	823528	0	19444	571485	823528	823528	59734	125	1261	104	528115	3733071	61224
282	2018-05-09 17:42:14		0	0	0	0	0	0	14.15	7.25	0.02	823674	0	19449	571485	823674	823674	59739	125	1261	104	528115	3733089	61229
283	2018-05-09 17:52:14		0	0	0	0	0	0	14.15	7.25	0.02	823843	0	19464	571485	823843	823843	59753	125	1261	104	528115	3733103	61243
284	2018-05-09 18:02:15		0	0	0	0	0	0	14.15	7.25	0.02	824016	0	19478	571485	824016	824016	59760	125	1261	104	528115	3733126	61250
285	2018-05-09 18:12:19		0	0	0	0	0	0	14.15	7.25	0.02	824210	0	19493	571485	824210	824210	59768	125	1262	104	528115	3733142	61259
286	2018-05-09 18:22:18		0	0	0	0	0	0	14.15	7.25	0.02	824350	0	19504	571485	824350	824350	59773	125	1263	104	528115	3733161	61265
287	2018-05-09 18:32:19		0	0	0	0	0	0	14.16	7.25	0.02	824568	0	19526	572118	824568	824568	59783	125	1263	104	528656	3733200	61275
288	2018-05-09 18:42:20		0	0	0	0	0	0	14.16	7.25	0.02	824687	0	19535	572118	824687	824687	59787	125	1263	104	528656	3733211	61279
289	2018-05-09 18:52:20		0	0	0	0	0	0	14.17	7.25	0.02	824837	0	19545	572303	824837	824837	59790	125	1263	104	528814	3733224	61282
290	2018-05-09 19:02:21		0	0	0	0	0	0	14.17	7.25	0.02	824984	0	19550	572303	824984	824984	59799	125	1263	104	528814	3733227	61291
291	2018-05-09 19:12:21		0	0	0	0	0	0	14.16	7.25	0.02	825116	0	19552	572303	825116	825116	59806	125	1263	104	528814	3733251	61298
292	2018-05-09 19:22:22		0	0	0	0	0	0	14.16	7.25	0.02	825252	0	19564	572303	825252	825252	59811	125	1263	104	528814	3733308	61303
293	2018-05-09 19:32:22		0	0	0	0	0	0	14.17	7.25	0.02	825412	0	19581	572727	825412	825412	59823	125	1263	104	529176	3733333	61315
294	2018-05-09 19:42:24		0	0	0	0	0	0	14.17	7.25	0.02	825572	0	19597	572727	825572	825572	59829	125	1263	104	529176	3733355	61321
295	2018-05-09 19:52:23		0	0	0	0	0	0	14.17	7.25	0.02	825732	0	19608	572727	825732	825732	59838	125	1263	104	529176	3733372	61330
296	2018-05-09 20:02:27		0	0	0	0	0	0	14.17	7.25	0.02	825888	0	19620	572727	825888	825888	59846	125	1263	104	529176	3733393	61338
297	2018-05-09 20:12:24		0	0	0	0	0	0	14.17	7.25	0.02	826066	0	19630	572727	826066	826066	59860	125	1263	104	529176	3733418	61352
298	2018-05-09 20:22:24		0	0	0	0	0	0	14.17	7.25	0.02	826193	0	19638	572727	826193	826193	59864	125	1263	104	529176	3733430	61356
299	2018-05-09 20:32:26		0	0	0	0	0	0	14.17	7.25	0.02	826330	0	19651	572727	826330	826330	59869	125	1264	104	529176	3733442	61362
300	2018-05-09 20:42:26		0	0	0	0	0	0	14.17	7.24	0.02	826493	0	19664	572727	826493	826493	59876	125	1264	104	529176	3733464	61369
301	2018-05-09 20:52:26		0	0	0	0	0	0	14.17	7.24	0.02	826627	0	19672	572727	826627	826627	59882	125	1264	104	529176	3733500	61375
302	2018-05-09 21:02:28		0	0	0	0	0	0	14.17	7.24	0.02	826743	0	19686	572727	826743	826743	59886	125	1264	104	529176	3733535	61379
303	2018-05-09 21:12:28		0	0	0	0	0	0	14.17	7.24	0.02	826891	0	19696	572727	826891	826891	59891	125	1264	104	529176	3733564	61384
304	2018-05-09 21:22:29		0	0	0	0	0	0	14.17	7.24	0.02	827004	0	19706	572727	827004	827004	59893	125	1264	104	529176	3733610	61386
305	2018-05-09 21:32:29		0	0	0	0	0	0	14.17	7.24	0.02	827151	0	19718	573575	827151	827151	59896	125	1264	104	529176	3733666	61389
306	2018-05-09 21:42:31		0	0	0	0	0	0	14.18	7.24	0.02	827312	0	19738	573682	827312	827312	59901	125	1264	104	529266	3733716	61394
307	2018-05-09 21:52:31		0	0	0	0	0	0	14.18	7.24	0.02	827441	0	19743	574107	827441	827441	59907	125	1264	104	529628	3733778	61400
308	2018-05-09 22:02:33		0	0	0	0	0	0	14.18	7.24	0.02	827615	0	19757	574107	827615	827615	59914	125	1264	104	529628	3733851	61407
309	2018-05-09 22:12:32		0	0	0	0	0	0	14.18	7.24	0.02	827767	0	19774	574107	827767	827767	59919	125	1264	104	529628	3733903	61412
310	2018-05-09 22:22:33		0	0	0	0	0	0	14.18	7.24	0.02	827935	0	19792	574107	827935	827935	59925	125	1264	104	529628	3733947	61418
311	2018-05-09 22:32:33		0	0	0	0	0	0	14.18	7.24	0.02	828085	0	19806	574107	828085	828085	59933	125	1264	104	529628	3734024	61426
312	2018-05-09 22:42:33		0	0	0	0	0	0	14.2	7.24	0.02	828291	0	19821	574107	828291	828291	59942	125	1264	104	530172	3734074	61435
313	2018-05-09 22:52:34		0	0	0	0	0	0	14.2	7.24	0.02	828459	0	19829	574107	828459	828459	59949	125	1264	104	530172	3734133	61442
314	2018-05-09 23:02:35		0	0	0	0	0	0	14.2	7.24	0.02	828599	0	19844	574107	828599	828599	59958	125	1264	104	530172	3734199	61451
315	2018-05-09 23:12:35		0	0	0	0	0	0	14.2	7.24	0.02	828766	0	19850	574107	828766	828766	59962	125	1264	104	530172	3734250	61455
316	2018-05-09 23:22:36		0	0	0	0	0	0	14.2	7.23	0.02	828897	0	19859	574107	828897	828897	59969	125	1264	104	530172	3734309	61462
317	2018-05-09 23:32:36		0	0	0	0	0	0	14.2	7.23	0.02	829034	0	19864	574107	829034	829034	59972	125	1264	104	530354	3734363	61465
318	2018-05-09 23:42:36		0	0	0	0	0	0	14.2	7.23	0.02	829195	0	19883	574107	829195	829195	59982	125	1264	104	530354	3734403	61475
319	2018-05-09 23:52:42		0	0	0	0	0	0	14.2	7.23	0.02	829323	0	19888	574107	829323	829323	59987	125	1265	104	530354	3734452	61481
320	2018-05-10 00:02:38		0	0	0	0	0	0	14.2	7.23	0.02	829447	0	19894	574107	829447	829447	59992	125	1265	104	530354	3734496	61486
321	2018-05-10 00:12:37		0	0	0	0	0	0	14.2	7.23	0.02	829610	0	19907	574107	829610	829610	59999	125	1265	104	530354	3734527	61493
322	2018-05-10 00:22:37		0	0	0	0	0	0	14.2	7.23	0.02	829735	0	19910	574107	829735	829735	60002	125	1265	105	530354	3734561	61497
323	2018-05-10 00:32:37		0	0	0	0	0	0	14.2	7.23	0.02	829857	0	19918	574267	829857	829857	60010	125	1265	105	530490	3734592	61505
324	2018-05-10 00:42:38		0	0	0	0	0	0	14.2	7.23	0.02	829958	0	19926	574267	829958	829958	60013	125	1266	105	530490	3734628	61509
325	2018-05-10 00:52:38		0	0	0	0	0	0	14.2	7.23	0.02	830088	0	19934	574267	830088	830088	60016	125	1266	105	530490	3734659	61512
326	2018-05-10 01:02:39		0	0	0	0	0	0	14.2	7.23	0.02	830173	0	19945	574267	830173	830173	60018	125	1266	105	530490	3734687	61514
327	2018-05-10 01:12:39		0	0	0	0	0	0	14.2	7.23	0.02	830240	0	19947	574267	830240	830240	60023	125	1266	105	530490	3734709	61519
328	2018-05-10 01:22:39		0	0	0	0	0	0	14.2	7.23	0.02	830338	0	19952	574267	830338	830338	60026	125	1266	105	530490	3734738	61522
329	2018-05-10 01:32:40		0	0	0	0	0	0	14.2	7.23	0.02	830399	0	19958	574267	830399	830399	60028	125	1266	105	530490	3734761	61524
330	2018-05-10 01:42:40		0	0	0	0	0	0	14.2	7.23	0.02	830452	0	19963	574267	830452	830452	60029	125	1266	105	530490	3734785	61525
331	2018-05-10 01:52:42		0	0	0	0	0	0	14.2	7.23	0.02	830504	0	19966	574267	830504	830504	60032	125	1266	105	530490	3734797	61528
332	2018-05-10 02:02:42		0	0	0	0	0	0	14.2	7.23	0.02	830550	0	19970	574267	830550	830550	60035	125	1266	105	530490	3734817	61531
333	2018-05-10 02:12:41		0	0	0	0	0	0	14.2	7.23	0.02	830601	0	19971	574267	830601	830601	60037	125	1266	105	530490	3734830	61533
334	2018-05-10 02:22:42		0	0	0	0	0	0	14.2	7.23	0.02	830635	0	19973	574267	830635	830635	60039	125	1266	105	530490	3734844	61535
335	2018-05-10 02:32:43		0	0	0	0	0	0	14.2	7.23	0.02	830681	0	19974	574267	830681	830681	60041	125	1266	105	530490	3734857	61537
336	2018-05-10 02:42:43		0	0	0	0	0	0	14.2	7.23	0.02	830711	0	19980	574267	830711	830711	60041	125	1266	105	530490	3734866	61537
337	2018-05-10 02:52:44		0	0	0	0	0	0	14.2	7.23	0.02	830734	0	19981	574267	830734	830734	60043	125	1266	105	530490	3734873	61539
338	2018-05-10 03:02:46		0	0	0	0	0	0	14.22	7.23	0.02	830756	0	19981	574907	830756	830756	60044	125	1266	105	531036	3734880	61540
339	2018-05-10 03:12:45		0	0	0	0	0	0	14.22	7.23	0.02	830781	0	19981	574907	830781	830781	60044	125	1266	105	531036	3734885	61540
340	2018-05-10 03:22:45		0	0	0	0	0	0	14.22	7.23	0.02	830817	0	19983	574907	830817	830817	60044	125	1266	105	531036	3734890	61540
341	2018-05-10 03:32:46		0	0	0	0	0	0	14.22	7.23	0.02	830841	0	19984	574907	830841	830841	60045	125	1266	105	531036	3734895	61541
342	2018-05-10 03:42:46		0	0	0	0	0	0	14.22	7.23	0.02	830860	0	19985	574907	830860	830860	60045	125	1266	105	531036	3734901	61541
343	2018-05-10 03:52:47		0	0	0	0	0	0	14.22	7.23	0.02	830878	0	19986	574907	830878	830878	60046	125	1266	105	531036	3734906	61542
344	2018-05-10 04:02:48		0	0	0	0	0	0	14.22	7.23	0.02	830900	0	19986	574907	830900	830900	60048	125	1266	105	531036	3734906	61544
345	2018-05-10 04:12:48		0	0	0	0	0	0	14.22	7.23	0.02	830921	0	19988	574907	830921	830921	60048	125	1266	105	531036	3734911	61544
346	2018-05-10 04:22:52		0	0	0	0	0	0	14.22	7.23	0.02	830944	0	19990	574907	830944	830944	60048	125	1266	105	531036	3734915	61544
347	2018-05-10 04:32:55		0	0	0	0	0	0	14.22	7.23	0.02	830957	0	19992	574907	830957	830957	60048	125	1266	105	531036	3734920	61544
348	2018-05-10 04:42:54		0	0	0	0	0	0	14.22	7.23	0.02	830972	0	19992	574907	830972	830972	60049	125	1266	105	531036	3734921	61545
349	2018-05-10 04:52:51		0	0	0	0	0	0	14.22	7.23	0.02	830999	0	19992	574907	830999	830999	60050	125	1266	105	531036	3734923	61546
350	2018-05-10 05:02:52		0	0	0	0	0	0	14.22	7.23	0.02	831023	0	19994	574907	831023	831023	60052	125	1266	105	531036	3734927	61548
351	2018-05-10 05:12:51		0	0	0	0	0	0	14.22	7.23	0.02	831036	0	19994	574907	831036	831036	60053	125	1266	105	531036	3734932	61549
352	2018-05-10 05:22:52		0	0	0	0	0	0	14.22	7.23	0.02	831052	0	19995	574907	831052	831052	60053	125	1266	105	531036	3734936	61549
353	2018-05-10 05:32:52		0	0	0	0	0	0	14.22	7.23	0.02	831072	0	19995	574907	831072	831072	60054	125	1266	105	531036	3734940	61550
354	2018-05-10 05:42:53		0	0	0	0	0	0	14.22	7.23	0.02	831099	0	19996	574907	831099	831099	60056	125	1266	105	531036	3734943	61552
355	2018-05-10 05:52:57		0	0	0	0	0	0	14.22	7.23	0.02	831116	0	19996	574907	831116	831116	60060	125	1266	105	531036	3734958	61556
356	2018-05-10 06:02:57		0	0	0	0	0	0	14.22	7.23	0.02	831134	0	19996	574907	831134	831134	60061	125	1266	105	531036	3734966	61557
357	2018-05-10 06:12:57		0	0	0	0	0	0	14.22	7.23	0.02	831161	0	19996	574907	831161	831161	60063	125	1266	105	531036	3734976	61559
358	2018-05-10 06:22:57		0	0	0	0	0	0	14.22	7.23	0.02	831203	0	19997	574907	831203	831203	60067	125	1266	105	531036	3734987	61563
359	2018-05-10 06:32:56		0	0	0	0	0	0	14.22	7.23	0.02	831267	0	20004	574907	831267	831267	60069	125	1266	105	531036	3734997	61565
360	2018-05-10 06:42:56		0	0	0	0	0	0	14.22	7.23	0.02	831319	0	20007	574907	831319	831319	60072	125	1266	105	531036	3735010	61568
361	2018-05-10 06:52:57		0	0	0	0	0	0	14.22	7.23	0.02	831379	0	20010	574907	831379	831379	60075	125	1266	105	531036	3735024	61571
362	2018-05-10 07:02:58		0	0	0	0	0	0	14.22	7.23	0.02	831449	0	20017	574907	831449	831449	60077	125	1266	105	531036	3735043	61573
363	2018-05-10 07:12:59		0	0	0	0	0	0	14.23	7.23	0.02	831510	0	20023	575548	831510	831510	60079	125	1266	105	531583	3735065	61575
364	2018-05-10 07:22:58		0	0	0	0	0	0	14.23	7.23	0.02	831598	0	20029	575548	831598	831598	60084	125	1266	105	531583	3735087	61580
365	2018-05-10 07:32:59		0	0	0	0	0	0	14.23	7.22	0.02	831676	0	20038	575548	831676	831676	60087	125	1266	105	531583	3735106	61583
366	2018-05-10 07:43:11		0	0	0	0	0	0	14.23	7.23	0.02	831771	0	20046	575548	831771	831771	60096	125	1267	105	531583	3735135	61593
367	2018-05-10 07:53:03		0	0	0	0	0	0	14.24	7.23	0.02	831855	0	20055	575963	831855	831855	60103	125	1267	105	531937	3735167	61600
368	2018-05-10 08:03:02		0	0	0	0	0	0	14.24	7.23	0.02	831932	0	20061	575963	831932	831932	60108	125	1267	105	531937	3735199	61605
369	2018-05-10 08:13:02		0	0	0	0	0	0	14.24	7.22	0.02	832043	0	20071	575963	832043	832043	60113	125	1267	105	531937	3735222	61610
370	2018-05-10 08:23:02		0	0	0	0	0	0	14.24	7.22	0.02	832122	0	20076	575963	832122	832122	60115	125	1267	105	531937	3735247	61612
371	2018-05-10 08:33:02		0	0	0	0	0	0	14.24	7.22	0.02	832219	0	20080	575963	832219	832219	60121	125	1267	105	531937	3735289	61618
372	2018-05-10 08:43:02		0	0	0	0	0	0	14.24	7.22	0.02	832310	0	20088	575963	832310	832310	60123	125	1267	105	531937	3735320	61620
373	2018-05-10 08:53:03		0	0	0	0	0	0	14.24	7.22	0.02	832401	0	20088	575963	832401	832401	60129	125	1267	105	531937	3735361	61626
374	2018-05-10 09:03:08		0	0	0	0	0	0	14.24	7.22	0.02	832503	0	20096	575963	832503	832503	60132	125	1267	105	531937	3735400	61629
375	2018-05-10 09:13:05		0	0	0	0	0	0	14.24	7.22	0.02	832596	0	20108	575963	832596	832596	60135	125	1267	105	531937	3735443	61632
376	2018-05-10 09:23:05		0	0	0	0	0	0	14.24	7.22	0.02	832677	0	20109	575963	832677	832677	60141	125	1267	105	531937	3735483	61638
377	2018-05-10 09:33:05		0	0	0	0	0	0	14.24	7.22	0.02	832754	0	20114	575963	832754	832754	60147	125	1267	105	531937	3735523	61644
378	2018-05-10 09:43:07		0	0	0	0	0	0	14.24	7.22	0.02	832839	0	20119	576124	832839	832839	60149	125	1268	105	532074	3735552	61647
379	2018-05-10 09:53:07		0	0	0	0	0	0	14.24	7.22	0.02	832942	0	20122	576124	832942	832942	60156	125	1268	105	532074	3735608	61654
380	2018-05-10 10:03:09		0	0	0	0	0	0	14.24	7.22	0.02	833035	0	20128	576124	833035	833035	60158	125	1268	105	532074	3735640	61656
381	2018-05-10 10:13:09		0	0	0	0	0	0	14.24	7.22	0.02	833121	0	20135	576124	833121	833121	60168	125	1268	105	532074	3735676	61666
382	2018-05-10 10:23:10		0	0	0	0	0	0	14.24	7.22	0.02	833199	0	20142	576124	833199	833199	60169	125	1268	105	532074	3735724	61667
383	2018-05-10 10:33:11		0	0	0	0	0	0	14.24	7.22	0.02	833267	0	20143	576124	833267	833267	60171	125	1268	105	532074	3735773	61669
384	2018-05-10 10:43:10		0	0	0	0	0	0	14.24	7.22	0.02	833344	0	20148	576124	833344	833344	60179	125	1268	105	532074	3735806	61677
385	2018-05-10 10:53:11		0	0	0	0	0	0	14.24	7.22	0.02	833414	0	20158	576124	833414	833414	60182	125	1268	105	532074	3735843	61680
386	2018-05-10 11:03:12		0	0	0	0	0	0	14.24	7.22	0.02	833490	0	20160	576124	833490	833490	60183	125	1268	105	532074	3735881	61681
387	2018-05-10 11:13:12		0	0	0	0	0	0	14.24	7.22	0.02	833544	0	20165	576124	833544	833544	60187	125	1268	105	532074	3735924	61685
388	2018-05-10 11:23:12		0	0	0	0	0	0	14.24	7.22	0.02	833621	0	20173	576124	833621	833621	60191	125	1268	105	532074	3735967	61689
389	2018-05-10 11:33:13		0	0	0	0	0	0	14.24	7.22	0.02	833703	0	20180	576231	833703	833703	60195	125	1268	105	532166	3736021	61693
390	2018-05-10 11:43:14		0	0	0	0	0	0	14.24	7.22	0.02	833772	0	20184	576231	833772	833772	60197	125	1268	105	532166	3736074	61695
391	2018-05-10 11:53:14		0	0	0	0	0	0	14.24	7.22	0.02	833848	0	20190	576231	833848	833848	60198	125	1268	105	532166	3736115	61696
392	2018-05-10 12:03:16		0	0	0	0	0	0	14.24	7.22	0.02	833922	0	20198	576231	833922	833922	60200	125	1268	105	532166	3736158	61698
393	2018-05-10 12:13:35		0	0	0	0	0	0	14.24	7.22	0.02	833996	0	20204	576231	833996	833996	60203	125	1268	105	532166	3736205	61701
394	2018-05-10 12:23:31		0	0	0	0	0	0	14.24	7.22	0.02	834065	0	20205	576231	834065	834065	60206	125	1268	105	532166	3736267	61704
395	2018-05-10 12:29:35		0	0	0	0	0	0	14.24	7.22	0.02	834090	0	20207	576231	834090	834090	60208	125	1268	105	532166	3736295	61706
396	2018-05-10 12:39:35		0	0	0	0	0	0	14.24	7.22	0.02	834197	0	20210	576231	834197	834161	60211	125	1268	105	532166	3736344	61709
397	2018-05-10 12:49:35		0	0	0	0	0	0	14.24	7.22	0.02	834223	0	20215	576231	834223	834223	60212	125	1268	105	532166	3736395	61710
398	2018-05-10 12:59:36		0	0	0	0	0	0	14.24	7.22	0.02	834291	0	20225	576231	834291	834291	60217	125	1268	105	532166	3736433	61715
399	2018-05-10 13:09:39		0	0	0	0	0	0	14.24	7.22	0.02	834361	0	20234	576231	834361	834361	60221	125	1268	105	532166	3736468	61719
400	2018-05-10 13:19:40		0	0	0	0	0	0	14.24	7.22	0.02	834427	0	20239	576231	834427	834427	60227	125	1269	105	532166	3736509	61726
401	2018-05-10 13:29:41		0	0	0	0	0	0	14.24	7.22	0.02	834489	0	20244	576231	834489	834489	60228	125	1269	105	532166	3736553	61727
402	2018-05-10 13:39:40		0	0	0	0	0	0	14.24	7.22	0.02	834570	0	20252	576231	834570	834570	60232	125	1269	105	532166	3736603	61731
403	2018-05-10 13:49:39		0	0	0	0	0	0	14.24	7.22	0.02	834696	0	20254	576231	834696	834652	60232	125	1269	105	532166	3736642	61731
404	2018-05-10 13:59:39		0	0	0	0	0	0	14.24	7.22	0.02	834725	0	20254	576231	834725	834725	60233	125	1269	105	532166	3736682	61732
405	2018-05-10 14:09:41		0	0	0	0	0	0	14.24	7.22	0.02	834777	0	20258	576231	834777	834777	60234	125	1269	105	532166	3736727	61733
406	2018-05-10 14:19:44		0	0	0	0	0	0	14.24	7.22	0.02	834853	0	20258	576231	834853	834853	60236	125	1269	105	532166	3736782	61735
407	2018-05-10 14:29:42		0	0	0	0	0	0	14.24	7.21	0.02	834952	0	20262	576231	834952	834952	60240	125	1269	105	532166	3736833	61739
408	2018-05-10 14:39:42		0	0	0	0	0	0	14.24	7.21	0.02	834985	0	20265	576231	834985	834985	60244	125	1269	105	532166	3736865	61743
409	2018-05-10 14:49:42		0	0	0	0	0	0	14.24	7.21	0.02	835069	0	20268	576231	835069	835069	60245	125	1269	105	532166	3736906	61744
410	2018-05-10 14:59:43		0	0	0	0	0	0	14.24	7.21	0.02	835167	0	20275	576231	835167	835167	60246	125	1269	105	532166	3736935	61745
411	2018-05-10 15:09:45		0	0	0	0	0	0	14.25	7.21	0.02	835224	0	20279	576821	835224	835224	60248	125	1269	105	532669	3736966	61747
412	2018-05-10 15:19:47		0	0	0	0	0	0	14.25	7.21	0.02	835277	0	20283	576821	835277	835253	60254	125	1269	105	532669	3737004	61753
413	2018-05-10 15:29:49		0	0	0	0	0	0	14.25	7.21	0.02	835309	0	20290	576821	835309	835365	60257	125	1269	105	532669	3737033	61756
414	2018-05-10 15:39:54		0	0	0	0	0	0	14.27	7.21	0.02	835419	0	20294	577628	835419	835419	60258	125	1269	105	533357	3737068	61757
415	2018-05-10 15:49:47		0	0	0	0	0	0	14.27	7.21	0.02	835452	0	20300	577628	835452	835452	60260	125	1269	105	533357	3737100	61759
416	2018-05-10 15:59:47		0	0	0	0	0	0	14.27	7.21	0.02	835551	0	20303	577628	835551	835517	60260	125	1269	105	533357	3737133	61759
417	2018-05-10 16:09:51		0	0	0	0	0	0	14.28	7.21	0.02	835631	0	20305	578060	835631	835590	60260	125	1269	105	533725	3737152	61759
418	2018-05-10 16:19:48		0	0	0	0	0	0	14.29	7.21	0.02	835681	0	20306	578060	835681	835681	60265	124	1269	105	534001	3737177	61763
419	2018-05-10 16:29:50		0	0	0	0	0	0	14.29	7.21	0.02	835755	0	20308	578060	835755	835755	60265	124	1269	105	534001	3737213	61763
420	2018-05-10 16:39:51		0	0	0	0	0	0	14.29	7.21	0.02	835832	0	20309	578060	835832	835832	60270	124	1269	105	534001	3737242	61768
421	2018-05-10 16:49:51		0	0	0	0	0	0	14.29	7.21	0.02	835896	0	20313	578383	835896	835896	60272	124	1269	105	534001	3737273	61770
422	2018-05-10 16:59:52		0	0	0	0	0	0	14.29	7.21	0.02	835974	0	20318	578383	835974	835974	60276	124	1269	105	534001	3737313	61774
423	2018-05-10 17:09:52		0	0	0	0	0	0	14.29	7.21	0.02	836039	0	20323	578383	836039	836039	60277	124	1270	105	534001	3737335	61776
424	2018-05-10 17:19:52		0	0	0	0	0	0	14.29	7.21	0.02	836161	0	20328	578383	836161	836161	60287	124	1270	105	534001	3737371	61786
425	2018-05-10 17:29:52		0	0	0	0	0	0	14.29	7.21	0.02	836235	0	20336	578383	836235	836235	60290	124	1270	105	534001	3737410	61789
426	2018-05-10 17:39:53		0	0	0	0	0	0	14.29	7.21	0.02	836315	0	20342	578383	836315	836315	60293	124	1270	105	534001	3737448	61792
427	2018-05-10 17:49:52		0	0	0	0	0	0	14.29	7.21	0.02	836402	0	20344	578546	836402	836402	60297	124	1270	105	534139	3737477	61796
428	2018-05-10 17:59:53		0	0	0	0	0	0	14.29	7.21	0.02	836500	0	20345	578546	836500	836500	60299	124	1270	105	534139	3737511	61798
429	2018-05-10 18:09:55		0	0	0	0	0	0	14.29	7.21	0.02	836528	0	20346	578546	836528	836528	60304	124	1270	105	534139	3737552	61803
430	2018-05-10 18:19:55		0	0	0	0	0	0	14.29	7.21	0.02	836606	0	20352	578546	836606	836606	60309	124	1271	105	534139	3737570	61809
431	2018-05-10 18:30:01		0	0	0	0	0	0	14.29	7.21	0.02	836737	0	20359	578546	836737	836737	60312	124	1271	105	534139	3737614	61812
432	2018-05-10 18:39:58		0	0	0	0	0	0	14.29	7.21	0.02	836828	0	20366	578647	836828	836828	60315	124	1271	105	534139	3737649	61815
