1	2016-04-01 20:57:40	0	0	0	0	0	0	0.5	0.78	0	9084	0	6	8434	9084	9078	71	1	5	1	8434	1671567	78
2	2016-04-01 21:07:41	0	0	0	0	0	0	1.73	1.52	0	33822	0	57	29059	33822	33765	514	1	44	3	28964	1671610	562
3	2016-04-01 21:17:41	0	0	0	0	0	0	3.21	1.91	0	67769	0	199	53945	67769	67570	1292	3	72	10	53609	1671649	1377
4	2016-04-01 21:27:41	0	0	0	0	0	0	3.76	1.98	0	82084	0	294	63099	82084	81790	1626	4	84	10	62884	1671684	1724
5	2016-04-01 21:37:40	0	0	0	0	0	0	4.56	2.05	0	104542	0	459	76558	104542	104083	2143	5	102	11	76302	1671717	2261
6	2016-04-01 21:47:41	0	0	0	0	0	0	5.29	2.08	0.01	124302	0	642	88927	124302	123660	2588	5	125	12	88379	1671765	2730
7	2016-04-01 21:57:42	0	0	0	0	0	0	5.58	2.08	0.01	132464	0	722	93973	132464	131742	2754	5	134	12	93362	1671814	2905
8	2016-04-01 22:07:41	0	0	0	0	0	0	6.19	2.06	0.01	147882	0	878	104644	147882	147004	3052	5	151	12	103532	1671852	3220
9	2016-04-01 22:17:41	0	0	0	0	0	0	6.39	2.06	0.01	153551	0	946	107962	153551	152605	3159	5	157	12	106867	1671888	3333
10	2016-04-01 22:27:41	0	0	0	0	0	0	6.78	2.05	0.01	165809	0	1090	114749	165809	164719	3406	6	163	12	113430	1671913	3587
11	2016-04-01 22:37:42	0	0	0	0	0	0	7.03	2.05	0.01	171544	0	1155	118973	171544	170389	3514	6	166	12	117555	1671953	3698
12	2016-04-01 22:47:41	0	0	0	0	0	0	7.44	2.04	0.01	181962	0	1264	125893	181962	180698	3718	6	170	12	124457	1671990	3906
13	2016-04-01 22:57:42	0	0	0	0	0	0	7.56	2.04	0.01	186427	0	1312	127821	186427	185115	3796	6	172	12	126423	1672026	3986
14	2016-04-01 23:00:14	0	0	0	0	0	0	7.71	2.04	0.01	190488	0	1350	130299	190488	189138	3879	6	177	12	128847	1672035	4074
15	2016-04-01 23:07:41	0	0	0	0	0	0	7.82	2.04	0.01	194343	0	1391	132329	194343	192952	3963	6	180	12	130832	1672064	4161
16	2016-04-01 23:17:41	0	0	0	0	0	0	7.95	2.04	0.01	198634	0	1442	134413	198634	197192	4060	8	182	12	132869	1672103	4262
17	2016-04-01 23:27:42	0	0	0	0	0	0	8.23	2.04	0.01	206556	0	1554	139363	206556	205002	4206	8	189	12	137655	1672134	4415
18	2016-04-01 23:37:41	0	0	0	0	0	0	8.49	2.03	0.01	213542	0	1619	143755	213542	211923	4333	8	191	13	141938	1672165	4545
19	2016-04-01 23:47:41	0	0	0	0	0	0	8.59	2.02	0.01	216582	0	1645	145474	216582	214937	4378	8	194	13	143613	1672189	4593
20	2016-04-01 23:57:42	0	0	0	0	0	0	8.9	2.02	0.01	223824	0	1721	149806	223824	222103	4514	9	199	13	148800	1672228	4735
21	2016-04-02 00:07:42	0	0	0	0	0	0	9.09	2.02	0.01	227289	0	1752	153200	227289	225537	4583	10	200	13	152059	1672256	4806
22	2016-04-02 00:17:41	0	0	0	0	0	0	9.29	2.01	0.01	234012	0	1843	156828	234012	232169	4699	10	206	13	155351	1672285	4928
23	2016-04-02 00:27:42	0	0	0	0	0	0	9.36	2.01	0.01	237290	0	1893	157974	237290	235397	4760	10	211	13	156475	1672313	4994
24	2016-04-02 00:37:41	0	0	0	0	0	0	9.62	2.01	0.01	244412	0	1978	162472	244412	242434	4911	10	215	13	160887	1672356	5149
25	2016-04-02 00:47:41	0	0	0	0	0	0	9.77	2.01	0.01	247496	0	2019	165019	247496	245477	4967	10	217	13	163384	1672387	5207
26	2016-04-02 00:57:42	0	0	0	0	0	0	10.04	2	0.01	253518	0	2092	169400	253518	251426	5079	10	220	13	167896	1672431	5322
27	2016-04-02 01:07:42	0	0	0	0	0	0	10.12	2	0.01	256128	0	2120	170527	256128	254008	5125	10	223	13	169336	1672460	5371
28	2016-04-02 01:17:41	0	0	0	0	0	0	10.31	2	0.01	261828	0	2196	173803	261828	259632	5236	10	230	13	172450	1672498	5489
29	2016-04-02 01:27:42	0	0	0	0	0	0	10.51	2	0.01	264699	0	2240	177151	264699	262459	5282	10	233	13	175746	1672520	5538
30	2016-04-02 01:37:41	0	0	0	0	0	0	10.56	2	0.01	267589	0	2288	177952	267589	265301	5340	10	236	13	176614	1672537	5599
31	2016-04-02 01:47:41	0	0	0	0	0	0	10.66	1.99	0.01	272957	0	2362	179577	272957	270595	5440	10	239	15	178215	1672566	5704
32	2016-04-02 01:57:41	0	0	0	0	0	0	10.73	1.99	0.01	275332	0	2392	180862	275332	272940	5491	10	241	15	179481	1672593	5757
33	2016-04-02 02:07:43	0	0	0	0	0	0	10.95	1.99	0.01	279712	0	2449	184510	279712	277263	5577	10	244	15	183073	1672618	5846
34	2016-04-02 02:17:42	0	0	0	0	0	0	10.97	1.99	0.01	281560	0	2473	184943	281560	279087	5613	10	245	15	183498	1672642	5883
35	2016-04-02 02:27:43	0	0	0	0	0	0	11.17	1.99	0.01	285253	0	2520	188459	285253	282733	5686	10	250	15	186824	1672666	5961
36	2016-04-02 02:37:41	0	0	0	0	0	0	11.19	1.99	0.01	286722	0	2541	188815	286722	284181	5713	10	250	15	187174	1672689	5988
37	2016-04-02 02:47:41	0	0	0	0	0	0	11.31	2	0.01	289898	0	2565	190834	289898	287333	5790	11	251	15	189158	1672708	6067
38	2016-04-02 02:57:41	0	0	0	0	0	0	11.35	1.99	0.01	291413	0	2576	191554	291413	288837	5813	11	251	15	189866	1672730	6090
39	2016-04-02 03:07:41	0	0	0	0	0	0	11.42	2	0.01	294165	0	2621	192552	294165	291544	5873	11	256	15	190940	1672190	6155
40	2016-04-02 03:17:42	0	0	0	0	0	0	11.46	2	0.01	295518	0	2642	193330	295518	292876	5902	11	260	15	191705	1672208	6188
41	2016-04-02 03:27:42	0	0	0	0	0	0	11.55	2	0.01	297761	0	2674	194872	297761	295087	5955	11	260	15	193221	1672223	6241
42	2016-04-02 03:37:41	0	0	0	0	0	0	11.62	2.01	0.01	299695	0	2700	195799	299695	296995	6009	11	263	15	194230	1672229	6298
43	2016-04-02 03:47:41	0	0	0	0	0	0	11.68	2	0.01	300775	0	2711	196962	300775	298064	6030	11	263	15	195276	1672241	6319
44	2016-04-02 03:57:41	0	0	0	0	0	0	11.73	2	0.01	302557	0	2737	197884	302557	299820	6066	11	266	15	196182	1672247	6358
45	2016-04-02 04:07:41	0	0	0	0	0	0	11.77	2.01	0.01	303376	0	2747	198493	303376	300629	6083	11	266	15	196781	1672259	6375
46	2016-04-02 04:17:42	0	0	0	0	0	0	11.81	2	0.01	304903	0	2761	199256	304903	302142	6111	11	266	15	197531	1672266	6403
47	2016-04-02 04:27:41	0	0	0	0	0	0	11.84	2	0.01	305574	0	2782	199764	305574	302792	6121	11	266	15	198030	1672279	6413
48	2016-04-02 04:37:41	0	0	0	0	0	0	11.88	2	0.01	306860	0	2793	200333	306860	304067	6146	11	266	15	198589	1672286	6438
49	2016-04-02 04:47:42	0	0	0	0	0	0	11.92	2	0.01	308083	0	2805	201231	308083	305278	6172	11	268	15	199394	1672289	6466
50	2016-04-02 04:57:42	0	0	0	0	0	0	11.95	2	0.01	308685	0	2810	201703	308685	305875	6186	11	268	15	199858	1672300	6480
51	2016-04-02 05:07:41	0	0	0	0	0	0	11.98	2	0.01	309825	0	2825	202276	309825	307000	6207	11	269	15	200420	1672305	6502
52	2016-04-02 05:17:41	0	0	0	0	0	0	12.01	2	0.01	310268	0	2830	202627	310268	307438	6214	11	270	15	200765	1672309	6510
53	2016-04-02 05:27:42	0	0	0	0	0	0	12.08	2	0.01	311130	0	2838	203962	311130	308292	6230	11	271	15	202075	1672315	6527
54	2016-04-02 05:37:42	0	0	0	0	0	0	12.11	2	0.01	311587	0	2840	204420	311587	308747	6242	11	271	15	202524	1672320	6539
55	2016-04-02 05:47:41	0	0	0	0	0	0	12.13	2.01	0.01	311937	0	2844	204744	311937	309093	6258	11	271	15	202843	1672326	6555
56	2016-04-02 05:57:41	0	0	0	0	0	0	12.16	2.01	0.01	312638	0	2851	205287	312638	309787	6275	11	272	15	203376	1672329	6573
57	2016-04-02 06:07:41	0	0	0	0	0	0	12.16	2.01	0.01	312972	0	2857	205287	312972	310115	6283	11	272	15	203376	1672330	6581
58	2016-04-02 06:17:42	0	0	0	0	0	0	12.21	2.01	0.01	313615	0	2864	205987	313615	310751	6296	11	273	15	204224	1672333	6595
59	2016-04-02 06:27:41	0	0	0	0	0	0	12.23	2.01	0.01	314147	0	2867	206261	314147	311280	6306	11	274	15	204494	1672339	6606
60	2016-04-02 06:37:41	0	0	0	0	0	0	12.23	2.01	0.01	314366	0	2871	206261	314366	311495	6312	11	274	15	204494	1672341	6612
61	2016-04-02 06:47:41	0	0	0	0	0	0	12.23	2.01	0.01	314801	0	2874	206261	314801	311927	6322	11	274	15	204494	1672342	6622
62	2016-04-02 06:57:41	0	0	0	0	0	0	12.23	2.01	0.01	315045	0	2875	206261	315045	312170	6326	11	274	15	204494	1672347	6626
63	2016-04-02 07:07:42	0	0	0	0	0	0	12.3	2.01	0.01	315542	0	2887	207561	315542	312655	6336	11	274	15	205771	1672349	6636
64	2016-04-02 07:17:41	0	0	0	0	0	0	12.33	2.01	0.01	315781	0	2889	207923	315781	312892	6348	11	274	15	206127	1672350	6648
65	2016-04-02 07:27:42	0	0	0	0	0	0	12.36	2.01	0.01	316269	0	2904	208508	316269	313365	6359	11	274	15	206702	1672350	6659
66	2016-04-02 07:37:42	0	0	0	0	0	0	12.38	2.01	0.01	316549	0	2906	208641	316549	313643	6366	11	274	15	207054	1672354	6666
67	2016-04-02 07:47:42	0	0	0	0	0	0	12.39	2.01	0.01	317094	0	2911	208754	317094	314183	6374	11	274	15	207165	1672357	6674
68	2016-04-02 07:57:42	0	0	0	0	0	0	12.39	2.01	0.01	317593	0	2920	208782	317593	314673	6381	11	274	15	207193	1672365	6681
69	2016-04-02 08:07:42	0	0	0	0	0	0	12.4	2.01	0.01	317880	0	2922	208951	317880	314958	6385	11	274	15	207359	1672366	6685
70	2016-04-02 08:17:42	0	0	0	0	0	0	12.43	2.01	0.01	318527	0	2935	209517	318527	315592	6396	11	276	15	207916	1672369	6698
71	2016-04-02 08:27:42	0	0	0	0	0	0	12.43	2.01	0.01	318956	0	2944	209616	318956	316012	6405	11	278	15	207916	1672376	6709
72	2016-04-02 08:37:42	0	0	0	0	0	0	12.46	2.01	0.01	319787	0	2965	210114	319787	316822	6425	11	278	15	208406	1672378	6729
73	2016-04-02 08:47:42	0	0	0	0	0	0	12.46	2.01	0.01	320242	0	2970	210114	320242	317272	6433	11	278	15	208406	1672379	6737
74	2016-04-02 08:57:43	0	0	0	0	0	0	12.49	2.01	0.01	321417	0	2985	210636	321417	318432	6449	11	278	15	208919	1672392	6753
75	2016-04-02 09:07:42	0	0	0	0	0	0	12.52	2.01	0.01	321924	0	2994	211029	321924	318930	6463	11	278	15	209306	1672401	6767
76	2016-04-02 09:17:42	0	0	0	0	0	0	12.57	2.01	0.01	323025	0	3010	211917	323025	320015	6484	11	279	15	210180	1672410	6789
77	2016-04-02 09:27:42	0	0	0	0	0	0	12.6	2.01	0.01	323794	0	3021	212499	323794	320773	6499	11	280	15	210752	1672417	6805
78	2016-04-02 09:37:42	0	0	0	0	0	0	12.7	2.01	0.01	325202	0	3039	214322	325202	322163	6527	11	282	15	212458	1672424	6835
79	2016-04-02 09:47:42	0	0	0	0	0	0	12.74	2.01	0.01	325870	0	3052	215007	325870	322818	6539	11	282	15	213131	1672429	6847
80	2016-04-02 09:57:42	0	0	0	0	0	0	12.77	2.01	0.01	327523	0	3069	215492	327523	324454	6571	11	285	15	213608	1672446	6882
81	2016-04-02 10:07:42	0	0	0	0	0	0	12.8	2.01	0.01	328265	0	3082	215966	328265	325183	6585	11	286	15	214014	1672461	6897
82	2016-04-02 10:17:42	0	0	0	0	0	0	12.8	2	0.01	330039	0	3095	216877	330039	326926	6610	11	288	15	214133	1672473	6924
83	2016-04-02 10:27:44	0	0	0	0	0	0	12.88	2.01	0.01	330963	0	3132	217448	330963	327831	6659	11	291	15	215470	1672484	6976
84	2016-04-02 10:37:42	0	0	0	0	0	0	12.89	2.01	0.01	331893	0	3153	217571	331893	328740	6674	11	293	15	215590	1672505	6993
85	2016-04-02 10:47:44	0	0	0	0	0	0	12.98	2.01	0.01	333942	0	3185	219122	333942	330757	6705	11	295	15	217113	1672518	7026
86	2016-04-02 10:57:42	0	0	0	0	0	0	13	2.01	0.01	334848	0	3206	219370	334848	331642	6723	11	296	15	217357	1672530	7045
87	2016-04-02 11:07:42	0	0	0	0	0	0	13.11	2.01	0.01	336683	0	3237	221552	336683	333446	6766	11	297	15	219281	1672546	7089
88	2016-04-02 11:17:44	0	0	0	0	0	0	13.17	2	0.01	338509	0	3266	223074	338509	335243	6780	12	297	15	220309	1672567	7104
89	2016-04-02 11:27:42	0	0	0	0	0	0	13.22	2.01	0.01	339600	0	3279	223380	339600	336321	6832	12	298	15	221072	1672589	7157
90	2016-04-02 11:37:42	0	0	0	0	0	0	13.26	2.01	0.01	340697	0	3294	224156	340697	337403	6860	12	298	15	221832	1672605	7185
91	2016-04-02 11:47:42	0	0	0	0	0	0	13.28	2.02	0.01	342688	0	3322	224494	342688	339366	6911	12	298	15	222162	1672633	7236
92	2016-04-02 11:57:43	0	0	0	0	0	0	13.4	2.02	0.01	345003	0	3348	226431	345003	341655	6954	12	298	17	224059	1672656	7281
93	2016-04-02 12:07:42	0	0	0	0	0	0	13.46	2.01	0.01	346072	0	3359	228013	346072	342713	6972	12	301	17	225149	1672680	7302
94	2016-04-02 12:17:42	0	0	0	0	0	0	13.49	2.02	0.01	347813	0	3390	228484	347813	344423	7010	13	303	17	225608	1672694	7343
95	2016-04-02 12:27:45	0	0	0	0	0	0	13.58	2.01	0.01	349436	0	3418	229905	349436	346018	7041	13	304	17	227093	1672709	7375
96	2016-04-02 12:37:42	0	0	0	0	0	0	13.64	2.02	0.01	350546	0	3442	230934	350546	347104	7070	13	305	17	228164	1672727	7405
97	2016-04-02 12:47:42	0	0	0	0	0	0	13.66	2.01	0.01	351524	0	3463	231235	351524	348061	7082	13	306	17	228459	1672745	7418
98	2016-04-02 12:57:43	0	0	0	0	0	0	13.72	2.01	0.01	353725	0	3510	232272	353725	350215	7127	13	313	17	229470	1672758	7470
99	2016-04-02 13:07:44	0	0	0	0	0	0	13.73	2.02	0.01	354566	0	3522	232472	354566	351044	7145	13	315	17	229666	1672768	7490
100	2016-04-02 13:17:43	0	0	0	0	0	0	13.79	2.02	0.01	356514	0	3554	233428	356514	352960	7185	13	317	17	230598	1672786	7532
101	2016-04-02 13:27:44	0	0	0	0	0	0	13.9	2.02	0.01	357560	0	3571	235333	357560	353989	7208	13	317	19	232457	1672802	7557
102	2016-04-02 13:37:43	0	0	0	0	0	0	13.94	2.02	0.01	359522	0	3599	236153	359522	355923	7253	14	320	19	233262	1672824	7606
103	2016-04-02 13:47:43	0	0	0	0	0	0	13.95	2.02	0.01	360336	0	3612	236225	360336	356724	7273	14	320	19	233332	1672845	7626
104	2016-04-02 13:57:45	0	0	0	0	0	0	14.04	2.02	0.01	362001	0	3647	237836	362001	358354	7310	14	322	20	234904	1672865	7666
105	2016-04-02 14:07:45	0	0	0	0	0	0	14.07	2.02	0.01	362791	0	3663	238495	362791	359128	7328	14	322	20	235332	1672875	7684
106	2016-04-02 14:17:45	0	0	0	0	0	0	14.1	2.02	0.01	364382	0	3696	239121	364382	360686	7357	14	325	20	235942	1672884	7716
107	2016-04-02 14:27:46	0	0	0	0	0	0	14.14	2.02	0.01	365253	0	3711	240048	365253	361542	7375	14	326	20	236591	1672906	7735
108	2016-04-02 14:37:45	0	0	0	0	0	0	14.19	2.02	0.01	366625	0	3731	240842	366625	362894	7407	14	329	20	237362	1672927	7770
109	2016-04-02 14:47:44	0	0	0	0	0	0	14.21	2.02	0.01	367258	0	3759	241132	367258	363499	7424	14	329	20	237644	1672945	7787
110	2016-04-02 14:57:46	0	0	0	0	0	0	14.26	2.02	0.01	368798	0	3773	242157	368798	365025	7462	14	329	20	238639	1672959	7825
111	2016-04-02 15:07:45	0	0	0	0	0	0	14.31	2.02	0.01	370552	0	3788	243471	370552	366764	7498	14	332	21	239469	1672973	7865
112	2016-04-02 15:17:46	0	0	0	0	0	0	14.31	2.02	0.01	371475	0	3809	243471	371475	367666	7511	14	333	22	239469	1672993	7880
113	2016-04-02 15:27:48	0	0	0	0	0	0	14.34	2.02	0.01	372488	0	3828	243892	372488	368660	7528	14	335	22	239877	1673007	7899
114	2016-04-02 15:37:46	0	0	0	0	0	0	14.4	2.02	0.01	374250	0	3856	244954	374250	370394	7562	14	337	22	240904	1673028	7935
115	2016-04-02 15:47:46	0	0	0	0	0	0	14.42	2.02	0.01	375185	0	3867	245284	375185	371318	7585	14	338	22	241223	1673044	7959
116	2016-04-02 15:57:47	0	0	0	0	0	0	14.51	2.02	0.01	376901	0	3892	246504	376901	373009	7622	14	339	22	242707	1673052	7997
117	2016-04-02 16:07:46	0	0	0	0	0	0	14.54	2.02	0.01	377581	0	3905	247134	377581	373676	7630	14	339	22	243318	1673062	8005
118	2016-04-02 16:17:47	0	0	0	0	0	0	14.62	2.02	0.01	379028	0	3925	248442	379028	375103	7671	14	340	22	244586	1673072	8047
119	2016-04-02 16:27:49	0	0	0	0	0	0	14.68	2.02	0.01	380460	0	3943	249413	380460	376517	7694	14	340	22	245527	1673080	8070
120	2016-04-02 16:37:49	0	0	0	0	0	0	14.74	2.02	0.01	381259	0	3950	250543	381259	377309	7702	14	341	22	246622	1673095	8079
121	2016-04-02 16:47:46	0	0	0	0	0	0	14.8	2.02	0.01	382724	0	3963	251561	382724	378761	7730	14	341	22	247608	1673110	8107
122	2016-04-02 16:57:48	0	0	0	0	0	0	14.85	2.02	0.01	383326	0	3969	252397	383326	379357	7742	14	341	22	248417	1673122	8119
123	2016-04-02 17:07:47	0	0	0	0	0	0	14.9	2.02	0.01	384520	0	3978	253222	384520	380542	7769	14	341	22	249217	1673129	8146
124	2016-04-02 17:17:47	0	0	0	0	0	0	14.94	2.02	0.01	385140	0	3986	254043	385140	381154	7778	14	341	22	250012	1673145	8155
125	2016-04-02 17:27:47	0	0	0	0	0	0	15.01	2.02	0.01	386144	0	4000	255215	386144	382144	7795	14	341	22	251148	1673161	8172
126	2016-04-02 17:37:47	0	0	0	0	0	0	15.05	2.02	0.01	386762	0	4009	255949	386762	382753	7803	14	342	22	251858	1673168	8181
127	2016-04-02 17:47:48	0	0	0	0	0	0	15.06	2.02	0.01	387887	0	4025	256118	387887	383862	7831	14	344	22	252022	1673179	8211
128	2016-04-02 17:57:47	0	0	0	0	0	0	15.06	2.02	0.01	388442	0	4034	256309	388442	384408	7838	14	344	22	252063	1673192	8218
129	2016-04-02 18:07:49	0	0	0	0	0	0	15.19	2.02	0.01	389563	0	4048	258610	389563	385515	7854	14	344	22	254121	1673209	8234
130	2016-04-02 18:17:47	0	0	0	0	0	0	15.19	2.02	0.01	390095	0	4052	258610	390095	386043	7864	14	344	22	254121	1673222	8244
131	2016-04-02 18:27:50	0	0	0	0	0	0	15.2	2.02	0.01	391095	0	4059	258913	391095	387036	7881	14	346	22	254413	1673236	8263
132	2016-04-02 18:37:48	0	0	0	0	0	0	15.21	2.02	0.01	391569	0	4067	258999	391569	387502	7893	14	348	22	254497	1673247	8277
133	2016-04-02 18:47:48	0	0	0	0	0	0	15.25	2.02	0.01	392465	0	4089	259738	392465	388376	7911	14	349	22	255210	1673263	8296
134	2016-04-02 18:57:48	0	0	0	0	0	0	15.27	2.02	0.01	392906	0	4101	260087	392906	388805	7919	14	349	22	255547	1673274	8304
135	2016-04-02 19:07:49	0	0	0	0	0	0	15.31	2.01	0.01	393939	0	4117	260810	393939	389822	7935	14	349	24	256245	1673286	8322
136	2016-04-02 19:17:50	0	0	0	0	0	0	15.33	2.01	0.01	394790	0	4133	261294	394790	390657	7950	14	349	24	256457	1673297	8337
137	2016-04-02 19:27:49	0	0	0	0	0	0	15.36	2.01	0.01	395257	0	4139	261869	395257	391118	7961	14	349	24	257011	1673313	8348
138	2016-04-02 19:37:48	0	0	0	0	0	0	15.4	2.01	0.01	396192	0	4154	262580	396192	392038	7969	14	350	24	257695	1673330	8357
139	2016-04-02 19:47:49	0	0	0	0	0	0	15.41	2.01	0.01	396713	0	4169	262669	396713	392544	7987	14	353	24	257781	1673351	8378
140	2016-04-02 19:57:48	0	0	0	0	0	0	15.44	2.01	0.01	397178	0	4178	263205	397178	393000	7995	14	353	24	258297	1673366	8386
141	2016-04-02 20:07:48	0	0	0	0	0	0	15.5	2.01	0.01	398103	0	4190	264317	398103	393913	8013	14	353	24	259412	1673379	8404
142	2016-04-02 20:17:50	0	0	0	0	0	0	15.5	2.01	0.01	398505	0	4199	264317	398505	394306	8025	14	353	24	259412	1673385	8416
143	2016-04-02 20:27:49	0	0	0	0	0	0	15.54	2.01	0.01	399388	0	4216	264995	399388	395172	8044	14	353	24	260065	1673396	8435
144	2016-04-02 20:37:49	0	0	0	0	0	0	15.56	2.01	0.01	399802	0	4222	265313	399802	395580	8052	14	353	24	260371	1673409	8443
145	2016-04-02 20:47:49	0	0	0	0	0	0	15.59	2.01	0.01	400540	0	4230	265803	400540	396310	8057	14	353	24	260810	1673428	8448
146	2016-04-02 20:57:48	0	0	0	0	0	0	15.6	2.01	0.01	401263	0	4240	266146	401263	397023	8069	14	353	24	261140	1673440	8460
147	2016-04-02 21:07:50	0	0	0	0	0	0	15.62	2.01	0.01	401660	0	4246	266329	401660	397414	8074	14	354	24	261316	1673449	8466
148	2016-04-02 21:17:49	0	0	0	0	0	0	15.64	2.01	0.01	402459	0	4273	266555	402459	398186	8089	14	358	24	261711	1673462	8485
149	2016-04-02 21:27:51	0	0	0	0	0	0	15.69	2.01	0.01	402921	0	4282	268177	402921	398639	8103	14	359	24	262543	1673476	8500
150	2016-04-02 21:37:50	0	0	0	0	0	0	15.69	2.01	0.01	403682	0	4297	268177	403682	399385	8117	14	359	24	262543	1673481	8514
151	2016-04-02 21:47:49	0	0	0	0	0	0	15.71	2.01	0.01	404069	0	4302	268619	404069	399767	8120	14	359	24	262967	1673499	8517
152	2016-04-02 21:57:54	0	0	0	0	0	0	15.75	2.01	0.01	404989	0	4327	269273	404989	400662	8130	14	361	24	263594	1673512	8529
153	2016-04-02 22:07:51	0	0	0	0	0	0	15.79	2.01	0.01	405323	0	4333	270025	405323	400990	8134	14	361	24	264314	1673519	8533
154	2016-04-02 22:17:51	0	0	0	0	0	0	15.82	2.01	0.01	406099	0	4347	270496	406099	401752	8153	14	361	24	264766	1673530	8552
155	2016-04-02 22:27:52	0	0	0	0	0	0	15.85	2.01	0.01	406424	0	4349	271017	406424	402075	8155	14	361	24	265265	1673542	8554
156	2016-04-02 22:37:50	0	0	0	0	0	0	15.88	2.01	0.01	407133	0	4356	271540	407133	402777	8169	14	362	24	265766	1673550	8569
157	2016-04-02 22:47:50	0	0	0	0	0	0	15.9	2.01	0.01	407810	0	4373	271826	407810	403437	8178	14	365	24	266040	1673562	8581
158	2016-04-02 22:57:51	0	0	0	0	0	0	15.9	2	0.01	408181	0	4379	271946	408181	403802	8180	14	366	24	266154	1673567	8584
159	2016-04-02 23:07:52	0	0	0	0	0	0	15.93	2	0.01	408939	0	4389	272376	408939	404550	8192	14	367	24	266567	1673580	8597
160	2016-04-02 23:17:51	0	0	0	0	0	0	15.95	2	0.01	409296	0	4397	272808	409296	404899	8201	14	368	24	266980	1673592	8607
161	2016-04-02 23:27:52	0	0	0	0	0	0	15.96	2	0.01	409923	0	4404	273001	409923	405519	8215	14	368	24	267165	1673603	8621
162	2016-04-02 23:37:50	0	0	0	0	0	0	15.97	2	0.01	410239	0	4412	273181	410239	405827	8221	14	368	24	267338	1673619	8627
163	2016-04-02 23:47:50	0	0	0	0	0	0	16.01	2	0.01	410900	0	4416	273803	410900	406484	8231	14	369	24	267933	1673632	8638
164	2016-04-02 23:57:50	0	0	0	0	0	0	16.02	2	0.01	411270	0	4420	273985	411270	406850	8234	14	369	24	268107	1673638	8641
165	2016-04-03 00:07:51	0	0	0	0	0	0	16.07	2	0.01	412058	0	4430	274848	412058	407628	8251	14	370	24	268934	1673655	8659
166	2016-04-03 00:17:51	0	0	0	0	0	0	16.07	2	0.01	412415	0	4439	274848	412415	407976	8257	14	371	24	268934	1673666	8666
167	2016-04-03 00:27:51	0	0	0	0	0	0	16.09	2	0.01	413050	0	4455	275190	413050	408595	8265	14	373	24	269261	1673682	8676
168	2016-04-03 00:37:51	0	0	0	0	0	0	16.11	2	0.01	413413	0	4462	275607	413413	408951	8269	14	374	24	269660	1673683	8681
169	2016-04-03 00:47:50	0	0	0	0	0	0	16.12	2	0.01	414051	0	4479	275803	414051	409572	8279	14	375	25	269848	1673706	8693
170	2016-04-03 00:57:51	0	0	0	0	0	0	16.13	2	0.01	414455	0	4484	275852	414455	409971	8284	14	375	25	269895	1673711	8698
171	2016-04-03 01:07:51	0	0	0	0	0	0	16.15	2	0.01	415103	0	4499	276221	415103	410604	8295	14	376	25	270248	1673724	8710
172	2016-04-03 01:17:50	0	0	0	0	0	0	16.15	2	0.01	415372	0	4503	276320	415372	410869	8305	14	376	25	270343	1673740	8720
173	2016-04-03 01:27:51	0	0	0	0	0	0	16.16	2	0.01	415949	0	4513	276517	415949	411436	8320	14	376	25	270532	1673754	8735
174	2016-04-03 01:37:50	0	0	0	0	0	0	16.17	2	0.01	416205	0	4517	276715	416205	411688	8325	14	376	25	270721	1673761	8740
175	2016-04-03 01:47:51	0	0	0	0	0	0	16.17	2	0.01	416709	0	4520	276715	416709	412189	8334	14	376	25	270721	1673767	8749
176	2016-04-03 01:57:51	0	0	0	0	0	0	16.25	2	0.01	417293	0	4528	278007	417293	412765	8342	14	378	25	271957	1673783	8759
177	2016-04-03 02:07:51	0	0	0	0	0	0	16.26	2	0.01	417563	0	4532	278182	417563	413031	8349	14	378	25	272125	1673794	8766
178	2016-04-03 02:17:50	0	0	0	0	0	0	16.26	2	0.01	418068	0	4540	278182	418068	413528	8362	14	379	25	272125	1673797	8780
179	2016-04-03 02:27:51	0	0	0	0	0	0	16.26	2	0.01	418324	0	4545	278182	418324	413779	8367	14	379	25	272125	1673811	8785
180	2016-04-03 02:37:50	0	0	0	0	0	0	16.26	2	0.01	418792	0	4556	278282	418792	414236	8377	14	381	25	272221	1673812	8797
181	2016-04-03 02:47:50	0	0	0	0	0	0	16.32	2	0.01	419070	0	4562	279210	419070	414508	8379	14	382	25	273109	1673824	8800
182	2016-04-03 02:57:50	0	0	0	0	0	0	16.32	2	0.01	419534	0	4570	279210	419534	414964	8391	14	383	25	273109	1673832	8813
183	2016-04-03 03:07:50	0	0	0	0	0	0	16.28	2	0.01	419714	0	4573	279210	419714	415141	8395	14	383	25	273109	1677847	8817
184	2016-04-03 03:17:50	0	0	0	0	0	0	16.28	2	0.01	420038	0	4577	279261	420038	415461	8401	14	383	25	273157	1677859	8823
185	2016-04-03 03:27:51	0	0	0	0	0	0	16.28	2	0.01	420351	0	4580	279261	420351	415771	8410	14	383	25	273157	1677868	8832
186	2016-04-03 03:37:51	0	0	0	0	0	0	16.28	2	0.01	420603	0	4582	279261	420603	416020	8415	14	383	25	273157	1677876	8837
187	2016-04-03 03:47:51	0	0	0	0	0	0	16.28	2	0.01	420739	0	4583	279261	420739	416156	8421	14	383	25	273157	1677885	8843
188	2016-04-03 03:57:51	0	0	0	0	0	0	16.28	2	0.01	421010	0	4584	279261	421010	416425	8429	14	383	25	273157	1677886	8851
189	2016-04-03 04:07:50	0	0	0	0	0	0	16.28	2	0.01	421152	0	4586	279261	421152	416566	8430	14	383	25	273157	1677892	8852
190	2016-04-03 04:17:50	0	0	0	0	0	0	16.28	2	0.01	421402	0	4586	279261	421402	416816	8435	14	383	25	273157	1677897	8857
191	2016-04-03 04:27:51	0	0	0	0	0	0	16.28	2	0.01	421523	0	4586	279261	421523	416937	8437	14	383	25	273157	1677903	8859
192	2016-04-03 04:37:50	0	0	0	0	0	0	16.28	2	0.01	421723	0	4587	279261	421723	417136	8445	14	383	25	273157	1677909	8867
193	2016-04-03 04:47:52	0	0	0	0	0	0	16.29	2	0.01	421896	0	4589	279362	421896	417307	8446	14	383	25	273254	1677914	8868
194	2016-04-03 04:57:52	0	0	0	0	0	0	16.29	2	0.01	421987	0	4590	279362	421987	417397	8451	14	383	25	273254	1677918	8873
195	2016-04-03 05:07:50	0	0	0	0	0	0	16.29	2	0.01	422064	0	4590	279362	422064	417474	8452	14	383	25	273254	1677923	8874
196	2016-04-03 05:17:51	0	0	0	0	0	0	16.29	2	0.01	422236	0	4590	279362	422236	417646	8456	14	383	25	273254	1677917	8878
197	2016-04-03 05:27:52	0	0	0	0	0	0	16.29	2	0.01	422306	0	4590	279362	422306	417716	8458	14	383	25	273254	1677916	8880
198	2016-04-03 05:37:51	0	0	0	0	0	0	16.29	2	0.01	422454	0	4593	279362	422454	417861	8461	14	384	25	273254	1677918	8884
199	2016-04-03 05:47:51	0	0	0	0	0	0	16.29	2	0.01	422606	0	4593	279362	422606	418013	8462	14	385	25	273254	1677923	8886
200	2016-04-03 05:57:52	0	0	0	0	0	0	16.29	2	0.01	422654	0	4593	279362	422654	418061	8463	14	385	25	273254	1677924	8887
201	2016-04-03 06:07:52	0	0	0	0	0	0	16.29	2	0.01	422783	0	4593	279362	422783	418190	8468	14	385	25	273254	1677920	8892
202	2016-04-03 06:17:50	0	0	0	0	0	0	16.29	2	0.01	422839	0	4593	279362	422839	418246	8472	14	385	25	273254	1677922	8896
203	2016-04-03 06:27:50	0	0	0	0	0	0	16.29	2	0.01	422919	0	4593	279362	422919	418326	8474	14	385	25	273254	1677923	8898
204	2016-04-03 06:37:51	0	0	0	0	0	0	16.29	2	0.01	423008	0	4593	279362	423008	418415	8474	14	386	25	273254	1677924	8899
205	2016-04-03 06:47:54	0	0	0	0	0	0	16.29	2	0.01	423034	0	4593	279362	423034	418441	8475	14	386	25	273254	1677929	8900
206	2016-04-03 06:57:50	0	0	0	0	0	0	16.3	2	0.01	423130	0	4594	279664	423130	418536	8476	14	386	25	273543	1677931	8901
207	2016-04-03 07:07:51	0	0	0	0	0	0	16.3	2	0.01	423163	0	4595	279664	423163	418568	8476	14	386	25	273543	1677932	8901
208	2016-04-03 07:17:51	0	0	0	0	0	0	16.3	2	0.01	423246	0	4596	279664	423246	418650	8476	14	386	25	273543	1677932	8901
209	2016-04-03 07:27:52	0	0	0	0	0	0	16.3	2	0.01	423290	0	4596	279664	423290	418694	8476	14	386	25	273543	1677931	8901
210	2016-04-03 07:37:52	0	0	0	0	0	0	16.3	2	0.01	423359	0	4596	279664	423359	418763	8476	14	386	25	273543	1677936	8901
211	2016-04-03 07:47:51	0	0	0	0	0	0	16.3	2	0.01	423414	0	4596	279664	423414	418818	8477	14	387	25	273543	1677938	8903
212	2016-04-03 07:57:51	0	0	0	0	0	0	16.3	2	0.01	423526	0	4597	279664	423526	418929	8479	14	387	25	273543	1677938	8905
213	2016-04-03 08:07:51	0	0	0	0	0	0	16.3	2	0.01	423589	0	4597	279664	423589	418992	8481	14	387	25	273543	1677941	8907
214	2016-04-03 08:17:52	0	0	0	0	0	0	16.3	2	0.01	423707	0	4598	279664	423707	419109	8483	14	387	25	273543	1677943	8909
215	2016-04-03 08:27:51	0	0	0	0	0	0	16.3	2	0.01	423824	0	4598	279664	423824	419226	8486	14	387	25	273543	1677947	8912
216	2016-04-03 08:37:53	0	0	0	0	0	0	16.3	2	0.01	423898	0	4599	279664	423898	419299	8488	14	387	25	273543	1677949	8914
217	2016-04-03 08:47:52	0	0	0	0	0	0	16.3	2	0.01	424089	0	4601	279664	424089	419488	8489	14	387	25	273543	1677950	8915
218	2016-04-03 08:57:52	0	0	0	0	0	0	16.3	2	0.01	424182	0	4602	279664	424182	419580	8492	14	387	25	273543	1677955	8918
219	2016-04-03 09:07:53	0	0	0	0	0	0	16.3	2	0.01	424401	0	4604	279664	424401	419797	8498	14	388	25	273543	1677962	8925
220	2016-04-03 09:17:52	0	0	0	0	0	0	16.3	2	0.01	424528	0	4607	279664	424528	419921	8500	14	388	25	273543	1677963	8927
221	2016-04-03 09:27:52	0	0	0	0	0	0	16.3	2	0.01	424588	0	4610	279664	424588	419978	8501	14	388	25	273543	1677967	8928
222	2016-04-03 09:37:53	0	0	0	0	0	0	16.3	2	0.01	424631	0	4611	279664	424631	420020	8502	14	388	25	273543	1677974	8929
223	2016-04-03 09:47:52	0	0	0	0	0	0	16.3	2	0.01	424745	0	4619	279664	424745	420126	8503	14	388	25	273543	1677983	8930
224	2016-04-03 09:57:53	0	0	0	0	0	0	16.3	2	0.01	424792	0	4621	279713	424792	420171	8505	14	388	25	273590	1677990	8932
225	2016-04-03 10:07:54	0	0	0	0	0	0	16.31	2	0.01	424912	0	4624	279764	424912	420288	8508	14	388	25	273638	1678000	8935
226	2016-04-03 10:17:52	0	0	0	0	0	0	16.31	2	0.01	424981	0	4624	279764	424981	420357	8510	14	388	25	273638	1678010	8937
227	2016-04-03 10:27:53	0	0	0	0	0	0	16.32	2	0.01	425101	0	4630	279865	425101	420471	8512	14	388	25	273929	1678011	8939
228	2016-04-03 10:37:52	0	0	0	0	0	0	16.32	2	0.01	425150	0	4632	279865	425150	420518	8514	14	388	25	273929	1678020	8941
229	2016-04-03 10:47:53	0	0	0	0	0	0	16.34	2	0.01	425247	0	4634	280220	425247	420613	8518	14	388	25	274269	1678033	8945
230	2016-04-03 10:57:55	0	0	0	0	0	0	16.34	2	0.01	425367	0	4636	280220	425367	420731	8521	14	388	25	274269	1678038	8948
231	2016-04-03 11:07:53	0	0	0	0	0	0	16.36	2	0.01	425443	0	4639	280416	425443	420804	8522	14	388	25	274457	1678051	8949
232	2016-04-03 11:17:52	0	0	0	0	0	0	16.36	2	0.01	425503	0	4642	280416	425503	420861	8523	14	388	25	274457	1678062	8950
233	2016-04-03 11:27:54	0	0	0	0	0	0	16.37	2	0.01	425631	0	4645	280416	425631	420986	8529	14	388	25	274749	1678075	8956
234	2016-04-03 11:37:52	0	0	0	0	0	0	16.37	2	0.01	425673	0	4647	280416	425673	421026	8529	14	388	25	274749	1678090	8956
235	2016-04-03 11:47:53	0	0	0	0	0	0	16.37	2	0.01	425788	0	4651	280416	425788	421137	8531	14	388	25	274749	1678100	8958
236	2016-04-03 11:57:55	0	0	0	0	0	0	16.37	2	0.01	425874	0	4655	280416	425874	421219	8533	14	388	25	274749	1678112	8960
237	2016-04-03 12:07:53	0	0	0	0	0	0	16.37	2	0.01	425927	0	4656	280416	425927	421271	8535	14	388	25	274749	1678125	8962
238	2016-04-03 12:17:53	0	0	0	0	0	0	16.37	2	0.01	426034	0	4658	280416	426034	421376	8536	14	388	25	274749	1678134	8963
239	2016-04-03 12:27:54	0	0	0	0	0	0	16.37	2	0.01	426082	0	4659	280416	426082	421423	8537	14	388	25	274749	1678139	8964
240	2016-04-03 12:37:54	0	0	0	0	0	0	16.38	2	0.01	426174	0	4665	280518	426174	421509	8538	14	388	25	274847	1678151	8965
241	2016-04-03 12:47:54	0	0	0	0	0	0	16.38	2	0.01	426227	0	4666	280518	426227	421561	8538	14	388	25	274847	1678155	8965
242	2016-04-03 12:57:55	0	0	0	0	0	0	16.38	2	0.01	426319	0	4673	280518	426319	421646	8541	14	389	25	274847	1678173	8969
243	2016-04-03 13:07:54	0	0	0	0	0	0	16.38	2	0.01	426361	0	4674	280518	426361	421687	8541	14	389	25	274847	1678186	8969
244	2016-04-03 13:17:55	0	0	0	0	0	0	16.38	2	0.01	426439	0	4677	280518	426439	421762	8544	14	389	25	274847	1678195	8972
245	2016-04-03 13:27:56	0	0	0	0	0	0	16.38	2	0.01	426478	0	4677	280518	426478	421801	8546	14	389	25	274847	1678207	8974
246	2016-04-03 13:37:56	0	0	0	0	0	0	16.38	2	0.01	426565	0	4681	280518	426565	421884	8552	14	389	25	274847	1678225	8980
247	2016-04-03 13:47:57	0	0	0	0	0	0	16.38	2	0.01	426592	0	4681	280518	426592	421911	8553	14	389	25	274847	1678236	8981
248	2016-04-03 13:57:59	0	0	0	0	0	0	16.38	2	0.01	426652	0	4685	280518	426652	421967	8553	14	389	25	274847	1678251	8981
249	2016-04-03 14:07:58	0	0	0	0	0	0	16.4	2	0.01	426682	0	4686	280925	426682	421996	8554	14	389	25	275238	1678263	8982
250	2016-04-03 14:17:57	0	0	0	0	0	0	16.4	2	0.01	426746	0	4688	280925	426746	422058	8556	14	389	25	275238	1678275	8984
251	2016-04-03 14:27:58	0	0	0	0	0	0	16.4	2	0.01	426766	0	4688	280925	426766	422078	8556	14	389	25	275238	1678288	8984
252	2016-04-03 14:37:59	0	0	0	0	0	0	16.4	2.01	0.01	426837	0	4690	280925	426837	422147	8559	14	389	25	275238	1678295	8987
253	2016-04-03 14:47:57	0	0	0	0	0	0	16.4	2.01	0.01	426869	0	4690	280925	426869	422179	8559	14	389	25	275238	1678312	8987
254	2016-04-03 14:57:59	0	0	0	0	0	0	16.4	2.01	0.01	426924	0	4691	280925	426924	422233	8560	14	389	25	275238	1678319	8988
255	2016-04-03 15:07:59	0	0	0	0	0	0	16.4	2	0.01	426944	0	4691	280925	426944	422253	8560	14	389	25	275238	1678334	8988
256	2016-04-03 15:17:58	0	0	0	0	0	0	16.4	2	0.01	426992	0	4695	280925	426992	422297	8560	14	389	25	275238	1678354	8988
257	2016-04-03 15:27:57	0	0	0	0	0	0	16.41	2	0.01	427042	0	4699	281027	427042	422343	8561	14	389	25	275336	1678366	8989
258	2016-04-03 15:37:59	0	0	0	0	0	0	16.4	2	0.01	427056	0	4699	281027	427056	422357	8562	14	389	25	275336	1678374	8990
259	2016-04-03 15:47:58	0	0	0	0	0	0	16.4	2.01	0.01	427098	0	4704	281027	427098	422394	8564	14	389	25	275336	1678394	8992
260	2016-04-03 15:57:59	0	0	0	0	0	0	16.4	2.01	0.01	427114	0	4704	281027	427114	422410	8564	14	389	25	275336	1678410	8992
261	2016-04-03 16:07:57	0	0	0	0	0	0	16.4	2.01	0.01	427158	0	4707	281027	427158	422451	8565	14	389	25	275336	1678421	8993
262	2016-04-03 16:17:56	0	0	0	0	0	0	16.4	2.01	0.01	427181	0	4708	281027	427181	422473	8565	14	389	25	275336	1678440	8993
263	2016-04-03 16:27:58	0	0	0	0	0	0	16.42	2	0.01	427218	0	4708	281385	427218	422510	8565	14	389	25	275679	1678458	8993
264	2016-04-03 16:37:58	0	0	0	0	0	0	16.42	2	0.01	427252	0	4709	281385	427252	422543	8565	14	389	25	275679	1678474	8993
265	2016-04-03 16:48:00	0	0	0	0	0	0	16.42	2	0.01	427269	0	4710	281385	427269	422559	8566	14	389	25	275679	1678488	8994
266	2016-04-03 16:57:59	0	0	0	0	0	0	16.42	2	0.01	427285	0	4711	281385	427285	422574	8567	14	389	25	275679	1678507	8995
267	2016-04-03 17:07:59	0	0	0	0	0	0	16.42	2.01	0.01	427316	0	4713	281385	427316	422603	8568	14	389	25	275679	1678519	8996
268	2016-04-03 17:18:00	0	0	0	0	0	0	16.42	2.01	0.01	427328	0	4713	281385	427328	422615	8568	14	389	25	275679	1678534	8996
269	2016-04-03 17:28:03	0	0	0	0	0	0	16.42	2	0.01	427356	0	4713	281385	427356	422643	8568	14	389	25	275679	1678550	8996
270	2016-04-03 17:37:58	0	0	0	0	0	0	16.42	2	0.01	427381	0	4714	281385	427381	422667	8568	14	389	25	275679	1678571	8996
271	2016-04-03 17:47:59	0	0	0	0	0	0	16.42	2	0.01	427413	0	4715	281385	427413	422698	8568	14	389	25	275679	1678586	8996
272	2016-04-03 17:57:57	0	0	0	0	0	0	16.42	2	0.01	427445	0	4717	281385	427445	422728	8568	14	389	25	275679	1678596	8996
273	2016-04-03 18:07:59	0	0	0	0	0	0	16.42	2	0.01	427465	0	4717	281385	427465	422748	8568	14	389	25	275679	1678607	8996
274	2016-04-03 18:17:59	0	0	0	0	0	0	16.42	2	0.01	427489	0	4720	281385	427489	422769	8568	14	389	25	275679	1678617	8996
275	2016-04-03 18:27:58	0	0	0	0	0	0	16.42	2	0.01	427501	0	4721	281385	427501	422780	8568	14	389	25	275679	1678630	8996
276	2016-04-03 18:37:58	0	0	0	0	0	0	16.42	2	0.01	427512	0	4721	281385	427512	422791	8568	14	389	25	275679	1678643	8996
277	2016-04-03 18:47:59	0	0	0	0	0	0	16.42	2	0.01	427541	0	4724	281385	427541	422817	8569	14	389	25	275679	1678663	8997
278	2016-04-03 18:58:00	0	0	0	0	0	0	16.43	2	0.01	427572	0	4727	281461	427572	422845	8570	14	389	25	275752	1678668	8998
279	2016-04-03 19:08:01	0	0	0	0	0	0	16.43	2	0.01	427581	0	4727	281461	427581	422854	8570	14	389	25	275752	1678676	8998
280	2016-04-03 19:18:00	0	0	0	0	0	0	16.43	2	0.01	427602	0	4729	281461	427602	422873	8570	14	389	25	275752	1678684	8998
281	2016-04-03 19:28:00	0	0	0	0	0	0	16.43	2	0.01	427616	0	4730	281461	427616	422886	8570	14	389	25	275752	1678697	8998
282	2016-04-03 19:38:01	0	0	0	0	0	0	16.44	2	0.01	427647	0	4730	281666	427647	422917	8570	14	389	25	275949	1678714	8998
283	2016-04-03 19:47:59	0	0	0	0	0	0	16.44	2	0.01	427661	0	4731	281666	427661	422930	8570	14	389	25	275949	1678731	8998
284	2016-04-03 19:58:01	0	0	0	0	0	0	16.44	2	0.01	427687	0	4731	281666	427687	422956	8570	14	389	25	275949	1678740	8998
285	2016-04-03 20:08:01	0	0	0	0	0	0	16.44	2	0.01	427703	0	4732	281666	427703	422971	8570	14	389	25	275949	1678748	8998
286	2016-04-03 20:18:00	0	0	0	0	0	0	16.44	2	0.01	427733	0	4732	281666	427733	423001	8570	14	390	25	275949	1678759	8999
287	2016-04-03 20:28:00	0	0	0	0	0	0	16.44	2	0.01	427758	0	4732	281666	427758	423026	8570	14	390	25	275949	1678768	8999
288	2016-04-03 20:38:03	0	0	0	0	0	0	16.44	2	0.01	427769	0	4732	281666	427769	423037	8570	14	390	25	275949	1678779	8999
289	2016-04-03 20:48:01	0	0	0	0	0	0	16.44	2	0.01	427798	0	4733	281666	427798	423065	8570	14	390	25	275949	1678789	8999
290	2016-04-03 20:58:01	0	0	0	0	0	0	16.44	2	0.01	427813	0	4736	281666	427813	423077	8571	14	390	25	275949	1678794	9000
291	2016-04-03 21:08:02	0	0	0	0	0	0	16.44	2	0.01	427832	0	4736	281666	427832	423096	8572	14	390	25	275949	1678806	9001
292	2016-04-03 21:18:03	0	0	0	0	0	0	16.44	2	0.01	427860	0	4738	281666	427860	423122	8572	14	390	25	275949	1678816	9001
293	2016-04-03 21:28:03	0	0	0	0	0	0	16.44	2	0.01	427869	0	4738	281666	427869	423131	8572	14	390	25	275949	1678832	9001
294	2016-04-03 21:38:02	0	0	0	0	0	0	16.44	2	0.01	427888	0	4739	281666	427888	423149	8572	14	390	25	275949	1678838	9001
295	2016-04-03 21:48:02	0	0	0	0	0	0	16.44	2	0.01	427905	0	4739	281666	427905	423166	8572	14	390	25	275949	1678854	9001
296	2016-04-03 21:58:03	0	0	0	0	0	0	16.44	2	0.01	427933	0	4741	281666	427933	423192	8573	14	390	25	275949	1678864	9002
297	2016-04-03 22:08:03	0	0	0	0	0	0	16.44	2	0.01	427956	0	4741	281666	427956	423215	8573	14	390	25	275949	1678872	9002
298	2016-04-03 22:18:03	0	0	0	0	0	0	16.44	2	0.01	427961	0	4741	281666	427961	423220	8573	14	390	25	275949	1678889	9002
299	2016-04-03 22:28:03	0	0	0	0	0	0	16.44	2	0.01	427988	0	4741	281666	427988	423247	8573	14	390	25	275949	1678906	9002
300	2016-04-03 22:38:03	0	0	0	0	0	0	16.44	2	0.01	428007	0	4741	281666	428007	423266	8573	14	390	25	275949	1678921	9002
301	2016-04-03 22:48:01	0	0	0	0	0	0	16.44	2	0.01	428039	0	4742	281666	428039	423297	8573	14	390	25	275949	1678938	9002
302	2016-04-03 22:58:03	0	0	0	0	0	0	16.44	2	0.01	428046	0	4742	281666	428046	423304	8573	14	390	25	275949	1678946	9002
303	2016-04-03 23:08:06	0	0	0	0	0	0	16.44	2	0.01	428076	0	4743	281666	428076	423333	8573	14	390	25	275949	1678959	9002
304	2016-04-03 23:18:04	0	0	0	0	0	0	16.44	2	0.01	428088	0	4743	281666	428088	423345	8573	14	390	25	275949	1678972	9002
305	2016-04-03 23:28:05	0	0	0	0	0	0	16.44	2	0.01	428110	0	4743	281666	428110	423367	8574	14	390	25	275949	1678985	9003
306	2016-04-03 23:38:04	0	0	0	0	0	0	16.44	2	0.01	428123	0	4743	281666	428123	423380	8574	14	390	25	275949	1678993	9003
307	2016-04-03 23:48:02	0	0	0	0	0	0	16.44	2	0.01	428138	0	4743	281666	428138	423395	8574	14	390	25	275949	1679005	9003
308	2016-04-03 23:58:02	0	0	0	0	0	0	16.44	2	0.01	428146	0	4743	281666	428146	423403	8574	14	390	25	275949	1679027	9003
309	2016-04-04 00:08:02	0	0	0	0	0	0	16.43	2	0.01	428173	0	4745	281666	428173	423428	8576	14	390	25	275949	1679038	9005
310	2016-04-04 00:18:05	0	0	0	0	0	0	16.43	2	0.01	428191	0	4745	281666	428191	423446	8576	14	390	25	275949	1679050	9005
311	2016-04-04 00:28:04	0	0	0	0	0	0	16.43	2	0.01	428201	0	4745	281666	428201	423456	8576	14	390	25	275949	1679065	9005
312	2016-04-04 00:38:05	0	0	0	0	0	0	16.43	2	0.01	428212	0	4745	281666	428212	423467	8576	14	390	25	275949	1679078	9005
313	2016-04-04 00:48:03	0	0	0	0	0	0	16.43	2	0.01	428229	0	4745	281666	428229	423484	8576	14	390	25	275949	1679093	9005
314	2016-04-04 00:58:05	0	0	0	0	0	0	16.43	2	0.01	428237	0	4745	281666	428237	423492	8576	14	390	25	275949	1679095	9005
315	2016-04-04 01:08:03	0	0	0	0	0	0	16.43	2	0.01	428254	0	4745	281666	428254	423509	8576	14	390	25	275949	1679105	9005
316	2016-04-04 01:18:03	0	0	0	0	0	0	16.43	2	0.01	428265	0	4746	281666	428265	423519	8576	14	390	25	275949	1679115	9005
317	2016-04-04 01:28:01	0	0	0	0	0	0	16.43	2	0.01	428283	0	4746	281666	428283	423537	8576	14	390	25	275949	1679128	9005
318	2016-04-04 01:38:01	0	0	0	0	0	0	16.43	2	0.01	428286	0	4746	281666	428286	423540	8576	14	390	25	275949	1679140	9005
319	2016-04-04 01:48:02	0	0	0	0	0	0	16.43	2	0.01	428300	0	4747	281666	428300	423553	8576	14	390	25	275949	1679155	9005
320	2016-04-04 01:58:03	0	0	0	0	0	0	16.43	2	0.01	428312	0	4747	281666	428312	423565	8576	14	390	25	275949	1679166	9005
321	2016-04-04 02:08:01	0	0	0	0	0	0	16.43	2	0.01	428316	0	4747	281666	428316	423569	8576	14	390	25	275949	1679175	9005
322	2016-04-04 02:18:01	0	0	0	0	0	0	16.43	2	0.01	428319	0	4747	281666	428319	423572	8576	14	390	25	275949	1679183	9005
323	2016-04-04 02:28:01	0	0	0	0	0	0	16.43	2	0.01	428332	0	4747	281666	428332	423585	8576	14	390	25	275949	1679191	9005
324	2016-04-04 02:38:01	0	0	0	0	0	0	16.43	2	0.01	428341	0	4747	281666	428341	423594	8576	14	390	25	275949	1679196	9005
325	2016-04-04 02:48:03	0	0	0	0	0	0	16.43	2	0.01	428356	0	4747	281666	428356	423609	8576	14	390	25	275949	1679195	9005
326	2016-04-04 02:58:03	0	0	0	0	0	0	16.43	2	0.01	428362	0	4747	281666	428362	423615	8576	14	390	25	275949	1679201	9005
327	2016-04-04 03:08:04	0	0	0	0	0	0	16.29	2	0.01	428362	0	4747	281666	428362	423615	8576	14	390	25	275949	1694030	9005
328	2016-04-04 03:18:02	0	0	0	0	0	0	16.29	2	0.01	428365	0	4747	281666	428365	423618	8576	14	390	25	275949	1694033	9005
329	2016-04-04 03:28:04	0	0	0	0	0	0	16.29	2	0.01	428372	0	4747	281666	428372	423625	8576	14	390	25	275949	1694035	9005
330	2016-04-04 03:38:04	0	0	0	0	0	0	16.29	2	0.01	428373	0	4747	281666	428373	423626	8576	14	390	25	275949	1694040	9005
331	2016-04-04 03:48:03	0	0	0	0	0	0	16.29	2	0.01	428378	0	4747	281666	428378	423631	8576	14	390	25	275949	1694045	9005
332	2016-04-04 03:58:03	0	0	0	0	0	0	16.29	2	0.01	428382	0	4747	281666	428382	423635	8576	14	390	25	275949	1694048	9005
333	2016-04-04 04:08:02	0	0	0	0	0	0	16.29	2	0.01	428383	0	4747	281666	428383	423636	8576	14	390	25	275949	1694051	9005
334	2016-04-04 04:18:02	0	0	0	0	0	0	16.29	2	0.01	428385	0	4747	281666	428385	423638	8576	14	390	25	275949	1694051	9005
335	2016-04-04 04:28:02	0	0	0	0	0	0	16.29	2	0.01	428386	0	4747	281666	428386	423639	8576	14	390	25	275949	1694053	9005
336	2016-04-04 04:38:05	0	0	0	0	0	0	16.29	2	0.01	428388	0	4747	281666	428388	423641	8576	14	390	25	275949	1694054	9005
337	2016-04-04 04:48:02	0	0	0	0	0	0	16.29	2	0.01	428389	0	4748	281666	428389	423641	8576	14	390	25	275949	1694057	9005
338	2016-04-04 04:58:02	0	0	0	0	0	0	16.29	2	0.01	428391	0	4748	281666	428391	423643	8576	14	390	25	275949	1694057	9005
339	2016-04-04 05:08:02	0	0	0	0	0	0	16.29	2	0.01	428394	0	4748	281666	428394	423646	8576	14	390	25	275949	1694057	9005
340	2016-04-04 05:18:02	0	0	0	0	0	0	16.29	2	0.01	428395	0	4748	281666	428395	423647	8576	14	390	25	275949	1694055	9005
341	2016-04-04 05:28:01	0	0	0	0	0	0	16.29	2	0.01	428395	0	4748	281666	428395	423647	8576	14	390	25	275949	1694055	9005
342	2016-04-04 05:38:04	0	0	0	0	0	0	16.29	2	0.01	428395	0	4748	281666	428395	423647	8576	14	390	25	275949	1694059	9005
343	2016-04-04 05:48:03	0	0	0	0	0	0	16.29	2	0.01	428397	0	4748	281666	428397	423649	8576	14	390	25	275949	1694061	9005
344	2016-04-04 05:58:03	0	0	0	0	0	0	16.29	2	0.01	428397	0	4748	281666	428397	423649	8576	14	390	25	275949	1694062	9005
345	2016-04-04 06:08:02	0	0	0	0	0	0	16.29	2	0.01	428397	0	4748	281666	428397	423649	8576	14	390	25	275949	1694062	9005
346	2016-04-04 06:18:03	0	0	0	0	0	0	16.29	2	0.01	428398	0	4748	281666	428398	423650	8576	14	390	25	275949	1694059	9005
347	2016-04-04 06:28:03	0	0	0	0	0	0	16.29	2	0.01	428399	0	4748	281666	428399	423651	8576	14	390	25	275949	1694060	9005
348	2016-04-04 06:38:04	0	0	0	0	0	0	16.29	2	0.01	428401	0	4748	281666	428401	423653	8576	14	390	25	275949	1694060	9005
349	2016-04-04 06:48:03	0	0	0	0	0	0	16.29	2	0.01	428402	0	4748	281666	428402	423654	8576	14	390	25	275949	1694062	9005
350	2016-04-04 06:58:05	0	0	0	0	0	0	16.29	2	0.01	428405	0	4748	281666	428405	423657	8576	14	390	25	275949	1694065	9005
351	2016-04-04 07:08:04	0	0	0	0	0	0	16.29	2	0.01	428405	0	4748	281666	428405	423657	8576	14	390	25	275949	1694064	9005
352	2016-04-04 07:18:03	0	0	0	0	0	0	16.29	2	0.01	428408	0	4748	281666	428408	423660	8576	14	390	25	275949	1694064	9005
353	2016-04-04 07:28:05	0	0	0	0	0	0	16.29	2	0.01	428408	0	4748	281666	428408	423660	8576	14	390	25	275949	1694066	9005
354	2016-04-04 07:38:03	0	0	0	0	0	0	16.29	2	0.01	428410	0	4748	281666	428410	423662	8576	14	390	25	275949	1694072	9005
355	2016-04-04 07:48:08	0	0	0	0	0	0	16.29	2	0.01	428410	0	4748	281666	428410	423662	8577	14	390	25	275949	1694076	9006
356	2016-04-04 07:58:11	0	0	0	0	0	0	16.29	2	0.01	428412	0	4748	281666	428412	423664	8577	14	390	25	275949	1694077	9006
357	2016-04-04 08:08:08	0	0	0	0	0	0	16.29	2	0.01	428415	0	4748	281666	428415	423667	8577	14	390	25	275949	1694078	9006
358	2016-04-04 08:18:03	0	0	0	0	0	0	16.29	2	0.01	428418	0	4748	281666	428418	423670	8577	14	390	25	275949	1694082	9006
359	2016-04-04 08:28:04	0	0	0	0	0	0	16.29	2	0.01	428418	0	4748	281666	428418	423670	8577	14	390	25	275949	1694082	9006
360	2016-04-04 08:38:07	0	0	0	0	0	0	16.29	2	0.01	428420	0	4748	281666	428420	423672	8577	14	390	25	275949	1694086	9006
361	2016-04-04 08:48:06	0	0	0	0	0	0	16.29	2	0.01	428431	0	4748	281666	428431	423683	8577	14	390	25	275949	1694089	9006
362	2016-04-04 08:58:06	0	0	0	0	0	0	16.29	2	0.01	428433	0	4748	281666	428433	423685	8577	14	390	25	275949	1694092	9006
363	2016-04-04 09:08:04	0	0	0	0	0	0	16.29	2	0.01	428438	0	4749	281666	428438	423689	8577	14	390	25	275949	1694093	9006
364	2016-04-04 09:18:05	0	0	0	0	0	0	16.29	2	0.01	428439	0	4749	281666	428439	423690	8577	14	390	25	275949	1694098	9006
365	2016-04-04 09:28:05	0	0	0	0	0	0	16.29	2	0.01	428443	0	4749	281666	428443	423694	8577	14	390	25	275949	1694105	9006
366	2016-04-04 09:38:07	0	0	0	0	0	0	16.29	2	0.01	428445	0	4749	281666	428445	423696	8577	14	390	25	275949	1694120	9006
367	2016-04-04 09:48:06	0	0	0	0	0	0	16.29	2	0.01	428448	0	4749	281666	428448	423699	8577	14	390	25	275949	1694127	9006
368	2016-04-04 09:58:07	0	0	0	0	0	0	16.29	2	0.01	428452	0	4749	281666	428452	423703	8577	14	390	25	275949	1694133	9006
369	2016-04-04 10:08:09	0	0	0	0	0	0	16.29	2	0.01	428462	0	4749	281666	428462	423713	8577	14	390	25	275949	1694141	9006
370	2016-04-04 10:18:09	0	0	0	0	0	0	16.29	2	0.01	428466	0	4749	281666	428466	423717	8578	14	390	25	275949	1694144	9007
371	2016-04-04 10:28:11	0	0	0	0	0	0	16.29	2	0.01	428474	0	4749	281666	428474	423725	8578	14	390	25	275949	1694152	9007
372	2016-04-04 10:38:06	0	0	0	0	0	0	16.29	2	0.01	428478	0	4750	281666	428478	423728	8578	14	390	25	275949	1694158	9007
373	2016-04-04 10:48:08	0	0	0	0	0	0	16.29	2	0.01	428483	0	4750	281666	428483	423733	8578	14	390	25	275949	1694163	9007
374	2016-04-04 10:58:09	0	0	0	0	0	0	16.29	2	0.01	428491	0	4750	281666	428491	423741	8578	14	390	25	275949	1694171	9007
375	2016-04-04 11:08:06	0	0	0	0	0	0	16.29	2	0.01	428494	0	4750	281666	428494	423744	8578	14	390	25	275949	1694182	9007
376	2016-04-04 11:18:11	0	0	0	0	0	0	16.29	2	0.01	428502	0	4750	281666	428502	423752	8578	14	390	25	275949	1694191	9007
377	2016-04-04 11:28:07	0	0	0	0	0	0	16.29	2	0.01	428504	0	4750	281666	428504	423754	8578	14	390	25	275949	1694197	9007
378	2016-04-04 11:38:12	0	0	0	0	0	0	16.29	2	0.01	428509	0	4750	281666	428509	423759	8578	14	390	25	275949	1694203	9007
379	2016-04-04 11:48:09	0	0	0	0	0	0	16.29	2	0.01	428519	0	4751	281666	428519	423768	8578	14	390	25	275949	1694214	9007
380	2016-04-04 11:58:12	0	0	0	0	0	0	16.29	2	0.01	428527	0	4751	281666	428527	423776	8578	14	390	25	275949	1694216	9007
381	2016-04-04 12:02:31	0	0	0	0	0	0	16.29	2	0.01	428527	0	4751	281666	428527	423776	8578	14	390	25	275949	1694219	9007
382	2016-04-04 12:12:41	0	0	0	0	0	0	16.29	2	0.01	428535	0	4751	281666	428535	423784	8578	14	390	25	275949	1694227	9007
383	2016-04-04 12:22:45	0	0	0	0	0	0	16.29	2	0.01	428535	0	4751	281666	428535	423784	8578	14	390	25	275949	1694249	9007
384	2016-04-04 12:32:42	0	0	0	0	0	0	16.29	2	0.01	428539	0	4751	281666	428539	423788	8578	14	390	25	275949	1694256	9007
385	2016-04-04 12:42:44	0	0	0	0	0	0	16.29	2	0.01	428539	0	4751	281666	428539	423788	8578	14	390	25	275949	1694266	9007
386	2016-04-04 12:52:36	0	0	0	0	0	0	16.29	2	0.01	428546	0	4751	281666	428546	423795	8578	14	390	25	275949	1694281	9007
387	2016-04-04 13:02:46	0	0	0	0	0	0	16.29	2	0.01	428552	0	4751	281666	428552	423801	8578	14	390	25	275949	1694292	9007
388	2016-04-04 13:12:56	0	0	0	0	0	0	16.29	2	0.01	428553	0	4751	281666	428553	423802	8578	14	390	25	275949	1694301	9007
389	2016-04-04 13:22:59	0	0	0	0	0	0	16.29	2	0.01	428557	0	4751	281666	428557	423806	8578	14	390	25	275949	1694311	9007
390	2016-04-04 13:32:38	0	0	0	0	0	0	16.29	2	0.01	428560	0	4751	281666	428560	423809	8578	14	390	25	275949	1694320	9007
391	2016-04-04 13:42:49	0	0	0	0	0	0	16.29	2	0.01	428565	0	4751	281666	428565	423814	8578	14	390	25	275949	1694323	9007
392	2016-04-04 13:52:43	0	0	0	0	0	0	16.29	2	0.01	428571	0	4751	281666	428571	423820	8578	14	390	25	275949	1694332	9007
393	2016-04-04 14:02:39	0	0	0	0	0	0	16.29	2	0.01	428573	0	4751	281666	428573	423822	8578	14	390	25	275949	1694346	9007
394	2016-04-04 14:12:40	0	0	0	0	0	0	16.29	2	0.01	428583	0	4751	281666	428583	423832	8578	14	390	25	275949	1694363	9007
395	2016-04-04 14:22:39	0	0	0	0	0	0	16.29	2	0.01	428585	0	4751	281666	428585	423834	8578	14	390	25	275949	1694387	9007
396	2016-04-04 14:32:38	0	0	0	0	0	0	16.29	2	0.01	428596	0	4751	281666	428596	423845	8578	14	390	25	275949	1694411	9007
397	2016-04-04 14:42:38	0	0	0	0	0	0	16.29	2	0.01	428600	0	4751	281666	428600	423849	8578	14	390	25	275949	1694440	9007
398	2016-04-04 14:52:39	0	0	0	0	0	0	16.29	2	0.01	428603	0	4751	281666	428603	423852	8578	14	390	25	275949	1694469	9007
399	2016-04-04 15:02:40	0	0	0	0	0	0	16.29	2	0.01	428605	0	4751	281666	428605	423854	8578	14	390	25	275949	1694497	9007
400	2016-04-04 15:12:47	0	0	0	0	0	0	16.28	2	0.01	428610	0	4751	281666	428610	423859	8578	14	390	25	275949	1694538	9007
401	2016-04-04 15:22:40	0	0	0	0	0	0	16.28	2	0.01	428614	0	4751	281666	428614	423863	8578	14	390	25	275949	1694568	9007
402	2016-04-04 15:32:40	0	0	0	0	0	0	16.28	2	0.01	428617	0	4751	281666	428617	423866	8579	14	390	25	275949	1694604	9008
403	2016-04-04 15:42:39	0	0	0	0	0	0	16.28	2	0.01	428622	0	4751	281666	428622	423871	8579	14	390	25	275949	1694638	9008
404	2016-04-04 15:52:40	0	0	0	0	0	0	16.28	2	0.01	428629	0	4751	281666	428629	423878	8579	14	390	25	275949	1694669	9008
405	2016-04-04 16:02:42	0	0	0	0	0	0	16.28	2	0.01	428633	0	4751	281666	428633	423882	8579	14	390	25	275949	1694699	9008
406	2016-04-04 16:12:40	0	0	0	0	0	0	16.28	2	0.01	428637	0	4751	281666	428637	423886	8579	14	390	25	275949	1694729	9008
407	2016-04-04 16:22:40	0	0	0	0	0	0	16.28	2	0.01	428645	0	4751	281666	428645	423894	8579	14	390	25	275949	1694757	9008
408	2016-04-04 16:32:41	0	0	0	0	0	0	16.28	2	0.01	428646	0	4751	281666	428646	423895	8580	14	390	25	275949	1694793	9009
409	2016-04-04 16:42:40	0	0	0	0	0	0	16.28	2	0.01	428648	0	4751	281666	428648	423897	8580	14	390	25	275949	1694830	9009
410	2016-04-04 16:52:42	0	0	0	0	0	0	16.28	2	0.01	428652	0	4751	281666	428652	423901	8580	14	390	25	275949	1694868	9009
411	2016-04-04 17:02:44	0	0	0	0	0	0	16.28	2	0.01	428662	0	4752	281666	428662	423910	8580	14	390	25	275949	1694896	9009
412	2016-04-04 17:12:55	0	0	0	0	0	0	16.28	2	0.01	428664	0	4752	281666	428664	423912	8580	14	390	25	275949	1694927	9009
413	2016-04-04 17:22:57	0	0	0	0	0	0	16.28	2	0.01	428668	0	4752	281666	428668	423916	8580	14	390	25	275949	1694955	9009
414	2016-04-04 17:32:41	0	0	0	0	0	0	16.28	2	0.01	428672	0	4752	281666	428672	423920	8580	14	390	25	275949	1694986	9009
415	2016-04-04 17:42:39	0	0	0	0	0	0	16.28	2	0.01	428677	0	4752	281666	428677	423925	8580	14	390	25	275949	1695006	9009
416	2016-04-04 17:52:39	0	0	0	0	0	0	16.28	2	0.01	428678	0	4752	281666	428678	423926	8580	14	390	25	275949	1695033	9009
417	2016-04-04 18:02:43	0	0	0	0	0	0	16.28	2	0.01	428678	0	4752	281666	428678	423926	8580	14	390	25	275949	1695051	9009
418	2016-04-04 18:12:42	0	0	0	0	0	0	16.28	2	0.01	428679	0	4752	281666	428679	423927	8580	14	390	25	275949	1695078	9009
419	2016-04-04 18:22:48	0	0	0	0	0	0	16.28	2	0.01	428682	0	4752	281666	428682	423930	8580	14	390	25	275949	1695104	9009
420	2016-04-04 18:32:49	0	0	0	0	0	0	16.28	2	0.01	428688	0	4753	281666	428688	423935	8580	14	390	25	275949	1695126	9009
421	2016-04-04 18:42:42	0	0	0	0	0	0	16.28	2	0.01	428690	0	4753	281666	428690	423937	8580	14	390	25	275949	1695149	9009
422	2016-04-04 18:52:39	0	0	0	0	0	0	16.28	2	0.01	428694	0	4753	281666	428694	423941	8580	14	390	25	275949	1695164	9009
423	2016-04-04 19:02:50	0	0	0	0	0	0	16.28	2	0.01	428705	0	4753	281717	428705	423952	8580	14	390	25	275998	1695174	9009
424	2016-04-04 19:12:43	0	0	0	0	0	0	16.28	2	0.01	428707	0	4753	281717	428707	423954	8580	14	390	25	275998	1695195	9009
425	2016-04-04 19:22:41	0	0	0	0	0	0	16.28	2	0.01	428711	0	4753	281717	428711	423958	8580	14	390	25	275998	1695215	9009
426	2016-04-04 19:32:39	0	0	0	0	0	0	16.28	2	0.01	428711	0	4753	281717	428711	423958	8580	14	390	25	275998	1695242	9009
427	2016-04-04 19:42:39	0	0	0	0	0	0	16.28	2	0.01	428719	0	4753	281717	428719	423966	8580	14	390	25	275998	1695265	9009
428	2016-04-04 19:52:42	0	0	0	0	0	0	16.28	2	0.01	428723	0	4753	281717	428723	423970	8580	14	390	25	275998	1695287	9009
429	2016-04-04 20:02:41	0	0	0	0	0	0	16.28	2	0.01	428728	0	4753	281717	428728	423975	8580	14	390	25	275998	1695306	9009
430	2016-04-04 20:12:39	0	0	0	0	0	0	16.29	2	0.01	428732	0	4753	281910	428732	423979	8580	14	390	25	276183	1695321	9009
431	2016-04-04 20:22:39	0	0	0	0	0	0	16.29	2	0.01	428737	0	4753	281910	428737	423984	8580	14	390	25	276183	1695343	9009
432	2016-04-04 20:32:40	0	0	0	0	0	0	16.29	2	0.01	428740	0	4753	281910	428740	423987	8580	14	390	25	276183	1695362	9009
433	2016-04-04 20:42:38	0	0	0	0	0	0	16.29	2	0.01	428744	0	4754	281910	428744	423990	8580	14	390	25	276183	1695387	9009
434	2016-04-04 20:52:40	0	0	0	0	0	0	16.29	2	0.01	428751	0	4754	281910	428751	423997	8580	14	390	25	276183	1695412	9009
