1	2015-11-25 11:08:25	0	0	0	0	0	0	0	0	0	0	0	0	0	0	0	0	0	0	0	0	1308781	0
2	2015-11-25 11:18:25	0	0	0	0	0	0	3.36	0.33	0.03	53898	0	1742	18572	53898	52156	176	20	248	6	44009	1308788	450
3	2015-11-25 11:28:24	0	0	0	0	0	0	3.36	0.33	0.03	53898	0	1742	68066	53898	52156	176	107	1230	27	44009	1308803	1540
4	2015-11-25 11:38:25	0	0	0	0	0	0	6.78	1.4	0.09	123444	0	10495	96982	123444	112949	1733	177	1816	37	88751	1308810	3763
5	2015-11-25 11:48:25	0	0	0	0	0	0	6.78	1.4	0.09	123444	0	10495	110944	123444	112949	1733	213	2072	42	88751	1308827	4060
6	2015-11-25 11:58:24	0	0	0	0	0	0	8.86	1.56	0.15	177028	0	22822	110944	177028	154206	2762	213	2072	42	115935	1308837	5089
7	2015-11-25 12:08:25	0	0	0	0	0	0	10	1.6	0.18	207236	0	31190	152699	207236	176046	3309	341	2963	66	130830	1308845	6679
8	2015-11-25 12:18:25	0	0	0	0	0	0	10	1.6	0.18	207236	0	31190	152699	207236	176046	3309	341	2963	66	130830	1308847	6679
9	2015-11-25 12:28:25	0	0	0	0	0	0	11.66	1.63	0.22	251163	0	45388	186767	251163	205775	4093	400	3524	87	152665	1308862	8104
10	2015-11-25 12:38:25	0	0	0	0	0	0	12.54	1.65	0.24	278390	0	54643	203891	278390	223747	4602	443	3872	97	164151	1308881	9014
11	2015-11-25 12:48:28	0	0	0	0	0	0	12.99	1.65	0.26	293811	0	59906	214739	293811	233905	4861	462	4041	98	170017	1308894	9462
12	2015-11-25 12:58:28	0	0	0	0	0	0	12.99	1.65	0.26	293811	0	59906	214739	293811	233905	4861	462	4041	98	170017	1308902	9462
13	2015-11-25 13:08:29	0	0	0	0	0	0	14.27	1.67	0.29	332951	0	74186	243920	332951	258765	5559	511	4500	113	186739	1308917	10683
14	2015-11-25 13:18:28	0	0	0	0	0	0	14.27	1.67	0.29	332951	0	74186	243920	332951	258765	5559	511	4500	113	186739	1308933	10683
15	2015-11-25 13:28:28	0	0	0	0	0	0	15.21	1.69	0.32	373167	0	90251	268356	373167	282916	6291	579	4973	130	199155	1308945	11973
16	2015-11-25 13:38:29	0	0	0	0	0	0	15.73	1.68	0.33	391925	0	97786	281128	391925	294139	6603	614	5212	134	205901	1308955	12563
17	2015-11-25 13:48:28	0	0	0	0	0	0	15.73	1.68	0.33	391925	0	97786	281128	391925	294139	6603	614	5212	134	205901	1308961	12563
18	2015-11-25 13:58:29	0	0	0	0	0	0	16.68	1.69	0.35	422896	0	110769	300371	422896	312127	7168	668	5557	135	218330	1308967	13528
19	2015-11-25 14:08:28	0	0	0	0	0	0	16.68	1.69	0.35	422896	0	110769	300371	422896	312127	7168	668	5557	135	218330	1308984	13528
20	2015-11-25 14:18:28	0	0	0	0	0	0	17.16	1.7	0.37	448713	0	121704	317571	448713	327009	7617	712	5875	143	224619	1308990	14347
21	2015-11-25 14:28:42	0	0	0	0	0	0	17.75	1.7	0.39	469988	0	130652	332475	469988	339336	7973	753	6140	150	232307	1309000	15016
22	2015-11-25 14:38:33	0	0	0	0	0	0	17.75	1.7	0.39	469988	0	130652	332475	469988	339336	7973	753	6140	150	232307	1309016	15016
23	2015-11-25 14:48:35	0	0	0	0	0	0	18.51	1.7	0.4	499625	0	143332	352668	499625	356293	8505	793	6457	160	242273	1309019	15915
24	2015-11-25 14:58:30	0	0	0	0	0	0	18.64	1.7	0.41	507883	0	146997	358528	507883	360886	8656	800	6541	161	243977	1309038	16158
25	2015-11-25 15:08:31	0	0	0	0	0	0	18.87	1.71	0.42	522339	0	153340	366013	522339	368999	8948	817	6695	166	247070	1309063	16626
26	2015-11-25 15:18:31	0	0	0	0	0	0	19.29	1.72	0.42	538501	0	160235	376067	538501	378266	9251	838	6859	168	252548	1309078	17116
27	2015-11-25 15:28:27	0	0	0	0	0	0	19.29	1.72	0.42	538501	0	160235	376067	538501	378266	9251	838	6859	168	252548	1309092	17116
28	2015-11-25 15:38:28	0	0	0	0	0	0	19.93	1.73	0.44	561017	0	170277	391665	561017	390740	9688	869	7106	180	260938	1309099	17843
29	2015-11-25 15:48:27	0	0	0	0	0	0	19.93	1.73	0.44	561017	0	170277	391665	561017	390740	9688	869	7106	180	260938	1309112	17843
30	2015-11-25 15:58:27	0	0	0	0	0	0	20.86	1.73	0.45	590693	0	183587	407087	590693	407106	10219	908	7451	188	273041	1309128	18766
31	2015-11-25 16:08:28	0	0	0	0	0	0	21.11	1.73	0.46	598981	0	187321	421398	598981	411660	10381	921	7543	193	276330	1309138	19038
32	2015-11-25 16:18:28	0	0	0	0	0	0	21.11	1.73	0.46	598981	0	187321	421398	598981	411660	10381	921	7543	193	276330	1309142	19038
33	2015-11-25 16:28:28	0	0	0	0	0	0	21.6	1.74	0.47	628658	0	200368	446563	628658	428290	10960	973	7875	204	282817	1309158	20012
34	2015-11-25 16:38:28	0	0	0	0	0	0	21.6	1.74	0.47	628658	0	200368	446563	628658	428290	10960	973	7875	204	282817	1309166	20012
35	2015-11-25 16:48:28	0	0	0	0	0	0	22.18	1.75	0.48	651827	0	210580	462791	651827	441247	11383	1023	8142	213	290377	1309172	20761
36	2015-11-25 16:58:28	0	0	0	0	0	0	22.18	1.75	0.48	651827	0	210580	462791	651827	441247	11383	1023	8142	213	290377	1309189	20761
37	2015-11-25 17:08:29	0	0	0	0	0	0	22.98	1.76	0.49	680226	0	223664	485057	680226	456562	11968	1083	8494	221	300915	1309205	21766
38	2015-11-25 17:18:28	0	0	0	0	0	0	22.98	1.76	0.49	680226	0	223664	485057	680226	456562	11968	1083	8494	221	300915	1309219	21766
39	2015-11-25 17:28:28	0	0	0	0	0	0	23.64	1.77	0.5	703238	0	234133	499271	703238	469105	12423	1122	8732	228	309452	1309233	22505
40	2015-11-25 17:38:28	0	0	0	0	0	0	23.64	1.77	0.5	703238	0	234133	499271	703238	469105	12423	1122	8732	228	309452	1309248	22505
41	2015-11-25 17:48:28	0	0	0	0	0	0	24.11	1.77	0.51	725982	0	244955	513833	725982	481027	12871	1149	8988	231	315631	1309260	23239
42	2015-11-25 17:59:36	0	0	0	0	0	0	24.37	1.77	0.51	739761	0	251451	522589	739761	488310	13125	1167	9127	237	319037	1309272	23656
43	2015-11-25 18:08:32	0	0	0	0	0	0	24.37	1.77	0.51	739761	0	251451	522589	739761	488310	13125	1167	9127	237	319037	1309285	23656
44	2015-11-25 18:18:31	0	0	0	0	0	0	24.72	1.78	0.52	759607	0	261004	538450	759607	498603	13485	1206	9358	238	323708	1309302	24287
45	2015-11-25 18:28:35	0	0	0	0	0	0	25.04	1.78	0.53	771253	0	266593	546673	771253	504660	13738	1230	9495	246	327821	1309312	24709
46	2015-11-25 18:40:24	0	0	0	0	0	0	25.29	1.78	0.53	785258	0	273032	556583	785258	512226	14008	1252	9649	255	331142	1309323	25164
47	2015-11-25 18:50:05	0	0	0	0	0	0	25.29	1.78	0.53	785258	0	273032	556583	785258	512226	14008	1252	9649	255	331142	1309339	25164
48	2015-11-25 18:59:09	0	0	0	0	0	0	25.69	1.79	0.54	806373	0	283331	569311	806373	523042	14406	1293	9900	263	336345	1309349	25862
49	2015-11-25 19:18:33	0	0	0	0	0	0	26.16	1.79	0.55	827327	0	293553	577366	827327	533774	14771	1327	10111	267	342483	1309366	26476
50	2015-11-25 19:28:29	0	0	0	0	0	0	26.16	1.79	0.55	827327	0	293553	577366	827327	533774	14771	1327	10111	267	342483	1309374	26476
51	2015-11-25 19:38:29	0	0	0	0	0	0	26.53	1.79	0.56	847580	0	303600	588985	847580	543980	15146	1353	10302	273	347324	1309383	27074
52	2015-11-25 19:48:29	0	0	0	0	0	0	26.53	1.79	0.56	847580	0	303600	588985	847580	543980	15146	1353	10302	273	347324	1309396	27074
53	2015-11-25 19:58:29	0	0	0	0	0	0	27.01	1.79	0.57	868496	0	313827	603739	868496	554669	15515	1380	10500	277	353607	1309408	27672
54	2015-11-25 20:08:29	0	0	0	0	0	0	27	1.79	0.57	868496	0	313827	603739	868496	554669	15515	1380	10500	277	353607	1309424	27672
55	2015-11-25 20:18:29	0	0	0	0	0	0	27.38	1.77	0.57	895860	0	327008	616458	895860	568852	15872	1407	10691	286	358515	1309434	28256
56	2015-11-25 20:28:29	0	0	0	0	0	0	27.38	1.77	0.57	895860	0	327008	616458	895860	568852	15872	1407	10691	286	358515	1309450	28256
57	2015-11-25 20:38:30	0	0	0	0	0	0	27.89	1.78	0.58	916140	0	336625	633901	916140	579515	16335	1445	10972	298	365271	1309461	29050
58	2015-11-25 20:48:29	0	0	0	0	0	0	27.89	1.78	0.58	916140	0	336625	633901	916140	579515	16335	1445	10972	298	365271	1309466	29050
59	2015-11-25 20:58:29	0	0	0	0	0	0	28.3	1.78	0.59	935945	0	346181	646994	935945	589764	16669	1471	11187	305	370616	1309480	29632
60	2015-11-25 21:08:30	0	0	0	0	0	0	28.37	1.78	0.59	943560	0	350021	649811	943560	593539	16816	1478	11260	306	371506	1309491	29860
61	2015-11-25 21:18:30	0	0	0	0	0	0	28.51	1.78	0.59	956810	0	356668	654132	956810	600142	17052	1491	11387	308	373393	1309505	30238
62	2015-11-25 21:28:29	0	0	0	0	0	0	28.51	1.78	0.59	956810	0	356668	654132	956810	600142	17052	1491	11387	308	373393	1309517	30238
63	2015-11-25 21:38:29	0	0	0	0	0	0	28.99	1.78	0.6	975954	0	366232	662618	975954	609722	17400	1520	11609	316	379596	1309529	30845
64	2015-11-25 21:48:29	0	0	0	0	0	0	29.28	1.78	0.6	989315	0	372863	669839	989315	616452	17647	1541	11757	320	383474	1309547	31265
65	2015-11-25 21:58:30	0	0	0	0	0	0	29.51	1.78	0.61	1001838	0	379142	679393	1001838	622696	17860	1551	11867	322	386490	1309559	31600
66	2015-11-25 22:08:30	0	0	0	0	0	0	29.65	1.78	0.61	1008959	0	382740	684348	1008959	626219	17976	1572	11935	324	388319	1309571	31807
67	2015-11-25 22:18:30	0	0	0	0	0	0	29.65	1.78	0.61	1008959	0	382740	684348	1008959	626219	17976	1572	11935	324	388319	1309587	31807
68	2015-11-25 22:28:30	0	0	0	0	0	0	30.09	1.78	0.62	1027127	0	392180	695775	1027127	634947	18271	1598	12124	327	394058	1309603	32320
69	2015-11-25 22:38:30	0	0	0	0	0	0	30.09	1.78	0.62	1027127	0	392180	695775	1027127	634947	18271	1598	12124	327	394058	1309620	32320
70	2015-11-25 22:48:31	0	0	0	0	0	0	30.42	1.78	0.62	1044380	0	400946	702484	1044380	643434	18554	1615	12296	335	398329	1309622	32800
71	2015-11-25 22:58:30	0	0	0	0	0	0	30.41	1.78	0.62	1044380	0	400946	702484	1044380	643434	18554	1615	12296	335	398329	1309649	32800
72	2015-11-25 23:08:30	0	0	0	0	0	0	30.96	1.78	0.63	1068634	0	413310	713440	1068634	655324	19004	1647	12517	342	405408	1309663	33510
73	2015-11-25 23:18:30	0	0	0	0	0	0	30.95	1.78	0.63	1068634	0	413310	713440	1068634	655324	19004	1647	12517	342	405408	1309681	33510
74	2015-11-25 23:28:31	0	0	0	0	0	0	31.24	1.78	0.64	1084778	0	421478	720343	1084778	663300	19298	1673	12690	347	409124	1309699	34008
75	2015-11-25 23:38:30	0	0	0	0	0	0	31.24	1.78	0.64	1084778	0	421478	720343	1084778	663300	19298	1673	12690	347	409124	1309716	34008
76	2015-11-25 23:48:30	0	0	0	0	0	0	31.61	1.78	0.64	1101180	0	429390	730584	1101180	671790	19576	1695	12830	349	414048	1309741	34450
77	2015-11-25 23:58:34	0	0	0	0	0	0	31.79	1.78	0.64	1112313	0	434725	737622	1112313	677588	19758	1704	12934	350	416386	1309756	34746
78	2015-11-26 00:08:31	0	0	0	0	0	0	31.79	1.78	0.64	1112313	0	434725	737622	1112313	677588	19758	1704	12934	350	416386	1309773	34746
79	2015-11-26 00:18:31	0	0	0	0	0	0	32.16	1.78	0.65	1127984	0	442286	746941	1127984	685698	20050	1724	13089	351	421186	1309789	35214
80	2015-11-26 00:28:31	0	0	0	0	0	0	32.25	1.78	0.65	1132432	0	444525	750074	1132432	687907	20129	1726	13136	352	422429	1309808	35343
81	2015-11-26 00:38:31	0	0	0	0	0	0	32.25	1.78	0.65	1132432	0	444525	750074	1132432	687907	20129	1726	13136	352	422429	1309816	35343
82	2015-11-26 00:48:30	0	0	0	0	0	0	32.76	1.78	0.65	1148577	0	452456	760016	1148577	696121	20430	1742	13273	357	429133	1309824	35802
83	2015-11-26 00:58:30	0	0	0	0	0	0	32.86	1.78	0.65	1152425	0	454321	762073	1152425	698104	20487	1748	13311	358	430355	1309829	35904
84	2015-11-26 01:08:30	0	0	0	0	0	0	32.86	1.78	0.65	1152425	0	454321	762073	1152425	698104	20487	1748	13311	358	430355	1309843	35904
85	2015-11-26 01:18:30	0	0	0	0	0	0	33.01	1.78	0.65	1164016	0	459923	768975	1164016	704093	20725	1767	13411	360	432412	1309862	36263
86	2015-11-26 01:28:31	0	0	0	0	0	0	33.05	1.78	0.65	1166663	0	461213	768975	1166663	705450	20773	1770	13429	360	432896	1309875	36332
87	2015-11-26 01:38:30	0	0	0	0	0	0	33.05	1.78	0.65	1166663	0	461213	768975	1166663	705450	20773	1770	13429	360	432896	1309890	36332
88	2015-11-26 01:48:31	0	0	0	0	0	0	33.26	1.78	0.65	1174245	0	464718	772561	1174245	709527	20916	1780	13504	360	435694	1309895	36560
89	2015-11-26 01:58:31	0	0	0	0	0	0	33.29	1.78	0.66	1177806	0	466439	773623	1177806	711367	20976	1786	13538	360	436123	1309904	36660
90	2015-11-26 02:08:31	0	0	0	0	0	0	33.29	1.78	0.66	1177806	0	466439	773623	1177806	711367	20976	1786	13538	360	436123	1309914	36660
91	2015-11-26 02:18:30	0	0	0	0	0	0	33.46	1.78	0.66	1183845	0	469283	778241	1183845	714562	21087	1791	13604	360	438346	1309917	36842
92	2015-11-26 02:28:30	0	0	0	0	0	0	33.46	1.78	0.66	1183845	0	469283	778241	1183845	714562	21087	1791	13604	360	438346	1309922	36842
93	2015-11-26 02:38:30	0	0	0	0	0	0	33.56	1.78	0.66	1187532	0	471066	779293	1187532	716466	21163	1794	13643	361	439556	1309929	36961
94	2015-11-26 02:48:30	0	0	0	0	0	0	33.56	1.78	0.66	1187532	0	471066	779293	1187532	716466	21163	1794	13643	361	439556	1309929	36961
95	2015-11-26 02:58:31	0	0	0	0	0	0	33.74	1.78	0.66	1191170	0	472788	782271	1191170	718382	21227	1803	13663	361	442011	1309934	37054
96	2015-11-26 03:08:30	0	0	0	0	0	0	33.75	1.78	0.66	1191170	0	472788	782271	1191170	718382	21227	1803	13663	361	442011	1309535	37054
97	2015-11-26 03:18:30	0	0	0	0	0	0	33.77	1.78	0.66	1193403	0	473854	782271	1193403	719549	21268	1803	13682	361	442263	1309536	37114
98	2015-11-26 03:28:31	0	0	0	0	0	0	33.77	1.78	0.66	1194633	0	474439	782617	1194633	720194	21292	1804	13694	361	442263	1309540	37151
99	2015-11-26 03:38:30	0	0	0	0	0	0	33.77	1.78	0.66	1194633	0	474439	782617	1194633	720194	21292	1804	13694	361	442263	1309543	37151
100	2015-11-26 03:48:30	0	0	0	0	0	0	33.81	1.78	0.66	1196378	0	475266	784203	1196378	721112	21331	1806	13710	361	442769	1309541	37208
101	2015-11-26 03:58:31	0	0	0	0	0	0	33.81	1.78	0.66	1196839	0	475477	784203	1196839	721362	21336	1806	13711	361	442769	1309539	37214
102	2015-11-26 04:08:30	0	0	0	0	0	0	33.81	1.78	0.66	1196839	0	475477	784203	1196839	721362	21336	1806	13711	361	442769	1309542	37214
103	2015-11-26 04:18:30	0	0	0	0	0	0	33.85	1.78	0.66	1198499	0	476316	787194	1198499	722183	21366	1808	13729	361	443276	1309543	37264
104	2015-11-26 04:28:31	0	0	0	0	0	0	33.88	1.78	0.66	1198816	0	476480	787594	1198816	722336	21373	1808	13731	361	443657	1309547	37273
105	2015-11-26 04:38:31	0	0	0	0	0	0	33.88	1.78	0.66	1198816	0	476480	787594	1198816	722336	21373	1808	13731	361	443657	1309547	37273
106	2015-11-26 04:48:31	0	0	0	0	0	0	33.9	1.78	0.66	1200221	0	477221	787895	1200221	723000	21390	1809	13740	361	443912	1309546	37300
107	2015-11-26 04:58:31	0	0	0	0	0	0	33.9	1.78	0.66	1200488	0	477362	787895	1200488	723126	21395	1810	13747	361	443912	1309546	37313
108	2015-11-26 05:08:30	0	0	0	0	0	0	33.9	1.78	0.66	1200488	0	477362	787895	1200488	723126	21395	1810	13747	361	443912	1309545	37313
109	2015-11-26 05:18:31	0	0	0	0	0	0	33.93	1.78	0.66	1201641	0	478000	788195	1201641	723641	21414	1810	13754	361	444390	1309545	37339
110	2015-11-26 05:28:31	0	0	0	0	0	0	33.93	1.78	0.66	1201969	0	478174	788195	1201969	723795	21417	1810	13756	361	444390	1309545	37344
111	2015-11-26 05:38:31	0	0	0	0	0	0	33.93	1.78	0.66	1201969	0	478174	788195	1201969	723795	21417	1810	13756	361	444390	1309542	37344
112	2015-11-26 05:48:30	0	0	0	0	0	0	33.93	1.78	0.66	1202872	0	478695	788691	1202872	724177	21431	1813	13760	361	444390	1309544	37365
113	2015-11-26 05:58:31	0	0	0	0	0	0	33.93	1.78	0.66	1203532	0	479071	788691	1203532	724461	21438	1814	13768	362	444390	1309543	37382
114	2015-11-26 06:08:31	0	0	0	0	0	0	33.93	1.78	0.66	1203532	0	479071	788691	1203532	724461	21438	1814	13768	362	444390	1309541	37382
115	2015-11-26 06:18:30	0	0	0	0	0	0	33.97	1.78	0.66	1205115	0	480004	789470	1205115	725111	21448	1817	13775	362	444900	1309541	37402
116	2015-11-26 06:28:30	0	0	0	0	0	0	33.97	1.78	0.66	1205530	0	480255	789470	1205530	725275	21463	1818	13780	362	444900	1309542	37423
117	2015-11-26 06:38:30	0	0	0	0	0	0	33.97	1.78	0.66	1205530	0	480255	789470	1205530	725275	21463	1818	13780	362	444900	1309542	37423
118	2015-11-26 06:48:30	0	0	0	0	0	0	33.97	1.78	0.66	1207092	0	481180	789475	1207092	725912	21479	1820	13793	362	444900	1309543	37454
119	2015-11-26 06:58:32	0	0	0	0	0	0	33.97	1.78	0.66	1208533	0	481992	791746	1208533	726541	21497	1821	13809	362	444900	1309544	37489
120	2015-11-26 07:08:33	0	0	0	0	0	0	33.97	1.78	0.66	1209834	0	482707	791746	1209834	727127	21517	1823	13821	362	444900	1309547	37523
121	2015-11-26 07:18:31	0	0	0	0	0	0	33.97	1.78	0.66	1209834	0	482707	791746	1209834	727127	21517	1823	13821	362	444900	1309551	37523
122	2015-11-26 07:28:31	0	0	0	0	0	0	34	1.78	0.67	1212436	0	484286	792506	1212436	728150	21557	1831	13846	364	445284	1309552	37598
123	2015-11-26 07:38:30	0	0	0	0	0	0	34	1.78	0.67	1212436	0	484286	792506	1212436	728150	21557	1831	13846	364	445284	1309553	37598
124	2015-11-26 07:48:31	0	0	0	0	0	0	34.14	1.78	0.67	1215737	0	486121	795509	1215737	729616	21608	1836	13874	367	447068	1309556	37685
125	2015-11-26 07:58:30	0	0	0	0	0	0	34.14	1.78	0.67	1215737	0	486121	795509	1215737	729616	21608	1836	13874	367	447068	1309561	37685
126	2015-11-26 08:08:31	0	0	0	0	0	0	34.19	1.77	0.67	1220864	0	489102	800316	1220864	731762	21662	1842	13908	368	447747	1309562	37780
127	2015-11-26 08:18:31	0	0	0	0	0	0	34.22	1.78	0.67	1222158	0	489881	800626	1222158	732277	21716	1844	13936	369	448168	1309569	37865
128	2015-11-26 08:28:30	0	0	0	0	0	0	34.22	1.78	0.67	1222158	0	489881	800626	1222158	732277	21716	1844	13936	369	448168	1309571	37865
129	2015-11-26 08:38:31	0	0	0	0	0	0	34.26	1.78	0.67	1227981	0	493177	802312	1227981	734804	21813	1850	13984	370	448688	1309580	38017
130	2015-11-26 08:48:31	0	0	0	0	0	0	34.26	1.78	0.67	1227981	0	493177	802312	1227981	734804	21813	1850	13984	370	448688	1309585	38017
131	2015-11-26 08:58:31	0	0	0	0	0	0	34.38	1.78	0.67	1232259	0	495637	803483	1232259	736622	21892	1859	14020	372	450295	1309592	38143
132	2015-11-26 09:08:31	0	0	0	0	0	0	34.44	1.78	0.67	1235686	0	497597	807833	1235686	738089	21954	1870	14057	372	451066	1309602	38253
133	2015-11-26 09:18:31	0	0	0	0	0	0	34.44	1.78	0.67	1235686	0	497597	807833	1235686	738089	21954	1870	14057	372	451066	1309609	38253
134	2015-11-26 09:28:31	0	0	0	0	0	0	34.65	1.78	0.68	1240756	0	500448	813430	1240756	740308	22046	1877	14108	372	453834	1309619	38403
135	2015-11-26 09:38:31	0	0	0	0	0	0	34.65	1.78	0.68	1240756	0	500448	813430	1240756	740308	22046	1877	14108	372	453834	1309629	38403
136	2015-11-26 09:48:31	0	0	0	0	0	0	34.94	1.78	0.68	1247693	0	504398	820299	1247693	743295	22153	1887	14165	373	457573	1309634	38578
137	2015-11-26 09:58:31	0	0	0	0	0	0	34.94	1.78	0.68	1247693	0	504398	820299	1247693	743295	22153	1887	14165	373	457573	1309640	38578
138	2015-11-26 10:08:31	0	0	0	0	0	0	34.97	1.78	0.68	1253093	0	507528	825899	1253093	745565	22305	1895	14231	375	457971	1309651	38806
139	2015-11-26 10:18:31	0	0	0	0	0	0	35	1.78	0.68	1256389	0	509453	826836	1256389	746936	22340	1898	14243	375	458445	1309659	38856
140	2015-11-26 10:28:31	0	0	0	0	0	0	35.04	1.78	0.68	1258041	0	510396	828163	1258041	747645	22407	1902	14281	381	458853	1309668	38971
141	2015-11-26 10:38:31	0	0	0	0	0	0	35.04	1.78	0.68	1258041	0	510396	828163	1258041	747645	22407	1902	14281	381	458853	1309669	38971
142	2015-11-26 10:48:31	0	0	0	0	0	0	35.08	1.78	0.68	1263427	0	513504	829883	1263427	749923	22508	1909	14330	384	459398	1309674	39131
143	2015-11-26 10:58:31	0	0	0	0	0	0	35.08	1.78	0.68	1263427	0	513504	829883	1263427	749923	22508	1909	14330	384	459398	1309688	39131
144	2015-11-26 11:08:31	0	0	0	0	0	0	35.15	1.78	0.69	1270664	0	517613	831443	1270664	753051	22656	1926	14397	385	460422	1309700	39364
145	2015-11-26 11:18:36	0	0	0	0	0	0	35.18	1.78	0.69	1273893	0	519493	833065	1273893	754400	22717	1929	14429	386	460816	1309709	39461
146	2015-11-26 11:28:40	0	0	0	0	0	0	35.19	1.78	0.69	1275614	0	520485	833626	1275614	755129	22751	1934	14448	387	460919	1309721	39520
147	2015-11-26 11:38:38	0	0	0	0	0	0	35.19	1.78	0.69	1275614	0	520485	833626	1275614	755129	22751	1934	14448	387	460919	1309732	39520
148	2015-11-26 11:48:37	0	0	0	0	0	0	35.25	1.79	0.69	1281777	0	524054	835480	1281777	757723	22896	1942	14506	388	461727	1309739	39732
149	2015-11-26 11:58:43	0	0	0	0	0	0	35.34	1.79	0.69	1284442	0	525614	836383	1284442	758828	22951	1945	14528	388	462892	1309744	39812
150	2015-11-26 12:08:37	0	0	0	0	0	0	35.34	1.79	0.69	1284442	0	525614	836383	1284442	758828	22951	1945	14528	388	462892	1309754	39812
151	2015-11-26 12:18:40	0	0	0	0	0	0	35.4	1.79	0.69	1288700	0	528164	836383	1288700	760536	23033	1951	14560	392	463724	1309772	39936
152	2015-11-26 12:28:44	0	0	0	0	0	0	35.45	1.79	0.7	1291111	0	529521	837047	1291111	761590	23076	1954	14586	392	464280	1309789	40008
153	2015-11-26 12:38:39	0	0	0	0	0	0	35.45	1.79	0.7	1291111	0	529521	837047	1291111	761590	23076	1954	14586	392	464280	1309794	40008
154	2015-11-26 12:48:40	0	0	0	0	0	0	35.51	1.79	0.7	1295094	0	531925	839942	1295094	763169	23156	1963	14624	394	465169	1309799	40137
155	2015-11-26 12:58:38	0	0	0	0	0	0	35.51	1.79	0.7	1295094	0	531925	839942	1295094	763169	23156	1963	14624	394	465169	1309805	40137
156	2015-11-26 13:08:41	0	0	0	0	0	0	35.54	1.79	0.7	1298625	0	534108	844869	1298625	764517	23223	1970	14664	397	465484	1309827	40254
157	2015-11-26 13:18:42	0	0	0	0	0	0	35.58	1.79	0.7	1300982	0	535581	844869	1300982	765401	23262	1976	14697	398	466044	1309837	40333
158	2015-11-26 13:28:45	0	0	0	0	0	0	35.62	1.79	0.7	1302156	0	536365	845360	1302156	765791	23286	1979	14705	398	466615	1309852	40368
159	2015-11-26 13:38:43	0	0	0	0	0	0	35.62	1.79	0.7	1302156	0	536365	845360	1302156	765791	23286	1979	14705	398	466615	1309868	40368
160	2015-11-26 13:48:43	0	0	0	0	0	0	35.71	1.79	0.7	1305655	0	538486	849647	1305655	767169	23357	1987	14749	399	467778	1309901	40492
161	2015-11-26 13:58:44	0	0	0	0	0	0	35.73	1.79	0.7	1307540	0	539653	850698	1307540	767887	23389	1988	14768	399	468061	1309931	40544
162	2015-11-26 14:08:48	0	0	0	0	0	0	35.73	1.79	0.7	1309429	0	540798	851575	1309429	768631	23420	1990	14786	399	468061	1309981	40595
163	2015-11-26 14:18:44	0	0	0	0	0	0	35.73	1.79	0.7	1309429	0	540798	851575	1309429	768631	23420	1990	14786	399	468061	1310024	40595
164	2015-11-26 14:28:46	0	0	0	0	0	0	35.74	1.79	0.71	1312408	0	542702	852513	1312408	769706	23487	1998	14817	406	468203	1310068	40708
165	2015-11-26 14:38:44	0	0	0	0	0	0	35.74	1.79	0.71	1312408	0	542702	852513	1312408	769706	23487	1998	14817	406	468203	1310102	40708
166	2015-11-26 14:48:43	0	0	0	0	0	0	35.74	1.79	0.71	1316161	0	545146	853688	1316161	771015	23568	2007	14852	407	468203	1310144	40834
167	2015-11-26 14:58:47	0	0	0	0	0	0	35.74	1.79	0.71	1317174	0	545762	853688	1317174	771412	23580	2007	14863	407	468203	1310195	40857
168	2015-11-26 15:08:46	0	0	0	0	0	0	35.73	1.79	0.71	1317174	0	545762	853688	1317174	771412	23580	2007	14863	407	468203	1310226	40857
169	2015-11-26 15:18:43	0	0	0	0	0	0	35.8	1.79	0.71	1320878	0	548127	854159	1320878	772751	23664	2011	14897	409	469054	1310253	40981
170	2015-11-26 15:28:34	0	0	0	0	0	0	35.8	1.79	0.71	1320878	0	548127	854159	1320878	772751	23664	2011	14897	409	469054	1310280	40981
171	2015-11-26 15:38:34	0	0	0	0	0	0	35.82	1.79	0.71	1323821	0	550005	855797	1323821	773816	23730	2015	14923	409	469338	1310314	41077
172	2015-11-26 15:48:34	0	0	0	0	0	0	35.82	1.79	0.71	1324921	0	550716	856507	1324921	774205	23747	2018	14928	409	469338	1310342	41102
173	2015-11-26 15:58:34	0	0	0	0	0	0	35.82	1.79	0.71	1324921	0	550716	856507	1324921	774205	23747	2018	14928	409	469338	1310369	41102
174	2015-11-26 16:08:35	0	0	0	0	0	0	35.83	1.79	0.71	1328511	0	552963	857456	1328511	775548	23834	2021	14957	410	469480	1310406	41222
175	2015-11-26 16:18:35	0	0	0	0	0	0	35.83	1.79	0.71	1330243	0	554069	858169	1330243	776174	23867	2024	14971	410	469480	1310432	41272
176	2015-11-26 16:28:35	0	0	0	0	0	0	35.83	1.79	0.71	1330243	0	554069	858169	1330243	776174	23867	2024	14971	410	469480	1310451	41272
177	2015-11-26 16:38:34	0	0	0	0	0	0	35.84	1.79	0.72	1333110	0	555948	860315	1333110	777162	23921	2027	14990	410	469623	1310486	41348
178	2015-11-26 16:48:35	0	0	0	0	0	0	35.85	1.8	0.72	1334689	0	556956	861033	1334689	777733	23964	2028	15007	411	469837	1310519	41410
179	2015-11-26 16:58:34	0	0	0	0	0	0	35.85	1.8	0.72	1334689	0	556956	861033	1334689	777733	23964	2028	15007	411	469837	1310556	41410
180	2015-11-26 17:08:35	0	0	0	0	0	0	35.89	1.8	0.72	1337278	0	558596	861272	1337278	778682	24014	2031	15031	412	470336	1310585	41488
181	2015-11-26 17:18:35	0	0	0	0	0	0	35.89	1.8	0.72	1337278	0	558596	861272	1337278	778682	24014	2031	15031	412	470336	1310612	41488
182	2015-11-26 17:28:35	0	0	0	0	0	0	35.91	1.8	0.72	1339744	0	560095	861512	1339744	779649	24059	2033	15052	412	470694	1310645	41556
183	2015-11-26 17:38:34	0	0	0	0	0	0	35.91	1.8	0.72	1339744	0	560095	861512	1339744	779649	24059	2033	15052	412	470694	1310690	41556
184	2015-11-26 17:48:35	0	0	0	0	0	0	35.91	1.8	0.72	1342470	0	561806	863133	1342470	780664	24114	2036	15078	413	470694	1310729	41641
185	2015-11-26 17:58:35	0	0	0	0	0	0	35.91	1.8	0.72	1342470	0	561806	863133	1342470	780664	24114	2036	15078	413	470694	1310761	41641
186	2015-11-26 18:08:36	0	0	0	0	0	0	35.91	1.79	0.72	1345817	0	563346	864519	1345817	781548	24155	2041	15096	415	470694	1310796	41707
187	2015-11-26 18:18:35	0	0	0	0	0	0	35.91	1.79	0.72	1345817	0	563346	865001	1345817	781548	24155	2041	15096	415	470694	1310824	41707
188	2015-11-26 18:28:36	0	0	0	0	0	0	35.91	1.8	0.72	1348391	0	565622	865908	1348391	782769	24242	2048	15137	417	470694	1310854	41844
189	2015-11-26 18:38:35	0	0	0	0	0	0	35.91	1.8	0.72	1348391	0	565622	865908	1348391	782769	24242	2048	15137	417	470694	1310884	41844
190	2015-11-26 18:48:58	0	0	0	0	0	0	35.91	1.8	0.72	1350915	0	567203	867850	1350915	783712	24295	2050	15158	419	470694	1310921	41922
191	2015-11-26 18:58:56	0	0	0	0	0	0	35.91	1.8	0.72	1350915	0	567203	867850	1350915	783712	24295	2050	15158	419	470694	1310938	41922
192	2015-11-26 19:08:45	0	0	0	0	0	0	35.95	1.8	0.72	1353383	0	568791	869007	1353383	784592	24354	2052	15173	421	471267	1310969	42000
193	2015-11-26 19:18:40	0	0	0	0	0	0	35.95	1.8	0.72	1353383	0	568791	869007	1353383	784592	24354	2052	15173	421	471267	1311003	42000
194	2015-11-26 19:28:43	0	0	0	0	0	0	36	1.8	0.73	1355890	0	570370	871207	1355890	785520	24423	2054	15194	422	471913	1311043	42093
195	2015-11-26 19:38:49	0	0	0	0	0	0	35.99	1.8	0.73	1357504	0	571384	872235	1357504	786120	24458	2056	15210	423	471913	1311072	42147
196	2015-11-26 19:47:28	0	0	0	0	0	0	35.99	1.8	0.73	1357504	0	571384	872235	1357504	786120	24458	2056	15210	423	471913	1311084	42147
197	2015-11-26 19:57:26	0	0	0	0	0	0	36.03	1.8	0.73	1360023	0	573111	872573	1360023	786912	24510	2058	15241	424	472417	1311106	42233
198	2015-11-26 20:07:25	0	0	0	0	0	0	36.03	1.8	0.73	1360023	0	573111	872573	1360023	786912	24510	2058	15241	424	472417	1311140	42233
199	2015-11-26 20:17:27	0	0	0	0	0	0	36.06	1.8	0.73	1362695	0	574904	875472	1362695	787791	24569	2062	15266	425	472850	1311154	42322
200	2015-11-26 20:27:27	0	0	0	0	0	0	36.1	1.8	0.73	1364245	0	575912	876680	1364245	788333	24589	2066	15276	427	473356	1311180	42358
201	2015-11-26 20:37:27	0	0	0	0	0	0	36.1	1.8	0.73	1364245	0	575912	876680	1364245	788333	24589	2066	15276	427	473356	1311203	42358
202	2015-11-26 20:47:26	0	0	0	0	0	0	36.12	1.8	0.73	1366558	0	577413	879170	1366558	789145	24634	2069	15297	429	473573	1311221	42429
203	2015-11-26 20:57:27	0	0	0	0	0	0	36.16	1.8	0.73	1368326	0	578558	881548	1368326	789768	24667	2072	15319	430	474153	1311248	42488
204	2015-11-26 21:07:26	0	0	0	0	0	0	36.16	1.8	0.73	1368326	0	578558	881548	1368326	789768	24667	2072	15319	430	474153	1311261	42488
205	2015-11-26 21:17:27	0	0	0	0	0	0	36.16	1.8	0.73	1370707	0	580074	882710	1370707	790633	24717	2080	15340	430	474153	1311283	42567
206	2015-11-26 21:27:30	0	0	0	0	0	0	36.18	1.8	0.73	1372365	0	581151	883592	1372365	791214	24749	2080	15358	430	474408	1311308	42617
207	2015-11-26 21:37:41	0	0	0	0	0	0	36.21	1.8	0.74	1373951	0	582197	883592	1373951	791754	24780	2082	15373	431	474844	1311328	42666
208	2015-11-26 21:47:47	0	0	0	0	0	0	36.21	1.8	0.74	1375427	0	583177	884096	1375427	792250	24818	2086	15388	431	474844	1311346	42723
209	2015-11-26 21:57:41	0	0	0	0	0	0	36.22	1.81	0.74	1376297	0	583739	884600	1376297	792558	24846	2087	15398	431	474990	1311367	42762
210	2015-11-26 22:07:42	0	0	0	0	0	0	36.23	1.81	0.74	1377919	0	584724	884600	1377919	793195	24880	2092	15417	431	475135	1311390	42820
211	2015-11-26 22:17:41	0	0	0	0	0	0	36.23	1.81	0.74	1377919	0	584724	884600	1377919	793195	24880	2092	15417	431	475135	1311419	42820
212	2015-11-26 22:27:40	0	0	0	0	0	0	36.3	1.81	0.74	1380419	0	586344	886119	1380419	794075	24928	2092	15430	431	476012	1311444	42881
213	2015-11-26 22:37:41	0	0	0	0	0	0	36.34	1.81	0.74	1381940	0	587293	887548	1381940	794647	24957	2093	15442	431	476598	1311481	42923
214	2015-11-26 22:47:42	0	0	0	0	0	0	36.34	1.81	0.74	1382734	0	587812	887548	1382734	794922	24977	2093	15446	431	476598	1311496	42947
215	2015-11-26 22:57:41	0	0	0	0	0	0	36.34	1.81	0.74	1382734	0	587812	887548	1382734	794922	24977	2093	15446	431	476598	1311531	42947
216	2015-11-26 23:07:41	0	0	0	0	0	0	36.39	1.81	0.74	1385926	0	589792	890611	1385926	796134	25038	2098	15472	432	477241	1311568	43040
217	2015-11-26 23:17:45	0	0	0	0	0	0	36.39	1.81	0.74	1387269	0	590703	890611	1387269	796566	25060	2102	15487	432	477241	1311598	43081
218	2015-11-26 23:27:42	0	0	0	0	0	0	36.39	1.81	0.74	1387269	0	590703	890611	1387269	796566	25060	2102	15487	432	477241	1311632	43081
219	2015-11-26 23:37:41	0	0	0	0	0	0	36.38	1.81	0.74	1389357	0	592237	891573	1389357	797120	25105	2107	15508	433	477241	1311652	43153
220	2015-11-26 23:47:42	0	0	0	0	0	0	36.38	1.81	0.74	1389876	0	592630	891573	1389876	797246	25113	2108	15516	433	477241	1311681	43170
221	2015-11-26 23:57:41	0	0	0	0	0	0	36.39	1.81	0.74	1390995	0	593533	892473	1390995	797462	25136	2109	15522	433	477388	1311704	43200
222	2015-11-27 00:07:42	0	0	0	0	0	0	36.44	1.81	0.75	1392025	0	594382	893503	1392025	797643	25165	2109	15530	433	477978	1311731	43237
223	2015-11-27 00:17:41	0	0	0	0	0	0	36.44	1.81	0.75	1392025	0	594382	893503	1392025	797643	25165	2109	15530	433	477978	1311746	43237
224	2015-11-27 00:27:28	0	0	0	0	0	0	36.44	1.81	0.75	1393368	0	595501	893503	1393368	797867	25200	2109	15536	433	477978	1311758	43278
225	2015-11-27 00:37:27	0	0	0	0	0	0	36.44	1.81	0.75	1393368	0	595501	893503	1393368	797867	25200	2109	15536	433	477978	1311774	43278
226	2015-11-27 00:47:29	0	0	0	0	0	0	36.45	1.81	0.75	1394639	0	596575	895182	1394639	798064	25219	2112	15547	434	478162	1311792	43312
227	2015-11-27 00:57:28	0	0	0	0	0	0	36.45	1.81	0.75	1394639	0	596575	895182	1394639	798064	25219	2112	15547	434	478162	1311811	43312
228	2015-11-27 01:07:28	0	0	0	0	0	0	36.46	1.81	0.75	1395725	0	597490	896575	1395725	798235	25248	2116	15561	436	478301	1311826	43361
229	2015-11-27 01:17:27	0	0	0	0	0	0	36.46	1.81	0.75	1395725	0	597490	896575	1395725	798235	25248	2116	15561	436	478301	1311841	43361
230	2015-11-27 01:27:28	0	0	0	0	0	0	36.46	1.81	0.75	1396599	0	598244	896575	1396599	798355	25263	2118	15567	438	478301	1311864	43386
231	2015-11-27 01:37:29	0	0	0	0	0	0	36.49	1.81	0.75	1396854	0	598456	898135	1396854	798398	25270	2120	15570	438	478744	1311887	43398
232	2015-11-27 01:47:28	0	0	0	0	0	0	36.49	1.81	0.75	1396854	0	598456	898135	1396854	798398	25270	2120	15570	438	478744	1311903	43398
233	2015-11-27 01:57:28	0	0	0	0	0	0	36.51	1.81	0.75	1397502	0	599011	898755	1397502	798491	25284	2120	15573	438	479041	1311913	43415
234	2015-11-27 02:07:29	0	0	0	0	0	0	36.51	1.81	0.75	1397839	0	599295	898755	1397839	798544	25292	2122	15575	438	479041	1311923	43427
235	2015-11-27 02:17:30	0	0	0	0	0	0	36.55	1.81	0.75	1398118	0	599531	898755	1398118	798587	25294	2122	15576	438	479486	1311935	43430
236	2015-11-27 02:27:30	0	0	0	0	0	0	36.55	1.81	0.75	1398372	0	599743	898755	1398372	798629	25303	2122	15577	438	479486	1311946	43440
237	2015-11-27 02:37:27	0	0	0	0	0	0	36.55	1.81	0.75	1398372	0	599743	898755	1398372	798629	25303	2122	15577	438	479486	1311954	43440
238	2015-11-27 02:47:28	0	0	0	0	0	0	36.55	1.81	0.75	1398687	0	600014	899277	1398687	798673	25309	2122	15579	438	479486	1311964	43448
239	2015-11-27 02:57:28	0	0	0	0	0	0	36.55	1.81	0.75	1398852	0	600152	899277	1398852	798700	25313	2122	15581	439	479486	1311975	43455
240	2015-11-27 03:07:28	0	0	0	0	0	0	36.57	1.81	0.75	1398852	0	600152	899277	1398852	798700	25313	2122	15581	439	479486	1310997	43455
241	2015-11-27 03:17:29	0	0	0	0	0	0	36.57	1.81	0.75	1399051	0	600333	899277	1399051	798718	25317	2123	15584	439	479486	1311002	43463
242	2015-11-27 03:27:27	0	0	0	0	0	0	36.57	1.81	0.75	1399051	0	600333	899277	1399051	798718	25317	2123	15584	439	479486	1311005	43463
243	2015-11-27 03:37:47	0	0	0	0	0	0	36.57	1.81	0.75	1399214	0	600472	899277	1399214	798742	25319	2123	15585	439	479486	1311007	43466
244	2015-11-27 03:47:23	0	0	0	0	0	0	36.57	1.81	0.75	1399214	0	600472	899277	1399214	798742	25319	2123	15585	439	479486	1311010	43466
245	2015-11-27 03:57:25	0	0	0	0	0	0	36.57	1.81	0.75	1399402	0	600622	899277	1399402	798780	25322	2123	15585	439	479486	1311011	43469
246	2015-11-27 04:07:24	0	0	0	0	0	0	36.57	1.81	0.75	1399402	0	600622	899277	1399402	798780	25322	2123	15585	439	479486	1311012	43469
247	2015-11-27 04:17:25	0	0	0	0	0	0	36.57	1.81	0.75	1399553	0	600748	899277	1399553	798805	25323	2123	15588	439	479486	1311014	43473
248	2015-11-27 04:27:24	0	0	0	0	0	0	36.57	1.81	0.75	1399553	0	600748	899277	1399553	798805	25323	2123	15588	439	479486	1311020	43473
249	2015-11-27 04:37:24	0	0	0	0	0	0	36.57	1.81	0.75	1399676	0	600852	899277	1399676	798824	25326	2123	15589	439	479486	1311023	43477
250	2015-11-27 04:47:23	0	0	0	0	0	0	36.57	1.81	0.75	1399676	0	600852	899277	1399676	798824	25326	2123	15589	439	479486	1311022	43477
251	2015-11-27 04:57:23	0	0	0	0	0	0	36.57	1.81	0.75	1399766	0	600932	899277	1399766	798834	25327	2123	15589	439	479486	1311024	43478
252	2015-11-27 05:07:24	0	0	0	0	0	0	36.57	1.81	0.75	1399829	0	600988	899277	1399829	798841	25328	2123	15589	439	479486	1311028	43479
253	2015-11-27 05:17:25	0	0	0	0	0	0	36.57	1.81	0.75	1399897	0	601050	899277	1399897	798847	25328	2123	15591	439	479486	1311029	43481
254	2015-11-27 05:27:24	0	0	0	0	0	0	36.57	1.81	0.75	1399897	0	601050	899277	1399897	798847	25328	2123	15591	439	479486	1311033	43481
255	2015-11-27 05:37:24	0	0	0	0	0	0	36.57	1.81	0.75	1399987	0	601132	899277	1399987	798855	25329	2123	15595	439	479486	1311031	43486
256	2015-11-27 05:47:25	0	0	0	0	0	0	36.57	1.81	0.75	1400062	0	601196	899277	1400062	798866	25330	2123	15595	439	479486	1311032	43487
257	2015-11-27 05:57:24	0	0	0	0	0	0	36.57	1.81	0.75	1400062	0	601196	899277	1400062	798866	25330	2123	15595	439	479486	1311037	43487
258	2015-11-27 06:07:24	0	0	0	0	0	0	36.57	1.81	0.75	1400142	0	601262	899277	1400142	798880	25333	2124	15595	439	479486	1311037	43491
259	2015-11-27 06:17:28	0	0	0	0	0	0	36.57	1.81	0.75	1400206	0	601321	899277	1400206	798885	25334	2124	15595	439	479486	1311039	43492
260	2015-11-27 06:27:27	0	0	0	0	0	0	36.57	1.81	0.75	1400206	0	601321	899277	1400206	798885	25334	2124	15595	439	479486	1311040	43492
261	2015-11-27 06:37:29	0	0	0	0	0	0	36.57	1.81	0.75	1400359	0	601462	899277	1400359	798897	25337	2124	15598	439	479486	1311042	43498
262	2015-11-27 06:47:30	0	0	0	0	0	0	36.57	1.81	0.75	1400460	0	601555	899277	1400460	798905	25340	2124	15598	439	479486	1311044	43501
263	2015-11-27 06:57:32	0	0	0	0	0	0	36.57	1.81	0.75	1400595	0	601681	899277	1400595	798914	25341	2124	15599	439	479486	1311045	43503
264	2015-11-27 07:07:32	0	0	0	0	0	0	36.57	1.81	0.75	1400595	0	601681	899277	1400595	798914	25341	2124	15599	439	479486	1311050	43503
265	2015-11-27 07:17:33	0	0	0	0	0	0	36.57	1.81	0.75	1400834	0	601898	899277	1400834	798936	25342	2125	15599	439	479486	1311053	43505
266	2015-11-27 07:27:28	0	0	0	0	0	0	36.57	1.81	0.75	1400834	0	601898	899277	1400834	798936	25342	2125	15599	439	479486	1311059	43505
267	2015-11-27 07:37:28	0	0	0	0	0	0	36.57	1.81	0.75	1401114	0	602155	899799	1401114	798959	25346	2125	15599	440	479486	1311060	43510
268	2015-11-27 07:47:29	0	0	0	0	0	0	36.57	1.81	0.75	1401317	0	602344	899799	1401317	798973	25349	2125	15601	440	479486	1311063	43515
269	2015-11-27 07:57:29	0	0	0	0	0	0	36.57	1.81	0.75	1401395	0	602413	899799	1401395	798982	25352	2125	15601	440	479486	1311071	43518
270	2015-11-27 08:07:28	0	0	0	0	0	0	36.57	1.81	0.75	1401395	0	602413	899799	1401395	798982	25352	2125	15601	440	479486	1311076	43518
271	2015-11-27 08:17:29	0	0	0	0	0	0	36.57	1.81	0.75	1401846	0	602823	899799	1401846	799023	25363	2125	15607	440	479486	1311081	43535
272	2015-11-27 08:27:28	0	0	0	0	0	0	36.57	1.81	0.75	1401846	0	602823	899799	1401846	799023	25363	2125	15607	440	479486	1311088	43535
273	2015-11-27 08:37:29	0	0	0	0	0	0	36.57	1.81	0.75	1402247	0	603184	900846	1402247	799063	25378	2125	15610	440	479486	1311094	43553
274	2015-11-27 08:47:28	0	0	0	0	0	0	36.57	1.81	0.75	1402247	0	603184	900846	1402247	799063	25378	2125	15610	440	479486	1311098	43553
275	2015-11-27 08:57:29	0	0	0	0	0	0	36.57	1.81	0.76	1402697	0	603585	900846	1402697	799112	25385	2126	15614	441	479486	1311111	43566
276	2015-11-27 09:07:29	0	0	0	0	0	0	36.57	1.81	0.76	1402969	0	603833	900846	1402969	799136	25389	2126	15615	441	479486	1311115	43571
277	2015-11-27 09:17:29	0	0	0	0	0	0	36.57	1.81	0.76	1402969	0	603833	900846	1402969	799136	25389	2126	15615	441	479486	1311130	43571
278	2015-11-27 09:27:30	0	0	0	0	0	0	36.57	1.81	0.76	1403399	0	604228	901338	1403399	799171	25407	2128	15618	441	479486	1311141	43594
279	2015-11-27 09:37:29	0	0	0	0	0	0	36.57	1.81	0.76	1403399	0	604228	901338	1403399	799171	25407	2128	15618	441	479486	1311148	43594
280	2015-11-27 09:47:29	0	0	0	0	0	0	36.57	1.81	0.76	1403881	0	604659	901338	1403881	799222	25413	2128	15620	441	479486	1311160	43602
281	2015-11-27 09:57:30	0	0	0	0	0	0	36.57	1.81	0.76	1404024	0	604794	901338	1404024	799230	25422	2128	15623	441	479486	1311173	43614
282	2015-11-27 10:07:30	0	0	0	0	0	0	36.57	1.81	0.76	1404024	0	604794	901338	1404024	799230	25422	2128	15623	441	479486	1311188	43614
283	2015-11-27 10:17:29	0	0	0	0	0	0	36.57	1.81	0.76	1404423	0	605144	902389	1404423	799279	25431	2129	15630	443	479486	1311196	43633
284	2015-11-27 10:27:31	0	0	0	0	0	0	36.57	1.81	0.76	1404701	0	605394	902389	1404701	799307	25432	2129	15632	444	479486	1311210	43637
285	2015-11-27 10:37:31	0	0	0	0	0	0	36.57	1.81	0.76	1404977	0	605643	904234	1404977	799334	25440	2129	15634	444	479486	1311222	43647
286	2015-11-27 10:47:30	0	0	0	0	0	0	36.57	1.81	0.76	1404977	0	605643	904234	1404977	799334	25440	2129	15634	444	479486	1311233	43647
287	2015-11-27 10:57:31	0	0	0	0	0	0	36.57	1.81	0.76	1405382	0	606015	904234	1405382	799367	25450	2129	15635	445	479486	1311253	43659
288	2015-11-27 11:07:31	0	0	0	0	0	0	36.57	1.81	0.76	1405650	0	606254	904498	1405650	799396	25453	2129	15637	445	479486	1311261	43664
289	2015-11-27 11:17:31	0	0	0	0	0	0	36.57	1.81	0.76	1405650	0	606254	904498	1405650	799396	25453	2129	15637	445	479486	1311269	43664
290	2015-11-27 11:27:32	0	0	0	0	0	0	36.58	1.81	0.76	1405986	0	606564	904498	1405986	799422	25459	2130	15639	445	479634	1311284	43673
291	2015-11-27 11:37:31	0	0	0	0	0	0	36.58	1.81	0.76	1405986	0	606564	904498	1405986	799422	25459	2130	15639	445	479634	1311296	43673
292	2015-11-27 11:47:31	0	0	0	0	0	0	36.58	1.81	0.76	1406326	0	606871	904498	1406326	799455	25469	2134	15642	445	479634	1311309	43690
293	2015-11-27 11:57:34	0	0	0	0	0	0	36.58	1.81	0.76	1406553	0	607073	904498	1406553	799480	25475	2134	15645	445	479634	1311324	43699
294	2015-11-27 12:06:39	0	0	0	0	0	0	36.58	1.81	0.76	1406553	0	607073	904498	1406553	799480	25475	2134	15645	445	479634	1311332	43699
295	2015-11-27 12:16:38	0	0	0	0	0	0	36.58	1.81	0.76	1406869	0	607355	905423	1406869	799514	25482	2134	15647	445	479634	1311347	43708
296	2015-11-27 12:26:37	0	0	0	0	0	0	36.58	1.81	0.76	1406869	0	607355	905423	1406869	799514	25482	2134	15647	445	479634	1311358	43708
297	2015-11-27 12:36:39	0	0	0	0	0	0	36.58	1.81	0.76	1407178	0	607639	905423	1407178	799539	25491	2135	15650	445	479634	1311367	43721
298	2015-11-27 12:46:38	0	0	0	0	0	0	36.57	1.81	0.76	1407178	0	607639	905423	1407178	799539	25491	2135	15650	445	479634	1311379	43721
299	2015-11-27 12:56:39	0	0	0	0	0	0	36.57	1.81	0.76	1407552	0	607977	905556	1407552	799575	25499	2135	15652	445	479634	1311388	43731
300	2015-11-27 13:06:39	0	0	0	0	0	0	36.57	1.81	0.76	1407642	0	608052	905556	1407642	799590	25502	2135	15652	445	479634	1311398	43734
301	2015-11-27 13:16:39	0	0	0	0	0	0	36.57	1.81	0.76	1407801	0	608199	905556	1407801	799602	25503	2135	15653	445	479634	1311414	43736
302	2015-11-27 13:26:39	0	0	0	0	0	0	36.57	1.81	0.76	1407801	0	608199	905556	1407801	799602	25503	2135	15653	445	479634	1311429	43736
303	2015-11-27 13:36:38	0	0	0	0	0	0	36.57	1.81	0.76	1408060	0	608433	905556	1408060	799627	25507	2135	15653	447	479634	1311443	43742
304	2015-11-27 13:46:39	0	0	0	0	0	0	36.57	1.81	0.76	1408207	0	608563	905556	1408207	799644	25509	2135	15654	448	479634	1311457	43746
305	2015-11-27 13:56:39	0	0	0	0	0	0	36.57	1.81	0.76	1408207	0	608563	905556	1408207	799644	25509	2135	15654	448	479634	1311471	43746
306	2015-11-27 14:06:38	0	0	0	0	0	0	36.57	1.81	0.76	1408504	0	608830	905556	1408504	799674	25520	2135	15656	448	479634	1311485	43759
307	2015-11-27 14:16:40	0	0	0	0	0	0	36.59	1.81	0.76	1408670	0	608973	905556	1408670	799697	25525	2135	15657	448	479932	1311498	43765
308	2015-11-27 14:26:39	0	0	0	0	0	0	36.59	1.81	0.76	1408670	0	608973	905556	1408670	799697	25525	2135	15657	448	479932	1311523	43765
309	2015-11-27 14:36:39	0	0	0	0	0	0	36.59	1.81	0.76	1408983	0	609255	905556	1408983	799728	25537	2135	15659	448	479932	1311552	43779
310	2015-11-27 14:46:40	0	0	0	0	0	0	36.59	1.81	0.76	1409068	0	609328	905556	1409068	799740	25538	2135	15659	449	479932	1311573	43781
311	2015-11-27 14:56:39	0	0	0	0	0	0	36.59	1.81	0.76	1409068	0	609328	905556	1409068	799740	25538	2135	15659	449	479932	1311600	43781
312	2015-11-27 15:06:48	0	0	0	0	0	0	36.59	1.81	0.76	1409383	0	609612	905556	1409383	799771	25542	2138	15667	451	479932	1311623	43798
313	2015-11-27 15:16:55	0	0	0	0	0	0	36.59	1.81	0.76	1409457	0	609677	905556	1409457	799780	25542	2139	15668	451	479932	1311646	43800
314	2015-11-27 15:27:25	0	0	0	0	0	0	36.59	1.81	0.76	1409649	0	609847	905556	1409649	799802	25549	2141	15669	451	479932	1311669	43810
315	2015-11-27 15:36:40	0	0	0	0	0	0	36.59	1.81	0.76	1409649	0	609847	905556	1409649	799802	25549	2141	15669	451	479932	1311688	43810
316	2015-11-27 15:46:41	0	0	0	0	0	0	36.59	1.81	0.76	1409913	0	610073	905953	1409913	799840	25553	2141	15671	452	479932	1311708	43817
317	2015-11-27 15:56:40	0	0	0	0	0	0	36.59	1.81	0.76	1409913	0	610073	905953	1409913	799840	25553	2141	15671	452	479932	1311735	43817
318	2015-11-27 16:06:40	0	0	0	0	0	0	36.59	1.81	0.76	1410173	0	610298	906749	1410173	799875	25561	2142	15676	452	479932	1311760	43831
319	2015-11-27 16:16:41	0	0	0	0	0	0	36.59	1.81	0.76	1410329	0	610431	906749	1410329	799898	25563	2142	15680	452	479932	1311790	43837
320	2015-11-27 16:26:40	0	0	0	0	0	0	36.59	1.81	0.76	1410329	0	610431	906749	1410329	799898	25563	2142	15680	452	479932	1311815	43837
321	2015-11-27 16:36:40	0	0	0	0	0	0	36.58	1.81	0.76	1410634	0	610703	906749	1410634	799931	25566	2143	15684	452	479932	1311841	43845
322	2015-11-27 16:46:40	0	0	0	0	0	0	36.58	1.81	0.76	1410634	0	610703	906749	1410634	799931	25566	2143	15684	452	479932	1311861	43845
323	2015-11-27 16:56:40	0	0	0	0	0	0	36.61	1.81	0.76	1410903	0	610935	906749	1410903	799968	25570	2143	15690	452	480229	1311874	43855
324	2015-11-27 17:06:41	0	0	0	0	0	0	36.61	1.81	0.76	1411074	0	611089	906749	1411074	799985	25570	2143	15690	452	480229	1311889	43855
325	2015-11-27 17:16:42	0	0	0	0	0	0	36.61	1.81	0.76	1411172	0	611173	906749	1411172	799999	25571	2143	15691	452	480229	1311914	43857
326	2015-11-27 17:26:40	0	0	0	0	0	0	36.6	1.81	0.76	1411172	0	611173	906749	1411172	799999	25571	2143	15691	452	480229	1311937	43857
327	2015-11-27 17:36:41	0	0	0	0	0	0	36.6	1.81	0.76	1411511	0	611461	906749	1411511	800050	25572	2145	15695	452	480229	1311961	43864
328	2015-11-27 17:46:42	0	0	0	0	0	0	36.6	1.81	0.76	1411594	0	611531	906749	1411594	800063	25577	2145	15696	452	480229	1311984	43870
329	2015-11-27 17:56:41	0	0	0	0	0	0	36.6	1.81	0.76	1411594	0	611531	906749	1411594	800063	25577	2145	15696	452	480229	1311997	43870
330	2015-11-27 18:06:41	0	0	0	0	0	0	36.6	1.81	0.76	1411892	0	611785	906749	1411892	800107	25580	2146	15700	453	480229	1312017	43879
331	2015-11-27 18:16:42	0	0	0	0	0	0	36.6	1.81	0.76	1411972	0	611853	906749	1411972	800119	25584	2146	15700	453	480229	1312035	43883
332	2015-11-27 18:26:41	0	0	0	0	0	0	36.6	1.81	0.76	1411972	0	611853	906749	1411972	800119	25584	2146	15700	453	480229	1312044	43883
333	2015-11-27 18:36:42	0	0	0	0	0	0	36.6	1.81	0.76	1412261	0	612105	906749	1412261	800156	25590	2146	15702	453	480229	1312060	43891
334	2015-11-27 18:46:42	0	0	0	0	0	0	36.6	1.81	0.76	1412261	0	612105	906749	1412261	800156	25590	2146	15702	453	480229	1312080	43891
335	2015-11-27 18:56:41	0	0	0	0	0	0	36.6	1.81	0.77	1412514	0	612339	906749	1412514	800175	25597	2148	15703	453	480229	1312095	43901
336	2015-11-27 19:06:42	0	0	0	0	0	0	36.6	1.81	0.77	1412612	0	612427	906749	1412612	800185	25599	2149	15706	453	480229	1312122	43907
337	2015-11-27 19:16:41	0	0	0	0	0	0	36.6	1.81	0.77	1412612	0	612427	906749	1412612	800185	25599	2149	15706	453	480229	1312142	43907
338	2015-11-27 19:26:43	0	0	0	0	0	0	36.6	1.81	0.77	1412892	0	612686	906749	1412892	800206	25603	2149	15708	454	480229	1312160	43914
339	2015-11-27 19:36:42	0	0	0	0	0	0	36.6	1.81	0.77	1412892	0	612686	906749	1412892	800206	25603	2149	15708	454	480229	1312181	43914
340	2015-11-27 19:46:42	0	0	0	0	0	0	36.6	1.81	0.77	1413270	0	613016	906749	1413270	800254	25607	2149	15715	454	480229	1312198	43925
341	2015-11-27 19:56:42	0	0	0	0	0	0	36.6	1.81	0.77	1413270	0	613016	906749	1413270	800254	25607	2149	15715	454	480229	1312218	43925
342	2015-11-27 20:06:41	0	0	0	0	0	0	36.6	1.81	0.77	1413654	0	613364	906749	1413654	800290	25614	2149	15718	455	480229	1312238	43936
343	2015-11-27 20:16:43	0	0	0	0	0	0	36.6	1.81	0.77	1413873	0	613565	906749	1413873	800308	25618	2149	15720	455	480229	1312260	43942
344	2015-11-27 20:26:41	0	0	0	0	0	0	36.59	1.81	0.77	1413873	0	613565	906749	1413873	800308	25618	2149	15720	455	480229	1312283	43942
345	2015-11-27 20:36:43	0	0	0	0	0	0	36.59	1.81	0.77	1414215	0	613871	907746	1414215	800344	25622	2149	15725	455	480229	1312318	43951
346	2015-11-27 20:46:42	0	0	0	0	0	0	36.59	1.81	0.77	1414215	0	613871	907746	1414215	800344	25622	2149	15725	455	480229	1312334	43951
347	2015-11-27 20:56:43	0	0	0	0	0	0	36.59	1.81	0.77	1414644	0	614257	907746	1414644	800387	25626	2149	15725	455	480229	1312354	43955
348	2015-11-27 21:06:42	0	0	0	0	0	0	36.59	1.81	0.77	1414644	0	614257	907746	1414644	800387	25626	2149	15725	455	480229	1312370	43955
349	2015-11-27 21:16:43	0	0	0	0	0	0	36.59	1.81	0.77	1414954	0	614535	907746	1414954	800419	25632	2149	15728	455	480229	1312385	43964
350	2015-11-27 21:26:42	0	0	0	0	0	0	36.59	1.81	0.77	1414954	0	614535	907746	1414954	800419	25632	2149	15728	455	480229	1312404	43964
351	2015-11-27 21:36:43	0	0	0	0	0	0	36.59	1.81	0.77	1415291	0	614849	907746	1415291	800442	25638	2150	15730	455	480229	1312425	43973
352	2015-11-27 21:46:42	0	0	0	0	0	0	36.59	1.81	0.77	1415291	0	614849	907746	1415291	800442	25638	2150	15730	455	480229	1312444	43973
353	2015-11-27 21:56:43	0	0	0	0	0	0	36.59	1.81	0.77	1415664	0	615187	907979	1415664	800477	25646	2151	15731	456	480229	1312468	43984
354	2015-11-27 22:06:42	0	0	0	0	0	0	36.59	1.81	0.77	1415664	0	615187	907979	1415664	800477	25646	2151	15731	456	480229	1312481	43984
355	2015-11-27 22:16:43	0	0	0	0	0	0	36.59	1.81	0.77	1416054	0	615540	908512	1416054	800514	25654	2152	15736	457	480229	1312495	43999
356	2015-11-27 22:26:42	0	0	0	0	0	0	36.59	1.81	0.77	1416054	0	615540	908512	1416054	800514	25654	2152	15736	457	480229	1312510	43999
357	2015-11-27 22:36:43	0	0	0	0	0	0	36.59	1.81	0.77	1416527	0	615966	909629	1416527	800561	25659	2154	15740	457	480229	1312531	44010
358	2015-11-27 22:46:42	0	0	0	0	0	0	36.59	1.81	0.77	1416527	0	615966	909629	1416527	800561	25659	2154	15740	457	480229	1312558	44010
359	2015-11-27 22:56:43	0	0	0	0	0	0	36.59	1.81	0.77	1416847	0	616252	909629	1416847	800595	25667	2155	15742	457	480229	1312578	44021
360	2015-11-27 23:06:42	0	0	0	0	0	0	36.59	1.81	0.77	1416847	0	616252	909629	1416847	800595	25667	2155	15742	457	480229	1312598	44021
361	2015-11-27 23:16:43	0	0	0	0	0	0	36.61	1.81	0.77	1417155	0	616527	909629	1417155	800628	25672	2156	15744	457	480527	1312621	44029
362	2015-11-27 23:26:42	0	0	0	0	0	0	36.61	1.81	0.77	1417155	0	616527	909629	1417155	800628	25672	2156	15744	457	480527	1312644	44029
363	2015-11-27 23:36:43	0	0	0	0	0	0	36.61	1.81	0.77	1417491	0	616829	909629	1417491	800662	25675	2157	15750	457	480527	1312675	44039
364	2015-11-27 23:46:42	0	0	0	0	0	0	36.61	1.81	0.77	1417491	0	616829	909629	1417491	800662	25675	2157	15750	457	480527	1312696	44039
365	2015-11-27 23:56:43	0	0	0	0	0	0	36.61	1.81	0.77	1417878	0	617175	911236	1417878	800703	25686	2157	15753	459	480527	1312718	44055
366	2015-11-28 00:06:42	0	0	0	0	0	0	36.6	1.81	0.77	1417878	0	617175	911236	1417878	800703	25686	2157	15753	459	480527	1312737	44055
367	2015-11-28 00:16:43	0	0	0	0	0	0	36.6	1.81	0.77	1418176	0	617441	911236	1418176	800735	25694	2158	15754	459	480527	1312760	44065
368	2015-11-28 00:26:42	0	0	0	0	0	0	36.6	1.81	0.77	1418176	0	617441	911236	1418176	800735	25694	2158	15754	459	480527	1312771	44065
369	2015-11-28 00:36:43	0	0	0	0	0	0	36.6	1.81	0.77	1418406	0	617646	911236	1418406	800760	25698	2158	15757	459	480527	1312777	44072
370	2015-11-28 00:46:42	0	0	0	0	0	0	36.6	1.81	0.77	1418406	0	617646	911236	1418406	800760	25698	2158	15757	459	480527	1312801	44072
371	2015-11-28 00:56:43	0	0	0	0	0	0	36.6	1.81	0.77	1418615	0	617836	911236	1418615	800779	25702	2158	15758	459	480527	1312814	44077
372	2015-11-28 01:06:42	0	0	0	0	0	0	36.6	1.81	0.77	1418615	0	617836	911236	1418615	800779	25702	2158	15758	459	480527	1312820	44077
373	2015-11-28 01:16:43	0	0	0	0	0	0	36.6	1.81	0.77	1418877	0	618070	911236	1418877	800807	25702	2158	15761	459	480527	1312836	44080
374	2015-11-28 01:26:42	0	0	0	0	0	0	36.6	1.81	0.77	1418877	0	618070	911236	1418877	800807	25702	2158	15761	459	480527	1312841	44080
375	2015-11-28 01:36:45	0	0	0	0	0	0	36.6	1.81	0.77	1419029	0	618215	911236	1419029	800814	25707	2158	15762	459	480527	1312850	44086
376	2015-11-28 01:46:42	0	0	0	0	0	0	36.6	1.81	0.77	1419029	0	618215	911236	1419029	800814	25707	2158	15762	459	480527	1312857	44086
377	2015-11-28 01:56:43	0	0	0	0	0	0	36.6	1.81	0.77	1419171	0	618345	911236	1419171	800826	25712	2158	15764	459	480527	1312866	44093
378	2015-11-28 02:06:42	0	0	0	0	0	0	36.6	1.81	0.77	1419171	0	618345	911236	1419171	800826	25712	2158	15764	459	480527	1312874	44093
379	2015-11-28 02:16:42	0	0	0	0	0	0	36.6	1.81	0.77	1419343	0	618494	912041	1419343	800849	25714	2158	15766	459	480527	1312885	44097
380	2015-11-28 02:26:43	0	0	0	0	0	0	36.6	1.81	0.77	1419371	0	618519	912041	1419371	800852	25714	2158	15767	459	480527	1312891	44098
381	2015-11-28 02:36:42	0	0	0	0	0	0	36.6	1.81	0.77	1419371	0	618519	912041	1419371	800852	25714	2158	15767	459	480527	1312899	44098
382	2015-11-28 02:46:43	0	0	0	0	0	0	36.6	1.81	0.77	1419460	0	618596	912041	1419460	800864	25718	2158	15767	459	480527	1312903	44102
383	2015-11-28 02:56:42	0	0	0	0	0	0	36.6	1.81	0.77	1419460	0	618596	912041	1419460	800864	25718	2158	15767	459	480527	1312908	44102
384	2015-11-28 03:06:43	0	0	0	0	0	0	36.59	1.81	0.77	1419524	0	618651	912041	1419524	800873	25721	2158	15769	459	480527	1313327	44107
385	2015-11-28 03:16:42	0	0	0	0	0	0	36.59	1.81	0.77	1419524	0	618651	912041	1419524	800873	25721	2158	15769	459	480527	1313335	44107
386	2015-11-28 03:26:44	0	0	0	0	0	0	36.59	1.81	0.77	1419563	0	618684	912041	1419563	800879	25721	2158	15769	459	480527	1313341	44107
387	2015-11-28 03:36:44	0	0	0	0	0	0	36.59	1.81	0.77	1419587	0	618701	912041	1419587	800886	25723	2158	15769	459	480527	1313352	44109
388	2015-11-28 03:46:43	0	0	0	0	0	0	36.59	1.81	0.77	1419587	0	618701	912041	1419587	800886	25723	2158	15769	459	480527	1313357	44109
389	2015-11-28 03:56:43	0	0	0	0	0	0	36.59	1.81	0.77	1419617	0	618727	912041	1419617	800890	25724	2158	15770	459	480527	1313362	44111
390	2015-11-28 04:06:43	0	0	0	0	0	0	36.59	1.81	0.77	1419617	0	618727	912041	1419617	800890	25724	2158	15770	459	480527	1313368	44111
391	2015-11-28 04:16:44	0	0	0	0	0	0	36.59	1.81	0.77	1419642	0	618747	912041	1419642	800895	25724	2158	15771	459	480527	1313367	44112
392	2015-11-28 04:26:43	0	0	0	0	0	0	36.59	1.81	0.77	1419642	0	618747	912041	1419642	800895	25724	2158	15771	459	480527	1313366	44112
393	2015-11-28 04:36:42	0	0	0	0	0	0	36.59	1.81	0.77	1419679	0	618780	912041	1419679	800899	25726	2159	15772	459	480527	1313370	44116
394	2015-11-28 04:46:42	0	0	0	0	0	0	36.59	1.81	0.77	1419679	0	618780	912041	1419679	800899	25726	2159	15772	459	480527	1313371	44116
395	2015-11-28 04:56:42	0	0	0	0	0	0	36.59	1.81	0.77	1419702	0	618800	912041	1419702	800902	25727	2159	15772	459	480527	1313372	44117
396	2015-11-28 05:06:43	0	0	0	0	0	0	36.59	1.81	0.77	1419712	0	618808	912041	1419712	800904	25727	2159	15772	459	480527	1313373	44117
397	2015-11-28 05:16:41	0	0	0	0	0	0	36.59	1.81	0.77	1419712	0	618808	912041	1419712	800904	25727	2159	15772	459	480527	1313373	44117
398	2015-11-28 05:26:43	0	0	0	0	0	0	36.59	1.81	0.77	1419725	0	618818	912041	1419725	800907	25728	2159	15772	459	480527	1313377	44118
399	2015-11-28 05:36:42	0	0	0	0	0	0	36.59	1.81	0.77	1419725	0	618818	912041	1419725	800907	25728	2159	15772	459	480527	1313377	44118
400	2015-11-28 05:46:42	0	0	0	0	0	0	36.59	1.81	0.77	1419750	0	618841	912041	1419750	800909	25728	2160	15773	459	480527	1313379	44120
401	2015-11-28 05:56:43	0	0	0	0	0	0	36.59	1.81	0.77	1419766	0	618857	912041	1419766	800909	25728	2160	15773	459	480527	1313379	44120
402	2015-11-28 06:06:42	0	0	0	0	0	0	36.59	1.81	0.77	1419766	0	618857	912041	1419766	800909	25728	2160	15773	459	480527	1313379	44120
403	2015-11-28 06:16:42	0	0	0	0	0	0	36.59	1.81	0.77	1419786	0	618877	912041	1419786	800909	25728	2160	15773	459	480527	1313379	44120
404	2015-11-28 06:26:42	0	0	0	0	0	0	36.59	1.81	0.77	1419796	0	618885	912041	1419796	800911	25728	2160	15773	459	480527	1313378	44120
405	2015-11-28 06:36:43	0	0	0	0	0	0	36.59	1.81	0.77	1419811	0	618897	912041	1419811	800914	25728	2160	15773	459	480527	1313380	44120
406	2015-11-28 06:46:42	0	0	0	0	0	0	36.59	1.81	0.77	1419811	0	618897	912041	1419811	800914	25728	2160	15773	459	480527	1313386	44120
407	2015-11-28 06:56:43	0	0	0	0	0	0	36.59	1.81	0.77	1419836	0	618921	912041	1419836	800915	25728	2160	15773	459	480527	1313387	44120
408	2015-11-28 07:06:42	0	0	0	0	0	0	36.59	1.81	0.77	1419836	0	618921	912041	1419836	800915	25728	2160	15773	459	480527	1313387	44120
409	2015-11-28 07:16:43	0	0	0	0	0	0	36.59	1.81	0.77	1419871	0	618953	912041	1419871	800918	25728	2160	15773	459	480527	1313388	44120
410	2015-11-28 07:26:42	0	0	0	0	0	0	36.59	1.81	0.77	1419871	0	618953	912041	1419871	800918	25728	2160	15773	459	480527	1313387	44120
411	2015-11-28 07:36:44	0	0	0	0	0	0	36.59	1.81	0.77	1419916	0	618994	912041	1419916	800922	25728	2160	15773	459	480527	1313390	44120
412	2015-11-28 07:46:42	0	0	0	0	0	0	36.59	1.81	0.77	1419916	0	618994	912041	1419916	800922	25728	2160	15773	459	480527	1313396	44120
413	2015-11-28 07:56:43	0	0	0	0	0	0	36.59	1.81	0.77	1419957	0	619034	912276	1419957	800923	25728	2160	15774	459	480527	1313402	44121
414	2015-11-28 08:06:42	0	0	0	0	0	0	36.59	1.81	0.77	1419957	0	619034	912276	1419957	800923	25728	2160	15774	459	480527	1313406	44121
415	2015-11-28 08:16:47	0	0	0	0	0	0	36.59	1.81	0.77	1420019	0	619091	912276	1420019	800928	25730	2160	15774	459	480527	1313408	44123
416	2015-11-28 08:26:43	0	0	0	0	0	0	36.59	1.81	0.77	1420019	0	619091	912276	1420019	800928	25730	2160	15774	459	480527	1313417	44123
417	2015-11-28 08:36:43	0	0	0	0	0	0	36.59	1.81	0.77	1420079	0	619148	912276	1420079	800931	25732	2160	15774	460	480527	1313424	44126
418	2015-11-28 08:46:43	0	0	0	0	0	0	36.59	1.81	0.77	1420079	0	619148	912276	1420079	800931	25732	2160	15774	460	480527	1313430	44126
419	2015-11-28 08:56:43	0	0	0	0	0	0	36.59	1.81	0.77	1420148	0	619213	912797	1420148	800935	25735	2160	15776	460	480527	1313437	44131
420	2015-11-28 09:06:43	0	0	0	0	0	0	36.59	1.81	0.77	1420148	0	619213	912797	1420148	800935	25735	2160	15776	460	480527	1313444	44131
421	2015-11-28 09:16:44	0	0	0	0	0	0	36.59	1.81	0.77	1420255	0	619316	912797	1420255	800939	25738	2160	15778	460	480527	1313450	44136
422	2015-11-28 09:26:43	0	0	0	0	0	0	36.58	1.81	0.77	1420255	0	619316	912797	1420255	800939	25738	2160	15778	460	480527	1313458	44136
423	2015-11-28 09:36:43	0	0	0	0	0	0	36.58	1.81	0.77	1420330	0	619387	912797	1420330	800943	25738	2160	15779	460	480527	1313470	44137
424	2015-11-28 09:46:44	0	0	0	0	0	0	36.58	1.81	0.77	1420378	0	619429	912797	1420378	800949	25739	2160	15779	460	480527	1313480	44138
425	2015-11-28 09:56:42	0	0	0	0	0	0	36.58	1.81	0.77	1420378	0	619429	912797	1420378	800949	25739	2160	15779	460	480527	1313500	44138
426	2015-11-28 10:06:44	0	0	0	0	0	0	36.58	1.81	0.77	1420454	0	619500	912797	1420454	800954	25742	2160	15781	460	480527	1313511	44143
427	2015-11-28 10:16:44	0	0	0	0	0	0	36.58	1.81	0.77	1420512	0	619553	912797	1420512	800959	25743	2160	15782	460	480527	1313521	44145
428	2015-11-28 10:26:43	0	0	0	0	0	0	36.58	1.81	0.77	1420512	0	619553	912797	1420512	800959	25743	2160	15782	460	480527	1313536	44145
429	2015-11-28 10:36:43	0	0	0	0	0	0	36.58	1.81	0.77	1420598	0	619616	912797	1420598	800963	25744	2160	15784	460	480527	1313551	44148
430	2015-11-28 10:46:44	0	0	0	0	0	0	36.58	1.81	0.77	1420626	0	619655	912797	1420626	800971	25744	2160	15785	460	480527	1313563	44149
431	2015-11-28 10:56:44	0	0	0	0	0	0	36.58	1.81	0.77	1420705	0	619730	912797	1420705	800975	25744	2160	15786	460	480527	1313574	44150
432	2015-11-28 11:06:43	0	0	0	0	0	0	36.58	1.81	0.77	1420705	0	619730	912797	1420705	800975	25744	2160	15786	460	480527	1313580	44150
