1	2015-09-07 09:30:27	0	0	0	0	0	0	0.63	1.05	0	8496	0	1	7582	8496	8495	89	0	6	0	7574	1209245	0
2	2015-09-07 09:36:27	0	0	0	0	0	0	0.63	1.05	0	8496	0	1	7582	8496	8495	89	1	6	0	7574	1209248	0
3	2015-09-07 09:42:27	0	0	0	0	0	0	2.54	1.72	0	37477	0	82	30718	37477	37395	644	1	29	2	30689	1209245	676
4	2015-09-07 09:48:34	0	0	0	0	0	0	2.54	1.72	0	37477	0	82	30718	37477	37395	644	2	29	2	30689	1209250	677
5	2015-09-07 09:54:27	0	0	0	0	0	0	3.78	1.81	0	59852	0	206	45887	59852	59646	1084	2	42	2	45671	1209249	1130
6	2015-09-07 10:00:27	0	0	0	0	0	0	3.78	1.81	0	59852	0	206	45887	59852	59646	1084	3	42	2	45671	1209256	1131
7	2015-09-07 10:06:28	0	0	0	0	0	0	4.98	1.83	0	80011	0	339	60610	80011	79672	1462	3	50	3	60264	1209249	1518
8	2015-09-07 10:12:28	0	0	0	0	0	0	4.98	1.83	0	80011	0	339	60610	80011	79672	1462	3	50	3	60264	1209251	1518
9	2015-09-07 10:18:28	0	0	0	0	0	0	5.42	1.81	0	87367	0	403	65971	87367	86964	1580	3	55	3	65541	1209248	1641
10	2015-09-07 10:24:28	0	0	0	0	0	0	5.42	1.81	0	87367	0	403	65971	87367	86964	1580	4	55	3	65541	1209249	1642
11	2015-09-07 10:30:28	0	0	0	0	0	0	6.13	1.84	0.01	100677	0	567	74665	100677	100110	1854	4	68	4	74102	1209252	1930
12	2015-09-07 10:36:28	0	0	0	0	0	0	6.13	1.84	0.01	100677	0	567	74665	100677	100110	1854	4	68	4	74102	1209256	1930
13	2015-09-07 10:42:28	0	0	0	0	0	0	6.58	1.85	0.01	110573	0	681	80311	110573	109892	2046	4	74	4	79627	1209251	2128
14	2015-09-07 10:48:28	0	0	0	0	0	0	6.58	1.85	0.01	110573	0	681	80311	110573	109892	2046	4	74	4	79627	1209260	2128
15	2015-09-07 10:54:28	0	0	0	0	0	0	7.09	1.84	0.01	120029	0	788	86481	120029	119241	2214	4	77	5	85688	1209256	2300
16	2015-09-07 11:00:34	0	0	0	0	0	0	7.09	1.84	0.01	120029	0	788	86481	120029	119241	2214	5	77	5	85688	1209262	2301
17	2015-09-07 11:06:28	0	0	0	0	0	0	7.48	1.85	0.01	129603	0	897	91520	129603	128706	2399	5	79	5	90506	1209249	2488
18	2015-09-07 11:12:31	0	0	0	0	0	0	7.48	1.85	0.01	129603	0	897	91520	129603	128706	2399	5	79	5	90506	1209258	2488
19	2015-09-07 11:18:30	0	0	0	0	0	0	7.96	1.85	0.01	139764	0	1020	97306	139764	138744	2590	5	81	6	96196	1209251	2682
20	2015-09-07 11:24:29	0	0	0	0	0	0	7.95	1.85	0.01	139764	0	1020	97306	139764	138744	2590	6	81	6	96196	1209260	2683
21	2015-09-07 11:30:29	0	0	0	0	0	0	8.18	1.85	0.01	144196	0	1072	99873	144196	143124	2666	6	84	6	98881	1209252	2762
22	2015-09-07 11:36:30	0	0	0	0	0	0	8.18	1.85	0.01	144196	0	1072	99873	144196	143124	2666	6	84	6	98881	1209258	2762
23	2015-09-07 11:42:28	0	0	0	0	0	0	8.57	1.85	0.01	151894	0	1168	104968	151894	150726	2803	6	88	6	103609	1209249	2903
24	2015-09-07 11:48:29	0	0	0	0	0	0	8.57	1.85	0.01	151894	0	1168	104968	151894	150726	2803	7	88	6	103609	1209254	2904
25	2015-09-07 11:54:28	0	0	0	0	0	0	8.93	1.84	0.01	159042	0	1264	109343	159042	157778	2929	7	93	6	107944	1209248	3035
26	2015-09-07 12:00:29	0	0	0	0	0	0	8.93	1.84	0.01	159042	0	1264	109343	159042	157778	2929	7	93	6	107944	1209251	3035
27	2015-09-07 12:06:29	0	0	0	0	0	0	9.17	1.84	0.01	165006	0	1341	112297	165006	163665	3039	7	96	6	110837	1209253	3148
28	2015-09-07 12:12:30	0	0	0	0	0	0	9.17	1.84	0.01	165006	0	1341	112297	165006	163665	3039	7	96	6	110837	1209260	3148
29	2015-09-07 12:18:29	0	0	0	0	0	0	9.41	1.84	0.01	170280	0	1419	115262	170280	168861	3134	7	99	7	113759	1209261	3247
30	2015-09-07 12:24:30	0	0	0	0	0	0	9.41	1.84	0.01	170280	0	1419	115262	170280	168861	3134	9	99	7	113759	1209269	3249
31	2015-09-07 12:30:31	0	0	0	0	0	0	9.69	1.83	0.01	175763	0	1551	118988	175763	174212	3224	9	104	7	117209	1209251	3344
32	2015-09-07 12:36:29	0	0	0	0	0	0	9.69	1.83	0.01	175763	0	1551	118988	175763	174212	3224	9	104	7	117209	1209258	3344
33	2015-09-07 12:42:29	0	0	0	0	0	0	9.97	1.84	0.01	180922	0	1715	122459	180922	179207	3323	9	105	7	120557	1209247	3444
34	2015-09-07 12:48:29	0	0	0	0	0	0	9.97	1.84	0.01	180922	0	1715	122459	180922	179207	3323	9	105	7	120557	1209255	3444
35	2015-09-07 12:54:30	0	0	0	0	0	0	10.25	1.83	0.01	186236	0	1853	126140	186236	184383	3416	9	105	7	123934	1209247	3537
36	2015-09-07 13:00:30	0	0	0	0	0	0	10.25	1.83	0.01	186236	0	1853	126140	186236	184383	3416	9	105	7	123934	1209251	3537
37	2015-09-07 13:06:31	0	0	0	0	0	0	10.58	1.83	0.01	190655	0	1949	129935	190655	188706	3492	9	107	7	127901	1209251	3615
38	2015-09-07 13:12:31	0	0	0	0	0	0	10.58	1.83	0.01	190655	0	1949	129935	190655	188706	3492	9	107	7	127901	1209258	3615
39	2015-09-07 13:18:30	0	0	0	0	0	0	10.78	1.83	0.01	194276	0	2036	132465	194276	192240	3551	9	108	7	130352	1209253	3675
40	2015-09-07 13:24:30	0	0	0	0	0	0	10.78	1.83	0.01	194276	0	2036	132465	194276	192240	3551	11	108	7	130352	1209269	3677
41	2015-09-07 13:30:31	0	0	0	0	0	0	10.93	1.82	0.01	198435	0	2174	134309	198435	196261	3621	11	113	7	132114	1209254	3752
42	2015-09-07 13:36:31	0	0	0	0	0	0	10.93	1.82	0.01	198435	0	2174	134309	198435	196261	3621	11	113	7	132114	1209258	3752
43	2015-09-07 13:42:31	0	0	0	0	0	0	11.16	1.83	0.01	203016	0	2285	137265	203016	200731	3711	11	115	7	134997	1209255	3844
44	2015-09-07 13:48:32	0	0	0	0	0	0	11.16	1.83	0.01	203016	0	2285	137265	203016	200731	3711	11	115	7	134997	1209264	3844
45	2015-09-07 13:54:30	0	0	0	0	0	0	11.24	1.84	0.01	206256	0	2353	138021	206256	203903	3789	11	117	7	135907	1209262	3924
46	2015-09-07 14:00:30	0	0	0	0	0	0	11.24	1.84	0.01	206256	0	2353	138021	206256	203903	3789	11	117	7	135907	1209269	3924
47	2015-09-07 14:06:31	0	0	0	0	0	0	11.36	1.83	0.01	209724	0	2416	139308	209724	207308	3848	11	117	7	137350	1209257	3983
48	2015-09-07 14:12:31	0	0	0	0	0	0	11.36	1.83	0.01	209724	0	2416	139308	209724	207308	3848	12	117	7	137350	1209274	3984
49	2015-09-07 14:18:32	0	0	0	0	0	0	11.5	1.83	0.01	213335	0	2510	141154	213335	210825	3912	12	120	8	139119	1209264	4052
50	2015-09-07 14:24:32	0	0	0	0	0	0	11.5	1.83	0.01	213335	0	2510	141154	213335	210825	3912	12	120	8	139119	1209270	4052
51	2015-09-07 14:30:31	0	0	0	0	0	0	11.72	1.83	0.01	216848	0	2585	144084	216848	214263	3967	12	122	9	141730	1209252	4110
52	2015-09-07 14:36:30	0	0	0	0	0	0	11.72	1.83	0.01	216848	0	2585	144084	216848	214263	3967	12	122	9	141730	1209259	4110
53	2015-09-07 14:42:30	0	0	0	0	0	0	11.92	1.84	0.01	220503	0	2674	146809	220503	217829	4048	12	126	9	144164	1209252	4195
54	2015-09-07 14:48:31	0	0	0	0	0	0	11.92	1.84	0.01	220503	0	2674	146809	220503	217829	4048	12	126	9	144164	1209261	4195
55	2015-09-07 14:54:30	0	0	0	0	0	0	12.15	1.84	0.01	223704	0	2758	149768	223704	220946	4118	12	127	9	146905	1209252	4266
56	2015-09-07 15:00:30	0	0	0	0	0	0	12.15	1.84	0.01	223704	0	2758	149768	223704	220946	4118	12	127	9	146905	1209265	4266
57	2015-09-07 15:06:31	0	0	0	0	0	0	12.26	1.84	0.01	227218	0	2838	151749	227218	224380	4184	12	132	9	148198	1209255	4337
58	2015-09-07 15:12:31	0	0	0	0	0	0	12.26	1.84	0.01	227218	0	2838	151749	227218	224380	4184	12	132	9	148198	1209259	4337
59	2015-09-07 15:18:32	0	0	0	0	0	0	12.47	1.85	0.01	230527	0	2908	154350	230527	227619	4258	12	135	9	150792	1209251	4414
60	2015-09-07 15:24:35	0	0	0	0	0	0	12.47	1.85	0.01	230527	0	2908	154350	230527	227619	4258	12	135	9	150792	1209254	4414
61	2015-09-07 15:30:31	0	0	0	0	0	0	12.59	1.85	0.01	233706	0	2997	155846	233706	230709	4323	12	138	9	152189	1209255	4482
62	2015-09-07 15:36:37	0	0	0	0	0	0	12.59	1.85	0.01	233706	0	2997	155846	233706	230709	4323	12	138	9	152189	1209264	4482
63	2015-09-07 15:42:31	0	0	0	0	0	0	12.76	1.85	0.01	236379	0	3081	158219	236379	233298	4380	12	139	9	154328	1209260	4540
64	2015-09-07 15:48:31	0	0	0	0	0	0	12.76	1.85	0.01	236379	0	3081	158219	236379	233298	4380	12	139	9	154328	1209266	4540
65	2015-09-07 15:54:31	0	0	0	0	0	0	12.86	1.85	0.01	239022	0	3163	159292	239022	235859	4423	12	141	9	155460	1209261	4585
66	2015-09-07 16:00:32	0	0	0	0	0	0	12.86	1.85	0.01	239022	0	3163	159292	239022	235859	4423	13	141	9	155460	1209272	4586
67	2015-09-07 16:06:32	0	0	0	0	0	0	13.05	1.85	0.01	241868	0	3260	161996	241868	238608	4481	13	144	9	157845	1209259	4647
68	2015-09-07 16:12:34	0	0	0	0	0	0	13.05	1.85	0.01	241868	0	3260	161996	241868	238608	4481	13	144	9	157845	1209261	4647
69	2015-09-07 16:18:32	0	0	0	0	0	0	13.2	1.85	0.01	244521	0	3350	164035	244521	241171	4524	13	146	9	159648	1209257	4692
70	2015-09-07 16:24:32	0	0	0	0	0	0	13.2	1.85	0.01	244521	0	3350	164035	244521	241171	4524	13	146	9	159648	1209258	4692
71	2015-09-07 16:30:32	0	0	0	0	0	0	13.26	1.85	0.01	247252	0	3443	165091	247252	243809	4575	13	151	9	160348	1209260	4748
72	2015-09-07 16:36:32	0	0	0	0	0	0	13.26	1.85	0.01	247252	0	3443	165091	247252	243809	4575	13	151	9	160348	1209267	4748
73	2015-09-07 16:42:33	0	0	0	0	0	0	13.36	1.85	0.01	249851	0	3537	166292	249851	246314	4626	13	151	9	161549	1209255	4799
74	2015-09-07 16:49:12	0	0	0	0	0	0	13.36	1.85	0.01	249851	0	3537	166292	249851	246314	4626	13	151	9	161549	1209263	4799
75	2015-09-07 16:54:34	0	0	0	0	0	0	13.44	1.85	0.01	252237	0	3615	167316	252237	248622	4666	13	153	9	162584	1209253	4841
76	2015-09-07 17:00:32	0	0	0	0	0	0	13.44	1.85	0.01	252237	0	3615	167316	252237	248622	4666	14	153	9	162584	1209262	4842
77	2015-09-07 17:06:33	0	0	0	0	0	0	13.58	1.85	0.01	254688	0	3686	169107	254688	251002	4706	14	154	9	164274	1209261	4883
78	2015-09-07 17:12:33	0	0	0	0	0	0	13.58	1.85	0.01	254688	0	3686	169107	254688	251002	4706	14	154	9	164274	1209271	4883
79	2015-09-07 17:18:33	0	0	0	0	0	0	13.62	1.85	0.01	256726	0	3744	169582	256726	252982	4749	14	154	9	164709	1209261	4926
80	2015-09-07 17:24:33	0	0	0	0	0	0	13.62	1.85	0.01	256726	0	3744	169582	256726	252982	4749	14	154	9	164709	1209269	4926
81	2015-09-07 17:30:34	0	0	0	0	0	0	13.82	1.85	0.01	259231	0	3811	171929	259231	255420	4796	14	155	9	167066	1209247	4974
82	2015-09-07 17:36:33	0	0	0	0	0	0	13.82	1.85	0.01	259231	0	3811	171929	259231	255420	4796	14	155	9	167066	1209251	4974
83	2015-09-07 17:42:34	0	0	0	0	0	0	13.91	1.85	0.01	261557	0	3858	173160	261557	257699	4833	14	155	9	168228	1209248	5011
84	2015-09-07 17:48:34	0	0	0	0	0	0	13.91	1.85	0.01	261557	0	3858	173160	261557	257699	4833	14	155	9	168228	1209250	5011
85	2015-09-07 17:54:34	0	0	0	0	0	0	14.03	1.85	0.02	263531	0	3898	174725	263531	259633	4883	14	157	9	169641	1209255	5063
86	2015-09-07 18:00:34	0	0	0	0	0	0	14.03	1.85	0.02	263531	0	3898	174725	263531	259633	4883	14	157	9	169641	1209250	5063
87	2015-09-07 18:06:34	0	0	0	0	0	0	14.23	1.85	0.02	265997	0	3957	177180	265997	262040	4922	14	159	9	172107	1209261	5104
88	2015-09-07 18:12:34	0	0	0	0	0	0	14.23	1.85	0.02	265997	0	3957	177180	265997	262040	4922	14	159	9	172107	1209244	5104
89	2015-09-07 18:18:34	0	0	0	0	0	0	14.31	1.84	0.02	267792	0	4006	178159	267792	263786	4940	14	162	9	173049	1209247	5125
90	2015-09-07 18:24:35	0	0	0	0	0	0	14.31	1.84	0.02	267792	0	4006	178159	267792	263786	4940	14	162	9	173049	1209240	5125
91	2015-09-07 18:30:34	0	0	0	0	0	0	14.37	1.84	0.02	269459	0	4072	178869	269459	265387	4964	14	163	9	173719	1209251	5150
92	2015-09-07 18:36:34	0	0	0	0	0	0	14.37	1.84	0.02	269459	0	4072	178869	269459	265387	4964	14	163	9	173719	1209245	5150
93	2015-09-07 18:42:34	0	0	0	0	0	0	14.38	1.84	0.02	270965	0	4106	178993	270965	266859	4995	14	164	10	173836	1209252	5183
94	2015-09-07 18:48:34	0	0	0	0	0	0	14.38	1.84	0.02	270965	0	4106	178993	270965	266859	4995	14	164	10	173836	1209255	5183
95	2015-09-07 18:54:34	0	0	0	0	0	0	14.61	1.84	0.02	272769	0	4139	181779	272769	268630	5027	14	165	10	176704	1209265	5216
96	2015-09-07 19:00:35	0	0	0	0	0	0	14.61	1.84	0.02	272769	0	4139	181779	272769	268630	5027	14	165	10	176704	1209251	5216
97	2015-09-07 19:06:35	0	0	0	0	0	0	14.7	1.84	0.02	274810	0	4183	182955	274810	270627	5056	14	167	10	177815	1209268	5247
98	2015-09-07 19:12:35	0	0	0	0	0	0	14.7	1.84	0.02	274810	0	4183	182955	274810	270627	5056	14	167	10	177815	1209252	5247
99	2015-09-07 19:18:36	0	0	0	0	0	0	14.71	1.84	0.02	276767	0	4228	183041	276767	272539	5086	14	171	10	177897	1209254	5281
100	2015-09-07 19:24:35	0	0	0	0	0	0	14.71	1.84	0.02	276767	0	4228	183041	276767	272539	5086	14	171	10	177897	1209244	5281
101	2015-09-07 19:30:35	0	0	0	0	0	0	14.89	1.84	0.02	278734	0	4272	185287	278734	274462	5120	14	173	10	180017	1209254	5317
102	2015-09-07 19:36:35	0	0	0	0	0	0	14.89	1.84	0.02	278734	0	4272	185287	278734	274462	5120	14	173	10	180017	1209254	5317
103	2015-09-07 19:42:35	0	0	0	0	0	0	14.96	1.83	0.02	280782	0	4324	186212	280782	276458	5148	14	174	10	180890	1209258	5346
104	2015-09-07 19:48:36	0	0	0	0	0	0	14.96	1.83	0.02	280782	0	4324	186212	280782	276458	5148	15	174	10	180890	1209252	5347
105	2015-09-07 19:54:37	0	0	0	0	0	0	15.04	1.83	0.02	282884	0	4369	187236	282884	278515	5172	15	175	10	181857	1209261	5372
106	2015-09-07 20:00:35	0	0	0	0	0	0	15.04	1.83	0.02	282884	0	4369	187236	282884	278515	5172	15	175	10	181857	1209248	5372
107	2015-09-07 20:06:39	0	0	0	0	0	0	15.15	1.83	0.02	284725	0	4413	188893	284725	280312	5203	15	178	10	183246	1209261	5406
108	2015-09-07 20:12:49	0	0	0	0	0	0	15.15	1.83	0.02	284725	0	4413	188893	284725	280312	5203	15	178	10	183246	1209256	5406
109	2015-09-07 20:18:37	0	0	0	0	0	0	15.3	1.82	0.02	286429	0	4447	190608	286429	281982	5226	15	178	10	185036	1209260	5429
110	2015-09-07 20:24:36	0	0	0	0	0	0	15.3	1.82	0.02	286429	0	4447	190608	286429	281982	5226	15	178	10	185036	1209253	5429
111	2015-09-07 20:30:36	0	0	0	0	0	0	15.36	1.82	0.02	288116	0	4488	191527	288116	283628	5245	15	178	10	185746	1209260	5448
112	2015-09-07 20:36:40	0	0	0	0	0	0	15.36	1.82	0.02	288116	0	4488	191527	288116	283628	5245	15	178	10	185746	1209258	5448
113	2015-09-07 20:42:36	0	0	0	0	0	0	15.55	1.82	0.02	290255	0	4543	193406	290255	285712	5273	15	178	10	188059	1209270	5476
114	2015-09-07 20:48:36	0	0	0	0	0	0	15.55	1.82	0.02	290255	0	4543	193406	290255	285712	5273	15	178	10	188059	1209255	5476
115	2015-09-07 20:54:36	0	0	0	0	0	0	15.69	1.81	0.02	292249	0	4595	194989	292249	287654	5298	15	178	10	189742	1209261	5501
116	2015-09-07 21:00:36	0	0	0	0	0	0	15.69	1.81	0.02	292249	0	4595	194989	292249	287654	5298	15	178	10	189742	1209254	5501
117	2015-09-07 21:06:36	0	0	0	0	0	0	15.75	1.81	0.02	294185	0	4642	195728	294185	289543	5324	15	180	10	190441	1209262	5529
118	2015-09-07 21:12:36	0	0	0	0	0	0	15.75	1.81	0.02	294185	0	4642	195728	294185	289543	5324	15	180	10	190441	1209261	5529
119	2015-09-07 21:18:37	0	0	0	0	0	0	15.88	1.81	0.02	296056	0	4693	197394	296056	291363	5354	15	180	10	192018	1209271	5559
120	2015-09-07 21:24:37	0	0	0	0	0	0	15.88	1.81	0.02	296056	0	4693	197394	296056	291363	5354	15	180	10	192018	1209254	5559
121	2015-09-07 21:30:36	0	0	0	0	0	0	15.97	1.81	0.02	298112	0	4732	198565	298112	293380	5384	15	180	10	193126	1209262	5589
122	2015-09-07 21:36:37	0	0	0	0	0	0	15.97	1.81	0.02	298112	0	4732	198565	298112	293380	5384	15	180	10	193126	1209248	5589
123	2015-09-07 21:42:37	0	0	0	0	0	0	16.05	1.8	0.02	300417	0	4778	199640	300417	295639	5421	15	181	10	194143	1209261	5627
124	2015-09-07 21:48:36	0	0	0	0	0	0	16.05	1.8	0.02	300417	0	4778	199640	300417	295639	5421	15	181	10	194143	1209243	5627
125	2015-09-07 21:54:37	0	0	0	0	0	0	16.26	1.8	0.02	302633	0	4822	202433	302633	297811	5448	15	182	11	196684	1209257	5656
126	2015-09-07 22:00:37	0	0	0	0	0	0	16.27	1.8	0.02	302633	0	4822	202433	302633	297811	5448	15	182	11	196684	1209231	5656
127	2015-09-07 22:06:50	0	0	0	0	0	0	16.29	1.8	0.02	304423	0	4860	202752	304423	299563	5476	15	185	11	196984	1209239	5687
128	2015-09-07 22:12:37	0	0	0	0	0	0	16.29	1.8	0.02	304423	0	4860	202752	304423	299563	5476	15	185	11	196984	1209237	5687
129	2015-09-07 22:18:49	0	0	0	0	0	0	16.37	1.79	0.02	306393	0	4910	203813	306393	301483	5497	15	186	11	197985	1209257	5709
130	2015-09-07 22:24:37	0	0	0	0	0	0	16.37	1.79	0.02	306393	0	4910	203813	306393	301483	5497	16	186	11	197985	1209226	5710
131	2015-09-07 22:30:36	0	0	0	0	0	0	16.47	1.79	0.02	308130	0	4955	205024	308130	303175	5519	16	188	11	199128	1209241	5734
132	2015-09-07 22:36:37	0	0	0	0	0	0	16.47	1.79	0.02	308130	0	4955	205024	308130	303175	5519	16	188	11	199128	1209217	5734
133	2015-09-07 22:42:37	0	0	0	0	0	0	16.48	1.79	0.02	310011	0	4993	205241	310011	305018	5561	16	188	11	199333	1209222	5776
134	2015-09-07 22:48:37	0	0	0	0	0	0	16.48	1.79	0.02	310011	0	4993	205241	310011	305018	5561	16	188	11	199333	1209214	5776
135	2015-09-07 22:54:37	0	0	0	0	0	0	16.57	1.79	0.02	311742	0	5029	206366	311742	306713	5585	16	188	11	200394	1209224	5800
136	2015-09-07 23:00:37	0	0	0	0	0	0	16.57	1.79	0.02	311742	0	5029	206366	311742	306713	5585	16	188	11	200394	1209216	5800
137	2015-09-07 23:06:37	0	0	0	0	0	0	16.6	1.79	0.02	312623	0	5054	206890	312623	307569	5598	16	189	11	200732	1209225	5814
138	2015-09-07 23:12:36	0	0	0	0	0	0	16.6	1.79	0.02	312623	0	5054	206890	312623	307569	5598	16	189	11	200732	1209227	5814
139	2015-09-07 23:18:37	0	0	0	0	0	0	16.69	1.79	0.02	315150	0	5103	208065	315150	310047	5643	16	189	11	201838	1209236	5859
140	2015-09-07 23:24:37	0	0	0	0	0	0	16.69	1.79	0.02	315150	0	5103	208065	315150	310047	5643	16	189	11	201838	1209230	5859
141	2015-09-07 23:30:36	0	0	0	0	0	0	16.8	1.79	0.02	316695	0	5136	209494	316695	311559	5660	16	191	12	203182	1209241	5879
142	2015-09-07 23:36:38	0	0	0	0	0	0	16.8	1.79	0.02	316695	0	5136	209494	316695	311559	5660	16	191	12	203182	1209228	5879
143	2015-09-07 23:42:37	0	0	0	0	0	0	16.92	1.79	0.02	318114	0	5178	211155	318114	312936	5680	16	192	12	204581	1209238	5900
144	2015-09-07 23:48:37	0	0	0	0	0	0	16.92	1.79	0.02	318114	0	5178	211155	318114	312936	5680	16	192	12	204581	1209223	5900
145	2015-09-07 23:54:37	0	0	0	0	0	0	16.99	1.79	0.02	319424	0	5214	212022	319424	314210	5705	16	194	12	205396	1209234	5927
146	2015-09-08 00:00:37	0	0	0	0	0	0	16.99	1.79	0.02	319424	0	5214	212022	319424	314210	5705	16	194	12	205396	1209227	5927
147	2015-09-08 00:06:44	0	0	0	0	0	0	16.99	1.78	0.02	320083	0	5231	212022	320083	314852	5711	16	194	12	205396	1209232	5933
148	2015-09-08 00:12:37	0	0	0	0	0	0	16.99	1.78	0.02	320083	0	5231	212022	320083	314852	5711	16	194	12	205396	1209225	5933
149	2015-09-08 00:18:38	0	0	0	0	0	0	17.11	1.79	0.02	321295	0	5247	213661	321295	316048	5737	16	194	12	206933	1209235	5959
150	2015-09-08 00:24:38	0	0	0	0	0	0	17.11	1.79	0.02	321295	0	5247	213661	321295	316048	5737	16	194	12	206933	1209216	5959
151	2015-09-08 00:30:38	0	0	0	0	0	0	17.17	1.79	0.02	322281	0	5265	214416	322281	317016	5756	16	194	12	207641	1209220	5978
152	2015-09-08 00:36:42	0	0	0	0	0	0	17.17	1.79	0.02	322281	0	5265	214416	322281	317016	5756	16	194	12	207641	1209207	5978
153	2015-09-08 00:42:38	0	0	0	0	0	0	17.21	1.78	0.02	323484	0	5277	214922	323484	317731	5774	16	194	12	208059	1209208	5996
154	2015-09-08 00:48:37	0	0	0	0	0	0	17.21	1.78	0.02	323484	0	5277	214922	323484	317731	5774	16	194	12	208059	1209210	5996
155	2015-09-08 00:54:37	0	0	0	0	0	0	17.23	1.79	0.02	323930	0	5294	215037	323930	318636	5801	16	195	12	208336	1209221	6024
156	2015-09-08 01:00:39	0	0	0	0	0	0	17.23	1.79	0.02	323930	0	5294	215037	323930	318636	5801	16	195	12	208336	1209197	6024
157	2015-09-08 01:06:38	0	0	0	0	0	0	17.29	1.79	0.02	324668	0	5300	216012	324668	319368	5810	16	196	12	209025	1209198	6034
158	2015-09-08 01:12:37	0	0	0	0	0	0	17.29	1.79	0.02	324668	0	5300	216012	324668	319368	5810	16	196	12	209025	1209193	6034
159	2015-09-08 01:18:38	0	0	0	0	0	0	17.29	1.79	0.02	325428	0	5315	216103	325428	320113	5824	16	197	12	209110	1209194	6049
160	2015-09-08 01:24:38	0	0	0	0	0	0	17.29	1.79	0.02	325428	0	5315	216103	325428	320113	5824	16	197	12	209110	1209195	6049
161	2015-09-08 01:30:38	0	0	0	0	0	0	17.31	1.79	0.02	325674	0	5319	216284	325674	320355	5829	16	197	12	209279	1209198	6054
162	2015-09-08 01:36:37	0	0	0	0	0	0	17.31	1.79	0.02	325674	0	5319	216284	325674	320355	5829	16	197	12	209279	1209203	6054
163	2015-09-08 01:42:38	0	0	0	0	0	0	17.32	1.79	0.02	326139	0	5323	216464	326139	320816	5838	16	198	12	209447	1209205	6064
164	2015-09-08 01:48:42	0	0	0	0	0	0	17.32	1.79	0.02	326139	0	5323	216464	326139	320816	5838	16	198	12	209447	1209195	6064
165	2015-09-08 01:54:37	0	0	0	0	0	0	17.36	1.79	0.02	326556	0	5334	216789	326556	321222	5849	16	198	12	209866	1209197	6075
166	2015-09-08 02:00:44	0	0	0	0	0	0	17.34	1.79	0.02	326556	0	5334	216789	326556	321222	5849	16	198	12	209866	1210533	6075
167	2015-09-08 02:06:37	0	0	0	0	0	0	17.36	1.79	0.02	326865	0	5344	217032	326865	321521	5856	16	199	12	210094	1210534	6083
168	2015-09-08 02:12:38	0	0	0	0	0	0	17.36	1.79	0.02	326865	0	5344	217032	326865	321521	5856	16	199	12	210094	1210538	6083
169	2015-09-08 02:18:38	0	0	0	0	0	0	17.36	1.79	0.02	327129	0	5350	217154	327129	321779	5863	16	199	12	210208	1210531	6090
170	2015-09-08 02:24:37	0	0	0	0	0	0	17.36	1.79	0.02	327129	0	5350	217154	327129	321779	5863	16	199	12	210208	1210533	6090
171	2015-09-08 02:30:38	0	0	0	0	0	0	17.38	1.79	0.02	327378	0	5355	217154	327378	322023	5867	16	199	12	210437	1210535	6094
172	2015-09-08 02:36:44	0	0	0	0	0	0	17.38	1.79	0.02	327378	0	5355	217154	327378	322023	5867	16	199	12	210437	1210536	6094
173	2015-09-08 02:42:50	0	0	0	0	0	0	17.39	1.79	0.02	327587	0	5359	217276	327587	322228	5870	16	199	12	210551	1210534	6097
174	2015-09-08 02:48:37	0	0	0	0	0	0	17.39	1.79	0.02	327587	0	5359	217276	327587	322228	5870	16	199	12	210551	1210533	6097
175	2015-09-08 02:54:38	0	0	0	0	0	0	17.39	1.79	0.02	327748	0	5360	217290	327748	322388	5874	16	199	12	210565	1210531	6101
176	2015-09-08 03:00:38	0	0	0	0	0	0	17.39	1.79	0.02	327748	0	5360	217290	327748	322388	5874	16	199	12	210565	1210532	6101
177	2015-09-08 03:06:39	0	0	0	0	0	0	17.39	1.79	0.02	327890	0	5360	217290	327890	322530	5877	16	199	12	210565	1210532	6104
178	2015-09-08 03:12:40	0	0	0	0	0	0	17.39	1.79	0.02	327890	0	5360	217290	327890	322530	5877	16	199	12	210565	1210537	6104
179	2015-09-08 03:18:38	0	0	0	0	0	0	17.4	1.79	0.02	328045	0	5362	217290	328045	322683	5879	16	199	12	210651	1210531	6106
180	2015-09-08 03:24:37	0	0	0	0	0	0	17.4	1.79	0.02	328045	0	5362	217290	328045	322683	5879	16	199	12	210651	1210532	6106
181	2015-09-08 03:30:38	0	0	0	0	0	0	17.42	1.79	0.02	328170	0	5365	217535	328170	322805	5880	16	199	12	210880	1210532	6107
182	2015-09-08 03:36:38	0	0	0	0	0	0	17.42	1.79	0.02	328170	0	5365	217535	328170	322805	5880	16	199	12	210880	1210534	6107
183	2015-09-08 03:42:38	0	0	0	0	0	0	17.42	1.79	0.02	328290	0	5367	217535	328290	322923	5883	16	199	12	210880	1210532	6110
184	2015-09-08 03:48:41	0	0	0	0	0	0	17.42	1.79	0.02	328290	0	5367	217535	328290	322923	5883	16	199	12	210880	1210533	6110
185	2015-09-08 03:54:37	0	0	0	0	0	0	17.42	1.79	0.02	328431	0	5370	217535	328431	323061	5883	16	199	12	210880	1210533	6110
186	2015-09-08 04:00:39	0	0	0	0	0	0	17.42	1.79	0.02	328431	0	5370	217535	328431	323061	5883	17	199	12	210880	1210534	6111
187	2015-09-08 04:06:39	0	0	0	0	0	0	17.44	1.79	0.02	328547	0	5372	217841	328547	323175	5887	17	199	12	211168	1210532	6115
188	2015-09-08 04:12:37	0	0	0	0	0	0	17.44	1.79	0.02	328547	0	5372	217841	328547	323175	5887	17	199	12	211168	1210533	6115
189	2015-09-08 04:18:38	0	0	0	0	0	0	17.44	1.79	0.02	328625	0	5373	217841	328625	323252	5889	17	200	12	211168	1210532	6118
190	2015-09-08 04:25:15	0	0	0	0	0	0	17.44	1.79	0.02	328625	0	5373	217841	328625	323252	5889	17	200	12	211168	1210532	6118
191	2015-09-08 04:30:37	0	0	0	0	0	0	17.44	1.79	0.02	328723	0	5376	217841	328723	323347	5891	17	200	12	211168	1210532	6120
192	2015-09-08 04:36:36	0	0	0	0	0	0	17.44	1.79	0.02	328723	0	5376	217841	328723	323347	5891	17	200	12	211168	1210530	6120
193	2015-09-08 04:42:40	0	0	0	0	0	0	17.44	1.79	0.02	328815	0	5379	217841	328815	323436	5893	17	201	12	211168	1210524	6123
194	2015-09-08 04:48:37	0	0	0	0	0	0	17.44	1.79	0.02	328815	0	5379	217841	328815	323436	5893	17	201	12	211168	1210525	6123
195	2015-09-08 04:54:36	0	0	0	0	0	0	17.44	1.79	0.02	328918	0	5381	217841	328918	323537	5897	17	202	12	211168	1210523	6128
196	2015-09-08 05:00:36	0	0	0	0	0	0	17.44	1.79	0.02	328918	0	5381	217841	328918	323537	5897	17	202	12	211168	1210527	6128
197	2015-09-08 05:06:38	0	0	0	0	0	0	17.44	1.79	0.02	329007	0	5385	217841	329007	323622	5900	17	202	12	211168	1210528	6131
198	2015-09-08 05:12:37	0	0	0	0	0	0	17.44	1.79	0.02	329007	0	5385	217841	329007	323622	5900	17	202	12	211168	1210531	6131
199	2015-09-08 05:18:37	0	0	0	0	0	0	17.44	1.79	0.02	329128	0	5390	217841	329128	323738	5901	17	202	12	211168	1210528	6132
200	2015-09-08 05:24:37	0	0	0	0	0	0	17.44	1.79	0.02	329128	0	5390	217841	329128	323738	5901	17	202	12	211168	1210529	6132
201	2015-09-08 05:30:37	0	0	0	0	0	0	17.45	1.79	0.02	329240	0	5394	217902	329240	323846	5903	17	202	12	211225	1210530	6134
202	2015-09-08 05:36:36	0	0	0	0	0	0	17.45	1.79	0.02	329240	0	5394	217902	329240	323846	5903	17	202	12	211225	1210531	6134
203	2015-09-08 05:42:37	0	0	0	0	0	0	17.45	1.79	0.02	329426	0	5400	217902	329426	324026	5904	17	202	12	211225	1210530	6135
204	2015-09-08 05:48:36	0	0	0	0	0	0	17.45	1.79	0.02	329426	0	5400	217902	329426	324026	5904	17	202	12	211225	1210531	6135
205	2015-09-08 05:54:37	0	0	0	0	0	0	17.45	1.79	0.02	329593	0	5405	217902	329593	324188	5906	17	202	12	211225	1210529	6137
206	2015-09-08 06:00:37	0	0	0	0	0	0	17.45	1.79	0.02	329593	0	5405	217902	329593	324188	5906	17	202	12	211225	1210530	6137
207	2015-09-08 06:06:41	0	0	0	0	0	0	17.45	1.79	0.02	329829	0	5411	217902	329829	324418	5910	17	202	12	211225	1210527	6141
208	2015-09-08 06:12:41	0	0	0	0	0	0	17.45	1.79	0.02	329829	0	5411	217902	329829	324418	5910	17	202	12	211225	1210533	6141
209	2015-09-08 06:18:38	0	0	0	0	0	0	17.45	1.79	0.02	330111	0	5419	217902	330111	324692	5919	17	202	12	211225	1210527	6150
210	2015-09-08 06:24:37	0	0	0	0	0	0	17.45	1.79	0.02	330111	0	5419	217902	330111	324692	5919	18	202	12	211225	1210530	6151
211	2015-09-08 06:30:37	0	0	0	0	0	0	17.47	1.79	0.02	330354	0	5428	217979	330354	324926	5923	18	203	13	211529	1210529	6157
212	2015-09-08 06:36:37	0	0	0	0	0	0	17.47	1.79	0.02	330354	0	5428	217979	330354	324926	5923	18	203	13	211529	1210534	6157
213	2015-09-08 06:42:38	0	0	0	0	0	0	17.47	1.79	0.02	330611	0	5436	217979	330611	325175	5927	18	203	13	211529	1210529	6161
214	2015-09-08 06:48:37	0	0	0	0	0	0	17.47	1.79	0.02	330611	0	5436	217979	330611	325175	5927	18	203	13	211529	1210533	6161
215	2015-09-08 06:54:37	0	0	0	0	0	0	17.48	1.79	0.02	330957	0	5452	218010	330957	325505	5932	18	204	13	211557	1210529	6167
216	2015-09-08 07:00:37	0	0	0	0	0	0	17.48	1.79	0.02	330957	0	5452	218010	330957	325505	5932	18	204	13	211557	1210533	6167
217	2015-09-08 07:06:36	0	0	0	0	0	0	17.49	1.79	0.02	331332	0	5471	218194	331332	325861	5935	18	204	13	211731	1210528	6170
218	2015-09-08 07:12:37	0	0	0	0	0	0	17.49	1.79	0.02	331332	0	5471	218194	331332	325861	5935	18	204	13	211731	1210532	6170
219	2015-09-08 07:18:37	0	0	0	0	0	0	17.5	1.79	0.02	331653	0	5483	218317	331653	326170	5942	18	205	13	211847	1210529	6178
220	2015-09-08 07:24:37	0	0	0	0	0	0	17.5	1.79	0.02	331653	0	5483	218317	331653	326170	5942	18	205	13	211847	1210529	6178
221	2015-09-08 07:30:37	0	0	0	0	0	0	17.52	1.79	0.02	332109	0	5501	218571	332109	326608	5947	18	205	13	212086	1210527	6183
222	2015-09-08 07:36:37	0	0	0	0	0	0	17.52	1.79	0.02	332109	0	5501	218571	332109	326608	5947	18	205	13	212086	1210533	6183
223	2015-09-08 07:42:37	0	0	0	0	0	0	17.53	1.79	0.02	332576	0	5517	218695	332576	327059	5960	18	206	13	212203	1210529	6197
224	2015-09-08 07:48:36	0	0	0	0	0	0	17.53	1.79	0.02	332576	0	5517	218695	332576	327059	5960	18	206	13	212203	1210537	6197
225	2015-09-08 07:54:37	0	0	0	0	0	0	17.54	1.79	0.02	333010	0	5538	218787	333010	327472	5970	18	206	13	212290	1210530	6207
226	2015-09-08 08:00:37	0	0	0	0	0	0	17.54	1.79	0.02	333010	0	5538	218787	333010	327472	5970	18	206	13	212290	1210535	6207
227	2015-09-08 08:06:40	0	0	0	0	0	0	17.57	1.79	0.02	333457	0	5559	219151	333457	327898	5979	18	206	13	212632	1210534	6216
228	2015-09-08 08:12:37	0	0	0	0	0	0	17.56	1.79	0.02	333457	0	5559	219151	333457	327898	5979	18	206	13	212632	1210548	6216
229	2015-09-08 08:18:38	0	0	0	0	0	0	17.62	1.79	0.02	334006	0	5577	219349	334006	328429	5991	18	207	13	213288	1210532	6229
230	2015-09-08 08:24:37	0	0	0	0	0	0	17.62	1.79	0.02	334006	0	5577	219349	334006	328429	5991	18	207	13	213288	1210541	6229
231	2015-09-08 08:30:43	0	0	0	0	0	0	17.63	1.79	0.02	334487	0	5596	219513	334487	328891	5999	18	207	13	213435	1210532	6237
232	2015-09-08 08:36:48	0	0	0	0	0	0	17.63	1.79	0.02	334487	0	5596	219513	334487	328891	5999	18	207	13	213435	1210536	6237
233	2015-09-08 08:42:38	0	0	0	0	0	0	17.64	1.79	0.02	334924	0	5617	219567	334924	329307	6006	18	207	13	213486	1210534	6244
234	2015-09-08 08:48:38	0	0	0	0	0	0	17.64	1.79	0.02	334924	0	5617	219567	334924	329307	6006	18	207	13	213486	1210544	6244
235	2015-09-08 08:54:38	0	0	0	0	0	0	17.65	1.79	0.02	335368	0	5648	219801	335368	329720	6012	18	207	13	213707	1210534	6250
236	2015-09-08 09:00:38	0	0	0	0	0	0	17.65	1.79	0.02	335368	0	5648	219801	335368	329720	6012	19	207	13	213707	1210539	6251
237	2015-09-08 09:06:38	0	0	0	0	0	0	17.66	1.8	0.02	335870	0	5670	220051	335870	330200	6032	19	208	13	213767	1210531	6272
238	2015-09-08 09:12:38	0	0	0	0	0	0	17.66	1.8	0.02	335870	0	5670	220051	335870	330200	6032	19	208	13	213767	1210533	6272
239	2015-09-08 09:18:39	0	0	0	0	0	0	17.67	1.8	0.02	336320	0	5688	220239	336320	330632	6041	19	208	13	213944	1210536	6281
240	2015-09-08 09:24:38	0	0	0	0	0	0	17.67	1.8	0.02	336320	0	5688	220239	336320	330632	6041	19	208	13	213944	1210547	6281
241	2015-09-08 09:30:39	0	0	0	0	0	0	17.68	1.8	0.02	336825	0	5718	220286	336825	331107	6052	19	208	13	213988	1210533	6292
242	2015-09-08 09:36:38	0	0	0	0	0	0	17.68	1.8	0.02	336825	0	5718	220286	336825	331107	6052	19	208	13	213988	1210541	6292
243	2015-09-08 09:42:38	0	0	0	0	0	0	17.77	1.8	0.02	337359	0	5736	221513	337359	331623	6063	19	208	13	215146	1210532	6303
244	2015-09-08 09:48:38	0	0	0	0	0	0	17.77	1.8	0.02	337359	0	5736	221513	337359	331623	6063	19	208	13	215146	1210541	6303
245	2015-09-08 09:54:37	0	0	0	0	0	0	17.77	1.8	0.02	337795	0	5747	221513	337795	332048	6074	19	208	13	215146	1210534	6314
246	2015-09-08 10:00:40	0	0	0	0	0	0	17.77	1.8	0.02	337795	0	5747	221513	337795	332048	6074	19	208	13	215146	1210540	6314
247	2015-09-08 10:06:46	0	0	0	0	0	0	17.84	1.8	0.02	338292	0	5773	222428	338292	332519	6087	19	208	13	216009	1210530	6327
248	2015-09-08 10:12:43	0	0	0	0	0	0	17.84	1.8	0.02	338292	0	5773	222428	338292	332519	6087	19	208	13	216009	1210537	6327
249	2015-09-08 10:18:41	0	0	0	0	0	0	17.84	1.8	0.02	338777	0	5791	222428	338777	332986	6094	19	208	13	216009	1210531	6334
250	2015-09-08 10:24:46	0	0	0	0	0	0	17.84	1.8	0.02	338777	0	5791	222428	338777	332986	6094	19	208	13	216009	1210541	6334
251	2015-09-08 10:30:38	0	0	0	0	0	0	17.86	1.8	0.02	339182	0	5819	222612	339182	333363	6107	19	208	13	216182	1210533	6347
252	2015-09-08 10:36:44	0	0	0	0	0	0	17.86	1.8	0.02	339182	0	5819	222612	339182	333363	6107	19	208	13	216182	1210542	6347
253	2015-09-08 10:42:21	0	0	0	0	0	0	17.86	1.8	0.02	339578	0	5834	222612	339578	333744	6114	19	209	13	216182	1210533	6355
254	2015-09-08 10:48:20	0	0	0	0	0	0	17.86	1.8	0.02	339578	0	5834	222612	339578	333744	6114	19	209	13	216182	1210537	6355
255	2015-09-08 10:54:19	0	0	0	0	0	0	17.86	1.8	0.02	340002	0	5841	222612	340002	334161	6124	19	209	13	216182	1210534	6365
256	2015-09-08 11:00:20	0	0	0	0	0	0	17.86	1.8	0.02	340002	0	5841	222612	340002	334161	6124	19	209	13	216182	1210544	6365
257	2015-09-08 11:06:21	0	0	0	0	0	0	17.86	1.8	0.02	340467	0	5858	222668	340467	334609	6133	19	209	13	216235	1210532	6374
258	2015-09-08 11:12:22	0	0	0	0	0	0	17.86	1.8	0.02	340467	0	5858	222668	340467	334609	6133	19	209	13	216235	1210537	6374
259	2015-09-08 11:18:30	0	0	0	0	0	0	17.91	1.8	0.02	340890	0	5873	223037	340890	335017	6142	19	209	14	216826	1210533	6384
260	2015-09-08 11:24:36	0	0	0	0	0	0	17.91	1.8	0.02	340890	0	5873	223037	340890	335017	6142	19	209	14	216826	1210543	6384
261	2015-09-08 11:30:27	0	0	0	0	0	0	17.94	1.8	0.02	341220	0	5883	223383	341220	335337	6149	19	210	14	217153	1210537	6392
262	2015-09-08 11:36:25	0	0	0	0	0	0	17.94	1.8	0.02	341220	0	5883	223383	341220	335337	6149	19	210	14	217153	1210541	6392
263	2015-09-08 11:42:22	0	0	0	0	0	0	17.96	1.8	0.02	341545	0	5892	223641	341545	335653	6155	19	211	14	217397	1210532	6399
264	2015-09-08 11:48:22	0	0	0	0	0	0	17.96	1.8	0.02	341545	0	5892	223641	341545	335653	6155	19	211	14	217397	1210542	6399
265	2015-09-08 11:54:20	0	0	0	0	0	0	17.96	1.8	0.02	341881	0	5909	223705	341881	335972	6163	19	211	14	217397	1210533	6407
266	2015-09-08 12:00:32	0	0	0	0	0	0	17.96	1.8	0.02	341881	0	5909	223705	341881	335972	6163	19	211	14	217397	1210542	6407
267	2015-09-08 12:06:21	0	0	0	0	0	0	17.96	1.8	0.02	342211	0	5927	223766	342211	336284	6167	19	211	14	217454	1210526	6411
268	2015-09-08 12:12:22	0	0	0	0	0	0	17.96	1.8	0.02	342211	0	5927	223766	342211	336284	6167	19	211	14	217454	1210538	6411
269	2015-09-08 12:18:26	0	0	0	0	0	0	17.96	1.8	0.02	342483	0	5936	223766	342483	336547	6171	19	212	14	217454	1210523	6416
270	2015-09-08 12:24:21	0	0	0	0	0	0	17.96	1.8	0.02	342483	0	5936	223766	342483	336547	6171	19	212	14	217454	1210532	6416
271	2015-09-08 12:30:22	0	0	0	0	0	0	17.97	1.8	0.02	342780	0	5952	223895	342780	336828	6181	19	212	14	217576	1210530	6426
272	2015-09-08 12:36:27	0	0	0	0	0	0	17.97	1.8	0.02	342780	0	5952	223895	342780	336828	6181	19	212	14	217576	1210536	6426
273	2015-09-08 12:42:28	0	0	0	0	0	0	17.97	1.8	0.02	343047	0	5958	223895	343047	337089	6183	19	212	14	217576	1210529	6428
274	2015-09-08 12:48:23	0	0	0	0	0	0	17.97	1.8	0.02	343047	0	5958	223895	343047	337089	6183	19	212	14	217576	1210537	6428
275	2015-09-08 12:54:22	0	0	0	0	0	0	17.97	1.8	0.02	343317	0	5967	223895	343317	337350	6186	19	212	14	217576	1210534	6431
276	2015-09-08 13:00:24	0	0	0	0	0	0	17.97	1.8	0.02	343317	0	5967	223895	343317	337350	6186	19	212	14	217576	1210539	6431
277	2015-09-08 13:06:22	0	0	0	0	0	0	17.97	1.8	0.02	343556	0	5972	223895	343556	337584	6191	19	212	14	217576	1210531	6436
278	2015-09-08 13:12:21	0	0	0	0	0	0	17.97	1.8	0.02	343556	0	5972	223895	343556	337584	6191	19	212	14	217576	1210542	6436
279	2015-09-08 13:18:22	0	0	0	0	0	0	17.97	1.8	0.02	343780	0	5981	223895	343780	337799	6195	19	212	14	217576	1210536	6440
280	2015-09-08 13:24:22	0	0	0	0	0	0	17.97	1.8	0.02	343780	0	5981	223895	343780	337799	6195	19	212	14	217576	1210543	6440
281	2015-09-08 13:30:22	0	0	0	0	0	0	18.02	1.8	0.02	344146	0	5996	224447	344146	338150	6200	19	212	14	218097	1210519	6445
282	2015-09-08 13:36:41	0	0	0	0	0	0	18.02	1.8	0.02	344146	0	5996	224447	344146	338150	6200	19	212	14	218097	1210525	6445
283	2015-09-08 13:42:42	0	0	0	0	0	0	18.05	1.8	0.02	344385	0	6007	224936	344385	338378	6205	19	212	14	218559	1210522	6450
284	2015-09-08 13:48:40	0	0	0	0	0	0	18.05	1.8	0.02	344385	0	6007	224936	344385	338378	6205	19	212	14	218559	1210532	6450
285	2015-09-08 13:54:45	0	0	0	0	0	0	18.05	1.8	0.02	344637	0	6015	224936	344637	338622	6208	19	212	14	218559	1210524	6453
286	2015-09-08 14:00:49	0	0	0	0	0	0	18.05	1.8	0.02	344637	0	6015	224936	344637	338622	6208	19	212	14	218559	1210535	6453
287	2015-09-08 14:06:46	0	0	0	0	0	0	18.05	1.8	0.02	344880	0	6025	224936	344880	338855	6212	19	212	14	218559	1210527	6457
288	2015-09-08 14:12:46	0	0	0	0	0	0	18.05	1.8	0.02	344880	0	6025	224936	344880	338855	6212	19	212	14	218559	1210536	6457
289	2015-09-08 14:18:42	0	0	0	0	0	0	18.07	1.8	0.02	345117	0	6031	225084	345117	339086	6217	19	212	14	218698	1210523	6462
290	2015-09-08 14:24:49	0	0	0	0	0	0	18.07	1.8	0.02	345117	0	6031	225084	345117	339086	6217	19	212	14	218698	1210531	6462
291	2015-09-08 14:30:42	0	0	0	0	0	0	18.07	1.8	0.02	345347	0	6038	225149	345347	339309	6221	19	212	14	218760	1210517	6466
292	2015-09-08 14:36:42	0	0	0	0	0	0	18.07	1.8	0.02	345347	0	6038	225149	345347	339309	6221	19	212	14	218760	1210528	6466
293	2015-09-08 14:42:43	0	0	0	0	0	0	18.07	1.8	0.02	345613	0	6042	225149	345613	339571	6226	19	212	14	218760	1210525	6471
294	2015-09-08 14:48:44	0	0	0	0	0	0	18.07	1.8	0.02	345613	0	6042	225149	345613	339571	6226	19	212	14	218760	1210528	6471
295	2015-09-08 14:54:45	0	0	0	0	0	0	18.07	1.8	0.02	345758	0	6048	225149	345758	339710	6229	19	213	14	218760	1210535	6475
296	2015-09-08 15:00:53	0	0	0	0	0	0	18.07	1.8	0.02	345758	0	6048	225149	345758	339710	6229	19	213	14	218760	1210524	6475
297	2015-09-08 15:06:51	0	0	0	0	0	0	18.07	1.8	0.02	346144	0	6065	225149	346144	340079	6239	19	213	14	218760	1210529	6485
298	2015-09-08 15:12:52	0	0	0	0	0	0	18.08	1.8	0.02	346275	0	6070	225198	346275	340205	6242	19	213	14	218806	1210521	6488
299	2015-09-08 15:18:52	0	0	0	0	0	0	18.08	1.8	0.02	346400	0	6072	225198	346400	340328	6247	19	213	14	218806	1210520	6493
300	2015-09-08 15:24:51	0	0	0	0	0	0	18.09	1.8	0.02	346515	0	6074	225329	346515	340441	6250	19	213	14	218930	1210528	6496
301	2015-09-08 15:30:49	0	0	0	0	0	0	18.09	1.8	0.02	346617	0	6079	225329	346617	340538	6251	19	213	14	218930	1210529	6497
302	2015-09-08 15:36:44	0	0	0	0	0	0	18.09	1.8	0.02	346617	0	6079	225329	346617	340538	6251	19	213	14	218930	1210532	6497
303	2015-09-08 15:42:42	0	0	0	0	0	0	18.09	1.8	0.02	346898	0	6093	225395	346898	340805	6256	19	213	14	218992	1210530	6502
304	2015-09-08 15:48:46	0	0	0	0	0	0	18.09	1.8	0.02	346898	0	6093	225395	346898	340805	6256	19	213	14	218992	1210534	6502
305	2015-09-08 15:54:43	0	0	0	0	0	0	18.1	1.8	0.02	347127	0	6096	225461	347127	341031	6263	19	213	14	219054	1210525	6509
306	2015-09-08 16:00:49	0	0	0	0	0	0	18.1	1.8	0.02	347127	0	6096	225461	347127	341031	6263	19	213	14	219054	1210531	6509
307	2015-09-08 16:06:43	0	0	0	0	0	0	18.1	1.8	0.02	347406	0	6102	225461	347406	341304	6267	19	213	14	219054	1210531	6513
308	2015-09-08 16:12:42	0	0	0	0	0	0	18.1	1.8	0.02	347406	0	6102	225461	347406	341304	6267	19	213	14	219054	1210538	6513
309	2015-09-08 16:19:02	0	0	0	0	0	0	18.1	1.8	0.02	347653	0	6111	225559	347653	341542	6272	19	213	14	219147	1210527	6518
310	2015-09-08 16:24:42	0	0	0	0	0	0	18.1	1.8	0.02	347653	0	6111	225559	347653	341542	6272	19	213	14	219147	1210531	6518
311	2015-09-08 16:30:44	0	0	0	0	0	0	18.11	1.8	0.02	347896	0	6122	225641	347896	341774	6277	19	213	14	219209	1210533	6523
312	2015-09-08 16:36:43	0	0	0	0	0	0	18.11	1.8	0.02	347896	0	6122	225641	347896	341774	6277	19	213	14	219209	1210538	6523
313	2015-09-08 16:42:43	0	0	0	0	0	0	18.11	1.8	0.02	348156	0	6134	225707	348156	342022	6283	19	213	14	219271	1210533	6529
314	2015-09-08 16:48:43	0	0	0	0	0	0	18.11	1.8	0.02	348156	0	6134	225707	348156	342022	6283	19	213	14	219271	1210543	6529
315	2015-09-08 16:54:45	0	0	0	0	0	0	18.11	1.81	0.02	348353	0	6141	225707	348353	342212	6292	20	214	14	219271	1210527	6540
316	2015-09-08 17:00:51	0	0	0	0	0	0	18.11	1.81	0.02	348353	0	6141	225707	348353	342212	6292	20	214	14	219271	1210529	6540
317	2015-09-08 17:06:43	0	0	0	0	0	0	18.11	1.81	0.02	348572	0	6151	225707	348572	342421	6299	20	214	14	219271	1210531	6547
318	2015-09-08 17:12:42	0	0	0	0	0	0	18.11	1.81	0.02	348572	0	6151	225707	348572	342421	6299	20	214	14	219271	1210537	6547
319	2015-09-08 17:18:46	0	0	0	0	0	0	18.11	1.81	0.02	348855	0	6162	225707	348855	342693	6308	20	214	14	219271	1210535	6556
320	2015-09-08 17:24:48	0	0	0	0	0	0	18.11	1.81	0.02	348855	0	6162	225707	348855	342693	6308	20	214	14	219271	1210540	6556
321	2015-09-08 17:31:00	0	0	0	0	0	0	18.12	1.81	0.02	349006	0	6165	225740	349006	342841	6309	20	214	14	219302	1210545	6557
322	2015-09-08 17:36:53	0	0	0	0	0	0	18.12	1.81	0.02	349006	0	6165	225740	349006	342841	6309	20	214	14	219302	1210551	6557
323	2015-09-08 17:42:49	0	0	0	0	0	0	18.12	1.81	0.02	349345	0	6174	225773	349345	343171	6315	20	214	14	219333	1210534	6563
324	2015-09-08 17:48:48	0	0	0	0	0	0	18.12	1.81	0.02	349345	0	6174	225773	349345	343171	6315	20	214	14	219333	1210542	6563
325	2015-09-08 17:54:47	0	0	0	0	0	0	18.14	1.81	0.02	349560	0	6179	226020	349560	343381	6316	20	214	14	219567	1210526	6564
326	2015-09-08 18:00:55	0	0	0	0	0	0	18.14	1.81	0.02	349687	0	6180	226020	349687	343507	6318	20	214	14	219567	1210525	6566
327	2015-09-08 18:06:44	0	0	0	0	0	0	18.14	1.81	0.02	349687	0	6180	226020	349687	343507	6318	20	214	14	219567	1210530	6566
328	2015-09-08 18:12:45	0	0	0	0	0	0	18.14	1.81	0.02	349887	0	6186	226020	349887	343701	6320	20	214	14	219567	1210531	6568
329	2015-09-08 18:18:44	0	0	0	0	0	0	18.14	1.81	0.02	349887	0	6186	226020	349887	343701	6320	20	214	14	219567	1210536	6568
330	2015-09-08 18:24:45	0	0	0	0	0	0	18.14	1.81	0.02	349950	0	6188	226020	349950	343762	6321	20	214	14	219567	1210529	6569
331	2015-09-08 18:30:45	0	0	0	0	0	0	18.14	1.81	0.02	349950	0	6188	226020	349950	343762	6321	20	214	14	219567	1210537	6569
332	2015-09-08 18:36:46	0	0	0	0	0	0	18.14	1.81	0.02	350168	0	6199	226020	350168	343969	6323	20	215	14	219567	1210537	6572
333	2015-09-08 18:42:44	0	0	0	0	0	0	18.14	1.81	0.02	350168	0	6199	226020	350168	343969	6323	20	215	14	219567	1210548	6572
334	2015-09-08 18:48:45	0	0	0	0	0	0	18.16	1.81	0.02	350361	0	6204	226284	350361	344157	6327	20	215	14	219816	1210538	6576
335	2015-09-08 18:54:44	0	0	0	0	0	0	18.16	1.81	0.02	350361	0	6204	226284	350361	344157	6327	20	215	14	219816	1210541	6576
336	2015-09-09 11:41:56	0	0	0	0	0	0	18.32	1.8	0.02	354052	0	6393	228085	354052	347659	6386	20	216	14	222054	1212202	6636
337	2015-09-09 11:44:06	0	0	0	0	0	0	18.32	1.8	0.02	354052	0	6393	228085	354052	347659	6386	20	216	14	222054	1212209	6636
338	2015-09-09 11:50:03	0	0	0	0	0	0	18.32	1.8	0.02	354052	0	6393	228085	354052	347659	6386	20	216	14	222054	1212199	6636
339	2015-09-09 11:56:14	0	0	0	0	0	0	18.32	1.8	0.02	354063	0	6395	228085	354063	347668	6386	20	216	14	222054	1212215	6636
340	2015-09-09 12:02:05	0	0	0	0	0	0	18.32	1.8	0.02	354063	0	6395	228085	354063	347668	6386	20	216	14	222054	1212193	6636
341	2015-09-09 12:08:16	0	0	0	0	0	0	18.32	1.8	0.02	354073	0	6395	228085	354073	347678	6386	20	216	14	222054	1212198	6636
342	2015-09-09 12:12:38	0	0	0	0	0	0	18.32	1.8	0.02	354073	0	6395	228085	354073	347678	6386	20	216	14	222054	1212191	6636
343	2015-09-09 12:18:50	0	0	0	0	0	0	18.32	1.8	0.02	354077	0	6395	228085	354077	347682	6386	20	216	14	222054	1212203	6636
344	2015-09-09 12:24:47	0	0	0	0	0	0	18.32	1.8	0.02	354077	0	6395	228085	354077	347682	6386	20	216	14	222054	1212196	6636
345	2015-09-09 12:30:42	0	0	0	0	0	0	18.32	1.8	0.02	354084	0	6395	228085	354084	347689	6386	20	216	14	222054	1212206	6636
346	2015-09-09 12:37:05	0	0	0	0	0	0	18.32	1.8	0.02	354084	0	6395	228085	354084	347689	6386	20	216	14	222054	1212193	6636
347	2015-09-09 12:41:04	0	0	0	0	0	0	18.32	1.8	0.02	354084	0	6395	228085	354084	347689	6386	20	216	14	222054	1212196	6636
348	2015-09-09 12:47:03	0	0	0	0	0	0	18.32	1.8	0.02	354090	0	6395	228085	354090	347695	6386	20	216	14	222054	1212199	6636
349	2015-09-09 12:53:08	0	0	0	0	0	0	18.32	1.8	0.02	354090	0	6395	228085	354090	347695	6386	20	216	14	222054	1212206	6636
350	2015-09-09 12:58:59	0	0	0	0	0	0	18.32	1.8	0.02	354103	0	6396	228085	354103	347707	6386	20	216	14	222054	1212190	6636
351	2015-09-09 13:04:49	0	0	0	0	0	0	18.32	1.8	0.02	354103	0	6396	228085	354103	347707	6386	20	216	14	222054	1212201	6636
352	2015-09-09 13:11:05	0	0	0	0	0	0	18.32	1.8	0.02	354107	0	6398	228085	354107	347709	6386	20	216	14	222054	1212194	6636
353	2015-09-09 13:16:51	0	0	0	0	0	0	18.32	1.8	0.02	354107	0	6398	228085	354107	347709	6386	20	216	14	222054	1212201	6636
354	2015-09-09 13:22:46	0	0	0	0	0	0	18.32	1.8	0.02	354120	0	6398	228085	354120	347722	6386	20	216	14	222054	1212194	6636
355	2015-09-09 13:28:50	0	0	0	0	0	0	18.32	1.8	0.02	354120	0	6398	228085	354120	347722	6386	20	216	14	222054	1212210	6636
356	2015-09-09 13:34:44	0	0	0	0	0	0	18.32	1.8	0.02	354128	0	6398	228085	354128	347730	6386	20	216	14	222054	1212181	6636
357	2015-09-09 13:40:45	0	0	0	0	0	0	18.32	1.8	0.02	354128	0	6398	228085	354128	347730	6386	20	216	14	222054	1212193	6636
358	2015-09-09 13:46:48	0	0	0	0	0	0	18.32	1.8	0.02	354131	0	6399	228085	354131	347732	6386	20	216	14	222054	1212187	6636
359	2015-09-09 13:52:49	0	0	0	0	0	0	18.32	1.8	0.02	354131	0	6399	228085	354131	347732	6386	20	216	14	222054	1212206	6636
360	2015-09-09 13:58:51	0	0	0	0	0	0	18.32	1.8	0.02	354136	0	6401	228085	354136	347735	6386	20	216	14	222054	1212179	6636
361	2015-09-09 14:04:45	0	0	0	0	0	0	18.32	1.8	0.02	354136	0	6401	228085	354136	347735	6386	20	216	14	222054	1212189	6636
362	2015-09-09 14:10:48	0	0	0	0	0	0	18.32	1.8	0.02	354144	0	6401	228085	354144	347743	6386	20	216	14	222054	1212184	6636
363	2015-09-09 14:16:51	0	0	0	0	0	0	18.32	1.8	0.02	354144	0	6401	228085	354144	347743	6386	20	216	14	222054	1212195	6636
364	2015-09-09 14:22:46	0	0	0	0	0	0	18.32	1.8	0.02	354151	0	6401	228085	354151	347750	6386	20	216	14	222054	1212175	6636
365	2015-09-09 14:28:42	0	0	0	0	0	0	18.32	1.8	0.02	354151	0	6401	228085	354151	347750	6386	20	216	14	222054	1212182	6636
366	2015-09-09 14:34:44	0	0	0	0	0	0	18.32	1.8	0.02	354158	0	6402	228085	354158	347756	6386	20	216	14	222054	1212175	6636
367	2015-09-09 14:40:51	0	0	0	0	0	0	18.32	1.8	0.02	354158	0	6402	228085	354158	347756	6386	20	216	14	222054	1212180	6636
368	2015-09-09 14:46:44	0	0	0	0	0	0	18.32	1.8	0.02	354161	0	6402	228085	354161	347759	6386	20	216	14	222054	1212182	6636
369	2015-09-09 14:52:50	0	0	0	0	0	0	18.32	1.8	0.02	354161	0	6402	228085	354161	347759	6386	20	216	14	222054	1212186	6636
370	2015-09-09 14:58:53	0	0	0	0	0	0	18.32	1.8	0.02	354168	0	6402	228085	354168	347766	6387	20	216	14	222054	1212178	6637
371	2015-09-09 15:04:48	0	0	0	0	0	0	18.32	1.8	0.02	354168	0	6402	228085	354168	347766	6387	20	216	14	222054	1212194	6637
372	2015-09-09 15:10:46	0	0	0	0	0	0	18.32	1.8	0.02	354176	0	6402	228085	354176	347774	6387	20	216	14	222054	1212173	6637
373	2015-09-09 15:16:46	0	0	0	0	0	0	18.32	1.8	0.02	354179	0	6403	228085	354179	347776	6387	20	216	14	222054	1212172	6637
374	2015-09-09 15:22:50	0	0	0	0	0	0	18.32	1.8	0.02	354179	0	6403	228085	354179	347776	6387	20	216	14	222054	1212186	6637
375	2015-09-09 15:28:44	0	0	0	0	0	0	18.32	1.8	0.02	354183	0	6403	228085	354183	347780	6387	20	216	14	222054	1212175	6637
376	2015-09-09 15:34:44	0	0	0	0	0	0	18.32	1.8	0.02	354183	0	6403	228085	354183	347780	6387	20	216	14	222054	1212188	6637
377	2015-09-09 15:40:47	0	0	0	0	0	0	18.32	1.8	0.02	354188	0	6403	228085	354188	347785	6387	20	216	14	222054	1212170	6637
378	2015-09-09 15:47:16	0	0	0	0	0	0	18.32	1.8	0.02	354188	0	6403	228085	354188	347785	6387	20	216	14	222054	1212184	6637
379	2015-09-09 15:52:45	0	0	0	0	0	0	18.32	1.8	0.02	354192	0	6403	228085	354192	347789	6387	20	216	14	222054	1212172	6637
380	2015-09-09 15:58:44	0	0	0	0	0	0	18.32	1.8	0.02	354192	0	6403	228085	354192	347789	6387	20	216	14	222054	1212183	6637
381	2015-09-09 16:04:45	0	0	0	0	0	0	18.32	1.8	0.02	354195	0	6403	228085	354195	347792	6387	20	216	14	222054	1212182	6637
382	2015-09-09 16:10:44	0	0	0	0	0	0	18.32	1.8	0.02	354195	0	6403	228085	354195	347792	6387	20	216	14	222054	1212192	6637
383	2015-09-09 16:17:05	0	0	0	0	0	0	18.32	1.8	0.02	354207	0	6405	228085	354207	347802	6387	20	216	14	222054	1212184	6637
384	2015-09-09 16:23:03	0	0	0	0	0	0	18.32	1.8	0.02	354207	0	6405	228085	354207	347802	6387	20	216	14	222054	1212198	6637
385	2015-09-09 16:29:44	0	0	0	0	0	0	18.32	1.8	0.02	354215	0	6405	228085	354215	347810	6387	20	216	14	222054	1212185	6637
386	2015-09-09 16:34:59	0	0	0	0	0	0	18.32	1.8	0.02	354215	0	6405	228085	354215	347810	6387	20	216	14	222054	1212192	6637
387	2015-09-09 16:40:47	0	0	0	0	0	0	18.32	1.8	0.02	354221	0	6406	228085	354221	347815	6387	20	216	14	222054	1212172	6637
388	2015-09-09 16:46:45	0	0	0	0	0	0	18.32	1.8	0.02	354221	0	6406	228085	354221	347815	6387	20	216	14	222054	1212185	6637
389	2015-09-09 16:52:46	0	0	0	0	0	0	18.32	1.8	0.02	354238	0	6408	228085	354238	347830	6387	20	216	14	222054	1212171	6637
390	2015-09-09 16:58:45	0	0	0	0	0	0	18.32	1.8	0.02	354238	0	6408	228085	354238	347830	6387	20	216	14	222054	1212180	6637
391	2015-09-09 17:04:53	0	0	0	0	0	0	18.32	1.8	0.02	354245	0	6408	228085	354245	347837	6387	20	216	14	222054	1212183	6637
392	2015-09-09 17:10:44	0	0	0	0	0	0	18.32	1.8	0.02	354245	0	6408	228085	354245	347837	6387	20	216	14	222054	1212193	6637
393	2015-09-09 17:16:48	0	0	0	0	0	0	18.32	1.8	0.02	354249	0	6408	228085	354249	347841	6387	20	216	14	222054	1212184	6637
394	2015-09-09 17:22:48	0	0	0	0	0	0	18.32	1.8	0.02	354251	0	6409	228085	354251	347842	6387	20	216	14	222054	1212186	6637
395	2015-09-09 17:28:46	0	0	0	0	0	0	18.32	1.8	0.02	354251	0	6409	228085	354251	347842	6387	20	216	14	222054	1212188	6637
396	2015-09-09 17:34:49	0	0	0	0	0	0	18.32	1.8	0.02	354263	0	6411	228085	354263	347852	6387	20	216	14	222054	1212202	6637
397	2015-09-09 17:40:51	0	0	0	0	0	0	18.32	1.8	0.02	354263	0	6411	228085	354263	347852	6387	20	216	14	222054	1212215	6637
398	2015-09-09 17:46:47	0	0	0	0	0	0	18.32	1.8	0.02	354267	0	6411	228085	354267	347856	6387	20	216	14	222054	1212199	6637
399	2015-09-09 17:52:44	0	0	0	0	0	0	18.32	1.8	0.02	354267	0	6411	228085	354267	347856	6387	20	216	14	222054	1212213	6637
400	2015-09-09 17:58:50	0	0	0	0	0	0	18.32	1.8	0.02	354274	0	6412	228085	354274	347862	6387	20	216	14	222054	1212206	6637
401	2015-09-09 18:04:52	0	0	0	0	0	0	18.32	1.8	0.02	354274	0	6412	228085	354274	347862	6387	20	216	14	222054	1212211	6637
402	2015-09-09 18:10:49	0	0	0	0	0	0	18.32	1.8	0.02	354280	0	6412	228085	354280	347868	6387	20	216	14	222054	1212191	6637
403	2015-09-09 18:16:45	0	0	0	0	0	0	18.32	1.8	0.02	354280	0	6412	228085	354280	347868	6387	20	216	14	222054	1212198	6637
404	2015-09-09 18:22:48	0	0	0	0	0	0	18.32	1.8	0.02	354288	0	6412	228085	354288	347876	6387	20	216	14	222054	1212200	6637
405	2015-09-09 18:28:50	0	0	0	0	0	0	18.32	1.8	0.02	354288	0	6412	228085	354288	347876	6387	20	216	14	222054	1212211	6637
406	2015-09-09 18:34:55	0	0	0	0	0	0	18.32	1.8	0.02	354290	0	6412	228085	354290	347878	6387	20	216	14	222054	1212195	6637
407	2015-09-09 18:40:54	0	0	0	0	0	0	18.32	1.8	0.02	354290	0	6412	228085	354290	347878	6387	20	216	14	222054	1212208	6637
408	2015-09-09 18:46:50	0	0	0	0	0	0	18.32	1.8	0.02	354295	0	6413	228085	354295	347882	6387	20	216	14	222054	1212200	6637
409	2015-09-09 18:52:47	0	0	0	0	0	0	18.32	1.8	0.02	354295	0	6413	228085	354295	347882	6387	20	216	14	222054	1212214	6637
410	2015-09-09 18:58:46	0	0	0	0	0	0	18.32	1.8	0.02	354306	0	6415	228085	354306	347891	6387	20	216	14	222054	1212197	6637
411	2015-09-09 19:04:45	0	0	0	0	0	0	18.32	1.8	0.02	354306	0	6415	228085	354306	347891	6387	20	216	14	222054	1212203	6637
412	2015-09-09 19:10:48	0	0	0	0	0	0	18.32	1.8	0.02	354310	0	6416	228085	354310	347894	6387	20	216	14	222054	1212187	6637
413	2015-09-09 19:16:49	0	0	0	0	0	0	18.32	1.8	0.02	354310	0	6416	228085	354310	347894	6387	20	216	14	222054	1212192	6637
414	2015-09-09 19:22:46	0	0	0	0	0	0	18.32	1.8	0.02	354312	0	6417	228085	354312	347895	6387	20	216	14	222054	1212187	6637
415	2015-09-09 19:28:46	0	0	0	0	0	0	18.32	1.8	0.02	354312	0	6417	228085	354312	347895	6387	20	216	14	222054	1212195	6637
416	2015-09-09 19:34:47	0	0	0	0	0	0	18.32	1.8	0.02	354320	0	6417	228118	354320	347903	6387	20	216	14	222086	1212175	6637
417	2015-09-09 19:40:47	0	0	0	0	0	0	18.32	1.8	0.02	354320	0	6417	228118	354320	347903	6387	20	216	14	222086	1212182	6637
418	2015-09-09 19:46:58	0	0	0	0	0	0	18.32	1.8	0.02	354327	0	6417	228118	354327	347910	6387	20	216	14	222086	1212185	6637
419	2015-09-09 19:52:59	0	0	0	0	0	0	18.32	1.8	0.02	354327	0	6417	228118	354327	347910	6387	20	216	14	222086	1212197	6637
420	2015-09-09 19:58:49	0	0	0	0	0	0	18.32	1.8	0.02	354333	0	6417	228118	354333	347916	6387	20	216	14	222086	1212192	6637
421	2015-09-09 20:04:48	0	0	0	0	0	0	18.32	1.8	0.02	354333	0	6417	228118	354333	347916	6387	20	216	14	222086	1212203	6637
422	2015-09-09 20:10:51	0	0	0	0	0	0	18.32	1.8	0.02	354342	0	6417	228118	354342	347925	6387	20	216	14	222086	1212185	6637
423	2015-09-09 20:16:54	0	0	0	0	0	0	18.32	1.8	0.02	354342	0	6417	228118	354342	347925	6387	20	216	14	222086	1212200	6637
424	2015-09-09 20:23:34	0	0	0	0	0	0	18.32	1.8	0.02	354347	0	6418	228118	354347	347929	6388	20	216	14	222086	1212178	6638
425	2015-09-09 20:29:32	0	0	0	0	0	0	18.32	1.8	0.02	354349	0	6418	228118	354349	347931	6388	20	216	14	222086	1212176	6638
426	2015-09-09 20:35:28	0	0	0	0	0	0	18.32	1.8	0.02	354349	0	6418	228118	354349	347931	6388	20	216	14	222086	1212173	6638
427	2015-09-09 20:41:39	0	0	0	0	0	0	18.32	1.8	0.02	354361	0	6419	228118	354361	347942	6388	20	216	14	222086	1212168	6638
428	2015-09-09 20:47:42	0	0	0	0	0	0	18.32	1.8	0.02	354363	0	6419	228118	354363	347944	6388	20	216	14	222086	1212179	6638
429	2015-09-09 20:58:13	0	0	0	0	0	0	18.32	1.8	0.02	354367	0	6420	228118	354367	347947	6388	20	217	14	222086	1212172	6639
430	2015-09-09 20:59:19	0	0	0	0	0	0	18.32	1.8	0.02	354367	0	6420	228118	354367	347947	6388	20	217	14	222086	1212173	6639
431	2015-09-09 21:05:39	0	0	0	0	0	0	18.32	1.8	0.02	354367	0	6420	228118	354367	347947	6388	20	217	14	222086	1212180	6639
432	2015-09-09 21:11:42	0	0	0	0	0	0	18.32	1.8	0.02	354368	0	6420	228118	354368	347948	6388	20	217	14	222086	1212178	6639
433	2015-09-09 21:17:51	0	0	0	0	0	0	18.32	1.8	0.02	354372	0	6422	228118	354372	347950	6388	20	217	14	222086	1212176	6639
434	2015-09-09 21:23:40	0	0	0	0	0	0	18.32	1.8	0.02	354374	0	6422	228118	354374	347950	6388	20	217	14	222086	1212174	6639
435	2015-09-09 21:29:41	0	0	0	0	0	0	18.32	1.8	0.02	354382	0	6422	228118	354382	347952	6388	20	217	14	222086	1212184	6639
436	2015-09-09 21:35:41	0	0	0	0	0	0	18.32	1.8	0.02	354382	0	6423	228118	354382	347964	6388	20	217	14	222086	1212180	6639
437	2015-09-09 21:41:42	0	0	0	0	0	0	18.32	1.8	0.02	354392	0	6424	228118	354392	347968	6388	20	217	14	222086	1212190	6639
438	2015-09-09 21:47:49	0	0	0	0	0	0	18.32	1.8	0.02	354392	0	6424	228118	354392	347968	6388	20	217	14	222086	1212168	6639
439	2015-09-09 21:53:51	0	0	0	0	0	0	18.32	1.8	0.02	354401	0	6426	228118	354401	347975	6388	20	217	14	222086	1212182	6639
440	2015-09-09 21:59:46	0	0	0	0	0	0	18.32	1.8	0.02	354401	0	6426	228118	354401	347975	6388	20	217	14	222086	1212182	6639
441	2015-09-09 22:05:46	0	0	0	0	0	0	18.32	1.8	0.02	354406	0	6427	228118	354406	347979	6388	20	217	14	222086	1212190	6639
442	2015-09-09 22:11:45	0	0	0	0	0	0	18.32	1.8	0.02	354406	0	6427	228118	354406	347979	6388	20	217	14	222086	1212186	6639
443	2015-09-09 22:17:47	0	0	0	0	0	0	18.32	1.8	0.02	354414	0	6429	228118	354414	347985	6388	20	217	14	222086	1212179	6639
444	2015-09-09 22:23:44	0	0	0	0	0	0	18.32	1.8	0.02	354417	0	6429	228118	354417	347988	6388	20	217	14	222086	1212162	6639
445	2015-09-09 22:29:47	0	0	0	0	0	0	18.32	1.8	0.02	354417	0	6429	228118	354417	347988	6388	20	217	14	222086	1212180	6639
446	2015-09-09 22:35:42	0	0	0	0	0	0	18.32	1.8	0.02	354427	0	6429	228118	354427	347998	6388	20	217	14	222086	1212179	6639
447	2015-09-09 22:41:51	0	0	0	0	0	0	18.32	1.8	0.02	354427	0	6429	228118	354427	347998	6388	20	217	14	222086	1212195	6639
448	2015-09-09 22:47:50	0	0	0	0	0	0	18.32	1.8	0.02	354430	0	6429	228118	354430	348001	6388	20	217	14	222086	1212184	6639
449	2015-09-09 22:53:47	0	0	0	0	0	0	18.32	1.8	0.02	354430	0	6429	228118	354430	348001	6388	20	217	14	222086	1212202	6639
450	2015-09-09 22:59:42	0	0	0	0	0	0	18.32	1.8	0.02	354439	0	6431	228118	354439	348008	6388	20	217	14	222086	1212215	6639
451	2015-09-09 23:05:39	0	0	0	0	0	0	18.32	1.8	0.02	354439	0	6431	228118	354439	348008	6388	20	217	14	222086	1212186	6639
452	2015-09-09 23:11:41	0	0	0	0	0	0	18.32	1.8	0.02	354449	0	6432	228118	354449	348017	6388	20	217	14	222086	1212204	6639
453	2015-09-09 23:17:45	0	0	0	0	0	0	18.32	1.8	0.02	354452	0	6432	228118	354452	348020	6388	20	217	14	222086	1212190	6639
454	2015-09-09 23:23:49	0	0	0	0	0	0	18.32	1.8	0.02	354452	0	6432	228118	354452	348020	6388	20	217	14	222086	1212202	6639
455	2015-09-09 23:29:39	0	0	0	0	0	0	18.32	1.8	0.02	354456	0	6432	228118	354456	348024	6388	20	217	14	222086	1212175	6639
456	2015-09-09 23:35:38	0	0	0	0	0	0	18.32	1.8	0.02	354459	0	6432	228118	354459	348027	6388	20	217	14	222086	1212188	6639
457	2015-09-09 23:41:38	0	0	0	0	0	0	18.32	1.8	0.02	354459	0	6432	228118	354459	348027	6388	20	217	14	222086	1212193	6639
458	2015-09-09 23:47:43	0	0	0	0	0	0	18.32	1.8	0.02	354468	0	6433	228118	354468	348035	6388	20	217	14	222086	1212203	6639
459	2015-09-09 23:53:43	0	0	0	0	0	0	18.32	1.8	0.02	354471	0	6434	228118	354471	348037	6388	20	217	14	222086	1212172	6639
460	2015-09-09 23:59:43	0	0	0	0	0	0	18.32	1.8	0.02	354476	0	6435	228118	354476	348041	6388	20	217	14	222086	1212175	6639
461	2015-09-10 00:05:55	0	0	0	0	0	0	18.32	1.8	0.02	354479	0	6436	228118	354479	348043	6388	20	217	14	222086	1212171	6639
462	2015-09-10 00:12:05	0	0	0	0	0	0	18.32	1.8	0.02	354480	0	6436	228118	354480	348044	6388	20	217	14	222086	1212174	6639
463	2015-09-10 00:17:57	0	0	0	0	0	0	18.32	1.8	0.02	354480	0	6436	228118	354480	348044	6388	20	217	14	222086	1212179	6639
464	2015-09-10 00:23:56	0	0	0	0	0	0	18.32	1.8	0.02	354482	0	6436	228118	354482	348046	6388	20	217	14	222086	1212172	6639
465	2015-09-10 00:29:55	0	0	0	0	0	0	18.32	1.8	0.02	354483	0	6436	228118	354483	348047	6388	20	217	14	222086	1212178	6639
466	2015-09-10 00:35:45	0	0	0	0	0	0	18.32	1.8	0.02	354483	0	6436	228118	354483	348047	6388	20	217	14	222086	1212188	6639
467	2015-09-10 00:41:49	0	0	0	0	0	0	18.32	1.8	0.02	354483	0	6436	228118	354483	348047	6388	20	217	14	222086	1212186	6639
468	2015-09-10 00:47:42	0	0	0	0	0	0	18.32	1.8	0.02	354484	0	6436	228118	354484	348048	6388	20	217	14	222086	1212183	6639
469	2015-09-10 00:53:37	0	0	0	0	0	0	18.32	1.8	0.02	354484	0	6436	228118	354484	348048	6388	20	217	14	222086	1212183	6639
470	2015-09-10 00:59:37	0	0	0	0	0	0	18.32	1.8	0.02	354485	0	6436	228118	354485	348049	6388	20	217	14	222086	1212176	6639
471	2015-09-10 01:05:37	0	0	0	0	0	0	18.32	1.8	0.02	354485	0	6436	228118	354485	348049	6388	20	217	14	222086	1212176	6639
472	2015-09-10 01:11:40	0	0	0	0	0	0	18.32	1.8	0.02	354485	0	6436	228118	354485	348049	6388	20	217	14	222086	1212173	6639
473	2015-09-10 01:17:39	0	0	0	0	0	0	18.32	1.8	0.02	354486	0	6436	228118	354486	348050	6388	20	217	14	222086	1212174	6639
474	2015-09-10 01:23:38	0	0	0	0	0	0	18.32	1.8	0.02	354486	0	6436	228118	354486	348050	6388	20	217	14	222086	1212177	6639
475	2015-09-10 01:29:41	0	0	0	0	0	0	18.32	1.8	0.02	354488	0	6437	228118	354488	348051	6388	20	217	14	222086	1212182	6639
476	2015-09-10 01:35:39	0	0	0	0	0	0	18.32	1.8	0.02	354488	0	6437	228118	354488	348051	6388	20	217	14	222086	1212187	6639
477	2015-09-10 01:41:03	0	0	0	0	0	0	18.32	1.8	0.02	354489	0	6437	228118	354489	348052	6388	20	217	14	222086	1212180	6639
478	2015-09-10 01:47:03	0	0	0	0	0	0	18.32	1.8	0.02	354489	0	6437	228118	354489	348052	6388	20	217	14	222086	1212184	6639
479	2015-09-10 01:52:54	0	0	0	0	0	0	18.32	1.8	0.02	354489	0	6437	228118	354489	348052	6388	20	217	14	222086	1212187	6639
480	2015-09-10 01:58:51	0	0	0	0	0	0	18.32	1.8	0.02	354489	0	6437	228118	354489	348052	6388	20	217	14	222086	1212188	6639
481	2015-09-10 02:04:55	0	0	0	0	0	0	18.3	1.8	0.02	354490	0	6437	228118	354490	348053	6388	20	217	14	222086	1213633	6639
482	2015-09-10 02:10:54	0	0	0	0	0	0	18.3	1.8	0.02	354490	0	6437	228118	354490	348053	6388	20	217	14	222086	1213633	6639
483	2015-09-10 02:16:56	0	0	0	0	0	0	18.3	1.8	0.02	354491	0	6437	228118	354491	348054	6388	20	217	14	222086	1213635	6639
484	2015-09-10 02:22:55	0	0	0	0	0	0	18.3	1.8	0.02	354491	0	6437	228118	354491	348054	6388	20	217	14	222086	1213631	6639
485	2015-09-10 02:28:55	0	0	0	0	0	0	18.3	1.8	0.02	354492	0	6437	228118	354492	348055	6388	20	217	14	222086	1213632	6639
486	2015-09-10 02:34:53	0	0	0	0	0	0	18.3	1.8	0.02	354492	0	6437	228118	354492	348055	6388	20	217	14	222086	1213632	6639
487	2015-09-10 02:40:57	0	0	0	0	0	0	18.3	1.8	0.02	354492	0	6437	228118	354492	348055	6388	20	217	14	222086	1213634	6639
488	2015-09-10 02:46:59	0	0	0	0	0	0	18.3	1.8	0.02	354492	0	6437	228118	354492	348055	6388	20	217	14	222086	1213632	6639
489	2015-09-10 02:52:54	0	0	0	0	0	0	18.3	1.8	0.02	354492	0	6437	228118	354492	348055	6388	20	217	14	222086	1213634	6639
490	2015-09-10 02:58:54	0	0	0	0	0	0	18.3	1.8	0.02	354493	0	6437	228118	354493	348056	6388	20	217	14	222086	1213631	6639
491	2015-09-10 03:04:52	0	0	0	0	0	0	18.3	1.8	0.02	354493	0	6437	228118	354493	348056	6388	20	217	14	222086	1213631	6639
492	2015-09-10 03:11:03	0	0	0	0	0	0	18.3	1.8	0.02	354493	0	6437	228118	354493	348056	6388	20	217	14	222086	1213630	6639
493	2015-09-10 03:16:52	0	0	0	0	0	0	18.3	1.8	0.02	354493	0	6437	228118	354493	348056	6388	20	217	14	222086	1213631	6639
494	2015-09-10 03:22:56	0	0	0	0	0	0	18.3	1.8	0.02	354493	0	6437	228118	354493	348056	6388	20	217	14	222086	1213631	6639
495	2015-09-10 03:28:53	0	0	0	0	0	0	18.3	1.8	0.02	354493	0	6437	228118	354493	348056	6388	20	217	14	222086	1213630	6639
496	2015-09-10 03:34:55	0	0	0	0	0	0	18.3	1.8	0.02	354493	0	6437	228118	354493	348056	6388	20	217	14	222086	1213631	6639
497	2015-09-10 03:40:59	0	0	0	0	0	0	18.3	1.8	0.02	354493	0	6437	228118	354493	348056	6388	20	217	14	222086	1213631	6639
498	2015-09-10 03:46:56	0	0	0	0	0	0	18.3	1.8	0.02	354494	0	6437	228118	354494	348057	6388	20	217	14	222086	1213632	6639
499	2015-09-10 03:52:51	0	0	0	0	0	0	18.3	1.8	0.02	354494	0	6437	228118	354494	348057	6388	20	217	14	222086	1213631	6639
500	2015-09-10 03:58:53	0	0	0	0	0	0	18.3	1.8	0.02	354495	0	6437	228118	354495	348058	6388	20	218	14	222086	1213631	6640
501	2015-09-10 04:04:53	0	0	0	0	0	0	18.3	1.8	0.02	354495	0	6437	228118	354495	348058	6388	20	218	14	222086	1213631	6640
502	2015-09-10 04:11:00	0	0	0	0	0	0	18.3	1.8	0.02	354495	0	6437	228118	354495	348058	6388	20	218	14	222086	1213630	6640
503	2015-09-10 04:16:56	0	0	0	0	0	0	18.3	1.8	0.02	354495	0	6437	228118	354495	348058	6388	20	218	14	222086	1213629	6640
504	2015-09-10 04:22:55	0	0	0	0	0	0	18.3	1.8	0.02	354495	0	6437	228118	354495	348058	6388	20	218	14	222086	1213631	6640
505	2015-09-10 04:28:53	0	0	0	0	0	0	18.3	1.8	0.02	354495	0	6437	228118	354495	348058	6388	20	218	14	222086	1213630	6640
506	2015-09-10 04:34:53	0	0	0	0	0	0	18.3	1.8	0.02	354495	0	6437	228118	354495	348058	6388	20	218	14	222086	1213626	6640
507	2015-09-10 04:40:57	0	0	0	0	0	0	18.3	1.8	0.02	354495	0	6437	228118	354495	348058	6388	20	218	14	222086	1213626	6640
508	2015-09-10 04:47:01	0	0	0	0	0	0	18.3	1.8	0.02	354496	0	6437	228118	354496	348059	6388	20	218	14	222086	1213630	6640
509	2015-09-10 04:52:51	0	0	0	0	0	0	18.3	1.8	0.02	354496	0	6437	228118	354496	348059	6388	20	218	14	222086	1213631	6640
510	2015-09-10 04:58:54	0	0	0	0	0	0	18.3	1.8	0.02	354497	0	6438	228118	354497	348059	6388	20	218	14	222086	1213631	6640
511	2015-09-10 05:04:53	0	0	0	0	0	0	18.3	1.8	0.02	354497	0	6438	228118	354497	348059	6388	20	218	14	222086	1213631	6640
512	2015-09-10 05:10:54	0	0	0	0	0	0	18.3	1.8	0.02	354497	0	6438	228118	354497	348059	6388	20	218	14	222086	1213630	6640
513	2015-09-10 05:16:55	0	0	0	0	0	0	18.3	1.8	0.02	354497	0	6438	228118	354497	348059	6388	20	218	14	222086	1213628	6640
514	2015-09-10 05:23:05	0	0	0	0	0	0	18.3	1.8	0.02	354497	0	6438	228118	354497	348059	6388	20	218	14	222086	1213630	6640
515	2015-09-10 05:28:54	0	0	0	0	0	0	18.3	1.8	0.02	354497	0	6438	228118	354497	348059	6388	20	218	14	222086	1213630	6640
516	2015-09-10 05:34:55	0	0	0	0	0	0	18.3	1.8	0.02	354497	0	6438	228118	354497	348059	6388	20	218	14	222086	1213629	6640
517	2015-09-10 05:41:05	0	0	0	0	0	0	18.3	1.8	0.02	354497	0	6438	228118	354497	348059	6388	20	218	14	222086	1213628	6640
518	2015-09-10 05:47:07	0	0	0	0	0	0	18.3	1.8	0.02	354497	0	6438	228118	354497	348059	6388	20	218	14	222086	1213631	6640
519	2015-09-10 05:53:07	0	0	0	0	0	0	18.3	1.8	0.02	354497	0	6438	228118	354497	348059	6388	20	218	14	222086	1213631	6640
520	2015-09-10 05:59:05	0	0	0	0	0	0	18.3	1.8	0.02	354497	0	6438	228118	354497	348059	6388	20	218	14	222086	1213635	6640
521	2015-09-10 06:04:59	0	0	0	0	0	0	18.3	1.8	0.02	354497	0	6438	228118	354497	348059	6388	20	218	14	222086	1213634	6640
522	2015-09-10 06:11:00	0	0	0	0	0	0	18.3	1.8	0.02	354497	0	6438	228118	354497	348059	6388	20	218	14	222086	1213631	6640
523	2015-09-10 06:16:55	0	0	0	0	0	0	18.3	1.8	0.02	354497	0	6438	228118	354497	348059	6388	20	218	14	222086	1213634	6640
524	2015-09-10 06:22:58	0	0	0	0	0	0	18.3	1.8	0.02	354497	0	6438	228118	354497	348059	6388	20	218	14	222086	1213629	6640
525	2015-09-10 06:28:55	0	0	0	0	0	0	18.3	1.8	0.02	354497	0	6438	228118	354497	348059	6388	20	218	14	222086	1213629	6640
526	2015-09-10 06:34:54	0	0	0	0	0	0	18.3	1.8	0.02	354498	0	6438	228118	354498	348060	6388	20	218	14	222086	1213632	6640
527	2015-09-10 06:41:04	0	0	0	0	0	0	18.3	1.8	0.02	354498	0	6438	228118	354498	348060	6388	20	218	14	222086	1213634	6640
528	2015-09-10 06:47:01	0	0	0	0	0	0	18.3	1.8	0.02	354499	0	6438	228118	354499	348061	6388	20	218	14	222086	1213631	6640
529	2015-09-10 06:53:16	0	0	0	0	0	0	18.3	1.8	0.02	354499	0	6438	228118	354499	348061	6388	20	218	14	222086	1213635	6640
530	2015-09-10 06:58:54	0	0	0	0	0	0	18.3	1.8	0.02	354499	0	6438	228118	354499	348061	6388	20	218	14	222086	1213632	6640
531	2015-09-10 07:04:55	0	0	0	0	0	0	18.3	1.8	0.02	354499	0	6438	228118	354499	348061	6388	20	218	14	222086	1213633	6640
532	2015-09-10 07:11:07	0	0	0	0	0	0	18.3	1.8	0.02	354499	0	6438	228118	354499	348061	6388	20	218	14	222086	1213636	6640
533	2015-09-10 07:17:00	0	0	0	0	0	0	18.3	1.8	0.02	354499	0	6438	228118	354499	348061	6388	20	218	14	222086	1213638	6640
534	2015-09-10 07:22:58	0	0	0	0	0	0	18.3	1.8	0.02	354499	0	6438	228118	354499	348061	6388	20	218	14	222086	1213632	6640
535	2015-09-10 07:28:56	0	0	0	0	0	0	18.3	1.8	0.02	354499	0	6438	228118	354499	348061	6388	20	218	14	222086	1213634	6640
536	2015-09-10 07:34:56	0	0	0	0	0	0	18.3	1.8	0.02	354499	0	6438	228118	354499	348061	6388	20	218	14	222086	1213631	6640
537	2015-09-10 07:40:56	0	0	0	0	0	0	18.3	1.8	0.02	354499	0	6438	228118	354499	348061	6388	20	218	14	222086	1213632	6640
538	2015-09-10 07:47:14	0	0	0	0	0	0	18.3	1.8	0.02	354500	0	6438	228118	354500	348062	6388	20	218	14	222086	1213634	6640
539	2015-09-10 07:53:12	0	0	0	0	0	0	18.3	1.8	0.02	354500	0	6438	228118	354500	348062	6388	20	218	14	222086	1213635	6640
540	2015-09-10 07:59:04	0	0	0	0	0	0	18.3	1.8	0.02	354501	0	6438	228118	354501	348063	6388	20	218	14	222086	1213635	6640
541	2015-09-10 08:05:01	0	0	0	0	0	0	18.3	1.8	0.02	354501	0	6438	228118	354501	348063	6388	20	218	14	222086	1213639	6640
542	2015-09-10 08:11:05	0	0	0	0	0	0	18.3	1.8	0.02	354503	0	6438	228118	354503	348065	6388	20	218	14	222086	1213634	6640
543	2015-09-10 08:16:56	0	0	0	0	0	0	18.3	1.8	0.02	354503	0	6438	228118	354503	348065	6388	20	218	14	222086	1213637	6640
544	2015-09-10 08:22:59	0	0	0	0	0	0	18.3	1.8	0.02	354506	0	6438	228118	354506	348068	6388	20	218	14	222086	1213634	6640
545	2015-09-10 08:28:58	0	0	0	0	0	0	18.3	1.8	0.02	354506	0	6438	228118	354506	348068	6388	20	218	14	222086	1213638	6640
546	2015-09-10 08:34:58	0	0	0	0	0	0	18.3	1.8	0.02	354506	0	6438	228118	354506	348068	6388	20	218	14	222086	1213631	6640
547	2015-09-10 08:41:08	0	0	0	0	0	0	18.3	1.8	0.02	354506	0	6438	228118	354506	348068	6388	20	218	14	222086	1213638	6640
548	2015-09-10 08:47:10	0	0	0	0	0	0	18.3	1.8	0.02	354509	0	6438	228118	354509	348071	6388	20	218	14	222086	1213633	6640
549	2015-09-10 08:53:01	0	0	0	0	0	0	18.3	1.8	0.02	354509	0	6438	228118	354509	348071	6388	20	218	14	222086	1213637	6640
550	2015-09-10 08:59:02	0	0	0	0	0	0	18.3	1.8	0.02	354509	0	6438	228118	354509	348071	6388	20	218	14	222086	1213641	6640
551	2015-09-10 09:05:00	0	0	0	0	0	0	18.3	1.8	0.02	354509	0	6438	228118	354509	348071	6388	20	218	14	222086	1213643	6640
552	2015-09-10 09:11:02	0	0	0	0	0	0	18.3	1.8	0.02	354510	0	6438	228118	354510	348072	6388	20	218	14	222086	1213638	6640
553	2015-09-10 09:17:02	0	0	0	0	0	0	18.3	1.8	0.02	354510	0	6438	228118	354510	348072	6388	20	218	14	222086	1213641	6640
554	2015-09-10 09:23:04	0	0	0	0	0	0	18.3	1.8	0.02	354511	0	6438	228118	354511	348073	6388	20	218	14	222086	1213644	6640
