1	2018-05-24 18:24:12		0	0	0	0	0	0	0	0	0.01	0	0	1	67	0	75	1	0	3	0	69	3787088	4
2	2018-05-24 18:34:12		0	0	0	0	0	0	0.08	4.02	0.01	3258	0	17	2464	3258	3258	131	7	86	13	3128	3787104	237
3	2018-05-24 18:44:13		0	0	0	0	0	0	0.31	4.62	0.01	12853	0	68	9786	12853	12853	594	15	144	20	11925	3787121	773
4	2018-05-24 18:54:13		0	0	0	0	0	0	0.47	4.76	0.02	19762	0	341	15136	19762	19762	941	21	199	28	17848	3787138	1189
5	2018-05-24 19:04:15		0	0	0	0	0	0	0.6	5.38	0.02	25344	0	473	19222	25344	25344	1364	26	241	32	22541	3787153	1663
6	2018-05-24 19:14:15		0	0	0	0	0	0	0.76	4.91	0.03	32686	0	845	24070	32686	32686	1606	26	268	39	28674	3787172	1939
7	2018-05-24 19:24:15		0	0	0	0	0	0	0.81	4.96	0.03	34865	0	1012	25844	34865	34865	1730	31	303	42	30518	3787189	2106
8	2018-05-24 19:34:16		0	0	0	0	0	0	0.9	5.16	0.03	38951	0	1153	28990	38951	38951	2010	33	316	44	33967	3787201	2403
9	2018-05-24 19:44:16		0	0	0	0	0	0	0.97	5.1	0.03	42330	0	1238	31016	42330	42330	2158	36	338	47	36816	3787205	2579
10	2018-05-24 19:54:19		0	0	0	0	0	0	1.07	5.13	0.03	45372	0	1398	34069	45372	46810	2327	39	354	53	40669	3787227	2773
11	2018-05-24 20:04:24		0	0	0	0	0	0	1.13	4.97	0.03	49395	0	1570	35697	49395	49395	2454	40	377	53	42826	3787244	2924
12	2018-05-24 20:14:20		0	0	0	0	0	0	1.16	4.96	0.03	50658	0	1703	36366	50658	50658	2515	43	393	56	43911	3787260	3007
13	2018-05-24 20:24:19		0	0	0	0	0	0	1.22	4.98	0.03	53096	0	1808	38214	53096	53096	2644	48	414	59	46048	3787279	3165
14	2018-05-24 20:34:20		0	0	0	0	0	0	1.27	5.04	0.03	55568	0	1847	39265	55568	55568	2798	48	430	60	48218	3787282	3336
15	2018-05-24 20:44:20		0	0	0	0	0	0	1.32	5	0.03	57717	0	1995	40310	57717	57717	2886	50	442	62	50027	3787301	3440
16	2018-05-24 20:54:26		0	0	0	0	0	0	1.38	4.96	0.03	59714	0	2087	42607	59714	60559	2960	50	456	64	52401	3787319	3530
17	2018-05-24 21:04:22		0	0	0	0	0	0	1.4	4.88	0.04	61456	0	2180	43218	61456	61456	3000	53	469	64	53143	3787333	3586
18	2018-05-24 21:14:21		0	0	0	0	0	0	1.44	4.87	0.04	63252	0	2263	44087	63252	63252	3081	54	482	66	54672	3787360	3683
19	2018-05-24 21:24:22		0	0	0	0	0	0	1.49	4.87	0.04	65120	0	2353	45367	65120	65120	3173	55	492	67	56260	3787371	3787
20	2018-05-24 21:34:23		0	0	0	0	0	0	1.52	4.82	0.04	66721	0	2399	46194	66721	66721	3214	58	501	67	57606	3787386	3840
21	2018-05-24 21:44:24		0	0	0	0	0	0	1.56	4.84	0.04	68427	0	2497	47402	68427	68427	3313	58	510	68	59054	3787409	3949
22	2018-05-24 21:54:24		0	0	0	0	0	0	1.6	4.83	0.04	70247	0	2564	48306	70247	70247	3392	58	524	69	60626	3787418	4043
23	2018-05-24 22:04:31		0	0	0	0	0	0	1.66	4.8	0.04	72144	0	2623	49180	72144	72144	3460	59	532	70	63030	3787451	4121
24	2018-05-24 22:14:29		0	0	0	0	0	0	1.69	4.78	0.04	73935	0	2677	50731	73935	73935	3535	61	539	70	63835	3787479	4205
25	2018-05-24 22:24:25		0	0	0	0	0	0	1.73	4.7	0.04	75871	0	2734	51721	75871	75871	3568	61	553	70	65486	3787493	4252
26	2018-05-24 22:34:26		0	0	0	0	0	0	1.77	4.68	0.04	77609	0	2779	53410	77609	77609	3633	61	562	72	67015	3787516	4328
27	2018-05-24 22:44:26		0	0	0	0	0	0	1.81	4.66	0.04	79269	0	2854	54213	79269	79269	3696	62	568	72	68469	3787534	4398
28	2018-05-24 22:54:27		0	0	0	0	0	0	1.85	4.63	0.04	80944	0	2897	55398	80944	80944	3748	62	571	72	69912	3787557	4453
29	2018-05-24 23:04:29		0	0	0	0	0	0	1.9	4.66	0.04	82497	0	2973	56486	82497	82497	3842	63	581	72	71927	3787580	4558
30	2018-05-24 23:14:30		0	0	0	0	0	0	1.93	4.6	0.04	84654	0	3007	58003	84654	84654	3898	63	589	73	73139	3787599	4623
31	2018-05-24 23:24:28		0	0	0	0	0	0	1.95	4.6	0.04	85335	0	3088	58705	85335	85335	3927	63	595	73	73756	3787613	4658
32	2018-05-24 23:34:29		0	0	0	0	0	0	1.98	4.61	0.04	86635	0	3124	59691	86635	86635	3997	63	604	73	74900	3787628	4737
33	2018-05-24 23:44:29		0	0	0	0	0	0	2.01	4.58	0.04	87876	0	3138	60699	87876	87876	4026	63	609	74	75976	3787650	4772
34	2018-05-24 23:54:30		0	0	0	0	0	0	2.03	4.6	0.04	88928	0	3184	61338	88928	88928	4090	64	614	74	76860	3787671	4842
35	2018-05-25 00:04:31		0	0	0	0	0	0	2.05	4.59	0.04	89952	0	3198	62158	89952	89952	4131	65	620	74	77761	3787679	4890
36	2018-05-25 00:14:31		0	0	0	0	0	0	2.07	4.56	0.04	90910	0	3251	63228	90910	90910	4147	65	629	74	78590	3787688	4915
37	2018-05-25 00:24:31		0	0	0	0	0	0	2.1	4.55	0.04	91817	0	3263	63646	91817	91817	4182	65	635	75	79365	3787700	4957
38	2018-05-25 00:34:32		0	0	0	0	0	0	2.12	4.55	0.04	92692	0	3286	64611	92692	92692	4222	65	641	76	80126	3787717	5004
39	2018-05-25 00:44:32		0	0	0	0	0	0	2.13	4.54	0.04	93348	0	3304	64965	93348	93348	4238	65	646	76	80690	3787730	5025
40	2018-05-25 00:54:33		0	0	0	0	0	0	2.14	4.53	0.04	93962	0	3326	65400	93962	93962	4259	65	648	76	81217	3787751	5048
41	2018-05-25 01:04:34		0	0	0	0	0	0	2.16	4.53	0.04	94483	0	3345	65738	94483	94483	4284	65	648	76	81664	3787759	5073
42	2018-05-25 01:14:34		0	0	0	0	0	0	2.17	4.54	0.04	95025	0	3364	66111	95025	95025	4315	65	652	76	82136	3787767	5108
43	2018-05-25 01:24:34		0	0	0	0	0	0	2.18	4.54	0.04	95465	0	3371	66446	95465	95465	4330	65	654	76	82507	3787774	5125
44	2018-05-25 01:34:37		0	0	0	0	0	0	2.19	4.52	0.04	95857	0	3391	66741	95857	95857	4336	65	655	76	82834	3787775	5132
45	2018-05-25 01:44:37		0	0	0	0	0	0	2.2	4.52	0.04	96267	0	3402	67309	96267	96438	4354	66	657	76	83351	3787777	5153
46	2018-05-25 01:54:40		0	0	0	0	0	0	2.21	4.51	0.04	96771	0	3411	67485	96771	96771	4367	66	661	77	83638	3787786	5171
47	2018-05-25 02:04:38		0	0	0	0	0	0	2.21	4.51	0.04	96901	0	3415	67625	96901	96901	4374	66	661	77	83743	3787791	5178
48	2018-05-25 02:14:37		0	0	0	0	0	0	2.22	4.51	0.04	97167	0	3420	67750	97167	97167	4385	66	661	77	83975	3787795	5189
49	2018-05-25 02:24:37		0	0	0	0	0	0	2.23	4.51	0.04	97582	0	3426	67955	97582	97468	4397	66	661	77	84307	3787804	5201
50	2018-05-25 02:34:38		0	0	0	0	0	0	2.23	4.5	0.04	97702	0	3431	68116	97702	97702	4400	66	663	77	84417	3787806	5206
51	2018-05-25 02:44:38		0	0	0	0	0	0	2.24	4.5	0.04	98021	0	3431	68442	98021	97927	4410	66	664	77	84704	3787808	5217
52	2018-05-25 02:54:39		0	0	0	0	0	0	2.24	4.5	0.04	98197	0	3440	68445	98197	98197	4415	66	664	78	84855	3787814	5223
53	2018-05-25 03:04:40		0	0	0	0	0	0	2.24	4.49	0.03	98390	0	3442	68596	98390	98390	4416	66	667	79	85014	3787812	5228
54	2018-05-25 03:14:40		0	0	0	0	0	0	2.25	4.49	0.03	98527	0	3443	68767	98527	98527	4421	66	669	80	85130	3787812	5236
55	2018-05-25 03:24:40		0	0	0	0	0	0	2.25	4.49	0.03	98583	0	3447	68803	98583	98583	4425	66	669	80	85178	3787814	5240
56	2018-05-25 03:34:41		0	0	0	0	0	0	2.25	4.48	0.03	98714	0	3449	68833	98714	98714	4426	66	670	80	85349	3787818	5242
57	2018-05-25 03:44:42		0	0	0	0	0	0	2.26	4.49	0.03	98828	0	3457	68833	98828	98828	4433	66	671	80	85419	3787820	5250
58	2018-05-25 03:54:42		0	0	0	0	0	0	2.26	4.48	0.04	98927	0	3463	68967	98927	98927	4435	66	671	80	85453	3787821	5252
59	2018-05-25 04:04:43		0	0	0	0	0	0	2.26	4.48	0.03	99025	0	3464	69007	99025	99025	4437	66	671	80	85540	3787824	5254
60	2018-05-25 04:14:43		0	0	0	0	0	0	2.26	4.48	0.04	99115	0	3471	69081	99115	99115	4442	66	672	80	85610	3787822	5260
61	2018-05-25 04:24:44		0	0	0	0	0	0	2.26	4.48	0.04	99186	0	3473	69304	99186	99186	4444	66	672	80	85670	3787824	5262
62	2018-05-25 04:34:45		0	0	0	0	0	0	2.26	4.48	0.04	99285	0	3476	69338	99285	99285	4447	66	673	80	85749	3787823	5266
63	2018-05-25 04:44:44		0	0	0	0	0	0	2.27	4.48	0.04	99414	0	3481	69388	99414	99371	4452	66	674	80	85854	3787822	5272
64	2018-05-25 04:54:45		0	0	0	0	0	0	2.27	4.48	0.04	99475	0	3485	69438	99475	99475	4456	66	674	80	85911	3787822	5276
65	2018-05-25 05:04:46		0	0	0	0	0	0	2.27	4.48	0.04	99566	0	3486	69750	99566	99566	4464	66	674	80	85995	3787821	5284
66	2018-05-25 05:14:47		0	0	0	0	0	0	2.27	4.48	0.04	99740	0	3493	69851	99740	99676	4466	66	675	80	86153	3787823	5287
67	2018-05-25 05:24:51		0	0	0	0	0	0	2.28	4.48	0.04	99792	0	3495	69927	99792	99792	4466	66	677	80	86205	3787822	5289
68	2018-05-25 05:34:49		0	0	0	0	0	0	2.28	4.47	0.04	99919	0	3504	70022	99919	99919	4469	66	678	80	86309	3787824	5293
69	2018-05-25 05:44:48		0	0	0	0	0	0	2.28	4.47	0.04	100091	0	3507	70136	100091	100091	4474	66	680	80	86450	3787825	5300
70	2018-05-25 05:54:48		0	0	0	0	0	0	2.29	4.47	0.04	100264	0	3510	70323	100264	100264	4482	66	680	81	86597	3787827	5309
71	2018-05-25 06:04:49		0	0	0	0	0	0	2.29	4.47	0.04	100459	0	3517	70470	100459	100459	4491	66	683	81	86768	3787830	5321
72	2018-05-25 06:14:49		0	0	0	0	0	0	2.3	4.47	0.04	100650	0	3528	70515	100650	100650	4504	66	687	81	86933	3787842	5338
73	2018-05-25 06:24:55		0	0	0	0	0	0	2.3	4.47	0.03	100937	0	3531	70734	100937	100937	4509	66	688	81	87190	3787843	5344
74	2018-05-25 06:34:50		0	0	0	0	0	0	2.31	4.46	0.03	101225	0	3536	70851	101225	101225	4515	67	690	81	87453	3787846	5353
75	2018-05-25 06:44:51		0	0	0	0	0	0	2.32	4.46	0.03	101521	0	3547	71366	101521	101521	4532	67	691	82	87716	3787850	5372
76	2018-05-25 06:54:51		0	0	0	0	0	0	2.33	4.45	0.03	102053	0	3552	71406	102053	101856	4541	67	692	82	88183	3787855	5382
77	2018-05-25 07:04:54		0	0	0	0	0	0	2.33	4.47	0.03	102243	0	3568	71603	102243	102243	4569	67	694	82	88350	3787863	5412
78	2018-05-25 07:14:54		0	0	0	0	0	0	2.34	4.46	0.03	102648	0	3587	71842	102648	102648	4577	67	697	82	88688	3787868	5423
79	2018-05-25 07:24:54		0	0	0	0	0	0	2.35	4.46	0.03	103182	0	3592	72273	103182	103182	4603	67	703	83	89172	3787875	5456
80	2018-05-25 07:34:55		0	0	0	0	0	0	2.37	4.47	0.03	103784	0	3616	72613	103784	103784	4635	67	707	83	89715	3787893	5492
81	2018-05-25 07:44:55		0	0	0	0	0	0	2.38	4.47	0.03	104375	0	3632	72930	104375	104375	4661	67	711	83	90232	3787893	5522
82	2018-05-25 07:54:54		0	0	0	0	0	0	2.39	4.47	0.03	104884	0	3636	73237	104884	104884	4684	67	714	83	90674	3787899	5548
83	2018-05-25 08:04:56		0	0	0	0	0	0	2.41	4.47	0.03	105470	0	3653	73543	105470	105470	4710	67	717	83	91198	3787910	5577
84	2018-05-25 08:14:56		0	0	0	0	0	0	2.42	4.47	0.03	106079	0	3681	73655	106079	106079	4743	69	720	84	91725	3787921	5616
85	2018-05-25 08:24:56		0	0	0	0	0	0	2.44	4.46	0.03	106711	0	3705	74274	106711	106711	4758	69	725	84	92262	3787932	5636
86	2018-05-25 08:34:57		0	0	0	0	0	0	2.45	4.46	0.03	107356	0	3716	74549	107356	107356	4791	69	730	85	92827	3787950	5675
87	2018-05-25 08:44:57		0	0	0	0	0	0	2.46	4.47	0.03	107979	0	3732	74965	107979	107979	4825	69	737	85	93357	3787959	5716
88	2018-05-25 08:54:58		0	0	0	0	0	0	2.48	4.47	0.03	108691	0	3757	75102	108691	108691	4858	69	739	85	93971	3787976	5751
89	2018-05-25 09:05:00		0	0	0	0	0	0	2.51	4.47	0.03	109981	0	3785	75890	109981	109981	4913	69	748	85	95108	3787984	5815
90	2018-05-25 09:15:00		0	0	0	0	0	0	2.56	4.49	0.03	111906	0	3805	77499	111906	111906	5019	70	762	85	96870	3788010	5936
91	2018-05-25 10:21:56		0	0	0	0	0	0	2.83	4.52	0.03	123167	0	3970	85842	123167	123167	5563	71	824	88	107173	3788098	6546
92	2018-05-25 10:31:57		0	0	0	0	0	0	2.85	4.52	0.03	124048	0	3979	86344	124048	124048	5609	71	828	88	107988	3788105	6596
93	2018-05-25 10:41:58		0	0	0	0	0	0	2.87	4.52	0.03	124827	0	3994	87034	124827	124827	5637	71	832	88	108696	3788118	6628
94	2018-05-25 10:52:01		0	0	0	0	0	0	2.89	4.52	0.03	125614	0	4009	88234	125614	125614	5679	71	838	88	109435	3788130	6676
95	2018-05-25 11:01:59		0	0	0	0	0	0	2.91	4.52	0.03	126505	0	4040	88868	126505	126505	5721	71	842	88	110260	3788144	6722
96	2018-05-25 11:11:58		0	0	0	0	0	0	2.93	4.52	0.03	127276	0	4065	89557	127276	127276	5754	71	846	88	110972	3788155	6759
97	2018-05-25 11:21:59		0	0	0	0	0	0	2.94	4.52	0.03	127926	0	4077	90172	127926	127926	5786	71	849	88	111560	3788171	6794
98	2018-05-25 11:32:00		0	0	0	0	0	0	2.96	4.52	0.03	128441	0	4104	90470	128441	128441	5804	71	852	88	112020	3788188	6815
99	2018-05-25 11:42:00		0	0	0	0	0	0	2.97	4.52	0.03	128931	0	4125	90756	128931	128931	5830	71	854	88	112456	3788193	6843
100	2018-05-25 11:52:02		0	0	0	0	0	0	2.98	4.52	0.03	129313	0	4136	91164	129313	129313	5845	71	857	88	112806	3788204	6861
101	2018-05-25 12:02:05		0	0	0	0	0	0	2.99	4.52	0.03	129759	0	4145	91336	129759	129759	5867	71	859	88	113202	3788217	6885
102	2018-05-25 12:12:11		0	0	0	0	0	0	3	4.52	0.03	130142	0	4154	91441	130142	130142	5884	71	859	88	113548	3788238	6902
103	2018-05-25 12:22:05		0	0	0	0	0	0	3.01	4.52	0.03	130547	0	4170	91565	130547	130547	5895	71	863	88	113906	3788251	6917
104	2018-05-25 12:32:04		0	0	0	0	0	0	3.02	4.52	0.03	130927	0	4179	91946	130927	130927	5913	71	864	88	114245	3788267	6936
105	2018-05-25 12:42:04		0	0	0	0	0	0	3.03	4.51	0.03	131339	0	4192	92061	131339	131339	5929	71	867	88	114604	3788279	6955
106	2018-05-25 12:52:05		0	0	0	0	0	0	3.03	4.51	0.03	131694	0	4205	92137	131694	131694	5943	71	869	88	114922	3788289	6971
107	2018-05-25 13:02:06		0	0	0	0	0	0	3.04	4.51	0.03	132045	0	4211	92291	132045	132045	5953	73	872	88	115236	3788306	6986
108	2018-05-25 13:12:06		0	0	0	0	0	0	3.05	4.51	0.03	132389	0	4219	92523	132389	132389	5967	73	873	88	115541	3788322	7001
109	2018-05-25 13:22:07		0	0	0	0	0	0	3.06	4.5	0.03	132792	0	4236	92600	132792	132792	5978	73	873	88	115896	3788335	7012
110	2018-05-25 13:32:17		0	0	0	0	0	0	3.07	4.5	0.03	133185	0	4249	92923	133185	133185	5991	73	875	88	116249	3788343	7027
111	2018-05-25 13:42:16		0	0	0	0	0	0	3.08	4.49	0.03	133574	0	4260	93055	133574	133574	6003	73	880	88	116607	3788357	7044
112	2018-05-25 13:52:21		0	0	0	0	0	0	3.09	4.49	0.03	133998	0	4270	93251	133998	133998	6020	73	881	88	116998	3788369	7062
113	2018-05-25 14:02:15		0	0	0	0	0	0	3.1	4.49	0.03	134414	0	4283	93482	134414	134414	6030	74	882	88	117373	3788381	7074
114	2018-05-25 14:12:15		0	0	0	0	0	0	3.11	4.48	0.03	134808	0	4303	93708	134808	134808	6045	75	885	88	117729	3788390	7093
115	2018-05-25 14:22:14		0	0	0	0	0	0	3.12	4.48	0.03	135374	0	4319	94136	135374	135374	6066	76	889	89	118240	3788402	7120
116	2018-05-25 14:32:14		0	0	0	0	0	0	3.14	4.48	0.03	136064	0	4335	94602	136064	136064	6094	77	892	89	118882	3788413	7152
117	2018-05-25 14:42:15		0	0	0	0	0	0	3.16	4.47	0.03	136760	0	4352	94935	136760	136760	6118	77	893	89	119533	3788421	7177
118	2018-05-25 14:52:24		0	0	0	0	0	0	3.18	4.47	0.03	137579	0	4371	95683	137579	137579	6144	77	896	89	120291	3788438	7206
119	2018-05-25 15:02:18		0	0	0	0	0	0	3.19	4.47	0.03	138311	0	4385	96224	138311	138311	6177	77	898	89	120974	3788454	7241
120	2018-05-25 15:12:17		0	0	0	0	0	0	3.21	4.46	0.03	138956	0	4403	96832	138956	138956	6194	77	900	89	121574	3788469	7260
121	2018-05-25 15:22:18		0	0	0	0	0	0	3.23	4.46	0.03	139677	0	4419	97446	139677	139677	6227	77	903	89	122241	3788480	7296
122	2018-05-25 15:32:18		0	0	0	0	0	0	3.24	4.45	0.03	140400	0	4433	97924	140400	140400	6249	78	909	90	122911	3788488	7326
123	2018-05-25 15:42:19		0	0	0	0	0	0	3.26	4.44	0.03	141139	0	4452	98372	141139	141139	6269	78	913	90	123599	3788495	7350
124	2018-05-25 15:52:20		0	0	0	0	0	0	3.28	4.44	0.03	141890	0	4472	98698	141890	141890	6305	78	917	91	124294	3788505	7391
125	2018-05-25 16:02:32		0	0	0	0	0	0	3.3	4.44	0.03	142672	0	4489	99596	142672	142672	6333	78	921	92	125013	3788520	7424
126	2018-05-25 16:12:21		0	0	0	0	0	0	3.32	4.44	0.03	143434	0	4515	99834	143434	143434	6366	79	922	92	125710	3788526	7459
127	2018-05-25 16:22:23		0	0	0	0	0	0	3.34	4.44	0.03	144125	0	4538	100154	144125	144125	6392	79	925	92	126348	3788540	7488
128	2018-05-25 16:32:23		0	0	0	0	0	0	3.35	4.43	0.03	144855	0	4555	100541	144855	144855	6413	79	930	92	127023	3788546	7514
129	2018-05-25 16:42:23		0	0	0	0	0	0	3.37	4.42	0.03	145467	0	4581	101277	145467	145467	6431	79	931	92	127578	3788556	7533
130	2018-05-25 16:52:24		0	0	0	0	0	0	3.38	4.42	0.03	146121	0	4599	102264	146121	146121	6457	79	933	92	128188	3788562	7561
131	2018-05-25 17:02:25		0	0	0	0	0	0	3.4	4.42	0.03	146732	0	4615	102916	146732	146732	6482	79	938	92	128747	3788567	7591
132	2018-05-25 17:12:25		0	0	0	0	0	0	3.41	4.41	0.03	147277	0	4629	103423	147277	147277	6494	79	941	92	129248	3788574	7606
133	2018-05-25 17:22:25		0	0	0	0	0	0	3.42	4.4	0.03	147827	0	4642	103878	147827	147827	6508	80	942	92	129752	3788584	7622
134	2018-05-25 17:32:26		0	0	0	0	0	0	3.44	4.4	0.03	148371	0	4650	104647	148371	148371	6527	79	945	92	130263	3788591	7643
135	2018-05-25 17:42:26		0	0	0	0	0	0	3.45	4.39	0.03	148943	0	4660	105296	148943	148943	6546	79	946	92	130791	3788602	7663
136	2018-05-25 17:52:27		0	0	0	0	0	0	3.47	4.39	0.03	149531	0	4670	105562	149531	149531	6565	79	950	93	131323	3788611	7687
137	2018-05-25 18:02:28		0	0	0	0	0	0	3.48	4.38	0.03	150114	0	4690	105706	150114	150114	6581	81	954	93	131869	3788616	7709
138	2018-05-25 18:12:28		0	0	0	0	0	0	3.49	4.38	0.03	150633	0	4716	106023	150633	150633	6602	82	955	93	132340	3788632	7732
139	2018-05-25 18:22:41		0	0	0	0	0	0	3.51	4.38	0.03	151194	0	4733	106293	151194	151194	6625	82	957	94	132860	3788636	7758
140	2018-05-25 18:32:43		0	0	0	0	0	0	3.52	4.38	0.03	151663	0	4748	106872	151663	151663	6646	82	958	94	133292	3788640	7780
141	2018-05-25 18:42:31		0	0	0	0	0	0	3.53	4.38	0.03	152088	0	4763	107228	152088	152088	6659	82	959	94	133678	3788653	7794
142	2018-05-25 18:52:32		0	0	0	0	0	0	3.54	4.37	0.03	152420	0	4777	107451	152420	152420	6664	82	959	95	133983	3788663	7800
143	2018-05-25 19:02:33		0	0	0	0	0	0	3.54	4.37	0.03	152781	0	4796	107720	152781	152781	6682	82	962	95	134298	3788690	7821
144	2018-05-25 19:12:34		0	0	0	0	0	0	3.55	4.37	0.03	153098	0	4808	108006	153098	153098	6693	82	966	95	134579	3788702	7836
145	2018-05-25 19:22:34		0	0	0	0	0	0	3.56	4.37	0.03	153413	0	4822	108232	153413	153413	6704	82	966	95	134865	3788714	7847
146	2018-05-25 19:32:35		0	0	0	0	0	0	3.57	4.37	0.03	153683	0	4834	108429	153683	153683	6715	82	967	95	135088	3788731	7859
147	2018-05-25 19:42:35		0	0	0	0	0	0	3.57	4.37	0.03	154016	0	4850	108772	154016	154016	6733	82	969	95	135379	3788751	7879
148	2018-05-25 19:52:37		0	0	0	0	0	0	3.58	4.37	0.03	154338	0	4867	108787	154338	154338	6745	82	972	95	135670	3788770	7894
149	2018-05-25 20:02:41		0	0	0	0	0	0	3.59	4.37	0.03	154665	0	4879	108833	154665	154665	6755	82	974	95	135955	3788790	7906
150	2018-05-25 20:12:38		0	0	0	0	0	0	3.59	4.36	0.03	154926	0	4887	109048	154926	154926	6761	82	975	95	136187	3788798	7913
151	2018-05-25 20:22:38		0	0	0	0	0	0	3.6	4.36	0.03	155213	0	4905	109171	155213	155213	6775	82	976	95	136439	3788813	7928
152	2018-05-25 20:32:39		0	0	0	0	0	0	3.61	4.36	0.03	155479	0	4916	109418	155479	155479	6785	82	976	95	136670	3788827	7938
153	2018-05-25 20:42:41		0	0	0	0	0	0	3.61	4.36	0.03	155788	0	4935	109666	155788	155788	6798	82	977	95	136939	3788849	7952
154	2018-05-25 20:52:41		0	0	0	0	0	0	3.62	4.36	0.03	156065	0	4948	110040	156065	156065	6804	82	979	95	137178	3788867	7960
155	2018-05-25 21:02:43		0	0	0	0	0	0	3.63	4.36	0.03	156323	0	4959	110102	156323	156323	6817	82	981	95	137414	3788878	7975
156	2018-05-25 21:12:43		0	0	0	0	0	0	3.63	4.36	0.03	156575	0	4967	110511	156575	156575	6826	82	981	95	137646	3788902	7984
157	2018-05-25 21:22:46		0	0	0	0	0	0	3.64	4.36	0.03	156820	0	4968	110810	156820	156820	6830	82	984	96	137875	3788934	7992
158	2018-05-25 21:32:47		0	0	0	0	0	0	3.65	4.35	0.03	157132	0	4979	111123	157132	157132	6838	82	984	96	138158	3788967	8000
159	2018-05-25 21:42:47		0	0	0	0	0	0	3.65	4.35	0.03	157416	0	4999	111378	157416	157416	6847	82	985	96	138410	3788985	8010
160	2018-05-25 21:52:45		0	0	0	0	0	0	3.66	4.35	0.03	157699	0	5011	111760	157699	157699	6858	82	986	96	138667	3789005	8022
161	2018-05-25 22:02:46		0	0	0	0	0	0	3.67	4.35	0.03	157989	0	5029	112059	157989	157989	6870	82	988	96	138918	3789025	8036
162	2018-05-25 22:12:51		0	0	0	0	0	0	3.67	4.35	0.03	158263	0	5046	112376	158263	158263	6883	82	989	96	139161	3789052	8050
163	2018-05-25 22:22:47		0	0	0	0	0	0	3.68	4.35	0.03	158565	0	5066	112539	158565	158565	6893	82	989	96	139426	3789068	8060
164	2018-05-25 22:32:47		0	0	0	0	0	0	3.69	4.34	0.03	158873	0	5084	112753	158873	158873	6901	82	990	96	139696	3789088	8069
165	2018-05-25 22:42:48		0	0	0	0	0	0	3.69	4.34	0.03	159131	0	5098	113065	159131	159131	6909	82	990	96	139918	3789116	8077
166	2018-05-25 22:52:48		0	0	0	0	0	0	3.7	4.34	0.03	159384	0	5111	113099	159384	159384	6919	82	993	96	140129	3789147	8090
167	2018-05-25 23:02:49		0	0	0	0	0	0	3.7	4.34	0.03	159675	0	5129	113189	159675	159675	6927	83	994	96	140371	3789170	8100
168	2018-05-25 23:12:50		0	0	0	0	0	0	3.71	4.34	0.03	159923	0	5138	113297	159923	159923	6935	85	996	96	140591	3789193	8112
169	2018-05-25 23:22:49		0	0	0	0	0	0	3.72	4.34	0.03	160220	0	5156	113809	160220	160220	6949	85	997	96	140844	3789223	8127
170	2018-05-25 23:32:50		0	0	0	0	0	0	3.72	4.34	0.03	160459	0	5172	113935	160459	160459	6960	85	997	96	141052	3789254	8138
171	2018-05-25 23:42:51		0	0	0	0	0	0	3.73	4.34	0.03	160683	0	5183	113935	160683	160683	6971	85	1002	96	141239	3789280	8154
172	2018-05-25 23:52:53		0	0	0	0	0	0	3.73	4.33	0.03	160923	0	5198	114372	160923	160923	6973	85	1003	97	141445	3789308	8158
173	2018-05-26 00:02:54		0	0	0	0	0	0	3.74	4.33	0.03	161120	0	5205	114813	161120	161120	6981	85	1004	97	141626	3789331	8167
174	2018-05-26 00:12:52		0	0	0	0	0	0	3.74	4.33	0.03	161323	0	5221	115150	161323	161323	6988	85	1004	98	141807	3789362	8175
175	2018-05-26 00:22:53		0	0	0	0	0	0	3.75	4.33	0.03	161509	0	5229	115287	161509	161509	6996	85	1005	98	141970	3789391	8184
176	2018-05-26 00:32:53		0	0	0	0	0	0	3.75	4.33	0.03	161686	0	5235	115356	161686	161686	7000	85	1005	98	142132	3789406	8188
177	2018-05-26 00:42:53		0	0	0	0	0	0	3.76	4.33	0.03	161876	0	5241	115365	161876	161876	7006	85	1005	98	142295	3789424	8194
178	2018-05-26 00:52:54		0	0	0	0	0	0	3.76	4.33	0.03	162026	0	5245	115638	162026	162026	7008	87	1006	98	142431	3789448	8199
179	2018-05-26 01:02:55		0	0	0	0	0	0	3.76	4.32	0.03	162159	0	5248	115638	162159	162159	7012	87	1006	98	142543	3789468	8203
180	2018-05-26 01:12:55		0	0	0	0	0	0	3.76	4.32	0.03	162290	0	5255	115872	162290	162290	7019	87	1006	98	142660	3789483	8210
181	2018-05-26 01:22:56		0	0	0	0	0	0	3.77	4.33	0.03	162398	0	5261	116141	162398	162398	7024	87	1009	98	142756	3789494	8218
182	2018-05-26 01:32:56		0	0	0	0	0	0	3.77	4.32	0.03	162487	0	5267	116141	162487	162487	7027	87	1011	98	142828	3789505	8223
183	2018-05-26 01:42:57		0	0	0	0	0	0	3.77	4.32	0.03	162590	0	5273	116141	162590	162590	7032	87	1013	98	142917	3789526	8230
184	2018-05-26 01:52:57		0	0	0	0	0	0	3.77	4.32	0.03	162682	0	5275	116259	162682	162682	7034	87	1014	98	142999	3789543	8233
185	2018-05-26 02:02:58		0	0	0	0	0	0	3.78	4.32	0.03	162745	0	5277	116259	162745	162745	7038	87	1014	98	143057	3789557	8237
186	2018-05-26 02:12:58		0	0	0	0	0	0	3.78	4.32	0.03	162827	0	5278	116259	162827	162827	7041	87	1015	98	143131	3789560	8241
187	2018-05-26 02:22:58		0	0	0	0	0	0	3.78	4.32	0.03	162878	0	5279	116259	162878	162878	7043	87	1015	98	143178	3789567	8243
188	2018-05-26 02:32:59		0	0	0	0	0	0	3.78	4.32	0.03	162923	0	5282	116259	162923	162923	7045	87	1015	98	143218	3789579	8245
189	2018-05-26 02:43:00		0	0	0	0	0	0	3.78	4.32	0.03	162975	0	5283	116294	162975	162975	7045	87	1015	98	143265	3789582	8245
190	2018-05-26 02:53:00		0	0	0	0	0	0	3.78	4.32	0.03	163012	0	5283	116399	163012	163012	7047	87	1015	98	143299	3789592	8247
191	2018-05-26 03:03:01		0	0	0	0	0	0	3.78	4.32	0.03	163050	0	5286	116451	163050	163050	7050	87	1016	98	143329	3789592	8251
192	2018-05-26 03:13:04		0	0	0	0	0	0	3.78	4.33	0.03	163090	0	5286	116451	163090	163090	7054	87	1016	98	143363	3789599	8255
193	2018-05-26 03:23:03		0	0	0	0	0	0	3.78	4.33	0.03	163122	0	5287	116451	163122	163122	7056	87	1016	98	143393	3789608	8257
194	2018-05-26 03:33:05		0	0	0	0	0	0	3.78	4.33	0.03	163158	0	5289	116451	163158	163158	7059	87	1016	98	143407	3789611	8260
195	2018-05-26 03:43:03		0	0	0	0	0	0	3.79	4.33	0.03	163203	0	5289	116451	163203	163203	7061	87	1016	98	143467	3789609	8262
196	2018-05-26 03:53:03		0	0	0	0	0	0	3.79	4.33	0.03	163249	0	5291	116451	163249	163249	7064	87	1016	98	143510	3789615	8265
197	2018-05-26 04:03:04		0	0	0	0	0	0	3.79	4.33	0.03	163287	0	5295	116469	163287	163287	7065	87	1016	98	143547	3789617	8266
198	2018-05-26 04:13:04		0	0	0	0	0	0	3.79	4.33	0.03	163326	0	5296	116469	163326	163326	7067	87	1016	98	143585	3789621	8268
199	2018-05-26 04:23:05		0	0	0	0	0	0	3.79	4.33	0.03	163355	0	5299	116469	163355	163355	7068	87	1016	98	143610	3789625	8269
200	2018-05-26 04:33:05		0	0	0	0	0	0	3.79	4.33	0.03	163379	0	5300	116469	163379	163379	7069	87	1016	98	143632	3789625	8270
201	2018-05-26 04:43:06		0	0	0	0	0	0	3.79	4.33	0.03	163409	0	5301	116469	163409	163409	7070	87	1016	98	143655	3789630	8271
202	2018-05-26 04:53:06		0	0	0	0	0	0	3.79	4.33	0.03	163436	0	5302	116605	163436	163436	7073	87	1016	98	143680	3789636	8274
203	2018-05-26 05:03:08		0	0	0	0	0	0	3.79	4.33	0.03	163465	0	5302	116605	163465	163465	7075	87	1016	98	143706	3789640	8276
204	2018-05-26 05:13:08		0	0	0	0	0	0	3.79	4.33	0.03	163494	0	5303	116605	163494	163494	7075	87	1016	98	143733	3789647	8276
205	2018-05-26 05:23:10		0	0	0	0	0	0	3.79	4.33	0.03	163517	0	5303	116605	163517	163517	7076	87	1016	98	143756	3789654	8277
206	2018-05-26 05:33:10		0	0	0	0	0	0	3.79	4.33	0.03	163549	0	5304	116605	163549	163549	7077	87	1016	98	143785	3789662	8278
207	2018-05-26 05:43:10		0	0	0	0	0	0	3.79	4.33	0.03	163576	0	5307	116605	163576	163576	7078	87	1016	98	143808	3789670	8279
208	2018-05-26 05:53:10		0	0	0	0	0	0	3.8	4.33	0.03	163605	0	5312	116605	163605	163605	7079	87	1016	98	143831	3789676	8280
209	2018-05-26 06:03:11		0	0	0	0	0	0	3.8	4.33	0.03	163641	0	5318	116605	163641	163641	7082	87	1016	98	143861	3789682	8283
210	2018-05-26 06:13:11		0	0	0	0	0	0	3.8	4.33	0.03	163700	0	5319	116858	163700	163700	7085	87	1016	98	143911	3789682	8286
211	2018-05-26 06:23:11		0	0	0	0	0	0	3.8	4.33	0.03	163745	0	5326	116858	163745	163745	7086	87	1016	98	143948	3789694	8287
212	2018-05-26 06:33:12		0	0	0	0	0	0	3.8	4.33	0.03	163797	0	5327	116858	163797	163797	7089	87	1016	98	143998	3789707	8290
213	2018-05-26 06:43:13		0	0	0	0	0	0	3.8	4.33	0.03	163864	0	5328	116858	163864	163864	7092	87	1016	98	144059	3789720	8293
214	2018-05-26 06:53:13		0	0	0	0	0	0	3.8	4.33	0.03	163931	0	5330	116858	163931	163931	7098	87	1016	98	144122	3789733	8299
215	2018-05-26 07:03:17		0	0	0	0	0	0	3.8	4.33	0.03	164021	0	5338	116858	164021	164021	7101	87	1017	98	144196	3789744	8303
216	2018-05-26 07:13:17		0	0	0	0	0	0	3.81	4.33	0.03	164105	0	5341	116858	164105	164105	7104	87	1017	98	144269	3789771	8306
217	2018-05-26 07:23:18		0	0	0	0	0	0	3.81	4.33	0.03	164236	0	5344	116858	164236	164236	7108	87	1017	98	144389	3789781	8310
218	2018-05-26 07:33:17		0	0	0	0	0	0	3.81	4.33	0.03	164357	0	5346	116955	164357	164357	7111	87	1017	98	144494	3789796	8313
219	2018-05-26 07:43:17		0	0	0	0	0	0	3.82	4.32	0.03	164475	0	5346	116955	164475	164475	7112	87	1019	98	144601	3789821	8316
220	2018-05-26 07:53:18		0	0	0	0	0	0	3.82	4.32	0.03	164625	0	5354	116955	164625	164625	7117	87	1020	98	144733	3789841	8322
221	2018-05-26 08:03:18		0	0	0	0	0	0	3.82	4.32	0.03	164746	0	5360	116955	164746	164746	7122	87	1021	98	144837	3789863	8328
222	2018-05-26 08:13:18		0	0	0	0	0	0	3.83	4.33	0.03	164895	0	5361	117079	164895	164895	7133	87	1022	98	144974	3789881	8340
223	2018-05-26 08:23:19		0	0	0	0	0	0	3.83	4.33	0.03	165073	0	5366	117079	165073	165073	7141	87	1023	98	145131	3789914	8349
224	2018-05-26 08:33:19		0	0	0	0	0	0	3.83	4.33	0.03	165249	0	5375	117595	165249	165249	7149	88	1023	98	145282	3789942	8358
225	2018-05-26 08:43:20		0	0	0	0	0	0	3.84	4.33	0.03	165423	0	5386	118025	165423	165423	7155	88	1024	98	145432	3789975	8365
226	2018-05-26 08:53:21		0	0	0	0	0	0	3.84	4.32	0.03	165581	0	5392	118025	165581	165581	7161	88	1024	98	145567	3790006	8371
227	2018-05-26 09:03:27		0	0	0	0	0	0	3.85	4.33	0.03	165784	0	5398	118124	165784	165784	7172	88	1024	98	145755	3790034	8382
228	2018-05-26 09:13:22		0	0	0	0	0	0	3.85	4.33	0.03	165991	0	5406	118440	165991	165991	7184	88	1024	98	145933	3790072	8394
229	2018-05-26 09:23:34		0	0	0	0	0	0	3.85	4.32	0.03	166240	0	5503	118758	166240	166240	7188	89	1025	98	146097	3790114	8400
230	2018-05-26 09:33:24		0	0	0	0	0	0	3.86	4.32	0.03	166588	0	5680	119349	166588	166588	7204	89	1025	98	146293	3790159	8416
231	2018-05-26 09:43:25		0	0	0	0	0	0	3.86	4.32	0.03	166872	0	5805	119704	166872	166872	7214	89	1026	98	146459	3790199	8427
232	2018-05-26 09:53:26		0	0	0	0	0	0	3.87	4.32	0.04	167123	0	5915	119741	167123	167123	7219	89	1026	98	146604	3790256	8432
233	2018-05-26 10:03:25		0	0	0	0	0	0	3.87	4.32	0.04	167342	0	6001	119852	167342	167342	7226	89	1026	98	146736	3790292	8439
234	2018-05-26 10:13:26		0	0	0	0	0	0	3.87	4.32	0.04	167557	0	6099	120459	167557	167557	7231	89	1027	98	146874	3790329	8445
235	2018-05-26 10:23:26		0	0	0	0	0	0	3.88	4.31	0.04	167748	0	6179	120487	167748	167748	7233	89	1027	98	146989	3790368	8447
236	2018-05-26 10:33:27		0	0	0	0	0	0	3.88	4.31	0.04	167913	0	6240	120656	167913	167913	7234	89	1027	98	147092	3790406	8448
237	2018-05-26 10:43:27		0	0	0	0	0	0	3.88	4.31	0.04	168075	0	6304	120976	168075	168075	7236	89	1027	98	147186	3790442	8450
238	2018-05-26 10:53:28		0	0	0	0	0	0	3.89	4.3	0.04	168224	0	6354	120981	168224	168224	7238	90	1027	98	147281	3790485	8453
239	2018-05-26 11:03:30		0	0	0	0	0	0	3.89	4.3	0.04	168372	0	6409	121130	168372	168372	7247	90	1028	98	147370	3790515	8463
240	2018-05-26 11:13:31		0	0	0	0	0	0	3.89	4.31	0.04	168525	0	6469	121282	168525	168525	7256	90	1029	98	147455	3790562	8473
241	2018-05-26 11:23:30		0	0	0	0	0	0	3.89	4.31	0.04	168642	0	6514	121396	168642	168642	7261	90	1029	98	147535	3790607	8478
242	2018-05-26 11:33:33		0	0	0	0	0	0	3.89	4.3	0.04	168764	0	6568	121510	168764	168764	7264	90	1029	98	147610	3790650	8481
243	2018-05-26 11:43:31		0	0	0	0	0	0	3.9	4.3	0.04	168889	0	6611	121510	168889	168889	7268	90	1029	98	147693	3790687	8485
244	2018-05-26 11:53:33		0	0	0	0	0	0	3.9	4.3	0.04	169023	0	6670	121510	169023	169023	7270	90	1029	98	147773	3790715	8487
245	2018-05-26 12:03:33		0	0	0	0	0	0	3.9	4.3	0.04	169159	0	6727	121525	169159	169159	7276	90	1029	98	147863	3790758	8493
246	2018-05-26 12:13:32		0	0	0	0	0	0	3.9	4.3	0.04	169283	0	6774	121525	169283	169283	7280	90	1030	98	147937	3790796	8498
247	2018-05-26 12:23:33		0	0	0	0	0	0	3.9	4.3	0.04	169437	0	6844	121725	169437	169437	7286	90	1030	98	148029	3790847	8504
248	2018-05-26 12:33:34		0	0	0	0	0	0	3.91	4.3	0.04	169578	0	6890	121764	169578	169578	7290	90	1030	98	148127	3790878	8508
249	2018-05-26 12:43:35		0	0	0	0	0	0	3.91	4.3	0.04	169699	0	6938	121946	169699	169699	7295	90	1030	98	148200	3790918	8513
250	2018-05-26 12:53:35		0	0	0	0	0	0	3.91	4.3	0.04	169833	0	6998	122133	169833	169833	7299	90	1030	98	148284	3790963	8517
251	2018-05-26 13:03:41		0	0	0	0	0	0	3.91	4.3	0.04	169946	0	7056	122206	169946	169946	7303	90	1030	98	148348	3791007	8521
252	2018-05-26 13:13:37		0	0	0	0	0	0	3.92	4.3	0.04	170077	0	7113	122322	170077	170077	7307	90	1030	98	148425	3791049	8525
253	2018-05-26 13:33:40		0	0	0	0	0	0	3.92	4.29	0.04	170350	0	7229	122590	170350	170350	7314	91	1031	98	148591	3791124	8534
254	2018-05-26 13:43:41		0	0	0	0	0	0	3.92	4.29	0.04	170466	0	7288	122649	170466	170466	7314	91	1031	98	148651	3791157	8534
255	2018-05-26 13:53:39		0	0	0	0	0	0	3.92	4.29	0.04	170566	0	7328	122746	170566	170566	7316	91	1031	98	148712	3791183	8536
256	2018-05-26 14:03:39		0	0	0	0	0	0	3.92	4.29	0.04	170690	0	7383	122760	170690	170690	7322	91	1031	98	148785	3791214	8542
257	2018-05-26 14:13:40		0	0	0	0	0	0	3.93	4.29	0.04	170791	0	7414	122760	170791	170791	7325	91	1031	98	148860	3791236	8545
258	2018-05-26 14:23:43		0	0	0	0	0	0	3.93	4.29	0.04	170830	0	7431	122760	170830	170830	7326	91	1032	98	148885	3791280	8547
259	2018-05-26 14:33:41		0	0	0	0	0	0	3.93	4.29	0.04	170953	0	7484	122780	170953	170953	7333	91	1032	98	148962	3791308	8554
260	2018-05-26 14:43:45		0	0	0	0	0	0	3.93	4.29	0.04	171157	0	7561	123018	171157	171157	7338	91	1032	98	149095	3791335	8559
261	2018-05-26 14:53:42		0	0	0	0	0	0	3.93	4.29	0.04	171294	0	7615	123018	171294	171294	7344	91	1032	98	149180	3791368	8565
262	2018-05-26 15:03:43		0	0	0	0	0	0	3.94	4.29	0.04	171388	0	7655	123057	171388	171388	7347	91	1032	98	149241	3791400	8568
263	2018-05-26 15:13:43		0	0	0	0	0	0	3.94	4.29	0.04	171494	0	7695	123136	171494	171494	7352	91	1033	98	149308	3791434	8574
264	2018-05-26 15:23:47		0	0	0	0	0	0	3.94	4.29	0.05	171604	0	7732	123136	171604	171604	7360	91	1034	98	149372	3791460	8583
265	2018-05-26 15:33:46		0	0	0	0	0	0	3.94	4.29	0.05	171714	0	7778	123529	171714	171714	7364	91	1034	98	149446	3791492	8587
266	2018-05-26 15:43:49		0	0	0	0	0	0	3.94	4.29	0.05	171777	0	7805	123529	171777	171777	7367	91	1034	98	149485	3791519	8590
267	2018-05-26 15:53:45		0	0	0	0	0	0	3.94	4.29	0.05	171921	0	7859	123529	171921	171921	7371	91	1035	98	149573	3791548	8595
268	2018-05-26 16:03:47		0	0	0	0	0	0	3.95	4.29	0.05	172055	0	7907	123529	172055	172055	7376	91	1036	98	149655	3791581	8601
269	2018-05-26 16:13:47		0	0	0	0	0	0	3.95	4.29	0.05	172178	0	7959	123573	172178	172178	7380	91	1037	98	149735	3791602	8606
270	2018-05-26 16:23:48		0	0	0	0	0	0	3.95	4.28	0.05	172292	0	7996	123573	172292	172292	7381	91	1037	98	149815	3791619	8607
271	2018-05-26 16:33:48		0	0	0	0	0	0	3.95	4.28	0.05	172398	0	8030	123682	172398	172398	7385	91	1038	98	149891	3791648	8612
272	2018-05-26 16:43:48		0	0	0	0	0	0	3.96	4.28	0.05	172524	0	8069	123878	172524	172524	7388	91	1039	98	149975	3791679	8616
273	2018-05-26 16:53:49		0	0	0	0	0	0	3.96	4.28	0.05	172611	0	8095	123878	172611	172611	7392	91	1039	98	150023	3791714	8620
274	2018-05-26 17:03:51		0	0	0	0	0	0	3.96	4.28	0.05	172731	0	8137	123878	172731	172731	7395	91	1039	98	150105	3791749	8623
275	2018-05-26 17:13:52		0	0	0	0	0	0	3.96	4.28	0.05	172822	0	8163	123878	172822	172822	7398	91	1039	98	150160	3791780	8626
276	2018-05-26 17:24:23		0	0	0	0	0	0	3.96	4.28	0.05	172906	0	8198	123878	172906	172906	7401	91	1039	98	150214	3791812	8629
277	2018-05-26 17:33:54		0	0	0	0	0	0	3.96	4.28	0.05	173021	0	8239	123878	173021	173021	7403	91	1041	98	150286	3791843	8633
278	2018-05-26 17:43:52		0	0	0	0	0	0	3.97	4.28	0.05	173117	0	8263	123878	173117	173117	7407	91	1041	98	150351	3791883	8637
279	2018-05-26 17:53:52		0	0	0	0	0	0	3.97	4.28	0.05	173214	0	8289	123878	173214	173214	7410	91	1041	98	150420	3791916	8640
280	2018-05-26 18:03:53		0	0	0	0	0	0	3.97	4.28	0.05	173323	0	8330	124236	173323	173323	7412	91	1041	98	150495	3791939	8642
281	2018-05-26 18:13:54		0	0	0	0	0	0	3.97	4.28	0.05	173413	0	8360	124236	173413	173413	7415	91	1041	98	150559	3791965	8645
282	2018-05-26 18:23:54		0	0	0	0	0	0	3.97	4.27	0.05	173531	0	8395	124476	173531	173531	7418	91	1042	98	150650	3791990	8649
283	2018-05-26 18:33:54		0	0	0	0	0	0	3.97	4.27	0.05	173638	0	8436	124476	173638	173638	7420	91	1042	98	150717	3792022	8651
284	2018-05-26 18:43:54		0	0	0	0	0	0	3.98	4.27	0.05	173747	0	8483	124596	173747	173747	7424	91	1042	98	150782	3792044	8655
285	2018-05-26 18:53:57		0	0	0	0	0	0	3.98	4.27	0.05	173837	0	8512	124596	173837	173837	7426	91	1043	98	150849	3792073	8658
286	2018-05-26 19:04:00		0	0	0	0	0	0	3.98	4.27	0.05	173937	0	8543	124677	173937	173937	7430	92	1045	98	150918	3792106	8665
287	2018-05-26 19:14:00		0	0	0	0	0	0	3.98	4.27	0.05	174016	0	8569	124677	174016	174016	7430	92	1045	98	150969	3792126	8665
288	2018-05-26 19:23:57		0	0	0	0	0	0	3.98	4.27	0.05	174113	0	8611	124677	174113	174113	7435	92	1045	98	151038	3792162	8670
289	2018-05-26 19:33:57		0	0	0	0	0	0	3.98	4.27	0.05	174207	0	8640	124764	174207	174207	7438	92	1046	98	151108	3792191	8674
290	2018-05-26 19:43:58		0	0	0	0	0	0	3.99	4.27	0.05	174292	0	8674	124764	174292	174292	7441	92	1046	99	151161	3792225	8678
291	2018-05-26 19:53:59		0	0	0	0	0	0	3.99	4.27	0.05	174386	0	8701	124905	174386	174386	7443	93	1047	99	151227	3792260	8682
292	2018-05-26 20:03:59		0	0	0	0	0	0	3.99	4.27	0.05	174488	0	8747	125289	174488	174488	7449	93	1047	99	151288	3792288	8688
293	2018-05-26 20:13:59		0	0	0	0	0	0	3.99	4.27	0.05	174578	0	8771	125289	174578	174578	7450	93	1047	99	151355	3792317	8689
294	2018-05-26 20:24:00		0	0	0	0	0	0	3.99	4.27	0.05	174701	0	8810	125289	174701	174701	7451	93	1047	99	151433	3792353	8690
295	2018-05-26 20:34:01		0	0	0	0	0	0	4	4.26	0.05	174803	0	8831	125330	174803	174803	7453	93	1047	99	151509	3792381	8692
296	2018-05-26 20:44:02		0	0	0	0	0	0	4	4.26	0.05	174894	0	8872	125522	174894	174894	7454	93	1048	99	151554	3792413	8694
297	2018-05-26 20:54:05		0	0	0	0	0	0	4	4.26	0.05	174984	0	8904	125522	174984	174984	7457	93	1048	99	151610	3792433	8697
298	2018-05-26 21:04:07		0	0	0	0	0	0	4	4.26	0.05	175088	0	8937	125522	175088	175088	7459	93	1048	99	151683	3792471	8699
299	2018-05-26 21:14:05		0	0	0	0	0	0	4	4.26	0.05	175183	0	8974	125522	175183	175183	7461	94	1048	99	151747	3792510	8702
300	2018-05-26 21:24:04		0	0	0	0	0	0	4	4.26	0.05	175277	0	9017	125522	175277	175277	7464	94	1048	99	151809	3792565	8705
301	2018-05-26 21:34:08		0	0	0	0	0	0	4	4.26	0.05	175398	0	9056	125522	175398	175398	7467	95	1048	99	151892	3792606	8709
302	2018-05-26 21:44:07		0	0	0	0	0	0	4.01	4.25	0.05	175489	0	9085	125522	175489	175489	7467	94	1048	99	151957	3792650	8708
303	2018-05-26 21:54:07		0	0	0	0	0	0	4.01	4.25	0.05	175489	0	9085	125522	175489	175489	7467	94	1048	99	151957	3792693	8708
304	2018-05-26 22:04:09		0	0	0	0	0	0	4.01	4.26	0.05	175525	0	9093	125767	175525	175525	7469	95	1049	99	151980	3792721	8712
305	2018-05-26 22:14:08		0	0	0	0	0	0	4.01	4.26	0.05	175525	0	9093	125767	175525	175525	7469	95	1050	99	151980	3792754	8713
306	2018-05-26 22:24:09		0	0	0	0	0	0	4.01	4.25	0.05	175899	0	9230	125905	175899	175899	7479	94	1050	99	152220	3792782	8722
307	2018-05-26 22:34:12		0	0	0	0	0	0	4.01	4.25	0.05	175989	0	9261	126049	175989	175989	7484	94	1050	99	152276	3792814	8727
308	2018-05-26 22:44:11		0	0	0	0	0	0	4.02	4.25	0.05	176119	0	9294	126122	176119	176119	7487	95	1051	99	152375	3792845	8732
309	2018-05-26 22:54:12		0	0	0	0	0	0	4.02	4.25	0.05	176218	0	9332	126122	176218	176218	7490	95	1051	99	152443	3792875	8735
310	2018-05-26 23:04:11		0	0	0	0	0	0	4.02	4.25	0.05	176307	0	9364	126122	176307	176307	7493	94	1051	99	152504	3792921	8737
311	2018-05-26 23:14:10		0	0	0	0	0	0	4.02	4.25	0.05	176394	0	9394	126122	176394	176394	7494	94	1051	99	152561	3792955	8738
312	2018-05-26 23:24:14		0	0	0	0	0	0	4.02	4.25	0.05	176444	0	9405	126204	176444	176444	7495	94	1051	99	152599	3792993	8739
313	2018-05-26 23:34:10		0	0	0	0	0	0	4.03	4.25	0.05	176574	0	9432	126204	176574	176574	7498	94	1051	99	152698	3793022	8742
314	2018-05-26 23:44:12		0	0	0	0	0	0	4.03	4.24	0.05	176662	0	9463	126281	176662	176662	7499	95	1051	99	152753	3793054	8744
315	2018-05-26 23:54:12		0	0	0	0	0	0	4.03	4.24	0.05	176740	0	9487	126281	176740	176740	7501	95	1051	99	152810	3793072	8746
316	2018-05-27 00:04:12		0	0	0	0	0	0	4.03	4.24	0.05	176842	0	9527	126518	176842	176842	7503	95	1053	99	152881	3793100	8750
317	2018-05-27 00:14:12		0	0	0	0	0	0	4.03	4.24	0.05	176937	0	9558	126601	176937	176937	7505	95	1053	99	152941	3793131	8752
318	2018-05-27 00:24:14		0	0	0	0	0	0	4.03	4.24	0.05	177036	0	9595	126601	177036	177036	7509	95	1053	99	153004	3793166	8756
319	2018-05-27 00:34:15		0	0	0	0	0	0	4.04	4.24	0.05	177110	0	9618	126601	177110	177110	7511	95	1054	99	153056	3793201	8759
320	2018-05-27 00:44:16		0	0	0	0	0	0	4.04	4.24	0.05	177203	0	9642	126663	177203	177203	7514	95	1054	99	153129	3793236	8762
321	2018-05-27 00:54:15		0	0	0	0	0	0	4.04	4.24	0.05	177271	0	9657	126788	177271	177271	7514	95	1054	99	153176	3793261	8762
322	2018-05-27 01:04:15		0	0	0	0	0	0	4.04	4.24	0.05	177325	0	9669	126788	177325	177325	7517	95	1054	99	153212	3793291	8765
323	2018-05-27 01:14:15		0	0	0	0	0	0	4.04	4.24	0.05	177377	0	9679	126788	177377	177377	7521	95	1055	99	153249	3793320	8770
324	2018-05-27 01:24:16		0	0	0	0	0	0	4.04	4.24	0.05	177419	0	9690	126788	177419	177419	7521	95	1055	99	153279	3793327	8770
325	2018-05-27 01:34:16		0	0	0	0	0	0	4.04	4.24	0.05	177473	0	9705	126788	177473	177473	7522	95	1057	99	153307	3793351	8773
326	2018-05-27 01:44:19		0	0	0	0	0	0	4.04	4.24	0.05	177516	0	9717	126788	177516	177516	7523	95	1057	99	153335	3793370	8774
327	2018-05-27 01:54:17		0	0	0	0	0	0	4.04	4.24	0.05	177557	0	9730	126788	177557	177557	7523	95	1057	99	153370	3793383	8774
328	2018-05-27 02:04:18		0	0	0	0	0	0	4.04	4.24	0.05	177588	0	9738	127069	177588	177588	7524	95	1057	99	153392	3793398	8775
329	2018-05-27 02:14:18		0	0	0	0	0	0	4.04	4.24	0.05	177619	0	9741	127069	177619	177619	7526	95	1057	99	153418	3793408	8777
330	2018-05-27 02:24:20		0	0	0	0	0	0	4.04	4.24	0.05	177647	0	9742	127069	177647	177647	7527	95	1058	99	153437	3793422	8779
331	2018-05-27 02:34:22		0	0	0	0	0	0	4.05	4.24	0.05	177674	0	9750	127069	177674	177674	7528	95	1058	99	153455	3793433	8780
332	2018-05-27 02:44:22		0	0	0	0	0	0	4.05	4.24	0.05	177705	0	9759	127069	177705	177705	7530	95	1058	99	153474	3793444	8782
333	2018-05-27 02:54:21		0	0	0	0	0	0	4.05	4.24	0.05	177720	0	9761	127069	177720	177720	7530	95	1058	99	153483	3793449	8782
334	2018-05-27 03:04:21		0	0	0	0	0	0	4.05	4.24	0.05	177732	0	9765	127069	177732	177732	7530	95	1058	99	153494	3793456	8782
335	2018-05-27 03:14:22		0	0	0	0	0	0	4.05	4.24	0.05	177756	0	9767	127069	177756	177756	7530	95	1058	99	153515	3793459	8782
336	2018-05-27 03:24:22		0	0	0	0	0	0	4.05	4.24	0.05	177773	0	9774	127069	177773	177773	7530	95	1058	99	153526	3793468	8782
337	2018-05-27 03:34:23		0	0	0	0	0	0	4.05	4.24	0.05	177803	0	9776	127069	177803	177803	7530	95	1060	99	153551	3793476	8784
338	2018-05-27 03:44:23		0	0	0	0	0	0	4.05	4.23	0.06	177816	0	9782	127069	177816	177816	7530	95	1060	99	153561	3793485	8784
339	2018-05-27 03:54:23		0	0	0	0	0	0	4.05	4.23	0.06	177850	0	9787	127069	177850	177835	7530	95	1060	99	153589	3793490	8784
340	2018-05-27 04:04:25		0	0	0	0	0	0	4.05	4.23	0.06	177860	0	9790	127111	177860	177860	7530	95	1060	99	153595	3793491	8784
341	2018-05-27 04:14:25		0	0	0	0	0	0	4.05	4.23	0.06	177868	0	9791	127111	177868	177868	7532	95	1060	99	153602	3793494	8786
342	2018-05-27 04:24:26		0	0	0	0	0	0	4.05	4.23	0.06	177880	0	9798	127111	177880	177880	7533	95	1060	99	153608	3793502	8787
343	2018-05-27 04:34:26		0	0	0	0	0	0	4.05	4.23	0.06	177884	0	9800	127111	177884	177884	7533	95	1060	99	153610	3793506	8787
344	2018-05-27 04:44:26		0	0	0	0	0	0	4.05	4.24	0.06	177896	0	9800	127111	177896	177896	7534	95	1060	99	153621	3793511	8788
345	2018-05-27 04:54:36		0	0	0	0	0	0	4.05	4.23	0.06	177912	0	9809	127257	177912	177912	7534	95	1060	99	153630	3793511	8788
346	2018-05-27 05:04:28		0	0	0	0	0	0	4.05	4.23	0.06	177921	0	9815	127257	177921	177921	7534	95	1060	99	153634	3793515	8788
347	2018-05-27 05:14:27		0	0	0	0	0	0	4.05	4.23	0.06	177928	0	9816	127257	177928	177928	7534	95	1060	99	153640	3793519	8788
348	2018-05-27 05:24:28		0	0	0	0	0	0	4.05	4.23	0.06	177939	0	9817	127257	177939	177939	7534	95	1060	99	153650	3793527	8788
349	2018-05-27 05:34:29		0	0	0	0	0	0	4.05	4.23	0.06	177954	0	9820	127257	177954	177954	7534	95	1060	99	153662	3793533	8788
350	2018-05-27 05:44:30		0	0	0	0	0	0	4.05	4.23	0.06	177961	0	9821	127257	177961	177961	7534	95	1060	99	153668	3793543	8788
351	2018-05-27 05:54:33		0	0	0	0	0	0	4.05	4.23	0.06	177978	0	9826	127257	177978	177978	7535	95	1060	99	153680	3793546	8789
352	2018-05-27 06:04:33		0	0	0	0	0	0	4.05	4.23	0.06	177982	0	9826	127257	177982	177982	7535	95	1060	99	153684	3793548	8789
353	2018-05-27 06:14:32		0	0	0	0	0	0	4.05	4.23	0.06	177997	0	9830	127257	177997	177997	7535	95	1060	99	153695	3793556	8789
354	2018-05-27 06:24:32		0	0	0	0	0	0	4.05	4.23	0.06	178003	0	9831	127257	178003	178003	7536	95	1060	99	153700	3793559	8790
355	2018-05-27 06:34:33		0	0	0	0	0	0	4.05	4.23	0.06	178019	0	9835	127257	178019	178019	7536	95	1060	99	153713	3793565	8790
356	2018-05-27 06:44:33		0	0	0	0	0	0	4.05	4.23	0.06	178032	0	9841	127257	178032	178032	7537	95	1060	99	153720	3793574	8791
357	2018-05-27 06:54:34		0	0	0	0	0	0	4.05	4.23	0.06	178048	0	9843	127257	178048	178048	7537	95	1060	99	153732	3793584	8791
358	2018-05-27 07:04:35		0	0	0	0	0	0	4.05	4.23	0.06	178065	0	9846	127257	178065	178065	7537	95	1060	99	153747	3793599	8791
359	2018-05-27 07:14:35		0	0	0	0	0	0	4.05	4.23	0.06	178081	0	9847	127257	178081	178081	7537	95	1060	99	153763	3793610	8791
360	2018-05-27 07:24:35		0	0	0	0	0	0	4.05	4.23	0.06	178101	0	9853	127257	178101	178101	7538	95	1060	99	153774	3793624	8792
361	2018-05-27 07:34:40		0	0	0	0	0	0	4.05	4.23	0.06	178131	0	9861	127257	178131	178131	7538	95	1060	99	153795	3793638	8792
362	2018-05-27 07:44:39		0	0	0	0	0	0	4.05	4.23	0.06	178174	0	9867	127265	178174	178174	7540	95	1060	99	153829	3793644	8794
363	2018-05-27 07:54:38		0	0	0	0	0	0	4.06	4.23	0.06	178229	0	9886	127265	178229	178229	7542	95	1060	99	153861	3793665	8796
364	2018-05-27 08:04:40		0	0	0	0	0	0	4.06	4.23	0.06	178271	0	9898	127327	178271	178271	7544	95	1060	99	153889	3793684	8798
365	2018-05-27 08:14:38		0	0	0	0	0	0	4.06	4.23	0.06	178334	0	9913	127474	178334	178334	7547	95	1060	99	153932	3793697	8801
366	2018-05-27 08:34:40		0	0	0	0	0	0	4.06	4.23	0.06	178428	0	9932	127477	178428	178428	7550	97	1060	99	154004	3793762	8806
367	2018-05-27 08:44:43		0	0	0	0	0	0	4.06	4.23	0.06	178467	0	9938	127477	178467	178467	7551	97	1060	99	154037	3793794	8807
368	2018-05-27 08:54:40		0	0	0	0	0	0	4.06	4.23	0.06	178528	0	9958	127477	178528	178528	7553	97	1060	99	154077	3793841	8809
369	2018-05-27 09:04:41		0	0	0	0	0	0	4.06	4.23	0.06	178587	0	9974	127487	178587	178587	7553	97	1060	99	154118	3793865	8809
370	2018-05-27 09:14:41		0	0	0	0	0	0	4.06	4.23	0.06	178646	0	9983	127561	178646	178646	7557	97	1060	99	154166	3793898	8813
371	2018-05-27 09:24:42		0	0	0	0	0	0	4.06	4.23	0.06	178717	0	10010	127645	178717	178717	7560	97	1060	99	154207	3793937	8816
372	2018-05-27 09:34:42		0	0	0	0	0	0	4.07	4.23	0.06	178777	0	10016	127729	178777	178777	7561	97	1060	99	154257	3793966	8817
373	2018-05-27 09:44:43		0	0	0	0	0	0	4.07	4.23	0.06	178853	0	10034	127729	178853	178853	7566	97	1061	99	154317	3794006	8823
374	2018-05-27 09:54:44		0	0	0	0	0	0	4.07	4.23	0.06	178923	0	10046	127771	178923	178923	7572	97	1061	99	154374	3794042	8829
375	2018-05-27 10:04:46		0	0	0	0	0	0	4.07	4.23	0.06	179007	0	10058	127771	179007	179007	7575	97	1062	99	154444	3794078	8833
376	2018-05-27 10:14:45		0	0	0	0	0	0	4.07	4.23	0.06	179071	0	10067	127771	179071	179071	7576	97	1063	99	154494	3794114	8835
377	2018-05-27 10:24:46		0	0	0	0	0	0	4.07	4.23	0.06	179143	0	10077	127856	179143	179143	7580	97	1063	99	154550	3794149	8839
378	2018-05-27 10:34:46		0	0	0	0	0	0	4.08	4.23	0.06	179240	0	10091	127856	179240	179240	7583	97	1064	99	154634	3794199	8843
379	2018-05-27 10:44:47		0	0	0	0	0	0	4.08	4.23	0.06	179292	0	10101	127856	179292	179292	7584	97	1064	99	154673	3794242	8844
380	2018-05-27 10:54:47		0	0	0	0	0	0	4.08	4.23	0.06	179337	0	10109	127856	179337	179337	7584	97	1064	99	154701	3794278	8844
