1	2018-02-11 17:03:56		0	0	0	0	0	0	0.02	1.56	0	769	0	0	740	769	769	12	0	1	0	734	3580931	13
2	2018-02-11 17:14:26		0	0	0	0	0	0	0.1	1.96	0.01	4084	0	25	3702	4084	4084	80	6	16	1	3636	3580937	103
3	2018-02-11 17:24:57		0	0	0	0	0	0	0.17	2.4	0.01	6924	0	69	6329	6924	6924	166	14	26	3	6174	3580943	209
4	2018-02-11 17:35:30		0	0	0	0	0	0	0.23	2.88	0.01	9567	0	131	8516	9567	9567	276	23	37	4	8299	3580948	340
5	2018-02-11 17:46:00		0	0	0	0	0	0	0.28	3.11	0.02	11701	0	183	10303	11701	11701	364	26	49	5	9901	3580952	444
6	2018-02-11 17:56:31		0	0	0	0	0	0	0.32	3.22	0.02	13479	0	245	11821	13479	13479	434	28	54	5	11302	3580956	521
7	2018-02-11 18:06:59		0	0	0	0	0	0	0.35	3.23	0.02	14978	0	309	13112	14978	14978	484	29	62	6	12444	3580958	581
8	2018-02-11 18:17:29		0	0	0	0	0	0	0.37	3.28	0.02	16195	0	365	14021	16195	16195	532	30	73	6	13256	3580952	641
9	2018-02-11 18:28:00		0	0	0	0	0	0	0.39	3.32	0.02	17397	0	408	14791	17397	17397	578	34	84	6	14019	3580954	702
10	2018-02-11 18:38:31		0	0	0	0	0	0	0.42	3.32	0.02	18533	0	460	15712	18533	18533	615	37	89	6	14866	3580959	747
11	2018-02-11 18:49:03		0	0	0	0	0	0	0.44	3.4	0.03	20228	0	536	16847	20228	20228	687	37	92	6	15770	3580966	822
12	2018-02-11 18:59:34		0	0	0	0	0	0	0.46	3.41	0.03	21469	0	585	17873	21469	21469	733	41	100	7	16625	3580970	881
13	2018-02-11 19:10:03		0	0	0	0	0	0	0.48	3.39	0.03	22679	0	622	18559	22679	22679	768	42	100	7	17364	3580971	917
14	2018-02-11 19:20:34		0	0	0	0	0	0	0.51	3.36	0.03	23760	0	665	19374	23760	23760	798	42	105	7	18092	3580973	952
15	2018-02-11 19:31:04		0	0	0	0	0	0	0.52	3.35	0.03	24807	0	706	20114	24807	24807	831	43	110	7	18716	3580981	991
16	2018-02-11 19:41:35		0	0	0	0	0	0	0.54	3.36	0.03	25747	0	740	20843	25747	25747	866	44	115	7	19308	3580985	1032
17	2018-02-11 19:52:04		0	0	0	0	0	0	0.56	3.39	0.03	26705	0	783	21717	26705	26705	904	46	122	7	20093	3580988	1079
18	2018-02-11 20:02:36		0	0	0	0	0	0	0.58	3.37	0.03	27667	0	825	22485	27667	27667	931	47	127	7	20754	3580993	1112
19	2018-02-11 20:13:07		0	0	0	0	0	0	0.59	3.39	0.03	28573	0	886	23078	28573	28573	970	47	131	7	21233	3580989	1155
20	2018-02-11 20:23:37		0	0	0	0	0	0	0.61	3.41	0.03	29413	0	917	23830	29413	29413	1002	48	135	7	21888	3580986	1192
21	2018-02-11 20:34:06		0	0	0	0	0	0	0.63	3.41	0.03	30573	0	962	24566	30573	30573	1042	48	139	7	22576	3580986	1236
22	2018-02-12 09:50:02		0	0	0	0	0	0	1.17	3.49	0.04	58363	0	2302	45376	58363	58363	2039	84	234	12	41902	3581178	2369
23	2018-02-12 10:00:34		0	0	0	0	0	0	1.18	3.49	0.04	58769	0	2322	45727	58769	58769	2053	84	236	12	42148	3581196	2385
24	2018-02-12 10:11:01		0	0	0	0	0	0	1.18	3.5	0.04	59098	0	2336	46059	59098	59098	2067	84	237	12	42365	3581216	2400
25	2018-02-12 10:21:36		0	0	0	0	0	0	1.19	3.5	0.04	59419	0	2355	46197	59419	59419	2077	85	239	12	42482	3581228	2413
26	2018-02-12 10:32:10		0	0	0	0	0	0	1.19	3.48	0.04	59727	0	2379	46226	59727	59727	2081	85	244	12	42506	3581253	2422
27	2018-02-12 10:42:38		0	0	0	0	0	0	1.19	3.48	0.04	60047	0	2406	46397	60047	60047	2091	85	245	12	42651	3581264	2433
28	2018-02-12 10:53:13		0	0	0	0	0	0	1.2	3.48	0.04	60352	0	2423	46691	60352	60352	2103	86	247	12	42899	3581281	2448
29	2018-02-12 11:03:37		0	0	0	0	0	0	1.2	3.48	0.04	60656	0	2443	46956	60656	60656	2113	86	247	12	43123	3581288	2458
30	2018-02-12 11:14:11		0	0	0	0	0	0	1.21	3.5	0.04	60930	0	2475	47110	60930	60930	2132	86	249	12	43207	3581294	2479
31	2018-02-12 11:24:41		0	0	0	0	0	0	1.21	3.5	0.04	61210	0	2511	47413	61210	61210	2143	86	251	12	43462	3581301	2492
32	2018-02-12 11:35:09		0	0	0	0	0	0	1.22	3.52	0.04	61582	0	2536	47689	61582	61582	2167	86	252	12	43693	3581306	2517
33	2018-02-12 11:45:40		0	0	0	0	0	0	1.22	3.52	0.04	61826	0	2558	47914	61826	61826	2177	87	252	12	43862	3581315	2528
34	2018-02-12 11:56:11		0	0	0	0	0	0	1.23	3.51	0.04	62087	0	2574	48021	62087	62087	2182	88	253	12	43932	3581321	2535
35	2018-02-12 12:06:48		0	0	0	0	0	0	1.23	3.52	0.04	62330	0	2594	48248	62330	62330	2193	89	255	12	44132	3581325	2549
36	2018-02-12 12:17:19		0	0	0	0	0	0	1.24	3.51	0.04	62604	0	2615	48645	62604	62604	2200	89	256	12	44546	3581342	2557
37	2018-02-12 12:27:41		0	0	0	0	0	0	1.25	3.51	0.04	62869	0	2638	48755	62869	62869	2208	89	260	12	44638	3581351	2569
38	2018-02-12 12:38:13		0	0	0	0	0	0	1.25	3.51	0.04	63128	0	2656	49027	63128	63128	2218	89	260	12	44928	3581358	2579
39	2018-02-12 12:48:48		0	0	0	0	0	0	1.26	3.51	0.04	63374	0	2671	49177	63374	63374	2225	89	261	12	45054	3581364	2587
40	2018-02-12 12:59:15		0	0	0	0	0	0	1.26	3.51	0.04	63620	0	2695	49321	63620	63620	2233	89	262	12	45175	3581376	2596
41	2018-02-12 13:09:45		0	0	0	0	0	0	1.27	3.51	0.04	63841	0	2706	49510	63841	63841	2239	89	262	12	45312	3581394	2602
42	2018-02-12 13:20:14		0	0	0	0	0	0	1.27	3.51	0.04	64150	0	2725	49739	64150	64150	2250	89	263	12	45429	3581405	2614
43	2018-02-12 13:30:45		0	0	0	0	0	0	1.28	3.5	0.04	64391	0	2730	50013	64391	64391	2255	89	265	12	45723	3581422	2621
44	2018-02-12 13:41:16		0	0	0	0	0	0	1.28	3.5	0.04	64607	0	2743	50137	64607	64607	2263	89	267	12	45869	3581453	2631
45	2018-02-12 13:48:16		0	0	0	0	0	0	1.28	3.5	0.04	64739	0	2753	50137	64739	64739	2266	89	268	12	45869	3581465	2635
46	2018-02-12 13:48:55		0	0	0	0	0	0	1.28	3.5	0.04	64739	0	2753	50137	64739	64739	2266	89	268	12	45869	3581468	2635
47	2018-02-12 13:59:26		0	0	0	0	0	0	1.29	3.5	0.04	64974	0	2768	50371	64974	64974	2276	89	268	12	46110	3581478	2645
48	2018-02-12 14:09:55		0	0	0	0	0	0	1.29	3.51	0.04	65289	0	2784	50638	65289	65289	2290	89	268	12	46289	3581499	2659
49	2018-02-12 14:20:25		0	0	0	0	0	0	1.3	3.52	0.04	65520	0	2787	50740	65520	65520	2304	90	268	12	46419	3581513	2674
50	2018-02-12 14:30:59		0	0	0	0	0	0	1.3	3.52	0.04	65734	0	2802	50793	65734	65734	2312	90	268	12	46541	3581528	2682
51	2018-02-12 14:41:30		0	0	0	0	0	0	1.3	3.52	0.04	65981	0	2811	50871	65981	65981	2321	91	268	12	46586	3581545	2692
52	2018-02-12 14:52:04		0	0	0	0	0	0	1.31	3.51	0.04	66208	0	2832	51026	66208	66208	2326	91	268	12	46783	3581568	2697
53	2018-02-12 15:02:43		0	0	0	0	0	0	1.31	3.51	0.04	66419	0	2843	51312	66419	66419	2332	92	273	12	46919	3581585	2709
54	2018-02-12 15:13:00		0	0	0	0	0	0	1.31	3.51	0.04	66638	0	2860	51421	66638	66638	2338	92	273	13	47011	3581625	2716
55	2018-02-12 15:23:31		0	0	0	0	0	0	1.31	3.51	0.04	66839	0	2889	51449	66839	66839	2343	92	273	13	47079	3581656	2721
56	2018-02-12 15:34:02		0	0	0	0	0	0	1.32	3.51	0.04	67032	0	2897	51510	67032	67032	2352	92	274	13	47177	3581674	2731
57	2018-02-12 15:44:31		0	0	0	0	0	0	1.32	3.51	0.04	67232	0	2906	51655	67232	67232	2359	93	275	13	47286	3581691	2740
58	2018-02-12 15:55:08		0	0	0	0	0	0	1.32	3.51	0.04	67465	0	2949	51703	67465	67465	2370	94	277	13	47326	3581711	2754
59	2018-02-12 16:05:51		0	0	0	0	0	0	1.33	3.5	0.04	67787	0	2964	52071	67787	67787	2375	94	277	13	47676	3581734	2759
60	2018-02-12 16:16:09		0	0	0	0	0	0	1.33	3.51	0.04	67983	0	2985	52155	67983	67983	2384	94	277	13	47700	3581765	2768
61	2018-02-12 16:26:37		0	0	0	0	0	0	1.33	3.51	0.04	68163	0	2998	52239	68163	68163	2390	94	278	13	47723	3581795	2775
62	2018-02-12 16:37:08		0	0	0	0	0	0	1.34	3.51	0.04	68355	0	3016	52639	68355	68355	2397	95	279	13	47985	3581814	2784
63	2018-02-12 16:47:36		0	0	0	0	0	0	1.34	3.51	0.04	68551	0	3037	52682	68551	68551	2403	95	281	13	48021	3581833	2792
64	2018-02-12 16:58:20		0	0	0	0	0	0	1.34	3.51	0.04	68736	0	3060	52842	68736	68736	2415	95	282	13	48106	3581861	2805
65	2018-02-12 17:08:38		0	0	0	0	0	0	1.34	3.51	0.04	68916	0	3086	52930	68916	68916	2421	95	283	13	48164	3581891	2812
66	2018-02-12 17:19:09		0	0	0	0	0	0	1.35	3.51	0.04	69065	0	3098	53046	69065	69065	2427	95	283	13	48260	3581931	2818
67	2018-02-12 17:29:48		0	0	0	0	0	0	1.35	3.52	0.04	69201	0	3112	53046	69201	69201	2433	95	283	13	48260	3581961	2824
68	2018-02-12 17:40:12		0	0	0	0	0	0	1.35	3.52	0.05	69418	0	3130	53258	69418	69418	2442	95	284	13	48345	3581989	2834
69	2018-02-12 17:49:22		0	0	0	0	0	0	1.35	3.52	0.05	69490	0	3133	53365	69490	69490	2443	95	284	13	48414	3582010	2835
70	2018-02-12 17:59:33		0	0	0	0	0	0	1.36	3.52	0.05	69645	0	3148	53527	69645	69645	2449	95	284	13	48548	3582033	2841
71	2018-02-12 18:10:00		0	0	0	0	0	0	1.36	3.53	0.05	69787	0	3175	53571	69787	69787	2462	95	284	13	48584	3582067	2854
72	2018-02-12 18:20:28		0	0	0	0	0	0	1.36	3.52	0.05	69979	0	3188	53571	69979	69979	2466	95	284	13	48719	3582093	2858
73	2018-02-12 18:30:57		0	0	0	0	0	0	1.36	3.52	0.05	70095	0	3195	53586	70095	70095	2470	95	284	13	48731	3582124	2862
74	2018-02-12 18:41:28		0	0	0	0	0	0	1.36	3.52	0.05	70212	0	3207	53606	70212	70212	2474	95	284	13	48737	3582160	2866
75	2018-02-12 18:51:57		0	0	0	0	0	0	1.36	3.52	0.05	70339	0	3222	53795	70339	70339	2478	95	284	13	48896	3582201	2870
76	2018-02-12 19:02:28		0	0	0	0	0	0	1.37	3.52	0.05	70490	0	3236	53863	70490	70490	2482	95	284	13	48946	3582246	2874
77	2018-02-12 19:12:58		0	0	0	0	0	0	1.37	3.52	0.05	70598	0	3251	54016	70598	70598	2487	95	284	13	49079	3582271	2879
78	2018-02-12 19:23:32		0	0	0	0	0	0	1.37	3.52	0.05	70711	0	3269	54039	70711	70711	2491	95	284	13	49098	3582307	2883
79	2018-02-12 19:34:03		0	0	0	0	0	0	1.38	3.53	0.05	70815	0	3284	54124	70815	70815	2503	95	285	13	49268	3582335	2896
80	2018-02-12 19:44:32		0	0	0	0	0	0	1.38	3.54	0.05	70954	0	3301	54177	70954	70954	2509	95	285	13	49306	3582360	2902
81	2018-02-12 19:55:01		0	0	0	0	0	0	1.38	3.53	0.05	71088	0	3317	54310	71088	71088	2511	95	285	13	49416	3582403	2904
82	2018-02-12 20:05:33		0	0	0	0	0	0	1.38	3.54	0.05	71204	0	3341	54535	71204	71204	2518	95	285	13	49564	3582423	2911
83	2018-02-12 20:16:03		0	0	0	0	0	0	1.38	3.54	0.05	71320	0	3353	54582	71320	71320	2522	95	285	13	49603	3582463	2915
84	2018-02-12 20:26:33		0	0	0	0	0	0	1.38	3.54	0.05	71417	0	3362	54620	71417	71417	2525	95	285	13	49609	3582492	2918
85	2018-02-12 20:37:03		0	0	0	0	0	0	1.39	3.53	0.05	71500	0	3379	54649	71500	71500	2526	95	285	13	49633	3582523	2919
86	2018-02-12 20:47:39		0	0	0	0	0	0	1.39	3.53	0.05	71582	0	3394	54664	71582	71582	2529	95	285	13	49645	3582565	2922
87	2018-02-12 20:58:09		0	0	0	0	0	0	1.39	3.53	0.05	71673	0	3408	54819	71673	71673	2531	95	286	13	49652	3582609	2925
88	2018-02-12 21:08:39		0	0	0	0	0	0	1.39	3.53	0.05	71743	0	3419	54862	71743	71743	2533	95	287	13	49674	3582646	2928
89	2018-02-12 21:19:10		0	0	0	0	0	0	1.39	3.53	0.05	71825	0	3437	54956	71825	71825	2539	95	288	13	49751	3582678	2935
90	2018-02-12 21:29:37		0	0	0	0	0	0	1.39	3.53	0.05	71910	0	3466	54956	71910	71910	2541	95	288	13	49751	3582709	2937
91	2018-02-12 21:40:03		0	0	0	0	0	0	1.39	3.53	0.05	72038	0	3481	55072	72038	72038	2545	95	288	13	49846	3582736	2941
92	2018-02-12 21:50:34		0	0	0	0	0	0	1.39	3.53	0.05	72129	0	3498	55186	72129	72129	2549	95	288	13	49869	3582769	2945
93	2018-02-12 22:01:04		0	0	0	0	0	0	1.39	3.53	0.05	72202	0	3509	55249	72202	72202	2551	96	288	14	49920	3582795	2949
94	2018-02-12 22:11:36		0	0	0	0	0	0	1.39	3.53	0.05	72289	0	3534	55429	72289	72289	2554	96	288	14	49964	3582823	2952
95	2018-02-12 22:22:06		0	0	0	0	0	0	1.39	3.53	0.05	72388	0	3557	55429	72388	72388	2558	96	288	14	49964	3582851	2956
96	2018-02-12 22:32:36		0	0	0	0	0	0	1.39	3.53	0.05	72458	0	3574	55429	72458	72458	2560	97	289	14	49964	3582877	2960
97	2018-02-12 22:43:08		0	0	0	0	0	0	1.4	3.53	0.05	72532	0	3585	55602	72532	72532	2561	97	289	14	50065	3582902	2961
98	2018-02-12 22:50:19		0	0	0	0	0	0	1.4	3.53	0.05	72602	0	3595	55634	72602	72602	2561	97	289	14	50091	3582919	2961
99	2018-02-12 23:00:50		0	0	0	0	0	0	1.4	3.53	0.05	72689	0	3608	55650	72689	72689	2565	97	290	14	50091	3582957	2966
100	2018-02-12 23:10:51		0	0	0	0	0	0	1.4	3.53	0.05	72776	0	3624	55792	72776	72776	2568	97	291	14	50194	3582981	2970
101	2018-02-12 23:21:20		0	0	0	0	0	0	1.41	3.53	0.05	72854	0	3637	55978	72854	72854	2571	97	291	14	50344	3583000	2973
102	2018-02-12 23:31:51		0	0	0	0	0	0	1.41	3.53	0.05	72920	0	3648	56287	72920	72920	2573	97	291	14	50581	3583014	2975
103	2018-02-12 23:42:21		0	0	0	0	0	0	1.41	3.53	0.05	72969	0	3657	56336	72969	72969	2574	97	291	14	50620	3583024	2976
104	2018-02-12 23:52:51		0	0	0	0	0	0	1.41	3.53	0.05	73019	0	3669	56336	73019	73019	2575	98	291	14	50620	3583034	2978
105	2018-02-13 00:20:22		0	0	0	0	0	0	1.41	3.53	0.05	73157	0	3700	56336	73157	73157	2580	98	291	14	50652	3583056	2983
106	2018-02-13 01:25:22		0	0	0	0	0	0	1.41	3.53	0.05	73355	0	3728	56466	73355	73355	2592	98	292	14	50698	3583108	2996
107	2018-02-13 02:30:23		0	0	0	0	0	0	1.42	3.53	0.05	73444	0	3744	56528	73444	73444	2595	100	292	14	50781	3583128	3001
108	2018-02-13 03:35:23		0	0	0	0	0	0	1.42	3.53	0.05	73494	0	3747	56577	73494	73494	2596	101	292	14	50821	3583124	3003
109	2018-02-13 04:40:25		0	0	0	0	0	0	1.42	3.53	0.05	73554	0	3763	56577	73554	73554	2598	101	292	14	50821	3583116	3005
110	2018-02-13 05:45:27		0	0	0	0	0	0	1.42	3.54	0.05	73603	0	3773	56627	73603	73603	2603	101	292	14	50821	3583125	3010
111	2018-02-13 06:50:27		0	0	0	0	0	0	1.42	3.54	0.05	73684	0	3798	56693	73684	73692	2605	101	292	14	50848	3583156	3012
112	2018-02-13 07:13:31		0	0	0	0	0	0	1.42	3.54	0.05	73712	0	3804	56693	73712	73712	2606	101	292	14	50848	3583180	3013
113	2018-02-13 07:23:57		0	0	0	0	0	0	1.42	3.53	0.05	73740	0	3808	56693	73740	73740	2606	101	292	14	50848	3583190	3013
114	2018-02-13 07:34:28		0	0	0	0	0	0	1.42	3.54	0.05	73763	0	3813	56693	73763	73763	2608	101	292	14	50848	3583201	3015
115	2018-02-13 07:44:59		0	0	0	0	0	0	1.42	3.53	0.05	73778	0	3814	56693	73778	73778	2608	101	292	14	50848	3583204	3015
116	2018-02-13 07:55:29		0	0	0	0	0	0	1.42	3.54	0.05	73817	0	3819	56710	73817	73817	2612	101	292	14	50861	3583214	3019
117	2018-02-13 08:05:59		0	0	0	0	0	0	1.42	3.54	0.05	73855	0	3825	56743	73855	73855	2613	101	293	14	50861	3583228	3021
118	2018-02-13 08:16:30		0	0	0	0	0	0	1.42	3.54	0.05	73880	0	3832	56743	73880	73880	2615	101	293	14	50861	3583230	3023
119	2018-02-13 08:27:01		0	0	0	0	0	0	1.42	3.54	0.05	73933	0	3837	56808	73933	73933	2620	102	293	14	50888	3583239	3029
120	2018-02-13 08:37:31		0	0	0	0	0	0	1.42	3.54	0.05	73976	0	3849	57004	73976	73976	2620	102	293	14	50942	3583253	3029
121	2018-02-13 08:48:03		0	0	0	0	0	0	1.42	3.54	0.05	73996	0	3855	57004	73996	73996	2622	102	293	14	50942	3583271	3031
122	2018-02-13 08:58:35		0	0	0	0	0	0	1.42	3.54	0.05	74026	0	3865	57004	74026	74026	2622	102	293	14	51021	3583283	3031
123	2018-02-13 09:09:05		0	0	0	0	0	0	1.43	3.54	0.05	74062	0	3867	57067	74062	74062	2622	102	293	14	51071	3583300	3031
124	2018-02-13 09:19:33		0	0	0	0	0	0	1.43	3.54	0.05	74091	0	3870	57067	74091	74091	2623	102	293	14	51071	3583308	3032
125	2018-02-13 09:30:04		0	0	0	0	0	0	1.43	3.54	0.05	74132	0	3877	57097	74132	74132	2623	102	293	14	51071	3583315	3032
126	2018-02-13 09:40:32		0	0	0	0	0	0	1.43	3.54	0.05	74152	0	3881	57097	74152	74152	2623	102	293	14	51071	3583327	3032
127	2018-02-13 09:51:08		0	0	0	0	0	0	1.43	3.54	0.05	74197	0	3894	57097	74197	74197	2624	102	293	14	51071	3583327	3033
128	2018-02-13 10:01:34		0	0	0	0	0	0	1.43	3.54	0.05	74222	0	3895	57097	74222	74222	2625	102	293	14	51071	3583343	3034
129	2018-02-13 10:12:05		0	0	0	0	0	0	1.43	3.54	0.05	74241	0	3900	57097	74241	74241	2625	102	293	14	51071	3583355	3034
130	2018-02-13 10:22:36		0	0	0	0	0	0	1.43	3.53	0.05	74270	0	3903	57131	74270	74270	2625	102	293	14	51098	3583365	3034
131	2018-02-13 10:33:07		0	0	0	0	0	0	1.43	3.53	0.05	74315	0	3911	57131	74315	74315	2625	102	293	14	51098	3583378	3034
132	2018-02-13 10:43:37		0	0	0	0	0	0	1.43	3.53	0.05	74338	0	3916	57198	74338	74338	2627	102	293	14	51172	3583396	3036
133	2018-02-13 10:54:09		0	0	0	0	0	0	1.43	3.53	0.05	74367	0	3917	57198	74367	74367	2628	102	293	14	51172	3583415	3037
134	2018-02-13 11:04:38		0	0	0	0	0	0	1.43	3.53	0.05	74387	0	3918	57198	74387	74387	2629	102	293	14	51172	3583424	3038
135	2018-02-13 11:15:07		0	0	0	0	0	0	1.43	3.53	0.05	74412	0	3923	57198	74412	74412	2630	102	293	14	51172	3583446	3039
136	2018-02-13 11:25:38		0	0	0	0	0	0	1.43	3.54	0.05	74429	0	3929	57198	74429	74429	2633	102	293	14	51172	3583463	3042
137	2018-02-13 11:36:10		0	0	0	0	0	0	1.43	3.54	0.05	74483	0	3935	57249	74483	74483	2633	102	293	14	51172	3583488	3042
138	2018-02-13 11:46:44		0	0	0	0	0	0	1.43	3.53	0.05	74515	0	3937	57281	74515	74515	2633	102	293	14	51198	3583510	3042
139	2018-02-13 11:57:09		0	0	0	0	0	0	1.43	3.53	0.05	74526	0	3941	57281	74526	74526	2633	102	293	14	51198	3583532	3042
140	2018-02-13 12:07:41		0	0	0	0	0	0	1.43	3.53	0.05	74560	0	3951	57315	74560	74560	2633	102	293	14	51225	3583546	3042
141	2018-02-13 12:18:11		0	0	0	0	0	0	1.43	3.53	0.05	74580	0	3959	57348	74580	74580	2633	103	293	14	51225	3583561	3043
142	2018-02-13 12:28:42		0	0	0	0	0	0	1.43	3.53	0.05	74609	0	3964	57383	74609	74609	2635	103	293	14	51252	3583578	3045
143	2018-02-13 12:39:11		0	0	0	0	0	0	1.43	3.53	0.05	74634	0	3970	57434	74634	74634	2636	103	293	14	51293	3583587	3046
144	2018-02-13 12:49:41		0	0	0	0	0	0	1.43	3.53	0.05	74654	0	3973	57485	74654	74654	2636	103	294	14	51293	3583603	3047
145	2018-02-13 13:00:12		0	0	0	0	0	0	1.43	3.53	0.05	74673	0	3976	57536	74673	74673	2636	103	294	14	51293	3583618	3047
146	2018-02-13 13:10:43		0	0	0	0	0	0	1.43	3.53	0.05	74700	0	3984	57570	74700	74700	2637	103	294	14	51320	3583629	3048
147	2018-02-13 13:21:13		0	0	0	0	0	0	1.43	3.53	0.05	74728	0	3985	57570	74728	74728	2637	103	294	14	51320	3583638	3048
148	2018-02-13 13:32:54		0	0	0	0	0	0	1.43	3.53	0.05	74751	0	3987	57570	74751	74751	2637	103	294	14	51320	3583643	3048
149	2018-02-13 13:43:53		0	0	0	0	0	0	1.43	3.53	0.05	74774	0	3990	57570	74774	74774	2638	103	294	14	51320	3583651	3049
150	2018-02-13 13:54:29		0	0	0	0	0	0	1.43	3.53	0.05	74797	0	3994	57570	74797	74797	2641	103	294	14	51320	3583678	3052
151	2018-02-13 14:04:54		0	0	0	0	0	0	1.43	3.53	0.05	74813	0	3998	57570	74813	74813	2641	103	294	14	51320	3583686	3052
152	2018-02-13 14:17:06		0	0	0	0	0	0	1.43	3.53	0.05	74850	0	4006	57637	74850	74850	2644	103	294	14	51320	3583701	3055
153	2018-02-13 14:27:29		0	0	0	0	0	0	1.43	3.53	0.05	74867	0	4013	57637	74867	74867	2646	103	294	14	51320	3583708	3057
154	2018-02-13 14:38:22		0	0	0	0	0	0	1.43	3.53	0.05	74895	0	4015	57731	74895	74895	2647	103	294	14	51395	3583721	3058
155	2018-02-13 14:49:12		0	0	0	0	0	0	1.43	3.53	0.05	74916	0	4018	57731	74916	74916	2647	103	295	14	51395	3583728	3059
156	2018-02-13 14:59:04		0	0	0	0	0	0	1.43	3.53	0.05	74946	0	4020	57766	74946	74946	2647	103	295	14	51422	3583756	3059
157	2018-02-13 15:09:32		0	0	0	0	0	0	1.43	3.53	0.05	74965	0	4021	57766	74965	74965	2647	103	295	14	51422	3583768	3059
158	2018-02-13 15:20:04		0	0	0	0	0	0	1.43	3.53	0.05	74992	0	4024	57766	74992	74992	2647	103	295	14	51422	3583788	3059
159	2018-02-13 15:30:33		0	0	0	0	0	0	1.44	3.53	0.05	75029	0	4028	57882	75029	75029	2648	103	295	14	51474	3583804	3060
160	2018-02-13 15:41:02		0	0	0	0	0	0	1.44	3.53	0.05	75071	0	4037	57882	75071	75071	2648	103	295	14	51474	3583820	3060
161	2018-02-13 15:44:53		0	0	0	0	0	0	1.44	3.53	0.05	75071	0	4037	57882	75071	75071	2648	103	295	14	51474	3583829	3060
162	2018-02-13 15:55:26		0	0	0	0	0	0	1.44	3.53	0.05	75110	0	4041	57900	75110	75110	2648	103	295	14	51487	3583834	3060
163	2018-02-13 16:05:58		0	0	0	0	0	0	1.44	3.53	0.05	75140	0	4042	57930	75140	75140	2650	103	295	14	51593	3583838	3062
164	2018-02-13 16:16:28		0	0	0	0	0	0	1.44	3.53	0.05	75160	0	4047	57930	75160	75160	2650	103	295	14	51593	3583850	3062
165	2018-02-13 16:26:56		0	0	0	0	0	0	1.44	3.53	0.05	75188	0	4051	57930	75188	75188	2652	103	295	14	51593	3583857	3064
166	2018-02-13 16:37:28		0	0	0	0	0	0	1.44	3.53	0.05	75214	0	4056	58067	75214	75214	2653	103	295	14	51702	3583864	3065
167	2018-02-13 16:47:56		0	0	0	0	0	0	1.44	3.53	0.05	75259	0	4059	58067	75259	75259	2654	103	295	14	51702	3583868	3066
168	2018-02-13 16:58:27		0	0	0	0	0	0	1.44	3.53	0.05	75289	0	4062	58067	75289	75289	2655	103	295	14	51702	3583870	3067
169	2018-02-13 17:08:58		0	0	0	0	0	0	1.44	3.53	0.05	75317	0	4063	58067	75317	75317	2655	103	295	14	51702	3583880	3067
170	2018-02-13 17:19:28		0	0	0	0	0	0	1.44	3.53	0.05	75347	0	4067	58084	75347	75347	2656	103	295	14	51716	3583881	3068
171	2018-02-13 17:29:59		0	0	0	0	0	0	1.44	3.52	0.05	75372	0	4071	58084	75372	75372	2656	103	295	14	51716	3583884	3068
172	2018-02-13 17:40:30		0	0	0	0	0	0	1.44	3.52	0.05	75408	0	4075	58084	75408	75408	2656	103	295	14	51716	3583891	3068
173	2018-02-13 17:51:04		0	0	0	0	0	0	1.44	3.52	0.05	75445	0	4077	58084	75445	75445	2657	103	295	14	51716	3583899	3069
174	2018-02-13 18:01:45		0	0	0	0	0	0	1.44	3.52	0.05	75483	0	4082	58084	75483	75483	2659	103	295	14	51716	3583915	3071
175	2018-02-13 18:12:00		0	0	0	0	0	0	1.44	3.52	0.05	75508	0	4087	58088	75508	75508	2660	103	295	14	51716	3583927	3072
176	2018-02-13 18:22:30		0	0	0	0	0	0	1.44	3.52	0.05	75540	0	4094	58088	75540	75540	2660	103	295	14	51716	3583940	3072
177	2018-02-13 18:33:02		0	0	0	0	0	0	1.44	3.52	0.05	75564	0	4096	58088	75564	75564	2661	103	295	14	51716	3583947	3073
178	2018-02-13 18:43:31		0	0	0	0	0	0	1.44	3.52	0.05	75590	0	4100	58088	75590	75590	2661	103	295	14	51716	3583962	3073
179	2018-02-13 18:54:04		0	0	0	0	0	0	1.44	3.52	0.05	75620	0	4102	58088	75620	75620	2662	103	295	14	51716	3583983	3074
180	2018-02-13 19:04:32		0	0	0	0	0	0	1.44	3.52	0.05	75651	0	4102	58088	75651	75651	2662	103	295	14	51716	3583993	3074
181	2018-02-13 19:15:16		0	0	0	0	0	0	1.44	3.52	0.05	75691	0	4108	58150	75691	75691	2663	103	295	14	51716	3583998	3075
182	2018-02-13 19:25:37		0	0	0	0	0	0	1.44	3.52	0.05	75718	0	4114	58150	75718	75718	2665	103	295	14	51716	3584008	3077
183	2018-02-13 19:36:10		0	0	0	0	0	0	1.44	3.52	0.05	75754	0	4122	58150	75754	75754	2665	103	295	14	51771	3584015	3077
184	2018-02-13 19:46:37		0	0	0	0	0	0	1.44	3.52	0.05	75803	0	4122	58150	75803	75803	2665	103	295	14	51771	3584029	3077
185	2018-02-13 19:57:07		0	0	0	0	0	0	1.45	3.51	0.05	75831	0	4128	58152	75831	75831	2665	103	295	14	51797	3584036	3077
186	2018-02-13 20:07:37		0	0	0	0	0	0	1.45	3.51	0.05	75857	0	4131	58152	75857	75857	2665	103	295	14	51797	3584045	3077
187	2018-02-13 20:18:06		0	0	0	0	0	0	1.45	3.51	0.05	75891	0	4131	58152	75891	75891	2666	103	296	14	51797	3584055	3079
188	2018-02-13 20:28:41		0	0	0	0	0	0	1.45	3.51	0.05	75922	0	4135	58152	75922	75922	2668	103	296	14	51797	3584063	3081
189	2018-02-13 20:39:11		0	0	0	0	0	0	1.45	3.51	0.05	75953	0	4143	58152	75953	75953	2668	103	296	14	51797	3584072	3081
190	2018-02-13 20:49:41		0	0	0	0	0	0	1.45	3.51	0.05	75980	0	4147	58152	75980	75980	2669	103	296	14	51797	3584076	3082
191	2018-02-13 21:00:12		0	0	0	0	0	0	1.45	3.51	0.05	76015	0	4151	58160	76015	76015	2671	103	296	14	51804	3584088	3084
192	2018-02-13 21:10:42		0	0	0	0	0	0	1.45	3.51	0.05	76045	0	4152	58230	76045	76045	2672	103	296	14	51859	3584095	3085
193	2018-02-13 21:21:08		0	0	0	0	0	0	1.45	3.51	0.05	76094	0	4158	58230	76094	76074	2674	103	296	14	51971	3584113	3087
194	2018-02-13 21:31:38		0	0	0	0	0	0	1.45	3.51	0.05	76137	0	4160	58406	76137	76137	2676	103	298	14	51971	3584119	3091
195	2018-02-13 21:42:07		0	0	0	0	0	0	1.45	3.51	0.05	76174	0	4162	58406	76174	76174	2676	103	298	14	51971	3584128	3091
196	2018-02-13 21:52:40		0	0	0	0	0	0	1.45	3.51	0.05	76204	0	4167	58406	76204	76204	2676	103	298	14	51971	3584140	3091
197	2018-02-13 22:03:12		0	0	0	0	0	0	1.45	3.51	0.05	76232	0	4167	58450	76232	76232	2676	103	298	14	52044	3584159	3091
198	2018-02-13 22:13:42		0	0	0	0	0	0	1.45	3.51	0.05	76285	0	4171	58476	76285	76285	2679	103	298	14	52065	3584166	3094
199	2018-02-13 22:24:11		0	0	0	0	0	0	1.45	3.51	0.05	76309	0	4177	58478	76309	76309	2679	103	298	14	52065	3584178	3094
200	2018-02-13 22:34:42		0	0	0	0	0	0	1.45	3.51	0.05	76333	0	4182	58478	76333	76333	2680	103	298	14	52065	3584184	3095
201	2018-02-13 22:45:19		0	0	0	0	0	0	1.45	3.51	0.05	76356	0	4185	58478	76356	76356	2681	103	298	14	52065	3584199	3096
202	2018-02-13 22:55:43		0	0	0	0	0	0	1.45	3.51	0.05	76397	0	4191	58478	76397	76397	2682	103	299	14	52065	3584203	3098
203	2018-02-13 23:06:14		0	0	0	0	0	0	1.46	3.51	0.05	76438	0	4199	58727	76438	76438	2682	103	299	14	52262	3584217	3098
204	2018-02-13 23:16:44		0	0	0	0	0	0	1.46	3.51	0.05	76468	0	4201	58754	76468	76468	2683	103	299	14	52283	3584225	3099
205	2018-02-13 23:27:16		0	0	0	0	0	0	1.46	3.51	0.05	76496	0	4205	58754	76496	76496	2684	103	299	14	52283	3584232	3100
206	2018-02-13 23:37:44		0	0	0	0	0	0	1.46	3.51	0.05	76515	0	4208	58763	76515	76515	2684	103	299	14	52290	3584235	3100
207	2018-02-13 23:48:15		0	0	0	0	0	0	1.46	3.51	0.06	76533	0	4211	58763	76533	76533	2684	103	300	14	52290	3584246	3101
208	2018-02-13 23:58:47		0	0	0	0	0	0	1.46	3.51	0.06	76556	0	4217	58763	76556	76556	2684	103	300	14	52290	3584250	3101
209	2018-02-14 00:51:16		0	0	0	0	0	0	1.46	3.51	0.06	76643	0	4228	58843	76643	76643	2687	103	300	14	52354	3584252	3104
210	2018-02-14 01:56:16		0	0	0	0	0	0	1.46	3.5	0.06	76702	0	4230	58861	76702	76703	2688	103	300	14	52368	3584252	3105
211	2018-02-14 03:01:19		0	0	0	0	0	0	1.46	3.51	0.06	76730	0	4232	58910	76730	76731	2690	103	300	14	52407	3584238	3107
212	2018-02-14 04:06:18		0	0	0	0	0	0	1.46	3.51	0.06	76745	0	4234	58910	76745	76745	2692	103	300	14	52407	3584237	3109
213	2018-02-14 05:11:22		0	0	0	0	0	0	1.46	3.51	0.06	76757	0	4235	58942	76757	76757	2693	103	300	14	52432	3584240	3110
214	2018-02-14 06:16:25		0	0	0	0	0	0	1.46	3.51	0.06	76789	0	4237	58942	76789	76789	2693	103	300	14	52432	3584253	3110
215	2018-02-14 07:04:20		0	0	0	0	0	0	1.46	3.51	0.06	76822	0	4241	58995	76822	76822	2695	103	302	14	52474	3584271	3114
216	2018-02-14 07:14:52		0	0	0	0	0	0	1.46	3.51	0.06	76832	0	4241	58995	76832	76832	2695	103	302	14	52474	3584277	3114
217	2018-02-14 07:25:23		0	0	0	0	0	0	1.46	3.51	0.06	76840	0	4241	58995	76840	76840	2695	103	302	14	52474	3584276	3114
218	2018-02-14 07:35:52		0	0	0	0	0	0	1.46	3.51	0.06	76852	0	4244	58995	76852	76852	2697	103	302	14	52474	3584278	3116
219	2018-02-14 07:46:23		0	0	0	0	0	0	1.46	3.51	0.06	76863	0	4245	58995	76863	76863	2697	103	302	14	52474	3584289	3116
220	2018-02-14 07:56:53		0	0	0	0	0	0	1.46	3.51	0.06	76877	0	4246	58995	76877	76877	2698	103	302	14	52474	3584291	3117
221	2018-02-14 08:07:25		0	0	0	0	0	0	1.46	3.51	0.06	76889	0	4246	58995	76889	76889	2699	103	302	14	52474	3584300	3118
222	2018-02-14 08:17:55		0	0	0	0	0	0	1.46	3.51	0.06	76903	0	4249	58995	76903	76903	2699	103	302	14	52474	3584306	3118
223	2018-02-14 08:28:25		0	0	0	0	0	0	1.46	3.51	0.06	76919	0	4249	58995	76919	76919	2699	103	302	14	52474	3584314	3118
224	2018-02-14 08:38:57		0	0	0	0	0	0	1.46	3.51	0.06	76927	0	4249	58995	76927	76927	2699	103	302	14	52474	3584318	3118
225	2018-02-14 08:49:26		0	0	0	0	0	0	1.46	3.51	0.06	76940	0	4249	58995	76940	76940	2700	103	302	14	52474	3584324	3119
226	2018-02-14 08:59:59		0	0	0	0	0	0	1.46	3.51	0.06	76959	0	4250	58995	76959	76959	2701	103	302	14	52474	3584328	3120
227	2018-02-14 09:10:28		0	0	0	0	0	0	1.46	3.51	0.06	76976	0	4251	58995	76976	76976	2701	103	302	14	52474	3584332	3120
228	2018-02-14 09:20:58		0	0	0	0	0	0	1.46	3.51	0.06	76983	0	4251	58995	76983	76983	2701	103	302	14	52474	3584335	3120
229	2018-02-14 09:31:29		0	0	0	0	0	0	1.46	3.51	0.06	76995	0	4252	58995	76995	76995	2702	103	302	14	52474	3584344	3121
230	2018-02-14 09:41:58		0	0	0	0	0	0	1.46	3.51	0.06	77014	0	4252	58995	77014	77014	2704	103	302	14	52474	3584347	3123
231	2018-02-14 09:52:30		0	0	0	0	0	0	1.46	3.51	0.06	77043	0	4255	58995	77043	77043	2705	103	302	14	52474	3584353	3124
232	2018-02-14 10:02:59		0	0	0	0	0	0	1.46	3.51	0.06	77053	0	4255	58995	77053	77053	2705	103	302	14	52474	3584362	3124
233	2018-02-14 10:13:29		0	0	0	0	0	0	1.46	3.51	0.06	77077	0	4255	58995	77077	77077	2705	103	302	14	52474	3584368	3124
234	2018-02-14 10:24:00		0	0	0	0	0	0	1.46	3.51	0.06	77089	0	4255	58995	77089	77089	2706	103	302	14	52474	3584369	3125
235	2018-02-14 10:34:30		0	0	0	0	0	0	1.46	3.51	0.06	77095	0	4255	58995	77095	77095	2706	103	303	14	52474	3584372	3126
236	2018-02-14 10:45:02		0	0	0	0	0	0	1.46	3.51	0.06	77110	0	4255	58995	77110	77110	2709	103	303	14	52474	3584378	3129
237	2018-02-14 10:55:35		0	0	0	0	0	0	1.46	3.51	0.06	77130	0	4255	58995	77130	77130	2710	103	303	14	52474	3584384	3130
238	2018-02-14 11:06:02		0	0	0	0	0	0	1.46	3.51	0.06	77140	0	4259	58995	77140	77140	2710	103	303	14	52474	3584383	3130
239	2018-02-14 11:16:33		0	0	0	0	0	0	1.46	3.51	0.06	77149	0	4259	58995	77149	77149	2710	103	303	14	52474	3584391	3130
240	2018-02-14 11:27:04		0	0	0	0	0	0	1.46	3.51	0.06	77169	0	4259	58995	77169	77169	2710	103	303	14	52474	3584394	3130
241	2018-02-14 11:37:36		0	0	0	0	0	0	1.46	3.51	0.06	77184	0	4259	59031	77184	77184	2710	103	303	14	52474	3584395	3130
242	2018-02-14 11:48:05		0	0	0	0	0	0	1.46	3.51	0.06	77198	0	4263	59031	77198	77198	2710	103	303	14	52474	3584400	3130
243	2018-02-14 11:58:37		0	0	0	0	0	0	1.46	3.51	0.06	77205	0	4263	59031	77205	77205	2711	103	303	14	52474	3584409	3131
244	2018-02-14 12:09:08		0	0	0	0	0	0	1.46	3.51	0.06	77220	0	4264	59031	77220	77220	2712	103	303	14	52474	3584412	3132
245	2018-02-14 12:19:35		0	0	0	0	0	0	1.46	3.51	0.06	77232	0	4267	59031	77232	77232	2713	103	303	14	52474	3584417	3133
246	2018-02-14 12:27:51		0	0	0	0	0	0	1.46	3.52	0.06	77239	0	4268	59031	77239	77239	2715	104	303	14	52474	3584422	3136
247	2018-02-14 12:38:24		0	0	0	0	0	0	1.46	3.51	0.06	77252	0	4271	59031	77252	77252	2715	104	303	14	52474	3584428	3136
248	2018-02-14 12:48:49		0	0	0	0	0	0	1.46	3.51	0.06	77261	0	4273	59031	77261	77261	2715	104	303	14	52474	3584429	3136
249	2018-02-14 12:59:20		0	0	0	0	0	0	1.46	3.52	0.06	77274	0	4275	59031	77274	77274	2717	104	303	14	52474	3584432	3138
250	2018-02-14 13:09:52		0	0	0	0	0	0	1.46	3.52	0.06	77285	0	4278	59031	77285	77285	2718	104	303	14	52474	3584434	3139
251	2018-02-14 13:20:23		0	0	0	0	0	0	1.46	3.52	0.06	77299	0	4279	59031	77299	77299	2718	104	303	14	52474	3584440	3139
252	2018-02-14 13:30:53		0	0	0	0	0	0	1.46	3.52	0.06	77308	0	4280	59031	77308	77308	2718	104	303	14	52474	3584446	3139
253	2018-02-14 13:41:26		0	0	0	0	0	0	1.46	3.52	0.06	77322	0	4282	59049	77322	77322	2718	104	303	14	52489	3584451	3139
254	2018-02-14 13:51:58		0	0	0	0	0	0	1.47	3.51	0.06	77329	0	4284	59085	77329	77329	2718	104	303	14	52517	3584459	3139
255	2018-02-14 14:02:25		0	0	0	0	0	0	1.47	3.51	0.06	77353	0	4287	59085	77353	77353	2718	104	303	14	52517	3584462	3139
256	2018-02-14 14:12:55		0	0	0	0	0	0	1.47	3.51	0.06	77365	0	4290	59085	77365	77365	2718	104	303	14	52517	3584466	3139
257	2018-02-14 14:23:25		0	0	0	0	0	0	1.47	3.51	0.06	77375	0	4294	59085	77375	77375	2718	104	303	14	52517	3584476	3139
258	2018-02-14 14:33:57		0	0	0	0	0	0	1.47	3.51	0.06	77386	0	4296	59122	77386	77386	2718	104	303	14	52546	3584479	3139
259	2018-02-14 14:44:26		0	0	0	0	0	0	1.47	3.51	0.06	77414	0	4298	59140	77414	77414	2718	104	303	14	52546	3584488	3139
260	2018-02-14 14:54:57		0	0	0	0	0	0	1.47	3.51	0.06	77435	0	4301	59140	77435	77435	2718	104	303	14	52546	3584488	3139
261	2018-02-14 15:05:30		0	0	0	0	0	0	1.47	3.51	0.06	77456	0	4308	59194	77456	77456	2719	104	303	14	52546	3584495	3140
262	2018-02-14 15:15:59		0	0	0	0	0	0	1.47	3.51	0.06	77471	0	4309	59194	77471	77471	2719	104	303	14	52546	3584503	3140
263	2018-02-14 15:26:27		0	0	0	0	0	0	1.47	3.51	0.06	77476	0	4311	59194	77476	77476	2719	104	303	14	52546	3584513	3140
264	2018-02-14 15:36:59		0	0	0	0	0	0	1.47	3.51	0.06	77493	0	4316	59194	77493	77493	2719	104	303	14	52546	3584518	3140
265	2018-02-14 15:47:28		0	0	0	0	0	0	1.47	3.51	0.06	77521	0	4319	59230	77521	77521	2721	104	303	14	52546	3584520	3142
266	2018-02-14 15:58:04		0	0	0	0	0	0	1.47	3.51	0.06	77536	0	4322	59230	77536	77536	2721	104	303	14	52546	3584521	3142
267	2018-02-14 16:08:33		0	0	0	0	0	0	1.47	3.51	0.06	77549	0	4324	59230	77549	77549	2721	104	303	14	52546	3584531	3142
268	2018-02-14 16:19:01		0	0	0	0	0	0	1.47	3.51	0.06	77562	0	4326	59266	77562	77562	2721	104	303	14	52546	3584546	3142
269	2018-02-14 16:29:32		0	0	0	0	0	0	1.47	3.51	0.06	77576	0	4327	59266	77576	77576	2721	104	303	14	52546	3584547	3142
270	2018-02-14 16:40:01		0	0	0	0	0	0	1.47	3.51	0.06	77605	0	4332	59266	77605	77605	2721	104	303	14	52546	3584559	3142
271	2018-02-14 16:50:34		0	0	0	0	0	0	1.47	3.51	0.06	77613	0	4332	59266	77613	77613	2722	104	303	14	52546	3584566	3143
