1	2017-03-21 14:55:20	0	0	0	0	0	0	0	0	0	0	1	0	0	0	0	0	0	13	0	0	2807183	0
2	2017-03-21 15:05:21	0	0	0	0	0	0	1.73	3.04	0.01	56463	1	381	48961	56463	56082	1718	38	135	30	48662	2807235	1921
3	2017-03-21 15:15:23	0	0	0	0	0	0	3.43	3.71	0.02	119019	1	1961	98333	119019	117058	4417	88	207	53	96409	2807284	4765
4	2017-03-21 15:25:21	0	0	0	0	0	0	4.6	4.14	0.03	170142	1	4399	132088	170142	165743	7047	142	270	73	129207	2807318	7532
5	2017-03-21 15:35:20	0	0	0	0	0	0	5.51	4.28	0.03	213715	1	7033	159481	213715	206682	9145	170	326	85	154758	2807355	9726
6	2017-03-21 15:45:19	0	0	0	0	0	0	6.16	4.42	0.04	248120	1	9579	179276	248120	238541	10969	210	365	92	172811	2807386	11636
7	2017-03-21 15:55:20	0	0	0	0	0	0	6.86	4.51	0.05	278589	1	12062	201064	278589	266527	12563	220	396	102	192632	2807430	13281
8	2017-03-21 16:05:20	0	0	0	0	0	0	7.43	4.57	0.05	305437	1	14434	219237	305437	291003	13967	238	434	109	208468	2807462	14748
9	2017-03-21 16:15:20	0	0	0	0	0	0	7.92	4.61	0.05	330514	1	16709	234286	330514	313805	15247	244	461	113	222460	2807502	16065
10	2017-03-21 16:25:21	0	0	0	0	0	0	8.37	4.64	0.06	353353	1	18657	247195	353353	334696	16387	252	481	116	235025	2807540	17236
11	2017-03-21 16:35:21	0	0	0	0	0	0	8.71	4.69	0.06	373483	1	20482	257045	373483	353001	17501	258	511	118	244558	2807592	18388
12	2017-03-21 16:45:20	0	0	0	0	0	0	9.09	4.69	0.06	392712	1	22427	269619	392712	370285	18436	268	531	124	255217	2807629	19359
13	2017-03-21 16:55:24	0	0	0	0	0	0	9.45	4.71	0.06	411293	1	24175	282175	411293	387118	19369	282	559	129	265269	2807687	20339
14	2017-03-21 17:05:21	0	0	0	0	0	0	9.8	4.73	0.06	428632	1	25810	291121	428632	402822	20259	286	577	134	275041	2807736	21256
15	2017-03-21 17:15:21	0	0	0	0	0	0	10.05	4.73	0.07	444881	1	27395	300236	444881	417486	21047	292	594	141	282086	2807779	22074
16	2017-03-21 17:25:21	0	0	0	0	0	0	10.37	4.73	0.07	460759	1	28978	311352	460759	431781	21794	296	616	146	291108	2807827	22852
17	2017-03-21 17:35:21	0	0	0	0	0	0	10.72	4.73	0.07	475126	1	30338	320976	475126	444788	22495	298	634	149	301019	2807868	23576
18	2017-03-21 17:45:21	0	0	0	0	0	0	11.06	4.73	0.07	489135	1	31682	331875	489135	457453	23121	312	643	150	310498	2807900	24226
19	2017-03-21 17:55:23	0	0	0	0	0	0	11.28	4.72	0.07	503051	1	32968	339535	503051	470083	23764	314	660	153	316808	2807944	24891
20	2017-03-21 18:05:23	0	0	0	0	0	0	11.57	4.72	0.07	516686	1	34157	348477	516686	482529	24409	318	672	154	324869	2807986	25553
21	2017-03-21 18:15:22	0	0	0	0	0	0	11.8	4.72	0.07	529325	1	35350	354948	529325	493975	24986	318	691	160	331211	2808045	26155
22	2017-03-21 18:25:41	0	0	0	0	0	0	12.08	4.71	0.07	542023	1	36515	363313	542023	505508	25514	322	701	160	339224	2808099	26697
23	2017-03-21 18:35:31	0	0	0	0	0	0	12.28	4.7	0.07	554148	1	37613	369493	554148	516535	26044	324	714	165	344957	2808143	27247
24	2017-03-21 18:45:32	0	0	0	0	0	0	12.48	4.7	0.07	565552	1	38656	374506	565552	526896	26555	340	732	165	350349	2808189	27792
25	2017-03-21 18:55:35	0	0	0	0	0	0	12.76	4.69	0.07	577458	1	39677	384400	577458	537781	27072	344	741	167	358412	2808257	28324
26	2017-03-21 19:05:32	0	0	0	0	0	0	13	4.69	0.07	588842	1	40685	391159	588842	548157	27589	352	748	168	365011	2808307	28857
27	2017-03-21 19:15:32	0	0	0	0	0	0	13.2	4.68	0.07	599814	1	41675	398650	599814	558139	28050	360	754	170	370581	2808377	29334
28	2017-03-21 19:25:33	0	0	0	0	0	0	13.32	4.67	0.08	610469	1	42708	401857	610469	567761	28518	362	764	176	374117	2808465	29820
29	2017-03-21 19:35:33	0	0	0	0	0	0	13.54	4.67	0.08	620347	1	43614	408440	620347	576733	28954	370	772	179	380190	2808560	30275
30	2017-03-21 19:45:32	0	0	0	0	0	0	13.79	4.66	0.08	629908	1	44588	415643	629908	585320	29384	374	783	180	387395	2808656	30721
31	2017-03-21 19:55:33	0	0	0	0	0	0	13.89	4.66	0.08	639464	1	45612	419145	639464	593852	29804	374	792	182	390264	2808754	31152
32	2017-03-21 20:05:36	0	0	0	0	0	0	14.05	4.65	0.08	649057	1	46530	424795	649057	602527	30205	380	801	183	394509	2808862	31569
33	2017-03-21 20:15:33	0	0	0	0	0	0	14.15	4.64	0.08	658386	1	47513	428877	658386	610873	30569	384	813	191	397363	2808965	31957
34	2017-03-21 20:25:35	0	0	0	0	0	0	14.38	4.63	0.08	667651	1	48456	434546	667651	619195	30923	388	828	193	403848	2809089	32332
35	2017-03-21 20:35:35	0	0	0	0	0	0	14.56	4.62	0.08	677452	1	49427	440684	677452	628025	31298	390	836	193	409144	2809207	32717
36	2017-03-21 20:45:34	0	0	0	0	0	0	14.74	4.61	0.08	686942	1	50357	446582	686942	636585	31651	392	848	193	414120	2809313	33084
37	2017-03-21 20:55:36	0	0	0	0	0	0	14.95	4.6	0.08	696434	1	51345	453666	696434	645089	32016	400	868	192	419981	2809415	33476
38	2017-03-21 21:05:37	0	0	0	0	0	0	15.06	4.59	0.08	705293	1	52286	458894	705293	653007	32381	412	879	192	423210	2809507	33864
39	2017-03-21 21:15:33	0	0	0	0	0	0	15.22	4.59	0.08	713659	1	53256	464165	713659	660403	32727	416	891	192	427748	2809590	34226
40	2017-03-21 21:25:34	0	0	0	0	0	0	15.29	4.57	0.08	722043	1	54169	466534	722043	667874	33015	424	904	193	429588	2809659	34536
41	2017-03-21 21:35:35	0	0	0	0	0	0	15.43	4.57	0.08	729360	1	54997	470959	729360	674363	33297	436	914	195	433671	2809727	34842
42	2017-03-21 21:45:35	0	0	0	0	0	0	15.5	4.55	0.08	736879	1	55923	473432	736879	680956	33551	436	920	197	435644	2809800	35104
43	2017-03-21 21:55:37	0	0	0	0	0	0	15.62	4.55	0.08	744574	1	56814	477585	744574	687760	33849	444	931	198	439003	2809876	35422
44	2017-03-21 22:05:37	0	0	0	0	0	0	15.76	4.54	0.08	752265	1	57706	482488	752265	694559	34126	450	937	200	442785	2809959	35713
45	2017-03-21 22:15:36	0	0	0	0	0	0	15.97	4.53	0.08	759554	1	58480	488249	759554	701074	34399	452	947	202	448735	2810046	36000
46	2017-03-21 22:25:38	0	0	0	0	0	0	16.11	4.52	0.08	766999	1	59319	491952	766999	707680	34641	460	954	204	452638	2810140	36259
47	2017-03-21 22:35:37	0	0	0	0	0	0	16.29	4.51	0.08	774634	1	60056	498078	774634	714578	34904	462	966	206	457823	2810197	36538
48	2017-03-21 22:45:37	0	0	0	0	0	0	16.46	4.5	0.08	782221	1	60925	503208	782221	721296	35172	470	970	209	462568	2810264	36821
49	2017-03-21 22:55:37	0	0	0	0	0	0	16.59	4.49	0.08	789678	1	61710	507809	789678	727968	35435	474	979	210	466242	2810318	37098
50	2017-03-21 23:05:37	0	0	0	0	0	0	16.74	4.48	0.09	796871	1	62559	512622	796871	734312	35691	474	986	213	470350	2810368	37364
51	2017-03-21 23:15:37	0	0	0	0	0	0	16.87	4.47	0.09	803496	1	63381	516917	803496	740115	35953	478	989	214	474108	2810418	37634
52	2017-03-21 23:25:37	0	0	0	0	0	0	16.94	4.47	0.09	810062	1	64195	519105	810062	745867	36186	478	994	218	476040	2810466	37876
53	2017-03-21 23:35:38	0	0	0	0	0	0	17.05	4.46	0.09	815997	1	64838	521900	815997	751159	36400	482	998	219	479278	2810519	38099
54	2017-03-21 23:45:28	0	0	0	0	0	0	17.16	4.46	0.09	821681	1	65436	524363	821681	756245	36615	484	1005	220	482179	2810553	38324
55	2017-03-21 23:55:29	0	0	0	0	0	0	17.21	4.45	0.09	826605	1	66057	525609	826605	760548	36802	484	1010	221	483836	2810594	38517
56	2017-03-22 00:30:29	0	0	0	0	0	0	17.54	4.44	0.09	841510	1	67558	534570	841510	773952	37380	496	1029	224	493062	2810721	39129
57	2017-03-22 01:30:28	0	0	0	0	0	0	17.92	4.43	0.09	857232	1	68902	544631	857232	788330	37991	498	1043	230	503158	2808062	39762
58	2017-03-22 02:30:30	0	0	0	0	0	0	18.13	4.43	0.09	864759	1	69520	550428	864759	795239	38292	502	1050	233	509104	2808133	40077
59	2017-03-22 03:30:29	0	0	0	0	0	0	18.23	4.42	0.09	869147	1	69888	554270	869147	799259	38437	502	1057	233	512051	2808164	40229
60	2017-03-22 04:30:29	0	0	0	0	0	0	18.33	4.42	0.09	872148	1	70220	556999	872148	801928	38544	502	1058	234	514635	2808186	40338
61	2017-03-22 05:30:29	0	0	0	0	0	0	18.4	4.41	0.09	875713	1	70689	558406	875713	805024	38644	502	1060	234	516610	2808215	40440
62	2017-03-22 06:30:37	0	0	0	0	0	0	18.49	4.4	0.09	881910	1	71629	561011	881910	810281	38818	508	1064	239	519231	2808293	40629
63	2017-03-22 07:05:32	0	0	0	0	0	0	18.56	4.39	0.09	887995	1	72535	563884	887995	815460	38998	508	1068	241	521296	2808342	40815
64	2017-03-22 07:15:32	0	0	0	0	0	0	18.58	4.39	0.09	890059	1	72845	564398	890059	817214	39060	508	1068	241	521735	2808364	40877
65	2017-03-22 07:25:31	0	0	0	0	0	0	18.6	4.38	0.09	892004	1	73161	565016	892004	818843	39104	508	1070	241	522263	2808381	40923
66	2017-03-22 07:35:33	0	0	0	0	0	0	18.6	4.38	0.09	894127	1	73456	565584	894127	820671	39176	508	1072	242	522439	2808413	40998
67	2017-03-22 07:45:32	0	0	0	0	0	0	18.65	4.38	0.09	896270	1	73741	567137	896270	822529	39225	508	1074	242	523765	2808446	41049
68	2017-03-22 07:55:33	0	0	0	0	0	0	18.71	4.37	0.09	898514	1	74068	569223	898514	824446	39307	508	1075	242	525365	2808471	41132
69	2017-03-22 08:05:34	0	0	0	0	0	0	18.73	4.37	0.09	900732	1	74372	569642	900732	826360	39395	508	1076	244	526079	2808491	41223
70	2017-03-22 08:15:33	0	0	0	0	0	0	18.79	4.37	0.09	902958	1	74688	572089	902958	828270	39466	512	1077	244	527828	2808515	41299
71	2017-03-22 08:25:33	0	0	0	0	0	0	18.84	4.37	0.09	905372	1	74988	574370	905372	830384	39531	512	1081	245	529090	2808545	41369
72	2017-03-22 08:35:36	0	0	0	0	0	0	18.84	4.36	0.09	907840	1	75295	574450	907840	832545	39611	512	1083	248	529158	2808567	41454
73	2017-03-22 08:45:35	0	0	0	0	0	0	18.91	4.36	0.09	910337	1	75610	575866	910337	834727	39676	514	1085	248	531087	2808597	41523
74	2017-03-22 08:55:38	0	0	0	0	0	0	19.01	4.36	0.09	912812	1	75960	580345	912812	836852	39765	516	1088	250	533788	2808626	41619
75	2017-03-22 09:05:36	0	0	0	0	0	0	19.01	4.35	0.09	915396	1	76320	580549	915396	839076	39850	518	1089	250	534052	2808663	41707
76	2017-03-22 09:15:36	0	0	0	0	0	0	19.08	4.35	0.09	917957	1	76629	583118	917957	841328	39939	518	1094	250	535854	2808698	41801
77	2017-03-22 09:25:34	0	0	0	0	0	0	19.14	4.35	0.09	920410	1	76972	585032	920410	843438	40007	520	1097	251	537470	2808736	41875
78	2017-03-22 09:35:36	0	0	0	0	0	0	19.18	4.34	0.09	922908	1	77278	586001	922908	845630	40084	522	1098	252	538756	2808792	41956
79	2017-03-22 09:46:02	0	0	0	0	0	0	19.19	4.34	0.09	925363	1	77626	586722	925363	847737	40165	524	1101	253	539084	2808827	42043
80	2017-03-22 09:55:39	0	0	0	0	0	0	19.19	4.34	0.09	927718	1	77931	586889	927718	849787	40245	524	1103	253	539084	2808871	42125
81	2017-03-22 10:05:39	0	0	0	0	0	0	19.28	4.34	0.09	929946	1	78243	589880	929946	851703	40328	524	1105	253	541607	2808912	42210
82	2017-03-22 10:15:38	0	0	0	0	0	0	19.3	4.33	0.09	932174	1	78531	591267	932174	853643	40405	524	1109	256	542063	2808945	42294
83	2017-03-22 10:25:48	0	0	0	0	0	0	19.32	4.33	0.09	934478	1	78799	592143	934478	855679	40487	524	1113	257	542799	2808989	42381
84	2017-03-22 10:35:40	0	0	0	0	0	0	19.35	4.33	0.09	936738	1	79080	593264	936738	857658	40568	524	1117	258	543562	2809028	42467
85	2017-03-22 10:45:38	0	0	0	0	0	0	19.42	4.33	0.09	939183	1	79357	594630	939183	859826	40639	524	1118	258	545476	2809072	42539
86	2017-03-22 10:55:40	0	0	0	0	0	0	19.42	4.32	0.09	941705	1	79641	594859	941705	862064	40726	526	1122	261	545476	2809127	42635
87	2017-03-22 11:05:49	0	0	0	0	0	0	19.48	4.32	0.09	944044	1	79934	597010	944044	864110	40826	526	1122	261	547308	2809178	42735
88	2017-03-22 11:15:44	0	0	0	0	0	0	19.52	4.32	0.09	946439	1	80217	598799	946439	866222	40916	526	1123	261	548423	2809217	42826
89	2017-03-22 11:25:44	0	0	0	0	0	0	19.54	4.32	0.09	948559	1	80478	599495	948559	868081	40993	526	1124	262	549007	2809262	42905
90	2017-03-22 11:35:44	0	0	0	0	0	0	19.6	4.32	0.09	950708	1	80730	601358	950708	869978	41072	528	1127	264	550569	2809312	42991
91	2017-03-22 11:45:45	0	0	0	0	0	0	19.61	4.32	0.09	952791	1	80976	601913	952791	871815	41144	530	1130	266	551034	2809359	43070
92	2017-03-22 11:55:44	0	0	0	0	0	0	19.64	4.32	0.09	954874	1	81231	603629	954874	873643	41220	530	1132	266	551906	2809399	43148
93	2017-03-22 12:05:44	0	0	0	0	0	0	19.67	4.31	0.09	956996	1	81505	604542	956996	875491	41283	530	1135	267	552669	2809450	43215
94	2017-03-22 12:15:44	0	0	0	0	0	0	19.68	4.31	0.09	958973	1	81746	604897	958973	877227	41357	534	1137	268	552965	2809483	43296
95	2017-03-22 12:25:44	0	0	0	0	0	0	19.76	4.31	0.09	960884	1	81979	606318	960884	878905	41440	536	1137	269	555047	2809520	43382
96	2017-03-22 12:35:50	0	0	0	0	0	0	19.8	4.31	0.09	962740	1	82210	607716	962740	880530	41500	538	1140	270	556218	2809552	43448
97	2017-03-22 12:45:46	0	0	0	0	0	0	19.8	4.31	0.09	964753	1	82425	607895	964753	882328	41562	538	1141	270	556368	2809594	43511
98	2017-03-22 12:55:47	0	0	0	0	0	0	19.87	4.31	0.09	966584	1	82636	610292	966584	883948	41612	538	1143	270	558375	2809650	43563
99	2017-03-22 13:05:47	0	0	0	0	0	0	19.92	4.3	0.09	968566	1	82858	611708	968566	885708	41684	540	1146	271	559561	2809702	43641
100	2017-03-22 13:15:48	0	0	0	0	0	0	19.96	4.3	0.09	970555	1	83083	613329	970555	887472	41741	542	1146	271	560967	2809756	43700
101	2017-03-22 13:26:03	0	0	0	0	0	0	20	4.3	0.09	972505	1	83390	614668	972505	889115	41806	544	1146	271	561883	2809816	43767
102	2017-03-22 13:35:47	0	0	0	0	0	0	20	4.3	0.09	974493	1	83641	614882	974493	890852	41887	546	1147	273	561883	2809866	43853
103	2017-03-22 13:45:47	0	0	0	0	0	0	20.02	4.3	0.09	976469	1	83889	615830	976469	892580	41965	546	1150	273	562675	2809942	43934
104	2017-03-22 13:55:52	0	0	0	0	0	0	20.02	4.29	0.09	978507	1	84125	615830	978507	894382	42024	548	1152	273	562675	2810002	43997
105	2017-03-22 14:05:49	0	0	0	0	0	0	20.04	4.29	0.09	980458	1	84375	616320	980458	896083	42098	550	1153	273	563084	2810057	44074
106	2017-03-22 14:16:06	0	0	0	0	0	0	20.06	4.29	0.09	982304	1	84605	617796	982304	897699	42159	550	1155	274	563699	2810111	44138
107	2017-03-22 14:26:00	0	0	0	0	0	0	20.06	4.29	0.09	984299	1	84834	618474	984299	899465	42222	550	1157	274	563802	2810158	44203
108	2017-03-22 14:35:59	0	0	0	0	0	0	20.12	4.29	0.09	986162	1	85039	620019	986162	901123	42297	550	1159	274	565291	2810211	44280
109	2017-03-22 14:46:02	0	0	0	0	0	0	20.13	4.29	0.09	988169	1	85279	620516	988169	902890	42362	550	1160	274	565704	2810274	44346
110	2017-03-22 14:56:02	0	0	0	0	0	0	20.16	4.29	0.09	989958	1	85482	620640	989958	904476	42426	550	1162	275	566429	2810340	44413
111	2017-03-22 15:06:23	0	0	0	0	0	0	20.21	4.29	0.09	991689	1	85671	623248	991689	906018	42499	550	1162	276	568091	2810411	44487
112	2017-03-22 15:16:19	0	0	0	0	0	0	20.24	4.28	0.09	993364	1	85903	624316	993364	907461	42555	552	1162	276	568979	2810468	44545
113	2017-03-22 15:26:22	0	0	0	0	0	0	20.27	4.28	0.09	994929	1	86116	624568	994929	908813	42616	554	1162	276	569607	2810534	44608
114	2017-03-22 15:36:17	0	0	0	0	0	0	20.3	4.28	0.09	996333	1	86283	625577	996333	910050	42664	554	1164	276	570446	2810592	44658
115	2017-03-22 15:46:17	0	0	0	0	0	0	20.3	4.28	0.09	997725	1	86441	625814	997725	911284	42710	558	1164	276	570604	2810632	44708
116	2017-03-22 15:56:22	0	0	0	0	0	0	20.34	4.28	0.09	999040	1	86619	626987	999040	912421	42750	558	1164	277	571578	2810666	44749
117	2017-03-22 16:06:31	0	0	0	0	0	0	20.37	4.28	0.1	1000333	1	86797	627877	1000333	913536	42809	562	1164	278	572530	2810728	44813
118	2017-03-22 16:16:43	0	0	0	0	0	0	20.39	4.28	0.1	1001525	1	86994	628625	1001525	914531	42865	562	1165	278	573152	2810764	44870
119	2017-03-22 16:26:38	0	0	0	0	0	0	20.41	4.28	0.1	1002793	1	87174	629136	1002793	915619	42910	562	1167	279	573577	2810812	44918
120	2017-03-22 16:36:39	0	0	0	0	0	0	20.42	4.28	0.1	1004007	1	87349	629760	1004007	916658	42947	562	1167	280	573989	2810866	44956
121	2017-03-22 16:46:38	0	0	0	0	0	0	20.44	4.28	0.1	1005193	1	87531	629880	1005193	917662	42995	562	1169	280	574515	2810918	45006
122	2017-03-22 16:56:39	0	0	0	0	0	0	20.51	4.28	0.1	1006317	1	87687	631808	1006317	918630	43032	560	1169	280	576547	2810989	45041
123	2017-03-22 17:06:47	0	0	0	0	0	0	20.51	4.27	0.1	1007459	1	87852	631808	1007459	919607	43061	560	1169	281	576547	2811043	45071
124	2017-03-22 17:17:13	0	0	0	0	0	0	20.51	4.27	0.1	1008535	1	87995	631840	1008535	920540	43100	560	1169	282	576574	2811093	45111
125	2017-03-22 17:28:07	0	0	0	0	0	0	20.51	4.27	0.1	1009649	1	88143	631969	1009649	921506	43139	560	1169	283	576682	2811145	45151
126	2017-03-22 17:37:53	0	0	0	0	0	0	20.52	4.27	0.1	1010764	1	88275	632163	1010764	922489	43190	560	1169	285	576843	2811192	45204
127	2017-03-22 17:47:50	0	0	0	0	0	0	20.53	4.27	0.1	1011867	1	88418	632550	1011867	923449	43219	564	1170	285	577165	2811251	45238
128	2017-03-22 17:57:51	0	0	0	0	0	0	20.55	4.27	0.1	1013059	1	88567	632710	1013059	924492	43261	564	1170	285	577729	2811314	45280
129	2017-03-22 18:07:49	0	0	0	0	0	0	20.55	4.27	0.1	1014135	1	88718	632710	1014135	925417	43300	566	1170	285	577729	2811362	45321
130	2017-03-22 18:18:09	0	0	0	0	0	0	20.56	4.27	0.1	1015120	1	88844	633228	1015120	926276	43338	566	1171	285	578160	2811402	45360
131	2017-03-22 18:28:28	0	0	0	0	0	0	20.58	4.27	0.1	1016176	1	88975	633616	1016176	927201	43367	566	1172	286	578484	2811454	45391
132	2017-03-22 18:38:39	0	0	0	0	0	0	20.58	4.27	0.1	1017223	1	89117	633746	1017223	928106	43405	568	1172	286	578593	2811527	45431
133	2017-03-22 18:49:49	0	0	0	0	0	0	20.59	4.27	0.1	1018292	1	89270	634233	1018292	929022	43442	568	1173	286	578998	2811579	45469
134	2017-03-22 18:59:46	0	0	0	0	0	0	20.61	4.27	0.1	1019226	1	89397	635005	1019226	929829	43477	568	1173	286	579432	2811638	45504
135	2017-03-22 19:09:38	0	0	0	0	0	0	20.61	4.27	0.1	1020173	1	89545	635005	1020173	930628	43519	568	1173	286	579432	2811679	45546
136	2017-03-22 19:19:39	0	0	0	0	0	0	20.61	4.27	0.1	1021156	1	89675	635005	1021156	931481	43553	568	1173	286	579432	2811722	45580
137	2017-03-22 19:29:48	0	0	0	0	0	0	20.64	4.26	0.1	1022190	1	89820	636016	1022190	932370	43584	570	1174	287	580273	2811771	45615
138	2017-03-22 19:39:43	0	0	0	0	0	0	20.64	4.26	0.1	1023202	1	89981	636016	1023202	933221	43623	570	1178	287	580273	2811823	45658
139	2017-03-22 19:50:16	0	0	0	0	0	0	20.65	4.26	0.1	1024703	1	90192	636588	1024703	934511	43668	572	1179	287	580749	2811864	45706
140	2017-03-22 20:00:36	0	0	0	0	0	0	20.65	4.26	0.1	1025662	1	90313	636588	1025662	935349	43711	574	1179	287	580749	2811907	45751
141	2017-03-22 20:10:50	0	0	0	0	0	0	20.65	4.26	0.1	1026625	1	90428	636588	1026625	936197	43741	576	1179	287	580749	2811952	45783
142	2017-03-22 20:26:25	0	0	0	0	0	0	20.65	4.26	0.1	1028085	1	90636	636588	1028085	937449	43778	576	1180	288	580749	2812036	45822
143	2017-03-22 20:39:41	0	0	0	0	0	0	20.66	4.26	0.1	1028982	1	90742	636981	1028982	938240	43800	576	1182	288	581076	2812115	45846
144	2017-03-22 20:50:58	0	0	0	0	0	0	20.66	4.26	0.1	1030201	1	90911	636981	1030201	939290	43842	576	1182	288	581076	2812167	45888
145	2017-03-22 21:01:07	0	0	0	0	0	0	20.66	4.25	0.1	1031085	1	91009	636981	1031085	940076	43870	576	1183	288	581076	2812217	45917
146	2017-03-22 21:12:12	0	0	0	0	0	0	20.68	4.25	0.1	1031975	1	91132	637440	1031975	940843	43892	576	1183	288	581458	2812273	45939
147	2017-03-22 21:24:44	0	0	0	0	0	0	20.72	4.25	0.1	1032768	1	91235	639019	1032768	941533	43935	576	1183	288	582772	2812335	45982
148	2017-03-22 21:36:36	0	0	0	0	0	0	20.72	4.25	0.1	1033915	1	91395	639019	1033915	942520	43975	576	1183	288	582772	2812407	46022
149	2017-03-22 21:48:04	0	0	0	0	0	0	20.72	4.25	0.1	1034677	1	91501	639019	1034677	943176	43999	576	1183	288	582772	2812471	46046
150	2017-03-22 21:58:39	0	0	0	0	0	0	20.75	4.25	0.1	1035544	1	91600	639778	1035544	943944	44021	576	1183	288	583623	2812511	46068
151	2017-03-22 22:09:01	0	0	0	0	0	0	20.77	4.25	0.1	1036320	1	91696	640572	1036320	944624	44045	576	1183	289	584284	2812574	46093
152	2017-03-22 22:20:29	0	0	0	0	0	0	20.77	4.25	0.1	1037500	1	91819	641501	1037500	945681	44093	576	1183	289	584284	2812640	46141
153	2017-03-22 22:30:12	0	0	0	0	0	0	20.77	4.25	0.1	1037886	1	91874	641501	1037886	946012	44108	576	1184	289	584284	2812702	46157
154	2017-03-22 22:40:10	0	0	0	0	0	0	20.77	4.25	0.1	1038716	1	91978	641734	1038716	946738	44131	576	1185	289	584284	2812755	46181
155	2017-03-22 22:50:14	0	0	0	0	0	0	20.78	4.25	0.1	1039490	1	92079	642133	1039490	947411	44158	576	1185	290	584615	2812810	46209
156	2017-03-22 23:00:22	0	0	0	0	0	0	20.79	4.25	0.1	1040185	1	92204	643167	1040185	948017	44188	576	1185	290	584697	2812859	46239
157	2017-03-22 23:10:25	0	0	0	0	0	0	20.79	4.25	0.1	1040734	1	92278	643167	1040734	948496	44212	576	1185	290	584697	2812909	46263
158	2017-03-22 23:20:28	0	0	0	0	0	0	20.79	4.25	0.1	1041127	1	92310	643167	1041127	948817	44228	576	1185	290	584697	2812956	46279
159	2017-03-22 23:31:39	0	0	0	0	0	0	20.79	4.25	0.1	1041641	1	92392	643367	1041641	949249	44245	574	1185	290	584697	2813007	46294
160	2017-03-22 23:42:23	0	0	0	0	0	0	20.79	4.25	0.1	1041934	1	92453	643367	1041934	949481	44254	574	1186	290	584697	2813045	46304
161	2017-03-22 23:52:09	0	0	0	0	0	0	20.82	4.25	0.1	1042203	1	92509	644438	1042203	949694	44264	574	1186	290	585582	2813084	46314
162	2017-03-23 00:02:35	0	0	0	0	0	0	20.82	4.25	0.1	1042433	1	92553	644438	1042433	949880	44274	574	1186	290	585582	2813124	46324
163	2017-03-23 01:03:35	0	0	0	0	0	0	20.8	4.25	0.1	1043488	1	92790	644438	1043488	950698	44324	574	1187	290	585582	2815010	46375
164	2017-03-23 02:03:58	0	0	0	0	0	0	20.8	4.25	0.1	1044007	1	92922	644438	1044007	951085	44339	574	1187	290	585582	2815035	46390
165	2017-03-23 03:05:54	0	0	0	0	0	0	20.84	4.25	0.1	1044305	1	93003	645749	1044305	951302	44355	574	1187	290	586664	2815049	46406
166	2017-03-23 04:05:30	0	0	0	0	0	0	20.84	4.25	0.1	1044448	1	93051	645749	1044448	951397	44362	574	1187	290	586664	2815061	46413
167	2017-03-23 05:05:08	0	0	0	0	0	0	20.84	4.25	0.1	1044566	1	93090	645749	1044566	951476	44367	574	1187	290	586664	2815059	46418
168	2017-03-23 06:05:22	0	0	0	0	0	0	20.84	4.25	0.1	1044760	1	93142	645749	1044760	951618	44371	574	1188	290	586664	2815062	46423
169	2017-03-23 07:05:29	0	0	0	0	0	0	20.84	4.25	0.1	1045155	1	93248	645749	1045155	951907	44384	574	1189	290	586664	2815096	46437
170	2017-03-23 07:15:04	0	0	0	0	0	0	20.84	4.25	0.1	1045231	1	93259	645749	1045231	951972	44385	574	1189	290	586664	2815104	46438
171	2017-03-23 07:25:12	0	0	0	0	0	0	20.84	4.25	0.1	1045324	1	93281	645749	1045324	952043	44387	574	1189	290	586664	2815110	46440
172	2017-03-23 07:35:20	0	0	0	0	0	0	20.84	4.25	0.1	1045436	1	93309	646288	1045436	952127	44388	574	1189	290	586664	2815133	46441
173	2017-03-23 07:45:49	0	0	0	0	0	0	20.84	4.25	0.1	1045532	1	93333	646288	1045532	952199	44391	574	1189	290	586664	2815145	46444
174	2017-03-23 07:58:10	0	0	0	0	0	0	20.84	4.25	0.1	1045668	1	93359	646288	1045668	952309	44396	574	1189	290	586664	2815163	46449
175	2017-03-23 08:07:02	0	0	0	0	0	0	20.84	4.25	0.1	1045758	1	93386	646288	1045758	952372	44404	574	1189	290	586664	2815184	46457
176	2017-03-23 08:17:25	0	0	0	0	0	0	20.84	4.25	0.1	1045858	1	93415	646288	1045858	952443	44406	574	1189	290	586664	2815208	46459
177	2017-03-23 08:27:42	0	0	0	0	0	0	20.84	4.25	0.1	1045934	1	93437	646288	1045934	952497	44408	574	1189	290	586664	2815224	46461
178	2017-03-23 08:40:28	0	0	0	0	0	0	20.84	4.25	0.1	1046040	1	93466	646288	1046040	952574	44409	574	1189	290	586664	2815261	46462
179	2017-03-23 08:52:44	0	0	0	0	0	0	20.84	4.25	0.1	1046175	1	93507	646288	1046175	952668	44415	574	1189	290	586664	2815289	46468
180	2017-03-23 09:03:18	0	0	0	0	0	0	20.84	4.25	0.1	1046272	1	93537	646288	1046272	952735	44417	574	1189	290	586664	2815315	46470
181	2017-03-23 09:13:45	0	0	0	0	0	0	20.84	4.25	0.1	1046337	1	93558	646288	1046337	952779	44418	574	1189	290	586664	2815341	46471
182	2017-03-23 09:26:00	0	0	0	0	0	0	20.84	4.24	0.1	1046417	1	93577	646693	1046417	952840	44420	574	1189	290	586664	2815369	46473
183	2017-03-23 09:36:37	0	0	0	0	0	0	20.84	4.25	0.1	1046547	1	93609	646693	1046547	952938	44428	574	1189	290	586664	2815393	46481
184	2017-03-23 09:48:37	0	0	0	0	0	0	20.84	4.25	0.1	1046635	1	93644	646693	1046635	952991	44433	574	1189	290	586664	2815428	46486
185	2017-03-23 09:58:18	0	0	0	0	0	0	20.84	4.25	0.1	1046700	1	93665	646693	1046700	953035	44436	574	1189	290	586664	2815451	46489
186	2017-03-23 10:53:39	0	0	0	0	0	0	20.84	4.25	0.1	1047064	1	93779	646693	1047064	953285	44449	574	1189	290	586664	2815581	46502
187	2017-03-23 11:03:38	0	0	0	0	0	0	20.84	4.25	0.1	1047133	1	93800	646693	1047133	953333	44457	572	1189	290	586664	2815601	46508
188	2017-03-23 11:13:35	0	0	0	0	0	0	20.85	4.25	0.1	1047198	1	93818	646693	1047198	953380	44460	572	1190	290	586997	2815618	46512
189	2017-03-23 11:23:38	0	0	0	0	0	0	20.85	4.25	0.1	1047262	1	93827	646693	1047262	953435	44461	572	1190	290	586997	2815629	46513
190	2017-03-23 11:33:39	0	0	0	0	0	0	20.85	4.25	0.1	1047326	1	93838	646693	1047326	953488	44465	572	1190	290	586997	2815653	46517
191	2017-03-23 11:43:37	0	0	0	0	0	0	20.85	4.25	0.1	1047378	1	93849	646693	1047378	953529	44465	572	1190	290	586997	2815684	46517
192	2017-03-23 11:53:38	0	0	0	0	0	0	20.85	4.25	0.1	1047442	1	93865	646693	1047442	953577	44465	572	1190	290	586997	2815708	46517
193	2017-03-23 12:03:39	0	0	0	0	0	0	20.85	4.24	0.1	1047492	1	93875	646693	1047492	953617	44466	572	1190	290	586997	2815732	46518
194	2017-03-23 12:13:38	0	0	0	0	0	0	20.85	4.24	0.1	1047558	1	93890	646693	1047558	953668	44467	572	1190	290	586997	2815754	46519
195	2017-03-23 12:23:38	0	0	0	0	0	0	20.85	4.24	0.1	1047605	1	93901	646693	1047605	953704	44468	572	1190	290	586997	2815811	46520
196	2017-03-23 12:33:37	0	0	0	0	0	0	20.85	4.24	0.1	1047654	1	93913	646693	1047654	953741	44468	572	1190	290	586997	2815921	46520
197	2017-03-23 12:43:38	0	0	0	0	0	0	20.84	4.24	0.1	1047716	1	93932	646693	1047716	953784	44470	574	1190	290	586997	2816030	46524
198	2017-03-23 12:53:39	0	0	0	0	0	0	20.85	4.24	0.1	1047772	1	93948	646760	1047772	953824	44470	574	1190	290	587053	2816163	46524
199	2017-03-23 13:03:40	0	0	0	0	0	0	20.84	4.24	0.1	1047834	1	93969	646760	1047834	953865	44472	574	1190	290	587053	2816287	46526
200	2017-03-23 13:13:40	0	0	0	0	0	0	20.84	4.24	0.1	1047892	1	93996	646760	1047892	953896	44478	574	1190	290	587053	2816399	46532
201	2017-03-23 13:23:39	0	0	0	0	0	0	20.84	4.24	0.1	1047939	1	94006	646760	1047939	953933	44479	574	1190	290	587053	2816540	46533
202	2017-03-23 13:33:41	0	0	0	0	0	0	20.84	4.24	0.1	1047988	1	94018	646760	1047988	953970	44480	574	1190	290	587053	2816684	46534
203	2017-03-23 13:43:43	0	0	0	0	0	0	20.84	4.24	0.1	1048035	1	94032	646760	1048035	954003	44481	574	1190	290	587053	2816816	46535
204	2017-03-23 13:53:48	0	0	0	0	0	0	20.84	4.24	0.1	1048094	1	94041	646760	1048094	954053	44481	574	1190	290	587053	2816933	46535
205	2017-03-23 13:55:38	0	0	0	0	0	0	20.84	4.24	0.1	1048094	1	94041	646760	1048094	954053	44481	574	1190	290	587053	2816944	46535
206	2017-03-23 14:05:43	0	0	0	0	0	0	20.84	4.24	0.1	1048136	1	94051	646760	1048136	954085	44481	574	1190	290	587053	2817092	46535
207	2017-03-23 14:15:40	0	0	0	0	0	0	20.84	4.24	0.1	1048188	1	94062	646760	1048188	954126	44482	574	1190	290	587053	2817223	46536
208	2017-03-23 14:25:44	0	0	0	0	0	0	20.84	4.24	0.1	1048241	1	94070	646887	1048241	954171	44483	574	1191	290	587157	2817367	46538
209	2017-03-23 14:35:44	0	0	0	0	0	0	20.84	4.24	0.1	1048292	1	94083	646887	1048292	954209	44484	574	1191	290	587157	2817493	46539
210	2017-03-23 14:45:43	0	0	0	0	0	0	20.84	4.24	0.1	1048335	1	94094	646887	1048335	954241	44484	574	1193	290	587157	2817596	46541
211	2017-03-23 14:55:45	0	0	0	0	0	0	20.84	4.24	0.1	1048379	1	94113	646887	1048379	954266	44485	574	1193	290	587157	2817700	46542
212	2017-03-23 15:05:45	0	0	0	0	0	0	20.84	4.24	0.1	1048421	1	94124	646887	1048421	954297	44488	574	1193	290	587157	2817830	46545
213	2017-03-23 15:15:44	0	0	0	0	0	0	20.86	4.24	0.1	1048461	1	94128	647834	1048461	954333	44489	574	1193	290	587938	2817951	46546
214	2017-03-23 15:25:44	0	0	0	0	0	0	20.86	4.24	0.1	1048510	1	94143	647834	1048510	954367	44489	574	1193	290	587938	2818036	46546
215	2017-03-23 15:35:44	0	0	0	0	0	0	20.86	4.24	0.1	1048558	1	94154	647834	1048558	954404	44489	574	1193	290	587938	2818161	46546
216	2017-03-23 15:45:46	0	0	0	0	0	0	20.86	4.24	0.1	1048601	1	94164	647834	1048601	954437	44489	574	1193	290	587938	2818269	46546
217	2017-03-23 15:55:45	0	0	0	0	0	0	20.87	4.24	0.1	1048658	1	94181	648309	1048658	954477	44491	574	1193	290	588329	2818364	46548
218	2017-03-23 16:05:46	0	0	0	0	0	0	20.87	4.24	0.1	1048706	1	94197	648309	1048706	954509	44491	574	1193	290	588329	2818490	46548
219	2017-03-23 16:15:54	0	0	0	0	0	0	20.87	4.24	0.1	1048744	1	94206	648309	1048744	954538	44493	574	1193	290	588329	2818597	46550
220	2017-03-23 16:25:49	0	0	0	0	0	0	20.87	4.24	0.1	1048784	1	94219	648309	1048784	954565	44494	574	1193	290	588329	2818695	46551
221	2017-03-23 16:35:46	0	0	0	0	0	0	20.87	4.24	0.1	1048841	1	94234	648309	1048841	954607	44496	574	1193	290	588329	2818806	46553
222	2017-03-23 16:45:45	0	0	0	0	0	0	20.87	4.24	0.1	1048883	1	94244	648309	1048883	954639	44496	574	1193	290	588329	2818931	46553
223	2017-03-23 16:55:57	0	0	0	0	0	0	20.87	4.24	0.1	1048926	1	94260	648309	1048926	954666	44496	574	1193	290	588329	2819051	46553
224	2017-03-23 17:05:47	0	0	0	0	0	0	20.87	4.24	0.1	1048969	1	94272	648309	1048969	954697	44497	574	1193	290	588329	2819170	46554
225	2017-03-23 17:15:52	0	0	0	0	0	0	20.87	4.24	0.1	1049021	1	94285	648309	1049021	954736	44499	574	1193	290	588329	2819291	46556
226	2017-03-23 17:25:53	0	0	0	0	0	0	20.87	4.24	0.1	1049071	1	94298	648309	1049071	954773	44502	574	1193	290	588329	2819410	46559
227	2017-03-23 17:35:55	0	0	0	0	0	0	20.87	4.24	0.1	1049130	1	94314	648309	1049130	954816	44504	574	1193	290	588329	2819537	46561
228	2017-03-23 17:45:55	0	0	0	0	0	0	20.87	4.24	0.1	1049175	1	94325	648309	1049175	954850	44507	574	1193	290	588329	2819668	46564
229	2017-03-23 17:55:48	0	0	0	0	0	0	20.86	4.24	0.1	1049227	1	94335	648309	1049227	954892	44510	574	1193	290	588329	2819795	46567
230	2017-03-23 18:05:49	0	0	0	0	0	0	20.86	4.24	0.1	1049286	1	94355	648309	1049286	954931	44515	576	1193	290	588329	2819941	46574
231	2017-03-23 18:15:49	0	0	0	0	0	0	20.86	4.24	0.1	1049344	1	94371	648309	1049344	954973	44516	576	1193	290	588329	2820088	46575
232	2017-03-23 18:25:49	0	0	0	0	0	0	20.86	4.24	0.1	1049397	1	94382	648309	1049397	955015	44519	576	1193	290	588329	2820235	46578
233	2017-03-23 18:36:17	0	0	0	0	0	0	20.86	4.24	0.1	1049459	1	94402	648309	1049459	955057	44519	576	1193	290	588329	2820388	46578
234	2017-03-23 18:46:13	0	0	0	0	0	0	20.86	4.24	0.1	1049510	1	94416	648309	1049510	955094	44521	576	1193	290	588329	2820510	46580
235	2017-03-23 18:56:14	0	0	0	0	0	0	20.86	4.24	0.1	1049572	1	94430	648309	1049572	955142	44523	576	1193	290	588329	2820637	46582
236	2017-03-23 19:06:18	0	0	0	0	0	0	20.86	4.24	0.1	1049622	1	94438	648309	1049622	955184	44526	576	1193	290	588329	2820787	46585
237	2017-03-23 19:16:22	0	0	0	0	0	0	20.86	4.24	0.1	1049668	1	94452	648309	1049668	955216	44530	576	1193	290	588329	2820926	46589
238	2017-03-23 19:26:24	0	0	0	0	0	0	20.85	4.24	0.1	1049717	1	94464	648309	1049717	955253	44530	576	1194	290	588329	2821077	46590
239	2017-03-23 19:36:31	0	0	0	0	0	0	20.85	4.24	0.1	1049767	1	94474	648309	1049767	955293	44532	576	1194	290	588329	2821245	46592
240	2017-03-23 19:46:27	0	0	0	0	0	0	20.85	4.24	0.1	1049805	1	94483	648309	1049805	955322	44533	576	1194	290	588329	2821378	46593
241	2017-03-23 19:56:21	0	0	0	0	0	0	20.85	4.24	0.1	1049853	1	94488	648309	1049853	955365	44535	576	1194	290	588329	2821511	46595
242	2017-03-23 20:06:19	0	0	0	0	0	0	20.85	4.24	0.1	1049892	1	94498	648309	1049892	955394	44535	576	1194	290	588329	2821663	46595
243	2017-03-23 20:16:17	0	0	0	0	0	0	20.85	4.24	0.1	1049940	1	94510	648309	1049940	955430	44535	576	1194	290	588329	2821811	46595
244	2017-03-23 20:26:20	0	0	0	0	0	0	20.85	4.24	0.1	1049996	1	94522	648309	1049996	955474	44539	576	1194	291	588329	2821971	46600
245	2017-03-23 20:36:22	0	0	0	0	0	0	20.85	4.24	0.1	1050046	1	94546	648309	1050046	955500	44539	576	1194	291	588329	2822125	46600
246	2017-03-23 20:46:18	0	0	0	0	0	0	20.85	4.24	0.1	1050103	1	94560	648309	1050103	955543	44539	576	1194	291	588329	2822300	46600
247	2017-03-23 20:56:21	0	0	0	0	0	0	20.84	4.24	0.1	1050143	1	94566	648309	1050143	955577	44540	576	1194	291	588329	2822467	46601
248	2017-03-23 21:06:26	0	0	0	0	0	0	20.84	4.24	0.1	1050196	1	94582	648309	1050196	955614	44543	576	1194	291	588329	2822605	46604
249	2017-03-23 21:16:20	0	0	0	0	0	0	20.84	4.24	0.1	1050240	1	94591	648309	1050240	955649	44545	576	1194	291	588329	2822748	46606
250	2017-03-23 21:26:24	0	0	0	0	0	0	20.84	4.24	0.1	1050273	1	94601	648309	1050273	955672	44546	576	1194	291	588329	2822893	46607
251	2017-03-23 21:36:21	0	0	0	0	0	0	20.84	4.24	0.1	1050326	1	94611	648309	1050326	955715	44548	576	1194	292	588329	2823018	46610
252	2017-03-23 21:46:21	0	0	0	0	0	0	20.84	4.24	0.1	1050378	1	94623	648309	1050378	955755	44551	576	1194	292	588329	2823175	46613
253	2017-03-23 21:56:23	0	0	0	0	0	0	20.84	4.24	0.1	1050414	1	94630	648309	1050414	955784	44553	576	1194	292	588329	2823334	46615
254	2017-03-23 22:06:26	0	0	0	0	0	0	20.84	4.24	0.1	1050470	1	94646	648309	1050470	955824	44555	576	1194	292	588329	2823490	46617
255	2017-03-23 22:16:23	0	0	0	0	0	0	20.84	4.24	0.1	1050524	1	94663	648309	1050524	955861	44557	576	1194	292	588329	2823628	46619
256	2017-03-23 22:26:24	0	0	0	0	0	0	20.84	4.24	0.1	1050570	1	94679	648309	1050570	955891	44558	576	1194	292	588329	2823733	46620
257	2017-03-23 22:36:21	0	0	0	0	0	0	20.83	4.24	0.1	1050612	1	94686	648309	1050612	955926	44560	576	1194	292	588329	2823859	46622
258	2017-03-23 22:46:24	0	0	0	0	0	0	20.83	4.24	0.1	1050641	1	94694	648309	1050641	955947	44563	576	1194	292	588329	2823981	46625
259	2017-03-23 22:56:23	0	0	0	0	0	0	20.83	4.24	0.1	1050676	1	94703	648309	1050676	955973	44567	576	1194	292	588329	2824115	46629
260	2017-03-23 23:06:22	0	0	0	0	0	0	20.83	4.24	0.1	1050723	1	94724	648309	1050723	955999	44568	576	1194	292	588329	2824230	46630
261	2017-03-23 23:16:26	0	0	0	0	0	0	20.83	4.24	0.1	1050774	1	94744	648309	1050774	956030	44569	576	1194	292	588329	2824360	46631
262	2017-03-23 23:26:22	0	0	0	0	0	0	20.83	4.24	0.1	1050815	1	94758	648309	1050815	956057	44572	576	1194	292	588329	2824457	46634
263	2017-03-23 23:36:00	0	0	0	0	0	0	20.83	4.24	0.1	1050851	1	94768	648309	1050851	956083	44573	576	1194	292	588329	2824545	46635
264	2017-03-23 23:45:57	0	0	0	0	0	0	20.83	4.24	0.1	1050877	1	94780	648309	1050877	956097	44575	576	1194	292	588329	2824645	46637
265	2017-03-23 23:55:56	0	0	0	0	0	0	20.83	4.24	0.1	1050906	1	94788	648309	1050906	956118	44577	576	1194	292	588329	2824729	46639
266	2017-03-24 00:31:01	0	0	0	0	0	0	20.83	4.24	0.1	1050999	1	94813	648309	1050999	956186	44585	576	1194	292	588329	2824873	46647
267	2017-03-24 01:30:57	0	0	0	0	0	0	20.86	4.24	0.1	1051108	1	94839	648309	1051108	956269	44592	576	1195	292	588329	2819807	46655
268	2017-03-24 02:30:58	0	0	0	0	0	0	20.86	4.24	0.1	1051168	1	94861	648309	1051168	956307	44595	576	1196	292	588329	2819864	46659
269	2017-03-24 03:31:02	0	0	0	0	0	0	20.86	4.24	0.1	1051196	1	94867	648309	1051196	956329	44596	576	1196	292	588329	2819901	46660
270	2017-03-24 04:30:59	0	0	0	0	0	0	20.86	4.24	0.1	1051231	1	94880	648377	1051231	956351	44596	576	1196	292	588329	2819921	46660
271	2017-03-24 05:31:03	0	0	0	0	0	0	20.86	4.24	0.1	1051260	1	94893	648377	1051260	956367	44598	576	1196	292	588329	2819959	46662
272	2017-03-24 06:31:03	0	0	0	0	0	0	20.86	4.24	0.1	1051328	1	94917	648377	1051328	956411	44599	576	1196	292	588329	2820060	46663
273	2017-03-24 07:05:59	0	0	0	0	0	0	20.86	4.24	0.1	1051381	1	94932	648377	1051381	956449	44601	576	1196	292	588329	2820223	46665
274	2017-03-24 07:15:58	0	0	0	0	0	0	20.86	4.24	0.1	1051392	1	94934	648377	1051392	956458	44601	576	1196	292	588329	2820283	46665
275	2017-03-24 07:25:59	0	0	0	0	0	0	20.86	4.24	0.1	1051415	1	94941	648377	1051415	956474	44601	576	1196	292	588329	2820344	46665
276	2017-03-24 07:35:59	0	0	0	0	0	0	20.86	4.24	0.1	1051438	1	94947	648377	1051438	956491	44602	576	1196	292	588329	2820407	46666
277	2017-03-24 07:46:03	0	0	0	0	0	0	20.86	4.24	0.1	1051464	1	94952	648377	1051464	956512	44605	576	1196	292	588329	2820478	46669
278	2017-03-24 07:56:00	0	0	0	0	0	0	20.86	4.24	0.1	1051482	1	94959	648377	1051482	956523	44605	576	1196	292	588329	2820542	46669
279	2017-03-24 08:06:03	0	0	0	0	0	0	20.86	4.24	0.1	1051514	1	94978	648377	1051514	956536	44608	576	1196	292	588329	2820613	46672
280	2017-03-24 08:16:06	0	0	0	0	0	0	20.86	4.24	0.1	1051556	1	95009	648377	1051556	956547	44610	576	1196	292	588329	2820682	46674
281	2017-03-24 08:26:42	0	0	0	0	0	0	20.86	4.24	0.1	1051591	1	95020	648377	1051591	956571	44611	576	1196	292	588329	2820788	46675
282	2017-03-24 08:36:56	0	0	0	0	0	0	20.86	4.24	0.1	1051629	1	95037	648377	1051629	956592	44615	576	1196	293	588329	2820851	46680
283	2017-03-24 08:46:02	0	0	0	0	0	0	20.86	4.24	0.1	1051667	1	95054	648377	1051667	956613	44616	576	1196	293	588329	2820872	46681
284	2017-03-24 08:56:08	0	0	0	0	0	0	20.86	4.24	0.1	1051719	1	95079	648377	1051719	956640	44616	576	1196	294	588329	2820885	46682
285	2017-03-24 09:06:02	0	0	0	0	0	0	20.86	4.24	0.1	1051768	1	95095	648377	1051768	956673	44616	576	1196	294	588329	2820895	46682
286	2017-03-24 09:16:02	0	0	0	0	0	0	20.86	4.24	0.1	1051798	1	95107	648377	1051798	956691	44617	576	1196	294	588329	2820908	46683
287	2017-03-24 09:26:06	0	0	0	0	0	0	20.86	4.24	0.1	1051832	1	95117	648377	1051832	956715	44620	576	1196	294	588329	2820923	46686
288	2017-03-24 09:36:02	0	0	0	0	0	0	20.86	4.24	0.1	1051861	1	95129	648377	1051861	956732	44622	576	1196	294	588329	2820943	46688
289	2017-03-24 09:46:05	0	0	0	0	0	0	20.86	4.24	0.1	1051892	1	95139	648377	1051892	956753	44623	576	1196	294	588329	2820957	46689
290	2017-03-24 09:56:04	0	0	0	0	0	0	20.86	4.24	0.1	1051918	1	95148	648377	1051918	956770	44624	576	1196	294	588329	2820978	46690
291	2017-03-24 10:06:06	0	0	0	0	0	0	20.86	4.24	0.1	1051955	1	95158	648377	1051955	956797	44624	576	1196	294	588329	2821007	46690
292	2017-03-24 10:16:04	0	0	0	0	0	0	20.86	4.24	0.1	1051986	1	95167	648377	1051986	956819	44624	576	1196	294	588329	2821033	46690
293	2017-03-24 10:26:30	0	0	0	0	0	0	20.85	4.24	0.1	1052003	1	95169	648377	1052003	956834	44625	576	1196	294	588329	2821058	46691
294	2017-03-24 10:36:16	0	0	0	0	0	0	20.85	4.24	0.1	1052029	1	95175	648377	1052029	956854	44627	576	1196	294	588329	2821078	46693
295	2017-03-24 10:46:25	0	0	0	0	0	0	20.85	4.24	0.1	1052049	1	95178	648377	1052049	956871	44627	576	1196	294	588329	2821097	46693
296	2017-03-24 10:56:15	0	0	0	0	0	0	20.85	4.24	0.1	1052084	1	95190	648377	1052084	956894	44628	578	1197	294	588329	2821117	46697
297	2017-03-24 11:06:27	0	0	0	0	0	0	20.85	4.24	0.1	1052119	1	95199	648377	1052119	956920	44628	578	1197	294	588329	2821138	46697
298	2017-03-24 11:16:08	0	0	0	0	0	0	20.85	4.24	0.1	1052148	1	95217	648377	1052148	956931	44630	578	1197	294	588329	2821165	46699
299	2017-03-24 11:26:06	0	0	0	0	0	0	20.87	4.24	0.1	1052174	1	95223	648785	1052174	956951	44633	578	1197	294	588664	2821195	46702
300	2017-03-24 11:36:05	0	0	0	0	0	0	20.87	4.24	0.1	1052193	1	95227	648989	1052193	956966	44633	578	1197	294	588832	2821211	46702
301	2017-03-24 11:46:04	0	0	0	0	0	0	20.87	4.24	0.1	1052224	1	95229	648989	1052224	956995	44638	578	1197	294	588832	2821246	46707
302	2017-03-24 11:56:22	0	0	0	0	0	0	20.87	4.24	0.1	1052237	1	95233	648989	1052237	957004	44638	578	1197	294	588832	2821271	46707
303	2017-03-24 12:06:08	0	0	0	0	0	0	20.87	4.24	0.1	1052268	1	95239	648989	1052268	957029	44638	578	1197	294	588832	2821298	46707
304	2017-03-24 12:16:07	0	0	0	0	0	0	20.87	4.24	0.1	1052289	1	95242	648989	1052289	957047	44638	578	1197	294	588832	2821312	46707
305	2017-03-24 12:26:12	0	0	0	0	0	0	20.87	4.24	0.1	1052308	1	95246	648989	1052308	957062	44641	578	1197	294	588832	2821332	46710
306	2017-03-24 12:36:10	0	0	0	0	0	0	20.87	4.24	0.1	1052328	1	95247	648989	1052328	957081	44641	578	1197	294	588832	2821352	46710
307	2017-03-24 12:46:08	0	0	0	0	0	0	20.87	4.24	0.1	1052354	1	95252	648989	1052354	957102	44643	578	1197	294	588832	2821374	46712
308	2017-03-24 12:56:30	0	0	0	0	0	0	20.87	4.24	0.1	1052373	1	95255	648989	1052373	957118	44643	578	1197	294	588832	2821391	46712
309	2017-03-24 13:06:12	0	0	0	0	0	0	20.87	4.24	0.1	1052392	1	95257	648989	1052392	957135	44644	578	1197	294	588832	2821416	46713
310	2017-03-24 13:16:12	0	0	0	0	0	0	20.9	4.24	0.1	1052411	1	95261	649942	1052411	957150	44646	578	1197	294	589617	2821443	46715
311	2017-03-24 13:26:44	0	0	0	0	0	0	20.91	4.24	0.1	1052431	1	95265	650352	1052431	957166	44646	578	1197	294	589954	2821472	46715
312	2017-03-24 13:36:26	0	0	0	0	0	0	20.91	4.24	0.1	1052454	1	95269	650352	1052454	957185	44649	578	1197	294	589954	2821479	46718
313	2017-03-24 13:46:53	0	0	0	0	0	0	20.92	4.24	0.1	1052482	1	95274	650625	1052482	957208	44649	578	1197	294	590179	2821497	46718
314	2017-03-24 13:56:33	0	0	0	0	0	0	20.92	4.24	0.1	1052500	1	95278	650625	1052500	957222	44649	578	1197	294	590179	2821512	46718
315	2017-03-24 14:06:17	0	0	0	0	0	0	20.93	4.24	0.1	1052519	1	95279	650762	1052519	957240	44649	578	1197	294	590517	2821523	46718
316	2017-03-24 14:16:45	0	0	0	0	0	0	20.93	4.24	0.1	1052555	1	95290	650762	1052555	957265	44649	578	1197	294	590517	2821533	46718
317	2017-03-24 14:26:19	0	0	0	0	0	0	20.94	4.24	0.1	1052586	1	95297	651018	1052586	957289	44650	578	1197	294	590728	2821549	46719
318	2017-03-24 14:36:20	0	0	0	0	0	0	20.94	4.24	0.1	1052620	1	95312	651018	1052620	957308	44650	578	1197	294	590728	2821565	46719
319	2017-03-24 14:46:22	0	0	0	0	0	0	20.94	4.24	0.1	1052650	1	95323	651018	1052650	957327	44651	578	1197	294	590728	2821589	46720
