1	2017-09-29 14:29:30		0	0	0	0	0	0	0.21	0.59	0	7499	0	11	7188	7499	7488	44	11	57	41	7111	3377048	153
2	2017-09-29 14:40:30		0	0	0	0	0	0	1.01	1.97	0.01	38717	0	236	34794	38717	38481	764	17	120	69	33949	3377083	970
3	2017-09-29 14:51:32		0	0	0	0	0	0	1.67	2.36	0.01	66643	0	602	57681	66643	66041	1570	22	174	89	56404	3377124	1855
4	2017-09-29 15:03:46		0	0	0	0	0	0	1.96	2.43	0.01	81315	0	927	67709	81315	80388	1973	25	217	105	66222	3377168	2320
5	2017-09-29 15:13:30		0	0	0	0	0	0	2.21	2.48	0.01	94010	0	1255	76046	94010	92755	2334	27	247	119	74698	3377213	2727
6	2017-09-29 15:24:31		0	0	0	0	0	0	2.4	2.48	0.02	105782	0	1573	83547	105782	104209	2625	27	272	130	81218	3377273	3054
7	2017-09-29 15:35:30		0	0	0	0	0	0	2.61	2.51	0.02	116455	0	1834	90613	116455	114621	2919	29	299	137	88090	3377316	3384
8	2017-09-29 15:46:32		0	0	0	0	0	0	2.95	2.52	0.02	131108	0	2248	101939	131108	128860	3306	31	323	143	99739	3377364	3803
9	2017-09-29 15:57:35		0	0	0	0	0	0	3.1	2.53	0.02	139956	0	2532	107080	139956	137424	3544	35	342	153	104867	3377401	4074
10	2017-09-29 16:08:31		0	0	0	0	0	0	3.23	2.53	0.02	147830	0	2852	111969	147830	144978	3736	37	358	155	109097	3377441	4286
11	2017-09-29 16:19:32		0	0	0	0	0	0	3.34	2.53	0.02	155011	0	3120	116076	155011	151891	3927	43	375	155	112745	3377487	4500
12	2017-09-29 16:30:30		0	0	0	0	0	0	3.48	2.52	0.02	161808	0	3407	121574	161808	158401	4077	44	386	157	117670	3377536	4664
13	2017-09-29 16:41:31		0	0	0	0	0	0	3.66	2.48	0.02	170922	0	3786	127581	170922	167136	4241	46	401	161	123648	3377578	4849
14	2017-09-29 16:52:31		0	0	0	0	0	0	3.77	2.48	0.02	176646	0	3996	131546	176646	172650	4382	47	416	163	127434	3377682	5008
15	2017-09-29 17:03:32		0	0	0	0	0	0	3.85	2.47	0.02	181900	0	4215	134293	181900	177685	4485	52	435	166	130054	3377823	5138
16	2017-09-29 17:14:31		0	0	0	0	0	0	3.93	2.45	0.02	186556	0	4451	136818	186556	182105	4578	52	448	169	132705	3377939	5247
17	2017-09-29 17:25:32		0	0	0	0	0	0	4.02	2.44	0.03	191143	0	4705	140026	191143	186438	4660	54	458	171	135673	3378026	5343
18	2017-09-29 17:36:34		0	0	0	0	0	0	4.12	2.42	0.03	197188	0	5030	144029	197188	192158	4773	54	472	174	139033	3378164	5473
19	2017-09-29 17:47:33		0	0	0	0	0	0	4.18	2.42	0.03	201050	0	5229	146725	201050	195821	4864	57	482	175	141349	3378323	5578
20	2017-09-29 17:58:32		0	0	0	0	0	0	4.26	2.41	0.03	204832	0	5413	149254	204832	199419	4935	57	489	175	143909	3378456	5656
21	2017-09-29 18:09:36		0	0	0	0	0	0	4.37	2.4	0.03	208681	0	5567	153307	208681	203114	5014	58	500	178	147674	3378596	5750
22	2017-09-29 18:20:33		0	0	0	0	0	0	4.45	2.39	0.03	212382	0	5711	155783	212382	206671	5085	59	509	179	150311	3378753	5832
23	2017-09-29 18:31:31		0	0	0	0	0	0	4.58	2.39	0.03	217633	0	5954	160647	217633	211679	5193	59	516	180	154758	3378877	5948
24	2017-09-29 18:42:31		0	0	0	0	0	0	4.63	2.38	0.03	220858	0	6107	162446	220858	214751	5263	59	528	181	156304	3378990	6031
25	2017-09-29 18:53:32		0	0	0	0	0	0	4.67	2.37	0.03	224064	0	6274	164166	224064	217790	5321	60	533	182	157839	3379100	6096
26	2017-09-29 19:04:33		0	0	0	0	0	0	4.72	2.37	0.03	227405	0	6424	166006	227405	220981	5395	61	542	182	159408	3379205	6180
27	2017-09-29 19:15:32		0	0	0	0	0	0	4.78	2.37	0.03	230426	0	6562	168141	230426	223864	5454	61	554	184	161376	3379336	6253
28	2017-09-29 19:26:33		0	0	0	0	0	0	4.86	2.36	0.03	234903	0	6787	171518	234903	228116	5537	61	562	185	164353	3379485	6345
29	2017-09-29 19:37:33		0	0	0	0	0	0	4.88	2.35	0.03	237695	0	6947	172298	237695	230748	5596	61	568	185	164858	3379601	6410
30	2017-09-29 19:48:35		0	0	0	0	0	0	4.94	2.35	0.03	240796	0	7060	174306	240796	233736	5655	62	575	187	166952	3379752	6479
31	2017-09-29 19:59:37		0	0	0	0	0	0	4.99	2.34	0.03	244111	0	7233	175960	244111	236878	5720	62	578	187	168693	3379879	6547
32	2017-09-29 20:10:32		0	0	0	0	0	0	5.05	2.34	0.03	247267	0	7352	178504	247267	239915	5789	62	587	187	170766	3380005	6625
33	2017-09-29 20:21:33		0	0	0	0	0	0	5.14	2.33	0.03	251746	0	7547	181640	251746	244199	5868	63	592	187	173810	3380147	6710
34	2017-09-29 20:32:33		0	0	0	0	0	0	5.21	2.32	0.03	254618	0	7686	184174	254618	246932	5912	63	600	187	176168	3380278	6762
35	2017-09-29 20:43:34		0	0	0	0	0	0	5.29	2.31	0.03	257651	0	7845	186429	257651	249806	5953	65	611	188	178724	3380390	6817
36	2017-09-29 20:54:33		0	0	0	0	0	0	5.37	2.31	0.03	260748	0	7990	189728	260748	252758	6011	65	621	190	181586	3380497	6887
37	2017-09-29 21:05:34		0	0	0	0	0	0	5.43	2.29	0.03	264102	0	8153	192262	264102	255949	6050	68	632	191	183474	3380594	6941
38	2017-09-29 21:16:34		0	0	0	0	0	0	5.5	2.28	0.03	269811	0	8446	195047	269811	261365	6143	69	639	193	185831	3380712	7044
39	2017-09-29 21:27:33		0	0	0	0	0	0	5.58	2.27	0.03	273172	0	8638	197713	273172	264534	6202	70	647	195	188730	3380796	7114
40	2017-09-29 21:38:37		0	0	0	0	0	0	5.65	2.26	0.03	276008	0	8831	200116	276008	267177	6249	72	653	195	190943	3380871	7169
41	2017-09-29 21:49:36		0	0	0	0	0	0	5.71	2.26	0.03	278766	0	8988	202146	278766	269778	6288	72	661	197	192970	3380932	7218
42	2017-09-29 22:00:37		0	0	0	0	0	0	5.75	2.24	0.03	281446	0	9133	203419	281446	272313	6316	72	667	200	194374	3381008	7255
43	2017-09-29 22:11:35		0	0	0	0	0	0	5.85	2.24	0.03	285325	0	9383	206740	285325	275942	6382	72	672	203	197706	3381101	7329
44	2017-09-29 22:22:34		0	0	0	0	0	0	5.86	2.23	0.03	287880	0	9552	207679	287880	278328	6424	72	683	204	198285	3381194	7383
45	2017-09-29 22:33:34		0	0	0	0	0	0	5.94	2.22	0.03	290458	0	9684	209967	290458	280774	6461	72	691	206	200681	3381273	7430
46	2017-09-29 22:44:35		0	0	0	0	0	0	5.99	2.22	0.03	292864	0	9836	211878	292864	283028	6494	72	697	206	202426	3381342	7469
47	2017-09-29 22:55:34		0	0	0	0	0	0	6.01	2.21	0.03	295269	0	9959	213015	295269	285310	6540	72	701	207	203264	3381397	7520
48	2017-09-29 23:06:35		0	0	0	0	0	0	6.07	2.22	0.04	298221	0	10188	215514	298221	289569	6614	75	707	208	205265	3381450	7604
49	2017-09-29 23:17:36		0	0	0	0	0	0	6.14	2.2	0.04	303003	0	10339	218040	303003	292664	6659	75	714	209	207556	3381521	7657
50	2017-09-29 23:28:54		0	0	0	0	0	0	6.15	2.19	0.04	305855	0	10496	218734	305855	295359	6706	76	720	210	208072	3381577	7712
51	2017-09-29 23:39:54		0	0	0	0	0	0	6.22	2.19	0.04	307925	0	10614	221424	307925	297311	6742	76	723	212	210505	3381631	7753
52	2017-09-29 23:51:04		0	0	0	0	0	0	6.26	2.18	0.04	309928	0	10729	223123	309928	299199	6771	76	728	213	211750	3381675	7788
53	2017-09-30 00:01:53		0	0	0	0	0	0	6.32	2.18	0.04	312695	0	10873	225253	312695	301822	6819	76	729	214	213638	3381717	7838
54	2017-09-30 01:01:52		0	0	0	0	0	0	6.56	2.17	0.04	322401	0	11320	233645	322401	311081	7007	79	744	216	221710	3381804	8046
55	2017-09-30 02:01:52		0	0	0	0	0	0	6.73	2.17	0.04	328548	0	11523	239639	328548	317025	7125	82	754	217	227702	3381795	8178
56	2017-09-30 03:01:55		0	0	0	0	0	0	6.85	2.16	0.04	332629	0	11674	241532	332629	320955	7190	85	758	218	231676	3381794	8251
57	2017-09-30 04:01:56		0	0	0	0	0	0	6.91	2.15	0.04	335488	0	11750	243153	335488	323738	7224	85	766	220	233801	3381797	8295
58	2017-09-30 05:02:01		0	0	0	0	0	0	6.95	2.15	0.04	337553	0	11819	244266	337553	325734	7259	85	771	221	235151	3381820	8336
59	2017-09-30 06:01:56		0	0	0	0	0	0	6.99	2.15	0.04	339570	0	11907	245554	339570	327663	7287	85	772	221	236381	3381878	8365
60	2017-09-30 07:01:58		0	0	0	0	0	0	7.06	2.14	0.04	342549	0	12006	247724	342549	330543	7335	86	779	222	238684	3382104	8422
61	2017-09-30 07:12:55		0	0	0	0	0	0	7.08	2.14	0.04	343409	0	12041	248519	343409	331368	7357	86	779	222	239423	3382162	8444
62	2017-09-30 07:24:29		0	0	0	0	0	0	7.1	2.14	0.04	344018	0	12062	249119	344018	331956	7370	86	781	222	239979	3382232	8459
63	2017-09-30 07:35:26		0	0	0	0	0	0	7.11	2.14	0.04	344668	0	12084	249671	344668	332584	7378	86	782	222	240492	3382276	8468
64	2017-09-30 07:46:17		0	0	0	0	0	0	7.12	2.14	0.04	345356	0	12120	250094	345356	333236	7391	87	784	222	240885	3382368	8484
65	2017-09-30 07:57:55		0	0	0	0	0	0	7.15	2.14	0.04	346599	0	12176	251272	346599	334423	7406	87	784	222	241976	3382429	8499
66	2017-09-30 08:09:06		0	0	0	0	0	0	7.17	2.14	0.04	347434	0	12229	251926	347434	335205	7424	87	784	222	242583	3382499	8517
67	2017-09-30 08:20:06		0	0	0	0	0	0	7.2	2.14	0.04	348319	0	12274	252728	348319	336045	7441	87	786	222	243403	3382590	8536
68	2017-09-30 08:31:10		0	0	0	0	0	0	7.2	2.14	0.04	349167	0	12335	252976	349167	336832	7459	87	787	222	243633	3382673	8555
69	2017-09-30 08:43:06		0	0	0	0	0	0	7.25	2.14	0.04	350601	0	12425	254347	350601	338176	7487	87	789	222	245137	3382758	8585
70	2017-09-30 08:53:55		0	0	0	0	0	0	7.26	2.13	0.04	351542	0	12479	255080	351542	339063	7497	87	791	222	245507	3382836	8597
71	2017-09-30 09:04:51		0	0	0	0	0	0	7.32	2.13	0.04	352531	0	12543	257390	352531	339988	7511	87	792	223	247646	3382953	8613
72	2017-09-30 09:21:30		0	0	0	0	0	0	7.35	2.13	0.04	354025	0	12633	258767	354025	341392	7534	87	793	223	248760	3383044	8637
73	2017-09-30 09:29:07		0	0	0	0	0	0	7.39	2.13	0.04	355021	0	12699	260071	355021	342322	7550	87	794	223	249965	3383046	8654
74	2017-09-30 09:42:25		0	0	0	0	0	0	7.4	2.13	0.04	356032	0	12758	260377	356032	343274	7571	87	795	224	250248	3383064	8677
75	2017-09-30 09:52:42		0	0	0	0	0	0	7.41	2.13	0.04	356970	0	12815	260794	356970	344155	7588	87	795	224	250633	3383073	8694
76	2017-09-30 10:03:35		0	0	0	0	0	0	7.43	2.12	0.04	358493	0	12918	261598	358493	345575	7608	87	798	225	251497	3383114	8718
77	2017-09-30 10:14:36		0	0	0	0	0	0	7.45	2.12	0.04	359274	0	12972	262074	359274	346302	7626	87	800	225	252060	3383127	8738
78	2017-09-30 10:32:17		0	0	0	0	0	0	7.47	2.12	0.04	360438	0	13063	262657	360438	347375	7653	87	802	225	252600	3383167	8767
79	2017-09-30 10:39:40		0	0	0	0	0	0	7.48	2.12	0.04	361247	0	13129	262992	361247	348118	7668	87	803	225	252909	3383180	8783
80	2017-09-30 10:50:34		0	0	0	0	0	0	7.48	2.12	0.04	362000	0	13183	262992	362000	348817	7679	87	804	225	252909	3383206	8795
81	2017-09-30 11:01:38		0	0	0	0	0	0	7.48	2.12	0.04	362728	0	13226	263417	362728	349502	7695	87	806	225	253137	3383241	8813
82	2017-09-30 11:23:02		0	0	0	0	0	0	7.5	2.12	0.04	364083	0	13310	263908	364083	350773	7727	87	807	226	253590	3383294	8847
83	2017-09-30 11:38:08		0	0	0	0	0	0	7.5	2.12	0.04	365111	0	13386	264235	365111	351725	7745	87	811	226	253892	3383346	8869
84	2017-09-30 11:57:12		0	0	0	0	0	0	7.55	2.12	0.04	366529	0	13502	265603	366529	353027	7773	87	812	227	255565	3383399	8899
85	2017-09-30 12:08:16		0	0	0	0	0	0	7.55	2.12	0.04	367236	0	13569	265603	367236	353688	7800	87	812	227	255565	3383400	8926
86	2017-09-30 12:22:30		0	0	0	0	0	0	7.57	2.12	0.04	368209	0	13615	266162	368209	354594	7813	88	814	228	256083	3383419	8943
87	2017-09-30 12:36:07		0	0	0	0	0	0	7.57	2.12	0.04	369279	0	13689	266345	369279	355590	7826	88	816	228	256253	3383467	8958
88	2017-09-30 12:48:11		0	0	0	0	0	0	7.58	2.12	0.04	370018	0	13723	266563	370018	356295	7835	88	819	228	256454	3383509	8970
89	2017-09-30 12:58:37		0	0	0	0	0	0	7.61	2.12	0.04	371125	0	13793	267733	371125	357332	7857	89	820	228	257537	3383557	8994
90	2017-09-30 13:10:17		0	0	0	0	0	0	7.61	2.12	0.04	371802	0	13846	267733	371802	357956	7874	89	821	229	257537	3383604	9013
91	2017-09-30 13:34:50		0	0	0	0	0	0	7.66	2.12	0.04	373571	0	13970	269340	373571	359601	7908	90	823	231	259023	3383675	9052
92	2017-09-30 13:43:28		0	0	0	0	0	0	7.67	2.12	0.04	374195	0	13994	269809	374195	360201	7920	90	823	231	259458	3383714	9064
93	2017-09-30 13:54:35		0	0	0	0	0	0	7.67	2.12	0.04	374807	0	14037	269833	374807	360770	7935	90	825	231	259458	3383779	9081
94	2017-09-30 14:06:24		0	0	0	0	0	0	7.68	2.12	0.04	375371	0	14078	270398	375371	361293	7954	90	825	231	259980	3383827	9100
95	2017-09-30 14:17:21		0	0	0	0	0	0	7.7	2.12	0.04	375869	0	14123	271011	375869	361746	7961	90	826	231	260546	3383899	9108
96	2017-09-30 14:28:30		0	0	0	0	0	0	7.71	2.12	0.04	376548	0	14173	271153	376548	362375	7977	91	826	231	260766	3383924	9125
97	2017-09-30 14:40:18		0	0	0	0	0	0	7.71	2.12	0.04	376917	0	14208	271248	376917	362709	7986	91	826	231	260766	3383983	9134
98	2017-09-30 14:50:39		0	0	0	0	0	0	7.71	2.12	0.04	377255	0	14246	271248	377255	363009	7990	91	826	231	260766	3384030	9138
99	2017-09-30 15:15:39		0	0	0	0	0	0	7.71	2.12	0.04	377995	0	14332	271676	377995	363663	8013	91	828	231	261030	3384160	9163
100	2017-09-30 15:23:09		0	0	0	0	0	0	7.71	2.12	0.04	378149	0	14350	271724	378149	363799	8015	91	829	231	261074	3384210	9166
101	2017-09-30 15:38:17		0	0	0	0	0	0	7.73	2.12	0.04	378587	0	14418	272298	378587	364169	8033	91	832	231	261603	3384292	9187
102	2017-09-30 15:49:24		0	0	0	0	0	0	7.73	2.12	0.04	379017	0	14477	272393	379017	364540	8044	91	833	231	261692	3384359	9199
103	2017-09-30 16:09:16		0	0	0	0	0	0	7.74	2.12	0.04	379576	0	14551	272513	379576	365025	8052	91	833	231	261802	3384490	9207
104	2017-09-30 16:18:13		0	0	0	0	0	0	7.74	2.12	0.04	379711	0	14589	272513	379711	365135	8054	91	834	231	261802	3384540	9210
105	2017-09-30 16:39:56		0	0	0	0	0	0	7.74	2.12	0.04	380351	0	14662	272849	380351	365689	8062	91	834	231	262112	3384625	9218
106	2017-09-30 16:46:28		0	0	0	0	0	0	7.74	2.12	0.04	380466	0	14681	272849	380466	365785	8062	91	834	231	262112	3384663	9218
107	2017-09-30 17:03:57		0	0	0	0	0	0	7.75	2.12	0.04	380953	0	14747	272898	380953	366206	8071	91	834	231	262157	3384763	9227
108	2017-09-30 17:09:52		0	0	0	0	0	0	7.75	2.12	0.04	381072	0	14759	273090	381072	366313	8073	91	834	231	262157	3384778	9229
109	2017-09-30 17:30:38		0	0	0	0	0	0	7.77	2.12	0.04	381550	0	14836	274494	381550	366714	8079	91	835	231	263092	3384879	9236
110	2017-09-30 17:49:20		0	0	0	0	0	0	7.77	2.12	0.04	382019	0	14914	274494	382019	367105	8086	91	836	231	263092	3385014	9244
111	2017-09-30 18:00:26		0	0	0	0	0	0	7.77	2.12	0.04	382270	0	14948	274494	382270	367322	8094	91	836	231	263092	3385078	9252
112	2017-09-30 18:12:39		0	0	0	0	0	0	7.77	2.12	0.04	382521	0	14974	274494	382521	367547	8100	92	836	231	263092	3385127	9259
113	2017-09-30 18:28:54		0	0	0	0	0	0	7.77	2.12	0.04	382882	0	15066	274494	382882	367835	8103	92	836	231	263092	3385193	9262
114	2017-09-30 18:49:44		0	0	0	0	0	0	7.78	2.11	0.04	383472	0	15143	274787	383472	368329	8110	92	837	231	263361	3385347	9270
115	2017-09-30 19:02:36		0	0	0	0	0	0	7.78	2.11	0.04	383712	0	15178	274835	383712	368534	8112	92	837	231	263406	3385433	9272
116	2017-09-30 19:31:18		0	0	0	0	0	0	7.79	2.11	0.04	384328	0	15264	275312	384328	369064	8117	92	837	231	263843	3385641	9277
117	2017-09-30 19:39:07		0	0	0	0	0	0	7.79	2.11	0.04	384521	0	15294	275312	384521	369227	8121	92	837	231	263843	3385685	9281
118	2017-09-30 19:50:17		0	0	0	0	0	0	7.79	2.11	0.04	384730	0	15327	275361	384730	369403	8122	92	838	231	263888	3385770	9283
119	2017-09-30 20:05:54		0	0	0	0	0	0	7.79	2.11	0.04	384945	0	15363	275361	384945	369582	8122	92	840	231	263888	3385905	9285
120	2017-09-30 20:15:07		0	0	0	0	0	0	7.8	2.11	0.04	385257	0	15407	276098	385257	369850	8129	92	840	231	264204	3385979	9292
121	2017-09-30 20:59:38		0	0	0	0	0	0	7.81	2.11	0.04	386112	0	15546	276789	386112	370566	8147	92	840	231	264542	3386307	9310
122	2017-09-30 21:12:12		0	0	0	0	0	0	7.81	2.11	0.04	386296	0	15577	276789	386296	370719	8149	92	841	231	264542	3386394	9313
123	2017-09-30 21:23:26		0	0	0	0	0	0	7.82	2.11	0.04	386496	0	15604	277086	386496	370892	8156	92	841	231	264814	3386473	9320
124	2017-09-30 22:02:21		0	0	0	0	0	0	7.82	2.11	0.04	387225	0	15705	277111	387225	371520	8163	92	843	231	264814	3386874	9329
125	2017-09-30 22:10:07		0	0	0	0	0	0	7.83	2.11	0.04	387414	0	15733	277502	387414	371681	8169	92	843	231	265171	3386967	9335
126	2017-09-30 22:39:18		0	0	0	0	0	0	7.84	2.11	0.04	387925	0	15804	277950	387925	372121	8175	92	843	231	265580	3387253	9341
127	2017-09-30 22:52:29		0	0	0	0	0	0	7.84	2.11	0.04	388183	0	15848	278025	388183	372335	8178	92	843	231	265649	3387372	9344
128	2017-09-30 23:03:15		0	0	0	0	0	0	7.84	2.11	0.04	388353	0	15878	278025	388353	372475	8180	92	843	231	265649	3387456	9346
129	2017-09-30 23:38:26		0	0	0	0	0	0	7.85	2.11	0.04	388907	0	15968	278373	388907	372939	8187	92	845	231	265967	3387695	9355
130	2017-09-30 23:45:07		0	0	0	0	0	0	7.85	2.1	0.04	389064	0	15993	278373	389064	373071	8187	92	846	231	265967	3387729	9356
131	2017-09-30 23:59:29		0	0	0	0	0	0	7.85	2.1	0.04	389284	0	16034	278373	389284	373250	8189	92	846	231	265967	3387744	9358
132	2017-10-01 01:19:22		0	0	0	0	0	0	7.85	2.1	0.04	390167	0	16168	278474	390167	374007	8210	92	848	232	266058	3388018	9382
133	2017-10-01 02:47:29		0	0	0	0	0	0	7.86	2.1	0.04	390704	0	16234	278699	390704	374470	8220	92	848	232	266264	3388133	9392
134	2017-10-01 04:27:43		0	0	0	0	0	0	7.86	2.1	0.04	390915	0	16266	278699	390915	374649	8221	92	848	232	266264	3388170	9393
135	2017-10-01 06:18:45		0	0	0	0	0	0	7.87	2.1	0.04	391079	0	16294	279089	391079	374785	8221	92	848	232	266619	3388278	9393
136	2017-10-01 07:13:17		0	0	0	0	0	0	7.87	2.1	0.04	391165	0	16308	279089	391165	374857	8221	92	848	232	266619	3388422	9393
137	2017-10-01 08:46:23		0	0	0	0	0	0	7.87	2.1	0.04	391508	0	16374	279290	391508	375134	8230	92	848	232	266619	3388892	9402
138	2017-10-01 09:16:56		0	0	0	0	0	0	7.87	2.1	0.04	391671	0	16405	279290	391671	375266	8232	92	848	232	266619	3389110	9404
139	2017-10-01 09:27:59		0	0	0	0	0	0	7.87	2.1	0.04	391729	0	16418	279290	391729	375311	8233	92	848	232	266619	3389214	9405
140	2017-10-01 09:36:52		0	0	0	0	0	0	7.87	2.1	0.04	391791	0	16431	279492	391791	375360	8236	92	848	232	266803	3389293	9408
141	2017-10-01 09:38:57		0	0	0	0	0	0	7.87	2.1	0.04	391791	0	16431	279492	391791	375360	8236	92	848	232	266803	3389317	9408
142	2017-10-01 09:49:58		0	0	0	0	0	0	7.87	2.1	0.04	391873	0	16438	279492	391873	375433	8236	92	848	233	266803	3389433	9409
143	2017-10-01 10:00:56		0	0	0	0	0	0	7.87	2.1	0.04	391950	0	16448	279492	391950	375502	8239	92	848	233	266803	3389551	9412
144	2017-10-01 10:11:57		0	0	0	0	0	0	7.87	2.1	0.04	392003	0	16453	279492	392003	375550	8239	92	848	233	266803	3389610	9412
145	2017-10-01 10:22:56		0	0	0	0	0	0	7.87	2.1	0.04	392073	0	16462	279492	392073	375611	8239	92	848	233	266803	3389670	9412
146	2017-10-01 10:33:56		0	0	0	0	0	0	7.87	2.1	0.04	392148	0	16476	279492	392148	375672	8241	93	848	233	266803	3389728	9415
147	2017-10-01 10:44:56		0	0	0	0	0	0	7.87	2.1	0.04	392218	0	16489	279492	392218	375729	8245	93	848	233	266803	3389800	9419
148	2017-10-01 10:55:58		0	0	0	0	0	0	7.87	2.1	0.04	392350	0	16529	279492	392350	375821	8249	93	848	233	266803	3389884	9423
149	2017-10-01 11:06:55		0	0	0	0	0	0	7.87	2.1	0.04	392415	0	16543	279492	392415	375872	8251	93	848	233	266803	3389968	9425
150	2017-10-01 11:17:57		0	0	0	0	0	0	7.87	2.1	0.04	392466	0	16558	279492	392466	375908	8253	93	848	233	266803	3390057	9427
151	2017-10-01 11:28:57		0	0	0	0	0	0	7.87	2.1	0.04	392532	0	16577	279643	392532	375955	8253	93	848	233	266941	3390114	9427
152	2017-10-01 11:39:59		0	0	0	0	0	0	7.87	2.1	0.04	392584	0	16587	279643	392584	375997	8254	93	848	233	266941	3390197	9428
153	2017-10-01 11:50:55		0	0	0	0	0	0	7.88	2.1	0.04	392676	0	16599	279845	392676	376077	8255	93	848	233	267125	3390307	9429
154	2017-10-01 12:01:57		0	0	0	0	0	0	7.88	2.1	0.04	392738	0	16613	279845	392738	376125	8255	93	848	233	267125	3390402	9429
155	2017-10-01 12:12:57		0	0	0	0	0	0	7.88	2.1	0.04	392782	0	16625	279845	392782	376157	8255	93	848	233	267125	3390476	9429
156	2017-10-01 12:23:55		0	0	0	0	0	0	7.88	2.1	0.04	392831	0	16636	279845	392831	376195	8255	93	848	233	267125	3390568	9429
157	2017-10-01 12:34:56		0	0	0	0	0	0	7.88	2.1	0.04	392879	0	16647	279845	392879	376232	8255	93	848	233	267125	3390636	9429
158	2017-10-01 12:45:56		0	0	0	0	0	0	7.88	2.1	0.04	392962	0	16661	279845	392962	376301	8256	93	848	233	267125	3390721	9430
159	2017-10-01 12:56:56		0	0	0	0	0	0	7.88	2.1	0.04	393009	0	16671	279896	393009	376338	8256	93	848	233	267125	3390806	9430
160	2017-10-01 13:07:58		0	0	0	0	0	0	7.88	2.1	0.04	393064	0	16680	279896	393064	376384	8256	93	848	233	267125	3390882	9430
161	2017-10-01 13:18:58		0	0	0	0	0	0	7.88	2.1	0.04	393123	0	16692	279921	393123	376431	8257	93	848	233	267148	3390946	9431
162	2017-10-01 13:29:57		0	0	0	0	0	0	7.88	2.1	0.04	393173	0	16699	279921	393173	376474	8258	93	848	233	267148	3391008	9432
163	2017-10-01 13:40:57		0	0	0	0	0	0	7.88	2.1	0.04	393237	0	16709	279921	393237	376528	8259	93	849	233	267148	3391074	9434
164	2017-10-01 13:51:55		0	0	0	0	0	0	7.88	2.1	0.04	393273	0	16716	279921	393273	376557	8259	93	849	233	267148	3391173	9434
165	2017-10-01 14:02:56		0	0	0	0	0	0	7.88	2.1	0.04	393326	0	16729	279921	393326	376597	8260	93	849	233	267148	3391260	9435
166	2017-10-01 14:13:57		0	0	0	0	0	0	7.88	2.1	0.04	393362	0	16734	279921	393362	376628	8261	93	849	233	267148	3391346	9436
167	2017-10-01 14:24:56		0	0	0	0	0	0	7.88	2.1	0.04	393413	0	16743	279921	393413	376670	8261	93	849	233	267148	3391420	9436
168	2017-10-01 14:35:56		0	0	0	0	0	0	7.88	2.1	0.04	393460	0	16751	279921	393460	376709	8262	93	849	233	267148	3391503	9437
169	2017-10-01 14:46:55		0	0	0	0	0	0	7.88	2.1	0.04	393506	0	16763	279921	393506	376743	8262	93	849	233	267148	3391615	9437
170	2017-10-01 14:57:58		0	0	0	0	0	0	7.88	2.1	0.04	393569	0	16771	279921	393569	376798	8263	93	849	233	267148	3391737	9438
171	2017-10-01 15:08:57		0	0	0	0	0	0	7.88	2.1	0.04	393612	0	16780	279921	393612	376832	8265	93	849	233	267148	3391826	9440
172	2017-10-01 15:19:58		0	0	0	0	0	0	7.88	2.1	0.04	393661	0	16789	280022	393661	376872	8268	93	849	233	267148	3391894	9443
173	2017-10-01 15:30:55		0	0	0	0	0	0	7.88	2.1	0.04	393717	0	16796	280022	393717	376921	8268	93	849	233	267148	3391972	9443
174	2017-10-01 15:41:58		0	0	0	0	0	0	7.88	2.1	0.04	393765	0	16809	280022	393765	376956	8269	93	849	233	267148	3392074	9444
175	2017-10-01 15:52:56		0	0	0	0	0	0	7.89	2.1	0.04	393809	0	16815	280428	393809	376994	8269	93	850	233	267518	3392181	9445
176	2017-10-01 16:03:56		0	0	0	0	0	0	7.89	2.1	0.04	393843	0	16821	280428	393843	377022	8269	93	850	233	267518	3392273	9445
177	2017-10-01 16:14:57		0	0	0	0	0	0	7.89	2.1	0.04	393887	0	16828	280428	393887	377059	8269	93	850	233	267518	3392328	9445
178	2017-10-01 16:25:56		0	0	0	0	0	0	7.9	2.1	0.04	393956	0	16837	280886	393956	377119	8271	93	850	233	267934	3392393	9447
179	2017-10-01 16:36:56		0	0	0	0	0	0	7.9	2.1	0.04	394003	0	16845	280886	394003	377158	8271	93	850	233	267934	3392485	9447
180	2017-10-01 16:47:56		0	0	0	0	0	0	7.9	2.1	0.04	394050	0	16851	280886	394050	377199	8272	93	850	233	267934	3392566	9448
181	2017-10-01 16:58:56		0	0	0	0	0	0	7.9	2.1	0.04	394092	0	16859	280886	394092	377233	8272	93	850	233	267934	3392648	9448
182	2017-10-01 17:09:57		0	0	0	0	0	0	7.9	2.1	0.04	394140	0	16865	280886	394140	377275	8272	93	850	233	267934	3392697	9448
183	2017-10-01 17:20:59		0	0	0	0	0	0	7.9	2.1	0.04	394206	0	16876	280886	394206	377330	8272	93	850	233	267934	3392771	9448
184	2017-10-01 17:31:56		0	0	0	0	0	0	7.9	2.1	0.04	394257	0	16886	280886	394257	377371	8274	93	850	234	267934	3392861	9451
185	2017-10-01 17:42:55		0	0	0	0	0	0	7.9	2.1	0.04	394287	0	16893	281499	394287	377394	8274	93	850	234	267934	3392937	9451
186	2017-10-01 17:53:56		0	0	0	0	0	0	7.9	2.1	0.04	394333	0	16898	281499	394333	377435	8274	93	850	234	267934	3393049	9451
187	2017-10-01 18:04:57		0	0	0	0	0	0	7.9	2.1	0.04	394385	0	16907	281499	394385	377478	8274	93	850	234	267934	3393132	9451
188	2017-10-01 18:15:56		0	0	0	0	0	0	7.9	2.1	0.04	394476	0	16922	281499	394476	377554	8276	93	850	234	267934	3393214	9453
189	2017-10-01 18:26:58		0	0	0	0	0	0	7.9	2.1	0.04	394533	0	16929	281499	394533	377604	8276	93	850	234	267934	3393284	9453
190	2017-10-01 18:37:56		0	0	0	0	0	0	7.9	2.1	0.04	394597	0	16942	281499	394597	377655	8276	93	850	234	267934	3393402	9453
191	2017-10-01 18:48:56		0	0	0	0	0	0	7.9	2.1	0.04	394659	0	16950	281499	394659	377709	8278	93	850	234	267934	3393514	9455
192	2017-10-01 18:59:56		0	0	0	0	0	0	7.9	2.1	0.04	394713	0	16959	281499	394713	377754	8278	93	850	234	267934	3393620	9455
193	2017-10-01 19:10:58		0	0	0	0	0	0	7.9	2.1	0.04	394791	0	16973	281499	394791	377818	8278	93	850	234	267934	3393649	9455
194	2017-10-01 19:21:57		0	0	0	0	0	0	7.9	2.1	0.04	394861	0	16981	281652	394861	377880	8279	93	851	234	268074	3393692	9457
195	2017-10-01 19:32:56		0	0	0	0	0	0	7.9	2.1	0.04	394925	0	16985	281652	394925	377940	8280	93	851	234	268074	3393760	9458
196	2017-10-01 19:43:56		0	0	0	0	0	0	7.9	2.1	0.04	394981	0	16992	281832	394981	377989	8281	93	851	234	268236	3393838	9459
197	2017-10-01 19:54:56		0	0	0	0	0	0	7.91	2.1	0.04	395025	0	17000	281935	395025	378025	8282	93	851	234	268329	3393894	9460
198	2017-10-01 20:05:56		0	0	0	0	0	0	7.91	2.1	0.05	395102	0	17016	281935	395102	378086	8283	93	851	234	268329	3393992	9461
199	2017-10-01 20:16:57		0	0	0	0	0	0	7.91	2.1	0.05	395162	0	17024	281935	395162	378138	8283	93	851	234	268329	3394082	9461
200	2017-10-01 20:27:57		0	0	0	0	0	0	7.91	2.1	0.05	395212	0	17029	281935	395212	378183	8285	93	851	234	268329	3394191	9463
201	2017-10-01 20:38:58		0	0	0	0	0	0	7.91	2.1	0.05	395264	0	17037	281935	395264	378227	8285	93	851	234	268329	3394254	9463
202	2017-10-01 20:49:57		0	0	0	0	0	0	7.91	2.1	0.05	395321	0	17046	281935	395321	378275	8287	93	851	234	268329	3394374	9465
203	2017-10-01 21:00:59		0	0	0	0	0	0	7.9	2.1	0.05	395431	0	17067	282012	395431	378364	8290	93	851	234	268329	3394473	9468
204	2017-10-01 21:11:59		0	0	0	0	0	0	7.9	2.1	0.05	395486	0	17075	282012	395486	378411	8291	93	851	234	268329	3394582	9469
205	2017-10-01 21:22:57		0	0	0	0	0	0	7.9	2.1	0.05	395550	0	17086	282037	395550	378464	8291	93	851	234	268329	3394677	9469
206	2017-10-01 21:33:57		0	0	0	0	0	0	7.9	2.1	0.05	395617	0	17096	282037	395617	378521	8292	93	851	234	268329	3394742	9470
207	2017-10-01 21:44:57		0	0	0	0	0	0	7.9	2.1	0.05	395678	0	17114	282449	395678	378564	8295	93	851	234	268329	3394867	9473
208	2017-10-01 21:55:57		0	0	0	0	0	0	7.9	2.1	0.05	395777	0	17130	282449	395777	378647	8296	93	851	234	268329	3394962	9474
209	2017-10-01 22:06:58		0	0	0	0	0	0	7.9	2.1	0.05	395839	0	17141	282449	395839	378698	8296	93	851	234	268329	3395045	9474
210	2017-10-01 22:17:58		0	0	0	0	0	0	7.9	2.1	0.05	395903	0	17147	282449	395903	378756	8297	93	851	234	268329	3395123	9475
211	2017-10-01 22:28:58		0	0	0	0	0	0	7.91	2.1	0.05	395958	0	17152	282649	395958	378806	8300	93	851	234	268510	3395212	9478
212	2017-10-01 22:39:58		0	0	0	0	0	0	7.91	2.1	0.05	396020	0	17159	282649	396020	378861	8301	93	851	234	268510	3395293	9479
213	2017-10-01 22:50:59		0	0	0	0	0	0	7.91	2.1	0.05	396084	0	17169	282649	396084	378917	8303	93	851	234	268510	3395360	9481
214	2017-10-01 23:01:59		0	0	0	0	0	0	7.91	2.1	0.05	396175	0	17178	282649	396175	378997	8305	93	851	234	268510	3395400	9483
215	2017-10-01 23:12:57		0	0	0	0	0	0	7.91	2.1	0.05	396229	0	17181	282649	396229	379048	8306	93	851	234	268510	3395452	9484
216	2017-10-01 23:23:57		0	0	0	0	0	0	7.91	2.1	0.05	396287	0	17186	282829	396287	379101	8307	93	851	234	268603	3395527	9485
217	2017-10-01 23:34:57		0	0	0	0	0	0	7.91	2.1	0.05	396332	0	17193	282829	396332	379139	8307	93	851	234	268603	3395586	9485
218	2017-10-01 23:45:57		0	0	0	0	0	0	7.91	2.1	0.05	396387	0	17202	282829	396387	379185	8309	93	851	234	268603	3395623	9487
219	2017-10-01 23:56:57		0	0	0	0	0	0	7.91	2.1	0.05	396449	0	17209	282933	396449	379240	8310	93	851	234	268696	3395669	9488
220	2017-10-02 00:40:59		0	0	0	0	0	0	7.91	2.1	0.05	396598	0	17225	282933	396598	379373	8311	93	851	234	268696	3395784	9489
221	2017-10-02 01:40:57		0	0	0	0	0	0	7.91	2.1	0.05	396725	0	17247	283243	396725	379478	8313	93	851	234	268696	3395806	9491
222	2017-10-02 02:40:57		0	0	0	0	0	0	7.91	2.1	0.05	396786	0	17256	283243	396786	379530	8313	93	851	234	268696	3395798	9491
223	2017-10-02 03:40:56		0	0	0	0	0	0	7.91	2.09	0.05	396829	0	17264	283243	396829	379565	8313	93	851	234	268696	3395798	9491
224	2017-10-02 04:40:58		0	0	0	0	0	0	7.91	2.09	0.05	396862	0	17265	283243	396862	379597	8313	93	851	234	268696	3395802	9491
225	2017-10-02 05:40:56		0	0	0	0	0	0	7.91	2.09	0.05	396901	0	17268	283243	396901	379633	8313	93	851	234	268696	3395825	9491
226	2017-10-02 06:40:58		0	0	0	0	0	0	7.92	2.09	0.05	396964	0	17274	283243	396964	379690	8314	93	851	234	268976	3395902	9492
227	2017-10-02 07:07:58		0	0	0	0	0	0	7.92	2.09	0.05	397015	0	17281	283451	397015	379734	8315	93	851	234	268976	3395958	9493
228	2017-10-02 07:18:59		0	0	0	0	0	0	7.92	2.09	0.05	397038	0	17285	283451	397038	379753	8317	93	851	234	268976	3395984	9495
229	2017-10-02 07:29:57		0	0	0	0	0	0	7.92	2.09	0.05	397056	0	17288	283451	397056	379768	8318	93	851	234	268976	3396019	9496
230	2017-10-02 07:40:58		0	0	0	0	0	0	7.92	2.09	0.05	397082	0	17288	283451	397082	379794	8318	93	851	234	268976	3396056	9496
231	2017-10-02 07:51:57		0	0	0	0	0	0	7.92	2.09	0.05	397112	0	17295	283451	397112	379817	8318	93	851	234	268976	3396092	9496
232	2017-10-02 08:02:57		0	0	0	0	0	0	7.92	2.09	0.05	397156	0	17298	283451	397156	379858	8318	93	851	234	268976	3396134	9496
233	2017-10-02 08:13:58		0	0	0	0	0	0	7.92	2.09	0.05	397181	0	17301	283451	397181	379880	8318	93	851	234	268976	3396173	9496
234	2017-10-02 08:24:57		0	0	0	0	0	0	7.92	2.09	0.05	397214	0	17307	283451	397214	379907	8318	93	851	234	268976	3396206	9496
235	2017-10-02 08:35:57		0	0	0	0	0	0	7.92	2.09	0.05	397238	0	17312	283451	397238	379926	8318	94	851	234	268976	3396257	9497
236	2017-10-02 08:46:57		0	0	0	0	0	0	7.92	2.09	0.05	397269	0	17317	283451	397269	379952	8318	94	851	234	268976	3396312	9497
237	2017-10-02 08:57:58		0	0	0	0	0	0	7.92	2.09	0.05	397299	0	17320	283451	397299	379979	8319	94	851	234	268976	3396371	9498
238	2017-10-02 09:08:57		0	0	0	0	0	0	7.92	2.09	0.05	397338	0	17327	283451	397338	380011	8319	94	851	234	268976	3396374	9498
239	2017-10-02 09:19:57		0	0	0	0	0	0	7.92	2.09	0.05	397373	0	17333	283451	397373	380040	8322	94	851	234	268976	3396363	9501
240	2017-10-02 09:24:58		0	0	0	0	0	0	7.92	2.09	0.05	397393	0	17336	283451	397393	380057	8323	94	851	234	268976	3396360	9502
241	2017-10-02 09:30:57		0	0	0	0	0	0	7.92	2.09	0.05	397412	0	17338	283451	397412	380074	8324	94	851	234	268976	3396339	9503
242	2017-10-02 09:32:24		0	0	0	0	0	0	7.92	2.09	0.05	397422	0	17338	283451	397422	380084	8324	94	851	234	268976	3396335	9503
243	2017-10-02 09:35:59		0	0	0	0	0	0	7.92	2.09	0.05	397422	0	17338	283451	397422	380084	8324	94	851	234	268976	3396320	9503
244	2017-10-02 09:41:56		0	0	0	0	0	0	7.92	2.09	0.05	397438	0	17341	283451	397438	380097	8325	94	851	234	268976	3396294	9504
245	2017-10-02 09:43:20		0	0	0	0	0	0	7.92	2.09	0.05	397459	0	17343	283451	397459	380116	8325	94	851	234	268976	3396286	9504
246	2017-10-02 09:47:04		0	0	0	0	0	0	7.92	2.09	0.05	397459	0	17343	283451	397459	380116	8325	94	851	234	268976	3396280	9504
247	2017-10-02 09:52:56		0	0	0	0	0	0	7.92	2.09	0.05	397488	0	17346	283451	397488	380142	8325	94	851	234	268976	3396266	9504
248	2017-10-02 09:54:17		0	0	0	0	0	0	7.92	2.09	0.05	397488	0	17346	283451	397488	380142	8325	94	851	234	268976	3396263	9504
249	2017-10-02 09:58:03		0	0	0	0	0	0	7.92	2.09	0.05	397488	0	17346	283451	397488	380142	8325	94	851	234	268976	3396255	9504
250	2017-10-02 10:03:57		0	0	0	0	0	0	7.92	2.09	0.05	397521	0	17354	283451	397521	380167	8325	94	851	234	268976	3396245	9504
251	2017-10-02 10:05:29		0	0	0	0	0	0	7.92	2.09	0.05	397521	0	17354	283451	397521	380167	8325	94	851	234	268976	3396246	9504
252	2017-10-02 10:09:01		0	0	0	0	0	0	7.92	2.09	0.05	397521	0	17354	283451	397521	380167	8325	94	851	234	268976	3396240	9504
253	2017-10-02 10:14:57		0	0	0	0	0	0	7.92	2.09	0.05	397560	0	17360	283464	397560	380200	8325	94	851	234	268988	3396224	9504
254	2017-10-02 10:16:24		0	0	0	0	0	0	7.92	2.09	0.05	397560	0	17360	283464	397560	380200	8325	94	851	234	268988	3396221	9504
255	2017-10-02 10:20:00		0	0	0	0	0	0	7.92	2.09	0.05	397560	0	17360	283464	397560	380200	8325	94	851	234	268988	3396218	9504
256	2017-10-02 10:25:56		0	0	0	0	0	0	7.92	2.09	0.05	397590	0	17363	283464	397590	380227	8326	94	851	234	268988	3396210	9505
257	2017-10-02 10:36:58		0	0	0	0	0	0	7.92	2.09	0.05	397620	0	17366	283464	397620	380254	8326	94	851	234	268988	3396164	9505
258	2017-10-02 10:44:09		0	0	0	0	0	0	7.92	2.09	0.05	397649	0	17371	283464	397649	380278	8327	94	851	234	268988	3396148	9506
259	2017-10-02 10:47:57		0	0	0	0	0	0	7.92	2.09	0.05	397662	0	17372	283464	397662	380290	8328	94	851	234	268988	3396139	9507
260	2017-10-02 10:55:05		0	0	0	0	0	0	7.92	2.09	0.05	397682	0	17376	283464	397682	380306	8329	94	851	234	268988	3396122	9508
261	2017-10-02 10:58:57		0	0	0	0	0	0	7.92	2.09	0.05	397692	0	17378	283464	397692	380314	8329	94	851	234	268988	3396114	9508
262	2017-10-02 11:06:05		0	0	0	0	0	0	7.92	2.09	0.05	397704	0	17378	283464	397704	380326	8329	94	851	234	268988	3396084	9508
263	2017-10-02 11:09:57		0	0	0	0	0	0	7.92	2.09	0.05	397716	0	17382	283464	397716	380334	8331	94	851	234	268988	3396072	9510
264	2017-10-02 11:17:06		0	0	0	0	0	0	7.92	2.09	0.05	397732	0	17383	283464	397732	380349	8331	94	851	234	268988	3396057	9510
265	2017-10-02 11:20:57		0	0	0	0	0	0	7.92	2.09	0.05	397749	0	17387	283464	397749	380362	8332	94	851	234	268988	3396050	9511
266	2017-10-02 11:28:06		0	0	0	0	0	0	7.92	2.09	0.05	397774	0	17393	283464	397774	380381	8333	94	851	234	268988	3396023	9512
267	2017-10-02 11:31:57		0	0	0	0	0	0	7.92	2.09	0.05	397774	0	17393	283464	397774	380381	8333	94	851	234	268988	3396006	9512
268	2017-10-02 11:39:09		0	0	0	0	0	0	7.92	2.09	0.05	397806	0	17396	283464	397806	380410	8334	94	851	234	268988	3395997	9513
269	2017-10-02 11:42:57		0	0	0	0	0	0	7.92	2.1	0.05	397825	0	17397	283464	397825	380428	8335	94	851	234	268988	3395988	9514
270	2017-10-02 11:50:05		0	0	0	0	0	0	7.92	2.1	0.05	397839	0	17401	283464	397839	380438	8335	94	851	234	268988	3395969	9514
271	2017-10-02 11:53:57		0	0	0	0	0	0	7.92	2.09	0.05	397854	0	17403	283464	397854	380451	8335	94	851	234	268988	3395964	9514
272	2017-10-02 12:01:05		0	0	0	0	0	0	7.92	2.09	0.05	397867	0	17404	283464	397867	380463	8335	94	851	234	268988	3395896	9514
273	2017-10-02 12:04:56		0	0	0	0	0	0	7.92	2.09	0.05	397876	0	17404	283464	397876	380472	8335	94	851	234	268988	3395875	9514
274	2017-10-02 12:12:06		0	0	0	0	0	0	7.92	2.09	0.05	397894	0	17406	283568	397894	380488	8335	94	851	234	269081	3395840	9514
275	2017-10-02 12:15:56		0	0	0	0	0	0	7.92	2.09	0.05	397907	0	17407	283568	397907	380500	8335	94	851	234	269081	3395827	9514
276	2017-10-02 12:23:06		0	0	0	0	0	0	7.92	2.09	0.05	397931	0	17410	283568	397931	380521	8336	94	851	234	269081	3395812	9515
277	2017-10-02 12:26:57		0	0	0	0	0	0	7.92	2.09	0.05	397931	0	17410	283568	397931	380521	8336	94	851	234	269081	3395807	9515
278	2017-10-02 12:34:06		0	0	0	0	0	0	7.92	2.09	0.05	397957	0	17418	283568	397957	380539	8337	94	851	234	269081	3395797	9516
279	2017-10-02 12:37:56		0	0	0	0	0	0	7.92	2.1	0.05	397973	0	17421	283568	397973	380552	8338	94	851	234	269081	3395786	9517
280	2017-10-02 12:45:06		0	0	0	0	0	0	7.92	2.1	0.05	397984	0	17425	283568	397984	380559	8338	94	851	234	269081	3395763	9517
281	2017-10-02 12:48:57		0	0	0	0	0	0	7.92	2.09	0.05	397998	0	17428	283568	397998	380570	8338	94	851	234	269081	3395754	9517
282	2017-10-02 12:56:05		0	0	0	0	0	0	7.92	2.1	0.05	398007	0	17430	283568	398007	380577	8339	94	851	234	269081	3395740	9518
283	2017-10-02 12:59:57		0	0	0	0	0	0	7.92	2.1	0.05	398020	0	17430	283568	398020	380590	8339	94	851	235	269081	3395737	9519
284	2017-10-02 13:07:06		0	0	0	0	0	0	7.92	2.1	0.05	398036	0	17431	283568	398036	380605	8340	94	851	235	269081	3395710	9520
285	2017-10-02 13:10:56		0	0	0	0	0	0	7.92	2.1	0.05	398048	0	17433	283568	398048	380615	8340	94	851	235	269081	3395709	9520
286	2017-10-02 13:18:06		0	0	0	0	0	0	7.92	2.1	0.05	398070	0	17435	283568	398070	380635	8340	94	851	235	269081	3395686	9520
287	2017-10-02 13:21:57		0	0	0	0	0	0	7.92	2.1	0.05	398070	0	17435	283568	398070	380635	8340	94	851	235	269081	3395675	9520
288	2017-10-02 13:29:08		0	0	0	0	0	0	7.92	2.1	0.05	398090	0	17436	283568	398090	380654	8341	94	851	235	269081	3395655	9521
289	2017-10-02 13:32:57		0	0	0	0	0	0	7.92	2.1	0.05	398102	0	17436	283568	398102	380666	8341	94	851	235	269081	3395644	9521
290	2017-10-02 13:40:07		0	0	0	0	0	0	7.92	2.1	0.05	398119	0	17439	283568	398119	380680	8341	94	851	235	269081	3395615	9521
291	2017-10-02 13:43:58		0	0	0	0	0	0	7.92	2.1	0.05	398130	0	17441	283568	398130	380689	8341	94	851	235	269081	3395597	9521
292	2017-10-02 13:51:07		0	0	0	0	0	0	7.92	2.09	0.05	398139	0	17444	283568	398139	380695	8341	94	851	235	269081	3395574	9521
293	2017-10-02 13:54:58		0	0	0	0	0	0	7.92	2.1	0.05	398146	0	17447	283568	398146	380699	8342	94	851	235	269081	3395568	9522
294	2017-10-02 14:02:06		0	0	0	0	0	0	7.93	2.1	0.05	398156	0	17447	283932	398156	380709	8343	94	851	235	269409	3395532	9523
295	2017-10-02 14:05:56		0	0	0	0	0	0	7.93	2.1	0.05	398162	0	17451	283932	398162	380711	8343	94	851	235	269409	3395506	9523
296	2017-10-02 14:13:06		0	0	0	0	0	0	7.93	2.1	0.05	398176	0	17454	283932	398176	380722	8344	94	851	235	269409	3395474	9524
297	2017-10-02 14:16:57		0	0	0	0	0	0	7.93	2.1	0.05	398176	0	17454	283932	398176	380722	8344	94	851	235	269409	3395464	9524
