1	2016-12-29 15:55:07	0	0	0	0	0	0	0	0	0	0	1	0	0	0	0	0	4	19	7	0	2405325	0
2	2016-12-29 16:09:08	0	0	0	0	0	0	3.41	2.02	0.03	95848	1	2372	83779	95848	93476	1934	144	338	82	81960	2405323	2498
3	2016-12-29 16:23:08	0	0	0	0	0	0	5.9	2.66	0.05	182317	1	9255	150232	182317	173062	4852	236	590	133	141811	2405335	5811
4	2016-12-29 16:37:09	0	0	0	0	0	0	7.64	2.86	0.08	247835	1	17432	197480	247835	230403	7088	326	790	168	183796	2405345	8372
5	2016-12-29 16:51:19	0	0	0	0	0	0	8.84	3.15	0.09	282204	1	24730	223785	282204	272749	8882	380	928	201	212525	2405350	10391
6	2016-12-29 17:05:29	0	0	0	0	0	0	9.43	3.02	0.1	325590	1	29446	251854	325590	296144	9820	446	1049	226	226764	2405357	11541
7	2016-12-29 17:19:59	0	0	0	0	0	0	10.02	3.04	0.11	362321	1	35978	272031	362321	326343	10999	516	1165	247	241061	2405379	12927
8	2016-12-29 17:36:41	0	0	0	0	0	0	11.18	3.05	0.12	407026	1	43826	307116	407026	363200	12431	542	1258	262	268904	2405401	14493
9	2016-12-29 17:52:00	0	0	0	0	0	0	11.8	3.07	0.13	436191	1	49295	326403	436191	386896	13378	576	1340	274	283742	2405406	15568
10	2016-12-29 18:06:11	0	0	0	0	0	0	12.16	3.06	0.13	454779	1	52520	338509	454779	402259	13927	598	1394	287	292529	2405415	16206
11	2016-12-29 18:20:27	0	0	0	0	0	0	12.91	3.06	0.14	481454	1	57287	357837	481454	424167	14726	630	1455	296	310577	2405434	17107
12	2016-12-29 18:34:36	0	0	0	0	0	0	13.48	3.05	0.14	506445	1	61700	374263	506445	444745	15466	652	1508	312	324314	2405451	17938
13	2016-12-29 18:48:44	0	0	0	0	0	0	13.94	3.05	0.14	530147	1	66225	387916	530147	463922	16166	672	1573	320	335354	2405463	18731
14	2016-12-29 19:06:08	0	0	0	0	0	0	14.37	3.04	0.15	552482	1	70502	402979	552482	481980	16804	696	1638	330	345769	2405481	19468
15	2016-12-29 19:23:49	0	0	0	0	0	0	14.96	3.03	0.15	578869	1	75749	420026	578869	503120	17515	714	1695	335	359827	2405505	20259
16	2016-12-29 19:41:26	0	0	0	0	0	0	15.35	3.02	0.15	597076	1	79569	431889	597076	517507	18013	738	1743	343	369266	2405524	20837
17	2016-12-29 19:59:15	0	0	0	0	0	0	15.9	3.01	0.16	619704	1	84398	450767	619704	535306	18682	756	1798	350	382566	2405554	21586
18	2016-12-29 20:17:13	0	0	0	0	0	0	16.15	3	0.16	643342	1	89333	458537	643342	554009	19304	780	1847	374	388422	2405581	22305
19	2016-12-29 20:35:03	0	0	0	0	0	0	16.44	2.98	0.16	660610	1	92919	467825	660610	567691	19715	806	1895	384	395524	2405622	22800
20	2016-12-29 20:52:53	0	0	0	0	0	0	16.95	2.97	0.17	683326	1	97537	482572	683326	585789	20315	824	1929	390	407684	2405670	23458
21	2016-12-29 21:10:48	0	0	0	0	0	0	17.2	2.97	0.17	699032	1	100741	491145	699032	598291	20751	836	1963	397	413758	2405703	23947
22	2016-12-29 21:28:42	0	0	0	0	0	0	17.64	2.96	0.17	719075	1	104720	501369	719075	614355	21289	848	1998	403	424293	2405722	24538
23	2016-12-29 21:46:34	0	0	0	0	0	0	17.94	2.95	0.17	733769	1	107675	510030	733769	626094	21665	862	2032	407	431635	2405750	24966
24	2016-12-29 22:04:37	0	0	0	0	0	0	18.28	2.95	0.17	751814	1	111307	520768	751814	640507	22158	874	2056	414	439871	2405763	25502
25	2016-12-29 22:22:38	0	0	0	0	0	0	18.47	2.94	0.18	768567	1	114627	530357	768567	653940	22589	884	2084	420	444416	2405785	25977
26	2016-12-29 22:41:09	0	0	0	0	0	0	18.61	2.93	0.18	780946	1	117141	536479	780946	663805	22911	900	2116	424	447791	2405826	26351
27	2016-12-29 22:59:11	0	0	0	0	0	0	19.13	2.92	0.18	797050	1	120297	552380	797050	676753	23303	914	2143	427	460330	2405848	26787
28	2016-12-29 23:17:16	0	0	0	0	0	0	19.46	2.92	0.18	811939	1	123132	562388	811939	688807	23694	922	2174	434	468284	2405869	27224
29	2016-12-29 23:35:26	0	0	0	0	0	0	19.72	2.92	0.18	822980	1	125332	570588	822980	697648	23999	946	2204	436	474464	2405888	27585
30	2016-12-29 23:53:45	0	0	0	0	0	0	20.07	2.91	0.18	837286	1	127892	580522	837286	709394	24353	954	2231	440	482772	2405910	27978
31	2016-12-30 00:12:04	0	0	0	0	0	0	20.37	2.9	0.18	850107	1	130260	590057	850107	719847	24678	964	2246	446	490084	2405932	28334
32	2016-12-30 00:30:18	0	0	0	0	0	0	20.46	2.9	0.18	858571	1	131732	594275	858571	726839	24871	966	2265	450	492226	2405961	28552
33	2016-12-30 00:48:33	0	0	0	0	0	0	20.77	2.89	0.18	868782	1	133439	601943	868782	735343	25138	970	2284	453	499844	2405993	28845
34	2016-12-30 01:07:02	0	0	0	0	0	0	20.89	2.89	0.18	875763	1	134668	606483	875763	741095	25312	980	2297	455	502705	2406021	29044
35	2016-12-30 01:21:31	0	0	0	0	0	0	21.01	2.89	0.18	881916	1	135653	610007	881916	746263	25489	980	2307	457	505475	2406038	29233
36	2016-12-30 01:36:10	0	0	0	0	0	0	21.14	2.89	0.18	887080	1	136488	613087	887080	750592	25623	980	2315	457	508630	2406049	29375
37	2016-12-30 01:50:53	0	0	0	0	0	0	21.25	2.89	0.18	891380	1	137201	617043	891380	754179	25740	980	2323	459	511402	2406061	29502
38	2016-12-30 02:05:31	0	0	0	0	0	0	21.3	2.89	0.18	895374	1	137846	619264	895374	757528	25837	980	2331	462	512927	2408478	29610
39	2016-12-30 02:20:14	0	0	0	0	0	0	21.33	2.88	0.18	898949	1	138446	619822	898949	760503	25929	986	2341	463	513821	2408480	29719
40	2016-12-30 02:35:00	0	0	0	0	0	0	21.38	2.88	0.18	902043	1	138952	622063	902043	763091	26010	986	2347	464	515017	2408488	29807
41	2016-12-30 02:49:47	0	0	0	0	0	0	21.39	2.88	0.18	904585	1	139345	623315	904585	765240	26069	990	2350	465	515189	2408497	29874
42	2016-12-30 03:04:38	0	0	0	0	0	0	21.4	2.88	0.18	906820	1	139714	623676	906820	767106	26134	994	2351	466	515521	2408498	29945
43	2016-12-30 03:19:27	0	0	0	0	0	0	21.45	2.88	0.18	908744	1	140050	625566	908744	768694	26171	992	2355	466	516553	2408500	29984
44	2016-12-30 03:34:22	0	0	0	0	0	0	21.52	2.88	0.18	910471	1	140312	627706	910471	770159	26212	994	2359	466	518358	2408504	30031
45	2016-12-30 03:49:34	0	0	0	0	0	0	21.52	2.88	0.18	912007	1	140585	627706	912007	771422	26247	994	2361	467	518358	2408509	30069
46	2016-12-30 04:04:32	0	0	0	0	0	0	21.6	2.88	0.18	913444	1	140844	629301	913444	772600	26283	996	2362	468	520143	2408512	30109
47	2016-12-30 04:19:28	0	0	0	0	0	0	21.61	2.88	0.18	914728	1	141092	629749	914728	773636	26305	998	2366	468	520449	2408513	30137
48	2016-12-30 04:34:32	0	0	0	0	0	0	21.63	2.87	0.18	915832	1	141313	631161	915832	774519	26327	1002	2370	468	521062	2408513	30167
49	2016-12-30 04:49:44	0	0	0	0	0	0	21.68	2.88	0.18	916916	1	141536	632127	916916	775380	26362	1002	2370	468	522073	2408513	30202
50	2016-12-30 05:04:58	0	0	0	0	0	0	21.71	2.87	0.18	918018	1	141759	633226	918018	776259	26376	1002	2370	469	522822	2408509	30217
51	2016-12-30 05:20:08	0	0	0	0	0	0	21.71	2.87	0.18	919067	1	141967	633226	919067	777100	26398	1002	2372	469	522822	2408511	30241
52	2016-12-30 05:35:56	0	0	0	0	0	0	21.71	2.87	0.18	920157	1	142178	633226	920157	777979	26424	1002	2374	469	522822	2408514	30269
53	2016-12-30 05:51:15	0	0	0	0	0	0	21.74	2.87	0.18	921343	1	142401	634264	921343	778942	26458	1002	2377	470	523529	2408518	30307
54	2016-12-30 06:06:34	0	0	0	0	0	0	21.76	2.87	0.18	922677	1	142669	635565	922677	780008	26478	1004	2378	470	524061	2408519	30330
55	2016-12-30 06:21:55	0	0	0	0	0	0	21.82	2.87	0.18	924069	1	142937	636186	924069	781132	26508	1008	2379	470	525640	2408525	30365
56	2016-12-30 06:37:26	0	0	0	0	0	0	21.9	2.87	0.18	925666	1	143231	637069	925666	782435	26551	1008	2383	470	527476	2408527	30412
57	2016-12-30 06:52:52	0	0	0	0	0	0	21.93	2.87	0.18	927861	1	143702	638120	927861	784159	26607	1008	2388	471	528196	2408534	30474
58	2016-12-30 07:08:16	0	0	0	0	0	0	21.93	2.87	0.18	929864	1	144128	638976	929864	785736	26651	1012	2391	472	528286	2408533	30526
59	2016-12-30 07:23:47	0	0	0	0	0	0	21.98	2.86	0.18	932292	1	144662	639355	932292	787630	26706	1012	2398	472	529370	2408548	30588
60	2016-12-30 07:39:27	0	0	0	0	0	0	22.08	2.86	0.18	935052	1	145317	640645	935052	789735	26780	1016	2403	474	531710	2408553	30673
61	2016-12-30 07:55:13	0	0	0	0	0	0	22.09	2.87	0.18	938028	1	146046	641541	938028	791982	26883	1024	2413	475	532122	2408555	30795
62	2016-12-30 08:10:54	0	0	0	0	0	0	22.15	2.87	0.18	941374	1	146893	644034	941374	794481	26976	1034	2420	477	533589	2408562	30907
63	2016-12-30 08:26:40	0	0	0	0	0	0	22.21	2.86	0.19	944976	1	147822	648435	944976	797154	27071	1042	2426	480	535018	2408572	31019
64	2016-12-30 08:42:29	0	0	0	0	0	0	22.28	2.86	0.19	949021	1	148860	651607	949021	800161	27186	1044	2432	481	536710	2408587	31143
65	2016-12-30 08:58:20	0	0	0	0	0	0	22.34	2.86	0.19	954519	1	150292	653395	954519	804227	27341	1046	2441	482	538110	2408597	31310
66	2016-12-30 09:14:08	0	0	0	0	0	0	22.45	2.86	0.19	958728	1	151352	656495	958728	807376	27461	1048	2449	484	540635	2408614	31442
67	2016-12-30 09:29:59	0	0	0	0	0	0	22.56	2.86	0.19	963279	1	152503	663778	963279	810776	27595	1048	2456	484	543362	2408628	31583
68	2016-12-30 10:14:39	0	0	0	0	0	0	22.86	2.86	0.19	976412	1	155833	673148	976412	820579	27955	1058	2479	489	550511	2408695	31981
69	2016-12-30 11:27:52	0	0	0	0	0	0	23.32	2.86	0.19	996081	1	160440	684987	996081	835641	28500	1074	2514	494	561747	2408776	32582
70	2016-12-30 13:10:11	0	0	0	0	0	0	23.75	2.86	0.19	1022267	1	166280	697164	1022267	855987	29261	1098	2559	499	572161	2408967	33417
71	2016-12-30 14:51:16	0	0	0	0	0	0	24.18	2.85	0.2	1043635	1	170813	708389	1043635	872822	29768	1122	2583	502	582563	2409076	33975
72	2016-12-30 15:41:15	0	0	0	0	0	0	24.32	2.85	0.2	1053336	1	172769	713181	1053336	880567	29992	1126	2595	505	585800	2409149	34218
73	2016-12-30 15:42:38	0	0	0	0	0	0	24.32	2.85	0.2	1053336	1	172769	713181	1053336	880567	29992	1126	2595	506	585800	2409150	34219
74	2016-12-30 16:04:07	0	0	0	0	0	0	24.34	2.85	0.2	1057862	1	173729	714312	1057862	884133	30106	1130	2597	508	586452	2409169	34341
75	2016-12-30 17:16:44	0	0	0	0	0	0	24.47	2.84	0.2	1069233	1	176161	719175	1069233	893072	30401	1136	2611	516	589649	2409262	34664
76	2016-12-30 18:58:46	0	0	0	0	0	0	24.8	2.84	0.2	1084108	1	179746	732434	1084108	904362	30781	1148	2633	521	597608	2409384	35083
77	2016-12-30 19:29:48	0	0	0	0	0	0	24.94	2.84	0.2	1088103	1	180642	737975	1088103	907461	30885	1150	2635	522	600942	2409421	35192
78	2016-12-30 19:50:11	0	0	0	0	0	0	25.05	2.84	0.2	1090773	1	181224	741144	1090773	909549	30942	1148	2638	523	603511	2409444	35251
79	2016-12-30 20:10:25	0	0	0	0	0	0	25.11	2.84	0.2	1093303	1	181795	742766	1093303	911508	31023	1150	2643	523	605000	2409466	35339
80	2016-12-30 20:30:13	0	0	0	0	0	0	25.16	2.84	0.2	1095821	1	182320	744703	1095821	913501	31075	1152	2649	523	606285	2409491	35399
81	2016-12-30 20:50:03	0	0	0	0	0	0	25.26	2.83	0.2	1098263	1	182904	747129	1098263	915359	31126	1154	2652	524	608608	2409525	35456
82	2016-12-30 21:09:50	0	0	0	0	0	0	25.33	2.83	0.2	1100722	1	183435	748337	1100722	917287	31185	1156	2655	524	610250	2409549	35520
83	2016-12-30 21:29:34	0	0	0	0	0	0	25.36	2.83	0.2	1103172	1	183948	750491	1103172	919224	31233	1156	2657	525	611018	2409570	35571
84	2016-12-30 21:49:26	0	0	0	0	0	0	25.46	2.83	0.2	1105510	1	184434	753413	1105510	921076	31303	1164	2660	527	613439	2409590	35654
85	2016-12-30 22:09:22	0	0	0	0	0	0	25.48	2.83	0.2	1107837	1	184896	754468	1107837	922941	31368	1164	2661	528	613925	2409610	35721
86	2016-12-30 22:29:16	0	0	0	0	0	0	25.57	2.83	0.2	1110065	1	185340	757560	1110065	924725	31429	1164	2661	528	616216	2409628	35782
87	2016-12-30 22:49:04	0	0	0	0	0	0	25.61	2.83	0.2	1112311	1	185770	757560	1112311	926541	31487	1166	2661	528	617199	2409656	35842
88	2016-12-30 23:09:14	0	0	0	0	0	0	25.65	2.83	0.2	1114514	1	186198	758116	1114514	928316	31557	1166	2662	530	618061	2409683	35915
89	2016-12-30 23:29:37	0	0	0	0	0	0	25.65	2.83	0.2	1116619	1	186598	758302	1116619	930021	31608	1166	2663	532	618185	2409719	35969
90	2016-12-30 23:49:35	0	0	0	0	0	0	25.66	2.83	0.2	1118694	1	187030	758662	1118694	931664	31666	1168	2665	533	618301	2409746	36032
91	2016-12-31 00:09:38	0	0	0	0	0	0	25.69	2.83	0.2	1120268	1	187375	760103	1120268	932893	31705	1168	2666	533	618978	2409785	36072
92	2016-12-31 00:29:45	0	0	0	0	0	0	25.72	2.83	0.2	1121828	1	187697	761505	1121828	934131	31744	1170	2673	533	619908	2409832	36120
93	2016-12-31 00:50:00	0	0	0	0	0	0	25.72	2.83	0.2	1123096	1	187973	761622	1123096	935123	31788	1170	2674	533	619962	2410026	36165
94	2016-12-31 01:09:53	0	0	0	0	0	0	25.72	2.83	0.2	1124345	1	188237	762372	1124345	936108	31816	1172	2676	534	619962	2410456	36198
95	2016-12-31 01:25:44	0	0	0	0	0	0	25.76	2.83	0.2	1125149	1	188415	763029	1125149	936734	31841	1172	2676	535	620895	2410599	36224
96	2016-12-31 01:41:34	0	0	0	0	0	0	25.76	2.83	0.2	1125879	1	188544	763029	1125879	937335	31858	1172	2676	535	620895	2410699	36241
97	2016-12-31 01:57:26	0	0	0	0	0	0	25.75	2.83	0.2	1126697	1	188665	763029	1126697	938032	31879	1172	2677	536	620895	2410810	36264
98	2016-12-31 02:13:20	0	0	0	0	0	0	25.82	2.83	0.2	1127457	1	188820	763594	1127457	938637	31892	1172	2677	537	622768	2412140	36278
99	2016-12-31 02:29:09	0	0	0	0	0	0	25.85	2.83	0.2	1128161	1	188957	764725	1128161	939238	31912	1174	2677	537	623520	2412214	36300
100	2016-12-31 02:44:59	0	0	0	0	0	0	25.86	2.83	0.2	1128937	1	189038	765387	1128937	939899	31936	1174	2677	538	623709	2412271	36325
101	2016-12-31 03:00:51	0	0	0	0	0	0	25.86	2.83	0.2	1129424	1	189115	765387	1129424	940309	31953	1174	2677	538	623709	2412306	36342
102	2016-12-31 03:16:44	0	0	0	0	0	0	25.87	2.83	0.2	1129819	1	189180	765766	1129819	940639	31965	1174	2677	538	623960	2412331	36354
103	2016-12-31 03:32:35	0	0	0	0	0	0	25.87	2.83	0.2	1130167	1	189240	765766	1130167	940927	31970	1174	2677	538	623960	2412350	36359
104	2016-12-31 03:48:27	0	0	0	0	0	0	25.9	2.83	0.2	1130492	1	189312	765766	1130492	941180	31971	1174	2678	538	624715	2412366	36361
105	2016-12-31 07:32:32	0	0	0	0	0	0	25.89	2.83	0.2	1131980	1	189969	765766	1131980	942011	32013	1174	2678	538	624715	2412502	36403
106	2016-12-31 09:25:54	0	0	0	0	0	0	25.89	2.83	0.2	1133545	1	190734	766145	1133545	942811	32066	1176	2679	538	624715	2413006	36459
107	2016-12-31 09:35:58	0	0	0	0	0	0	25.89	2.83	0.2	1133711	1	190818	766145	1133711	942893	32074	1176	2679	538	624715	2413056	36467
108	2016-12-31 09:45:54	0	0	0	0	0	0	25.89	2.83	0.2	1133877	1	190892	766145	1133877	942985	32079	1176	2679	539	624715	2413121	36473
109	2016-12-31 09:55:53	0	0	0	0	0	0	25.89	2.83	0.2	1134041	1	190975	766145	1134041	943066	32087	1176	2679	539	624715	2413175	36481
110	2016-12-31 10:05:58	0	0	0	0	0	0	25.89	2.83	0.2	1134206	1	191061	766145	1134206	943145	32093	1180	2679	539	624715	2413224	36491
111	2016-12-31 10:15:54	0	0	0	0	0	0	25.89	2.83	0.2	1134349	1	191123	766145	1134349	943226	32098	1180	2679	539	624715	2413285	36496
112	2016-12-31 10:25:53	0	0	0	0	0	0	25.89	2.83	0.2	1134496	1	191189	766145	1134496	943307	32101	1180	2679	539	624715	2413388	36499
113	2016-12-31 10:29:22	0	0	0	0	0	0	25.89	2.83	0.2	1134496	1	191189	766145	1134496	943307	32101	1180	2679	539	624715	2413420	36499
114	2016-12-31 10:38:50	0	0	0	0	0	0	25.88	2.83	0.2	1134617	1	191243	766904	1134617	943374	32110	1180	2679	539	624715	2413523	36508
115	2016-12-31 10:48:48	0	0	0	0	0	0	25.88	2.83	0.2	1134742	1	191303	766904	1134742	943439	32113	1180	2679	539	624715	2413626	36511
116	2016-12-31 10:58:52	0	0	0	0	0	0	25.88	2.83	0.2	1134872	1	191355	766904	1134872	943517	32120	1180	2679	539	624715	2413747	36518
117	2016-12-31 11:08:52	0	0	0	0	0	0	25.88	2.83	0.2	1134990	1	191412	766904	1134990	943578	32122	1180	2679	539	624715	2413887	36520
118	2016-12-31 11:18:52	0	0	0	0	0	0	25.88	2.83	0.2	1135109	1	191472	766904	1135109	943637	32122	1180	2679	539	624715	2414016	36520
119	2016-12-31 11:28:53	0	0	0	0	0	0	25.88	2.83	0.2	1135215	1	191530	766904	1135215	943685	32124	1180	2679	539	624715	2414148	36522
120	2016-12-31 11:38:52	0	0	0	0	0	0	25.88	2.83	0.2	1135319	1	191583	766904	1135319	943736	32125	1180	2679	539	624715	2414254	36523
121	2016-12-31 11:48:53	0	0	0	0	0	0	25.92	2.83	0.2	1135430	1	191644	766904	1135430	943786	32127	1180	2679	539	625725	2414358	36525
122	2016-12-31 11:58:54	0	0	0	0	0	0	25.92	2.83	0.2	1135538	1	191704	766904	1135538	943834	32128	1180	2679	539	625725	2414472	36526
123	2016-12-31 12:08:54	0	0	0	0	0	0	25.91	2.83	0.2	1135645	1	191748	766904	1135645	943897	32129	1180	2679	539	625725	2414598	36527
124	2016-12-31 12:18:53	0	0	0	0	0	0	25.95	2.83	0.2	1135718	1	191794	766904	1135718	943924	32130	1180	2679	539	626739	2414727	36528
125	2016-12-31 12:28:55	0	0	0	0	0	0	25.95	2.83	0.2	1135812	1	191846	766904	1135812	943966	32133	1180	2680	539	626739	2414855	36532
126	2016-12-31 12:38:54	0	0	0	0	0	0	25.95	2.83	0.2	1135881	1	191878	766904	1135881	944003	32134	1180	2680	539	626739	2414979	36533
127	2016-12-31 12:48:55	0	0	0	0	0	0	25.95	2.83	0.2	1135950	1	191920	766904	1135950	944030	32136	1180	2681	539	626739	2415088	36536
128	2016-12-31 12:58:58	0	0	0	0	0	0	25.95	2.83	0.2	1136033	1	191974	766904	1136033	944059	32136	1180	2681	539	626739	2415219	36536
129	2016-12-31 13:08:57	0	0	0	0	0	0	25.95	2.83	0.2	1136106	1	192012	766904	1136106	944094	32137	1180	2681	539	626739	2415338	36537
130	2016-12-31 13:18:55	0	0	0	0	0	0	25.95	2.83	0.2	1136183	1	192046	766904	1136183	944137	32141	1180	2681	539	626739	2415444	36541
131	2016-12-31 13:28:55	0	0	0	0	0	0	25.95	2.83	0.2	1136264	1	192087	766904	1136264	944177	32144	1180	2681	539	626739	2415549	36544
132	2016-12-31 13:38:58	0	0	0	0	0	0	25.94	2.83	0.2	1136332	1	192118	766904	1136332	944214	32146	1180	2681	539	626739	2415650	36546
133	2016-12-31 13:48:55	0	0	0	0	0	0	25.94	2.83	0.2	1136410	1	192158	766904	1136410	944252	32150	1180	2681	539	626739	2415755	36550
134	2016-12-31 13:58:57	0	0	0	0	0	0	25.94	2.83	0.2	1136473	1	192196	766904	1136473	944277	32151	1180	2682	539	626739	2415833	36552
135	2016-12-31 14:08:56	0	0	0	0	0	0	25.94	2.83	0.2	1136535	1	192233	766904	1136535	944302	32152	1180	2682	539	626739	2415932	36553
136	2016-12-31 14:18:56	0	0	0	0	0	0	25.94	2.83	0.2	1136601	1	192267	766904	1136601	944334	32152	1180	2682	539	626739	2416013	36553
137	2016-12-31 14:29:00	0	0	0	0	0	0	25.94	2.83	0.2	1136658	1	192298	766904	1136658	944360	32154	1180	2682	539	626739	2416121	36555
138	2016-12-31 14:38:57	0	0	0	0	0	0	25.94	2.83	0.2	1136718	1	192332	766904	1136718	944386	32157	1180	2682	539	626739	2416225	36558
139	2016-12-31 14:48:57	0	0	0	0	0	0	25.94	2.83	0.2	1136774	1	192363	766904	1136774	944411	32158	1180	2682	539	626739	2416331	36559
140	2016-12-31 14:58:58	0	0	0	0	0	0	25.94	2.83	0.2	1136831	1	192391	766904	1136831	944440	32159	1180	2682	539	626739	2416425	36560
141	2016-12-31 15:08:58	0	0	0	0	0	0	25.94	2.83	0.2	1136875	1	192418	766904	1136875	944457	32163	1180	2682	539	626739	2416523	36564
142	2016-12-31 15:18:57	0	0	0	0	0	0	25.93	2.83	0.2	1136926	1	192440	766904	1136926	944486	32165	1180	2682	539	626739	2416629	36566
143	2016-12-31 15:28:58	0	0	0	0	0	0	25.93	2.83	0.2	1136981	1	192474	766904	1136981	944507	32168	1180	2682	539	626739	2416705	36569
144	2016-12-31 15:38:57	0	0	0	0	0	0	25.93	2.83	0.2	1137035	1	192505	766904	1137035	944530	32168	1180	2682	539	626739	2416811	36569
145	2016-12-31 15:48:57	0	0	0	0	0	0	25.93	2.83	0.2	1137084	1	192532	767664	1137084	944552	32171	1180	2682	539	626739	2416927	36572
146	2016-12-31 15:58:58	0	0	0	0	0	0	25.93	2.83	0.2	1137143	1	192562	767664	1137143	944581	32175	1180	2682	539	626739	2417038	36576
147	2016-12-31 16:08:59	0	0	0	0	0	0	25.93	2.83	0.2	1137190	1	192583	767664	1137190	944607	32176	1180	2682	539	626739	2417123	36577
148	2016-12-31 16:19:00	0	0	0	0	0	0	25.93	2.83	0.2	1137227	1	192607	767664	1137227	944620	32177	1180	2682	539	626739	2417215	36578
149	2016-12-31 16:28:59	0	0	0	0	0	0	25.93	2.83	0.2	1137260	1	192623	767664	1137260	944637	32177	1180	2682	539	626739	2417325	36578
150	2016-12-31 16:39:00	0	0	0	0	0	0	25.93	2.83	0.2	1137350	1	192649	767664	1137350	944701	32179	1180	2682	539	626739	2417436	36580
151	2016-12-31 16:49:01	0	0	0	0	0	0	25.92	2.83	0.2	1137403	1	192672	767664	1137403	944731	32179	1180	2682	539	626739	2417537	36580
152	2016-12-31 16:59:00	0	0	0	0	0	0	25.92	2.83	0.2	1137443	1	192688	767664	1137443	944755	32179	1180	2682	539	626739	2417649	36580
153	2016-12-31 17:09:03	0	0	0	0	0	0	25.92	2.83	0.2	1137486	1	192709	767664	1137486	944777	32181	1180	2682	539	626739	2417751	36582
154	2016-12-31 17:19:00	0	0	0	0	0	0	25.92	2.83	0.2	1137521	1	192728	768808	1137521	944793	32181	1180	2682	539	626739	2417847	36582
155	2016-12-31 17:29:01	0	0	0	0	0	0	25.92	2.83	0.2	1137561	1	192749	768808	1137561	944812	32183	1180	2682	539	626739	2417926	36584
156	2016-12-31 17:39:01	0	0	0	0	0	0	25.92	2.83	0.2	1137595	1	192768	768808	1137595	944827	32183	1180	2682	539	626739	2418024	36584
157	2016-12-31 17:49:01	0	0	0	0	0	0	25.92	2.83	0.2	1137643	1	192795	768808	1137643	944848	32184	1180	2682	539	626739	2418108	36585
158	2016-12-31 17:59:01	0	0	0	0	0	0	25.92	2.83	0.2	1137684	1	192814	768808	1137684	944870	32184	1180	2682	539	626739	2418216	36585
159	2016-12-31 18:09:03	0	0	0	0	0	0	25.96	2.83	0.2	1137725	1	192835	770242	1137725	944890	32185	1180	2683	539	627691	2418317	36587
160	2016-12-31 18:19:03	0	0	0	0	0	0	25.95	2.83	0.2	1137771	1	192858	770242	1137771	944913	32185	1180	2683	539	627691	2418412	36587
161	2016-12-31 18:29:03	0	0	0	0	0	0	25.95	2.83	0.2	1137814	1	192878	770242	1137814	944936	32185	1180	2683	539	627691	2418489	36587
162	2016-12-31 18:39:03	0	0	0	0	0	0	25.95	2.83	0.2	1137847	1	192899	770242	1137847	944948	32186	1178	2683	539	627691	2418584	36586
163	2016-12-31 18:49:01	0	0	0	0	0	0	25.95	2.83	0.2	1137897	1	192928	770242	1137897	944969	32186	1178	2683	539	627691	2418680	36586
164	2016-12-31 18:59:03	0	0	0	0	0	0	25.96	2.83	0.2	1137948	1	192959	770626	1137948	944989	32186	1178	2683	539	627946	2418784	36586
165	2016-12-31 19:09:11	0	0	0	0	0	0	25.96	2.83	0.2	1137994	1	192987	770626	1137994	945007	32187	1178	2683	539	627946	2418921	36587
166	2016-12-31 19:19:19	0	0	0	0	0	0	25.96	2.83	0.2	1138039	1	193011	770626	1138039	945028	32188	1178	2683	539	627946	2419029	36588
167	2016-12-31 19:29:33	0	0	0	0	0	0	25.96	2.83	0.2	1138078	1	193037	770626	1138078	945041	32188	1178	2683	539	627946	2419126	36588
168	2016-12-31 19:39:49	0	0	0	0	0	0	25.96	2.83	0.2	1138120	1	193059	770626	1138120	945061	32190	1178	2683	539	627946	2419228	36590
169	2016-12-31 19:50:03	0	0	0	0	0	0	25.96	2.83	0.2	1138151	1	193075	770626	1138151	945076	32190	1178	2683	539	627946	2419312	36590
170	2016-12-31 20:02:21	0	0	0	0	0	0	25.95	2.83	0.2	1138201	1	193093	770626	1138201	945108	32190	1178	2683	539	627946	2419433	36590
171	2016-12-31 20:14:06	0	0	0	0	0	0	25.95	2.83	0.2	1138236	1	193111	770626	1138236	945125	32190	1178	2683	539	627946	2419564	36590
172	2016-12-31 20:26:06	0	0	0	0	0	0	25.95	2.83	0.2	1138286	1	193131	770626	1138286	945155	32192	1178	2683	539	627946	2419668	36592
173	2016-12-31 20:38:03	0	0	0	0	0	0	25.95	2.83	0.2	1138319	1	193145	770626	1138319	945174	32192	1178	2683	539	627946	2419764	36592
174	2016-12-31 20:50:14	0	0	0	0	0	0	25.95	2.83	0.2	1138362	1	193163	770626	1138362	945199	32193	1178	2683	539	627946	2419877	36593
175	2016-12-31 21:02:25	0	0	0	0	0	0	25.95	2.83	0.2	1138406	1	193190	770626	1138406	945216	32194	1178	2683	539	627946	2419992	36594
176	2016-12-31 21:14:40	0	0	0	0	0	0	25.95	2.83	0.2	1138436	1	193206	770626	1138436	945230	32194	1178	2683	539	627946	2420101	36594
177	2016-12-31 21:27:04	0	0	0	0	0	0	25.95	2.83	0.2	1138463	1	193216	770626	1138463	945247	32194	1178	2683	539	627946	2420211	36594
178	2016-12-31 21:40:36	0	0	0	0	0	0	25.94	2.83	0.2	1138490	1	193229	770626	1138490	945261	32194	1178	2683	539	627946	2420327	36594
179	2016-12-31 21:52:49	0	0	0	0	0	0	25.94	2.83	0.2	1138533	1	193252	770626	1138533	945281	32194	1178	2683	539	627946	2420424	36594
180	2016-12-31 22:05:35	0	0	0	0	0	0	25.94	2.83	0.2	1138573	1	193276	770626	1138573	945309	32194	1178	2683	539	627946	2420512	36594
181	2016-12-31 22:19:14	0	0	0	0	0	0	25.94	2.83	0.2	1138609	1	193286	770626	1138609	945323	32195	1178	2683	539	627946	2420599	36595
182	2016-12-31 22:31:49	0	0	0	0	0	0	25.94	2.83	0.2	1138639	1	193305	770626	1138639	945334	32195	1178	2683	539	627946	2420697	36595
183	2016-12-31 22:45:33	0	0	0	0	0	0	25.94	2.83	0.2	1138663	1	193316	770626	1138663	945347	32195	1178	2683	539	627946	2420807	36595
184	2016-12-31 23:00:45	0	0	0	0	0	0	25.94	2.83	0.2	1138698	1	193330	770626	1138698	945368	32195	1178	2683	539	627946	2420922	36595
185	2016-12-31 23:13:51	0	0	0	0	0	0	25.94	2.83	0.2	1138740	1	193345	770626	1138740	945395	32195	1178	2683	539	627946	2421011	36595
186	2016-12-31 23:28:33	0	0	0	0	0	0	25.94	2.83	0.2	1138780	1	193368	770626	1138780	945412	32196	1178	2683	539	627946	2421143	36596
187	2016-12-31 23:41:24	0	0	0	0	0	0	25.93	2.83	0.2	1138818	1	193387	770626	1138818	945431	32197	1178	2683	539	627946	2421261	36597
188	2016-12-31 23:54:47	0	0	0	0	0	0	25.94	2.83	0.2	1138837	1	193396	770817	1138837	945441	32197	1178	2683	539	628073	2421358	36597
189	2017-01-01 00:08:11	0	0	0	0	0	0	25.94	2.83	0.2	1138856	1	193404	770817	1138856	945452	32197	1178	2683	539	628073	2421422	36597
190	2017-01-01 00:22:10	0	0	0	0	0	0	25.94	2.83	0.2	1138881	1	193417	770817	1138881	945464	32197	1178	2683	539	628073	2421484	36597
191	2017-01-01 00:35:45	0	0	0	0	0	0	25.94	2.83	0.2	1138908	1	193429	770817	1138908	945479	32198	1178	2683	539	628073	2421580	36598
192	2017-01-01 00:52:28	0	0	0	0	0	0	25.93	2.83	0.2	1138959	1	193451	770817	1138959	945508	32198	1178	2683	539	628073	2421741	36598
193	2017-01-01 01:05:32	0	0	0	0	0	0	25.93	2.83	0.2	1138985	1	193459	770817	1138985	945526	32200	1178	2683	539	628073	2421879	36600
194	2017-01-01 01:19:40	0	0	0	0	0	0	25.93	2.83	0.2	1139029	1	193480	770817	1139029	945549	32200	1178	2683	539	628073	2422035	36600
195	2017-01-01 01:33:30	0	0	0	0	0	0	25.93	2.83	0.2	1139053	1	193492	770817	1139053	945561	32200	1178	2683	539	628073	2422205	36600
196	2017-01-01 01:45:09	0	0	0	0	0	0	25.93	2.83	0.2	1139069	1	193500	770817	1139069	945569	32200	1178	2683	539	628073	2422353	36600
197	2017-01-01 01:56:53	0	0	0	0	0	0	25.93	2.83	0.2	1139098	1	193513	770817	1139098	945585	32200	1178	2683	539	628073	2422465	36600
198	2017-01-01 02:09:03	0	0	0	0	0	0	26.01	2.83	0.2	1139114	1	193521	770817	1139114	945593	32200	1178	2683	539	628073	2415018	36600
199	2017-01-01 02:21:04	0	0	0	0	0	0	26.01	2.83	0.2	1139133	1	193532	770817	1139133	945601	32200	1178	2683	539	628073	2415095	36600
200	2017-01-01 02:34:51	0	0	0	0	0	0	26.01	2.83	0.2	1139154	1	193549	770817	1139154	945605	32200	1178	2683	539	628073	2415147	36600
201	2017-01-01 02:47:47	0	0	0	0	0	0	26	2.83	0.2	1139196	1	193566	770817	1139196	945630	32200	1178	2683	539	628073	2415223	36600
202	2017-01-01 02:59:55	0	0	0	0	0	0	26	2.83	0.2	1139219	1	193578	770817	1139219	945641	32200	1178	2684	539	628073	2415279	36601
203	2017-01-01 03:12:13	0	0	0	0	0	0	26	2.83	0.2	1139239	1	193585	770817	1139239	945654	32200	1178	2684	539	628073	2415339	36601
204	2017-01-01 03:24:43	0	0	0	0	0	0	26	2.83	0.2	1139260	1	193594	770817	1139260	945666	32201	1178	2684	539	628073	2415386	36602
205	2017-01-01 03:37:22	0	0	0	0	0	0	26	2.83	0.2	1139277	1	193600	770817	1139277	945677	32201	1178	2684	539	628073	2415433	36602
206	2017-01-01 03:49:53	0	0	0	0	0	0	26	2.83	0.2	1139280	1	193603	770817	1139280	945677	32201	1178	2684	539	628073	2415471	36602
207	2017-01-01 04:02:28	0	0	0	0	0	0	26	2.83	0.2	1139292	1	193607	770817	1139292	945685	32201	1178	2684	539	628073	2415514	36602
208	2017-01-01 04:20:23	0	0	0	0	0	0	26	2.83	0.2	1139304	1	193616	770817	1139304	945688	32201	1178	2684	539	628073	2415570	36602
209	2017-01-01 04:41:51	0	0	0	0	0	0	26	2.83	0.2	1139318	1	193625	770817	1139318	945693	32203	1178	2684	539	628073	2415604	36604
210	2017-01-01 05:08:04	0	0	0	0	0	0	26	2.83	0.2	1139334	1	193630	770817	1139334	945704	32203	1178	2684	539	628073	2415639	36604
211	2017-01-01 05:20:38	0	0	0	0	0	0	26	2.83	0.2	1139339	1	193630	770817	1139339	945709	32203	1178	2684	539	628073	2415658	36604
212	2017-01-01 05:43:55	0	0	0	0	0	0	26	2.83	0.2	1139353	1	193636	770817	1139353	945717	32203	1178	2684	539	628073	2415696	36604
213	2017-01-01 05:57:34	0	0	0	0	0	0	26	2.83	0.2	1139357	1	193638	770817	1139357	945719	32203	1178	2684	539	628073	2415712	36604
214	2017-01-01 06:11:02	0	0	0	0	0	0	26	2.83	0.2	1139359	1	193640	770817	1139359	945719	32203	1178	2684	539	628073	2415726	36604
215	2017-01-01 06:24:28	0	0	0	0	0	0	26	2.83	0.2	1139363	1	193641	770817	1139363	945722	32203	1178	2684	539	628073	2415735	36604
216	2017-01-01 06:37:44	0	0	0	0	0	0	26	2.83	0.2	1139365	1	193642	770817	1139365	945723	32203	1178	2684	539	628073	2415746	36604
217	2017-01-01 06:51:45	0	0	0	0	0	0	26	2.83	0.2	1139372	1	193648	770817	1139372	945724	32203	1178	2684	539	628073	2415756	36604
218	2017-01-01 07:05:34	0	0	0	0	0	0	26	2.83	0.2	1139377	1	193651	770817	1139377	945726	32203	1178	2684	539	628073	2415765	36604
219	2017-01-01 07:19:40	0	0	0	0	0	0	26	2.83	0.2	1139386	1	193653	770817	1139386	945733	32203	1178	2684	539	628073	2415782	36604
220	2017-01-01 07:34:20	0	0	0	0	0	0	26	2.83	0.2	1139392	1	193655	770817	1139392	945737	32203	1178	2684	539	628073	2415792	36604
221	2017-01-01 07:50:22	0	0	0	0	0	0	26	2.83	0.2	1139399	1	193658	770817	1139399	945741	32203	1178	2684	539	628073	2415828	36604
222	2017-01-01 08:06:03	0	0	0	0	0	0	26	2.83	0.2	1139410	1	193666	770817	1139410	945744	32204	1178	2684	539	628073	2415873	36605
223	2017-01-01 08:22:25	0	0	0	0	0	0	26	2.83	0.2	1139423	1	193670	770817	1139423	945753	32204	1178	2684	539	628073	2415930	36605
224	2017-01-01 08:36:40	0	0	0	0	0	0	26	2.83	0.2	1139430	1	193675	770817	1139430	945755	32204	1178	2684	539	628073	2415981	36605
225	2017-01-01 08:50:57	0	0	0	0	0	0	26	2.83	0.2	1139454	1	193688	770817	1139454	945766	32204	1178	2684	539	628073	2416050	36605
226	2017-01-01 09:05:05	0	0	0	0	0	0	25.99	2.83	0.2	1139467	1	193695	770817	1139467	945772	32206	1178	2684	539	628073	2416134	36607
227	2017-01-01 09:20:37	0	0	0	0	0	0	25.99	2.83	0.2	1139482	1	193697	770817	1139482	945785	32206	1178	2684	539	628073	2416252	36607
228	2017-01-01 09:35:58	0	0	0	0	0	0	25.99	2.83	0.2	1139494	1	193704	770817	1139494	945790	32206	1178	2684	539	628073	2416345	36607
