1	2016-12-21 21:55:38	0	0	0	0	0	0	0.11	0.18	0	2719	1	1	2584	2719	2718	5	0	8	1	2580	2390588	14
2	2016-12-21 22:05:38	0	0	0	0	0	0	0.69	0.68	0	19484	1	34	16488	19484	19450	133	0	35	5	16446	2390594	173
3	2016-12-21 22:15:38	0	0	0	0	0	0	1.01	0.82	0	29695	1	104	24369	29695	29591	244	2	47	5	24180	2390597	298
4	2016-12-21 22:25:39	0	0	0	0	0	0	1.26	0.9	0	37798	1	155	30549	37798	37643	340	2	58	5	30170	2390601	405
5	2016-12-21 22:35:38	0	0	0	0	0	0	1.45	0.98	0.01	44392	1	226	35069	44392	44166	434	2	66	5	34783	2390600	507
6	2016-12-21 22:45:39	0	0	0	0	0	0	1.62	1.02	0.01	50197	1	269	39079	50197	49928	512	2	76	6	38708	2390606	596
7	2016-12-21 22:55:42	0	0	0	0	0	0	1.75	1.04	0.01	55491	1	307	42286	55491	55184	577	4	78	7	41943	2390610	666
8	2016-12-21 23:05:47	0	0	0	0	0	0	1.91	1.07	0.01	60787	1	345	45909	60787	60442	652	6	85	7	45612	2390609	750
9	2016-12-21 23:15:56	0	0	0	0	0	0	2.05	1.11	0.01	65676	1	377	49333	65676	65299	727	6	91	7	48989	2390608	831
10	2016-12-21 23:26:04	0	0	0	0	0	0	2.19	1.11	0.01	70520	1	416	52900	70520	70104	781	6	94	8	52453	2390619	889
11	2016-12-21 23:36:18	0	0	0	0	0	0	2.31	1.12	0.01	74772	1	459	55699	74772	74313	841	6	102	8	55250	2390621	957
12	2016-12-21 23:46:33	0	0	0	0	0	0	2.42	1.13	0.01	78825	1	499	58446	78825	78326	893	8	102	8	57952	2390625	1011
13	2016-12-21 23:56:51	0	0	0	0	0	0	2.55	1.14	0.01	82834	1	552	61551	82834	82282	946	8	104	9	61071	2390627	1067
14	2016-12-22 00:06:46	0	0	0	0	0	0	2.67	1.16	0.01	86323	1	584	64472	86323	85739	998	8	106	9	63938	2390628	1121
15	2016-12-22 00:16:47	0	0	0	0	0	0	2.78	1.17	0.01	89576	1	620	67011	89576	88956	1044	8	107	9	66503	2390634	1168
16	2016-12-22 00:26:45	0	0	0	0	0	0	2.87	1.18	0.01	92700	1	650	69198	92700	92050	1094	8	108	9	68559	2390632	1219
17	2016-12-22 00:36:47	0	0	0	0	0	0	2.95	1.18	0.01	95548	1	664	71383	95548	94884	1129	10	115	9	70600	2390633	1263
18	2016-12-22 00:46:46	0	0	0	0	0	0	3.04	1.18	0.01	98181	1	692	73490	98181	97489	1157	10	119	9	72565	2390631	1295
19	2016-12-22 00:56:48	0	0	0	0	0	0	3.1	1.18	0.01	100363	1	710	75171	100363	99653	1181	10	120	9	74197	2390642	1320
20	2016-12-22 01:06:48	0	0	0	0	0	0	3.16	1.18	0.01	102117	1	737	76617	102117	101380	1206	10	121	9	75605	2390640	1346
21	2016-12-22 01:16:50	0	0	0	0	0	0	3.22	1.19	0.01	103926	1	762	77910	103926	103164	1238	10	124	9	76909	2390645	1381
22	2016-12-22 01:26:48	0	0	0	0	0	0	3.31	1.2	0.01	105616	1	777	80086	105616	104839	1265	10	127	9	79155	2390646	1411
23	2016-12-22 01:36:48	0	0	0	0	0	0	3.35	1.2	0.01	107114	1	791	81154	107114	106323	1286	12	128	9	80199	2390642	1435
24	2016-12-22 01:49:26	0	0	0	0	0	0	3.39	1.2	0.01	108510	1	798	81951	108510	107712	1304	12	130	9	80977	2390644	1455
25	2016-12-22 01:59:36	0	0	0	0	0	0	3.42	1.2	0.01	109755	1	806	82756	109755	108949	1320	12	130	9	81763	2390647	1471
26	2016-12-22 02:09:46	0	0	0	0	0	0	3.46	1.21	0.01	110821	1	813	83863	110821	110010	1342	12	130	9	82838	2393818	1493
27	2016-12-22 02:19:33	0	0	0	0	0	0	3.48	1.21	0.01	111749	1	816	84271	111749	110933	1348	12	131	9	83273	2393819	1500
28	2016-12-22 02:29:34	0	0	0	0	0	0	3.49	1.21	0.01	112590	1	821	84587	112590	111769	1358	12	132	9	83581	2393819	1511
29	2016-12-22 02:39:41	0	0	0	0	0	0	3.51	1.2	0.01	113339	1	823	85117	113339	112516	1365	12	133	9	84098	2393822	1519
30	2016-12-22 02:52:01	0	0	0	0	0	0	3.54	1.2	0.01	114538	1	832	85722	114538	113706	1374	12	133	9	84689	2393823	1528
31	2016-12-22 03:02:05	0	0	0	0	0	0	3.57	1.21	0.01	115170	1	844	86436	115170	114326	1389	12	134	9	85386	2393824	1544
32	2016-12-22 03:12:05	0	0	0	0	0	0	3.59	1.2	0.01	115819	1	852	86990	115819	114967	1392	12	135	9	85926	2393827	1548
33	2016-12-22 03:23:38	0	0	0	0	0	0	3.6	1.2	0.01	116334	1	860	87284	116334	115474	1398	12	136	9	86213	2393826	1555
34	2016-12-22 03:33:38	0	0	0	0	0	0	3.61	1.2	0.01	116798	1	864	87471	116798	115934	1405	12	136	9	86473	2393825	1562
35	2016-12-22 03:43:45	0	0	0	0	0	0	3.62	1.2	0.01	117207	1	866	87664	117207	116341	1410	12	136	9	86662	2393826	1567
36	2016-12-22 03:53:59	0	0	0	0	0	0	3.62	1.2	0.01	117608	1	868	87759	117608	116740	1415	14	138	9	86754	2393826	1576
37	2016-12-22 04:04:05	0	0	0	0	0	0	3.64	1.2	0.01	117985	1	873	88162	117985	117112	1419	14	138	9	87148	2393825	1580
38	2016-12-22 04:14:12	0	0	0	0	0	0	3.65	1.2	0.01	118348	1	881	88342	118348	117467	1421	14	138	9	87325	2393825	1582
39	2016-12-22 04:24:19	0	0	0	0	0	0	3.66	1.2	0.01	118717	1	889	88676	118717	117828	1425	14	138	9	87651	2393825	1586
40	2016-12-22 04:49:49	0	0	0	0	0	0	3.68	1.2	0.01	119687	1	903	89255	119687	118784	1432	14	139	9	88176	2393826	1594
41	2016-12-22 04:59:52	0	0	0	0	0	0	3.71	1.2	0.01	120059	1	906	89830	120059	119153	1438	14	140	9	88737	2393826	1601
42	2016-12-22 05:09:58	0	0	0	0	0	0	3.72	1.2	0.01	120409	1	918	90099	120409	119495	1439	14	140	9	89041	2393827	1602
43	2016-12-22 05:20:18	0	0	0	0	0	0	3.73	1.2	0.01	120950	1	922	90304	120950	120028	1447	14	140	9	89241	2393827	1610
44	2016-12-22 05:30:35	0	0	0	0	0	0	3.73	1.2	0.01	121379	1	926	90452	121379	120453	1453	14	140	9	89385	2393827	1616
45	2016-12-22 05:40:56	0	0	0	0	0	0	3.74	1.2	0.01	121872	1	930	90705	121872	120942	1463	14	141	9	89632	2393826	1627
46	2016-12-22 05:51:19	0	0	0	0	0	0	3.76	1.2	0.01	122439	1	933	90993	122439	121506	1470	14	142	9	89913	2393827	1635
47	2016-12-22 06:01:45	0	0	0	0	0	0	3.78	1.2	0.01	123040	1	939	91518	123040	122101	1478	14	142	9	90426	2393826	1643
48	2016-12-22 06:12:06	0	0	0	0	0	0	3.8	1.2	0.01	123691	1	951	92018	123691	122740	1489	14	143	9	90914	2393827	1655
49	2016-12-22 06:22:37	0	0	0	0	0	0	3.83	1.21	0.01	124406	1	963	92817	124406	123443	1502	14	143	9	91694	2393827	1668
50	2016-12-22 06:33:46	0	0	0	0	0	0	3.86	1.21	0.01	125170	1	975	93524	125170	124195	1515	14	144	9	92384	2393827	1682
51	2016-12-22 06:45:10	0	0	0	0	0	0	3.86	1.22	0.01	125977	1	986	93603	125977	124994	1543	14	145	9	92505	2393828	1711
52	2016-12-22 06:56:28	0	0	0	0	0	0	3.89	1.22	0.01	127325	1	996	94209	127325	126329	1558	14	146	9	93019	2393833	1727
53	2016-12-22 07:07:21	0	0	0	0	0	0	3.9	1.23	0.01	128383	1	1011	94612	128383	127372	1583	14	147	9	93412	2393835	1753
54	2016-12-22 07:18:07	0	0	0	0	0	0	3.94	1.23	0.01	129515	1	1026	95377	129515	128489	1595	14	147	9	94249	2393837	1765
55	2016-12-22 07:29:05	0	0	0	0	0	0	3.99	1.24	0.01	130733	1	1036	96676	130733	129697	1620	14	149	9	95517	2393840	1792
56	2016-12-22 07:46:00	0	0	0	0	0	0	4.1	1.25	0.01	133181	1	1070	99218	133181	132111	1663	14	149	9	98048	2393848	1835
57	2016-12-22 07:57:39	0	0	0	0	0	0	4.13	1.25	0.01	134468	1	1090	99807	134468	133378	1678	14	150	9	98824	2393849	1851
58	2016-12-22 08:09:57	0	0	0	0	0	0	4.16	1.25	0.01	135805	1	1110	100546	135805	134695	1701	16	152	9	99549	2393853	1878
59	2016-12-22 08:22:12	0	0	0	0	0	0	4.22	1.26	0.01	137701	1	1144	102092	137701	136557	1734	16	152	9	101064	2393853	1911
60	2016-12-22 08:32:15	0	0	0	0	0	0	4.26	1.26	0.01	139067	1	1165	103109	139067	137902	1751	18	154	9	102060	2393853	1932
61	2016-12-22 08:42:37	0	0	0	0	0	0	4.29	1.27	0.01	140219	1	1186	103792	140219	139033	1777	18	155	9	102729	2393856	1959
62	2016-12-22 08:53:03	0	0	0	0	0	0	4.33	1.27	0.01	141326	1	1208	104805	141326	140118	1792	18	157	9	103722	2393857	1976
63	2016-12-22 09:03:33	0	0	0	0	0	0	4.37	1.27	0.01	142418	1	1228	105627	142418	141190	1811	18	157	10	104498	2393858	1996
64	2016-12-22 09:14:04	0	0	0	0	0	0	4.4	1.27	0.01	143436	1	1246	106396	143436	142190	1823	18	158	10	105251	2393858	2009
65	2016-12-22 09:24:36	0	0	0	0	0	0	4.42	1.28	0.01	144465	1	1259	106846	144465	143206	1845	18	158	10	105691	2393856	2031
66	2016-12-22 09:35:13	0	0	0	0	0	0	4.43	1.27	0.01	145533	1	1272	107138	145533	144261	1851	18	158	10	105971	2393861	2037
67	2016-12-22 09:45:45	0	0	0	0	0	0	4.44	1.28	0.01	147097	1	1293	107566	147097	145804	1877	18	159	10	106389	2393865	2064
68	2016-12-22 09:56:26	0	0	0	0	0	0	4.46	1.28	0.01	148194	1	1308	108046	148194	146886	1896	18	159	10	106858	2393869	2083
69	2016-12-22 10:07:10	0	0	0	0	0	0	4.49	1.28	0.01	149229	1	1322	108615	149229	147907	1917	20	159	10	107415	2393873	2106
70	2016-12-22 10:17:58	0	0	0	0	0	0	4.52	1.29	0.01	150201	1	1338	109379	150201	148863	1932	20	161	10	108162	2393876	2123
71	2016-12-22 10:28:46	0	0	0	0	0	0	4.55	1.28	0.01	151119	1	1352	110247	151119	149767	1940	20	161	10	108980	2393882	2131
72	2016-12-22 10:39:36	0	0	0	0	0	0	4.57	1.28	0.01	151923	1	1366	110813	151923	150557	1952	20	161	10	109409	2393880	2143
73	2016-12-22 10:50:28	0	0	0	0	0	0	4.59	1.29	0.01	152716	1	1382	111217	152716	151340	1974	20	161	10	109928	2393888	2165
74	2016-12-22 11:01:25	0	0	0	0	0	0	4.64	1.29	0.01	153913	1	1390	112160	153913	152523	1986	20	162	10	110976	2393890	2178
75	2016-12-22 11:12:15	0	0	0	0	0	0	4.66	1.29	0.01	154606	1	1398	112808	154606	153208	2000	20	162	11	111610	2393894	2193
76	2016-12-22 11:23:35	0	0	0	0	0	0	4.69	1.3	0.01	155320	1	1409	113510	155320	153911	2015	20	162	11	112298	2393897	2208
77	2016-12-22 11:35:28	0	0	0	0	0	0	4.71	1.3	0.01	155943	1	1423	113861	155943	154526	2022	20	162	11	112641	2393897	2215
78	2016-12-22 11:47:06	0	0	0	0	0	0	4.75	1.3	0.01	156928	1	1432	114934	156928	155496	2038	20	164	11	113825	2393899	2233
79	2016-12-22 11:58:17	0	0	0	0	0	0	4.77	1.3	0.01	157636	1	1440	115362	157636	156196	2045	20	164	11	114245	2393904	2240
80	2016-12-22 12:09:14	0	0	0	0	0	0	4.78	1.3	0.01	158279	1	1450	115608	158279	156829	2055	20	164	11	114486	2393907	2250
81	2016-12-22 12:20:13	0	0	0	0	0	0	4.78	1.3	0.01	158932	1	1458	115608	158932	157474	2061	20	165	11	114486	2393913	2257
82	2016-12-22 12:31:14	0	0	0	0	0	0	4.82	1.29	0.01	159874	1	1466	116274	159874	158408	2065	20	165	11	115277	2393914	2261
83	2016-12-22 12:42:17	0	0	0	0	0	0	4.84	1.29	0.01	160430	1	1472	116827	160430	158958	2076	20	166	11	115820	2393915	2273
84	2016-12-22 12:53:25	0	0	0	0	0	0	4.86	1.29	0.01	161077	1	1481	117274	161077	159596	2082	20	167	11	116259	2393916	2280
85	2016-12-22 13:04:35	0	0	0	0	0	0	4.87	1.29	0.01	161633	1	1491	117693	161633	160142	2088	20	168	11	116671	2393911	2287
86	2016-12-22 13:15:42	0	0	0	0	0	0	4.89	1.3	0.01	162186	1	1500	118069	162186	160688	2104	20	168	11	117040	2393916	2303
87	2016-12-22 13:27:01	0	0	0	0	0	0	4.9	1.29	0.01	163058	1	1502	118276	163058	161556	2110	20	168	11	117244	2393919	2309
88	2016-12-22 13:38:14	0	0	0	0	0	0	4.92	1.29	0.01	163582	1	1510	118782	163582	162072	2113	20	170	11	117741	2393921	2314
89	2016-12-22 13:49:26	0	0	0	0	0	0	4.92	1.29	0.01	164084	1	1522	118910	164084	162562	2117	20	170	11	117867	2393928	2318
90	2016-12-22 14:00:38	0	0	0	0	0	0	4.94	1.29	0.01	164584	1	1535	119244	164584	163051	2127	20	170	11	118191	2393935	2328
91	2016-12-22 14:11:51	0	0	0	0	0	0	4.94	1.29	0.01	165299	1	1542	119438	165299	163757	2132	20	171	11	118380	2393939	2334
92	2016-12-22 14:23:07	0	0	0	0	0	0	4.95	1.29	0.01	165743	1	1552	119493	165743	164191	2144	20	171	11	118435	2393942	2346
93	2016-12-22 14:34:31	0	0	0	0	0	0	4.96	1.29	0.01	166179	1	1556	119715	166179	164623	2148	20	171	11	118653	2393940	2350
94	2016-12-22 14:45:58	0	0	0	0	0	0	4.97	1.29	0.01	166966	1	1567	119862	166966	165399	2160	20	171	11	118989	2393938	2362
95	2016-12-22 14:57:35	0	0	0	0	0	0	4.98	1.29	0.01	167445	1	1572	120267	167445	165873	2166	20	171	11	119195	2393934	2368
96	2016-12-22 15:09:44	0	0	0	0	0	0	4.98	1.29	0.01	167855	1	1576	120346	167855	166279	2168	20	172	11	119273	2393933	2371
97	2016-12-22 15:21:33	0	0	0	0	0	0	4.99	1.29	0.01	168513	1	1582	120570	168513	166931	2180	20	172	11	119493	2393935	2383
98	2016-12-22 15:33:26	0	0	0	0	0	0	5	1.3	0.01	168971	1	1582	120758	168971	167389	2190	20	172	11	119678	2393942	2393
99	2016-12-22 15:44:58	0	0	0	0	0	0	5.01	1.3	0.01	169410	1	1588	121004	169410	167822	2195	20	173	11	119919	2393940	2399
100	2016-12-22 15:58:40	0	0	0	0	0	0	5.04	1.3	0.01	170073	1	1595	121870	170073	168478	2206	20	173	11	120770	2393947	2410
101	2016-12-22 16:10:20	0	0	0	0	0	0	5.05	1.3	0.01	170478	1	1599	122043	170478	168879	2212	20	174	11	120940	2393951	2417
102	2016-12-22 16:21:59	0	0	0	0	0	0	5.08	1.3	0.01	171074	1	1602	122612	171074	169472	2221	20	174	11	121499	2393951	2426
103	2016-12-22 16:33:36	0	0	0	0	0	0	5.08	1.3	0.01	171468	1	1603	122700	171468	169865	2224	20	175	11	121584	2393949	2430
104	2016-12-22 16:45:36	0	0	0	0	0	0	5.09	1.3	0.01	171815	1	1605	122953	171815	170210	2232	20	175	11	121833	2393952	2438
105	2016-12-22 17:00:10	0	0	0	0	0	0	5.09	1.3	0.01	172324	1	1608	123031	172324	170716	2240	20	176	11	121910	2393958	2447
106	2016-12-22 17:12:09	0	0	0	0	0	0	5.1	1.3	0.01	172723	1	1615	123188	172723	171108	2250	20	176	11	122064	2393956	2457
107	2016-12-22 17:24:39	0	0	0	0	0	0	5.11	1.3	0.01	173063	1	1622	123414	173063	171441	2253	20	176	11	122285	2393960	2460
108	2016-12-22 17:36:55	0	0	0	0	0	0	5.12	1.3	0.01	173468	1	1626	123670	173468	171842	2260	20	176	11	122537	2393966	2467
109	2016-12-22 17:46:56	0	0	0	0	0	0	5.12	1.3	0.01	173752	1	1630	123786	173752	172122	2262	20	176	11	122651	2393968	2469
110	2016-12-22 17:57:00	0	0	0	0	0	0	5.14	1.3	0.01	174048	1	1633	124243	174048	172415	2268	20	176	11	123100	2393969	2475
111	2016-12-22 18:07:16	0	0	0	0	0	0	5.15	1.3	0.01	174360	1	1638	124548	174360	172722	2271	20	176	11	123399	2393973	2478
112	2016-12-22 18:17:09	0	0	0	0	0	0	5.15	1.3	0.01	174636	1	1640	124548	174636	172996	2274	20	176	11	123399	2393978	2481
113	2016-12-22 18:27:07	0	0	0	0	0	0	5.16	1.3	0.01	174961	1	1644	124608	174961	173317	2279	20	176	11	123458	2393979	2486
114	2016-12-22 18:37:31	0	0	0	0	0	0	5.18	1.3	0.01	175267	1	1650	125119	175267	173617	2282	20	176	11	123960	2393980	2489
115	2016-12-22 18:47:09	0	0	0	0	0	0	5.19	1.3	0.01	175506	1	1653	125322	175506	173853	2288	20	176	11	124159	2393981	2495
116	2016-12-22 18:57:10	0	0	0	0	0	0	5.19	1.3	0.01	175817	1	1659	125439	175817	174158	2290	20	176	11	124273	2393983	2497
117	2016-12-22 19:07:11	0	0	0	0	0	0	5.19	1.3	0.01	176083	1	1668	125459	176083	174415	2293	20	178	11	124293	2393984	2502
118	2016-12-22 19:17:09	0	0	0	0	0	0	5.19	1.3	0.01	176351	1	1672	125459	176351	174679	2296	20	178	11	124293	2393989	2505
119	2016-12-22 19:27:12	0	0	0	0	0	0	5.2	1.3	0.01	176615	1	1675	125764	176615	174940	2298	20	178	11	124593	2393993	2507
120	2016-12-22 19:37:10	0	0	0	0	0	0	5.22	1.3	0.01	176910	1	1676	126092	176910	175234	2303	20	178	11	124915	2393999	2512
121	2016-12-22 19:47:10	0	0	0	0	0	0	5.23	1.3	0.01	177225	1	1685	126360	177225	175540	2309	20	178	11	125147	2394003	2518
122	2016-12-22 19:57:14	0	0	0	0	0	0	5.24	1.3	0.01	177503	1	1685	126743	177503	175818	2313	20	178	11	125522	2394005	2522
123	2016-12-22 20:07:12	0	0	0	0	0	0	5.24	1.3	0.01	177787	1	1690	126743	177787	176097	2317	20	178	11	125522	2394007	2526
124	2016-12-22 20:17:12	0	0	0	0	0	0	5.25	1.3	0.01	178046	1	1690	126950	178046	176356	2321	20	178	11	125726	2394010	2530
125	2016-12-22 20:27:12	0	0	0	0	0	0	5.26	1.3	0.01	178333	1	1695	127190	178333	176638	2324	20	178	11	125961	2394013	2533
126	2016-12-22 20:37:12	0	0	0	0	0	0	5.27	1.3	0.01	178594	1	1701	127452	178594	176893	2329	20	178	11	126218	2394019	2538
127	2016-12-22 20:47:11	0	0	0	0	0	0	5.28	1.3	0.01	178861	1	1708	127704	178861	177153	2330	20	178	11	126466	2394020	2539
128	2016-12-22 20:57:14	0	0	0	0	0	0	5.29	1.31	0.01	179147	1	1711	127985	179147	177436	2339	20	178	11	126741	2394020	2548
129	2016-12-22 21:07:11	0	0	0	0	0	0	5.29	1.31	0.01	179404	1	1716	127985	179404	177688	2342	20	178	11	126741	2394026	2551
130	2016-12-22 21:17:13	0	0	0	0	0	0	5.3	1.3	0.01	179635	1	1724	128060	179635	177911	2344	20	179	11	126814	2394023	2554
131	2016-12-22 21:27:13	0	0	0	0	0	0	5.3	1.31	0.01	179874	1	1729	128070	179874	178145	2348	20	179	11	126824	2394030	2558
132	2016-12-22 21:37:12	0	0	0	0	0	0	5.31	1.31	0.01	180147	1	1732	128272	180147	178415	2353	20	179	11	127022	2394025	2563
133	2016-12-22 21:47:13	0	0	0	0	0	0	5.32	1.31	0.01	180411	1	1739	128543	180411	178672	2355	20	179	11	127288	2394027	2565
134	2016-12-22 21:57:19	0	0	0	0	0	0	5.32	1.31	0.01	180686	1	1741	128543	180686	178945	2363	20	179	11	127288	2394076	2573
135	2016-12-22 22:07:16	0	0	0	0	0	0	5.32	1.31	0.01	180911	1	1743	128714	180911	179168	2366	20	179	11	127456	2394205	2576
136	2016-12-22 22:17:17	0	0	0	0	0	0	5.33	1.31	0.01	181160	1	1744	128789	181160	179416	2370	20	180	11	127530	2394325	2581
137	2016-12-22 22:27:21	0	0	0	0	0	0	5.33	1.31	0.01	181419	1	1747	128875	181419	179672	2373	20	180	11	127614	2394404	2584
138	2016-12-22 22:37:25	0	0	0	0	0	0	5.34	1.31	0.01	181632	1	1751	129241	181632	179881	2376	20	180	11	127972	2394466	2587
139	2016-12-22 22:47:29	0	0	0	0	0	0	5.35	1.31	0.01	181858	1	1753	129414	181858	180105	2382	20	180	11	128142	2394521	2593
140	2016-12-22 22:57:19	0	0	0	0	0	0	5.35	1.31	0.01	182026	1	1756	129414	182026	180270	2384	20	180	11	128142	2394546	2595
141	2016-12-22 23:07:20	0	0	0	0	0	0	5.35	1.31	0.01	182224	1	1759	129414	182224	180465	2387	20	180	11	128142	2394581	2598
142	2016-12-22 23:17:20	0	0	0	0	0	0	5.35	1.31	0.01	182411	1	1761	129414	182411	180650	2391	20	180	11	128142	2394614	2602
143	2016-12-22 23:27:21	0	0	0	0	0	0	5.35	1.31	0.01	182591	1	1765	129490	182591	180826	2395	20	181	11	128216	2394638	2607
144	2016-12-22 23:37:20	0	0	0	0	0	0	5.36	1.31	0.01	182764	1	1768	129706	182764	180996	2397	20	181	11	128429	2394664	2609
145	2016-12-22 23:47:22	0	0	0	0	0	0	5.36	1.31	0.01	182940	1	1770	129706	182940	181170	2399	20	181	11	128429	2394682	2611
146	2016-12-22 23:57:20	0	0	0	0	0	0	5.36	1.31	0.01	183069	1	1772	129706	183069	181297	2400	20	181	11	128429	2394701	2612
147	2016-12-23 00:07:21	0	0	0	0	0	0	5.37	1.31	0.01	183194	1	1776	129879	183194	181418	2403	20	181	11	128598	2394725	2615
148	2016-12-23 00:17:20	0	0	0	0	0	0	5.38	1.31	0.01	183336	1	1777	130185	183336	181559	2405	20	181	11	128898	2394740	2617
149	2016-12-23 00:27:23	0	0	0	0	0	0	5.39	1.31	0.01	183450	1	1779	130338	183450	181671	2406	20	181	11	129048	2394756	2618
150	2016-12-23 00:37:07	0	0	0	0	0	0	5.39	1.31	0.01	183565	1	1782	130338	183565	181783	2409	20	181	11	129048	2394772	2621
151	2016-12-23 00:47:05	0	0	0	0	0	0	5.39	1.31	0.01	183660	1	1783	130470	183660	181877	2411	20	181	11	129177	2394778	2623
152	2016-12-23 00:57:06	0	0	0	0	0	0	5.39	1.31	0.01	183749	1	1788	130470	183749	181961	2412	20	181	11	129177	2394793	2624
153	2016-12-23 01:07:06	0	0	0	0	0	0	5.39	1.31	0.01	183831	1	1788	130470	183831	182043	2413	20	181	11	129177	2394804	2625
154	2016-12-23 01:17:06	0	0	0	0	0	0	5.4	1.31	0.01	183914	1	1788	130641	183914	182126	2414	20	181	11	129345	2394806	2626
155	2016-12-23 01:27:06	0	0	0	0	0	0	5.4	1.31	0.01	183985	1	1788	130685	183985	182197	2415	20	181	11	129388	2394814	2627
156	2016-12-23 01:37:05	0	0	0	0	0	0	5.4	1.31	0.01	184039	1	1788	130685	184039	182251	2417	20	181	11	129388	2394821	2629
157	2016-12-23 01:47:05	0	0	0	0	0	0	5.4	1.31	0.01	184103	1	1789	130685	184103	182314	2419	20	181	11	129388	2394826	2631
158	2016-12-23 01:57:06	0	0	0	0	0	0	5.4	1.31	0.01	184150	1	1789	130685	184150	182361	2419	20	181	11	129388	2394831	2631
159	2016-12-23 02:07:07	0	0	0	0	0	0	5.4	1.31	0.01	184195	1	1789	130685	184195	182406	2419	20	181	11	129388	2396970	2631
160	2016-12-23 02:17:07	0	0	0	0	0	0	5.4	1.31	0.01	184240	1	1790	130685	184240	182450	2420	20	181	11	129388	2396969	2632
161	2016-12-23 02:27:07	0	0	0	0	0	0	5.4	1.31	0.01	184276	1	1790	130685	184276	182486	2420	20	181	11	129388	2396973	2632
162	2016-12-23 02:37:06	0	0	0	0	0	0	5.4	1.31	0.01	184318	1	1791	130685	184318	182527	2421	20	181	11	129388	2396973	2633
163	2016-12-23 02:47:07	0	0	0	0	0	0	5.4	1.31	0.01	184352	1	1792	130685	184352	182544	2421	20	182	11	129388	2396973	2634
164	2016-12-23 02:57:06	0	0	0	0	0	0	5.4	1.31	0.01	184387	1	1792	130685	184387	182595	2423	20	182	11	129388	2396977	2636
165	2016-12-23 03:07:10	0	0	0	0	0	0	5.4	1.31	0.01	184423	1	1793	130685	184423	182630	2424	20	182	11	129388	2396980	2637
166	2016-12-23 03:17:07	0	0	0	0	0	0	5.4	1.31	0.01	184449	1	1795	130724	184449	182654	2425	20	182	11	129426	2396981	2638
167	2016-12-23 03:27:08	0	0	0	0	0	0	5.4	1.32	0.01	184456	1	1795	130724	184456	182661	2426	20	182	11	129426	2396984	2639
168	2016-12-23 03:37:08	0	0	0	0	0	0	5.4	1.31	0.01	184494	1	1795	130724	184494	182699	2426	20	182	11	129426	2396992	2639
169	2016-12-23 03:47:07	0	0	0	0	0	0	5.4	1.31	0.01	184519	1	1795	130724	184519	182724	2426	20	182	11	129426	2396995	2639
170	2016-12-23 03:57:09	0	0	0	0	0	0	5.4	1.31	0.01	184540	1	1795	130724	184540	182745	2426	20	182	11	129426	2396995	2639
171	2016-12-23 04:07:08	0	0	0	0	0	0	5.4	1.31	0.01	184565	1	1797	130724	184565	182770	2426	20	182	11	129426	2396999	2639
172	2016-12-23 04:17:08	0	0	0	0	0	0	5.4	1.31	0.01	184589	1	1798	130724	184589	182796	2426	20	182	11	129426	2396999	2639
173	2016-12-23 04:27:07	0	0	0	0	0	0	5.4	1.31	0.01	184604	1	1798	130724	184604	182814	2426	20	182	11	129426	2396998	2639
174	2016-12-23 04:37:09	0	0	0	0	0	0	5.4	1.31	0.01	184617	1	1798	130724	184617	182819	2426	20	182	11	129426	2397001	2639
175	2016-12-23 04:47:08	0	0	0	0	0	0	5.4	1.31	0.01	184646	1	1799	130724	184646	182847	2426	20	182	11	129426	2397002	2639
176	2016-12-23 04:57:08	0	0	0	0	0	0	5.4	1.31	0.01	184681	1	1799	130724	184681	182882	2427	20	182	11	129426	2397004	2640
177	2016-12-23 05:07:09	0	0	0	0	0	0	5.4	1.32	0.01	184695	1	1800	130766	184695	182895	2429	20	182	11	129468	2397005	2642
178	2016-12-23 05:17:08	0	0	0	0	0	0	5.4	1.31	0.01	184715	1	1800	130766	184715	182915	2429	20	182	11	129468	2397007	2642
179	2016-12-23 05:27:09	0	0	0	0	0	0	5.4	1.31	0.01	184739	1	1801	130766	184739	182938	2429	20	182	11	129468	2397007	2642
180	2016-12-23 05:37:08	0	0	0	0	0	0	5.4	1.31	0.01	184770	1	1801	130766	184770	182969	2429	20	182	11	129468	2397009	2642
181	2016-12-23 05:47:10	0	0	0	0	0	0	5.4	1.31	0.01	184798	1	1803	130766	184798	182996	2430	20	182	11	129468	2397007	2643
182	2016-12-23 05:57:09	0	0	0	0	0	0	5.4	1.31	0.01	184830	1	1803	130766	184830	183027	2430	20	182	11	129468	2397009	2643
183	2016-12-23 06:07:10	0	0	0	0	0	0	5.4	1.32	0.01	184860	1	1803	130766	184860	183057	2432	20	182	11	129468	2397014	2645
184	2016-12-23 06:17:10	0	0	0	0	0	0	5.4	1.32	0.01	184901	1	1803	130766	184901	183098	2432	20	182	11	129468	2397016	2645
185	2016-12-23 06:27:10	0	0	0	0	0	0	5.4	1.31	0.01	184954	1	1803	130766	184954	183151	2432	20	182	11	129468	2397018	2645
186	2016-12-23 06:37:11	0	0	0	0	0	0	5.4	1.31	0.01	184990	1	1803	130766	184990	183187	2432	20	182	11	129468	2397022	2645
187	2016-12-23 06:47:12	0	0	0	0	0	0	5.4	1.31	0.01	185022	1	1804	130833	185022	183218	2433	20	182	11	129533	2397027	2646
188	2016-12-23 06:57:12	0	0	0	0	0	0	5.4	1.32	0.01	185063	1	1805	130833	185063	183258	2434	20	182	11	129533	2397029	2647
189	2016-12-23 07:07:11	0	0	0	0	0	0	5.4	1.31	0.01	185102	1	1805	130833	185102	183297	2434	20	182	11	129533	2397042	2647
190	2016-12-23 07:17:13	0	0	0	0	0	0	5.4	1.32	0.01	185158	1	1806	130833	185158	183352	2435	20	182	11	129533	2397052	2648
191	2016-12-23 07:27:12	0	0	0	0	0	0	5.41	1.32	0.01	185241	1	1806	130871	185241	183435	2436	20	182	11	129571	2397056	2649
192	2016-12-23 07:37:13	0	0	0	0	0	0	5.41	1.31	0.01	185329	1	1809	130871	185329	183520	2437	20	182	11	129571	2397063	2650
193	2016-12-23 07:47:14	0	0	0	0	0	0	5.41	1.31	0.01	185407	1	1812	130871	185407	183595	2437	20	182	11	129571	2397070	2650
194	2016-12-23 07:57:13	0	0	0	0	0	0	5.41	1.31	0.01	185487	1	1813	130871	185487	183674	2437	20	182	11	129571	2397078	2650
195	2016-12-23 08:07:14	0	0	0	0	0	0	5.41	1.31	0.01	185570	1	1814	130960	185570	183756	2437	20	182	11	129657	2397089	2650
196	2016-12-23 08:17:14	0	0	0	0	0	0	5.41	1.31	0.01	185651	1	1815	130960	185651	183836	2439	20	182	11	129657	2397101	2652
197	2016-12-23 08:27:14	0	0	0	0	0	0	5.42	1.31	0.01	185724	1	1816	131271	185724	183908	2440	20	182	11	129962	2397119	2653
198	2016-12-23 08:37:15	0	0	0	0	0	0	5.42	1.31	0.01	185795	1	1817	131279	185795	183978	2441	20	182	11	129970	2397129	2654
199	2016-12-23 08:47:15	0	0	0	0	0	0	5.42	1.31	0.01	185871	1	1819	131324	185871	184052	2441	20	182	11	130014	2397142	2654
200	2016-12-23 08:57:14	0	0	0	0	0	0	5.42	1.31	0.01	185940	1	1819	131324	185940	184121	2441	20	182	11	130014	2397156	2654
201	2016-12-23 09:07:17	0	0	0	0	0	0	5.43	1.31	0.01	186007	1	1820	131457	186007	184187	2442	20	182	11	130145	2397164	2655
202	2016-12-23 09:17:16	0	0	0	0	0	0	5.43	1.31	0.01	186074	1	1823	131457	186074	184251	2443	20	182	11	130145	2397178	2656
203	2016-12-23 09:27:16	0	0	0	0	0	0	5.43	1.31	0.01	186145	1	1824	131592	186145	184321	2443	20	182	11	130277	2397188	2656
204	2016-12-23 09:37:19	0	0	0	0	0	0	5.43	1.31	0.01	186199	1	1826	131592	186199	184373	2443	20	182	11	130277	2397195	2656
205	2016-12-23 09:47:15	0	0	0	0	0	0	5.43	1.31	0.01	186265	1	1828	131592	186265	184437	2444	20	182	11	130277	2397208	2657
206	2016-12-23 09:57:17	0	0	0	0	0	0	5.43	1.31	0.01	186313	1	1829	131592	186313	184484	2444	20	182	11	130277	2397228	2657
207	2016-12-23 10:07:22	0	0	0	0	0	0	5.43	1.31	0.01	186354	1	1831	131592	186354	184523	2445	20	182	11	130277	2397236	2658
208	2016-12-23 10:17:20	0	0	0	0	0	0	5.43	1.31	0.01	186379	1	1832	131592	186379	184547	2446	20	182	11	130277	2397241	2659
209	2016-12-23 10:27:18	0	0	0	0	0	0	5.43	1.31	0.01	186396	1	1834	131592	186396	184562	2446	20	182	11	130277	2397256	2659
210	2016-12-23 10:37:29	0	0	0	0	0	0	5.43	1.31	0.01	186415	1	1834	131592	186415	184581	2446	20	182	11	130277	2397265	2659
211	2016-12-23 10:47:18	0	0	0	0	0	0	5.43	1.31	0.01	186437	1	1834	131592	186437	184603	2446	20	182	11	130277	2397283	2659
212	2016-12-23 10:57:19	0	0	0	0	0	0	5.43	1.31	0.01	186451	1	1835	131592	186451	184616	2446	20	182	11	130277	2397289	2659
213	2016-12-23 11:07:25	0	0	0	0	0	0	5.43	1.31	0.01	186463	1	1835	131592	186463	184628	2446	20	182	11	130277	2397297	2659
214	2016-12-23 11:17:20	0	0	0	0	0	0	5.43	1.31	0.01	186478	1	1844	131592	186478	184634	2446	20	182	11	130277	2397305	2659
215	2016-12-23 11:27:20	0	0	0	0	0	0	5.43	1.31	0.01	186499	1	1851	131592	186499	184648	2446	20	182	11	130277	2397314	2659
216	2016-12-23 11:37:39	0	0	0	0	0	0	5.43	1.31	0.01	186517	1	1857	131676	186517	184660	2449	20	182	11	130277	2397327	2662
217	2016-12-23 11:47:23	0	0	0	0	0	0	5.43	1.31	0.01	186528	1	1860	131676	186528	184668	2449	20	182	11	130277	2397335	2662
218	2016-12-23 11:57:23	0	0	0	0	0	0	5.43	1.31	0.01	186542	1	1862	131676	186542	184680	2449	20	182	11	130277	2397343	2662
219	2016-12-23 12:07:23	0	0	0	0	0	0	5.43	1.31	0.01	186552	1	1862	131676	186552	184690	2449	20	182	11	130277	2397361	2662
220	2016-12-23 12:17:51	0	0	0	0	0	0	5.43	1.31	0.01	186565	1	1862	131676	186565	184703	2450	20	182	11	130277	2397368	2663
221	2016-12-23 12:27:31	0	0	0	0	0	0	5.43	1.31	0.01	186579	1	1864	131676	186579	184715	2450	20	182	11	130277	2397380	2663
222	2016-12-23 12:37:32	0	0	0	0	0	0	5.43	1.31	0.01	186587	1	1864	131676	186587	184723	2450	20	182	11	130277	2397393	2663
223	2016-12-23 12:47:29	0	0	0	0	0	0	5.43	1.31	0.01	186593	1	1864	131676	186593	184729	2450	20	182	11	130277	2397400	2663
224	2016-12-23 12:57:39	0	0	0	0	0	0	5.43	1.31	0.01	186603	1	1864	131676	186603	184739	2450	20	182	11	130277	2397412	2663
225	2016-12-23 13:08:51	0	0	0	0	0	0	5.43	1.31	0.01	186615	1	1865	131676	186615	184750	2450	20	182	11	130277	2397427	2663
226	2016-12-23 13:20:17	0	0	0	0	0	0	5.43	1.31	0.01	186623	1	1865	131676	186623	184758	2450	20	182	11	130277	2397443	2663
227	2016-12-23 13:30:01	0	0	0	0	0	0	5.44	1.31	0.01	186635	1	1865	131810	186635	184770	2450	20	182	11	130408	2397451	2663
228	2016-12-23 13:40:00	0	0	0	0	0	0	5.44	1.31	0.01	186641	1	1866	131810	186641	184775	2450	20	182	11	130408	2397461	2663
229	2016-12-23 13:50:02	0	0	0	0	0	0	5.44	1.31	0.01	186647	1	1866	131810	186647	184781	2450	20	182	11	130408	2397463	2663
230	2016-12-23 14:00:01	0	0	0	0	0	0	5.44	1.31	0.01	186650	1	1867	131810	186650	184783	2450	20	182	11	130408	2397471	2663
231	2016-12-23 14:14:39	0	0	0	0	0	0	5.44	1.31	0.01	186661	1	1870	131810	186661	184791	2450	20	182	11	130408	2397483	2663
232	2016-12-23 14:24:41	0	0	0	0	0	0	5.44	1.31	0.01	186666	1	1871	131810	186666	184795	2450	20	182	11	130408	2397495	2663
233	2016-12-23 14:34:39	0	0	0	0	0	0	5.44	1.31	0.01	186676	1	1873	131810	186676	184803	2450	20	182	11	130408	2397505	2663
234	2016-12-23 14:45:24	0	0	0	0	0	0	5.44	1.31	0.01	186683	1	1873	131810	186683	184810	2450	20	182	11	130408	2397513	2663
235	2016-12-23 14:55:40	0	0	0	0	0	0	5.44	1.31	0.01	186688	1	1874	131810	186688	184814	2450	20	182	11	130408	2397529	2663
236	2016-12-23 15:05:36	0	0	0	0	0	0	5.44	1.31	0.01	186694	1	1874	131810	186694	184820	2450	20	182	11	130408	2397535	2663
237	2016-12-23 15:15:41	0	0	0	0	0	0	5.44	1.31	0.01	186700	1	1874	131810	186700	184826	2450	20	182	11	130408	2397544	2663
238	2016-12-23 15:25:38	0	0	0	0	0	0	5.44	1.31	0.01	186707	1	1875	131810	186707	184832	2450	20	182	11	130408	2397543	2663
239	2016-12-23 15:36:13	0	0	0	0	0	0	5.44	1.31	0.01	186716	1	1876	131810	186716	184840	2450	20	182	11	130408	2397557	2663
240	2016-12-23 15:46:33	0	0	0	0	0	0	5.44	1.31	0.01	186720	1	1876	131810	186720	184844	2450	20	182	11	130408	2397564	2663
241	2016-12-23 16:00:12	0	0	0	0	0	0	5.44	1.31	0.01	186724	1	1876	131810	186724	184848	2450	20	182	11	130408	2397581	2663
242	2016-12-23 16:09:45	0	0	0	0	0	0	5.44	1.31	0.01	186731	1	1877	131810	186731	184854	2450	20	182	11	130408	2397581	2663
243	2016-12-23 16:19:58	0	0	0	0	0	0	5.44	1.31	0.01	186734	1	1877	131810	186734	184857	2450	20	182	11	130408	2397588	2663
244	2016-12-23 16:29:55	0	0	0	0	0	0	5.44	1.31	0.01	186740	1	1877	131810	186740	184863	2450	20	182	11	130408	2397591	2663
245	2016-12-23 16:39:58	0	0	0	0	0	0	5.44	1.31	0.01	186746	1	1877	131810	186746	184869	2450	20	182	11	130408	2397598	2663
246	2016-12-23 16:50:14	0	0	0	0	0	0	5.44	1.31	0.01	186749	1	1877	131810	186749	184872	2450	20	182	11	130408	2397609	2663
247	2016-12-23 17:02:06	0	0	0	0	0	0	5.44	1.31	0.01	186754	1	1879	131810	186754	184875	2450	20	182	11	130408	2397610	2663
248	2016-12-23 17:19:42	0	0	0	0	0	0	5.44	1.31	0.01	186762	1	1879	131810	186762	184883	2450	20	182	11	130408	2397623	2663
249	2016-12-23 17:29:30	0	0	0	0	0	0	5.44	1.31	0.01	186769	1	1881	131810	186769	184888	2450	20	182	11	130408	2397632	2663
250	2016-12-23 17:39:35	0	0	0	0	0	0	5.44	1.31	0.01	186779	1	1881	131810	186779	184898	2450	20	182	11	130408	2397642	2663
251	2016-12-23 17:49:36	0	0	0	0	0	0	5.44	1.31	0.01	186785	1	1881	131810	186785	184904	2450	20	182	11	130408	2397648	2663
252	2016-12-23 17:59:34	0	0	0	0	0	0	5.44	1.31	0.01	186791	1	1882	131810	186791	184909	2450	20	182	11	130408	2397651	2663
253	2016-12-23 18:09:38	0	0	0	0	0	0	5.44	1.31	0.01	186800	1	1882	131810	186800	184918	2450	20	182	11	130408	2397664	2663
254	2016-12-23 18:19:45	0	0	0	0	0	0	5.44	1.31	0.01	186804	1	1882	131810	186804	184922	2450	20	182	11	130408	2397674	2663
255	2016-12-23 18:30:15	0	0	0	0	0	0	5.44	1.31	0.01	186809	1	1884	131810	186809	184925	2450	20	182	11	130408	2397683	2663
256	2016-12-23 18:41:14	0	0	0	0	0	0	5.44	1.31	0.01	186811	1	1884	131810	186811	184927	2450	20	182	11	130408	2397690	2663
257	2016-12-23 18:52:28	0	0	0	0	0	0	5.44	1.31	0.01	186816	1	1885	131810	186816	184931	2450	20	182	11	130408	2397700	2663
258	2016-12-23 19:08:08	0	0	0	0	0	0	5.44	1.31	0.01	186824	1	1885	131810	186824	184939	2450	20	182	11	130408	2397706	2663
259	2016-12-23 19:18:45	0	0	0	0	0	0	5.44	1.31	0.01	186832	1	1885	131810	186832	184947	2450	20	182	11	130408	2397715	2663
260	2016-12-23 19:29:50	0	0	0	0	0	0	5.44	1.31	0.01	186836	1	1885	131810	186836	184951	2450	20	182	11	130408	2397721	2663
261	2016-12-23 19:40:52	0	0	0	0	0	0	5.44	1.31	0.01	186837	1	1886	131810	186837	184951	2450	20	182	11	130408	2397732	2663
262	2016-12-23 19:51:32	0	0	0	0	0	0	5.44	1.31	0.01	186839	1	1886	131810	186839	184953	2450	20	182	11	130408	2397738	2663
263	2016-12-23 20:02:06	0	0	0	0	0	0	5.44	1.31	0.01	186840	1	1886	131810	186840	184954	2450	20	182	11	130408	2397743	2663
264	2016-12-23 20:12:57	0	0	0	0	0	0	5.44	1.31	0.01	186846	1	1887	131810	186846	184959	2450	20	182	11	130408	2397743	2663
265	2016-12-23 20:24:05	0	0	0	0	0	0	5.44	1.31	0.01	186853	1	1887	131810	186853	184966	2450	20	182	11	130408	2397747	2663
266	2016-12-23 20:34:41	0	0	0	0	0	0	5.44	1.31	0.01	186859	1	1887	131810	186859	184972	2450	20	182	11	130408	2397756	2663
267	2016-12-23 20:45:15	0	0	0	0	0	0	5.44	1.31	0.01	186868	1	1888	131810	186868	184980	2450	20	182	11	130408	2397761	2663
268	2016-12-23 20:56:43	0	0	0	0	0	0	5.44	1.31	0.01	186873	1	1888	131810	186873	184985	2450	20	182	11	130408	2397773	2663
269	2016-12-23 21:07:26	0	0	0	0	0	0	5.44	1.31	0.01	186878	1	1890	131810	186878	184988	2450	20	182	11	130408	2397780	2663
270	2016-12-23 21:18:12	0	0	0	0	0	0	5.44	1.31	0.01	186880	1	1891	131810	186880	184989	2450	20	182	11	130408	2397786	2663
271	2016-12-23 21:28:51	0	0	0	0	0	0	5.44	1.31	0.01	186890	1	1893	131810	186890	184997	2450	20	182	11	130408	2397790	2663
272	2016-12-23 21:39:46	0	0	0	0	0	0	5.44	1.31	0.01	186896	1	1894	131810	186896	185002	2450	20	182	11	130408	2397795	2663
273	2016-12-23 21:50:34	0	0	0	0	0	0	5.44	1.31	0.01	186903	1	1894	131810	186903	185009	2450	20	182	11	130408	2397805	2663
274	2016-12-23 22:23:39	0	0	0	0	0	0	5.44	1.31	0.01	186921	1	1898	131810	186921	185023	2450	20	182	11	130408	2397830	2663
275	2016-12-23 22:33:27	0	0	0	0	0	0	5.44	1.31	0.01	186924	1	1898	131810	186924	185026	2450	20	182	11	130408	2397836	2663
276	2016-12-23 22:44:00	0	0	0	0	0	0	5.44	1.31	0.01	186933	1	1898	131810	186933	185035	2450	20	182	11	130408	2397837	2663
277	2016-12-23 22:55:21	0	0	0	0	0	0	5.44	1.31	0.01	186936	1	1898	131810	186936	185038	2450	20	182	11	130408	2397844	2663
278	2016-12-23 23:05:55	0	0	0	0	0	0	5.44	1.31	0.01	186941	1	1899	131810	186941	185042	2450	20	182	11	130408	2397846	2663
279	2016-12-23 23:16:44	0	0	0	0	0	0	5.44	1.31	0.01	186945	1	1899	131810	186945	185046	2450	20	182	11	130408	2397849	2663
280	2016-12-23 23:27:14	0	0	0	0	0	0	5.44	1.31	0.01	186950	1	1900	131810	186950	185050	2450	20	182	11	130408	2397852	2663
281	2016-12-23 23:37:38	0	0	0	0	0	0	5.44	1.31	0.01	186954	1	1900	131810	186954	185054	2450	20	182	11	130408	2397854	2663
282	2016-12-23 23:48:28	0	0	0	0	0	0	5.44	1.31	0.01	186960	1	1900	131810	186960	185060	2450	20	182	11	130408	2397856	2663
283	2016-12-23 23:58:27	0	0	0	0	0	0	5.44	1.31	0.01	186966	1	1901	131810	186966	185065	2450	20	182	11	130408	2397862	2663
284	2016-12-24 00:08:33	0	0	0	0	0	0	5.44	1.31	0.01	186966	1	1901	131810	186966	185065	2450	20	182	11	130408	2397872	2663
285	2016-12-24 00:18:31	0	0	0	0	0	0	5.44	1.31	0.01	186967	1	1901	131810	186967	185066	2450	20	182	11	130408	2397880	2663
286	2016-12-24 00:28:32	0	0	0	0	0	0	5.44	1.31	0.01	186969	1	1902	131810	186969	185067	2450	20	182	11	130408	2397881	2663
287	2016-12-24 00:38:31	0	0	0	0	0	0	5.44	1.31	0.01	186972	1	1903	131810	186972	185069	2450	20	182	11	130408	2397884	2663
288	2016-12-24 00:48:30	0	0	0	0	0	0	5.44	1.31	0.01	186976	1	1903	131810	186976	185073	2450	20	182	11	130408	2397887	2663
289	2016-12-24 00:58:14	0	0	0	0	0	0	5.44	1.31	0.01	186981	1	1905	131810	186981	185076	2450	20	182	11	130408	2397889	2663
290	2016-12-24 01:08:07	0	0	0	0	0	0	5.44	1.31	0.01	186981	1	1905	131810	186981	185076	2450	20	182	11	130408	2397889	2663
291	2016-12-24 01:18:08	0	0	0	0	0	0	5.44	1.31	0.01	186982	1	1905	131810	186982	185077	2450	20	182	11	130408	2397894	2663
292	2016-12-24 01:28:06	0	0	0	0	0	0	5.44	1.31	0.01	186986	1	1905	131810	186986	185081	2450	20	182	11	130408	2397897	2663
293	2016-12-24 01:38:07	0	0	0	0	0	0	5.44	1.31	0.01	186989	1	1905	131810	186989	185084	2450	20	182	11	130408	2397901	2663
294	2016-12-24 01:48:07	0	0	0	0	0	0	5.44	1.31	0.01	186992	1	1905	131810	186992	185087	2450	20	182	11	130408	2397902	2663
295	2016-12-24 01:58:07	0	0	0	0	0	0	5.44	1.31	0.01	186993	1	1905	131810	186993	185088	2450	20	182	11	130408	2397908	2663
296	2016-12-24 02:08:09	0	0	0	0	0	0	5.44	1.31	0.01	186995	1	1905	131810	186995	185090	2450	20	182	11	130408	2398060	2663
297	2016-12-24 02:18:07	0	0	0	0	0	0	5.44	1.31	0.01	186995	1	1905	131810	186995	185090	2450	20	182	11	130408	2398064	2663
298	2016-12-24 02:28:08	0	0	0	0	0	0	5.44	1.31	0.01	186995	1	1905	131810	186995	185090	2450	20	182	11	130408	2398064	2663
299	2016-12-24 02:38:08	0	0	0	0	0	0	5.44	1.31	0.01	186995	1	1905	131810	186995	185090	2450	20	182	11	130408	2398064	2663
300	2016-12-24 02:48:07	0	0	0	0	0	0	5.44	1.31	0.01	186995	1	1905	131810	186995	185090	2450	20	182	11	130408	2398063	2663
301	2016-12-24 02:58:07	0	0	0	0	0	0	5.44	1.31	0.01	186996	1	1906	131810	186996	185090	2450	20	182	11	130408	2398062	2663
302	2016-12-24 03:08:08	0	0	0	0	0	0	5.44	1.31	0.01	186997	1	1906	131810	186997	185091	2450	20	182	11	130408	2398062	2663
303	2016-12-24 03:18:07	0	0	0	0	0	0	5.44	1.31	0.01	186997	1	1906	131810	186997	185091	2450	20	182	11	130408	2398064	2663
304	2016-12-24 03:28:07	0	0	0	0	0	0	5.44	1.31	0.01	186999	1	1906	131810	186999	185093	2450	20	182	11	130408	2398065	2663
305	2016-12-24 03:38:08	0	0	0	0	0	0	5.44	1.31	0.01	186999	1	1906	131810	186999	185093	2450	20	182	11	130408	2398065	2663
306	2016-12-24 03:48:07	0	0	0	0	0	0	5.44	1.31	0.01	187002	1	1906	131810	187002	185096	2450	20	182	11	130408	2398065	2663
307	2016-12-24 03:58:07	0	0	0	0	0	0	5.44	1.31	0.01	187003	1	1906	131810	187003	185097	2450	20	182	11	130408	2398066	2663
308	2016-12-24 04:08:08	0	0	0	0	0	0	5.44	1.31	0.01	187003	1	1906	131810	187003	185097	2450	20	182	11	130408	2398072	2663
309	2016-12-24 04:18:07	0	0	0	0	0	0	5.44	1.31	0.01	187003	1	1906	131810	187003	185097	2450	20	182	11	130408	2398076	2663
310	2016-12-24 04:28:08	0	0	0	0	0	0	5.44	1.31	0.01	187003	1	1906	131810	187003	185097	2450	20	182	11	130408	2398077	2663
311	2016-12-24 04:38:07	0	0	0	0	0	0	5.44	1.31	0.01	187004	1	1906	131810	187004	185098	2450	20	182	11	130408	2398078	2663
312	2016-12-24 04:48:08	0	0	0	0	0	0	5.44	1.31	0.01	187005	1	1906	131810	187005	185099	2450	20	182	11	130408	2398080	2663
313	2016-12-24 04:58:08	0	0	0	0	0	0	5.44	1.31	0.01	187005	1	1906	131810	187005	185099	2450	20	182	11	130408	2398079	2663
314	2016-12-24 05:08:08	0	0	0	0	0	0	5.44	1.31	0.01	187005	1	1906	131810	187005	185099	2450	20	182	11	130408	2398079	2663
315	2016-12-24 05:18:07	0	0	0	0	0	0	5.44	1.31	0.01	187007	1	1906	131810	187007	185101	2450	20	182	11	130408	2398079	2663
316	2016-12-24 05:28:07	0	0	0	0	0	0	5.44	1.31	0.01	187009	1	1906	131810	187009	185103	2450	20	182	11	130408	2398081	2663
317	2016-12-24 05:38:08	0	0	0	0	0	0	5.44	1.31	0.01	187009	1	1906	131810	187009	185103	2450	20	182	11	130408	2398081	2663
318	2016-12-24 05:48:07	0	0	0	0	0	0	5.44	1.31	0.01	187009	1	1906	131810	187009	185103	2450	20	182	11	130408	2398081	2663
319	2016-12-24 05:58:08	0	0	0	0	0	0	5.44	1.31	0.01	187009	1	1906	131810	187009	185103	2450	20	182	11	130408	2398083	2663
320	2016-12-24 06:08:09	0	0	0	0	0	0	5.44	1.31	0.01	187009	1	1906	131810	187009	185103	2450	20	182	11	130408	2398082	2663
321	2016-12-24 06:18:08	0	0	0	0	0	0	5.44	1.31	0.01	187009	1	1906	131810	187009	185103	2450	20	182	11	130408	2398082	2663
322	2016-12-24 06:28:10	0	0	0	0	0	0	5.44	1.31	0.01	187009	1	1906	131810	187009	185103	2450	20	182	11	130408	2398083	2663
323	2016-12-24 06:38:08	0	0	0	0	0	0	5.44	1.31	0.01	187010	1	1906	131810	187010	185104	2450	20	182	11	130408	2398087	2663
324	2016-12-24 06:48:08	0	0	0	0	0	0	5.44	1.31	0.01	187010	1	1906	131810	187010	185104	2450	20	182	11	130408	2398087	2663
325	2016-12-24 06:58:10	0	0	0	0	0	0	5.44	1.31	0.01	187013	1	1906	131810	187013	185107	2450	20	182	11	130408	2398090	2663
326	2016-12-24 07:08:09	0	0	0	0	0	0	5.44	1.31	0.01	187013	1	1906	131810	187013	185107	2450	20	182	11	130408	2398091	2663
327	2016-12-24 07:18:09	0	0	0	0	0	0	5.44	1.31	0.01	187016	1	1906	131810	187016	185110	2450	20	182	11	130408	2398092	2663
328	2016-12-24 07:28:10	0	0	0	0	0	0	5.44	1.31	0.01	187017	1	1906	131810	187017	185111	2450	20	182	11	130408	2398093	2663
329	2016-12-24 07:38:12	0	0	0	0	0	0	5.44	1.31	0.01	187019	1	1906	131810	187019	185113	2450	20	182	11	130408	2398094	2663
330	2016-12-24 07:48:10	0	0	0	0	0	0	5.44	1.31	0.01	187020	1	1906	131810	187020	185114	2450	20	182	11	130408	2398097	2663
331	2016-12-24 07:58:09	0	0	0	0	0	0	5.44	1.31	0.01	187022	1	1906	131810	187022	185116	2450	20	182	11	130408	2398100	2663
332	2016-12-24 08:08:09	0	0	0	0	0	0	5.44	1.31	0.01	187023	1	1906	131810	187023	185117	2450	20	182	11	130408	2398100	2663
333	2016-12-24 08:18:10	0	0	0	0	0	0	5.44	1.31	0.01	187025	1	1907	131810	187025	185118	2450	20	182	11	130408	2398103	2663
334	2016-12-24 08:28:10	0	0	0	0	0	0	5.44	1.31	0.01	187028	1	1908	131810	187028	185120	2450	20	182	11	130408	2398113	2663
335	2016-12-24 08:38:10	0	0	0	0	0	0	5.44	1.31	0.01	187028	1	1908	131810	187028	185120	2450	20	182	11	130408	2398112	2663
336	2016-12-24 08:48:10	0	0	0	0	0	0	5.44	1.31	0.01	187028	1	1908	131810	187028	185120	2450	20	182	11	130408	2398116	2663
337	2016-12-24 08:58:13	0	0	0	0	0	0	5.44	1.31	0.01	187028	1	1908	131810	187028	185120	2450	20	182	11	130408	2398117	2663
338	2016-12-24 09:08:14	0	0	0	0	0	0	5.44	1.31	0.01	187030	1	1908	131810	187030	185122	2450	20	182	11	130408	2398124	2663
339	2016-12-24 09:18:14	0	0	0	0	0	0	5.44	1.31	0.01	187031	1	1908	131810	187031	185123	2450	20	182	11	130408	2398125	2663
340	2016-12-24 09:28:13	0	0	0	0	0	0	5.44	1.31	0.01	187031	1	1908	131810	187031	185123	2450	20	182	11	130408	2398132	2663
341	2016-12-24 09:38:14	0	0	0	0	0	0	5.44	1.31	0.01	187032	1	1909	131810	187032	185123	2450	20	182	11	130408	2398135	2663
342	2016-12-24 09:48:13	0	0	0	0	0	0	5.44	1.31	0.01	187034	1	1909	131810	187034	185125	2450	20	182	11	130408	2398140	2663
343	2016-12-24 09:58:15	0	0	0	0	0	0	5.44	1.31	0.01	187034	1	1909	131810	187034	185125	2450	20	182	11	130408	2398139	2663
344	2016-12-24 10:08:15	0	0	0	0	0	0	5.44	1.31	0.01	187034	1	1909	131810	187034	185125	2450	20	182	11	130408	2398147	2663
345	2016-12-24 10:18:14	0	0	0	0	0	0	5.44	1.31	0.01	187035	1	1909	131810	187035	185126	2450	20	182	11	130408	2398150	2663
346	2016-12-24 10:28:14	0	0	0	0	0	0	5.44	1.31	0.01	187038	1	1910	131877	187038	185128	2450	20	182	11	130408	2398156	2663
347	2016-12-24 10:38:14	0	0	0	0	0	0	5.44	1.31	0.01	187039	1	1910	131877	187039	185129	2450	20	182	11	130408	2398164	2663
348	2016-12-24 10:48:15	0	0	0	0	0	0	5.44	1.31	0.01	187040	1	1910	131877	187040	185130	2450	20	182	11	130408	2398169	2663
349	2016-12-24 10:58:16	0	0	0	0	0	0	5.44	1.31	0.01	187041	1	1910	131877	187041	185131	2450	20	182	11	130408	2398176	2663
350	2016-12-24 11:08:16	0	0	0	0	0	0	5.44	1.31	0.01	187043	1	1910	131877	187043	185133	2450	20	182	11	130408	2398177	2663
351	2016-12-24 11:18:17	0	0	0	0	0	0	5.44	1.31	0.01	187043	1	1910	131877	187043	185133	2450	20	182	11	130408	2398180	2663
352	2016-12-24 11:28:17	0	0	0	0	0	0	5.44	1.31	0.01	187043	1	1910	131877	187043	185133	2450	20	182	11	130408	2398188	2663
353	2016-12-24 11:38:16	0	0	0	0	0	0	5.44	1.31	0.01	187043	1	1910	131877	187043	185133	2450	20	182	11	130408	2398195	2663
354	2016-12-24 11:48:16	0	0	0	0	0	0	5.44	1.31	0.01	187045	1	1911	131877	187045	185134	2450	20	182	11	130408	2398215	2663
355	2016-12-24 11:58:17	0	0	0	0	0	0	5.44	1.31	0.01	187045	1	1911	131877	187045	185134	2450	20	182	11	130408	2398234	2663
356	2016-12-24 12:08:18	0	0	0	0	0	0	5.44	1.31	0.01	187047	1	1912	131877	187047	185135	2450	20	182	11	130408	2398247	2663
357	2016-12-24 12:18:17	0	0	0	0	0	0	5.44	1.31	0.01	187048	1	1912	131877	187048	185136	2450	20	182	11	130408	2398258	2663
358	2016-12-24 12:28:20	0	0	0	0	0	0	5.44	1.31	0.01	187050	1	1912	131877	187050	185138	2450	20	182	11	130408	2398274	2663
359	2016-12-24 12:38:19	0	0	0	0	0	0	5.44	1.31	0.01	187050	1	1912	131877	187050	185138	2450	20	182	11	130408	2398276	2663
360	2016-12-24 12:48:16	0	0	0	0	0	0	5.44	1.31	0.01	187050	1	1912	131877	187050	185138	2450	20	182	11	130408	2398293	2663
361	2016-12-24 12:58:22	0	0	0	0	0	0	5.44	1.31	0.01	187051	1	1912	131877	187051	185139	2450	20	182	11	130408	2398303	2663
362	2016-12-24 13:08:17	0	0	0	0	0	0	5.44	1.31	0.01	187051	1	1912	131877	187051	185139	2450	20	182	11	130408	2398312	2663
363	2016-12-24 13:18:17	0	0	0	0	0	0	5.44	1.31	0.01	187053	1	1913	131877	187053	185140	2450	20	182	11	130408	2398322	2663
364	2016-12-24 13:28:19	0	0	0	0	0	0	5.44	1.31	0.01	187054	1	1913	131877	187054	185141	2450	20	182	11	130408	2398336	2663
365	2016-12-24 13:38:18	0	0	0	0	0	0	5.44	1.31	0.01	187056	1	1914	131877	187056	185142	2450	20	182	11	130408	2398355	2663
366	2016-12-24 13:48:19	0	0	0	0	0	0	5.44	1.31	0.01	187057	1	1914	131877	187057	185143	2450	20	182	11	130408	2398380	2663
367	2016-12-24 13:58:22	0	0	0	0	0	0	5.44	1.31	0.01	187059	1	1914	131877	187059	185145	2450	20	182	11	130408	2398397	2663
368	2016-12-24 14:08:20	0	0	0	0	0	0	5.44	1.31	0.01	187062	1	1914	131877	187062	185148	2450	20	182	11	130408	2398403	2663
369	2016-12-24 14:18:20	0	0	0	0	0	0	5.44	1.31	0.01	187063	1	1914	131877	187063	185149	2450	20	182	11	130408	2398412	2663
370	2016-12-24 14:28:21	0	0	0	0	0	0	5.44	1.31	0.01	187063	1	1914	131877	187063	185149	2450	20	182	11	130408	2398426	2663
371	2016-12-24 14:38:19	0	0	0	0	0	0	5.44	1.31	0.01	187063	1	1914	131877	187063	185149	2450	20	182	11	130408	2398433	2663
372	2016-12-24 14:48:20	0	0	0	0	0	0	5.44	1.31	0.01	187064	1	1914	131877	187064	185150	2450	20	182	11	130408	2398455	2663
373	2016-12-24 14:58:20	0	0	0	0	0	0	5.44	1.31	0.01	187066	1	1914	131877	187066	185152	2450	20	182	11	130408	2398473	2663
374	2016-12-24 15:08:22	0	0	0	0	0	0	5.44	1.31	0.01	187067	1	1914	131877	187067	185153	2450	20	182	11	130408	2398482	2663
375	2016-12-24 15:18:21	0	0	0	0	0	0	5.44	1.31	0.01	187069	1	1914	131877	187069	185155	2450	20	182	11	130408	2398499	2663
376	2016-12-24 15:28:21	0	0	0	0	0	0	5.44	1.31	0.01	187069	1	1914	131877	187069	185155	2450	20	182	11	130408	2398524	2663
377	2016-12-24 15:38:21	0	0	0	0	0	0	5.44	1.31	0.01	187070	1	1914	131877	187070	185156	2450	20	182	11	130408	2398542	2663
378	2016-12-24 15:48:19	0	0	0	0	0	0	5.44	1.31	0.01	187070	1	1914	131877	187070	185156	2450	20	182	11	130408	2398561	2663
379	2016-12-24 15:58:20	0	0	0	0	0	0	5.44	1.31	0.01	187070	1	1914	131877	187070	185156	2450	20	182	11	130408	2398578	2663
380	2016-12-24 16:08:21	0	0	0	0	0	0	5.44	1.31	0.01	187070	1	1914	131877	187070	185156	2450	20	182	11	130408	2398600	2663
381	2016-12-24 16:18:22	0	0	0	0	0	0	5.44	1.31	0.01	187071	1	1914	131877	187071	185157	2450	20	182	11	130408	2398621	2663
382	2016-12-24 16:28:23	0	0	0	0	0	0	5.44	1.31	0.01	187072	1	1914	131877	187072	185158	2450	20	182	11	130408	2398632	2663
383	2016-12-24 16:38:22	0	0	0	0	0	0	5.44	1.31	0.01	187073	1	1915	131877	187073	185158	2450	20	182	11	130408	2398643	2663
384	2016-12-24 16:48:23	0	0	0	0	0	0	5.44	1.31	0.01	187073	1	1915	131877	187073	185158	2450	20	182	11	130408	2398656	2663
385	2016-12-24 16:58:22	0	0	0	0	0	0	5.44	1.31	0.01	187074	1	1915	131877	187074	185159	2450	20	182	11	130408	2398675	2663
386	2016-12-24 17:08:24	0	0	0	0	0	0	5.44	1.31	0.01	187075	1	1915	131877	187075	185160	2450	20	182	11	130408	2398688	2663
387	2016-12-24 17:18:26	0	0	0	0	0	0	5.44	1.31	0.01	187077	1	1915	131877	187077	185162	2450	20	182	11	130408	2398704	2663
388	2016-12-24 17:28:23	0	0	0	0	0	0	5.44	1.31	0.01	187079	1	1915	131889	187079	185164	2450	20	182	11	130419	2398714	2663
389	2016-12-24 17:38:24	0	0	0	0	0	0	5.44	1.31	0.01	187079	1	1915	131889	187079	185164	2450	20	182	11	130419	2398723	2663
390	2016-12-24 17:48:27	0	0	0	0	0	0	5.44	1.31	0.01	187083	1	1915	131889	187083	185168	2450	20	182	11	130419	2398732	2663
391	2016-12-24 17:58:23	0	0	0	0	0	0	5.44	1.31	0.01	187084	1	1915	131889	187084	185169	2450	20	182	11	130419	2398745	2663
392	2016-12-24 18:08:25	0	0	0	0	0	0	5.44	1.31	0.01	187087	1	1915	131889	187087	185172	2450	20	182	11	130419	2398761	2663
393	2016-12-24 18:18:34	0	0	0	0	0	0	5.44	1.31	0.01	187088	1	1915	131889	187088	185173	2450	20	182	11	130419	2398775	2663
394	2016-12-24 18:28:49	0	0	0	0	0	0	5.44	1.31	0.01	187089	1	1915	131889	187089	185174	2450	20	182	11	130419	2398782	2663
395	2016-12-24 18:38:45	0	0	0	0	0	0	5.44	1.31	0.01	187092	1	1915	131889	187092	185177	2450	20	182	11	130419	2398797	2663
396	2016-12-24 18:48:44	0	0	0	0	0	0	5.44	1.31	0.01	187094	1	1916	131889	187094	185178	2450	20	182	11	130419	2398810	2663
397	2016-12-24 18:58:25	0	0	0	0	0	0	5.44	1.31	0.01	187097	1	1916	131889	187097	185181	2450	20	182	11	130419	2398834	2663
398	2016-12-24 19:08:59	0	0	0	0	0	0	5.44	1.31	0.01	187098	1	1916	131889	187098	185182	2450	20	182	11	130419	2398868	2663
399	2016-12-24 19:19:02	0	0	0	0	0	0	5.44	1.31	0.01	187098	1	1916	131889	187098	185182	2450	20	182	11	130419	2398879	2663
400	2016-12-24 19:29:00	0	0	0	0	0	0	5.44	1.31	0.01	187101	1	1916	131889	187101	185185	2450	20	182	11	130419	2398896	2663
401	2016-12-24 19:39:19	0	0	0	0	0	0	5.44	1.31	0.01	187103	1	1916	131889	187103	185187	2450	20	182	11	130419	2398913	2663
402	2016-12-24 19:49:11	0	0	0	0	0	0	5.44	1.31	0.01	187103	1	1916	131889	187103	185187	2450	20	182	11	130419	2398923	2663
403	2016-12-24 19:59:20	0	0	0	0	0	0	5.44	1.31	0.01	187104	1	1917	131889	187104	185187	2450	20	182	11	130419	2398934	2663
404	2016-12-24 20:09:32	0	0	0	0	0	0	5.44	1.31	0.01	187105	1	1917	131889	187105	185188	2450	20	182	11	130419	2398952	2663
405	2016-12-24 20:19:38	0	0	0	0	0	0	5.44	1.31	0.01	187108	1	1917	131889	187108	185191	2450	20	182	11	130419	2398971	2663
406	2016-12-24 20:29:43	0	0	0	0	0	0	5.44	1.31	0.01	187109	1	1917	131889	187109	185192	2450	20	182	11	130419	2398987	2663
407	2016-12-24 20:39:48	0	0	0	0	0	0	5.44	1.31	0.01	187111	1	1917	131889	187111	185194	2450	20	182	11	130419	2399007	2663
408	2016-12-24 20:50:27	0	0	0	0	0	0	5.44	1.31	0.01	187111	1	1917	131889	187111	185194	2450	20	182	11	130419	2399034	2663
409	2016-12-24 21:00:29	0	0	0	0	0	0	5.44	1.31	0.01	187112	1	1917	131889	187112	185195	2450	20	182	11	130419	2399059	2663
410	2016-12-24 21:10:32	0	0	0	0	0	0	5.44	1.31	0.01	187112	1	1917	131889	187112	185195	2450	20	182	11	130419	2399081	2663
411	2016-12-24 21:21:04	0	0	0	0	0	0	5.44	1.31	0.01	187113	1	1917	131889	187113	185196	2450	20	182	11	130419	2399100	2663
412	2016-12-24 21:30:53	0	0	0	0	0	0	5.44	1.31	0.01	187115	1	1917	131889	187115	185198	2450	20	182	11	130419	2399115	2663
413	2016-12-24 21:40:55	0	0	0	0	0	0	5.44	1.31	0.01	187116	1	1917	131889	187116	185199	2450	20	182	11	130419	2399138	2663
414	2016-12-24 21:51:16	0	0	0	0	0	0	5.44	1.31	0.01	187116	1	1917	131889	187116	185199	2450	20	182	11	130419	2399150	2663
