1	2016-03-10 11:54:22	0	0	0	0	0	0	0.15	0	0	2703	0	0	2467	2703	2703	0	0	0	0	2467	1615424	0
2	2016-03-10 12:04:19	0	0	0	0	0	0	0.15	1.7	0.04	2703	0	96	2467	2703	2703	46	25	261	11	2467	1615445	343
3	2016-03-10 12:14:19	0	0	0	0	0	0	2.36	0.09	0	48826	0	96	38778	48826	47818	46	25	261	11	38146	1615467	343
4	2016-03-10 12:24:20	0	0	0	0	0	0	2.82	0.3	0.03	58743	0	1480	46477	58743	57263	179	90	801	20	45562	1615486	1090
5	2016-03-10 12:34:19	0	0	0	0	0	0	2.82	0.3	0.03	58743	0	1480	46477	58743	57263	179	90	801	20	45562	1615500	1090
6	2016-03-10 12:44:19	0	0	0	0	0	0	3.6	0.35	0.04	79441	0	2858	60101	79441	76583	279	114	1086	24	58233	1615518	1503
7	2016-03-10 12:54:21	0	0	0	0	0	0	3.81	0.37	0.04	85200	0	3345	63598	85200	81855	313	121	1157	24	61571	1615542	1615
8	2016-03-10 13:04:20	0	0	0	0	0	0	3.81	0.37	0.04	85200	0	3345	63598	85200	81855	313	121	1157	24	61571	1615560	1615
9	2016-03-10 13:14:20	0	0	0	0	0	0	4.37	0.39	0.05	101511	0	4876	73028	101511	96635	397	145	1391	28	70621	1615576	1961
10	2016-03-10 13:24:21	0	0	0	0	0	0	4.49	0.39	0.05	105362	0	5273	75100	105362	100089	416	149	1438	29	72502	1615593	2032
11	2016-03-10 13:34:20	0	0	0	0	0	0	4.49	0.39	0.05	105362	0	5273	75100	105362	100089	416	149	1438	29	72502	1615608	2032
12	2016-03-10 13:44:21	0	0	0	0	0	0	4.74	0.4	0.06	114507	0	6258	79766	114507	108249	458	158	1555	30	76585	1615626	2201
13	2016-03-10 13:54:26	0	0	0	0	0	0	4.96	0.39	0.06	120510	0	6910	83920	120510	113600	473	164	1610	32	80176	1615646	2279
14	2016-03-10 14:04:47	0	0	0	0	0	0	5.04	0.39	0.06	123279	0	7218	85514	123279	116061	482	169	1648	32	81444	1615659	2331
15	2016-03-10 14:15:48	0	0	0	0	0	0	5.18	0.39	0.06	127948	0	7736	87983	127948	120212	494	181	1704	34	83680	1615677	2413
16	2016-03-10 14:26:23	0	0	0	0	0	0	5.27	0.38	0.07	132181	0	8229	89583	132181	123952	503	184	1748	34	85135	1615689	2469
17	2016-03-10 14:34:23	0	0	0	0	0	0	5.27	0.38	0.07	132181	0	8229	89583	132181	123952	503	184	1748	34	85135	1615704	2469
18	2016-03-10 14:44:23	0	0	0	0	0	0	5.41	0.38	0.07	136681	0	8738	91944	136681	127943	518	189	1811	35	87420	1615716	2553
19	2016-03-10 14:54:25	0	0	0	0	0	0	5.52	0.37	0.07	140464	0	9174	94076	140464	131290	526	190	1850	35	89211	1615731	2601
20	2016-03-10 15:04:22	0	0	0	0	0	0	5.52	0.37	0.07	140464	0	9174	94076	140464	131290	526	190	1850	35	89211	1615753	2601
21	2016-03-10 15:14:37	0	0	0	0	0	0	5.67	0.37	0.07	145866	0	9827	96820	145866	136039	542	194	1899	36	91562	1615764	2671
22	2016-03-10 15:24:22	0	0	0	0	0	0	5.67	0.37	0.07	145866	0	9827	96820	145866	136039	542	194	1899	36	91562	1615781	2671
23	2016-03-10 15:34:22	0	0	0	0	0	0	5.77	0.37	0.07	151202	0	10416	98888	151202	140786	562	198	1959	37	93173	1615793	2756
24	2016-03-10 15:44:22	0	0	0	0	0	0	5.89	0.37	0.08	154311	0	10826	101158	154311	143485	569	201	1991	37	95242	1615805	2798
25	2016-03-10 15:54:23	0	0	0	0	0	0	5.92	0.37	0.08	155846	0	11045	101820	155846	144801	571	205	2011	38	95622	1615819	2825
26	2016-03-10 16:04:30	0	0	0	0	0	0	5.99	0.36	0.08	158839	0	11231	103101	158839	146210	576	207	2027	38	96733	1615830	2848
27	2016-03-10 16:14:23	0	0	0	0	0	0	6.08	0.36	0.08	160110	0	11600	104806	160110	148510	580	210	2057	38	98234	1615847	2885
28	2016-03-10 16:24:23	0	0	0	0	0	0	6.14	0.36	0.08	162918	0	12001	105732	162918	150917	584	212	2071	38	99238	1615865	2905
29	2016-03-10 16:34:24	0	0	0	0	0	0	6.17	0.36	0.08	164102	0	12149	106165	164102	151953	589	215	2097	38	99716	1615876	2939
30	2016-03-10 16:44:23	0	0	0	0	0	0	6.24	0.36	0.08	166489	0	12452	107689	166489	154037	594	217	2128	38	100887	1615888	2977
31	2016-03-10 16:54:24	0	0	0	0	0	0	6.28	0.36	0.08	167779	0	12621	108527	167779	155158	596	219	2141	38	101436	1615902	2994
32	2016-03-10 17:04:24	0	0	0	0	0	0	6.39	0.36	0.08	170363	0	12950	110573	170363	157413	610	223	2165	38	103208	1615912	3036
33	2016-03-10 17:14:25	0	0	0	0	0	0	6.48	0.36	0.08	172798	0	13290	112517	172798	159508	618	224	2189	38	104757	1615917	3069
34	2016-03-10 17:24:27	0	0	0	0	0	0	6.51	0.36	0.08	174010	0	13474	112977	174010	160536	621	225	2201	38	105156	1615931	3085
35	2016-03-10 17:34:22	0	0	0	0	0	0	6.57	0.35	0.08	176193	0	13785	114238	176193	162408	625	225	2224	39	106222	1615945	3113
36	2016-03-10 17:44:23	0	0	0	0	0	0	6.67	0.35	0.09	178420	0	14052	115814	178420	164368	629	227	2240	39	107763	1615954	3135
37	2016-03-10 17:54:24	0	0	0	0	0	0	6.71	0.36	0.09	179820	0	14200	116608	179820	165620	639	228	2273	39	108359	1615970	3179
38	2016-03-10 18:04:23	0	0	0	0	0	0	6.73	0.35	0.09	182431	0	14395	117826	182431	166903	641	229	2290	39	108801	1615982	3199
39	2016-03-10 18:14:23	0	0	0	0	0	0	6.82	0.35	0.09	183680	0	14721	118894	183680	168959	646	232	2325	41	110177	1615999	3244
40	2016-03-10 18:24:23	0	0	0	0	0	0	6.87	0.35	0.09	186037	0	14992	119792	186037	171045	653	233	2348	41	111059	1616014	3275
41	2016-03-10 18:34:24	0	0	0	0	0	0	6.89	0.35	0.09	187331	0	15140	120191	187331	172191	657	234	2362	41	111387	1616024	3294
42	2016-03-10 18:44:23	0	0	0	0	0	0	6.98	0.35	0.09	189891	0	15430	122317	189891	174461	663	235	2386	42	112880	1616039	3326
43	2016-03-10 18:54:24	0	0	0	0	0	0	7.03	0.35	0.09	190981	0	15532	123024	190981	175449	666	236	2394	42	113665	1616051	3338
44	2016-03-10 19:04:23	0	0	0	0	0	0	7.15	0.35	0.09	193570	0	15857	124855	193570	177713	675	238	2423	42	115510	1616063	3378
45	2016-03-10 19:14:25	0	0	0	0	0	0	7.19	0.35	0.09	194532	0	15976	125737	194532	178556	676	238	2432	42	116134	1616073	3388
46	2016-03-10 19:24:27	0	0	0	0	0	0	7.3	0.35	0.09	196927	0	16255	128025	196927	180672	681	240	2450	44	118028	1616078	3415
47	2016-03-10 19:34:26	0	0	0	0	0	0	7.36	0.35	0.09	198115	0	16399	128802	198115	181716	686	241	2462	45	118871	1616096	3434
48	2016-03-10 19:44:24	0	0	0	0	0	0	7.44	0.35	0.09	200488	0	16651	130494	200488	183837	692	242	2489	45	120284	1616109	3468
49	2016-03-10 19:54:25	0	0	0	0	0	0	7.46	0.34	0.09	201755	0	16791	130809	201755	184964	694	242	2499	45	120551	1616126	3480
50	2016-03-10 20:04:25	0	0	0	0	0	0	7.52	0.34	0.09	204087	0	17032	132072	204087	187055	700	243	2526	45	121612	1616143	3514
51	2016-03-10 20:14:24	0	0	0	0	0	0	7.58	0.34	0.09	205254	0	17160	132911	205254	188094	701	244	2536	45	122468	1616153	3526
52	2016-03-10 20:24:24	0	0	0	0	0	0	7.64	0.34	0.09	207475	0	17429	133750	207475	190046	712	244	2557	45	123454	1616164	3558
53	2016-03-10 20:34:24	0	0	0	0	0	0	7.67	0.34	0.09	208801	0	17601	134435	208801	191200	718	248	2572	45	124038	1616175	3583
54	2016-03-10 20:44:35	0	0	0	0	0	0	7.74	0.34	0.09	211005	0	17937	135703	211005	193068	726	253	2596	45	125076	1616189	3620
55	2016-03-10 20:54:33	0	0	0	0	0	0	7.81	0.35	0.09	213274	0	18270	137444	213274	195004	737	254	2620	45	126265	1616209	3656
56	2016-03-10 21:04:41	0	0	0	0	0	0	7.86	0.34	0.09	214351	0	18403	138054	214351	195948	737	256	2630	45	127070	1616216	3668
57	2016-03-10 21:14:35	0	0	0	0	0	0	7.91	0.34	0.09	216750	0	18730	138921	216750	198020	745	258	2653	45	127805	1616226	3701
58	2016-03-10 21:24:38	0	0	0	0	0	0	7.93	0.34	0.09	217761	0	18872	139686	217761	198889	748	258	2662	45	128154	1616235	3713
59	2016-03-10 21:34:32	0	0	0	0	0	0	8.01	0.34	0.1	219944	0	19153	141541	219944	200791	756	259	2684	45	129475	1616252	3744
60	2016-03-10 21:44:33	0	0	0	0	0	0	8.03	0.34	0.1	220971	0	19282	141801	220971	201689	756	260	2697	45	129823	1616267	3758
61	2016-03-10 21:54:38	0	0	0	0	0	0	8.1	0.34	0.1	222940	0	19554	143164	222940	203386	759	261	2709	45	130943	1616272	3774
62	2016-03-10 22:04:33	0	0	0	0	0	0	8.17	0.34	0.1	224917	0	19808	144735	224917	205109	760	261	2732	45	132075	1616284	3798
63	2016-03-10 22:14:34	0	0	0	0	0	0	8.24	0.34	0.1	226003	0	19957	145982	226003	206046	761	262	2745	46	133250	1616303	3814
64	2016-03-10 22:24:33	0	0	0	0	0	0	8.3	0.34	0.1	228240	0	20254	147235	228240	207986	770	262	2763	46	134215	1616321	3841
65	2016-03-10 22:34:34	0	0	0	0	0	0	8.31	0.34	0.1	229277	0	20384	147579	229277	208893	771	262	2773	46	134296	1616340	3852
66	2016-03-10 22:44:34	0	0	0	0	0	0	8.38	0.34	0.1	231254	0	20632	148770	231254	210622	776	264	2793	46	135377	1616358	3879
67	2016-03-10 22:54:37	0	0	0	0	0	0	8.41	0.34	0.1	233113	0	20854	149272	233113	212259	782	267	2810	46	135888	1616379	3905
68	2016-03-10 23:04:37	0	0	0	0	0	0	8.44	0.33	0.1	234117	0	20969	150227	234117	213148	783	267	2819	46	136485	1616397	3915
69	2016-03-10 23:14:35	0	0	0	0	0	0	8.47	0.34	0.1	235879	0	21213	151055	235879	214666	791	267	2834	48	136908	1616412	3940
70	2016-03-10 23:24:35	0	0	0	0	0	0	8.5	0.34	0.1	236704	0	21307	151914	236704	215397	794	268	2838	48	137381	1616424	3948
71	2016-03-10 23:34:35	0	0	0	0	0	0	8.57	0.33	0.1	238602	0	21563	153549	238602	217039	798	268	2856	48	138593	1616447	3970
72	2016-03-10 23:44:35	0	0	0	0	0	0	8.61	0.34	0.1	240327	0	21795	154309	240327	218532	807	269	2863	48	139212	1616453	3987
73	2016-03-10 23:54:34	0	0	0	0	0	0	8.66	0.34	0.1	241344	0	21940	155339	241344	219404	809	270	2880	48	140049	1616466	4007
74	2016-03-11 00:04:37	0	0	0	0	0	0	8.72	0.33	0.1	243143	0	22200	156414	243143	220943	812	274	2898	48	141025	1616487	4032
75	2016-03-11 00:14:36	0	0	0	0	0	0	8.75	0.33	0.1	244045	0	22309	156977	244045	221736	815	275	2911	48	141489	1616497	4049
76	2016-03-11 00:24:35	0	0	0	0	0	0	8.79	0.33	0.1	245763	0	22536	157725	245763	223227	818	275	2914	48	142096	1616510	4055
77	2016-03-11 00:34:35	0	0	0	0	0	0	8.82	0.33	0.1	246466	0	22617	158281	246466	223849	820	277	2930	48	142521	1616521	4075
78	2016-03-11 00:44:36	0	0	0	0	0	0	8.87	0.33	0.1	247896	0	22783	159401	247896	225113	824	277	2945	48	143326	1616530	4094
79	2016-03-11 00:54:36	0	0	0	0	0	0	8.87	0.33	0.1	248490	0	22853	159582	248490	225637	824	277	2952	48	143366	1616547	4101
80	2016-03-11 01:04:34	0	0	0	0	0	0	8.9	0.33	0.1	249782	0	23005	160309	249782	226777	829	278	2969	48	143952	1616554	4124
81	2016-03-11 01:14:35	0	0	0	0	0	0	8.92	0.33	0.1	250303	0	23069	160475	250303	227234	829	278	2975	49	144194	1616562	4131
82	2016-03-11 01:24:35	0	0	0	0	0	0	9	0.33	0.1	251158	0	23171	162296	251158	227987	830	280	2987	49	145471	1616572	4146
83	2016-03-11 01:34:38	0	0	0	0	0	0	9.07	0.33	0.1	251960	0	23258	163289	251960	228702	831	280	2990	49	146656	1616587	4150
84	2016-03-11 01:44:38	0	0	0	0	0	0	9.07	0.33	0.1	252634	0	23308	163349	252634	228997	831	280	2993	49	146704	1616587	4153
85	2016-03-11 01:54:28	0	0	0	0	0	0	9.09	0.33	0.1	253033	0	23403	163591	253033	229630	832	280	3008	51	146899	1616591	4171
86	2016-03-11 02:04:25	0	0	0	0	0	0	9.09	0.33	0.1	253325	0	23435	163660	253325	229890	833	280	3011	51	146955	1616598	4175
87	2016-03-11 02:14:25	0	0	0	0	0	0	9.11	0.33	0.1	253980	0	23515	163937	253980	230465	834	280	3020	51	147291	1616598	4185
88	2016-03-11 02:24:25	0	0	0	0	0	0	9.11	0.33	0.1	254257	0	23550	163946	254257	230707	834	280	3022	51	147298	1616603	4187
89	2016-03-11 02:34:26	0	0	0	0	0	0	9.11	0.33	0.1	254744	0	23610	163946	254744	231134	837	281	3030	51	147298	1616604	4199
90	2016-03-11 02:44:25	0	0	0	0	0	0	9.12	0.33	0.1	254982	0	23631	164076	254982	231351	837	281	3033	51	147403	1616607	4202
91	2016-03-11 02:54:25	0	0	0	0	0	0	9.12	0.33	0.1	255378	0	23671	164076	255378	231707	838	281	3040	51	147403	1616610	4210
92	2016-03-11 03:04:25	0	0	0	0	0	0	9.13	0.33	0.1	255516	0	23685	164165	255516	231831	838	281	3042	51	147499	1616122	4212
93	2016-03-11 03:14:25	0	0	0	0	0	0	9.14	0.33	0.1	255797	0	23724	164340	255797	232073	840	282	3047	51	147696	1616124	4220
94	2016-03-11 03:24:25	0	0	0	0	0	0	9.18	0.33	0.1	256044	0	23753	165159	256044	232291	841	282	3053	51	148358	1616125	4227
95	2016-03-11 03:34:25	0	0	0	0	0	0	9.18	0.33	0.1	256185	0	23762	165159	256185	232423	841	282	3057	51	148358	1616127	4231
96	2016-03-11 03:44:25	0	0	0	0	0	0	9.18	0.33	0.1	256315	0	23773	165175	256315	232542	842	282	3059	51	148370	1616126	4234
97	2016-03-11 03:54:25	0	0	0	0	0	0	9.18	0.33	0.1	256529	0	23803	165175	256529	232726	843	282	3060	51	148370	1616125	4236
98	2016-03-11 04:04:25	0	0	0	0	0	0	9.19	0.33	0.1	256682	0	23827	165175	256682	232855	843	282	3062	51	148484	1616126	4238
99	2016-03-11 04:14:25	0	0	0	0	0	0	9.19	0.33	0.1	256778	0	23842	165228	256778	232936	843	282	3062	51	148484	1616128	4238
100	2016-03-11 04:24:26	0	0	0	0	0	0	9.2	0.33	0.1	256922	0	23865	165228	256922	233057	843	282	3063	51	148713	1616129	4239
101	2016-03-11 04:34:28	0	0	0	0	0	0	9.21	0.33	0.1	256999	0	23870	165228	256999	233129	843	282	3063	51	148770	1616133	4239
102	2016-03-11 04:44:25	0	0	0	0	0	0	9.21	0.33	0.1	257147	0	23894	165228	257147	233253	843	282	3066	51	148827	1616133	4242
103	2016-03-11 04:54:25	0	0	0	0	0	0	9.22	0.33	0.1	257223	0	23901	165228	257223	233322	843	282	3067	51	149027	1616132	4243
104	2016-03-11 05:04:26	0	0	0	0	0	0	9.23	0.33	0.1	257329	0	23913	165360	257329	233416	843	282	3068	51	149135	1616133	4244
105	2016-03-11 05:14:25	0	0	0	0	0	0	9.23	0.33	0.1	257388	0	23922	165360	257388	233466	844	282	3068	51	149135	1616130	4245
106	2016-03-11 05:24:26	0	0	0	0	0	0	9.25	0.33	0.1	257515	0	23938	165892	257515	233577	844	282	3068	51	149423	1616131	4245
107	2016-03-11 05:34:26	0	0	0	0	0	0	9.25	0.33	0.1	257564	0	23942	165892	257564	233622	844	282	3068	51	149423	1616133	4245
108	2016-03-11 05:44:26	0	0	0	0	0	0	9.25	0.33	0.1	257680	0	23956	165892	257680	233724	844	282	3070	51	149423	1616136	4247
109	2016-03-11 05:54:25	0	0	0	0	0	0	9.25	0.33	0.1	257745	0	23962	165900	257745	233783	844	282	3070	51	149430	1616134	4247
110	2016-03-11 06:04:25	0	0	0	0	0	0	9.25	0.33	0.1	257893	0	23989	165900	257893	233904	845	282	3070	51	149430	1616133	4248
111	2016-03-11 06:14:26	0	0	0	0	0	0	9.25	0.33	0.1	257946	0	23995	165900	257946	233951	845	282	3070	51	149430	1616134	4248
112	2016-03-11 06:24:25	0	0	0	0	0	0	9.26	0.33	0.1	258082	0	24020	166074	258082	234062	845	282	3070	51	149600	1616133	4248
113	2016-03-11 06:34:25	0	0	0	0	0	0	9.26	0.33	0.1	258265	0	24053	166074	258265	234212	846	282	3071	51	149600	1616134	4250
114	2016-03-11 06:44:25	0	0	0	0	0	0	9.26	0.33	0.1	258355	0	24064	166074	258355	234291	847	282	3071	51	149600	1616132	4251
115	2016-03-11 06:54:25	0	0	0	0	0	0	9.28	0.33	0.1	258568	0	24094	166606	258568	234474	849	282	3072	51	149915	1616134	4254
116	2016-03-11 07:04:26	0	0	0	0	0	0	9.28	0.33	0.1	258689	0	24114	166606	258689	234575	849	282	3073	51	149915	1616136	4255
117	2016-03-11 07:14:25	0	0	0	0	0	0	9.29	0.33	0.1	258953	0	24150	166785	258953	234803	850	282	3074	51	150060	1616140	4257
118	2016-03-11 07:24:29	0	0	0	0	0	0	9.29	0.33	0.1	259083	0	24171	167064	259083	234912	851	282	3077	51	150060	1616143	4261
119	2016-03-11 07:34:27	0	0	0	0	0	0	9.29	0.33	0.1	259402	0	24226	167064	259402	235176	852	283	3080	51	150060	1616147	4266
120	2016-03-11 07:44:26	0	0	0	0	0	0	9.29	0.33	0.1	259748	0	24291	167064	259748	235457	854	283	3080	51	150060	1616152	4268
121	2016-03-11 07:54:29	0	0	0	0	0	0	9.29	0.33	0.1	259955	0	24321	167498	259955	235634	855	284	3082	51	150060	1616154	4272
122	2016-03-11 08:04:28	0	0	0	0	0	0	9.3	0.33	0.1	260462	0	24393	167752	260462	236069	858	284	3085	51	150264	1616155	4278
123	2016-03-11 08:14:26	0	0	0	0	0	0	9.3	0.33	0.1	260802	0	24435	167752	260802	236367	858	285	3089	51	150264	1616158	4283
124	2016-03-11 08:24:26	0	0	0	0	0	0	9.31	0.33	0.1	261277	0	24499	168059	261277	236778	859	285	3096	51	150511	1616164	4291
125	2016-03-11 08:34:27	0	0	0	0	0	0	9.31	0.33	0.1	261522	0	24540	168315	261522	236982	860	287	3099	51	150511	1616165	4297
126	2016-03-11 08:44:27	0	0	0	0	0	0	9.31	0.33	0.1	262242	0	24659	168315	262242	237583	865	287	3104	51	150511	1616172	4307
127	2016-03-11 08:54:27	0	0	0	0	0	0	9.32	0.33	0.1	262576	0	24699	168452	262576	237877	865	287	3108	51	150621	1616179	4311
128	2016-03-11 09:04:27	0	0	0	0	0	0	9.34	0.33	0.1	263266	0	24799	168654	263266	238467	866	289	3116	51	150899	1616186	4322
129	2016-03-11 09:14:28	0	0	0	0	0	0	9.37	0.33	0.1	263876	0	24898	169705	263876	238978	866	291	3120	51	151503	1616192	4328
130	2016-03-11 09:24:27	0	0	0	0	0	0	9.37	0.33	0.1	264216	0	24957	169705	264216	239259	869	292	3126	51	151503	1616195	4338
131	2016-03-11 09:34:28	0	0	0	0	0	0	9.39	0.33	0.1	264841	0	25060	170265	264841	239781	871	293	3132	51	151725	1616202	4347
132	2016-03-11 09:44:28	0	0	0	0	0	0	9.39	0.33	0.1	265134	0	25110	170265	265134	240024	872	294	3136	51	151740	1616212	4353
133	2016-03-11 09:54:28	0	0	0	0	0	0	9.39	0.33	0.1	265848	0	25243	170528	265848	240605	873	296	3150	51	151740	1616221	4370
134	2016-03-11 10:04:31	0	0	0	0	0	0	9.43	0.33	0.11	266592	0	25385	171093	266592	241207	873	297	3157	51	152427	1616224	4378
135	2016-03-11 10:14:31	0	0	0	0	0	0	9.43	0.33	0.11	266947	0	25469	171131	266947	241478	874	297	3164	51	152457	1616233	4386
136	2016-03-11 10:24:29	0	0	0	0	0	0	9.44	0.33	0.11	267299	0	25540	171131	267299	241759	874	297	3166	51	152518	1616242	4388
137	2016-03-11 10:34:31	0	0	0	0	0	0	9.46	0.33	0.11	267990	0	25683	171643	267990	242307	874	298	3173	51	152924	1616254	4396
138	2016-03-11 10:44:28	0	0	0	0	0	0	9.47	0.33	0.11	268289	0	25764	171929	268289	242525	875	299	3176	51	153136	1616261	4401
139	2016-03-11 10:54:30	0	0	0	0	0	0	9.49	0.33	0.11	268940	0	25880	172350	268940	243060	876	301	3181	51	153348	1616266	4409
140	2016-03-11 11:04:31	0	0	0	0	0	0	9.49	0.33	0.11	269580	0	25984	172389	269580	243596	879	301	3187	51	153440	1616272	4418
141	2016-03-11 11:14:31	0	0	0	0	0	0	9.52	0.33	0.11	269868	0	26029	172850	269868	243839	880	302	3188	51	153805	1616276	4421
142	2016-03-11 11:24:29	0	0	0	0	0	0	9.52	0.33	0.11	270490	0	26160	173024	270490	244330	881	304	3193	51	153943	1616280	4429
143	2016-03-11 11:34:36	0	0	0	0	0	0	9.55	0.33	0.11	270777	0	26221	173121	270777	244556	884	304	3194	51	154342	1616285	4433
144	2016-03-11 11:44:33	0	0	0	0	0	0	9.56	0.33	0.11	271250	0	26316	173276	271250	244934	886	304	3198	51	154465	1616290	4439
145	2016-03-11 11:54:33	0	0	0	0	0	0	9.56	0.33	0.11	271500	0	26354	173354	271500	245146	886	304	3203	51	154527	1616295	4444
146	2016-03-11 12:04:34	0	0	0	0	0	0	9.56	0.33	0.11	272082	0	26472	173431	272082	245610	888	306	3207	51	154589	1616304	4452
147	2016-03-11 12:14:36	0	0	0	0	0	0	9.57	0.33	0.11	272326	0	26530	173548	272326	245796	888	306	3209	51	154650	1616314	4454
148	2016-03-11 12:24:34	0	0	0	0	0	0	9.59	0.33	0.11	272851	0	26619	173845	272851	246232	891	307	3216	51	155011	1616323	4465
149	2016-03-11 12:34:35	0	0	0	0	0	0	9.6	0.33	0.11	273073	0	26670	173997	273073	246403	892	308	3219	51	155131	1616335	4470
150	2016-03-11 12:44:32	0	0	0	0	0	0	9.61	0.33	0.11	273501	0	26766	174153	273501	246735	894	309	3224	51	155255	1616344	4478
151	2016-03-11 12:54:34	0	0	0	0	0	0	9.63	0.33	0.11	273706	0	26816	174659	273706	246890	894	309	3224	51	155595	1616351	4478
152	2016-03-11 13:04:32	0	0	0	0	0	0	9.65	0.33	0.11	274102	0	26910	174736	274102	247192	899	309	3226	51	156032	1616353	4485
153	2016-03-11 13:14:34	0	0	0	0	0	0	9.65	0.33	0.11	274311	0	26957	174884	274311	247354	899	311	3228	51	156032	1616364	4489
154	2016-03-11 13:24:35	0	0	0	0	0	0	9.67	0.33	0.11	274661	0	27049	175220	274661	247612	900	311	3231	51	156300	1616370	4493
155	2016-03-11 13:34:35	0	0	0	0	0	0	9.67	0.33	0.11	274857	0	27094	175299	274857	247763	900	312	3234	51	156363	1616381	4497
156	2016-03-11 13:44:34	0	0	0	0	0	0	9.67	0.33	0.11	275184	0	27178	175299	275184	248006	901	312	3237	51	156363	1616392	4501
157	2016-03-11 13:54:36	0	0	0	0	0	0	9.68	0.33	0.11	275344	0	27222	175369	275344	248122	902	312	3239	51	156418	1616394	4504
158	2016-03-11 14:04:40	0	0	0	0	0	0	9.69	0.33	0.11	275709	0	27334	175767	275709	248375	905	313	3243	53	156671	1616403	4514
159	2016-03-11 14:14:36	0	0	0	0	0	0	9.69	0.33	0.11	275868	0	27371	175852	275868	248497	905	313	3244	53	156675	1616406	4515
160	2016-03-11 14:24:35	0	0	0	0	0	0	9.7	0.33	0.11	276170	0	27455	175852	276170	248715	905	313	3246	53	156802	1616415	4517
161	2016-03-11 14:34:35	0	0	0	0	0	0	9.72	0.33	0.11	276335	0	27504	176162	276335	248831	906	313	3249	53	157049	1616413	4521
162	2016-03-11 14:44:35	0	0	0	0	0	0	9.72	0.33	0.11	276576	0	27576	176240	276576	249000	906	313	3249	53	157111	1616420	4521
163	2016-03-11 14:54:36	0	0	0	0	0	0	9.76	0.33	0.11	276844	0	27646	176400	276844	249198	908	313	3255	53	157687	1616428	4529
164	2016-03-11 15:04:35	0	0	0	0	0	0	9.76	0.33	0.11	276980	0	27687	176521	276980	249293	909	313	3255	53	157783	1616433	4530
165	2016-03-11 15:14:37	0	0	0	0	0	0	9.76	0.33	0.11	277135	0	27736	176521	277135	249399	909	313	3257	53	157783	1616441	4532
166	2016-03-11 15:24:35	0	0	0	0	0	0	9.76	0.33	0.11	277415	0	27819	176844	277415	249596	911	313	3261	53	157815	1616451	4538
167	2016-03-11 15:34:37	0	0	0	0	0	0	9.77	0.33	0.11	277676	0	27891	177127	277676	249785	911	313	3264	53	157944	1616460	4541
168	2016-03-11 15:44:39	0	0	0	0	0	0	9.77	0.33	0.11	277781	0	27923	177249	277781	249858	912	313	3266	53	157944	1616473	4544
169	2016-03-11 15:54:39	0	0	0	0	0	0	9.77	0.33	0.11	278067	0	28007	177249	278067	250060	913	314	3269	53	157944	1616484	4549
170	2016-03-11 16:04:38	0	0	0	0	0	0	9.77	0.33	0.11	278206	0	28047	177249	278206	250159	913	314	3269	53	157944	1616502	4549
171	2016-03-11 16:14:38	0	0	0	0	0	0	9.77	0.33	0.11	278425	0	28111	177320	278425	250314	913	315	3271	53	157944	1616507	4552
172	2016-03-11 16:24:37	0	0	0	0	0	0	9.77	0.33	0.11	278546	0	28142	177320	278546	250404	913	315	3273	53	157944	1616514	4554
173	2016-03-11 16:34:40	0	0	0	0	0	0	9.77	0.33	0.11	278829	0	28213	177350	278829	250616	913	315	3278	53	157968	1616528	4559
174	2016-03-11 16:44:35	0	0	0	0	0	0	9.77	0.33	0.11	278963	0	28249	177350	278963	250714	913	315	3280	53	157968	1616538	4561
175	2016-03-11 16:54:37	0	0	0	0	0	0	9.77	0.33	0.11	279199	0	28305	177503	279199	250894	913	315	3282	53	157968	1616556	4563
176	2016-03-11 17:04:38	0	0	0	0	0	0	9.78	0.33	0.11	279360	0	28354	177870	279360	251006	913	316	3284	53	158162	1616572	4566
177	2016-03-11 17:14:36	0	0	0	0	0	0	9.78	0.33	0.11	279593	0	28432	178136	279593	251161	913	316	3288	53	158162	1616587	4570
178	2016-03-11 17:24:39	0	0	0	0	0	0	9.79	0.33	0.11	279803	0	28490	178156	279803	251313	914	316	3289	53	158275	1616597	4572
179	2016-03-11 17:34:39	0	0	0	0	0	0	9.79	0.33	0.11	279938	0	28542	178156	279938	251396	915	316	3291	53	158275	1616610	4575
180	2016-03-11 17:44:36	0	0	0	0	0	0	9.79	0.33	0.11	280076	0	28578	178156	280076	251498	916	316	3294	53	158340	1616623	4579
181	2016-03-11 17:54:37	0	0	0	0	0	0	9.81	0.33	0.11	280331	0	28630	178485	280331	251701	917	316	3296	53	158534	1616633	4582
182	2016-03-11 18:04:37	0	0	0	0	0	0	9.81	0.33	0.11	280563	0	28690	178485	280563	251873	918	316	3299	53	158534	1616644	4586
183	2016-03-11 18:14:41	0	0	0	0	0	0	9.81	0.33	0.11	280662	0	28713	178485	280662	251949	918	316	3299	53	158534	1616662	4586
184	2016-03-11 18:24:37	0	0	0	0	0	0	9.81	0.33	0.11	280791	0	28748	178485	280791	252043	918	316	3302	53	158534	1616683	4589
185	2016-03-11 18:34:39	0	0	0	0	0	0	9.81	0.33	0.11	280997	0	28789	178567	280997	252208	918	316	3304	53	158599	1616695	4591
186	2016-03-11 18:44:37	0	0	0	0	0	0	9.81	0.33	0.11	281122	0	28826	178567	281122	252296	918	316	3306	53	158599	1616720	4593
187	2016-03-11 18:54:42	0	0	0	0	0	0	9.81	0.33	0.11	281350	0	28890	178609	281350	252460	918	316	3307	53	158599	1616744	4594
188	2016-03-11 19:04:45	0	0	0	0	0	0	9.82	0.33	0.11	281542	0	28941	178856	281542	252601	918	316	3308	53	158795	1616758	4595
189	2016-03-11 19:14:42	0	0	0	0	0	0	9.84	0.33	0.11	281650	0	28972	179146	281650	252678	918	316	3310	53	159023	1616773	4597
190	2016-03-11 19:24:41	0	0	0	0	0	0	9.86	0.33	0.11	281870	0	29022	179603	281870	252848	918	316	3313	54	159482	1616790	4601
191	2016-03-11 19:34:42	0	0	0	0	0	0	9.87	0.33	0.11	281978	0	29047	179760	281978	252931	918	316	3313	54	159605	1616802	4601
192	2016-03-11 19:44:40	0	0	0	0	0	0	9.88	0.33	0.12	282179	0	29120	179885	282179	253059	919	316	3315	54	159704	1616824	4604
193	2016-03-11 19:54:39	0	0	0	0	0	0	9.88	0.33	0.12	282254	0	29144	179969	282254	253110	919	316	3316	54	159704	1616843	4605
194	2016-03-11 20:04:40	0	0	0	0	0	0	9.89	0.33	0.12	282468	0	29197	179989	282468	253271	919	316	3317	54	159984	1616864	4606
195	2016-03-11 20:14:43	0	0	0	0	0	0	9.9	0.33	0.12	282539	0	29208	180115	282539	253331	919	316	3319	54	160084	1616871	4608
196	2016-03-11 20:24:42	0	0	0	0	0	0	9.91	0.33	0.12	282705	0	29248	180304	282705	253457	919	316	3321	54	160233	1616888	4610
197	2016-03-11 20:34:45	0	0	0	0	0	0	9.91	0.32	0.12	282809	0	29268	180304	282809	253541	919	316	3323	54	160233	1616902	4612
198	2016-03-11 20:44:41	0	0	0	0	0	0	9.92	0.32	0.12	283066	0	29355	180533	283066	253711	919	317	3326	54	160349	1616912	4616
199	2016-03-11 20:54:41	0	0	0	0	0	0	9.92	0.33	0.12	283245	0	29414	180533	283245	253831	921	317	3329	54	160349	1616925	4621
200	2016-03-11 21:04:47	0	0	0	0	0	0	9.92	0.33	0.12	283341	0	29433	180659	283341	253908	921	317	3329	54	160449	1616937	4621
201	2016-03-11 21:14:39	0	0	0	0	0	0	9.93	0.32	0.12	283513	0	29484	180828	283513	254029	921	317	3333	54	160582	1616955	4625
202	2016-03-11 21:24:44	0	0	0	0	0	0	9.93	0.32	0.12	283654	0	29529	180828	283654	254125	921	317	3333	54	160582	1616970	4625
203	2016-03-11 21:34:43	0	0	0	0	0	0	9.93	0.32	0.12	283741	0	29548	180828	283741	254193	921	317	3335	54	160582	1616989	4627
204	2016-03-11 21:44:48	0	0	0	0	0	0	9.93	0.32	0.12	283871	0	29590	180828	283871	254281	921	317	3335	54	160582	1616999	4627
205	2016-03-11 21:54:41	0	0	0	0	0	0	9.93	0.32	0.12	283942	0	29617	180828	283942	254325	922	317	3335	54	160582	1617013	4628
206	2016-03-11 22:04:40	0	0	0	0	0	0	9.94	0.32	0.12	284107	0	29664	180997	284107	254443	922	317	3338	54	160782	1617028	4631
207	2016-03-11 22:14:41	0	0	0	0	0	0	9.94	0.32	0.12	284191	0	29694	180997	284191	254497	922	317	3338	54	160782	1617040	4631
208	2016-03-11 22:24:44	0	0	0	0	0	0	9.94	0.32	0.12	284328	0	29729	180997	284328	254599	922	317	3338	54	160782	1617051	4631
209	2016-03-11 22:34:44	0	0	0	0	0	0	9.97	0.32	0.12	284400	0	29746	181655	284400	254654	922	317	3338	54	161301	1617065	4631
210	2016-03-11 22:44:45	0	0	0	0	0	0	9.99	0.32	0.12	284548	0	29788	181719	284548	254760	922	317	3341	54	161570	1617088	4634
211	2016-03-11 22:54:43	0	0	0	0	0	0	10.02	0.32	0.12	284690	0	29815	182555	284690	254875	922	317	3341	54	162095	1617100	4634
212	2016-03-11 23:04:41	0	0	0	0	0	0	10.03	0.32	0.12	284761	0	29835	182641	284761	254926	922	317	3341	54	162163	1617118	4634
213	2016-03-11 23:14:47	0	0	0	0	0	0	10.03	0.32	0.12	284841	0	29858	182641	284841	254983	922	317	3342	54	162163	1617136	4635
214	2016-03-11 23:24:41	0	0	0	0	0	0	10.03	0.32	0.12	284988	0	29906	183030	284988	255082	922	317	3343	54	162265	1617155	4636
215	2016-03-11 23:34:40	0	0	0	0	0	0	10.04	0.32	0.12	285101	0	29953	183160	285101	255148	923	317	3345	54	162367	1617166	4639
216	2016-03-11 23:44:40	0	0	0	0	0	0	10.04	0.32	0.12	285168	0	29974	183203	285168	255194	924	317	3345	54	162401	1617181	4640
217	2016-03-11 23:54:44	0	0	0	0	0	0	10.04	0.32	0.12	285304	0	30004	183244	285304	255300	924	317	3346	54	162433	1617193	4641
218	2016-03-12 00:04:46	0	0	0	0	0	0	10.04	0.32	0.12	285463	0	30036	183330	285463	255427	924	317	3349	54	162433	1617199	4644
219	2016-03-12 00:14:40	0	0	0	0	0	0	10.04	0.32	0.12	285543	0	30048	183330	285543	255495	924	317	3350	54	162433	1617208	4645
220	2016-03-12 00:24:45	0	0	0	0	0	0	10.04	0.32	0.12	285667	0	30085	183330	285667	255582	925	317	3352	54	162433	1617218	4648
221	2016-03-12 00:34:42	0	0	0	0	0	0	10.04	0.32	0.12	285728	0	30111	183330	285728	255617	925	317	3352	54	162433	1617229	4648
222	2016-03-12 00:44:42	0	0	0	0	0	0	10.04	0.32	0.12	285798	0	30136	183330	285798	255662	926	317	3354	54	162433	1617234	4651
223	2016-03-12 00:54:43	0	0	0	0	0	0	10.04	0.32	0.12	285837	0	30155	183330	285837	255682	926	317	3354	54	162433	1617245	4651
224	2016-03-12 01:04:44	0	0	0	0	0	0	10.05	0.32	0.12	285898	0	30187	183396	285898	255711	926	317	3356	54	162484	1617249	4653
225	2016-03-12 01:14:40	0	0	0	0	0	0	10.05	0.32	0.12	285924	0	30197	183396	285924	255727	926	317	3356	54	162484	1617261	4653
226	2016-03-12 01:24:40	0	0	0	0	0	0	10.05	0.32	0.12	285969	0	30217	183396	285969	255752	926	317	3356	54	162484	1617271	4653
227	2016-03-12 01:34:44	0	0	0	0	0	0	10.05	0.32	0.12	285993	0	30225	183396	285993	255768	926	317	3356	54	162484	1617275	4653
228	2016-03-12 01:44:44	0	0	0	0	0	0	10.05	0.32	0.12	286031	0	30239	183396	286031	255792	926	317	3356	54	162518	1617281	4653
229	2016-03-12 01:54:40	0	0	0	0	0	0	10.05	0.32	0.12	286046	0	30246	183396	286046	255800	926	317	3356	54	162518	1617290	4653
230	2016-03-12 02:04:41	0	0	0	0	0	0	10.05	0.32	0.12	286077	0	30263	183396	286077	255814	926	318	3357	54	162518	1617296	4655
231	2016-03-12 02:14:41	0	0	0	0	0	0	10.05	0.32	0.12	286093	0	30268	183396	286093	255825	926	318	3357	54	162518	1617301	4655
232	2016-03-12 02:24:40	0	0	0	0	0	0	10.05	0.32	0.12	286116	0	30276	183396	286116	255840	926	318	3358	54	162518	1617307	4656
233	2016-03-12 02:34:44	0	0	0	0	0	0	10.05	0.32	0.12	286124	0	30279	183396	286124	255845	926	318	3358	54	162518	1617309	4656
234	2016-03-12 02:44:44	0	0	0	0	0	0	10.05	0.32	0.12	286147	0	30286	183396	286147	255861	926	318	3358	54	162518	1617310	4656
235	2016-03-12 02:54:43	0	0	0	0	0	0	10.05	0.32	0.12	286163	0	30295	183396	286163	255868	926	318	3358	54	162518	1617314	4656
236	2016-03-12 03:04:40	0	0	0	0	0	0	10.05	0.32	0.12	286170	0	30300	183396	286170	255870	926	318	3358	55	162518	1617158	4657
237	2016-03-12 03:14:40	0	0	0	0	0	0	10.05	0.32	0.12	286178	0	30304	183396	286178	255874	926	318	3358	55	162518	1617155	4657
238	2016-03-12 03:24:41	0	0	0	0	0	0	10.05	0.32	0.12	286186	0	30310	183396	286186	255876	926	318	3358	55	162518	1617156	4657
239	2016-03-12 14:33:24	0	0	0	0	0	0	10.05	0.32	0.12	286858	0	30671	183700	286858	256187	929	320	3364	56	162586	1617503	4669
240	2016-03-12 15:45:15	0	0	0	0	0	0	10.05	0.32	0.12	286930	0	30702	183700	286930	256228	929	320	3364	56	162586	1617572	4669
241	2016-03-12 18:33:29	0	0	0	0	0	0	10.06	0.32	0.12	287073	0	30770	183782	287073	256303	929	320	3366	56	162787	1617718	4671
242	2016-03-12 18:43:27	0	0	0	0	0	0	10.06	0.32	0.12	287087	0	30773	183869	287087	256314	929	320	3366	56	162787	1617726	4671
243	2016-03-12 19:59:42	0	0	0	0	0	0	10.06	0.32	0.12	287147	0	30800	183869	287147	256347	929	320	3366	56	162787	1617788	4671
244	2016-03-12 20:12:37	0	0	0	0	0	0	10.06	0.32	0.12	287155	0	30804	183869	287155	256351	929	320	3366	56	162787	1617797	4671
245	2016-03-12 20:15:22	0	0	0	0	0	0	10.06	0.32	0.12	287155	0	30804	183869	287155	256351	929	320	3366	56	162787	1617798	4671
246	2016-03-12 20:23:25	0	0	0	0	0	0	10.06	0.32	0.12	287166	0	30812	183869	287166	256354	929	320	3366	56	162787	1617802	4671
247	2016-03-12 20:33:25	0	0	0	0	0	0	10.06	0.32	0.12	287172	0	30814	183869	287172	256358	929	320	3366	56	162787	1617812	4671
248	2016-03-12 20:43:25	0	0	0	0	0	0	10.06	0.32	0.12	287180	0	30818	183869	287180	256362	929	320	3366	56	162787	1617817	4671
249	2016-03-12 20:53:25	0	0	0	0	0	0	10.06	0.32	0.12	287184	0	30819	183869	287184	256365	929	320	3366	56	162787	1617820	4671
250	2016-03-12 21:03:23	0	0	0	0	0	0	10.06	0.32	0.12	287191	0	30824	183869	287191	256367	929	320	3367	56	162787	1617830	4672
251	2016-03-12 23:27:52	0	0	0	0	0	0	10.06	0.32	0.12	287311	0	30881	183869	287311	256430	929	320	3367	56	162787	1617960	4672
252	2016-03-13 11:54:32	0	0	0	0	0	0	10.06	0.32	0.12	287466	0	30943	183869	287466	256523	930	320	3367	56	162787	1618507	4673
