1	2015-09-02 13:24:29	0	0	0	0	0	0	0	0	0	0	0	0	0	0	0	0	0	0	0	0	1203267	0
2	2015-09-02 13:30:29	0	0	0	0	0	0	1.75	3.1	0	24481	0	116	21075	24481	24365	760	9	78	12	21032	1203261	859
3	2015-09-02 13:36:29	0	0	0	0	0	0	1.75	3.1	0	24481	0	116	21075	24481	24365	760	9	78	12	21032	1203269	859
4	2015-09-02 13:42:30	0	0	0	0	0	0	5.02	3.7	0.04	79326	0	2725	44856	79326	76601	2938	31	207	36	60404	1203260	3212
5	2015-09-02 13:48:29	0	0	0	0	0	0	5.02	3.7	0.04	79326	0	2725	44856	79326	76601	2938	31	207	36	60404	1203270	3212
6	2015-09-02 13:54:29	0	0	0	0	0	0	6.4	3.76	0.05	106381	0	5274	81782	106381	101107	4005	73	455	69	77023	1203265	4602
7	2015-09-02 14:00:30	0	0	0	0	0	0	6.4	3.76	0.05	106381	0	5274	81782	106381	101107	4005	73	455	69	77023	1203276	4602
8	2015-09-02 14:06:30	0	0	0	0	0	0	8.39	3.8	0.08	150887	0	10979	108113	150887	139908	5731	100	638	80	100995	1203261	6549
9	2015-09-02 14:12:30	0	0	0	0	0	0	8.39	3.8	0.08	150887	0	10979	108113	150887	139908	5731	100	638	80	100995	1203268	6549
10	2015-09-02 14:18:30	0	0	0	0	0	0	9.5	3.81	0.09	177311	0	14867	124805	177311	162444	6762	118	752	84	114254	1203261	7716
11	2015-09-02 14:24:30	0	0	0	0	0	0	9.5	3.81	0.09	177311	0	14867	124805	177311	162444	6762	118	752	84	114254	1203281	7716
12	2015-09-02 14:30:30	0	0	0	0	0	0	10.66	3.82	0.11	204701	0	19489	142429	204701	185212	7814	133	871	95	128314	1203270	8913
13	2015-09-02 14:36:31	0	0	0	0	0	0	10.66	3.82	0.11	204701	0	19489	142429	204701	185212	7814	133	871	95	128314	1203278	8913
14	2015-09-02 14:42:31	0	0	0	0	0	0	11.69	3.76	0.12	231344	0	24023	156841	231344	207321	8708	138	968	102	140620	1203262	9916
15	2015-09-02 14:48:29	0	0	0	0	0	0	11.69	3.76	0.12	231344	0	24023	156841	231344	207321	8708	138	968	102	140620	1203275	9916
16	2015-09-02 14:54:32	0	0	0	0	0	0	12.64	3.75	0.12	253673	0	28043	172460	253673	225630	9514	149	1045	113	152139	1203262	10821
17	2015-09-02 15:00:30	0	0	0	0	0	0	12.64	3.75	0.12	253673	0	28043	172460	253673	225630	9514	149	1045	113	152139	1203276	10821
18	2015-09-02 15:06:29	0	0	0	0	0	0	13.35	3.77	0.13	272677	0	31917	183203	272677	240760	10267	160	1102	118	160648	1203258	11647
19	2015-09-02 15:12:30	0	0	0	0	0	0	13.35	3.77	0.13	272677	0	31917	183203	272677	240760	10267	160	1102	118	160648	1203263	11647
20	2015-09-02 15:18:29	0	0	0	0	0	0	14.24	3.76	0.14	296499	0	37006	197186	296499	259493	11138	173	1186	125	171397	1203250	12622
21	2015-09-02 15:24:30	0	0	0	0	0	0	14.24	3.76	0.14	296499	0	37006	197186	296499	259493	11138	173	1186	125	171397	1203257	12622
22	2015-09-02 15:30:32	0	0	0	0	0	0	14.92	3.65	0.15	313071	0	40434	207329	313071	272637	11433	176	1214	130	179525	1203262	12953
23	2015-09-02 15:36:31	0	0	0	0	0	0	14.92	3.65	0.15	313071	0	40434	207329	313071	272637	11433	176	1214	130	179525	1203272	12953
24	2015-09-02 15:42:30	0	0	0	0	0	0	15.19	3.74	0.15	320666	0	42150	211337	320666	278516	11997	184	1286	135	182803	1203265	13602
25	2015-09-02 15:48:31	0	0	0	0	0	0	15.19	3.74	0.15	320666	0	42150	211337	320666	278516	11997	184	1286	135	182803	1203271	13602
26	2015-09-02 15:54:30	0	0	0	0	0	0	15.95	3.74	0.16	341978	0	46984	225551	341978	294994	12778	189	1345	141	191957	1203265	14453
27	2015-09-02 16:00:31	0	0	0	0	0	0	15.95	3.74	0.16	341978	0	46984	225551	341978	294994	12778	189	1345	141	191957	1203287	14453
28	2015-09-02 16:06:30	0	0	0	0	0	0	16.27	3.74	0.16	348982	0	48652	229776	348982	300330	13050	195	1363	148	195779	1203268	14756
29	2015-09-02 16:12:31	0	0	0	0	0	0	16.27	3.74	0.16	348982	0	48652	229776	348982	300330	13050	195	1363	148	195779	1203281	14756
30	2015-09-02 16:18:30	0	0	0	0	0	0	17.01	3.66	0.17	368555	0	53091	242158	368555	315464	13506	201	1404	152	204690	1203264	15263
31	2015-09-02 16:24:31	0	0	0	0	0	0	17.01	3.66	0.17	368555	0	53091	242158	368555	315464	13506	201	1404	152	204690	1203278	15263
32	2015-09-02 16:30:30	0	0	0	0	0	0	17.21	3.72	0.17	374436	0	54429	245144	374436	320007	13936	206	1447	155	207072	1203257	15744
33	2015-09-02 16:36:30	0	0	0	0	0	0	17.21	3.72	0.17	374436	0	54429	245144	374436	320007	13936	206	1447	155	207072	1203260	15744
34	2015-09-02 16:42:31	0	0	0	0	0	0	17.69	3.7	0.18	391338	0	58330	253218	391338	333008	14496	213	1496	162	212855	1203257	16367
35	2015-09-02 16:48:30	0	0	0	0	0	0	17.69	3.7	0.18	391338	0	58330	253218	391338	333008	14496	213	1496	162	212855	1203266	16367
36	2015-09-02 16:54:30	0	0	0	0	0	0	18.03	3.7	0.18	401992	0	60765	258799	401992	341227	14857	217	1533	164	216967	1203255	16771
37	2015-09-02 17:00:30	0	0	0	0	0	0	18.03	3.7	0.18	401992	0	60765	258799	401992	341227	14857	217	1533	164	216967	1203266	16771
38	2015-09-02 17:06:32	0	0	0	0	0	0	18.49	3.68	0.18	413021	0	62975	264565	413021	350046	15195	217	1569	166	222514	1203258	17147
39	2015-09-02 17:12:32	0	0	0	0	0	0	18.49	3.68	0.18	413021	0	62975	264565	413021	350046	15195	217	1569	166	222514	1203275	17147
40	2015-09-02 17:18:32	0	0	0	0	0	0	18.93	3.67	0.18	423193	0	65148	271981	423193	358045	15551	220	1594	166	227821	1203260	17531
41	2015-09-02 17:24:31	0	0	0	0	0	0	18.93	3.67	0.18	423193	0	65148	271981	423193	358045	15551	220	1594	166	227821	1203267	17531
42	2015-09-02 17:30:31	0	0	0	0	0	0	19.23	3.67	0.18	432296	0	67039	275981	432296	365257	15855	221	1614	167	231396	1203260	17857
43	2015-09-02 17:36:31	0	0	0	0	0	0	19.23	3.67	0.18	432296	0	67039	275981	432296	365257	15855	221	1614	167	231396	1203262	17857
44	2015-09-02 17:42:31	0	0	0	0	0	0	19.56	3.65	0.18	442836	0	69035	280093	442836	373801	16176	224	1642	170	235307	1203266	18212
45	2015-09-02 17:48:32	0	0	0	0	0	0	19.56	3.65	0.18	442836	0	69035	280093	442836	373801	16176	224	1642	170	235307	1203273	18212
46	2015-09-02 17:54:32	0	0	0	0	0	0	19.92	3.64	0.19	452963	0	71015	284875	452963	381948	16490	233	1666	170	239674	1203266	18559
47	2015-09-02 18:00:32	0	0	0	0	0	0	19.92	3.64	0.19	452963	0	71015	284875	452963	381948	16490	233	1666	170	239674	1203275	18559
48	2015-09-02 18:06:33	0	0	0	0	0	0	20.15	3.63	0.19	462577	0	72954	289909	462577	389623	16775	238	1693	174	242514	1203266	18880
49	2015-09-02 18:12:37	0	0	0	0	0	0	20.15	3.63	0.19	462577	0	72954	289909	462577	389623	16775	238	1693	174	242514	1203274	18880
50	2015-09-02 18:18:33	0	0	0	0	0	0	20.39	3.61	0.19	470985	0	74653	293078	470985	396332	17017	240	1723	177	245309	1203269	19157
51	2015-09-02 18:24:32	0	0	0	0	0	0	20.39	3.61	0.19	470985	0	74653	293078	470985	396332	17017	240	1723	177	245309	1203279	19157
52	2015-09-02 18:30:32	0	0	0	0	0	0	20.71	3.6	0.19	480715	0	76690	297839	480715	404025	17311	242	1752	181	249196	1203259	19486
53	2015-09-02 18:36:32	0	0	0	0	0	0	20.71	3.6	0.19	480715	0	76690	297839	480715	404025	17311	242	1752	181	249196	1203278	19486
54	2015-09-02 18:42:32	0	0	0	0	0	0	21.09	3.59	0.19	488350	0	78311	302107	488350	410039	17520	243	1766	182	253789	1203255	19711
55	2015-09-02 18:48:32	0	0	0	0	0	0	21.09	3.59	0.19	488350	0	78311	302107	488350	410039	17520	243	1766	182	253789	1203270	19711
56	2015-09-02 18:54:31	0	0	0	0	0	0	21.46	3.58	0.19	496298	0	80091	308781	496298	416207	17750	247	1777	183	258212	1203257	19957
57	2015-09-02 19:00:31	0	0	0	0	0	0	21.46	3.58	0.19	496298	0	80091	308781	496298	416207	17750	247	1777	183	258212	1203272	19957
58	2015-09-02 19:06:32	0	0	0	0	0	0	21.72	3.56	0.19	503309	0	81681	313740	503309	421628	17932	248	1800	186	261296	1203253	20166
59	2015-09-02 19:12:32	0	0	0	0	0	0	21.72	3.56	0.19	503309	0	81681	313740	503309	421628	17932	248	1800	186	261296	1203261	20166
60	2015-09-02 19:18:32	0	0	0	0	0	0	21.99	3.55	0.19	510200	0	83215	316772	510200	426985	18130	251	1817	186	264566	1203257	20384
61	2015-09-02 19:24:32	0	0	0	0	0	0	21.99	3.55	0.19	510200	0	83215	316772	510200	426985	18130	251	1817	186	264566	1203269	20384
62	2015-09-02 19:31:48	0	0	0	0	0	0	22.21	3.55	0.2	517655	0	84944	320680	517655	432711	18365	257	1837	188	267223	1203258	20647
63	2015-09-02 19:36:34	0	0	0	0	0	0	22.21	3.55	0.2	517655	0	84944	320680	517655	432711	18365	257	1837	188	267223	1203268	20647
64	2015-09-02 19:42:31	0	0	0	0	0	0	22.48	3.54	0.2	525406	0	86697	323680	525406	438709	18611	258	1858	191	270550	1203257	20918
65	2015-09-02 19:48:31	0	0	0	0	0	0	22.48	3.54	0.2	525406	0	86697	323680	525406	438709	18611	258	1858	191	270550	1203273	20918
66	2015-09-02 19:54:32	0	0	0	0	0	0	22.78	3.54	0.2	531983	0	88329	328466	531983	443654	18838	269	1877	193	274080	1203259	21177
67	2015-09-02 20:00:33	0	0	0	0	0	0	22.78	3.54	0.2	531983	0	88329	328466	531983	443654	18838	269	1877	193	274080	1203277	21177
68	2015-09-02 20:06:33	0	0	0	0	0	0	23.01	3.54	0.2	538753	0	89992	332460	538753	448761	19050	272	1890	193	276867	1203264	21405
69	2015-09-02 20:12:33	0	0	0	0	0	0	23.01	3.54	0.2	538753	0	89992	332460	538753	448761	19050	272	1890	193	276867	1203278	21405
70	2015-09-02 20:18:33	0	0	0	0	0	0	23.24	3.53	0.2	545589	0	91695	338409	545589	453894	19244	275	1905	194	279675	1203265	21618
71	2015-09-02 20:24:33	0	0	0	0	0	0	23.24	3.53	0.2	545589	0	91695	338409	545589	453894	19244	275	1905	194	279675	1203273	21618
72	2015-09-02 20:30:32	0	0	0	0	0	0	23.56	3.52	0.2	553225	0	93497	344878	553225	459728	19466	276	1916	196	283506	1203266	21854
73	2015-09-02 20:36:32	0	0	0	0	0	0	23.56	3.52	0.2	553225	0	93497	344878	553225	459728	19466	276	1916	196	283506	1203277	21854
74	2015-09-02 20:42:32	0	0	0	0	0	0	23.92	3.51	0.2	559866	0	94982	350788	559866	464884	19669	278	1928	196	287808	1203265	22071
75	2015-09-02 20:48:34	0	0	0	0	0	0	23.92	3.51	0.2	559866	0	94982	350788	559866	464884	19669	278	1928	196	287808	1203281	22071
76	2015-09-02 20:54:33	0	0	0	0	0	0	23.99	3.51	0.2	563211	0	95804	352425	563211	467407	19770	278	1933	198	288694	1203276	22179
77	2015-09-02 21:00:32	0	0	0	0	0	0	23.99	3.51	0.2	563211	0	95804	352425	563211	467407	19770	278	1933	198	288694	1203292	22179
78	2015-09-02 21:06:33	0	0	0	0	0	0	24.23	3.5	0.21	570152	0	97557	356924	570152	472595	19944	278	1953	199	291572	1203272	22374
79	2015-09-02 21:12:32	0	0	0	0	0	0	24.23	3.5	0.21	570152	0	97557	356924	570152	472595	19944	278	1953	199	291572	1203283	22374
80	2015-09-02 21:18:33	0	0	0	0	0	0	24.4	3.49	0.21	575651	0	99000	359560	575651	476651	20085	281	1968	201	293551	1203269	22535
81	2015-09-02 21:24:32	0	0	0	0	0	0	24.4	3.49	0.21	575651	0	99000	359560	575651	476651	20085	281	1968	201	293551	1203283	22535
82	2015-09-02 21:30:33	0	0	0	0	0	0	24.65	3.48	0.21	582827	0	100891	365284	582827	481936	20291	283	1985	204	296617	1203257	22763
83	2015-09-02 21:36:35	0	0	0	0	0	0	24.65	3.48	0.21	582827	0	100891	365284	582827	481936	20291	283	1985	204	296617	1203271	22763
84	2015-09-02 21:42:33	0	0	0	0	0	0	24.82	3.48	0.21	585790	0	101698	367604	585790	484092	20397	285	1992	204	298633	1203280	22878
85	2015-09-02 21:48:34	0	0	0	0	0	0	24.82	3.48	0.21	585790	0	101698	367604	585790	484092	20397	285	1992	204	298633	1203293	22878
86	2015-09-02 21:54:34	0	0	0	0	0	0	25.08	3.47	0.21	591117	0	103098	368523	591117	488019	20540	287	2004	205	301718	1203261	23036
87	2015-09-02 22:00:35	0	0	0	0	0	0	25.07	3.47	0.21	591117	0	103098	368523	591117	488019	20540	287	2004	205	301718	1203282	23036
88	2015-09-02 22:06:34	0	0	0	0	0	0	25.34	3.46	0.21	597152	0	104609	372670	597152	492543	20690	290	2025	209	304886	1203253	23214
89	2015-09-02 22:12:43	0	0	0	0	0	0	25.34	3.46	0.21	597152	0	104609	372670	597152	492543	20690	290	2025	209	304886	1203268	23214
90	2015-09-02 22:18:35	0	0	0	0	0	0	25.61	3.45	0.21	603197	0	106107	376465	603197	497090	20835	290	2040	210	308201	1203255	23375
91	2015-09-02 22:24:35	0	0	0	0	0	0	25.61	3.45	0.21	603197	0	106107	376465	603197	497090	20835	290	2040	210	308201	1203278	23375
92	2015-09-02 22:30:33	0	0	0	0	0	0	25.76	3.45	0.21	609310	0	107498	378536	609310	501812	21005	290	2052	212	309898	1203245	23559
93	2015-09-02 22:36:34	0	0	0	0	0	0	25.75	3.45	0.21	609310	0	107498	378536	609310	501812	21005	290	2052	212	309898	1203264	23559
94	2015-09-02 22:42:33	0	0	0	0	0	0	25.99	3.44	0.21	615423	0	108879	384763	615423	506544	21174	290	2062	214	312679	1203255	23740
95	2015-09-02 22:48:33	0	0	0	0	0	0	25.99	3.44	0.21	615423	0	108879	384763	615423	506544	21174	290	2062	214	312679	1203274	23740
96	2015-09-02 22:54:32	0	0	0	0	0	0	26.35	3.43	0.22	621917	0	110361	386842	621917	511556	21322	292	2087	216	317074	1203248	23917
97	2015-09-02 23:00:32	0	0	0	0	0	0	26.35	3.43	0.22	621917	0	110361	386842	621917	511556	21322	292	2087	216	317074	1203265	23917
98	2015-09-02 23:06:34	0	0	0	0	0	0	26.6	3.42	0.22	627767	0	111698	392525	627767	516069	21495	295	2099	216	320069	1203249	24105
99	2015-09-02 23:12:41	0	0	0	0	0	0	26.6	3.42	0.22	627767	0	111698	392525	627767	516069	21495	295	2099	216	320069	1203257	24105
100	2015-09-02 23:18:33	0	0	0	0	0	0	26.78	3.42	0.22	632866	0	112799	396515	632866	520067	21634	296	2116	216	322179	1203241	24262
101	2015-09-02 23:24:33	0	0	0	0	0	0	26.78	3.42	0.22	632866	0	112799	396515	632866	520067	21634	296	2116	216	322179	1203259	24262
102	2015-09-02 23:30:34	0	0	0	0	0	0	26.87	3.41	0.22	637282	0	113755	397600	637282	523527	21751	298	2131	218	323266	1203244	24398
103	2015-09-02 23:36:34	0	0	0	0	0	0	26.87	3.41	0.22	637282	0	113755	397600	637282	523527	21751	298	2131	218	323266	1203258	24398
104	2015-09-02 23:42:44	0	0	0	0	0	0	27	3.41	0.22	642150	0	114870	399844	642150	527280	21882	298	2137	220	324851	1203246	24537
105	2015-09-02 23:48:32	0	0	0	0	0	0	27	3.41	0.22	642150	0	114870	399844	642150	527280	21882	298	2137	220	324851	1203260	24537
106	2015-09-02 23:54:33	0	0	0	0	0	0	27.06	3.4	0.22	646342	0	115821	401156	646342	530521	21986	300	2152	220	325632	1203250	24658
107	2015-09-03 00:00:33	0	0	0	0	0	0	27.06	3.4	0.22	646342	0	115821	401156	646342	530521	21986	300	2152	220	325632	1203265	24658
108	2015-09-03 00:06:38	0	0	0	0	0	0	27.29	3.4	0.22	650062	0	116640	402931	650062	533422	22092	300	2169	220	328395	1203251	24781
109	2015-09-03 00:12:32	0	0	0	0	0	0	27.29	3.4	0.22	650062	0	116640	402931	650062	533422	22092	300	2169	220	328395	1203267	24781
110	2015-09-03 00:18:33	0	0	0	0	0	0	27.44	3.4	0.22	653406	0	117314	405277	653406	536092	22192	301	2184	220	330163	1203256	24897
111	2015-09-03 00:24:32	0	0	0	0	0	0	27.44	3.4	0.22	653406	0	117314	405277	653406	536092	22192	301	2184	220	330163	1203266	24897
112	2015-09-03 00:30:33	0	0	0	0	0	0	27.59	3.39	0.22	656798	0	118016	407113	656798	538782	22295	301	2197	220	331966	1203263	25013
113	2015-09-03 00:36:35	0	0	0	0	0	0	27.59	3.39	0.22	656798	0	118016	407113	656798	538782	22295	301	2197	220	331966	1203271	25013
114	2015-09-03 00:42:33	0	0	0	0	0	0	27.82	3.39	0.22	659185	0	118477	409481	659185	540708	22353	301	2204	220	334766	1203258	25078
115	2015-09-03 00:48:33	0	0	0	0	0	0	27.82	3.39	0.22	659185	0	118477	409481	659185	540708	22353	301	2204	220	334766	1203272	25078
116	2015-09-03 00:54:34	0	0	0	0	0	0	27.9	3.39	0.22	661841	0	119041	410459	661841	542800	22440	303	2213	222	335673	1203257	25178
117	2015-09-03 01:00:32	0	0	0	0	0	0	27.9	3.39	0.22	661841	0	119041	410459	661841	542800	22440	303	2213	222	335673	1203262	25178
118	2015-09-03 01:06:33	0	0	0	0	0	0	27.96	3.39	0.22	664041	0	119485	411960	664041	544556	22508	305	2222	222	336403	1203250	25257
119	2015-09-03 01:12:35	0	0	0	0	0	0	27.96	3.39	0.22	664041	0	119485	411960	664041	544556	22508	305	2222	222	336403	1203252	25257
120	2015-09-03 01:18:32	0	0	0	0	0	0	27.98	3.39	0.22	666040	0	119894	413142	666040	546146	22571	306	2232	222	336622	1203246	25331
121	2015-09-03 01:24:32	0	0	0	0	0	0	27.98	3.39	0.22	666040	0	119894	413142	666040	546146	22571	306	2232	222	336622	1203265	25331
122	2015-09-03 01:30:32	0	0	0	0	0	0	28.09	3.39	0.22	667648	0	120214	415046	667648	547434	22614	306	2235	223	338032	1203258	25378
123	2015-09-03 01:36:34	0	0	0	0	0	0	28.09	3.39	0.22	667648	0	120214	415046	667648	547434	22614	306	2235	223	338032	1203262	25378
124	2015-09-03 01:42:32	0	0	0	0	0	0	28.21	3.39	0.22	669033	0	120503	417171	669033	548530	22650	306	2240	223	339441	1203259	25419
125	2015-09-03 01:48:33	0	0	0	0	0	0	28.21	3.39	0.22	669033	0	120503	417171	669033	548530	22650	306	2240	223	339441	1203264	25419
126	2015-09-03 01:54:42	0	0	0	0	0	0	28.28	3.38	0.22	670418	0	120819	418538	670418	549599	22683	307	2243	223	340289	1203257	25456
127	2015-09-03 02:00:32	0	0	0	0	0	0	28.26	3.38	0.22	670418	0	120819	418538	670418	549599	22683	307	2243	223	340289	1203949	25456
128	2015-09-03 02:06:36	0	0	0	0	0	0	28.26	3.38	0.22	671534	0	121015	418538	671534	550519	22714	307	2245	223	340289	1203943	25489
129	2015-09-03 02:12:32	0	0	0	0	0	0	28.26	3.38	0.22	671534	0	121015	418538	671534	550519	22714	307	2245	223	340289	1203946	25489
130	2015-09-03 02:18:33	0	0	0	0	0	0	28.3	3.38	0.22	672379	0	121194	418935	672379	551185	22739	307	2248	224	340739	1203947	25518
131	2015-09-03 02:28:24	0	0	0	0	0	0	28.3	3.38	0.22	672379	0	121194	418935	672379	551185	22739	307	2248	224	340739	1203956	25518
132	2015-09-03 02:30:32	0	0	0	0	0	0	28.3	3.38	0.22	672379	0	121194	418935	672379	551185	22739	307	2248	224	340739	1203958	25518
133	2015-09-03 02:36:33	0	0	0	0	0	0	28.31	3.38	0.22	673500	0	121405	419161	673500	552095	22769	307	2251	224	340889	1203944	25551
134	2015-09-03 02:42:32	0	0	0	0	0	0	28.31	3.38	0.22	673500	0	121405	419161	673500	552095	22769	307	2251	224	340889	1203944	25551
135	2015-09-03 02:48:32	0	0	0	0	0	0	28.39	3.38	0.22	674141	0	121542	419445	674141	552599	22790	307	2254	224	341830	1203944	25575
136	2015-09-03 02:54:33	0	0	0	0	0	0	28.39	3.38	0.22	674141	0	121542	419445	674141	552599	22790	307	2254	224	341830	1203944	25575
137	2015-09-03 03:00:32	0	0	0	0	0	0	28.4	3.38	0.22	674892	0	121711	419559	674892	553181	22803	307	2255	224	341905	1203941	25589
138	2015-09-03 03:06:42	0	0	0	0	0	0	28.4	3.38	0.22	674892	0	121711	419559	674892	553181	22803	307	2255	224	341905	1203944	25589
139	2015-09-03 03:12:32	0	0	0	0	0	0	28.41	3.38	0.22	675359	0	121829	419787	675359	553530	22807	307	2256	224	342056	1203945	25594
140	2015-09-03 03:18:32	0	0	0	0	0	0	28.41	3.38	0.22	675359	0	121829	419787	675359	553530	22807	307	2256	224	342056	1203948	25594
141	2015-09-03 03:24:32	0	0	0	0	0	0	28.41	3.38	0.22	675737	0	121922	419787	675737	553815	22826	307	2257	224	342056	1203944	25614
142	2015-09-03 03:30:33	0	0	0	0	0	0	28.41	3.38	0.22	675737	0	121922	419787	675737	553815	22826	307	2257	224	342056	1203944	25614
143	2015-09-03 03:36:38	0	0	0	0	0	0	28.44	3.38	0.22	676126	0	122003	420242	676126	554123	22841	307	2257	224	342359	1203944	25629
144	2015-09-03 03:42:32	0	0	0	0	0	0	28.44	3.38	0.22	676126	0	122003	420242	676126	554123	22841	307	2257	224	342359	1203945	25629
145	2015-09-03 03:48:37	0	0	0	0	0	0	28.44	3.38	0.22	676319	0	122040	420242	676319	554279	22846	307	2257	224	342359	1203945	25634
146	2015-09-03 03:54:37	0	0	0	0	0	0	28.44	3.38	0.22	676319	0	122040	420242	676319	554279	22846	307	2257	224	342359	1203945	25634
147	2015-09-03 04:00:34	0	0	0	0	0	0	28.44	3.38	0.22	676704	0	122129	420242	676704	554575	22854	307	2260	225	342359	1203945	25646
148	2015-09-03 04:06:42	0	0	0	0	0	0	28.44	3.38	0.22	676704	0	122129	420242	676704	554575	22854	307	2260	225	342359	1203944	25646
149	2015-09-03 04:12:41	0	0	0	0	0	0	28.44	3.38	0.22	676988	0	122204	420242	676988	554784	22857	307	2260	225	342359	1203947	25649
150	2015-09-03 04:18:32	0	0	0	0	0	0	28.44	3.38	0.22	676988	0	122204	420242	676988	554784	22857	307	2260	225	342359	1203944	25649
151	2015-09-03 04:24:32	0	0	0	0	0	0	28.44	3.38	0.22	677257	0	122277	420328	677257	554980	22863	307	2260	225	342359	1203946	25655
152	2015-09-03 04:30:32	0	0	0	0	0	0	28.44	3.38	0.22	677257	0	122277	420328	677257	554980	22863	307	2260	225	342359	1203944	25655
153	2015-09-03 04:36:33	0	0	0	0	0	0	28.44	3.37	0.22	677520	0	122340	420328	677520	555180	22866	307	2260	225	342359	1203944	25658
154	2015-09-03 04:42:34	0	0	0	0	0	0	28.44	3.37	0.22	677520	0	122340	420328	677520	555180	22866	307	2260	225	342359	1203944	25658
155	2015-09-03 04:48:34	0	0	0	0	0	0	28.44	3.37	0.22	677794	0	122425	420328	677794	555369	22871	307	2261	225	342359	1203945	25664
156	2015-09-03 04:54:32	0	0	0	0	0	0	28.44	3.37	0.22	677794	0	122425	420328	677794	555369	22871	307	2261	225	342359	1203945	25664
157	2015-09-03 05:00:33	0	0	0	0	0	0	28.46	3.37	0.22	678136	0	122520	420784	678136	555616	22879	307	2264	225	342661	1203946	25675
158	2015-09-03 05:06:32	0	0	0	0	0	0	28.46	3.37	0.22	678136	0	122520	420784	678136	555616	22879	307	2264	225	342661	1203944	25675
159	2015-09-03 05:12:42	0	0	0	0	0	0	28.46	3.37	0.22	678503	0	122636	420784	678503	555867	22892	307	2265	225	342661	1203943	25689
160	2015-09-03 05:18:32	0	0	0	0	0	0	28.46	3.37	0.22	678503	0	122636	420784	678503	555867	22892	307	2265	225	342661	1203944	25689
161	2015-09-03 05:24:33	0	0	0	0	0	0	28.46	3.37	0.22	678892	0	122738	420784	678892	556154	22900	307	2266	225	342661	1203945	25698
162	2015-09-03 05:30:33	0	0	0	0	0	0	28.46	3.37	0.22	678892	0	122738	420784	678892	556154	22900	307	2266	225	342661	1203944	25698
163	2015-09-03 05:36:42	0	0	0	0	0	0	28.46	3.37	0.22	679299	0	122863	420784	679299	556436	22909	307	2268	225	342661	1203944	25709
164	2015-09-03 05:42:32	0	0	0	0	0	0	28.46	3.37	0.22	679299	0	122863	420784	679299	556436	22909	307	2268	225	342661	1203945	25709
165	2015-09-03 05:48:33	0	0	0	0	0	0	28.47	3.37	0.22	679857	0	123035	420899	679857	556822	22918	307	2269	225	342737	1203945	25719
166	2015-09-03 05:54:33	0	0	0	0	0	0	28.47	3.37	0.22	679857	0	123035	420899	679857	556822	22918	307	2269	225	342737	1203945	25719
167	2015-09-03 06:00:35	0	0	0	0	0	0	28.47	3.37	0.22	680345	0	123176	421242	680345	557169	22925	307	2272	226	342737	1203949	25730
168	2015-09-03 06:06:36	0	0	0	0	0	0	28.47	3.37	0.22	680345	0	123176	421242	680345	557169	22925	307	2272	226	342737	1203944	25730
169	2015-09-03 06:12:44	0	0	0	0	0	0	28.49	3.37	0.22	681070	0	123404	421823	681070	557666	22945	307	2276	226	342975	1203944	25754
170	2015-09-03 06:18:34	0	0	0	0	0	0	28.49	3.37	0.22	681070	0	123404	421823	681070	557666	22945	307	2276	226	342975	1203947	25754
171	2015-09-03 06:24:33	0	0	0	0	0	0	28.54	3.37	0.22	681845	0	123637	423099	681845	558208	22958	308	2276	226	343584	1203947	25768
172	2015-09-03 06:30:33	0	0	0	0	0	0	28.54	3.37	0.22	681845	0	123637	423099	681845	558208	22958	308	2276	226	343584	1203946	25768
173	2015-09-03 06:36:33	0	0	0	0	0	0	28.56	3.37	0.22	682701	0	123894	423157	682701	558807	22979	308	2279	226	343851	1203945	25792
174	2015-09-03 06:42:33	0	0	0	0	0	0	28.56	3.37	0.22	682701	0	123894	423157	682701	558807	22979	308	2279	226	343851	1203946	25792
175	2015-09-03 06:48:33	0	0	0	0	0	0	28.56	3.37	0.22	683512	0	124146	423736	683512	559366	23006	308	2280	226	343851	1203949	25820
176	2015-09-03 06:54:33	0	0	0	0	0	0	28.56	3.37	0.22	683512	0	124146	423736	683512	559366	23006	308	2280	226	343851	1203946	25820
177	2015-09-03 07:00:33	0	0	0	0	0	0	28.59	3.36	0.22	684466	0	124430	424200	684466	560036	23032	308	2281	226	344156	1203948	25847
178	2015-09-03 07:06:41	0	0	0	0	0	0	28.59	3.36	0.22	684466	0	124430	424200	684466	560036	23032	308	2281	226	344156	1203947	25847
179	2015-09-03 07:12:33	0	0	0	0	0	0	28.63	3.36	0.22	685675	0	124768	424695	685675	560907	23063	308	2286	226	344750	1203947	25883
180	2015-09-03 07:18:33	0	0	0	0	0	0	28.63	3.36	0.22	685675	0	124768	424695	685675	560907	23063	308	2286	226	344750	1203949	25883
181	2015-09-03 07:24:33	0	0	0	0	0	0	28.71	3.36	0.22	686974	0	125151	425980	686974	561823	23080	309	2290	226	345597	1203951	25905
182	2015-09-03 07:30:33	0	0	0	0	0	0	28.71	3.36	0.22	686974	0	125151	425980	686974	561823	23080	309	2290	226	345597	1203948	25905
183	2015-09-03 07:36:33	0	0	0	0	0	0	28.71	3.36	0.22	688282	0	125541	427141	688282	562741	23107	311	2293	226	345674	1203951	25937
184	2015-09-03 07:42:33	0	0	0	0	0	0	28.71	3.36	0.22	688282	0	125541	427141	688282	562741	23107	311	2293	226	345674	1203946	25937
185	2015-09-03 07:48:33	0	0	0	0	0	0	28.71	3.35	0.22	689738	0	125922	427141	689738	563816	23137	311	2295	226	345674	1203949	25969
186	2015-09-03 07:54:33	0	0	0	0	0	0	28.71	3.35	0.22	689738	0	125922	427141	689738	563816	23137	311	2295	226	345674	1203949	25969
187	2015-09-03 08:00:33	0	0	0	0	0	0	28.78	3.35	0.22	691354	0	126328	427908	691354	565026	23175	311	2299	227	346448	1203954	26012
188	2015-09-03 08:06:33	0	0	0	0	0	0	28.78	3.35	0.22	691354	0	126328	427908	691354	565026	23175	311	2299	227	346448	1203950	26012
189	2015-09-03 08:12:33	0	0	0	0	0	0	28.78	3.35	0.22	692191	0	126545	427908	692191	565646	23198	311	2302	227	346448	1203954	26038
190	2015-09-03 08:18:33	0	0	0	0	0	0	28.78	3.35	0.22	692191	0	126545	427908	692191	565646	23198	311	2302	227	346448	1203948	26038
191	2015-09-03 08:24:34	0	0	0	0	0	0	28.8	3.35	0.22	693964	0	127004	429302	693964	566960	23225	312	2303	227	346777	1203954	26067
192	2015-09-03 08:30:33	0	0	0	0	0	0	28.8	3.35	0.22	693964	0	127004	429302	693964	566960	23225	312	2303	227	346777	1203953	26067
193	2015-09-03 08:36:36	0	0	0	0	0	0	28.85	3.34	0.22	695739	0	127448	430197	695739	568291	23271	314	2307	227	347283	1203954	26119
194	2015-09-03 08:42:33	0	0	0	0	0	0	28.85	3.34	0.22	695739	0	127448	430197	695739	568291	23271	314	2307	227	347283	1203951	26119
195	2015-09-03 08:48:33	0	0	0	0	0	0	28.85	3.34	0.22	697409	0	127888	430197	697409	569521	23314	314	2309	227	347283	1203956	26164
196	2015-09-03 08:54:33	0	0	0	0	0	0	28.85	3.34	0.22	697409	0	127888	430197	697409	569521	23314	314	2309	227	347283	1203950	26164
197	2015-09-03 09:00:34	0	0	0	0	0	0	28.92	3.34	0.22	699042	0	128311	432375	699042	570731	23356	315	2314	227	348152	1203956	26212
198	2015-09-03 09:06:33	0	0	0	0	0	0	28.92	3.34	0.22	699042	0	128311	432375	699042	570731	23356	315	2314	227	348152	1203953	26212
199	2015-09-03 09:12:34	0	0	0	0	0	0	29.01	3.34	0.23	700533	0	128744	433187	700533	571789	23401	315	2318	227	349310	1203960	26261
200	2015-09-03 09:18:34	0	0	0	0	0	0	29.01	3.34	0.23	700533	0	128744	433187	700533	571789	23401	315	2318	227	349310	1203950	26261
201	2015-09-03 09:24:35	0	0	0	0	0	0	29.18	3.34	0.23	701951	0	129169	435136	701951	572782	23449	315	2322	227	351292	1203957	26313
202	2015-09-03 09:30:35	0	0	0	0	0	0	29.18	3.34	0.23	701951	0	129169	435136	701951	572782	23449	315	2322	227	351292	1203955	26313
203	2015-09-03 09:36:35	0	0	0	0	0	0	29.22	3.34	0.23	704276	0	129859	436708	704276	574417	23504	316	2325	227	351741	1203961	26372
204	2015-09-03 09:42:34	0	0	0	0	0	0	29.22	3.34	0.23	704276	0	129859	436708	704276	574417	23504	316	2325	227	351741	1203948	26372
205	2015-09-03 09:48:34	0	0	0	0	0	0	29.22	3.34	0.23	705142	0	130092	436824	705142	575050	23546	316	2328	228	351816	1203948	26418
206	2015-09-03 09:54:33	0	0	0	0	0	0	29.22	3.34	0.23	705142	0	130092	436824	705142	575050	23546	316	2328	228	351816	1203948	26418
207	2015-09-03 10:00:36	0	0	0	0	0	0	29.28	3.34	0.23	706607	0	130484	437256	706607	576123	23581	316	2330	229	352497	1203956	26456
208	2015-09-03 10:06:35	0	0	0	0	0	0	29.28	3.34	0.23	706607	0	130484	437256	706607	576123	23581	316	2330	229	352497	1203947	26456
209	2015-09-03 10:12:39	0	0	0	0	0	0	29.32	3.34	0.23	708135	0	130887	438354	708135	577248	23624	317	2333	229	352969	1203948	26503
210	2015-09-03 10:18:36	0	0	0	0	0	0	29.32	3.34	0.23	708135	0	130887	438354	708135	577248	23624	317	2333	229	352969	1203946	26503
211	2015-09-03 10:24:36	0	0	0	0	0	0	29.38	3.33	0.23	709754	0	131267	438945	709754	578487	23653	317	2343	229	353675	1203956	26542
212	2015-09-03 10:30:36	0	0	0	0	0	0	29.38	3.33	0.23	709754	0	131267	438945	709754	578487	23653	317	2343	229	353675	1203946	26542
213	2015-09-03 10:36:35	0	0	0	0	0	0	29.46	3.33	0.23	711328	0	131712	440130	711328	579616	23693	317	2347	229	354646	1203950	26586
214	2015-09-03 10:42:35	0	0	0	0	0	0	29.46	3.33	0.23	711328	0	131712	440130	711328	579616	23693	317	2347	229	354646	1203940	26586
215	2015-09-03 10:48:41	0	0	0	0	0	0	29.48	3.33	0.23	712861	0	132109	440631	712861	580752	23731	317	2351	229	354972	1203949	26628
216	2015-09-03 10:54:35	0	0	0	0	0	0	29.48	3.33	0.23	712861	0	132109	440631	712861	580752	23731	317	2351	229	354972	1203945	26628
217	2015-09-03 11:00:37	0	0	0	0	0	0	29.65	3.33	0.23	714433	0	132525	441888	714433	581908	23775	317	2361	229	356926	1203952	26682
218	2015-09-03 11:06:37	0	0	0	0	0	0	29.65	3.33	0.23	714433	0	132525	441888	714433	581908	23775	317	2361	229	356926	1203948	26682
219	2015-09-03 11:12:37	0	0	0	0	0	0	29.69	3.33	0.23	715760	0	132897	442141	715760	582863	23815	317	2366	229	357420	1203954	26727
220	2015-09-03 11:18:36	0	0	0	0	0	0	29.69	3.33	0.23	715760	0	132897	442141	715760	582863	23815	317	2366	229	357420	1203951	26727
221	2015-09-03 11:24:39	0	0	0	0	0	0	29.71	3.33	0.23	716979	0	133206	442646	716979	583773	23849	318	2373	229	357750	1203955	26769
222	2015-09-03 11:30:38	0	0	0	0	0	0	29.71	3.33	0.23	716979	0	133206	442646	716979	583773	23849	318	2373	229	357750	1203952	26769
223	2015-09-03 11:36:38	0	0	0	0	0	0	29.76	3.33	0.23	718340	0	133543	443431	718340	584797	23889	318	2376	229	358351	1203958	26812
224	2015-09-03 11:42:36	0	0	0	0	0	0	29.76	3.33	0.23	718340	0	133543	443431	718340	584797	23889	318	2376	229	358351	1203954	26812
225	2015-09-03 11:48:39	0	0	0	0	0	0	29.93	3.32	0.23	719922	0	133917	446144	719922	586005	23931	318	2376	230	360290	1203960	26855
226	2015-09-03 11:55:15	0	0	0	0	0	0	29.93	3.32	0.23	719922	0	133917	446144	719922	586005	23931	318	2376	230	360290	1203960	26855
227	2015-09-03 12:00:38	0	0	0	0	0	0	29.93	3.32	0.23	720547	0	134080	446144	720547	586467	23947	318	2379	230	360290	1203972	26874
228	2015-09-03 12:06:37	0	0	0	0	0	0	29.93	3.32	0.23	720547	0	134080	446144	720547	586467	23947	318	2379	230	360290	1203950	26874
229	2015-09-03 12:12:38	0	0	0	0	0	0	29.97	3.32	0.23	721987	0	134441	446909	721987	587546	23988	320	2387	230	360788	1203954	26925
230	2015-09-03 12:18:38	0	0	0	0	0	0	29.97	3.32	0.23	721987	0	134441	446909	721987	587546	23988	320	2387	230	360788	1203951	26925
231	2015-09-03 12:24:38	0	0	0	0	0	0	29.97	3.32	0.23	723313	0	134804	447426	723313	588509	24020	320	2387	230	360788	1203954	26957
232	2015-09-03 12:30:43	0	0	0	0	0	0	29.97	3.32	0.23	723313	0	134804	447426	723313	588509	24020	320	2387	230	360788	1203951	26957
233	2015-09-03 12:36:45	0	0	0	0	0	0	29.99	3.32	0.23	724546	0	135118	447684	724546	589428	24050	321	2390	230	361125	1203960	26991
234	2015-09-03 12:42:49	0	0	0	0	0	0	30	3.32	0.23	724546	0	135118	447684	724546	589428	24050	321	2390	230	361125	1203949	26991
235	2015-09-03 12:48:41	0	0	0	0	0	0	30.01	3.32	0.23	725717	0	135424	447968	725717	590293	24080	321	2391	230	361330	1203955	27022
236	2015-09-03 12:54:41	0	0	0	0	0	0	30.01	3.32	0.23	725717	0	135424	447968	725717	590293	24080	321	2391	230	361330	1203951	27022
237	2015-09-03 13:00:41	0	0	0	0	0	0	30.04	3.32	0.23	727035	0	135776	448731	727035	591259	24106	321	2393	230	361700	1203959	27050
238	2015-09-03 13:06:41	0	0	0	0	0	0	30.04	3.32	0.23	727035	0	135776	448731	727035	591259	24106	321	2393	230	361700	1203945	27050
239	2015-09-03 13:12:47	0	0	0	0	0	0	30.07	3.31	0.23	728098	0	136030	448975	728098	592068	24129	323	2395	230	362027	1203950	27077
240	2015-09-03 13:18:41	0	0	0	0	0	0	30.07	3.31	0.23	728098	0	136030	448975	728098	592068	24129	323	2395	230	362027	1203945	27077
241	2015-09-03 13:24:41	0	0	0	0	0	0	30.12	3.31	0.23	729205	0	136336	449627	729205	592869	24156	324	2398	230	362621	1203950	27108
242	2015-09-03 13:30:43	0	0	0	0	0	0	30.12	3.31	0.23	729205	0	136336	449627	729205	592869	24156	324	2398	230	362621	1203947	27108
243	2015-09-03 13:36:39	0	0	0	0	0	0	30.2	3.31	0.23	730228	0	136572	450670	730228	593656	24177	324	2399	230	363640	1203954	27130
244	2015-09-03 13:42:39	0	0	0	0	0	0	30.2	3.31	0.23	730228	0	136572	450670	730228	593656	24177	324	2399	230	363640	1203948	27130
245	2015-09-03 13:48:41	0	0	0	0	0	0	30.21	3.31	0.23	731068	0	136814	450719	731068	594254	24205	324	2400	230	363672	1203955	27159
246	2015-09-03 13:54:39	0	0	0	0	0	0	30.21	3.31	0.23	731068	0	136814	450719	731068	594254	24205	324	2400	230	363672	1203947	27159
247	2015-09-03 14:00:39	0	0	0	0	0	0	30.22	3.31	0.23	732013	0	137053	450949	732013	594960	24232	324	2401	231	363822	1203959	27188
248	2015-09-03 14:06:42	0	0	0	0	0	0	30.22	3.31	0.23	732013	0	137053	450949	732013	594960	24232	324	2401	231	363822	1203945	27188
249	2015-09-03 14:12:39	0	0	0	0	0	0	30.22	3.31	0.23	732903	0	137287	451080	732903	595616	24255	324	2402	231	363822	1203953	27212
250	2015-09-03 14:20:05	0	0	0	0	0	0	30.22	3.31	0.23	732903	0	137287	451080	732903	595616	24255	324	2402	231	363822	1203951	27212
251	2015-09-03 14:26:08	0	0	0	0	0	0	30.25	3.31	0.23	733852	0	137549	451211	733852	596303	24281	324	2402	231	364250	1203957	27238
252	2015-09-03 14:31:26	0	0	0	0	0	0	30.25	3.31	0.23	733852	0	137549	451211	733852	596303	24281	324	2402	231	364250	1203953	27238
253	2015-09-03 14:36:43	0	0	0	0	0	0	30.36	3.31	0.23	734800	0	137827	452630	734800	596973	24305	324	2404	232	365518	1203959	27265
254	2015-09-03 14:43:21	0	0	0	0	0	0	30.36	3.31	0.23	734800	0	137827	452630	734800	596973	24305	324	2404	232	365518	1203953	27265
255	2015-09-03 14:48:41	0	0	0	0	0	0	30.36	3.31	0.23	736004	0	138180	452696	736004	597824	24334	324	2404	232	365562	1203961	27294
256	2015-09-03 14:55:10	0	0	0	0	0	0	30.36	3.31	0.23	736004	0	138180	452696	736004	597824	24334	324	2404	232	365562	1203948	27294
257	2015-09-03 15:00:42	0	0	0	0	0	0	30.36	3.31	0.23	736429	0	138307	453027	736429	598122	24345	324	2407	232	365562	1203954	27308
258	2015-09-03 15:06:41	0	0	0	0	0	0	30.36	3.31	0.23	736429	0	138307	453027	736429	598122	24345	324	2407	232	365562	1203950	27308
259	2015-09-03 15:18:39	0	0	0	0	0	0	30.37	3.3	0.23	737724	0	138696	453143	737724	599028	24370	324	2408	232	365637	1203965	27334
260	2015-09-03 15:24:37	0	0	0	0	0	0	30.37	3.3	0.23	737724	0	138696	453143	737724	599028	24370	324	2408	232	365637	1203974	27334
261	2015-09-03 15:30:38	0	0	0	0	0	0	30.4	3.3	0.23	738672	0	138995	453193	738672	599677	24395	325	2413	232	365961	1203954	27365
262	2015-09-03 15:36:37	0	0	0	0	0	0	30.4	3.3	0.23	738672	0	138995	453193	738672	599677	24395	325	2413	232	365961	1203964	27365
263	2015-09-03 15:42:37	0	0	0	0	0	0	30.5	3.3	0.23	739572	0	139287	453458	739572	600285	24418	325	2416	232	367176	1203946	27391
264	2015-09-03 15:48:38	0	0	0	0	0	0	30.5	3.3	0.23	739572	0	139287	453458	739572	600285	24418	325	2416	232	367176	1203953	27391
265	2015-09-03 15:54:37	0	0	0	0	0	0	30.58	3.3	0.23	740401	0	139564	453525	740401	600837	24436	325	2417	232	368224	1203952	27410
266	2015-09-03 16:00:37	0	0	0	0	0	0	30.58	3.3	0.23	740401	0	139564	453525	740401	600837	24436	325	2417	232	368224	1203966	27410
267	2015-09-03 16:06:40	0	0	0	0	0	0	30.61	3.3	0.23	741258	0	139856	454040	741258	601402	24453	325	2419	232	368564	1203959	27429
268	2015-09-03 16:12:39	0	0	0	0	0	0	30.61	3.3	0.23	741258	0	139856	454040	741258	601402	24453	325	2419	232	368564	1203964	27429
269	2015-09-03 16:18:39	0	0	0	0	0	0	30.62	3.3	0.23	742134	0	140143	454173	742134	601991	24482	325	2424	232	368652	1203963	27463
270	2015-09-03 16:24:37	0	0	0	0	0	0	30.62	3.3	0.23	742134	0	140143	454173	742134	601991	24482	325	2424	232	368652	1203968	27463
271	2015-09-03 16:30:38	0	0	0	0	0	0	30.7	3.3	0.23	743442	0	140553	456416	743442	602889	24512	326	2430	232	369642	1203961	27500
272	2015-09-03 16:36:38	0	0	0	0	0	0	30.7	3.3	0.23	743442	0	140553	456416	743442	602889	24512	326	2430	232	369642	1203967	27500
273	2015-09-03 16:42:38	0	0	0	0	0	0	30.71	3.3	0.23	744231	0	140846	456685	744231	603385	24538	326	2433	232	369730	1203959	27529
274	2015-09-03 16:48:40	0	0	0	0	0	0	30.71	3.3	0.23	744231	0	140846	456685	744231	603385	24538	326	2433	232	369730	1203964	27529
275	2015-09-03 16:54:39	0	0	0	0	0	0	30.76	3.3	0.23	744711	0	141008	457478	744711	603703	24548	326	2436	232	370338	1203959	27542
276	2015-09-03 17:00:40	0	0	0	0	0	0	30.76	3.3	0.23	744711	0	141008	457478	744711	603703	24548	326	2436	232	370338	1203974	27542
277	2015-09-03 17:06:45	0	0	0	0	0	0	30.77	3.3	0.23	745515	0	141272	457681	745515	604243	24566	326	2437	232	370471	1203957	27561
278	2015-09-03 17:12:40	0	0	0	0	0	0	30.77	3.3	0.23	745515	0	141272	457681	745515	604243	24566	326	2437	232	370471	1203968	27561
279	2015-09-03 17:18:47	0	0	0	0	0	0	30.8	3.29	0.23	746389	0	141544	458630	746389	604845	24590	326	2441	232	370782	1203963	27589
280	2015-09-03 17:24:41	0	0	0	0	0	0	30.8	3.29	0.23	746389	0	141544	458630	746389	604845	24590	326	2441	232	370782	1203971	27589
281	2015-09-03 17:30:39	0	0	0	0	0	0	30.8	3.29	0.23	747100	0	141767	458630	747100	605333	24608	326	2443	232	370871	1203958	27609
282	2015-09-03 17:36:40	0	0	0	0	0	0	30.8	3.29	0.23	747100	0	141767	458630	747100	605333	24608	326	2443	232	370871	1203959	27609
283	2015-09-03 17:42:42	0	0	0	0	0	0	30.81	3.29	0.23	747923	0	142005	458698	747923	605918	24625	326	2443	232	370915	1203964	27626
284	2015-09-03 17:48:42	0	0	0	0	0	0	30.81	3.29	0.23	747923	0	142005	458698	747923	605918	24625	326	2443	232	370915	1203973	27626
285	2015-09-03 17:54:40	0	0	0	0	0	0	30.81	3.29	0.23	748724	0	142236	458970	748724	606488	24638	326	2443	232	370915	1203963	27639
286	2015-09-03 18:00:39	0	0	0	0	0	0	30.81	3.29	0.23	748724	0	142236	458970	748724	606488	24638	326	2443	232	370915	1203967	27639
287	2015-09-03 18:06:42	0	0	0	0	0	0	30.83	3.29	0.23	749819	0	142560	459378	749819	607259	24665	327	2448	232	371182	1203962	27672
288	2015-09-03 18:12:39	0	0	0	0	0	0	30.83	3.29	0.23	749819	0	142560	459378	749819	607259	24665	327	2448	232	371182	1203972	27672
289	2015-09-03 18:18:43	0	0	0	0	0	0	30.85	3.29	0.23	750570	0	142792	459498	750570	607778	24676	327	2449	233	371438	1203973	27685
290	2015-09-03 18:24:39	0	0	0	0	0	0	30.85	3.29	0.23	750570	0	142792	459498	750570	607778	24676	327	2449	233	371438	1203981	27685
291	2015-09-03 18:30:38	0	0	0	0	0	0	30.85	3.29	0.24	751208	0	142974	459771	751208	608234	24695	328	2449	233	371438	1203961	27705
292	2015-09-03 18:36:39	0	0	0	0	0	0	30.85	3.29	0.24	751208	0	142974	459771	751208	608234	24695	328	2449	233	371438	1203970	27705
293	2015-09-03 18:42:39	0	0	0	0	0	0	30.88	3.29	0.24	751908	0	143202	460386	751908	608706	24719	329	2449	233	371750	1203962	27730
294	2015-09-03 18:48:41	0	0	0	0	0	0	30.88	3.29	0.24	751908	0	143202	460386	751908	608706	24719	329	2449	233	371750	1203964	27730
295	2015-09-03 18:54:40	0	0	0	0	0	0	30.88	3.29	0.24	752593	0	143408	460386	752593	609185	24737	329	2452	233	371750	1203966	27751
296	2015-09-03 19:00:41	0	0	0	0	0	0	30.88	3.29	0.24	752593	0	143408	460386	752593	609185	24737	329	2452	233	371750	1203973	27751
297	2015-09-03 19:06:45	0	0	0	0	0	0	30.93	3.29	0.24	753342	0	143653	461507	753342	609689	24751	329	2454	233	372375	1203963	27767
298	2015-09-03 19:12:48	0	0	0	0	0	0	30.93	3.29	0.24	753342	0	143653	461507	753342	609689	24751	329	2454	233	372375	1203969	27767
299	2015-09-03 19:18:43	0	0	0	0	0	0	31.18	3.29	0.24	754061	0	143874	465549	754061	610187	24772	329	2455	233	375365	1203965	27789
300	2015-09-03 19:24:42	0	0	0	0	0	0	31.18	3.29	0.24	754061	0	143874	465549	754061	610187	24772	329	2455	233	375365	1203965	27789
301	2015-09-03 19:30:39	0	0	0	0	0	0	31.21	3.29	0.24	754613	0	144035	466180	754613	610578	24792	329	2456	233	375775	1203964	27810
302	2015-09-03 19:36:41	0	0	0	0	0	0	31.21	3.29	0.24	754613	0	144035	466180	754613	610578	24792	329	2456	233	375775	1203974	27810
303	2015-09-03 19:42:41	0	0	0	0	0	0	31.24	3.28	0.24	755225	0	144259	466672	755225	610966	24806	330	2458	234	376095	1203971	27828
304	2015-09-03 19:48:40	0	0	0	0	0	0	31.24	3.28	0.24	755225	0	144259	466672	755225	610966	24806	330	2458	234	376095	1203972	27828
305	2015-09-03 19:54:39	0	0	0	0	0	0	31.24	3.29	0.24	755729	0	144477	466672	755729	611252	24826	330	2459	234	376095	1203959	27849
306	2015-09-03 20:00:39	0	0	0	0	0	0	31.24	3.29	0.24	755729	0	144477	466672	755729	611252	24826	330	2459	234	376095	1203967	27849
307	2015-09-03 20:06:40	0	0	0	0	0	0	31.24	3.28	0.24	756142	0	144643	466672	756142	611499	24833	330	2459	234	376095	1203960	27856
308	2015-09-03 20:12:39	0	0	0	0	0	0	31.24	3.28	0.24	756142	0	144643	466672	756142	611499	24833	330	2459	234	376095	1203961	27856
309	2015-09-03 20:18:44	0	0	0	0	0	0	31.26	3.28	0.24	756532	0	144808	467165	756532	611724	24841	330	2459	234	376415	1203957	27864
310	2015-09-03 20:24:40	0	0	0	0	0	0	31.26	3.28	0.24	756712	0	144883	467165	756712	611829	24843	330	2459	234	376415	1203957	27866
311	2015-09-03 20:30:46	0	0	0	0	0	0	31.26	3.28	0.24	756712	0	144883	467165	756712	611829	24843	330	2459	234	376415	1203959	27866
312	2015-09-03 20:36:40	0	0	0	0	0	0	31.26	3.28	0.24	757185	0	145070	467165	757185	612115	24868	330	2460	234	376415	1203954	27892
313	2015-09-03 20:42:38	0	0	0	0	0	0	31.26	3.28	0.24	757185	0	145070	467165	757185	612115	24868	330	2460	234	376415	1203958	27892
314	2015-09-03 20:48:39	0	0	0	0	0	0	31.27	3.28	0.24	757647	0	145242	467200	757647	612405	24882	332	2461	234	376438	1203954	27909
315	2015-09-03 20:54:39	0	0	0	0	0	0	31.27	3.28	0.24	757647	0	145242	467200	757647	612405	24882	332	2461	234	376438	1203963	27909
316	2015-09-03 21:00:53	0	0	0	0	0	0	31.27	3.28	0.24	758275	0	145476	467200	758275	612799	24891	332	2464	234	376438	1203955	27921
317	2015-09-03 21:06:40	0	0	0	0	0	0	31.27	3.28	0.24	758275	0	145476	467200	758275	612799	24891	332	2464	234	376438	1203964	27921
318	2015-09-03 21:12:41	0	0	0	0	0	0	31.27	3.28	0.24	758817	0	145671	467200	758817	613146	24899	332	2465	234	376438	1203949	27930
319	2015-09-03 21:18:51	0	0	0	0	0	0	31.27	3.28	0.24	758817	0	145671	467200	758817	613146	24899	332	2465	234	376438	1203954	27930
320	2015-09-03 21:24:41	0	0	0	0	0	0	31.31	3.28	0.24	759397	0	145870	467482	759397	613527	24913	332	2466	234	376988	1203948	27945
321	2015-09-03 21:30:50	0	0	0	0	0	0	31.31	3.28	0.24	759397	0	145870	467482	759397	613527	24913	332	2466	234	376988	1203957	27945
322	2015-09-03 21:36:44	0	0	0	0	0	0	31.31	3.28	0.24	759991	0	146064	467482	759991	613927	24927	332	2467	234	376988	1203948	27960
323	2015-09-03 21:42:42	0	0	0	0	0	0	31.31	3.28	0.24	759991	0	146064	467482	759991	613927	24927	332	2467	234	376988	1203950	27960
