1	2016-04-08 19:14:34	0	0	0	0	0	0	1.47	1.4	0	28982	0	44	25060	28982	28938	407	4	46	1	25031	1705267	458
2	2016-04-08 19:24:32	0	0	0	0	0	0	2.48	1.75	0	51391	0	156	42307	51391	51235	901	5	85	5	42229	1705281	996
3	2016-04-08 19:34:33	0	0	0	0	0	0	3.91	2.01	0.01	85989	0	492	66883	85989	85497	1728	9	130	12	66636	1705291	1879
4	2016-04-08 19:44:33	0	0	0	0	0	0	4.8	2.1	0.01	108872	0	828	82331	108872	108044	2282	14	153	16	81788	1705300	2465
5	2016-04-08 19:54:34	0	0	0	0	0	0	5.27	2.1	0.01	121792	0	1018	90174	121792	120774	2558	15	164	19	89819	1705302	2756
6	2016-04-08 20:04:34	0	0	0	0	0	0	5.95	2.09	0.01	141428	0	1371	101734	141428	140057	2961	17	194	25	101391	1705307	3197
7	2016-04-08 20:14:34	0	0	0	0	0	0	6.25	2.09	0.01	150855	0	1541	107263	150855	149314	3155	17	208	28	106548	1705324	3408
8	2016-04-08 20:24:35	0	0	0	0	0	0	6.55	2	0.01	167615	0	1864	118702	167615	165751	3349	17	217	28	111769	1705336	3611
9	2016-04-08 20:34:33	0	0	0	0	0	0	7.14	2.11	0.01	175083	0	2021	123279	175083	173062	3690	18	233	32	121817	1705346	3973
10	2016-04-08 20:44:33	0	0	0	0	0	0	7.6	2.12	0.01	186791	0	2241	131231	186791	184550	3954	20	242	35	129532	1705353	4251
11	2016-04-08 20:54:34	0	0	0	0	0	0	7.93	2.13	0.01	193373	0	2370	136488	193373	191003	4112	20	250	38	135280	1705362	4420
12	2016-04-08 21:04:34	0	0	0	0	0	0	8.44	2.14	0.01	207353	0	2687	145466	207353	204666	4437	21	259	38	143881	1705371	4755
13	2016-04-08 21:14:34	0	0	0	0	0	0	8.56	2.15	0.01	213007	0	2810	147380	213007	210197	4571	21	269	41	145946	1705376	4902
14	2016-04-08 21:24:35	0	0	0	0	0	0	8.97	2.14	0.01	224622	0	3068	155115	224622	221554	4818	24	282	43	152950	1705384	5167
15	2016-04-08 21:34:35	0	0	0	0	0	0	9.24	2.15	0.01	230156	0	3189	159751	230156	226967	4945	24	289	43	157585	1705426	5301
16	2016-04-08 21:44:35	0	0	0	0	0	0	9.56	2.15	0.01	240431	0	3459	165050	240431	236972	5176	24	305	44	163090	1705531	5549
17	2016-04-08 21:54:35	0	0	0	0	0	0	9.73	2.16	0.01	245746	0	3588	167845	245746	242158	5317	27	312	45	165961	1705693	5701
18	2016-04-08 22:04:35	0	0	0	0	0	0	9.96	2.16	0.02	254555	0	3876	172408	254555	250679	5501	28	317	47	169916	1705870	5893
19	2016-04-08 22:14:36	0	0	0	0	0	0	10.24	2.15	0.02	264988	0	4130	178529	264988	260858	5700	28	326	47	174778	1706037	6101
20	2016-04-08 22:24:36	0	0	0	0	0	0	10.41	2.15	0.02	269588	0	4238	181626	269588	265350	5794	29	330	47	177582	1706203	6200
21	2016-04-08 22:34:35	0	0	0	0	0	0	10.71	2.15	0.02	279483	0	4509	186999	279483	274974	6004	31	345	49	182828	1706428	6429
22	2016-04-08 22:44:35	0	0	0	0	0	0	11.01	2.15	0.02	288590	0	4711	192253	288590	283879	6204	31	358	49	187825	1706594	6642
23	2016-04-08 22:54:37	0	0	0	0	0	0	11.1	2.15	0.02	292240	0	4812	193983	292240	287428	6272	31	364	49	189476	1706798	6716
24	2016-04-08 23:04:36	0	0	0	0	0	0	11.46	2.15	0.02	300463	0	5017	200548	300463	295446	6460	33	370	49	195586	1707005	6912
25	2016-04-08 23:14:36	0	0	0	0	0	0	11.61	2.15	0.02	304159	0	5109	202854	304159	299050	6539	34	373	50	198234	1707241	6996
26	2016-04-08 23:24:36	0	0	0	0	0	0	11.83	2.15	0.02	312118	0	5303	206163	312118	306815	6699	35	382	51	201919	1707477	7167
27	2016-04-08 23:34:36	0	0	0	0	0	0	11.96	2.14	0.02	316668	0	5421	208611	316668	311247	6790	36	390	51	204266	1707724	7267
28	2016-04-08 23:45:12	0	0	0	0	0	0	12.32	2.13	0.02	325129	0	5632	215497	325129	319497	6940	36	396	51	210405	1708015	7423
29	2016-04-08 23:54:37	0	0	0	0	0	0	12.49	2.13	0.02	329532	0	5734	218461	329532	323798	7020	36	400	51	213444	1708272	7507
30	2016-04-09 00:04:36	0	0	0	0	0	0	12.57	2.13	0.02	332669	0	5809	219854	332669	326860	7098	36	404	52	214773	1708516	7590
31	2016-04-09 00:14:36	0	0	0	0	0	0	12.88	2.13	0.02	340403	0	6015	225387	340403	334388	7265	37	414	55	220081	1708743	7771
32	2016-04-09 00:24:36	0	0	0	0	0	0	13.07	2.13	0.02	346668	0	6205	228808	346668	340463	7392	38	424	56	223350	1708943	7910
33	2016-04-09 00:34:36	0	0	0	0	0	0	13.14	2.13	0.02	349461	0	6275	230223	349461	343186	7453	38	428	56	224535	1709126	7975
34	2016-04-09 00:44:36	0	0	0	0	0	0	13.34	2.13	0.02	355441	0	6434	233896	355441	349007	7571	38	435	56	228028	1709330	8100
35	2016-04-09 00:54:37	0	0	0	0	0	0	13.44	2.14	0.02	360630	0	6590	235683	360630	354040	7701	39	444	56	229726	1709553	8240
36	2016-04-09 01:04:37	0	0	0	0	0	0	13.49	2.13	0.02	363145	0	6650	236665	363145	356495	7745	39	448	56	230607	1709733	8288
37	2016-04-09 01:14:36	0	0	0	0	0	0	13.65	2.13	0.02	368371	0	6818	239892	368371	361553	7843	40	457	56	233459	1709876	8396
38	2016-04-09 01:24:36	0	0	0	0	0	0	13.78	2.13	0.02	370691	0	6891	241860	370691	363800	7883	40	461	56	235680	1710020	8440
39	2016-04-09 01:34:36	0	0	0	0	0	0	13.93	2.12	0.02	375816	0	7056	245109	375816	368760	7979	40	470	57	238222	1710179	8546
40	2016-04-09 01:44:36	0	0	0	0	0	0	14.01	2.12	0.02	378244	0	7141	247109	378244	371103	8037	40	472	57	239591	1710324	8606
41	2016-04-09 01:54:37	0	0	0	0	0	0	14.21	2.13	0.02	382450	0	7260	249931	382450	375190	8128	40	478	57	243023	1710446	8703
42	2016-04-09 02:04:36	0	0	0	0	0	0	14.29	2.12	0.02	384540	0	7315	251514	384540	377225	8170	41	480	57	244519	1710571	8748
43	2016-04-09 02:14:37	0	0	0	0	0	0	14.39	2.13	0.02	387809	0	7418	253201	387809	380391	8251	42	484	57	246113	1710692	8834
44	2016-04-09 02:24:36	0	0	0	0	0	0	14.51	2.13	0.02	390643	0	7508	255491	390643	383135	8328	42	486	57	248276	1710785	8913
45	2016-04-09 02:34:37	0	0	0	0	0	0	14.52	2.13	0.02	392138	0	7545	255657	392138	384593	8363	42	487	58	248433	1710862	8950
46	2016-04-09 02:44:37	0	0	0	0	0	0	14.54	2.13	0.02	394787	0	7611	256499	394787	387176	8428	42	487	58	248747	1710941	9015
47	2016-04-09 02:54:37	0	0	0	0	0	0	14.61	2.13	0.02	397356	0	7672	257866	397356	389684	8462	43	489	58	250033	1711006	9052
48	2016-04-09 03:04:37	0	0	0	0	0	0	14.69	2.14	0.02	398519	0	7691	258642	398519	390828	8518	43	491	59	250762	1707467	9111
49	2016-04-09 03:14:38	0	0	0	0	0	0	14.79	2.14	0.02	400750	0	7729	260513	400750	393021	8563	43	497	59	252521	1707527	9162
50	2016-04-09 03:24:37	0	0	0	0	0	0	14.81	2.14	0.02	401967	0	7766	261259	401967	394201	8589	43	497	59	252973	1707575	9188
51	2016-04-09 02:34:37	0	0	0	0	0	0	14.84	2.14	0.02	403750	0	7817	261607	403750	395933	8622	44	499	59	253465	1707616	9224
52	2016-04-09 02:44:37	0	0	0	0	0	0	14.85	2.14	0.02	404617	0	7837	261651	404617	396780	8644	44	499	59	253506	1707660	9246
53	2016-04-09 02:54:38	0	0	0	0	0	0	14.91	2.14	0.02	406175	0	7874	262527	406175	398301	8683	45	503	59	254664	1707705	9290
54	2016-04-09 03:04:38	0	0	0	0	0	0	14.95	2.14	0.02	407670	0	7900	263264	407670	399770	8722	45	509	61	255357	1707740	9337
55	2016-04-09 03:14:38	0	0	0	0	0	0	14.95	2.14	0.02	408331	0	7921	263353	408331	400410	8732	45	509	61	255357	1707774	9347
56	2016-04-09 03:24:38	0	0	0	0	0	0	14.99	2.14	0.02	409648	0	7960	263982	409648	401688	8757	45	510	61	255948	1707802	9373
57	2016-04-09 03:34:38	0	0	0	0	0	0	15.01	2.14	0.02	410135	0	7972	264337	410135	402163	8771	45	510	61	256281	1707831	9387
58	2016-04-09 03:44:37	0	0	0	0	0	0	15.04	2.14	0.02	411312	0	8017	265003	411312	403295	8803	46	511	61	256907	1707852	9421
59	2016-04-09 03:54:36	0	0	0	0	0	0	15.05	2.14	0.02	411798	0	8035	265139	411798	403763	8820	46	512	61	257035	1707866	9439
60	2016-04-09 04:04:37	0	0	0	0	0	0	15.07	2.14	0.02	412677	0	8074	265479	412677	404603	8848	46	513	61	257354	1707886	9468
61	2016-04-09 04:14:38	0	0	0	0	0	0	15.07	2.15	0.02	413161	0	8088	265570	413161	405073	8867	46	513	61	257440	1707904	9487
62	2016-04-09 04:24:37	0	0	0	0	0	0	15.11	2.15	0.02	413825	0	8110	266389	413825	405715	8883	46	513	61	258124	1707921	9503
63	2016-04-09 04:34:37	0	0	0	0	0	0	15.15	2.15	0.02	414208	0	8121	266561	414208	406087	8891	46	513	61	258804	1707942	9511
64	2016-04-09 04:45:22	0	0	0	0	0	0	15.18	2.15	0.02	414842	0	8140	267136	414842	406702	8910	46	516	62	259346	1707958	9534
65	2016-04-09 04:54:37	0	0	0	0	0	0	15.18	2.15	0.02	415501	0	8164	267136	415501	407337	8919	46	517	62	259346	1707972	9544
66	2016-04-09 05:04:38	0	0	0	0	0	0	15.19	2.15	0.02	415789	0	8172	267275	415789	407617	8929	46	517	62	259476	1707990	9554
67	2016-04-09 05:14:38	0	0	0	0	0	0	15.19	2.15	0.02	416114	0	8181	267275	416114	407933	8938	46	518	62	259476	1708007	9564
68	2016-04-09 05:24:37	0	0	0	0	0	0	15.2	2.15	0.02	416760	0	8193	267431	416760	408567	8945	46	518	62	259623	1708027	9571
69	2016-04-09 05:34:36	0	0	0	0	0	0	15.22	2.15	0.02	417458	0	8210	267725	417458	409248	8958	46	519	62	259901	1708053	9585
70	2016-04-09 05:44:36	0	0	0	0	0	0	15.22	2.15	0.02	417800	0	8226	267725	417800	409574	8968	46	519	62	259901	1708070	9595
71	2016-04-09 05:54:36	0	0	0	0	0	0	15.23	2.15	0.02	418380	0	8242	268003	418380	410138	8983	46	519	62	260163	1708087	9610
72	2016-04-09 06:04:36	0	0	0	0	0	0	15.23	2.15	0.02	418759	0	8258	268003	418759	410501	8985	46	519	62	260163	1708110	9612
73	2016-04-09 06:14:37	0	0	0	0	0	0	15.26	2.15	0.02	419496	0	8284	268537	419496	411212	9003	46	519	62	260665	1708137	9630
74	2016-04-09 06:24:36	0	0	0	0	0	0	15.27	2.15	0.02	419928	0	8291	268630	419928	411637	9014	46	519	62	260753	1708169	9641
75	2016-04-09 06:34:36	0	0	0	0	0	0	15.28	2.15	0.02	420852	0	8330	268816	420852	412522	9035	47	520	62	260929	1708204	9664
76	2016-04-09 06:44:37	0	0	0	0	0	0	15.29	2.15	0.02	421393	0	8351	269190	421393	413042	9045	47	522	62	261237	1708246	9676
77	2016-04-09 06:54:36	0	0	0	0	0	0	15.29	2.15	0.02	422474	0	8407	269389	422474	414067	9068	47	524	62	261248	1708290	9701
78	2016-04-09 07:04:36	0	0	0	0	0	0	15.32	2.14	0.02	423455	0	8449	269530	423455	415006	9083	47	524	62	261645	1708336	9716
79	2016-04-09 07:14:37	0	0	0	0	0	0	15.34	2.14	0.02	424073	0	8468	269953	424073	415605	9094	47	524	62	262044	1708391	9727
80	2016-04-09 07:24:37	0	0	0	0	0	0	15.34	2.14	0.02	424773	0	8492	269953	424773	416281	9106	47	524	62	262044	1708455	9739
81	2016-04-09 07:34:36	0	0	0	0	0	0	15.41	2.14	0.02	426347	0	8565	271168	426347	417782	9131	48	525	62	263278	1708521	9766
82	2016-04-09 07:44:36	0	0	0	0	0	0	15.45	2.14	0.02	427074	0	8598	271882	427074	418476	9145	48	531	62	263951	1708602	9786
83	2016-04-09 07:54:36	0	0	0	0	0	0	15.49	2.14	0.02	429078	0	8672	272666	429078	420406	9186	48	534	63	264690	1708684	9831
84	2016-04-09 08:04:37	0	0	0	0	0	0	15.57	2.14	0.02	430795	0	8749	274181	430795	422046	9218	48	536	63	266083	1708774	9865
85	2016-04-09 08:14:36	0	0	0	0	0	0	15.65	2.14	0.02	431800	0	8799	275352	431800	423001	9245	48	536	63	267370	1708894	9892
86	2016-04-09 08:24:37	0	0	0	0	0	0	15.74	2.15	0.02	434141	0	8892	277070	434141	425249	9327	50	540	64	268990	1709013	9981
87	2016-04-09 08:34:37	0	0	0	0	0	0	15.75	2.15	0.02	435221	0	8932	277331	435221	426289	9358	50	540	64	269236	1709113	10012
88	2016-04-09 08:44:38	0	0	0	0	0	0	15.79	2.15	0.02	437576	0	9036	278128	437576	428540	9409	51	542	64	269893	1709241	10066
89	2016-04-09 08:54:36	0	0	0	0	0	0	15.86	2.15	0.02	438970	0	9091	279326	438970	429879	9442	52	545	64	271021	1709372	10103
90	2016-04-09 09:05:17	0	0	0	0	0	0	15.94	2.15	0.02	441602	0	9197	280817	441602	432405	9508	55	548	64	272425	1709538	10175
91	2016-04-09 09:14:38	0	0	0	0	0	0	16.1	2.16	0.02	444187	0	9293	283803	444187	434894	9577	55	552	64	275234	1709692	10248
92	2016-04-09 09:24:37	0	0	0	0	0	0	16.11	2.16	0.02	445826	0	9371	284220	445826	436455	9621	56	554	65	275528	1709866	10296
93	2016-04-09 09:34:37	0	0	0	0	0	0	16.16	2.16	0.02	447492	0	9432	285294	447492	438060	9661	56	555	65	276351	1710035	10337
94	2016-04-09 09:44:37	0	0	0	0	0	0	16.26	2.16	0.02	451045	0	9610	286803	451045	441435	9725	58	563	66	278017	1710197	10412
95	2016-04-09 09:54:39	0	0	0	0	0	0	16.32	2.16	0.02	452718	0	9672	288084	452718	443046	9768	59	565	66	279220	1710385	10458
96	2016-04-09 10:04:38	0	0	0	0	0	0	16.39	2.16	0.02	456180	0	9818	289322	456180	446362	9857	59	574	68	280384	1710579	10558
97	2016-04-09 10:14:38	0	0	0	0	0	0	16.43	2.16	0.02	457765	0	9872	290027	457765	447893	9900	59	577	72	281045	1710751	10608
98	2016-04-09 10:24:38	0	0	0	0	0	0	16.52	2.17	0.02	460829	0	10021	291392	460829	450808	9977	59	581	75	282584	1710944	10692
99	2016-04-09 10:35:21	0	0	0	0	0	0	16.55	2.17	0.02	462190	0	10085	292024	462190	452105	10009	59	582	78	283179	1711165	10728
100	2016-04-09 10:45:19	0	0	0	0	0	0	16.71	2.17	0.02	465315	0	10251	295418	465315	455064	10092	60	587	81	285999	1711378	10820
101	2016-04-09 10:54:39	0	0	0	0	0	0	16.74	2.17	0.02	468301	0	10422	296124	468301	457879	10178	60	593	81	286475	1711622	10912
102	2016-04-09 11:04:38	0	0	0	0	0	0	16.86	2.17	0.02	469712	0	10503	298360	469712	459209	10197	60	594	81	288544	1711900	10932
103	2016-04-09 11:14:38	0	0	0	0	0	0	17	2.17	0.02	473132	0	10670	301465	473132	462462	10289	61	597	82	291118	1712194	11029
104	2016-04-09 11:24:39	0	0	0	0	0	0	17.01	2.18	0.02	474588	0	10749	301619	474588	463839	10325	61	599	83	291261	1712474	11068
105	2016-04-09 11:34:42	0	0	0	0	0	0	17.07	2.17	0.02	477615	0	10891	303154	477615	466724	10384	61	601	84	292320	1712734	11130
106	2016-04-09 11:44:43	0	0	0	0	0	0	17.14	2.18	0.02	479073	0	10956	304077	479073	468117	10428	61	602	84	293623	1712984	11175
107	2016-04-09 11:54:44	0	0	0	0	0	0	17.21	2.18	0.02	482114	0	11096	305310	482114	471018	10501	61	605	84	294773	1713252	11251
108	2016-04-09 12:04:40	0	0	0	0	0	0	17.3	2.18	0.02	483688	0	11172	307082	483688	472516	10551	61	608	84	296423	1713585	11304
109	2016-04-09 12:15:20	0	0	0	0	0	0	17.37	2.18	0.02	486420	0	11300	308550	486420	475120	10609	61	610	84	297735	1713886	11364
110	2016-04-09 12:24:41	0	0	0	0	0	0	17.41	2.18	0.02	487780	0	11366	309228	487780	476414	10640	63	612	84	298366	1714137	11399
111	2016-04-09 12:34:41	0	0	0	0	0	0	17.48	2.18	0.02	490758	0	11527	310648	490758	479231	10723	63	618	85	299687	1714388	11489
112	2016-04-09 12:44:40	0	0	0	0	0	0	17.56	2.19	0.02	492305	0	11601	312190	492305	480704	10768	63	620	85	301122	1714641	11536
113	2016-04-09 12:54:41	0	0	0	0	0	0	17.68	2.19	0.02	495102	0	11721	313931	495102	483381	10830	63	623	85	303157	1714920	11601
114	2016-04-09 13:04:40	0	0	0	0	0	0	17.69	2.19	0.02	496235	0	11768	314154	496235	484467	10857	63	624	85	303365	1715175	11629
115	2016-04-09 13:14:40	0	0	0	0	0	0	17.77	2.19	0.02	498315	0	11871	315748	498315	486444	10903	63	625	85	304850	1715423	11676
116	2016-04-09 13:24:41	0	0	0	0	0	0	17.84	2.18	0.02	500574	0	11978	317057	500574	488596	10933	64	626	85	306071	1715671	11708
117	2016-04-09 13:34:42	0	0	0	0	0	0	17.84	2.19	0.02	501846	0	12044	317057	501846	489802	10977	66	633	85	306071	1715918	11761
118	2016-04-09 13:44:41	0	0	0	0	0	0	17.92	2.19	0.02	503879	0	12154	318685	503879	491725	11030	66	635	85	307587	1716177	11816
119	2016-04-09 13:54:42	0	0	0	0	0	0	17.96	2.19	0.02	505069	0	12220	319457	505069	492849	11061	66	635	85	308307	1716436	11847
120	2016-04-09 14:04:43	0	0	0	0	0	0	18.02	2.19	0.02	507146	0	12309	320548	507146	494837	11099	66	639	85	309269	1716705	11889
121	2016-04-09 14:14:41	0	0	0	0	0	0	18.02	2.19	0.02	508243	0	12361	320665	508243	495882	11127	66	641	85	309377	1716989	11919
122	2016-04-09 14:24:43	0	0	0	0	0	0	18.18	2.18	0.03	510515	0	12473	323445	510515	498042	11154	66	643	85	312184	1717222	11948
123	2016-04-09 14:34:43	0	0	0	0	0	0	18.18	2.19	0.03	511671	0	12522	323445	511671	499149	11209	66	645	85	312184	1717466	12005
124	2016-04-09 14:44:43	0	0	0	0	0	0	18.22	2.19	0.03	513433	0	12622	323986	513433	500811	11259	66	650	86	312942	1717707	12061
125	2016-04-09 14:54:44	0	0	0	0	0	0	18.22	2.19	0.03	514461	0	12682	324054	514461	501779	11276	66	651	86	313005	1717932	12079
126	2016-04-09 15:04:43	0	0	0	0	0	0	18.28	2.19	0.03	516313	0	12772	325215	516313	503541	11329	66	652	86	314088	1718180	12133
127	2016-04-09 15:14:44	0	0	0	0	0	0	18.37	2.2	0.03	517264	0	12832	326993	517264	504432	11356	66	652	86	315745	1718415	12160
128	2016-04-09 15:24:44	0	0	0	0	0	0	18.43	2.19	0.03	518961	0	12915	328151	518961	506046	11386	66	657	88	316826	1718654	12197
129	2016-04-09 15:34:44	0	0	0	0	0	0	18.45	2.19	0.03	519930	0	12975	328430	519930	506955	11412	66	657	88	317085	1718861	12223
130	2016-04-09 15:44:46	0	0	0	0	0	0	18.51	2.2	0.03	521882	0	13075	329733	521882	508807	11457	66	660	88	318275	1719073	12271
131	2016-04-09 15:54:46	0	0	0	0	0	0	18.54	2.2	0.03	523770	0	13218	330181	523770	510552	11500	67	661	89	318693	1719256	12317
132	2016-04-09 16:04:44	0	0	0	0	0	0	18.54	2.2	0.03	524829	0	13309	330533	524829	511520	11523	69	661	90	318758	1719472	12343
133	2016-04-09 16:14:44	0	0	0	0	0	0	18.57	2.2	0.03	526745	0	13484	331400	526745	513261	11566	69	663	90	319366	1719658	12388
134	2016-04-09 16:24:44	0	0	0	0	0	0	18.58	2.2	0.03	527555	0	13556	331542	527555	513999	11585	69	665	90	319498	1719819	12409
135	2016-04-09 16:34:43	0	0	0	0	0	0	18.72	2.2	0.03	529466	0	13703	334262	529466	515763	11632	69	667	91	322024	1719971	12459
136	2016-04-09 16:44:44	0	0	0	0	0	0	18.74	2.2	0.03	530328	0	13758	334691	530328	516570	11653	69	669	91	322422	1720118	12482
137	2016-04-09 16:54:45	0	0	0	0	0	0	18.76	2.2	0.03	532001	0	13882	335090	532001	518119	11691	71	670	91	322792	1720295	12523
138	2016-04-09 17:04:46	0	0	0	0	0	0	18.8	2.2	0.03	532989	0	13964	335953	532989	519025	11714	71	672	92	323458	1720463	12549
139	2016-04-09 17:14:43	0	0	0	0	0	0	18.83	2.2	0.03	534792	0	14107	336611	534792	520685	11761	71	676	93	324067	1720615	12601
140	2016-04-09 17:24:44	0	0	0	0	0	0	18.88	2.2	0.03	535674	0	14172	337555	535674	521502	11793	73	676	93	324943	1720743	12635
141	2016-04-09 17:34:44	0	0	0	0	0	0	18.97	2.2	0.03	537400	0	14311	338321	537400	523089	11829	73	681	93	326407	1720886	12676
142	2016-04-09 17:45:27	0	0	0	0	0	0	19.04	2.21	0.03	539127	0	14463	339918	539127	524664	11890	73	683	93	327616	1721060	12739
143	2016-04-09 17:54:44	0	0	0	0	0	0	19.07	2.21	0.03	540033	0	14545	340534	540033	525488	11921	73	688	95	328189	1721195	12777
144	2016-04-09 18:04:46	0	0	0	0	0	0	19.07	2.2	0.03	541839	0	14711	341539	541839	527128	11941	73	689	95	328258	1721326	12798
145	2016-04-09 18:14:44	0	0	0	0	0	0	19.14	2.21	0.03	542723	0	14784	342219	542723	527939	11981	73	689	98	329472	1721455	12841
146	2016-04-09 18:24:48	0	0	0	0	0	0	19.16	2.21	0.03	544272	0	14937	342673	544272	529335	12016	74	690	98	329893	1721599	12878
147	2016-04-09 18:34:44	0	0	0	0	0	0	19.16	2.21	0.03	545130	0	15017	342749	545130	530113	12035	74	692	98	329963	1721727	12899
148	2016-04-09 18:44:45	0	0	0	0	0	0	19.19	2.21	0.03	546622	0	15123	343167	546622	531499	12076	74	692	100	330351	1721859	12942
149	2016-04-09 18:54:45	0	0	0	0	0	0	19.24	2.21	0.03	547958	0	15242	344216	547958	532716	12114	74	693	101	331323	1721980	12982
150	2016-04-09 19:04:47	0	0	0	0	0	0	19.3	2.21	0.03	548791	0	15301	345368	548791	533490	12134	75	694	101	332390	1722097	13004
151	2016-04-09 19:14:46	0	0	0	0	0	0	19.34	2.21	0.03	550149	0	15408	346121	550149	534741	12171	75	696	101	333087	1722213	13043
152	2016-04-09 19:24:45	0	0	0	0	0	0	19.38	2.21	0.03	550881	0	15460	346896	550881	535421	12191	75	696	101	333805	1722340	13063
153	2016-04-09 19:34:47	0	0	0	0	0	0	19.41	2.21	0.03	552121	0	15552	347439	552121	536569	12218	75	696	101	334308	1722455	13090
154	2016-04-09 19:44:44	0	0	0	0	0	0	19.46	2.21	0.03	552815	0	15595	348377	552815	537220	12238	75	698	101	335176	1722567	13112
155	2016-04-09 19:54:44	0	0	0	0	0	0	19.51	2.21	0.03	554369	0	15700	349320	554369	538669	12276	75	700	101	336049	1722683	13152
156	2016-04-09 20:04:47	0	0	0	0	0	0	19.51	2.21	0.03	555036	0	15762	349320	555036	539274	12290	75	701	101	336049	1722805	13167
157	2016-04-09 20:14:45	0	0	0	0	0	0	19.5	2.21	0.03	556420	0	15867	349320	556420	540553	12318	75	702	101	336049	1722937	13196
158	2016-04-09 20:25:33	0	0	0	0	0	0	19.54	2.21	0.03	557531	0	15948	349912	557531	541583	12343	75	703	101	336597	1723031	13222
159	2016-04-09 20:34:44	0	0	0	0	0	0	19.53	2.21	0.03	558114	0	15987	350229	558114	542127	12348	75	703	101	336597	1723120	13227
160	2016-04-09 20:44:46	0	0	0	0	0	0	19.54	2.21	0.03	559372	0	16074	350269	559372	543298	12371	75	704	101	336634	1723232	13251
161	2016-04-09 20:54:44	0	0	0	0	0	0	19.54	2.21	0.03	560192	0	16141	350467	560192	544051	12384	75	706	101	336817	1723330	13266
162	2016-04-09 21:04:47	0	0	0	0	0	0	19.56	2.21	0.03	561616	0	16261	350784	561616	545355	12414	76	709	102	337110	1723431	13301
163	2016-04-09 21:14:49	0	0	0	0	0	0	19.56	2.21	0.03	562908	0	16386	350784	562908	546522	12448	78	714	102	337110	1723545	13342
164	2016-04-09 21:24:46	0	0	0	0	0	0	19.56	2.21	0.03	563558	0	16438	350794	563558	547120	12468	78	716	102	337110	1723650	13364
165	2016-04-09 21:34:46	0	0	0	0	0	0	19.6	2.21	0.03	565004	0	16571	351671	565004	548433	12501	78	719	104	337772	1723758	13402
166	2016-04-09 21:44:46	0	0	0	0	0	0	19.59	2.21	0.03	565603	0	16630	351671	565603	548973	12517	78	719	104	337772	1723868	13418
167	2016-04-09 21:54:46	0	0	0	0	0	0	19.67	2.21	0.03	566913	0	16749	353074	566913	550164	12550	78	721	104	339067	1723982	13453
168	2016-04-09 22:04:46	0	0	0	0	0	0	19.7	2.21	0.03	567501	0	16790	353679	567501	550711	12563	78	724	104	339625	1724091	13469
169	2016-04-09 22:14:46	0	0	0	0	0	0	19.78	2.21	0.03	568784	0	16920	355130	568784	551864	12591	78	724	104	340962	1724199	13497
170	2016-04-09 22:24:48	0	0	0	0	0	0	19.78	2.21	0.03	569376	0	16976	355209	569376	552400	12598	78	724	104	341034	1724286	13504
171	2016-04-09 22:34:46	0	0	0	0	0	0	19.8	2.21	0.03	570652	0	17056	355698	570652	553596	12624	78	725	105	341486	1724378	13532
172	2016-04-09 22:44:46	0	0	0	0	0	0	19.8	2.21	0.03	571299	0	17113	355698	571299	554186	12641	78	725	105	341486	1724465	13549
173	2016-04-09 22:54:48	0	0	0	0	0	0	19.83	2.21	0.03	572520	0	17209	356312	572520	555311	12678	78	727	105	342052	1724555	13588
174	2016-04-09 23:04:46	0	0	0	0	0	0	19.87	2.22	0.03	573611	0	17286	357031	573611	556325	12709	78	727	106	342714	1724660	13620
175	2016-04-09 23:14:46	0	0	0	0	0	0	19.9	2.22	0.03	574229	0	17321	357423	574229	556908	12722	78	727	106	343151	1724760	13633
176	2016-04-09 23:24:46	0	0	0	0	0	0	19.92	2.22	0.03	575425	0	17393	357836	575425	558032	12747	78	729	106	343532	1724865	13660
177	2016-04-09 23:34:46	0	0	0	0	0	0	19.92	2.21	0.03	576058	0	17442	357836	576058	558616	12757	78	729	106	343532	1724960	13670
178	2016-04-09 23:44:46	0	0	0	0	0	0	19.93	2.21	0.03	577057	0	17509	358043	577057	559548	12780	78	732	106	343722	1725055	13696
179	2016-04-09 23:54:46	0	0	0	0	0	0	19.93	2.21	0.03	578072	0	17572	359200	578072	560500	12790	78	733	106	343870	1725147	13707
180	2016-04-10 00:04:46	0	0	0	0	0	0	19.93	2.21	0.03	578688	0	17605	359409	578688	561083	12808	78	733	106	343908	1725243	13725
181	2016-04-10 00:14:45	0	0	0	0	0	0	20.02	2.21	0.03	579560	0	17654	361075	579560	561906	12832	78	734	106	345433	1725336	13750
182	2016-04-10 00:24:45	0	0	0	0	0	0	20.03	2.21	0.03	580104	0	17692	361328	580104	562412	12840	78	734	106	345665	1725424	13758
183	2016-04-10 00:34:49	0	0	0	0	0	0	20.04	2.21	0.03	580991	0	17739	361665	580991	563252	12856	78	734	106	345742	1725503	13774
184	2016-04-10 00:44:48	0	0	0	0	0	0	20.05	2.21	0.03	581457	0	17759	362004	581457	563698	12868	78	735	107	346051	1725578	13788
185	2016-04-10 00:54:46	0	0	0	0	0	0	20.07	2.21	0.03	582435	0	17810	362343	582435	564625	12889	78	736	110	346361	1725657	13813
186	2016-04-10 01:04:45	0	0	0	0	0	0	20.07	2.21	0.03	583302	0	17864	362343	583302	565438	12910	78	737	110	346361	1725723	13835
187	2016-04-10 01:14:45	0	0	0	0	0	0	20.07	2.21	0.03	583731	0	17899	362427	583731	565832	12917	78	738	110	346438	1725770	13843
188	2016-04-10 01:24:46	0	0	0	0	0	0	20.11	2.21	0.03	584586	0	17935	363022	584586	566651	12932	78	739	111	346982	1725823	13860
189	2016-04-10 01:34:45	0	0	0	0	0	0	20.18	2.21	0.03	584922	0	17949	363876	584922	566973	12940	78	740	111	348231	1725872	13869
190	2016-04-10 01:44:45	0	0	0	0	0	0	20.18	2.21	0.03	585620	0	17996	363876	585620	567624	12951	78	741	111	348231	1725933	13881
191	2016-04-10 01:54:46	0	0	0	0	0	0	20.18	2.21	0.03	585874	0	18006	364047	585874	567868	12953	78	741	111	348387	1725987	13883
192	2016-04-10 02:04:46	0	0	0	0	0	0	20.39	2.21	0.03	586443	0	18038	364389	586443	568405	12966	78	742	111	348701	1710500	13897
193	2016-04-10 02:14:46	0	0	0	0	0	0	20.43	2.21	0.03	586928	0	18057	365184	586928	568871	12976	78	742	111	349429	1710542	13907
194	2016-04-10 02:24:45	0	0	0	0	0	0	20.46	2.21	0.03	587251	0	18070	365744	587251	569181	12984	78	742	111	349941	1710591	13915
195	2016-04-10 02:34:45	0	0	0	0	0	0	20.47	2.21	0.03	587842	0	18106	365938	587842	569736	13002	78	742	113	350119	1710629	13935
196	2016-04-10 02:44:45	0	0	0	0	0	0	20.47	2.21	0.03	588122	0	18121	365938	588122	570001	13009	78	743	113	350119	1710667	13943
197	2016-04-10 02:54:45	0	0	0	0	0	0	20.47	2.21	0.03	588527	0	18138	366285	588527	570389	13019	78	743	113	350119	1710708	13953
198	2016-04-10 03:04:46	0	0	0	0	0	0	20.47	2.21	0.03	588700	0	18151	366285	588700	570549	13027	78	743	113	350119	1710744	13961
199	2016-04-10 03:14:48	0	0	0	0	0	0	20.47	2.21	0.03	589073	0	18185	366285	589073	570888	13036	78	745	113	350119	1710767	13972
200	2016-04-10 03:24:50	0	0	0	0	0	0	20.47	2.21	0.03	589229	0	18193	366285	589229	571036	13041	78	745	113	350119	1710798	13977
201	2016-04-10 03:34:45	0	0	0	0	0	0	20.46	2.21	0.03	589521	0	18215	366285	589521	571306	13048	78	745	113	350119	1710831	13984
202	2016-04-10 03:44:45	0	0	0	0	0	0	20.46	2.21	0.03	589676	0	18222	366285	589676	571454	13052	78	745	113	350119	1710855	13988
203	2016-04-10 03:54:47	0	0	0	0	0	0	20.46	2.21	0.03	589931	0	18239	366285	589931	571692	13060	78	745	113	350119	1710874	13996
204	2016-04-10 04:04:45	0	0	0	0	0	0	20.46	2.21	0.03	590048	0	18246	366285	590048	571802	13061	78	745	113	350119	1710894	13997
205	2016-04-10 04:14:47	0	0	0	0	0	0	20.47	2.21	0.03	590244	0	18258	366458	590244	571986	13064	78	745	113	350278	1710922	14000
206	2016-04-10 04:24:46	0	0	0	0	0	0	20.47	2.21	0.03	590349	0	18260	366458	590349	572089	13068	78	745	113	350278	1710947	14004
207	2016-04-10 04:34:46	0	0	0	0	0	0	20.47	2.21	0.03	590538	0	18274	366458	590538	572264	13072	79	748	113	350278	1710988	14012
208	2016-04-10 04:44:46	0	0	0	0	0	0	20.47	2.21	0.03	590608	0	18280	366458	590608	572328	13074	79	748	113	350278	1711012	14014
209	2016-04-10 04:54:47	0	0	0	0	0	0	20.47	2.21	0.03	590766	0	18291	366632	590766	572475	13075	79	748	113	350278	1711034	14015
210	2016-04-10 05:04:45	0	0	0	0	0	0	20.47	2.21	0.03	590865	0	18299	366632	590865	572566	13078	79	749	113	350278	1711069	14019
211	2016-04-10 05:14:46	0	0	0	0	0	0	20.47	2.21	0.03	591027	0	18312	366632	591027	572715	13085	79	750	113	350278	1711098	14027
212	2016-04-10 05:24:47	0	0	0	0	0	0	20.47	2.21	0.03	591095	0	18316	366632	591095	572779	13089	79	750	113	350278	1711125	14031
213	2016-04-10 05:34:46	0	0	0	0	0	0	20.47	2.21	0.03	591253	0	18335	366632	591253	572918	13091	79	750	113	350278	1711152	14033
214	2016-04-10 05:44:46	0	0	0	0	0	0	20.47	2.21	0.03	591314	0	18338	366632	591314	572976	13093	79	750	113	350278	1711173	14035
215	2016-04-10 05:54:47	0	0	0	0	0	0	20.47	2.21	0.03	591468	0	18351	366632	591468	573117	13099	79	751	113	350278	1711201	14042
216	2016-04-10 06:04:47	0	0	0	0	0	0	20.47	2.22	0.03	591545	0	18355	366632	591545	573190	13103	79	751	113	350278	1711233	14046
217	2016-04-10 06:14:46	0	0	0	0	0	0	20.47	2.22	0.03	591687	0	18367	366632	591687	573320	13107	79	751	113	350278	1711263	14050
218	2016-04-10 06:24:46	0	0	0	0	0	0	20.47	2.22	0.03	591746	0	18370	366632	591746	573376	13109	79	752	113	350278	1711289	14053
219	2016-04-10 06:34:46	0	0	0	0	0	0	20.47	2.22	0.03	591822	0	18381	366632	591822	573441	13112	79	752	113	350278	1711327	14056
220	2016-04-10 06:44:47	0	0	0	0	0	0	20.47	2.22	0.03	591854	0	18384	366632	591854	573470	13112	79	752	113	350278	1711372	14056
221	2016-04-10 06:54:48	0	0	0	0	0	0	20.47	2.22	0.03	591942	0	18394	366632	591942	573548	13116	79	752	113	350278	1711410	14060
222	2016-04-10 07:04:48	0	0	0	0	0	0	20.47	2.22	0.03	591985	0	18398	366632	591985	573587	13118	79	752	113	350278	1711452	14062
223	2016-04-10 07:14:48	0	0	0	0	0	0	20.47	2.22	0.03	592080	0	18408	366632	592080	573672	13122	79	752	113	350278	1711509	14066
224	2016-04-10 07:24:46	0	0	0	0	0	0	20.47	2.22	0.03	592164	0	18427	366762	592164	573737	13124	79	752	113	350397	1711556	14068
225	2016-04-10 07:34:46	0	0	0	0	0	0	20.47	2.22	0.03	592210	0	18434	366762	592210	573776	13126	79	752	113	350397	1711624	14070
226	2016-04-10 07:44:49	0	0	0	0	0	0	20.47	2.22	0.03	592316	0	18455	366762	592316	573861	13129	80	752	113	350397	1711696	14074
227	2016-04-10 07:54:47	0	0	0	0	0	0	20.47	2.22	0.03	592366	0	18462	366762	592366	573904	13130	80	752	113	350397	1711756	14075
228	2016-04-10 08:04:49	0	0	0	0	0	0	20.5	2.22	0.03	592537	0	18493	367415	592537	574044	13136	80	752	113	350993	1711834	14081
229	2016-04-10 08:15:37	0	0	0	0	0	0	20.5	2.22	0.03	592623	0	18513	367415	592623	574110	13138	80	752	113	350993	1711917	14083
230	2016-04-10 08:24:48	0	0	0	0	0	0	20.5	2.22	0.03	592781	0	18544	367415	592781	574237	13145	80	752	113	350993	1712005	14090
231	2016-04-10 08:34:50	0	0	0	0	0	0	20.5	2.22	0.03	592880	0	18557	367415	592880	574323	13149	80	752	113	350993	1712086	14094
232	2016-04-10 08:45:36	0	0	0	0	0	0	20.5	2.22	0.03	593059	0	18584	367415	593059	574475	13149	80	752	113	350993	1712166	14094
233	2016-04-10 08:54:48	0	0	0	0	0	0	20.51	2.22	0.03	593163	0	18594	367589	593163	574569	13151	80	752	113	351152	1712250	14096
234	2016-04-10 09:04:47	0	0	0	0	0	0	20.51	2.22	0.03	593368	0	18627	367677	593368	574741	13158	80	752	113	351152	1712338	14103
235	2016-04-10 09:14:49	0	0	0	0	0	0	20.51	2.22	0.03	593561	0	18658	367677	593561	574903	13161	80	752	113	351152	1712440	14106
236	2016-04-10 09:24:47	0	0	0	0	0	0	20.5	2.22	0.03	593660	0	18672	367677	593660	574988	13164	80	752	113	351152	1712566	14109
237	2016-04-10 09:34:48	0	0	0	0	0	0	20.51	2.22	0.03	593884	0	18714	368157	593884	575170	13171	80	752	113	351311	1712651	14116
238	2016-04-10 09:44:48	0	0	0	0	0	0	20.53	2.22	0.03	593998	0	18728	368420	593998	575270	13177	80	752	113	351551	1712764	14122
239	2016-04-10 09:54:49	0	0	0	0	0	0	20.52	2.22	0.03	594211	0	18750	368420	594211	575461	13185	80	752	113	351551	1712866	14130
240	2016-04-10 10:04:51	0	0	0	0	0	0	20.52	2.22	0.03	594292	0	18764	368420	594292	575528	13188	80	752	113	351551	1712993	14133
241	2016-04-10 10:14:49	0	0	0	0	0	0	20.52	2.22	0.03	594475	0	18788	368420	594475	575687	13199	80	752	113	351551	1713107	14144
242	2016-04-10 10:25:39	0	0	0	0	0	0	20.52	2.22	0.03	594576	0	18804	368420	594576	575772	13203	80	752	113	351551	1713220	14148
243	2016-04-10 10:34:48	0	0	0	0	0	0	20.52	2.22	0.03	594806	0	18841	368420	594806	575965	13209	80	753	113	351551	1713323	14155
244	2016-04-10 10:44:51	0	0	0	0	0	0	20.52	2.22	0.03	594978	0	18855	368420	594978	576104	13212	80	753	113	351551	1713436	14158
245	2016-04-10 10:55:38	0	0	0	0	0	0	20.52	2.22	0.03	595078	0	18895	368420	595078	576183	13216	80	753	113	351551	1713574	14162
246	2016-04-10 11:04:49	0	0	0	0	0	0	20.52	2.22	0.03	595258	0	18937	368552	595258	576321	13223	80	753	113	351670	1713705	14169
247	2016-04-10 11:14:49	0	0	0	0	0	0	20.54	2.22	0.03	595339	0	18960	368552	595339	576379	13225	80	753	113	351990	1713821	14171
248	2016-04-10 11:24:50	0	0	0	0	0	0	20.54	2.22	0.03	595479	0	18982	368552	595479	576497	13228	80	753	113	351990	1713950	14174
249	2016-04-10 11:34:50	0	0	0	0	0	0	20.54	2.22	0.03	595566	0	18993	368552	595566	576573	13230	80	754	113	351990	1714080	14177
250	2016-04-10 11:44:50	0	0	0	0	0	0	20.53	2.22	0.03	595730	0	19027	368552	595730	576703	13236	80	754	113	351990	1714209	14183
251	2016-04-10 11:54:49	0	0	0	0	0	0	20.53	2.22	0.03	595797	0	19042	368552	595797	576755	13237	80	754	113	351990	1714321	14184
252	2016-04-10 12:04:50	0	0	0	0	0	0	20.53	2.22	0.03	595872	0	19055	368552	595872	576817	13241	80	754	113	351990	1714432	14188
253	2016-04-10 12:14:51	0	0	0	0	0	0	20.53	2.22	0.03	596013	0	19083	368552	596013	576930	13243	80	754	113	351990	1714561	14190
254	2016-04-10 12:24:51	0	0	0	0	0	0	20.53	2.22	0.03	596129	0	19111	368552	596129	577018	13246	80	754	113	351990	1714672	14193
255	2016-04-10 12:34:49	0	0	0	0	0	0	20.53	2.22	0.03	596185	0	19120	368552	596185	577065	13248	80	754	113	351990	1714796	14195
256	2016-04-10 12:44:51	0	0	0	0	0	0	20.53	2.22	0.03	596300	0	19150	368596	596300	577150	13249	80	754	113	352030	1714913	14196
257	2016-04-10 12:54:51	0	0	0	0	0	0	20.53	2.22	0.03	596369	0	19168	368596	596369	577201	13256	80	754	113	352030	1715035	14203
258	2016-04-10 13:04:53	0	0	0	0	0	0	20.56	2.22	0.03	596414	0	19178	369211	596414	577236	13257	80	754	113	352591	1715163	14204
259	2016-04-10 13:14:52	0	0	0	0	0	0	20.56	2.22	0.03	596531	0	19204	369211	596531	577327	13257	80	754	113	352591	1715262	14204
260	2016-04-10 13:24:52	0	0	0	0	0	0	20.55	2.22	0.03	596581	0	19219	369211	596581	577362	13259	80	754	113	352591	1715371	14206
261	2016-04-10 13:34:51	0	0	0	0	0	0	20.56	2.22	0.03	596686	0	19251	369299	596686	577435	13259	80	754	113	352672	1715497	14206
262	2016-04-10 13:44:50	0	0	0	0	0	0	20.56	2.22	0.03	596726	0	19263	369299	596726	577463	13263	80	754	113	352672	1715612	14210
263	2016-04-10 13:54:54	0	0	0	0	0	0	20.55	2.22	0.03	596801	0	19291	369299	596801	577510	13265	80	754	113	352672	1715753	14212
264	2016-04-10 14:05:41	0	0	0	0	0	0	20.55	2.22	0.03	596847	0	19302	369299	596847	577545	13265	80	754	113	352672	1715911	14212
265	2016-04-10 14:14:52	0	0	0	0	0	0	20.55	2.22	0.03	596905	0	19315	369299	596905	577590	13268	80	755	113	352672	1716059	14216
266	2016-04-10 14:24:53	0	0	0	0	0	0	20.55	2.22	0.03	596947	0	19325	369299	596947	577622	13268	80	755	113	352672	1716209	14216
267	2016-04-10 14:34:52	0	0	0	0	0	0	20.55	2.22	0.03	596994	0	19339	369299	596994	577655	13268	80	755	113	352672	1716349	14216
268	2016-04-10 14:44:54	0	0	0	0	0	0	20.55	2.22	0.03	597070	0	19357	369343	597070	577713	13273	80	755	113	352712	1716474	14221
269	2016-04-10 14:54:54	0	0	0	0	0	0	20.55	2.22	0.03	597095	0	19361	369343	597095	577734	13275	80	755	113	352712	1716602	14223
270	2016-04-10 15:04:53	0	0	0	0	0	0	20.55	2.22	0.03	597159	0	19381	369343	597159	577778	13275	80	755	113	352712	1716738	14223
271	2016-04-10 15:14:56	0	0	0	0	0	0	20.54	2.22	0.03	597188	0	19390	369343	597188	577798	13275	80	755	113	352712	1716860	14223
272	2016-04-10 15:25:40	0	0	0	0	0	0	20.54	2.22	0.03	597236	0	19412	369343	597236	577824	13276	80	755	113	352712	1716972	14224
273	2016-04-10 15:34:52	0	0	0	0	0	0	20.54	2.22	0.03	597265	0	19417	369343	597265	577848	13277	80	755	113	352712	1717067	14225
274	2016-04-10 15:44:51	0	0	0	0	0	0	20.54	2.22	0.03	597308	0	19428	369343	597308	577880	13277	80	755	113	352712	1717179	14225
275	2016-04-10 15:54:53	0	0	0	0	0	0	20.54	2.22	0.03	597335	0	19436	369343	597335	577899	13278	80	755	113	352712	1717274	14226
276	2016-04-10 16:04:53	0	0	0	0	0	0	20.54	2.22	0.03	597383	0	19450	369343	597383	577933	13280	80	755	113	352712	1717380	14228
277	2016-04-10 16:14:56	0	0	0	0	0	0	20.54	2.22	0.03	597404	0	19460	369343	597404	577944	13280	80	755	113	352712	1717487	14228
278	2016-04-10 16:24:53	0	0	0	0	0	0	20.54	2.22	0.03	597454	0	19470	369343	597454	577984	13282	80	755	113	352712	1717602	14230
279	2016-04-10 16:34:54	0	0	0	0	0	0	20.53	2.22	0.03	597476	0	19473	369343	597476	578003	13282	80	755	113	352712	1717708	14230
280	2016-04-10 16:44:52	0	0	0	0	0	0	20.53	2.22	0.03	597536	0	19490	369343	597536	578046	13282	80	755	113	352712	1717800	14230
281	2016-04-10 16:54:53	0	0	0	0	0	0	20.53	2.22	0.03	597553	0	19493	369343	597553	578060	13282	80	755	113	352712	1717899	14230
282	2016-04-10 17:04:56	0	0	0	0	0	0	20.53	2.22	0.03	597593	0	19501	369343	597593	578092	13282	80	755	113	352712	1717993	14230
283	2016-04-10 17:14:54	0	0	0	0	0	0	20.53	2.22	0.03	597631	0	19505	369343	597631	578126	13282	80	755	113	352712	1718100	14230
284	2016-04-10 17:24:53	0	0	0	0	0	0	20.53	2.22	0.03	597644	0	19509	369343	597644	578135	13284	80	755	113	352712	1718232	14232
285	2016-04-10 17:34:53	0	0	0	0	0	0	20.53	2.22	0.03	597670	0	19514	369343	597670	578156	13285	80	755	113	352712	1718352	14233
286	2016-04-10 17:45:41	0	0	0	0	0	0	20.52	2.22	0.03	597708	0	19521	369343	597708	578187	13285	80	755	113	352712	1718469	14233
287	2016-04-10 17:54:51	0	0	0	0	0	0	20.52	2.22	0.03	597749	0	19528	369343	597749	578221	13285	80	755	113	352712	1718566	14233
288	2016-04-10 18:04:54	0	0	0	0	0	0	20.52	2.22	0.03	597780	0	19531	369343	597780	578249	13285	80	755	113	352712	1718668	14233
289	2016-04-10 18:14:54	0	0	0	0	0	0	20.52	2.22	0.03	597830	0	19538	369343	597830	578292	13288	80	755	113	352712	1718774	14236
290	2016-04-10 18:24:56	0	0	0	0	0	0	20.52	2.22	0.03	597855	0	19545	369343	597855	578310	13289	80	755	113	352712	1718865	14237
291	2016-04-10 18:34:55	0	0	0	0	0	0	20.52	2.22	0.03	597889	0	19551	369343	597889	578338	13293	80	755	113	352712	1718981	14241
292	2016-04-10 18:44:53	0	0	0	0	0	0	20.52	2.22	0.03	597902	0	19553	369343	597902	578349	13293	80	755	113	352712	1719076	14241
293	2016-04-10 18:55:39	0	0	0	0	0	0	20.52	2.22	0.03	597945	0	19562	369343	597945	578383	13294	80	755	113	352712	1719185	14242
294	2016-04-10 19:04:57	0	0	0	0	0	0	20.52	2.22	0.03	597978	0	19570	369343	597978	578408	13295	80	755	113	352712	1719258	14243
295	2016-04-10 19:14:53	0	0	0	0	0	0	20.51	2.22	0.03	597988	0	19573	369343	597988	578415	13295	80	755	113	352712	1719371	14243
296	2016-04-10 19:24:54	0	0	0	0	0	0	20.51	2.22	0.03	598030	0	19590	369343	598030	578440	13295	80	755	113	352712	1719478	14243
297	2016-04-10 19:34:55	0	0	0	0	0	0	20.51	2.22	0.03	598049	0	19597	369343	598049	578452	13295	80	755	113	352712	1719576	14243
298	2016-04-10 19:44:56	0	0	0	0	0	0	20.51	2.22	0.03	598086	0	19604	369343	598086	578482	13296	80	755	113	352712	1719660	14244
299	2016-04-10 19:54:55	0	0	0	0	0	0	20.51	2.22	0.03	598115	0	19617	369343	598115	578498	13296	80	755	113	352712	1719742	14244
300	2016-04-10 20:04:57	0	0	0	0	0	0	20.51	2.22	0.03	598134	0	19621	369343	598134	578513	13296	80	755	113	352712	1719820	14244
301	2016-04-10 20:15:46	0	0	0	0	0	0	20.51	2.22	0.03	598184	0	19627	369343	598184	578557	13296	80	755	113	352712	1719920	14244
302	2016-04-10 20:24:57	0	0	0	0	0	0	20.51	2.22	0.03	598198	0	19632	369343	598198	578566	13297	80	755	113	352712	1720009	14245
303	2016-04-10 20:34:56	0	0	0	0	0	0	20.51	2.22	0.03	598229	0	19639	369343	598229	578590	13298	80	755	113	352712	1720097	14246
304	2016-04-10 20:45:43	0	0	0	0	0	0	20.5	2.22	0.03	598242	0	19643	369343	598242	578599	13298	80	755	113	352712	1720187	14246
305	2016-04-10 20:54:56	0	0	0	0	0	0	20.5	2.22	0.03	598283	0	19654	369343	598283	578629	13299	80	755	113	352712	1720274	14247
306	2016-04-10 21:04:57	0	0	0	0	0	0	20.5	2.22	0.03	598303	0	19660	369343	598303	578643	13299	80	755	113	352712	1720348	14247
307	2016-04-10 21:14:57	0	0	0	0	0	0	20.5	2.22	0.03	598332	0	19664	369343	598332	578668	13300	80	755	113	352712	1720431	14248
308	2016-04-10 21:25:44	0	0	0	0	0	0	20.5	2.22	0.03	598349	0	19672	369343	598349	578677	13301	80	755	113	352712	1720515	14249
309	2016-04-10 21:34:57	0	0	0	0	0	0	20.5	2.22	0.03	598395	0	19685	369343	598395	578710	13303	80	755	113	352712	1720589	14251
310	2016-04-10 21:44:56	0	0	0	0	0	0	20.5	2.22	0.03	598410	0	19687	369343	598410	578723	13304	80	755	113	352712	1720671	14252
311	2016-04-10 21:54:57	0	0	0	0	0	0	20.5	2.22	0.03	598446	0	19697	369343	598446	578749	13305	80	755	113	352712	1720745	14253
312	2016-04-10 22:05:02	0	0	0	0	0	0	20.5	2.22	0.03	598463	0	19702	369343	598463	578761	13305	80	755	113	352712	1720832	14253
313	2016-04-10 22:14:56	0	0	0	0	0	0	20.5	2.22	0.03	598496	0	19711	369343	598496	578785	13305	80	755	113	352712	1720909	14253
314	2016-04-10 22:24:58	0	0	0	0	0	0	20.49	2.22	0.03	598512	0	19718	369343	598512	578794	13307	80	755	113	352712	1720990	14255
315	2016-04-10 22:34:57	0	0	0	0	0	0	20.49	2.22	0.03	598537	0	19722	369343	598537	578815	13307	80	755	113	352712	1721070	14255
316	2016-04-10 22:44:57	0	0	0	0	0	0	20.49	2.22	0.03	598552	0	19727	369343	598552	578825	13307	80	755	113	352712	1721152	14255
317	2016-04-10 22:54:55	0	0	0	0	0	0	20.49	2.22	0.03	598591	0	19742	369343	598591	578849	13307	80	755	113	352712	1721238	14255
318	2016-04-10 23:04:56	0	0	0	0	0	0	20.49	2.22	0.03	598619	0	19744	369343	598619	578875	13308	80	755	113	352712	1721298	14256
319	2016-04-10 23:14:55	0	0	0	0	0	0	20.49	2.22	0.03	598635	0	19749	369343	598635	578886	13309	80	755	113	352712	1721362	14257
320	2016-04-10 23:24:59	0	0	0	0	0	0	20.49	2.22	0.03	598667	0	19757	369343	598667	578910	13309	80	755	113	352712	1721421	14257
321	2016-04-10 23:34:56	0	0	0	0	0	0	20.49	2.22	0.03	598677	0	19758	369343	598677	578919	13309	80	755	113	352712	1721483	14257
322	2016-04-10 23:44:56	0	0	0	0	0	0	20.49	2.22	0.03	598707	0	19765	369343	598707	578942	13309	80	755	113	352712	1721541	14257
323	2016-04-10 23:54:55	0	0	0	0	0	0	20.49	2.22	0.03	598717	0	19767	369343	598717	578950	13309	80	755	113	352712	1721591	14257
324	2016-04-11 00:05:45	0	0	0	0	0	0	20.49	2.22	0.03	598733	0	19767	369343	598733	578966	13309	80	755	113	352712	1721633	14257
325	2016-04-11 00:14:56	0	0	0	0	0	0	20.49	2.22	0.03	598739	0	19768	369343	598739	578971	13309	80	755	113	352712	1721674	14257
326	2016-04-11 00:24:55	0	0	0	0	0	0	20.49	2.22	0.03	598757	0	19768	369343	598757	578989	13309	80	755	113	352712	1721710	14257
327	2016-04-11 00:34:57	0	0	0	0	0	0	20.49	2.22	0.03	598768	0	19769	369343	598768	578999	13309	80	755	113	352712	1721757	14257
328	2016-04-11 00:44:56	0	0	0	0	0	0	20.48	2.22	0.03	598787	0	19773	369519	598787	579014	13309	80	755	113	352712	1721807	14257
329	2016-04-11 00:54:55	0	0	0	0	0	0	20.48	2.22	0.03	598799	0	19773	369519	598799	579026	13309	80	755	113	352712	1721856	14257
330	2016-04-11 01:04:55	0	0	0	0	0	0	20.48	2.22	0.03	598816	0	19776	369519	598816	579040	13309	80	755	113	352712	1721885	14257
331	2016-04-11 01:14:55	0	0	0	0	0	0	20.48	2.22	0.03	598826	0	19779	369519	598826	579047	13309	80	755	113	352712	1721917	14257
332	2016-04-11 01:24:56	0	0	0	0	0	0	20.48	2.22	0.03	598835	0	19779	369519	598835	579056	13309	80	755	113	352712	1721940	14257
333	2016-04-11 01:34:54	0	0	0	0	0	0	20.48	2.22	0.03	598846	0	19782	369519	598846	579064	13309	80	755	113	352712	1721973	14257
334	2016-04-11 01:44:54	0	0	0	0	0	0	20.48	2.22	0.03	598849	0	19783	369519	598849	579066	13309	80	755	113	352712	1721998	14257
335	2016-04-11 01:54:55	0	0	0	0	0	0	20.48	2.22	0.03	598855	0	19784	369519	598855	579071	13309	80	755	113	352712	1722029	14257
336	2016-04-11 02:04:57	0	0	0	0	0	0	20.59	2.22	0.03	598868	0	19784	369519	598868	579084	13309	80	755	113	352712	1712769	14257
337	2016-04-11 02:14:56	0	0	0	0	0	0	20.59	2.22	0.03	598871	0	19785	369519	598871	579086	13309	80	755	113	352712	1712793	14257
338	2016-04-11 02:24:55	0	0	0	0	0	0	20.59	2.22	0.03	598874	0	19787	369519	598874	579087	13309	80	755	113	352712	1712817	14257
339	2016-04-11 02:35:43	0	0	0	0	0	0	20.59	2.22	0.03	598880	0	19787	369519	598880	579093	13309	80	755	113	352712	1712847	14257
340	2016-04-11 02:44:56	0	0	0	0	0	0	20.59	2.22	0.03	598880	0	19787	369519	598880	579093	13309	80	755	113	352712	1712871	14257
341	2016-04-11 02:54:55	0	0	0	0	0	0	20.59	2.22	0.03	598881	0	19787	369519	598881	579094	13309	80	755	113	352712	1712892	14257
342	2016-04-11 03:04:55	0	0	0	0	0	0	20.59	2.22	0.03	598882	0	19787	369519	598882	579095	13309	80	755	113	352712	1712910	14257
343	2016-04-11 03:14:54	0	0	0	0	0	0	20.59	2.22	0.03	598884	0	19789	369519	598884	579095	13309	80	755	113	352712	1712928	14257
344	2016-04-11 03:24:58	0	0	0	0	0	0	20.59	2.22	0.03	598885	0	19789	369519	598885	579096	13309	80	755	113	352712	1712949	14257
345	2016-04-11 03:34:56	0	0	0	0	0	0	20.59	2.22	0.03	598889	0	19791	369519	598889	579098	13309	80	755	113	352712	1712963	14257
346	2016-04-11 03:44:55	0	0	0	0	0	0	20.59	2.22	0.03	598892	0	19791	369519	598892	579101	13309	80	755	113	352712	1712980	14257
347	2016-04-11 03:54:55	0	0	0	0	0	0	20.59	2.22	0.03	598895	0	19791	369519	598895	579104	13309	80	755	113	352712	1712989	14257
348	2016-04-11 04:04:55	0	0	0	0	0	0	20.59	2.22	0.03	598897	0	19791	369519	598897	579106	13309	80	755	113	352712	1713003	14257
349	2016-04-11 04:14:55	0	0	0	0	0	0	20.59	2.22	0.03	598899	0	19791	369519	598899	579108	13309	80	755	113	352712	1713025	14257
350	2016-04-11 04:24:55	0	0	0	0	0	0	20.59	2.22	0.03	598901	0	19791	369519	598901	579110	13309	80	755	113	352712	1713038	14257
351	2016-04-11 04:34:59	0	0	0	0	0	0	20.59	2.22	0.03	598903	0	19792	369519	598903	579111	13309	80	755	113	352712	1713061	14257
352	2016-04-11 04:44:57	0	0	0	0	0	0	20.59	2.22	0.03	598904	0	19792	369519	598904	579112	13309	80	755	113	352712	1713079	14257
353	2016-04-11 04:54:54	0	0	0	0	0	0	20.59	2.22	0.03	598905	0	19793	369519	598905	579112	13309	80	755	113	352712	1713091	14257
354	2016-04-11 05:04:57	0	0	0	0	0	0	20.59	2.22	0.03	598906	0	19794	369519	598906	579112	13309	80	755	113	352712	1713113	14257
355	2016-04-11 05:14:58	0	0	0	0	0	0	20.59	2.22	0.03	598906	0	19794	369519	598906	579112	13309	80	755	113	352712	1713135	14257
356	2016-04-11 05:24:57	0	0	0	0	0	0	20.59	2.22	0.03	598907	0	19794	369519	598907	579113	13309	80	755	113	352712	1713158	14257
357	2016-04-11 05:34:58	0	0	0	0	0	0	20.59	2.22	0.03	598911	0	19796	369519	598911	579115	13309	80	755	113	352712	1713180	14257
358	2016-04-11 05:45:48	0	0	0	0	0	0	20.59	2.22	0.03	598911	0	19796	369519	598911	579115	13309	80	755	113	352712	1713196	14257
359	2016-04-11 05:55:00	0	0	0	0	0	0	20.59	2.22	0.03	598915	0	19798	369519	598915	579117	13309	80	755	113	352712	1713216	14257
360	2016-04-11 06:04:57	0	0	0	0	0	0	20.59	2.22	0.03	598919	0	19798	369519	598919	579121	13309	80	755	113	352712	1713242	14257
361	2016-04-11 06:14:59	0	0	0	0	0	0	20.59	2.22	0.03	598922	0	19799	369519	598922	579123	13309	80	755	113	352712	1713261	14257
362	2016-04-11 06:25:50	0	0	0	0	0	0	20.61	2.22	0.03	598925	0	19800	369873	598925	579125	13309	80	755	113	353034	1713291	14257
363	2016-04-11 06:34:59	0	0	0	0	0	0	20.61	2.22	0.03	598926	0	19800	369873	598926	579126	13309	80	755	113	353034	1713323	14257
364	2016-04-11 06:45:00	0	0	0	0	0	0	20.6	2.22	0.03	598929	0	19800	369873	598929	579129	13309	80	755	113	353034	1713353	14257
365	2016-04-11 06:55:02	0	0	0	0	0	0	20.6	2.22	0.03	598932	0	19801	369873	598932	579131	13309	80	755	113	353034	1713374	14257
366	2016-04-11 07:04:59	0	0	0	0	0	0	20.6	2.22	0.03	598937	0	19801	369873	598937	579136	13309	80	755	113	353034	1713416	14257
367	2016-04-11 07:14:59	0	0	0	0	0	0	20.6	2.22	0.03	598939	0	19802	369873	598939	579137	13309	80	755	113	353034	1713446	14257
368	2016-04-11 07:25:01	0	0	0	0	0	0	20.6	2.22	0.03	598948	0	19805	369873	598948	579143	13309	80	755	113	353034	1713472	14257
369	2016-04-11 07:35:02	0	0	0	0	0	0	20.6	2.22	0.03	598950	0	19805	369873	598950	579145	13309	80	755	113	353034	1713513	14257
370	2016-04-11 07:45:02	0	0	0	0	0	0	20.6	2.22	0.03	598961	0	19807	369873	598961	579154	13309	80	755	113	353034	1713549	14257
371	2016-04-11 07:54:59	0	0	0	0	0	0	20.6	2.22	0.03	598969	0	19809	370138	598969	579160	13309	80	755	113	353034	1713597	14257
372	2016-04-11 08:04:59	0	0	0	0	0	0	20.6	2.22	0.03	598974	0	19809	370138	598974	579165	13309	80	755	113	353034	1713640	14257
373	2016-04-11 08:15:02	0	0	0	0	0	0	20.6	2.22	0.03	598977	0	19809	370138	598977	579168	13309	80	755	113	353034	1713703	14257
374	2016-04-11 08:25:02	0	0	0	0	0	0	20.6	2.22	0.03	598980	0	19810	370138	598980	579170	13310	80	755	113	353034	1713755	14258
375	2016-04-11 08:35:51	0	0	0	0	0	0	20.6	2.22	0.03	598981	0	19810	370138	598981	579171	13310	80	755	113	353034	1713810	14258
376	2016-04-11 08:45:00	0	0	0	0	0	0	20.6	2.22	0.03	598989	0	19815	370138	598989	579174	13310	80	755	113	353034	1713845	14258
377	2016-04-11 08:55:53	0	0	0	0	0	0	20.6	2.22	0.03	598998	0	19819	370138	598998	579179	13310	80	755	113	353034	1713893	14258
378	2016-04-11 09:02:40	0	0	0	0	0	0	20.6	2.22	0.03	599001	0	19820	370138	599001	579181	13310	80	755	113	353034	1713912	14258
379	2016-04-11 09:12:40	0	0	0	0	0	0	20.6	2.22	0.03	599006	0	19820	370138	599006	579186	13310	80	755	113	353034	1713959	14258
380	2016-04-11 09:22:39	0	0	0	0	0	0	20.6	2.22	0.03	599014	0	19821	370138	599014	579193	13310	80	755	113	353034	1714010	14258
381	2016-04-11 09:32:40	0	0	0	0	0	0	20.6	2.22	0.03	599021	0	19822	370138	599021	579199	13310	80	755	113	353034	1714066	14258
382	2016-04-11 09:42:40	0	0	0	0	0	0	20.6	2.22	0.03	599027	0	19822	370138	599027	579205	13310	80	755	113	353034	1714101	14258
383	2016-04-11 09:52:42	0	0	0	0	0	0	20.6	2.22	0.03	599038	0	19825	370138	599038	579213	13310	80	755	113	353034	1714150	14258
384	2016-04-11 10:02:58	0	0	0	0	0	0	20.59	2.22	0.03	599043	0	19826	370138	599043	579217	13311	80	755	113	353034	1714200	14259
385	2016-04-11 10:12:39	0	0	0	0	0	0	20.59	2.22	0.03	599052	0	19826	370138	599052	579226	13311	80	755	113	353034	1714237	14259
386	2016-04-11 10:22:48	0	0	0	0	0	0	20.59	2.22	0.03	599058	0	19827	370138	599058	579231	13311	80	755	113	353034	1714283	14259
387	2016-04-11 10:32:53	0	0	0	0	0	0	20.59	2.22	0.03	599069	0	19827	370138	599069	579242	13311	80	755	113	353034	1714327	14259
388	2016-04-11 10:42:47	0	0	0	0	0	0	20.59	2.22	0.03	599073	0	19829	370138	599073	579244	13311	80	755	113	353034	1714373	14259
389	2016-04-11 10:53:06	0	0	0	0	0	0	20.59	2.22	0.03	599086	0	19830	370138	599086	579256	13311	80	755	113	353034	1714411	14259
390	2016-04-11 11:03:01	0	0	0	0	0	0	20.59	2.22	0.03	599091	0	19830	370138	599091	579261	13311	80	755	113	353034	1714454	14259
391	2016-04-11 11:12:49	0	0	0	0	0	0	20.59	2.22	0.03	599097	0	19833	370138	599097	579264	13311	80	755	113	353034	1714495	14259
392	2016-04-11 11:22:45	0	0	0	0	0	0	20.59	2.22	0.03	599106	0	19834	370138	599106	579272	13311	80	755	113	353034	1714540	14259
393	2016-04-11 11:33:42	0	0	0	0	0	0	20.59	2.22	0.03	599116	0	19836	370138	599116	579280	13311	80	755	113	353034	1714577	14259
394	2016-04-11 11:42:46	0	0	0	0	0	0	20.59	2.22	0.03	599121	0	19836	370138	599121	579285	13311	80	755	113	353034	1714615	14259
395	2016-04-11 11:52:40	0	0	0	0	0	0	20.59	2.22	0.03	599131	0	19837	370138	599131	579294	13311	80	755	113	353034	1714657	14259
396	2016-04-11 12:03:00	0	0	0	0	0	0	20.59	2.22	0.03	599133	0	19837	370138	599133	579296	13312	80	755	113	353034	1714704	14260
397	2016-04-11 12:12:44	0	0	0	0	0	0	20.59	2.22	0.03	599144	0	19839	370138	599144	579305	13312	80	755	113	353034	1714758	14260
398	2016-04-11 12:22:47	0	0	0	0	0	0	20.59	2.22	0.03	599144	0	19839	370138	599144	579305	13312	80	755	113	353034	1714791	14260
399	2016-04-11 12:32:51	0	0	0	0	0	0	20.59	2.22	0.03	599157	0	19842	370138	599157	579315	13312	80	755	113	353034	1714841	14260
400	2016-04-11 12:42:47	0	0	0	0	0	0	20.59	2.22	0.03	599164	0	19844	370138	599164	579320	13312	80	755	113	353034	1714895	14260
401	2016-04-11 12:53:16	0	0	0	0	0	0	20.59	2.22	0.03	599172	0	19844	370138	599172	579328	13312	80	755	113	353034	1714964	14260
402	2016-04-11 13:02:44	0	0	0	0	0	0	20.58	2.22	0.03	599175	0	19844	370138	599175	579331	13312	80	755	113	353034	1715021	14260
403	2016-04-11 13:12:44	0	0	0	0	0	0	20.58	2.22	0.03	599180	0	19846	370138	599180	579334	13312	80	755	113	353034	1715072	14260
404	2016-04-11 13:22:46	0	0	0	0	0	0	20.6	2.22	0.03	599190	0	19847	370404	599190	579343	13312	80	755	113	353275	1715132	14260
405	2016-04-11 13:34:39	0	0	0	0	0	0	20.6	2.22	0.03	599196	0	19848	370404	599196	579348	13315	80	755	113	353275	1715190	14263
406	2016-04-11 13:44:55	0	0	0	0	0	0	20.6	2.22	0.03	599201	0	19849	370404	599201	579352	13315	80	755	113	353275	1715245	14263
407	2016-04-11 13:55:13	0	0	0	0	0	0	20.6	2.22	0.03	599205	0	19849	370404	599205	579356	13315	80	755	113	353275	1715307	14263
408	2016-04-11 14:03:04	0	0	0	0	0	0	20.59	2.22	0.03	599209	0	19849	370404	599209	579360	13316	80	755	113	353275	1715350	14264
409	2016-04-11 14:12:45	0	0	0	0	0	0	20.59	2.22	0.03	599221	0	19850	370404	599221	579371	13316	80	755	113	353275	1715402	14264
410	2016-04-11 14:22:55	0	0	0	0	0	0	20.59	2.22	0.03	599225	0	19851	370404	599225	579374	13316	80	755	113	353275	1715430	14264
411	2016-04-11 14:32:48	0	0	0	0	0	0	20.59	2.22	0.03	599235	0	19853	370404	599235	579382	13316	80	755	113	353275	1715458	14264
412	2016-04-11 14:42:45	0	0	0	0	0	0	20.59	2.22	0.03	599237	0	19853	370404	599237	579384	13316	80	755	113	353275	1715480	14264
413	2016-04-11 14:52:44	0	0	0	0	0	0	20.59	2.22	0.03	599242	0	19853	370404	599242	579389	13316	80	755	113	353275	1715501	14264
414	2016-04-11 15:04:21	0	0	0	0	0	0	20.59	2.22	0.03	599251	0	19853	370404	599251	579398	13316	80	755	113	353275	1715524	14264
415	2016-04-11 15:12:46	0	0	0	0	0	0	20.59	2.22	0.03	599255	0	19853	370404	599255	579402	13316	80	755	113	353275	1715540	14264
416	2016-04-11 15:22:52	0	0	0	0	0	0	20.59	2.22	0.03	599258	0	19853	370404	599258	579405	13316	80	755	113	353275	1715568	14264
417	2016-04-11 15:32:55	0	0	0	0	0	0	20.59	2.22	0.03	599264	0	19855	370404	599264	579409	13316	80	755	113	353275	1715585	14264
418	2016-04-11 15:42:48	0	0	0	0	0	0	20.59	2.22	0.03	599272	0	19855	370404	599272	579417	13316	80	755	113	353275	1715603	14264
419	2016-04-11 15:52:42	0	0	0	0	0	0	20.59	2.22	0.03	599277	0	19857	370404	599277	579420	13316	80	755	113	353275	1715625	14264
420	2016-04-11 16:02:49	0	0	0	0	0	0	20.59	2.22	0.03	599284	0	19857	370404	599284	579427	13316	80	755	113	353275	1715644	14264
421	2016-04-11 16:12:54	0	0	0	0	0	0	20.59	2.22	0.03	599296	0	19859	370404	599296	579437	13316	80	755	113	353275	1715659	14264
422	2016-04-11 16:22:43	0	0	0	0	0	0	20.59	2.22	0.03	599300	0	19859	370404	599300	579441	13317	80	755	113	353275	1715684	14265
423	2016-04-11 16:32:43	0	0	0	0	0	0	20.59	2.22	0.03	599310	0	19860	370404	599310	579450	13317	80	755	113	353275	1715697	14265
424	2016-04-11 16:42:44	0	0	0	0	0	0	20.59	2.22	0.03	599315	0	19860	370404	599315	579455	13317	80	755	113	353275	1715714	14265
425	2016-04-11 16:52:48	0	0	0	0	0	0	20.59	2.22	0.03	599327	0	19863	370404	599327	579464	13317	80	755	113	353275	1715733	14265
426	2016-04-11 17:02:53	0	0	0	0	0	0	20.59	2.22	0.03	599332	0	19864	370404	599332	579468	13317	80	755	113	353275	1715747	14265
427	2016-04-11 17:12:47	0	0	0	0	0	0	20.59	2.22	0.03	599337	0	19864	370404	599337	579473	13317	80	755	113	353275	1715763	14265
428	2016-04-11 17:22:42	0	0	0	0	0	0	20.59	2.22	0.03	599338	0	19864	370404	599338	579474	13317	80	755	113	353275	1715777	14265
429	2016-04-11 17:32:47	0	0	0	0	0	0	20.59	2.22	0.03	599343	0	19864	370404	599343	579479	13317	80	755	113	353275	1715800	14265
430	2016-04-11 17:42:42	0	0	0	0	0	0	20.59	2.22	0.03	599349	0	19864	370404	599349	579485	13317	80	755	113	353275	1715811	14265
431	2016-04-11 17:52:43	0	0	0	0	0	0	20.59	2.22	0.03	599362	0	19866	370404	599362	579496	13317	80	755	113	353275	1715834	14265
432	2016-04-11 18:02:42	0	0	0	0	0	0	20.59	2.22	0.03	599365	0	19866	370404	599365	579499	13317	80	755	113	353275	1715851	14265
