1	2018-03-29 16:36:40		0	0	0	0	0	0	0.22	0.1	0	9922	0	22	8030	9922	9922	10	26	50	4	7904	3645655	90
2	2018-03-29 16:47:12		0	0	0	0	0	0	0.58	21.61	0.01	27478	0	277	21817	27478	27478	5938	76	113	11	21272	3645667	6138
3	2018-03-29 16:57:43		0	0	0	0	0	0	0.88	26.66	0.02	41283	0	661	32817	41283	41283	11004	125	181	15	31924	3645678	11325
4	2018-03-29 17:08:20		0	0	0	0	0	0	1.11	32.13	0.02	53428	0	1203	42537	53428	53428	17165	179	228	21	40623	3645691	17593
5	2018-03-29 17:18:47		0	0	0	0	0	0	1.32	32.02	0.03	65381	0	1933	50528	65381	65381	20936	241	283	27	48115	3645696	21487
6	2018-03-29 17:29:18		0	0	0	0	0	0	1.56	31.94	0.04	77881	0	2791	60003	77881	77881	24878	294	344	38	56779	3645714	25554
7	2018-03-29 17:39:48		0	0	0	0	0	0	1.8	32.01	0.04	90841	0	3785	69779	90841	90841	29076	366	405	45	65644	3645730	29892
8	2018-03-29 17:50:20		0	0	0	0	0	0	2.07	30.31	0.05	109675	0	5655	82905	109675	109675	33246	430	478	50	75642	3645743	34204
9	2018-03-29 18:00:51		0	0	0	0	0	0	2.3	30.66	0.06	121594	0	7040	93241	121594	121594	37279	489	516	55	83925	3645753	38339
10	2018-03-29 18:11:22		0	0	0	0	0	0	2.49	31.07	0.06	132834	0	8446	102716	132834	132834	41270	532	567	60	90753	3645760	42429
11	2018-03-29 18:21:53		0	0	0	0	0	0	2.66	31.34	0.07	143568	0	9822	110658	143568	143568	44988	583	613	63	96808	3645765	46247
12	2018-03-29 18:32:30		0	0	0	0	0	0	2.8	32.69	0.07	153496	0	11152	117652	153496	153496	50182	637	651	67	102259	3645777	51537
13	2018-03-29 18:42:52		0	0	0	0	0	0	2.97	32.77	0.08	163534	0	12515	124836	163534	163534	53595	681	699	69	108372	3645793	55044
14	2018-03-29 18:53:26		0	0	0	0	0	0	3.12	32.84	0.08	173004	0	13870	131799	173004	173004	56823	738	741	73	113917	3645806	58375
15	2018-03-29 19:03:55		0	0	0	0	0	0	3.3	32.9	0.08	182465	0	15408	140483	182465	182465	60040	783	785	81	120376	3645822	61689
16	2018-03-29 19:14:24		0	0	0	0	0	0	3.43	32.97	0.09	191436	0	16825	146303	191436	191436	63124	817	829	82	125099	3645840	64852
17	2018-03-29 19:24:54		0	0	0	0	0	0	3.56	33	0.09	200730	0	18666	153751	200730	200730	66232	871	862	85	129838	3645848	68050
18	2018-03-29 19:35:25		0	0	0	0	0	0	3.75	32.34	0.11	215140	0	22609	165501	215140	215140	69578	910	904	89	136810	3645854	71481
19	2018-03-29 19:45:56		0	0	0	0	0	0	3.88	32.43	0.11	224043	0	24916	172398	224043	224043	72646	938	940	92	141322	3645866	74616
20	2018-03-29 19:56:28		0	0	0	0	0	0	4.02	32.49	0.12	233059	0	27105	180949	233059	233059	75728	981	964	94	146746	3645878	77767
21	2018-03-29 20:07:01		0	0	0	0	0	0	4.09	32.6	0.12	241267	0	29027	184941	241267	241267	78641	1015	988	97	149257	3645891	80741
22	2018-03-29 20:17:27		0	0	0	0	0	0	4.19	33.18	0.12	249661	0	30908	189803	249661	249661	82835	1055	1026	100	152777	3645896	85016
23	2018-03-29 20:28:00		0	0	0	0	0	0	4.29	33.21	0.13	257988	0	32855	196201	257988	257988	85670	1084	1061	104	156269	3645910	87919
24	2018-03-29 20:38:30		0	0	0	0	0	0	4.43	33.24	0.13	266301	0	34771	203144	266301	266301	88530	1119	1090	112	161637	3645914	90851
25	2018-03-29 20:49:01		0	0	0	0	0	0	4.56	33.31	0.13	274352	0	36565	210547	274352	274352	91379	1153	1125	119	166306	3645929	93776
26	2018-03-29 20:59:32		0	0	0	0	0	0	4.68	33.36	0.14	282749	0	38469	217014	282749	282749	94313	1187	1160	122	170708	3645943	96782
27	2018-03-29 21:10:05		0	0	0	0	0	0	4.78	33.39	0.14	291353	0	40420	223185	291353	291353	97286	1227	1201	127	174264	3645945	99841
28	2018-03-29 21:20:31		0	0	0	0	0	0	4.99	32.91	0.14	304581	0	43394	232516	304581	304581	100249	1269	1237	132	181784	3645958	102887
29	2018-03-29 21:31:06		0	0	0	0	0	0	5.07	33.46	0.14	313034	0	45317	239416	313034	313034	104737	1297	1270	132	184806	3645974	107436
30	2018-03-29 21:41:33		0	0	0	0	0	0	5.22	33.51	0.15	321542	0	47310	246864	321542	321542	107749	1328	1299	136	190429	3645982	110512
31	2018-03-29 21:52:04		0	0	0	0	0	0	5.36	33.52	0.15	330517	0	49362	253331	330517	330517	110780	1365	1335	142	195452	3645993	113622
32	2018-03-29 22:02:36		0	0	0	0	0	0	5.57	33.55	0.15	339988	0	51465	261479	339988	339988	114064	1395	1378	147	203138	3646010	116984
33	2018-03-29 22:13:05		0	0	0	0	0	0	5.67	33.54	0.15	349454	0	53520	265410	349454	349454	117209	1427	1412	149	206771	3646027	120197
34	2018-03-29 22:23:35		0	0	0	0	0	0	5.81	33.54	0.16	358994	0	55709	273185	358994	358994	120419	1463	1453	153	211662	3646048	123488
35	2018-03-29 22:34:07		0	0	0	0	0	0	5.94	33.56	0.16	368366	0	57964	280933	368366	368366	123606	1510	1495	156	216654	3646062	126767
36	2018-03-29 22:44:37		0	0	0	0	0	0	6.06	33.58	0.16	377982	0	60401	287989	377982	377982	126937	1552	1535	163	221102	3646086	130187
37	2018-03-29 22:55:10		0	0	0	0	0	0	6.2	33.58	0.16	387673	0	62765	292951	387673	387673	130195	1593	1564	169	226160	3646095	133521
38	2018-03-29 23:05:34		0	0	0	0	0	0	6.5	33.21	0.16	401988	0	66243	306898	401988	401988	133514	1626	1614	171	237093	3646103	136925
39	2018-03-29 23:16:05		0	0	0	0	0	0	6.65	33.24	0.17	411482	0	68501	314343	411482	411482	136757	1656	1663	178	242542	3646117	140254
40	2018-03-29 23:26:35		0	0	0	0	0	0	6.82	33.27	0.17	420469	0	70665	324057	420469	420469	139886	1687	1703	184	248516	3646128	143460
41	2018-03-29 23:37:07		0	0	0	0	0	0	6.93	33.33	0.17	429233	0	72644	328446	429233	429233	143046	1728	1745	189	252816	3646141	146708
42	2018-03-29 23:47:37		0	0	0	0	0	0	7	33.69	0.17	437639	0	74582	332801	437639	437639	147423	1759	1776	193	255084	3646149	151151
43	2018-03-29 23:58:08		0	0	0	0	0	0	7.12	33.7	0.17	445930	0	76487	338718	445930	445930	150282	1786	1814	200	259760	3646153	154082
44	2018-03-30 00:38:10		0	0	0	0	0	0	7.46	33.6	0.18	474125	0	83272	358043	474125	474125	159294	1914	1933	210	271937	3646183	163351
45	2018-03-30 01:43:08		0	0	0	0	0	0	7.88	34.01	0.18	504446	0	90743	382724	504446	504446	171577	2045	2049	223	287259	3646207	175894
46	2018-03-30 02:48:10		0	0	0	0	0	0	8.08	34.14	0.18	520212	0	94551	391379	520212	520212	177593	2119	2114	227	294652	3646224	182053
47	2018-03-30 03:53:13		0	0	0	0	0	0	8.22	34.23	0.18	529219	0	96876	399127	529219	529219	181147	2155	2151	228	299848	3646223	185681
48	2018-03-30 04:58:12		0	0	0	0	0	0	8.33	34.25	0.18	536054	0	98708	405007	536054	536054	183611	2197	2177	230	303697	3646226	188215
49	2018-03-30 06:03:21		0	0	0	0	0	0	8.42	34.32	0.19	544304	0	101195	409896	544304	544304	186793	2242	2216	233	306964	3646241	191484
50	2018-03-30 07:08:12		0	0	0	0	0	0	8.63	34.53	0.19	560060	0	105942	423441	560060	560060	193392	2336	2283	236	314745	3646263	198247
51	2018-03-30 07:18:43		0	0	0	0	0	0	8.73	34.56	0.19	563995	0	107121	427836	563995	563995	194892	2360	2303	237	318304	3646271	199792
52	2018-03-30 07:29:13		0	0	0	0	0	0	8.8	34.58	0.19	568254	0	108477	431905	568254	568254	196517	2383	2324	238	321039	3646275	201462
53	2018-03-30 07:39:44		0	0	0	0	0	0	8.91	34.61	0.19	572840	0	109925	436864	572840	572840	198278	2410	2345	240	324790	3646287	203273
54	2018-03-30 07:50:17		0	0	0	0	0	0	8.97	34.65	0.19	577836	0	111487	440015	577836	577836	200222	2429	2364	242	326890	3646291	205257
55	2018-03-30 08:00:49		0	0	0	0	0	0	9.06	34.52	0.19	585707	0	113937	444611	585707	585707	202202	2457	2400	244	330220	3646292	207303
56	2018-03-30 08:11:18		0	0	0	0	0	0	9.1	34.75	0.2	591349	0	115689	451829	591349	591349	205482	2497	2427	244	331945	3646299	210650
57	2018-03-30 08:21:45		0	0	0	0	0	0	9.2	34.78	0.2	597257	0	117694	455585	597257	597257	207719	2531	2455	244	335397	3646306	212949
58	2018-03-30 08:32:17		0	0	0	0	0	0	9.28	34.82	0.2	603635	0	119772	463062	603635	603635	210166	2563	2491	247	338311	3646316	215467
59	2018-03-30 08:42:47		0	0	0	0	0	0	9.38	34.84	0.2	610219	0	122014	466621	610219	610219	212602	2593	2521	251	342020	3646327	217967
60	2018-03-30 08:53:19		0	0	0	0	0	0	9.45	34.86	0.2	616857	0	124251	473127	616857	616857	215060	2634	2549	255	344685	3646338	220498
61	2018-03-30 09:03:50		0	0	0	0	0	0	9.51	34.9	0.2	623769	0	126738	476256	623769	623769	217671	2669	2570	256	346711	3646357	223166
62	2018-03-30 09:14:20		0	0	0	0	0	0	9.55	34.92	0.2	630664	0	129237	479539	630664	630664	220251	2703	2601	259	348398	3646376	225814
63	2018-03-30 09:24:49		0	0	0	0	0	0	9.61	34.95	0.21	637536	0	131741	484108	637536	637536	222806	2739	2627	262	350486	3646384	228434
64	2018-03-30 09:35:20		0	0	0	0	0	0	9.7	34.96	0.21	644786	0	134342	489125	644786	644786	225449	2788	2648	263	353522	3646391	231148
65	2018-03-30 09:45:51		0	0	0	0	0	0	9.9	34.79	0.21	655438	0	138295	495651	655438	655438	228043	2827	2680	265	361170	3646401	233815
66	2018-03-30 09:56:24		0	0	0	0	0	0	9.97	35.01	0.21	662653	0	141074	505564	662653	662653	231976	2864	2713	272	363384	3646413	237825
67	2018-03-30 10:06:53		0	0	0	0	0	0	10.05	35.03	0.21	669597	0	143810	509410	669597	669597	234571	2893	2744	273	366394	3646425	240481
68	2018-03-30 10:17:22		0	0	0	0	0	0	10.06	35.03	0.22	676401	0	146467	511799	676401	676401	236974	2929	2769	280	366915	3646435	242952
69	2018-03-30 10:27:51		0	0	0	0	0	0	10.15	35.06	0.22	682938	0	149140	520817	682938	682938	239439	2972	2797	285	370183	3646453	245493
70	2018-03-30 10:38:26		0	0	0	0	0	0	10.17	35.08	0.22	689223	0	151786	523127	689223	689223	241776	3014	2830	286	371003	3646475	247906
71	2018-03-30 10:48:53		0	0	0	0	0	0	10.28	35.1	0.22	695152	0	154399	528845	695152	695152	243983	3047	2853	289	374753	3646481	250172
72	2018-03-30 10:59:22		0	0	0	0	0	0	10.3	35.11	0.22	701129	0	157079	531660	701129	701129	246160	3083	2879	292	375719	3646496	252414
73	2018-03-30 11:09:55		0	0	0	0	0	0	10.33	35.12	0.23	707096	0	159669	536403	707096	707096	248336	3119	2900	295	376713	3646512	254650
74	2018-03-30 11:20:23		0	0	0	0	0	0	10.38	35.13	0.23	712714	0	162094	541203	712714	712714	250409	3153	2924	301	378498	3646518	256787
75	2018-03-30 11:30:54		0	0	0	0	0	0	10.46	35.01	0.23	720943	0	165814	546650	720943	720943	252409	3183	2948	304	381457	3646523	258844
76	2018-03-30 11:41:24		0	0	0	0	0	0	10.51	35.02	0.23	726638	0	168346	551881	726638	726638	254470	3204	2970	307	383166	3646539	260951
77	2018-03-30 11:51:55		0	0	0	0	0	0	10.54	35.03	0.23	732154	0	170895	552842	732154	732154	256509	3229	2991	310	384402	3646547	263039
78	2018-03-30 12:02:35		0	0	0	0	0	0	10.58	35.05	0.24	737462	0	173363	557119	737462	737462	258470	3262	3021	312	385647	3646558	265065
79	2018-03-30 12:13:02		0	0	0	0	0	0	10.59	35.07	0.24	742489	0	175687	559787	742489	742489	260406	3285	3042	314	386200	3646568	267047
80	2018-03-30 12:23:33		0	0	0	0	0	0	10.66	35.09	0.24	747534	0	178023	563095	747534	747534	262278	3314	3058	316	388624	3646587	268966
81	2018-03-30 12:34:01		0	0	0	0	0	0	10.68	35.21	0.24	752529	0	180346	565771	752529	752529	264986	3335	3074	317	389608	3646602	271712
82	2018-03-30 12:44:30		0	0	0	0	0	0	10.71	35.21	0.24	757562	0	182616	569700	757562	757562	266754	3372	3096	321	390591	3646613	273543
83	2018-03-30 12:54:59		0	0	0	0	0	0	10.73	35.21	0.24	763563	0	185883	572660	763563	763563	268881	3400	3114	323	391183	3646634	275718
84	2018-03-30 13:05:30		0	0	0	0	0	0	10.75	35.23	0.25	769609	0	188992	575160	769609	769609	271152	3430	3140	324	391876	3646656	278046
85	2018-03-30 13:16:03		0	0	0	0	0	0	10.83	35.12	0.25	778651	0	193468	585818	778651	778651	273464	3457	3169	328	394950	3646685	280418
86	2018-03-30 13:26:30		0	0	0	0	0	0	10.86	35.14	0.25	784531	0	196219	594136	784531	784531	275660	3483	3195	331	396112	3646709	282669
87	2018-03-30 13:37:01		0	0	0	0	0	0	10.89	35.15	0.25	790574	0	199096	598550	790574	790574	277873	3506	3220	333	396963	3646726	284932
88	2018-03-30 13:47:31		0	0	0	0	0	0	10.95	35.17	0.25	796352	0	201760	602995	796352	796352	280084	3533	3240	336	399164	3646744	287193
89	2018-03-30 13:58:04		0	0	0	0	0	0	10.97	35.2	0.25	802103	0	204518	605765	802103	802103	282320	3566	3261	338	400221	3646766	289485
90	2018-03-30 14:08:32		0	0	0	0	0	0	11.01	35.22	0.26	807676	0	207106	609386	807676	807676	284485	3602	3284	341	401662	3646787	291712
91	2018-03-30 14:19:06		0	0	0	0	0	0	11.05	35.23	0.26	813332	0	209758	613757	813332	813332	286551	3633	3314	346	403057	3646801	293844
92	2018-03-30 14:29:34		0	0	0	0	0	0	11.1	35.26	0.26	818893	0	212315	616814	818893	818893	288702	3650	3337	348	404690	3646817	296037
93	2018-03-30 14:40:06		0	0	0	0	0	0	11.16	35.27	0.26	824354	0	214797	621418	824354	824354	290764	3677	3350	350	407058	3646821	298141
94	2018-03-30 14:50:33		0	0	0	0	0	0	11.19	35.41	0.26	829554	0	217130	625198	829554	829554	293722	3698	3376	354	408185	3646838	301150
95	2018-03-30 15:01:06		0	0	0	0	0	0	11.25	35.43	0.26	837314	0	220655	629659	837314	837314	296654	3715	3391	357	410349	3646847	304117
96	2018-03-30 15:11:36		0	0	0	0	0	0	11.28	35.45	0.26	842261	0	222826	631715	842261	842261	298553	3736	3412	357	411221	3646864	306058
97	2018-03-30 15:22:07		0	0	0	0	0	0	11.3	35.47	0.27	847281	0	225030	634555	847281	847281	300535	3746	3430	358	412038	3646878	308069
98	2018-03-30 15:32:37		0	0	0	0	0	0	11.34	35.48	0.27	852121	0	227140	638398	852121	852121	302358	3776	3445	359	413413	3646893	309938
99	2018-03-30 15:43:11		0	0	0	0	0	0	11.38	35.5	0.27	857013	0	229240	645107	857013	857013	304218	3803	3461	360	415118	3646907	311842
100	2018-03-30 15:53:40		0	0	0	0	0	0	11.4	35.5	0.27	861979	0	231403	646791	861979	861979	306040	3828	3473	361	415591	3646924	313702
101	2018-03-30 16:04:14		0	0	0	0	0	0	11.42	35.52	0.27	866768	0	233572	652619	866768	866768	307879	3856	3487	363	416402	3646939	315585
102	2018-03-30 16:14:39		0	0	0	0	0	0	11.47	35.53	0.27	871630	0	235793	659030	871630	871630	309671	3878	3503	364	418380	3646956	317416
103	2018-03-30 16:25:08		0	0	0	0	0	0	11.55	35.54	0.27	876375	0	237948	661697	876375	876375	311451	3907	3523	367	421337	3646986	319248
104	2018-03-30 16:35:39		0	0	0	0	0	0	11.6	35.55	0.27	881130	0	239989	667402	881130	881130	313244	3938	3550	369	423179	3647009	321101
105	2018-03-30 16:46:10		0	0	0	0	0	0	11.68	35.47	0.27	888049	0	243132	670233	888049	888049	314983	3958	3574	370	425979	3647032	322885
106	2018-03-30 16:56:42		0	0	0	0	0	0	11.71	35.49	0.27	892442	0	245123	673880	892442	892442	316687	3975	3582	370	427096	3647055	324614
107	2018-03-30 17:07:11		0	0	0	0	0	0	11.75	35.5	0.28	896669	0	247073	679127	896669	896669	318314	3991	3593	372	428514	3647073	326270
108	2018-03-30 17:17:42		0	0	0	0	0	0	11.8	35.52	0.28	900786	0	248933	683776	900786	900786	319973	4013	3615	377	430181	3647091	327978
109	2018-03-30 17:28:11		0	0	0	0	0	0	11.81	35.53	0.28	905105	0	250932	686905	905105	905105	321609	4028	3628	377	430585	3647100	329642
110	2018-03-30 17:38:45		0	0	0	0	0	0	11.88	35.55	0.28	909387	0	252945	693443	909387	909387	323316	4047	3647	380	433160	3647117	331390
111	2018-03-30 17:49:20		0	0	0	0	0	0	11.91	35.65	0.28	913558	0	254882	695311	913558	913558	325642	4073	3658	382	434437	3647138	333755
112	2018-03-30 17:59:50		0	0	0	0	0	0	11.94	35.66	0.28	917816	0	256926	696015	917816	917816	327285	4097	3679	383	435628	3647153	335444
113	2018-03-30 18:10:17		0	0	0	0	0	0	11.98	35.67	0.28	922141	0	258893	698763	922141	922141	328904	4122	3701	383	437074	3647168	337110
114	2018-03-30 18:20:46		0	0	0	0	0	0	12.02	35.68	0.28	926339	0	260844	702327	926339	926339	330504	4142	3718	384	438264	3647185	338748
115	2018-03-30 18:31:23		0	0	0	0	0	0	12.03	35.6	0.28	932706	0	263860	706670	932706	932706	332063	4155	3729	384	438668	3647191	340331
116	2018-03-30 18:41:51		0	0	0	0	0	0	12.04	35.7	0.28	936825	0	265856	709890	936825	936825	334415	4173	3748	385	439135	3647213	342721
117	2018-03-30 18:52:23		0	0	0	0	0	0	12.09	35.7	0.28	940843	0	267800	713232	940843	940843	335902	4195	3759	386	441074	3647226	344242
118	2018-03-30 19:02:53		0	0	0	0	0	0	12.13	35.72	0.29	944730	0	269736	716989	944730	944730	337427	4220	3770	386	442239	3647243	345803
119	2018-03-30 19:13:23		0	0	0	0	0	0	12.14	35.73	0.29	948451	0	271569	718612	948451	948451	338914	4247	3786	387	442935	3647271	347334
120	2018-03-30 19:23:54		0	0	0	0	0	0	12.17	35.74	0.29	952147	0	273450	721206	952147	952147	340342	4264	3803	389	443919	3647290	348798
121	2018-03-30 19:34:25		0	0	0	0	0	0	12.19	35.75	0.29	956016	0	275349	723608	956016	956016	341797	4279	3813	390	444621	3647305	350279
122	2018-03-30 19:44:55		0	0	0	0	0	0	12.19	35.76	0.29	959719	0	277204	724961	959719	959719	343234	4307	3824	390	444621	3647318	351755
123	2018-03-30 19:55:27		0	0	0	0	0	0	12.2	35.79	0.29	963471	0	279071	727003	963471	963471	344784	4320	3836	390	445132	3647338	353330
124	2018-03-30 20:06:00		0	0	0	0	0	0	12.29	35.73	0.29	969193	0	281942	730649	969193	969193	346312	4341	3856	390	448209	3647359	354899
125	2018-03-30 20:16:27		0	0	0	0	0	0	12.29	35.74	0.29	973000	0	283825	732843	973000	973000	347749	4356	3868	391	448403	3647379	356364
126	2018-03-30 20:26:57		0	0	0	0	0	0	12.3	35.76	0.29	976603	0	285567	735978	976603	976603	349195	4372	3879	393	448728	3647393	357839
127	2018-03-30 20:37:28		0	0	0	0	0	0	12.31	35.77	0.29	980383	0	287504	738260	980383	980383	350700	4392	3894	395	448956	3647409	359381
128	2018-03-30 20:47:59		0	0	0	0	0	0	12.32	35.79	0.29	984019	0	289315	741397	984019	984019	352192	4403	3899	395	449282	3647433	360889
129	2018-03-30 20:58:28		0	0	0	0	0	0	12.39	35.87	0.29	987648	0	291131	744562	987648	987648	354304	4424	3915	395	451938	3647455	363038
130	2018-03-30 21:08:59		0	0	0	0	0	0	12.4	35.89	0.3	991255	0	292973	745593	991255	991255	355728	4445	3935	397	452202	3647468	364505
131	2018-03-30 21:19:29		0	0	0	0	0	0	12.42	35.9	0.3	994932	0	294841	748454	994932	994932	357178	4470	3949	399	453161	3647485	365996
132	2018-03-30 21:30:00		0	0	0	0	0	0	12.43	35.91	0.3	998588	0	296800	753600	998588	998588	358625	4484	3958	400	453294	3647511	367467
133	2018-03-30 21:40:32		0	0	0	0	0	0	12.48	35.92	0.3	1002084	0	298691	755830	1002084	1002084	359984	4495	3980	401	455218	3647540	368860
134	2018-03-30 21:51:01		0	0	0	0	0	0	12.51	35.94	0.3	1005585	0	300561	761032	1005585	1005585	361368	4516	3991	402	456292	3647572	370277
135	2018-03-30 22:01:31		0	0	0	0	0	0	12.52	35.89	0.3	1011023	0	303437	765359	1011023	1011023	362864	4527	4010	402	456797	3647597	371803
136	2018-03-30 22:12:05		0	0	0	0	0	0	12.52	35.91	0.3	1014588	0	305324	769066	1014588	1014588	364309	4543	4025	402	456830	3647624	373279
137	2018-03-30 22:22:32		0	0	0	0	0	0	12.54	35.93	0.3	1018142	0	307153	773086	1018142	1018142	365788	4562	4042	402	457505	3647647	374794
138	2018-03-30 22:33:05		0	0	0	0	0	0	12.55	35.95	0.3	1021621	0	308922	777063	1021621	1021621	367323	4577	4053	402	457962	3647665	376355
139	2018-03-30 22:43:35		0	0	0	0	0	0	12.57	35.97	0.3	1025172	0	310760	780098	1025172	1025172	368764	4588	4068	402	458360	3647703	377822
140	2018-03-30 22:54:01		0	0	0	0	0	0	12.59	36.06	0.3	1028706	0	312605	783999	1028706	1028706	370909	4609	4085	402	459244	3647721	380005
141	2018-03-30 23:04:34		0	0	0	0	0	0	12.62	36.08	0.3	1032181	0	314408	787332	1032181	1032181	372366	4633	4097	403	460405	3647759	381499
142	2018-03-30 23:15:05		0	0	0	0	0	0	12.62	36.1	0.31	1035625	0	316188	788033	1035625	1035625	373833	4645	4109	403	460405	3647780	382990
143	2018-03-30 23:25:36		0	0	0	0	0	0	12.66	36.11	0.31	1038982	0	317960	792546	1038982	1038982	375194	4664	4122	403	461882	3647805	384383
144	2018-03-30 23:36:03		0	0	0	0	0	0	12.71	36.13	0.31	1042128	0	319583	795933	1042128	1042128	376517	4687	4132	403	463532	3647818	385739
145	2018-03-30 23:46:35		0	0	0	0	0	0	12.73	36.09	0.31	1046962	0	322071	800357	1046962	1046962	377870	4703	4143	404	464288	3647841	387120
146	2018-03-30 23:57:03		0	0	0	0	0	0	12.75	36.11	0.31	1049959	0	323547	801859	1049959	1049959	379120	4719	4152	404	465125	3647856	388395
147	2018-03-31 00:37:04		0	0	0	0	0	0	12.79	36.26	0.31	1060565	0	328696	806034	1060565	1060565	384522	4758	4194	405	466509	3647907	393879
148	2018-03-31 01:42:07		0	0	0	0	0	0	12.84	36.32	0.31	1072706	0	334462	822844	1072706	1072706	389645	4806	4245	406	468480	3647948	399102
149	2018-03-31 02:47:05		0	0	0	0	0	0	12.88	36.4	0.31	1079581	0	337560	829457	1079581	1079581	392936	4836	4269	411	469831	3647993	402452
150	2018-03-31 03:52:05		0	0	0	0	0	0	12.95	36.44	0.31	1083512	0	339385	837527	1083512	1083512	394819	4855	4283	412	472571	3648014	404369
151	2018-03-31 04:57:06		0	0	0	0	0	0	12.97	36.47	0.31	1086437	0	340781	841739	1086437	1086437	396179	4865	4292	412	473149	3648021	405748
152	2018-03-31 06:02:07		0	0	0	0	0	0	12.99	36.49	0.31	1089916	0	342425	842197	1089916	1089916	397728	4882	4301	413	473728	3648025	407324
153	2018-03-31 07:07:08		0	0	0	0	0	0	13.01	36.53	0.32	1096289	0	345566	845012	1096289	1096289	400420	4919	4322	413	474745	3648049	410074
154	2018-03-31 07:17:43		0	0	0	0	0	0	13.01	36.53	0.32	1097825	0	346351	845012	1097825	1097825	401061	4929	4327	413	474745	3648049	410730
155	2018-03-31 11:00:15		0	0	0	0	0	0	13.24	36.89	0.33	1157904	0	376328	882387	1157904	1157904	427133	5209	4557	439	483181	3648369	437338
156	2018-03-31 11:10:38		0	0	0	0	0	0	13.25	36.91	0.33	1160937	0	377840	887111	1160937	1160937	428479	5226	4578	440	483445	3648385	438723
157	2018-03-31 11:21:11		0	0	0	0	0	0	13.25	36.98	0.33	1164063	0	379363	890612	1164063	1164063	430482	5236	4588	442	483445	3648403	440748
158	2018-03-31 11:31:38		0	0	0	0	0	0	13.27	37	0.33	1167143	0	380821	892087	1167143	1167143	431870	5250	4600	444	483974	3648429	442164
159	2018-03-31 11:42:03		0	0	0	0	0	0	13.27	36.97	0.33	1171599	0	382976	893338	1171599	1171599	433186	5270	4613	446	484126	3648462	443515
160	2018-03-31 11:52:34		0	0	0	0	0	0	13.29	37.04	0.33	1174600	0	384536	894612	1174600	1174600	435088	5284	4626	446	485036	3648485	445444
161	2018-03-31 12:03:05		0	0	0	0	0	0	13.31	37.06	0.33	1177569	0	385970	900990	1177569	1177569	436350	5301	4633	448	485568	3648502	446732
162	2018-03-31 12:13:36		0	0	0	0	0	0	13.32	37.07	0.33	1180379	0	387404	903092	1180379	1180379	437548	5316	4641	448	485873	3648518	447953
163	2018-03-31 12:24:06		0	0	0	0	0	0	13.33	37.08	0.33	1183247	0	388857	905726	1183247	1183247	438761	5330	4658	448	486519	3648545	449197
164	2018-03-31 12:34:36		0	0	0	0	0	0	13.33	37.09	0.33	1186032	0	390282	907983	1186032	1186032	439956	5348	4664	448	486519	3648558	450416
165	2018-03-31 12:45:07		0	0	0	0	0	0	13.35	37.11	0.33	1188792	0	391709	912028	1188792	1188792	441165	5365	4676	449	487266	3648589	451655
166	2018-03-31 12:55:39		0	0	0	0	0	0	13.37	37.12	0.33	1191581	0	393148	912297	1191581	1191581	442354	5381	4682	449	487650	3648625	452866
167	2018-03-31 13:06:11		0	0	0	0	0	0	13.37	37.14	0.33	1194344	0	394571	914655	1194344	1194344	443543	5397	4701	450	487650	3648645	454091
168	2018-03-31 13:16:39		0	0	0	0	0	0	13.37	37.15	0.33	1197123	0	396089	916144	1197123	1197123	444756	5414	4711	451	487650	3648665	455332
169	2018-03-31 13:27:09		0	0	0	0	0	0	13.37	37.12	0.33	1201214	0	398154	921460	1201214	1201214	445927	5427	4725	452	487919	3648686	456531
170	2018-03-31 13:37:39		0	0	0	0	0	0	13.37	37.14	0.33	1203954	0	399549	922284	1203954	1203954	447138	5441	4737	453	487919	3648705	457769
171	2018-03-31 13:48:10		0	0	0	0	0	0	13.37	37.16	0.33	1206628	0	400923	922550	1206628	1206628	448336	5454	4744	455	487919	3648726	458989
172	2018-03-31 13:58:41		0	0	0	0	0	0	13.37	37.17	0.33	1209274	0	402295	922687	1209274	1209274	449461	5481	4750	455	487919	3648750	460147
173	2018-03-31 14:09:11		0	0	0	0	0	0	13.39	37.23	0.33	1212029	0	403724	924443	1212029	1212029	451230	5498	4757	456	488689	3648758	461941
174	2018-03-31 14:19:41		0	0	0	0	0	0	13.39	37.24	0.33	1214719	0	405141	924987	1214719	1214719	452343	5517	4765	457	488689	3648777	463082
175	2018-03-31 14:30:12		0	0	0	0	0	0	13.41	37.25	0.33	1217397	0	406551	928942	1217397	1217397	453481	5534	4777	459	489306	3648792	464251
176	2018-03-31 14:40:43		0	0	0	0	0	0	13.43	37.26	0.33	1219967	0	407896	930014	1219967	1219967	454566	5544	4780	459	489875	3648800	465349
177	2018-03-31 14:51:17		0	0	0	0	0	0	13.43	37.27	0.33	1222611	0	409256	932956	1222611	1222611	455725	5558	4787	459	490108	3648811	466529
178	2018-03-31 15:01:46		0	0	0	0	0	0	13.44	37.29	0.34	1225201	0	410619	935489	1225201	1225201	456862	5574	4795	459	490418	3648826	467690
179	2018-03-31 15:12:14		0	0	0	0	0	0	13.47	37.26	0.34	1229135	0	412674	942465	1229135	1229135	457949	5586	4808	459	491430	3648846	468802
180	2018-03-31 15:22:45		0	0	0	0	0	0	13.48	37.27	0.34	1231687	0	413997	942822	1231687	1231687	459039	5601	4817	460	491977	3648859	469917
181	2018-03-31 15:33:14		0	0	0	0	0	0	13.48	37.32	0.34	1234466	0	415429	945846	1234466	1234466	460700	5612	4824	461	491977	3648876	471597
182	2018-03-31 15:43:45		0	0	0	0	0	0	13.48	37.33	0.34	1237199	0	416835	946704	1237199	1237199	461875	5627	4835	462	492013	3648882	472799
183	2018-03-31 15:54:16		0	0	0	0	0	0	13.48	37.35	0.34	1239800	0	418166	947864	1239800	1239800	463016	5636	4845	462	492013	3648904	473959
184	2018-03-31 16:04:48		0	0	0	0	0	0	13.49	37.36	0.34	1242356	0	419437	949021	1242356	1242356	464154	5657	4856	462	492325	3648920	475129
185	2018-03-31 16:15:17		0	0	0	0	0	0	13.5	37.37	0.34	1244936	0	420761	950587	1244936	1244936	465279	5675	4867	462	492638	3648938	476283
186	2018-03-31 16:25:51		0	0	0	0	0	0	13.5	37.38	0.34	1247582	0	422194	952470	1247582	1247582	466404	5692	4889	464	492717	3648950	477449
187	2018-03-31 16:36:19		0	0	0	0	0	0	13.51	37.39	0.34	1250249	0	423588	957250	1250249	1250249	467487	5704	4900	466	492952	3648968	478557
188	2018-03-31 16:46:50		0	0	0	0	0	0	13.53	37.36	0.34	1254239	0	425715	962214	1254239	1254239	468614	5720	4907	468	493581	3648980	479709
189	2018-03-31 16:57:20		0	0	0	0	0	0	13.53	37.37	0.34	1256865	0	427131	965797	1256865	1256865	469696	5729	4920	468	493581	3648989	480813
190	2018-03-31 17:07:51		0	0	0	0	0	0	13.57	37.37	0.34	1259697	0	428518	965797	1259697	1259697	470794	5737	4927	469	495318	3649008	481927
191	2018-03-31 17:18:20		0	0	0	0	0	0	13.58	37.39	0.34	1262569	0	429837	967570	1262569	1262569	472063	5750	4937	469	495476	3649022	483219
192	2018-03-31 17:28:51		0	0	0	0	0	0	13.58	37.46	0.34	1265467	0	431244	970147	1265467	1265467	474039	5760	4951	469	495635	3649039	485219
193	2018-03-31 17:39:22		0	0	0	0	0	0	13.63	37.48	0.34	1268298	0	432533	972890	1268298	1268298	475325	5776	4966	470	497227	3649051	486537
194	2018-03-31 17:49:53		0	0	0	0	0	0	13.63	37.5	0.34	1271293	0	433987	974268	1271293	1271293	476693	5794	4978	470	497546	3649064	487935
195	2018-03-31 18:00:23		0	0	0	0	0	0	13.64	37.51	0.34	1274331	0	435344	978096	1274331	1274331	478046	5814	4989	472	497766	3649071	489321
196	2018-03-31 18:10:59		0	0	0	0	0	0	13.64	37.54	0.34	1277295	0	436728	980108	1277295	1277295	479448	5828	4996	472	497766	3649096	490744
197	2018-03-31 18:21:33		0	0	0	0	0	0	13.65	37.56	0.34	1280290	0	438140	981506	1280290	1280290	480835	5836	5007	473	498006	3649110	492151
198	2018-03-31 18:32:01		0	0	0	0	0	0	13.66	37.53	0.34	1284786	0	440176	984940	1284786	1284786	482222	5849	5017	473	498568	3649126	493561
199	2018-03-31 18:42:30		0	0	0	0	0	0	13.66	37.55	0.34	1287763	0	441569	986274	1287763	1287763	483514	5866	5026	473	498568	3649150	494879
200	2018-03-31 18:52:59		0	0	0	0	0	0	13.68	37.62	0.34	1290786	0	442981	987217	1290786	1290786	485591	5877	5037	476	499291	3649175	496981
201	2018-03-31 19:03:31		0	0	0	0	0	0	13.74	37.63	0.34	1293688	0	444291	989070	1293688	1293688	486869	5890	5049	476	501353	3649199	498284
202	2018-03-31 19:14:01		0	0	0	0	0	0	13.75	37.65	0.34	1296471	0	445603	990652	1296471	1296471	488117	5893	5057	476	501922	3649219	499543
203	2018-03-31 19:24:31		0	0	0	0	0	0	13.75	37.67	0.34	1299229	0	446833	991922	1299229	1299229	489374	5905	5075	476	501922	3649237	500830
204	2018-03-31 19:35:02		0	0	0	0	0	0	13.76	37.69	0.34	1302082	0	448136	992826	1302082	1302082	490698	5920	5082	477	502084	3649252	502177
205	2018-03-31 19:45:33		0	0	0	0	0	0	13.76	37.7	0.34	1305049	0	449557	997253	1305049	1305049	492048	5936	5097	478	502084	3649275	503559
206	2018-03-31 19:56:04		0	0	0	0	0	0	13.78	37.72	0.34	1308135	0	450984	1001405	1308135	1308135	493421	5953	5114	479	502696	3649289	504967
207	2018-03-31 20:06:35		0	0	0	0	0	0	13.81	37.73	0.34	1311204	0	452336	1003190	1311204	1311204	494750	5970	5126	481	503800	3649304	506327
208	2018-03-31 20:17:04		0	0	0	0	0	0	13.84	37.71	0.35	1315696	0	454330	1007433	1315696	1315696	496121	5983	5136	483	505033	3649321	507723
209	2018-03-31 20:27:36		0	0	0	0	0	0	13.84	37.73	0.35	1318673	0	455695	1009404	1318673	1318673	497487	5996	5148	483	505033	3649337	509114
210	2018-03-31 20:38:07		0	0	0	0	0	0	13.85	37.74	0.35	1321782	0	457142	1016341	1321782	1321782	498838	6009	5163	484	505362	3649360	510494
211	2018-03-31 20:48:36		0	0	0	0	0	0	13.86	37.75	0.35	1324991	0	458728	1016341	1324991	1324991	500243	6028	5173	485	505692	3649381	511929
212	2018-03-31 20:59:07		0	0	0	0	0	0	13.88	37.82	0.35	1327992	0	460148	1023458	1327992	1327992	502276	6043	5183	486	506437	3649418	513988
213	2018-03-31 21:09:39		0	0	0	0	0	0	13.91	37.79	0.35	1330992	0	461589	1025662	1330992	1330992	502954	6050	5199	486	507516	3649446	514689
214	2018-03-31 21:20:07		0	0	0	0	0	0	13.91	37.8	0.35	1333989	0	463042	1028728	1333989	1333989	504293	6069	5211	486	507516	3649471	516059
215	2018-03-31 21:30:40		0	0	0	0	0	0	13.91	37.87	0.35	1336778	0	464328	1028814	1336778	1336778	506274	6079	5227	486	507599	3649477	518066
216	2018-03-31 21:41:09		0	0	0	0	0	0	13.92	37.89	0.35	1339656	0	465686	1031685	1339656	1339656	507585	6094	5246	486	508099	3649507	519411
217	2018-03-31 21:51:40		0	0	0	0	0	0	13.92	37.91	0.35	1342530	0	467031	1032975	1342530	1342530	508897	6106	5255	489	508099	3649523	520747
218	2018-03-31 22:02:11		0	0	0	0	0	0	13.93	37.87	0.35	1347291	0	469328	1039821	1347291	1347291	510269	6117	5270	492	508433	3649543	522148
219	2018-03-31 22:12:41		0	0	0	0	0	0	13.93	37.89	0.35	1350201	0	470718	1042798	1350201	1350201	511631	6135	5276	492	508433	3649562	523534
220	2018-03-31 22:23:11		0	0	0	0	0	0	13.93	37.91	0.35	1353156	0	472132	1045086	1353156	1353156	513011	6141	5286	492	508433	3649579	524930
221	2018-03-31 22:33:42		0	0	0	0	0	0	13.94	37.93	0.35	1356009	0	473489	1046543	1356009	1356009	514350	6145	5298	492	508600	3649610	526285
222	2018-03-31 22:44:12		0	0	0	0	0	0	13.94	37.95	0.35	1358838	0	474754	1048093	1358838	1358838	515624	6167	5305	493	508767	3649624	527589
223	2018-03-31 22:54:40		0	0	0	0	0	0	13.94	38.01	0.35	1361688	0	476097	1049692	1361688	1361688	517617	6176	5315	493	508892	3649644	529601
224	2018-03-31 23:05:11		0	0	0	0	0	0	13.94	38.03	0.35	1364684	0	477486	1052457	1364684	1364684	518944	6200	5323	496	508892	3649663	530963
225	2018-03-31 23:15:41		0	0	0	0	0	0	13.97	38.05	0.35	1367788	0	478924	1053755	1367788	1367788	520389	6213	5334	497	509730	3649677	532433
226	2018-03-31 23:26:13		0	0	0	0	0	0	13.97	38.07	0.35	1370893	0	480363	1055461	1370893	1370893	521831	6223	5346	497	509814	3649706	533897
227	2018-03-31 23:36:46		0	0	0	0	0	0	13.98	38.09	0.35	1373854	0	481706	1058438	1373854	1373854	523248	6228	5357	497	510066	3649729	535330
228	2018-03-31 23:47:14		0	0	0	0	0	0	13.98	38.07	0.35	1378169	0	483714	1062570	1378169	1378169	524616	6242	5369	497	510234	3649764	536724
229	2018-03-31 23:57:44		0	0	0	0	0	0	13.98	38.13	0.35	1380882	0	484931	1064762	1380882	1380882	526540	6255	5375	498	510402	3649796	538668
230	2018-04-01 00:50:14		0	0	0	0	0	0	14.06	38.22	0.35	1392869	0	490208	1073250	1392869	1392869	532395	6302	5421	499	513024	3649875	544617
231	2018-04-01 01:55:15		0	0	0	0	0	0	14.1	38.31	0.35	1403746	0	494908	1082774	1403746	1403746	537721	6360	5463	501	514687	3649944	550045
232	2018-04-01 04:00:16		0	0	0	0	0	0	14.12	38.36	0.35	1409785	0	497579	1084552	1409785	1409785	540794	6383	5477	503	515201	3649984	553157
233	2018-04-01 05:05:16		0	0	0	0	0	0	14.13	38.39	0.35	1413411	0	499236	1085883	1413411	1413411	542549	6392	5482	505	515630	3649993	554928
234	2018-04-01 06:10:18		0	0	0	0	0	0	14.14	38.4	0.35	1416110	0	500485	1090520	1416110	1416110	543832	6401	5489	505	516145	3650001	556227
235	2018-04-01 07:15:17		0	0	0	0	0	0	14.15	38.42	0.35	1419213	0	501942	1091169	1419213	1419213	545305	6415	5499	505	516640	3650021	557724
236	2018-04-01 07:25:49		0	0	0	0	0	0	14.15	38.43	0.35	1419853	0	502258	1091169	1419853	1419853	545604	6417	5500	505	516640	3650023	558026
237	2018-04-01 07:46:50		0	0	0	0	0	0	14.15	38.44	0.35	1421335	0	502945	1091938	1421335	1421335	546337	6424	5506	505	516640	3650026	558772
238	2018-04-01 07:57:22		0	0	0	0	0	0	14.15	38.45	0.35	1422197	0	503364	1093288	1422197	1422197	546767	6428	5513	506	516640	3650034	559214
239	2018-04-01 08:07:53		0	0	0	0	0	0	14.15	38.44	0.35	1423773	0	504123	1094151	1423773	1423773	547269	6430	5519	506	516640	3650038	559724
240	2018-04-01 08:18:22		0	0	0	0	0	0	14.16	38.44	0.35	1424924	0	504665	1095700	1424924	1424924	547800	6441	5526	507	516986	3650046	560274
241	2018-04-01 08:28:51		0	0	0	0	0	0	14.16	38.47	0.35	1426318	0	505335	1096852	1426318	1426318	548739	6448	5531	507	516986	3650054	561225
242	2018-04-01 08:39:22		0	0	0	0	0	0	14.16	38.48	0.35	1427811	0	506001	1099383	1427811	1427811	549490	6456	5537	507	516986	3650057	561990
243	2018-04-01 08:49:54		0	0	0	0	0	0	14.16	38.5	0.35	1429452	0	506777	1099383	1429452	1429452	550278	6465	5543	507	516986	3650064	562793
244	2018-04-01 09:00:23		0	0	0	0	0	0	14.16	38.51	0.35	1431199	0	507630	1102711	1431199	1431199	551117	6473	5553	508	516986	3650073	563651
245	2018-04-01 09:10:55		0	0	0	0	0	0	14.17	38.52	0.35	1433091	0	508479	1105270	1433091	1433091	552033	6481	5559	510	517288	3650087	564583
246	2018-04-01 09:21:26		0	0	0	0	0	0	14.17	38.54	0.35	1435058	0	509314	1105270	1435058	1435058	553030	6491	5569	510	517288	3650096	565600
247	2018-04-01 09:31:57		0	0	0	0	0	0	14.17	38.55	0.36	1437003	0	510253	1107642	1437003	1437003	554003	6501	5580	510	517288	3650111	566594
248	2018-04-01 09:42:28		0	0	0	0	0	0	14.17	38.57	0.36	1439116	0	511806	1107642	1439116	1439116	555067	6506	5591	510	517288	3650121	567674
249	2018-04-01 09:52:58		0	0	0	0	0	0	14.18	38.55	0.36	1442362	0	512807	1109826	1442362	1442362	556068	6518	5601	511	517764	3650134	568698
250	2018-04-01 10:03:28		0	0	0	0	0	0	14.18	38.57	0.36	1444675	0	513954	1113117	1444675	1444675	557212	6524	5611	511	517764	3650143	569858
251	2018-04-01 10:13:59		0	0	0	0	0	0	14.18	38.58	0.36	1447166	0	515076	1113318	1447166	1447166	558341	6532	5617	513	517764	3650161	571003
252	2018-04-01 10:24:29		0	0	0	0	0	0	14.18	38.65	0.36	1449654	0	516193	1113718	1449654	1449654	560222	6540	5627	513	517764	3650185	572902
253	2018-04-01 10:34:59		0	0	0	0	0	0	14.19	38.66	0.36	1452090	0	517333	1116580	1452090	1452090	561418	6553	5638	518	517785	3650208	574127
254	2018-04-01 10:45:29		0	0	0	0	0	0	14.18	38.68	0.36	1454676	0	518529	1118975	1454676	1454676	562709	6562	5656	518	517785	3650231	575445
255	2018-04-01 10:55:59		0	0	0	0	0	0	14.18	38.7	0.36	1457246	0	519763	1120494	1457246	1457246	563983	6573	5665	518	517785	3650244	576739
256	2018-04-01 11:06:31		0	0	0	0	0	0	14.2	38.72	0.36	1459941	0	521001	1122017	1459941	1459941	565347	6587	5679	518	518479	3650258	578131
257	2018-04-01 11:17:01		0	0	0	0	0	0	14.22	38.75	0.36	1462636	0	522199	1127584	1462636	1462636	566719	6600	5692	524	519174	3650270	579535
258	2018-04-01 11:27:35		0	0	0	0	0	0	14.25	38.77	0.36	1465462	0	523455	1131951	1465462	1465462	568119	6615	5708	526	520044	3650288	580968
259	2018-04-01 11:38:04		0	0	0	0	0	0	14.25	38.76	0.36	1469464	0	525281	1132002	1469464	1469464	569494	6628	5722	526	520044	3650328	582370
260	2018-04-01 11:48:34		0	0	0	0	0	0	14.31	38.82	0.36	1472204	0	526570	1136469	1472204	1472204	571565	6642	5736	526	522451	3650355	584469
261	2018-04-01 11:59:05		0	0	0	0	0	0	14.32	38.84	0.36	1474704	0	527747	1136678	1474704	1474704	572796	6651	5747	527	522716	3650366	585721
262	2018-04-01 12:09:35		0	0	0	0	0	0	14.32	38.86	0.36	1477194	0	528930	1137905	1477194	1477194	574007	6664	5763	529	522716	3650378	586963
263	2018-04-01 12:20:05		0	0	0	0	0	0	14.33	38.83	0.36	1479916	0	530210	1138114	1479916	1479916	574617	6674	5773	529	523025	3650381	587593
264	2018-04-01 12:30:36		0	0	0	0	0	0	14.33	38.85	0.36	1482572	0	531432	1140629	1482572	1482572	575959	6687	5788	530	523246	3650393	588964
265	2018-04-01 12:41:07		0	0	0	0	0	0	14.33	38.86	0.36	1485288	0	532738	1141260	1485288	1485288	577250	6692	5801	530	523246	3650409	590273
266	2018-04-01 12:51:37		0	0	0	0	0	0	14.33	38.88	0.36	1487975	0	533947	1142418	1487975	1487975	578551	6697	5813	531	523246	3650418	591592
267	2018-04-01 13:02:08		0	0	0	0	0	0	14.35	38.95	0.36	1490717	0	535198	1142418	1490717	1490717	580581	6711	5834	531	523954	3650425	593657
268	2018-04-01 13:12:38		0	0	0	0	0	0	14.37	38.93	0.36	1494490	0	536988	1147067	1494490	1494490	581832	6725	5849	532	524664	3650438	594938
269	2018-04-01 13:23:08		0	0	0	0	0	0	14.39	38.95	0.36	1497095	0	538088	1151586	1497095	1497095	583089	6730	5863	532	525176	3650441	596214
270	2018-04-01 13:33:40		0	0	0	0	0	0	14.39	38.97	0.36	1499562	0	539239	1152015	1499562	1499562	584367	6738	5869	532	525176	3650448	597506
271	2018-04-01 13:44:14		0	0	0	0	0	0	14.39	38.99	0.36	1501923	0	540247	1152015	1501923	1501923	585558	6748	5879	532	525176	3650456	598717
272	2018-04-01 13:54:42		0	0	0	0	0	0	14.39	39	0.36	1504456	0	541343	1152309	1504456	1504456	586736	6763	5893	533	525176	3650453	599925
273	2018-04-01 14:05:11		0	0	0	0	0	0	14.39	39.01	0.36	1507189	0	542472	1152524	1507189	1507189	588022	6770	5900	535	525265	3650458	601227
274	2018-04-01 14:15:39		0	0	0	0	0	0	14.39	39.03	0.36	1509809	0	543604	1155966	1509809	1509809	589334	6782	5913	535	525265	3650487	602564
275	2018-04-01 14:26:11		0	0	0	0	0	0	14.4	39.1	0.36	1512354	0	544686	1156614	1512354	1512354	591313	6790	5923	535	525845	3650511	604561
276	2018-04-01 14:36:39		0	0	0	0	0	0	14.41	39.12	0.36	1514943	0	545842	1159755	1514943	1514943	592610	6802	5938	536	526180	3650528	605886
277	2018-04-01 14:47:11		0	0	0	0	0	0	14.41	39.13	0.36	1517371	0	546916	1160325	1517371	1517371	593767	6812	5956	536	526180	3650537	607071
278	2018-04-01 14:57:41		0	0	0	0	0	0	14.41	39.12	0.36	1520876	0	548519	1163705	1520876	1520876	594953	6814	5968	537	526180	3650547	608272
279	2018-04-01 15:08:12		0	0	0	0	0	0	14.43	39.13	0.36	1523210	0	549585	1166774	1523210	1523210	596066	6823	5975	538	526807	3650556	609402
280	2018-04-01 15:18:44		0	0	0	0	0	0	14.43	39.14	0.36	1525553	0	550654	1167434	1525553	1525553	597139	6831	5988	540	526807	3650569	610498
281	2018-04-01 15:29:15		0	0	0	0	0	0	14.43	39.16	0.36	1527873	0	551668	1170358	1527873	1527873	598241	6843	5992	540	526941	3650569	611616
282	2018-04-01 15:39:44		0	0	0	0	0	0	14.43	39.17	0.36	1530237	0	552654	1172740	1530237	1530237	599411	6855	6000	542	526941	3650583	612808
283	2018-04-01 15:50:14		0	0	0	0	0	0	14.43	39.18	0.36	1532553	0	553652	1176277	1532553	1532553	600529	6859	6010	543	526941	3650585	613941
284	2018-04-01 16:00:45		0	0	0	0	0	0	14.44	39.2	0.36	1534946	0	554611	1177171	1534946	1534946	601680	6868	6021	545	527031	3650593	615114
285	2018-04-01 16:11:16		0	0	0	0	0	0	14.44	39.2	0.36	1537891	0	556188	1177283	1537891	1537891	602826	6880	6034	549	527031	3650605	616289
286	2018-04-01 16:21:47		0	0	0	0	0	0	14.44	39.25	0.36	1541430	0	558353	1179062	1541430	1541430	605009	6891	6045	550	527031	3650611	618495
287	2018-04-01 16:32:17		0	0	0	0	0	0	14.44	39.26	0.36	1544456	0	560089	1179062	1544456	1544456	606364	6902	6059	551	527031	3650615	619876
288	2018-04-01 16:42:46		0	0	0	0	0	0	14.44	39.24	0.36	1548945	0	562457	1183908	1548945	1548945	607750	6915	6070	553	527210	3650629	621288
289	2018-04-01 16:53:17		0	0	0	0	0	0	14.44	39.25	0.36	1551880	0	564048	1185495	1551880	1551880	609079	6926	6075	553	527210	3650634	622633
290	2018-04-01 17:03:51		0	0	0	0	0	0	14.44	39.26	0.36	1554569	0	565351	1185495	1554569	1554569	610351	6946	6079	555	527210	3650644	623931
291	2018-04-01 17:14:21		0	0	0	0	0	0	14.47	39.27	0.36	1557249	0	566610	1187541	1557249	1557249	611558	6957	6090	556	528290	3650652	625161
292	2018-04-01 17:24:53		0	0	0	0	0	0	14.48	39.28	0.36	1559969	0	567892	1187541	1559969	1559969	612807	6973	6102	558	528470	3650664	626440
