1	2017-03-25 18:04:05	0	0	0	0	0	0	0.04	0.53	0	1330	1	2	1236	1330	1328	7	1928	3300	181	1234	2828067	5416
2	2017-03-25 18:14:05	0	0	0	0	0	0	0.45	1.85	0	14891	1	46	12689	14891	14845	276	1934	3324	182	12657	2828107	5716
3	2017-03-25 18:24:05	0	0	0	0	0	0	0.71	2.38	0.01	25943	1	217	20432	25943	25726	617	1948	3340	182	20214	2828157	6087
4	2017-03-25 18:34:05	0	0	0	0	0	0	0.97	2.6	0.01	35634	1	484	27678	35634	35150	925	1956	3351	182	27328	2828222	6414
5	2017-03-25 18:44:14	0	0	0	0	0	0	1.19	2.79	0.02	44201	1	751	34364	44201	43450	1234	1960	3368	182	33719	2828286	6744
6	2017-03-25 18:54:11	0	0	0	0	0	0	1.36	2.93	0.02	51189	1	1005	39286	51189	50184	1500	1962	3378	182	38362	2828343	7022
7	2017-03-25 19:04:12	0	0	0	0	0	0	1.49	2.98	0.02	57590	1	1249	43450	57590	56341	1715	1972	3386	183	42135	2828418	7256
8	2017-03-25 19:14:12	0	0	0	0	0	0	1.64	2.99	0.03	63516	1	1608	47797	63516	61908	1902	1980	3401	183	46478	2828467	7466
9	2017-03-25 19:24:12	0	0	0	0	0	0	1.77	3.03	0.03	69617	1	2008	51583	69617	67609	2107	1984	3408	183	49989	2828529	7682
10	2017-03-25 19:34:12	0	0	0	0	0	0	1.88	3.05	0.03	75067	1	2295	54976	75067	72772	2290	1990	3413	183	53078	2828579	7876
11	2017-03-25 19:44:12	0	0	0	0	0	0	1.97	3.1	0.03	80140	1	2560	57882	80140	77580	2485	1992	3416	183	55762	2828648	8076
12	2017-03-25 19:54:17	0	0	0	0	0	0	2.06	3.11	0.03	84628	1	2792	60731	84628	81836	2632	2000	3421	183	58331	2828693	8236
13	2017-03-25 20:04:17	0	0	0	0	0	0	2.14	3.13	0.04	89102	1	3031	63613	89102	86071	2787	2002	3428	183	60631	2828747	8400
14	2017-03-25 20:14:15	0	0	0	0	0	0	2.25	3.16	0.04	93103	1	3286	67273	93103	89817	2940	2002	3429	183	63632	2828804	8554
15	2017-03-25 20:24:16	0	0	0	0	0	0	2.33	3.16	0.04	97352	1	3511	69735	97352	93841	3074	2004	3432	183	65842	2828857	8693
16	2017-03-25 20:34:14	0	0	0	0	0	0	2.4	3.15	0.04	101463	1	3709	72166	101463	97754	3197	2008	3435	183	67788	2828904	8823
17	2017-03-25 20:44:18	0	0	0	0	0	0	2.48	3.14	0.04	105570	1	3943	74665	105570	101627	3316	2010	3438	183	70240	2828953	8947
18	2017-03-25 20:54:17	0	0	0	0	0	0	2.58	3.15	0.04	109809	1	4210	77577	109809	105599	3455	2014	3445	183	73104	2828998	9097
19	2017-03-25 21:04:19	0	0	0	0	0	0	2.66	3.14	0.04	113891	1	4444	80143	113891	109447	3578	2018	3448	183	75358	2829053	9227
20	2017-03-25 21:14:22	0	0	0	0	0	0	2.75	3.16	0.04	117363	1	4662	82748	117363	112701	3707	2022	3454	187	77884	2829084	9370
21	2017-03-25 21:24:19	0	0	0	0	0	0	2.82	3.16	0.04	120966	1	4849	84908	120966	116117	3823	2024	3454	187	79696	2829145	9488
22	2017-03-25 21:34:23	0	0	0	0	0	0	2.9	3.15	0.04	124660	1	5095	87520	124660	119565	3928	2026	3459	187	82089	2829184	9600
23	2017-03-25 21:44:23	0	0	0	0	0	0	2.99	3.16	0.04	128381	1	5321	89883	128381	123060	4060	2028	3462	187	84703	2829233	9737
24	2017-03-25 21:54:28	0	0	0	0	0	0	3.09	3.16	0.04	132225	1	5542	92891	132225	126683	4181	2030	3466	187	87423	2829285	9864
25	2017-03-27 10:36:02	0	0	0	0	0	0	7.9	3.36	0.08	371250	1	26092	241564	371250	345158	12483	2164	3709	200	224330	2839862	18556
26	2017-03-27 10:41:28	0	0	0	0	0	0	7.9	3.36	0.08	371279	1	26100	241564	371279	345179	12486	2164	3709	200	224330	2839868	18559
27	2017-03-27 10:51:15	0	0	0	0	0	0	7.9	3.36	0.08	371350	1	26115	241564	371350	345235	12488	2164	3709	200	224330	2839887	18561
28	2017-03-27 11:01:20	0	0	0	0	0	0	7.9	3.36	0.08	371443	1	26139	241564	371443	345304	12490	2164	3709	200	224330	2839923	18563
29	2017-03-27 11:11:11	0	0	0	0	0	0	7.9	3.36	0.08	371501	1	26159	241564	371501	345342	12494	2164	3709	200	224330	2839951	18567
30	2017-03-27 11:21:10	0	0	0	0	0	0	7.9	3.36	0.08	371578	1	26182	241564	371578	345396	12497	2164	3709	200	224330	2840008	18570
31	2017-03-27 11:31:10	0	0	0	0	0	0	7.9	3.36	0.08	371639	1	26201	241564	371639	345438	12497	2164	3709	200	224330	2840049	18570
32	2017-03-27 11:41:11	0	0	0	0	0	0	7.9	3.36	0.08	371692	1	26212	241564	371692	345480	12500	2164	3709	200	224330	2840092	18573
33	2017-03-27 11:51:11	0	0	0	0	0	0	7.9	3.36	0.08	371763	1	26228	241564	371763	345535	12504	2164	3709	200	224330	2840135	18577
34	2017-03-27 12:01:12	0	0	0	0	0	0	7.9	3.36	0.08	371834	1	26242	241564	371834	345592	12508	2162	3709	200	224330	2840162	18579
35	2017-03-27 12:11:12	0	0	0	0	0	0	7.9	3.36	0.08	371904	1	26262	241564	371904	345642	12508	2162	3709	200	224330	2840192	18579
36	2017-03-27 12:21:11	0	0	0	0	0	0	7.9	3.36	0.08	371964	1	26278	241640	371964	345686	12513	2162	3709	200	224330	2840226	18584
37	2017-03-27 12:31:12	0	0	0	0	0	0	7.9	3.36	0.08	372029	1	26294	241640	372029	345735	12515	2162	3709	200	224330	2840255	18586
38	2017-03-27 12:41:11	0	0	0	0	0	0	7.9	3.36	0.08	372105	1	26315	241640	372105	345790	12515	2162	3709	200	224330	2840287	18586
39	2017-03-27 12:51:11	0	0	0	0	0	0	7.9	3.36	0.08	372161	1	26327	241640	372161	345834	12518	2162	3709	200	224330	2840314	18589
40	2017-03-27 13:01:13	0	0	0	0	0	0	7.9	3.36	0.08	372227	1	26347	241640	372227	345880	12522	2162	3709	200	224330	2840333	18593
41	2017-03-27 13:11:13	0	0	0	0	0	0	7.9	3.36	0.08	372284	1	26366	241677	372284	345918	12525	2162	3709	200	224362	2840361	18596
42	2017-03-27 13:21:12	0	0	0	0	0	0	7.9	3.36	0.08	372346	1	26386	241706	372346	345960	12527	2162	3709	200	224362	2840381	18598
43	2017-03-27 13:31:13	0	0	0	0	0	0	7.9	3.36	0.08	372418	1	26407	241706	372418	346011	12528	2162	3709	200	224362	2840415	18599
44	2017-03-27 13:41:12	0	0	0	0	0	0	7.9	3.36	0.08	372497	1	26431	241706	372497	346066	12531	2164	3710	200	224362	2840435	18605
45	2017-03-27 13:51:13	0	0	0	0	0	0	7.9	3.36	0.08	372553	1	26452	241706	372553	346101	12534	2164	3710	200	224362	2840470	18608
46	2017-03-27 14:01:14	0	0	0	0	0	0	7.9	3.36	0.08	372638	1	26500	241706	372638	346138	12536	2166	3710	200	224362	2840503	18612
47	2017-03-27 14:11:13	0	0	0	0	0	0	7.9	3.36	0.08	372743	1	26548	241852	372743	346195	12541	2166	3710	200	224488	2840527	18617
48	2017-03-27 14:21:13	0	0	0	0	0	0	7.9	3.36	0.08	372825	1	26591	241852	372825	346234	12543	2166	3710	200	224488	2840550	18619
49	2017-03-27 14:31:13	0	0	0	0	0	0	7.9	3.36	0.08	372909	1	26622	241852	372909	346287	12545	2166	3710	200	224488	2840582	18621
50	2017-03-27 14:41:15	0	0	0	0	0	0	7.9	3.36	0.08	372993	1	26653	241852	372993	346340	12547	2168	3710	200	224488	2840593	18625
51	2017-03-27 14:51:14	0	0	0	0	0	0	7.91	3.36	0.08	373069	1	26681	242003	373069	346388	12550	2168	3710	200	224619	2840613	18628
52	2017-03-27 15:01:17	0	0	0	0	0	0	7.91	3.36	0.08	373151	1	26709	242136	373151	346442	12551	2168	3710	200	224619	2840639	18629
53	2017-03-27 15:11:15	0	0	0	0	0	0	7.91	3.36	0.08	373221	1	26737	242363	373221	346484	12555	2168	3710	200	224619	2840658	18633
54	2017-03-27 15:21:13	0	0	0	0	0	0	7.91	3.36	0.08	373286	1	26767	242363	373286	346519	12557	2168	3710	200	224619	2840693	18635
55	2017-03-27 15:31:15	0	0	0	0	0	0	7.91	3.36	0.08	373352	1	26790	242363	373352	346562	12557	2168	3710	200	224619	2840725	18635
56	2017-03-27 15:41:15	0	0	0	0	0	0	7.91	3.36	0.08	373418	1	26807	242420	373418	346611	12559	2168	3710	200	224619	2840757	18637
57	2017-03-27 15:51:15	0	0	0	0	0	0	7.91	3.36	0.08	373483	1	26832	242420	373483	346651	12561	2168	3710	200	224619	2840786	18639
58	2017-03-27 16:01:16	0	0	0	0	0	0	7.91	3.36	0.08	373551	1	26850	242420	373551	346701	12563	2168	3710	200	224619	2840822	18641
59	2017-03-27 16:11:18	0	0	0	0	0	0	7.91	3.36	0.08	373605	1	26873	242420	373605	346732	12566	2168	3710	200	224619	2840839	18644
60	2017-03-27 16:21:16	0	0	0	0	0	0	7.91	3.36	0.08	373689	1	26901	242534	373689	346788	12568	2168	3710	200	224619	2840876	18646
61	2017-03-27 16:31:14	0	0	0	0	0	0	7.91	3.36	0.08	373770	1	26925	242534	373770	346845	12570	2168	3710	200	224619	2840900	18648
62	2017-03-27 16:41:15	0	0	0	0	0	0	7.91	3.36	0.08	373833	1	26944	242534	373833	346889	12574	2168	3710	200	224619	2840916	18652
63	2017-03-27 16:51:17	0	0	0	0	0	0	7.91	3.36	0.08	373924	1	26970	242534	373924	346954	12576	2168	3710	200	224619	2840942	18654
64	2017-03-27 17:01:19	0	0	0	0	0	0	7.91	3.36	0.08	373991	1	26990	242534	373991	347001	12583	2168	3710	200	224619	2840967	18661
65	2017-03-27 17:11:38	0	0	0	0	0	0	7.91	3.36	0.08	374076	1	27010	242534	374076	347066	12587	2168	3710	200	224619	2840997	18665
66	2017-03-27 17:21:33	0	0	0	0	0	0	7.91	3.36	0.08	374162	1	27029	242534	374162	347133	12588	2168	3710	200	224619	2841026	18666
67	2017-03-27 17:31:34	0	0	0	0	0	0	7.91	3.36	0.08	374254	1	27058	242534	374254	347196	12592	2168	3710	200	224619	2841049	18670
68	2017-03-27 17:41:25	0	0	0	0	0	0	7.91	3.37	0.08	374344	1	27075	242534	374344	347269	12597	2168	3710	200	224619	2841072	18675
69	2017-03-27 17:51:20	0	0	0	0	0	0	7.91	3.37	0.08	374427	1	27101	242534	374427	347326	12601	2168	3710	200	224619	2841099	18679
70	2017-03-27 18:01:20	0	0	0	0	0	0	7.91	3.37	0.08	374516	1	27115	242534	374516	347401	12609	2168	3710	200	224619	2841125	18687
71	2017-03-27 18:11:21	0	0	0	0	0	0	7.91	3.37	0.08	374613	1	27149	242534	374613	347464	12610	2168	3710	200	224619	2841150	18688
72	2017-03-27 18:21:21	0	0	0	0	0	0	7.91	3.37	0.08	374713	1	27178	242534	374713	347535	12615	2168	3710	200	224619	2841175	18693
73	2017-03-27 18:31:22	0	0	0	0	0	0	7.91	3.37	0.08	374799	1	27206	242534	374799	347593	12619	2168	3710	200	224619	2841200	18697
74	2017-03-27 18:41:54	0	0	0	0	0	0	7.91	3.37	0.08	374881	1	27222	242600	374881	347659	12624	2168	3710	200	224676	2841221	18702
75	2017-03-27 18:51:53	0	0	0	0	0	0	7.91	3.37	0.08	374971	1	27247	242600	374971	347724	12629	2170	3710	200	224676	2841246	18709
76	2017-03-27 19:01:52	0	0	0	0	0	0	7.91	3.37	0.08	375071	1	27274	242829	375071	347797	12630	2170	3711	200	224676	2841269	18711
77	2017-03-27 19:11:52	0	0	0	0	0	0	7.91	3.37	0.08	375160	1	27296	242829	375160	347864	12637	2170	3711	200	224676	2841299	18718
78	2017-03-27 19:21:51	0	0	0	0	0	0	7.91	3.37	0.08	375249	1	27316	242829	375249	347933	12642	2170	3711	200	224676	2841331	18723
79	2017-03-27 19:32:02	0	0	0	0	0	0	7.91	3.37	0.08	375342	1	27340	242829	375342	348002	12644	2170	3711	200	224676	2841365	18725
80	2017-03-27 19:42:04	0	0	0	0	0	0	7.91	3.37	0.08	375430	1	27355	242829	375430	348075	12650	2170	3711	200	224676	2841404	18731
81	2017-03-27 19:52:00	0	0	0	0	0	0	7.91	3.37	0.08	375514	1	27379	242829	375514	348135	12655	2170	3711	200	224676	2841429	18736
82	2017-03-27 20:01:55	0	0	0	0	0	0	7.91	3.37	0.08	375601	1	27397	242829	375601	348204	12658	2170	3711	200	224676	2841459	18739
83	2017-03-27 20:11:58	0	0	0	0	0	0	7.91	3.37	0.08	375668	1	27408	242905	375668	348260	12662	2170	3711	200	224741	2841490	18743
84	2017-03-27 20:21:57	0	0	0	0	0	0	7.92	3.37	0.08	375756	1	27426	243363	375756	348330	12667	2170	3711	200	225133	2841514	18748
85	2017-03-27 20:31:58	0	0	0	0	0	0	7.92	3.37	0.08	375849	1	27442	243363	375849	348407	12668	2170	3711	200	225133	2841554	18749
86	2017-03-27 20:41:57	0	0	0	0	0	0	7.92	3.37	0.08	375941	1	27461	243363	375941	348480	12670	2170	3711	200	225133	2841585	18751
87	2017-03-27 20:51:55	0	0	0	0	0	0	7.92	3.37	0.08	376038	1	27485	243363	376038	348553	12670	2170	3711	200	225133	2841602	18751
88	2017-03-27 21:01:58	0	0	0	0	0	0	7.92	3.37	0.08	376139	1	27511	243363	376139	348628	12674	2170	3711	200	225133	2841628	18755
89	2017-03-27 21:12:12	0	0	0	0	0	0	7.92	3.37	0.08	376215	1	27523	243363	376215	348692	12674	2170	3711	200	225133	2841652	18755
90	2017-03-27 21:21:58	0	0	0	0	0	0	7.93	3.37	0.08	376311	1	27541	243612	376311	348770	12674	2170	3711	200	225330	2841686	18755
91	2017-03-27 21:31:57	0	0	0	0	0	0	7.95	3.37	0.08	376396	1	27561	244188	376396	348835	12680	2170	3711	200	225823	2841712	18761
92	2017-03-27 21:41:58	0	0	0	0	0	0	7.95	3.37	0.08	376482	1	27578	244265	376482	348904	12684	2170	3711	200	225823	2841753	18765
93	2017-03-27 21:51:58	0	0	0	0	0	0	7.95	3.37	0.08	376562	1	27592	244420	376562	348970	12686	2170	3711	200	225823	2841794	18767
94	2017-03-27 22:02:02	0	0	0	0	0	0	7.95	3.37	0.08	376641	1	27609	244420	376641	349032	12687	2170	3711	200	225823	2841833	18768
95	2017-03-27 22:12:04	0	0	0	0	0	0	7.95	3.37	0.08	376710	1	27623	244420	376710	349087	12690	2170	3711	200	225954	2841863	18771
96	2017-03-27 22:22:07	0	0	0	0	0	0	7.95	3.37	0.08	376792	1	27635	244420	376792	349157	12691	2170	3711	200	225954	2841905	18772
97	2017-03-27 22:32:10	0	0	0	0	0	0	7.95	3.37	0.08	376856	1	27645	244420	376856	349211	12693	2170	3711	200	225954	2841934	18774
98	2017-03-27 22:42:10	0	0	0	0	0	0	7.95	3.37	0.08	376929	1	27655	244420	376929	349274	12695	2170	3711	200	225954	2841982	18776
99	2017-03-27 22:51:43	0	0	0	0	0	0	7.95	3.37	0.08	376984	1	27666	244420	376984	349318	12698	2170	3711	200	225954	2842008	18779
100	2017-03-27 23:01:46	0	0	0	0	0	0	7.95	3.37	0.08	377092	1	27710	244574	377092	349382	12706	2172	3711	200	225954	2842035	18789
101	2017-03-27 23:11:45	0	0	0	0	0	0	7.95	3.37	0.08	377168	1	27728	244574	377168	349440	12708	2172	3711	200	225954	2842062	18791
102	2017-03-27 23:21:35	0	0	0	0	0	0	7.95	3.37	0.08	377237	1	27744	244632	377237	349493	12708	2172	3711	200	226004	2842092	18791
103	2017-03-27 23:31:36	0	0	0	0	0	0	7.95	3.37	0.08	377292	1	27751	244632	377292	349541	12712	2172	3711	200	226004	2842120	18795
104	2017-03-27 23:41:27	0	0	0	0	0	0	7.95	3.37	0.08	377355	1	27760	244632	377355	349595	12714	2172	3711	200	226004	2842147	18797
105	2017-03-27 23:51:29	0	0	0	0	0	0	7.95	3.37	0.08	377411	1	27772	244632	377411	349639	12715	2172	3711	200	226004	2842177	18798
106	2017-03-28 00:01:28	0	0	0	0	0	0	7.95	3.37	0.08	377461	1	27777	244632	377461	349684	12716	2172	3711	200	226004	2842205	18799
107	2017-03-28 01:01:31	0	0	0	0	0	0	7.95	3.37	0.08	377671	1	27814	244632	377671	349857	12723	2172	3711	200	226004	2842533	18806
108	2017-03-28 02:01:34	0	0	0	0	0	0	7.95	3.37	0.08	377777	1	27836	244632	377777	349941	12726	2172	3711	200	226004	2842550	18809
109	2017-03-28 03:01:34	0	0	0	0	0	0	7.95	3.37	0.08	377820	1	27846	244632	377820	349975	12728	2172	3711	200	226004	2842547	18811
110	2017-03-28 04:01:35	0	0	0	0	0	0	7.95	3.37	0.08	377852	1	27853	244632	377852	349999	12730	2172	3711	200	226004	2842555	18813
111	2017-03-28 05:01:33	0	0	0	0	0	0	7.95	3.37	0.08	377887	1	27863	244632	377887	350024	12733	2172	3711	200	226004	2842560	18816
112	2017-03-28 06:01:39	0	0	0	0	0	0	7.95	3.37	0.08	377931	1	27870	244709	377931	350061	12735	2172	3711	200	226070	2842581	18818
113	2017-03-28 07:01:49	0	0	0	0	0	0	7.95	3.37	0.08	378050	1	27895	244709	378050	350155	12741	2172	3711	200	226070	2842625	18824
114	2017-03-28 07:11:34	0	0	0	0	0	0	7.95	3.37	0.08	378079	1	27901	244709	378079	350178	12741	2172	3711	200	226070	2842636	18824
115	2017-03-28 07:21:31	0	0	0	0	0	0	7.95	3.37	0.08	378109	1	27907	244709	378109	350202	12742	2172	3711	200	226070	2842652	18825
116	2017-03-28 07:31:30	0	0	0	0	0	0	7.95	3.37	0.08	378144	1	27916	244709	378144	350228	12743	2172	3711	200	226070	2842659	18826
117	2017-03-28 07:41:43	0	0	0	0	0	0	7.95	3.37	0.08	378170	1	27923	244709	378170	350247	12745	2172	3711	200	226070	2842670	18828
118	2017-03-28 07:51:36	0	0	0	0	0	0	7.95	3.37	0.08	378207	1	27938	244709	378207	350269	12746	2172	3711	200	226070	2842679	18829
119	2017-03-28 08:01:38	0	0	0	0	0	0	7.95	3.37	0.08	378245	1	27952	244709	378245	350293	12748	2172	3711	200	226070	2842694	18831
120	2017-03-28 08:11:32	0	0	0	0	0	0	7.95	3.37	0.08	378277	1	27957	244709	378277	350320	12751	2172	3711	200	226070	2842705	18834
121	2017-03-28 08:21:33	0	0	0	0	0	0	7.95	3.37	0.08	378308	1	27965	244709	378308	350343	12752	2172	3711	200	226070	2842725	18835
122	2017-03-28 08:31:34	0	0	0	0	0	0	7.95	3.37	0.08	378343	1	27974	244709	378343	350369	12755	2172	3711	200	226070	2842745	18838
123	2017-03-28 08:41:37	0	0	0	0	0	0	7.95	3.37	0.08	378378	1	27987	244709	378378	350391	12756	2172	3711	200	226070	2842759	18839
124	2017-03-28 08:51:35	0	0	0	0	0	0	7.95	3.37	0.08	378424	1	27999	244709	378424	350425	12758	2172	3711	200	226070	2842776	18841
125	2017-03-28 09:01:35	0	0	0	0	0	0	7.95	3.37	0.08	378458	1	28004	244709	378458	350454	12760	2172	3711	200	226070	2842788	18843
126	2017-03-28 09:11:42	0	0	0	0	0	0	7.95	3.37	0.08	378505	1	28021	244709	378505	350484	12763	2172	3711	200	226070	2842808	18846
127	2017-03-28 09:21:51	0	0	0	0	0	0	7.95	3.37	0.08	378535	1	28031	244709	378535	350504	12765	2172	3711	200	226070	2842825	18848
128	2017-03-28 09:31:43	0	0	0	0	0	0	7.95	3.37	0.08	378575	1	28040	244709	378575	350535	12768	2172	3711	200	226070	2842843	18851
129	2017-03-28 09:41:49	0	0	0	0	0	0	7.96	3.37	0.08	378621	1	28052	244709	378621	350569	12768	2172	3711	200	226202	2842861	18851
130	2017-03-28 09:51:44	0	0	0	0	0	0	7.96	3.37	0.08	378671	1	28064	244709	378671	350607	12769	2172	3711	200	226202	2842873	18852
131	2017-03-28 10:02:02	0	0	0	0	0	0	7.96	3.37	0.08	378716	1	28073	244709	378716	350643	12772	2172	3711	200	226202	2842886	18855
132	2017-03-28 10:11:42	0	0	0	0	0	0	7.96	3.37	0.08	378754	1	28083	244709	378754	350671	12774	2172	3711	200	226202	2842910	18857
133	2017-03-28 10:21:46	0	0	0	0	0	0	7.96	3.37	0.08	378789	1	28086	244709	378789	350703	12776	2172	3711	200	226202	2842926	18859
134	2017-03-28 10:31:58	0	0	0	0	0	0	7.96	3.37	0.08	378839	1	28098	244709	378839	350741	12780	2172	3711	200	226202	2842947	18863
135	2017-03-28 10:41:53	0	0	0	0	0	0	7.96	3.37	0.08	378878	1	28109	244709	378878	350769	12785	2172	3711	200	226202	2842964	18868
136	2017-03-28 10:51:46	0	0	0	0	0	0	7.96	3.37	0.08	378912	1	28115	244709	378912	350797	12787	2172	3711	200	226202	2842977	18870
137	2017-03-28 11:01:56	0	0	0	0	0	0	7.96	3.38	0.08	378957	1	28123	244709	378957	350834	12790	2172	3712	200	226202	2842985	18874
138	2017-03-28 11:12:24	0	0	0	0	0	0	7.96	3.38	0.08	379000	1	28137	244709	379000	350866	12792	2172	3712	200	226202	2842995	18876
139	2017-03-28 11:21:51	0	0	0	0	0	0	7.96	3.38	0.08	379037	1	28141	244709	379037	350896	12793	2172	3712	200	226202	2843008	18877
140	2017-03-28 11:31:46	0	0	0	0	0	0	7.96	3.37	0.08	379075	1	28152	244709	379075	350923	12793	2172	3712	200	226202	2843012	18877
141	2017-03-28 11:41:53	0	0	0	0	0	0	7.96	3.37	0.08	379118	1	28160	244709	379118	350958	12793	2172	3712	200	226202	2843031	18877
142	2017-03-28 11:52:00	0	0	0	0	0	0	7.96	3.37	0.08	379160	1	28172	244709	379160	350988	12796	2172	3712	200	226202	2843047	18880
143	2017-03-28 12:02:27	0	0	0	0	0	0	7.96	3.37	0.08	379213	1	28188	244709	379213	351043	12797	2172	3712	200	226202	2843056	18881
144	2017-03-28 12:11:48	0	0	0	0	0	0	7.96	3.37	0.08	379258	1	28192	244787	379258	351066	12797	2172	3712	200	226202	2843071	18881
145	2017-03-28 12:21:57	0	0	0	0	0	0	7.96	3.37	0.08	379306	1	28203	244787	379306	351103	12800	2172	3712	200	226202	2843095	18884
146	2017-03-28 12:32:48	0	0	0	0	0	0	7.96	3.37	0.08	379368	1	28217	244787	379368	351151	12800	2172	3712	200	226202	2843109	18884
147	2017-03-28 12:42:06	0	0	0	0	0	0	7.96	3.37	0.08	379386	1	28220	244787	379386	351166	12800	2172	3712	200	226202	2843119	18884
148	2017-03-28 12:51:57	0	0	0	0	0	0	7.96	3.37	0.08	379424	1	28227	244787	379424	351197	12802	2172	3712	200	226202	2843129	18886
149	2017-03-28 13:02:12	0	0	0	0	0	0	7.96	3.37	0.08	379476	1	28235	244787	379476	351241	12806	2172	3712	200	226202	2843142	18890
150	2017-03-28 13:13:08	0	0	0	0	0	0	7.96	3.37	0.08	379528	1	28247	244787	379528	351281	12809	2172	3712	200	226202	2843158	18893
151	2017-03-28 13:22:41	0	0	0	0	0	0	7.97	3.37	0.08	379568	1	28249	245174	379568	351316	12810	2172	3712	200	226467	2843173	18894
152	2017-03-28 13:32:01	0	0	0	0	0	0	7.97	3.37	0.08	379588	1	28253	245174	379588	351335	12810	2172	3712	200	226467	2843188	18894
