1	2017-01-27 12:28:36	0	0	0	0	0	0	0.22	0.44	0	6765	1	9	0	6765	6756	30	6	22	2	5775	2582979	60
2	2017-01-27 12:38:40	0	0	0	0	0	0	0.52	0.73	0	17062	1	54	13445	17062	17008	125	22	44	3	13361	2583040	194
3	2017-01-27 12:48:44	0	0	0	0	0	0	0.67	0.86	0.01	22902	1	125	17540	22902	22777	197	24	59	3	17379	2583097	283
4	2017-01-27 12:58:48	0	0	0	0	0	0	0.79	0.92	0.01	27198	1	192	20667	27198	27006	249	30	74	5	20413	2583142	358
5	2017-01-27 13:08:53	0	0	0	0	0	0	0.88	0.93	0.01	30899	1	261	21937	30899	30638	286	32	84	5	22780	2583177	407
6	2017-01-27 13:18:57	0	0	0	0	0	0	0.95	0.95	0.01	33433	1	319	24862	33433	33114	318	34	90	5	24493	2583235	447
7	2017-01-27 13:28:59	0	0	0	0	0	0	0.99	0.99	0.01	35609	1	362	26109	35609	35247	352	36	93	5	25689	2583283	486
8	2017-01-27 13:38:59	0	0	0	0	0	0	1.04	1.02	0.01	37475	1	408	27474	37475	37067	383	38	95	5	26949	2583332	521
9	2017-01-27 13:49:00	0	0	0	0	0	0	1.09	1.08	0.01	39379	1	452	28616	39379	38927	426	40	103	7	28067	2583386	576
10	2017-01-27 13:59:02	0	0	0	0	0	0	1.12	1.13	0.01	40985	1	493	29546	40985	40492	462	46	105	7	28914	2583437	620
11	2017-01-27 14:07:47	0	0	0	0	0	0	1.14	1.15	0.01	42267	1	540	30196	42267	41727	488	48	106	7	29495	2583475	649
12	2017-01-27 14:17:48	0	0	0	0	0	0	1.18	1.15	0.01	43569	1	578	30688	43569	42991	503	48	108	8	30513	2583508	667
13	2017-01-27 14:27:49	0	0	0	0	0	0	1.22	1.15	0.01	44871	1	612	32400	44871	44259	516	50	109	8	31585	2583560	683
14	2017-01-27 14:37:49	0	0	0	0	0	0	1.26	1.14	0.01	46248	1	659	33372	46248	45589	529	50	112	8	32432	2583598	699
15	2017-01-27 14:47:49	0	0	0	0	0	0	1.3	1.14	0.01	47695	1	695	33945	47695	47000	545	52	115	8	33546	2583651	720
16	2017-01-27 14:57:50	0	0	0	0	0	0	1.33	1.14	0.01	48939	1	723	35269	48939	48216	560	52	117	8	34369	2583689	737
17	2017-01-27 15:07:50	0	0	0	0	0	0	1.36	1.14	0.02	50005	1	739	36087	50005	49266	570	52	119	8	35146	2583731	749
18	2017-01-27 15:17:49	0	0	0	0	0	0	1.38	1.15	0.02	51058	1	771	36481	51058	50287	585	54	120	9	35782	2583774	768
19	2017-01-27 15:27:51	0	0	0	0	0	0	1.4	1.15	0.02	52049	1	791	37111	52049	51258	597	54	122	9	36263	2583812	782
20	2017-01-27 15:37:51	0	0	0	0	0	0	1.42	1.15	0.02	52887	1	809	37525	52887	52078	607	54	125	10	36656	2583863	796
21	2017-01-27 15:47:51	0	0	0	0	0	0	1.44	1.15	0.02	53757	1	837	37796	53757	52920	618	56	126	10	37121	2583898	810
22	2017-01-27 15:57:52	0	0	0	0	0	0	1.45	1.14	0.02	54516	1	854	38247	54516	53662	624	56	129	10	37377	2583949	819
23	2017-01-27 16:07:52	0	0	0	0	0	0	1.47	1.15	0.02	55239	1	884	39060	55239	54355	636	56	132	10	37994	2584001	834
24	2017-01-27 16:17:53	0	0	0	0	0	0	1.48	1.15	0.02	55910	1	904	39367	55910	55006	641	56	132	10	38330	2584056	839
25	2017-01-27 16:27:52	0	0	0	0	0	0	1.49	1.14	0.02	56540	1	920	39530	56540	55620	645	60	132	10	38622	2584091	847
26	2017-01-27 16:37:53	0	0	0	0	0	0	1.51	1.14	0.02	57156	1	948	40232	57156	56208	653	60	134	10	39103	2584126	857
27	2017-01-27 16:47:52	0	0	0	0	0	0	1.53	1.14	0.02	57802	1	984	40753	57802	56818	659	62	134	10	39483	2584160	865
28	2017-01-27 16:57:53	0	0	0	0	0	0	1.55	1.14	0.02	58502	1	1010	40951	58502	57492	664	62	136	10	39980	2584201	872
29	2017-01-27 17:07:54	0	0	0	0	0	0	1.56	1.13	0.02	59151	1	1035	41455	59151	58116	669	62	138	10	40385	2584236	879
30	2017-01-27 17:17:54	0	0	0	0	0	0	1.58	1.13	0.02	59832	1	1062	42168	59832	58770	676	62	139	10	40827	2584261	887
31	2017-01-27 17:27:57	0	0	0	0	0	0	1.59	1.13	0.02	60505	1	1092	42520	60505	59413	682	64	139	10	41157	2584300	895
32	2017-01-27 17:37:58	0	0	0	0	0	0	1.6	1.12	0.02	61081	1	1111	42698	61081	59970	687	64	139	10	41467	2584326	900
33	2017-01-27 17:47:57	0	0	0	0	0	0	1.62	1.12	0.02	61723	1	1129	43110	61723	60594	690	64	142	10	41763	2584357	906
34	2017-01-27 17:57:57	0	0	0	0	0	0	1.62	1.12	0.02	62382	1	1140	43350	62382	61242	700	64	143	10	41989	2584400	917
35	2017-01-27 18:07:56	0	0	0	0	0	0	1.64	1.12	0.02	62959	1	1153	43474	62959	61806	702	64	143	10	42283	2584443	919
36	2017-01-27 18:17:55	0	0	0	0	0	0	1.65	1.11	0.02	63564	1	1163	44035	63564	62401	707	64	146	10	42632	2584477	927
37	2017-01-27 18:27:55	0	0	0	0	0	0	1.67	1.11	0.02	64192	1	1181	44606	64192	63011	711	64	146	13	43181	2584533	934
38	2017-01-27 18:37:55	0	0	0	0	0	0	1.7	1.11	0.02	64862	1	1191	44778	64862	63671	722	64	148	13	43981	2584578	947
39	2017-01-27 18:48:07	0	0	0	0	0	0	1.72	1.11	0.02	65570	1	1207	45894	65570	64363	728	66	149	13	44509	2584624	956
40	2017-01-27 18:58:07	0	0	0	0	0	0	1.74	1.11	0.02	66221	1	1215	46440	66221	65006	734	66	151	13	45001	2584678	964
41	2017-01-27 19:08:07	0	0	0	0	0	0	1.74	1.11	0.02	66769	1	1228	46566	66769	65541	740	66	153	13	45098	2584735	972
42	2017-01-27 19:18:07	0	0	0	0	0	0	1.76	1.11	0.02	67381	1	1251	47038	67381	66130	746	66	154	13	45509	2584792	979
43	2017-01-27 19:28:05	0	0	0	0	0	0	1.79	1.11	0.02	67967	1	1264	47822	67967	66703	752	66	155	13	46242	2584860	986
44	2017-01-27 19:38:04	0	0	0	0	0	0	1.8	1.11	0.02	68627	1	1285	48163	68627	67342	762	66	158	13	46562	2584914	999
45	2017-01-27 19:48:06	0	0	0	0	0	0	1.82	1.1	0.02	69263	1	1299	48699	69263	67964	765	66	159	13	47062	2584975	1003
46	2017-01-27 19:58:08	0	0	0	0	0	0	1.84	1.1	0.02	69964	1	1325	49232	69964	68639	772	68	159	13	47498	2585033	1012
47	2017-01-27 20:08:09	0	0	0	0	0	0	1.86	1.1	0.02	70451	1	1357	49780	70451	69094	775	68	161	13	47960	2585079	1017
48	2017-01-27 20:18:09	0	0	0	0	0	0	1.88	1.1	0.02	70985	1	1373	50369	70985	69612	778	68	163	13	48507	2585142	1022
49	2017-01-27 20:28:06	0	0	0	0	0	0	1.89	1.09	0.02	71547	1	1385	50769	71547	70162	783	68	164	13	48841	2585198	1028
50	2017-01-27 20:38:09	0	0	0	0	0	0	1.91	1.09	0.02	72156	1	1403	51135	72156	70753	790	68	167	13	49280	2585261	1038
51	2017-01-27 20:48:08	0	0	0	0	0	0	1.92	1.1	0.02	72794	1	1418	51315	72794	71376	799	68	169	13	49535	2585331	1049
52	2017-01-27 20:58:11	0	0	0	0	0	0	1.93	1.09	0.02	73431	1	1433	51770	73431	71998	804	68	171	13	50024	2585391	1056
53	2017-01-27 21:08:11	0	0	0	0	0	0	1.95	1.09	0.02	73963	1	1453	52157	73963	72510	807	68	173	13	50398	2585447	1061
54	2017-01-27 21:18:08	0	0	0	0	0	0	1.96	1.09	0.02	74522	1	1475	52386	74522	73047	813	70	173	13	50606	2585510	1069
55	2017-01-27 21:28:09	0	0	0	0	0	0	1.96	1.09	0.02	75078	1	1488	52532	75078	73590	815	70	174	14	50742	2585571	1073
56	2017-01-27 21:38:08	0	0	0	0	0	0	1.98	1.08	0.02	75658	1	1509	52772	75658	74149	817	70	174	14	51100	2585651	1075
57	2017-01-27 21:48:10	0	0	0	0	0	0	1.99	1.08	0.02	76286	1	1532	53105	76286	74754	827	70	174	14	51467	2585717	1085
58	2017-01-27 21:58:11	0	0	0	0	0	0	2.01	1.09	0.02	76895	1	1553	53668	76895	75342	838	70	174	14	51996	2585791	1096
59	2017-01-27 22:08:12	0	0	0	0	0	0	2.02	1.09	0.02	77471	1	1570	53831	77471	75901	847	72	175	14	52156	2585857	1108
60	2017-01-27 22:18:10	0	0	0	0	0	0	2.03	1.1	0.02	77976	1	1584	54061	77976	76392	856	72	175	14	52371	2585920	1117
61	2017-01-27 22:28:12	0	0	0	0	0	0	2.04	1.1	0.02	78536	1	1612	54479	78536	76924	860	74	176	14	52742	2585964	1124
62	2017-01-27 22:38:11	0	0	0	0	0	0	2.06	1.09	0.02	79081	1	1629	54928	79081	77452	863	76	176	14	53222	2586022	1129
63	2017-01-27 22:48:10	0	0	0	0	0	0	2.07	1.09	0.02	79616	1	1651	55132	79616	77965	870	76	177	14	53457	2586059	1137
64	2017-01-27 22:58:10	0	0	0	0	0	0	2.08	1.1	0.02	80139	1	1674	55410	80139	78465	878	76	177	14	53704	2586097	1145
65	2017-01-27 23:08:12	0	0	0	0	0	0	2.09	1.09	0.02	80677	1	1696	55777	80677	78981	881	76	178	14	54049	2586148	1149
66	2017-01-27 23:18:11	0	0	0	0	0	0	2.1	1.09	0.02	81197	1	1709	55965	81197	79488	883	76	179	14	54225	2586217	1152
67	2017-01-27 23:28:10	0	0	0	0	0	0	2.11	1.08	0.02	81706	1	1718	56401	81706	79988	886	76	179	14	54634	2586288	1155
68	2017-01-27 23:38:12	0	0	0	0	0	0	2.12	1.08	0.02	82160	1	1733	56690	82160	80427	890	76	180	14	54906	2586341	1160
69	2017-01-27 23:48:11	0	0	0	0	0	0	2.13	1.08	0.02	82633	1	1745	56794	82633	80888	890	76	180	14	55003	2586392	1160
70	2017-01-27 23:58:10	0	0	0	0	0	0	2.13	1.07	0.02	83078	1	1760	56948	83078	81318	891	76	182	14	55147	2586438	1163
71	2017-01-28 00:45:32	0	0	0	0	0	0	2.21	1.07	0.02	85102	1	1812	58718	85102	83290	910	76	190	14	57055	2586614	1190
72	2017-01-28 01:45:31	0	0	0	0	0	0	2.24	1.06	0.02	86683	1	1885	59480	86683	84798	923	82	190	14	57991	2586778	1209
73	2017-01-28 02:45:30	0	0	0	0	0	0	2.26	1.06	0.02	87666	1	1918	60065	87666	85748	928	84	190	14	58467	2583760	1216
74	2017-01-28 03:45:31	0	0	0	0	0	0	2.27	1.06	0.02	88232	1	1926	60360	88232	86306	936	86	192	14	58764	2583792	1228
75	2017-01-28 04:45:30	0	0	0	0	0	0	2.3	1.06	0.02	88672	1	1940	61024	88672	86732	941	86	192	14	59402	2583820	1233
76	2017-01-28 05:45:31	0	0	0	0	0	0	2.31	1.06	0.02	89040	1	1946	61229	89040	87094	945	86	193	14	59666	2583858	1238
77	2017-01-28 06:45:30	0	0	0	0	0	0	2.34	1.06	0.02	89615	1	1969	61900	89615	87646	952	88	194	14	60415	2583909	1248
78	2017-01-28 07:08:02	0	0	0	0	0	0	2.35	1.06	0.02	89926	1	1984	62194	89926	87942	955	88	195	14	60628	2583930	1252
79	2017-01-28 07:18:01	0	0	0	0	0	0	2.35	1.06	0.02	90151	1	2000	62366	90151	88151	957	88	196	14	60792	2583946	1255
80	2017-01-28 07:28:01	0	0	0	0	0	0	2.36	1.06	0.02	90360	1	2015	62482	90360	88345	958	88	196	14	60902	2583976	1256
81	2017-01-28 07:38:02	0	0	0	0	0	0	2.36	1.06	0.02	90601	1	2027	62649	90601	88574	963	88	196	14	61003	2583993	1261
82	2017-01-28 07:48:02	0	0	0	0	0	0	2.37	1.06	0.02	90898	1	2049	62855	90898	88849	965	88	196	14	61199	2584018	1263
83	2017-01-28 07:58:02	0	0	0	0	0	0	2.38	1.06	0.02	91186	1	2057	63075	91186	89129	970	88	196	14	61408	2584048	1268
84	2017-01-28 08:08:03	0	0	0	0	0	0	2.4	1.06	0.02	91527	1	2068	63510	91527	89459	973	88	197	14	61938	2584080	1272
85	2017-01-28 08:18:01	0	0	0	0	0	0	2.4	1.06	0.02	91830	1	2076	63583	91830	89754	975	88	197	14	62126	2584116	1274
86	2017-01-28 08:28:02	0	0	0	0	0	0	2.42	1.06	0.02	92125	1	2085	64110	92125	90040	978	88	197	14	62508	2584153	1277
87	2017-01-28 08:38:02	0	0	0	0	0	0	2.42	1.06	0.02	92456	1	2093	64156	92456	90363	984	88	197	14	62593	2584186	1283
88	2017-01-28 08:48:04	0	0	0	0	0	0	2.43	1.06	0.02	92853	1	2100	64273	92853	90753	985	88	198	14	62704	2584227	1285
89	2017-01-28 08:58:03	0	0	0	0	0	0	2.43	1.06	0.02	93205	1	2111	64311	93205	91094	989	88	198	14	62862	2584274	1289
90	2017-01-28 09:08:03	0	0	0	0	0	0	2.46	1.06	0.02	93597	1	2127	65094	93597	91470	993	88	198	14	63610	2584311	1293
91	2017-01-28 09:18:03	0	0	0	0	0	0	2.47	1.06	0.02	93951	1	2144	65286	93951	91807	999	88	199	14	63793	2584352	1300
92	2017-01-28 09:28:03	0	0	0	0	0	0	2.47	1.07	0.02	94329	1	2157	65437	94329	92172	1005	88	201	14	63938	2584404	1308
93	2017-01-28 09:38:03	0	0	0	0	0	0	2.49	1.07	0.02	94743	1	2168	65831	94743	92575	1010	88	202	14	64271	2584463	1314
94	2017-01-28 09:48:04	0	0	0	0	0	0	2.5	1.07	0.02	95145	1	2191	66242	95145	92954	1014	90	202	14	64642	2584514	1320
95	2017-01-28 09:58:04	0	0	0	0	0	0	2.51	1.07	0.02	95523	1	2202	66456	95523	93321	1022	92	203	14	64845	2584551	1331
96	2017-01-28 10:08:05	0	0	0	0	0	0	2.51	1.08	0.02	95899	1	2231	66541	95899	93668	1032	94	204	14	64926	2584599	1344
97	2017-01-28 10:18:03	0	0	0	0	0	0	2.52	1.08	0.02	96279	1	2256	66857	96279	94023	1036	94	204	14	65227	2584635	1348
98	2017-01-28 10:28:05	0	0	0	0	0	0	2.53	1.08	0.02	96626	1	2277	67037	96626	94349	1042	94	204	14	65398	2584688	1354
99	2017-01-28 10:38:04	0	0	0	0	0	0	2.54	1.08	0.02	96981	1	2296	67202	96981	94685	1046	94	205	14	65556	2584743	1359
100	2017-01-28 10:48:05	0	0	0	0	0	0	2.54	1.08	0.02	97358	1	2313	67316	97358	95045	1049	94	206	14	65664	2584790	1363
101	2017-01-28 10:58:02	0	0	0	0	0	0	2.54	1.08	0.02	97720	1	2328	67331	97720	95392	1057	94	206	14	65695	2584831	1371
102	2017-01-28 11:08:03	0	0	0	0	0	0	2.55	1.08	0.02	98041	1	2344	67607	98041	95697	1060	94	206	14	65958	2584847	1374
103	2017-01-28 11:18:03	0	0	0	0	0	0	2.56	1.08	0.02	98348	1	2358	67797	98348	95990	1066	94	207	14	66229	2584869	1381
104	2017-01-28 11:28:03	0	0	0	0	0	0	2.56	1.08	0.02	98600	1	2368	67809	98600	96232	1069	94	207	14	66240	2584892	1384
105	2017-01-28 11:38:04	0	0	0	0	0	0	2.57	1.09	0.02	98827	1	2376	68080	98827	96451	1073	94	208	14	66465	2584916	1389
106	2017-01-28 11:48:05	0	0	0	0	0	0	2.58	1.09	0.02	99074	1	2387	68251	99074	96687	1075	94	208	14	66628	2584937	1391
107	2017-01-28 11:58:05	0	0	0	0	0	0	2.58	1.08	0.02	99316	1	2404	68332	99316	96912	1076	94	208	14	66751	2584955	1392
108	2017-01-28 12:08:07	0	0	0	0	0	0	2.59	1.08	0.02	99534	1	2421	68453	99534	97113	1076	94	208	14	66867	2584967	1392
109	2017-01-28 12:18:06	0	0	0	0	0	0	2.59	1.08	0.03	99731	1	2433	68502	99731	97298	1079	94	208	14	66913	2584984	1395
110	2017-01-28 12:28:08	0	0	0	0	0	0	2.59	1.08	0.03	99917	1	2443	68502	99917	97474	1081	94	208	14	66913	2584991	1397
111	2017-01-28 12:38:08	0	0	0	0	0	0	2.6	1.08	0.03	100104	1	2452	68678	100104	97652	1084	94	208	14	67081	2585007	1400
112	2017-01-28 12:48:05	0	0	0	0	0	0	2.59	1.08	0.03	100297	1	2462	68678	100297	97835	1087	94	208	14	67081	2585024	1403
113	2017-01-28 12:58:09	0	0	0	0	0	0	2.61	1.08	0.03	100485	1	2473	68987	100485	98012	1089	96	209	14	67376	2585030	1408
114	2017-01-28 13:08:10	0	0	0	0	0	0	2.61	1.08	0.03	100677	1	2482	69147	100677	98195	1092	96	210	14	67529	2585035	1412
115	2017-01-28 13:18:09	0	0	0	0	0	0	2.61	1.09	0.03	100819	1	2491	69197	100819	98328	1095	96	210	14	67576	2585044	1415
116	2017-01-28 13:28:11	0	0	0	0	0	0	2.62	1.09	0.03	100947	1	2502	69308	100947	98445	1097	96	210	14	67682	2585056	1417
117	2017-01-28 13:38:09	0	0	0	0	0	0	2.62	1.09	0.03	101082	1	2512	69320	101082	98570	1097	96	210	14	67694	2585068	1417
118	2017-01-28 13:48:13	0	0	0	0	0	0	2.62	1.09	0.03	101220	1	2517	69457	101220	98703	1100	96	211	14	67824	2585076	1421
119	2017-01-28 13:58:12	0	0	0	0	0	0	2.63	1.09	0.03	101365	1	2526	69509	101365	98839	1106	96	211	14	67873	2585093	1427
120	2017-01-28 14:08:12	0	0	0	0	0	0	2.63	1.09	0.03	101519	1	2535	69559	101519	98984	1108	96	211	14	67945	2585104	1429
121	2017-01-28 14:18:13	0	0	0	0	0	0	2.63	1.09	0.03	101645	1	2543	69559	101645	99102	1109	96	211	14	67945	2585119	1430
122	2017-01-28 14:28:17	0	0	0	0	0	0	2.63	1.09	0.03	101777	1	2556	69559	101777	99221	1110	96	211	16	67945	2585126	1433
123	2017-01-28 14:38:19	0	0	0	0	0	0	2.64	1.09	0.03	101906	1	2575	69841	101906	99331	1110	96	211	16	68214	2585139	1433
124	2017-01-28 14:48:13	0	0	0	0	0	0	2.64	1.09	0.03	102030	1	2586	69841	102030	99444	1112	96	211	16	68214	2585149	1435
125	2017-01-28 14:58:16	0	0	0	0	0	0	2.65	1.09	0.03	102152	1	2592	70031	102152	99560	1113	96	211	16	68395	2585152	1436
126	2017-01-28 15:08:14	0	0	0	0	0	0	2.65	1.09	0.03	102273	1	2596	70056	102273	99677	1113	98	211	16	68419	2585161	1438
127	2017-01-28 15:18:18	0	0	0	0	0	0	2.65	1.09	0.03	102387	1	2606	70132	102387	99781	1115	98	211	16	68492	2585164	1440
128	2017-01-28 15:28:16	0	0	0	0	0	0	2.65	1.09	0.03	102512	1	2613	70183	102512	99899	1116	98	211	16	68492	2585174	1441
129	2017-01-28 15:38:15	0	0	0	0	0	0	2.65	1.09	0.03	102625	1	2623	70253	102625	100002	1119	98	211	16	68558	2585191	1444
130	2017-01-28 15:48:15	0	0	0	0	0	0	2.66	1.09	0.03	102728	1	2629	70477	102728	100099	1121	98	211	16	68723	2585206	1446
131	2017-01-28 15:58:15	0	0	0	0	0	0	2.66	1.09	0.03	102845	1	2637	70490	102845	100208	1124	98	211	16	68735	2585221	1449
132	2017-01-28 16:08:15	0	0	0	0	0	0	2.66	1.09	0.03	102992	1	2645	70490	102992	100347	1124	98	211	16	68735	2585242	1449
133	2017-01-28 16:18:31	0	0	0	0	0	0	2.66	1.09	0.03	103107	1	2655	70580	103107	100452	1127	98	211	16	68821	2585256	1452
134	2017-01-28 16:28:19	0	0	0	0	0	0	2.67	1.09	0.03	103219	1	2661	70683	103219	100558	1129	98	211	16	68919	2585259	1454
135	2017-01-28 16:38:18	0	0	0	0	0	0	2.67	1.09	0.03	103344	1	2674	70696	103344	100670	1129	98	212	16	68931	2585274	1455
136	2017-01-28 16:48:19	0	0	0	0	0	0	2.67	1.09	0.03	103458	1	2684	70799	103458	100774	1129	98	212	16	68955	2585286	1455
137	2017-01-28 16:58:18	0	0	0	0	0	0	2.67	1.09	0.03	103581	1	2691	70864	103581	100890	1130	98	212	16	69017	2585298	1456
138	2017-01-28 17:08:48	0	0	0	0	0	0	2.67	1.09	0.03	103700	1	2695	70864	103700	101005	1132	98	213	16	69017	2585313	1459
139	2017-01-28 17:18:23	0	0	0	0	0	0	2.67	1.09	0.03	103818	1	2704	70890	103818	101114	1134	100	213	16	69042	2585324	1463
140	2017-01-28 17:28:22	0	0	0	0	0	0	2.68	1.09	0.03	103942	1	2720	71121	103942	101222	1134	100	213	16	69214	2585336	1463
141	2017-01-28 17:38:23	0	0	0	0	0	0	2.68	1.09	0.03	104074	1	2732	71121	104074	101342	1135	100	213	16	69214	2585342	1464
142	2017-01-28 17:48:23	0	0	0	0	0	0	2.68	1.09	0.03	104172	1	2739	71121	104172	101433	1139	100	213	16	69214	2585358	1468
143	2017-01-28 17:58:23	0	0	0	0	0	0	2.68	1.09	0.03	104306	1	2746	71147	104306	101560	1139	100	213	16	69239	2585370	1468
144	2017-01-28 18:08:33	0	0	0	0	0	0	2.68	1.09	0.03	104417	1	2751	71147	104417	101666	1140	100	214	16	69239	2585381	1470
145	2017-01-28 18:19:39	0	0	0	0	0	0	2.68	1.09	0.03	104581	1	2760	71187	104581	101821	1140	100	214	16	69301	2585399	1470
146	2017-01-28 18:29:00	0	0	0	0	0	0	2.68	1.09	0.03	104643	1	2762	71187	104643	101881	1141	100	214	16	69301	2585410	1471
147	2017-01-28 18:39:00	0	0	0	0	0	0	2.68	1.09	0.03	104738	1	2767	71187	104738	101971	1141	100	214	16	69301	2585418	1471
148	2017-01-28 18:49:00	0	0	0	0	0	0	2.68	1.09	0.03	104836	1	2775	71278	104836	102061	1141	100	214	16	69388	2585430	1471
149	2017-01-28 18:59:00	0	0	0	0	0	0	2.69	1.09	0.03	104953	1	2777	71375	104953	102176	1141	100	214	16	69480	2585449	1471
150	2017-01-28 19:09:21	0	0	0	0	0	0	2.69	1.09	0.03	105128	1	2793	71510	105128	102335	1146	100	214	16	69608	2585454	1476
151	2017-01-28 19:19:24	0	0	0	0	0	0	2.69	1.09	0.03	105229	1	2798	71523	105229	102431	1147	100	214	16	69620	2585461	1477
152	2017-01-28 19:30:16	0	0	0	0	0	0	2.69	1.09	0.03	105337	1	2806	71549	105337	102531	1147	100	214	16	69645	2585471	1477
153	2017-01-28 19:40:02	0	0	0	0	0	0	2.7	1.09	0.03	105440	1	2811	71576	105440	102629	1149	100	215	16	69770	2585473	1480
154	2017-01-28 19:50:51	0	0	0	0	0	0	2.7	1.09	0.03	105528	1	2816	71576	105528	102712	1149	100	215	16	69770	2585482	1480
155	2017-01-28 20:02:45	0	0	0	0	0	0	2.71	1.09	0.03	105652	1	2826	71811	105652	102826	1150	100	216	16	69994	2585488	1482
156	2017-01-28 20:13:16	0	0	0	0	0	0	2.71	1.09	0.03	105764	1	2835	71851	105764	102929	1152	100	216	16	70032	2585499	1484
157	2017-01-28 20:25:38	0	0	0	0	0	0	2.71	1.09	0.03	105948	1	2845	71905	105948	103103	1152	100	216	16	70083	2585513	1484
158	2017-01-28 20:35:38	0	0	0	0	0	0	2.71	1.09	0.03	106036	1	2855	71932	106036	103181	1152	100	216	16	70083	2585525	1484
159	2017-01-28 20:45:47	0	0	0	0	0	0	2.71	1.09	0.03	106142	1	2860	71993	106142	103282	1156	100	216	16	70142	2585531	1488
160	2017-01-28 20:55:44	0	0	0	0	0	0	2.72	1.09	0.03	106240	1	2868	72047	106240	103372	1160	100	217	16	70320	2585538	1493
161	2017-01-28 21:05:53	0	0	0	0	0	0	2.72	1.09	0.03	106353	1	2875	72139	106353	103478	1163	100	217	16	70408	2585540	1496
162	2017-01-28 21:16:06	0	0	0	0	0	0	2.72	1.09	0.03	106440	1	2884	72139	106440	103556	1164	100	218	16	70408	2585549	1498
163	2017-01-28 21:26:26	0	0	0	0	0	0	2.73	1.09	0.03	106500	1	2893	72244	106500	103607	1164	100	218	16	70498	2585566	1498
164	2017-01-28 21:36:24	0	0	0	0	0	0	2.73	1.09	0.03	106538	1	2903	72244	106538	103635	1164	100	218	16	70498	2585569	1498
165	2017-01-28 21:46:38	0	0	0	0	0	0	2.73	1.09	0.03	106602	1	2909	72244	106602	103693	1164	100	218	16	70498	2585575	1498
166	2017-01-28 21:56:44	0	0	0	0	0	0	2.73	1.09	0.03	106653	1	2914	72244	106653	103739	1164	100	218	16	70498	2585586	1498
167	2017-01-28 22:09:55	0	0	0	0	0	0	2.73	1.09	0.03	106721	1	2923	72244	106721	103798	1164	100	218	16	70498	2585597	1498
168	2017-01-28 22:20:26	0	0	0	0	0	0	2.73	1.09	0.03	106757	1	2926	72250	106757	103831	1164	100	218	16	70504	2585599	1498
169	2017-01-28 22:30:30	0	0	0	0	0	0	2.73	1.09	0.03	106792	1	2931	72359	106792	103861	1164	100	218	16	70581	2585596	1498
170	2017-01-28 22:41:22	0	0	0	0	0	0	2.73	1.09	0.03	106841	1	2938	72359	106841	103903	1165	100	218	16	70581	2585601	1499
171	2017-01-28 22:51:43	0	0	0	0	0	0	2.73	1.09	0.03	106888	1	2946	72359	106888	103942	1165	100	218	16	70581	2585615	1499
172	2017-01-28 23:01:50	0	0	0	0	0	0	2.73	1.09	0.03	106925	1	2952	72359	106925	103973	1166	100	218	16	70581	2585623	1500
173	2017-01-28 23:15:33	0	0	0	0	0	0	2.73	1.09	0.03	106985	1	2961	72359	106985	104024	1166	100	218	16	70581	2585630	1500
174	2017-01-28 23:25:45	0	0	0	0	0	0	2.73	1.09	0.03	107022	1	2965	72359	107022	104057	1167	100	218	16	70581	2585635	1501
175	2017-01-28 23:35:50	0	0	0	0	0	0	2.73	1.09	0.03	107060	1	2972	72359	107060	104088	1167	100	218	16	70581	2585647	1501
176	2017-01-28 23:45:53	0	0	0	0	0	0	2.73	1.09	0.03	107098	1	2975	72413	107098	104123	1168	100	218	16	70633	2585656	1502
177	2017-01-28 23:56:14	0	0	0	0	0	0	2.73	1.09	0.03	107129	1	2978	72413	107129	104151	1168	100	218	16	70633	2585668	1502
178	2017-01-29 00:31:22	0	0	0	0	0	0	2.74	1.09	0.03	107220	1	2989	72596	107220	104231	1169	100	218	16	70807	2585687	1503
179	2017-01-29 01:32:40	0	0	0	0	0	0	2.74	1.09	0.03	107294	1	3018	72630	107294	104276	1169	100	218	16	70840	2585709	1503
180	2017-01-29 02:32:08	0	0	0	0	0	0	2.73	1.09	0.03	107327	1	3026	72657	107327	104301	1170	100	218	16	70866	2593246	1504
181	2017-01-29 03:31:58	0	0	0	0	0	0	2.73	1.09	0.03	107339	1	3027	72657	107339	104312	1171	100	218	16	70866	2593247	1505
182	2017-01-29 04:33:32	0	0	0	0	0	0	2.73	1.09	0.03	107347	1	3028	72657	107347	104319	1171	100	218	16	70866	2593251	1505
183	2017-01-29 05:32:35	0	0	0	0	0	0	2.73	1.09	0.03	107355	1	3030	72657	107355	104325	1171	100	218	16	70866	2593245	1505
184	2017-01-29 06:34:33	0	0	0	0	0	0	2.73	1.09	0.03	107367	1	3033	72657	107367	104334	1171	100	218	16	70866	2593246	1505
185	2017-01-29 07:09:30	0	0	0	0	0	0	2.73	1.09	0.03	107371	1	3033	72657	107371	104338	1171	100	218	16	70866	2593252	1505
186	2017-01-29 07:19:34	0	0	0	0	0	0	2.73	1.09	0.03	107373	1	3033	72657	107373	104340	1171	100	218	16	70866	2593254	1505
187	2017-01-29 07:29:36	0	0	0	0	0	0	2.73	1.09	0.03	107379	1	3034	72657	107379	104345	1171	100	218	16	70866	2593257	1505
188	2017-01-29 07:39:41	0	0	0	0	0	0	2.73	1.09	0.03	107382	1	3034	72657	107382	104348	1171	100	218	16	70866	2593261	1505
189	2017-01-29 07:49:44	0	0	0	0	0	0	2.73	1.09	0.03	107386	1	3036	72657	107386	104350	1171	100	218	16	70866	2593262	1505
190	2017-01-29 08:00:05	0	0	0	0	0	0	2.73	1.09	0.03	107393	1	3038	72657	107393	104355	1171	100	218	16	70866	2593263	1505
191	2017-01-29 08:10:04	0	0	0	0	0	0	2.73	1.09	0.03	107393	1	3038	72657	107393	104355	1171	100	218	16	70866	2593270	1505
192	2017-01-29 08:20:11	0	0	0	0	0	0	2.73	1.09	0.03	107407	1	3039	72657	107407	104368	1171	100	218	16	70866	2593276	1505
193	2017-01-29 08:30:15	0	0	0	0	0	0	2.73	1.09	0.03	107414	1	3043	72657	107414	104371	1171	100	218	16	70866	2593278	1505
194	2017-01-29 08:40:18	0	0	0	0	0	0	2.73	1.09	0.03	107422	1	3044	72657	107422	104378	1171	100	218	16	70866	2593275	1505
195	2017-01-29 08:50:28	0	0	0	0	0	0	2.73	1.09	0.03	107429	1	3046	72657	107429	104383	1171	100	218	16	70866	2593278	1505
196	2017-01-29 09:00:47	0	0	0	0	0	0	2.73	1.09	0.03	107440	1	3048	72657	107440	104390	1172	100	218	16	70866	2593285	1506
197	2017-01-29 09:11:06	0	0	0	0	0	0	2.73	1.09	0.03	107452	1	3054	72712	107452	104398	1172	100	218	16	70866	2593299	1506
198	2017-01-29 09:25:46	0	0	0	0	0	0	2.73	1.09	0.03	107460	1	3056	72712	107460	104404	1172	100	218	16	70866	2593313	1506
199	2017-01-29 09:36:02	0	0	0	0	0	0	2.73	1.09	0.03	107469	1	3059	72712	107469	104410	1172	100	218	16	70866	2593321	1506
200	2017-01-29 09:45:52	0	0	0	0	0	0	2.73	1.09	0.03	107475	1	3060	72712	107475	104415	1172	100	218	16	70866	2593332	1506
201	2017-01-29 09:56:06	0	0	0	0	0	0	2.73	1.09	0.03	107479	1	3060	72712	107479	104419	1172	100	218	16	70866	2593342	1506
202	2017-01-29 10:06:22	0	0	0	0	0	0	2.73	1.09	0.03	107491	1	3067	72712	107491	104424	1172	100	219	16	70866	2593346	1507
203	2017-01-29 10:16:24	0	0	0	0	0	0	2.73	1.09	0.03	107500	1	3069	72712	107500	104431	1172	100	219	16	70866	2593359	1507
204	2017-01-29 10:26:44	0	0	0	0	0	0	2.73	1.09	0.03	107506	1	3070	72712	107506	104436	1173	100	219	16	70918	2593375	1508
205	2017-01-29 10:37:01	0	0	0	0	0	0	2.73	1.09	0.03	107514	1	3073	72712	107514	104441	1173	100	219	16	70918	2593385	1508
206	2017-01-29 10:47:36	0	0	0	0	0	0	2.73	1.09	0.03	107519	1	3073	72712	107519	104446	1173	100	219	16	70918	2593402	1508
207	2017-01-29 11:02:46	0	0	0	0	0	0	2.74	1.09	0.03	107527	1	3073	72767	107527	104454	1173	100	219	16	70970	2593424	1508
208	2017-01-29 11:12:49	0	0	0	0	0	0	2.74	1.09	0.03	107532	1	3074	72767	107532	104458	1173	100	219	16	70970	2593440	1508
209	2017-01-29 11:23:03	0	0	0	0	0	0	2.74	1.09	0.03	107541	1	3079	72876	107541	104462	1173	100	219	16	71074	2593447	1508
210	2017-01-29 11:33:06	0	0	0	0	0	0	2.74	1.09	0.03	107546	1	3079	72876	107546	104467	1174	100	219	16	71074	2593454	1509
211	2017-01-29 11:42:56	0	0	0	0	0	0	2.74	1.09	0.03	107549	1	3079	72876	107549	104470	1174	100	219	16	71074	2593471	1509
212	2017-01-29 11:53:09	0	0	0	0	0	0	2.74	1.09	0.03	107556	1	3081	72876	107556	104475	1174	100	219	16	71074	2593487	1509
213	2017-01-29 12:04:01	0	0	0	0	0	0	2.74	1.09	0.03	107562	1	3081	72876	107562	104481	1174	100	219	16	71074	2593499	1509
214	2017-01-29 12:13:47	0	0	0	0	0	0	2.74	1.09	0.03	107565	1	3082	72876	107565	104483	1174	100	219	16	71074	2593512	1509
215	2017-01-29 12:24:19	0	0	0	0	0	0	2.74	1.09	0.03	107568	1	3083	72876	107568	104485	1174	100	219	16	71074	2593532	1509
216	2017-01-29 12:42:21	0	0	0	0	0	0	2.74	1.09	0.03	107577	1	3085	72876	107577	104492	1174	100	219	16	71074	2593544	1509
217	2017-01-29 12:52:50	0	0	0	0	0	0	2.74	1.09	0.03	107579	1	3086	72876	107579	104493	1174	100	219	16	71074	2593563	1509
218	2017-01-29 13:03:01	0	0	0	0	0	0	2.74	1.09	0.03	107582	1	3087	72876	107582	104495	1174	100	219	16	71074	2593574	1509
219	2017-01-29 13:12:59	0	0	0	0	0	0	2.74	1.09	0.03	107586	1	3087	72876	107586	104499	1174	100	219	16	71074	2593591	1509
220	2017-01-29 13:22:57	0	0	0	0	0	0	2.74	1.09	0.03	107589	1	3087	72876	107589	104502	1174	100	219	16	71074	2593599	1509
221	2017-01-29 13:32:57	0	0	0	0	0	0	2.74	1.09	0.03	107591	1	3088	72876	107591	104503	1174	100	219	16	71074	2593605	1509
222	2017-01-29 13:43:22	0	0	0	0	0	0	2.74	1.09	0.03	107591	1	3088	72876	107591	104503	1174	100	219	16	71074	2593616	1509
223	2017-01-29 13:53:26	0	0	0	0	0	0	2.74	1.09	0.03	107593	1	3088	72876	107593	104505	1174	100	219	16	71074	2593622	1509
224	2017-01-29 14:03:26	0	0	0	0	0	0	2.74	1.09	0.03	107595	1	3089	72876	107595	104506	1174	100	219	16	71074	2593630	1509
225	2017-01-29 14:14:00	0	0	0	0	0	0	2.74	1.09	0.03	107598	1	3090	72876	107598	104508	1174	100	219	16	71074	2593634	1509
226	2017-01-29 14:23:54	0	0	0	0	0	0	2.74	1.09	0.03	107601	1	3091	72876	107601	104510	1174	100	219	16	71074	2593648	1509
227	2017-01-29 14:36:57	0	0	0	0	0	0	2.74	1.09	0.03	107607	1	3092	72876	107607	104515	1174	100	219	16	71074	2593663	1509
228	2017-01-29 14:47:02	0	0	0	0	0	0	2.74	1.09	0.03	107608	1	3093	72876	107608	104515	1174	100	219	16	71074	2593667	1509
229	2017-01-29 14:57:35	0	0	0	0	0	0	2.74	1.09	0.03	107612	1	3094	72876	107612	104518	1174	100	220	16	71074	2593672	1510
230	2017-01-29 15:06:45	0	0	0	0	0	0	2.74	1.09	0.03	107618	1	3098	72876	107618	104520	1175	100	220	16	71074	2593674	1511
231	2017-01-29 15:17:08	0	0	0	0	0	0	2.74	1.09	0.03	107622	1	3099	72876	107622	104523	1175	100	220	16	71074	2593695	1511
232	2017-01-29 15:27:05	0	0	0	0	0	0	2.74	1.09	0.03	107632	1	3101	72876	107632	104531	1175	100	220	16	71074	2593713	1511
233	2017-01-29 15:37:25	0	0	0	0	0	0	2.74	1.09	0.03	107633	1	3101	72876	107633	104532	1175	100	220	16	71074	2593719	1511
234	2017-01-29 15:47:18	0	0	0	0	0	0	2.74	1.09	0.03	107636	1	3102	72876	107636	104534	1175	100	220	16	71074	2593726	1511
235	2017-01-29 15:58:09	0	0	0	0	0	0	2.74	1.09	0.03	107637	1	3102	72876	107637	104535	1175	100	220	16	71074	2593728	1511
236	2017-01-29 16:07:49	0	0	0	0	0	0	2.74	1.09	0.03	107639	1	3102	72876	107639	104537	1175	100	220	16	71074	2593730	1511
237	2017-01-29 16:19:15	0	0	0	0	0	0	2.74	1.09	0.03	107639	1	3102	72876	107639	104537	1175	100	220	16	71074	2593737	1511
238	2017-01-29 16:30:45	0	0	0	0	0	0	2.74	1.09	0.03	107645	1	3102	72876	107645	104543	1175	100	220	16	71074	2593741	1511
239	2017-01-29 16:41:42	0	0	0	0	0	0	2.74	1.09	0.03	107648	1	3103	72876	107648	104545	1175	100	220	16	71074	2593744	1511
240	2017-01-29 16:51:50	0	0	0	0	0	0	2.74	1.09	0.03	107651	1	3105	72876	107651	104546	1175	100	220	16	71074	2593752	1511
241	2017-01-29 17:02:14	0	0	0	0	0	0	2.74	1.09	0.03	107653	1	3106	72876	107653	104547	1175	100	220	16	71074	2593758	1511
242	2017-01-29 17:12:07	0	0	0	0	0	0	2.74	1.09	0.03	107658	1	3107	72876	107658	104551	1175	100	220	16	71074	2593766	1511
243	2017-01-29 17:23:08	0	0	0	0	0	0	2.74	1.09	0.03	107659	1	3108	72876	107659	104551	1175	100	220	16	71074	2593777	1511
244	2017-01-29 17:32:18	0	0	0	0	0	0	2.74	1.09	0.03	107661	1	3108	72876	107661	104553	1175	100	220	16	71074	2593779	1511
245	2017-01-29 17:42:36	0	0	0	0	0	0	2.74	1.09	0.03	107664	1	3108	72876	107664	104556	1175	100	220	16	71074	2593789	1511
246	2017-01-29 17:54:48	0	0	0	0	0	0	2.74	1.09	0.03	107666	1	3108	72876	107666	104558	1175	100	220	16	71074	2593795	1511
247	2017-01-29 18:04:17	0	0	0	0	0	0	2.74	1.09	0.03	107668	1	3108	72876	107668	104560	1175	98	220	16	71074	2593806	1509
248	2017-01-29 18:15:08	0	0	0	0	0	0	2.74	1.09	0.03	107671	1	3110	72876	107671	104561	1175	98	220	16	71074	2593813	1509
249	2017-01-29 18:26:30	0	0	0	0	0	0	2.74	1.09	0.03	107675	1	3111	72876	107675	104564	1175	98	220	16	71074	2593825	1509
250	2017-01-29 18:45:47	0	0	0	0	0	0	2.74	1.09	0.03	107678	1	3111	72876	107678	104567	1175	98	220	16	71074	2593843	1509
251	2017-01-29 18:56:37	0	0	0	0	0	0	2.74	1.09	0.03	107686	1	3113	72876	107686	104573	1175	98	220	16	71074	2593852	1509
252	2017-01-29 19:08:18	0	0	0	0	0	0	2.74	1.09	0.03	107689	1	3113	72876	107689	104576	1175	98	220	16	71074	2593861	1509
253	2017-01-29 19:18:18	0	0	0	0	0	0	2.74	1.09	0.03	107693	1	3114	72876	107693	104579	1175	98	220	16	71074	2593869	1509
254	2017-01-29 19:28:18	0	0	0	0	0	0	2.74	1.09	0.03	107696	1	3114	72876	107696	104582	1175	98	220	16	71074	2593882	1509
255	2017-01-29 19:38:34	0	0	0	0	0	0	2.74	1.09	0.03	107698	1	3115	72876	107698	104583	1175	98	220	16	71074	2593895	1509
256	2017-01-29 19:49:08	0	0	0	0	0	0	2.74	1.09	0.03	107704	1	3115	72876	107704	104589	1175	98	220	16	71074	2593898	1509
257	2017-01-29 19:58:57	0	0	0	0	0	0	2.74	1.09	0.03	107705	1	3115	72876	107705	104590	1175	98	220	16	71074	2593918	1509
258	2017-01-29 20:13:37	0	0	0	0	0	0	2.74	1.09	0.03	107709	1	3115	72876	107709	104594	1175	98	220	16	71074	2593920	1509
259	2017-01-29 20:23:37	0	0	0	0	0	0	2.74	1.09	0.03	107711	1	3115	72876	107711	104596	1175	98	220	16	71074	2593931	1509
260	2017-01-29 20:35:48	0	0	0	0	0	0	2.74	1.09	0.03	107716	1	3115	72876	107716	104601	1175	98	220	16	71074	2593944	1509
261	2017-01-29 20:45:28	0	0	0	0	0	0	2.74	1.09	0.03	107721	1	3117	72876	107721	104604	1175	98	220	16	71074	2593953	1509
262	2017-01-29 21:02:07	0	0	0	0	0	0	2.74	1.09	0.03	107726	1	3118	72876	107726	104608	1175	98	220	16	71074	2593971	1509
263	2017-01-29 21:13:06	0	0	0	0	0	0	2.74	1.09	0.03	107727	1	3118	72876	107727	104609	1175	98	220	16	71074	2593978	1509
264	2017-01-29 21:23:01	0	0	0	0	0	0	2.74	1.09	0.03	107734	1	3120	72876	107734	104614	1175	98	220	16	71074	2593989	1509
265	2017-01-29 21:33:29	0	0	0	0	0	0	2.74	1.09	0.03	107740	1	3121	72876	107740	104619	1175	98	220	16	71074	2594002	1509
266	2017-01-29 21:49:16	0	0	0	0	0	0	2.74	1.09	0.03	107744	1	3122	72876	107744	104622	1175	98	220	16	71074	2594022	1509
267	2017-01-29 21:59:10	0	0	0	0	0	0	2.74	1.09	0.03	107748	1	3122	72876	107748	104626	1175	98	220	16	71074	2594030	1509
268	2017-01-29 22:09:02	0	0	0	0	0	0	2.74	1.09	0.03	107749	1	3122	72876	107749	104627	1175	98	220	16	71074	2594030	1509
269	2017-01-29 22:19:22	0	0	0	0	0	0	2.74	1.09	0.03	107750	1	3122	72876	107750	104628	1175	98	220	16	71074	2594045	1509
270	2017-01-29 22:31:24	0	0	0	0	0	0	2.74	1.09	0.03	107755	1	3124	72876	107755	104631	1175	98	220	16	71074	2594055	1509
271	2017-01-29 22:42:51	0	0	0	0	0	0	2.74	1.09	0.03	107758	1	3124	72876	107758	104634	1175	98	220	16	71074	2594064	1509
272	2017-01-29 22:53:42	0	0	0	0	0	0	2.74	1.09	0.03	107760	1	3124	72876	107760	104636	1175	98	220	16	71074	2594070	1509
273	2017-01-29 23:07:34	0	0	0	0	0	0	2.74	1.09	0.03	107761	1	3125	72876	107761	104636	1175	98	220	16	71074	2594093	1509
274	2017-01-29 23:22:55	0	0	0	0	0	0	2.74	1.09	0.03	107767	1	3126	72876	107767	104641	1175	98	220	16	71074	2594106	1509
275	2017-01-29 23:32:49	0	0	0	0	0	0	2.74	1.09	0.03	107768	1	3126	72876	107768	104642	1175	98	220	16	71074	2594107	1509
276	2017-01-29 23:42:56	0	0	0	0	0	0	2.74	1.09	0.03	107777	1	3126	72876	107777	104651	1175	98	220	16	71074	2594116	1509
277	2017-01-29 23:52:45	0	0	0	0	0	0	2.74	1.09	0.03	107778	1	3126	72876	107778	104652	1175	98	220	16	71074	2594121	1509
278	2017-01-30 00:02:32	0	0	0	0	0	0	2.74	1.09	0.03	107781	1	3127	72876	107781	104654	1175	98	220	16	71074	2594127	1509
279	2017-01-30 01:07:03	0	0	0	0	0	0	2.74	1.09	0.03	107786	1	3130	72876	107786	104656	1175	98	220	16	71074	2594142	1509
280	2017-01-30 02:04:54	0	0	0	0	0	0	2.73	1.09	0.03	107787	1	3131	72876	107787	104656	1175	98	220	16	71074	2601805	1509
281	2017-01-30 03:09:30	0	0	0	0	0	0	2.73	1.09	0.03	107787	1	3131	72876	107787	104656	1175	98	220	16	71074	2601814	1509
282	2017-01-30 04:09:22	0	0	0	0	0	0	2.73	1.09	0.03	107789	1	3132	72876	107789	104657	1175	98	220	16	71074	2601815	1509
283	2017-01-30 05:10:06	0	0	0	0	0	0	2.73	1.09	0.03	107789	1	3132	72876	107789	104657	1175	98	220	16	71074	2601815	1509
284	2017-01-30 06:10:41	0	0	0	0	0	0	2.73	1.09	0.03	107791	1	3132	72876	107791	104659	1175	98	220	16	71074	2601822	1509
285	2017-01-30 07:16:49	0	0	0	0	0	0	2.73	1.09	0.03	107792	1	3132	72876	107792	104660	1175	98	220	16	71074	2601836	1509
286	2017-01-30 07:27:07	0	0	0	0	0	0	2.73	1.09	0.03	107792	1	3132	72876	107792	104660	1175	98	220	16	71074	2601837	1509
287	2017-01-30 07:47:51	0	0	0	0	0	0	2.73	1.09	0.03	107792	1	3132	72876	107792	104660	1175	98	220	16	71074	2601846	1509
288	2017-01-30 07:57:44	0	0	0	0	0	0	2.73	1.09	0.03	107792	1	3132	72876	107792	104660	1175	98	220	16	71074	2601845	1509
289	2017-01-30 08:07:13	0	0	0	0	0	0	2.73	1.09	0.03	107792	1	3132	72876	107792	104660	1175	98	220	16	71074	2601845	1509
290	2017-01-30 08:17:18	0	0	0	0	0	0	2.73	1.09	0.03	107792	1	3132	72876	107792	104660	1175	98	220	16	71074	2601847	1509
291	2017-01-30 08:31:02	0	0	0	0	0	0	2.73	1.09	0.03	107793	1	3132	72876	107793	104661	1175	98	220	16	71074	2601851	1509
292	2017-01-30 08:40:07	0	0	0	0	0	0	2.73	1.09	0.03	107793	1	3132	72876	107793	104661	1175	98	220	16	71074	2601855	1509
293	2017-01-30 08:50:17	0	0	0	0	0	0	2.73	1.09	0.03	107793	1	3132	72876	107793	104661	1175	98	220	16	71074	2601854	1509
294	2017-01-30 09:00:09	0	0	0	0	0	0	2.73	1.09	0.03	107794	1	3132	72876	107794	104662	1175	98	220	16	71074	2601856	1509
295	2017-01-30 09:12:48	0	0	0	0	0	0	2.73	1.09	0.03	107796	1	3132	72876	107796	104662	1175	98	220	16	71074	2601852	1509
296	2017-01-30 09:23:21	0	0	0	0	0	0	2.73	1.09	0.03	107797	1	3132	72876	107797	104665	1175	98	220	16	71074	2601853	1509
297	2017-01-30 09:36:50	0	0	0	0	0	0	2.73	1.09	0.03	107797	1	3132	72876	107797	104665	1175	98	220	16	71074	2601857	1509
298	2017-01-30 09:49:49	0	0	0	0	0	0	2.73	1.09	0.03	107799	1	3133	72876	107799	104666	1175	98	220	16	71074	2601863	1509
299	2017-01-30 09:59:54	0	0	0	0	0	0	2.73	1.09	0.03	107800	1	3134	72876	107800	104666	1175	98	220	16	71074	2601869	1509
300	2017-01-30 10:09:56	0	0	0	0	0	0	2.73	1.09	0.03	107800	1	3134	72876	107800	104666	1175	98	220	16	71074	2601872	1509
301	2017-01-30 10:19:57	0	0	0	0	0	0	2.73	1.09	0.03	107800	1	3134	72876	107800	104666	1175	98	220	16	71074	2601870	1509
302	2017-01-30 10:29:55	0	0	0	0	0	0	2.73	1.09	0.03	107801	1	3135	72876	107801	104666	1175	98	220	16	71074	2601878	1509
303	2017-01-30 10:39:55	0	0	0	0	0	0	2.73	1.09	0.03	107803	1	3135	72876	107803	104668	1175	98	220	16	71074	2601876	1509
304	2017-01-30 10:49:56	0	0	0	0	0	0	2.73	1.09	0.03	107805	1	3135	72876	107805	104670	1175	98	220	16	71074	2601880	1509
305	2017-01-30 10:59:56	0	0	0	0	0	0	2.73	1.09	0.03	107805	1	3135	72876	107805	104670	1175	98	220	16	71074	2601887	1509
306	2017-01-30 11:10:00	0	0	0	0	0	0	2.73	1.09	0.03	107806	1	3135	72876	107806	104671	1175	98	220	16	71074	2601890	1509
307	2017-01-30 11:19:59	0	0	0	0	0	0	2.73	1.09	0.03	107807	1	3135	72876	107807	104672	1175	98	220	16	71074	2601896	1509
308	2017-01-30 11:30:04	0	0	0	0	0	0	2.73	1.09	0.03	107809	1	3135	72876	107809	104674	1175	98	220	16	71074	2601910	1509
309	2017-01-30 11:40:08	0	0	0	0	0	0	2.73	1.09	0.03	107810	1	3135	72876	107810	104675	1175	98	220	16	71074	2601928	1509
310	2017-01-30 11:50:07	0	0	0	0	0	0	2.73	1.09	0.03	107811	1	3136	72876	107811	104675	1175	98	220	16	71074	2601976	1509
311	2017-01-30 12:00:03	0	0	0	0	0	0	2.73	1.09	0.03	107812	1	3136	72876	107812	104676	1175	98	220	16	71074	2602045	1509
312	2017-01-30 12:10:00	0	0	0	0	0	0	2.73	1.09	0.03	107813	1	3136	72876	107813	104677	1175	98	220	16	71074	2602085	1509
313	2017-01-30 12:19:59	0	0	0	0	0	0	2.73	1.09	0.03	107813	1	3136	72876	107813	104677	1175	98	220	16	71074	2602122	1509
