1	2017-06-11 20:09:58	0	0	0	0	0	0	4	1.7	0.06	199254	0	10819	147779	199254	188435	3385	120	581	89	125610	3139785	4175
2	2017-06-11 21:13:04	0	0	0	0	0	0	6.07	1.8	0.08	329188	0	24812	234899	329188	304376	5925	200	804	129	190751	3140294	7058
3	2017-06-11 21:34:36	0	0	0	0	0	0	6.66	1.81	0.09	362797	0	29164	260239	362797	333633	6566	228	878	140	209306	3140472	7812
4	2017-06-11 21:47:55	0	0	0	0	0	0	7.07	1.8	0.09	385551	0	32178	278495	385551	353373	6954	236	922	145	221915	3140587	8257
5	2017-06-11 23:22:23	0	0	0	0	0	0	8.91	1.89	0.1	498489	0	47328	352973	498489	451161	9437	284	1115	184	279877	3141570	11020
6	2017-06-11 23:53:25	0	0	0	0	0	0	9.52	1.92	0.11	527117	0	50813	375612	527117	476304	10136	288	1177	196	299067	3141843	11797
7	2017-06-12 05:27:44	0	0	0	0	0	0	11.11	2.01	0.11	612610	0	58795	433532	612610	553815	12305	300	1336	215	349201	3142579	14156
8	2017-06-12 06:31:12	0	0	0	0	0	0	11.21	2.01	0.11	620994	0	59721	439010	620994	561273	12494	300	1348	216	352385	3142635	14358
9	2017-06-12 07:45:52	0	0	0	0	0	0	11.58	2.01	0.11	642073	0	62135	454207	642073	579938	12906	304	1371	219	363801	3142792	14800
10	2017-06-12 08:00:41	0	0	0	0	0	0	11.69	2.01	0.11	647547	0	62696	457410	647547	584851	13025	306	1377	219	367263	3142839	14927
11	2017-06-12 08:17:30	0	0	0	0	0	0	11.69	2.01	0.11	649294	0	62896	457410	649294	586398	13061	312	1382	219	367438	3142904	14974
12	2017-06-12 09:01:12	0	0	0	0	0	0	11.9	2.03	0.11	665045	0	64519	466084	665045	600526	13484	316	1406	221	374075	3143108	15427
13	2017-06-12 09:11:16	0	0	0	0	0	0	12.08	2.03	0.11	669458	0	65039	472990	669458	604419	13601	316	1414	222	379555	3143157	15553
14	2017-06-12 09:21:38	0	0	0	0	0	0	12.14	2.04	0.11	675820	0	65724	475642	675820	610096	13774	316	1419	222	381449	3143197	15731
15	2017-06-12 09:31:42	0	0	0	0	0	0	12.26	2.04	0.11	679844	0	66176	479839	679844	613668	13900	316	1428	222	385291	3143244	15866
16	2017-06-12 09:55:22	0	0	0	0	0	0	12.53	2.05	0.11	687860	0	66993	489032	687860	620867	14102	316	1443	222	393714	3143341	16083
17	2017-06-12 10:05:25	0	0	0	0	0	0	12.58	2.06	0.11	691857	0	67420	491536	691857	624437	14222	316	1447	222	395549	3143390	16207
18	2017-06-12 10:15:20	0	0	0	0	0	0	12.65	2.06	0.11	695769	0	67816	493893	695769	627953	14331	316	1457	222	397686	3143432	16326
19	2017-06-12 10:25:23	0	0	0	0	0	0	12.7	2.06	0.11	699514	0	68259	495434	699514	631255	14428	316	1461	222	399353	3143463	16427
20	2017-06-12 10:35:26	0	0	0	0	0	0	12.77	2.07	0.11	703137	0	68668	498946	703137	634469	14529	316	1466	223	401502	3143519	16534
21	2017-06-12 10:45:25	0	0	0	0	0	0	12.87	2.07	0.11	706678	0	69033	501165	706678	637645	14620	316	1471	223	404649	3143566	16630
22	2017-06-12 10:55:28	0	0	0	0	0	0	12.91	2.07	0.11	710050	0	69386	503063	710050	640664	14709	316	1474	223	405886	3143604	16722
23	2017-06-12 11:05:28	0	0	0	0	0	0	13.03	2.08	0.11	713446	0	69706	506768	713446	643740	14806	316	1475	223	409590	3143643	16820
24	2017-06-12 11:15:25	0	0	0	0	0	0	13.13	2.08	0.11	716720	0	69983	509604	716720	646737	14901	316	1477	223	412647	3143689	16917
25	2017-06-12 11:25:24	0	0	0	0	0	0	13.13	2.08	0.11	719962	0	70256	509730	719962	649706	15001	316	1481	223	412730	3143715	17021
26	2017-06-12 11:35:24	0	0	0	0	0	0	13.18	2.09	0.11	723200	0	70531	512154	723200	652669	15092	316	1486	224	414207	3143750	17118
27	2017-06-12 11:45:23	0	0	0	0	0	0	13.25	2.09	0.11	726381	0	70836	514451	726381	655545	15169	316	1492	224	416603	3143793	17201
28	2017-06-12 11:55:25	0	0	0	0	0	0	13.29	2.09	0.11	729658	0	71114	516468	729658	658544	15258	316	1496	224	417840	3143851	17294
29	2017-06-12 12:05:24	0	0	0	0	0	0	13.35	2.09	0.11	732867	0	71389	518934	732867	661478	15323	316	1502	224	419680	3143885	17365
30	2017-06-12 12:15:25	0	0	0	0	0	0	13.45	2.09	0.11	736140	0	71695	520853	736140	664445	15417	318	1507	224	422860	3143931	17466
31	2017-06-12 12:25:25	0	0	0	0	0	0	13.53	2.1	0.11	739426	0	71978	523573	739426	667448	15500	318	1514	225	425292	3143990	17557
32	2017-06-12 12:35:26	0	0	0	0	0	0	13.55	2.1	0.11	742606	0	72264	524504	742606	670342	15569	318	1517	226	425907	3144030	17630
33	2017-06-12 12:45:26	0	0	0	0	0	0	13.58	2.1	0.11	745779	0	72525	526442	745779	673254	15650	318	1522	226	426963	3144072	17716
34	2017-06-12 12:55:29	0	0	0	0	0	0	13.62	2.1	0.11	749151	0	72797	528746	749151	676354	15732	318	1523	226	428299	3144117	17799
35	2017-06-12 13:05:30	0	0	0	0	0	0	13.64	2.1	0.11	751995	0	73020	529650	751995	678975	15800	318	1524	226	428892	3144153	17868
36	2017-06-12 13:15:39	0	0	0	0	0	0	13.71	2.1	0.11	754738	0	73228	533437	754738	681510	15876	318	1528	226	431192	3144207	17948
37	2017-06-12 13:25:27	0	0	0	0	0	0	13.79	2.1	0.11	757538	0	73485	535299	757538	684053	15934	318	1535	226	433740	3144263	18013
38	2017-06-12 13:35:28	0	0	0	0	0	0	13.83	2.11	0.11	760316	0	73715	536597	760316	686601	16008	318	1536	226	434837	3144311	18088
39	2017-06-12 13:45:27	0	0	0	0	0	0	13.85	2.11	0.11	763017	0	73938	537622	763017	689079	16085	318	1540	226	435632	3144380	18169
40	2017-06-12 13:55:27	0	0	0	0	0	0	13.9	2.11	0.11	765935	0	74161	539637	765935	691774	16166	318	1544	226	437200	3144436	18254
41	2017-06-12 14:05:28	0	0	0	0	0	0	13.95	2.11	0.11	768642	0	74363	540957	768642	694279	16237	318	1549	226	438811	3144490	18330
42	2017-06-12 14:15:27	0	0	0	0	0	0	14	2.11	0.11	771156	0	74564	542568	771156	696592	16304	320	1550	227	440121	3144544	18401
43	2017-06-12 14:25:29	0	0	0	0	0	0	14.02	2.12	0.11	773599	0	74780	543592	773599	698819	16367	320	1553	227	440795	3144600	18467
44	2017-06-12 14:35:28	0	0	0	0	0	0	14.03	2.12	0.11	776100	0	74999	543974	776100	701101	16430	320	1555	227	441046	3144650	18532
45	2017-06-12 14:45:28	0	0	0	0	0	0	14.09	2.12	0.11	778617	0	75195	547074	778617	703422	16507	320	1558	227	443081	3144707	18612
46	2017-06-12 14:55:28	0	0	0	0	0	0	14.13	2.12	0.11	781200	0	75406	548795	781200	705794	16572	322	1560	227	444465	3144760	18681
47	2017-06-12 15:05:29	0	0	0	0	0	0	14.21	2.12	0.11	783773	0	75610	551286	783773	708163	16647	322	1563	229	446999	3144820	18761
48	2017-06-12 15:15:30	0	0	0	0	0	0	14.25	2.13	0.11	786036	0	75795	553652	786036	710241	16715	322	1566	229	448164	3144870	18832
49	2017-06-12 15:25:29	0	0	0	0	0	0	14.3	2.13	0.11	788305	0	75995	555113	788305	712310	16785	322	1567	229	449773	3144936	18903
50	2017-06-12 15:35:34	0	0	0	0	0	0	14.33	2.13	0.11	790605	0	76184	555973	790605	714421	16849	322	1572	229	450804	3144988	18972
51	2017-06-12 15:45:36	0	0	0	0	0	0	14.42	2.13	0.11	793008	0	76350	558808	793008	716658	16908	322	1576	229	453462	3145064	19035
52	2017-06-12 15:55:43	0	0	0	0	0	0	14.44	2.13	0.11	795420	0	76564	559868	795420	718856	16962	320	1580	229	454160	3145110	19091
53	2017-06-12 16:05:34	0	0	0	0	0	0	14.45	2.13	0.11	797708	0	76725	560527	797708	720983	17020	320	1584	229	454593	3145166	19153
54	2017-06-12 16:15:40	0	0	0	0	0	0	14.49	2.13	0.11	799841	0	76890	562050	799841	722951	17070	320	1585	229	455594	3145234	19204
55	2017-06-12 16:25:30	0	0	0	0	0	0	14.5	2.14	0.11	801897	0	77071	562861	801897	724826	17122	320	1588	232	456127	3145295	19262
56	2017-06-12 16:35:35	0	0	0	0	0	0	14.51	2.14	0.11	804007	0	77270	562861	804007	726737	17173	320	1593	232	456531	3145341	19318
57	2017-06-12 16:45:32	0	0	0	0	0	0	14.54	2.14	0.11	805856	0	77428	563604	805856	728428	17223	320	1597	232	457289	3145406	19372
58	2017-06-12 16:55:32	0	0	0	0	0	0	14.58	2.14	0.11	807543	0	77589	565715	807543	729954	17271	320	1597	232	458678	3145474	19420
59	2017-06-12 17:05:32	0	0	0	0	0	0	14.62	2.14	0.11	809185	0	77736	567049	809185	731449	17314	320	1597	232	459827	3145547	19463
60	2017-06-12 17:15:31	0	0	0	0	0	0	14.63	2.14	0.11	810702	0	77862	567464	810702	732840	17351	320	1600	232	460101	3145645	19503
61	2017-06-12 17:25:33	0	0	0	0	0	0	14.64	2.14	0.11	812268	0	77995	568297	812268	734273	17386	320	1600	231	460648	3145724	19537
62	2017-06-12 17:35:36	0	0	0	0	0	0	14.64	2.14	0.11	813856	0	78113	568297	813856	735743	17411	320	1602	231	460648	3145813	19564
63	2017-06-12 17:45:40	0	0	0	0	0	0	14.66	2.14	0.11	815395	0	78231	570076	815395	737164	17446	320	1603	231	461335	3145881	19600
64	2017-06-12 17:55:37	0	0	0	0	0	0	14.67	2.14	0.11	817057	0	78351	570076	817057	738706	17487	320	1605	231	461610	3145954	19643
65	2017-06-12 18:05:32	0	0	0	0	0	0	14.7	2.14	0.11	818763	0	78468	570917	818763	740295	17532	320	1606	231	462437	3145999	19689
66	2017-06-12 18:15:32	0	0	0	0	0	0	14.71	2.14	0.11	820498	0	78575	572025	820498	741923	17585	320	1607	231	462644	3146048	19743
67	2017-06-12 18:25:31	0	0	0	0	0	0	14.71	2.14	0.11	822276	0	78679	572446	822276	743597	17631	322	1609	231	462920	3146103	19793
68	2017-06-12 18:35:31	0	0	0	0	0	0	14.72	2.14	0.11	824166	0	78782	572870	824166	745384	17669	322	1615	231	463197	3146173	19837
69	2017-06-12 18:45:32	0	0	0	0	0	0	14.73	2.14	0.11	826027	0	78895	573188	826027	747132	17712	320	1615	231	463405	3146224	19878
70	2017-06-12 18:55:32	0	0	0	0	0	0	14.81	2.14	0.11	827953	0	79016	575578	827953	748937	17749	320	1617	231	465946	3146293	19917
71	2017-06-12 19:05:43	0	0	0	0	0	0	14.83	2.14	0.11	829744	0	79160	576369	829744	750584	17787	320	1620	231	466745	3146346	19958
72	2017-06-12 19:15:31	0	0	0	0	0	0	14.87	2.14	0.11	831389	0	79284	577875	831389	752105	17828	320	1621	231	467732	3146409	20000
73	2017-06-12 19:25:32	0	0	0	0	0	0	14.9	2.14	0.11	832935	0	79398	579443	832935	753537	17866	320	1623	231	468936	3146462	20040
74	2017-06-12 19:35:33	0	0	0	0	0	0	14.93	2.14	0.11	834270	0	79531	580910	834270	754739	17895	320	1624	231	469790	3146518	20070
75	2017-06-12 19:45:33	0	0	0	0	0	0	14.95	2.15	0.11	835499	0	79629	581019	835499	755870	17929	320	1626	231	470289	3146583	20106
76	2017-06-12 19:55:35	0	0	0	0	0	0	14.95	2.15	0.11	836628	0	79734	581019	836628	756894	17951	320	1626	231	470289	3146644	20128
77	2017-06-12 20:05:43	0	0	0	0	0	0	14.96	2.15	0.11	837622	0	79825	582385	837622	757797	17972	318	1627	231	470718	3146705	20148
78	2017-06-12 20:15:42	0	0	0	0	0	0	14.98	2.15	0.11	838347	0	79927	583455	838347	758420	17994	318	1628	231	471292	3146766	20171
79	2017-06-12 20:25:38	0	0	0	0	0	0	14.99	2.15	0.11	838995	0	80025	584116	838995	758970	18009	318	1628	231	471722	3146837	20186
80	2017-06-12 20:35:35	0	0	0	0	0	0	15	2.15	0.11	839635	0	80115	584612	839635	759520	18028	318	1628	231	472046	3146902	20205
81	2017-06-12 20:45:34	0	0	0	0	0	0	15	2.15	0.11	840195	0	80205	584612	840195	759990	18041	318	1628	231	472046	3146971	20218
82	2017-06-12 20:55:35	0	0	0	0	0	0	15	2.15	0.11	840764	0	80282	584722	840764	760482	18055	318	1629	231	472046	3147022	20233
83	2017-06-12 21:05:39	0	0	0	0	0	0	15.03	2.15	0.11	841310	0	80345	585386	841310	760965	18061	318	1628	231	472911	3147096	20238
84	2017-06-12 21:15:36	0	0	0	0	0	0	15.04	2.15	0.11	841815	0	80440	585829	841815	761375	18071	318	1628	231	473200	3147146	20248
85	2017-06-12 21:25:34	0	0	0	0	0	0	15.06	2.15	0.11	842315	0	80519	586925	842315	761796	18084	318	1628	231	473915	3147211	20261
86	2017-06-12 21:35:35	0	0	0	0	0	0	15.06	2.15	0.11	842777	0	80584	586925	842777	762193	18091	318	1628	231	473915	3147264	20268
87	2017-06-12 21:45:35	0	0	0	0	0	0	15.06	2.15	0.11	843301	0	80654	587092	843301	762647	18099	318	1628	232	474024	3147324	20277
88	2017-06-12 21:55:44	0	0	0	0	0	0	15.08	2.15	0.11	843771	0	80721	587984	843771	763050	18110	318	1628	232	474606	3147392	20288
89	2017-06-12 22:05:42	0	0	0	0	0	0	15.12	2.15	0.11	844205	0	80788	587984	844205	763417	18114	318	1628	232	475919	3147444	20292
90	2017-06-12 22:15:43	0	0	0	0	0	0	15.12	2.15	0.11	844636	0	80838	587984	844636	763798	18125	318	1629	232	475919	3147510	20304
91	2017-06-12 22:25:38	0	0	0	0	0	0	15.14	2.15	0.11	845080	0	80915	588879	845080	764165	18133	318	1629	232	476505	3147569	20312
92	2017-06-12 22:35:37	0	0	0	0	0	0	15.14	2.15	0.11	845561	0	80970	588879	845561	764591	18142	318	1629	232	476505	3147614	20321
93	2017-06-12 22:45:37	0	0	0	0	0	0	15.14	2.15	0.11	845989	0	81019	588879	845989	764970	18151	318	1630	232	476505	3147674	20331
94	2017-06-12 22:55:36	0	0	0	0	0	0	15.15	2.15	0.11	846381	0	81067	589776	846381	765314	18159	320	1630	232	476798	3147727	20341
95	2017-06-12 23:05:36	0	0	0	0	0	0	15.15	2.15	0.11	846787	0	81117	589776	846787	765670	18169	320	1630	232	476798	3147767	20351
96	2017-06-12 23:15:38	0	0	0	0	0	0	15.16	2.15	0.11	847161	0	81169	589776	847161	765992	18178	320	1630	232	477092	3147833	20360
97	2017-06-12 23:25:39	0	0	0	0	0	0	15.16	2.15	0.11	847536	0	81221	589776	847536	766315	18189	320	1631	232	477092	3147888	20372
98	2017-06-12 23:35:37	0	0	0	0	0	0	15.16	2.15	0.11	847884	0	81260	589776	847884	766624	18203	320	1632	232	477092	3147944	20387
99	2017-06-12 23:45:38	0	0	0	0	0	0	15.17	2.15	0.11	848193	0	81311	589776	848193	766882	18211	320	1632	232	477681	3147976	20395
100	2017-06-12 23:55:37	0	0	0	0	0	0	15.17	2.15	0.11	848487	0	81369	589776	848487	767118	18217	320	1632	232	477681	3148014	20401
101	2017-06-13 00:30:41	0	0	0	0	0	0	15.18	2.15	0.11	849243	0	81484	590001	849243	767759	18235	320	1632	232	477828	3148161	20419
102	2017-06-13 01:30:39	0	0	0	0	0	0	15.21	2.15	0.11	850019	0	81580	591692	850019	768439	18253	320	1632	232	478937	3148278	20437
103	2017-06-13 02:30:38	0	0	0	0	0	0	15.21	2.15	0.11	850423	0	81624	591692	850423	768799	18265	320	1632	232	478937	3148321	20449
104	2017-06-13 03:30:42	0	0	0	0	0	0	15.21	2.15	0.11	850655	0	81658	591692	850655	768997	18269	320	1632	232	478937	3148344	20453
105	2017-06-13 04:30:41	0	0	0	0	0	0	15.21	2.15	0.11	850774	0	81679	591692	850774	769095	18271	320	1632	232	478937	3148354	20455
106	2017-06-13 05:30:43	0	0	0	0	0	0	15.21	2.15	0.11	850950	0	81714	591692	850950	769236	18272	320	1632	232	478937	3148371	20456
107	2017-06-13 06:30:48	0	0	0	0	0	0	15.21	2.15	0.11	851264	0	81764	591692	851264	769500	18275	320	1632	232	478937	3148408	20459
108	2017-06-13 07:05:41	0	0	0	0	0	0	15.24	2.15	0.11	851636	0	81810	593279	851636	769826	18281	320	1632	232	479976	3148466	20465
109	2017-06-13 07:21:04	0	0	0	0	0	0	15.24	2.15	0.11	851810	0	81828	593279	851810	769982	18287	320	1632	232	479976	3148489	20471
110	2017-06-13 07:29:36	0	0	0	0	0	0	15.24	2.15	0.11	851878	0	81837	593279	851878	770041	18290	320	1632	232	479976	3148498	20474
111	2017-06-13 07:39:36	0	0	0	0	0	0	15.24	2.15	0.11	851966	0	81852	593279	851966	770114	18291	320	1632	232	479976	3148511	20475
112	2017-06-13 07:49:36	0	0	0	0	0	0	15.24	2.15	0.11	852037	0	81864	593279	852037	770173	18292	320	1632	232	479976	3148528	20476
113	2017-06-13 07:59:47	0	0	0	0	0	0	15.25	2.15	0.11	852125	0	81886	593507	852125	770239	18294	320	1633	232	480125	3148547	20479
114	2017-06-13 08:09:57	0	0	0	0	0	0	15.25	2.15	0.11	852196	0	81901	593507	852196	770295	18297	320	1633	232	480125	3148556	20482
115	2017-06-13 08:19:58	0	0	0	0	0	0	15.25	2.15	0.11	852270	0	81916	593507	852270	770354	18297	320	1633	232	480125	3148572	20482
116	2017-06-13 08:30:03	0	0	0	0	0	0	15.25	2.15	0.11	852359	0	81930	593507	852359	770429	18298	320	1633	232	480125	3148590	20483
117	2017-06-13 08:40:12	0	0	0	0	0	0	15.25	2.15	0.11	852431	0	81938	593507	852431	770493	18298	320	1633	232	480125	3148611	20483
118	2017-06-13 08:51:23	0	0	0	0	0	0	15.25	2.15	0.11	852497	0	81950	593507	852497	770547	18301	320	1633	232	480125	3148624	20486
119	2017-06-13 09:01:20	0	0	0	0	0	0	15.25	2.15	0.11	852564	0	81967	593507	852564	770597	18304	320	1633	232	480125	3148636	20489
120	2017-06-13 09:11:18	0	0	0	0	0	0	15.25	2.15	0.11	852626	0	81987	593507	852626	770639	18306	320	1633	232	480125	3148657	20491
121	2017-06-13 09:21:18	0	0	0	0	0	0	15.25	2.15	0.11	852699	0	82004	593507	852699	770695	18308	320	1633	232	480125	3148675	20493
122	2017-06-13 09:31:28	0	0	0	0	0	0	15.25	2.15	0.11	852753	0	82014	593507	852753	770739	18310	320	1633	232	480125	3148702	20495
123	2017-06-13 09:41:58	0	0	0	0	0	0	15.25	2.15	0.11	852816	0	82021	593507	852816	770795	18314	320	1633	232	480125	3148728	20499
124	2017-06-13 09:52:19	0	0	0	0	0	0	15.25	2.15	0.11	852885	0	82033	593507	852885	770852	18314	320	1633	232	480125	3148748	20499
125	2017-06-13 10:02:19	0	0	0	0	0	0	15.25	2.15	0.11	852940	0	82039	593507	852940	770901	18314	320	1633	232	480125	3148764	20499
126	2017-06-13 10:12:26	0	0	0	0	0	0	15.25	2.15	0.11	853003	0	82049	593507	853003	770954	18315	320	1633	232	480125	3148778	20500
127	2017-06-13 10:24:03	0	0	0	0	0	0	15.25	2.15	0.11	853113	0	82065	593507	853113	771048	18316	320	1633	232	480125	3148807	20501
128	2017-06-13 10:36:06	0	0	0	0	0	0	15.25	2.15	0.11	853172	0	82071	593507	853172	771101	18319	320	1633	232	480125	3148837	20504
129	2017-06-13 10:46:39	0	0	0	0	0	0	15.25	2.15	0.11	853225	0	82079	593507	853225	771146	18320	320	1633	232	480125	3148852	20505
130	2017-06-13 11:03:23	0	0	0	0	0	0	15.25	2.15	0.11	853338	0	82093	593962	853338	771245	18320	320	1633	232	480125	3148879	20505
131	2017-06-13 11:16:56	0	0	0	0	0	0	15.25	2.15	0.11	853424	0	82106	593962	853424	771318	18325	320	1633	232	480125	3148901	20510
132	2017-06-13 11:29:27	0	0	0	0	0	0	15.25	2.15	0.11	853498	0	82113	593962	853498	771385	18325	320	1633	232	480125	3148922	20510
133	2017-06-13 11:38:38	0	0	0	0	0	0	15.25	2.15	0.11	853556	0	82120	593962	853556	771436	18325	320	1632	232	480125	3148933	20509
134	2017-06-13 11:48:33	0	0	0	0	0	0	15.25	2.15	0.11	853588	0	82128	593962	853588	771460	18327	320	1632	232	480125	3148947	20511
135	2017-06-13 11:58:33	0	0	0	0	0	0	15.25	2.15	0.11	853655	0	82135	593962	853655	771519	18329	320	1632	232	480125	3148966	20513
136	2017-06-13 12:16:26	0	0	0	0	0	0	15.25	2.15	0.11	853716	0	82147	593962	853716	771569	18331	320	1632	232	480125	3149010	20515
137	2017-06-13 12:26:28	0	0	0	0	0	0	15.25	2.15	0.11	853762	0	82156	593962	853762	771606	18334	320	1632	232	480125	3149044	20518
138	2017-06-13 12:36:25	0	0	0	0	0	0	15.25	2.15	0.11	853809	0	82167	593962	853809	771642	18334	320	1632	232	480125	3149079	20518
139	2017-06-13 12:46:28	0	0	0	0	0	0	15.25	2.15	0.11	853859	0	82175	593962	853859	771684	18335	320	1632	232	480125	3149128	20519
140	2017-06-13 12:56:30	0	0	0	0	0	0	15.25	2.15	0.11	853889	0	82177	593962	853889	771712	18337	320	1633	232	480125	3149168	20522
141	2017-06-13 13:06:39	0	0	0	0	0	0	15.25	2.15	0.11	853926	0	82182	593962	853926	771744	18338	320	1633	232	480125	3149196	20523
142	2017-06-13 13:16:37	0	0	0	0	0	0	15.25	2.15	0.11	853960	0	82188	593962	853960	771772	18338	320	1633	232	480125	3149227	20523
143	2017-06-13 13:26:40	0	0	0	0	0	0	15.25	2.15	0.11	854004	0	82201	593962	854004	771803	18340	320	1633	232	480125	3149263	20525
144	2017-06-13 13:36:34	0	0	0	0	0	0	15.25	2.15	0.11	854048	0	82207	593962	854048	771841	18340	320	1633	232	480125	3149297	20525
145	2017-06-13 13:46:31	0	0	0	0	0	0	15.25	2.15	0.11	854096	0	82217	593962	854096	771879	18340	320	1633	232	480125	3149325	20525
146	2017-06-13 13:56:30	0	0	0	0	0	0	15.25	2.15	0.11	854133	0	82229	593962	854133	771904	18341	320	1633	232	480125	3149365	20526
147	2017-06-13 14:06:31	0	0	0	0	0	0	15.24	2.15	0.11	854164	0	82234	593962	854164	771930	18342	320	1633	232	480125	3149420	20527
148	2017-06-13 14:16:32	0	0	0	0	0	0	15.24	2.15	0.11	854191	0	82238	593962	854191	771953	18344	320	1633	232	480125	3149462	20529
149	2017-06-13 14:26:32	0	0	0	0	0	0	15.24	2.15	0.11	854227	0	82244	593962	854227	771983	18344	320	1633	232	480125	3149522	20529
150	2017-06-13 14:36:35	0	0	0	0	0	0	15.24	2.15	0.11	854265	0	82249	593962	854265	772016	18344	320	1633	232	480125	3149592	20529
151	2017-06-13 14:46:31	0	0	0	0	0	0	15.24	2.15	0.11	854308	0	82259	593962	854308	772049	18345	320	1633	232	480125	3149681	20530
152	2017-06-13 14:56:33	0	0	0	0	0	0	15.24	2.15	0.11	854355	0	82266	593962	854355	772089	18347	320	1633	232	480125	3149756	20532
153	2017-06-13 15:06:33	0	0	0	0	0	0	15.24	2.15	0.11	854399	0	82277	593962	854399	772122	18348	320	1633	232	480125	3149846	20533
154	2017-06-13 15:16:33	0	0	0	0	0	0	15.25	2.15	0.11	854452	0	82286	594418	854452	772166	18349	320	1633	232	480423	3149925	20534
155	2017-06-13 15:26:33	0	0	0	0	0	0	15.25	2.15	0.11	854500	0	82298	594418	854500	772202	18352	320	1633	232	480423	3150009	20537
156	2017-06-13 15:36:33	0	0	0	0	0	0	15.25	2.15	0.11	854540	0	82306	594418	854540	772234	18353	320	1633	232	480423	3150092	20538
157	2017-06-13 15:46:33	0	0	0	0	0	0	15.25	2.15	0.11	854583	0	82310	594418	854583	772273	18354	320	1633	232	480423	3150166	20539
158	2017-06-13 15:56:35	0	0	0	0	0	0	15.25	2.15	0.11	854615	0	82312	594418	854615	772303	18354	320	1633	232	480423	3150238	20539
159	2017-06-13 16:06:34	0	0	0	0	0	0	15.25	2.15	0.11	854667	0	82320	594418	854667	772347	18354	320	1633	232	480423	3150307	20539
160	2017-06-13 16:16:36	0	0	0	0	0	0	15.25	2.15	0.11	854705	0	82322	594418	854705	772383	18358	320	1633	232	480423	3150371	20543
161	2017-06-13 16:26:35	0	0	0	0	0	0	15.25	2.15	0.11	854757	0	82330	594418	854757	772427	18358	320	1633	232	480423	3150433	20543
162	2017-06-13 16:36:34	0	0	0	0	0	0	15.25	2.15	0.11	854795	0	82336	594418	854795	772459	18359	320	1633	232	480423	3150498	20544
163	2017-06-13 16:46:34	0	0	0	0	0	0	15.25	2.15	0.11	854852	0	82342	594418	854852	772510	18359	320	1633	232	480423	3150569	20544
164	2017-06-13 16:56:39	0	0	0	0	0	0	15.25	2.15	0.11	854893	0	82346	594418	854893	772547	18360	320	1633	232	480423	3150642	20545
165	2017-06-13 17:06:44	0	0	0	0	0	0	15.25	2.15	0.11	854939	0	82349	594418	854939	772590	18362	320	1633	232	480423	3150718	20547
166	2017-06-13 17:16:46	0	0	0	0	0	0	15.25	2.15	0.11	854981	0	82354	594418	854981	772627	18364	320	1633	232	480423	3150772	20549
167	2017-06-13 17:26:40	0	0	0	0	0	0	15.25	2.15	0.11	855021	0	82362	594418	855021	772659	18365	320	1633	232	480423	3150832	20550
168	2017-06-13 17:36:41	0	0	0	0	0	0	15.25	2.15	0.11	855060	0	82370	594646	855060	772690	18365	320	1633	232	480572	3150900	20550
169	2017-06-13 17:46:36	0	0	0	0	0	0	15.25	2.15	0.11	855101	0	82372	594646	855101	772729	18365	320	1633	232	480572	3150961	20550
170	2017-06-13 17:56:37	0	0	0	0	0	0	15.25	2.15	0.11	855139	0	82381	594646	855139	772758	18365	320	1633	232	480572	3151016	20550
171	2017-06-13 18:06:38	0	0	0	0	0	0	15.25	2.15	0.11	855194	0	82390	594646	855194	772804	18365	320	1633	232	480572	3151069	20550
172	2017-06-13 18:16:37	0	0	0	0	0	0	15.25	2.15	0.11	855246	0	82398	594646	855246	772848	18366	320	1633	232	480572	3151120	20551
173	2017-06-13 18:19:09	0	0	0	0	0	0	15.25	2.15	0.11	855246	0	82398	594646	855246	772848	18366	320	1633	232	480572	3151129	20551
174	2017-06-13 18:29:15	0	0	0	0	0	0	15.25	2.15	0.11	855315	0	82411	594646	855315	772904	18368	320	1633	232	480572	3151171	20553
175	2017-06-13 18:39:14	0	0	0	0	0	0	15.25	2.15	0.11	855359	0	82416	594646	855359	772943	18369	320	1633	232	480572	3151214	20554
176	2017-06-13 18:49:17	0	0	0	0	0	0	15.25	2.15	0.11	855405	0	82426	595104	855405	772979	18369	320	1633	232	480572	3151279	20554
177	2017-06-13 18:59:20	0	0	0	0	0	0	15.25	2.15	0.11	855440	0	82429	595104	855440	773011	18371	320	1633	232	480572	3151311	20556
178	2017-06-13 19:09:27	0	0	0	0	0	0	15.25	2.15	0.11	855475	0	82432	595104	855475	773043	18372	320	1633	232	480572	3151363	20557
179	2017-06-13 19:19:29	0	0	0	0	0	0	15.25	2.15	0.11	855516	0	82436	595104	855516	773080	18372	320	1633	232	480572	3151417	20557
180	2017-06-13 19:29:28	0	0	0	0	0	0	15.25	2.15	0.11	855567	0	82445	595104	855567	773122	18373	320	1633	233	480572	3151464	20559
181	2017-06-13 19:39:21	0	0	0	0	0	0	15.25	2.15	0.11	855612	0	82447	595104	855612	773165	18374	320	1633	233	480572	3151504	20560
182	2017-06-13 19:49:17	0	0	0	0	0	0	15.25	2.15	0.11	855656	0	82454	595104	855656	773183	18374	320	1633	233	480572	3151538	20560
183	2017-06-13 19:59:17	0	0	0	0	0	0	15.25	2.15	0.11	855677	0	82459	595104	855677	773222	18374	320	1633	233	480572	3151582	20560
184	2017-06-13 20:09:18	0	0	0	0	0	0	15.25	2.15	0.11	855761	0	82462	595104	855761	773299	18375	320	1633	233	480572	3151637	20561
185	2017-06-13 20:19:18	0	0	0	0	0	0	15.25	2.15	0.11	855788	0	82471	595104	855788	773320	18376	320	1633	233	480572	3151692	20562
186	2017-06-13 20:29:20	0	0	0	0	0	0	15.25	2.15	0.11	855853	0	82474	595104	855853	773379	18378	320	1633	233	480572	3151740	20564
187	2017-06-13 20:39:19	0	0	0	0	0	0	15.25	2.15	0.11	855866	0	82481	595104	855866	773390	18378	320	1633	233	480572	3151785	20564
188	2017-06-13 20:49:20	0	0	0	0	0	0	15.25	2.15	0.11	855930	0	82488	596020	855930	773425	18378	320	1633	233	480572	3151836	20564
189	2017-06-13 20:59:19	0	0	0	0	0	0	15.25	2.15	0.11	855974	0	82492	596020	855974	773482	18378	320	1633	233	480572	3151880	20564
190	2017-06-13 21:09:25	0	0	0	0	0	0	15.26	2.15	0.11	856034	0	82503	596479	856034	773531	18379	320	1633	234	480871	3151916	20566
191	2017-06-13 21:19:27	0	0	0	0	0	0	15.26	2.15	0.11	856081	0	82512	596479	856081	773569	18380	320	1633	234	480871	3151983	20567
192	2017-06-13 21:29:31	0	0	0	0	0	0	15.26	2.15	0.11	856137	0	82528	596479	856137	773609	18380	320	1633	235	480871	3152040	20568
193	2017-06-13 21:39:34	0	0	0	0	0	0	15.26	2.15	0.11	856175	0	82535	596479	856175	773640	18380	320	1633	235	480871	3152083	20568
194	2017-06-13 21:49:22	0	0	0	0	0	0	15.26	2.15	0.11	856201	0	82540	596479	856201	773677	18380	320	1633	235	480871	3152124	20568
195	2017-06-13 21:59:21	0	0	0	0	0	0	15.26	2.15	0.11	856246	0	82554	596479	856246	773697	18380	320	1633	235	480871	3152169	20568
196	2017-06-13 22:09:21	0	0	0	0	0	0	15.25	2.15	0.11	856282	0	82558	596479	856282	773724	18382	320	1633	235	480871	3152219	20570
197	2017-06-13 22:19:21	0	0	0	0	0	0	15.25	2.15	0.11	856317	0	82572	596479	856317	773762	18382	320	1633	235	480871	3152264	20570
198	2017-06-13 22:29:21	0	0	0	0	0	0	15.25	2.15	0.11	856361	0	82575	596479	856361	773786	18382	320	1633	235	480871	3152316	20570
199	2017-06-13 22:39:21	0	0	0	0	0	0	15.25	2.15	0.11	856406	0	82584	596479	856406	773844	18384	320	1633	235	480871	3152369	20572
200	2017-06-13 22:49:21	0	0	0	0	0	0	15.25	2.15	0.11	856456	0	82589	596479	856456	773867	18385	320	1633	235	480871	3152424	20573
201	2017-06-13 22:59:21	0	0	0	0	0	0	15.25	2.15	0.11	856497	0	82599	596479	856497	773901	18386	320	1633	235	480871	3152476	20574
202	2017-06-13 23:09:29	0	0	0	0	0	0	15.25	2.15	0.11	856537	0	82600	596479	856537	773937	18387	320	1633	235	480871	3152519	20575
203	2017-06-13 23:19:34	0	0	0	0	0	0	15.25	2.15	0.11	856607	0	82602	596479	856607	773977	18388	320	1633	235	480871	3152572	20576
204	2017-06-13 23:29:46	0	0	0	0	0	0	15.25	2.15	0.11	856641	0	82614	596479	856641	774027	18388	320	1633	235	480871	3152631	20576
205	2017-06-13 23:39:27	0	0	0	0	0	0	15.25	2.15	0.11	856662	0	82617	596479	856662	774045	18388	320	1633	235	480871	3152672	20576
206	2017-06-13 23:49:21	0	0	0	0	0	0	15.25	2.15	0.11	856689	0	82622	596479	856689	774067	18388	318	1633	235	480871	3152717	20574
207	2017-06-13 23:59:21	0	0	0	0	0	0	15.25	2.15	0.11	856720	0	82626	596479	856720	774094	18388	318	1633	235	480871	3152757	20574
208	2017-06-14 00:46:51	0	0	0	0	0	0	15.25	2.15	0.11	856822	0	82646	596479	856822	774176	18391	318	1634	235	480871	3152909	20578
209	2017-06-14 01:46:57	0	0	0	0	0	0	15.25	2.15	0.11	856919	0	82659	596479	856919	774260	18391	318	1634	235	480871	3153011	20578
210	2017-06-14 02:46:51	0	0	0	0	0	0	15.25	2.15	0.11	856986	0	82662	596479	856986	774324	18391	318	1634	235	480871	3153057	20578
211	2017-06-14 03:46:51	0	0	0	0	0	0	15.25	2.15	0.11	857032	0	82663	596479	857032	774369	18392	318	1634	235	480871	3153066	20579
212	2017-06-14 04:46:58	0	0	0	0	0	0	15.25	2.15	0.11	857061	0	82664	596479	857061	774397	18392	318	1634	235	480871	3153079	20579
213	2017-06-14 05:46:52	0	0	0	0	0	0	15.25	2.15	0.11	857110	0	82666	597371	857110	774444	18393	318	1634	235	480871	3153099	20580
214	2017-06-14 06:46:53	0	0	0	0	0	0	15.25	2.15	0.11	857191	0	82673	597371	857191	774518	18393	318	1634	235	480871	3153139	20580
215	2017-06-14 07:09:23	0	0	0	0	0	0	15.25	2.15	0.11	857230	0	82676	597371	857230	774554	18393	318	1634	235	480871	3153174	20580
216	2017-06-14 07:19:24	0	0	0	0	0	0	15.25	2.15	0.11	857252	0	82677	597371	857252	774575	18393	318	1634	235	480871	3153189	20580
217	2017-06-14 07:29:22	0	0	0	0	0	0	15.25	2.15	0.11	857274	0	82682	597371	857274	774592	18393	318	1634	235	480871	3153201	20580
218	2017-06-14 07:39:21	0	0	0	0	0	0	15.25	2.15	0.11	857293	0	82686	597371	857293	774607	18394	318	1634	235	480871	3153221	20581
219	2017-06-14 07:49:23	0	0	0	0	0	0	15.25	2.15	0.11	857320	0	82688	597371	857320	774632	18394	318	1634	235	480871	3153228	20581
220	2017-06-14 07:59:23	0	0	0	0	0	0	15.25	2.15	0.11	857343	0	82690	597371	857343	774653	18394	318	1634	235	480871	3153247	20581
221	2017-06-14 08:09:25	0	0	0	0	0	0	15.25	2.15	0.11	857365	0	82693	597371	857365	774672	18395	318	1634	235	480871	3153272	20582
222	2017-06-14 08:19:25	0	0	0	0	0	0	15.25	2.15	0.11	857374	0	82693	597371	857374	774681	18395	318	1634	235	480871	3153294	20582
223	2017-06-14 08:29:26	0	0	0	0	0	0	15.25	2.15	0.11	857390	0	82694	597371	857390	774696	18396	318	1634	235	480871	3153328	20583
224	2017-06-14 08:39:28	0	0	0	0	0	0	15.25	2.15	0.11	857420	0	82700	597371	857420	774720	18396	318	1634	235	480871	3153355	20583
225	2017-06-14 08:49:28	0	0	0	0	0	0	15.25	2.15	0.11	857442	0	82703	597371	857442	774739	18396	318	1634	235	480871	3153386	20583
226	2017-06-14 08:59:30	0	0	0	0	0	0	15.25	2.15	0.11	857466	0	82707	597371	857466	774759	18396	318	1634	235	480871	3153410	20583
227	2017-06-14 09:09:32	0	0	0	0	0	0	15.25	2.15	0.11	857484	0	82712	597371	857484	774772	18397	318	1634	235	480871	3153452	20584
228	2017-06-14 09:19:29	0	0	0	0	0	0	15.25	2.15	0.11	857500	0	82714	597371	857500	774786	18397	318	1634	235	480871	3153491	20584
229	2017-06-14 09:29:30	0	0	0	0	0	0	15.25	2.15	0.11	857514	0	82718	597371	857514	774796	18397	318	1634	235	480871	3153538	20584
230	2017-06-14 09:39:27	0	0	0	0	0	0	15.25	2.15	0.11	857530	0	82720	597371	857530	774810	18398	318	1634	235	480871	3153577	20585
231	2017-06-14 09:49:27	0	0	0	0	0	0	15.25	2.15	0.11	857542	0	82720	597371	857542	774822	18398	318	1634	235	480871	3153611	20585
232	2017-06-14 09:59:41	0	0	0	0	0	0	15.25	2.15	0.11	857557	0	82720	597371	857557	774837	18398	318	1634	235	480871	3153640	20585
233	2017-06-14 10:09:38	0	0	0	0	0	0	15.25	2.15	0.11	857567	0	82720	597371	857567	774847	18398	318	1634	235	480871	3153671	20585
234	2017-06-14 10:19:38	0	0	0	0	0	0	15.25	2.15	0.11	857580	0	82722	597371	857580	774858	18399	318	1634	235	480871	3153704	20586
235	2017-06-14 10:29:41	0	0	0	0	0	0	15.25	2.15	0.11	857589	0	82723	597371	857589	774866	18399	318	1634	235	480871	3153739	20586
236	2017-06-14 10:39:41	0	0	0	0	0	0	15.25	2.15	0.11	857600	0	82723	597371	857600	774877	18399	318	1634	235	480871	3153783	20586
237	2017-06-14 10:49:39	0	0	0	0	0	0	15.25	2.15	0.11	857618	0	82725	597371	857618	774893	18399	318	1634	235	480871	3153803	20586
238	2017-06-14 11:00:11	0	0	0	0	0	0	15.25	2.15	0.11	857627	0	82726	597371	857627	774901	18399	318	1634	235	480871	3153834	20586
239	2017-06-14 11:09:47	0	0	0	0	0	0	15.25	2.15	0.11	857645	0	82731	597371	857645	774914	18400	318	1634	235	480871	3153862	20587
240	2017-06-14 11:19:36	0	0	0	0	0	0	15.25	2.15	0.11	857659	0	82731	597371	857659	774928	18400	318	1634	235	480871	3153888	20587
241	2017-06-14 11:30:16	0	0	0	0	0	0	15.25	2.15	0.11	857671	0	82732	597371	857671	774939	18400	318	1635	235	480871	3153916	20588
242	2017-06-14 11:40:08	0	0	0	0	0	0	15.25	2.15	0.11	857684	0	82735	597371	857684	774949	18400	318	1635	235	480871	3153955	20588
243	2017-06-14 11:50:09	0	0	0	0	0	0	15.25	2.15	0.11	857701	0	82737	597371	857701	774964	18400	318	1635	235	480871	3153986	20588
244	2017-06-14 12:00:22	0	0	0	0	0	0	15.25	2.15	0.11	857717	0	82738	597371	857717	774979	18400	318	1635	235	480871	3154010	20588
245	2017-06-14 12:10:31	0	0	0	0	0	0	15.25	2.15	0.11	857730	0	82739	597371	857730	774991	18400	318	1635	235	480871	3154040	20588
246	2017-06-14 12:20:34	0	0	0	0	0	0	15.25	2.15	0.11	857749	0	82739	597371	857749	775010	18400	318	1635	235	480871	3154069	20588
247	2017-06-14 12:30:53	0	0	0	0	0	0	15.25	2.15	0.11	857781	0	82742	597371	857781	775037	18400	318	1635	235	480871	3154098	20588
248	2017-06-14 12:41:03	0	0	0	0	0	0	15.25	2.15	0.11	857791	0	82745	597371	857791	775046	18400	318	1635	235	480871	3154119	20588
249	2017-06-14 12:51:42	0	0	0	0	0	0	15.25	2.15	0.11	857816	0	82746	597371	857816	775070	18401	318	1635	235	480871	3154140	20589
250	2017-06-14 13:01:31	0	0	0	0	0	0	15.25	2.15	0.11	857824	0	82747	597371	857824	775077	18401	318	1635	235	480871	3154165	20589
251	2017-06-14 13:11:43	0	0	0	0	0	0	15.25	2.15	0.11	857841	0	82750	597371	857841	775091	18402	318	1635	235	480871	3154183	20590
252	2017-06-14 13:22:20	0	0	0	0	0	0	15.25	2.15	0.11	857856	0	82754	597371	857856	775102	18402	318	1635	235	480871	3154222	20590
253	2017-06-14 13:33:18	0	0	0	0	0	0	15.25	2.15	0.11	857872	0	82758	597371	857872	775114	18402	318	1635	235	480871	3154246	20590
254	2017-06-14 13:43:39	0	0	0	0	0	0	15.25	2.15	0.11	857889	0	82763	597371	857889	775126	18402	318	1635	235	480871	3154276	20590
255	2017-06-14 13:53:33	0	0	0	0	0	0	15.24	2.14	0.11	857912	0	82766	597371	857912	775146	18402	318	1635	235	480871	3154306	20590
256	2017-06-14 14:03:12	0	0	0	0	0	0	15.24	2.14	0.11	857935	0	82769	597371	857935	775166	18402	318	1635	235	480871	3154328	20590
257	2017-06-14 14:13:09	0	0	0	0	0	0	15.24	2.14	0.11	857949	0	82769	597371	857949	775180	18403	318	1635	235	480871	3154362	20591
258	2017-06-14 14:23:27	0	0	0	0	0	0	15.24	2.14	0.11	857956	0	82769	597371	857956	775187	18403	318	1635	235	480871	3154394	20591
259	2017-06-14 14:35:20	0	0	0	0	0	0	15.24	2.14	0.11	857968	0	82770	597371	857968	775198	18403	318	1635	235	480871	3154435	20591
260	2017-06-14 14:45:12	0	0	0	0	0	0	15.24	2.15	0.11	857988	0	82773	597371	857988	775215	18404	318	1636	235	480871	3154463	20593
261	2017-06-14 14:55:14	0	0	0	0	0	0	15.24	2.15	0.11	858006	0	82774	597371	858006	775232	18406	318	1636	235	480871	3154488	20595
262	2017-06-14 15:05:21	0	0	0	0	0	0	15.24	2.15	0.11	858026	0	82776	597371	858026	775250	18406	318	1636	235	480871	3154523	20595
263	2017-06-14 15:15:39	0	0	0	0	0	0	15.24	2.15	0.11	858043	0	82781	597371	858043	775262	18406	318	1636	235	480871	3154544	20595
264	2017-06-14 15:33:43	0	0	0	0	0	0	15.24	2.15	0.11	858075	0	82787	597371	858075	775288	18406	318	1636	235	480871	3154581	20595
265	2017-06-14 15:43:37	0	0	0	0	0	0	15.24	2.15	0.11	858095	0	82790	597371	858095	775305	18407	318	1636	235	480871	3154616	20596
266	2017-06-14 15:53:31	0	0	0	0	0	0	15.24	2.15	0.11	858109	0	82794	597371	858109	775315	18407	318	1636	235	480871	3154646	20596
267	2017-06-14 16:03:36	0	0	0	0	0	0	15.24	2.15	0.11	858126	0	82796	597371	858126	775330	18407	318	1636	235	480871	3154685	20596
268	2017-06-14 16:19:01	0	0	0	0	0	0	15.24	2.14	0.11	858152	0	82797	597371	858152	775355	18407	318	1636	235	480871	3154735	20596
269	2017-06-14 16:35:54	0	0	0	0	0	0	15.24	2.14	0.11	858187	0	82804	597371	858187	775383	18407	318	1636	235	480871	3154779	20596
270	2017-06-14 16:45:48	0	0	0	0	0	0	15.24	2.14	0.11	858224	0	82805	597371	858224	775419	18407	318	1636	235	480871	3154801	20596
271	2017-06-14 16:55:52	0	0	0	0	0	0	15.24	2.14	0.11	858245	0	82806	597371	858245	775439	18407	318	1636	235	480871	3154822	20596
272	2017-06-14 17:08:10	0	0	0	0	0	0	15.24	2.14	0.11	858282	0	82809	597371	858282	775473	18408	318	1636	235	480871	3154845	20597
273	2017-06-14 17:20:41	0	0	0	0	0	0	15.24	2.14	0.11	858307	0	82812	597371	858307	775495	18408	318	1637	235	480871	3154869	20598
274	2017-06-14 17:30:44	0	0	0	0	0	0	15.24	2.14	0.11	858330	0	82816	597371	858330	775514	18408	318	1637	235	480871	3154891	20598
275	2017-06-14 17:41:25	0	0	0	0	0	0	15.24	2.14	0.11	858370	0	82819	597371	858370	775551	18408	318	1637	235	480871	3154915	20598
276	2017-06-14 17:53:19	0	0	0	0	0	0	15.24	2.14	0.11	858390	0	82819	597371	858390	775571	18408	318	1637	235	480871	3154937	20598
277	2017-06-14 18:03:07	0	0	0	0	0	0	15.24	2.14	0.11	858424	0	82820	597371	858424	775604	18408	318	1637	235	480871	3154958	20598
278	2017-06-14 18:13:06	0	0	0	0	0	0	15.24	2.14	0.11	858445	0	82823	597371	858445	775622	18408	318	1637	235	480871	3154976	20598
279	2017-06-14 18:23:03	0	0	0	0	0	0	15.24	2.14	0.11	858469	0	82824	597371	858469	775645	18408	318	1637	235	480871	3154989	20598
280	2017-06-14 18:38:07	0	0	0	0	0	0	15.24	2.14	0.11	858506	0	82830	597371	858506	775676	18408	318	1637	235	480871	3155011	20598
281	2017-06-14 18:54:40	0	0	0	0	0	0	15.24	2.14	0.11	858544	0	82831	597371	858544	775713	18409	318	1637	235	480871	3155040	20599
282	2017-06-14 19:14:41	0	0	0	0	0	0	15.24	2.14	0.11	858601	0	82838	597371	858601	775763	18409	318	1637	235	480871	3155083	20599
