1	2016-05-01 00:39:19	0	0	0	0	0	0	2.67	1	0.05	72452	0	3578	51203	72452	68874	727	18	276	51	47724	1786988	1072
2	2016-05-01 12:58:17	0	0	0	0	0	0	4.31	0.99	0.04	117734	0	4990	81222	117734	112744	1170	24	356	73	77052	1788246	1623
3	2016-05-01 13:08:11	0	0	0	0	0	0	4.33	0.99	0.04	118765	0	5028	81711	118765	113737	1180	24	356	73	77491	1788248	1633
4	2016-05-01 13:18:10	0	0	0	0	0	0	4.33	1	0.04	119249	0	5048	81835	119249	114201	1188	24	356	73	77510	1788254	1641
5	2016-05-01 13:28:17	0	0	0	0	0	0	4.37	1	0.04	120263	0	5061	82506	120263	115202	1199	24	359	73	78112	1788262	1655
6	2016-05-01 13:38:22	0	0	0	0	0	0	4.39	1	0.04	120672	0	5066	82948	120672	115606	1202	24	360	73	78508	1788276	1659
7	2016-05-01 13:48:11	0	0	0	0	0	0	4.41	0.99	0.04	121458	0	5081	83404	121458	116377	1202	24	362	74	78916	1788286	1662
8	2016-05-01 13:58:13	0	0	0	0	0	0	4.44	0.99	0.04	122397	0	5102	83856	122397	117295	1211	24	364	74	79394	1788295	1673
9	2016-05-01 14:08:13	0	0	0	0	0	0	4.44	0.99	0.04	122927	0	5115	83972	122927	117812	1212	24	365	74	79432	1788306	1675
10	2016-05-01 14:18:09	0	0	0	0	0	0	4.46	0.99	0.04	123790	0	5133	84358	123790	118657	1220	24	366	74	79828	1788318	1684
11	2016-05-01 14:28:12	0	0	0	0	0	0	4.47	0.99	0.04	124309	0	5150	84501	124309	119159	1225	24	368	74	80022	1788336	1691
12	2016-05-01 14:38:12	0	0	0	0	0	0	4.49	0.99	0.04	124813	0	5169	84872	124813	119644	1232	24	372	74	80354	1788341	1702
13	2016-05-01 14:48:13	0	0	0	0	0	0	4.51	0.99	0.04	125680	0	5193	85255	125680	120487	1241	24	372	74	80630	1788348	1711
14	2016-05-01 14:58:18	0	0	0	0	0	0	4.55	0.99	0.04	126443	0	5210	85940	126443	121233	1248	24	374	74	81379	1788354	1720
15	2016-05-01 15:08:14	0	0	0	0	0	0	4.57	0.99	0.04	126930	0	5216	86148	126930	121714	1252	24	374	74	81669	1788362	1724
16	2016-05-01 15:18:14	0	0	0	0	0	0	4.58	0.99	0.04	127661	0	5237	86350	127661	122424	1258	24	375	74	81989	1788362	1731
17	2016-05-01 15:28:15	0	0	0	0	0	0	4.59	0.99	0.04	127982	0	5246	86489	127982	122736	1261	24	376	74	82115	1788373	1735
18	2016-05-01 15:38:14	0	0	0	0	0	0	4.63	0.99	0.04	128716	0	5265	87149	128716	123451	1268	24	379	76	82780	1788386	1747
19	2016-05-01 15:48:11	0	0	0	0	0	0	4.67	0.99	0.04	129561	0	5281	87587	129561	124280	1278	24	380	76	83552	1788395	1758
20	2016-05-01 22:12:36	0	0	0	0	0	0	5.3	0.99	0.04	146227	0	6006	99210	146227	140221	1447	26	419	80	94752	1788893	1972
21	2016-05-01 22:22:28	0	0	0	0	0	0	5.31	0.99	0.04	146597	0	6028	99439	146597	140569	1454	27	420	80	94950	1788904	1981
22	2016-05-01 22:32:26	0	0	0	0	0	0	5.31	0.99	0.04	146782	0	6035	99439	146782	140747	1455	27	421	80	94950	1788920	1983
23	2016-05-01 22:42:24	0	0	0	0	0	0	5.33	0.99	0.04	147162	0	6055	99700	147162	141107	1461	27	422	80	95281	1788931	1990
24	2016-05-01 22:52:30	0	0	0	0	0	0	5.33	0.99	0.04	147317	0	6059	99700	147317	141258	1465	27	422	80	95281	1788950	1994
25	2016-05-01 23:02:30	0	0	0	0	0	0	5.34	0.99	0.04	147712	0	6074	99912	147712	141638	1468	27	423	80	95475	1788968	1998
26	2016-05-01 23:12:30	0	0	0	0	0	0	5.34	0.99	0.04	148018	0	6087	99990	148018	141931	1468	27	423	80	95546	1788987	1998
27	2016-05-01 23:22:29	0	0	0	0	0	0	5.36	0.99	0.04	148167	0	6096	100404	148167	142071	1470	27	423	80	95924	1789003	2000
28	2016-05-01 23:32:27	0	0	0	0	0	0	5.37	0.99	0.04	148476	0	6117	100535	148476	142359	1472	27	423	80	96043	1789024	2002
29	2016-05-01 23:42:26	0	0	0	0	0	0	5.37	0.99	0.04	148623	0	6126	100535	148623	142497	1474	27	424	80	96043	1789036	2005
30	2016-05-01 23:52:26	0	0	0	0	0	0	5.38	0.99	0.04	148894	0	6141	100666	148894	142753	1477	27	424	80	96163	1789052	2008
31	2016-05-02 00:22:28	0	0	0	0	0	0	5.4	0.99	0.04	149350	0	6151	101071	149350	143199	1481	27	424	80	96533	1789100	2012
32	2016-05-02 10:31:29	0	0	0	0	0	0	5.5	0.99	0.04	151526	0	6298	102887	151526	145228	1503	27	429	81	98501	1790862	2040
33	2016-05-02 10:40:35	0	0	0	0	0	0	5.5	0.99	0.04	151538	0	6301	102887	151538	145237	1503	27	429	81	98501	1790866	2040
34	2016-05-02 10:41:21	0	0	0	0	0	0	5.5	0.99	0.04	151538	0	6301	102887	151538	145237	1503	27	429	81	98501	1790868	2040
35	2016-05-02 10:50:27	0	0	0	0	0	0	5.5	0.99	0.04	151563	0	6303	102887	151563	145260	1504	27	429	81	98501	1790881	2041
36	2016-05-02 10:51:18	0	0	0	0	0	0	5.5	0.99	0.04	151563	0	6303	102887	151563	145260	1504	27	429	81	98501	1790881	2041
37	2016-05-02 11:00:41	0	0	0	0	0	0	5.5	0.99	0.04	151574	0	6304	102887	151574	145270	1504	27	429	81	98501	1790892	2041
38	2016-05-02 11:01:22	0	0	0	0	0	0	5.5	0.99	0.04	151574	0	6304	102887	151574	145270	1504	27	429	81	98501	1790893	2041
39	2016-05-02 11:11:24	0	0	0	0	0	0	5.5	0.99	0.04	151606	0	6312	102887	151606	145294	1505	27	429	81	98501	1790906	2042
40	2016-05-02 11:21:31	0	0	0	0	0	0	5.5	0.99	0.04	151639	0	6317	102887	151639	145322	1505	27	429	81	98501	1790922	2042
41	2016-05-02 11:31:52	0	0	0	0	0	0	5.5	0.99	0.04	151653	0	6320	102887	151653	145333	1505	27	429	81	98501	1790936	2042
42	2016-05-02 11:41:36	0	0	0	0	0	0	5.5	0.99	0.04	151677	0	6322	102887	151677	145355	1505	27	429	81	98501	1790942	2042
43	2016-05-02 11:51:27	0	0	0	0	0	0	5.5	0.99	0.04	151680	0	6322	102887	151680	145358	1507	27	429	81	98501	1790956	2044
44	2016-05-02 12:01:19	0	0	0	0	0	0	5.5	0.99	0.04	151687	0	6324	102887	151687	145363	1507	27	429	81	98501	1790964	2044
45	2016-05-02 12:11:27	0	0	0	0	0	0	5.5	0.99	0.04	151714	0	6329	102887	151714	145385	1507	27	429	81	98501	1790971	2044
46	2016-05-02 12:21:23	0	0	0	0	0	0	5.5	0.99	0.04	151724	0	6330	102887	151724	145394	1507	27	429	81	98501	1790981	2044
47	2016-05-02 12:31:21	0	0	0	0	0	0	5.5	0.99	0.04	151742	0	6331	102887	151742	145411	1507	27	429	81	98501	1790989	2044
48	2016-05-02 12:41:19	0	0	0	0	0	0	5.5	0.99	0.04	151753	0	6332	102887	151753	145421	1507	27	429	82	98501	1791004	2045
49	2016-05-02 12:51:18	0	0	0	0	0	0	5.5	0.99	0.04	151776	0	6334	102887	151776	145442	1507	27	429	83	98501	1791020	2046
50	2016-05-02 13:01:20	0	0	0	0	0	0	5.5	0.99	0.04	151787	0	6336	102887	151787	145451	1507	27	429	83	98501	1791035	2046
51	2016-05-02 13:11:19	0	0	0	0	0	0	5.5	0.99	0.04	151801	0	6337	102887	151801	145464	1508	27	429	83	98501	1791049	2047
52	2016-05-02 13:21:22	0	0	0	0	0	0	5.5	0.99	0.04	151805	0	6338	102887	151805	145467	1508	27	429	83	98501	1791069	2047
53	2016-05-02 13:31:21	0	0	0	0	0	0	5.5	0.99	0.04	151817	0	6340	102887	151817	145477	1508	27	429	83	98501	1791078	2047
54	2016-05-02 13:41:25	0	0	0	0	0	0	5.5	0.99	0.04	151824	0	6341	102887	151824	145483	1508	27	429	83	98501	1791091	2047
55	2016-05-02 13:51:23	0	0	0	0	0	0	5.5	0.99	0.04	151841	0	6345	102887	151841	145496	1508	27	429	83	98501	1791103	2047
56	2016-05-02 14:01:23	0	0	0	0	0	0	5.5	0.99	0.04	151850	0	6349	102887	151850	145501	1508	27	429	83	98501	1791119	2047
57	2016-05-02 14:11:21	0	0	0	0	0	0	5.5	0.99	0.04	151864	0	6351	102887	151864	145513	1508	27	429	83	98501	1791130	2047
58	2016-05-02 14:21:20	0	0	0	0	0	0	5.5	0.99	0.04	151872	0	6353	102887	151872	145519	1508	27	429	83	98501	1791141	2047
59	2016-05-02 14:46:47	0	0	0	0	0	0	5.5	0.99	0.04	151902	0	6360	102887	151902	145542	1508	27	429	83	98501	1791188	2047
60	2016-05-02 14:47:19	0	0	0	0	0	0	5.5	0.99	0.04	151902	0	6360	102887	151902	145542	1508	27	429	83	98501	1791188	2047
61	2016-05-02 14:51:26	0	0	0	0	0	0	5.5	0.99	0.04	151902	0	6360	102887	151902	145542	1508	27	429	83	98501	1791194	2047
62	2016-05-02 15:01:26	0	0	0	0	0	0	5.5	0.99	0.04	151924	0	6363	102887	151924	145561	1508	27	429	83	98501	1791202	2047
63	2016-05-02 15:11:27	0	0	0	0	0	0	5.5	0.99	0.04	151935	0	6366	102887	151935	145569	1508	27	429	83	98501	1791212	2047
64	2016-05-02 15:21:24	0	0	0	0	0	0	5.51	0.99	0.04	151952	0	6369	103079	151952	145583	1508	27	429	83	98677	1791222	2047
65	2016-05-02 15:31:25	0	0	0	0	0	0	5.51	0.99	0.04	151954	0	6369	103079	151954	145585	1508	27	429	83	98677	1791233	2047
66	2016-05-02 15:41:24	0	0	0	0	0	0	5.51	0.99	0.04	151957	0	6369	103079	151957	145588	1508	27	429	83	98677	1791239	2047
67	2016-05-02 15:51:27	0	0	0	0	0	0	5.51	0.99	0.04	151978	0	6375	103079	151978	145603	1508	27	429	83	98677	1791256	2047
68	2016-05-02 16:01:26	0	0	0	0	0	0	5.51	0.99	0.04	151988	0	6375	103079	151988	145613	1508	27	429	83	98677	1791267	2047
69	2016-05-02 16:11:24	0	0	0	0	0	0	5.51	0.99	0.04	152000	0	6378	103079	152000	145622	1508	27	429	83	98677	1791285	2047
70	2016-05-02 16:21:24	0	0	0	0	0	0	5.51	0.99	0.04	152007	0	6379	103079	152007	145627	1508	27	429	83	98677	1791290	2047
71	2016-05-02 16:31:43	0	0	0	0	0	0	5.51	0.99	0.04	152020	0	6383	103079	152020	145637	1508	27	429	83	98677	1791301	2047
72	2016-05-02 16:41:36	0	0	0	0	0	0	5.51	0.99	0.04	152022	0	6384	103079	152022	145638	1508	27	429	83	98677	1791314	2047
73	2016-05-02 16:51:24	0	0	0	0	0	0	5.51	0.99	0.04	152039	0	6388	103079	152039	145651	1508	27	429	83	98677	1791324	2047
74	2016-05-02 17:01:29	0	0	0	0	0	0	5.51	0.99	0.04	152045	0	6388	103079	152045	145657	1508	27	429	83	98677	1791337	2047
75	2016-05-02 17:11:23	0	0	0	0	0	0	5.51	0.99	0.04	152064	0	6389	103083	152064	145675	1508	27	429	83	98680	1791348	2047
76	2016-05-02 17:21:27	0	0	0	0	0	0	5.51	0.99	0.04	152069	0	6389	103165	152069	145680	1508	27	429	83	98755	1791353	2047
77	2016-05-02 17:31:24	0	0	0	0	0	0	5.51	0.99	0.04	152082	0	6391	103165	152082	145691	1508	27	429	83	98755	1791363	2047
78	2016-05-02 17:41:26	0	0	0	0	0	0	5.51	0.99	0.04	152088	0	6391	103165	152088	145697	1508	27	429	83	98755	1791376	2047
79	2016-05-02 17:51:24	0	0	0	0	0	0	5.51	0.99	0.04	152103	0	6397	103165	152103	145706	1508	27	429	83	98755	1791391	2047
80	2016-05-02 18:01:31	0	0	0	0	0	0	5.51	0.99	0.04	152110	0	6398	103165	152110	145712	1510	27	429	83	98755	1791406	2049
81	2016-05-02 18:12:41	0	0	0	0	0	0	5.51	0.99	0.04	152123	0	6399	103165	152123	145724	1510	27	429	83	98755	1791423	2049
82	2016-05-02 18:22:03	0	0	0	0	0	0	5.51	0.99	0.04	152130	0	6399	103165	152130	145731	1510	27	429	83	98755	1791449	2049
83	2016-05-02 18:31:31	0	0	0	0	0	0	5.51	0.99	0.04	152132	0	6399	103165	152132	145733	1511	27	429	83	98755	1791466	2050
84	2016-05-02 18:41:27	0	0	0	0	0	0	5.51	0.99	0.04	152138	0	6400	103165	152138	145738	1511	27	429	83	98755	1791487	2050
85	2016-05-02 18:51:34	0	0	0	0	0	0	5.51	0.99	0.04	152142	0	6400	103165	152142	145742	1511	27	429	83	98755	1791509	2050
86	2016-05-02 19:01:26	0	0	0	0	0	0	5.51	0.99	0.04	152150	0	6400	103193	152150	145750	1511	27	429	83	98780	1791527	2050
87	2016-05-02 19:11:26	0	0	0	0	0	0	5.51	0.99	0.04	152155	0	6401	103193	152155	145754	1511	27	429	83	98780	1791544	2050
88	2016-05-02 19:21:20	0	0	0	0	0	0	0	0	0	0	0	0	0	0	0	0	0	0	0	0	0	0
89	2016-05-02 19:31:25	0	0	0	0	0	0	5.51	0.99	0.04	152174	0	6402	103217	152174	145772	1511	27	429	83	98802	1791565	2050
90	2016-05-02 19:41:25	0	0	0	0	0	0	5.51	0.99	0.04	152198	0	6410	103217	152198	145788	1511	27	429	83	98802	1791583	2050
91	2016-05-02 19:51:26	0	0	0	0	0	0	5.51	0.99	0.04	152210	0	6413	103217	152210	145797	1511	27	429	83	98802	1791612	2050
92	2016-05-02 20:01:26	0	0	0	0	0	0	5.51	0.99	0.04	152222	0	6414	103217	152222	145808	1511	27	429	83	98802	1791632	2050
93	2016-05-02 20:11:26	0	0	0	0	0	0	5.51	0.99	0.04	152229	0	6415	103217	152229	145814	1511	27	429	83	98802	1791642	2050
94	2016-05-02 20:21:26	0	0	0	0	0	0	5.51	0.99	0.04	152235	0	6416	103217	152235	145819	1511	27	429	83	98802	1791658	2050
95	2016-05-02 20:31:26	0	0	0	0	0	0	5.51	0.99	0.04	152249	0	6416	103217	152249	145833	1511	27	429	83	98802	1791674	2050
96	2016-05-02 20:41:26	0	0	0	0	0	0	5.52	0.99	0.04	152254	0	6416	103227	152254	145838	1511	27	429	83	98812	1791695	2050
97	2016-05-02 20:51:27	0	0	0	0	0	0	5.51	0.99	0.04	152272	0	6418	103227	152272	145854	1511	27	429	83	98812	1791707	2050
98	2016-05-02 21:01:29	0	0	0	0	0	0	5.51	0.99	0.04	152276	0	6419	103227	152276	145857	1511	27	429	83	98812	1791734	2050
99	2016-05-02 21:11:26	0	0	0	0	0	0	5.51	0.99	0.04	152287	0	6421	103227	152287	145866	1512	27	429	83	98812	1791761	2051
100	2016-05-02 21:21:26	0	0	0	0	0	0	5.51	0.99	0.04	152291	0	6421	103227	152291	145870	1512	27	429	83	98812	1791794	2051
101	2016-05-02 21:31:26	0	0	0	0	0	0	5.51	0.99	0.04	152301	0	6422	103227	152301	145879	1512	27	429	83	98812	1791829	2051
102	2016-05-02 21:41:28	0	0	0	0	0	0	5.51	0.99	0.04	152311	0	6422	103227	152311	145889	1512	27	429	83	98812	1791860	2051
103	2016-05-02 21:51:26	0	0	0	0	0	0	5.51	0.99	0.04	152326	0	6425	103227	152326	145901	1512	27	429	83	98812	1791893	2051
104	2016-05-02 22:01:28	0	0	0	0	0	0	5.51	0.99	0.04	152329	0	6425	103227	152329	145904	1512	27	429	83	98812	1791932	2051
105	2016-05-02 22:11:28	0	0	0	0	0	0	5.51	0.99	0.04	152340	0	6425	103227	152340	145915	1512	27	429	83	98812	1791975	2051
106	2016-05-02 22:21:26	0	0	0	0	0	0	5.51	0.99	0.04	152342	0	6425	103227	152342	145917	1512	27	429	83	98812	1792009	2051
107	2016-05-02 22:31:28	0	0	0	0	0	0	5.51	0.99	0.04	152349	0	6426	103227	152349	145923	1512	27	429	83	98812	1792039	2051
108	2016-05-02 22:41:26	0	0	0	0	0	0	5.51	0.99	0.04	152353	0	6426	103227	152353	145927	1512	27	429	83	98812	1792083	2051
109	2016-05-02 22:51:26	0	0	0	0	0	0	5.51	0.99	0.04	152359	0	6428	103227	152359	145931	1512	27	429	83	98812	1792118	2051
110	2016-05-02 23:01:26	0	0	0	0	0	0	5.51	0.99	0.04	152365	0	6429	103227	152365	145936	1512	27	429	83	98812	1792151	2051
111	2016-05-02 23:11:28	0	0	0	0	0	0	5.51	0.99	0.04	152369	0	6430	103227	152369	145939	1512	27	429	83	98812	1792189	2051
112	2016-05-02 23:21:28	0	0	0	0	0	0	5.51	0.99	0.04	152378	0	6432	103227	152378	145946	1512	27	429	83	98812	1792222	2051
113	2016-05-02 23:31:29	0	0	0	0	0	0	5.51	0.99	0.04	152378	0	6432	103227	152378	145946	1512	27	429	83	98812	1792247	2051
114	2016-05-02 23:41:27	0	0	0	0	0	0	5.51	0.99	0.04	152385	0	6436	103227	152385	145949	1512	27	429	83	98812	1792284	2051
115	2016-05-02 23:51:27	0	0	0	0	0	0	5.51	0.99	0.04	152387	0	6436	103227	152387	145951	1512	27	429	83	98812	1792309	2051
116	2016-05-03 00:01:28	0	0	0	0	0	0	5.51	0.99	0.04	152389	0	6436	103227	152389	145953	1512	27	429	83	98812	1792340	2051
117	2016-05-03 00:11:26	0	0	0	0	0	0	5.51	0.99	0.04	152393	0	6436	103227	152393	145957	1512	27	429	83	98812	1792360	2051
118	2016-05-03 00:21:27	0	0	0	0	0	0	5.51	0.99	0.04	152395	0	6436	103227	152395	145959	1512	27	429	83	98812	1792377	2051
119	2016-05-03 00:31:26	0	0	0	0	0	0	5.51	0.99	0.04	152400	0	6436	103227	152400	145964	1512	27	429	83	98812	1792395	2051
120	2016-05-03 00:41:26	0	0	0	0	0	0	5.51	0.99	0.04	152402	0	6436	103227	152402	145966	1512	27	429	83	98812	1792416	2051
121	2016-05-03 00:51:27	0	0	0	0	0	0	5.51	0.99	0.04	152402	0	6436	103227	152402	145966	1512	27	429	83	98812	1792434	2051
122	2016-05-03 01:01:26	0	0	0	0	0	0	5.51	0.99	0.04	152404	0	6436	103227	152404	145968	1512	27	429	83	98812	1792448	2051
123	2016-05-03 01:11:26	0	0	0	0	0	0	5.51	0.99	0.04	152404	0	6436	103227	152404	145968	1512	27	429	83	98812	1792459	2051
124	2016-05-03 01:21:26	0	0	0	0	0	0	5.51	0.99	0.04	152405	0	6436	103227	152405	145969	1512	27	429	83	98812	1792475	2051
125	2016-05-03 01:31:25	0	0	0	0	0	0	5.51	0.99	0.04	152405	0	6436	103227	152405	145969	1512	27	429	83	98812	1792490	2051
126	2016-05-03 01:41:26	0	0	0	0	0	0	5.51	0.99	0.04	152406	0	6436	103227	152406	145970	1512	27	429	83	98812	1792503	2051
127	2016-05-03 01:51:26	0	0	0	0	0	0	5.51	0.99	0.04	152408	0	6436	103227	152408	145972	1512	27	429	83	98812	1792510	2051
128	2016-05-03 02:01:27	0	0	0	0	0	0	5.51	0.99	0.04	152408	0	6436	103227	152408	145972	1512	27	429	83	98812	1792777	2051
129	2016-05-03 02:11:27	0	0	0	0	0	0	5.51	0.99	0.04	152408	0	6436	103227	152408	145972	1512	27	429	83	98812	1792780	2051
130	2016-05-03 02:21:26	0	0	0	0	0	0	5.51	0.99	0.04	152409	0	6437	103227	152409	145972	1512	27	429	83	98812	1792782	2051
131	2016-05-03 02:31:26	0	0	0	0	0	0	5.51	0.99	0.04	152409	0	6437	103227	152409	145972	1512	27	429	83	98812	1792789	2051
132	2016-05-03 02:41:24	0	0	0	0	0	0	5.51	0.99	0.04	152411	0	6437	103227	152411	145974	1512	27	429	83	98812	1792793	2051
133	2016-05-03 02:51:24	0	0	0	0	0	0	5.51	0.99	0.04	152411	0	6437	103227	152411	145974	1512	27	429	83	98812	1792797	2051
134	2016-05-03 03:01:23	0	0	0	0	0	0	5.51	0.99	0.04	152412	0	6437	103227	152412	145975	1512	27	429	83	98812	1792798	2051
135	2016-05-03 03:11:23	0	0	0	0	0	0	5.51	0.99	0.04	152413	0	6437	103227	152413	145976	1512	27	429	83	98812	1792802	2051
136	2016-05-03 03:21:25	0	0	0	0	0	0	5.51	0.99	0.04	152413	0	6437	103227	152413	145976	1512	27	429	83	98812	1792805	2051
137	2016-05-03 03:31:25	0	0	0	0	0	0	5.51	0.99	0.04	152413	0	6437	103227	152413	145976	1512	27	429	83	98812	1792806	2051
138	2016-05-03 03:41:25	0	0	0	0	0	0	5.51	0.99	0.04	152413	0	6437	103227	152413	145976	1512	27	429	83	98812	1792806	2051
139	2016-05-03 03:51:25	0	0	0	0	0	0	5.51	0.99	0.04	152414	0	6437	103227	152414	145977	1512	27	429	83	98812	1792808	2051
140	2016-05-03 04:01:25	0	0	0	0	0	0	5.51	0.99	0.04	152414	0	6437	103227	152414	145977	1512	27	429	83	98812	1792809	2051
141	2016-05-03 04:11:25	0	0	0	0	0	0	5.51	0.99	0.04	152414	0	6437	103227	152414	145977	1512	27	429	83	98812	1792809	2051
142	2016-05-03 04:21:25	0	0	0	0	0	0	5.51	0.99	0.04	152414	0	6437	103227	152414	145977	1512	27	429	83	98812	1792809	2051
143	2016-05-03 04:31:25	0	0	0	0	0	0	5.51	0.99	0.04	152414	0	6437	103227	152414	145977	1512	27	429	83	98812	1792811	2051
144	2016-05-03 04:41:26	0	0	0	0	0	0	5.51	0.99	0.04	152414	0	6437	103227	152414	145977	1512	27	429	83	98812	1792811	2051
145	2016-05-03 04:51:26	0	0	0	0	0	0	5.51	0.99	0.04	152414	0	6437	103227	152414	145977	1512	27	429	83	98812	1792811	2051
146	2016-05-03 05:01:25	0	0	0	0	0	0	5.51	0.99	0.04	152415	0	6437	103227	152415	145978	1512	27	429	83	98812	1792811	2051
147	2016-05-03 05:11:26	0	0	0	0	0	0	5.51	0.99	0.04	152415	0	6437	103227	152415	145978	1512	27	429	83	98812	1792812	2051
148	2016-05-03 05:21:26	0	0	0	0	0	0	5.51	0.99	0.04	152415	0	6437	103227	152415	145978	1512	27	429	83	98812	1792816	2051
149	2016-05-03 05:31:27	0	0	0	0	0	0	5.51	0.99	0.04	152415	0	6437	103227	152415	145978	1512	27	429	83	98812	1792820	2051
150	2016-05-03 05:41:26	0	0	0	0	0	0	5.51	0.99	0.04	152415	0	6437	103227	152415	145978	1512	27	429	83	98812	1792824	2051
151	2016-05-03 05:51:27	0	0	0	0	0	0	5.51	0.99	0.04	152415	0	6437	103227	152415	145978	1512	27	429	83	98812	1792825	2051
152	2016-05-03 06:01:26	0	0	0	0	0	0	5.51	0.99	0.04	152415	0	6437	103227	152415	145978	1512	27	429	83	98812	1792831	2051
153	2016-05-03 06:11:26	0	0	0	0	0	0	5.51	0.99	0.04	152415	0	6437	103227	152415	145978	1512	27	429	83	98812	1792834	2051
154	2016-05-03 06:21:26	0	0	0	0	0	0	5.51	0.99	0.04	152415	0	6437	103227	152415	145978	1512	27	429	83	98812	1792838	2051
155	2016-05-03 06:31:27	0	0	0	0	0	0	5.51	0.99	0.04	152417	0	6438	103227	152417	145979	1512	27	429	83	98812	1792842	2051
156	2016-05-03 06:41:26	0	0	0	0	0	0	5.51	0.99	0.04	152418	0	6438	103227	152418	145980	1512	27	429	83	98812	1792847	2051
157	2016-05-03 06:51:26	0	0	0	0	0	0	5.51	0.99	0.04	152419	0	6438	103227	152419	145981	1512	27	429	83	98812	1792855	2051
158	2016-05-03 07:01:27	0	0	0	0	0	0	5.51	0.99	0.04	152419	0	6438	103227	152419	145981	1512	27	429	83	98812	1792858	2051
159	2016-05-03 07:11:28	0	0	0	0	0	0	5.51	0.99	0.04	152420	0	6438	103227	152420	145982	1512	27	429	83	98812	1792866	2051
160	2016-05-03 07:21:26	0	0	0	0	0	0	5.51	0.99	0.04	152420	0	6438	103227	152420	145982	1512	27	429	83	98812	1792870	2051
161	2016-05-03 07:31:29	0	0	0	0	0	0	5.51	0.99	0.04	152421	0	6438	103227	152421	145983	1512	27	429	83	98812	1792876	2051
162	2016-05-03 07:41:28	0	0	0	0	0	0	5.51	0.99	0.04	152421	0	6438	103227	152421	145983	1512	27	429	83	98812	1792889	2051
163	2016-05-03 07:51:29	0	0	0	0	0	0	5.52	0.99	0.04	152422	0	6438	103310	152422	145984	1512	27	429	83	98888	1792900	2051
164	2016-05-03 08:01:29	0	0	0	0	0	0	5.52	0.99	0.04	152425	0	6441	103310	152425	145984	1512	27	429	83	98888	1792907	2051
165	2016-05-03 08:11:31	0	0	0	0	0	0	5.52	0.99	0.04	152426	0	6441	103310	152426	145985	1512	27	429	83	98888	1792921	2051
166	2016-05-03 08:21:29	0	0	0	0	0	0	5.52	0.99	0.04	152426	0	6441	103310	152426	145985	1512	27	429	83	98888	1792938	2051
167	2016-05-03 08:31:29	0	0	0	0	0	0	5.52	0.99	0.04	152428	0	6442	103310	152428	145986	1512	27	429	83	98888	1792956	2051
168	2016-05-03 08:41:31	0	0	0	0	0	0	5.52	0.99	0.04	152430	0	6443	103310	152430	145987	1512	27	429	83	98888	1792979	2051
169	2016-05-03 08:51:30	0	0	0	0	0	0	5.52	0.99	0.04	152436	0	6443	103310	152436	145993	1512	27	429	83	98888	1792998	2051
170	2016-05-03 09:01:30	0	0	0	0	0	0	5.52	0.99	0.04	152437	0	6443	103310	152437	145994	1512	27	429	83	98888	1793014	2051
171	2016-05-03 09:11:31	0	0	0	0	0	0	5.52	0.99	0.04	152439	0	6444	103310	152439	145995	1512	27	429	83	98888	1793027	2051
172	2016-05-03 09:21:30	0	0	0	0	0	0	5.52	0.99	0.04	152440	0	6444	103310	152440	145996	1512	27	429	83	98888	1793033	2051
173	2016-05-03 09:31:32	0	0	0	0	0	0	5.52	0.99	0.04	152440	0	6444	103310	152440	145996	1512	27	429	83	98888	1793045	2051
174	2016-05-03 09:41:30	0	0	0	0	0	0	5.52	0.99	0.04	152441	0	6444	103310	152441	145997	1512	27	429	83	98888	1793070	2051
175	2016-05-03 09:51:31	0	0	0	0	0	0	5.51	0.99	0.04	152446	0	6446	103310	152446	146000	1512	27	429	83	98888	1793086	2051
176	2016-05-03 10:01:40	0	0	0	0	0	0	5.51	0.99	0.04	152446	0	6446	103310	152446	146000	1512	27	429	83	98888	1793101	2051
177	2016-05-03 10:11:31	0	0	0	0	0	0	5.51	0.99	0.04	152447	0	6446	103310	152447	146001	1512	27	429	83	98888	1793117	2051
178	2016-05-03 10:21:34	0	0	0	0	0	0	5.51	0.99	0.04	152450	0	6446	103310	152450	146004	1512	27	429	83	98888	1793130	2051
179	2016-05-03 10:31:38	0	0	0	0	0	0	5.51	0.99	0.04	152451	0	6446	103310	152451	146005	1512	27	429	83	98888	1793141	2051
180	2016-05-03 10:41:32	0	0	0	0	0	0	5.51	0.99	0.04	152453	0	6447	103310	152453	146006	1512	27	429	83	98888	1793157	2051
181	2016-05-03 10:51:30	0	0	0	0	0	0	5.51	0.99	0.04	152454	0	6448	103310	152454	146006	1512	27	429	83	98888	1793177	2051
182	2016-05-03 11:01:33	0	0	0	0	0	0	5.51	0.99	0.04	152455	0	6448	103310	152455	146007	1512	27	429	83	98888	1793191	2051
183	2016-05-03 11:11:50	0	0	0	0	0	0	5.51	0.99	0.04	152455	0	6448	103310	152455	146007	1512	27	429	83	98888	1793205	2051
184	2016-05-03 11:21:32	0	0	0	0	0	0	5.51	0.99	0.04	152458	0	6448	103310	152458	146010	1512	27	429	83	98888	1793222	2051
185	2016-05-03 11:31:50	0	0	0	0	0	0	5.51	0.99	0.04	152459	0	6448	103310	152459	146011	1512	27	429	83	98888	1793228	2051
186	2016-05-03 11:41:31	0	0	0	0	0	0	5.52	0.99	0.04	152463	0	6448	103503	152463	146015	1512	27	429	83	99065	1793242	2051
187	2016-05-03 11:51:32	0	0	0	0	0	0	5.52	0.99	0.04	152465	0	6448	103503	152465	146017	1512	27	429	83	99065	1793260	2051
