1	2018-04-02 18:27:58		0	0	0	0	0	0	0	5.17	0	58	0	0	50	58	58	3	1	17	1	49	3652078	22
2	2018-04-02 18:38:27		0	0	0	0	0	0	0.12	5.1	0	6378	0	14	4597	6378	6378	325	7	46	3	4382	3652111	381
3	2018-04-02 18:49:03		0	0	0	0	0	0	0.22	6.04	0.01	11740	0	69	8570	11740	11740	709	15	71	6	8162	3652134	801
4	2018-04-02 18:59:34		0	0	0	0	0	0	0.4	6.26	0.01	20751	0	232	15244	20751	20751	1298	18	91	10	14654	3652160	1417
5	2018-04-02 19:10:03		0	0	0	0	0	0	0.5	6.4	0.01	25903	0	345	18992	25903	25903	1659	23	115	9	18112	3652189	1806
6	2018-04-02 19:20:35		0	0	0	0	0	0	0.57	6.33	0.01	30635	0	441	21820	30635	30635	1939	24	135	10	20835	3652209	2108
7	2018-04-02 19:31:04		0	0	0	0	0	0	0.64	6.41	0.02	34692	0	546	24496	34692	34692	2224	26	145	12	23316	3652237	2407
8	2018-04-02 19:41:37		0	0	0	0	0	0	0.69	6.45	0.02	37985	0	652	26672	37985	37985	2451	32	161	13	25343	3652270	2657
9	2018-04-02 19:52:07		0	0	0	0	0	0	0.74	6.42	0.02	41157	0	760	28708	41157	41157	2644	37	173	13	27146	3652294	2867
10	2018-04-02 20:02:36		0	0	0	0	0	0	0.8	6.42	0.02	44383	0	884	31267	44383	44383	2851	37	180	13	29378	3652326	3081
11	2018-04-02 20:13:08		0	0	0	0	0	0	0.85	6.42	0.02	47313	0	998	33170	47313	47313	3038	38	186	13	31141	3652361	3275
12	2018-04-02 20:23:38		0	0	0	0	0	0	0.9	6.43	0.02	49887	0	1089	34802	49887	49887	3206	39	197	13	32695	3652390	3455
13	2018-04-02 20:34:10		0	0	0	0	0	0	0.94	6.45	0.02	52261	0	1169	36591	52261	52261	3372	40	204	14	34273	3652432	3630
14	2018-04-02 20:44:40		0	0	0	0	0	0	1.02	6.48	0.02	55713	0	1273	39496	55713	55713	3609	42	215	14	37197	3652471	3880
15	2018-04-02 20:55:10		0	0	0	0	0	0	1.05	6.47	0.02	57975	0	1368	40784	57975	57975	3752	43	219	14	38345	3652503	4028
16	2018-04-02 21:05:42		0	0	0	0	0	0	1.08	6.46	0.02	60400	0	1472	42098	60400	60400	3902	45	224	15	39584	3652557	4186
17	2018-04-02 21:16:14		0	0	0	0	0	0	1.12	6.41	0.02	62654	0	1545	43545	62654	62654	4017	45	237	15	40949	3652601	4314
18	2018-04-02 21:26:42		0	0	0	0	0	0	1.16	6.36	0.03	64972	0	1627	45082	64972	64972	4130	45	242	15	42515	3652640	4432
19	2018-04-02 21:37:14		0	0	0	0	0	0	1.2	6.31	0.03	67060	0	1709	46618	67060	67060	4233	48	253	15	43966	3652673	4549
20	2018-04-02 21:47:42		0	0	0	0	0	0	1.24	6.3	0.03	68970	0	1790	48147	68970	68970	4344	50	262	15	45164	3652714	4671
21	2018-04-02 21:58:13		0	0	0	0	0	0	1.27	6.28	0.03	70852	0	1862	49684	70852	70852	4446	53	269	15	46422	3652757	4783
22	2018-04-02 22:08:44		0	0	0	0	0	0	1.31	6.27	0.03	72826	0	1946	51105	72826	72826	4567	55	274	15	47713	3652790	4911
23	2018-04-02 22:19:14		0	0	0	0	0	0	1.34	6.26	0.03	74643	0	2031	52384	74643	74643	4672	57	278	15	48888	3652836	5022
24	2018-04-02 22:29:45		0	0	0	0	0	0	1.38	6.21	0.03	77550	0	2163	54323	77550	77550	4817	60	285	15	50547	3652892	5177
25	2018-04-02 22:40:17		0	0	0	0	0	0	1.41	6.2	0.03	79423	0	2265	55458	79423	79423	4926	61	289	15	51569	3652931	5291
26	2018-04-02 22:50:48		0	0	0	0	0	0	1.43	6.2	0.03	81211	0	2383	56204	81211	81211	5034	62	291	15	52327	3652970	5402
27	2018-04-02 23:01:19		0	0	0	0	0	0	1.47	6.17	0.03	82821	0	2457	57607	82821	82821	5109	64	294	15	53600	3653020	5482
28	2018-04-02 23:11:50		0	0	0	0	0	0	1.5	6.16	0.03	84342	0	2547	58660	84342	84342	5196	64	299	15	54727	3653072	5574
29	2018-04-02 23:22:21		0	0	0	0	0	0	1.53	6.16	0.03	85788	0	2612	59782	85788	85788	5281	64	306	15	55787	3653115	5666
30	2018-04-02 23:32:53		0	0	0	0	0	0	1.55	6.14	0.03	87248	0	2691	60732	87248	87248	5359	64	309	15	56781	3653160	5747
31	2018-04-02 23:43:16		0	0	0	0	0	0	1.57	6.14	0.03	88789	0	2765	61694	88789	88789	5450	64	311	15	57527	3653211	5840
32	2018-04-02 23:53:46		0	0	0	0	0	0	1.59	6.11	0.03	90245	0	2827	62588	90245	90245	5518	65	315	16	58233	3653246	5914
33	2018-04-03 00:21:15		0	0	0	0	0	0	1.66	6.11	0.03	94258	0	3029	65276	94258	94258	5761	70	326	16	60821	3653324	6173
34	2018-04-03 01:26:15		0	0	0	0	0	0	1.8	6.04	0.03	101590	0	3304	70584	101590	101590	6139	75	338	19	65653	3653452	6571
35	2018-04-03 02:31:19		0	0	0	0	0	0	1.86	6.03	0.03	105142	0	3414	72993	105142	105142	6335	77	347	20	67964	3653504	6779
36	2018-04-03 03:36:16		0	0	0	0	0	0	1.89	6.01	0.03	107049	0	3464	74128	107049	107049	6437	77	350	20	69133	3653535	6884
37	2018-04-03 04:41:17		0	0	0	0	0	0	1.91	6.01	0.03	108197	0	3505	74818	108197	108197	6504	77	353	20	69851	3653548	6954
38	2018-04-03 05:46:20		0	0	0	0	0	0	1.95	6.01	0.03	109487	0	3568	76150	109487	109487	6575	80	357	20	71078	3653567	7032
39	2018-04-03 06:51:20		0	0	0	0	0	0	2	5.97	0.03	112064	0	3671	78049	112064	112064	6685	80	362	20	72909	3653615	7147
40	2018-04-03 07:14:21		0	0	0	0	0	0	2.01	5.95	0.03	113236	0	3717	78864	113236	113236	6741	80	368	20	73570	3653638	7209
41	2018-04-03 07:24:52		0	0	0	0	0	0	2.02	5.94	0.03	113934	0	3732	79190	113934	113934	6765	80	370	20	73854	3653650	7235
42	2018-04-03 07:35:26		0	0	0	0	0	0	2.05	5.94	0.03	115047	0	3783	80195	115047	115047	6834	82	372	20	74857	3653665	7308
43	2018-04-03 07:45:53		0	0	0	0	0	0	2.08	5.93	0.03	115892	0	3828	81102	115892	115892	6874	84	372	20	75862	3653688	7350
44	2018-04-03 07:56:22		0	0	0	0	0	0	2.09	5.92	0.03	116714	0	3856	81898	116714	116714	6912	84	374	20	76437	3653704	7390
45	2018-04-03 08:06:54		0	0	0	0	0	0	2.11	5.91	0.03	117625	0	3894	82557	117625	117625	6950	84	375	20	77118	3653727	7429
46	2018-04-03 08:17:24		0	0	0	0	0	0	2.13	5.9	0.03	118534	0	3933	82933	118534	118534	6989	84	376	20	77741	3653746	7469
47	2018-04-03 08:27:57		0	0	0	0	0	0	2.15	5.89	0.03	119532	0	3961	83952	119532	119532	7044	84	378	20	78597	3653771	7526
48	2018-04-03 08:38:45		0	0	0	0	0	0	2.17	5.88	0.03	120578	0	3992	84824	120578	120578	7096	84	379	20	79197	3653803	7579
49	2018-04-03 08:48:57		0	0	0	0	0	0	2.2	5.88	0.03	121620	0	4025	85953	121620	121620	7155	84	381	20	80232	3653839	7640
50	2018-04-03 08:59:30		0	0	0	0	0	0	2.21	5.88	0.03	122617	0	4070	86489	122617	122617	7205	84	383	20	80765	3653880	7692
51	2018-04-03 09:09:58		0	0	0	0	0	0	2.22	5.87	0.03	123545	0	4125	87005	123545	123545	7248	84	385	20	81226	3653912	7737
52	2018-04-03 09:20:28		0	0	0	0	0	0	2.25	5.85	0.03	124887	0	4183	88198	124887	124887	7312	84	385	20	82230	3653946	7801
53	2018-04-03 09:30:57		0	0	0	0	0	0	2.26	5.85	0.03	125755	0	4211	88615	125755	125755	7360	84	385	20	82643	3653975	7849
54	2018-04-03 09:41:34		0	0	0	0	0	0	2.29	5.86	0.03	126639	0	4235	89927	126639	126639	7418	85	388	20	83602	3654009	7911
55	2018-04-03 09:51:58		0	0	0	0	0	0	2.3	5.86	0.03	127458	0	4262	90490	127458	127458	7467	85	392	20	84161	3654047	7964
56	2018-04-03 10:02:36		0	0	0	0	0	0	2.33	5.85	0.03	128346	0	4291	91361	128346	128346	7511	85	393	21	84973	3654082	8010
57	2018-04-03 10:13:00		0	0	0	0	0	0	2.34	5.85	0.03	129107	0	4318	92029	129107	129107	7554	85	394	22	85593	3654129	8055
58	2018-04-03 10:23:32		0	0	0	0	0	0	2.36	5.85	0.03	129824	0	4341	92510	129824	129824	7589	85	394	22	86085	3654158	8090
59	2018-04-03 10:34:02		0	0	0	0	0	0	2.37	5.85	0.03	130534	0	4362	92932	130534	130534	7630	85	394	22	86451	3654191	8131
60	2018-04-03 10:44:35		0	0	0	0	0	0	2.38	5.85	0.03	131194	0	4398	93190	131194	131194	7672	85	395	22	86820	3654230	8174
61	2018-04-03 10:55:04		0	0	0	0	0	0	2.39	5.83	0.03	131887	0	4437	93852	131887	131887	7694	85	395	22	87192	3654265	8196
62	2018-04-03 11:05:39		0	0	0	0	0	0	2.4	5.83	0.03	132762	0	4468	94492	132762	132762	7737	86	396	22	87665	3654310	8241
63	2018-04-03 11:16:09		0	0	0	0	0	0	2.4	5.82	0.03	133361	0	4495	94706	133361	133361	7764	87	396	22	87814	3654346	8269
64	2018-04-03 11:26:34		0	0	0	0	0	0	2.41	5.82	0.03	133953	0	4521	94904	133953	133953	7794	87	396	22	87984	3654398	8299
65	2018-04-03 11:37:05		0	0	0	0	0	0	2.42	5.81	0.03	134540	0	4535	95660	134540	134540	7817	87	396	22	88502	3654431	8322
66	2018-04-03 11:47:38		0	0	0	0	0	0	2.43	5.81	0.03	135089	0	4556	95930	135089	135089	7851	87	396	22	88745	3654463	8356
67	2018-04-03 11:58:09		0	0	0	0	0	0	2.44	5.8	0.03	135725	0	4568	96261	135725	135725	7876	89	397	22	89029	3654489	8384
68	2018-04-03 12:08:43		0	0	0	0	0	0	2.44	5.8	0.03	136343	0	4597	96633	136343	136343	7914	89	398	22	89347	3654525	8423
69	2018-04-03 12:19:09		0	0	0	0	0	0	2.46	5.8	0.03	136885	0	4621	97085	136885	136885	7945	89	399	22	89822	3654548	8455
70	2018-04-03 12:29:42		0	0	0	0	0	0	2.46	5.81	0.03	137401	0	4640	97301	137401	137401	7979	89	399	23	90007	3654580	8490
71	2018-04-03 12:40:11		0	0	0	0	0	0	2.48	5.81	0.03	137893	0	4658	97873	137893	137893	8007	89	399	23	90539	3654618	8518
72	2018-04-03 12:50:40		0	0	0	0	0	0	2.5	5.81	0.03	138607	0	4707	98031	138607	138607	8051	89	399	23	91208	3654647	8562
73	2018-04-03 13:01:12		0	0	0	0	0	0	2.5	5.81	0.03	139101	0	4722	98581	139101	139101	8080	89	399	23	91402	3654675	8591
74	2018-04-03 13:11:41		0	0	0	0	0	0	2.51	5.81	0.03	139501	0	4735	99162	139501	139501	8099	89	399	23	91901	3654704	8610
75	2018-04-03 13:22:14		0	0	0	0	0	0	2.52	5.8	0.03	139923	0	4747	99477	139923	139923	8117	90	400	23	92205	3654729	8630
76	2018-04-03 13:32:42		0	0	0	0	0	0	2.53	5.79	0.03	140403	0	4774	99871	140403	140403	8130	90	407	23	92594	3654759	8650
77	2018-04-03 13:43:14		0	0	0	0	0	0	2.54	5.78	0.03	140993	0	4796	100013	140993	140993	8156	90	408	23	92804	3654784	8677
78	2018-04-03 13:53:46		0	0	0	0	0	0	2.54	5.78	0.03	141506	0	4819	100123	141506	141506	8180	90	410	23	92899	3654814	8703
79	2018-04-03 14:04:17		0	0	0	0	0	0	2.55	5.78	0.03	141952	0	4843	100393	141952	141952	8208	90	410	23	93176	3654840	8731
80	2018-04-03 14:14:47		0	0	0	0	0	0	2.56	5.77	0.03	142421	0	4870	100582	142421	142421	8224	90	410	23	93564	3654876	8747
81	2018-04-03 14:25:18		0	0	0	0	0	0	2.56	5.77	0.03	142889	0	4886	100673	142889	142889	8247	90	411	23	93644	3654911	8771
82	2018-04-03 14:35:48		0	0	0	0	0	0	2.57	5.76	0.03	143535	0	4910	101366	143535	143535	8273	90	412	23	93973	3654941	8798
83	2018-04-03 14:46:21		0	0	0	0	0	0	2.58	5.76	0.03	143999	0	4925	101391	143999	143999	8299	90	413	23	94348	3654964	8825
84	2018-04-03 14:56:50		0	0	0	0	0	0	2.59	5.76	0.03	144416	0	4941	102353	144416	144416	8316	90	416	23	94822	3654995	8845
85	2018-04-03 15:07:23		0	0	0	0	0	0	2.6	5.75	0.03	144827	0	4962	102462	144827	144827	8333	90	419	24	94915	3655040	8866
86	2018-04-03 15:17:49		0	0	0	0	0	0	2.6	5.75	0.03	145217	0	4976	102543	145217	145217	8350	90	420	24	94984	3655063	8884
87	2018-04-03 15:28:20		0	0	0	0	0	0	2.61	5.75	0.03	145632	0	4985	102638	145632	145632	8368	90	420	24	95277	3655096	8902
88	2018-04-03 15:38:52		0	0	0	0	0	0	2.61	5.75	0.03	146022	0	4993	102699	146022	146022	8390	90	420	24	95330	3655127	8924
89	2018-04-03 15:49:21		0	0	0	0	0	0	2.61	5.74	0.03	146406	0	5004	102918	146406	146406	8403	90	422	24	95471	3655157	8939
90	2018-04-03 15:59:55		0	0	0	0	0	0	2.62	5.73	0.03	146829	0	5022	103094	146829	146829	8419	90	424	24	95716	3655176	8957
91	2018-04-03 16:10:24		0	0	0	0	0	0	2.63	5.74	0.03	147207	0	5038	103452	147207	147207	8445	90	425	24	95954	3655207	8984
92	2018-04-03 16:20:54		0	0	0	0	0	0	2.63	5.73	0.03	147760	0	5057	103778	147760	147760	8468	90	426	24	96282	3655225	9008
93	2018-04-03 16:31:26		0	0	0	0	0	0	2.63	5.73	0.03	148164	0	5067	103839	148164	148164	8492	90	429	24	96286	3655250	9035
94	2018-04-03 16:42:18		0	0	0	0	0	0	2.65	5.73	0.03	148578	0	5079	104244	148578	148578	8508	91	430	24	96683	3655277	9053
95	2018-04-03 16:52:26		0	0	0	0	0	0	2.65	5.73	0.03	148987	0	5099	104258	148987	148987	8531	91	433	24	96695	3655299	9079
96	2018-04-03 17:02:56		0	0	0	0	0	0	2.65	5.73	0.03	149373	0	5127	104610	149373	149373	8552	91	434	24	97023	3655334	9101
97	2018-04-03 17:13:26		0	0	0	0	0	0	2.66	5.73	0.03	149700	0	5154	104724	149700	149700	8573	91	434	24	97120	3655369	9122
98	2018-04-03 17:23:56		0	0	0	0	0	0	2.66	5.72	0.03	150102	0	5178	104944	150102	150102	8589	91	435	24	97383	3655397	9139
99	2018-04-03 17:34:27		0	0	0	0	0	0	2.67	5.72	0.03	150508	0	5211	105015	150508	150508	8612	93	437	24	97444	3655429	9166
100	2018-04-03 17:44:57		0	0	0	0	0	0	2.67	5.72	0.03	150913	0	5234	105372	150913	150913	8633	93	438	24	97751	3655467	9188
101	2018-04-03 17:55:27		0	0	0	0	0	0	2.68	5.73	0.03	151254	0	5254	105480	151254	151254	8660	93	438	24	97795	3655506	9215
102	2018-04-03 18:06:00		0	0	0	0	0	0	2.68	5.71	0.03	151813	0	5272	105721	151813	151813	8673	93	439	24	98002	3655542	9229
103	2018-04-03 18:16:29		0	0	0	0	0	0	2.68	5.71	0.03	152155	0	5289	105902	152155	152155	8691	93	439	24	98151	3655582	9247
104	2018-04-03 18:27:01		0	0	0	0	0	0	2.69	5.71	0.03	152480	0	5303	106192	152480	152480	8711	93	442	24	98400	3655612	9270
105	2018-04-03 18:37:33		0	0	0	0	0	0	2.7	5.71	0.03	152813	0	5325	106572	152813	152813	8723	93	442	24	98701	3655658	9282
106	2018-04-03 18:48:03		0	0	0	0	0	0	2.71	5.7	0.03	153116	0	5351	106851	153116	153116	8735	93	442	24	99004	3655691	9294
107	2018-04-03 18:58:33		0	0	0	0	0	0	2.71	5.7	0.04	153414	0	5377	106992	153414	153414	8744	93	443	24	99125	3655723	9304
108	2018-04-03 19:09:07		0	0	0	0	0	0	2.71	5.7	0.04	153623	0	5396	106992	153623	153623	8757	94	446	24	99125	3655756	9321
109	2018-04-03 19:19:34		0	0	0	0	0	0	2.72	5.7	0.04	153827	0	5431	107281	153827	153827	8768	94	446	24	99271	3655786	9332
110	2018-04-03 19:30:09		0	0	0	0	0	0	2.72	5.7	0.04	154032	0	5461	107594	154032	154032	8782	94	446	24	99539	3655820	9346
111	2018-04-03 19:40:40		0	0	0	0	0	0	2.72	5.7	0.04	154248	0	5484	107594	154248	154248	8790	94	448	24	99539	3655852	9356
112	2018-04-03 19:51:08		0	0	0	0	0	0	2.73	5.7	0.04	154535	0	5504	107753	154535	154535	8804	94	448	24	99675	3655886	9370
113	2018-04-03 20:01:43		0	0	0	0	0	0	2.73	5.69	0.04	154770	0	5521	107756	154770	154770	8814	95	449	24	99678	3655928	9382
114	2018-04-03 20:12:10		0	0	0	0	0	0	2.73	5.69	0.04	154960	0	5538	107899	154960	154960	8824	95	450	24	99678	3655957	9393
115	2018-04-03 20:22:41		0	0	0	0	0	0	2.73	5.69	0.04	155137	0	5557	107959	155137	155137	8829	95	450	24	99729	3655982	9398
116	2018-04-03 20:33:13		0	0	0	0	0	0	2.73	5.69	0.04	155317	0	5577	108095	155317	155317	8835	95	450	24	99742	3656008	9404
117	2018-04-03 20:43:43		0	0	0	0	0	0	2.73	5.68	0.04	155492	0	5592	108246	155492	155492	8837	95	450	24	99780	3656045	9406
118	2018-04-03 20:54:12		0	0	0	0	0	0	2.73	5.68	0.04	155653	0	5612	108276	155653	155653	8841	95	451	24	99780	3656073	9411
119	2018-04-03 21:04:44		0	0	0	0	0	0	2.73	5.67	0.04	155805	0	5625	108337	155805	155805	8841	95	451	24	99780	3656110	9411
120	2018-04-03 21:15:15		0	0	0	0	0	0	2.73	5.67	0.04	155934	0	5641	108367	155934	155934	8845	95	451	24	99780	3656147	9415
121	2018-04-03 21:25:46		0	0	0	0	0	0	2.73	5.67	0.04	156087	0	5674	108367	156087	156087	8852	95	451	24	99780	3656177	9422
122	2018-04-03 21:36:16		0	0	0	0	0	0	2.74	5.67	0.04	156351	0	5694	108885	156351	156351	8863	95	451	24	100271	3656204	9433
123	2018-04-03 21:46:46		0	0	0	0	0	0	2.74	5.67	0.04	156490	0	5705	108885	156490	156490	8867	95	451	24	100271	3656253	9437
124	2018-04-03 21:57:16		0	0	0	0	0	0	2.75	5.66	0.04	156609	0	5718	109054	156609	156609	8868	95	451	24	100375	3656285	9438
125	2018-04-03 22:07:50		0	0	0	0	0	0	2.75	5.66	0.04	156767	0	5732	109115	156767	156767	8872	95	452	24	100427	3656330	9443
126	2018-04-03 22:18:18		0	0	0	0	0	0	2.75	5.66	0.04	156889	0	5755	109115	156889	156889	8876	95	452	24	100427	3656369	9447
127	2018-04-03 22:28:49		0	0	0	0	0	0	2.75	5.65	0.04	157013	0	5765	109268	157013	157013	8879	95	452	24	100557	3656417	9450
128	2018-04-03 22:39:20		0	0	0	0	0	0	2.75	5.65	0.04	157175	0	5786	109390	157175	157175	8885	95	452	24	100557	3656448	9456
129	2018-04-03 22:49:51		0	0	0	0	0	0	2.76	5.65	0.04	157320	0	5793	109716	157320	157320	8891	95	453	24	100766	3656488	9463
130	2018-04-03 23:00:21		0	0	0	0	0	0	2.76	5.65	0.04	157462	0	5812	109902	157462	157462	8895	95	453	24	100766	3656532	9467
131	2018-04-03 23:10:52		0	0	0	0	0	0	2.76	5.65	0.04	157603	0	5825	109996	157603	157603	8898	95	454	24	100950	3656579	9471
132	2018-04-03 23:21:16		0	0	0	0	0	0	2.76	5.64	0.04	157783	0	5840	110223	157783	157783	8902	94	456	24	101043	3656605	9476
133	2018-04-03 23:31:48		0	0	0	0	0	0	2.76	5.64	0.04	157894	0	5858	110255	157894	157894	8904	94	456	24	101069	3656645	9478
134	2018-04-03 23:42:21		0	0	0	0	0	0	2.77	5.64	0.04	158016	0	5865	110380	158016	158016	8910	94	456	24	101175	3656688	9484
135	2018-04-03 23:52:49		0	0	0	0	0	0	2.77	5.64	0.04	158124	0	5886	110380	158124	158124	8917	94	456	24	101228	3656709	9491
136	2018-04-04 00:20:19		0	0	0	0	0	0	2.77	5.63	0.04	158356	0	5908	110392	158356	158356	8920	94	457	24	101238	3656797	9495
137	2018-04-04 01:25:20		0	0	0	0	0	0	2.77	5.63	0.04	158727	0	5949	110487	158727	158727	8938	96	457	24	101264	3656912	9515
138	2018-04-04 02:30:22		0	0	0	0	0	0	2.77	5.63	0.04	158917	0	5975	110607	158917	158917	8947	96	457	24	101287	3656966	9524
139	2018-04-04 03:35:22		0	0	0	0	0	0	2.77	5.63	0.04	159041	0	5982	110797	159041	159041	8957	96	458	24	101447	3656983	9535
140	2018-04-04 04:40:21		0	0	0	0	0	0	2.77	5.63	0.04	159102	0	5990	110797	159102	159102	8962	96	458	24	101447	3656986	9540
141	2018-04-04 05:45:22		0	0	0	0	0	0	2.77	5.63	0.04	159175	0	5998	110797	159175	159175	8966	96	458	24	101447	3657015	9544
142	2018-04-04 06:50:29		0	0	0	0	0	0	2.78	5.63	0.04	159306	0	6011	110940	159306	159306	8973	96	459	24	101566	3657046	9552
143	2018-04-04 07:13:25		0	0	0	0	0	0	2.78	5.63	0.04	159355	0	6016	110940	159355	159355	8974	96	459	24	101566	3657068	9553
144	2018-04-04 07:23:54		0	0	0	0	0	0	2.78	5.63	0.04	159380	0	6019	110940	159380	159380	8974	96	459	24	101566	3657077	9553
145	2018-04-04 07:34:25		0	0	0	0	0	0	2.78	5.63	0.04	159397	0	6024	110940	159397	159397	8978	96	459	24	101566	3657090	9557
146	2018-04-04 07:44:57		0	0	0	0	0	0	2.78	5.63	0.04	159441	0	6030	110940	159441	159441	8981	96	459	24	101566	3657105	9560
147	2018-04-04 07:55:25		0	0	0	0	0	0	2.78	5.63	0.04	159470	0	6035	110944	159470	159470	8985	96	459	24	101570	3657114	9564
148	2018-04-04 08:06:02		0	0	0	0	0	0	2.78	5.63	0.04	159497	0	6037	110944	159497	159497	8986	96	459	24	101570	3657133	9565
149	2018-04-04 08:16:26		0	0	0	0	0	0	2.78	5.64	0.04	159533	0	6040	110944	159533	159533	8990	96	459	24	101570	3657157	9569
150	2018-04-04 08:26:57		0	0	0	0	0	0	2.78	5.63	0.04	159596	0	6046	110960	159596	159596	8992	96	459	24	101610	3657162	9571
151	2018-04-04 08:37:30		0	0	0	0	0	0	2.78	5.63	0.04	159643	0	6048	110992	159643	159643	8992	96	459	24	101636	3657186	9571
152	2018-04-04 08:48:00		0	0	0	0	0	0	2.78	5.63	0.04	159685	0	6055	110992	159685	159685	8993	96	459	24	101636	3657207	9572
153	2018-04-04 08:58:30		0	0	0	0	0	0	2.78	5.63	0.04	159723	0	6055	110992	159723	159723	8994	96	459	24	101636	3657228	9573
154	2018-04-04 09:09:00		0	0	0	0	0	0	2.78	5.63	0.04	159759	0	6060	111079	159759	159759	8997	96	459	24	101763	3657247	9576
155	2018-04-04 09:19:30		0	0	0	0	0	0	2.78	5.63	0.04	159804	0	6064	111079	159804	159804	8998	96	459	24	101790	3657265	9577
156	2018-04-04 09:30:01		0	0	0	0	0	0	2.79	5.63	0.04	159842	0	6072	111175	159842	159842	9003	96	459	24	101870	3657293	9582
157	2018-04-04 09:40:30		0	0	0	0	0	0	2.79	5.63	0.04	159890	0	6073	111175	159890	159890	9004	96	460	24	101870	3657314	9584
158	2018-04-04 09:51:02		0	0	0	0	0	0	2.79	5.63	0.04	159936	0	6078	111303	159936	159936	9007	96	461	24	101978	3657331	9588
159	2018-04-04 10:01:33		0	0	0	0	0	0	2.79	5.63	0.04	159989	0	6085	111303	159989	159989	9010	96	461	24	101978	3657352	9591
160	2018-04-04 10:12:08		0	0	0	0	0	0	2.79	5.63	0.04	160047	0	6092	111303	160047	160047	9012	96	461	24	101978	3657376	9593
161	2018-04-04 10:22:36		0	0	0	0	0	0	2.79	5.63	0.04	160085	0	6096	111303	160085	160085	9014	96	461	24	101978	3657404	9595
162	2018-04-04 10:33:05		0	0	0	0	0	0	2.79	5.63	0.04	160122	0	6099	111303	160122	160122	9015	96	461	25	101978	3657432	9597
163	2018-04-04 10:43:36		0	0	0	0	0	0	2.79	5.63	0.04	160164	0	6103	111431	160164	160164	9016	96	461	25	102085	3657449	9598
164	2018-04-04 10:54:07		0	0	0	0	0	0	2.79	5.63	0.04	160210	0	6108	111431	160210	160210	9016	96	461	25	102085	3657482	9598
165	2018-04-04 11:04:16		0	0	0	0	0	0	2.79	5.63	0.04	160221	0	6109	111431	160221	160221	9017	96	461	25	102085	3657501	9599
166	2018-04-04 11:14:45		0	0	0	0	0	0	2.79	5.63	0.04	160276	0	6111	111495	160276	160276	9019	96	461	25	102085	3657519	9601
167	2018-04-04 11:25:14		0	0	0	0	0	0	2.8	5.63	0.04	160321	0	6114	111592	160321	160321	9020	96	461	25	102274	3657542	9602
168	2018-04-04 11:33:07		0	0	0	0	0	0	2.8	5.63	0.04	160360	0	6118	111648	160360	160360	9021	96	461	25	102274	3657558	9603
169	2018-04-04 11:43:35		0	0	0	0	0	0	2.8	5.63	0.04	160400	0	6122	111648	160400	160400	9024	96	461	25	102274	3657583	9606
170	2018-04-04 11:54:10		0	0	0	0	0	0	2.8	5.63	0.04	160425	0	6122	111664	160425	160425	9025	96	461	25	102288	3657616	9607
171	2018-04-04 12:04:47		0	0	0	0	0	0	2.8	5.63	0.04	160470	0	6129	111664	160470	160470	9027	96	461	25	102288	3657655	9609
172	2018-04-04 12:15:17		0	0	0	0	0	0	2.8	5.62	0.04	160501	0	6131	111664	160501	160501	9028	96	461	25	102288	3657689	9610
173	2018-04-04 12:25:48		0	0	0	0	0	0	2.8	5.62	0.04	160541	0	6135	111696	160541	160541	9029	96	461	25	102288	3657714	9611
174	2018-04-04 12:36:23		0	0	0	0	0	0	2.8	5.62	0.04	160574	0	6141	111696	160574	160574	9030	96	461	25	102288	3657744	9612
175	2018-04-04 12:46:41		0	0	0	0	0	0	2.8	5.62	0.04	160617	0	6144	111696	160617	160617	9034	96	461	25	102288	3657781	9616
176	2018-04-04 12:57:26		0	0	0	0	0	0	2.8	5.62	0.04	160689	0	6156	111696	160689	160689	9036	96	461	25	102288	3657815	9618
177	2018-04-04 13:07:47		0	0	0	0	0	0	2.8	5.62	0.04	160718	0	6160	111696	160718	160718	9037	96	461	25	102288	3657857	9619
178	2018-04-04 13:18:15		0	0	0	0	0	0	2.8	5.62	0.04	160751	0	6168	111696	160751	160751	9039	96	461	25	102288	3657886	9621
179	2018-04-04 13:28:44		0	0	0	0	0	0	2.8	5.62	0.04	160783	0	6171	111696	160783	160783	9041	96	461	25	102288	3657918	9623
180	2018-04-04 13:39:14		0	0	0	0	0	0	2.8	5.62	0.04	160820	0	6180	111696	160820	160820	9041	96	461	25	102288	3657958	9623
181	2018-04-04 13:49:46		0	0	0	0	0	0	2.8	5.62	0.04	160855	0	6181	111696	160855	160855	9043	96	461	25	102288	3657978	9625
182	2018-04-04 14:00:22		0	0	0	0	0	0	2.8	5.62	0.04	160892	0	6184	111696	160892	160892	9044	96	461	25	102301	3658017	9626
183	2018-04-04 14:10:55		0	0	0	0	0	0	2.8	5.62	0.04	160929	0	6189	111696	160929	160929	9045	96	461	25	102301	3658049	9627
184	2018-04-04 14:21:20		0	0	0	0	0	0	2.8	5.62	0.04	160986	0	6195	111955	160986	160986	9046	96	461	25	102518	3658085	9628
185	2018-04-04 14:31:52		0	0	0	0	0	0	2.8	5.62	0.04	161025	0	6205	112040	161025	161025	9048	96	461	25	102569	3658120	9630
186	2018-04-04 14:42:24		0	0	0	0	0	0	2.8	5.62	0.04	161069	0	6212	112040	161069	161069	9048	96	461	25	102569	3658147	9630
187	2018-04-04 14:52:51		0	0	0	0	0	0	2.81	5.62	0.04	161103	0	6214	112296	161103	161103	9048	96	462	25	102783	3658176	9631
188	2018-04-04 15:03:23		0	0	0	0	0	0	2.81	5.62	0.04	161132	0	6219	112296	161132	161132	9048	96	462	25	102783	3658207	9631
189	2018-04-04 15:13:53		0	0	0	0	0	0	2.81	5.61	0.04	161166	0	6225	112296	161166	161166	9048	96	462	25	102783	3658227	9631
190	2018-04-04 15:24:25		0	0	0	0	0	0	2.81	5.61	0.04	161200	0	6228	112394	161200	161200	9048	96	462	25	102865	3658257	9631
191	2018-04-04 15:35:00		0	0	0	0	0	0	2.81	5.61	0.04	161228	0	6230	112394	161228	161228	9049	96	462	25	102865	3658298	9632
192	2018-04-04 15:45:25		0	0	0	0	0	0	2.81	5.61	0.04	161250	0	6231	112394	161250	161250	9049	96	462	25	102865	3658322	9632
193	2018-04-04 17:11:18		0	0	0	0	0	0	2.81	5.61	0.04	161490	0	6252	112459	161490	161490	9059	96	462	25	102920	3658559	9642
194	2018-04-04 17:21:45		0	0	0	0	0	0	2.81	5.61	0.04	161512	0	6255	112524	161512	161512	9060	96	462	25	102920	3658592	9643
195	2018-04-04 17:32:17		0	0	0	0	0	0	2.81	5.61	0.04	161537	0	6256	112524	161537	161537	9060	96	462	25	102920	3658645	9643
196	2018-04-04 17:42:48		0	0	0	0	0	0	2.81	5.61	0.04	161577	0	6260	112524	161577	161577	9060	96	462	25	102920	3658688	9643
197	2018-04-04 17:53:17		0	0	0	0	0	0	2.81	5.61	0.04	161611	0	6264	112524	161611	161611	9061	96	462	25	102920	3658720	9644
198	2018-04-04 18:03:52		0	0	0	0	0	0	2.81	5.61	0.04	161626	0	6266	112573	161626	161626	9062	96	462	25	102961	3658763	9645
199	2018-04-04 18:14:18		0	0	0	0	0	0	2.81	5.61	0.04	161662	0	6269	112573	161662	161662	9063	96	462	25	102961	3658795	9646
200	2018-04-04 18:24:47		0	0	0	0	0	0	2.81	5.61	0.04	161697	0	6271	112573	161697	161697	9065	96	462	25	102961	3658847	9648
201	2018-04-04 18:35:20		0	0	0	0	0	0	2.81	5.61	0.04	161727	0	6275	112573	161727	161727	9067	96	462	25	102961	3658892	9650
202	2018-04-04 18:46:00		0	0	0	0	0	0	2.81	5.61	0.04	161752	0	6279	112573	161752	161752	9070	96	462	25	102961	3658936	9653
203	2018-04-04 18:56:34		0	0	0	0	0	0	2.81	5.61	0.04	161821	0	6287	112590	161821	161821	9071	96	462	25	102975	3659001	9654
204	2018-04-04 19:07:07		0	0	0	0	0	0	2.81	5.6	0.04	161844	0	6292	112590	161844	161844	9071	96	462	25	102975	3659037	9654
205	2018-04-04 19:17:41		0	0	0	0	0	0	2.81	5.6	0.04	161892	0	6296	112590	161892	161892	9071	96	462	25	102975	3659073	9654
206	2018-04-04 19:28:14		0	0	0	0	0	0	2.81	5.6	0.04	161915	0	6297	112590	161915	161915	9072	96	462	25	102975	3659120	9655
207	2018-04-04 19:38:51		0	0	0	0	0	0	2.81	5.6	0.04	161948	0	6304	112590	161948	161948	9072	96	462	25	102975	3659170	9655
208	2018-04-04 19:49:22		0	0	0	0	0	0	2.81	5.6	0.04	161968	0	6307	112590	161968	161968	9073	96	462	25	102975	3659213	9656
209	2018-04-04 19:59:58		0	0	0	0	0	0	2.81	5.6	0.04	161994	0	6309	112590	161994	161994	9073	96	462	25	102975	3659251	9656
210	2018-04-04 20:10:37		0	0	0	0	0	0	2.81	5.6	0.04	162024	0	6311	112590	162024	162024	9075	96	462	25	102975	3659308	9658
211	2018-04-04 20:21:05		0	0	0	0	0	0	2.81	5.6	0.04	162047	0	6321	112590	162047	162047	9076	96	462	25	102975	3659347	9659
212	2018-04-04 20:31:39		0	0	0	0	0	0	2.81	5.6	0.04	162091	0	6321	112604	162091	162091	9079	96	462	25	102987	3659385	9662
213	2018-04-04 20:42:14		0	0	0	0	0	0	2.81	5.6	0.04	162116	0	6323	112604	162116	162116	9080	96	462	25	102987	3659421	9663
214	2018-04-04 20:52:49		0	0	0	0	0	0	2.81	5.6	0.04	162158	0	6331	112604	162158	162158	9082	96	462	25	102987	3659472	9665
215	2018-04-04 21:03:23		0	0	0	0	0	0	2.81	5.6	0.04	162197	0	6334	112604	162197	162197	9083	96	462	25	102987	3659515	9666
216	2018-04-04 21:13:54		0	0	0	0	0	0	2.81	5.6	0.04	162229	0	6338	112604	162229	162229	9083	96	462	25	102987	3659568	9666
217	2018-04-04 21:24:27		0	0	0	0	0	0	2.81	5.6	0.04	162267	0	6341	112604	162267	162267	9085	96	462	25	102987	3659610	9668
218	2018-04-04 21:35:01		0	0	0	0	0	0	2.81	5.6	0.04	162292	0	6342	112604	162292	162292	9086	96	462	25	102987	3659636	9669
219	2018-04-04 21:45:34		0	0	0	0	0	0	2.81	5.6	0.04	162321	0	6344	112604	162321	162321	9086	96	462	25	102987	3659682	9669
220	2018-04-04 21:56:09		0	0	0	0	0	0	2.82	5.6	0.04	162377	0	6350	112719	162377	162377	9088	96	462	25	103083	3659731	9671
221	2018-04-04 22:06:43		0	0	0	0	0	0	2.82	5.6	0.04	162411	0	6354	112719	162411	162411	9088	96	462	25	103083	3659775	9671
222	2018-04-04 22:17:16		0	0	0	0	0	0	2.82	5.6	0.04	162440	0	6355	112719	162440	162440	9090	96	462	25	103083	3659807	9673
223	2018-04-04 22:27:52		0	0	0	0	0	0	2.82	5.6	0.04	162487	0	6361	112719	162487	162487	9092	96	462	25	103083	3659867	9675
224	2018-04-04 22:38:27		0	0	0	0	0	0	2.82	5.59	0.04	162532	0	6362	112719	162532	162532	9092	96	462	25	103083	3659923	9675
225	2018-04-04 22:48:59		0	0	0	0	0	0	2.82	5.59	0.04	162567	0	6364	112752	162567	162567	9093	96	462	25	103110	3659966	9676
226	2018-04-04 22:59:30		0	0	0	0	0	0	2.82	5.59	0.04	162601	0	6370	112752	162601	162601	9095	96	462	25	103110	3660016	9678
227	2018-04-04 23:10:04		0	0	0	0	0	0	2.82	5.59	0.04	162634	0	6374	112752	162634	162634	9096	96	462	25	103110	3660055	9679
228	2018-04-04 23:20:37		0	0	0	0	0	0	2.82	5.59	0.04	162657	0	6375	112752	162657	162657	9096	96	462	25	103110	3660096	9679
229	2018-04-04 23:31:11		0	0	0	0	0	0	2.82	5.59	0.04	162682	0	6378	112752	162682	162682	9099	96	462	25	103110	3660144	9682
230	2018-04-04 23:41:46		0	0	0	0	0	0	2.82	5.59	0.04	162732	0	6379	112866	162732	162732	9100	96	462	25	103205	3660198	9683
231	2018-04-04 23:52:19		0	0	0	0	0	0	2.82	5.59	0.04	162769	0	6385	112866	162769	162769	9103	96	462	25	103205	3660227	9686
232	2018-04-05 00:02:53		0	0	0	0	0	0	2.82	5.59	0.04	162803	0	6388	112866	162803	162803	9104	96	462	25	103205	3660249	9687
233	2018-04-05 01:07:58		0	0	0	0	0	0	2.82	5.59	0.04	162956	0	6414	112866	162956	162956	9109	96	463	25	103205	3660433	9693
234	2018-04-05 02:13:00		0	0	0	0	0	0	2.82	5.59	0.04	163053	0	6426	112866	163053	163053	9116	98	463	25	103205	3660513	9702
235	2018-04-05 03:18:06		0	0	0	0	0	0	2.82	5.59	0.04	163093	0	6428	112866	163093	163093	9117	98	463	25	103205	3660542	9703
236	2018-04-05 04:23:11		0	0	0	0	0	0	2.82	5.59	0.04	163127	0	6432	112866	163127	163127	9117	98	463	25	103205	3660561	9703
237	2018-04-05 05:28:12		0	0	0	0	0	0	2.82	5.59	0.04	163146	0	6432	112866	163146	163146	9118	98	463	25	103205	3660572	9704
238	2018-04-05 06:33:20		0	0	0	0	0	0	2.82	5.59	0.04	163198	0	6437	112866	163198	163198	9118	98	463	25	103205	3660594	9704
239	2018-04-05 07:08:54		0	0	0	0	0	0	2.82	5.59	0.04	163234	0	6441	112866	163234	163234	9120	98	463	25	103205	3660616	9706
240	2018-04-05 07:19:27		0	0	0	0	0	0	2.82	5.59	0.04	163244	0	6441	112866	163244	163244	9123	98	463	25	103205	3660631	9709
241	2018-04-05 07:30:00		0	0	0	0	0	0	2.82	5.59	0.04	163254	0	6443	112866	163254	163254	9123	98	463	25	103205	3660639	9709
242	2018-04-05 07:40:35		0	0	0	0	0	0	2.82	5.59	0.04	163262	0	6446	112866	163262	163262	9124	98	463	25	103205	3660652	9710
243	2018-04-05 07:51:08		0	0	0	0	0	0	2.82	5.59	0.04	163281	0	6447	112866	163281	163281	9126	98	463	25	103205	3660657	9712
244	2018-04-05 08:01:43		0	0	0	0	0	0	2.82	5.59	0.04	163297	0	6448	112866	163297	163297	9126	98	463	25	103205	3660668	9712
245	2018-04-05 08:12:17		0	0	0	0	0	0	2.82	5.59	0.04	163315	0	6450	112866	163315	163315	9128	98	463	25	103205	3660685	9714
246	2018-04-05 08:22:51		0	0	0	0	0	0	2.82	5.59	0.04	163330	0	6450	112866	163330	163330	9129	98	463	25	103205	3660697	9715
247	2018-04-05 08:33:25		0	0	0	0	0	0	2.82	5.59	0.04	163336	0	6451	112866	163336	163336	9129	98	463	25	103205	3660718	9715
248	2018-04-05 08:44:03		0	0	0	0	0	0	2.82	5.59	0.04	163353	0	6451	112866	163353	163353	9130	98	463	25	103205	3660749	9716
249	2018-04-05 08:54:33		0	0	0	0	0	0	2.82	5.59	0.04	163372	0	6453	112866	163372	163372	9130	98	463	25	103205	3660762	9716
250	2018-04-05 09:05:14		0	0	0	0	0	0	2.82	5.59	0.04	163394	0	6453	112866	163394	163394	9131	98	463	25	103205	3660801	9717
251	2018-04-05 09:15:43		0	0	0	0	0	0	2.82	5.59	0.04	163405	0	6454	112866	163405	163405	9133	98	463	25	103205	3660829	9719
252	2018-04-05 09:26:15		0	0	0	0	0	0	2.82	5.59	0.04	163427	0	6454	112866	163427	163427	9134	98	463	25	103205	3660851	9720
253	2018-04-05 09:36:51		0	0	0	0	0	0	2.82	5.59	0.04	163455	0	6456	112866	163455	163455	9137	98	463	25	103205	3660879	9723
254	2018-04-05 10:20:26		0	0	0	0	0	0	2.82	5.59	0.04	163574	0	6470	112866	163574	163574	9143	98	464	25	103205	3660977	9730
255	2018-04-05 10:30:48		0	0	0	0	0	0	2.82	5.59	0.04	163601	0	6472	112866	163601	163601	9143	98	464	25	103205	3661018	9730
256	2018-04-05 10:41:17		0	0	0	0	0	0	2.82	5.59	0.04	163623	0	6472	112866	163623	163623	9144	98	464	25	103205	3661064	9731
257	2018-04-05 10:51:48		0	0	0	0	0	0	2.82	5.59	0.04	163645	0	6475	112866	163645	163645	9149	98	464	25	103205	3661119	9736
258	2018-04-05 11:02:20		0	0	0	0	0	0	2.82	5.59	0.04	163682	0	6476	112866	163682	163682	9150	98	464	25	103205	3661153	9737
259	2018-04-05 11:12:49		0	0	0	0	0	0	2.82	5.59	0.04	163701	0	6476	112866	163701	163701	9150	98	464	25	103205	3661179	9737
260	2018-04-05 11:23:20		0	0	0	0	0	0	2.82	5.59	0.04	163721	0	6477	112866	163721	163721	9152	98	465	25	103205	3661204	9740
261	2018-04-05 11:33:53		0	0	0	0	0	0	2.82	5.59	0.04	163742	0	6479	112866	163742	163742	9153	98	465	25	103205	3661227	9741
262	2018-04-05 11:44:23		0	0	0	0	0	0	2.82	5.59	0.04	163775	0	6481	112866	163775	163775	9153	98	465	25	103205	3661259	9741
263	2018-04-05 11:54:58		0	0	0	0	0	0	2.82	5.59	0.04	163792	0	6485	112899	163792	163792	9153	98	465	25	103205	3661282	9741
264	2018-04-05 12:05:24		0	0	0	0	0	0	2.82	5.59	0.04	163803	0	6485	112963	163803	163803	9154	98	465	25	103301	3661303	9742
265	2018-04-05 12:15:52		0	0	0	0	0	0	2.82	5.59	0.04	163819	0	6487	112963	163819	163819	9154	98	465	25	103301	3661324	9742
266	2018-04-05 12:26:21		0	0	0	0	0	0	2.82	5.59	0.04	163842	0	6489	112963	163842	163842	9154	98	465	25	103301	3661335	9742
267	2018-04-05 12:36:53		0	0	0	0	0	0	2.82	5.59	0.04	163863	0	6489	112963	163863	163863	9155	98	465	25	103301	3661352	9743
268	2018-04-05 12:47:23		0	0	0	0	0	0	2.82	5.59	0.04	163899	0	6491	112963	163899	163899	9157	98	465	25	103301	3661376	9745
269	2018-04-05 12:57:54		0	0	0	0	0	0	2.82	5.59	0.04	163909	0	6491	112963	163909	163909	9158	98	465	25	103301	3661397	9746
270	2018-04-05 13:08:25		0	0	0	0	0	0	2.82	5.59	0.04	163930	0	6495	112963	163930	163930	9158	98	465	25	103301	3661431	9746
271	2018-04-05 13:18:57		0	0	0	0	0	0	2.82	5.59	0.04	163949	0	6495	112963	163949	163949	9158	98	465	25	103301	3661447	9746
272	2018-04-05 13:29:27		0	0	0	0	0	0	2.82	5.59	0.04	163969	0	6495	112963	163969	163969	9160	98	465	25	103301	3661465	9748
273	2018-04-05 13:39:58		0	0	0	0	0	0	2.82	5.59	0.04	163985	0	6497	112963	163985	163985	9160	98	465	25	103301	3661487	9748
274	2018-04-05 13:50:28		0	0	0	0	0	0	2.82	5.59	0.04	164005	0	6497	112996	164005	164005	9160	98	465	25	103301	3661510	9748
275	2018-04-05 14:01:04		0	0	0	0	0	0	2.82	5.59	0.04	164020	0	6498	112996	164020	164020	9161	98	465	25	103301	3661525	9749
276	2018-04-05 14:11:30		0	0	0	0	0	0	2.82	5.59	0.04	164044	0	6500	112996	164044	164044	9162	97	465	25	103301	3661549	9749
277	2018-04-05 14:22:04		0	0	0	0	0	0	2.82	5.59	0.04	164067	0	6502	112996	164067	164067	9164	98	465	25	103301	3661570	9752
278	2018-04-05 14:32:29		0	0	0	0	0	0	2.82	5.58	0.04	164101	0	6508	112996	164101	164101	9165	98	465	25	103301	3661580	9753
279	2018-04-05 14:43:05		0	0	0	0	0	0	2.82	5.58	0.04	164114	0	6510	112996	164114	164114	9165	98	465	25	103301	3661602	9753
280	2018-04-05 14:53:30		0	0	0	0	0	0	2.82	5.58	0.04	164128	0	6510	112996	164128	164128	9166	98	466	25	103301	3661626	9755
281	2018-04-05 15:04:03		0	0	0	0	0	0	2.82	5.58	0.04	164149	0	6512	113062	164149	164149	9166	98	466	25	103301	3661652	9755
282	2018-04-05 15:14:32		0	0	0	0	0	0	2.82	5.58	0.04	164165	0	6512	113062	164165	164165	9167	98	466	25	103301	3661669	9756
283	2018-04-05 15:25:03		0	0	0	0	0	0	2.82	5.58	0.04	164175	0	6512	113062	164175	164175	9167	98	466	25	103301	3661697	9756
284	2018-04-05 15:35:33		0	0	0	0	0	0	2.82	5.58	0.04	164190	0	6512	113062	164190	164190	9167	98	466	25	103301	3661719	9756
285	2018-04-05 15:46:04		0	0	0	0	0	0	2.82	5.58	0.04	164221	0	6515	113062	164221	164221	9168	98	466	25	103301	3661734	9757
286	2018-04-05 15:56:34		0	0	0	0	0	0	2.82	5.58	0.04	164240	0	6516	113062	164240	164240	9168	98	466	25	103301	3661749	9757
287	2018-04-05 16:07:08		0	0	0	0	0	0	2.82	5.58	0.04	164267	0	6518	113062	164267	164267	9168	98	466	25	103301	3661778	9757
288	2018-04-05 16:17:36		0	0	0	0	0	0	2.82	5.58	0.04	164293	0	6523	113062	164293	164293	9168	98	466	25	103301	3661798	9757
289	2018-04-05 16:28:08		0	0	0	0	0	0	2.82	5.58	0.04	164314	0	6525	113062	164314	164314	9169	98	466	25	103301	3661817	9758
290	2018-04-05 16:38:37		0	0	0	0	0	0	2.82	5.58	0.04	164334	0	6525	113062	164334	164334	9169	98	466	25	103301	3661844	9758
291	2018-04-05 16:49:25		0	0	0	0	0	0	2.82	5.58	0.04	164353	0	6526	113096	164353	164353	9169	98	466	25	103329	3661862	9758
292	2018-04-05 16:59:38		0	0	0	0	0	0	2.82	5.58	0.04	164369	0	6526	113096	164369	164369	9169	98	466	25	103329	3661880	9758
293	2018-04-05 17:10:11		0	0	0	0	0	0	2.82	5.58	0.04	164393	0	6527	113096	164393	164393	9171	98	466	25	103329	3661901	9760
294	2018-04-05 17:20:39		0	0	0	0	0	0	2.82	5.58	0.04	164408	0	6528	113162	164408	164408	9171	98	466	25	103384	3661930	9760
295	2018-04-05 17:31:10		0	0	0	0	0	0	2.82	5.58	0.04	164419	0	6528	113162	164419	164419	9171	98	466	25	103384	3661954	9760
296	2018-04-05 17:41:41		0	0	0	0	0	0	2.82	5.58	0.04	164439	0	6531	113162	164439	164439	9171	98	466	25	103384	3661980	9760
297	2018-04-05 17:52:10		0	0	0	0	0	0	2.82	5.58	0.04	164450	0	6532	113162	164450	164450	9171	98	466	25	103384	3662005	9760
298	2018-04-05 18:02:42		0	0	0	0	0	0	2.82	5.58	0.04	164487	0	6535	113162	164487	164487	9172	98	466	25	103384	3662037	9761
299	2018-04-05 18:13:12		0	0	0	0	0	0	2.82	5.58	0.04	164500	0	6535	113162	164500	164500	9172	98	466	25	103384	3662061	9761
