1	2016-12-26 18:57:07	0	0	0	0	0	0	0.3	0.13	0	7829	1	7	7302	7829	7822	10	10	54	1	7294	2401615	75
2	2016-12-26 19:07:08	0	0	0	0	0	0	1.94	0.27	0.01	54900	1	673	47334	54900	54227	147	58	202	8	46522	2401633	415
3	2016-12-26 19:17:07	0	0	0	0	0	0	2.83	0.32	0.02	81670	1	1677	69484	81670	79993	265	72	297	8	67927	2401651	642
4	2016-12-26 19:27:08	0	0	0	0	0	0	3.35	0.35	0.03	100252	1	2637	82712	100252	97615	349	82	353	11	80440	2401669	795
5	2016-12-26 19:37:09	0	0	0	0	0	0	3.77	0.37	0.03	114575	1	3535	92937	114575	111040	426	90	390	13	90502	2401682	919
6	2016-12-26 19:47:08	0	0	0	0	0	0	4.09	0.39	0.04	126831	1	4430	101620	126831	122401	494	92	420	13	98237	2401695	1019
7	2016-12-26 19:57:11	0	0	0	0	0	0	4.36	0.42	0.04	137404	1	5229	109474	137404	132175	572	98	460	15	104737	2401707	1145
8	2016-12-26 20:07:12	0	0	0	0	0	0	4.58	0.43	0.04	145872	1	6005	114987	145872	139867	622	108	479	16	109922	2401729	1225
9	2016-12-26 20:17:14	0	0	0	0	0	0	4.77	0.44	0.04	153686	1	6594	120407	153686	147092	672	116	498	16	114569	2401758	1302
10	2016-12-26 20:27:12	0	0	0	0	0	0	4.96	0.45	0.05	160774	1	7216	125285	160774	153558	719	120	523	17	119114	2401770	1379
11	2016-12-26 20:37:12	0	0	0	0	0	0	5.18	0.45	0.05	167510	1	7798	130949	167510	159712	755	122	536	17	124504	2401792	1430
12	2016-12-26 20:47:11	0	0	0	0	0	0	5.31	0.45	0.05	173554	1	8316	134282	173554	165238	785	124	557	18	127513	2401817	1484
13	2016-12-26 20:57:13	0	0	0	0	0	0	5.47	0.46	0.05	179168	1	8850	138778	179168	170318	825	128	576	19	131371	2401852	1548
14	2016-12-26 21:07:13	0	0	0	0	0	0	5.54	0.47	0.05	183864	1	9376	141350	183864	174488	855	130	601	19	133100	2401892	1605
15	2016-12-26 21:17:13	0	0	0	0	0	0	5.7	0.47	0.06	188757	1	9870	145220	188757	178887	881	130	616	20	136840	2401935	1647
16	2016-12-26 21:27:12	0	0	0	0	0	0	5.82	0.47	0.06	193483	1	10314	148018	193483	183169	902	132	633	20	139824	2402034	1687
17	2016-12-26 21:37:14	0	0	0	0	0	0	5.96	0.47	0.06	198115	1	10753	151494	198115	187362	933	132	646	20	143081	2402132	1731
18	2016-12-26 21:47:13	0	0	0	0	0	0	6.02	0.47	0.06	202310	1	11178	153671	202310	191132	950	132	660	21	144722	2402215	1763
19	2016-12-26 21:57:16	0	0	0	0	0	0	6.14	0.47	0.06	206263	1	11529	156731	206263	194734	965	132	676	21	147594	2402274	1794
20	2016-12-26 22:07:16	0	0	0	0	0	0	6.23	0.47	0.06	209628	1	11870	159001	209628	197758	986	134	689	21	149576	2402331	1830
21	2016-12-26 22:17:15	0	0	0	0	0	0	6.31	0.47	0.06	213105	1	12220	161051	213105	200885	1008	138	704	22	151485	2402392	1872
22	2016-12-26 22:27:14	0	0	0	0	0	0	6.4	0.47	0.06	216567	1	12594	163704	216567	203973	1025	138	712	22	153876	2402466	1897
23	2016-12-26 22:37:15	0	0	0	0	0	0	6.51	0.47	0.06	220090	1	12898	166458	220090	207192	1037	140	721	22	156378	2402542	1920
24	2016-12-26 22:47:16	0	0	0	0	0	0	6.63	0.48	0.06	223364	1	13163	170093	223364	210201	1062	142	732	22	159212	2402598	1958
25	2016-12-26 22:57:15	0	0	0	0	0	0	6.75	0.48	0.06	226577	1	13443	172983	226577	213134	1086	146	744	23	162085	2402679	1999
26	2016-12-26 23:07:16	0	0	0	0	0	0	6.79	0.48	0.06	229579	1	13752	173882	229579	215827	1091	148	757	23	163062	2402742	2019
27	2016-12-26 23:17:17	0	0	0	0	0	0	6.84	0.48	0.06	232389	1	14044	175199	232389	218345	1106	148	769	23	164272	2402812	2046
28	2016-12-26 23:27:17	0	0	0	0	0	0	6.9	0.47	0.06	235066	1	14308	176996	235066	220758	1116	150	779	23	165744	2402862	2068
29	2016-12-26 23:37:15	0	0	0	0	0	0	6.95	0.48	0.07	237585	1	14538	178126	237585	223047	1130	152	787	23	166969	2402900	2092
30	2016-12-26 23:47:16	0	0	0	0	0	0	6.99	0.48	0.07	239951	1	14731	178908	239951	225220	1147	152	796	24	167929	2402939	2119
31	2016-12-26 23:57:16	0	0	0	0	0	0	7.04	0.48	0.07	242306	1	14916	180415	242306	227390	1158	152	806	24	169181	2402958	2140
32	2016-12-27 00:07:16	0	0	0	0	0	0	7.09	0.48	0.07	244328	1	15097	181866	244328	229231	1175	152	816	24	170457	2402979	2167
33	2016-12-27 00:17:15	0	0	0	0	0	0	7.13	0.48	0.07	246124	1	15252	182644	246124	230872	1182	154	824	24	171330	2403006	2184
34	2016-12-27 00:27:16	0	0	0	0	0	0	7.18	0.48	0.07	247741	1	15388	184157	247741	232353	1190	154	830	24	172617	2403058	2198
35	2016-12-27 00:37:17	0	0	0	0	0	0	7.22	0.48	0.07	249234	1	15494	184808	249234	233740	1198	154	837	24	173480	2403109	2213
36	2016-12-27 00:47:17	0	0	0	0	0	0	7.25	0.48	0.07	250601	1	15612	185667	250601	234989	1205	154	843	24	174158	2403138	2226
37	2016-12-27 00:57:15	0	0	0	0	0	0	7.26	0.48	0.07	251920	1	15711	186349	251920	236209	1216	158	851	25	174580	2403160	2250
38	2016-12-27 01:07:08	0	0	0	0	0	0	7.28	0.48	0.07	253054	1	15806	186579	253054	237248	1226	158	854	25	175019	2403197	2263
39	2016-12-27 01:17:06	0	0	0	0	0	0	7.29	0.48	0.07	254094	1	15884	186759	254094	238210	1232	158	857	25	175178	2403215	2272
40	2016-12-27 01:27:07	0	0	0	0	0	0	7.31	0.49	0.07	255066	1	15940	187345	255066	239126	1238	158	864	25	175693	2403241	2285
41	2016-12-27 01:37:06	0	0	0	0	0	0	7.33	0.49	0.07	255949	1	16009	187959	255949	239940	1243	158	866	25	176233	2403276	2292
42	2016-12-27 01:47:06	0	0	0	0	0	0	7.34	0.49	0.07	256801	1	16078	188159	256801	240723	1247	158	870	25	176409	2403305	2300
43	2016-12-27 01:57:06	0	0	0	0	0	0	7.35	0.49	0.07	257514	1	16134	188342	257514	241380	1252	158	872	25	176570	2403324	2307
44	2016-12-27 02:07:07	0	0	0	0	0	0	7.37	0.49	0.07	258149	1	16189	188767	258149	241960	1257	158	876	25	176943	2400816	2316
45	2016-12-27 02:17:11	0	0	0	0	0	0	7.38	0.49	0.07	258758	1	16241	188951	258758	242517	1264	158	877	26	177105	2400827	2325
46	2016-12-27 02:27:13	0	0	0	0	0	0	7.39	0.49	0.07	259292	1	16268	189341	259292	243024	1267	160	881	26	177409	2400841	2334
47	2016-12-27 02:37:10	0	0	0	0	0	0	7.4	0.49	0.07	259829	1	16307	189341	259829	243522	1268	160	883	27	177735	2400852	2338
48	2016-12-27 02:47:07	0	0	0	0	0	0	7.41	0.49	0.07	260302	1	16329	190014	260302	243973	1270	160	883	27	177919	2400863	2340
49	2016-12-27 02:57:07	0	0	0	0	0	0	7.41	0.49	0.07	260691	1	16350	190014	260691	244341	1271	160	883	27	177919	2400871	2341
50	2016-12-27 03:07:08	0	0	0	0	0	0	7.43	0.49	0.07	261058	1	16376	190526	261058	244682	1272	160	885	27	178367	2400877	2344
51	2016-12-27 03:17:11	0	0	0	0	0	0	7.44	0.49	0.07	261384	1	16401	190925	261384	244983	1278	160	886	28	178717	2400887	2352
52	2016-12-27 03:27:13	0	0	0	0	0	0	7.46	0.49	0.07	261687	1	16432	191445	261687	245255	1281	160	889	28	179172	2400900	2358
53	2016-12-27 03:37:20	0	0	0	0	0	0	7.46	0.49	0.07	261959	1	16450	191445	261959	245509	1284	160	889	28	179172	2400901	2361
54	2016-12-27 03:47:10	0	0	0	0	0	0	7.48	0.49	0.07	262226	1	16468	191943	262226	245758	1285	160	890	28	179609	2400903	2363
55	2016-12-27 03:57:08	0	0	0	0	0	0	7.49	0.49	0.07	262499	1	16487	192095	262499	246012	1287	160	892	28	179742	2400910	2367
56	2016-12-27 04:07:08	0	0	0	0	0	0	7.49	0.49	0.07	262750	1	16507	192286	262750	246243	1290	160	892	28	179909	2400917	2370
57	2016-12-27 04:17:08	0	0	0	0	0	0	7.49	0.49	0.07	262990	1	16527	192286	262990	246463	1292	160	893	28	179909	2400924	2373
58	2016-12-27 04:27:09	0	0	0	0	0	0	7.49	0.49	0.07	263185	1	16544	192286	263185	246641	1294	160	893	28	179909	2400923	2375
59	2016-12-27 04:37:08	0	0	0	0	0	0	7.51	0.49	0.07	263370	1	16561	192573	263370	246809	1294	160	893	28	180244	2400927	2375
60	2016-12-27 04:47:08	0	0	0	0	0	0	7.51	0.49	0.07	263580	1	16580	192573	263580	247000	1295	160	894	28	180412	2400925	2377
61	2016-12-27 04:57:08	0	0	0	0	0	0	7.53	0.49	0.07	263781	1	16600	193126	263781	247181	1295	160	895	28	180897	2400925	2378
62	2016-12-27 05:07:09	0	0	0	0	0	0	7.53	0.49	0.07	263981	1	16618	193126	263981	247363	1296	160	895	28	180897	2400929	2379
63	2016-12-27 05:17:08	0	0	0	0	0	0	7.55	0.49	0.07	264183	1	16636	193488	264183	247547	1296	160	895	28	181214	2400929	2379
64	2016-12-27 05:27:08	0	0	0	0	0	0	7.55	0.49	0.07	264380	1	16654	193536	264380	247726	1296	160	897	28	181384	2400930	2381
65	2016-12-27 05:37:08	0	0	0	0	0	0	7.55	0.49	0.07	264661	1	16680	193633	264661	247981	1300	160	898	28	181384	2400933	2386
66	2016-12-27 05:47:09	0	0	0	0	0	0	7.57	0.49	0.07	264908	1	16702	194112	264908	248206	1300	160	898	28	181805	2400937	2386
67	2016-12-27 05:57:09	0	0	0	0	0	0	7.58	0.49	0.07	265202	1	16727	194112	265202	248475	1305	160	901	28	181976	2400938	2394
68	2016-12-27 06:07:09	0	0	0	0	0	0	7.61	0.49	0.07	265514	1	16761	194769	265514	248753	1307	160	902	28	182639	2400940	2397
69	2016-12-27 06:17:09	0	0	0	0	0	0	7.61	0.49	0.07	265847	1	16784	194953	265847	249063	1310	160	904	28	182801	2400943	2402
70	2016-12-27 06:27:09	0	0	0	0	0	0	7.63	0.49	0.07	266247	1	16829	195321	266247	249418	1314	160	905	28	183125	2400942	2407
71	2016-12-27 06:37:12	0	0	0	0	0	0	7.64	0.49	0.07	266607	1	16856	195568	266607	249751	1317	160	905	28	183342	2400944	2410
72	2016-12-27 06:47:18	0	0	0	0	0	0	7.64	0.49	0.07	266972	1	16897	195568	266972	250075	1320	160	905	28	183342	2400947	2413
73	2016-12-27 06:57:18	0	0	0	0	0	0	7.64	0.49	0.07	267394	1	16935	195952	267394	250459	1323	160	907	28	183374	2400951	2418
74	2016-12-27 07:07:12	0	0	0	0	0	0	7.66	0.49	0.07	267899	1	16987	196462	267899	250912	1324	160	908	28	183995	2400951	2420
75	2016-12-27 07:17:10	0	0	0	0	0	0	7.68	0.49	0.07	268465	1	17047	196949	268465	251418	1326	160	909	28	184423	2400959	2423
76	2016-12-27 07:27:10	0	0	0	0	0	0	7.71	0.49	0.07	269094	1	17108	197300	269094	251986	1328	160	909	28	184996	2400961	2425
77	2016-12-27 07:37:10	0	0	0	0	0	0	7.71	0.49	0.07	269736	1	17171	197527	269736	252565	1333	160	910	28	185195	2400967	2431
78	2016-12-27 07:47:18	0	0	0	0	0	0	7.72	0.49	0.07	270398	1	17254	197931	270398	253144	1338	160	913	28	185461	2400973	2439
79	2016-12-27 07:57:14	0	0	0	0	0	0	7.74	0.49	0.07	271005	1	17326	198388	271005	253679	1341	160	919	28	185862	2400981	2448
80	2016-12-27 08:07:13	0	0	0	0	0	0	7.74	0.5	0.07	271693	1	17403	198489	271693	254290	1352	160	920	28	185951	2400996	2460
81	2016-12-27 08:17:11	0	0	0	0	0	0	7.78	0.5	0.07	272426	1	17489	199281	272426	254937	1358	162	921	28	186826	2401009	2469
82	2016-12-27 08:27:13	0	0	0	0	0	0	7.81	0.5	0.07	273141	1	17591	200300	273141	255550	1364	162	922	28	187539	2401030	2476
83	2016-12-27 08:37:11	0	0	0	0	0	0	7.82	0.5	0.07	273865	1	17665	200559	273865	256200	1370	162	924	28	187767	2401044	2484
84	2016-12-27 08:47:13	0	0	0	0	0	0	7.82	0.5	0.07	274633	1	17770	200819	274633	256863	1379	162	928	28	187812	2401060	2497
85	2016-12-27 08:57:12	0	0	0	0	0	0	7.87	0.5	0.07	275424	1	17852	201604	275424	257572	1388	162	931	28	189051	2401083	2509
86	2016-12-27 09:07:18	0	0	0	0	0	0	7.89	0.5	0.07	276176	1	17938	202025	276176	258238	1393	166	932	28	189467	2401112	2519
87	2016-12-27 09:17:19	0	0	0	0	0	0	7.9	0.5	0.07	276937	1	18038	202421	276937	258899	1397	166	934	28	189792	2401140	2525
88	2016-12-27 09:27:22	0	0	0	0	0	0	7.91	0.51	0.07	277752	1	18130	202540	277752	259622	1407	166	938	28	189897	2401157	2539
89	2016-12-27 09:37:17	0	0	0	0	0	0	7.92	0.51	0.07	278596	1	18221	203238	278596	260375	1413	168	941	28	190230	2401171	2550
90	2016-12-27 09:47:12	0	0	0	0	0	0	7.93	0.51	0.07	279467	1	18302	203609	279467	261165	1420	166	944	29	190367	2401188	2559
91	2016-12-27 09:57:13	0	0	0	0	0	0	7.94	0.51	0.07	280239	1	18367	204052	280239	261872	1424	166	947	31	190754	2401206	2568
92	2016-12-27 10:07:13	0	0	0	0	0	0	7.98	0.51	0.07	280926	1	18450	205076	280926	262476	1428	166	951	31	191648	2401232	2576
93	2016-12-27 10:17:13	0	0	0	0	0	0	8.01	0.51	0.07	281637	1	18529	205822	281637	263108	1432	166	952	31	192300	2401259	2581
94	2016-12-27 10:27:13	0	0	0	0	0	0	8.03	0.51	0.07	282343	1	18614	206412	282343	263729	1436	166	955	31	192743	2401283	2588
95	2016-12-27 10:37:13	0	0	0	0	0	0	8.08	0.51	0.07	283059	1	18712	207794	283059	264347	1438	166	955	31	193996	2401307	2590
96	2016-12-27 10:47:14	0	0	0	0	0	0	8.09	0.51	0.07	283775	1	18784	207933	283775	264991	1445	166	956	31	194215	2401339	2598
97	2016-12-27 10:57:14	0	0	0	0	0	0	8.1	0.51	0.07	284444	1	18848	208718	284444	265596	1449	166	958	31	194630	2401367	2604
98	2016-12-27 11:07:21	0	0	0	0	0	0	8.1	0.51	0.07	284990	1	18905	208718	284990	266085	1453	166	960	31	194630	2401395	2610
99	2016-12-27 11:17:17	0	0	0	0	0	0	8.13	0.51	0.07	285590	1	18966	209056	285590	266624	1456	166	960	31	195318	2401423	2613
100	2016-12-27 11:27:21	0	0	0	0	0	0	8.14	0.51	0.07	286156	1	19042	209141	286156	267114	1459	166	961	31	195392	2401460	2617
101	2016-12-27 11:37:18	0	0	0	0	0	0	8.14	0.51	0.07	286669	1	19105	209240	286669	267564	1464	168	963	31	195478	2401490	2626
102	2016-12-27 11:47:16	0	0	0	0	0	0	8.14	0.51	0.07	287188	1	19183	209679	287188	268005	1468	170	964	31	195478	2401543	2633
103	2016-12-27 11:57:16	0	0	0	0	0	0	8.15	0.51	0.07	287693	1	19262	209843	287693	268431	1474	170	968	31	195620	2401598	2643
104	2016-12-27 12:07:16	0	0	0	0	0	0	8.15	0.51	0.07	288132	1	19330	209999	288132	268802	1475	172	969	31	195756	2401654	2647
105	2016-12-27 12:17:16	0	0	0	0	0	0	8.16	0.51	0.07	288582	1	19400	210227	288582	269182	1478	172	970	31	195954	2401684	2651
106	2016-12-27 12:27:17	0	0	0	0	0	0	8.16	0.51	0.07	289024	1	19462	210370	289024	269562	1480	172	973	31	196078	2401732	2656
107	2016-12-27 12:37:23	0	0	0	0	0	0	8.18	0.51	0.07	289421	1	19518	210770	289421	269903	1482	172	974	31	196426	2401765	2659
108	2016-12-27 12:47:29	0	0	0	0	0	0	8.2	0.51	0.07	289841	1	19573	211692	289841	270268	1483	172	976	31	196925	2401806	2662
109	2016-12-27 12:57:22	0	0	0	0	0	0	8.2	0.51	0.07	290235	1	19612	211729	290235	270623	1486	172	981	31	196957	2401838	2670
110	2016-12-27 13:07:18	0	0	0	0	0	0	8.2	0.51	0.07	290587	1	19662	211787	290587	270925	1488	172	982	31	197007	2401868	2673
111	2016-12-27 13:17:18	0	0	0	0	0	0	8.2	0.51	0.07	290922	1	19705	211787	290922	271217	1495	172	982	31	197007	2401896	2680
112	2016-12-27 13:27:19	0	0	0	0	0	0	8.2	0.51	0.07	291253	1	19741	211787	291253	271512	1499	172	983	31	197007	2401932	2685
113	2016-12-27 13:37:18	0	0	0	0	0	0	8.22	0.52	0.07	291521	1	19762	212309	291521	271759	1503	172	983	31	197409	2401954	2689
114	2016-12-27 13:47:20	0	0	0	0	0	0	8.22	0.52	0.07	291844	1	19789	212426	291844	272055	1505	172	985	31	197510	2401975	2693
115	2016-12-27 13:57:19	0	0	0	0	0	0	8.23	0.52	0.07	292154	1	19831	212659	292154	272323	1506	172	986	31	197636	2402002	2695
116	2016-12-27 14:07:19	0	0	0	0	0	0	8.23	0.52	0.07	292407	1	19855	212760	292407	272552	1508	172	986	32	197722	2402039	2698
117	2016-12-27 14:17:23	0	0	0	0	0	0	8.24	0.52	0.07	292708	1	19886	213611	292708	272822	1509	172	986	32	197874	2402077	2699
118	2016-12-27 14:27:31	0	0	0	0	0	0	8.24	0.52	0.07	293040	1	19915	213626	293040	273125	1514	172	986	32	197874	2402106	2704
119	2016-12-27 14:37:39	0	0	0	0	0	0	8.24	0.52	0.07	293336	1	19943	213685	293336	273393	1518	172	987	32	197874	2402137	2709
120	2016-12-27 14:47:27	0	0	0	0	0	0	8.24	0.52	0.07	293637	1	19972	213744	293637	273665	1519	172	988	32	197925	2402169	2711
121	2016-12-27 14:57:21	0	0	0	0	0	0	8.24	0.52	0.07	293954	1	20011	213744	293954	273943	1522	174	988	32	197925	2402205	2716
122	2016-12-27 15:07:22	0	0	0	0	0	0	8.25	0.52	0.07	294208	1	20048	213921	294208	274160	1523	174	988	32	198127	2402223	2717
123	2016-12-27 15:17:21	0	0	0	0	0	0	8.25	0.52	0.07	294482	1	20082	213921	294482	274400	1524	174	989	32	198127	2402249	2719
124	2016-12-27 15:27:21	0	0	0	0	0	0	8.25	0.52	0.07	294736	1	20112	214128	294736	274624	1525	174	989	32	198305	2402281	2720
125	2016-12-27 15:37:22	0	0	0	0	0	0	8.26	0.52	0.07	295008	1	20138	214247	295008	274870	1528	174	990	33	198407	2402315	2725
126	2016-12-27 15:47:21	0	0	0	0	0	0	8.27	0.52	0.07	295246	1	20167	214558	295246	275079	1530	174	990	33	198674	2402342	2727
127	2016-12-27 15:57:21	0	0	0	0	0	0	8.28	0.52	0.07	295527	1	20210	214782	295527	275317	1534	174	993	33	198865	2402379	2734
128	2016-12-27 16:07:22	0	0	0	0	0	0	8.28	0.52	0.07	295782	1	20239	214782	295782	275543	1537	174	994	33	198865	2402395	2738
129	2016-12-27 16:17:26	0	0	0	0	0	0	8.28	0.52	0.07	296016	1	20262	214782	296016	275754	1538	176	995	33	198865	2402429	2742
130	2016-12-27 16:27:36	0	0	0	0	0	0	8.28	0.52	0.07	296237	1	20289	214782	296237	275948	1538	176	996	33	198865	2402469	2743
131	2016-12-27 16:37:39	0	0	0	0	0	0	8.28	0.52	0.07	296484	1	20315	214901	296484	276169	1541	176	997	33	198968	2402507	2747
132	2016-12-27 16:47:25	0	0	0	0	0	0	8.29	0.52	0.07	296708	1	20340	215140	296708	276368	1541	176	997	33	199172	2402538	2747
133	2016-12-27 16:57:23	0	0	0	0	0	0	8.33	0.52	0.07	296966	1	20371	215439	296966	276595	1542	176	997	33	200151	2402560	2748
134	2016-12-27 17:07:23	0	0	0	0	0	0	8.33	0.52	0.07	297202	1	20386	215439	297202	276816	1544	176	999	33	200151	2402602	2752
135	2016-12-27 17:17:23	0	0	0	0	0	0	8.33	0.52	0.07	297418	1	20405	215484	297418	277013	1544	176	999	33	200190	2402638	2752
136	2016-12-27 17:27:25	0	0	0	0	0	0	8.34	0.52	0.07	297681	1	20419	215604	297681	277262	1544	176	999	33	200293	2402672	2752
137	2016-12-27 17:37:29	0	0	0	0	0	0	8.34	0.52	0.07	297951	1	20444	215785	297951	277507	1546	176	999	33	200345	2402709	2754
138	2016-12-27 17:47:39	0	0	0	0	0	0	8.35	0.52	0.07	298203	1	20465	216210	298203	277738	1546	176	999	33	200712	2402738	2754
139	2016-12-27 17:57:42	0	0	0	0	0	0	8.35	0.52	0.07	298481	1	20482	216210	298481	277999	1546	176	1002	33	200712	2402767	2757
140	2016-12-27 18:07:29	0	0	0	0	0	0	8.36	0.52	0.07	298745	1	20509	216392	298745	278236	1548	176	1004	33	200868	2402787	2761
141	2016-12-27 18:18:06	0	0	0	0	0	0	8.36	0.52	0.07	299018	1	20534	216392	299018	278484	1549	176	1004	33	200868	2402847	2762
142	2016-12-27 18:28:31	0	0	0	0	0	0	8.36	0.52	0.07	299297	1	20565	216664	299297	278732	1550	176	1007	33	200868	2402897	2766
143	2016-12-27 18:38:58	0	0	0	0	0	0	8.39	0.52	0.07	299567	1	20586	217516	299567	278981	1552	176	1008	33	201601	2402954	2769
144	2016-12-27 18:49:23	0	0	0	0	0	0	8.39	0.52	0.07	299846	1	20618	217547	299846	279228	1554	174	1008	33	201627	2402997	2769
145	2016-12-27 18:59:55	0	0	0	0	0	0	8.41	0.52	0.07	300118	1	20647	217976	300118	279471	1554	174	1009	33	201995	2403032	2770
146	2016-12-27 19:10:25	0	0	0	0	0	0	8.41	0.52	0.07	300334	1	20671	217976	300334	279663	1555	174	1011	33	201995	2403063	2773
147	2016-12-27 19:21:02	0	0	0	0	0	0	8.44	0.52	0.07	300569	1	20701	218962	300569	279868	1556	174	1011	33	202842	2403100	2774
148	2016-12-27 19:31:48	0	0	0	0	0	0	8.45	0.52	0.07	300755	1	20729	219273	300755	280026	1557	174	1013	33	203108	2403148	2777
149	2016-12-27 19:43:07	0	0	0	0	0	0	8.45	0.52	0.07	301016	1	20770	219366	301016	280246	1560	174	1014	33	203188	2403196	2781
150	2016-12-27 19:54:33	0	0	0	0	0	0	8.45	0.52	0.07	301212	1	20803	219366	301212	280409	1561	174	1015	33	203188	2403253	2783
151	2016-12-27 20:05:51	0	0	0	0	0	0	8.45	0.52	0.07	301392	1	20827	219366	301392	280565	1562	174	1017	33	203188	2403299	2786
152	2016-12-27 20:16:59	0	0	0	0	0	0	8.45	0.52	0.07	301572	1	20864	219420	301572	280708	1562	174	1019	33	203188	2403343	2788
153	2016-12-27 20:27:21	0	0	0	0	0	0	8.45	0.52	0.07	301834	1	20905	219545	301834	280845	1564	174	1021	33	203188	2403404	2792
154	2016-12-27 20:37:56	0	0	0	0	0	0	8.45	0.52	0.07	302007	1	20940	219545	302007	281067	1565	174	1021	33	203188	2403463	2793
155	2016-12-27 20:48:35	0	0	0	0	0	0	8.46	0.52	0.07	302179	1	20971	219856	302179	281208	1565	174	1024	33	203402	2403520	2796
156	2016-12-27 20:59:20	0	0	0	0	0	0	8.46	0.52	0.07	302359	1	21003	219919	302359	281356	1567	174	1024	33	203455	2403563	2798
157	2016-12-27 21:10:01	0	0	0	0	0	0	8.47	0.52	0.07	302495	1	21030	219981	302495	281465	1567	174	1025	33	203509	2403606	2799
158	2016-12-27 21:20:41	0	0	0	0	0	0	8.47	0.52	0.07	302644	1	21055	219981	302644	281589	1568	174	1027	33	203509	2403670	2802
159	2016-12-27 21:31:53	0	0	0	0	0	0	8.47	0.52	0.07	302814	1	21084	219981	302814	281730	1569	174	1027	33	203509	2403724	2803
160	2016-12-27 21:43:11	0	0	0	0	0	0	8.47	0.52	0.07	303048	1	21126	219981	303048	281922	1571	174	1029	33	203509	2403766	2807
161	2016-12-27 21:54:26	0	0	0	0	0	0	8.47	0.52	0.07	303198	1	21148	220075	303198	282050	1575	176	1031	33	203589	2403813	2815
162	2016-12-27 22:05:16	0	0	0	0	0	0	8.47	0.52	0.08	303331	1	21169	220075	303331	282162	1575	176	1031	33	203589	2403863	2815
163	2016-12-27 22:16:07	0	0	0	0	0	0	8.47	0.52	0.08	303470	1	21191	220075	303470	282279	1575	176	1031	33	203589	2403909	2815
164	2016-12-27 22:26:59	0	0	0	0	0	0	8.47	0.52	0.08	303596	1	21210	220075	303596	282386	1577	176	1031	33	203589	2403963	2817
165	2016-12-27 22:37:50	0	0	0	0	0	0	8.47	0.52	0.08	303780	1	21240	220075	303780	282540	1578	176	1031	33	203589	2404036	2818
166	2016-12-27 22:48:43	0	0	0	0	0	0	8.48	0.52	0.08	303893	1	21269	220294	303893	282624	1578	176	1031	33	203776	2404108	2818
167	2016-12-27 23:00:10	0	0	0	0	0	0	8.48	0.52	0.08	303997	1	21282	220530	303997	282715	1578	176	1031	33	203978	2404165	2818
168	2016-12-27 23:11:41	0	0	0	0	0	0	8.48	0.52	0.08	304116	1	21296	220530	304116	282820	1578	176	1033	33	203978	2404206	2820
169	2016-12-27 23:22:48	0	0	0	0	0	0	8.48	0.52	0.08	304275	1	21318	220530	304275	282957	1578	176	1033	33	203978	2404262	2820
170	2016-12-27 23:33:39	0	0	0	0	0	0	8.48	0.52	0.08	304360	1	21334	220530	304360	283026	1578	176	1033	33	203978	2404326	2820
171	2016-12-27 23:44:32	0	0	0	0	0	0	8.49	0.52	0.08	304456	1	21351	220655	304456	283105	1579	176	1035	33	204085	2404402	2823
172	2016-12-27 23:55:22	0	0	0	0	0	0	8.49	0.52	0.08	304550	1	21359	220655	304550	283191	1579	176	1035	33	204193	2404459	2823
173	2016-12-28 00:06:24	0	0	0	0	0	0	8.49	0.52	0.08	304638	1	21377	220655	304638	283261	1580	176	1035	33	204193	2404495	2824
174	2016-12-28 00:17:18	0	0	0	0	0	0	8.49	0.52	0.08	304726	1	21395	220655	304726	283331	1580	176	1035	33	204193	2404515	2824
175	2016-12-28 00:28:04	0	0	0	0	0	0	8.49	0.52	0.08	304833	1	21415	220655	304833	283418	1581	176	1035	33	204193	2404555	2825
176	2016-12-28 00:38:53	0	0	0	0	0	0	8.49	0.52	0.08	304894	1	21419	220655	304894	283475	1582	176	1035	33	204193	2404594	2826
177	2016-12-28 00:49:47	0	0	0	0	0	0	8.49	0.52	0.08	304951	1	21425	220655	304951	283526	1582	176	1036	33	204193	2404623	2827
178	2016-12-28 01:00:41	0	0	0	0	0	0	8.49	0.52	0.08	305009	1	21431	220655	305009	283578	1582	176	1036	33	204193	2404662	2827
179	2016-12-28 01:11:00	0	0	0	0	0	0	8.49	0.52	0.08	305069	1	21438	220655	305069	283631	1583	176	1037	33	204193	2404686	2829
180	2016-12-28 01:20:56	0	0	0	0	0	0	8.49	0.52	0.08	305117	1	21443	220655	305117	283674	1583	176	1037	33	204193	2404702	2829
181	2016-12-28 01:30:55	0	0	0	0	0	0	8.49	0.52	0.08	305144	1	21445	220655	305144	283699	1583	176	1037	33	204193	2404724	2829
182	2016-12-28 01:40:57	0	0	0	0	0	0	8.49	0.52	0.08	305183	1	21453	220655	305183	283730	1583	176	1038	33	204193	2404734	2830
183	2016-12-28 01:50:56	0	0	0	0	0	0	8.49	0.52	0.08	305219	1	21462	220655	305219	283757	1583	176	1038	33	204193	2404744	2830
184	2016-12-28 02:00:57	0	0	0	0	0	0	8.5	0.52	0.08	305230	1	21464	220655	305230	283766	1583	176	1038	33	204193	2402509	2830
185	2016-12-28 02:10:56	0	0	0	0	0	0	8.5	0.52	0.08	305266	1	21468	220655	305266	283798	1583	176	1039	33	204193	2402521	2831
186	2016-12-28 02:20:56	0	0	0	0	0	0	8.5	0.52	0.08	305287	1	21470	220655	305287	283817	1584	176	1039	33	204193	2402532	2832
187	2016-12-28 02:30:56	0	0	0	0	0	0	8.5	0.52	0.08	305314	1	21473	220655	305314	283841	1584	176	1040	33	204193	2402533	2833
188	2016-12-28 02:40:57	0	0	0	0	0	0	8.5	0.52	0.08	305332	1	21475	220655	305332	283857	1584	176	1040	33	204193	2402536	2833
189	2016-12-28 02:50:56	0	0	0	0	0	0	8.5	0.52	0.08	305353	1	21476	220655	305353	283877	1584	176	1040	33	204193	2402538	2833
190	2016-12-28 03:00:57	0	0	0	0	0	0	8.5	0.52	0.08	305374	1	21479	220655	305374	283895	1584	176	1041	33	204193	2402538	2834
191	2016-12-28 03:10:56	0	0	0	0	0	0	8.5	0.52	0.08	305400	1	21483	220655	305400	283917	1584	176	1042	33	204193	2402542	2835
192	2016-12-28 03:20:56	0	0	0	0	0	0	8.5	0.52	0.08	305413	1	21484	220655	305413	283929	1584	176	1042	33	204193	2402544	2835
193	2016-12-28 03:30:56	0	0	0	0	0	0	8.5	0.52	0.08	305426	1	21484	220655	305426	283942	1584	176	1042	33	204193	2402545	2835
194	2016-12-28 03:40:57	0	0	0	0	0	0	8.5	0.52	0.08	305448	1	21488	220655	305448	283960	1584	176	1042	33	204193	2402547	2835
195	2016-12-28 03:50:56	0	0	0	0	0	0	8.5	0.52	0.08	305469	1	21491	220655	305469	283978	1584	176	1043	33	204193	2402549	2836
196	2016-12-28 04:00:57	0	0	0	0	0	0	8.5	0.52	0.08	305482	1	21492	220655	305482	283990	1584	176	1043	33	204193	2402553	2836
197	2016-12-28 04:10:57	0	0	0	0	0	0	8.5	0.52	0.08	305491	1	21493	220655	305491	283998	1584	176	1043	33	204193	2402555	2836
198	2016-12-28 04:20:57	0	0	0	0	0	0	8.5	0.52	0.08	305507	1	21494	220781	305507	284013	1585	176	1044	33	204301	2402554	2838
199	2016-12-28 04:30:56	0	0	0	0	0	0	8.5	0.52	0.08	305516	1	21494	220781	305516	284022	1585	176	1044	33	204301	2402556	2838
200	2016-12-28 04:40:59	0	0	0	0	0	0	8.5	0.52	0.08	305536	1	21497	220781	305536	284039	1585	176	1044	33	204301	2402557	2838
201	2016-12-28 04:50:58	0	0	0	0	0	0	8.52	0.52	0.08	305550	1	21498	221160	305550	284052	1585	176	1044	33	204625	2402559	2838
202	2016-12-28 05:00:57	0	0	0	0	0	0	8.52	0.52	0.08	305560	1	21501	221160	305560	284059	1586	176	1044	33	204625	2402562	2839
203	2016-12-28 05:10:59	0	0	0	0	0	0	8.52	0.52	0.08	305578	1	21501	221160	305578	284077	1586	176	1044	33	204625	2402564	2839
204	2016-12-28 05:21:00	0	0	0	0	0	0	8.52	0.52	0.08	305592	1	21502	221160	305592	284090	1589	176	1044	33	204625	2402565	2842
205	2016-12-28 05:31:15	0	0	0	0	0	0	8.52	0.52	0.08	305606	1	21503	221160	305606	284103	1589	176	1044	33	204625	2402567	2842
206	2016-12-28 05:42:09	0	0	0	0	0	0	8.52	0.52	0.08	305631	1	21505	221160	305631	284126	1590	176	1044	33	204625	2402569	2843
207	2016-12-28 05:53:11	0	0	0	0	0	0	8.52	0.52	0.08	305651	1	21507	221160	305651	284144	1590	176	1045	33	204625	2402569	2844
208	2016-12-28 06:04:06	0	0	0	0	0	0	8.52	0.52	0.08	305678	1	21510	221286	305678	284168	1590	176	1045	33	204733	2402572	2844
209	2016-12-28 06:14:24	0	0	0	0	0	0	8.52	0.52	0.08	305698	1	21514	221286	305698	284184	1590	176	1045	33	204733	2402579	2844
210	2016-12-28 06:24:46	0	0	0	0	0	0	8.53	0.52	0.08	305711	1	21516	221413	305711	284195	1590	176	1045	33	204842	2402580	2844
211	2016-12-28 06:35:08	0	0	0	0	0	0	8.53	0.52	0.08	305727	1	21518	221413	305727	284209	1590	176	1045	33	204842	2402583	2844
212	2016-12-28 06:45:28	0	0	0	0	0	0	8.53	0.52	0.08	305740	1	21519	221413	305740	284221	1590	176	1045	33	204842	2402583	2844
213	2016-12-28 06:55:52	0	0	0	0	0	0	8.53	0.52	0.08	305763	1	21523	221413	305763	284240	1590	176	1045	33	204842	2402590	2844
214	2016-12-28 07:06:16	0	0	0	0	0	0	8.53	0.52	0.08	305771	1	21525	221413	305771	284246	1590	176	1045	33	204842	2402600	2844
215	2016-12-28 07:16:41	0	0	0	0	0	0	8.53	0.52	0.08	305779	1	21527	221413	305779	284252	1590	176	1046	33	204842	2402603	2845
216	2016-12-28 07:27:11	0	0	0	0	0	0	8.53	0.52	0.08	305789	1	21534	221413	305789	284255	1590	176	1046	33	204842	2402608	2845
217	2016-12-28 07:38:09	0	0	0	0	0	0	8.53	0.52	0.08	305800	1	21540	221413	305800	284260	1590	176	1046	33	204842	2402621	2845
218	2016-12-28 07:48:36	0	0	0	0	0	0	8.53	0.52	0.08	305818	1	21546	221413	305818	284272	1590	176	1046	33	204842	2402643	2845
219	2016-12-28 07:59:08	0	0	0	0	0	0	8.53	0.52	0.08	305843	1	21555	221413	305843	284288	1590	176	1046	33	204842	2402661	2845
220	2016-12-28 08:09:48	0	0	0	0	0	0	8.53	0.52	0.08	305858	1	21564	221413	305858	284294	1590	176	1046	33	204842	2402683	2845
221	2016-12-28 08:20:59	0	0	0	0	0	0	8.53	0.52	0.08	305869	1	21571	221413	305869	284298	1591	176	1046	33	204842	2402706	2846
222	2016-12-28 08:33:00	0	0	0	0	0	0	8.53	0.52	0.08	305884	1	21580	221413	305884	284304	1591	176	1046	33	204842	2402748	2846
223	2016-12-28 08:45:55	0	0	0	0	0	0	8.53	0.52	0.08	305920	1	21592	221413	305920	284328	1592	176	1046	33	204842	2402786	2847
224	2016-12-28 08:57:43	0	0	0	0	0	0	8.53	0.52	0.08	305947	1	21608	221413	305947	284339	1592	176	1047	33	204842	2402824	2848
225	2016-12-28 09:08:25	0	0	0	0	0	0	8.52	0.52	0.08	305963	1	21618	221413	305963	284345	1592	176	1047	33	204842	2402870	2848
226	2016-12-28 09:19:07	0	0	0	0	0	0	8.52	0.52	0.08	305996	1	21630	221540	305996	284366	1592	176	1047	33	204842	2402907	2848
227	2016-12-28 09:29:46	0	0	0	0	0	0	8.52	0.52	0.08	306012	1	21635	221540	306012	284377	1592	176	1047	33	204842	2402946	2848
228	2016-12-28 09:40:29	0	0	0	0	0	0	8.52	0.52	0.08	306021	1	21642	221540	306021	284379	1592	176	1047	33	204842	2402972	2848
229	2016-12-28 09:51:11	0	0	0	0	0	0	8.52	0.52	0.08	306034	1	21646	221540	306034	284388	1592	176	1047	33	204842	2403005	2848
230	2016-12-28 10:02:01	0	0	0	0	0	0	8.52	0.52	0.08	306043	1	21650	221540	306043	284393	1592	176	1047	33	204842	2403058	2848
231	2016-12-28 10:12:44	0	0	0	0	0	0	8.53	0.52	0.08	306053	1	21653	221603	306053	284400	1592	176	1047	33	204896	2403099	2848
232	2016-12-28 10:23:30	0	0	0	0	0	0	8.53	0.52	0.08	306067	1	21660	221603	306067	284409	1593	176	1047	33	204896	2403131	2849
233	2016-12-28 10:34:09	0	0	0	0	0	0	8.53	0.52	0.08	306090	1	21664	221603	306090	284426	1593	176	1047	33	204896	2403168	2849
234	2016-12-28 10:44:54	0	0	0	0	0	0	8.53	0.52	0.08	306103	1	21668	221603	306103	284435	1593	176	1047	33	204896	2403205	2849
235	2016-12-28 10:55:44	0	0	0	0	0	0	8.53	0.52	0.08	306115	1	21668	221603	306115	284447	1593	176	1047	33	204896	2403235	2849
236	2016-12-28 11:06:31	0	0	0	0	0	0	8.53	0.52	0.08	306120	1	21669	221603	306120	284451	1593	176	1047	33	204896	2403273	2849
237	2016-12-28 11:17:34	0	0	0	0	0	0	8.53	0.52	0.08	306129	1	21670	221825	306129	284459	1593	176	1047	33	205086	2403305	2849
238	2016-12-28 11:29:15	0	0	0	0	0	0	8.53	0.52	0.08	306133	1	21670	221825	306133	284463	1593	176	1047	33	205086	2403335	2849
239	2016-12-28 11:41:09	0	0	0	0	0	0	8.53	0.52	0.08	306141	1	21673	221825	306141	284468	1593	176	1047	33	205086	2403368	2849
240	2016-12-28 11:52:08	0	0	0	0	0	0	8.53	0.52	0.08	306145	1	21674	221825	306145	284471	1593	176	1047	33	205086	2403398	2849
241	2016-12-28 12:02:57	0	0	0	0	0	0	8.53	0.52	0.08	306154	1	21676	221825	306154	284478	1593	176	1047	33	205086	2403420	2849
242	2016-12-28 12:13:42	0	0	0	0	0	0	8.53	0.52	0.08	306170	1	21681	221825	306170	284489	1593	176	1047	33	205086	2403445	2849
243	2016-12-28 12:24:32	0	0	0	0	0	0	8.53	0.52	0.08	306176	1	21682	221825	306176	284494	1593	176	1047	33	205086	2403463	2849
244	2016-12-28 12:35:19	0	0	0	0	0	0	8.53	0.52	0.08	306180	1	21683	221825	306180	284497	1593	176	1047	33	205086	2403499	2849
245	2016-12-28 12:46:11	0	0	0	0	0	0	8.53	0.52	0.08	306186	1	21684	221825	306186	284502	1593	176	1047	33	205086	2403537	2849
246	2016-12-28 12:57:07	0	0	0	0	0	0	8.53	0.52	0.08	306196	1	21689	221825	306196	284507	1593	176	1047	33	205086	2403560	2849
247	2016-12-28 13:08:02	0	0	0	0	0	0	8.53	0.52	0.08	306203	1	21690	221825	306203	284513	1593	176	1047	33	205086	2403589	2849
248	2016-12-28 13:18:56	0	0	0	0	0	0	8.53	0.52	0.08	306215	1	21692	221825	306215	284523	1593	176	1047	33	205086	2403625	2849
249	2016-12-28 13:29:53	0	0	0	0	0	0	8.53	0.52	0.08	306226	1	21697	221825	306226	284529	1593	176	1047	33	205086	2403654	2849
250	2016-12-28 13:40:53	0	0	0	0	0	0	8.53	0.52	0.08	306237	1	21702	221825	306237	284535	1593	176	1047	33	205086	2403683	2849
251	2016-12-28 13:51:55	0	0	0	0	0	0	8.53	0.52	0.08	306239	1	21703	221825	306239	284536	1593	176	1047	33	205086	2403707	2849
252	2016-12-28 14:02:59	0	0	0	0	0	0	8.53	0.52	0.08	306242	1	21703	221825	306242	284539	1593	176	1047	33	205086	2403753	2849
253	2016-12-28 14:14:00	0	0	0	0	0	0	8.53	0.52	0.08	306255	1	21708	221825	306255	284547	1593	176	1047	33	205086	2403797	2849
254	2016-12-28 14:25:07	0	0	0	0	0	0	8.53	0.52	0.08	306259	1	21708	221825	306259	284551	1593	176	1047	33	205086	2403839	2849
255	2016-12-28 14:36:13	0	0	0	0	0	0	8.53	0.52	0.08	306263	1	21710	221825	306263	284553	1593	176	1047	33	205086	2403875	2849
256	2016-12-28 14:47:23	0	0	0	0	0	0	8.53	0.52	0.08	306267	1	21711	221825	306267	284556	1593	176	1047	33	205086	2403898	2849
257	2016-12-28 14:58:33	0	0	0	0	0	0	8.53	0.52	0.08	306274	1	21714	221825	306274	284560	1593	176	1047	33	205086	2403933	2849
258	2016-12-28 15:09:44	0	0	0	0	0	0	8.53	0.52	0.08	306281	1	21717	221825	306281	284564	1593	176	1047	33	205086	2403967	2849
259	2016-12-28 15:20:56	0	0	0	0	0	0	8.53	0.52	0.08	306285	1	21719	221825	306285	284566	1593	176	1048	33	205086	2404006	2850
260	2016-12-28 15:32:06	0	0	0	0	0	0	8.53	0.52	0.08	306289	1	21721	221825	306289	284568	1593	176	1048	33	205086	2404040	2850
261	2016-12-28 15:43:22	0	0	0	0	0	0	8.53	0.52	0.08	306294	1	21724	221825	306294	284570	1593	176	1048	33	205086	2404076	2850
262	2016-12-28 15:54:34	0	0	0	0	0	0	8.53	0.52	0.08	306302	1	21726	221825	306302	284576	1593	176	1048	33	205086	2404108	2850
263	2016-12-28 16:05:58	0	0	0	0	0	0	8.53	0.52	0.08	306311	1	21729	221825	306311	284582	1593	176	1048	33	205086	2404146	2850
264	2016-12-28 16:17:17	0	0	0	0	0	0	8.53	0.52	0.08	306320	1	21730	221825	306320	284590	1593	176	1048	33	205086	2404179	2850
265	2016-12-28 16:28:46	0	0	0	0	0	0	8.53	0.52	0.08	306333	1	21740	221825	306333	284593	1593	176	1048	33	205086	2404203	2850
266	2016-12-28 16:40:15	0	0	0	0	0	0	8.53	0.52	0.08	306345	1	21744	221825	306345	284601	1593	176	1048	33	205086	2404231	2850
267	2016-12-28 16:51:42	0	0	0	0	0	0	8.53	0.52	0.08	306353	1	21749	221825	306353	284604	1593	176	1048	33	205086	2404270	2850
268	2016-12-28 17:03:13	0	0	0	0	0	0	8.53	0.52	0.08	306356	1	21749	221825	306356	284607	1593	176	1048	33	205086	2404300	2850
269	2016-12-28 17:14:43	0	0	0	0	0	0	8.53	0.52	0.08	306368	1	21756	221825	306368	284612	1593	176	1048	33	205086	2404333	2850
270	2016-12-28 17:26:28	0	0	0	0	0	0	8.53	0.52	0.08	306375	1	21760	222016	306375	284615	1593	176	1048	33	205086	2404358	2850
271	2016-12-28 17:39:17	0	0	0	0	0	0	8.53	0.52	0.08	306389	1	21766	222016	306389	284623	1593	176	1048	33	205086	2404378	2850
272	2016-12-28 17:51:47	0	0	0	0	0	0	8.53	0.52	0.08	306394	1	21769	222016	306394	284625	1593	176	1048	33	205086	2404413	2850
273	2016-12-28 18:03:39	0	0	0	0	0	0	8.53	0.52	0.08	306402	1	21774	222144	306402	284628	1593	176	1048	33	205194	2404440	2850
274	2016-12-28 18:15:37	0	0	0	0	0	0	8.53	0.52	0.08	306411	1	21780	222144	306411	284631	1593	176	1048	33	205194	2404468	2850
275	2016-12-28 18:29:13	0	0	0	0	0	0	8.53	0.52	0.08	306426	1	21790	222144	306426	284636	1593	176	1048	33	205194	2404497	2850
276	2016-12-28 18:42:47	0	0	0	0	0	0	8.53	0.52	0.08	306427	1	21790	222144	306427	284637	1593	176	1048	33	205194	2404538	2850
277	2016-12-28 18:56:23	0	0	0	0	0	0	8.53	0.52	0.08	306439	1	21796	222144	306439	284643	1593	176	1048	33	205194	2404562	2850
278	2016-12-28 19:10:04	0	0	0	0	0	0	8.53	0.52	0.08	306447	1	21800	222144	306447	284647	1593	176	1048	33	205194	2404593	2850
279	2016-12-28 19:23:48	0	0	0	0	0	0	8.53	0.52	0.08	306452	1	21802	222144	306452	284650	1594	176	1048	33	205194	2404640	2851
280	2016-12-28 19:37:39	0	0	0	0	0	0	8.53	0.52	0.08	306458	1	21803	222144	306458	284655	1594	176	1048	33	205194	2404680	2851
281	2016-12-28 19:51:30	0	0	0	0	0	0	8.53	0.52	0.08	306466	1	21806	222144	306466	284660	1594	176	1048	33	205194	2404740	2851
282	2016-12-28 20:05:25	0	0	0	0	0	0	8.53	0.52	0.08	306469	1	21806	222144	306469	284663	1594	176	1048	33	205194	2404780	2851
283	2016-12-28 20:19:23	0	0	0	0	0	0	8.53	0.52	0.08	306478	1	21809	222144	306478	284669	1594	176	1048	33	205194	2404810	2851
284	2016-12-28 20:33:19	0	0	0	0	0	0	8.53	0.52	0.08	306498	1	21822	222144	306498	284676	1594	176	1048	33	205194	2404852	2851
285	2016-12-28 20:47:21	0	0	0	0	0	0	8.53	0.52	0.08	306510	1	21826	222144	306510	284684	1594	176	1048	33	205194	2404876	2851
286	2016-12-28 21:01:24	0	0	0	0	0	0	8.53	0.52	0.08	306518	1	21830	222144	306518	284688	1595	176	1048	33	205194	2404891	2852
287	2016-12-28 21:15:24	0	0	0	0	0	0	8.53	0.52	0.08	306533	1	21833	222144	306533	284700	1595	176	1048	33	205194	2404924	2852
288	2016-12-28 21:29:34	0	0	0	0	0	0	8.53	0.52	0.08	306540	1	21835	222207	306540	284705	1595	176	1048	33	205249	2404948	2852
289	2016-12-28 21:43:45	0	0	0	0	0	0	8.54	0.52	0.08	306544	1	21836	222327	306544	284708	1595	176	1048	33	205460	2404969	2852
290	2016-12-28 21:57:55	0	0	0	0	0	0	8.54	0.52	0.08	306553	1	21840	222327	306553	284713	1595	176	1048	33	205460	2405001	2852
291	2016-12-28 22:12:06	0	0	0	0	0	0	8.54	0.52	0.08	306556	1	21841	222327	306556	284715	1595	176	1048	33	205460	2405043	2852
292	2016-12-28 22:26:28	0	0	0	0	0	0	8.54	0.52	0.08	306568	1	21844	222327	306568	284724	1595	176	1048	33	205460	2405081	2852
293	2016-12-28 22:40:45	0	0	0	0	0	0	8.54	0.52	0.08	306582	1	21846	222327	306582	284736	1595	176	1048	33	205460	2405136	2852
294	2016-12-28 22:55:07	0	0	0	0	0	0	8.54	0.52	0.08	306587	1	21848	222327	306587	284739	1596	176	1048	33	205460	2405204	2853
295	2016-12-28 23:09:26	0	0	0	0	0	0	8.54	0.52	0.08	306594	1	21850	222327	306594	284744	1596	176	1048	33	205460	2405258	2853
296	2016-12-28 23:23:51	0	0	0	0	0	0	8.54	0.52	0.08	306603	1	21853	222327	306603	284750	1596	176	1048	33	205460	2405312	2853
297	2016-12-28 23:38:19	0	0	0	0	0	0	8.54	0.52	0.08	306613	1	21857	222327	306613	284756	1596	176	1048	33	205460	2405352	2853
298	2016-12-28 23:52:43	0	0	0	0	0	0	8.54	0.52	0.08	306618	1	21858	222327	306618	284760	1596	176	1048	33	205460	2405404	2853
299	2016-12-29 00:07:12	0	0	0	0	0	0	8.54	0.52	0.08	306627	1	21861	222327	306627	284766	1596	176	1048	33	205460	2405458	2853
300	2016-12-29 00:21:45	0	0	0	0	0	0	8.54	0.52	0.08	306630	1	21862	222327	306630	284768	1596	176	1048	33	205460	2405476	2853
301	2016-12-29 00:36:23	0	0	0	0	0	0	8.54	0.52	0.08	306634	1	21865	222327	306634	284769	1596	176	1048	33	205460	2405499	2853
302	2016-12-29 00:51:00	0	0	0	0	0	0	8.54	0.52	0.08	306638	1	21865	222327	306638	284773	1596	176	1048	33	205460	2405508	2853
303	2016-12-29 01:05:38	0	0	0	0	0	0	8.54	0.52	0.08	306639	1	21865	222327	306639	284774	1596	176	1048	33	205460	2405522	2853
304	2016-12-29 01:17:20	0	0	0	0	0	0	8.54	0.52	0.08	306642	1	21866	222327	306642	284776	1596	176	1048	33	205460	2405527	2853
305	2016-12-29 01:29:35	0	0	0	0	0	0	8.54	0.52	0.08	306643	1	21866	222327	306643	284777	1596	176	1048	33	205460	2405534	2853
306	2016-12-29 01:41:52	0	0	0	0	0	0	8.54	0.52	0.08	306648	1	21867	222327	306648	284781	1596	176	1048	33	205460	2405539	2853
307	2016-12-29 01:54:14	0	0	0	0	0	0	8.54	0.52	0.08	306648	1	21867	222327	306648	284781	1596	176	1048	33	205460	2405541	2853
308	2016-12-29 02:06:35	0	0	0	0	0	0	8.54	0.52	0.08	306651	1	21868	222327	306651	284783	1596	176	1048	33	205460	2405012	2853
309	2016-12-29 02:18:59	0	0	0	0	0	0	8.54	0.52	0.08	306651	1	21868	222327	306651	284783	1596	176	1048	33	205460	2405014	2853
310	2016-12-29 02:31:22	0	0	0	0	0	0	8.54	0.52	0.08	306652	1	21868	222327	306652	284784	1596	176	1048	33	205460	2405017	2853
311	2016-12-29 02:43:41	0	0	0	0	0	0	8.54	0.52	0.08	306655	1	21869	222327	306655	284786	1596	176	1048	33	205460	2405025	2853
312	2016-12-29 02:56:07	0	0	0	0	0	0	8.54	0.52	0.08	306655	1	21869	222327	306655	284786	1596	176	1048	33	205460	2405028	2853
313	2016-12-29 03:08:41	0	0	0	0	0	0	8.54	0.52	0.08	306655	1	21869	222327	306655	284786	1596	176	1048	33	205460	2405026	2853
314	2016-12-29 03:21:10	0	0	0	0	0	0	8.54	0.52	0.08	306655	1	21869	222327	306655	284786	1596	176	1048	33	205460	2405031	2853
315	2016-12-29 03:33:45	0	0	0	0	0	0	8.54	0.52	0.08	306655	1	21869	222327	306655	284786	1596	176	1048	33	205460	2405029	2853
316	2016-12-29 03:46:24	0	0	0	0	0	0	8.54	0.52	0.08	306655	1	21869	222327	306655	284786	1596	176	1048	33	205460	2405028	2853
317	2016-12-29 03:58:58	0	0	0	0	0	0	8.54	0.52	0.08	306655	1	21869	222327	306655	284786	1596	176	1048	33	205460	2405029	2853
318	2016-12-29 04:11:34	0	0	0	0	0	0	8.54	0.52	0.08	306655	1	21869	222327	306655	284786	1596	176	1048	33	205460	2405033	2853
319	2016-12-29 04:24:12	0	0	0	0	0	0	8.54	0.52	0.08	306656	1	21869	222327	306656	284787	1596	176	1048	33	205460	2405031	2853
320	2016-12-29 04:37:14	0	0	0	0	0	0	8.54	0.52	0.08	306656	1	21869	222327	306656	284787	1596	176	1048	33	205460	2405034	2853
321	2016-12-29 04:50:02	0	0	0	0	0	0	8.54	0.52	0.08	306658	1	21870	222359	306658	284788	1596	176	1048	33	205487	2405036	2853
322	2016-12-29 05:02:41	0	0	0	0	0	0	8.54	0.52	0.08	306658	1	21870	222359	306658	284788	1596	176	1048	33	205487	2405038	2853
323	2016-12-29 05:14:59	0	0	0	0	0	0	8.54	0.52	0.08	306658	1	21870	222359	306658	284788	1596	176	1048	33	205487	2405037	2853
324	2016-12-29 05:27:48	0	0	0	0	0	0	8.54	0.52	0.08	306659	1	21870	222359	306659	284789	1596	176	1048	33	205487	2405038	2853
325	2016-12-29 05:41:28	0	0	0	0	0	0	8.54	0.52	0.08	306661	1	21870	222359	306661	284791	1596	176	1048	33	205487	2405039	2853
326	2016-12-29 05:56:37	0	0	0	0	0	0	8.54	0.52	0.08	306662	1	21870	222359	306662	284792	1596	176	1048	33	205487	2405038	2853
327	2016-12-29 06:10:07	0	0	0	0	0	0	8.54	0.52	0.08	306663	1	21870	222359	306663	284793	1596	176	1048	33	205487	2405039	2853
328	2016-12-29 06:23:04	0	0	0	0	0	0	8.54	0.52	0.08	306663	1	21870	222359	306663	284793	1596	176	1048	33	205487	2405042	2853
329	2016-12-29 06:36:06	0	0	0	0	0	0	8.54	0.52	0.08	306664	1	21870	222359	306664	284794	1596	176	1048	33	205487	2405044	2853
330	2016-12-29 06:49:01	0	0	0	0	0	0	8.54	0.52	0.08	306665	1	21870	222359	306665	284795	1596	176	1048	33	205487	2405049	2853
331	2016-12-29 07:02:04	0	0	0	0	0	0	8.54	0.52	0.08	306666	1	21871	222359	306666	284795	1596	176	1048	33	205487	2405056	2853
332	2016-12-29 07:15:02	0	0	0	0	0	0	8.54	0.52	0.08	306666	1	21871	222359	306666	284795	1596	176	1048	33	205487	2405059	2853
333	2016-12-29 07:28:08	0	0	0	0	0	0	8.54	0.52	0.08	306667	1	21871	222359	306667	284796	1596	176	1048	33	205487	2405062	2853
334	2016-12-29 07:41:21	0	0	0	0	0	0	8.54	0.52	0.08	306668	1	21872	222359	306668	284796	1596	176	1048	33	205487	2405064	2853
335	2016-12-29 07:54:33	0	0	0	0	0	0	8.54	0.52	0.08	306669	1	21872	222359	306669	284797	1596	176	1048	33	205487	2405068	2853
336	2016-12-29 08:07:54	0	0	0	0	0	0	8.54	0.52	0.08	306670	1	21873	222359	306670	284797	1596	176	1048	33	205487	2405072	2853
337	2016-12-29 08:21:18	0	0	0	0	0	0	8.54	0.52	0.08	306672	1	21873	222359	306672	284799	1596	176	1048	33	205487	2405075	2853
338	2016-12-29 08:34:27	0	0	0	0	0	0	8.54	0.52	0.08	306673	1	21873	222359	306673	284800	1596	176	1048	33	205487	2405080	2853
339	2016-12-29 08:47:43	0	0	0	0	0	0	8.54	0.52	0.08	306673	1	21873	222359	306673	284800	1596	176	1048	33	205487	2405086	2853
340	2016-12-29 09:01:12	0	0	0	0	0	0	8.54	0.52	0.08	306673	1	21873	222359	306673	284800	1596	176	1048	33	205487	2405092	2853
341	2016-12-29 09:14:37	0	0	0	0	0	0	8.54	0.52	0.08	306673	1	21873	222359	306673	284800	1596	176	1048	33	205487	2405101	2853
342	2016-12-29 09:28:04	0	0	0	0	0	0	8.54	0.52	0.08	306677	1	21874	222359	306677	284803	1596	176	1048	33	205487	2405105	2853
343	2016-12-29 09:41:31	0	0	0	0	0	0	8.54	0.52	0.08	306680	1	21876	222359	306680	284804	1596	176	1048	33	205487	2405114	2853
344	2016-12-29 09:55:03	0	0	0	0	0	0	8.54	0.52	0.08	306682	1	21876	222359	306682	284806	1596	176	1048	33	205487	2405116	2853
345	2016-12-29 10:08:40	0	0	0	0	0	0	8.54	0.52	0.08	306687	1	21876	222359	306687	284811	1596	176	1048	33	205487	2405125	2853
346	2016-12-29 10:22:17	0	0	0	0	0	0	8.54	0.52	0.08	306689	1	21876	222359	306689	284813	1596	176	1048	33	205487	2405129	2853
347	2016-12-29 10:35:48	0	0	0	0	0	0	8.54	0.52	0.08	306695	1	21877	222359	306695	284818	1596	176	1048	33	205487	2405132	2853
348	2016-12-29 10:49:26	0	0	0	0	0	0	8.54	0.52	0.08	306697	1	21878	222359	306697	284819	1596	176	1048	33	205487	2405137	2853
349	2016-12-29 11:03:10	0	0	0	0	0	0	8.54	0.52	0.08	306701	1	21878	222359	306701	284823	1596	176	1048	33	205487	2405143	2853
350	2016-12-29 11:16:46	0	0	0	0	0	0	8.54	0.52	0.08	306705	1	21878	222359	306705	284827	1596	176	1048	33	205487	2405157	2853
351	2016-12-29 11:31:38	0	0	0	0	0	0	8.54	0.52	0.08	306707	1	21879	222359	306707	284828	1596	176	1048	33	205487	2405156	2853
352	2016-12-29 11:47:03	0	0	0	0	0	0	8.54	0.52	0.08	306707	1	21879	222359	306707	284828	1596	176	1048	33	205487	2405166	2853
353	2016-12-29 12:01:17	0	0	0	0	0	0	8.54	0.52	0.08	306709	1	21880	222359	306709	284829	1596	176	1048	33	205487	2405170	2853
354	2016-12-29 12:14:56	0	0	0	0	0	0	8.54	0.52	0.08	306709	1	21880	222359	306709	284829	1596	176	1048	33	205487	2405176	2853
355	2016-12-29 12:28:41	0	0	0	0	0	0	8.54	0.52	0.08	306710	1	21880	222359	306710	284830	1596	176	1048	33	205487	2405173	2853
356	2016-12-29 12:42:21	0	0	0	0	0	0	8.54	0.52	0.08	306712	1	21881	222359	306712	284831	1596	176	1048	33	205487	2405178	2853
357	2016-12-29 12:56:03	0	0	0	0	0	0	8.54	0.52	0.08	306713	1	21881	222359	306713	284832	1596	176	1048	33	205487	2405187	2853
358	2016-12-29 13:09:48	0	0	0	0	0	0	8.54	0.52	0.08	306714	1	21881	222359	306714	284833	1596	176	1048	33	205487	2405192	2853
359	2016-12-29 13:23:27	0	0	0	0	0	0	8.54	0.52	0.08	306715	1	21881	222359	306715	284834	1596	176	1048	33	205487	2405209	2853
360	2016-12-29 13:37:15	0	0	0	0	0	0	8.54	0.52	0.08	306715	1	21881	222359	306715	284834	1596	176	1048	33	205487	2405220	2853
361	2016-12-29 13:50:52	0	0	0	0	0	0	8.54	0.52	0.08	306716	1	21882	222359	306716	284834	1596	176	1048	33	205487	2405231	2853
362	2016-12-29 14:04:43	0	0	0	0	0	0	8.54	0.52	0.08	306718	1	21882	222359	306718	284836	1596	176	1048	33	205487	2405250	2853
363	2016-12-29 14:18:32	0	0	0	0	0	0	8.54	0.52	0.08	306718	1	21882	222359	306718	284836	1596	176	1048	33	205487	2405261	2853
364	2016-12-29 14:32:23	0	0	0	0	0	0	8.54	0.52	0.08	306721	1	21883	222359	306721	284838	1596	176	1048	33	205487	2405273	2853
365	2016-12-29 14:46:05	0	0	0	0	0	0	8.54	0.52	0.08	306724	1	21884	222359	306724	284840	1596	176	1048	33	205487	2405284	2853
366	2016-12-29 14:59:58	0	0	0	0	0	0	8.54	0.52	0.08	306726	1	21884	222359	306726	284842	1596	176	1048	33	205487	2405295	2853
367	2016-12-29 15:13:51	0	0	0	0	0	0	8.54	0.52	0.08	306729	1	21884	222359	306729	284845	1596	176	1048	33	205487	2405302	2853
368	2016-12-29 15:27:55	0	0	0	0	0	0	8.54	0.52	0.08	306731	1	21885	222359	306731	284846	1596	176	1048	33	205487	2405311	2853
369	2016-12-29 15:41:55	0	0	0	0	0	0	8.54	0.52	0.08	306735	1	21885	222359	306735	284850	1596	176	1048	33	205487	2405316	2853
370	2016-12-29 15:55:59	0	0	0	0	0	0	8.54	0.52	0.08	306735	1	21885	222359	306735	284850	1596	176	1048	33	205487	2405324	2853
371	2016-12-29 16:09:58	0	0	0	0	0	0	8.54	0.52	0.08	306739	1	21886	222359	306739	284853	1596	176	1048	33	205487	2405324	2853
372	2016-12-29 16:23:59	0	0	0	0	0	0	8.54	0.52	0.08	306741	1	21888	222359	306741	284853	1596	176	1048	33	205487	2405335	2853
373	2016-12-29 16:38:01	0	0	0	0	0	0	8.54	0.52	0.08	306744	1	21888	222359	306744	284856	1596	176	1048	33	205487	2405347	2853
374	2016-12-29 16:52:11	0	0	0	0	0	0	8.54	0.52	0.08	306745	1	21889	222359	306745	284856	1597	176	1048	33	205487	2405349	2854
375	2016-12-29 17:06:22	0	0	0	0	0	0	8.54	0.52	0.08	306747	1	21890	222359	306747	284857	1597	176	1048	33	205487	2405358	2854
376	2016-12-29 17:20:59	0	0	0	0	0	0	8.54	0.52	0.08	306747	1	21890	222359	306747	284857	1597	176	1048	33	205487	2405382	2854
377	2016-12-29 17:37:45	0	0	0	0	0	0	8.54	0.52	0.08	306749	1	21891	222359	306749	284858	1597	176	1048	33	205487	2405403	2854
378	2016-12-29 17:52:53	0	0	0	0	0	0	8.54	0.52	0.08	306751	1	21891	222359	306751	284860	1597	176	1048	33	205487	2405405	2854
379	2016-12-29 18:07:02	0	0	0	0	0	0	8.54	0.52	0.08	306756	1	21892	222359	306756	284864	1597	176	1048	33	205487	2405415	2854
380	2016-12-29 18:21:19	0	0	0	0	0	0	8.54	0.52	0.08	306757	1	21892	222359	306757	284865	1597	176	1048	33	205487	2405435	2854
381	2016-12-29 18:35:26	0	0	0	0	0	0	8.54	0.52	0.08	306760	1	21895	222359	306760	284865	1597	176	1048	33	205487	2405450	2854
382	2016-12-29 18:49:35	0	0	0	0	0	0	8.54	0.52	0.08	306765	1	21897	222359	306765	284868	1597	176	1048	33	205487	2405464	2854
