1	2015-08-11 14:46:47	0	0	0	0	0	0	0.99	0.96	0.01	13584	0	142	11837	13584	13442	130	16	152	12	11682	1176338	310
2	2015-08-11 14:52:47	0	0	0	0	0	0	0.99	0.96	0.01	13584	0	142	11837	13584	13442	130	16	152	12	11682	1176332	310
3	2015-08-11 14:58:47	0	0	0	0	0	0	2.78	1.2	0.05	46131	0	2214	34594	46131	43917	555	67	469	48	32649	1176337	1139
4	2015-08-11 15:04:56	0	0	0	0	0	0	2.78	1.2	0.05	46131	0	2214	34594	46131	43917	555	67	469	48	32649	1176320	1139
5	2015-08-11 15:10:47	0	0	0	0	0	0	3.62	1.31	0.08	64826	0	4970	46363	64826	59856	852	93	659	74	42580	1176327	1678
6	2015-08-11 15:16:48	0	0	0	0	0	0	3.62	1.31	0.08	64826	0	4970	46363	64826	59856	852	93	659	74	42580	1176323	1678
7	2015-08-11 15:22:47	0	0	0	0	0	0	4	1.2	0.11	79292	0	7792	56297	79292	71500	953	101	722	79	47104	1176327	1855
8	2015-08-11 15:28:48	0	0	0	0	0	0	4	1.2	0.11	79292	0	7792	56297	79292	71500	953	101	722	79	47104	1176326	1855
9	2015-08-11 15:34:57	0	0	0	0	0	0	4.68	1.39	0.13	90673	0	10342	62705	90673	80331	1259	123	871	95	55024	1176333	2348
10	2015-08-11 15:40:48	0	0	0	0	0	0	4.68	1.39	0.13	90673	0	10342	62705	90673	80331	1259	123	871	95	55024	1176324	2348
11	2015-08-11 15:46:48	0	0	0	0	0	0	4.91	1.4	0.14	95885	0	11582	66201	95885	84303	1346	125	910	102	57769	1176338	2483
12	2015-08-11 15:52:52	0	0	0	0	0	0	4.91	1.4	0.14	95885	0	11582	66201	95885	84303	1346	125	910	102	57769	1176341	2483
13	2015-08-11 15:58:48	0	0	0	0	0	0	5.31	1.4	0.15	106504	0	14210	72754	106504	92294	1492	139	982	116	62462	1176344	2729
14	2015-08-11 16:04:49	0	0	0	0	0	0	5.31	1.4	0.15	106504	0	14210	72754	106504	92294	1492	139	982	116	62462	1176354	2729
15	2015-08-11 16:10:50	0	0	0	0	0	0	5.73	1.42	0.17	117895	0	17280	79769	117895	100615	1676	147	1065	126	67443	1176355	3014
16	2015-08-11 16:16:50	0	0	0	0	0	0	5.73	1.42	0.17	117895	0	17280	79769	117895	100615	1676	147	1065	126	67443	1176345	3014
17	2015-08-11 16:22:49	0	0	0	0	0	0	5.93	1.42	0.18	124525	0	19178	82933	124525	105347	1766	154	1112	129	69703	1176354	3161
18	2015-08-11 16:28:49	0	0	0	0	0	0	5.93	1.42	0.18	124525	0	19178	82933	124525	105347	1766	154	1112	129	69703	1176335	3161
19	2015-08-11 16:34:49	0	0	0	0	0	0	6.15	1.42	0.19	130470	0	20888	86745	130470	109582	1857	167	1146	137	72397	1176348	3307
20	2015-08-11 16:40:49	0	0	0	0	0	0	6.15	1.42	0.19	130470	0	20888	86745	130470	109582	1857	167	1146	137	72397	1176337	3307
21	2015-08-11 16:46:49	0	0	0	0	0	0	6.41	1.45	0.2	137219	0	22713	91115	137219	114506	1989	169	1192	142	75441	1176346	3492
22	2015-08-11 16:52:48	0	0	0	0	0	0	6.41	1.45	0.2	137219	0	22713	91115	137219	114506	1989	169	1192	142	75441	1176334	3492
23	2015-08-11 16:58:49	0	0	0	0	0	0	6.71	1.46	0.21	143863	0	24532	96074	143863	119331	2097	178	1261	147	78881	1176343	3683
24	2015-08-11 17:04:52	0	0	0	0	0	0	6.71	1.46	0.21	143863	0	24532	96074	143863	119331	2097	178	1261	147	78881	1176335	3683
25	2015-08-11 17:10:49	0	0	0	0	0	0	7	1.46	0.21	150119	0	26316	100341	150119	123803	2185	182	1313	168	82361	1176343	3848
26	2015-08-11 17:16:52	0	0	0	0	0	0	7	1.46	0.21	150119	0	26316	100341	150119	123803	2185	182	1313	168	82361	1176326	3848
27	2015-08-11 17:22:46	0	0	0	0	0	0	7.21	1.45	0.22	156107	0	28065	104012	156107	128042	2267	187	1360	171	84814	1176329	3985
28	2015-08-11 17:28:48	0	0	0	0	0	0	7.21	1.45	0.22	156107	0	28065	104012	156107	128042	2267	187	1360	171	84814	1176331	3985
29	2015-08-11 17:34:50	0	0	0	0	0	0	7.4	1.46	0.23	161962	0	29772	107456	161962	132190	2362	191	1419	190	87075	1176338	4162
30	2015-08-11 17:40:50	0	0	0	0	0	0	7.4	1.46	0.23	161962	0	29772	107456	161962	132190	2362	191	1419	190	87075	1176323	4162
31	2015-08-11 17:46:49	0	0	0	0	0	0	7.51	1.46	0.23	167596	0	31386	110000	167596	136210	2442	196	1459	194	88287	1176330	4291
32	2015-08-11 17:52:49	0	0	0	0	0	0	7.51	1.46	0.23	167596	0	31386	110000	167596	136210	2442	196	1459	194	88287	1176326	4291
33	2015-08-11 17:58:50	0	0	0	0	0	0	7.68	1.47	0.24	173420	0	33021	112373	173420	140399	2541	201	1495	204	90364	1176333	4441
34	2015-08-11 18:04:51	0	0	0	0	0	0	7.68	1.47	0.24	173420	0	33021	112373	173420	140399	2541	201	1495	204	90364	1176330	4441
35	2015-08-11 18:10:51	0	0	0	0	0	0	7.85	1.48	0.24	178567	0	34492	114569	178567	144075	2635	205	1529	213	92339	1176343	4582
36	2015-08-11 18:16:51	0	0	0	0	0	0	7.85	1.48	0.24	178567	0	34492	114569	178567	144075	2635	205	1529	213	92339	1176337	4582
37	2015-08-11 18:22:51	0	0	0	0	0	0	8.04	1.47	0.24	183697	0	35841	117612	183697	147856	2703	207	1556	217	94582	1176342	4683
38	2015-08-11 18:28:50	0	0	0	0	0	0	8.04	1.47	0.24	183697	0	35841	117612	183697	147856	2703	207	1556	217	94582	1176330	4683
39	2015-08-11 18:34:50	0	0	0	0	0	0	8.32	1.48	0.25	189168	0	37295	120617	189168	151873	2805	210	1601	221	97850	1176336	4837
40	2015-08-11 18:40:50	0	0	0	0	0	0	8.32	1.48	0.25	189168	0	37295	120617	189168	151873	2805	210	1601	221	97850	1176326	4837
41	2015-08-11 18:46:51	0	0	0	0	0	0	8.58	1.48	0.25	194951	0	38890	124837	194951	156061	2886	214	1621	222	100966	1176331	4943
42	2015-08-11 18:52:52	0	0	0	0	0	0	8.58	1.48	0.25	194951	0	38890	124837	194951	156061	2886	214	1621	222	100966	1176327	4943
43	2015-08-11 18:58:51	0	0	0	0	0	0	8.8	1.48	0.25	200509	0	40433	128823	200509	160076	2968	222	1672	231	103523	1176336	5093
44	2015-08-11 19:04:51	0	0	0	0	0	0	8.8	1.48	0.25	200509	0	40433	128823	200509	160076	2968	222	1672	231	103523	1176332	5093
45	2015-08-11 19:10:50	0	0	0	0	0	0	9.04	1.49	0.26	205320	0	41827	131038	205320	163493	3051	229	1699	240	106291	1176337	5219
46	2015-08-11 19:16:50	0	0	0	0	0	0	9.04	1.49	0.26	205320	0	41827	131038	205320	163493	3051	229	1699	240	106291	1176333	5219
47	2015-08-11 19:22:55	0	0	0	0	0	0	9.08	1.49	0.26	208080	0	42631	133619	208080	165449	3099	230	1709	244	106853	1176338	5282
48	2015-08-11 19:28:56	0	0	0	0	0	0	9.08	1.49	0.26	208080	0	42631	133619	208080	165449	3099	230	1709	244	106853	1176342	5282
49	2015-08-11 19:34:56	0	0	0	0	0	0	9.34	1.49	0.26	214555	0	44478	137963	214555	170077	3198	236	1745	254	109874	1176344	5433
50	2015-08-11 19:40:56	0	0	0	0	0	0	9.34	1.49	0.26	214555	0	44478	137963	214555	170077	3198	236	1745	254	109874	1176340	5433
51	2015-08-11 19:46:56	0	0	0	0	0	0	9.52	1.49	0.26	219385	0	45901	140069	219385	173484	3262	241	1787	261	111986	1176346	5551
52	2015-08-11 19:52:55	0	0	0	0	0	0	9.52	1.49	0.26	219385	0	45901	140069	219385	173484	3262	241	1787	261	111986	1176334	5551
53	2015-08-11 21:34:17	0	0	0	0	0	0	10.53	1.46	0.29	254540	0	56501	159422	254540	195906	3721	267	1987	280	123910	1176337	6255
54	2015-08-11 21:40:13	0	0	0	0	0	0	10.53	1.46	0.29	254540	0	56501	159422	254540	195906	3721	267	1987	280	123910	1176348	6255
55	2015-08-11 21:46:13	0	0	0	0	0	0	10.68	1.47	0.29	256673	0	57907	162120	256673	198766	3772	271	2009	287	125655	1176338	6339
56	2015-08-11 21:52:21	0	0	0	0	0	0	10.68	1.47	0.29	256673	0	57907	162120	256673	198766	3772	271	2009	287	125655	1176343	6339
57	2015-08-11 21:58:19	0	0	0	0	0	0	10.76	1.46	0.29	260935	0	59214	163688	260935	201721	3816	272	2031	289	126585	1176349	6408
58	2015-08-11 22:04:15	0	0	0	0	0	0	10.76	1.46	0.29	260935	0	59214	163688	260935	201721	3816	272	2031	289	126585	1176353	6408
59	2015-08-11 22:10:15	0	0	0	0	0	0	10.88	1.46	0.3	265229	0	60487	165715	265229	204742	3868	272	2055	291	128035	1176348	6486
60	2015-08-11 22:16:15	0	0	0	0	0	0	10.88	1.46	0.3	265229	0	60487	165715	265229	204742	3868	272	2055	291	128035	1176357	6486
61	2015-08-11 22:22:14	0	0	0	0	0	0	10.99	1.46	0.3	268867	0	61634	167626	268867	207233	3932	273	2073	296	129273	1176357	6574
62	2015-08-11 22:28:15	0	0	0	0	0	0	10.99	1.46	0.3	268867	0	61634	167626	268867	207233	3932	273	2073	296	129273	1176369	6574
63	2015-08-11 22:34:14	0	0	0	0	0	0	11.12	1.46	0.3	272821	0	62782	169647	272821	210039	3988	274	2104	298	130769	1176357	6664
64	2015-08-11 22:40:18	0	0	0	0	0	0	11.12	1.46	0.3	272821	0	62782	169647	272821	210039	3988	274	2104	298	130769	1176362	6664
65	2015-08-11 22:46:14	0	0	0	0	0	0	11.21	1.46	0.3	276581	0	63889	171948	276581	212692	4049	277	2118	298	131911	1176360	6742
66	2015-08-11 22:52:16	0	0	0	0	0	0	11.21	1.46	0.3	276581	0	63889	171948	276581	212692	4049	277	2118	298	131911	1176369	6742
67	2015-08-11 22:58:15	0	0	0	0	0	0	11.31	1.45	0.3	280748	0	65071	173972	280748	215677	4080	279	2147	300	133062	1176358	6806
68	2015-08-11 23:04:14	0	0	0	0	0	0	11.31	1.45	0.3	280748	0	65071	173972	280748	215677	4080	279	2147	300	133062	1176360	6806
69	2015-08-11 23:10:36	0	0	0	0	0	0	11.49	1.45	0.3	284441	0	66189	176548	284441	218252	4127	282	2168	307	135108	1176356	6884
70	2015-08-11 23:16:25	0	0	0	0	0	0	11.49	1.45	0.3	284441	0	66189	176548	284441	218252	4127	282	2168	307	135108	1176363	6884
71	2015-08-11 23:22:18	0	0	0	0	0	0	11.62	1.45	0.3	288295	0	67337	179128	288295	220958	4177	284	2194	309	136644	1176352	6964
72	2015-08-11 23:28:16	0	0	0	0	0	0	11.62	1.45	0.3	288295	0	67337	179128	288295	220958	4177	284	2194	309	136644	1176362	6964
73	2015-08-11 23:34:18	0	0	0	0	0	0	11.74	1.44	0.31	291687	0	68336	181926	291687	223351	4209	287	2219	315	138058	1176359	7030
74	2015-08-11 23:40:15	0	0	0	0	0	0	11.74	1.44	0.31	291687	0	68336	181926	291687	223351	4209	287	2219	315	138058	1176374	7030
75	2015-08-11 23:46:14	0	0	0	0	0	0	11.82	1.44	0.31	295394	0	69353	183080	295394	226041	4258	288	2246	323	138995	1176345	7115
76	2015-08-11 23:52:15	0	0	0	0	0	0	11.82	1.44	0.31	295394	0	69353	183080	295394	226041	4258	288	2246	323	138995	1176352	7115
77	2015-08-11 23:58:19	0	0	0	0	0	0	11.98	1.44	0.31	298147	0	70097	185186	298147	228050	4290	288	2263	328	140895	1176356	7169
78	2015-08-12 00:04:16	0	0	0	0	0	0	11.98	1.44	0.31	298147	0	70097	185186	298147	228050	4290	288	2263	328	140895	1176361	7169
79	2015-08-12 00:10:14	0	0	0	0	0	0	12.09	1.44	0.31	301377	0	70943	187190	301377	230434	4327	289	2290	332	142248	1176356	7238
80	2015-08-12 00:16:34	0	0	0	0	0	0	12.09	1.44	0.31	301377	0	70943	187190	301377	230434	4327	289	2290	332	142248	1176368	7238
81	2015-08-12 00:22:13	0	0	0	0	0	0	12.24	1.43	0.31	304028	0	71564	189382	304028	232464	4357	294	2305	335	143971	1176346	7291
82	2015-08-12 00:28:15	0	0	0	0	0	0	12.24	1.43	0.31	304028	0	71564	189382	304028	232464	4357	294	2305	335	143971	1176356	7291
83	2015-08-12 00:34:16	0	0	0	0	0	0	12.29	1.43	0.31	306471	0	72203	190543	306471	234268	4378	296	2326	337	144615	1176337	7337
84	2015-08-12 00:40:16	0	0	0	0	0	0	12.29	1.43	0.31	306471	0	72203	190543	306471	234268	4378	296	2326	337	144615	1176346	7337
85	2015-08-12 00:46:15	0	0	0	0	0	0	12.4	1.43	0.31	308707	0	72779	192603	308707	235928	4406	298	2345	338	145872	1176333	7387
86	2015-08-12 00:52:15	0	0	0	0	0	0	12.4	1.43	0.31	308707	0	72779	192603	308707	235928	4406	298	2345	338	145872	1176330	7387
87	2015-08-12 00:58:15	0	0	0	0	0	0	12.5	1.42	0.31	310701	0	73255	194157	310701	237446	4425	300	2358	339	147083	1176343	7422
88	2015-08-12 01:04:17	0	0	0	0	0	0	12.5	1.42	0.31	310701	0	73255	194157	310701	237446	4425	300	2358	339	147083	1176351	7422
89	2015-08-12 01:10:27	0	0	0	0	0	0	12.54	1.42	0.31	313208	0	73932	194621	313208	239276	4454	303	2376	341	147546	1176335	7474
90	2015-08-12 01:16:17	0	0	0	0	0	0	12.54	1.42	0.31	313208	0	73932	194621	313208	239276	4454	303	2376	341	147546	1176339	7474
91	2015-08-12 01:22:20	0	0	0	0	0	0	12.63	1.42	0.31	314619	0	74296	195432	314619	240323	4471	303	2385	342	148594	1176337	7501
92	2015-08-12 01:28:13	0	0	0	0	0	0	12.63	1.42	0.31	314619	0	74296	195432	314619	240323	4471	303	2385	342	148594	1176338	7501
93	2015-08-12 01:34:15	0	0	0	0	0	0	12.67	1.42	0.31	315851	0	74608	195989	315851	241243	4488	303	2394	343	148994	1176338	7528
94	2015-08-12 01:40:16	0	0	0	0	0	0	12.67	1.42	0.31	315851	0	74608	195989	315851	241243	4488	303	2394	343	148994	1176341	7528
95	2015-08-12 01:46:13	0	0	0	0	0	0	12.73	1.42	0.31	316848	0	74833	196279	316848	242015	4500	303	2402	343	149707	1176339	7548
96	2015-08-12 01:52:14	0	0	0	0	0	0	12.73	1.42	0.31	316848	0	74833	196279	316848	242015	4500	303	2402	343	149707	1176346	7548
97	2015-08-12 01:58:15	0	0	0	0	0	0	12.81	1.42	0.31	317740	0	75055	196528	317740	242685	4517	304	2408	343	150728	1176340	7572
98	2015-08-12 02:04:14	0	0	0	0	0	0	12.81	1.42	0.31	317740	0	75055	196528	317740	242685	4517	304	2408	343	150728	1176976	7572
99	2015-08-12 02:10:22	0	0	0	0	0	0	12.86	1.42	0.31	318636	0	75280	197166	318636	243356	4530	304	2418	344	151332	1176978	7596
100	2015-08-12 02:16:15	0	0	0	0	0	0	12.86	1.42	0.31	318636	0	75280	197166	318636	243356	4530	304	2418	344	151332	1176968	7596
101	2015-08-12 02:22:14	0	0	0	0	0	0	12.89	1.42	0.31	319423	0	75494	197305	319423	243929	4542	304	2424	344	151710	1176972	7614
102	2015-08-12 02:28:12	0	0	0	0	0	0	12.89	1.42	0.31	319423	0	75494	197305	319423	243929	4542	304	2424	344	151710	1176970	7614
103	2015-08-12 02:34:16	0	0	0	0	0	0	12.96	1.42	0.31	320110	0	75665	197833	320110	244445	4550	304	2426	345	152486	1176973	7625
104	2015-08-12 02:40:23	0	0	0	0	0	0	12.96	1.42	0.31	320110	0	75665	197833	320110	244445	4550	304	2426	345	152486	1176971	7625
105	2015-08-12 02:46:17	0	0	0	0	0	0	13	1.42	0.31	320742	0	75826	198334	320742	244916	4559	304	2427	346	153025	1176972	7636
106	2015-08-12 02:52:16	0	0	0	0	0	0	13	1.42	0.31	320742	0	75826	198334	320742	244916	4559	304	2427	346	153025	1176969	7636
107	2015-08-12 02:58:13	0	0	0	0	0	0	13	1.42	0.31	321222	0	75930	198334	321222	245292	4569	304	2430	346	153025	1176974	7649
108	2015-08-12 03:04:13	0	0	0	0	0	0	13	1.42	0.31	321222	0	75930	198334	321222	245292	4569	304	2430	346	153025	1176971	7649
109	2015-08-12 03:10:16	0	0	0	0	0	0	13.04	1.42	0.31	321675	0	76048	198639	321675	245627	4577	304	2431	348	153450	1176973	7660
110	2015-08-12 03:16:17	0	0	0	0	0	0	13.04	1.42	0.31	321675	0	76048	198639	321675	245627	4577	304	2431	348	153450	1176972	7660
111	2015-08-12 03:22:15	0	0	0	0	0	0	13.06	1.42	0.31	322100	0	76179	199125	322100	245921	4584	304	2434	351	153755	1176972	7673
112	2015-08-12 03:28:14	0	0	0	0	0	0	13.06	1.42	0.31	322100	0	76179	199125	322100	245921	4584	304	2434	351	153755	1176970	7673
113	2015-08-12 03:34:13	0	0	0	0	0	0	13.07	1.42	0.31	322444	0	76284	199986	322444	246160	4588	304	2434	351	153869	1176972	7677
114	2015-08-12 03:40:28	0	0	0	0	0	0	13.07	1.42	0.31	322444	0	76284	199986	322444	246160	4588	304	2434	351	153869	1176969	7677
115	2015-08-12 03:46:14	0	0	0	0	0	0	13.08	1.42	0.31	322717	0	76351	200297	322717	246366	4590	304	2435	351	153992	1176973	7680
116	2015-08-12 03:52:13	0	0	0	0	0	0	13.08	1.42	0.31	322717	0	76351	200297	322717	246366	4590	304	2435	351	153992	1176968	7680
117	2015-08-12 03:58:15	0	0	0	0	0	0	13.09	1.42	0.31	323118	0	76455	200427	323118	246663	4593	304	2439	352	154068	1176969	7688
118	2015-08-12 04:04:13	0	0	0	0	0	0	13.09	1.42	0.31	323118	0	76455	200427	323118	246663	4593	304	2439	352	154068	1176970	7688
119	2015-08-12 04:10:14	0	0	0	0	0	0	13.1	1.42	0.31	323417	0	76529	200634	323417	246888	4601	305	2444	352	154191	1176971	7702
120	2015-08-12 04:16:15	0	0	0	0	0	0	13.1	1.42	0.31	323417	0	76529	200634	323417	246888	4601	305	2444	352	154191	1176968	7702
121	2015-08-12 04:22:14	0	0	0	0	0	0	13.12	1.42	0.31	323653	0	76596	200921	323653	247057	4603	305	2444	352	154360	1176966	7704
122	2015-08-12 04:28:21	0	0	0	0	0	0	13.12	1.42	0.31	323653	0	76596	200921	323653	247057	4603	305	2444	352	154360	1176960	7704
123	2015-08-12 04:34:17	0	0	0	0	0	0	13.15	1.42	0.31	323759	0	76627	201022	323759	247132	4605	305	2445	352	154823	1176960	7707
124	2015-08-12 04:40:15	0	0	0	0	0	0	13.15	1.42	0.31	323759	0	76627	201022	323759	247132	4605	305	2445	352	154823	1176958	7707
125	2015-08-12 04:46:14	0	0	0	0	0	0	13.15	1.42	0.31	323998	0	76701	201022	323998	247297	4606	305	2445	352	154823	1176962	7708
126	2015-08-12 04:52:13	0	0	0	0	0	0	13.15	1.42	0.31	323998	0	76701	201022	323998	247297	4606	305	2445	352	154823	1176961	7708
127	2015-08-12 04:58:14	0	0	0	0	0	0	13.15	1.42	0.31	324236	0	76776	201022	324236	247460	4609	305	2446	352	154823	1176964	7712
128	2015-08-12 05:04:15	0	0	0	0	0	0	13.15	1.42	0.31	324236	0	76776	201022	324236	247460	4609	305	2446	352	154823	1176960	7712
129	2015-08-12 05:10:38	0	0	0	0	0	0	13.16	1.42	0.31	324523	0	76876	201126	324523	247647	4611	305	2448	352	154947	1176964	7716
130	2015-08-12 05:16:13	0	0	0	0	0	0	13.16	1.42	0.31	324523	0	76876	201126	324523	247647	4611	305	2448	352	154947	1176962	7716
131	2015-08-12 05:22:15	0	0	0	0	0	0	13.21	1.42	0.31	324790	0	76953	201126	324790	247837	4613	306	2449	352	155445	1176964	7720
132	2015-08-12 05:28:15	0	0	0	0	0	0	13.21	1.42	0.31	324790	0	76953	201126	324790	247837	4613	306	2449	352	155445	1176963	7720
133	2015-08-12 05:34:14	0	0	0	0	0	0	13.21	1.42	0.31	325102	0	77062	201126	325102	248040	4619	306	2452	352	155445	1176963	7729
134	2015-08-12 05:40:19	0	0	0	0	0	0	13.21	1.42	0.31	325102	0	77062	201126	325102	248040	4619	306	2452	352	155445	1176962	7729
135	2015-08-12 05:46:14	0	0	0	0	0	0	13.21	1.42	0.31	325405	0	77167	201126	325405	248238	4624	306	2452	352	155445	1176963	7734
136	2015-08-12 05:52:18	0	0	0	0	0	0	13.21	1.42	0.31	325405	0	77167	201126	325405	248238	4624	306	2452	352	155445	1176963	7734
137	2015-08-12 05:58:15	0	0	0	0	0	0	13.21	1.42	0.31	325771	0	77285	201126	325771	248486	4627	307	2454	352	155445	1176964	7740
138	2015-08-12 06:04:15	0	0	0	0	0	0	13.21	1.42	0.31	325771	0	77285	201126	325771	248486	4627	307	2454	352	155445	1176964	7740
139	2015-08-12 06:10:19	0	0	0	0	0	0	13.24	1.42	0.31	326219	0	77447	201624	326219	248772	4632	308	2455	353	155805	1176965	7748
140	2015-08-12 06:16:19	0	0	0	0	0	0	13.24	1.42	0.31	326219	0	77447	201624	326219	248772	4632	308	2455	353	155805	1176965	7748
141	2015-08-12 06:22:19	0	0	0	0	0	0	13.28	1.42	0.31	326701	0	77609	202570	326701	249092	4636	309	2458	353	156306	1176966	7756
142	2015-08-12 06:28:17	0	0	0	0	0	0	13.28	1.42	0.31	326701	0	77609	202570	326701	249092	4636	309	2458	353	156306	1176964	7756
143	2015-08-12 06:34:17	0	0	0	0	0	0	13.29	1.42	0.31	326973	0	77694	202862	326973	249279	4637	309	2459	353	156417	1176966	7758
144	2015-08-12 06:40:26	0	0	0	0	0	0	13.29	1.42	0.31	326973	0	77694	202862	326973	249279	4637	309	2459	353	156417	1176965	7758
145	2015-08-12 06:46:15	0	0	0	0	0	0	13.31	1.42	0.31	327619	0	77927	203275	327619	249692	4645	309	2464	353	156662	1176967	7771
146	2015-08-12 06:52:17	0	0	0	0	0	0	13.31	1.42	0.31	327619	0	77927	203275	327619	249692	4645	309	2464	353	156662	1176967	7771
147	2015-08-12 06:58:22	0	0	0	0	0	0	13.32	1.42	0.31	328263	0	78164	203482	328263	250099	4654	309	2467	353	156785	1176970	7783
148	2015-08-12 07:04:24	0	0	0	0	0	0	13.32	1.42	0.31	328263	0	78164	203482	328263	250099	4654	309	2467	353	156785	1176964	7783
149	2015-08-12 07:10:16	0	0	0	0	0	0	13.33	1.42	0.31	328971	0	78426	203683	328971	250545	4659	311	2470	354	156904	1176966	7794
150	2015-08-12 07:16:21	0	0	0	0	0	0	13.33	1.42	0.31	328971	0	78426	203683	328971	250545	4659	311	2470	354	156904	1176966	7794
151	2015-08-12 07:22:16	0	0	0	0	0	0	13.35	1.42	0.31	329737	0	78704	203764	329737	251033	4668	312	2474	354	157143	1176970	7808
152	2015-08-12 07:28:27	0	0	0	0	0	0	13.35	1.42	0.31	329737	0	78704	203764	329737	251033	4668	312	2474	354	157143	1176962	7808
153	2015-08-12 07:34:18	0	0	0	0	0	0	13.37	1.41	0.31	330608	0	79008	204099	330608	251600	4677	313	2477	354	157383	1176966	7821
154	2015-08-12 07:40:20	0	0	0	0	0	0	13.37	1.41	0.31	330608	0	79008	204099	330608	251600	4677	313	2477	354	157383	1176965	7821
155	2015-08-12 07:46:16	0	0	0	0	0	0	13.39	1.42	0.31	331530	0	79322	204639	331530	252208	4693	314	2483	355	157543	1176970	7845
156	2015-08-12 07:52:16	0	0	0	0	0	0	13.39	1.42	0.31	331530	0	79322	204639	331530	252208	4693	314	2483	355	157543	1176970	7845
157	2015-08-12 07:58:16	0	0	0	0	0	0	13.46	1.41	0.32	332617	0	79701	205887	332617	252916	4699	314	2485	355	158411	1176977	7853
158	2015-08-12 08:04:18	0	0	0	0	0	0	13.46	1.41	0.32	332617	0	79701	205887	332617	252916	4699	314	2485	355	158411	1176965	7853
159	2015-08-12 08:10:28	0	0	0	0	0	0	13.49	1.41	0.32	333888	0	80160	206402	333888	253728	4708	316	2493	356	158724	1176970	7873
160	2015-08-12 08:16:21	0	0	0	0	0	0	13.49	1.41	0.32	333888	0	80160	206402	333888	253728	4708	316	2493	356	158724	1176970	7873
161	2015-08-12 08:22:15	0	0	0	0	0	0	13.49	1.41	0.32	335145	0	80594	206553	335145	254551	4729	318	2498	357	158789	1176980	7902
162	2015-08-12 08:28:17	0	0	0	0	0	0	13.49	1.41	0.32	335145	0	80594	206553	335145	254551	4729	318	2498	357	158789	1176972	7902
163	2015-08-12 08:34:20	0	0	0	0	0	0	13.52	1.41	0.32	336404	0	81041	207599	336404	255363	4748	321	2511	357	159079	1176976	7937
164	2015-08-12 08:40:23	0	0	0	0	0	0	13.52	1.41	0.32	336404	0	81041	207599	336404	255363	4748	321	2511	357	159079	1176972	7937
165	2015-08-12 08:46:17	0	0	0	0	0	0	13.58	1.41	0.32	337712	0	81510	208352	337712	256202	4761	323	2528	359	159818	1176977	7971
166	2015-08-12 08:52:19	0	0	0	0	0	0	13.58	1.41	0.32	337712	0	81510	208352	337712	256202	4761	323	2528	359	159818	1176972	7971
167	2015-08-12 08:58:20	0	0	0	0	0	0	13.65	1.41	0.32	339133	0	82015	209055	339133	257118	4774	324	2541	360	160697	1176976	7999
168	2015-08-12 09:04:16	0	0	0	0	0	0	13.65	1.41	0.32	339133	0	82015	209055	339133	257118	4774	324	2541	360	160697	1176971	7999
169	2015-08-12 09:10:16	0	0	0	0	0	0	13.67	1.4	0.32	340523	0	82254	210115	340523	257561	4781	325	2544	360	160931	1176975	8010
170	2015-08-12 09:16:16	0	0	0	0	0	0	13.67	1.4	0.32	340523	0	82254	210115	340523	257561	4781	325	2544	360	160931	1176969	8010
171	2015-08-12 09:22:16	0	0	0	0	0	0	13.69	1.41	0.32	341229	0	82799	210115	341229	258430	4802	327	2550	360	161157	1176978	8039
172	2015-08-12 09:28:13	0	0	0	0	0	0	13.69	1.41	0.32	341229	0	82799	210115	341229	258430	4802	327	2550	360	161157	1176975	8039
173	2015-08-12 09:34:15	0	0	0	0	0	0	13.73	1.41	0.32	342683	0	83380	210444	342683	259303	4829	327	2560	360	161586	1176980	8076
174	2015-08-12 09:40:14	0	0	0	0	0	0	13.73	1.41	0.32	342683	0	83380	210444	342683	259303	4829	327	2560	360	161586	1176977	8076
175	2015-08-12 09:46:22	0	0	0	0	0	0	13.75	1.41	0.32	344191	0	83955	211172	344191	260236	4847	329	2564	362	161882	1176985	8102
176	2015-08-12 09:52:19	0	0	0	0	0	0	13.75	1.41	0.32	344191	0	83955	211172	344191	260236	4847	329	2564	362	161882	1176972	8102
177	2015-08-12 09:58:20	0	0	0	0	0	0	13.79	1.41	0.32	345486	0	84460	212207	345486	261026	4865	332	2575	362	162289	1176977	8134
178	2015-08-12 10:04:16	0	0	0	0	0	0	13.79	1.41	0.32	345486	0	84460	212207	345486	261026	4865	332	2575	362	162289	1176973	8134
179	2015-08-12 10:10:16	0	0	0	0	0	0	13.82	1.41	0.32	346837	0	85009	213050	346837	261828	4884	335	2586	362	162628	1176979	8167
180	2015-08-12 10:16:16	0	0	0	0	0	0	13.82	1.41	0.32	346837	0	85009	213050	346837	261828	4884	335	2586	362	162628	1176972	8167
181	2015-08-12 10:22:14	0	0	0	0	0	0	13.86	1.41	0.33	348071	0	85507	213815	348071	262564	4899	338	2594	364	163176	1176981	8195
182	2015-08-12 10:28:14	0	0	0	0	0	0	13.86	1.41	0.33	348071	0	85507	213815	348071	262564	4899	338	2594	364	163176	1176967	8195
183	2015-08-12 10:34:15	0	0	0	0	0	0	13.93	1.41	0.33	349358	0	86005	215745	349358	263353	4922	339	2602	367	163954	1176978	8230
184	2015-08-12 10:40:15	0	0	0	0	0	0	13.93	1.41	0.33	349358	0	86005	215745	349358	263353	4922	339	2602	367	163954	1176968	8230
185	2015-08-12 10:46:16	0	0	0	0	0	0	13.94	1.41	0.33	350750	0	86555	216136	350750	264195	4943	341	2608	368	164093	1176981	8260
186	2015-08-12 10:52:20	0	0	0	0	0	0	13.94	1.41	0.33	350750	0	86555	216136	350750	264195	4943	341	2608	368	164093	1176968	8260
187	2015-08-12 10:58:15	0	0	0	0	0	0	14.05	1.41	0.33	352159	0	87103	217539	352159	265056	4971	343	2622	368	165368	1176976	8304
188	2015-08-12 11:04:16	0	0	0	0	0	0	14.05	1.41	0.33	352159	0	87103	217539	352159	265056	4971	343	2622	368	165368	1176967	8304
189	2015-08-12 11:10:15	0	0	0	0	0	0	14.06	1.41	0.33	353434	0	87655	218029	353434	265779	4986	343	2637	368	165509	1176976	8334
190	2015-08-12 11:16:14	0	0	0	0	0	0	14.06	1.41	0.33	353434	0	87655	218029	353434	265779	4986	343	2637	368	165509	1176968	8334
191	2015-08-12 11:22:13	0	0	0	0	0	0	14.15	1.41	0.33	354592	0	88149	218614	354592	266443	4995	346	2652	369	166560	1176984	8362
192	2015-08-12 11:28:15	0	0	0	0	0	0	14.15	1.41	0.33	354592	0	88149	218614	354592	266443	4995	346	2652	369	166560	1176980	8362
193	2015-08-12 11:34:13	0	0	0	0	0	0	14.18	1.41	0.33	355822	0	88664	219856	355822	267158	5005	346	2656	375	166883	1176989	8382
194	2015-08-12 11:40:16	0	0	0	0	0	0	14.18	1.41	0.33	355822	0	88664	219856	355822	267158	5005	346	2656	375	166883	1176969	8382
195	2015-08-12 11:46:15	0	0	0	0	0	0	14.2	1.41	0.33	356832	0	89090	220012	356832	267742	5026	346	2666	375	167117	1176972	8413
196	2015-08-12 11:52:16	0	0	0	0	0	0	14.2	1.41	0.33	356832	0	89090	220012	356832	267742	5026	346	2666	375	167117	1176973	8413
197	2015-08-12 11:58:19	0	0	0	0	0	0	14.25	1.41	0.33	357931	0	89515	220796	357931	268416	5038	346	2673	378	167769	1176983	8435
198	2015-08-12 12:04:14	0	0	0	0	0	0	14.25	1.41	0.33	357931	0	89515	220796	357931	268416	5038	346	2673	378	167769	1176970	8435
199	2015-08-12 12:10:12	0	0	0	0	0	0	14.3	1.41	0.33	358997	0	89924	221840	358997	269073	5053	348	2680	379	168335	1176976	8460
200	2015-08-12 12:16:13	0	0	0	0	0	0	14.3	1.41	0.33	358997	0	89924	221840	358997	269073	5053	348	2680	379	168335	1176970	8460
201	2015-08-12 12:16:40	0	0	0	0	0	0	14.3	1.41	0.33	358997	0	89924	221840	358997	269073	5053	348	2680	379	168335	1176970	8460
202	2015-08-12 12:22:40	0	0	0	0	0	0	14.35	1.41	0.33	360004	0	90328	222790	360004	269676	5071	348	2685	379	168881	1176985	8483
203	2015-08-12 12:28:38	0	0	0	0	0	0	14.35	1.41	0.33	360004	0	90328	222790	360004	269676	5071	348	2685	379	168881	1176969	8483
204	2015-08-12 12:34:40	0	0	0	0	0	0	14.41	1.41	0.34	360938	0	90686	224112	360938	270252	5083	348	2691	379	169640	1176977	8501
205	2015-08-12 12:40:39	0	0	0	0	0	0	14.41	1.41	0.34	360938	0	90686	224112	360938	270252	5083	348	2691	379	169640	1176967	8501
206	2015-08-12 12:46:39	0	0	0	0	0	0	14.42	1.41	0.34	361875	0	91068	224307	361875	270807	5095	350	2702	379	169751	1176978	8526
207	2015-08-12 12:52:41	0	0	0	0	0	0	14.42	1.41	0.34	361875	0	91068	224307	361875	270807	5095	350	2702	379	169751	1176969	8526
208	2015-08-12 12:58:39	0	0	0	0	0	0	14.44	1.41	0.34	363236	0	91623	224731	363236	271613	5110	352	2718	380	169900	1176980	8560
209	2015-08-12 13:04:39	0	0	0	0	0	0	14.44	1.41	0.34	363236	0	91623	224731	363236	271613	5110	352	2718	380	169900	1176961	8560
210	2015-08-12 13:10:40	0	0	0	0	0	0	14.48	1.41	0.34	364301	0	92089	226407	364301	272212	5123	352	2718	381	170405	1176968	8574
211	2015-08-12 13:16:40	0	0	0	0	0	0	14.48	1.41	0.34	364301	0	92089	226407	364301	272212	5123	352	2718	381	170405	1176965	8574
212	2015-08-12 13:22:42	0	0	0	0	0	0	14.48	1.41	0.34	365234	0	92458	226904	365234	272776	5145	353	2730	382	170405	1176984	8610
213	2015-08-12 13:28:40	0	0	0	0	0	0	14.48	1.41	0.34	365234	0	92458	226904	365234	272776	5145	353	2730	382	170405	1176967	8610
214	2015-08-12 13:34:41	0	0	0	0	0	0	14.49	1.41	0.34	365720	0	92675	226971	365720	273045	5153	353	2732	382	170593	1176974	8620
215	2015-08-12 13:40:40	0	0	0	0	0	0	14.49	1.41	0.34	365720	0	92675	226971	365720	273045	5153	353	2732	382	170593	1176964	8620
216	2015-08-12 13:46:41	0	0	0	0	0	0	14.52	1.41	0.34	366715	0	93139	227504	366715	273576	5169	355	2737	382	170932	1176979	8643
217	2015-08-12 13:52:31	0	0	0	0	0	0	14.53	1.41	0.34	367165	0	93329	227571	367165	273836	5176	355	2738	382	170970	1176967	8651
218	2015-08-12 13:58:29	0	0	0	0	0	0	14.53	1.41	0.34	367165	0	93329	227571	367165	273836	5176	355	2738	382	170970	1176976	8651
219	2015-08-12 14:04:31	0	0	0	0	0	0	14.54	1.41	0.34	368112	0	93719	227919	368112	274393	5186	356	2745	383	171166	1176971	8670
220	2015-08-12 14:10:30	0	0	0	0	0	0	14.54	1.41	0.34	368112	0	93719	227919	368112	274393	5186	356	2745	383	171166	1176978	8670
221	2015-08-12 14:16:30	0	0	0	0	0	0	14.54	1.41	0.34	368943	0	94045	228053	368943	274898	5196	356	2752	383	171166	1176969	8687
222	2015-08-12 14:22:29	0	0	0	0	0	0	14.56	1.41	0.34	369403	0	94253	228356	369403	275150	5202	356	2753	383	171336	1176970	8694
223	2015-08-12 14:28:29	0	0	0	0	0	0	14.56	1.41	0.34	369403	0	94253	228356	369403	275150	5202	356	2753	383	171336	1176966	8694
224	2015-08-12 14:34:30	0	0	0	0	0	0	14.56	1.41	0.34	370217	0	94595	228473	370217	275622	5218	358	2757	384	171403	1176972	8717
225	2015-08-12 14:40:32	0	0	0	0	0	0	14.6	1.41	0.34	370217	0	94789	229728	370217	275882	5225	358	2759	384	171879	1176985	8726
226	2015-08-12 14:46:29	0	0	0	0	0	0	14.62	1.41	0.34	371179	0	95038	229728	371179	276141	5235	359	2762	384	172070	1176960	8740
227	2015-08-12 14:52:29	0	0	0	0	0	0	14.63	1.41	0.34	371500	0	95167	229728	371500	276333	5237	359	2765	384	172146	1176974	8745
228	2015-08-12 14:58:30	0	0	0	0	0	0	14.63	1.41	0.34	371925	0	95363	229933	371925	276562	5241	359	2767	384	172146	1176963	8751
229	2015-08-12 15:04:31	0	0	0	0	0	0	14.64	1.41	0.35	371925	0	95544	230609	371925	276775	5244	359	2768	384	172295	1176964	8755
230	2015-08-12 15:10:30	0	0	0	0	0	0	14.64	1.41	0.35	372716	0	95544	230609	372716	276775	5244	359	2768	384	172295	1176969	8755
231	2015-08-12 15:16:29	0	0	0	0	0	0	14.67	1.41	0.35	372716	0	95848	231367	372716	277174	5254	359	2778	385	172640	1176967	8776
232	2015-08-12 15:22:30	0	0	0	0	0	0	14.67	1.41	0.35	373439	0	95848	231367	373439	277174	5254	359	2778	385	172640	1176978	8776
233	2015-08-12 15:28:30	0	0	0	0	0	0	14.7	1.41	0.35	373439	0	96205	231575	373439	277580	5268	361	2782	385	172988	1176968	8796
234	2015-08-12 15:34:29	0	0	0	0	0	0	14.7	1.41	0.35	374179	0	96205	231575	374179	277580	5268	361	2782	385	172988	1176973	8796
235	2015-08-12 15:40:30	0	0	0	0	0	0	14.72	1.41	0.35	374179	0	96572	231610	374179	277972	5283	361	2786	386	173297	1176974	8816
236	2015-08-12 15:46:31	0	0	0	0	0	0	14.72	1.41	0.35	374898	0	96572	231610	374898	277972	5283	361	2786	386	173297	1176979	8816
237	2015-08-12 15:52:32	0	0	0	0	0	0	14.73	1.41	0.35	374898	0	96945	231902	374898	278339	5294	361	2791	387	173374	1176967	8833
238	2015-08-12 15:58:32	0	0	0	0	0	0	14.73	1.41	0.35	375645	0	96945	231902	375645	278339	5294	361	2791	387	173374	1176975	8833
239	2015-08-12 16:04:32	0	0	0	0	0	0	14.73	1.41	0.35	375645	0	97273	232041	375645	278736	5300	363	2797	388	173374	1176967	8848
240	2015-08-12 16:10:42	0	0	0	0	0	0	14.73	1.41	0.35	376299	0	97273	232041	376299	278736	5300	363	2797	388	173374	1176979	8848
241	2015-08-12 16:16:43	0	0	0	0	0	0	14.74	1.41	0.35	376299	0	97572	232250	376299	279058	5309	363	2798	390	173490	1176981	8860
242	2015-08-12 16:22:42	0	0	0	0	0	0	14.74	1.41	0.35	376941	0	97572	232250	376941	279058	5309	363	2798	390	173490	1176990	8860
243	2015-08-12 16:28:41	0	0	0	0	0	0	14.74	1.41	0.35	376941	0	97854	232520	376941	279396	5316	363	2804	394	173490	1176972	8877
244	2015-08-12 16:34:40	0	0	0	0	0	0	14.74	1.41	0.35	377530	0	97854	232520	377530	279396	5316	363	2804	394	173490	1176980	8877
245	2015-08-12 16:40:41	0	0	0	0	0	0	14.76	1.41	0.35	377530	0	98121	232520	377530	279693	5322	363	2811	405	173724	1176973	8901
246	2015-08-12 16:46:42	0	0	0	0	0	0	14.76	1.41	0.35	378136	0	98121	232520	378136	279693	5322	363	2811	405	173724	1176979	8901
247	2015-08-12 16:52:42	0	0	0	0	0	0	14.77	1.41	0.35	378136	0	98416	232826	378136	280024	5327	363	2818	406	173880	1176971	8914
248	2015-08-12 16:58:42	0	0	0	0	0	0	14.77	1.41	0.35	378799	0	98416	232826	378799	280024	5327	363	2818	406	173880	1176979	8914
249	2015-08-12 17:04:42	0	0	0	0	0	0	14.77	1.41	0.35	378799	0	98716	233195	378799	280363	5341	363	2820	407	173880	1176969	8931
250	2015-08-12 17:10:40	0	0	0	0	0	0	14.77	1.41	0.35	379388	0	98716	233195	379388	280363	5341	363	2820	407	173880	1176980	8931
251	2015-08-12 17:16:42	0	0	0	0	0	0	14.77	1.41	0.35	379388	0	98976	233195	379388	280673	5345	363	2823	411	173880	1176967	8942
252	2015-08-12 17:22:43	0	0	0	0	0	0	14.77	1.41	0.35	379907	0	98976	233195	379907	280673	5345	363	2823	411	173880	1176981	8942
253	2015-08-12 17:28:40	0	0	0	0	0	0	14.81	1.41	0.35	379907	0	99226	233441	379907	280961	5350	364	2826	412	174330	1176962	8952
254	2015-08-12 17:34:42	0	0	0	0	0	0	14.81	1.41	0.35	380452	0	99226	233441	380452	280961	5350	364	2826	412	174330	1176969	8952
255	2015-08-12 17:40:43	0	0	0	0	0	0	14.81	1.41	0.35	380452	0	99504	233441	380452	281224	5356	364	2829	413	174330	1176959	8962
256	2015-08-12 17:46:44	0	0	0	0	0	0	14.81	1.41	0.35	381040	0	99504	233441	381040	281224	5356	364	2829	413	174330	1176969	8962
257	2015-08-12 17:52:46	0	0	0	0	0	0	14.85	1.41	0.35	381040	0	99778	233502	381040	281532	5360	364	2833	415	174803	1176960	8972
258	2015-08-12 17:58:46	0	0	0	0	0	0	14.85	1.4	0.35	381612	0	99778	233502	381612	281532	5360	364	2833	415	174803	1176970	8972
259	2015-08-14 09:42:18	0	0	0	0	0	0	15.21	1.4	0.39	402694	0	111988	244983	402694	290706	5639	380	2969	450	179358	1178897	9438
260	2015-08-14 09:48:19	0	0	0	0	0	0	15.21	1.4	0.39	402694	0	111988	244983	402694	290706	5639	380	2969	450	179358	1178900	9438
261	2015-08-14 09:54:16	0	0	0	0	0	0	15.21	1.4	0.39	402703	0	111995	244983	402703	290708	5639	380	2969	450	179358	1178901	9438
262	2015-08-14 10:00:16	0	0	0	0	0	0	15.21	1.4	0.39	402703	0	111995	244983	402703	290708	5639	380	2969	450	179358	1178903	9438
263	2015-08-14 10:06:18	0	0	0	0	0	0	15.21	1.4	0.39	402713	0	112003	244983	402713	290710	5639	380	2969	450	179358	1178900	9438
264	2015-08-14 10:12:16	0	0	0	0	0	0	15.21	1.4	0.39	402713	0	112003	244983	402713	290710	5639	380	2969	450	179358	1178905	9438
265	2015-08-14 10:18:21	0	0	0	0	0	0	15.21	1.4	0.39	402722	0	112011	244983	402722	290711	5639	380	2969	450	179358	1178899	9438
266	2015-08-14 10:24:16	0	0	0	0	0	0	15.21	1.4	0.39	402722	0	112011	244983	402722	290711	5639	380	2969	450	179358	1178909	9438
267	2015-08-14 10:30:17	0	0	0	0	0	0	15.21	1.4	0.39	402739	0	112027	244983	402739	290712	5640	380	2969	450	179358	1178901	9439
268	2015-08-14 10:36:16	0	0	0	0	0	0	15.21	1.4	0.39	402739	0	112027	244983	402739	290712	5640	380	2969	450	179358	1178900	9439
269	2015-08-14 10:42:16	0	0	0	0	0	0	15.21	1.4	0.39	402753	0	112039	244983	402753	290714	5640	380	2969	450	179358	1178901	9439
270	2015-08-14 10:48:15	0	0	0	0	0	0	15.21	1.4	0.39	402753	0	112039	244983	402753	290714	5640	380	2969	450	179358	1178904	9439
271	2015-08-14 10:54:13	0	0	0	0	0	0	15.21	1.4	0.39	402759	0	112044	244983	402759	290715	5640	380	2969	450	179358	1178901	9439
272	2015-08-14 11:00:14	0	0	0	0	0	0	15.21	1.4	0.39	402759	0	112044	244983	402759	290715	5640	380	2969	450	179358	1178905	9439
273	2015-08-14 11:06:16	0	0	0	0	0	0	15.21	1.4	0.39	402766	0	112049	244983	402766	290717	5640	380	2969	450	179358	1178897	9439
274	2015-08-14 11:12:15	0	0	0	0	0	0	15.21	1.4	0.39	402766	0	112049	244983	402766	290717	5640	380	2969	450	179358	1178899	9439
275	2015-08-14 11:18:22	0	0	0	0	0	0	15.21	1.4	0.39	402777	0	112057	244983	402777	290720	5641	380	2969	450	179358	1178898	9440
276	2015-08-14 11:24:16	0	0	0	0	0	0	15.21	1.4	0.39	402777	0	112057	244983	402777	290720	5641	380	2969	450	179358	1178896	9440
277	2015-08-14 11:30:17	0	0	0	0	0	0	15.21	1.4	0.39	402790	0	112064	244983	402790	290726	5641	380	2969	450	179358	1178899	9440
278	2015-08-14 11:36:21	0	0	0	0	0	0	15.21	1.4	0.39	402790	0	112064	244983	402790	290726	5641	380	2969	450	179358	1178900	9440
279	2015-08-14 11:42:27	0	0	0	0	0	0	15.21	1.4	0.39	402800	0	112070	245216	402800	290730	5642	380	2969	450	179358	1178896	9441
280	2015-08-14 11:48:29	0	0	0	0	0	0	15.21	1.4	0.39	402800	0	112070	245216	402800	290730	5642	380	2969	450	179358	1178897	9441
281	2015-08-14 11:54:24	0	0	0	0	0	0	15.21	1.4	0.39	402808	0	112075	245216	402808	290733	5642	380	2969	450	179358	1178897	9441
282	2015-08-14 12:00:26	0	0	0	0	0	0	15.21	1.4	0.39	402808	0	112075	245216	402808	290733	5642	380	2969	450	179358	1178900	9441
283	2015-08-14 12:06:24	0	0	0	0	0	0	15.21	1.4	0.39	402811	0	112077	245216	402811	290734	5643	380	2969	450	179358	1178897	9442
284	2015-08-14 12:12:14	0	0	0	0	0	0	15.21	1.4	0.39	402811	0	112077	245216	402811	290734	5643	380	2969	450	179358	1178898	9442
285	2015-08-14 12:18:15	0	0	0	0	0	0	15.21	1.4	0.39	402818	0	112083	245216	402818	290735	5643	380	2970	450	179358	1178897	9443
286	2015-08-14 12:24:14	0	0	0	0	0	0	15.21	1.4	0.39	402818	0	112083	245216	402818	290735	5643	380	2970	450	179358	1178899	9443
287	2015-08-14 12:30:16	0	0	0	0	0	0	15.21	1.4	0.39	402824	0	112086	245216	402824	290738	5643	380	2970	450	179358	1178898	9443
288	2015-08-14 12:36:16	0	0	0	0	0	0	15.21	1.4	0.39	402824	0	112086	245216	402824	290738	5643	380	2970	450	179358	1178898	9443
289	2015-08-14 12:42:16	0	0	0	0	0	0	15.21	1.4	0.39	402829	0	112089	245216	402829	290740	5644	380	2970	450	179358	1178902	9444
290	2015-08-14 12:48:16	0	0	0	0	0	0	15.21	1.4	0.39	402829	0	112089	245216	402829	290740	5644	380	2970	450	179358	1178906	9444
291	2015-08-14 12:54:28	0	0	0	0	0	0	15.21	1.4	0.39	402837	0	112094	245216	402837	290743	5644	380	2970	450	179358	1178906	9444
292	2015-08-14 13:00:16	0	0	0	0	0	0	15.21	1.4	0.39	402837	0	112094	245216	402837	290743	5644	380	2970	450	179358	1178912	9444
293	2015-08-14 13:06:21	0	0	0	0	0	0	15.21	1.4	0.39	402847	0	112101	245216	402847	290746	5644	380	2970	450	179358	1178903	9444
294	2015-08-14 13:12:16	0	0	0	0	0	0	15.21	1.4	0.39	402847	0	112101	245216	402847	290746	5644	380	2970	450	179358	1178904	9444
295	2015-08-14 13:18:15	0	0	0	0	0	0	15.21	1.4	0.39	402859	0	112108	245216	402859	290751	5644	380	2970	450	179358	1178906	9444
296	2015-08-14 13:24:16	0	0	0	0	0	0	15.21	1.4	0.39	402859	0	112108	245216	402859	290751	5644	380	2970	450	179358	1178908	9444
297	2015-08-14 13:30:16	0	0	0	0	0	0	15.21	1.4	0.39	402870	0	112117	245216	402870	290753	5644	380	2970	450	179358	1178903	9444
