1	2017-06-03 11:54:46	0	0	0	0	0	0	0	0	0	0	0	0	0	0	0	0	6	29	0	0	3107630	0
2	2017-06-03 12:05:30	0	0	0	0	0	0	1.36	0.63	0.02	50705	0	1231	43452	50705	49474	318	138	378	16	42218	3107660	850
3	2017-06-03 12:28:43	0	0	0	0	0	0	2.96	0.93	0.08	129963	0	9379	101421	129963	120584	1209	308	917	28	92144	3107770	2462
4	2017-06-03 12:45:43	0	0	0	0	0	0	3.56	0.98	0.1	165882	0	14777	127030	165882	151105	1627	376	1150	31	110710	3107846	3184
5	2017-06-03 13:01:23	0	0	0	0	0	0	4.15	1	0.11	196856	0	19977	149645	196856	176879	1975	432	1301	34	128927	3107907	3742
6	2017-06-03 13:10:50	0	0	0	0	0	0	4.47	1.02	0.12	214914	0	23205	163960	214914	191709	2193	460	1386	35	139067	3107940	4074
7	2017-06-03 13:31:23	0	0	0	0	0	0	4.9	1.04	0.14	245383	0	29254	183968	245383	216129	2543	506	1571	36	152424	3108014	4656
8	2017-06-03 13:55:57	0	0	0	0	0	0	5.4	1.04	0.15	274386	0	35297	204297	274386	239089	2862	580	1708	35	167803	3108081	5185
9	2017-06-03 14:23:57	0	0	0	0	0	0	5.82	1.04	0.16	301344	0	40690	223216	301344	260654	3137	614	1828	37	180958	3108171	5616
10	2017-06-03 14:38:33	0	0	0	0	0	0	5.97	1.04	0.16	310229	0	42365	227732	310229	267864	3230	628	1886	38	185579	3108213	5782
11	2017-06-03 14:58:37	0	0	0	0	0	0	6.21	1.05	0.16	329689	0	46239	241887	329689	283450	3472	656	1963	40	192950	3108299	6131
12	2017-06-03 15:12:42	0	0	0	0	0	0	6.36	1.04	0.17	341032	0	48467	245844	341032	292565	3556	666	2000	40	197630	3108347	6262
13	2017-06-03 15:23:13	0	0	0	0	0	0	6.45	1.04	0.17	348668	0	49916	251468	348668	298752	3639	686	2038	41	200402	3108383	6404
14	2017-06-03 15:45:40	0	0	0	0	0	0	6.7	1.04	0.17	367658	0	53417	261473	367658	314241	3823	708	2101	42	208271	3108437	6674
15	2017-06-03 15:55:15	0	0	0	0	0	0	6.81	1.04	0.17	375320	0	54939	267273	375320	320381	3898	714	2139	43	211782	3108467	6794
16	2017-06-03 16:07:43	0	0	0	0	0	0	6.94	1.04	0.17	382269	0	56210	272759	382269	326059	3979	724	2175	43	215879	3108514	6921
17	2017-06-03 16:17:41	0	0	0	0	0	0	7.09	1.04	0.17	389568	0	57560	278381	389568	332008	4053	730	2200	43	220307	3108570	7026
18	2017-06-03 16:32:12	0	0	0	0	0	0	7.24	1.04	0.17	400201	0	59450	285786	400201	340751	4177	748	2235	44	224964	3108651	7204
19	2017-06-03 17:04:58	0	0	0	0	0	0	7.61	1.04	0.18	423450	0	63674	304023	423450	359776	4395	788	2321	45	236533	3108801	7549
20	2017-06-03 17:14:51	0	0	0	0	0	0	7.74	1.04	0.18	429578	0	64816	308142	429578	364762	4466	806	2348	46	240513	3108828	7666
21	2017-06-03 17:28:33	0	0	0	0	0	0	7.85	1.04	0.18	435542	0	65936	314427	435542	369606	4520	820	2378	46	244123	3108891	7764
22	2017-06-03 17:39:45	0	0	0	0	0	0	7.96	1.04	0.18	444645	0	67581	318212	444645	377064	4615	830	2398	46	247412	3108933	7889
23	2017-06-03 18:41:28	0	0	0	0	0	0	8.49	1.03	0.18	480647	0	74138	338708	480647	406509	4952	882	2558	48	263880	3109174	8440
24	2017-06-03 18:50:54	0	0	0	0	0	0	8.57	1.03	0.18	486453	0	75111	342094	486453	411342	5014	886	2576	49	266411	3109205	8525
25	2017-06-03 19:08:29	0	0	0	0	0	0	8.74	1.03	0.18	494713	0	76529	348856	494713	418184	5100	898	2619	50	271717	3109267	8667
26	2017-06-03 19:18:05	0	0	0	0	0	0	8.88	1.03	0.18	499985	0	77438	353514	499985	422547	5152	912	2630	50	276002	3109299	8744
27	2017-06-03 19:35:52	0	0	0	0	0	0	9.06	1.03	0.18	510313	0	79163	359386	510313	431150	5260	920	2664	51	281629	3109377	8895
28	2017-06-03 20:19:00	0	0	0	0	0	0	9.5	1.03	0.18	530663	0	82455	373487	530663	448208	5477	952	2751	52	295490	3109543	9232
29	2017-06-03 20:28:26	0	0	0	0	0	0	9.55	1.03	0.18	535987	0	83339	376759	535987	452648	5499	960	2781	52	297049	3109589	9292
30	2017-06-03 20:44:05	0	0	0	0	0	0	9.72	1.03	0.19	543833	0	85142	383894	543833	459178	5582	976	2815	55	302165	3109652	9428
31	2017-06-03 21:13:54	0	0	0	0	0	0	9.95	1.02	0.18	560447	0	87426	391741	560447	473021	5703	994	2881	58	309302	3109777	9636
32	2017-06-03 21:23:56	0	0	0	0	0	0	10.07	1.02	0.18	565851	0	88283	394110	565851	477568	5775	1004	2895	59	313181	3109822	9733
33	2017-06-03 21:33:53	0	0	0	0	0	0	10.19	1.01	0.19	571539	0	89256	400553	571539	482283	5790	1012	2912	59	316887	3109864	9773
34	2017-06-03 22:02:14	0	0	0	0	0	0	10.35	1.01	0.19	587294	0	91959	411091	587294	495335	5928	1030	2971	61	322034	3109975	9990
35	2017-06-03 22:14:34	0	0	0	0	0	0	10.46	1.01	0.19	594650	0	93243	416426	594650	501407	5980	1038	2992	61	325247	3110011	10071
36	2017-06-03 23:34:09	0	0	0	0	0	0	11.17	1	0.19	633077	0	99845	441988	633077	533232	6341	1092	3144	63	347440	3110243	10640
37	2017-06-03 23:44:14	0	0	0	0	0	0	11.32	1	0.19	638057	0	100672	447772	638057	537385	6383	1096	3161	63	351942	3110279	10703
38	2017-06-04 00:24:42	0	0	0	0	0	0	11.6	1	0.19	657803	0	103647	458896	657803	554156	6553	1110	3240	63	360680	3110386	10966
39	2017-06-04 03:22:22	0	0	0	0	0	0	12.26	0.99	0.19	699285	0	109190	484928	699285	590095	6939	1156	3415	66	381477	3110640	11576
40	2017-06-04 05:44:54	0	0	0	0	0	0	12.38	0.99	0.18	710269	0	110668	490089	710269	599601	7031	1176	3460	67	385047	3110685	11734
41	2017-06-04 06:45:07	0	0	0	0	0	0	12.44	0.99	0.18	714909	0	111453	491758	714909	603525	7070	1176	3466	67	386848	3110722	11779
42	2017-06-04 07:07:29	0	0	0	0	0	0	12.44	0.99	0.18	717698	0	111814	492893	717698	605884	7081	1178	3473	67	386872	3110732	11799
43	2017-06-04 07:21:57	0	0	0	0	0	0	12.45	0.99	0.18	719832	0	112176	494270	719832	607656	7099	1180	3482	67	387235	3110753	11828
44	2017-06-04 07:40:56	0	0	0	0	0	0	12.46	0.98	0.18	723301	0	112784	495328	723301	610517	7121	1186	3494	67	387641	3110772	11868
45	2017-06-04 07:48:48	0	0	0	0	0	0	12.47	0.98	0.18	724231	0	112938	496758	724231	611293	7126	1186	3500	67	387932	3110785	11879
46	2017-06-04 07:59:02	0	0	0	0	0	0	12.5	0.98	0.18	726317	0	113282	498237	726317	613035	7140	1188	3501	67	388736	3110801	11896
47	2017-06-04 08:09:09	0	0	0	0	0	0	12.51	0.98	0.18	728524	0	113614	498397	728524	614910	7162	1190	3506	67	389029	3110814	11925
48	2017-06-04 08:23:06	0	0	0	0	0	0	12.57	0.98	0.18	732126	0	114229	501866	732126	617897	7187	1192	3517	67	390944	3110855	11963
49	2017-06-04 08:41:18	0	0	0	0	0	0	12.66	0.98	0.19	737347	0	115142	508289	737347	622205	7242	1202	3534	67	393752	3110899	12045
50	2017-06-04 12:01:52	0	0	0	0	0	0	13.71	0.99	0.19	795804	0	125890	546960	795804	669914	7839	1252	3735	72	426497	3111582	12898
51	2017-06-04 12:12:40	0	0	0	0	0	0	13.72	0.99	0.19	797584	0	126260	548073	797584	671324	7864	1258	3740	72	426938	3111637	12934
52	2017-06-04 12:22:52	0	0	0	0	0	0	13.74	0.99	0.19	799340	0	126623	548425	799340	672717	7881	1260	3750	72	427520	3111691	12963
53	2017-06-04 12:33:24	0	0	0	0	0	0	13.76	0.99	0.19	801077	0	127004	549301	801077	674073	7900	1262	3761	72	428289	3111758	12995
54	2017-06-04 13:26:39	0	0	0	0	0	0	13.84	0.99	0.19	809161	0	128862	550913	809161	680299	7979	1276	3784	73	430852	3112066	13112
55	2017-06-04 13:36:55	0	0	0	0	0	0	13.84	0.99	0.19	810542	0	129162	551797	810542	681380	7995	1278	3790	73	430852	3112110	13136
56	2017-06-04 13:47:05	0	0	0	0	0	0	13.85	0.99	0.19	811937	0	129400	551945	811937	682537	8008	1278	3792	73	431062	3112155	13151
57	2017-06-04 14:43:02	0	0	0	0	0	0	13.87	0.99	0.19	817336	0	130688	553622	817336	686648	8066	1282	3803	73	431843	3112439	13224
58	2017-06-04 14:53:12	0	0	0	0	0	0	13.89	0.99	0.19	818192	0	130891	554813	818192	687301	8072	1284	3807	73	432265	3112513	13236
59	2017-06-04 15:03:35	0	0	0	0	0	0	13.89	0.99	0.19	819027	0	131068	555609	819027	687959	8077	1284	3809	73	432265	3112591	13243
60	2017-06-04 16:42:52	0	0	0	0	0	0	13.95	0.98	0.19	826423	0	132739	559639	826423	693684	8128	1288	3818	73	434174	3113348	13307
61	2017-06-04 16:58:18	0	0	0	0	0	0	13.95	0.98	0.19	827435	0	132964	559639	827435	694471	8135	1288	3821	73	434174	3113473	13317
62	2017-06-04 17:08:48	0	0	0	0	0	0	13.94	0.98	0.19	828057	0	133095	559639	828057	694962	8139	1288	3822	73	434174	3113546	13322
63	2017-06-04 17:19:04	0	0	0	0	0	0	13.95	0.98	0.19	828755	0	133223	560245	828755	695532	8144	1288	3822	73	434418	3113631	13327
64	2017-06-04 17:37:56	0	0	0	0	0	0	13.95	0.98	0.19	830077	0	133517	560245	830077	696560	8151	1292	3826	73	434418	3113777	13342
65	2017-06-04 17:47:57	0	0	0	0	0	0	13.96	0.98	0.19	830766	0	133663	561261	830766	697103	8159	1292	3826	73	434662	3113848	13350
66	2017-06-04 17:58:16	0	0	0	0	0	0	13.96	0.98	0.19	831500	0	133795	561464	831500	697705	8162	1292	3827	73	434662	3113926	13354
67	2017-06-04 21:13:42	0	0	0	0	0	0	13.99	0.98	0.19	844139	0	136049	564922	844139	708090	8235	1302	3850	74	435755	3114797	13461
68	2017-06-04 21:22:46	0	0	0	0	0	0	14	0.98	0.19	844768	0	136157	565231	844768	708611	8239	1302	3850	74	436185	3114842	13465
69	2017-06-04 21:33:33	0	0	0	0	0	0	14	0.97	0.19	845425	0	136259	565231	845425	709166	8242	1302	3851	74	436185	3114901	13469
70	2017-06-04 21:44:00	0	0	0	0	0	0	14	0.97	0.19	846075	0	136363	565231	846075	709712	8244	1302	3852	74	436185	3114980	13472
71	2017-06-04 22:12:25	0	0	0	0	0	0	14.03	0.97	0.19	848050	0	136682	566203	848050	711368	8260	1302	3855	74	437045	3115161	13491
72	2017-06-04 22:23:27	0	0	0	0	0	0	14.03	0.97	0.19	848672	0	136761	566566	848672	711911	8264	1302	3855	74	437045	3115250	13495
73	2017-06-04 22:33:25	0	0	0	0	0	0	14.03	0.97	0.19	849274	0	136860	566566	849274	712414	8269	1302	3856	74	437045	3115317	13501
74	2017-06-04 22:43:30	0	0	0	0	0	0	14.03	0.97	0.19	849855	0	136968	566566	849855	712887	8271	1302	3858	74	437168	3115392	13505
75	2017-06-05 00:57:39	0	0	0	0	0	0	14.04	0.97	0.19	854665	0	137814	566955	854665	716851	8301	1302	3863	74	437400	3116236	13540
76	2017-06-05 02:02:09	0	0	0	0	0	0	14.04	0.97	0.19	855532	0	137960	566955	855532	717572	8307	1302	3866	74	437400	3116359	13549
77	2017-06-05 03:10:05	0	0	0	0	0	0	14.04	0.97	0.19	856069	0	138014	567163	856069	718055	8311	1302	3866	74	437523	3116407	13553
78	2017-06-05 06:04:36	0	0	0	0	0	0	14.04	0.97	0.19	858380	0	138133	567163	858380	720247	8315	1302	3867	74	437523	3116494	13558
79	2017-06-05 08:00:20	0	0	0	0	0	0	0	0	0	0	0	0	0	0	0	0	1302	0	0	0	0	0
80	2017-06-05 08:14:43	0	0	0	0	0	0	14.05	0.96	0.19	863356	0	138375	569353	863356	724981	8325	1302	3869	74	438018	3116763	13570
81	2017-06-05 11:56:08	0	0	0	0	0	0	14.05	0.96	0.19	872762	0	138920	570612	872762	733842	8344	1302	3875	74	438142	3118153	13595
82	2017-06-05 12:06:12	0	0	0	0	0	0	14.05	0.96	0.19	873167	0	138943	570691	873167	734224	8344	1302	3875	74	438142	3118212	13595
83	2017-06-05 12:16:10	0	0	0	0	0	0	14.05	0.96	0.19	873629	0	138961	570691	873629	734668	8345	1302	3875	74	438142	3118269	13596
84	2017-06-05 12:26:13	0	0	0	0	0	0	14.05	0.95	0.19	874233	0	138984	571059	874233	735249	8346	1302	3875	74	438142	3118332	13597
85	2017-06-05 12:36:16	0	0	0	0	0	0	14.05	0.95	0.19	874787	0	138998	571059	874787	735789	8347	1302	3875	74	438142	3118400	13598
86	2017-06-05 12:46:23	0	0	0	0	0	0	14.05	0.95	0.19	875397	0	139011	571059	875397	736386	8348	1302	3875	74	438142	3118446	13599
87	2017-06-05 12:56:32	0	0	0	0	0	0	14.05	0.95	0.19	875927	0	139024	571059	875927	736903	8348	1302	3875	74	438142	3118518	13599
88	2017-06-05 13:06:28	0	0	0	0	0	0	14.05	0.95	0.19	876398	0	139043	571059	876398	737355	8348	1302	3875	74	438142	3118587	13599
89	2017-06-05 13:16:16	0	0	0	0	0	0	14.05	0.95	0.19	876858	0	139061	571059	876858	737797	8348	1302	3875	74	438142	3118654	13599
90	2017-06-05 13:26:14	0	0	0	0	0	0	14.05	0.95	0.19	877344	0	139078	571059	877344	738266	8349	1302	3876	74	438142	3118704	13601
91	2017-06-05 13:36:15	0	0	0	0	0	0	14.05	0.95	0.19	877842	0	139095	571059	877842	738747	8352	1302	3876	74	438142	3118761	13604
92	2017-06-05 13:46:16	0	0	0	0	0	0	14.05	0.95	0.19	878345	0	139112	571059	878345	739233	8353	1302	3876	74	438142	3118840	13605
93	2017-06-05 13:56:15	0	0	0	0	0	0	14.05	0.95	0.19	878934	0	139133	571059	878934	739801	8354	1302	3876	74	438142	3118896	13606
94	2017-06-05 14:06:21	0	0	0	0	0	0	14.05	0.95	0.19	879541	0	139150	571217	879541	740391	8354	1302	3877	74	438142	3118972	13607
95	2017-06-05 14:16:15	0	0	0	0	0	0	14.05	0.95	0.19	880110	0	139167	571217	880110	740943	8355	1302	3877	74	438142	3119053	13608
96	2017-06-05 14:26:15	0	0	0	0	0	0	14.05	0.95	0.19	880687	0	139187	571217	880687	741500	8355	1302	3877	74	438142	3119128	13608
97	2017-06-05 14:36:14	0	0	0	0	0	0	14.05	0.95	0.19	881200	0	139202	571217	881200	741998	8356	1302	3877	74	438142	3119194	13609
98	2017-06-05 14:46:46	0	0	0	0	0	0	14.05	0.95	0.19	881679	0	139219	571428	881679	742460	8357	1302	3877	74	438142	3119267	13610
99	2017-06-05 14:56:35	0	0	0	0	0	0	14.05	0.95	0.19	882170	0	139230	571428	882170	742940	8359	1302	3877	74	438142	3119345	13612
100	2017-06-05 15:06:32	0	0	0	0	0	0	14.05	0.95	0.19	882631	0	139248	571428	882631	743383	8359	1302	3877	74	438142	3119418	13612
101	2017-06-05 15:16:26	0	0	0	0	0	0	14.05	0.95	0.19	883049	0	139256	571428	883049	743793	8359	1302	3877	74	438142	3119494	13612
102	2017-06-05 15:26:19	0	0	0	0	0	0	14.05	0.95	0.19	883521	0	139275	571428	883521	744246	8359	1302	3877	74	438142	3119557	13612
103	2017-06-05 15:36:19	0	0	0	0	0	0	14.04	0.95	0.19	883987	0	139284	571428	883987	744703	8359	1302	3877	74	438142	3119611	13612
104	2017-06-05 15:46:19	0	0	0	0	0	0	14.04	0.95	0.19	884407	0	139300	571428	884407	745107	8359	1302	3877	74	438142	3119673	13612
105	2017-06-05 15:56:21	0	0	0	0	0	0	14.04	0.94	0.19	884794	0	139321	571428	884794	745473	8359	1302	3877	74	438142	3119715	13612
106	2017-06-05 16:06:26	0	0	0	0	0	0	14.04	0.94	0.19	885186	0	139333	571428	885186	745853	8360	1302	3877	74	438142	3119765	13613
107	2017-06-05 16:16:20	0	0	0	0	0	0	14.04	0.94	0.19	885604	0	139348	572273	885604	746256	8360	1302	3877	74	438142	3119804	13613
108	2017-06-05 16:26:21	0	0	0	0	0	0	14.05	0.94	0.19	886022	0	139361	573014	886022	746661	8360	1302	3877	74	438391	3119856	13613
109	2017-06-05 16:36:19	0	0	0	0	0	0	14.05	0.94	0.19	886402	0	139373	573014	886402	747029	8360	1302	3877	74	438391	3119896	13613
110	2017-06-05 16:46:22	0	0	0	0	0	0	14.05	0.94	0.19	886802	0	139382	573014	886802	747420	8361	1302	3877	74	438391	3119930	13614
111	2017-06-05 16:56:30	0	0	0	0	0	0	14.05	0.94	0.19	887190	0	139394	573014	887190	747796	8361	1302	3877	74	438391	3119989	13614
112	2017-06-05 17:06:42	0	0	0	0	0	0	14.05	0.94	0.19	887572	0	139402	573014	887572	748170	8362	1302	3877	74	438391	3120030	13615
113	2017-06-05 17:16:48	0	0	0	0	0	0	14.05	0.94	0.19	887938	0	139417	573014	887938	748521	8363	1302	3877	74	438391	3120056	13616
114	2017-06-05 17:26:30	0	0	0	0	0	0	14.05	0.94	0.19	888304	0	139425	573435	888304	748879	8364	1302	3877	74	438391	3120075	13617
115	2017-06-05 17:36:26	0	0	0	0	0	0	14.05	0.94	0.19	888657	0	139435	573435	888657	749222	8364	1302	3877	74	438391	3120098	13617
116	2017-06-05 17:46:24	0	0	0	0	0	0	14.05	0.94	0.19	889055	0	139451	573435	889055	749604	8365	1302	3877	74	438391	3120119	13618
117	2017-06-05 17:56:23	0	0	0	0	0	0	14.05	0.94	0.19	889437	0	139462	573435	889437	749975	8365	1302	3877	74	438391	3120147	13618
118	2017-06-05 18:06:22	0	0	0	0	0	0	14.05	0.94	0.19	889902	0	139475	573435	889902	750427	8366	1302	3877	74	438391	3120180	13619
119	2017-06-05 18:16:24	0	0	0	0	0	0	14.05	0.94	0.19	890579	0	139484	573435	890579	751095	8369	1302	3877	74	438391	3120225	13622
120	2017-06-05 18:26:24	0	0	0	0	0	0	14.05	0.94	0.19	891378	0	139495	573435	891378	751883	8370	1302	3877	74	438391	3120252	13623
121	2017-06-05 18:36:26	0	0	0	0	0	0	14.05	0.94	0.19	892022	0	139503	573435	892022	752519	8370	1302	3877	74	438391	3120268	13623
122	2017-06-05 18:46:27	0	0	0	0	0	0	14.05	0.94	0.19	892575	0	139513	573435	892575	753062	8370	1302	3879	74	438391	3120306	13625
123	2017-06-05 18:56:28	0	0	0	0	0	0	14.05	0.94	0.19	893124	0	139527	573435	893124	753597	8371	1302	3880	74	438391	3120354	13627
124	2017-06-05 19:06:27	0	0	0	0	0	0	14.05	0.94	0.19	893680	0	139545	573435	893680	754135	8371	1302	3880	74	438391	3120397	13627
125	2017-06-05 19:16:25	0	0	0	0	0	0	14.05	0.94	0.18	894215	0	139555	573435	894215	754660	8371	1302	3880	74	438391	3120425	13627
126	2017-06-05 19:26:26	0	0	0	0	0	0	14.05	0.94	0.18	894770	0	139566	574073	894770	755204	8373	1302	3880	74	438391	3120461	13629
127	2017-06-05 19:36:25	0	0	0	0	0	0	14.05	0.94	0.18	895309	0	139580	574113	895309	755729	8373	1302	3880	74	438391	3120499	13629
128	2017-06-05 19:46:26	0	0	0	0	0	0	14.05	0.93	0.18	895838	0	139589	574113	895838	756249	8373	1302	3880	74	438391	3120534	13629
129	2017-06-05 19:56:28	0	0	0	0	0	0	14.05	0.93	0.18	896310	0	139600	574113	896310	756710	8374	1302	3880	74	438391	3120576	13630
130	2017-06-05 20:06:27	0	0	0	0	0	0	14.05	0.93	0.18	896768	0	139616	574113	896768	757152	8374	1302	3880	74	438391	3120613	13630
131	2017-06-05 20:16:27	0	0	0	0	0	0	14.05	0.93	0.18	897220	0	139625	574113	897220	757595	8374	1302	3881	74	438391	3120655	13631
132	2017-06-05 20:26:28	0	0	0	0	0	0	14.05	0.93	0.18	897671	0	139633	574113	897671	758038	8374	1302	3881	74	438391	3120690	13631
133	2017-06-05 20:36:32	0	0	0	0	0	0	14.05	0.93	0.18	898148	0	139647	574113	898148	758501	8374	1302	3881	74	438391	3120741	13631
134	2017-06-05 20:46:32	0	0	0	0	0	0	14.05	0.93	0.18	898603	0	139653	574113	898603	758950	8374	1302	3881	74	438391	3120794	13631
135	2017-06-05 20:56:42	0	0	0	0	0	0	14.05	0.93	0.18	899035	0	139668	574113	899035	759367	8374	1302	3881	74	438391	3120849	13631
136	2017-06-05 21:06:36	0	0	0	0	0	0	14.05	0.93	0.18	899440	0	139684	574113	899440	759756	8374	1302	3881	74	438391	3120894	13631
137	2017-06-05 21:16:41	0	0	0	0	0	0	14.05	0.93	0.18	899879	0	139693	574113	899879	760186	8374	1302	3882	74	438391	3120950	13632
138	2017-06-05 21:26:36	0	0	0	0	0	0	14.05	0.93	0.18	900418	0	139707	574113	900418	760711	8375	1302	3883	74	438391	3121004	13634
139	2017-06-05 21:36:36	0	0	0	0	0	0	14.05	0.93	0.18	901008	0	139714	574113	901008	761294	8377	1302	3883	74	438391	3121052	13636
140	2017-06-05 21:46:31	0	0	0	0	0	0	14.05	0.93	0.18	901525	0	139721	574113	901525	761804	8377	1302	3883	74	438391	3121097	13636
141	2017-06-05 21:56:30	0	0	0	0	0	0	14.05	0.93	0.18	901937	0	139735	574113	901937	762202	8377	1302	3885	74	438391	3121132	13638
142	2017-06-05 22:06:35	0	0	0	0	0	0	14.05	0.93	0.18	902334	0	139749	574113	902334	762585	8377	1302	3885	74	438391	3121182	13638
143	2017-06-05 22:16:37	0	0	0	0	0	0	14.05	0.93	0.18	902717	0	139759	574113	902717	762958	8377	1302	3885	74	438391	3121225	13638
144	2017-06-05 22:26:38	0	0	0	0	0	0	14.05	0.93	0.18	903083	0	139769	574113	903083	763314	8377	1302	3885	74	438391	3121264	13638
145	2017-06-05 22:36:30	0	0	0	0	0	0	14.05	0.93	0.18	903435	0	139783	574113	903435	763652	8377	1302	3885	74	438391	3121313	13638
146	2017-06-05 22:46:31	0	0	0	0	0	0	14.04	0.93	0.18	903791	0	139791	574113	903791	764000	8378	1302	3886	74	438391	3121373	13640
147	2017-06-05 22:56:31	0	0	0	0	0	0	14.04	0.93	0.18	904067	0	139801	574113	904067	764266	8378	1302	3886	74	438391	3121425	13640
148	2017-06-05 23:06:41	0	0	0	0	0	0	14.04	0.93	0.18	904322	0	139816	574113	904322	764506	8379	1302	3886	74	438391	3121479	13641
149	2017-06-05 23:16:49	0	0	0	0	0	0	14.04	0.93	0.18	904577	0	139823	574113	904577	764754	8379	1302	3886	74	438391	3121528	13641
150	2017-06-05 23:27:00	0	0	0	0	0	0	14.04	0.93	0.18	904840	0	139836	574113	904840	765004	8379	1304	3886	74	438391	3121582	13643
151	2017-06-05 23:36:51	0	0	0	0	0	0	14.04	0.93	0.18	905072	0	139847	574113	905072	765225	8379	1306	3886	74	438391	3121630	13645
152	2017-06-05 23:46:33	0	0	0	0	0	0	14.04	0.93	0.18	905266	0	139858	574113	905266	765408	8379	1306	3886	74	438391	3121676	13645
153	2017-06-05 23:56:40	0	0	0	0	0	0	14.04	0.93	0.18	905427	0	139864	574113	905427	765563	8379	1306	3886	74	438391	3121720	13645
154	2017-06-06 00:31:33	0	0	0	0	0	0	14.05	0.92	0.18	905977	0	139884	574113	905977	766093	8379	1306	3887	74	438639	3121864	13646
155	2017-06-06 01:31:44	0	0	0	0	0	0	14.05	0.92	0.18	906512	0	139903	574753	906512	766609	8379	1306	3887	74	438639	3121952	13646
156	2017-06-06 02:31:35	0	0	0	0	0	0	14.05	0.92	0.18	906888	0	139927	574753	906888	766961	8379	1306	3888	74	438639	3122003	13647
157	2017-06-06 03:31:48	0	0	0	0	0	0	14.05	0.92	0.18	907240	0	139942	574753	907240	767298	8379	1306	3888	74	438639	3122005	13647
158	2017-06-06 04:31:38	0	0	0	0	0	0	14.05	0.92	0.18	907623	0	139948	574966	907623	767675	8379	1306	3888	74	438639	3122019	13647
159	2017-06-06 05:32:02	0	0	0	0	0	0	14.05	0.92	0.18	908389	0	139955	574966	908389	768434	8379	1306	3888	74	438639	3122036	13647
160	2017-06-06 06:31:36	0	0	0	0	0	0	14.05	0.92	0.18	909832	0	139967	574966	909832	769865	8379	1306	3888	74	438639	3122071	13647
161	2017-06-06 07:08:41	0	0	0	0	0	0	14.05	0.92	0.18	910879	0	139972	574966	910879	770907	8379	1306	3888	74	438639	3122110	13647
162	2017-06-06 07:18:30	0	0	0	0	0	0	14.05	0.92	0.18	911250	0	139973	574966	911250	771277	8379	1306	3888	74	438639	3122119	13647
163	2017-06-06 07:28:46	0	0	0	0	0	0	14.05	0.92	0.18	911572	0	139975	574966	911572	771597	8380	1306	3888	74	438639	3122133	13648
164	2017-06-06 07:39:13	0	0	0	0	0	0	14.05	0.92	0.18	911902	0	139977	574966	911902	771925	8380	1306	3889	74	438639	3122147	13649
165	2017-06-06 07:49:14	0	0	0	0	0	0	14.05	0.92	0.18	912222	0	139983	574966	912222	772239	8380	1306	3889	74	438639	3122165	13649
166	2017-06-06 07:59:19	0	0	0	0	0	0	14.05	0.92	0.18	912541	0	139989	574966	912541	772552	8380	1306	3889	74	438639	3122185	13649
167	2017-06-06 08:09:06	0	0	0	0	0	0	14.05	0.92	0.18	912867	0	139992	574966	912867	772875	8380	1306	3889	74	438639	3122203	13649
168	2017-06-06 08:27:12	0	0	0	0	0	0	14.05	0.92	0.18	913536	0	140004	574966	913536	773532	8380	1306	3889	74	438639	3122237	13649
169	2017-06-06 08:39:08	0	0	0	0	0	0	14.05	0.92	0.18	913856	0	140008	574966	913856	773848	8380	1306	3889	74	438639	3122266	13649
170	2017-06-06 08:48:58	0	0	0	0	0	0	14.05	0.92	0.18	914223	0	140008	574966	914223	774215	8380	1306	3889	74	438639	3122293	13649
171	2017-06-06 08:59:01	0	0	0	0	0	0	14.05	0.92	0.18	914563	0	140013	574966	914563	774550	8380	1306	3889	74	438639	3122326	13649
172	2017-06-06 09:09:35	0	0	0	0	0	0	14.05	0.92	0.18	914925	0	140021	574966	914925	774905	8381	1306	3889	74	438639	3122355	13650
173	2017-06-06 09:20:39	0	0	0	0	0	0	14.05	0.92	0.18	915495	0	140025	575607	915495	775470	8382	1306	3889	74	438639	3122388	13651
174	2017-06-06 09:30:29	0	0	0	0	0	0	14.05	0.92	0.18	915842	0	140029	575607	915842	775813	8382	1306	3890	74	438639	3122407	13652
175	2017-06-06 09:40:43	0	0	0	0	0	0	14.05	0.91	0.18	916195	0	140036	575607	916195	776159	8383	1306	3890	74	438639	3122436	13653
176	2017-06-06 09:50:39	0	0	0	0	0	0	14.05	0.91	0.18	916542	0	140044	575607	916542	776498	8384	1306	3890	74	438639	3122463	13654
177	2017-06-06 10:00:53	0	0	0	0	0	0	14.05	0.91	0.18	916854	0	140046	575607	916854	776808	8384	1306	3890	74	438639	3122499	13654
178	2017-06-06 10:15:54	0	0	0	0	0	0	14.05	0.91	0.18	917372	0	140051	575607	917372	777321	8385	1306	3890	74	438639	3122551	13655
179	2017-06-06 10:27:10	0	0	0	0	0	0	14.05	0.91	0.18	917744	0	140054	575607	917744	777690	8385	1306	3890	74	438639	3122603	13655
180	2017-06-06 10:38:16	0	0	0	0	0	0	14.05	0.91	0.18	918101	0	140056	575607	918101	778045	8385	1306	3890	74	438639	3122638	13655
181	2017-06-06 10:57:08	0	0	0	0	0	0	14.05	0.91	0.18	918786	0	140065	575607	918786	778721	8385	1306	3890	74	438639	3122705	13655
182	2017-06-06 11:09:25	0	0	0	0	0	0	14.05	0.91	0.18	919118	0	140066	575607	919118	779052	8385	1306	3890	74	438639	3122743	13655
183	2017-06-06 11:24:35	0	0	0	0	0	0	14.05	0.91	0.18	919635	0	140068	575607	919635	779567	8385	1306	3890	74	438639	3122795	13655
184	2017-06-06 11:34:01	0	0	0	0	0	0	14.05	0.91	0.18	919970	0	140071	575822	919970	779899	8385	1306	3890	74	438639	3122820	13655
185	2017-06-06 11:45:11	0	0	0	0	0	0	14.05	0.91	0.18	920477	0	140076	575822	920477	780401	8385	1306	3890	74	438639	3122853	13655
