1	2017-10-27 10:02:00		0	0	0	0	0	0	0.17	0.27	0	6361	0	3	6103	6361	6358	17	2	18	4	6024	3444984	41
2	2017-10-27 10:13:16		0	0	0	0	0	0	0.3	0.49	0	11712	0	28	10598	11712	11684	57	2	36	4	10365	3444987	99
3	2017-10-27 10:30:01		0	0	0	0	0	0	0.44	0.61	0	18707	0	57	14576	18707	17190	114	2	54	6	15313	3444984	176
4	2017-10-27 10:43:45		0	0	0	0	0	0	0.52	0.58	0	21812	0	78	18196	21812	21734	126	4	60	6	17839	3444976	196
5	2017-10-27 11:06:29		0	0	0	0	0	0	0.63	0.55	0	27796	0	132	22066	27796	27664	154	6	74	6	21617	3444983	240
6	2017-10-27 11:13:34		0	0	0	0	0	0	0.65	0.54	0.01	28890	0	145	22938	28890	28745	156	6	75	6	22418	3444989	243
7	2017-10-27 11:20:51		0	0	0	0	0	0	0.69	0.57	0.01	30849	0	164	24390	30849	30685	176	7	76	6	23831	3444991	265
8	2017-10-27 11:31:48		0	0	0	0	0	0	0.73	0.58	0.01	32598	0	181	25769	32598	32417	190	7	77	6	25100	3444998	280
9	2017-10-27 11:42:50		0	0	0	0	0	0	0.77	0.58	0.01	34217	0	195	27203	34217	34022	197	7	79	6	26528	3444999	289
10	2017-10-27 11:53:47		0	0	0	0	0	0	0.81	0.57	0.01	35688	0	206	28596	35688	35482	205	7	82	6	27903	3444999	300
11	2017-10-27 12:04:48		0	0	0	0	0	0	0.85	0.57	0.01	37564	0	236	30031	37564	37328	214	7	83	6	29356	3445005	310
12	2017-10-27 12:15:48		0	0	0	0	0	0	0.88	0.56	0.01	38779	0	252	31074	38779	38527	216	7	86	6	30301	3445003	315
13	2017-10-27 12:26:47		0	0	0	0	0	0	0.91	0.55	0.01	39978	0	260	32275	39978	39718	221	8	88	6	31464	3444997	323
14	2017-10-27 12:32:10		0	0	0	0	0	0	0.92	0.55	0.01	40473	0	264	32645	40473	40209	222	8	89	6	31815	3444992	325
15	2017-10-27 12:43:09		0	0	0	0	0	0	0.95	0.55	0.01	41518	0	279	33695	41518	41239	227	8	89	6	32834	3444996	330
16	2017-10-27 12:54:10		0	0	0	0	0	0	0.97	0.55	0.01	42518	0	287	34243	42518	42231	234	8	91	6	33355	3445001	339
17	2017-10-27 13:05:09		0	0	0	0	0	0	0.99	0.54	0.01	43747	0	299	34962	43747	43448	235	8	92	6	34109	3445002	341
18	2017-10-27 13:16:09		0	0	0	0	0	0	1.01	0.53	0.01	44475	0	307	35657	44475	44168	235	8	93	6	34709	3445008	342
19	2017-10-27 13:27:10		0	0	0	0	0	0	1.02	0.52	0.01	45233	0	311	36216	45233	44922	236	8	94	6	35270	3445011	344
20	2017-10-27 13:38:12		0	0	0	0	0	0	1.04	0.52	0.01	45876	0	318	36663	45876	45558	238	8	96	6	35787	3445017	348
21	2017-10-27 13:49:13		0	0	0	0	0	0	1.05	0.51	0.01	46553	0	324	36867	46553	46229	238	8	98	6	36062	3445025	350
22	2017-10-27 14:00:11		0	0	0	0	0	0	1.06	0.51	0.01	47522	0	334	37462	47522	47188	243	8	99	6	36686	3445032	356
23	2017-10-27 14:11:09		0	0	0	0	0	0	1.08	0.51	0.01	48100	0	337	37826	48100	47763	243	8	102	6	37035	3445033	359
24	2017-10-27 14:22:09		0	0	0	0	0	0	1.09	0.51	0.01	48712	0	346	38300	48712	48366	246	8	102	6	37489	3445034	362
25	2017-10-27 14:33:11		0	0	0	0	0	0	1.1	0.5	0.01	49333	0	348	38787	49333	48985	247	8	103	6	37985	3445045	364
26	2017-10-27 14:44:11		0	0	0	0	0	0	1.11	0.5	0.01	49864	0	358	39055	49864	49506	249	8	105	6	38242	3445045	368
27	2017-10-27 14:55:10		0	0	0	0	0	0	1.13	0.5	0.01	50797	0	365	39622	50797	50432	256	9	107	6	38786	3445050	378
28	2017-10-27 15:06:10		0	0	0	0	0	0	1.13	0.51	0.01	51285	0	370	39908	51285	50915	261	9	108	6	39060	3445053	384
29	2017-10-27 15:17:09		0	0	0	0	0	0	1.15	0.51	0.01	51806	0	374	40452	51806	51432	263	9	110	6	39581	3445059	388
30	2017-10-27 15:28:12		0	0	0	0	0	0	1.16	0.5	0.01	52367	0	377	40805	52367	51990	264	9	110	6	39879	3445069	389
31	2017-10-27 15:39:16		0	0	0	0	0	0	1.17	0.5	0.01	52964	0	383	41348	52964	52581	265	9	112	6	40397	3445079	392
32	2017-10-27 15:50:11		0	0	0	0	0	0	1.19	0.51	0.01	53839	0	390	42235	53839	53449	272	9	112	6	41158	3445086	399
33	2017-10-27 16:01:10		0	0	0	0	0	0	1.21	0.51	0.01	54378	0	394	42612	54378	53984	278	10	114	6	41552	3445093	408
34	2017-10-27 16:12:16		0	0	0	0	0	0	1.22	0.51	0.01	54911	0	397	43095	54911	54514	279	10	116	6	41947	3445098	411
35	2017-10-27 16:23:10		0	0	0	0	0	0	1.23	0.51	0.01	55503	0	404	43488	55503	55099	282	10	118	6	42357	3445103	416
36	2017-10-27 16:34:12		0	0	0	0	0	0	1.24	0.52	0.01	56112	0	407	43915	56112	55705	289	10	118	6	42761	3445102	423
37	2017-10-27 16:45:10		0	0	0	0	0	0	1.27	0.52	0.01	57102	0	411	45008	57102	56691	296	10	120	6	43797	3445100	432
38	2017-10-27 16:56:10		0	0	0	0	0	0	1.28	0.52	0.01	57797	0	416	45398	57797	57381	298	10	126	6	44176	3445107	440
39	2017-10-27 17:07:10		0	0	0	0	0	0	1.29	0.52	0.01	58305	0	423	45877	58305	57882	301	10	129	6	44609	3445102	446
40	2017-10-27 17:18:12		0	0	0	0	0	0	1.31	0.52	0.01	58883	0	428	46357	58883	58455	307	10	132	6	45084	3445106	455
41	2017-10-27 17:29:11		0	0	0	0	0	0	1.32	0.52	0.01	59504	0	435	46911	59504	59069	308	10	135	6	45597	3445098	459
42	2017-10-27 17:40:10		0	0	0	0	0	0	1.35	0.52	0.01	60384	0	442	47841	60384	59942	311	10	139	6	46464	3445099	466
43	2017-10-27 17:51:10		0	0	0	0	0	0	1.36	0.51	0.01	61060	0	444	48268	61060	60616	311	10	142	6	46867	3445101	469
44	2017-10-27 18:02:10		0	0	0	0	0	0	1.37	0.51	0.01	61596	0	449	48735	61596	61147	314	10	144	6	47306	3445102	474
45	2017-10-27 18:13:10		0	0	0	0	0	0	1.38	0.51	0.01	62036	0	453	48948	62036	61583	315	11	145	6	47600	3445099	477
46	2017-10-27 18:24:16		0	0	0	0	0	0	1.39	0.51	0.01	62516	0	454	49265	62516	62062	317	11	146	6	47900	3445099	480
47	2017-10-27 18:35:14		0	0	0	0	0	0	1.41	0.51	0.01	63344	0	460	49937	63344	62884	324	11	150	7	48538	3445103	492
48	2017-10-27 18:46:11		0	0	0	0	0	0	1.42	0.51	0.01	63836	0	464	50249	63836	63372	327	11	151	7	48843	3445096	496
49	2017-10-27 18:57:16		0	0	0	0	0	0	1.44	0.51	0.01	64318	0	467	50900	64318	63851	330	11	153	7	49471	3445098	501
50	2017-10-27 19:08:11		0	0	0	0	0	0	1.44	0.51	0.01	64655	0	470	50951	64655	64185	331	11	154	7	49518	3445099	503
51	2017-10-27 19:19:11		0	0	0	0	0	0	1.45	0.51	0.01	65085	0	471	51281	65085	64614	333	11	156	7	49782	3445097	507
52	2017-10-27 19:30:14		0	0	0	0	0	0	1.46	0.51	0.01	65694	0	479	51801	65694	65215	337	11	156	7	50272	3445097	511
53	2017-10-27 19:41:11		0	0	0	0	0	0	1.47	0.51	0.01	66096	0	479	52045	66096	65617	340	11	157	7	50501	3445103	515
54	2017-10-27 19:52:12		0	0	0	0	0	0	1.47	0.52	0.01	66495	0	483	52087	66495	66012	343	11	158	7	50541	3445097	519
55	2017-10-27 20:03:12		0	0	0	0	0	0	1.47	0.51	0.01	66822	0	489	52332	66822	66333	344	11	160	7	50772	3445098	522
56	2017-10-27 20:14:12		0	0	0	0	0	0	1.47	0.51	0.01	67120	0	491	52396	67120	66629	345	11	161	7	50792	3445101	524
57	2017-10-27 20:25:12		0	0	0	0	0	0	1.48	0.51	0.01	67673	0	501	52670	67673	67172	345	11	161	7	51104	3445102	524
58	2017-10-27 20:36:12		0	0	0	0	0	0	1.49	0.51	0.01	68007	0	501	52847	68007	67506	347	11	161	7	51270	3445106	526
59	2017-10-27 20:47:13		0	0	0	0	0	0	1.5	0.51	0.01	68297	0	502	53137	68297	67795	347	11	161	7	51543	3445101	526
60	2017-10-27 20:58:13		0	0	0	0	0	0	1.5	0.51	0.01	68631	0	511	53309	68631	68120	349	11	163	7	51705	3445101	530
61	2017-10-27 21:09:17		0	0	0	0	0	0	1.51	0.51	0.01	69038	0	515	53506	69038	68523	349	11	163	7	51911	3445095	530
62	2017-10-27 21:20:14		0	0	0	0	0	0	1.52	0.5	0.01	69755	0	524	53909	69755	69231	350	11	166	7	52290	3445101	534
63	2017-10-27 21:31:14		0	0	0	0	0	0	1.53	0.5	0.01	70285	0	525	54524	70285	69760	352	11	167	7	52869	3445107	537
64	2017-10-27 21:42:15		0	0	0	0	0	0	1.55	0.5	0.01	70807	0	525	55075	70807	70282	355	11	170	7	53342	3445109	543
65	2017-10-27 21:53:15		0	0	0	0	0	0	1.55	0.5	0.01	71163	0	531	55279	71163	70632	357	11	170	7	53534	3445110	545
66	2017-10-27 22:04:15		0	0	0	0	0	0	1.56	0.5	0.01	71555	0	533	55437	71555	71022	358	11	170	7	53659	3445114	546
67	2017-10-27 22:15:18		0	0	0	0	0	0	1.56	0.5	0.01	72251	0	533	55704	72251	71718	363	11	171	7	53910	3445119	552
68	2017-10-27 22:26:15		0	0	0	0	0	0	1.58	0.5	0.01	72760	0	535	56144	72760	72225	363	11	172	7	54337	3445134	553
69	2017-10-27 22:37:16		0	0	0	0	0	0	1.59	0.5	0.01	73306	0	537	56591	73306	72769	363	11	172	7	54755	3445149	553
70	2017-10-27 22:48:14		0	0	0	0	0	0	1.6	0.49	0.01	73876	0	537	57084	73876	73339	363	11	173	7	55280	3445165	554
71	2017-10-27 22:59:13		0	0	0	0	0	0	1.62	0.49	0.01	74447	0	538	57773	74447	73909	363	11	173	7	55942	3445186	554
72	2017-10-27 23:10:15		0	0	0	0	0	0	1.65	0.49	0.01	75215	0	546	58575	75215	74669	371	11	173	7	56711	3445196	562
73	2017-10-27 23:21:14		0	0	0	0	0	0	1.65	0.49	0.01	75719	0	549	58846	75719	75170	372	11	175	7	56956	3445205	565
74	2017-10-27 23:32:15		0	0	0	0	0	0	1.66	0.49	0.01	76229	0	551	59269	76229	75678	375	11	176	7	57327	3445216	569
75	2017-10-27 23:43:13		0	0	0	0	0	0	1.67	0.49	0.01	76708	0	555	59474	76708	76153	377	11	176	7	57587	3445225	571
76	2017-10-27 23:54:16		0	0	0	0	0	0	1.68	0.49	0.01	77192	0	563	59736	77192	76629	379	11	176	7	57832	3445237	573
77	2017-10-28 00:22:16		0	0	0	0	0	0	1.7	0.49	0.01	78406	0	572	60514	78406	77834	381	11	181	7	58722	3445252	580
78	2017-10-28 01:22:17		0	0	0	0	0	0	1.75	0.48	0.01	80215	0	584	62054	80215	79631	389	11	184	7	60235	3445242	591
79	2017-10-28 02:22:15		0	0	0	0	0	0	1.77	0.48	0.01	81414	0	591	62690	81414	80823	391	11	186	7	60905	3445217	595
80	2017-10-28 03:22:21		0	0	0	0	0	0	1.78	0.48	0.01	81836	0	595	63107	81836	81241	393	11	186	7	61377	3445211	597
81	2017-10-28 04:22:19		0	0	0	0	0	0	1.79	0.48	0.01	82068	0	599	63307	82068	81469	393	11	186	7	61566	3445202	597
82	2017-10-28 05:22:20		0	0	0	0	0	0	1.79	0.48	0.01	82299	0	600	63468	82299	81699	394	11	186	7	61758	3445203	598
83	2017-10-28 06:22:17		0	0	0	0	0	0	1.8	0.48	0.01	82616	0	600	63583	82616	82016	396	11	187	7	61867	3445190	601
84	2017-10-28 07:05:19		0	0	0	0	0	0	1.8	0.48	0.01	82960	0	600	63797	82960	82360	398	11	187	7	62069	3445191	603
85	2017-10-28 07:16:16		0	0	0	0	0	0	1.81	0.48	0.01	83127	0	600	64008	83127	82527	399	11	187	7	62269	3445191	604
86	2017-10-28 07:28:25		0	0	0	0	0	0	1.81	0.48	0.01	83252	0	600	64156	83252	82652	402	11	187	7	62409	3445193	607
87	2017-10-28 07:38:27		0	0	0	0	0	0	1.82	0.48	0.01	83399	0	600	64228	83399	82799	403	11	188	7	62598	3445197	609
88	2017-10-28 07:49:29		0	0	0	0	0	0	1.82	0.48	0.01	83557	0	601	64276	83557	82956	404	11	188	7	62644	3445198	610
89	2017-10-28 08:00:56		0	0	0	0	0	0	1.82	0.48	0.01	83711	0	603	64313	83711	83110	404	11	188	7	62679	3445201	610
90	2017-10-28 08:11:55		0	0	0	0	0	0	1.82	0.48	0.01	83983	0	603	64399	83983	83380	405	11	188	7	62761	3445205	611
91	2017-10-28 08:22:54		0	0	0	0	0	0	1.82	0.48	0.01	84193	0	605	64483	84193	83588	407	11	188	7	62841	3445211	613
92	2017-10-28 08:34:01		0	0	0	0	0	0	1.83	0.48	0.01	84419	0	606	64799	84419	83813	407	11	189	7	63141	3445213	614
93	2017-10-28 08:45:08		0	0	0	0	0	0	1.84	0.48	0.01	84647	0	609	64918	84647	84038	408	11	190	7	63254	3445219	616
94	2017-10-28 08:55:54		0	0	0	0	0	0	1.84	0.48	0.01	84901	0	610	65263	84901	84419	411	11	191	7	63466	3445227	620
95	2017-10-28 09:07:06		0	0	0	0	0	0	1.85	0.48	0.01	85343	0	611	65506	85343	84732	412	11	192	7	63727	3445223	622
96	2017-10-28 09:17:56		0	0	0	0	0	0	1.86	0.48	0.01	85636	0	615	65769	85636	85021	413	12	192	7	63976	3445223	624
97	2017-10-28 09:28:55		0	0	0	0	0	0	1.86	0.48	0.01	85940	0	615	65869	85940	85325	413	12	193	7	64071	3445230	625
98	2017-10-28 09:41:42		0	0	0	0	0	0	1.87	0.48	0.01	86264	0	617	66089	86264	85649	413	12	193	7	64279	3445237	625
99	2017-10-28 09:51:16		0	0	0	0	0	0	1.88	0.48	0.01	86715	0	620	66535	86715	86095	413	13	195	7	64701	3445239	628
100	2017-10-28 10:02:15		0	0	0	0	0	0	1.88	0.48	0.01	86939	0	628	66629	86939	86311	416	13	195	7	64790	3445241	631
101	2017-10-28 10:13:24		0	0	0	0	0	0	1.88	0.48	0.01	87132	0	637	66675	87132	86495	416	13	196	7	64833	3445245	632
102	2017-10-28 10:29:58		0	0	0	0	0	0	1.88	0.48	0.01	87347	0	647	66761	87347	86700	418	13	196	7	64915	3445245	634
103	2017-10-28 10:45:58		0	0	0	0	0	0	1.89	0.48	0.01	87520	0	651	66852	87520	86869	419	13	196	7	65001	3445244	635
104	2017-10-28 10:56:40		0	0	0	0	0	0	1.89	0.48	0.01	87665	0	663	66887	87665	87002	420	13	196	7	65034	3445240	636
105	2017-10-28 11:07:38		0	0	0	0	0	0	1.89	0.48	0.01	87748	0	671	66887	87748	87077	420	13	196	7	65034	3445238	636
106	2017-10-28 11:24:21		0	0	0	0	0	0	1.89	0.48	0.01	87893	0	687	66988	87893	87206	420	13	196	7	65130	3445238	636
107	2017-10-28 11:32:01		0	0	0	0	0	0	1.89	0.48	0.01	87972	0	694	67029	87972	87278	420	13	196	7	65168	3445239	636
108	2017-10-28 11:48:33		0	0	0	0	0	0	1.9	0.48	0.01	88086	0	703	67168	88086	87383	421	13	197	7	65300	3445247	638
109	2017-10-28 11:56:53		0	0	0	0	0	0	1.9	0.48	0.01	88145	0	708	67215	88145	87437	421	13	197	7	65344	3445247	638
110	2017-10-28 12:09:20		0	0	0	0	0	0	1.9	0.48	0.01	88198	0	710	67260	88198	87488	421	13	197	7	65387	3445249	638
111	2017-10-28 12:21:22		0	0	0	0	0	0	1.9	0.48	0.01	88242	0	714	67284	88242	87530	421	13	197	7	65409	3445253	638
112	2017-10-28 12:38:23		0	0	0	0	0	0	1.9	0.48	0.01	88334	0	717	67284	88334	87617	421	13	197	7	65409	3445258	638
113	2017-10-28 12:55:12		0	0	0	0	0	0	1.9	0.48	0.01	88420	0	723	67284	88420	87697	421	13	197	7	65409	3445273	638
114	2017-10-28 13:26:09		0	0	0	0	0	0	1.9	0.48	0.01	88566	0	730	67301	88566	87836	421	13	199	7	65420	3445302	640
115	2017-10-28 13:41:28		0	0	0	0	0	0	1.9	0.48	0.01	88621	0	731	67313	88621	87890	421	13	199	7	65431	3445306	640
116	2017-10-28 13:57:28		0	0	0	0	0	0	1.9	0.47	0.01	88736	0	733	67336	88736	88003	421	13	199	7	65453	3445315	640
117	2017-10-28 14:09:32		0	0	0	0	0	0	1.9	0.47	0.01	88787	0	737	67336	88787	88050	421	13	199	7	65453	3445318	640
118	2017-10-28 14:22:55		0	0	0	0	0	0	1.9	0.47	0.01	88838	0	743	67336	88838	88095	421	13	199	7	65453	3445326	640
119	2017-10-28 14:41:17		0	0	0	0	0	0	1.9	0.47	0.01	88891	0	744	67371	88891	88147	421	13	199	7	65453	3445317	640
120	2017-10-28 14:50:59		0	0	0	0	0	0	1.9	0.47	0.01	88926	0	748	67371	88926	88178	421	13	199	7	65453	3445333	640
121	2017-10-28 15:15:32		0	0	0	0	0	0	1.9	0.47	0.01	89011	0	755	67380	89011	88256	421	13	200	7	65461	3445338	641
122	2017-10-28 15:26:49		0	0	0	0	0	0	1.9	0.47	0.01	89072	0	766	67380	89072	88306	421	13	200	7	65461	3445343	641
123	2017-10-28 15:45:03		0	0	0	0	0	0	1.9	0.47	0.01	89138	0	768	67509	89138	88370	421	13	200	7	65583	3445346	641
124	2017-10-28 15:57:31		0	0	0	0	0	0	1.91	0.47	0.01	89204	0	771	67556	89204	88433	421	13	200	7	65717	3445344	641
125	2017-10-28 16:17:09		0	0	0	0	0	0	1.91	0.47	0.01	89282	0	776	67612	89282	88506	421	13	200	7	65770	3445341	641
126	2017-10-28 16:28:57		0	0	0	0	0	0	1.91	0.47	0.01	89323	0	778	67623	89323	88545	421	13	200	7	65780	3445340	641
127	2017-10-28 16:50:57		0	0	0	0	0	0	1.91	0.47	0.01	89401	0	779	67623	89401	88622	422	13	200	7	65780	3445340	642
128	2017-10-28 17:08:54		0	0	0	0	0	0	1.91	0.47	0.01	89465	0	781	67623	89465	88684	422	13	201	7	65780	3445342	643
129	2017-10-28 17:20:07		0	0	0	0	0	0	1.91	0.47	0.01	89515	0	785	67623	89515	88730	422	13	202	7	65780	3445340	644
130	2017-10-28 17:43:48		0	0	0	0	0	0	1.91	0.47	0.01	89632	0	791	67623	89632	88841	422	13	202	7	65780	3445345	644
131	2017-10-28 17:57:33		0	0	0	0	0	0	1.91	0.47	0.01	89682	0	794	67623	89682	88888	422	13	202	7	65780	3445343	644
132	2017-10-28 18:09:36		0	0	0	0	0	0	1.91	0.47	0.01	89741	0	794	67706	89741	88947	424	13	202	7	65858	3445341	646
133	2017-10-28 18:21:09		0	0	0	0	0	0	1.91	0.47	0.01	89797	0	798	67729	89797	88999	425	13	202	7	65880	3445343	647
134	2017-10-28 18:45:33		0	0	0	0	0	0	1.91	0.47	0.01	89901	0	799	67729	89901	89102	427	13	202	7	65880	3445345	649
135	2017-10-28 18:55:33		0	0	0	0	0	0	1.91	0.47	0.01	89939	0	799	67729	89939	89140	427	13	202	7	65880	3445341	649
136	2017-10-28 19:17:42		0	0	0	0	0	0	1.92	0.47	0.01	90035	0	800	67812	90035	89235	427	13	202	7	66004	3445337	649
137	2017-10-28 19:26:35		0	0	0	0	0	0	1.92	0.47	0.01	90068	0	800	67812	90068	89268	427	13	202	7	66004	3445350	649
138	2017-10-28 19:51:18		0	0	0	0	0	0	1.92	0.47	0.01	90186	0	801	67988	90186	89385	427	13	202	7	66170	3445348	649
139	2017-10-28 19:59:13		0	0	0	0	0	0	1.92	0.47	0.01	90230	0	801	68012	90230	89429	427	13	202	7	66193	3445343	649
140	2017-10-28 20:11:19		0	0	0	0	0	0	1.92	0.47	0.01	90291	0	803	68012	90291	89488	427	13	202	7	66238	3445347	649
141	2017-10-28 20:28:48		0	0	0	0	0	0	1.93	0.47	0.01	90400	0	803	68143	90400	89597	427	13	202	7	66363	3445352	649
142	2017-10-28 20:40:45		0	0	0	0	0	0	1.93	0.47	0.01	90449	0	805	68185	90449	89644	427	13	202	7	66403	3445355	649
143	2017-10-28 21:12:45		0	0	0	0	0	0	1.93	0.47	0.01	90634	0	812	68191	90634	89822	427	13	203	7	66408	3445361	650
144	2017-10-28 21:24:17		0	0	0	0	0	0	1.93	0.47	0.01	90692	0	813	68191	90692	89879	427	13	204	7	66408	3445365	651
145	2017-10-28 21:49:48		0	0	0	0	0	0	1.93	0.47	0.01	90841	0	816	68263	90841	90025	427	13	204	7	66477	3445371	651
146	2017-10-28 22:08:46		0	0	0	0	0	0	1.93	0.47	0.01	90938	0	820	68263	90938	90118	427	13	204	7	66477	3445374	651
147	2017-10-28 22:19:03		0	0	0	0	0	0	1.93	0.47	0.01	90994	0	823	68447	90994	90171	427	13	204	7	66651	3445380	651
148	2017-10-28 22:32:05		0	0	0	0	0	0	1.93	0.47	0.01	91044	0	824	68450	91044	90220	428	13	204	7	66654	3445378	652
149	2017-10-28 23:05:14		0	0	0	0	0	0	1.94	0.47	0.01	91175	0	828	68577	91175	90347	428	13	205	7	66774	3445381	653
150	2017-10-28 23:40:25		0	0	0	0	0	0	1.94	0.47	0.01	91351	0	834	68742	91351	90517	428	13	205	7	66930	3445436	653
151	2017-10-29 00:22:29		0	0	0	0	0	0	1.94	0.47	0.01	91532	0	838	68754	91532	90694	429	13	205	7	66942	3445459	654
152	2017-10-29 01:11:04		0	0	0	0	0	0	1.95	0.47	0.01	91725	0	844	69060	91725	90881	429	13	205	7	67232	3445494	654
153	2017-10-29 01:58:24		0	0	0	0	0	0	1.95	0.47	0.01	91790	0	846	69060	91790	90944	429	13	205	7	67232	3445497	654
154	2017-10-29 03:44:41		0	0	0	0	0	0	1.95	0.47	0.01	91840	0	848	69085	91840	90992	430	13	205	7	67302	3445484	655
155	2017-10-29 04:56:00		0	0	0	0	0	0	1.95	0.47	0.01	91864	0	851	69085	91864	91013	430	13	205	7	67302	3445477	655
156	2017-10-29 06:15:50		0	0	0	0	0	0	1.95	0.47	0.01	91894	0	852	69085	91894	91042	430	13	205	7	67302	3445473	655
157	2017-10-29 07:44:36		0	0	0	0	0	0	1.95	0.47	0.01	91972	0	854	69085	91972	91118	430	13	205	7	67302	3445479	655
158	2017-10-29 08:17:12		0	0	0	0	0	0	1.95	0.47	0.01	92042	0	858	69085	92042	91184	432	13	206	7	67302	3445474	658
159	2017-10-29 09:15:43		0	0	0	0	0	0	1.95	0.47	0.01	92151	0	863	69131	92151	91288	433	13	206	7	67346	3445500	659
160	2017-10-29 09:31:02		0	0	0	0	0	0	1.95	0.47	0.01	92178	0	864	69131	92178	91314	433	13	206	7	67346	3445514	659
161	2017-10-29 16:51:00		0	0	0	0	0	0	1.96	0.47	0.01	92628	0	882	69244	92628	91746	435	13	208	7	67430	3445726	663
162	2017-10-29 17:53:19		0	0	0	0	0	0	1.96	0.47	0.01	92691	0	885	69244	92691	91806	436	13	208	7	67430	3445770	664
163	2017-10-29 18:30:39		0	0	0	0	0	0	1.96	0.47	0.01	92718	0	886	69281	92718	91832	436	13	208	7	67465	3445779	664
164	2017-10-29 18:34:32		0	0	0	0	0	0	1.96	0.47	0.01	92723	0	886	69281	92723	91837	436	13	208	7	67465	3445777	664
165	2017-10-29 18:41:42		0	0	0	0	0	0	1.96	0.47	0.01	92730	0	886	69281	92730	91844	436	13	208	7	67465	3445776	664
166	2017-10-29 18:52:44		0	0	0	0	0	0	1.96	0.47	0.01	92747	0	886	69281	92747	91861	436	13	208	7	67465	3445774	664
167	2017-10-29 19:03:44		0	0	0	0	0	0	1.96	0.47	0.01	92766	0	888	69281	92766	91878	436	13	208	7	67465	3445777	664
168	2017-10-29 19:14:46		0	0	0	0	0	0	1.96	0.47	0.01	92780	0	888	69306	92780	91892	436	13	208	7	67489	3445786	664
169	2017-10-29 19:25:48		0	0	0	0	0	0	1.96	0.47	0.01	92798	0	889	69306	92798	91909	436	13	208	7	67489	3445791	664
170	2017-10-29 19:36:54		0	0	0	0	0	0	1.96	0.47	0.01	92812	0	889	69306	92812	91923	436	13	208	7	67489	3445792	664
171	2017-10-29 19:47:50		0	0	0	0	0	0	1.96	0.47	0.01	92829	0	889	69306	92829	91940	436	13	208	7	67489	3445797	664
172	2017-10-29 19:58:52		0	0	0	0	0	0	1.96	0.47	0.01	92855	0	889	69306	92855	91966	436	13	208	7	67489	3445800	664
173	2017-10-29 20:09:54		0	0	0	0	0	0	1.96	0.47	0.01	92869	0	889	69306	92869	91980	436	13	208	7	67489	3445806	664
174	2017-10-29 20:17:07		0	0	0	0	0	0	1.96	0.47	0.01	92836	0	889	69306	92836	91947	436	13	208	7	67489	3445813	664
175	2017-10-29 20:20:55		0	0	0	0	0	0	1.96	0.47	0.01	92885	0	890	69306	92885	91995	436	13	208	7	67489	3445813	664
176	2017-10-29 20:31:58		0	0	0	0	0	0	1.96	0.47	0.01	92897	0	892	69306	92897	92005	436	13	208	7	67489	3445812	664
177	2017-10-29 20:42:59		0	0	0	0	0	0	1.96	0.47	0.01	92914	0	893	69306	92914	92021	436	13	208	7	67489	3445818	664
178	2017-10-29 20:54:01		0	0	0	0	0	0	1.96	0.47	0.01	92938	0	894	69306	92938	92044	436	13	208	7	67489	3445828	664
179	2017-10-29 21:05:05		0	0	0	0	0	0	1.96	0.47	0.01	92951	0	895	69306	92951	92056	436	13	209	7	67489	3445828	665
180	2017-10-29 21:07:02		0	0	0	0	0	0	1.96	0.47	0.01	92951	0	895	69306	92951	92056	436	13	209	7	67489	3445828	665
181	2017-10-29 21:16:12		0	0	0	0	0	0	1.96	0.47	0.01	92962	0	896	69306	92962	92066	436	13	209	7	67489	3445834	665
182	2017-10-29 21:27:09		0	0	0	0	0	0	1.96	0.47	0.01	92976	0	896	69306	92976	92080	436	13	209	7	67489	3445842	665
183	2017-10-29 21:38:12		0	0	0	0	0	0	1.96	0.47	0.01	92998	0	896	69306	92998	92102	436	13	209	7	67489	3445851	665
184	2017-10-29 21:49:13		0	0	0	0	0	0	1.96	0.47	0.01	93020	0	897	69355	93020	92123	436	13	209	7	67536	3445857	665
185	2017-10-29 22:00:14		0	0	0	0	0	0	1.96	0.47	0.01	93039	0	897	69355	93039	92142	436	13	209	7	67536	3445867	665
186	2017-10-29 22:11:18		0	0	0	0	0	0	1.96	0.47	0.01	93046	0	897	69355	93046	92149	436	13	209	7	67536	3445872	665
187	2017-10-29 22:22:18		0	0	0	0	0	0	1.96	0.47	0.01	93061	0	897	69355	93061	92164	436	13	209	7	67536	3445878	665
188	2017-10-29 22:33:20		0	0	0	0	0	0	1.96	0.47	0.01	93073	0	897	69355	93073	92176	436	13	209	7	67536	3445881	665
189	2017-10-29 22:44:24		0	0	0	0	0	0	1.96	0.47	0.01	93082	0	897	69355	93082	92185	436	13	209	7	67536	3445879	665
190	2017-10-29 22:55:30		0	0	0	0	0	0	1.96	0.47	0.01	93087	0	897	69355	93087	92190	436	13	209	7	67536	3445885	665
191	2017-10-29 23:06:27		0	0	0	0	0	0	1.96	0.47	0.01	93101	0	897	69355	93101	92204	436	13	209	7	67536	3445882	665
192	2017-10-29 23:17:30		0	0	0	0	0	0	1.96	0.47	0.01	93114	0	897	69355	93114	92217	436	13	209	7	67536	3445887	665
193	2017-10-29 23:17:45		0	0	0	0	0	0	1.96	0.47	0.01	93061	0	897	69355	93061	92164	436	13	209	7	67536	3445885	665
194	2017-10-29 23:28:30		0	0	0	0	0	0	1.96	0.47	0.01	93135	0	897	69405	93135	92238	436	13	209	7	67583	3445886	665
195	2017-10-29 23:39:33		0	0	0	0	0	0	1.96	0.47	0.01	93138	0	897	69405	93138	92241	436	13	209	7	67583	3445892	665
196	2017-10-29 23:50:37		0	0	0	0	0	0	1.96	0.47	0.01	93149	0	898	69405	93149	92251	436	13	209	7	67583	3445890	665
197	2017-10-30 00:01:38		0	0	0	0	0	0	1.96	0.47	0.01	93157	0	898	69405	93157	92259	436	13	209	7	67583	3445893	665
198	2017-10-30 00:51:29		0	0	0	0	0	0	1.96	0.47	0.01	93185	0	898	69418	93185	92287	436	13	209	7	67595	3445908	665
199	2017-10-30 01:01:42		0	0	0	0	0	0	1.96	0.47	0.01	93185	0	898	69418	93185	92287	436	13	209	7	67595	3445908	665
200	2017-10-30 01:47:01		0	0	0	0	0	0	1.96	0.47	0.01	93197	0	898	69418	93197	92299	436	13	209	7	67595	3445914	665
201	2017-10-30 02:01:46		0	0	0	0	0	0	1.96	0.47	0.01	93200	0	898	69418	93200	92302	436	13	209	7	67595	3445909	665
202	2017-10-30 03:01:47		0	0	0	0	0	0	1.96	0.47	0.01	93205	0	898	69418	93205	92307	436	13	209	7	67595	3445907	665
203	2017-10-30 04:01:50		0	0	0	0	0	0	1.96	0.47	0.01	93212	0	898	69418	93212	92314	436	13	209	7	67595	3445894	665
204	2017-10-30 05:01:52		0	0	0	0	0	0	1.96	0.47	0.01	93213	0	898	69418	93213	92315	436	13	209	7	67595	3445891	665
205	2017-10-30 06:01:55		0	0	0	0	0	0	1.96	0.47	0.01	93221	0	898	69418	93221	92323	436	13	209	7	67595	3445884	665
206	2017-10-30 07:01:59		0	0	0	0	0	0	1.96	0.47	0.01	93241	0	898	69418	93241	92343	436	13	209	7	67595	3445898	665
207	2017-10-30 07:13:04		0	0	0	0	0	0	1.96	0.47	0.01	93248	0	898	69418	93248	92350	436	13	209	7	67595	3445899	665
208	2017-10-30 07:24:04		0	0	0	0	0	0	1.96	0.47	0.01	93255	0	898	69418	93255	92365	436	13	209	7	67595	3445899	665
209	2017-10-30 07:35:06		0	0	0	0	0	0	1.96	0.47	0.01	93266	0	898	69418	93266	92368	436	13	209	7	67595	3445904	665
210	2017-10-30 07:46:10		0	0	0	0	0	0	1.96	0.47	0.01	93271	0	898	69418	93271	92373	436	13	209	7	67595	3445906	665
