1	2015-10-25 11:31:17	0	0	0	0	0	0	0.11	1.08	0	1392	0	0	1368	1392	1392	15	0	0	0	1366	1259059	0
2	2015-10-25 11:37:17	0	0	0	0	0	0	0.11	1.08	0	1392	0	0	1368	1392	1392	15	1	4	0	1366	1259062	0
3	2015-10-25 11:43:17	0	0	0	0	0	0	4.83	2.71	0.02	75212	0	1390	62593	75212	73822	2038	1	4	59	60860	1259066	2102
4	2015-10-25 11:49:18	0	0	0	0	0	0	4.83	2.71	0.02	75212	0	1390	62593	75212	73822	2038	104	533	59	60860	1259071	2734
5	2015-10-25 11:55:17	0	0	0	0	0	0	7.18	2.84	0.04	113837	0	4047	94984	113837	109790	3234	104	533	100	90454	1259078	3971
6	2015-10-25 12:01:18	0	0	0	0	0	0	7.18	2.84	0.04	113837	0	4047	94984	113837	109790	3234	150	703	100	90454	1259079	4187
7	2015-10-25 12:07:18	0	0	0	0	0	0	10.48	2.69	0.07	206180	0	12509	157298	206180	190176	5536	150	703	155	131907	1259087	6544
8	2015-10-25 12:13:17	0	0	0	0	0	0	10.48	2.69	0.07	206180	0	12509	157298	206180	190176	5536	223	1045	155	131907	1259093	6959
9	2015-10-25 12:19:17	0	0	0	0	0	0	12.12	3.06	0.09	228929	0	19760	167856	228929	209169	7004	223	1045	206	152621	1259098	8478
10	2015-10-25 12:25:17	0	0	0	0	0	0	12.12	3.06	0.09	228929	0	19760	167856	228929	209169	7004	258	1275	206	152621	1259099	8743
11	2015-10-25 12:31:18	0	0	0	0	0	0	14.61	3.07	0.12	293168	0	31340	206143	293168	261828	8999	258	1275	288	184013	1259106	10820
12	2015-10-25 12:37:18	0	0	0	0	0	0	14.61	3.07	0.12	293168	0	31340	206143	293168	261828	8999	274	1350	288	184013	1259115	10911
13	2015-10-25 12:43:18	0	0	0	0	0	0	15.85	2.91	0.13	330697	0	39261	228101	330697	291436	9613	274	1350	301	199601	1259120	11538
14	2015-10-25 12:49:18	0	0	0	0	0	0	15.85	2.91	0.13	330697	0	39261	228101	330697	291436	9613	308	1514	301	199601	1259126	11736
15	2015-10-25 12:55:18	0	0	0	0	0	0	16.63	3.06	0.14	350297	0	43907	239579	350297	306390	10725	308	1514	335	209442	1259134	12882
16	2015-10-25 13:01:19	0	0	0	0	0	0	16.63	3.06	0.14	350297	0	43907	239579	350297	306390	10725	338	1661	335	209442	1259136	13059
17	2015-10-25 13:07:20	0	0	0	0	0	0	18.24	3.06	0.16	392402	0	54550	267072	392402	337852	12006	338	1661	373	229662	1259140	14378
18	2015-10-25 13:13:18	0	0	0	0	0	0	18.24	3.06	0.16	392402	0	54550	267072	392402	337852	12006	368	1834	373	229662	1259143	14581
19	2015-10-25 13:19:19	0	0	0	0	0	0	19.15	3.04	0.17	418580	0	60960	284310	418580	357620	12719	368	1834	392	241123	1259154	15313
20	2015-10-25 13:25:18	0	0	0	0	0	0	19.15	3.04	0.17	418580	0	60960	284310	418580	357620	12719	389	1924	392	241123	1259164	15424
21	2015-10-25 13:31:19	0	0	0	0	0	0	20.25	3.02	0.18	446087	0	67923	303137	446087	378164	13459	389	1924	415	255033	1259171	16187
22	2015-10-25 13:37:20	0	0	0	0	0	0	20.25	3.02	0.18	446087	0	67923	303137	446087	378164	13459	412	2027	415	255033	1259179	16313
23	2015-10-25 13:43:19	0	0	0	0	0	0	20.74	3.01	0.18	458342	0	71244	313259	458342	387098	13801	412	2027	421	261099	1259184	16661
24	2015-10-25 13:49:20	0	0	0	0	0	0	20.74	3.01	0.18	458342	0	71244	313259	458342	387098	13801	425	2077	421	261099	1259191	16724
25	2015-10-25 13:55:20	0	0	0	0	0	0	21.5	3	0.19	481980	0	77586	327131	481980	404394	14436	425	2077	443	270749	1259199	17381
26	2015-10-25 14:01:20	0	0	0	0	0	0	21.5	3	0.19	481980	0	77586	327131	481980	404394	14436	439	2168	443	270749	1259209	17486
27	2015-10-25 14:07:20	0	0	0	0	0	0	22.28	2.99	0.2	505116	0	83642	341683	505116	421474	15097	439	2168	456	280505	1259211	18160
28	2015-10-25 14:13:20	0	0	0	0	0	0	22.28	2.99	0.2	505116	0	83642	341683	505116	421474	15097	454	2243	456	280505	1259216	18250
29	2015-10-25 14:19:20	0	0	0	0	0	0	22.93	2.98	0.2	525341	0	89225	350875	525341	436116	15677	454	2243	477	288762	1259227	18851
30	2015-10-25 14:25:20	0	0	0	0	0	0	22.93	2.98	0.2	525341	0	89225	350875	525341	436116	15677	466	2310	477	288762	1259236	18930
31	2015-10-25 14:31:20	0	0	0	0	0	0	23.54	2.97	0.21	543807	0	94533	360842	543807	449274	16173	466	2310	495	296387	1259241	19444
32	2015-10-25 14:37:19	0	0	0	0	0	0	23.54	2.97	0.21	543807	0	94533	360842	543807	449274	16173	477	2391	495	296387	1259249	19536
33	2015-10-25 14:43:21	0	0	0	0	0	0	23.92	2.96	0.22	560391	0	99472	369667	560391	460919	16584	477	2391	515	301231	1259247	19967
34	2015-10-25 14:49:20	0	0	0	0	0	0	23.92	2.96	0.22	560391	0	99472	369667	560391	460919	16584	488	2447	515	301231	1259258	20034
35	2015-10-25 14:55:20	0	0	0	0	0	0	24.27	2.95	0.22	572652	0	103380	374938	572652	469272	16911	488	2447	525	305602	1259272	20371
36	2015-10-25 15:01:20	0	0	0	0	0	0	24.27	2.95	0.22	572652	0	103380	374938	572652	469272	16911	497	2512	525	305602	1259274	20445
37	2015-10-25 15:07:20	0	0	0	0	0	0	24.85	2.95	0.23	587509	0	108278	385100	587509	479231	17327	497	2512	534	312993	1259286	20870
38	2015-10-25 15:13:21	0	0	0	0	0	0	24.85	2.95	0.23	587509	0	108278	385100	587509	479231	17327	507	2574	534	312993	1259293	20942
39	2015-10-25 15:19:21	0	0	0	0	0	0	25.15	2.94	0.23	600281	0	112568	388934	600281	487713	17669	507	2574	542	316765	1259305	21292
40	2015-10-25 15:25:21	0	0	0	0	0	0	25.15	2.94	0.23	600281	0	112568	388934	600281	487713	17669	512	2626	542	316765	1259310	21349
41	2015-10-25 15:31:21	0	0	0	0	0	0	25.45	2.94	0.24	612203	0	116586	393792	612203	495617	17989	512	2626	549	320518	1259320	21676
42	2015-10-25 15:37:22	0	0	0	0	0	0	25.45	2.94	0.24	612203	0	116586	393792	612203	495617	17989	520	2684	549	320518	1259327	21742
43	2015-10-25 15:43:20	0	0	0	0	0	0	25.88	2.93	0.24	625174	0	121011	401646	625174	504163	18306	520	2684	553	325951	1259331	22063
44	2015-10-25 15:49:20	0	0	0	0	0	0	25.88	2.93	0.24	625174	0	121011	401646	625174	504163	18306	534	2739	553	325951	1259339	22132
45	2015-10-25 15:55:21	0	0	0	0	0	0	26.32	2.93	0.24	636684	0	124951	408353	636684	511733	18637	534	2739	564	331521	1259350	22474
46	2015-10-25 16:01:21	0	0	0	0	0	0	26.32	2.93	0.24	636684	0	124951	408353	636684	511733	18637	544	2782	564	331521	1259363	22527
47	2015-10-25 16:07:21	0	0	0	0	0	0	26.65	2.93	0.25	647163	0	128513	414889	647163	518650	18956	544	2782	569	335632	1259366	22851
48	2015-10-25 16:13:20	0	0	0	0	0	0	26.65	2.93	0.25	647163	0	128513	414889	647163	518650	18956	547	2820	569	335632	1259373	22892
49	2015-10-25 16:19:21	0	0	0	0	0	0	26.96	2.93	0.25	657460	0	131905	419469	657460	525555	19253	547	2820	572	339570	1259375	23192
50	2015-10-25 16:25:21	0	0	0	0	0	0	26.96	2.93	0.25	657460	0	131905	419469	657460	525555	19253	554	2861	572	339570	1259380	23240
51	2015-10-25 16:31:21	0	0	0	0	0	0	27.2	2.93	0.25	667151	0	135039	425157	667151	532112	19519	554	2861	578	342566	1259387	23512
52	2015-10-25 16:37:21	0	0	0	0	0	0	27.2	2.93	0.25	667151	0	135039	425157	667151	532112	19519	559	2890	578	342566	1259393	23546
53	2015-10-25 16:43:21	0	0	0	0	0	0	27.41	2.92	0.26	676386	0	137947	429538	676386	538439	19763	559	2890	585	345186	1259399	23797
54	2015-10-25 16:49:21	0	0	0	0	0	0	27.41	2.92	0.26	676386	0	137947	429538	676386	538439	19763	568	2929	585	345186	1259408	23845
55	2015-10-25 16:55:21	0	0	0	0	0	0	27.64	2.92	0.26	687485	0	141709	436087	687485	545776	20067	568	2929	608	348126	1259418	24172
56	2015-10-25 17:01:21	0	0	0	0	0	0	27.64	2.92	0.26	687485	0	141709	436087	687485	545776	20067	575	2970	608	348126	1259421	24220
57	2015-10-25 17:07:22	0	0	0	0	0	0	27.97	2.92	0.26	696633	0	144944	441827	696633	551689	20314	575	2970	621	352214	1259427	24480
58	2015-10-25 17:13:21	0	0	0	0	0	0	27.97	2.92	0.26	696633	0	144944	441827	696633	551689	20314	579	3007	621	352214	1259435	24521
59	2015-10-25 17:19:22	0	0	0	0	0	0	28.3	2.91	0.27	706396	0	148445	448474	706396	557951	20553	579	3007	634	356415	1259438	24773
60	2015-10-25 17:25:21	0	0	0	0	0	0	28.3	2.91	0.27	706396	0	148445	448474	706396	557951	20553	581	3041	634	356415	1259445	24809
61	2015-10-25 17:31:22	0	0	0	0	0	0	28.44	2.91	0.27	714219	0	151194	452968	714219	563025	20755	581	3041	639	358162	1259452	25016
62	2015-10-25 17:37:22	0	0	0	0	0	0	28.44	2.91	0.27	714219	0	151194	452968	714219	563025	20755	591	3084	639	358162	1259458	25069
63	2015-10-25 17:43:26	0	0	0	0	0	0	28.96	2.9	0.27	723467	0	154488	459164	723467	568979	20973	591	3084	642	364754	1259464	25290
64	2015-10-25 17:49:21	0	0	0	0	0	0	28.96	2.9	0.27	723467	0	154488	459164	723467	568979	20973	599	3126	642	364754	1259470	25340
65	2015-10-25 17:55:22	0	0	0	0	0	0	29.25	2.88	0.27	732642	0	157716	466603	732642	574926	21091	599	3126	646	368356	1259472	25462
66	2015-10-25 18:01:22	0	0	0	0	0	0	29.25	2.88	0.27	732642	0	157716	466603	732642	574926	21091	604	3159	646	368356	1259479	25500
67	2015-10-25 18:07:23	0	0	0	0	0	0	29.52	2.89	0.28	739572	0	160286	471093	739572	579286	21367	604	3159	648	371851	1259493	25778
68	2015-10-25 18:13:22	0	0	0	0	0	0	29.52	2.89	0.28	739572	0	160286	471093	739572	579286	21367	608	3193	648	371851	1259495	25816
69	2015-10-25 18:19:22	0	0	0	0	0	0	29.66	2.87	0.28	747753	0	161568	476980	747753	584616	21466	608	3193	650	373567	1259505	25917
70	2015-10-25 18:25:22	0	0	0	0	0	0	29.66	2.87	0.28	747753	0	161568	476980	747753	584616	21466	611	3215	650	373567	1259509	25942
71	2015-10-25 18:31:23	0	0	0	0	0	0	29.9	2.88	0.28	751915	0	164573	479269	751915	587342	21664	611	3215	660	376617	1259510	26150
72	2015-10-25 18:37:22	0	0	0	0	0	0	29.9	2.88	0.28	751915	0	164573	479269	751915	587342	21664	616	3257	660	376617	1259517	26197
73	2015-10-25 18:43:22	0	0	0	0	0	0	30.03	2.87	0.28	759086	0	167224	483089	759086	591862	21812	616	3257	666	378296	1259520	26351
74	2015-10-25 18:49:23	0	0	0	0	0	0	30.03	2.87	0.28	759086	0	167224	483089	759086	591862	21812	622	3285	666	378296	1259526	26385
75	2015-10-25 18:55:23	0	0	0	0	0	0	30.25	2.87	0.28	765776	0	169784	486620	765776	595992	21957	622	3285	676	381020	1259531	26540
76	2015-10-25 19:01:22	0	0	0	0	0	0	30.25	2.87	0.28	765776	0	169784	486620	765776	595992	21957	624	3308	676	381020	1259541	26565
77	2015-10-25 19:07:23	0	0	0	0	0	0	30.36	2.87	0.29	772265	0	172090	488597	772265	600175	22127	624	3308	687	382384	1259546	26746
78	2015-10-25 19:13:23	0	0	0	0	0	0	30.36	2.87	0.29	772265	0	172090	488597	772265	600175	22127	630	3347	687	382384	1259559	26791
79	2015-10-25 19:19:24	0	0	0	0	0	0	30.43	2.86	0.29	779383	0	174813	490362	779383	604570	22292	630	3347	691	383304	1259563	26960
80	2015-10-25 19:25:24	0	0	0	0	0	0	30.43	2.86	0.29	779383	0	174813	490362	779383	604570	22292	638	3371	691	383304	1259569	26992
81	2015-10-25 19:31:23	0	0	0	0	0	0	30.73	2.85	0.29	788539	0	178061	497632	788539	610478	22510	638	3371	697	387096	1259574	27216
82	2015-10-25 19:37:24	0	0	0	0	0	0	30.73	2.85	0.29	788539	0	178061	497632	788539	610478	22510	641	3412	697	387096	1259579	27260
83	2015-10-25 19:43:23	0	0	0	0	0	0	30.99	2.85	0.29	794629	0	180220	501014	794629	614409	22651	641	3412	710	390390	1259582	27414
84	2015-10-25 19:49:24	0	0	0	0	0	0	30.99	2.85	0.29	794629	0	180220	501014	794629	614409	22651	647	3441	710	390390	1259593	27449
85	2015-10-25 19:55:23	0	0	0	0	0	0	31.21	2.84	0.3	801653	0	182735	504679	801653	618918	22797	647	3441	722	393135	1259599	27607
86	2015-10-25 20:01:24	0	0	0	0	0	0	31.21	2.84	0.3	801653	0	182735	504679	801653	618918	22797	649	3456	722	393135	1259607	27624
87	2015-10-25 20:07:24	0	0	0	0	0	0	31.35	2.84	0.3	807965	0	184989	506969	807965	622976	22958	649	3456	725	394929	1259611	27788
88	2015-10-25 20:13:26	0	0	0	0	0	0	31.35	2.84	0.3	807965	0	184989	506969	807965	622976	22958	654	3480	725	394929	1259616	27817
89	2015-10-25 20:19:24	0	0	0	0	0	0	31.6	2.84	0.3	813696	0	186979	511830	813696	626717	23080	654	3480	729	398103	1259622	27943
90	2015-10-25 20:25:24	0	0	0	0	0	0	31.6	2.84	0.3	813696	0	186979	511830	813696	626717	23080	663	3493	729	398103	1259624	27965
91	2015-10-25 20:31:24	0	0	0	0	0	0	31.86	2.83	0.3	819882	0	189142	515874	819882	630740	23211	663	3493	735	401350	1259628	28102
92	2015-10-25 20:37:24	0	0	0	0	0	0	31.86	2.83	0.3	819882	0	189142	515874	819882	630740	23211	669	3519	735	401350	1259633	28134
93	2015-10-25 20:43:23	0	0	0	0	0	0	32.05	2.83	0.3	825856	0	191305	519656	825856	634551	23337	669	3519	738	403652	1259638	28263
94	2015-10-25 20:49:24	0	0	0	0	0	0	32.05	2.83	0.3	825856	0	191305	519656	825856	634551	23337	676	3542	738	403652	1259640	28293
95	2015-10-25 20:55:24	0	0	0	0	0	0	32.35	2.82	0.3	832056	0	193653	523677	832056	638403	23452	676	3542	740	407557	1259649	28410
96	2015-10-25 21:01:25	0	0	0	0	0	0	32.35	2.82	0.3	832056	0	193653	523677	832056	638403	23452	680	3560	740	407557	1259655	28432
97	2015-10-25 21:07:25	0	0	0	0	0	0	32.58	2.81	0.31	838430	0	195980	527289	838430	642450	23583	680	3560	750	410339	1259665	28573
98	2015-10-25 21:13:24	0	0	0	0	0	0	32.58	2.81	0.31	838430	0	195980	527289	838430	642450	23583	685	3587	750	410339	1259670	28605
99	2015-10-25 21:19:24	0	0	0	0	0	0	32.83	2.81	0.31	844390	0	198344	531358	844390	646046	23714	685	3587	755	413490	1259678	28741
100	2015-10-25 21:25:24	0	0	0	0	0	0	32.82	2.81	0.31	844390	0	198344	531358	844390	646046	23714	691	3616	755	413490	1259681	28776
101	2015-10-25 21:31:24	0	0	0	0	0	0	33.01	2.8	0.31	851639	0	201148	535870	851639	650491	23861	691	3616	762	415867	1259689	28930
102	2015-10-25 21:37:25	0	0	0	0	0	0	33.01	2.8	0.31	851639	0	201148	535870	851639	650491	23861	694	3645	762	415867	1259695	28962
103	2015-10-25 21:43:24	0	0	0	0	0	0	33.09	2.8	0.31	857340	0	203334	537171	857340	654006	23986	694	3645	768	416875	1259703	29093
104	2015-10-25 21:49:27	0	0	0	0	0	0	33.09	2.8	0.31	857340	0	203334	537171	857340	654006	23986	695	3665	768	416875	1259709	29114
105	2015-10-25 21:55:25	0	0	0	0	0	0	33.26	2.8	0.31	863158	0	205490	543131	863158	657668	24130	695	3665	773	418976	1259710	29263
106	2015-10-25 22:01:25	0	0	0	0	0	0	33.26	2.8	0.31	863158	0	205490	543131	863158	657668	24130	698	3690	773	418976	1259719	29291
107	2015-10-25 22:07:24	0	0	0	0	0	0	33.41	2.79	0.31	868761	0	207562	544361	868761	661199	24228	698	3690	781	420934	1259723	29397
108	2015-10-25 22:13:25	0	0	0	0	0	0	33.41	2.79	0.31	868761	0	207562	544361	868761	661199	24228	703	3718	781	420934	1259728	29430
109	2015-10-25 22:19:24	0	0	0	0	0	0	33.57	2.78	0.32	874737	0	209848	548276	874737	664889	24356	703	3718	788	422896	1259734	29565
110	2015-10-25 22:25:24	0	0	0	0	0	0	33.57	2.78	0.32	874737	0	209848	548276	874737	664889	24356	706	3745	788	422896	1259736	29595
111	2015-10-25 22:31:24	0	0	0	0	0	0	33.72	2.78	0.32	880520	0	212042	552034	880520	668478	24471	706	3745	792	424778	1259741	29714
112	2015-10-25 22:37:24	0	0	0	0	0	0	33.72	2.78	0.32	880520	0	212042	552034	880520	668478	24471	711	3769	792	424778	1259749	29743
113	2015-10-25 22:43:27	0	0	0	0	0	0	34	2.78	0.32	885744	0	213975	556585	885744	671769	24585	711	3769	793	428326	1259757	29858
114	2015-10-25 22:49:25	0	0	0	0	0	0	34	2.78	0.32	885744	0	213975	556585	885744	671769	24585	712	3782	793	428326	1259762	29872
115	2015-10-25 22:55:24	0	0	0	0	0	0	34.12	2.77	0.32	890624	0	215819	558568	890624	674805	24683	712	3782	797	429872	1259768	29974
116	2015-10-25 23:01:24	0	0	0	0	0	0	34.12	2.77	0.32	890624	0	215819	558568	890624	674805	24683	715	3801	797	429872	1259772	29996
117	2015-10-25 23:07:25	0	0	0	0	0	0	34.32	2.77	0.32	895707	0	217660	563217	895707	678047	24798	715	3801	802	432348	1259775	30116
118	2015-10-25 23:13:24	0	0	0	0	0	0	34.32	2.77	0.32	895707	0	217660	563217	895707	678047	24798	718	3816	802	432348	1259779	30134
119	2015-10-25 23:19:25	0	0	0	0	0	0	34.48	2.76	0.32	900884	0	219489	564526	900884	681395	24902	718	3816	807	434334	1259788	30243
120	2015-10-25 23:25:24	0	0	0	0	0	0	34.48	2.76	0.32	900884	0	219489	564526	900884	681395	24902	725	3843	807	434334	1259794	30277
121	2015-10-25 23:31:24	0	0	0	0	0	0	34.7	2.76	0.32	906046	0	221218	567722	906046	684828	25010	725	3843	812	437209	1259799	30390
122	2015-10-25 23:37:24	0	0	0	0	0	0	34.7	2.76	0.32	906046	0	221218	567722	906046	684828	25010	725	3860	812	437209	1259800	30407
123	2015-10-25 23:43:25	0	0	0	0	0	0	34.87	2.76	0.32	910077	0	222567	570336	910077	687510	25093	725	3860	812	439349	1259809	30490
124	2015-10-25 23:49:24	0	0	0	0	0	0	34.87	2.76	0.32	910077	0	222567	570336	910077	687510	25093	727	3876	812	439349	1259814	30508
125	2015-10-25 23:55:24	0	0	0	0	0	0	34.9	2.75	0.32	914145	0	223291	571283	914145	688972	25134	727	3876	812	439723	1259816	30549
126	2015-10-26 00:01:25	0	0	0	0	0	0	34.9	2.75	0.32	914145	0	223291	571283	914145	688972	25134	728	3895	812	439723	1259820	30569
127	2015-10-26 00:07:24	0	0	0	0	0	0	34.97	2.75	0.32	915751	0	224478	572868	915751	691273	25214	728	3895	813	440599	1259821	30650
128	2015-10-26 00:13:24	0	0	0	0	0	0	34.97	2.75	0.32	915751	0	224478	572868	915751	691273	25214	729	3901	813	440599	1259825	30657
129	2015-10-26 00:19:24	0	0	0	0	0	0	35.04	2.75	0.33	919504	0	225723	575464	919504	693781	25296	729	3901	813	441440	1259830	30739
130	2015-10-26 00:25:26	0	0	0	0	0	0	35.04	2.75	0.33	919504	0	225723	575464	919504	693781	25296	735	3916	813	441440	1259833	30760
131	2015-10-26 00:31:24	0	0	0	0	0	0	35.15	2.75	0.33	923272	0	226951	577200	923272	696321	25387	735	3916	816	442828	1259835	30854
132	2015-10-26 00:37:24	0	0	0	0	0	0	35.15	2.75	0.33	923272	0	226951	577200	923272	696321	25387	738	3930	816	442828	1259836	30871
133	2015-10-26 00:43:24	0	0	0	0	0	0	35.16	2.75	0.33	925510	0	227682	577873	925510	697828	25447	738	3930	818	443003	1259835	30933
134	2015-10-26 00:49:34	0	0	0	0	0	0	35.16	2.75	0.33	925510	0	227682	577873	925510	697828	25447	740	3941	818	443003	1259835	30946
135	2015-10-26 00:55:24	0	0	0	0	0	0	35.17	2.75	0.33	927612	0	228373	578332	927612	699239	25501	740	3941	818	443145	1259835	31000
136	2015-10-26 01:01:24	0	0	0	0	0	0	35.17	2.75	0.33	927612	0	228373	578332	927612	699239	25501	741	3953	818	443145	1260064	31013
137	2015-10-26 01:07:25	0	0	0	0	0	0	35.27	2.75	0.33	929318	0	228962	580365	929318	700356	25539	741	3953	819	444433	1260068	31052
138	2015-10-26 01:13:25	0	0	0	0	0	0	35.27	2.75	0.33	929318	0	228962	580365	929318	700356	25539	742	3959	819	444433	1260071	31059
139	2015-10-26 01:19:25	0	0	0	0	0	0	35.31	2.75	0.33	930956	0	229550	580691	930956	701406	25580	742	3959	820	444880	1260072	31101
140	2015-10-26 01:25:25	0	0	0	0	0	0	35.31	2.75	0.33	930956	0	229550	580691	930956	701406	25580	744	3964	820	444880	1260075	31108
141	2015-10-26 01:31:25	0	0	0	0	0	0	35.32	2.75	0.33	932204	0	229947	581018	932204	702257	25602	744	3964	821	445008	1260076	31131
142	2015-10-26 01:37:25	0	0	0	0	0	0	35.32	2.75	0.33	932204	0	229947	581018	932204	702257	25602	745	3970	821	445008	1260078	31138
143	2015-10-26 01:43:24	0	0	0	0	0	0	35.32	2.75	0.33	933396	0	230351	581400	933396	703045	25631	745	3970	822	445008	1260079	31168
144	2015-10-26 01:49:34	0	0	0	0	0	0	35.32	2.75	0.33	933396	0	230351	581400	933396	703045	25631	745	3972	822	445008	1260079	31170
145	2015-10-26 01:55:24	0	0	0	0	0	0	35.32	2.75	0.33	934604	0	230733	581400	934604	703871	25667	745	3972	822	445008	1260079	31206
146	2015-10-26 02:01:24	0	0	0	0	0	0	35.32	2.75	0.33	934604	0	230733	581400	934604	703871	25667	746	3980	822	445008	1260080	31215
147	2015-10-26 02:07:24	0	0	0	0	0	0	35.42	2.75	0.33	935522	0	231022	582713	935522	704500	25696	746	3980	823	446291	1260079	31245
148	2015-10-26 02:13:24	0	0	0	0	0	0	35.42	2.75	0.33	935522	0	231022	582713	935522	704500	25696	749	3986	823	446291	1260078	31254
149	2015-10-26 02:19:25	0	0	0	0	0	0	35.46	2.75	0.33	936621	0	231360	582713	936621	705261	25732	749	3986	824	446806	1260078	31291
150	2015-10-26 02:25:24	0	0	0	0	0	0	35.46	2.75	0.33	936621	0	231360	582713	936621	705261	25732	749	3989	824	446806	1260078	31294
151	2015-10-26 02:31:24	0	0	0	0	0	0	35.51	2.75	0.33	937425	0	231617	584694	937425	705808	25755	749	3989	827	447517	1260079	31320
152	2015-10-26 02:37:24	0	0	0	0	0	0	35.51	2.75	0.33	937425	0	231617	584694	937425	705808	25755	751	3997	827	447517	1260079	31330
153	2015-10-26 02:43:24	0	0	0	0	0	0	35.51	2.75	0.33	938128	0	231862	584694	938128	706266	25775	751	3997	827	447517	1260079	31350
154	2015-10-26 02:49:24	0	0	0	0	0	0	35.51	2.75	0.33	938128	0	231862	584694	938128	706266	25775	751	3999	827	447517	1260079	31352
155	2015-10-26 02:55:25	0	0	0	0	0	0	35.51	2.75	0.33	938824	0	232121	584694	938824	706703	25790	751	3999	827	447517	1260079	31367
156	2015-10-26 03:01:24	0	0	0	0	0	0	35.51	2.75	0.33	938824	0	232121	584694	938824	706703	25790	751	4000	827	447517	1260079	31368
157	2015-10-26 03:07:24	0	0	0	0	0	0	35.53	2.75	0.33	939327	0	232321	584997	939327	707006	25801	751	4000	827	447695	1260080	31379
158	2015-10-26 03:13:24	0	0	0	0	0	0	35.53	2.75	0.33	939327	0	232321	584997	939327	707006	25801	752	4002	827	447695	1260080	31382
159	2015-10-26 03:19:25	0	0	0	0	0	0	35.57	2.75	0.33	939552	0	232415	585855	939552	707137	25804	752	4002	827	448197	1260078	31385
160	2015-10-26 03:25:24	0	0	0	0	0	0	35.57	2.75	0.33	939552	0	232415	585855	939552	707137	25804	753	4002	827	448197	1260074	31386
161	2015-10-26 03:31:25	0	0	0	0	0	0	35.57	2.75	0.33	940129	0	232648	585855	940129	707481	25819	753	4002	827	448197	1260075	31401
162	2015-10-26 03:37:25	0	0	0	0	0	0	35.57	2.75	0.33	940129	0	232648	585855	940129	707481	25819	753	4002	827	448197	1260072	31401
163	2015-10-26 03:43:26	0	0	0	0	0	0	35.57	2.75	0.33	940514	0	232793	585855	940514	707721	25827	753	4002	827	448197	1260073	31409
164	2015-10-26 03:49:25	0	0	0	0	0	0	35.57	2.75	0.33	940514	0	232793	585855	940514	707721	25827	753	4003	827	448197	1260073	31410
165	2015-10-26 03:55:24	0	0	0	0	0	0	35.59	2.75	0.33	940715	0	232875	586271	940715	707840	25830	753	4003	827	448440	1260073	31413
166	2015-10-26 04:01:26	0	0	0	0	0	0	35.59	2.75	0.33	940715	0	232875	586271	940715	707840	25830	753	4003	827	448440	1260075	31413
167	2015-10-26 04:07:25	0	0	0	0	0	0	35.59	2.74	0.33	941290	0	233126	586313	941290	708164	25837	753	4003	827	448440	1260075	31420
168	2015-10-26 04:13:25	0	0	0	0	0	0	35.59	2.74	0.33	941290	0	233126	586313	941290	708164	25837	753	4003	827	448440	1260074	31420
169	2015-10-26 04:19:25	0	0	0	0	0	0	35.61	2.74	0.33	941495	0	233211	586757	941495	708284	25844	753	4003	827	448700	1260074	31427
170	2015-10-26 04:25:27	0	0	0	0	0	0	35.61	2.74	0.33	941495	0	233211	586757	941495	708284	25844	753	4004	827	448700	1260074	31428
171	2015-10-26 04:31:25	0	0	0	0	0	0	35.66	2.74	0.33	941867	0	233383	587537	941867	708484	25851	753	4004	827	449286	1260074	31435
172	2015-10-26 04:37:25	0	0	0	0	0	0	35.66	2.74	0.33	941867	0	233383	587537	941867	708484	25851	753	4006	827	449286	1260074	31437
173	2015-10-26 04:43:25	0	0	0	0	0	0	35.66	2.74	0.33	942232	0	233558	587537	942232	708674	25860	753	4006	827	449286	1260074	31446
174	2015-10-26 04:49:24	0	0	0	0	0	0	35.66	2.74	0.33	942232	0	233558	587537	942232	708674	25860	753	4008	827	449286	1260074	31448
175	2015-10-26 04:55:24	0	0	0	0	0	0	35.7	2.74	0.33	942852	0	233894	587537	942852	708958	25869	753	4008	827	449808	1260075	31457
176	2015-10-26 05:01:24	0	0	0	0	0	0	35.7	2.74	0.33	942852	0	233894	587537	942852	708958	25869	753	4008	827	449808	1260074	31457
177	2015-10-26 05:07:24	0	0	0	0	0	0	35.7	2.74	0.33	943359	0	234133	587537	943359	709226	25880	753	4008	827	449808	1260074	31468
178	2015-10-26 05:13:25	0	0	0	0	0	0	35.7	2.74	0.33	943359	0	234133	587537	943359	709226	25880	754	4011	827	449808	1260072	31472
179	2015-10-26 05:19:25	0	0	0	0	0	0	35.7	2.74	0.33	943926	0	234384	587760	943926	709542	25888	754	4011	827	449808	1260074	31480
180	2015-10-26 05:25:25	0	0	0	0	0	0	35.7	2.74	0.33	943926	0	234384	587760	943926	709542	25888	754	4011	827	449808	1260074	31480
181	2015-10-26 05:31:24	0	0	0	0	0	0	35.73	2.74	0.33	944538	0	234691	587760	944538	709847	25898	754	4011	827	450201	1260077	31490
182	2015-10-26 05:37:25	0	0	0	0	0	0	35.73	2.74	0.33	944538	0	234691	587760	944538	709847	25898	754	4014	827	450201	1260076	31493
183	2015-10-26 05:43:25	0	0	0	0	0	0	35.73	2.74	0.33	944983	0	234923	587760	944983	710060	25904	754	4014	827	450201	1260076	31499
184	2015-10-26 05:49:24	0	0	0	0	0	0	35.73	2.74	0.33	944983	0	234923	587760	944983	710060	25904	757	4021	827	450201	1260074	31509
185	2015-10-26 05:55:24	0	0	0	0	0	0	35.73	2.74	0.33	945879	0	235338	588095	945879	710541	25919	757	4021	827	450201	1260074	31524
186	2015-10-26 06:01:25	0	0	0	0	0	0	35.73	2.74	0.33	945879	0	235338	588095	945879	710541	25919	758	4024	827	450201	1260074	31528
187	2015-10-26 06:07:24	0	0	0	0	0	0	35.77	2.74	0.33	946893	0	235808	589158	946893	711085	25933	758	4024	828	450725	1260076	31543
188	2015-10-26 06:13:26	0	0	0	0	0	0	35.77	2.74	0.33	946893	0	235808	589158	946893	711085	25933	758	4030	828	450725	1260077	31549
189	2015-10-26 06:19:24	0	0	0	0	0	0	35.78	2.74	0.33	948104	0	236376	589382	948104	711728	25963	758	4030	829	450856	1260077	31580
190	2015-10-26 06:25:25	0	0	0	0	0	0	35.78	2.74	0.33	948104	0	236376	589382	948104	711728	25963	758	4034	829	450856	1260077	31584
191	2015-10-26 06:31:26	0	0	0	0	0	0	35.78	2.74	0.33	949084	0	236831	589382	949084	712253	25976	758	4034	829	450856	1260077	31597
192	2015-10-26 06:37:25	0	0	0	0	0	0	35.78	2.74	0.33	949084	0	236831	589382	949084	712253	25976	758	4037	829	450856	1260079	31600
193	2015-10-26 06:43:25	0	0	0	0	0	0	35.8	2.74	0.33	950442	0	237465	590253	950442	712977	25997	758	4037	830	451103	1260080	31622
194	2015-10-26 06:49:26	0	0	0	0	0	0	35.8	2.74	0.33	950442	0	237465	590253	950442	712977	25997	759	4040	830	451103	1260083	31626
195	2015-10-26 06:55:26	0	0	0	0	0	0	35.8	2.73	0.33	951830	0	238070	591154	951830	713760	26030	759	4040	830	451103	1260083	31659
196	2015-10-26 07:01:28	0	0	0	0	0	0	35.8	2.73	0.33	951830	0	238070	591154	951830	713760	26030	759	4043	830	451103	1260084	31662
197	2015-10-26 07:07:28	0	0	0	0	0	0	35.8	2.73	0.33	953160	0	238647	591974	953160	714513	26048	759	4043	831	451119	1260086	31681
198	2015-10-26 07:13:25	0	0	0	0	0	0	35.8	2.73	0.33	953160	0	238647	591974	953160	714513	26048	759	4050	831	451119	1260088	31688
199	2015-10-26 07:19:26	0	0	0	0	0	0	35.83	2.73	0.33	954784	0	239369	592824	954784	715415	26083	759	4050	832	451481	1260088	31724
200	2015-10-26 07:25:26	0	0	0	0	0	0	35.83	2.73	0.33	954784	0	239369	592824	954784	715415	26083	760	4055	832	451481	1260090	31730
201	2015-10-26 07:31:30	0	0	0	0	0	0	35.92	2.73	0.34	956474	0	240109	593164	956474	716365	26115	760	4055	833	452603	1260090	31763
202	2015-10-26 07:37:27	0	0	0	0	0	0	35.92	2.73	0.34	956474	0	240109	593164	956474	716365	26115	761	4063	833	452603	1260092	31772
203	2015-10-26 07:43:27	0	0	0	0	0	0	35.93	2.73	0.34	958818	0	241115	594189	958818	717703	26180	761	4063	835	452801	1260092	31839
204	2015-10-26 07:49:31	0	0	0	0	0	0	35.93	2.73	0.34	958818	0	241115	594189	958818	717703	26180	764	4077	835	452801	1260093	31856
205	2015-10-26 07:55:31	0	0	0	0	0	0	35.93	2.73	0.34	960950	0	242040	594189	960950	718910	26226	764	4077	837	452801	1260094	31904
206	2015-10-26 08:01:27	0	0	0	0	0	0	35.93	2.73	0.34	960950	0	242040	594189	960950	718910	26226	765	4085	837	452801	1260096	31913
207	2015-10-26 08:07:27	0	0	0	0	0	0	35.97	2.73	0.34	963086	0	242996	595503	963086	720090	26270	765	4085	838	453298	1260099	31958
208	2015-10-26 08:13:30	0	0	0	0	0	0	35.97	2.73	0.34	963086	0	242996	595503	963086	720090	26270	766	4091	838	453298	1260100	31965
209	2015-10-26 08:19:31	0	0	0	0	0	0	36.09	2.73	0.34	964997	0	243794	597107	964997	721203	26325	766	4091	838	454761	1260104	32020
210	2015-10-26 08:25:29	0	0	0	0	0	0	36.09	2.73	0.34	964997	0	243794	597107	964997	721203	26325	767	4097	838	454761	1260109	32027
211	2015-10-26 08:31:27	0	0	0	0	0	0	36.14	2.73	0.34	967111	0	244669	598232	967111	722442	26373	767	4097	838	455396	1260110	32075
212	2015-10-26 08:37:28	0	0	0	0	0	0	36.14	2.73	0.34	967111	0	244669	598232	967111	722442	26373	767	4100	838	455396	1260113	32078
213	2015-10-26 08:43:30	0	0	0	0	0	0	36.18	2.73	0.34	970210	0	245923	600611	970210	724287	26449	767	4100	841	455866	1260115	32157
214	2015-10-26 08:49:28	0	0	0	0	0	0	36.18	2.73	0.34	970210	0	245923	600611	970210	724287	26449	769	4108	841	455866	1260118	32167
215	2015-10-26 08:55:29	0	0	0	0	0	0	36.22	2.73	0.34	972471	0	246747	603038	972471	725724	26519	769	4108	844	456387	1260119	32240
216	2015-10-26 09:01:30	0	0	0	0	0	0	36.22	2.73	0.34	972471	0	246747	603038	972471	725724	26519	769	4114	844	456387	1260124	32246
217	2015-10-26 09:07:28	0	0	0	0	0	0	36.22	2.73	0.34	974453	0	247517	603097	974453	726936	26568	769	4114	845	456387	1260126	32296
218	2015-10-26 09:13:29	0	0	0	0	0	0	36.22	2.73	0.34	974453	0	247517	603097	974453	726936	26568	771	4121	845	456387	1260128	32305
219	2015-10-26 09:19:30	0	0	0	0	0	0	36.39	2.73	0.34	976906	0	248481	605811	976906	728425	26646	771	4121	846	458617	1260129	32384
220	2015-10-26 09:25:28	0	0	0	0	0	0	36.39	2.73	0.34	976906	0	248481	605811	976906	728425	26646	772	4129	846	458617	1260130	32393
221	2015-10-26 09:31:34	0	0	0	0	0	0	36.41	2.73	0.34	979146	0	249343	606879	979146	729803	26709	772	4129	849	458821	1260133	32459
222	2015-10-26 09:37:37	0	0	0	0	0	0	36.41	2.73	0.34	979146	0	249343	606879	979146	729803	26709	774	4142	849	458821	1260131	32474
223	2015-10-26 09:43:31	0	0	0	0	0	0	36.5	2.73	0.34	981454	0	250338	607437	981454	731116	26760	774	4142	851	459941	1260135	32527
224	2015-10-26 09:49:38	0	0	0	0	0	0	36.5	2.73	0.34	981454	0	250338	607437	981454	731116	26760	774	4147	851	459941	1260133	32532
225	2015-10-26 09:55:33	0	0	0	0	0	0	36.61	2.73	0.34	984011	0	251321	608870	984011	732690	26843	774	4147	859	461312	1260134	32623
226	2015-10-26 10:01:40	0	0	0	0	0	0	36.61	2.73	0.34	984011	0	251321	608870	984011	732690	26843	775	4153	859	461312	1260136	32630
227	2015-10-26 10:07:32	0	0	0	0	0	0	36.72	2.73	0.34	986399	0	252258	609230	986399	734141	26905	775	4153	865	462690	1260136	32698
228	2015-10-26 10:13:31	0	0	0	0	0	0	36.72	2.73	0.34	986399	0	252258	609230	986399	734141	26905	780	4162	865	462690	1260136	32712
229	2015-10-26 10:19:38	0	0	0	0	0	0	36.81	2.73	0.34	988596	0	253115	610672	988596	735481	26971	780	4162	875	463869	1260141	32788
230	2015-10-26 10:25:44	0	0	0	0	0	0	36.81	2.73	0.34	988596	0	253115	610672	988596	735481	26971	781	4172	875	463869	1260144	32799
231	2015-10-26 10:31:52	0	0	0	0	0	0	36.9	2.73	0.34	991064	0	254110	612415	991064	736954	27057	781	4172	877	464944	1260148	32887
232	2015-10-26 10:37:35	0	0	0	0	0	0	36.9	2.73	0.34	991064	0	254110	612415	991064	736954	27057	783	4183	877	464944	1260151	32900
233	2015-10-26 10:44:26	0	0	0	0	0	0	36.92	2.73	0.35	993347	0	255026	612840	993347	738321	27118	783	4183	880	465189	1260155	32964
234	2015-10-26 10:49:38	0	0	0	0	0	0	36.92	2.73	0.35	993347	0	255026	612840	993347	738321	27118	784	4193	880	465189	1260159	32975
235	2015-10-26 10:55:36	0	0	0	0	0	0	36.91	2.73	0.35	996042	0	256108	616132	996042	739934	27189	784	4193	881	465189	1260163	33047
236	2015-10-26 11:01:39	0	0	0	0	0	0	36.91	2.73	0.35	996042	0	256108	616132	996042	739934	27189	787	4198	881	465189	1260163	33055
237	2015-10-26 11:07:31	0	0	0	0	0	0	37	2.73	0.35	998446	0	257065	616992	998446	741381	27241	787	4198	882	466239	1260164	33108
238	2015-10-26 11:13:44	0	0	0	0	0	0	37	2.73	0.35	998446	0	257065	616992	998446	741381	27241	790	4210	882	466239	1260165	33123
239	2015-10-26 11:19:40	0	0	0	0	0	0	37.01	2.73	0.35	1000494	0	257912	617238	1000494	742582	27308	790	4210	882	466450	1260169	33190
240	2015-10-26 11:25:38	0	0	0	0	0	0	37.01	2.73	0.35	1000494	0	257912	617238	1000494	742582	27308	791	4222	882	466450	1260175	33203
241	2015-10-26 11:31:36	0	0	0	0	0	0	37.03	2.73	0.35	1002573	0	258826	618467	1002573	743747	27349	791	4222	882	466659	1260179	33244
242	2015-10-26 11:37:35	0	0	0	0	0	0	37.03	2.73	0.35	1002573	0	258826	618467	1002573	743747	27349	791	4226	882	466659	1260186	33248
243	2015-10-26 11:43:33	0	0	0	0	0	0	37.11	2.73	0.35	1004338	0	259607	620201	1004338	744731	27392	791	4226	883	467645	1260190	33292
244	2015-10-26 11:49:34	0	0	0	0	0	0	37.11	2.73	0.35	1004338	0	259607	620201	1004338	744731	27392	792	4232	883	467645	1260190	33299
245	2015-10-26 11:55:33	0	0	0	0	0	0	37.19	2.73	0.35	1005947	0	260317	620947	1005947	745630	27428	792	4232	884	468636	1260193	33336
246	2015-10-26 12:01:34	0	0	0	0	0	0	37.19	2.73	0.35	1005947	0	260317	620947	1005947	745630	27428	794	4242	884	468636	1260198	33348
247	2015-10-26 12:07:36	0	0	0	0	0	0	37.24	2.73	0.35	1007695	0	261110	622008	1007695	746585	27489	794	4242	886	469240	1260199	33411
248	2015-10-26 12:13:32	0	0	0	0	0	0	37.24	2.73	0.35	1007695	0	261110	622008	1007695	746585	27489	795	4249	886	469240	1260202	33419
249	2015-10-26 12:19:33	0	0	0	0	0	0	37.28	2.73	0.35	1009410	0	261853	623009	1009410	747557	27530	795	4249	887	469810	1260204	33461
250	2015-10-26 12:25:46	0	0	0	0	0	0	37.28	2.73	0.35	1009410	0	261853	623009	1009410	747557	27530	798	4261	887	469810	1260204	33476
251	2015-10-26 12:31:49	0	0	0	0	0	0	37.28	2.73	0.35	1010997	0	262567	623448	1010997	748430	27567	798	4261	888	469810	1260208	33514
252	2015-10-26 12:37:34	0	0	0	0	0	0	37.28	2.73	0.35	1010997	0	262567	623448	1010997	748430	27567	799	4271	888	469810	1260211	33525
253	2015-10-26 12:43:38	0	0	0	0	0	0	37.36	2.73	0.35	1012387	0	263185	625195	1012387	749202	27596	799	4271	888	470872	1260214	33554
254	2015-10-26 12:49:34	0	0	0	0	0	0	37.36	2.73	0.35	1012387	0	263185	625195	1012387	749202	27596	799	4274	888	470872	1260219	33557
255	2015-10-26 12:55:38	0	0	0	0	0	0	37.39	2.73	0.35	1013856	0	263825	625818	1013856	750031	27638	799	4274	889	471226	1260223	33600
256	2015-10-26 13:01:45	0	0	0	0	0	0	37.39	2.73	0.35	1013856	0	263825	625818	1013856	750031	27638	801	4279	889	471226	1260226	33607
257	2015-10-26 13:07:39	0	0	0	0	0	0	37.44	2.73	0.35	1015842	0	264717	627594	1015842	751125	27685	801	4279	890	471801	1260226	33655
258	2015-10-26 13:13:47	0	0	0	0	0	0	37.44	2.73	0.35	1015842	0	264717	627594	1015842	751125	27685	801	4289	890	471801	1260229	33665
259	2015-10-26 13:19:46	0	0	0	0	0	0	37.44	2.73	0.35	1017060	0	265274	627594	1017060	751786	27717	801	4289	892	471801	1260233	33699
260	2015-10-26 13:25:44	0	0	0	0	0	0	37.44	2.73	0.35	1017801	0	265619	627785	1017801	752182	27741	802	4293	893	471801	1260236	33729
261	2015-10-26 13:31:46	0	0	0	0	0	0	37.44	2.73	0.35	1018610	0	265979	627785	1018610	752631	27766	804	4300	895	471801	1260242	33765
262	2015-10-26 13:37:43	0	0	0	0	0	0	37.44	2.73	0.35	1018610	0	265979	627785	1018610	752631	27766	804	4300	895	471801	1260246	33765
263	2015-10-26 13:43:46	0	0	0	0	0	0	37.47	2.73	0.35	1020038	0	266642	628295	1020038	753396	27805	804	4302	897	472232	1260250	33808
264	2015-10-26 13:49:45	0	0	0	0	0	0	37.47	2.73	0.35	1020038	0	266642	628295	1020038	753396	27805	804	4302	897	472232	1260252	33808
265	2015-10-26 13:55:14	0	0	0	0	0	0	37.56	2.73	0.35	1021544	0	267335	630325	1021544	754209	27838	807	4310	897	473378	1260253	33852
266	2015-10-26 13:56:20	0	0	0	0	0	0	37.56	2.73	0.35	1021544	0	267335	630325	1021544	754209	27838	807	4310	897	473378	1260254	33852
267	2015-10-26 14:02:18	0	0	0	0	0	0	37.56	2.73	0.35	1021544	0	267335	630325	1021544	754209	27838	807	4310	897	473378	1260256	33852
268	2015-10-26 14:08:27	0	0	0	0	0	0	37.65	2.72	0.36	1023027	0	268044	631353	1023027	754983	27873	807	4312	900	474466	1260259	33892
269	2015-10-26 14:14:17	0	0	0	0	0	0	37.65	2.72	0.36	1023027	0	268044	631353	1023027	754983	27873	807	4312	900	474466	1260264	33892
270	2015-10-26 14:20:14	0	0	0	0	0	0	37.65	2.72	0.36	1024528	0	268755	631869	1024528	755773	27909	809	4318	902	474466	1260273	33938
271	2015-10-26 14:26:15	0	0	0	0	0	0	37.65	2.72	0.36	1024528	0	268755	631869	1024528	755773	27909	809	4318	902	474466	1260277	33938
272	2015-10-26 14:32:14	0	0	0	0	0	0	37.65	2.72	0.36	1025727	0	269311	631869	1025727	756416	27936	810	4324	904	474466	1260284	33974
273	2015-10-26 14:38:14	0	0	0	0	0	0	37.65	2.72	0.36	1025727	0	269311	631869	1025727	756416	27936	810	4324	904	474466	1260295	33974
274	2015-10-26 14:44:15	0	0	0	0	0	0	37.65	2.72	0.36	1026992	0	269949	631869	1026992	757043	27955	810	4330	904	474466	1260294	33999
275	2015-10-26 14:50:16	0	0	0	0	0	0	37.65	2.72	0.36	1026992	0	269949	631869	1026992	757043	27955	810	4330	904	474466	1260299	33999
276	2015-10-26 14:56:11	0	0	0	0	0	0	37.78	2.72	0.36	1028375	0	270606	635304	1028375	757769	27989	810	4336	904	476145	1260302	34039
277	2015-10-26 15:02:13	0	0	0	0	0	0	37.78	2.72	0.36	1028375	0	270606	635304	1028375	757769	27989	810	4336	904	476145	1260303	34039
278	2015-10-26 15:08:12	0	0	0	0	0	0	37.79	2.72	0.36	1029543	0	271151	635696	1029543	758392	28022	812	4339	904	476291	1260310	34077
279	2015-10-26 15:14:15	0	0	0	0	0	0	37.79	2.72	0.36	1029543	0	271151	635696	1029543	758392	28022	812	4339	904	476291	1260311	34077
280	2015-10-26 15:20:16	0	0	0	0	0	0	37.8	2.72	0.36	1030860	0	271744	637980	1030860	759116	28050	814	4342	905	476360	1260321	34111
281	2015-10-26 15:32:14	0	0	0	0	0	0	37.82	2.72	0.36	1031494	0	272037	637980	1031494	759457	28066	814	4344	906	476653	1260338	34130
282	2015-10-26 15:44:16	0	0	0	0	0	0	37.84	2.72	0.36	1032684	0	272584	638374	1032684	760100	28098	814	4349	908	476873	1260359	34169
283	2015-10-26 15:50:10	0	0	0	0	0	0	37.84	2.72	0.36	1032684	0	272584	638374	1032684	760100	28098	814	4349	908	476873	1260364	34169
284	2015-10-26 15:56:12	0	0	0	0	0	0	37.84	2.72	0.36	1034499	0	273188	638374	1034499	760773	28128	815	4357	908	476873	1260370	34208
285	2015-10-26 16:02:12	0	0	0	0	0	0	37.84	2.72	0.36	1034499	0	273188	638374	1034499	760773	28128	815	4357	908	476873	1260374	34208
286	2015-10-26 16:08:31	0	0	0	0	0	0	37.84	2.72	0.36	1035008	0	273679	639627	1035008	761329	28161	815	4361	909	476928	1260378	34246
287	2015-10-26 16:14:17	0	0	0	0	0	0	37.84	2.72	0.36	1035008	0	273679	639627	1035008	761329	28161	815	4361	909	476928	1260385	34246
288	2015-10-26 16:20:16	0	0	0	0	0	0	37.86	2.72	0.36	1036244	0	274248	639627	1036244	761996	28193	815	4366	910	477222	1260390	34284
289	2015-10-26 16:26:24	0	0	0	0	0	0	37.86	2.72	0.36	1036244	0	274248	639627	1036244	761996	28193	815	4366	910	477222	1260399	34284
290	2015-10-26 16:32:17	0	0	0	0	0	0	37.91	2.72	0.36	1037600	0	274874	641200	1037600	762726	28230	815	4372	910	477775	1260406	34327
291	2015-10-26 16:38:14	0	0	0	0	0	0	37.91	2.72	0.36	1037600	0	274874	641200	1037600	762726	28230	815	4372	910	477775	1260413	34327
292	2015-10-26 16:44:21	0	0	0	0	0	0	37.97	2.72	0.36	1038845	0	275464	642998	1038845	763381	28260	815	4375	910	478624	1260418	34360
293	2015-10-26 16:50:17	0	0	0	0	0	0	37.97	2.72	0.36	1038845	0	275464	642998	1038845	763381	28260	815	4375	910	478624	1260422	34360
294	2015-10-26 16:56:16	0	0	0	0	0	0	37.97	2.72	0.36	1039928	0	275934	642998	1039928	763994	28288	816	4377	910	478624	1260428	34391
295	2015-10-26 17:02:18	0	0	0	0	0	0	37.97	2.72	0.36	1039928	0	275934	642998	1039928	763994	28288	816	4377	910	478624	1260438	34391
296	2015-10-26 17:08:14	0	0	0	0	0	0	37.97	2.72	0.36	1040817	0	276343	643265	1040817	764474	28312	816	4383	912	478624	1260443	34423
297	2015-10-26 17:14:11	0	0	0	0	0	0	37.97	2.72	0.36	1040817	0	276343	643265	1040817	764474	28312	816	4383	912	478624	1260444	34423
298	2015-10-26 17:20:25	0	0	0	0	0	0	37.97	2.72	0.36	1041793	0	276803	643265	1041793	764990	28331	816	4384	912	478624	1260453	34443
299	2015-10-26 17:26:13	0	0	0	0	0	0	37.97	2.72	0.36	1041793	0	276803	643265	1041793	764990	28331	816	4384	912	478624	1260456	34443
300	2015-10-26 17:32:11	0	0	0	0	0	0	37.98	2.72	0.36	1042724	0	277279	643800	1042724	765445	28355	816	4389	913	478772	1260463	34473
301	2015-10-26 17:38:18	0	0	0	0	0	0	37.98	2.72	0.36	1042724	0	277279	643800	1042724	765445	28355	816	4389	913	478772	1260470	34473
302	2015-10-26 17:44:14	0	0	0	0	0	0	38	2.72	0.36	1043664	0	277756	644068	1043664	765908	28378	817	4394	915	478920	1260467	34504
303	2015-10-26 17:50:15	0	0	0	0	0	0	38	2.72	0.36	1043664	0	277756	644068	1043664	765908	28378	817	4394	915	478920	1260477	34504
304	2015-10-26 17:56:17	0	0	0	0	0	0	37.99	2.72	0.36	1044568	0	278186	644068	1044568	766382	28403	817	4395	916	478920	1260485	34531
305	2015-10-26 18:02:18	0	0	0	0	0	0	37.99	2.72	0.36	1044568	0	278186	644068	1044568	766382	28403	817	4395	916	478920	1260487	34531
306	2015-10-26 18:08:15	0	0	0	0	0	0	37.99	2.72	0.36	1045471	0	278623	644068	1045471	766848	28433	820	4400	917	478920	1260490	34570
307	2015-10-26 18:14:17	0	0	0	0	0	0	37.99	2.72	0.36	1045471	0	278623	644068	1045471	766848	28433	820	4400	917	478920	1260497	34570
308	2015-10-26 18:20:16	0	0	0	0	0	0	38.02	2.72	0.36	1046716	0	279215	644872	1046716	767501	28465	821	4404	919	479217	1260504	34609
309	2015-10-26 18:26:39	0	0	0	0	0	0	38.02	2.72	0.36	1046716	0	279215	644872	1046716	767501	28465	821	4404	919	479217	1260510	34609
310	2015-10-26 18:32:18	0	0	0	0	0	0	38.02	2.72	0.36	1047675	0	279659	645814	1047675	768016	28485	822	4408	919	479217	1260516	34634
311	2015-10-26 18:38:14	0	0	0	0	0	0	38.02	2.72	0.36	1047675	0	279659	645814	1047675	768016	28485	822	4408	919	479217	1260522	34634
312	2015-10-26 18:44:15	0	0	0	0	0	0	38.02	2.72	0.36	1048478	0	280055	645814	1048478	768423	28508	822	4412	921	479217	1260522	34663
313	2015-10-26 18:50:15	0	0	0	0	0	0	38.02	2.72	0.36	1048478	0	280055	645814	1048478	768423	28508	822	4412	921	479217	1260525	34663
314	2015-10-26 18:56:24	0	0	0	0	0	0	38.03	2.72	0.36	1048993	0	280295	645814	1048993	768698	28516	823	4415	921	479439	1260531	34675
315	2015-10-26 19:02:20	0	0	0	0	0	0	38.03	2.72	0.36	1048993	0	280295	645814	1048993	768698	28516	823	4415	921	479439	1260531	34675
316	2015-10-26 19:08:13	0	0	0	0	0	0	38.03	2.72	0.37	1050244	0	280940	645814	1050244	769304	28544	826	4428	922	479439	1260532	34720
317	2015-10-26 19:14:16	0	0	0	0	0	0	38.03	2.72	0.37	1050244	0	280940	645814	1050244	769304	28544	826	4428	922	479439	1260539	34720
318	2015-10-26 19:20:15	0	0	0	0	0	0	38.03	2.72	0.37	1051159	0	281388	646353	1051159	769771	28564	826	4439	926	479439	1260539	34755
319	2015-10-26 19:26:12	0	0	0	0	0	0	38.03	2.72	0.37	1051159	0	281388	646353	1051159	769771	28564	826	4439	926	479439	1260544	34755
320	2015-10-26 19:32:13	0	0	0	0	0	0	38.03	2.72	0.37	1051617	0	281620	646353	1051617	769997	28575	826	4441	928	479439	1260553	34770
321	2015-10-26 19:38:15	0	0	0	0	0	0	38.03	2.72	0.37	1051617	0	281620	646353	1051617	769997	28575	826	4441	928	479439	1260555	34770
322	2015-10-26 19:44:15	0	0	0	0	0	0	38.06	2.72	0.37	1052827	0	282202	646353	1052827	770625	28606	826	4448	932	479736	1260556	34812
323	2015-10-26 19:50:15	0	0	0	0	0	0	38.06	2.72	0.37	1052827	0	282202	646353	1052827	770625	28606	826	4448	932	479736	1260562	34812
324	2015-10-26 19:56:16	0	0	0	0	0	0	38.06	2.72	0.37	1053179	0	282379	646758	1053179	770800	28614	827	4451	933	479736	1260563	34825
325	2015-10-26 20:02:20	0	0	0	0	0	0	38.06	2.72	0.37	1053179	0	282379	646758	1053179	770800	28614	827	4451	933	479736	1260571	34825
326	2015-10-26 20:08:19	0	0	0	0	0	0	38.06	2.72	0.37	1054091	0	282821	646758	1054091	771270	28630	827	4458	933	479736	1260572	34848
327	2015-10-26 20:14:16	0	0	0	0	0	0	38.06	2.72	0.37	1054091	0	282821	646758	1054091	771270	28630	827	4458	933	479736	1260577	34848
328	2015-10-26 20:20:15	0	0	0	0	0	0	38.06	2.72	0.37	1054850	0	283185	648383	1054850	771665	28640	828	4460	933	479736	1260581	34861
329	2015-10-26 20:26:13	0	0	0	0	0	0	38.06	2.72	0.37	1054850	0	283185	648383	1054850	771665	28640	828	4460	933	479736	1260585	34861
330	2015-10-26 20:32:14	0	0	0	0	0	0	38.07	2.71	0.37	1055698	0	283637	648774	1055698	772061	28657	828	4462	936	479950	1260588	34883
331	2015-10-26 20:38:15	0	0	0	0	0	0	38.07	2.71	0.37	1055698	0	283637	648774	1055698	772061	28657	828	4462	936	479950	1260596	34883
332	2015-10-26 20:40:03	0	0	0	0	0	0	38.07	2.71	0.37	1055698	0	283637	648774	1055698	772061	28657	828	4462	936	479950	1260596	34883
333	2015-10-26 20:40:48	0	0	0	0	0	0	38.07	2.71	0.37	1055698	0	283637	648774	1055698	772061	28657	828	4462	936	479950	1260596	34883
334	2015-10-26 20:46:48	0	0	0	0	0	0	38.07	2.71	0.37	1056553	0	284090	648774	1056553	772463	28681	830	4467	937	479950	1260599	34915
335	2015-10-26 20:52:48	0	0	0	0	0	0	38.07	2.71	0.37	1056553	0	284090	648774	1056553	772463	28681	830	4467	937	479950	1260606	34915
336	2015-10-26 20:58:51	0	0	0	0	0	0	38.07	2.71	0.37	1057191	0	284443	648774	1057191	772748	28696	830	4468	937	479950	1260609	34931
337	2015-10-26 21:04:47	0	0	0	0	0	0	38.07	2.71	0.37	1057191	0	284443	648774	1057191	772748	28696	830	4468	937	479950	1260612	34931
338	2015-10-26 21:10:49	0	0	0	0	0	0	38.07	2.71	0.37	1058358	0	285048	649182	1058358	773310	28716	832	4476	938	479950	1260620	34962
339	2015-10-26 21:16:48	0	0	0	0	0	0	38.07	2.71	0.37	1058358	0	285048	649182	1058358	773310	28716	832	4476	938	479950	1260627	34962
340	2015-10-26 21:22:48	0	0	0	0	0	0	38.07	2.71	0.37	1059091	0	285444	649182	1059091	773647	28727	832	4481	939	479950	1260626	34979
341	2015-10-26 21:28:46	0	0	0	0	0	0	38.07	2.71	0.37	1059091	0	285444	649182	1059091	773647	28727	832	4481	939	479950	1260636	34979
342	2015-10-26 21:34:47	0	0	0	0	0	0	38.07	2.71	0.37	1059868	0	285895	649250	1059868	773973	28736	832	4484	939	479950	1260645	34991
343	2015-10-26 21:40:47	0	0	0	0	0	0	38.07	2.71	0.37	1059868	0	285895	649250	1059868	773973	28736	832	4484	939	479950	1260655	34991
344	2015-10-26 21:46:49	0	0	0	0	0	0	38.07	2.71	0.37	1060790	0	286384	649250	1060790	774406	28755	832	4490	941	479950	1260658	35018
345	2015-10-26 21:52:47	0	0	0	0	0	0	38.07	2.71	0.37	1060790	0	286384	649250	1060790	774406	28755	832	4490	941	479950	1260665	35018
346	2015-10-26 21:58:47	0	0	0	0	0	0	38.07	2.71	0.37	1061511	0	286753	649250	1061511	774758	28772	832	4491	941	479950	1260669	35036
347	2015-10-26 22:04:48	0	0	0	0	0	0	38.07	2.71	0.37	1061511	0	286753	649250	1061511	774758	28772	832	4491	941	479950	1260673	35036
348	2015-10-26 22:10:48	0	0	0	0	0	0	38.12	2.71	0.37	1062223	0	287122	650324	1062223	775101	28787	832	4493	941	480537	1260678	35053
349	2015-10-26 22:16:48	0	0	0	0	0	0	38.12	2.71	0.37	1062223	0	287122	650324	1062223	775101	28787	832	4493	941	480537	1260686	35053
350	2015-10-26 22:22:49	0	0	0	0	0	0	38.12	2.71	0.37	1062889	0	287486	650324	1062889	775403	28804	834	4496	941	480537	1260687	35075
351	2015-10-26 22:28:49	0	0	0	0	0	0	38.12	2.71	0.37	1062889	0	287486	650324	1062889	775403	28804	834	4496	941	480537	1260689	35075
352	2015-10-26 22:34:56	0	0	0	0	0	0	38.12	2.71	0.37	1063532	0	287848	650324	1063532	775684	28818	834	4499	941	480537	1260691	35092
353	2015-10-26 22:40:46	0	0	0	0	0	0	38.12	2.71	0.37	1063532	0	287848	650324	1063532	775684	28818	834	4499	941	480537	1260697	35092
354	2015-10-26 22:46:48	0	0	0	0	0	0	38.12	2.71	0.37	1064250	0	288222	650324	1064250	776028	28835	834	4503	941	480537	1260703	35113
355	2015-10-26 22:52:50	0	0	0	0	0	0	38.12	2.71	0.37	1064250	0	288222	650324	1064250	776028	28835	834	4503	941	480537	1260711	35113
356	2015-10-26 22:58:47	0	0	0	0	0	0	38.12	2.71	0.37	1064925	0	288557	650837	1064925	776368	28842	834	4505	945	480537	1260715	35126
357	2015-10-26 23:04:57	0	0	0	0	0	0	38.12	2.71	0.37	1064925	0	288557	650837	1064925	776368	28842	834	4505	945	480537	1260718	35126
358	2015-10-26 23:10:47	0	0	0	0	0	0	38.12	2.71	0.37	1065494	0	288853	650837	1065494	776641	28852	834	4507	946	480537	1260723	35139
359	2015-10-26 23:16:48	0	0	0	0	0	0	38.12	2.71	0.37	1065494	0	288853	650837	1065494	776641	28852	834	4507	946	480537	1260728	35139
360	2015-10-26 23:22:49	0	0	0	0	0	0	38.12	2.71	0.37	1066126	0	289159	650837	1066126	776967	28870	835	4514	946	480537	1260730	35165
361	2015-10-26 23:28:48	0	0	0	0	0	0	38.12	2.71	0.37	1066126	0	289159	650837	1066126	776967	28870	835	4514	946	480537	1260729	35165
362	2015-10-26 23:34:52	0	0	0	0	0	0	38.12	2.71	0.37	1066995	0	289492	652104	1066995	777232	28887	835	4517	947	480537	1260735	35186
363	2015-10-26 23:40:46	0	0	0	0	0	0	38.12	2.71	0.37	1066995	0	289492	652104	1066995	777232	28887	835	4517	947	480537	1260739	35186
364	2015-10-26 23:46:47	0	0	0	0	0	0	38.12	2.71	0.37	1067285	0	289837	652104	1067285	777448	28896	835	4521	947	480537	1260744	35199
365	2015-10-26 23:52:48	0	0	0	0	0	0	38.12	2.71	0.37	1067285	0	289837	652104	1067285	777448	28896	835	4521	947	480537	1260743	35199
366	2015-10-26 23:58:47	0	0	0	0	0	0	38.12	2.71	0.37	1067708	0	290098	652104	1067708	777610	28902	836	4524	949	480537	1260746	35211
367	2015-10-27 00:04:48	0	0	0	0	0	0	38.12	2.71	0.37	1067708	0	290098	652104	1067708	777610	28902	836	4524	949	480537	1260748	35211
368	2015-10-27 00:10:48	0	0	0	0	0	0	38.13	2.71	0.37	1068025	0	290321	652379	1068025	777704	28909	836	4526	950	480686	1260750	35221
369	2015-10-27 00:16:48	0	0	0	0	0	0	38.13	2.71	0.37	1068025	0	290321	652379	1068025	777704	28909	836	4526	950	480686	1260756	35221
370	2015-10-27 00:22:48	0	0	0	0	0	0	38.14	2.71	0.37	1068316	0	290521	652637	1068316	777795	28917	836	4528	950	480826	1260757	35231
371	2015-10-27 00:28:46	0	0	0	0	0	0	38.14	2.71	0.37	1068316	0	290521	652637	1068316	777795	28917	836	4528	950	480826	1260757	35231
372	2015-10-27 00:34:49	0	0	0	0	0	0	38.21	2.71	0.37	1068526	0	290678	653188	1068526	777848	28926	836	4529	951	481724	1260760	35242
373	2015-10-27 00:40:48	0	0	0	0	0	0	38.21	2.71	0.37	1068526	0	290678	653188	1068526	777848	28926	836	4529	951	481724	1260760	35242
374	2015-10-27 00:46:48	0	0	0	0	0	0	38.21	2.71	0.37	1068717	0	290817	653188	1068717	777900	28930	836	4529	951	481724	1260761	35246
375	2015-10-27 00:52:47	0	0	0	0	0	0	38.21	2.71	0.37	1068717	0	290817	653188	1068717	777900	28930	836	4529	951	481724	1260764	35246
376	2015-10-27 00:58:48	0	0	0	0	0	0	38.21	2.71	0.37	1068979	0	291015	653188	1068979	777964	28937	836	4530	951	481724	1260762	35254
377	2015-10-27 01:04:47	0	0	0	0	0	0	38.19	2.71	0.37	1068979	0	291015	653188	1068979	777964	28937	836	4530	951	481724	1261278	35254
378	2015-10-27 01:10:48	0	0	0	0	0	0	38.19	2.71	0.37	1069064	0	291073	653188	1069064	777991	28938	836	4530	951	481724	1261275	35255
379	2015-10-27 01:16:46	0	0	0	0	0	0	38.19	2.71	0.37	1069064	0	291073	653188	1069064	777991	28938	836	4530	951	481724	1261274	35255
380	2015-10-27 01:22:50	0	0	0	0	0	0	38.19	2.71	0.37	1069160	0	291139	653188	1069160	778021	28939	836	4530	952	481724	1261274	35257
381	2015-10-27 01:28:49	0	0	0	0	0	0	38.19	2.71	0.37	1069160	0	291139	653188	1069160	778021	28939	836	4530	952	481724	1261276	35257
382	2015-10-27 01:34:48	0	0	0	0	0	0	38.19	2.71	0.37	1069242	0	291202	653188	1069242	778040	28946	836	4530	952	481724	1261278	35264
383	2015-10-27 01:40:47	0	0	0	0	0	0	38.19	2.71	0.37	1069242	0	291202	653188	1069242	778040	28946	836	4530	952	481724	1261279	35264
384	2015-10-27 01:46:48	0	0	0	0	0	0	38.19	2.71	0.37	1069301	0	291247	653188	1069301	778054	28946	836	4530	952	481724	1261278	35264
385	2015-10-27 01:52:47	0	0	0	0	0	0	38.19	2.71	0.37	1069301	0	291247	653188	1069301	778054	28946	836	4530	952	481724	1261279	35264
386	2015-10-27 01:58:47	0	0	0	0	0	0	38.19	2.71	0.37	1069362	0	291293	653188	1069362	778069	28946	836	4530	952	481724	1261282	35264
387	2015-10-27 02:04:48	0	0	0	0	0	0	38.19	2.71	0.37	1069362	0	291293	653188	1069362	778069	28946	836	4530	952	481724	1261282	35264
388	2015-10-27 02:10:48	0	0	0	0	0	0	38.19	2.71	0.37	1069416	0	291334	653188	1069416	778082	28946	836	4530	952	481724	1261282	35264
389	2015-10-27 02:16:48	0	0	0	0	0	0	38.19	2.71	0.37	1069416	0	291334	653188	1069416	778082	28946	836	4530	952	481724	1261280	35264
390	2015-10-27 02:22:48	0	0	0	0	0	0	38.19	2.71	0.37	1069463	0	291373	653188	1069463	778090	28949	836	4531	952	481724	1261276	35268
391	2015-10-27 02:28:48	0	0	0	0	0	0	38.19	2.71	0.37	1069463	0	291373	653188	1069463	778090	28949	836	4531	952	481724	1261276	35268
392	2015-10-27 02:34:48	0	0	0	0	0	0	38.19	2.71	0.37	1069505	0	291406	653463	1069505	778099	28949	836	4531	952	481724	1261273	35268
393	2015-10-27 02:40:48	0	0	0	0	0	0	38.19	2.71	0.37	1069505	0	291406	653463	1069505	778099	28949	836	4531	952	481724	1261274	35268
394	2015-10-27 02:46:50	0	0	0	0	0	0	38.19	2.71	0.37	1069546	0	291438	653463	1069546	778108	28950	836	4531	952	481724	1261273	35269
395	2015-10-27 02:52:47	0	0	0	0	0	0	38.19	2.71	0.37	1069546	0	291438	653463	1069546	778108	28950	836	4531	952	481724	1261274	35269
396	2015-10-27 02:58:48	0	0	0	0	0	0	38.19	2.71	0.37	1069583	0	291466	653463	1069583	778117	28951	836	4531	952	481724	1261270	35270
397	2015-10-27 03:04:47	0	0	0	0	0	0	38.19	2.71	0.37	1069583	0	291466	653463	1069583	778117	28951	836	4531	952	481724	1261272	35270
398	2015-10-27 03:10:48	0	0	0	0	0	0	38.19	2.71	0.37	1069600	0	291479	653463	1069600	778121	28952	836	4531	952	481724	1261270	35271
399	2015-10-27 03:16:48	0	0	0	0	0	0	38.19	2.71	0.37	1069600	0	291479	653463	1069600	778121	28952	836	4531	952	481724	1261267	35271
400	2015-10-27 03:22:48	0	0	0	0	0	0	38.19	2.71	0.37	1069641	0	291512	653463	1069641	778129	28955	836	4531	952	481724	1261265	35274
401	2015-10-27 03:28:48	0	0	0	0	0	0	38.19	2.71	0.37	1069641	0	291512	653463	1069641	778129	28955	836	4531	952	481724	1261264	35274
402	2015-10-27 03:34:48	0	0	0	0	0	0	38.19	2.71	0.37	1069669	0	291536	653463	1069669	778133	28956	836	4532	952	481724	1261262	35276
403	2015-10-27 03:40:49	0	0	0	0	0	0	38.19	2.71	0.37	1069669	0	291536	653463	1069669	778133	28956	836	4532	952	481724	1261263	35276
404	2015-10-27 03:46:48	0	0	0	0	0	0	38.19	2.71	0.37	1069694	0	291556	653463	1069694	778138	28958	836	4532	952	481724	1261262	35278
405	2015-10-27 03:52:48	0	0	0	0	0	0	38.19	2.71	0.37	1069694	0	291556	653463	1069694	778138	28958	836	4532	952	481724	1261262	35278
406	2015-10-27 03:58:47	0	0	0	0	0	0	38.19	2.71	0.37	1069716	0	291576	653463	1069716	778140	28959	836	4532	952	481724	1261262	35279
407	2015-10-27 04:04:48	0	0	0	0	0	0	38.19	2.71	0.37	1069716	0	291576	653463	1069716	778140	28959	836	4532	952	481724	1261262	35279
408	2015-10-27 04:10:49	0	0	0	0	0	0	38.19	2.71	0.37	1069744	0	291599	653877	1069744	778145	28960	836	4532	952	481724	1261263	35280
409	2015-10-27 04:16:46	0	0	0	0	0	0	38.19	2.71	0.37	1069744	0	291599	653877	1069744	778145	28960	836	4532	952	481724	1261263	35280
410	2015-10-27 04:22:48	0	0	0	0	0	0	38.19	2.71	0.37	1069763	0	291615	653877	1069763	778148	28960	836	4532	952	481724	1261263	35280
411	2015-10-27 04:28:46	0	0	0	0	0	0	38.19	2.71	0.37	1069763	0	291615	653877	1069763	778148	28960	836	4532	952	481724	1261262	35280
412	2015-10-27 04:34:47	0	0	0	0	0	0	38.19	2.71	0.37	1069789	0	291632	653877	1069789	778157	28960	836	4532	952	481724	1261261	35280
413	2015-10-27 04:40:47	0	0	0	0	0	0	38.19	2.71	0.37	1069789	0	291632	653877	1069789	778157	28960	836	4532	952	481724	1261263	35280
414	2015-10-27 04:46:48	0	0	0	0	0	0	38.19	2.71	0.37	1069813	0	291655	653877	1069813	778158	28960	836	4532	952	481724	1261264	35280
415	2015-10-27 04:52:46	0	0	0	0	0	0	38.19	2.71	0.37	1069813	0	291655	653877	1069813	778158	28960	836	4532	952	481724	1261265	35280
416	2015-10-27 04:58:47	0	0	0	0	0	0	38.19	2.71	0.37	1069836	0	291674	653877	1069836	778162	28960	836	4532	952	481724	1261266	35280
417	2015-10-27 05:04:48	0	0	0	0	0	0	38.19	2.71	0.37	1069836	0	291674	653877	1069836	778162	28960	836	4532	952	481724	1261265	35280
418	2015-10-27 05:10:50	0	0	0	0	0	0	38.19	2.71	0.37	1069861	0	291696	653877	1069861	778165	28961	837	4532	952	481724	1261265	35282
419	2015-10-27 05:16:46	0	0	0	0	0	0	38.19	2.71	0.37	1069861	0	291696	653877	1069861	778165	28961	837	4532	952	481724	1261264	35282
420	2015-10-27 05:22:48	0	0	0	0	0	0	38.19	2.71	0.37	1069893	0	291720	653877	1069893	778173	28962	837	4534	952	481724	1261264	35285
421	2015-10-27 05:28:46	0	0	0	0	0	0	38.19	2.71	0.37	1069893	0	291720	653877	1069893	778173	28962	837	4534	952	481724	1261263	35285
422	2015-10-27 05:34:49	0	0	0	0	0	0	38.19	2.71	0.37	1069940	0	291755	653877	1069940	778185	28962	837	4534	952	481724	1261263	35285
423	2015-10-27 05:40:48	0	0	0	0	0	0	38.19	2.71	0.37	1069940	0	291755	653877	1069940	778185	28962	837	4534	952	481724	1261265	35285
424	2015-10-27 05:46:47	0	0	0	0	0	0	38.19	2.71	0.37	1069980	0	291788	653877	1069980	778192	28964	837	4534	952	481724	1261265	35287
425	2015-10-27 05:52:47	0	0	0	0	0	0	38.19	2.71	0.37	1069980	0	291788	653877	1069980	778192	28964	837	4534	952	481724	1261269	35287
426	2015-10-27 05:58:49	0	0	0	0	0	0	38.19	2.71	0.38	1070048	0	291844	653877	1070048	778204	28965	837	4536	952	481724	1261269	35290
427	2015-10-27 06:04:54	0	0	0	0	0	0	38.19	2.71	0.38	1070048	0	291844	653877	1070048	778204	28965	837	4536	952	481724	1261270	35290
428	2015-10-27 06:10:49	0	0	0	0	0	0	38.19	2.71	0.38	1070117	0	291894	653877	1070117	778223	28967	837	4536	952	481724	1261270	35292
429	2015-10-27 06:16:48	0	0	0	0	0	0	38.19	2.71	0.38	1070117	0	291894	653877	1070117	778223	28967	837	4536	952	481724	1261270	35292
430	2015-10-27 06:22:49	0	0	0	0	0	0	38.19	2.71	0.38	1070184	0	291950	653877	1070184	778234	28972	837	4536	952	481724	1261270	35297
431	2015-10-27 06:28:47	0	0	0	0	0	0	38.19	2.71	0.38	1070184	0	291950	653877	1070184	778234	28972	837	4536	952	481724	1261271	35297
432	2015-10-27 06:34:49	0	0	0	0	0	0	38.19	2.71	0.38	1070254	0	292005	654707	1070254	778249	28977	837	4536	952	481724	1261271	35302
433	2015-10-27 06:40:49	0	0	0	0	0	0	38.19	2.71	0.38	1070254	0	292005	654707	1070254	778249	28977	837	4536	952	481724	1261270	35302
434	2015-10-27 06:46:49	0	0	0	0	0	0	38.19	2.71	0.38	1070353	0	292086	655123	1070353	778267	28979	837	4537	952	481724	1261272	35305
435	2015-10-27 06:52:48	0	0	0	0	0	0	38.19	2.71	0.38	1070353	0	292086	655123	1070353	778267	28979	837	4537	952	481724	1261272	35305
436	2015-10-27 06:58:48	0	0	0	0	0	0	38.19	2.71	0.38	1070458	0	292167	655123	1070458	778291	28980	837	4538	952	481724	1261272	35307
437	2015-10-27 07:04:50	0	0	0	0	0	0	38.19	2.71	0.38	1070458	0	292167	655123	1070458	778291	28980	837	4538	952	481724	1261271	35307
438	2015-10-27 07:10:53	0	0	0	0	0	0	38.19	2.71	0.38	1070590	0	292267	655123	1070590	778323	28980	837	4542	952	481724	1261271	35311
439	2015-10-27 07:16:48	0	0	0	0	0	0	38.19	2.71	0.38	1070590	0	292267	655123	1070590	778323	28980	837	4542	952	481724	1261270	35311
440	2015-10-27 07:22:51	0	0	0	0	0	0	38.19	2.71	0.38	1070719	0	292368	655123	1070719	778351	28983	837	4542	952	481724	1261270	35314
441	2015-10-27 07:28:50	0	0	0	0	0	0	38.19	2.71	0.38	1070719	0	292368	655123	1070719	778351	28983	837	4542	952	481724	1261270	35314
442	2015-10-27 07:34:50	0	0	0	0	0	0	38.19	2.71	0.38	1070795	0	292423	655400	1070795	778372	28985	837	4542	952	481724	1261275	35316
443	2015-10-27 07:40:51	0	0	0	0	0	0	38.19	2.71	0.38	1070795	0	292423	655400	1070795	778372	28985	837	4542	952	481724	1261280	35316
444	2015-10-27 07:46:52	0	0	0	0	0	0	38.19	2.71	0.38	1070917	0	292526	655400	1070917	778391	28987	837	4542	952	481724	1261283	35318
445	2015-10-27 07:52:50	0	0	0	0	0	0	38.19	2.71	0.38	1070917	0	292526	655400	1070917	778391	28987	837	4542	952	481724	1261285	35318
446	2015-10-27 07:58:52	0	0	0	0	0	0	38.19	2.71	0.38	1071090	0	292662	655400	1071090	778428	28991	839	4545	952	481724	1261289	35327
447	2015-10-27 08:04:53	0	0	0	0	0	0	38.19	2.71	0.38	1071090	0	292662	655400	1071090	778428	28991	839	4545	952	481724	1261291	35327
448	2015-10-27 08:10:50	0	0	0	0	0	0	38.19	2.71	0.38	1071201	0	292753	655400	1071201	778448	28996	839	4547	952	481724	1261293	35334
449	2015-10-27 08:16:50	0	0	0	0	0	0	38.19	2.71	0.38	1071201	0	292753	655400	1071201	778448	28996	839	4547	952	481724	1261294	35334
450	2015-10-27 08:22:51	0	0	0	0	0	0	38.19	2.71	0.38	1071350	0	292872	655400	1071350	778478	28997	840	4547	952	481724	1261299	35336
451	2015-10-27 08:28:52	0	0	0	0	0	0	38.19	2.71	0.38	1071350	0	292872	655400	1071350	778478	28997	840	4547	952	481724	1261302	35336
452	2015-10-27 08:34:53	0	0	0	0	0	0	38.19	2.71	0.38	1071413	0	292924	655400	1071413	778489	28998	840	4548	952	481724	1261305	35338
453	2015-10-27 08:40:51	0	0	0	0	0	0	38.19	2.71	0.38	1071413	0	292924	655400	1071413	778489	28998	840	4548	952	481724	1261310	35338
454	2015-10-27 08:46:51	0	0	0	0	0	0	38.19	2.71	0.38	1071627	0	293107	655400	1071627	778520	28999	840	4549	952	481724	1261312	35340
455	2015-10-27 08:52:51	0	0	0	0	0	0	38.19	2.71	0.38	1071627	0	293107	655400	1071627	778520	28999	840	4549	952	481724	1261313	35340
456	2015-10-27 08:58:52	0	0	0	0	0	0	38.19	2.71	0.38	1071693	0	293162	655400	1071693	778531	29000	840	4549	952	481724	1261313	35341
457	2015-10-27 09:04:52	0	0	0	0	0	0	38.19	2.71	0.38	1071693	0	293162	655400	1071693	778531	29000	840	4549	952	481724	1261315	35341
458	2015-10-27 09:10:53	0	0	0	0	0	0	38.19	2.71	0.38	1071847	0	293273	655400	1071847	778574	29002	840	4550	952	481724	1261318	35344
459	2015-10-27 09:16:58	0	0	0	0	0	0	38.19	2.71	0.38	1071847	0	293273	655400	1071847	778574	29002	840	4550	952	481724	1261321	35344
460	2015-10-27 09:23:19	0	0	0	0	0	0	38.19	2.71	0.38	1071959	0	293356	655400	1071959	778603	29003	840	4552	952	481724	1261325	35347
461	2015-10-27 09:29:08	0	0	0	0	0	0	38.19	2.71	0.38	1071959	0	293356	655400	1071959	778603	29003	840	4552	952	481724	1261330	35347
462	2015-10-27 09:35:23	0	0	0	0	0	0	38.19	2.71	0.38	1072078	0	293395	655400	1072078	778628	29006	840	4552	952	481724	1261333	35350
463	2015-10-27 09:41:40	0	0	0	0	0	0	38.19	2.71	0.38	1072078	0	293395	655400	1072078	778628	29006	840	4552	952	481724	1261332	35350
464	2015-10-27 09:47:03	0	0	0	0	0	0	38.19	2.71	0.38	1072180	0	293533	655400	1072180	778647	29007	840	4553	952	481724	1261335	35352
465	2015-10-27 09:52:59	0	0	0	0	0	0	38.19	2.71	0.38	1072180	0	293533	655400	1072180	778647	29007	840	4553	952	481724	1261337	35352
466	2015-10-27 09:58:59	0	0	0	0	0	0	38.19	2.71	0.38	1072266	0	293598	655400	1072266	778668	29010	840	4553	952	481724	1261341	35355
467	2015-10-27 10:05:48	0	0	0	0	0	0	38.19	2.71	0.38	1072266	0	293598	655400	1072266	778668	29010	840	4553	952	481724	1261345	35355
468	2015-10-27 10:11:06	0	0	0	0	0	0	38.19	2.71	0.38	1072345	0	293659	655400	1072345	778686	29011	840	4553	952	481724	1261346	35356
469	2015-10-27 10:17:29	0	0	0	0	0	0	38.19	2.71	0.38	1072345	0	293659	655400	1072345	778686	29011	840	4553	952	481724	1261349	35356
470	2015-10-27 10:22:58	0	0	0	0	0	0	38.19	2.71	0.38	1072432	0	293720	655400	1072432	778712	29013	840	4553	952	481724	1261350	35358
471	2015-10-27 10:29:33	0	0	0	0	0	0	38.19	2.71	0.38	1072432	0	293720	655400	1072432	778712	29013	840	4553	952	481724	1261356	35358
472	2015-10-27 10:35:24	0	0	0	0	0	0	38.19	2.71	0.38	1072528	0	293795	655400	1072528	778733	29014	840	4553	952	481724	1261359	35359
473	2015-10-27 10:41:07	0	0	0	0	0	0	38.19	2.71	0.38	1072528	0	293795	655400	1072528	778733	29014	840	4553	952	481724	1261361	35359
474	2015-10-27 10:47:17	0	0	0	0	0	0	38.19	2.71	0.38	1072643	0	293889	655400	1072643	778754	29016	840	4553	953	481724	1261365	35362
475	2015-10-27 10:54:07	0	0	0	0	0	0	38.19	2.71	0.38	1072643	0	293889	655400	1072643	778754	29016	840	4553	953	481724	1261366	35362
476	2015-10-27 10:59:10	0	0	0	0	0	0	38.19	2.71	0.38	1072715	0	293944	655400	1072715	778771	29017	840	4554	954	481724	1261370	35365
477	2015-10-27 11:05:53	0	0	0	0	0	0	38.19	2.71	0.38	1072715	0	293944	655400	1072715	778771	29017	840	4554	954	481724	1261372	35365
478	2015-10-27 11:11:21	0	0	0	0	0	0	38.19	2.7	0.38	1072755	0	293974	655400	1072755	778781	29017	840	4554	954	481724	1261372	35365
479	2015-10-27 11:17:24	0	0	0	0	0	0	38.19	2.7	0.38	1072755	0	293974	655400	1072755	778781	29017	840	4554	954	481724	1261374	35365
480	2015-10-27 11:24:36	0	0	0	0	0	0	38.19	2.7	0.38	1072896	0	294086	655400	1072896	778810	29019	840	4554	954	481724	1261379	35367
481	2015-10-27 11:29:04	0	0	0	0	0	0	38.19	2.7	0.38	1072896	0	294086	655400	1072896	778810	29019	840	4554	954	481724	1261384	35367
482	2015-10-27 11:36:28	0	0	0	0	0	0	38.19	2.7	0.38	1072967	0	294147	655400	1072967	778820	29019	840	4554	954	481724	1261387	35367
483	2015-10-27 11:41:30	0	0	0	0	0	0	38.19	2.7	0.38	1072967	0	294147	655400	1072967	778820	29019	840	4554	954	481724	1261393	35367
484	2015-10-27 11:47:30	0	0	0	0	0	0	38.19	2.7	0.38	1073036	0	294199	655400	1073036	778837	29021	840	4555	954	481724	1261393	35370
485	2015-10-27 11:54:02	0	0	0	0	0	0	38.19	2.7	0.38	1073036	0	294199	655400	1073036	778837	29021	840	4555	954	481724	1261394	35370
486	2015-10-27 12:01:18	0	0	0	0	0	0	38.19	2.7	0.38	1073122	0	294274	655400	1073122	778848	29026	840	4556	954	481724	1261399	35376
487	2015-10-27 12:05:24	0	0	0	0	0	0	38.19	2.7	0.38	1073122	0	294274	655400	1073122	778848	29026	840	4556	954	481724	1261400	35376
488	2015-10-27 12:13:11	0	0	0	0	0	0	38.19	2.7	0.38	1073214	0	294352	655400	1073214	778862	29026	840	4556	954	481724	1261401	35376
489	2015-10-27 12:17:00	0	0	0	0	0	0	38.19	2.7	0.38	1073214	0	294352	655400	1073214	778862	29026	840	4556	954	481724	1261409	35376
490	2015-10-27 12:23:04	0	0	0	0	0	0	38.19	2.7	0.38	1073242	0	294373	655400	1073242	778869	29028	840	4556	954	481724	1261411	35378
491	2015-10-27 12:31:58	0	0	0	0	0	0	38.19	2.7	0.38	1073242	0	294373	655400	1073242	778869	29028	840	4556	954	481724	1261413	35378
492	2015-10-27 12:35:10	0	0	0	0	0	0	38.19	2.7	0.38	1073242	0	294373	655400	1073242	778869	29028	840	4556	954	481724	1261416	35378
493	2015-10-27 12:43:12	0	0	0	0	0	0	38.19	2.7	0.38	1073360	0	294466	655400	1073360	778894	29029	840	4557	954	481724	1261429	35380
494	2015-10-27 12:49:24	0	0	0	0	0	0	38.19	2.7	0.38	1073360	0	294466	655400	1073360	778894	29029	840	4557	954	481724	1261445	35380
495	2015-10-27 12:58:44	0	0	0	0	0	0	38.19	2.7	0.38	1073462	0	294549	655400	1073462	778913	29030	840	4557	954	481724	1261462	35381
496	2015-10-27 13:00:06	0	0	0	0	0	0	38.19	2.7	0.38	1073462	0	294549	655400	1073462	778913	29030	840	4557	954	481724	1261464	35381
497	2015-10-27 13:06:05	0	0	0	0	0	0	38.19	2.7	0.38	1073462	0	294549	655400	1073462	778913	29030	840	4557	954	481724	1261475	35381
498	2015-10-27 13:12:12	0	0	0	0	0	0	38.19	2.7	0.38	1073535	0	294606	655400	1073535	778929	29030	840	4558	954	481724	1261497	35382
499	2015-10-27 13:18:11	0	0	0	0	0	0	38.19	2.7	0.38	1073535	0	294606	655400	1073535	778929	29030	840	4558	954	481724	1261527	35382
500	2015-10-27 13:24:07	0	0	0	0	0	0	38.18	2.7	0.38	1073610	0	294664	655400	1073610	778946	29030	840	4558	954	481724	1261565	35382
501	2015-10-27 13:30:54	0	0	0	0	0	0	38.18	2.7	0.38	1073610	0	294664	655400	1073610	778946	29030	840	4558	954	481724	1261611	35382
502	2015-10-27 13:36:16	0	0	0	0	0	0	38.18	2.7	0.38	1073663	0	294702	655400	1073663	778961	29030	840	4558	954	481724	1261648	35382
503	2015-10-27 13:43:15	0	0	0	0	0	0	38.18	2.7	0.38	1073663	0	294702	655400	1073663	778961	29030	840	4558	954	481724	1261685	35382
504	2015-10-27 13:47:54	0	0	0	0	0	0	38.18	2.7	0.38	1073663	0	294702	655400	1073663	778961	29030	840	4558	954	481724	1261710	35382
505	2015-10-27 13:54:02	0	0	0	0	0	0	38.18	2.7	0.38	1073770	0	294779	655400	1073770	778991	29030	840	4558	954	481724	1261742	35382
506	2015-10-27 14:00:03	0	0	0	0	0	0	38.18	2.7	0.38	1073770	0	294779	655400	1073770	778991	29030	840	4558	954	481724	1261773	35382
507	2015-10-27 14:05:55	0	0	0	0	0	0	38.18	2.7	0.38	1073848	0	294835	655400	1073848	779013	29033	840	4558	954	481724	1261797	35385
508	2015-10-27 14:11:51	0	0	0	0	0	0	38.18	2.7	0.38	1073848	0	294835	655400	1073848	779013	29033	840	4558	954	481724	1261819	35385
509	2015-10-27 14:18:08	0	0	0	0	0	0	38.18	2.7	0.38	1073909	0	294879	655400	1073909	779030	29036	840	4558	954	481724	1261851	35388
510	2015-10-27 14:24:07	0	0	0	0	0	0	38.17	2.7	0.38	1073909	0	294879	655400	1073909	779030	29036	840	4558	954	481724	1261887	35388
511	2015-10-27 14:30:02	0	0	0	0	0	0	38.17	2.7	0.38	1073972	0	294927	655400	1073972	779045	29036	840	4560	954	481724	1261911	35390
512	2015-10-27 14:36:02	0	0	0	0	0	0	38.17	2.7	0.38	1073972	0	294927	655400	1073972	779045	29036	840	4560	954	481724	1261935	35390
513	2015-10-27 14:42:08	0	0	0	0	0	0	38.17	2.7	0.38	1074029	0	294970	655400	1074029	779059	29036	840	4560	954	481724	1261966	35390
514	2015-10-27 14:47:54	0	0	0	0	0	0	38.17	2.7	0.38	1074029	0	294970	655400	1074029	779059	29036	840	4560	954	481724	1261995	35390
515	2015-10-27 14:53:47	0	0	0	0	0	0	38.17	2.7	0.38	1074086	0	295008	655400	1074086	779078	29037	841	4560	954	481724	1262016	35392
516	2015-10-27 14:59:44	0	0	0	0	0	0	38.17	2.7	0.38	1074086	0	295008	655400	1074086	779078	29037	841	4560	954	481724	1262048	35392
517	2015-10-27 15:05:55	0	0	0	0	0	0	38.17	2.7	0.38	1074158	0	295057	655400	1074158	779101	29038	841	4560	954	481724	1262079	35393
518	2015-10-27 15:11:53	0	0	0	0	0	0	38.17	2.7	0.38	1074158	0	295057	655400	1074158	779101	29038	841	4560	954	481724	1262101	35393
519	2015-10-27 15:17:50	0	0	0	0	0	0	38.17	2.7	0.38	1074223	0	295107	655400	1074223	779116	29038	841	4560	954	481724	1262122	35393
520	2015-10-27 15:23:57	0	0	0	0	0	0	38.17	2.7	0.38	1074223	0	295107	655400	1074223	779116	29038	841	4560	954	481724	1262143	35393
521	2015-10-27 15:30:00	0	0	0	0	0	0	38.17	2.7	0.38	1074298	0	295162	655400	1074298	779136	29038	841	4560	954	481724	1262175	35393
522	2015-10-27 15:35:50	0	0	0	0	0	0	38.17	2.7	0.38	1074298	0	295162	655400	1074298	779136	29038	841	4560	954	481724	1262194	35393
523	2015-10-27 15:41:54	0	0	0	0	0	0	38.17	2.7	0.38	1074334	0	295191	655400	1074334	779143	29038	841	4560	954	481724	1262214	35393
524	2015-10-27 15:47:46	0	0	0	0	0	0	38.16	2.7	0.38	1074334	0	295191	655400	1074334	779143	29038	841	4560	954	481724	1262242	35393
525	2015-10-27 15:53:46	0	0	0	0	0	0	38.16	2.7	0.38	1074449	0	295243	655400	1074449	779206	29039	841	4561	954	481724	1262270	35395
526	2015-10-27 15:59:46	0	0	0	0	0	0	38.16	2.7	0.38	1074449	0	295243	655400	1074449	779206	29039	841	4561	954	481724	1262284	35395
527	2015-10-27 16:06:03	0	0	0	0	0	0	38.16	2.7	0.38	1074520	0	295298	655400	1074520	779222	29041	841	4561	954	481724	1262314	35397
528	2015-10-27 16:11:50	0	0	0	0	0	0	38.16	2.7	0.38	1074520	0	295298	655400	1074520	779222	29041	841	4561	954	481724	1262340	35397
529	2015-10-27 16:17:54	0	0	0	0	0	0	38.16	2.7	0.38	1074589	0	295347	655400	1074589	779242	29043	841	4561	954	481724	1262379	35399
530	2015-10-27 16:23:49	0	0	0	0	0	0	38.16	2.7	0.38	1074589	0	295347	655400	1074589	779242	29043	841	4561	954	481724	1262419	35399
531	2015-10-27 16:29:50	0	0	0	0	0	0	38.16	2.7	0.38	1074667	0	295405	655400	1074667	779262	29046	841	4561	954	481724	1262450	35402
532	2015-10-27 16:35:50	0	0	0	0	0	0	38.16	2.7	0.38	1074667	0	295405	655400	1074667	779262	29046	841	4561	954	481724	1262483	35402
533	2015-10-27 16:41:51	0	0	0	0	0	0	38.16	2.7	0.38	1074724	0	295444	655400	1074724	779280	29048	841	4561	954	481724	1262510	35404
534	2015-10-27 16:47:51	0	0	0	0	0	0	38.16	2.7	0.38	1074724	0	295444	655400	1074724	779280	29048	841	4561	954	481724	1262539	35404
535	2015-10-27 16:53:59	0	0	0	0	0	0	38.15	2.7	0.38	1074789	0	295492	655400	1074789	779297	29049	841	4561	954	481724	1262575	35405
536	2015-10-27 17:00:20	0	0	0	0	0	0	38.15	2.7	0.38	1074789	0	295492	655400	1074789	779297	29049	841	4561	954	481724	1262609	35405
537	2015-10-27 17:05:58	0	0	0	0	0	0	38.15	2.7	0.38	1074858	0	295542	655400	1074858	779316	29049	841	4561	954	481724	1262631	35405
538	2015-10-27 17:12:08	0	0	0	0	0	0	38.15	2.7	0.38	1074858	0	295542	655400	1074858	779316	29049	841	4561	954	481724	1262656	35405
539	2015-10-27 17:18:08	0	0	0	0	0	0	38.15	2.7	0.38	1074919	0	295585	655400	1074919	779334	29049	841	4562	954	481724	1262678	35406
540	2015-10-27 17:24:03	0	0	0	0	0	0	38.15	2.7	0.38	1074919	0	295585	655400	1074919	779334	29049	841	4562	954	481724	1262704	35406
541	2015-10-27 17:29:53	0	0	0	0	0	0	38.15	2.7	0.38	1074976	0	295630	655400	1074976	779346	29049	841	4562	954	481724	1262729	35406
542	2015-10-27 17:35:55	0	0	0	0	0	0	38.15	2.7	0.38	1074976	0	295630	655400	1074976	779346	29049	841	4562	954	481724	1262753	35406
543	2015-10-27 17:41:54	0	0	0	0	0	0	38.15	2.7	0.38	1075027	0	295669	655400	1075027	779358	29050	841	4562	954	481724	1262771	35407
544	2015-10-27 17:48:20	0	0	0	0	0	0	38.15	2.7	0.38	1075027	0	295669	655400	1075027	779358	29050	841	4562	954	481724	1262789	35407
545	2015-10-27 17:53:59	0	0	0	0	0	0	38.15	2.7	0.38	1075069	0	295700	655400	1075069	779369	29050	841	4563	954	481724	1262820	35408
546	2015-10-27 18:00:06	0	0	0	0	0	0	38.15	2.7	0.38	1075069	0	295700	655400	1075069	779369	29050	841	4563	954	481724	1262842	35408
547	2015-10-27 18:05:56	0	0	0	0	0	0	38.15	2.7	0.38	1075115	0	295733	655400	1075115	779382	29051	842	4564	954	481724	1262859	35411
548	2015-10-27 18:11:57	0	0	0	0	0	0	38.14	2.7	0.38	1075115	0	295733	655400	1075115	779382	29051	842	4564	954	481724	1262885	35411
549	2015-10-27 18:18:07	0	0	0	0	0	0	38.14	2.7	0.38	1075179	0	295782	655400	1075179	779397	29051	842	4566	954	481724	1262904	35413
550	2015-10-27 18:24:07	0	0	0	0	0	0	38.14	2.7	0.38	1075179	0	295782	655400	1075179	779397	29051	842	4566	954	481724	1262919	35413
551	2015-10-27 18:30:11	0	0	0	0	0	0	38.14	2.7	0.38	1075232	0	295818	655400	1075232	779414	29051	842	4566	954	481724	1262947	35413
552	2015-10-27 18:36:22	0	0	0	0	0	0	38.14	2.7	0.38	1075232	0	295818	655400	1075232	779414	29051	842	4566	954	481724	1262968	35413
553	2015-10-27 18:42:03	0	0	0	0	0	0	38.14	2.7	0.38	1075294	0	295866	655400	1075294	779428	29053	842	4566	954	481724	1262985	35415
554	2015-10-27 18:48:14	0	0	0	0	0	0	38.14	2.7	0.38	1075294	0	295866	655400	1075294	779428	29053	842	4566	954	481724	1263004	35415
555	2015-10-27 18:54:12	0	0	0	0	0	0	38.14	2.7	0.38	1075352	0	295914	655400	1075352	779438	29055	842	4566	954	481724	1263017	35417
556	2015-10-27 19:00:04	0	0	0	0	0	0	38.14	2.7	0.38	1075352	0	295914	655400	1075352	779438	29055	842	4566	954	481724	1263042	35417
557	2015-10-27 19:06:42	0	0	0	0	0	0	38.14	2.7	0.38	1075396	0	295948	655400	1075396	779448	29058	842	4567	954	481724	1263068	35421
558	2015-10-27 19:11:59	0	0	0	0	0	0	38.14	2.7	0.38	1075396	0	295948	655400	1075396	779448	29058	842	4567	954	481724	1263081	35421
559	2015-10-27 19:17:54	0	0	0	0	0	0	38.14	2.7	0.38	1075491	0	296023	655400	1075491	779468	29059	842	4567	954	481724	1263096	35422
560	2015-10-27 19:23:56	0	0	0	0	0	0	38.14	2.7	0.38	1075491	0	296023	655400	1075491	779468	29059	842	4567	954	481724	1263119	35422
561	2015-10-27 19:29:55	0	0	0	0	0	0	38.14	2.7	0.38	1075544	0	296064	655400	1075544	779480	29059	842	4567	954	481724	1263140	35422
562	2015-10-27 19:35:51	0	0	0	0	0	0	38.14	2.7	0.38	1075544	0	296064	655400	1075544	779480	29059	842	4567	954	481724	1263155	35422
563	2015-10-27 19:41:51	0	0	0	0	0	0	38.14	2.7	0.38	1075609	0	296109	655400	1075609	779500	29063	842	4567	954	481724	1263178	35426
564	2015-10-27 19:47:53	0	0	0	0	0	0	38.14	2.7	0.38	1075609	0	296109	655400	1075609	779500	29063	842	4567	954	481724	1263196	35426
565	2015-10-27 19:54:01	0	0	0	0	0	0	38.13	2.7	0.38	1075668	0	296155	655400	1075668	779513	29066	842	4567	954	481724	1263215	35429
566	2015-10-27 19:59:57	0	0	0	0	0	0	38.13	2.7	0.38	1075668	0	296155	655400	1075668	779513	29066	842	4567	954	481724	1263238	35429
567	2015-10-27 20:05:55	0	0	0	0	0	0	38.13	2.7	0.38	1075723	0	296197	655678	1075723	779526	29066	842	4567	954	481724	1263247	35429
568	2015-10-27 20:11:51	0	0	0	0	0	0	38.13	2.7	0.38	1075723	0	296197	655678	1075723	779526	29066	842	4567	954	481724	1263264	35429
569	2015-10-27 20:17:49	0	0	0	0	0	0	38.13	2.7	0.38	1075799	0	296255	655678	1075799	779544	29066	842	4567	954	481724	1263281	35429
570	2015-10-27 20:23:52	0	0	0	0	0	0	38.13	2.7	0.38	1075799	0	296255	655678	1075799	779544	29066	842	4567	954	481724	1263299	35429
571	2015-10-27 20:29:54	0	0	0	0	0	0	38.13	2.7	0.38	1075838	0	296280	655678	1075838	779558	29066	842	4567	954	481724	1263311	35429
572	2015-10-27 20:35:52	0	0	0	0	0	0	38.13	2.7	0.38	1075838	0	296280	655678	1075838	779558	29066	842	4567	954	481724	1263330	35429
573	2015-10-27 20:41:52	0	0	0	0	0	0	38.13	2.7	0.38	1075913	0	296339	655678	1075913	779574	29068	842	4567	954	481724	1263348	35431
574	2015-10-27 20:47:51	0	0	0	0	0	0	38.13	2.7	0.38	1075913	0	296339	655678	1075913	779574	29068	842	4567	954	481724	1263365	35431
575	2015-10-27 20:53:49	0	0	0	0	0	0	38.13	2.7	0.38	1075968	0	296381	655678	1075968	779587	29068	842	4567	954	481724	1263393	35431
576	2015-10-27 20:59:52	0	0	0	0	0	0	38.13	2.7	0.38	1075968	0	296381	655678	1075968	779587	29068	842	4567	954	481724	1263411	35431
577	2015-10-27 21:05:52	0	0	0	0	0	0	38.13	2.7	0.38	1076049	0	296450	655678	1076049	779599	29069	842	4567	954	481724	1263429	35432
578	2015-10-27 21:11:47	0	0	0	0	0	0	38.13	2.7	0.38	1076049	0	296450	655678	1076049	779599	29069	842	4567	954	481724	1263444	35432
579	2015-10-27 21:17:49	0	0	0	0	0	0	38.13	2.7	0.38	1076133	0	296522	655678	1076133	779611	29071	842	4567	954	481724	1263456	35434
580	2015-10-27 21:23:48	0	0	0	0	0	0	38.13	2.7	0.38	1076133	0	296522	655678	1076133	779611	29071	842	4567	954	481724	1263475	35434
581	2015-10-27 21:29:51	0	0	0	0	0	0	38.13	2.7	0.38	1076207	0	296586	655678	1076207	779621	29074	842	4567	954	481724	1263500	35437
582	2015-10-27 21:35:47	0	0	0	0	0	0	38.13	2.7	0.38	1076207	0	296586	655678	1076207	779621	29074	842	4567	954	481724	1263519	35437
583	2015-10-27 21:41:49	0	0	0	0	0	0	38.13	2.7	0.38	1076238	0	296607	655678	1076238	779631	29075	842	4567	954	481724	1263536	35438
584	2015-10-27 21:47:50	0	0	0	0	0	0	38.12	2.7	0.38	1076238	0	296607	655678	1076238	779631	29075	842	4567	954	481724	1263559	35438
585	2015-10-27 21:53:50	0	0	0	0	0	0	38.12	2.7	0.38	1076308	0	296658	655678	1076308	779650	29077	842	4567	954	481724	1263574	35440
586	2015-10-27 21:59:50	0	0	0	0	0	0	38.12	2.7	0.38	1076308	0	296658	655678	1076308	779650	29077	842	4567	954	481724	1263587	35440
587	2015-10-27 22:05:52	0	0	0	0	0	0	38.12	2.7	0.38	1076363	0	296703	655678	1076363	779660	29079	842	4567	954	481724	1263610	35442
588	2015-10-27 22:11:48	0	0	0	0	0	0	38.12	2.7	0.38	1076363	0	296703	655678	1076363	779660	29079	842	4567	954	481724	1263621	35442
589	2015-10-27 22:18:00	0	0	0	0	0	0	38.12	2.7	0.38	1076431	0	296752	655678	1076431	779679	29081	842	4567	954	481724	1263638	35444
590	2015-10-27 22:24:15	0	0	0	0	0	0	38.12	2.7	0.38	1076431	0	296752	655678	1076431	779679	29081	842	4567	954	481724	1263656	35444
591	2015-10-27 22:29:59	0	0	0	0	0	0	38.12	2.7	0.38	1076485	0	296796	655678	1076485	779689	29082	842	4567	954	481724	1263672	35445
592	2015-10-27 22:35:55	0	0	0	0	0	0	38.12	2.7	0.38	1076485	0	296796	655678	1076485	779689	29082	842	4567	954	481724	1263689	35445
593	2015-10-27 22:41:56	0	0	0	0	0	0	38.12	2.7	0.38	1076541	0	296840	655678	1076541	779701	29084	842	4568	954	481724	1263707	35448
594	2015-10-27 22:47:48	0	0	0	0	0	0	38.12	2.7	0.38	1076541	0	296840	655678	1076541	779701	29084	842	4568	954	481724	1263726	35448
595	2015-10-27 22:53:49	0	0	0	0	0	0	38.12	2.7	0.38	1076600	0	296891	655678	1076600	779709	29086	842	4568	954	481724	1263741	35450
596	2015-10-27 22:59:50	0	0	0	0	0	0	38.12	2.7	0.38	1076600	0	296891	655678	1076600	779709	29086	842	4568	954	481724	1263768	35450
597	2015-10-27 23:05:48	0	0	0	0	0	0	38.12	2.7	0.38	1076655	0	296934	655678	1076655	779721	29090	842	4568	954	481724	1263789	35454
598	2015-10-27 23:11:48	0	0	0	0	0	0	38.12	2.7	0.38	1076655	0	296934	655678	1076655	779721	29090	842	4568	954	481724	1263799	35454
599	2015-10-27 23:17:47	0	0	0	0	0	0	38.12	2.7	0.38	1076710	0	296976	655678	1076710	779734	29092	842	4569	954	481724	1263825	35457
600	2015-10-27 23:23:46	0	0	0	0	0	0	38.12	2.7	0.38	1076710	0	296976	655678	1076710	779734	29092	842	4569	954	481724	1263840	35457
601	2015-10-27 23:29:50	0	0	0	0	0	0	38.12	2.7	0.38	1076758	0	297018	655678	1076758	779740	29092	842	4569	954	481724	1263860	35457
602	2015-10-27 23:35:47	0	0	0	0	0	0	38.11	2.7	0.38	1076758	0	297018	655678	1076758	779740	29092	842	4569	954	481724	1263881	35457
603	2015-10-27 23:41:49	0	0	0	0	0	0	38.11	2.7	0.38	1076791	0	297038	655678	1076791	779753	29092	842	4569	954	481724	1263893	35457
604	2015-10-27 23:47:46	0	0	0	0	0	0	38.11	2.7	0.38	1076791	0	297038	655678	1076791	779753	29092	842	4569	954	481724	1263907	35457
605	2015-10-27 23:53:50	0	0	0	0	0	0	38.11	2.7	0.38	1076822	0	297065	655678	1076822	779757	29092	842	4569	954	481724	1263923	35457
606	2015-10-27 23:59:51	0	0	0	0	0	0	38.11	2.7	0.38	1076822	0	297065	655678	1076822	779757	29092	842	4569	954	481724	1263939	35457
607	2015-10-28 00:05:48	0	0	0	0	0	0	38.11	2.7	0.38	1076860	0	297095	655678	1076860	779765	29096	842	4569	954	481724	1263949	35461
608	2015-10-28 00:11:45	0	0	0	0	0	0	38.11	2.7	0.38	1076860	0	297095	655678	1076860	779765	29096	842	4569	954	481724	1263955	35461
609	2015-10-28 00:17:47	0	0	0	0	0	0	38.11	2.7	0.38	1076889	0	297117	655678	1076889	779772	29100	842	4569	954	481724	1263975	35465
610	2015-10-28 00:23:47	0	0	0	0	0	0	38.11	2.7	0.38	1076889	0	297117	655678	1076889	779772	29100	842	4569	954	481724	1263980	35465
611	2015-10-28 00:29:49	0	0	0	0	0	0	38.11	2.7	0.38	1076901	0	297126	655678	1076901	779775	29100	842	4570	954	481724	1263989	35466
612	2015-10-28 00:35:48	0	0	0	0	0	0	38.11	2.7	0.38	1076901	0	297126	655678	1076901	779775	29100	842	4570	954	481724	1264000	35466
613	2015-10-28 00:41:48	0	0	0	0	0	0	38.11	2.7	0.38	1076916	0	297139	655678	1076916	779777	29100	842	4570	954	481724	1264003	35466
614	2015-10-28 00:47:49	0	0	0	0	0	0	38.11	2.7	0.38	1076916	0	297139	655678	1076916	779777	29100	842	4570	954	481724	1264012	35466
615	2015-10-28 00:53:48	0	0	0	0	0	0	38.11	2.7	0.38	1076933	0	297148	655678	1076933	779785	29100	842	4570	954	481724	1264024	35466
616	2015-10-28 00:59:47	0	0	0	0	0	0	38.11	2.7	0.38	1076933	0	297148	655678	1076933	779785	29100	842	4570	954	481724	1264030	35466
617	2015-10-28 01:05:48	0	0	0	0	0	0	38.17	2.7	0.38	1076948	0	297161	655678	1076948	779787	29100	842	4570	954	481724	1262196	35466
618	2015-10-28 01:11:48	0	0	0	0	0	0	38.17	2.7	0.38	1076948	0	297161	655678	1076948	779787	29100	842	4570	954	481724	1262206	35466
619	2015-10-28 01:17:47	0	0	0	0	0	0	38.16	2.7	0.38	1076953	0	297165	655678	1076953	779788	29101	842	4570	954	481724	1262216	35467
620	2015-10-28 01:23:50	0	0	0	0	0	0	38.16	2.7	0.38	1076953	0	297165	655678	1076953	779788	29101	842	4570	954	481724	1262219	35467
621	2015-10-28 01:29:52	0	0	0	0	0	0	38.16	2.7	0.38	1076965	0	297177	655678	1076965	779788	29101	842	4570	954	481724	1262224	35467
622	2015-10-28 01:35:49	0	0	0	0	0	0	38.16	2.7	0.38	1076965	0	297177	655678	1076965	779788	29101	842	4570	954	481724	1262236	35467
623	2015-10-28 01:41:47	0	0	0	0	0	0	38.16	2.7	0.38	1076974	0	297183	655678	1076974	779791	29101	842	4570	954	481724	1262237	35467
624	2015-10-28 01:47:47	0	0	0	0	0	0	38.16	2.7	0.38	1076974	0	297183	655678	1076974	779791	29101	842	4570	954	481724	1262240	35467
625	2015-10-28 01:53:48	0	0	0	0	0	0	38.16	2.7	0.38	1076979	0	297187	655678	1076979	779792	29101	842	4570	954	481724	1262246	35467
626	2015-10-28 01:59:49	0	0	0	0	0	0	38.16	2.7	0.38	1076979	0	297187	655678	1076979	779792	29101	842	4570	954	481724	1262255	35467
627	2015-10-28 02:05:49	0	0	0	0	0	0	38.16	2.7	0.38	1076986	0	297194	655678	1076986	779792	29101	842	4570	954	481724	1262260	35467
628	2015-10-28 02:11:47	0	0	0	0	0	0	38.16	2.7	0.38	1076986	0	297194	655678	1076986	779792	29101	842	4570	954	481724	1262261	35467
629	2015-10-28 02:17:49	0	0	0	0	0	0	38.16	2.7	0.38	1076994	0	297200	655678	1076994	779794	29101	842	4570	954	481724	1262259	35467
630	2015-10-28 02:23:48	0	0	0	0	0	0	38.16	2.7	0.38	1076994	0	297200	655678	1076994	779794	29101	842	4570	954	481724	1262259	35467
631	2015-10-28 02:29:48	0	0	0	0	0	0	38.16	2.7	0.38	1077003	0	297208	655678	1077003	779795	29101	842	4570	954	481724	1262262	35467
632	2015-10-28 02:35:47	0	0	0	0	0	0	38.16	2.7	0.38	1077003	0	297208	655678	1077003	779795	29101	842	4570	954	481724	1262263	35467
633	2015-10-28 02:41:49	0	0	0	0	0	0	38.16	2.7	0.38	1077011	0	297214	655678	1077011	779797	29101	842	4570	954	481724	1262265	35467
634	2015-10-28 02:47:49	0	0	0	0	0	0	38.16	2.7	0.38	1077011	0	297214	655678	1077011	779797	29101	842	4570	954	481724	1262266	35467
635	2015-10-28 02:53:50	0	0	0	0	0	0	38.16	2.7	0.38	1077014	0	297217	655678	1077014	779797	29101	842	4570	954	481724	1262268	35467
636	2015-10-28 02:59:51	0	0	0	0	0	0	38.16	2.7	0.38	1077014	0	297217	655678	1077014	779797	29101	842	4570	954	481724	1262269	35467
637	2015-10-28 03:05:50	0	0	0	0	0	0	38.16	2.7	0.38	1077016	0	297219	655678	1077016	779797	29101	842	4570	954	481724	1262269	35467
638	2015-10-28 03:11:47	0	0	0	0	0	0	38.16	2.7	0.38	1077016	0	297219	655678	1077016	779797	29101	842	4570	954	481724	1262272	35467
639	2015-10-28 03:17:51	0	0	0	0	0	0	38.16	2.7	0.38	1077018	0	297220	655678	1077018	779798	29101	842	4570	954	481724	1262274	35467
640	2015-10-28 03:23:49	0	0	0	0	0	0	38.16	2.7	0.38	1077018	0	297220	655678	1077018	779798	29101	842	4570	954	481724	1262275	35467
641	2015-10-28 03:29:54	0	0	0	0	0	0	38.16	2.7	0.38	1077023	0	297224	655678	1077023	779799	29101	842	4570	954	481724	1262277	35467
642	2015-10-28 03:35:48	0	0	0	0	0	0	38.16	2.7	0.38	1077023	0	297224	655678	1077023	779799	29101	842	4570	954	481724	1262277	35467
643	2015-10-28 03:41:49	0	0	0	0	0	0	38.16	2.7	0.38	1077026	0	297226	655678	1077026	779800	29101	842	4570	954	481724	1262278	35467
644	2015-10-28 03:47:49	0	0	0	0	0	0	38.16	2.7	0.38	1077026	0	297226	655678	1077026	779800	29101	842	4570	954	481724	1262279	35467
645	2015-10-28 03:53:50	0	0	0	0	0	0	38.16	2.7	0.38	1077027	0	297227	655678	1077027	779800	29101	842	4570	954	481724	1262280	35467
646	2015-10-28 03:59:48	0	0	0	0	0	0	38.16	2.7	0.38	1077027	0	297227	655678	1077027	779800	29101	842	4570	954	481724	1262281	35467
647	2015-10-28 04:05:48	0	0	0	0	0	0	38.16	2.7	0.38	1077030	0	297230	655678	1077030	779800	29101	842	4570	954	481724	1262283	35467
648	2015-10-28 04:11:48	0	0	0	0	0	0	38.16	2.7	0.38	1077030	0	297230	655678	1077030	779800	29101	842	4570	954	481724	1262284	35467
649	2015-10-28 04:17:49	0	0	0	0	0	0	38.16	2.7	0.38	1077035	0	297233	655678	1077035	779802	29101	842	4570	954	481724	1262285	35467
650	2015-10-28 04:23:48	0	0	0	0	0	0	38.16	2.7	0.38	1077035	0	297233	655678	1077035	779802	29101	842	4570	954	481724	1262286	35467
651	2015-10-28 04:29:54	0	0	0	0	0	0	38.16	2.7	0.38	1077038	0	297236	655678	1077038	779802	29101	842	4571	954	481724	1262288	35468
652	2015-10-28 04:35:50	0	0	0	0	0	0	38.16	2.7	0.38	1077038	0	297236	655678	1077038	779802	29101	842	4571	954	481724	1262290	35468
653	2015-10-28 04:41:50	0	0	0	0	0	0	38.16	2.7	0.38	1077042	0	297239	655678	1077042	779803	29101	842	4571	954	481724	1262290	35468
654	2015-10-28 04:47:48	0	0	0	0	0	0	38.16	2.7	0.38	1077042	0	297239	655678	1077042	779803	29101	842	4571	954	481724	1262295	35468
655	2015-10-28 04:53:53	0	0	0	0	0	0	38.16	2.7	0.38	1077047	0	297243	655678	1077047	779804	29101	842	4571	954	481724	1262296	35468
656	2015-10-28 04:59:47	0	0	0	0	0	0	38.16	2.7	0.38	1077047	0	297243	655678	1077047	779804	29101	842	4571	954	481724	1262298	35468
657	2015-10-28 05:05:50	0	0	0	0	0	0	38.16	2.7	0.38	1077051	0	297247	655678	1077051	779804	29101	842	4571	954	481724	1262301	35468
658	2015-10-28 05:11:51	0	0	0	0	0	0	38.16	2.7	0.38	1077051	0	297247	655678	1077051	779804	29101	842	4571	954	481724	1262304	35468
659	2015-10-28 05:17:50	0	0	0	0	0	0	38.16	2.7	0.38	1077052	0	297248	655678	1077052	779804	29101	842	4571	954	481724	1262307	35468
660	2015-10-28 05:24:00	0	0	0	0	0	0	38.16	2.7	0.38	1077052	0	297248	655678	1077052	779804	29101	842	4571	954	481724	1262308	35468
661	2015-10-28 05:30:18	0	0	0	0	0	0	38.16	2.7	0.38	1077056	0	297252	655678	1077056	779804	29101	842	4571	954	481724	1262310	35468
662	2015-10-28 05:35:56	0	0	0	0	0	0	38.16	2.7	0.38	1077056	0	297252	655678	1077056	779804	29101	842	4571	954	481724	1262312	35468
663	2015-10-28 05:41:59	0	0	0	0	0	0	38.16	2.7	0.38	1077063	0	297259	655678	1077063	779804	29101	842	4571	954	481724	1262317	35468
664	2015-10-28 05:47:58	0	0	0	0	0	0	38.16	2.7	0.38	1077063	0	297259	655678	1077063	779804	29101	842	4571	954	481724	1262317	35468
665	2015-10-28 05:53:50	0	0	0	0	0	0	38.16	2.7	0.38	1077071	0	297266	655678	1077071	779805	29101	842	4571	954	481724	1262319	35468
666	2015-10-28 05:59:49	0	0	0	0	0	0	38.16	2.7	0.38	1077071	0	297266	655678	1077071	779805	29101	842	4571	954	481724	1262322	35468
667	2015-10-28 06:05:48	0	0	0	0	0	0	38.16	2.7	0.38	1077078	0	297271	655678	1077078	779807	29101	842	4571	954	481724	1262325	35468
668	2015-10-28 06:11:48	0	0	0	0	0	0	38.16	2.7	0.38	1077078	0	297271	655678	1077078	779807	29101	842	4571	954	481724	1262330	35468
669	2015-10-28 06:17:50	0	0	0	0	0	0	38.16	2.7	0.38	1077089	0	297281	655678	1077089	779808	29101	842	4571	954	481724	1262334	35468
670	2015-10-28 06:23:48	0	0	0	0	0	0	38.16	2.7	0.38	1077089	0	297281	655678	1077089	779808	29101	842	4571	954	481724	1262341	35468
671	2015-10-28 06:29:51	0	0	0	0	0	0	38.16	2.7	0.38	1077095	0	297285	655678	1077095	779810	29101	842	4571	954	481724	1262350	35468
672	2015-10-28 06:35:50	0	0	0	0	0	0	38.16	2.7	0.38	1077095	0	297285	655678	1077095	779810	29101	842	4571	954	481724	1262352	35468
673	2015-10-28 06:41:51	0	0	0	0	0	0	38.16	2.7	0.38	1077101	0	297291	655678	1077101	779810	29101	842	4571	954	481724	1262360	35468
674	2015-10-28 06:47:50	0	0	0	0	0	0	38.16	2.7	0.38	1077101	0	297291	655678	1077101	779810	29101	842	4571	954	481724	1262365	35468
675	2015-10-28 06:53:49	0	0	0	0	0	0	38.16	2.7	0.38	1077107	0	297295	655678	1077107	779812	29101	842	4571	954	481724	1262368	35468
676	2015-10-28 06:59:53	0	0	0	0	0	0	38.16	2.7	0.38	1077107	0	297295	655678	1077107	779812	29101	842	4571	954	481724	1262375	35468
677	2015-10-28 07:05:49	0	0	0	0	0	0	38.16	2.7	0.38	1077121	0	297308	655678	1077121	779813	29101	842	4571	954	481724	1262383	35468
678	2015-10-28 07:11:48	0	0	0	0	0	0	38.16	2.7	0.38	1077121	0	297308	655678	1077121	779813	29101	842	4571	954	481724	1262394	35468
679	2015-10-28 07:17:51	0	0	0	0	0	0	38.16	2.7	0.38	1077129	0	297316	655678	1077129	779813	29101	842	4571	954	481724	1262403	35468
680	2015-10-28 07:23:52	0	0	0	0	0	0	38.16	2.7	0.38	1077129	0	297316	655678	1077129	779813	29101	842	4571	954	481724	1262414	35468
681	2015-10-28 07:29:50	0	0	0	0	0	0	38.16	2.7	0.38	1077140	0	297327	655678	1077140	779813	29101	842	4571	954	481724	1262421	35468
682	2015-10-28 07:35:51	0	0	0	0	0	0	38.16	2.7	0.38	1077140	0	297327	655678	1077140	779813	29101	842	4571	954	481724	1262429	35468
683	2015-10-28 07:41:54	0	0	0	0	0	0	38.16	2.7	0.38	1077148	0	297335	655678	1077148	779813	29101	842	4571	954	481724	1262439	35468
684	2015-10-28 07:47:48	0	0	0	0	0	0	38.16	2.7	0.38	1077148	0	297335	655678	1077148	779813	29101	842	4571	954	481724	1262450	35468
685	2015-10-28 07:53:49	0	0	0	0	0	0	38.16	2.7	0.38	1077156	0	297343	655678	1077156	779813	29101	842	4571	954	481724	1262458	35468
686	2015-10-28 07:59:55	0	0	0	0	0	0	38.16	2.7	0.38	1077156	0	297343	655678	1077156	779813	29101	842	4571	954	481724	1262470	35468
687	2015-10-28 08:05:54	0	0	0	0	0	0	38.16	2.7	0.38	1077176	0	297359	655678	1077176	779817	29102	842	4571	954	481724	1262480	35469
688	2015-10-28 08:11:56	0	0	0	0	0	0	38.16	2.7	0.38	1077176	0	297359	655678	1077176	779817	29102	842	4571	954	481724	1262483	35469
689	2015-10-28 08:17:56	0	0	0	0	0	0	38.16	2.7	0.38	1077185	0	297363	655678	1077185	779822	29103	842	4571	954	481724	1262491	35470
690	2015-10-28 08:23:58	0	0	0	0	0	0	38.16	2.7	0.38	1077185	0	297363	655678	1077185	779822	29103	842	4571	954	481724	1262506	35470
691	2015-10-28 08:30:00	0	0	0	0	0	0	38.16	2.7	0.38	1077205	0	297380	655678	1077205	779825	29103	842	4571	954	481724	1262516	35470
692	2015-10-28 08:35:58	0	0	0	0	0	0	38.16	2.7	0.38	1077205	0	297380	655678	1077205	779825	29103	842	4571	954	481724	1262526	35470
693	2015-10-28 08:42:00	0	0	0	0	0	0	38.16	2.7	0.38	1077217	0	297391	655678	1077217	779826	29103	842	4571	954	481724	1262537	35470
694	2015-10-28 08:47:59	0	0	0	0	0	0	38.15	2.7	0.38	1077217	0	297391	655678	1077217	779826	29103	842	4571	954	481724	1262545	35470
695	2015-10-28 08:54:10	0	0	0	0	0	0	38.24	2.7	0.38	1077231	0	297403	655955	1077231	779828	29104	842	4571	954	482775	1262552	35471
696	2015-10-28 09:00:20	0	0	0	0	0	0	38.24	2.7	0.38	1077231	0	297403	655955	1077231	779828	29104	842	4571	954	482775	1262567	35471
697	2015-10-28 09:06:01	0	0	0	0	0	0	38.24	2.7	0.38	1077242	0	297413	655955	1077242	779829	29104	842	4571	954	482775	1262574	35471
698	2015-10-28 09:11:57	0	0	0	0	0	0	38.24	2.7	0.38	1077242	0	297413	655955	1077242	779829	29104	842	4571	954	482775	1262580	35471
699	2015-10-28 09:17:57	0	0	0	0	0	0	38.24	2.7	0.38	1077256	0	297422	655955	1077256	779834	29104	842	4571	954	482775	1262598	35471
700	2015-10-28 09:24:09	0	0	0	0	0	0	38.24	2.7	0.38	1077256	0	297422	655955	1077256	779834	29104	842	4571	954	482775	1262605	35471
701	2015-10-28 09:30:01	0	0	0	0	0	0	38.24	2.7	0.38	1077264	0	297429	655955	1077264	779835	29104	842	4571	954	482775	1262609	35471
702	2015-10-28 09:35:58	0	0	0	0	0	0	38.24	2.7	0.38	1077264	0	297429	655955	1077264	779835	29104	842	4571	954	482775	1262616	35471
703	2015-10-28 09:41:51	0	0	0	0	0	0	38.24	2.7	0.38	1077275	0	297439	655955	1077275	779836	29104	842	4571	954	482775	1262625	35471
704	2015-10-28 09:47:54	0	0	0	0	0	0	38.24	2.7	0.38	1077275	0	297439	655955	1077275	779836	29104	842	4571	954	482775	1262635	35471
705	2015-10-28 09:54:01	0	0	0	0	0	0	38.24	2.7	0.38	1077290	0	297450	655955	1077290	779840	29105	842	4571	954	482775	1262650	35472
706	2015-10-28 10:00:04	0	0	0	0	0	0	38.23	2.7	0.38	1077290	0	297450	655955	1077290	779840	29105	842	4571	954	482775	1262664	35472
707	2015-10-28 10:05:52	0	0	0	0	0	0	38.23	2.7	0.38	1077307	0	297461	655955	1077307	779846	29105	842	4571	954	482775	1262676	35472
708	2015-10-28 10:12:00	0	0	0	0	0	0	38.23	2.7	0.38	1077307	0	297461	655955	1077307	779846	29105	842	4571	954	482775	1262690	35472
709	2015-10-28 10:17:53	0	0	0	0	0	0	38.23	2.7	0.38	1077325	0	297475	655955	1077325	779850	29105	842	4571	954	482775	1262695	35472
710	2015-10-28 10:23:54	0	0	0	0	0	0	38.23	2.7	0.38	1077325	0	297475	655955	1077325	779850	29105	842	4571	954	482775	1262708	35472
711	2015-10-28 10:29:59	0	0	0	0	0	0	38.23	2.7	0.38	1077326	0	297476	655955	1077326	779850	29105	842	4571	954	482775	1262717	35472
712	2015-10-28 10:35:56	0	0	0	0	0	0	38.23	2.7	0.38	1077326	0	297476	655955	1077326	779850	29105	842	4571	954	482775	1262727	35472
713	2015-10-28 10:42:01	0	0	0	0	0	0	38.23	2.7	0.38	1077342	0	297487	655955	1077342	779855	29105	842	4571	954	482775	1262736	35472
714	2015-10-28 10:48:06	0	0	0	0	0	0	38.23	2.7	0.38	1077342	0	297487	655955	1077342	779855	29105	842	4571	954	482775	1262742	35472
715	2015-10-28 10:54:07	0	0	0	0	0	0	38.23	2.7	0.38	1077356	0	297498	655955	1077356	779858	29105	842	4571	954	482775	1262759	35472
716	2015-10-28 11:00:04	0	0	0	0	0	0	38.23	2.7	0.38	1077356	0	297498	655955	1077356	779858	29105	842	4571	954	482775	1262766	35472
717	2015-10-28 11:06:19	0	0	0	0	0	0	38.23	2.7	0.38	1077374	0	297515	655955	1077374	779859	29105	842	4571	954	482775	1262782	35472
718	2015-10-28 11:12:02	0	0	0	0	0	0	38.23	2.7	0.38	1077374	0	297515	655955	1077374	779859	29105	842	4571	954	482775	1262790	35472
719	2015-10-28 11:18:02	0	0	0	0	0	0	38.23	2.7	0.38	1077388	0	297524	655955	1077388	779864	29105	842	4571	954	482775	1262796	35472
720	2015-10-28 11:23:56	0	0	0	0	0	0	38.23	2.7	0.38	1077388	0	297524	655955	1077388	779864	29105	842	4571	954	482775	1262810	35472
721	2015-10-28 11:30:03	0	0	0	0	0	0	38.23	2.7	0.38	1077400	0	297532	655955	1077400	779868	29105	842	4571	954	482775	1262822	35472
