1	2017-01-14 15:51:36	0	0	0	0	0	0	1.77	0.72	0.02	63157	1	1318	46163	63157	61839	457	32	245	17	44580	2513648	751
2	2017-01-14 16:01:36	0	0	0	0	0	0	1.85	0.74	0.02	67646	1	1501	48316	67646	66145	502	34	262	17	46493	2513740	815
3	2017-01-14 16:11:37	0	0	0	0	0	0	1.98	0.76	0.02	71683	1	1652	51629	71683	70031	547	40	276	17	49797	2513825	880
4	2017-01-14 16:21:37	0	0	0	0	0	0	2.09	0.78	0.02	75405	1	1811	54584	75405	73594	591	44	292	19	52569	2513886	946
5	2017-01-14 16:31:35	0	0	0	0	0	0	2.15	0.78	0.03	79122	1	2028	56339	79122	77094	620	46	305	19	54066	2513955	990
6	2017-01-14 16:41:35	0	0	0	0	0	0	2.23	0.8	0.03	82470	1	2191	58151	82470	80279	659	50	322	19	55983	2514035	1050
7	2017-01-14 16:51:35	0	0	0	0	0	0	2.3	0.81	0.03	85673	1	2328	60156	85673	83345	695	52	336	21	57847	2514120	1104
8	2017-01-14 17:01:36	0	0	0	0	0	0	2.37	0.82	0.03	88856	1	2496	61770	88856	86360	729	54	349	21	59567	2514187	1153
9	2017-01-14 17:11:36	0	0	0	0	0	0	2.46	0.84	0.03	91925	1	2638	64420	91925	89287	771	56	358	22	61850	2514243	1207
10	2017-01-14 17:21:36	0	0	0	0	0	0	2.53	0.84	0.03	94968	1	2788	65993	94968	92180	797	62	370	22	63543	2514313	1251
11	2017-01-14 17:31:36	0	0	0	0	0	0	2.61	0.84	0.03	97886	1	2913	68147	97886	94973	826	66	378	22	65555	2514383	1292
12	2017-01-14 17:41:37	0	0	0	0	0	0	2.7	0.86	0.03	100664	1	3047	70336	100664	97617	863	66	390	23	67862	2514454	1342
13	2017-01-14 17:51:49	0	0	0	0	0	0	2.75	0.86	0.03	103386	1	3186	71681	103386	100200	892	66	400	23	69086	2514529	1381
14	2017-01-14 18:02:18	0	0	0	0	0	0	2.85	0.86	0.03	106156	1	3308	74571	106156	102848	913	72	413	23	71762	2514608	1421
15	2017-01-14 18:12:58	0	0	0	0	0	0	2.92	0.87	0.03	108747	1	3421	76159	108747	105326	944	72	426	23	73397	2514688	1465
16	2017-01-14 18:23:54	0	0	0	0	0	0	2.98	0.87	0.03	111146	1	3541	77634	111146	107605	971	74	439	23	74824	2514782	1507
17	2017-01-14 18:35:03	0	0	0	0	0	0	3.02	0.88	0.03	112887	1	3737	78908	112887	109210	993	76	443	23	75955	2514861	1535
18	2017-01-14 18:46:24	0	0	0	0	0	0	3.05	0.88	0.03	115307	1	3864	79899	115307	111443	1014	76	454	23	76789	2514936	1567
19	2017-01-14 18:58:00	0	0	0	0	0	0	3.1	0.88	0.04	117074	1	3993	81197	117074	113081	1028	78	461	23	78034	2515015	1590
20	2017-01-14 19:11:44	0	0	0	0	0	0	3.15	0.88	0.04	119776	1	4151	82569	119776	115625	1049	80	469	24	79146	2515100	1622
21	2017-01-14 19:25:36	0	0	0	0	0	0	3.22	0.87	0.04	122554	1	4310	84352	122554	118244	1071	82	476	24	80969	2515162	1653
22	2017-01-14 19:39:49	0	0	0	0	0	0	3.25	0.88	0.04	124110	1	4406	85274	124110	119704	1086	82	485	24	81831	2515215	1677
23	2017-01-14 19:54:18	0	0	0	0	0	0	3.29	0.88	0.04	126328	1	4556	86395	126328	121772	1108	82	492	25	82774	2515266	1707
24	2017-01-14 20:09:06	0	0	0	0	0	0	3.32	0.88	0.04	128780	1	4708	87654	128780	124072	1130	82	502	25	83608	2515326	1739
25	2017-01-14 20:24:20	0	0	0	0	0	0	3.38	0.88	0.04	131091	1	4826	89179	131091	126265	1154	84	508	25	85087	2515404	1771
26	2017-01-14 20:40:03	0	0	0	0	0	0	3.43	0.87	0.04	133455	1	4958	90630	133455	128497	1166	86	514	25	86388	2515461	1791
27	2017-01-14 20:55:50	0	0	0	0	0	0	3.53	0.88	0.04	136805	1	5128	92875	136805	131677	1203	86	525	25	88750	2515566	1839
28	2017-01-14 21:11:50	0	0	0	0	0	0	3.58	0.88	0.04	139194	1	5245	94140	139194	133949	1225	88	536	25	90045	2515690	1874
29	2017-01-14 21:28:04	0	0	0	0	0	0	3.6	0.88	0.04	141598	1	5363	94967	141598	136235	1241	92	544	25	90626	2515796	1902
30	2017-01-14 21:44:32	0	0	0	0	0	0	3.67	0.87	0.04	144141	1	5508	97002	144141	138633	1259	94	552	25	92389	2515941	1930
31	2017-01-14 22:01:20	0	0	0	0	0	0	3.77	0.87	0.04	147504	1	5668	99494	147504	141836	1289	98	563	25	94949	2516065	1975
32	2017-01-14 22:18:20	0	0	0	0	0	0	3.82	0.87	0.04	149922	1	5806	100847	149922	144116	1309	98	573	25	96180	2516166	2005
33	2017-01-14 22:35:39	0	0	0	0	0	0	3.89	0.87	0.04	153099	1	5969	102514	153099	147130	1336	100	585	25	97862	2516301	2046
34	2017-01-14 22:53:14	0	0	0	0	0	0	3.93	0.87	0.04	155634	1	6096	103587	155634	149538	1354	102	598	25	98991	2516419	2079
35	2017-01-14 23:11:04	0	0	0	0	0	0	4.02	0.87	0.04	158766	1	6273	105773	158766	152493	1380	102	609	26	101250	2516535	2117
36	2017-01-14 23:29:14	0	0	0	0	0	0	4.1	0.87	0.04	161131	1	6375	107231	161131	154756	1401	102	618	26	103131	2516606	2147
37	2017-01-14 23:47:43	0	0	0	0	0	0	4.17	0.87	0.04	164082	1	6507	108861	164082	157575	1431	104	632	27	104965	2516667	2194
38	2017-01-15 00:06:31	0	0	0	0	0	0	4.22	0.87	0.04	166882	1	6659	110177	166882	160223	1455	110	639	27	106188	2516699	2231
39	2017-01-15 00:25:55	0	0	0	0	0	0	4.28	0.87	0.04	169605	1	6802	111766	169605	162803	1478	110	652	27	107633	2516725	2267
40	2017-01-15 00:45:51	0	0	0	0	0	0	4.34	0.87	0.04	172044	1	6924	113455	172044	165120	1500	112	657	28	109114	2516757	2297
41	2017-01-15 01:07:36	0	0	0	0	0	0	4.4	0.87	0.04	174152	1	7055	115289	174152	167097	1519	112	667	28	110739	2516799	2326
42	2017-01-15 01:26:31	0	0	0	0	0	0	4.46	0.87	0.04	175826	1	7161	116752	175826	168665	1536	110	674	28	112186	2516844	2348
43	2017-01-15 01:44:01	0	0	0	0	0	0	4.49	0.87	0.04	176952	1	7247	117547	176952	169705	1545	112	682	28	112920	2516889	2367
44	2017-01-15 02:00:45	0	0	0	0	0	0	4.52	0.87	0.04	177887	1	7300	118503	177887	170587	1551	114	691	28	113796	2517063	2384
45	2017-01-15 02:24:47	0	0	0	0	0	0	4.55	0.87	0.04	179164	1	7363	119587	179164	171801	1565	114	693	28	114600	2517095	2400
46	2017-01-15 02:41:39	0	0	0	0	0	0	4.56	0.87	0.04	179990	1	7407	119652	179990	172583	1571	114	699	28	114660	2517109	2412
47	2017-01-15 02:59:08	0	0	0	0	0	0	4.56	0.87	0.04	180512	1	7429	119707	180512	173083	1577	114	701	28	114711	2517125	2420
48	2017-01-15 03:17:43	0	0	0	0	0	0	4.58	0.87	0.04	181113	1	7463	120144	181113	173650	1583	114	702	28	115386	2517133	2427
49	2017-01-15 03:43:50	0	0	0	0	0	0	4.59	0.87	0.04	181807	1	7500	120312	181807	174307	1589	114	703	28	115541	2517148	2434
50	2017-01-15 04:02:17	0	0	0	0	0	0	4.6	0.87	0.04	182245	1	7514	120617	182245	174731	1592	114	703	28	115792	2517158	2437
51	2017-01-15 04:20:59	0	0	0	0	0	0	4.61	0.87	0.04	182571	1	7525	120767	182571	175046	1596	114	704	28	115930	2517173	2442
52	2017-01-15 04:42:31	0	0	0	0	0	0	4.62	0.87	0.04	183013	1	7547	121221	183013	175466	1597	114	705	28	116349	2517181	2444
53	2017-01-15 05:02:42	0	0	0	0	0	0	4.63	0.87	0.04	183357	1	7578	121468	183357	175779	1599	114	708	28	116576	2517192	2449
54	2017-01-15 05:22:30	0	0	0	0	0	0	4.64	0.87	0.04	183654	1	7615	121583	183654	176039	1604	114	708	28	116682	2517203	2454
55	2017-01-15 05:42:34	0	0	0	0	0	0	4.64	0.87	0.04	183971	1	7637	121717	183971	176334	1609	114	709	28	116805	2517208	2460
56	2017-01-15 06:03:37	0	0	0	0	0	0	4.66	0.87	0.04	184349	1	7660	122463	184349	176689	1611	114	710	28	117425	2517222	2463
57	2017-01-15 06:33:00	0	0	0	0	0	0	4.67	0.87	0.04	184938	1	7701	122613	184938	177237	1614	116	712	28	117563	2517248	2470
58	2017-01-15 06:57:43	0	0	0	0	0	0	4.7	0.87	0.04	185566	1	7736	123414	185566	177830	1621	116	715	28	118299	2517267	2480
59	2017-01-15 07:17:16	0	0	0	0	0	0	4.73	0.88	0.04	186206	1	7777	124466	186206	178429	1634	116	715	28	119119	2517301	2493
60	2017-01-15 07:37:15	0	0	0	0	0	0	4.75	0.88	0.04	187065	1	7831	124894	187065	179234	1646	116	718	28	119511	2517332	2508
61	2017-01-15 13:19:49	0	0	0	0	0	0	5.13	0.89	0.05	205102	1	9502	136231	205102	195600	1834	130	781	29	129166	2518948	2774
62	2017-01-15 13:29:47	0	0	0	0	0	0	5.13	0.9	0.05	205445	1	9528	136423	205445	195917	1839	132	783	29	129338	2518999	2783
63	2017-01-15 13:39:47	0	0	0	0	0	0	5.14	0.9	0.05	205778	1	9552	136519	205778	196226	1843	132	784	29	129425	2519044	2788
64	2017-01-15 13:49:49	0	0	0	0	0	0	5.14	0.89	0.05	206109	1	9588	136591	206109	196521	1844	132	786	29	129533	2519094	2791
65	2017-01-15 13:59:49	0	0	0	0	0	0	5.15	0.9	0.05	206432	1	9623	136893	206432	196809	1850	134	790	29	129630	2519133	2803
66	2017-01-15 14:09:49	0	0	0	0	0	0	5.15	0.9	0.05	206684	1	9647	136893	206684	197037	1854	134	792	29	129630	2519184	2809
67	2017-01-15 14:19:49	0	0	0	0	0	0	5.15	0.9	0.05	206994	1	9679	137063	206994	197315	1857	134	793	29	129783	2519240	2813
68	2017-01-15 14:29:49	0	0	0	0	0	0	5.16	0.9	0.05	207307	1	9710	137318	207307	197597	1863	134	794	29	130011	2519287	2820
69	2017-01-15 14:39:49	0	0	0	0	0	0	5.17	0.9	0.05	207651	1	9733	137697	207651	197918	1870	134	797	29	130351	2519334	2830
70	2017-01-15 14:49:51	0	0	0	0	0	0	5.17	0.9	0.05	207979	1	9763	137697	207979	198216	1871	134	798	29	130351	2519368	2832
71	2017-01-15 14:59:51	0	0	0	0	0	0	5.18	0.9	0.05	208249	1	9785	138016	208249	198464	1876	134	798	29	130483	2519415	2837
72	2017-01-15 15:09:51	0	0	0	0	0	0	5.18	0.9	0.05	208498	1	9806	138065	208498	198692	1881	134	799	29	130527	2519465	2843
73	2017-01-15 15:19:51	0	0	0	0	0	0	5.19	0.9	0.05	208769	1	9826	138065	208769	198943	1884	134	801	29	130791	2519508	2848
74	2017-01-15 15:29:51	0	0	0	0	0	0	5.2	0.9	0.05	209030	1	9849	138442	209030	199181	1887	134	802	29	131129	2519543	2852
75	2017-01-15 15:39:51	0	0	0	0	0	0	5.2	0.91	0.05	209271	1	9863	138442	209271	199408	1894	134	803	29	131129	2519579	2860
76	2017-01-15 15:49:51	0	0	0	0	0	0	5.21	0.91	0.05	209504	1	9886	138466	209504	199618	1897	136	806	29	131151	2519621	2868
77	2017-01-15 16:00:02	0	0	0	0	0	0	5.21	0.91	0.05	209711	1	9910	138466	209711	199801	1900	136	806	29	131151	2519652	2871
78	2017-01-15 16:10:22	0	0	0	0	0	0	5.21	0.91	0.05	209895	1	9930	138504	209895	199965	1900	136	807	29	131185	2519690	2872
79	2017-01-15 16:20:52	0	0	0	0	0	0	5.21	0.91	0.05	210097	1	9952	138690	210097	200145	1902	136	807	29	131352	2519745	2874
80	2017-01-15 16:31:26	0	0	0	0	0	0	5.21	0.9	0.05	210271	1	9962	138690	210271	200309	1902	136	807	29	131352	2519832	2874
81	2017-01-15 16:42:08	0	0	0	0	0	0	5.22	0.9	0.05	210584	1	9993	138960	210584	200591	1903	136	807	29	131595	2519926	2875
82	2017-01-15 16:53:05	0	0	0	0	0	0	5.23	0.9	0.05	210808	1	10021	139159	210808	200787	1904	136	808	29	131729	2519995	2877
83	2017-01-15 17:04:07	0	0	0	0	0	0	5.23	0.9	0.05	210991	1	10038	139321	210991	200953	1906	136	808	29	131875	2520080	2879
84	2017-01-15 17:15:20	0	0	0	0	0	0	5.24	0.9	0.05	211152	1	10046	139636	211152	201106	1909	136	809	29	132156	2520157	2883
85	2017-01-15 17:26:43	0	0	0	0	0	0	5.25	0.9	0.05	211305	1	10055	139825	211305	201250	1912	136	810	29	132326	2520240	2887
86	2017-01-15 17:38:12	0	0	0	0	0	0	5.26	0.91	0.05	211566	1	10077	140040	211566	201489	1916	136	810	29	132609	2520326	2891
87	2017-01-15 17:49:52	0	0	0	0	0	0	5.26	0.91	0.05	211708	1	10090	140040	211708	201618	1918	138	810	29	132609	2520411	2895
88	2017-01-15 18:01:43	0	0	0	0	0	0	5.26	0.91	0.05	211865	1	10107	140160	211865	201758	1919	138	810	29	132626	2520482	2896
89	2017-01-15 18:13:40	0	0	0	0	0	0	5.27	0.91	0.05	212132	1	10137	140262	212132	201995	1925	138	811	29	132717	2520547	2903
90	2017-01-15 18:25:46	0	0	0	0	0	0	5.27	0.91	0.05	212270	1	10152	140262	212270	202118	1927	138	811	29	132717	2520606	2905
91	2017-01-15 18:38:12	0	0	0	0	0	0	5.27	0.91	0.05	212484	1	10178	140262	212484	202306	1930	138	812	29	132717	2520650	2909
92	2017-01-15 18:54:10	0	0	0	0	0	0	5.27	0.91	0.05	212708	1	10200	140440	212708	202508	1931	140	813	29	132876	2520730	2913
93	2017-01-15 19:10:22	0	0	0	0	0	0	5.28	0.91	0.05	212935	1	10223	140593	212935	202712	1932	140	816	29	133105	2520813	2917
94	2017-01-15 19:28:29	0	0	0	0	0	0	5.28	0.91	0.05	213217	1	10248	140670	213217	202969	1933	140	818	29	133174	2520907	2920
95	2017-01-15 19:45:08	0	0	0	0	0	0	5.28	0.91	0.05	213422	1	10276	140670	213422	203146	1936	140	818	29	133174	2520989	2923
96	2017-01-15 20:02:46	0	0	0	0	0	0	5.29	0.91	0.05	213689	1	10301	140874	213689	203388	1939	142	818	29	133265	2521067	2928
97	2017-01-15 20:22:01	0	0	0	0	0	0	5.29	0.91	0.05	213847	1	10324	141234	213847	203523	1940	142	819	29	133265	2521168	2930
98	2017-01-15 20:39:24	0	0	0	0	0	0	5.29	0.91	0.05	214117	1	10360	141234	214117	203757	1941	142	819	29	133265	2521251	2931
99	2017-01-15 20:57:07	0	0	0	0	0	0	5.29	0.91	0.05	214323	1	10385	141273	214323	203938	1943	142	821	29	133300	2521335	2935
100	2017-01-15 21:15:05	0	0	0	0	0	0	5.29	0.91	0.05	214577	1	10427	141312	214577	204150	1945	142	822	29	133334	2521439	2938
101	2017-01-15 21:36:10	0	0	0	0	0	0	5.29	0.91	0.05	214791	1	10448	141336	214791	204343	1948	142	822	29	133356	2521547	2941
102	2017-01-15 21:54:52	0	0	0	0	0	0	5.29	0.91	0.05	215011	1	10469	141375	215011	204542	1950	144	825	29	133390	2521663	2948
103	2017-01-15 22:13:59	0	0	0	0	0	0	5.3	0.91	0.05	215229	1	10498	141763	215229	204731	1951	144	826	29	133736	2521764	2950
104	2017-01-15 22:33:04	0	0	0	0	0	0	5.31	0.91	0.05	215458	1	10522	142127	215458	204936	1956	144	826	29	133875	2521879	2955
105	2017-01-15 22:52:11	0	0	0	0	0	0	5.31	0.91	0.05	215609	1	10548	142140	215609	205061	1957	144	828	29	133885	2522002	2958
106	2017-01-15 23:12:32	0	0	0	0	0	0	5.31	0.91	0.05	215852	1	10579	142159	215852	205273	1959	144	831	29	133903	2522096	2963
107	2017-01-15 23:34:36	0	0	0	0	0	0	5.32	0.91	0.05	215981	1	10610	142329	215981	205371	1962	144	833	29	134112	2522218	2968
108	2017-01-16 00:03:23	0	0	0	0	0	0	5.32	0.91	0.05	216084	1	10637	142342	216084	205447	1965	144	833	29	134123	2522342	2971
109	2017-01-16 00:34:04	0	0	0	0	0	0	5.32	0.91	0.05	216177	1	10651	142447	216177	205526	1968	142	833	29	134216	2522423	2972
110	2017-01-16 00:53:31	0	0	0	0	0	0	5.32	0.91	0.05	216229	1	10661	142447	216229	205568	1969	142	834	29	134263	2522478	2974
111	2017-01-16 01:12:14	0	0	0	0	0	0	5.32	0.91	0.05	216260	1	10663	142447	216260	205597	1974	142	834	29	134263	2522501	2979
112	2017-01-16 01:29:50	0	0	0	0	0	0	5.32	0.91	0.05	216289	1	10666	142499	216289	205623	1974	142	834	29	134309	2522521	2979
113	2017-01-16 02:01:30	0	0	0	0	0	0	5.32	0.91	0.05	216317	1	10673	142499	216317	205644	1974	142	834	29	134309	2525832	2979
114	2017-01-16 02:20:06	0	0	0	0	0	0	5.32	0.91	0.05	216336	1	10677	142499	216336	205659	1974	142	834	29	134309	2525852	2979
115	2017-01-16 02:51:51	0	0	0	0	0	0	5.32	0.91	0.05	216354	1	10683	142499	216354	205671	1974	142	834	29	134309	2525866	2979
116	2017-01-16 03:10:38	0	0	0	0	0	0	5.32	0.91	0.05	216369	1	10685	142499	216369	205684	1975	142	834	29	134309	2525875	2980
117	2017-01-16 03:29:06	0	0	0	0	0	0	5.32	0.91	0.05	216372	1	10685	142499	216372	205687	1975	142	834	29	134309	2525881	2980
118	2017-01-16 03:47:50	0	0	0	0	0	0	5.32	0.91	0.05	216376	1	10685	142499	216376	205691	1975	142	834	29	134309	2525888	2980
119	2017-01-16 04:06:21	0	0	0	0	0	0	5.32	0.91	0.05	216377	1	10685	142499	216377	205692	1975	142	834	29	134309	2525895	2980
120	2017-01-16 04:25:10	0	0	0	0	0	0	5.32	0.91	0.05	216384	1	10686	142499	216384	205698	1975	142	834	29	134309	2525896	2980
121	2017-01-16 04:43:42	0	0	0	0	0	0	5.32	0.91	0.05	216389	1	10689	142499	216389	205700	1975	142	834	29	134309	2525905	2980
122	2017-01-16 05:02:43	0	0	0	0	0	0	5.32	0.91	0.05	216392	1	10690	142499	216392	205702	1975	142	834	29	134309	2525909	2980
123	2017-01-16 05:22:04	0	0	0	0	0	0	5.32	0.91	0.05	216395	1	10691	142499	216395	205704	1975	142	834	29	134309	2525925	2980
124	2017-01-16 05:42:50	0	0	0	0	0	0	5.32	0.91	0.05	216403	1	10693	142499	216403	205710	1975	142	834	29	134309	2525938	2980
125	2017-01-16 06:05:23	0	0	0	0	0	0	5.32	0.91	0.05	216409	1	10697	142499	216409	205712	1975	142	834	29	134309	2525959	2980
126	2017-01-16 06:23:27	0	0	0	0	0	0	5.32	0.91	0.05	216415	1	10698	142499	216415	205717	1975	142	834	29	134309	2525982	2980
127	2017-01-16 06:41:02	0	0	0	0	0	0	5.32	0.91	0.05	216426	1	10705	142499	216426	205721	1975	142	834	29	134309	2526001	2980
128	2017-01-16 12:07:47	0	0	0	0	0	0	5.32	0.91	0.05	216693	1	10812	142703	216693	205881	1978	140	835	29	134449	2527255	2982
129	2017-01-16 12:17:47	0	0	0	0	0	0	5.32	0.91	0.05	216698	1	10814	142703	216698	205884	1978	140	835	29	134449	2527298	2982
130	2017-01-16 12:27:45	0	0	0	0	0	0	5.32	0.91	0.05	216709	1	10816	142703	216709	205893	1978	140	835	29	134449	2527329	2982
131	2017-01-16 12:37:48	0	0	0	0	0	0	5.32	0.91	0.05	216721	1	10826	142703	216721	205895	1978	140	835	29	134449	2527386	2982
132	2017-01-16 12:47:48	0	0	0	0	0	0	5.32	0.91	0.05	216724	1	10827	142703	216724	205897	1978	140	835	29	134449	2527414	2982
133	2017-01-16 12:57:48	0	0	0	0	0	0	5.32	0.91	0.05	216726	1	10828	142703	216726	205898	1978	140	835	29	134449	2527438	2982
134	2017-01-16 13:07:48	0	0	0	0	0	0	5.32	0.91	0.05	216728	1	10830	142703	216728	205898	1978	140	835	29	134449	2527474	2982
135	2017-01-16 13:17:47	0	0	0	0	0	0	5.32	0.91	0.05	216736	1	10832	142703	216736	205904	1978	140	835	29	134449	2527494	2982
136	2017-01-16 13:27:50	0	0	0	0	0	0	5.32	0.91	0.05	216739	1	10832	142703	216739	205907	1978	140	835	29	134449	2527539	2982
137	2017-01-16 13:37:49	0	0	0	0	0	0	5.32	0.91	0.05	216746	1	10834	142703	216746	205912	1978	140	835	29	134449	2527558	2982
138	2017-01-16 13:47:49	0	0	0	0	0	0	5.32	0.91	0.05	216749	1	10836	142703	216749	205913	1978	140	835	29	134449	2527605	2982
139	2017-01-16 13:57:50	0	0	0	0	0	0	5.32	0.91	0.05	216751	1	10837	142703	216751	205914	1978	140	835	29	134449	2527646	2982
140	2017-01-16 14:07:50	0	0	0	0	0	0	5.32	0.91	0.05	216751	1	10837	142703	216751	205914	1978	140	835	29	134449	2527680	2982
141	2017-01-16 14:17:50	0	0	0	0	0	0	5.32	0.91	0.05	216756	1	10837	142703	216756	205919	1978	140	835	29	134449	2527713	2982
142	2017-01-16 14:27:50	0	0	0	0	0	0	5.32	0.91	0.05	216762	1	10839	142703	216762	205923	1978	140	835	29	134449	2527773	2982
143	2017-01-16 14:37:50	0	0	0	0	0	0	5.32	0.91	0.05	216768	1	10841	142703	216768	205927	1978	140	835	29	134449	2527810	2982
144	2017-01-16 14:47:51	0	0	0	0	0	0	5.32	0.91	0.05	216774	1	10843	142703	216774	205931	1978	140	835	29	134449	2527858	2982
145	2017-01-16 14:57:52	0	0	0	0	0	0	5.32	0.91	0.05	216784	1	10844	142703	216784	205940	1978	140	835	29	134449	2527890	2982
146	2017-01-16 15:07:51	0	0	0	0	0	0	5.32	0.91	0.05	216789	1	10845	142703	216789	205944	1978	140	835	29	134449	2527917	2982
147	2017-01-16 15:17:52	0	0	0	0	0	0	5.32	0.91	0.05	216795	1	10847	142703	216795	205948	1978	140	835	29	134449	2527947	2982
148	2017-01-16 15:27:53	0	0	0	0	0	0	5.32	0.91	0.05	216801	1	10850	142703	216801	205951	1978	140	835	29	134449	2527988	2982
149	2017-01-16 15:38:07	0	0	0	0	0	0	5.32	0.91	0.05	216801	1	10850	142703	216801	205951	1978	140	835	29	134449	2528018	2982
150	2017-01-16 15:48:35	0	0	0	0	0	0	5.32	0.91	0.05	216804	1	10851	142703	216804	205953	1978	140	835	29	134449	2528057	2982
151	2017-01-16 15:59:01	0	0	0	0	0	0	5.32	0.91	0.05	216813	1	10852	142703	216813	205961	1978	140	835	29	134449	2528091	2982
152	2017-01-16 16:09:36	0	0	0	0	0	0	5.32	0.91	0.05	216815	1	10853	142703	216815	205962	1978	140	835	29	134449	2528128	2982
153	2017-01-16 16:20:22	0	0	0	0	0	0	5.32	0.91	0.05	216818	1	10854	142703	216818	205964	1979	140	835	29	134449	2528160	2983
154	2017-01-16 16:31:08	0	0	0	0	0	0	5.32	0.91	0.05	216820	1	10854	142703	216820	205966	1979	140	835	29	134449	2528190	2983
155	2017-01-16 16:42:16	0	0	0	0	0	0	5.32	0.91	0.05	216822	1	10854	142703	216822	205968	1979	140	835	29	134449	2528235	2983
156	2017-01-16 16:54:20	0	0	0	0	0	0	5.32	0.91	0.05	216827	1	10856	142703	216827	205971	1980	140	835	29	134449	2528277	2984
157	2017-01-16 17:06:52	0	0	0	0	0	0	5.32	0.91	0.05	216829	1	10856	142703	216829	205973	1980	140	835	29	134449	2528325	2984
158	2017-01-16 17:19:43	0	0	0	0	0	0	5.32	0.91	0.05	216832	1	10856	142703	216832	205976	1980	140	835	29	134449	2528359	2984
159	2017-01-16 17:33:01	0	0	0	0	0	0	5.32	0.91	0.05	216836	1	10856	142703	216836	205980	1980	140	835	29	134449	2528408	2984
160	2017-01-16 17:46:35	0	0	0	0	0	0	5.32	0.91	0.05	216841	1	10856	142703	216841	205985	1980	140	835	29	134449	2528470	2984
161	2017-01-16 18:00:09	0	0	0	0	0	0	5.32	0.91	0.05	216846	1	10858	142703	216846	205988	1981	140	835	29	134449	2528529	2985
162	2017-01-16 18:13:07	0	0	0	0	0	0	5.32	0.91	0.05	216848	1	10859	142703	216848	205989	1981	140	835	29	134449	2528577	2985
163	2017-01-16 18:28:50	0	0	0	0	0	0	5.32	0.91	0.05	216857	1	10862	142703	216857	205995	1981	140	835	29	134449	2528635	2985
164	2017-01-16 18:45:11	0	0	0	0	0	0	5.32	0.91	0.05	216862	1	10863	142703	216862	205999	1981	140	835	29	134449	2528702	2985
165	2017-01-16 19:02:31	0	0	0	0	0	0	5.32	0.91	0.05	216865	1	10863	142703	216865	206002	1981	140	835	29	134449	2528747	2985
166	2017-01-16 19:22:57	0	0	0	0	0	0	5.32	0.91	0.05	216874	1	10868	142703	216874	206006	1981	140	836	29	134449	2528862	2986
167	2017-01-16 19:41:57	0	0	0	0	0	0	5.32	0.91	0.05	216879	1	10870	142703	216879	206009	1981	140	836	29	134449	2528991	2986
168	2017-01-16 20:03:56	0	0	0	0	0	0	5.32	0.91	0.05	216894	1	10874	142703	216894	206020	1981	140	836	29	134449	2529142	2986
169	2017-01-16 20:24:48	0	0	0	0	0	0	5.32	0.91	0.05	216906	1	10876	142703	216906	206030	1981	140	836	29	134449	2529282	2986
170	2017-01-16 20:49:47	0	0	0	0	0	0	5.32	0.91	0.05	216924	1	10882	142703	216924	206042	1981	140	836	29	134449	2529453	2986
171	2017-01-16 21:15:45	0	0	0	0	0	0	5.31	0.91	0.05	216942	1	10889	142703	216942	206053	1981	140	836	29	134449	2529655	2986
172	2017-01-16 21:35:29	0	0	0	0	0	0	5.31	0.91	0.05	216951	1	10891	142756	216951	206060	1981	140	836	29	134449	2529795	2986
173	2017-01-16 21:54:32	0	0	0	0	0	0	5.31	0.91	0.05	216958	1	10892	142756	216958	206066	1981	140	836	29	134449	2529906	2986
174	2017-01-16 22:21:17	0	0	0	0	0	0	5.31	0.91	0.05	216973	1	10896	142861	216973	206077	1981	140	836	29	134449	2530066	2986
175	2017-01-16 22:40:13	0	0	0	0	0	0	5.31	0.91	0.05	216977	1	10896	142861	216977	206081	1981	140	836	29	134449	2530190	2986
176	2017-01-16 23:00:09	0	0	0	0	0	0	5.31	0.91	0.05	216983	1	10898	142861	216983	206085	1981	140	836	29	134449	2530309	2986
177	2017-01-16 23:20:14	0	0	0	0	0	0	5.31	0.91	0.05	216988	1	10898	142861	216988	206090	1981	140	836	29	134449	2530414	2986
178	2017-01-16 23:41:03	0	0	0	0	0	0	5.31	0.91	0.05	216992	1	10898	142861	216992	206094	1981	140	836	29	134449	2530499	2986
179	2017-01-17 00:02:36	0	0	0	0	0	0	5.31	0.91	0.05	216994	1	10898	142861	216994	206096	1981	140	836	29	134449	2530571	2986
180	2017-01-17 00:35:45	0	0	0	0	0	0	5.31	0.91	0.05	217003	1	10901	142861	217003	206102	1981	140	836	29	134449	2530658	2986
181	2017-01-17 00:52:38	0	0	0	0	0	0	5.31	0.91	0.05	217004	1	10901	142861	217004	206103	1981	140	836	29	134449	2530677	2986
182	2017-01-17 01:09:25	0	0	0	0	0	0	5.31	0.91	0.05	217005	1	10901	142861	217005	206104	1981	140	836	29	134449	2530687	2986
183	2017-01-17 01:26:48	0	0	0	0	0	0	5.31	0.91	0.05	217007	1	10901	142861	217007	206106	1981	140	836	29	134449	2530696	2986
184	2017-01-17 02:01:04	0	0	0	0	0	0	5.3	0.91	0.05	217009	1	10901	142861	217009	206108	1981	140	836	29	134449	2536004	2986
185	2017-01-17 02:33:59	0	0	0	0	0	0	5.3	0.91	0.05	217010	1	10901	142861	217010	206109	1981	140	836	29	134449	2536022	2986
186	2017-01-17 02:56:26	0	0	0	0	0	0	5.3	0.91	0.05	217010	1	10901	142861	217010	206109	1981	140	836	29	134449	2536024	2986
187	2017-01-17 03:21:33	0	0	0	0	0	0	5.3	0.91	0.05	217010	1	10901	142861	217010	206109	1981	140	836	29	134449	2536033	2986
188	2017-01-17 03:47:10	0	0	0	0	0	0	5.3	0.91	0.05	217011	1	10902	142861	217011	206109	1981	140	836	29	134449	2536032	2986
189	2017-01-17 04:14:18	0	0	0	0	0	0	5.3	0.91	0.05	217012	1	10902	142861	217012	206110	1981	140	836	29	134449	2536039	2986
190	2017-01-17 04:50:23	0	0	0	0	0	0	5.3	0.91	0.05	217013	1	10902	142861	217013	206111	1981	140	836	29	134449	2536044	2986
191	2017-01-17 05:16:24	0	0	0	0	0	0	5.3	0.91	0.05	217013	1	10902	142861	217013	206111	1981	140	836	29	134449	2536051	2986
192	2017-01-17 05:41:50	0	0	0	0	0	0	5.3	0.91	0.05	217013	1	10902	142861	217013	206111	1981	140	836	29	134449	2536059	2986
193	2017-01-17 06:06:58	0	0	0	0	0	0	5.3	0.91	0.05	217014	1	10902	142861	217014	206112	1981	140	836	29	134449	2536076	2986
194	2017-01-17 06:30:31	0	0	0	0	0	0	5.3	0.91	0.05	217017	1	10902	142861	217017	206115	1981	140	836	29	134449	2536106	2986
195	2017-01-17 07:00:20	0	0	0	0	0	0	5.3	0.91	0.05	217021	1	10903	142861	217021	206118	1981	140	836	29	134449	2536155	2986
196	2017-01-17 07:24:27	0	0	0	0	0	0	5.3	0.91	0.05	217021	1	10903	142861	217021	206118	1981	140	836	29	134449	2536207	2986
197	2017-01-17 07:42:50	0	0	0	0	0	0	5.3	0.91	0.05	217021	1	10903	142861	217021	206118	1981	140	836	29	134449	2536256	2986
198	2017-01-17 08:01:28	0	0	0	0	0	0	5.3	0.91	0.05	217023	1	10905	142861	217023	206118	1981	140	836	29	134449	2536310	2986
199	2017-01-17 08:20:27	0	0	0	0	0	0	5.3	0.91	0.05	217024	1	10905	142861	217024	206119	1981	140	836	29	134449	2536368	2986
200	2017-01-17 08:39:37	0	0	0	0	0	0	5.3	0.91	0.05	217024	1	10905	142861	217024	206119	1981	140	836	29	134449	2536448	2986
201	2017-01-17 08:58:53	0	0	0	0	0	0	5.3	0.91	0.05	217026	1	10907	142861	217026	206119	1981	140	836	29	134449	2536516	2986
202	2017-01-17 09:18:18	0	0	0	0	0	0	5.3	0.91	0.05	217027	1	10908	142861	217027	206119	1981	140	836	29	134449	2536618	2986
203	2017-01-17 09:38:06	0	0	0	0	0	0	5.3	0.91	0.05	217029	1	10908	142861	217029	206121	1981	140	836	29	134449	2536694	2986
204	2017-01-17 10:24:07	0	0	0	0	0	0	5.3	0.91	0.05	217037	1	10910	142861	217037	206127	1981	140	836	29	134449	2536845	2986
205	2017-01-17 10:34:04	0	0	0	0	0	0	5.3	0.91	0.05	217039	1	10910	142861	217039	206129	1981	140	836	29	134449	2536876	2986
206	2017-01-17 10:44:03	0	0	0	0	0	0	5.3	0.91	0.05	217040	1	10911	142861	217040	206129	1981	140	836	29	134449	2536908	2986
207	2017-01-17 10:54:06	0	0	0	0	0	0	5.3	0.91	0.05	217041	1	10912	142861	217041	206129	1981	140	836	29	134449	2536954	2986
208	2017-01-17 11:04:07	0	0	0	0	0	0	5.3	0.91	0.05	217041	1	10912	142861	217041	206129	1981	140	836	29	134449	2536989	2986
209	2017-01-17 11:14:06	0	0	0	0	0	0	5.3	0.91	0.05	217041	1	10912	142861	217041	206129	1981	140	836	29	134449	2537024	2986
210	2017-01-17 11:24:07	0	0	0	0	0	0	5.3	0.91	0.05	217041	1	10912	142861	217041	206129	1981	140	836	29	134449	2537059	2986
211	2017-01-17 11:34:08	0	0	0	0	0	0	5.3	0.91	0.05	217042	1	10912	142861	217042	206130	1981	140	836	29	134449	2537090	2986
212	2017-01-17 11:44:06	0	0	0	0	0	0	5.3	0.91	0.05	217042	1	10912	142861	217042	206130	1981	140	836	29	134449	2537128	2986
213	2017-01-17 11:54:08	0	0	0	0	0	0	5.3	0.91	0.05	217043	1	10912	142861	217043	206131	1981	140	836	29	134449	2537166	2986
214	2017-01-17 12:04:08	0	0	0	0	0	0	5.3	0.91	0.05	217043	1	10912	142861	217043	206131	1981	140	836	29	134449	2537202	2986
215	2017-01-17 12:14:10	0	0	0	0	0	0	5.3	0.91	0.05	217046	1	10912	142861	217046	206134	1981	140	836	29	134449	2537244	2986
216	2017-01-17 12:24:10	0	0	0	0	0	0	5.3	0.91	0.05	217047	1	10912	142861	217047	206135	1981	140	836	29	134449	2537271	2986
217	2017-01-17 12:34:08	0	0	0	0	0	0	5.3	0.91	0.05	217051	1	10913	142861	217051	206138	1981	140	836	29	134449	2537307	2986
218	2017-01-17 12:44:10	0	0	0	0	0	0	5.3	0.91	0.05	217051	1	10913	142861	217051	206138	1981	140	836	29	134449	2537337	2986
219	2017-01-17 12:54:10	0	0	0	0	0	0	5.3	0.91	0.05	217051	1	10913	142861	217051	206138	1981	140	836	29	134449	2537374	2986
220	2017-01-17 13:17:25	0	0	0	0	0	0	5.3	0.91	0.05	217051	1	10913	142861	217051	206138	1981	140	836	29	134449	2537443	2986
221	2017-01-17 13:26:13	0	0	0	0	0	0	5.3	0.91	0.05	217051	1	10913	142861	217051	206138	1981	140	836	29	134449	2537484	2986
222	2017-01-17 13:36:21	0	0	0	0	0	0	5.3	0.91	0.05	217052	1	10913	142861	217052	206139	1981	140	836	29	134449	2537530	2986
223	2017-01-17 13:46:15	0	0	0	0	0	0	5.3	0.91	0.05	217052	1	10913	142861	217052	206139	1981	140	836	29	134449	2537557	2986
224	2017-01-17 13:56:14	0	0	0	0	0	0	5.3	0.91	0.05	217052	1	10913	142861	217052	206139	1981	140	836	29	134449	2537605	2986
225	2017-01-17 14:06:16	0	0	0	0	0	0	5.3	0.91	0.05	217052	1	10913	142861	217052	206139	1981	140	836	29	134449	2537637	2986
226	2017-01-17 14:16:13	0	0	0	0	0	0	5.3	0.91	0.05	217053	1	10913	142861	217053	206140	1981	140	836	29	134449	2537662	2986
227	2017-01-17 14:26:24	0	0	0	0	0	0	5.3	0.91	0.05	217053	1	10913	142861	217053	206140	1981	140	836	29	134449	2537696	2986
228	2017-01-17 14:36:38	0	0	0	0	0	0	5.3	0.91	0.05	217054	1	10913	142861	217054	206141	1981	140	836	29	134449	2537722	2986
229	2017-01-17 14:46:58	0	0	0	0	0	0	5.3	0.91	0.05	217055	1	10913	142914	217055	206142	1981	140	836	29	134496	2537754	2986
