1	2016-02-15 17:55:16	0	0	0	0	0	0	0	0	0	0	0	0	0	0	0	0	0	0	0	0	1567617	0
2	2016-02-15 18:05:16	0	0	0	0	0	0	1.28	0.28	0	24713	0	89	20236	24713	24624	69	12	187	17	20139	1567640	285
3	2016-02-15 18:15:16	0	0	0	0	0	0	1.28	0.28	0	24713	0	89	42827	24713	24624	69	12	187	17	20139	1567666	285
4	2016-02-15 18:25:16	0	0	0	0	0	0	3.17	0.37	0.02	65237	0	1026	42827	65237	64211	241	36	579	30	49663	1567686	886
5	2016-02-15 18:35:16	0	0	0	0	0	0	3.72	0.37	0.02	80267	0	1689	55818	80267	78578	295	36	579	30	58370	1567709	940
6	2016-02-15 18:45:15	0	0	0	0	0	0	3.72	0.37	0.02	80267	0	1689	66788	80267	78578	295	43	688	45	58370	1567734	1071
7	2016-02-15 18:55:16	0	0	0	0	0	0	4.14	0.36	0.03	98500	0	2557	70298	98500	95943	359	53	839	51	64911	1567748	1302
8	2016-02-15 19:05:16	0	0	0	0	0	0	4.58	0.36	0.03	98500	0	2557	70298	98500	95943	359	56	876	52	71766	1567771	1343
9	2016-02-15 19:15:17	0	0	0	0	0	0	4.89	0.37	0.03	113305	0	3496	79587	113305	109809	416	63	949	52	76704	1567791	1480
10	2016-02-15 19:25:16	0	0	0	0	0	0	4.89	0.37	0.03	113305	0	3496	79587	113305	109809	416	63	949	52	76704	1567802	1480
11	2016-02-15 19:35:16	0	0	0	0	0	0	5.35	0.36	0.04	124855	0	4252	86765	124855	120603	452	69	1050	57	83807	1567821	1628
12	2016-02-15 19:45:16	0	0	0	0	0	0	5.57	0.37	0.04	131404	0	4685	90498	131404	126719	487	74	1106	57	87284	1567838	1724
13	2016-02-15 19:55:17	0	0	0	0	0	0	5.73	0.37	0.04	135125	0	4961	92957	135125	130164	503	75	1137	58	89789	1567852	1773
14	2016-02-15 20:05:17	0	0	0	0	0	0	5.73	0.37	0.04	135125	0	4961	92957	135125	130164	503	75	1137	58	89789	1567875	1773
15	2016-02-15 20:15:16	0	0	0	0	0	0	6.04	0.37	0.04	144453	0	5629	98795	144453	138824	540	80	1225	59	94734	1567903	1904
16	2016-02-15 20:25:17	0	0	0	0	0	0	6.22	0.37	0.04	150178	0	6048	101886	150178	144130	563	81	1261	61	97562	1567930	1966
17	2016-02-15 20:35:16	0	0	0	0	0	0	6.22	0.37	0.04	150178	0	6048	101886	150178	144130	563	81	1261	61	97562	1567958	1966
18	2016-02-15 20:45:16	0	0	0	0	0	0	6.54	0.38	0.04	158726	0	6698	105306	158726	152028	601	83	1313	63	102496	1567978	2060
19	2016-02-15 20:55:19	0	0	0	0	0	0	6.69	0.37	0.05	163921	0	7100	109453	163921	156821	606	85	1361	64	104847	1568008	2116
20	2016-02-15 21:05:17	0	0	0	0	0	0	6.69	0.37	0.05	163921	0	7100	109453	163921	156821	606	85	1361	64	104847	1568034	2116
21	2016-02-15 21:15:17	0	0	0	0	0	0	6.89	0.38	0.05	168731	0	7493	112741	168731	161238	639	89	1437	66	108083	1568068	2231
22	2016-02-15 21:25:17	0	0	0	0	0	0	7	0.37	0.05	173483	0	7861	115902	173483	165622	649	93	1495	68	109786	1568102	2305
23	2016-02-15 21:35:16	0	0	0	0	0	0	7	0.37	0.05	173483	0	7861	115902	173483	165622	649	93	1495	68	109786	1568133	2305
24	2016-02-15 21:45:17	0	0	0	0	0	0	7.2	0.37	0.05	180389	0	8402	119821	180389	171987	669	95	1544	70	112891	1568154	2378
25	2016-02-15 21:55:18	0	0	0	0	0	0	7.41	0.37	0.05	184962	0	8795	123366	184962	176167	683	98	1588	71	116250	1568187	2440
26	2016-02-15 22:05:17	0	0	0	0	0	0	7.64	0.37	0.05	189081	0	9147	126981	189081	179934	699	101	1627	81	119797	1568214	2508
27	2016-02-15 22:15:17	0	0	0	0	0	0	7.64	0.37	0.05	189081	0	9147	128428	189081	179934	699	101	1627	81	119797	1568238	2508
28	2016-02-15 22:25:17	0	0	0	0	0	0	7.88	0.37	0.05	195958	0	9833	128428	195958	186125	723	107	1697	83	123519	1568252	2610
29	2016-02-15 22:35:18	0	0	0	0	0	0	7.98	0.37	0.05	198144	0	10053	133061	198144	188091	725	109	1722	85	125192	1568264	2641
30	2016-02-15 22:45:18	0	0	0	0	0	0	7.98	0.37	0.05	198144	0	10053	133061	198144	188091	725	109	1722	85	125192	1568286	2641
31	2016-02-15 22:55:18	0	0	0	0	0	0	8.33	0.37	0.06	206920	0	10878	139146	206920	196042	757	110	1806	89	130680	1568300	2762
32	2016-02-15 23:05:18	0	0	0	0	0	0	8.42	0.37	0.06	209154	0	11069	140643	209154	198085	764	112	1831	89	131991	1568338	2796
33	2016-02-15 23:15:18	0	0	0	0	0	0	8.42	0.37	0.06	209154	0	11069	140643	209154	198085	764	112	1831	89	131991	1568362	2796
34	2016-02-15 23:25:18	0	0	0	0	0	0	8.51	0.36	0.06	213519	0	11474	142774	213519	202045	779	113	1869	89	133501	1568387	2850
35	2016-02-15 23:35:18	0	0	0	0	0	0	8.69	0.37	0.06	218418	0	11959	146102	218418	206459	802	115	1928	90	136334	1568420	2935
36	2016-02-15 23:45:18	0	0	0	0	0	0	8.89	0.37	0.06	222858	0	12368	148830	222858	210490	818	119	1966	90	139380	1568444	2993
37	2016-02-15 23:55:21	0	0	0	0	0	0	8.95	0.37	0.06	225158	0	12572	149918	225158	212586	823	121	1995	91	140385	1568474	3030
38	2016-02-16 00:05:18	0	0	0	0	0	0	8.95	0.37	0.06	225158	0	12572	149918	225158	212586	823	121	1995	91	140385	1568506	3030
39	2016-02-16 00:15:18	0	0	0	0	0	0	9.14	0.36	0.06	231228	0	13133	152863	231228	218095	836	123	2051	100	143401	1568520	3110
40	2016-02-16 00:25:18	0	0	0	0	0	0	9.19	0.36	0.06	233080	0	13305	153640	233080	219775	844	124	2065	102	144085	1568547	3135
41	2016-02-16 00:35:18	0	0	0	0	0	0	9.19	0.36	0.06	233080	0	13305	153640	233080	219775	844	124	2065	102	144085	1568566	3135
42	2016-02-16 00:45:18	0	0	0	0	0	0	9.4	0.36	0.06	238109	0	13753	157544	238109	224356	859	127	2110	106	147390	1568585	3202
43	2016-02-16 00:55:18	0	0	0	0	0	0	9.47	0.36	0.06	240748	0	13955	158654	240748	226793	870	128	2133	107	148475	1568607	3238
44	2016-02-16 01:05:20	0	0	0	0	0	0	9.57	0.36	0.06	243612	0	14183	160479	243612	229429	876	132	2165	109	150116	1568628	3282
45	2016-02-16 01:15:18	0	0	0	0	0	0	9.57	0.36	0.06	243612	0	14183	160479	243612	229429	876	132	2165	109	150116	1568648	3282
46	2016-02-16 01:25:19	0	0	0	0	0	0	9.71	0.36	0.06	247462	0	14528	163318	247462	232934	888	136	2203	112	152358	1568669	3339
47	2016-02-16 01:35:18	0	0	0	0	0	0	9.74	0.36	0.06	248328	0	14607	163776	248328	233721	890	136	2209	112	152817	1568676	3347
48	2016-02-16 01:45:19	0	0	0	0	0	0	9.8	0.36	0.06	250233	0	14754	164529	250233	235479	896	136	2228	113	153685	1568691	3373
49	2016-02-16 01:55:20	0	0	0	0	0	0	9.85	0.36	0.06	251908	0	14883	165696	251908	237025	897	136	2244	113	154456	1568704	3390
50	2016-02-16 02:05:19	0	0	0	0	0	0	9.85	0.36	0.06	251908	0	14883	165696	251908	237025	897	136	2244	113	154456	1568717	3390
51	2016-02-16 02:15:18	0	0	0	0	0	0	9.88	0.36	0.06	252549	0	14950	166229	252549	237599	899	136	2249	113	154919	1568728	3397
52	2016-02-16 02:25:18	0	0	0	0	0	0	9.91	0.36	0.06	254345	0	15088	167442	254345	239257	906	136	2266	113	155502	1568732	3421
53	2016-02-16 02:35:18	0	0	0	0	0	0	10	0.36	0.06	255443	0	15172	169310	255443	240271	908	137	2283	113	156857	1568737	3441
54	2016-02-16 02:45:18	0	0	0	0	0	0	10.02	0.36	0.06	256205	0	15225	169319	256205	240980	912	137	2292	113	157119	1568743	3454
55	2016-02-16 02:55:18	0	0	0	0	0	0	10.02	0.36	0.06	256205	0	15225	169319	256205	240980	912	137	2292	113	157119	1568752	3454
56	2016-02-16 03:05:18	0	0	0	0	0	0	10.1	0.36	0.06	257433	0	15334	170322	257433	242099	916	137	2306	115	158331	1568310	3474
57	2016-02-16 03:15:18	0	0	0	0	0	0	10.1	0.36	0.06	257433	0	15334	170322	257433	242099	916	137	2306	115	158331	1568311	3474
58	2016-02-16 03:25:18	0	0	0	0	0	0	10.15	0.36	0.06	258141	0	15389	171563	258141	242752	919	138	2314	116	159140	1568314	3487
59	2016-02-16 03:35:18	0	0	0	0	0	0	10.2	0.36	0.06	258700	0	15439	172236	258700	243261	923	138	2327	117	159983	1568315	3505
60	2016-02-16 03:45:17	0	0	0	0	0	0	10.2	0.36	0.06	259157	0	15467	172308	259157	243690	924	138	2330	117	160045	1568316	3509
61	2016-02-16 04:01:22	0	0	0	0	0	0	10.21	0.36	0.06	259722	0	15510	172462	259722	244212	929	138	2332	117	160178	1568316	3516
62	2016-02-16 04:05:21	0	0	0	0	0	0	10.21	0.36	0.06	259722	0	15510	172462	259722	244212	929	138	2332	117	160178	1568317	3516
63	2016-02-16 04:29:15	0	0	0	0	0	0	10.22	0.36	0.06	260364	0	15564	172519	260364	244800	935	138	2338	117	160227	1568322	3528
64	2016-02-16 04:45:20	0	0	0	0	0	0	10.22	0.36	0.06	260770	0	15593	172519	260770	245177	936	138	2343	117	160227	1568321	3534
65	2016-02-16 04:55:22	0	0	0	0	0	0	10.22	0.36	0.06	260921	0	15600	172519	260921	245321	936	138	2344	117	160227	1568323	3535
66	2016-02-16 05:05:21	0	0	0	0	0	0	10.22	0.36	0.06	261171	0	15618	172635	261171	245553	936	138	2347	117	160327	1568325	3538
67	2016-02-16 05:15:21	0	0	0	0	0	0	10.22	0.36	0.06	261171	0	15618	172635	261171	245553	936	138	2347	117	160327	1568327	3538
68	2016-02-16 05:25:21	0	0	0	0	0	0	10.24	0.36	0.06	261448	0	15650	173001	261448	245798	937	138	2347	117	160643	1568329	3539
69	2016-02-16 05:35:21	0	0	0	0	0	0	10.25	0.36	0.06	261688	0	15688	173117	261688	246000	937	138	2348	117	160743	1568330	3540
70	2016-02-16 05:45:21	0	0	0	0	0	0	10.25	0.36	0.06	261688	0	15688	173117	261688	246000	937	138	2348	117	160743	1568332	3540
71	2016-02-16 05:55:21	0	0	0	0	0	0	10.26	0.36	0.06	262071	0	15741	173311	262071	246330	939	138	2352	117	160910	1568331	3546
72	2016-02-16 06:15:22	0	0	0	0	0	0	10.28	0.36	0.06	262493	0	15795	173656	262493	246698	940	138	2357	117	161208	1568329	3552
73	2016-02-16 06:25:21	0	0	0	0	0	0	10.28	0.36	0.06	262821	0	15825	173832	262821	246996	941	138	2359	117	161291	1568328	3555
74	2016-02-16 06:35:21	0	0	0	0	0	0	10.28	0.36	0.06	262821	0	15825	173832	262821	246996	941	139	2359	118	161291	1568330	3557
75	2016-02-16 06:45:21	0	0	0	0	0	0	10.32	0.36	0.06	263449	0	15889	174135	263449	247560	941	139	2363	118	161823	1568334	3561
76	2016-02-16 06:55:21	0	0	0	0	0	0	10.32	0.36	0.06	263741	0	15915	174135	263741	247826	942	139	2364	118	161823	1568336	3563
77	2016-02-16 07:05:22	0	0	0	0	0	0	10.34	0.36	0.06	263944	0	15940	174449	263944	248004	942	139	2367	118	162094	1568340	3566
78	2016-02-16 07:15:21	0	0	0	0	0	0	10.35	0.36	0.06	264533	0	15999	174644	264533	248534	943	139	2370	118	162247	1568340	3570
79	2016-02-16 07:25:21	0	0	0	0	0	0	10.35	0.36	0.06	264869	0	16025	174644	264869	248844	947	139	2373	118	162315	1568343	3577
80	2016-02-16 07:35:22	0	0	0	0	0	0	10.39	0.36	0.06	265636	0	16125	175315	265636	249511	950	139	2378	118	163019	1568342	3585
81	2016-02-16 07:45:21	0	0	0	0	0	0	10.39	0.36	0.06	265636	0	16125	175315	265636	249511	950	139	2378	118	163019	1568350	3585
82	2016-02-16 07:55:21	0	0	0	0	0	0	10.49	0.36	0.06	266886	0	16262	177009	266886	250624	955	139	2387	118	164552	1568354	3599
83	2016-02-16 08:05:22	0	0	0	0	0	0	10.54	0.36	0.07	267790	0	16370	178027	267790	251420	957	140	2396	119	165316	1568359	3612
84	2016-02-16 08:15:21	0	0	0	0	0	0	10.54	0.36	0.07	267790	0	16370	178027	267790	251420	957	140	2396	119	165316	1568367	3612
85	2016-02-16 08:25:22	0	0	0	0	0	0	10.63	0.36	0.07	269289	0	16554	179119	269289	252735	965	141	2402	120	166687	1568372	3628
86	2016-02-16 08:35:22	0	0	0	0	0	0	10.67	0.36	0.07	269818	0	16603	180056	269818	253215	966	141	2404	120	167335	1568378	3631
87	2016-02-16 08:45:21	0	0	0	0	0	0	10.67	0.36	0.07	269818	0	16603	180056	269818	253215	966	141	2404	120	167335	1568383	3631
88	2016-02-16 08:55:21	0	0	0	0	0	0	10.71	0.36	0.07	271769	0	16791	181109	271769	254978	972	141	2418	120	167898	1568386	3651
89	2016-02-16 09:05:21	0	0	0	0	0	0	10.75	0.36	0.07	273089	0	16909	181880	273089	256180	975	143	2423	121	168634	1568395	3662
90	2016-02-16 09:15:23	0	0	0	0	0	0	10.77	0.36	0.07	273821	0	16981	182502	273821	256840	977	143	2426	121	168947	1568400	3667
91	2016-02-16 09:25:22	0	0	0	0	0	0	10.84	0.35	0.07	275374	0	17127	183900	275374	258247	977	143	2434	124	169995	1568406	3678
92	2016-02-16 09:35:23	0	0	0	0	0	0	10.84	0.36	0.07	275374	0	17127	183900	275374	258247	984	143	2434	124	169995	1568416	3685
93	2016-02-16 09:45:22	0	0	0	0	0	0	10.91	0.36	0.07	277674	0	17361	185206	277674	260313	993	148	2455	125	171111	1568426	3721
94	2016-02-16 09:55:22	0	0	0	0	0	0	10.91	0.36	0.07	278375	0	17445	185273	278375	260930	993	148	2463	125	171111	1568435	3729
95	2016-02-16 10:05:23	0	0	0	0	0	0	10.91	0.36	0.07	279132	0	17445	185450	279132	261611	997	149	2471	126	171167	1568447	3743
96	2016-02-16 10:15:23	0	0	0	0	0	0	10.95	0.36	0.07	280601	0	17678	186305	280601	262923	1000	150	2481	126	171745	1568458	3757
97	2016-02-16 10:25:24	0	0	0	0	0	0	10.99	0.36	0.07	281448	0	17778	187308	281448	263670	1006	150	2485	127	172444	1568476	3768
98	2016-02-16 10:35:25	0	0	0	0	0	0	11.04	0.36	0.07	283014	0	17964	188397	283014	265050	1009	151	2497	127	173172	1568479	3784
99	2016-02-16 10:45:24	0	0	0	0	0	0	11.04	0.36	0.07	283014	0	17964	188397	283014	265050	1009	151	2497	127	173172	1568489	3784
100	2016-02-16 10:47:11	0	0	0	0	0	0	11.1	0.36	0.07	284404	0	18121	188856	284404	266283	1015	151	2509	128	174107	1568490	3803
101	2016-02-16 10:57:13	0	0	0	0	0	0	11.1	0.36	0.07	285181	0	18121	188856	285181	266283	1021	153	2519	128	174107	1568507	3821
102	2016-02-16 11:07:11	0	0	0	0	0	0	11.14	0.36	0.07	286702	0	18412	189859	286702	268290	1024	155	2532	131	174742	1568519	3842
103	2016-02-16 11:08:22	0	0	0	0	0	0	11.14	0.36	0.07	286702	0	18412	189859	286702	268290	1024	155	2532	131	174742	1568521	3842
104	2016-02-16 11:18:21	0	0	0	0	0	0	11.16	0.36	0.07	287409	0	18512	190139	287409	268897	1026	155	2539	132	174979	1568529	3852
105	2016-02-16 11:28:21	0	0	0	0	0	0	11.17	0.36	0.07	288122	0	18597	190326	288122	269525	1028	155	2543	132	175137	1568535	3858
106	2016-02-16 11:38:19	0	0	0	0	0	0	11.23	0.36	0.07	289547	0	18743	191273	289547	270804	1031	155	2552	133	176098	1568538	3871
107	2016-02-16 11:48:17	0	0	0	0	0	0	11.31	0.36	0.07	289547	0	18865	192545	289547	271758	1035	155	2563	133	177339	1568550	3886
108	2016-02-16 11:58:19	0	0	0	0	0	0	11.35	0.36	0.07	291326	0	18938	193146	291326	272388	1041	155	2569	133	178012	1568570	3898
109	2016-02-16 12:08:18	0	0	0	0	0	0	11.41	0.36	0.07	291934	0	19000	193587	291934	272934	1043	156	2573	133	179015	1568585	3905
110	2016-02-16 12:18:23	0	0	0	0	0	0	11.43	0.36	0.07	293167	0	19181	193829	293167	273986	1050	157	2581	133	179222	1568603	3921
111	2016-02-16 12:28:29	0	0	0	0	0	0	11.45	0.36	0.07	294237	0	19309	194236	294237	274928	1054	157	2594	133	179570	1568613	3938
112	2016-02-16 12:38:25	0	0	0	0	0	0	11.45	0.36	0.07	294237	0	19309	194236	294237	274928	1058	157	2594	133	179570	1568625	3942
113	2016-02-16 12:48:24	0	0	0	0	0	0	11.5	0.36	0.07	295754	0	19483	195025	295754	276271	1059	158	2603	133	180350	1568640	3953
114	2016-02-16 12:58:29	0	0	0	0	0	0	11.52	0.36	0.07	296349	0	19569	195450	296349	276780	1059	158	2605	133	180713	1568654	3955
115	2016-02-16 13:08:29	0	0	0	0	0	0	11.52	0.36	0.07	296349	0	19569	195450	296349	276780	1059	158	2605	133	180713	1568665	3955
116	2016-02-16 13:18:24	0	0	0	0	0	0	11.57	0.36	0.07	297764	0	19766	196892	297764	277998	1065	160	2624	133	181486	1568677	3982
117	2016-02-16 13:28:28	0	0	0	0	0	0	11.59	0.36	0.07	298597	0	19894	197444	298597	278703	1068	161	2631	133	181859	1568693	3993
118	2016-02-16 13:38:32	0	0	0	0	0	0	11.6	0.36	0.07	299050	0	19951	198000	299050	279099	1070	162	2634	133	182030	1568713	3999
119	2016-02-16 13:48:23	0	0	0	0	0	0	11.6	0.36	0.07	299050	0	19951	198000	299050	279099	1070	162	2634	133	182030	1568728	3999
120	2016-02-16 13:58:29	0	0	0	0	0	0	11.67	0.36	0.07	300641	0	20153	199311	300641	280488	1078	163	2645	133	183138	1568742	4019
121	2016-02-16 14:08:26	0	0	0	0	0	0	11.67	0.36	0.07	300641	0	20283	199311	300641	281289	1080	163	2645	133	183138	1568759	4021
122	2016-02-16 14:18:24	0	0	0	0	0	0	11.71	0.36	0.07	301967	0	20338	199903	301967	281629	1082	164	2652	133	183637	1568779	4031
123	2016-02-16 14:28:35	0	0	0	0	0	0	11.73	0.36	0.07	302689	0	20426	200498	302689	282263	1084	165	2656	135	184008	1568783	4040
124	2016-02-16 14:38:26	0	0	0	0	0	0	11.73	0.36	0.07	303123	0	20484	200602	303123	282639	1084	165	2660	135	184096	1568793	4044
125	2016-02-16 14:48:27	0	0	0	0	0	0	11.73	0.36	0.07	303123	0	20484	200602	303123	282639	1085	165	2660	135	184096	1568803	4045
126	2016-02-16 14:58:30	0	0	0	0	0	0	11.77	0.36	0.07	304256	0	20641	201346	304256	283615	1088	166	2669	135	184722	1568817	4058
127	2016-02-16 15:08:31	0	0	0	0	0	0	11.82	0.36	0.07	304969	0	20727	202250	304969	284242	1089	167	2674	135	185405	1568831	4065
128	2016-02-16 15:18:38	0	0	0	0	0	0	11.82	0.36	0.07	304969	0	20727	202250	304969	284242	1089	167	2674	135	185405	1568837	4065
129	2016-02-16 15:28:31	0	0	0	0	0	0	11.84	0.36	0.07	306022	0	20869	202819	306022	285153	1093	168	2685	135	185772	1568849	4081
130	2016-02-16 15:38:29	0	0	0	0	0	0	11.84	0.36	0.07	306347	0	20908	202819	306347	285439	1094	168	2687	135	185772	1568865	4084
131	2016-02-16 15:48:28	0	0	0	0	0	0	11.85	0.36	0.07	306347	0	20908	203085	306347	285439	1094	168	2687	135	185928	1568873	4084
132	2016-02-16 15:58:29	0	0	0	0	0	0	11.85	0.36	0.07	307416	0	21044	203085	307416	286372	1096	169	2693	136	185928	1568885	4094
133	2016-02-16 16:08:30	0	0	0	0	0	0	11.88	0.36	0.07	308154	0	21157	203745	308154	286997	1098	169	2698	137	186325	1568896	4102
134	2016-02-16 16:18:23	0	0	0	0	0	0	11.88	0.36	0.07	308468	0	21193	203906	308468	287275	1102	169	2702	137	186460	1568916	4110
135	2016-02-16 16:28:28	0	0	0	0	0	0	11.91	0.36	0.07	308787	0	21228	204444	308787	287559	1102	169	2703	137	186910	1568927	4111
136	2016-02-16 16:38:25	0	0	0	0	0	0	11.94	0.36	0.07	309480	0	21315	205064	309480	288165	1105	170	2708	137	187337	1568940	4120
137	2016-02-16 16:48:24	0	0	0	0	0	0	11.94	0.36	0.07	309480	0	21315	205064	309480	288165	1109	170	2708	137	187337	1568961	4124
138	2016-02-16 16:58:34	0	0	0	0	0	0	11.97	0.36	0.07	310723	0	21511	205561	310723	289212	1110	172	2721	138	187746	1568969	4141
139	2016-02-16 17:08:25	0	0	0	0	0	0	11.98	0.36	0.07	311064	0	21561	205779	311064	289503	1111	173	2725	138	187928	1568983	4147
140	2016-02-16 17:18:27	0	0	0	0	0	0	11.99	0.36	0.07	311651	0	21654	205998	311651	289997	1117	173	2735	138	188111	1568996	4163
141	2016-02-16 17:28:28	0	0	0	0	0	0	11.99	0.36	0.07	311956	0	21705	205998	311956	290251	1121	173	2736	138	188111	1569013	4168
142	2016-02-16 17:38:26	0	0	0	0	0	0	12.01	0.36	0.07	312309	0	21758	206438	312309	290551	1123	173	2737	138	188478	1569020	4171
143	2016-02-16 17:48:29	0	0	0	0	0	0	12.02	0.36	0.07	312668	0	21812	206575	312668	290856	1127	173	2737	138	188592	1569044	4175
144	2016-02-16 17:58:28	0	0	0	0	0	0	12.04	0.36	0.08	313342	0	21915	206879	313342	291427	1130	173	2743	138	188845	1569056	4184
145	2016-02-16 18:08:27	0	0	0	0	0	0	12.04	0.36	0.08	313342	0	21915	206879	313342	291427	1130	173	2743	138	188845	1569068	4184
146	2016-02-16 18:18:26	0	0	0	0	0	0	12.08	0.36	0.08	314207	0	22048	207795	314207	292159	1132	173	2752	138	189608	1569083	4195
147	2016-02-16 18:28:31	0	0	0	0	0	0	12.09	0.36	0.08	314514	0	22080	208095	314514	292434	1133	173	2759	138	189719	1569104	4203
148	2016-02-16 18:38:34	0	0	0	0	0	0	12.11	0.36	0.08	315038	0	22165	208200	315038	292873	1133	174	2764	138	189992	1569122	4209
149	2016-02-16 18:48:30	0	0	0	0	0	0	12.11	0.36	0.08	315038	0	22165	208200	315038	292873	1133	174	2764	138	189992	1569129	4209
150	2016-02-16 18:59:59	0	0	0	0	0	0	12.13	0.36	0.08	315819	0	22264	208565	315819	293555	1140	174	2775	138	190273	1569143	4227
151	2016-02-16 19:08:27	0	0	0	0	0	0	12.14	0.36	0.08	316277	0	22332	208868	316277	293945	1140	175	2781	138	190501	1569159	4234
152	2016-02-16 19:18:27	0	0	0	0	0	0	12.14	0.36	0.08	316527	0	22368	209093	316527	294159	1142	175	2783	138	190501	1569173	4238
153	2016-02-16 19:28:30	0	0	0	0	0	0	12.17	0.36	0.08	316783	0	22407	209660	316783	294376	1143	175	2785	138	190971	1569179	4241
154	2016-02-16 19:38:27	0	0	0	0	0	0	12.18	0.36	0.08	317203	0	22475	209773	317203	294728	1143	175	2787	138	191065	1569189	4243
155	2016-02-16 19:48:30	0	0	0	0	0	0	12.18	0.36	0.08	317603	0	22545	209787	317603	295058	1145	175	2787	138	191077	1569195	4245
156	2016-02-16 19:58:28	0	0	0	0	0	0	12.18	0.36	0.08	317603	0	22545	209787	317603	295058	1145	175	2787	138	191077	1569202	4245
157	2016-02-16 20:08:29	0	0	0	0	0	0	12.18	0.36	0.08	318235	0	22648	210186	318235	295587	1147	175	2795	138	191171	1569211	4255
158	2016-02-16 20:18:29	0	0	0	0	0	0	12.19	0.36	0.08	318693	0	22719	210801	318693	295974	1148	176	2795	138	191266	1569225	4257
159	2016-02-16 20:28:28	0	0	0	0	0	0	12.19	0.36	0.08	318693	0	22719	210801	318693	295974	1148	176	2795	138	191266	1569227	4257
160	2016-02-16 20:38:26	0	0	0	0	0	0	12.22	0.36	0.08	319183	0	22798	211161	319183	296385	1150	176	2804	138	191751	1569241	4268
161	2016-02-16 20:48:29	0	0	0	0	0	0	12.22	0.36	0.08	319695	0	22873	211247	319695	296822	1150	176	2807	138	191823	1569250	4271
162	2016-02-16 20:58:28	0	0	0	0	0	0	12.22	0.36	0.08	319945	0	22924	211247	319945	297021	1152	176	2810	138	191823	1569259	4276
163	2016-02-16 21:08:27	0	0	0	0	0	0	12.22	0.36	0.08	319945	0	22924	211247	319945	297021	1153	176	2810	138	191823	1569268	4277
164	2016-02-16 21:18:29	0	0	0	0	0	0	12.24	0.36	0.08	320826	0	23083	211796	320826	297743	1155	176	2820	139	192013	1569281	4290
165	2016-02-16 21:28:25	0	0	0	0	0	0	12.24	0.36	0.08	320826	0	23083	211796	320826	297743	1155	176	2820	139	192013	1569294	4290
166	2016-02-16 21:38:28	0	0	0	0	0	0	12.24	0.36	0.08	321329	0	23186	211912	321329	298143	1158	176	2826	140	192108	1569303	4300
167	2016-02-16 21:48:28	0	0	0	0	0	0	12.24	0.36	0.08	321797	0	23281	211912	321797	298516	1161	178	2833	140	192108	1569306	4312
168	2016-02-16 21:58:29	0	0	0	0	0	0	12.26	0.36	0.08	322145	0	23359	212319	322145	298786	1163	178	2838	140	192443	1569319	4319
169	2016-02-16 22:08:29	0	0	0	0	0	0	12.27	0.36	0.08	322359	0	23391	212523	322359	298968	1165	178	2840	140	192610	1569326	4323
170	2016-02-16 22:18:29	0	0	0	0	0	0	12.27	0.36	0.08	322359	0	23460	213050	322359	299334	1165	178	2844	140	192610	1569337	4327
171	2016-02-16 22:28:28	0	0	0	0	0	0	12.31	0.36	0.08	323195	0	23532	213167	323195	299663	1168	178	2847	140	193139	1569349	4333
172	2016-02-16 22:38:28	0	0	0	0	0	0	12.31	0.36	0.08	323387	0	23568	213167	323387	299819	1170	178	2847	140	193139	1569368	4335
173	2016-02-16 22:48:28	0	0	0	0	0	0	12.32	0.36	0.08	323387	0	23604	213167	323387	299989	1170	178	2847	140	193284	1569387	4335
174	2016-02-16 22:58:30	0	0	0	0	0	0	12.32	0.36	0.08	324024	0	23668	213343	324024	300356	1173	178	2852	140	193284	1569404	4343
175	2016-02-16 23:08:30	0	0	0	0	0	0	12.32	0.36	0.08	324414	0	23732	213431	324414	300682	1173	178	2853	140	193356	1569427	4344
176	2016-02-16 23:18:30	0	0	0	0	0	0	12.32	0.36	0.08	324414	0	23732	213431	324414	300682	1173	178	2853	140	193356	1569451	4344
177	2016-02-16 23:28:30	0	0	0	0	0	0	12.35	0.36	0.08	324998	0	23829	213638	324998	301169	1175	178	2856	140	193864	1569471	4349
178	2016-02-16 23:38:28	0	0	0	0	0	0	12.35	0.36	0.08	325333	0	23875	213638	325333	301458	1178	178	2861	141	193864	1569502	4358
179	2016-02-16 23:48:28	0	0	0	0	0	0	12.35	0.36	0.08	325333	0	23875	213638	325333	301458	1178	178	2861	141	193864	1569526	4358
180	2016-02-16 23:58:28	0	0	0	0	0	0	12.35	0.36	0.08	325705	0	23938	213697	325705	301767	1178	178	2867	141	193913	1569562	4364
181	2016-02-17 00:08:28	0	0	0	0	0	0	12.37	0.36	0.08	326218	0	24012	213885	326218	302206	1180	178	2870	141	194141	1569583	4369
182	2016-02-17 00:18:28	0	0	0	0	0	0	12.37	0.36	0.08	326379	0	24032	213885	326379	302347	1180	178	2876	141	194141	1569609	4375
183	2016-02-17 00:28:28	0	0	0	0	0	0	12.37	0.36	0.08	326379	0	24032	213885	326379	302347	1180	178	2876	141	194141	1569625	4375
184	2016-02-17 00:38:29	0	0	0	0	0	0	12.38	0.36	0.08	326787	0	24105	213885	326787	302682	1181	179	2876	141	194336	1569638	4377
185	2016-02-17 00:48:28	0	0	0	0	0	0	12.38	0.36	0.08	327049	0	24146	213885	327049	302903	1183	179	2879	141	194336	1569651	4382
186	2016-02-17 00:58:28	0	0	0	0	0	0	12.41	0.36	0.08	327274	0	24180	214240	327274	303094	1183	179	2879	141	194825	1569677	4382
187	2016-02-17 01:08:30	0	0	0	0	0	0	12.41	0.36	0.08	327274	0	24180	214240	327274	303094	1183	179	2879	141	194825	1569698	4382
188	2016-02-17 01:18:29	0	0	0	0	0	0	12.41	0.36	0.08	327601	0	24220	214240	327601	303381	1183	179	2883	141	194825	1569703	4386
189	2016-02-17 01:28:28	0	0	0	0	0	0	12.42	0.36	0.08	327691	0	24227	214476	327691	303464	1183	179	2885	141	195020	1569721	4388
190	2016-02-17 01:38:28	0	0	0	0	0	0	12.42	0.36	0.08	327797	0	24247	214476	327797	303550	1183	179	2887	141	195020	1569728	4390
191	2016-02-17 01:48:28	0	0	0	0	0	0	12.43	0.36	0.08	328006	0	24266	214654	328006	303740	1183	179	2888	141	195167	1569737	4391
192	2016-02-17 01:58:28	0	0	0	0	0	0	12.43	0.36	0.08	328066	0	24272	214654	328066	303794	1183	179	2888	141	195167	1569740	4391
193	2016-02-17 02:08:28	0	0	0	0	0	0	12.43	0.36	0.08	328066	0	24272	214654	328066	303794	1183	179	2888	141	195167	1569750	4391
194	2016-02-17 02:18:29	0	0	0	0	0	0	12.44	0.36	0.08	328229	0	24296	214684	328229	303933	1183	179	2889	141	195340	1569757	4392
195	2016-02-17 02:28:28	0	0	0	0	0	0	12.45	0.36	0.08	328318	0	24311	214684	328318	304007	1183	180	2891	141	195438	1569758	4395
196	2016-02-17 02:38:28	0	0	0	0	0	0	12.45	0.36	0.08	328359	0	24317	214684	328359	304042	1184	181	2891	141	195438	1569764	4397
197	2016-02-17 02:48:29	0	0	0	0	0	0	12.45	0.36	0.08	328403	0	24324	214684	328403	304079	1184	181	2893	141	195438	1569768	4399
198	2016-02-17 02:58:28	0	0	0	0	0	0	12.45	0.36	0.08	328481	0	24335	214684	328481	304146	1184	181	2895	141	195438	1569769	4401
199	2016-02-17 03:08:28	0	0	0	0	0	0	12.45	0.36	0.08	328537	0	24344	214714	328537	304193	1184	181	2895	141	195463	1570341	4401
200	2016-02-17 03:18:28	0	0	0	0	0	0	12.45	0.36	0.08	328537	0	24344	214714	328537	304193	1184	181	2895	141	195463	1570342	4401
201	2016-02-17 03:28:29	0	0	0	0	0	0	12.45	0.36	0.08	328590	0	24346	214714	328590	304244	1184	181	2895	141	195463	1570347	4401
202	2016-02-17 03:38:28	0	0	0	0	0	0	12.45	0.36	0.08	328658	0	24357	214714	328658	304301	1184	181	2895	141	195463	1570351	4401
203	2016-02-17 03:48:28	0	0	0	0	0	0	12.45	0.36	0.08	328671	0	24358	214714	328671	304313	1184	181	2896	142	195463	1570353	4403
204	2016-02-17 03:58:28	0	0	0	0	0	0	12.45	0.36	0.08	328671	0	24358	214714	328671	304313	1184	181	2896	142	195463	1570353	4403
205	2016-02-17 04:08:29	0	0	0	0	0	0	12.45	0.36	0.08	328714	0	24364	214714	328714	304350	1184	181	2896	142	195463	1570354	4403
206	2016-02-17 04:18:27	0	0	0	0	0	0	12.45	0.36	0.08	328738	0	24368	214803	328738	304370	1184	181	2897	142	195537	1570356	4404
207	2016-02-17 04:28:29	0	0	0	0	0	0	12.45	0.36	0.08	328752	0	24371	214803	328752	304381	1184	181	2897	142	195537	1570364	4404
208	2016-02-17 04:38:29	0	0	0	0	0	0	12.45	0.36	0.08	328772	0	24376	214803	328772	304396	1184	181	2897	142	195537	1570367	4404
209	2016-02-17 04:48:28	0	0	0	0	0	0	12.45	0.36	0.08	328786	0	24379	214803	328786	304407	1184	181	2897	142	195537	1570366	4404
210	2016-02-17 04:58:29	0	0	0	0	0	0	12.45	0.36	0.08	328809	0	24386	214803	328809	304423	1184	181	2898	142	195537	1570367	4405
211	2016-02-17 05:08:28	0	0	0	0	0	0	12.45	0.36	0.08	328809	0	24386	214803	328809	304423	1184	181	2898	142	195537	1570367	4405
212	2016-02-17 05:18:29	0	0	0	0	0	0	12.45	0.36	0.08	328834	0	24390	214803	328834	304444	1184	181	2898	142	195537	1570366	4405
213	2016-02-17 05:28:27	0	0	0	0	0	0	12.45	0.36	0.08	328834	0	24390	214803	328834	304444	1184	181	2898	142	195537	1570368	4405
214	2016-02-17 05:38:28	0	0	0	0	0	0	12.45	0.36	0.08	328855	0	24393	214803	328855	304462	1184	181	2898	142	195537	1570367	4405
215	2016-02-17 05:48:29	0	0	0	0	0	0	12.45	0.36	0.08	328888	0	24394	214803	328888	304494	1184	181	2899	142	195537	1570368	4406
216	2016-02-17 05:58:29	0	0	0	0	0	0	12.46	0.36	0.08	328898	0	24395	215042	328898	304503	1184	181	2899	142	195735	1570367	4406
217	2016-02-17 06:08:30	0	0	0	0	0	0	12.46	0.36	0.08	328921	0	24399	215042	328921	304522	1184	181	2899	142	195735	1570368	4406
218	2016-02-17 06:18:28	0	0	0	0	0	0	12.46	0.36	0.08	328930	0	24401	215042	328930	304529	1186	182	2900	142	195735	1570366	4410
219	2016-02-17 06:28:28	0	0	0	0	0	0	12.46	0.36	0.08	328952	0	24403	215042	328952	304549	1186	182	2901	142	195735	1570366	4411
220	2016-02-17 06:38:28	0	0	0	0	0	0	12.46	0.36	0.08	328960	0	24404	215042	328960	304556	1186	182	2901	142	195735	1570366	4411
221	2016-02-17 06:48:29	0	0	0	0	0	0	12.46	0.36	0.08	328986	0	24407	215042	328986	304579	1186	182	2901	142	195735	1570368	4411
222	2016-02-17 06:58:30	0	0	0	0	0	0	12.46	0.36	0.08	328986	0	24407	215042	328986	304579	1186	182	2901	142	195735	1570373	4411
223	2016-02-17 07:08:29	0	0	0	0	0	0	12.46	0.36	0.08	329005	0	24414	215042	329005	304591	1186	182	2901	142	195735	1570375	4411
224	2016-02-17 07:18:28	0	0	0	0	0	0	12.46	0.36	0.08	329005	0	24414	215042	329005	304591	1186	182	2901	142	195735	1570380	4411
225	2016-02-17 07:28:29	0	0	0	0	0	0	12.46	0.36	0.08	329032	0	24422	215042	329032	304610	1186	182	2901	142	195735	1570380	4411
226	2016-02-17 07:38:29	0	0	0	0	0	0	12.46	0.36	0.08	329071	0	24431	215042	329071	304640	1186	182	2901	142	195735	1570382	4411
227	2016-02-17 07:48:31	0	0	0	0	0	0	12.46	0.36	0.08	329088	0	24435	215042	329088	304653	1186	182	2901	142	195735	1570385	4411
228	2016-02-17 07:58:30	0	0	0	0	0	0	12.46	0.36	0.08	329123	0	24445	215042	329123	304678	1186	182	2901	142	195735	1570390	4411
229	2016-02-17 08:08:29	0	0	0	0	0	0	12.46	0.36	0.08	329132	0	24449	215042	329132	304683	1186	182	2901	142	195735	1570393	4411
230	2016-02-17 08:18:31	0	0	0	0	0	0	12.46	0.36	0.08	329167	0	24465	215042	329167	304702	1187	183	2902	142	195735	1570400	4414
231	2016-02-17 08:28:29	0	0	0	0	0	0	12.46	0.36	0.08	329167	0	24465	215042	329167	304702	1187	183	2902	142	195735	1570406	4414
232	2016-02-17 08:38:31	0	0	0	0	0	0	12.48	0.36	0.08	329235	0	24490	215266	329235	304745	1187	183	2902	142	195921	1570408	4414
233	2016-02-17 08:48:32	0	0	0	0	0	0	12.48	0.36	0.08	329254	0	24495	215266	329254	304759	1187	183	2902	142	195921	1570413	4414
234	2016-02-17 08:58:29	0	0	0	0	0	0	12.48	0.36	0.08	329300	0	24512	215266	329300	304788	1187	183	2903	142	195921	1570422	4415
235	2016-02-17 09:08:29	0	0	0	0	0	0	12.48	0.36	0.08	329330	0	24512	215266	329330	304808	1187	183	2904	142	195921	1570429	4416
236	2016-02-17 09:18:30	0	0	0	0	0	0	12.48	0.36	0.08	329400	0	24552	215266	329400	304848	1188	184	2906	142	195921	1570433	4420
237	2016-02-17 09:28:30	0	0	0	0	0	0	12.48	0.36	0.08	329432	0	24562	215266	329432	304870	1188	184	2906	142	195921	1570438	4420
238	2016-02-17 09:38:31	0	0	0	0	0	0	12.48	0.36	0.08	329461	0	24574	215266	329461	304887	1188	184	2906	142	195921	1570449	4420
239	2016-02-17 09:48:30	0	0	0	0	0	0	12.48	0.36	0.08	329504	0	24588	215386	329504	304916	1188	184	2906	142	195921	1570461	4420
240	2016-02-17 09:58:32	0	0	0	0	0	0	12.48	0.36	0.08	329527	0	24597	215386	329527	304930	1188	184	2907	142	195921	1570474	4421
241	2016-02-17 10:08:31	0	0	0	0	0	0	12.48	0.36	0.08	329527	0	24597	215386	329527	304951	1188	184	2907	142	195921	1570483	4421
242	2016-02-17 10:18:31	0	0	0	0	0	0	12.48	0.36	0.08	329579	0	24615	215386	329579	304964	1188	184	2907	142	195921	1570493	4421
243	2016-02-17 10:28:31	0	0	0	0	0	0	12.48	0.36	0.08	329629	0	24632	215386	329629	304997	1188	184	2907	143	195921	1570506	4422
244	2016-02-17 10:38:31	0	0	0	0	0	0	12.47	0.36	0.08	329629	0	24632	215386	329629	304997	1188	184	2907	143	195921	1570515	4422
245	2016-02-17 10:48:30	0	0	0	0	0	0	12.47	0.36	0.08	329697	0	24652	215386	329697	305045	1189	184	2907	143	195921	1570524	4423
246	2016-02-17 10:58:35	0	0	0	0	0	0	12.47	0.36	0.08	329739	0	24665	215386	329739	305074	1189	184	2907	143	195921	1570534	4423
247	2016-02-17 11:08:30	0	0	0	0	0	0	12.47	0.36	0.08	329763	0	24672	215386	329763	305091	1189	184	2907	143	195921	1570539	4423
248	2016-02-17 11:18:37	0	0	0	0	0	0	12.47	0.36	0.08	329787	0	24676	215386	329787	305111	1189	184	2907	143	195921	1570552	4423
249	2016-02-17 11:28:38	0	0	0	0	0	0	12.47	0.36	0.08	329833	0	24685	215386	329833	305148	1189	184	2908	143	195921	1570560	4424
250	2016-02-17 11:38:33	0	0	0	0	0	0	12.47	0.36	0.08	329833	0	24685	215386	329833	305148	1189	184	2908	143	195921	1570577	4424
251	2016-02-17 11:48:34	0	0	0	0	0	0	12.47	0.36	0.08	329898	0	24708	215386	329898	305190	1189	184	2909	143	195921	1570587	4425
252	2016-02-17 11:59:04	0	0	0	0	0	0	12.47	0.36	0.08	329918	0	24710	215386	329918	305208	1189	184	2909	143	195921	1570593	4425
253	2016-02-17 12:08:39	0	0	0	0	0	0	12.47	0.36	0.08	329959	0	24722	215386	329959	305237	1190	184	2909	143	195921	1570606	4426
254	2016-02-17 12:18:39	0	0	0	0	0	0	12.47	0.36	0.08	329959	0	24722	215386	329959	305237	1190	184	2909	143	195921	1570615	4426
255	2016-02-17 12:28:43	0	0	0	0	0	0	12.47	0.36	0.08	330010	0	24738	215386	330010	305272	1190	184	2909	143	195921	1570625	4426
256	2016-02-17 12:38:35	0	0	0	0	0	0	12.47	0.36	0.08	330028	0	24744	215386	330028	305284	1190	184	2909	143	195921	1570635	4426
257	2016-02-17 12:48:40	0	0	0	0	0	0	12.47	0.36	0.08	330042	0	24749	215386	330042	305284	1190	184	2909	143	195921	1570646	4426
258	2016-02-17 12:58:40	0	0	0	0	0	0	12.47	0.36	0.08	330082	0	24761	215386	330082	305321	1190	184	2910	143	195921	1570655	4427
259	2016-02-17 13:08:37	0	0	0	0	0	0	12.47	0.36	0.08	330110	0	24771	215386	330110	305339	1190	184	2910	143	195921	1570658	4427
260	2016-02-17 13:18:37	0	0	0	0	0	0	12.47	0.36	0.08	330136	0	24777	215386	330136	305359	1190	184	2910	143	195921	1570664	4427
261	2016-02-17 13:28:44	0	0	0	0	0	0	12.47	0.36	0.08	330136	0	24777	215386	330136	305359	1190	184	2910	143	195921	1570684	4427
262	2016-02-17 13:38:52	0	0	0	0	0	0	12.47	0.36	0.08	330186	0	24803	215386	330186	305383	1190	184	2911	143	195921	1570699	4428
263	2016-02-17 13:49:05	0	0	0	0	0	0	12.47	0.36	0.08	330201	0	24805	215386	330201	305396	1190	184	2911	143	195921	1570708	4428
264	2016-02-17 13:58:49	0	0	0	0	0	0	12.47	0.36	0.08	330201	0	24805	215386	330201	305396	1190	184	2911	143	195921	1570714	4428
265	2016-02-17 14:08:43	0	0	0	0	0	0	12.47	0.36	0.08	330256	0	24821	215386	330256	305435	1191	184	2911	143	195921	1570733	4429
266	2016-02-17 14:18:43	0	0	0	0	0	0	12.47	0.36	0.08	330273	0	24825	215386	330273	305448	1191	184	2911	143	195921	1570740	4429
267	2016-02-17 14:28:44	0	0	0	0	0	0	12.47	0.36	0.08	330315	0	24837	215386	330315	305478	1191	185	2911	143	195921	1570749	4430
268	2016-02-17 14:35:19	0	0	0	0	0	0	12.47	0.36	0.08	330336	0	24851	215408	330336	305485	1191	185	2911	143	195939	1570756	4430
269	2016-02-17 14:45:05	0	0	0	0	0	0	12.47	0.36	0.08	330336	0	24851	215408	330336	305485	1191	185	2911	143	195939	1570762	4430
270	2016-02-17 14:58:48	0	0	0	0	0	0	12.48	0.36	0.08	330405	0	24869	215558	330405	305529	1191	185	2911	143	196039	1570775	4430
271	2016-02-17 15:08:43	0	0	0	0	0	0	12.48	0.36	0.08	330423	0	24886	215558	330423	305537	1191	185	2911	143	196039	1570780	4430
272	2016-02-17 15:18:45	0	0	0	0	0	0	12.48	0.36	0.08	330437	0	24890	215558	330437	305547	1191	185	2911	143	196039	1570787	4430
273	2016-02-17 15:28:54	0	0	0	0	0	0	12.48	0.36	0.08	330462	0	24901	215558	330462	305561	1191	185	2911	143	196039	1570798	4430
274	2016-02-17 15:38:42	0	0	0	0	0	0	12.48	0.36	0.08	330478	0	24906	215558	330478	305572	1191	185	2911	143	196039	1570807	4430
275	2016-02-17 15:48:39	0	0	0	0	0	0	12.48	0.36	0.08	330523	0	24919	215588	330523	305604	1191	185	2911	143	196063	1570821	4430
276	2016-02-17 15:58:51	0	0	0	0	0	0	12.48	0.36	0.08	330535	0	24923	215588	330535	305612	1191	185	2911	143	196063	1570829	4430
277	2016-02-17 16:08:40	0	0	0	0	0	0	12.48	0.36	0.08	330535	0	24929	215588	330535	305622	1191	185	2912	143	196063	1570844	4431
278	2016-02-17 16:18:41	0	0	0	0	0	0	12.48	0.36	0.08	330573	0	24936	215588	330573	305637	1191	185	2913	143	196063	1570854	4432
279	2016-02-17 16:28:39	0	0	0	0	0	0	12.48	0.36	0.08	330592	0	24941	215588	330592	305651	1191	185	2913	143	196063	1570860	4432
280	2016-02-17 16:38:39	0	0	0	0	0	0	12.48	0.36	0.08	330621	0	24954	215588	330621	305667	1191	185	2913	143	196063	1570867	4432
281	2016-02-17 16:48:40	0	0	0	0	0	0	12.48	0.36	0.08	330650	0	24966	215588	330650	305684	1191	185	2913	143	196063	1570877	4432
282	2016-02-17 16:58:41	0	0	0	0	0	0	12.48	0.36	0.08	330661	0	24971	215588	330661	305690	1191	185	2913	143	196063	1570883	4432
283	2016-02-17 17:08:44	0	0	0	0	0	0	12.48	0.36	0.08	330692	0	24986	215588	330692	305706	1191	185	2913	143	196063	1570897	4432
284	2016-02-17 17:18:45	0	0	0	0	0	0	12.48	0.36	0.08	330705	0	24989	215588	330705	305716	1191	185	2913	143	196063	1570913	4432
285	2016-02-17 17:29:45	0	0	0	0	0	0	12.48	0.36	0.08	330739	0	24999	215588	330739	305740	1191	185	2913	144	196063	1570922	4433
286	2016-02-17 17:38:45	0	0	0	0	0	0	12.48	0.36	0.08	330739	0	24999	215588	330739	305740	1191	185	2913	144	196063	1570932	4433
287	2016-02-17 17:48:49	0	0	0	0	0	0	12.48	0.36	0.08	330761	0	25005	215588	330761	305756	1191	185	2913	144	196063	1570937	4433
288	2016-02-17 17:59:02	0	0	0	0	0	0	12.48	0.36	0.08	330804	0	25020	215648	330804	305784	1191	185	2913	144	196063	1570950	4433
289	2016-02-17 18:08:47	0	0	0	0	0	0	12.48	0.36	0.08	330804	0	25020	215648	330804	305784	1191	185	2913	144	196063	1570961	4433
290	2016-02-17 18:18:53	0	0	0	0	0	0	12.48	0.36	0.08	330820	0	25028	215648	330820	305792	1191	185	2913	144	196063	1570973	4433
291	2016-02-17 18:28:50	0	0	0	0	0	0	12.48	0.36	0.08	330847	0	25036	215648	330847	305811	1191	185	2914	144	196063	1570987	4434
292	2016-02-17 18:38:48	0	0	0	0	0	0	12.48	0.36	0.08	330847	0	25036	215648	330847	305811	1191	185	2914	144	196063	1570997	4434
293	2016-02-17 18:48:59	0	0	0	0	0	0	12.48	0.36	0.08	330882	0	25049	215648	330882	305833	1191	185	2914	144	196063	1571008	4434
294	2016-02-17 18:58:51	0	0	0	0	0	0	12.48	0.36	0.08	330882	0	25049	215648	330882	305833	1191	185	2914	144	196063	1571021	4434
295	2016-02-17 19:08:48	0	0	0	0	0	0	12.48	0.36	0.08	330920	0	25058	215648	330920	305862	1191	185	2914	144	196063	1571038	4434
296	2016-02-17 19:18:46	0	0	0	0	0	0	12.48	0.36	0.08	330920	0	25062	215648	330920	305862	1191	185	2914	144	196063	1571055	4434
297	2016-02-17 19:28:50	0	0	0	0	0	0	12.5	0.36	0.08	330966	0	25071	216070	330966	305895	1191	185	2914	144	196412	1571065	4434
298	2016-02-17 19:38:46	0	0	0	0	0	0	12.5	0.36	0.08	330966	0	25071	216070	330966	305895	1191	185	2914	144	196412	1571074	4434
299	2016-02-17 19:48:53	0	0	0	0	0	0	12.5	0.36	0.08	331010	0	25084	216070	331010	305926	1191	185	2914	144	196412	1571074	4434
300	2016-02-17 19:58:44	0	0	0	0	0	0	12.5	0.36	0.08	331023	0	25087	216070	331023	305936	1191	185	2914	144	196412	1571087	4434
301	2016-02-17 20:08:45	0	0	0	0	0	0	12.51	0.36	0.08	331049	0	25094	216160	331049	305955	1191	185	2914	144	196486	1571094	4434
302	2016-02-17 20:18:43	0	0	0	0	0	0	12.51	0.36	0.08	331049	0	25094	216160	331049	305955	1191	185	2914	144	196486	1571096	4434
303	2016-02-17 20:28:45	0	0	0	0	0	0	12.51	0.36	0.08	331102	0	25114	216175	331102	305988	1191	185	2914	144	196486	1571104	4434
304	2016-02-17 20:38:43	0	0	0	0	0	0	12.51	0.36	0.08	331117	0	25121	216175	331117	305996	1191	185	2914	144	196486	1571114	4434
305	2016-02-17 20:48:42	0	0	0	0	0	0	12.51	0.36	0.08	331117	0	25121	216175	331117	305996	1191	185	2914	144	196486	1571126	4434
306	2016-02-17 20:58:45	0	0	0	0	0	0	12.51	0.36	0.08	331175	0	25134	216220	331175	306041	1191	185	2914	144	196524	1571140	4434
307	2016-02-17 21:08:46	0	0	0	0	0	0	12.51	0.36	0.08	331200	0	25137	216220	331200	306063	1191	185	2914	144	196524	1571147	4434
308	2016-02-17 21:18:42	0	0	0	0	0	0	12.51	0.36	0.08	331231	0	25145	216220	331231	306086	1191	186	2915	144	196524	1571153	4436
309	2016-02-17 21:28:44	0	0	0	0	0	0	12.51	0.36	0.08	331264	0	25156	216220	331264	306108	1191	186	2915	144	196524	1571164	4436
310	2016-02-17 21:38:46	0	0	0	0	0	0	12.51	0.36	0.08	331277	0	25159	216220	331277	306118	1191	186	2916	144	196524	1571175	4437
311	2016-02-17 21:46:49	0	0	0	0	0	0	12.51	0.36	0.08	331299	0	25166	216220	331299	306133	1191	186	2916	144	196524	1571185	4437
312	2016-02-17 21:48:25	0	0	0	0	0	0	12.51	0.36	0.08	331299	0	25166	216220	331299	306133	1191	186	2916	144	196524	1571184	4437
313	2016-02-17 21:53:37	0	0	0	0	0	0	12.51	0.36	0.08	331299	0	25166	216220	331299	306133	1191	186	2916	144	196524	1571191	4437
314	2016-02-17 21:54:30	0	0	0	0	0	0	12.51	0.36	0.08	331299	0	25166	216220	331299	306133	1191	186	2916	144	196524	1571191	4437
315	2016-02-17 22:00:47	0	0	0	0	0	0	12.53	0.36	0.08	331345	0	25179	216644	331345	306166	1192	187	2917	144	196874	1571197	4440
316	2016-02-17 22:02:32	0	0	0	0	0	0	12.53	0.36	0.08	331345	0	25179	216644	331345	306166	1192	187	2917	144	196874	1571199	4440
317	2016-02-17 22:05:27	0	0	0	0	0	0	12.53	0.36	0.08	331345	0	25179	216644	331345	306166	1192	187	2917	144	196874	1571197	4440
318	2016-02-17 22:06:14	0	0	0	0	0	0	12.53	0.36	0.08	331345	0	25179	216644	331345	306166	1192	187	2917	144	196874	1571199	4440
319	2016-02-17 22:16:12	0	0	0	0	0	0	12.53	0.36	0.08	331375	0	25190	216659	331375	306185	1192	187	2918	144	196874	1571213	4441
320	2016-02-17 22:21:41	0	0	0	0	0	0	12.53	0.36	0.08	331375	0	25190	216659	331375	306185	1192	187	2918	144	196874	1571224	4441
321	2016-02-17 22:23:22	0	0	0	0	0	0	12.53	0.36	0.08	331375	0	25190	216659	331375	306185	1192	187	2918	144	196874	1571228	4441
322	2016-02-17 22:26:57	0	0	0	0	0	0	12.53	0.36	0.08	331389	0	25197	216659	331389	306192	1192	187	2918	144	196874	1571235	4441
323	2016-02-17 22:27:59	0	0	0	0	0	0	12.53	0.36	0.08	331389	0	25197	216659	331389	306192	1192	187	2918	144	196874	1571236	4441
324	2016-02-17 22:35:05	0	0	0	0	0	0	12.53	0.36	0.08	331411	0	25204	216659	331411	306207	1192	187	2918	144	196874	1571245	4441
325	2016-02-17 22:37:02	0	0	0	0	0	0	12.53	0.36	0.08	331411	0	25204	216659	331411	306207	1192	187	2918	144	196874	1571246	4441
326	2016-02-17 22:47:03	0	0	0	0	0	0	12.53	0.36	0.08	331426	0	25209	216659	331426	306217	1192	187	2918	144	196874	1571259	4441
327	2016-02-17 22:57:06	0	0	0	0	0	0	12.53	0.36	0.08	331450	0	25216	216659	331450	306234	1192	187	2919	144	196874	1571277	4442
328	2016-02-17 23:07:05	0	0	0	0	0	0	12.53	0.36	0.08	331450	0	25216	216659	331450	306234	1192	187	2919	144	196874	1571296	4442
329	2016-02-17 23:17:04	0	0	0	0	0	0	12.53	0.36	0.08	331505	0	25231	216659	331505	306274	1192	187	2919	144	196874	1571311	4442
330	2016-02-17 23:27:05	0	0	0	0	0	0	12.53	0.36	0.08	331520	0	25237	216659	331520	306283	1192	187	2919	144	196874	1571329	4442
331	2016-02-17 23:37:03	0	0	0	0	0	0	12.53	0.36	0.08	331546	0	25241	216659	331546	306305	1192	187	2919	144	196874	1571345	4442
332	2016-02-17 23:47:04	0	0	0	0	0	0	12.55	0.36	0.08	331563	0	25245	217024	331563	306318	1193	187	2919	144	197175	1571358	4443
333	2016-02-17 23:57:06	0	0	0	0	0	0	12.55	0.36	0.08	331580	0	25249	217024	331580	306331	1193	187	2919	144	197175	1571374	4443
334	2016-02-18 00:07:05	0	0	0	0	0	0	12.55	0.36	0.08	331580	0	25249	217024	331580	306331	1193	187	2919	144	197175	1571392	4443
335	2016-02-18 00:17:04	0	0	0	0	0	0	12.55	0.36	0.08	331608	0	25256	217024	331608	306352	1193	187	2919	144	197175	1571407	4443
336	2016-02-18 00:27:04	0	0	0	0	0	0	12.55	0.36	0.08	331608	0	25261	217024	331608	306352	1193	187	2919	144	197175	1571415	4443
337	2016-02-18 00:37:05	0	0	0	0	0	0	12.55	0.36	0.08	331641	0	25270	217024	331641	306371	1193	187	2919	144	197175	1571426	4443
338	2016-02-18 00:47:04	0	0	0	0	0	0	12.55	0.36	0.08	331658	0	25270	217024	331658	306382	1193	187	2919	144	197175	1571429	4443
339	2016-02-18 00:57:05	0	0	0	0	0	0	12.55	0.36	0.08	331668	0	25282	217024	331668	306386	1193	187	2919	144	197175	1571442	4443
340	2016-02-18 01:07:05	0	0	0	0	0	0	12.55	0.36	0.08	331683	0	25285	217024	331683	306398	1193	187	2919	144	197175	1571454	4443
341	2016-02-18 01:17:04	0	0	0	0	0	0	12.55	0.36	0.08	331683	0	25285	217024	331683	306398	1193	187	2919	144	197175	1571466	4443
342	2016-02-18 01:27:05	0	0	0	0	0	0	12.55	0.36	0.08	331709	0	25291	217024	331709	306418	1193	187	2919	144	197175	1571476	4443
343	2016-02-18 01:37:05	0	0	0	0	0	0	12.55	0.36	0.08	331709	0	25292	217024	331709	306422	1193	187	2919	144	197175	1571483	4443
344	2016-02-18 01:47:04	0	0	0	0	0	0	12.55	0.36	0.08	331723	0	25297	217024	331723	306426	1193	187	2919	144	197175	1571483	4443
345	2016-02-18 01:57:05	0	0	0	0	0	0	12.55	0.36	0.08	331730	0	25300	217024	331730	306430	1193	187	2919	144	197175	1571489	4443
346	2016-02-18 02:07:03	0	0	0	0	0	0	12.55	0.36	0.08	331730	0	25300	217024	331730	306430	1193	187	2919	144	197175	1571499	4443
347	2016-02-18 02:17:05	0	0	0	0	0	0	12.55	0.36	0.08	331738	0	25300	217024	331738	306438	1193	187	2919	144	197175	1571504	4443
348	2016-02-18 02:27:04	0	0	0	0	0	0	12.55	0.36	0.08	331738	0	25300	217024	331738	306438	1193	187	2919	144	197175	1571506	4443
349	2016-02-18 02:37:05	0	0	0	0	0	0	12.55	0.36	0.08	331745	0	25303	217024	331745	306442	1193	187	2919	144	197175	1571508	4443
350	2016-02-18 02:47:03	0	0	0	0	0	0	12.55	0.36	0.08	331745	0	25303	217024	331745	306442	1193	187	2919	144	197175	1571505	4443
351	2016-02-18 02:57:05	0	0	0	0	0	0	12.55	0.36	0.08	331750	0	25304	217024	331750	306446	1193	187	2919	144	197175	1571511	4443
352	2016-02-18 03:07:04	0	0	0	0	0	0	12.54	0.36	0.08	331754	0	25305	217024	331754	306449	1193	187	2919	144	197175	1572266	4443
353	2016-02-18 03:17:05	0	0	0	0	0	0	12.54	0.36	0.08	331757	0	25305	217024	331757	306452	1193	187	2919	144	197175	1572269	4443
354	2016-02-18 03:27:04	0	0	0	0	0	0	12.54	0.36	0.08	331757	0	25305	217024	331757	306452	1193	187	2919	144	197175	1572267	4443
355	2016-02-18 03:37:05	0	0	0	0	0	0	12.54	0.36	0.08	331759	0	25305	217024	331759	306454	1193	187	2919	144	197175	1572269	4443
356	2016-02-18 03:47:04	0	0	0	0	0	0	12.54	0.36	0.08	331761	0	25307	217024	331761	306454	1193	187	2919	144	197175	1572270	4443
357	2016-02-18 03:57:03	0	0	0	0	0	0	12.54	0.36	0.08	331763	0	25309	217024	331763	306454	1193	187	2919	144	197175	1572270	4443
358	2016-02-18 04:07:04	0	0	0	0	0	0	12.54	0.36	0.08	331764	0	25309	217024	331764	306455	1193	187	2919	144	197175	1572270	4443
359	2016-02-18 04:17:04	0	0	0	0	0	0	12.54	0.36	0.08	331764	0	25309	217024	331764	306455	1193	187	2919	144	197175	1572272	4443
360	2016-02-18 04:27:03	0	0	0	0	0	0	12.54	0.36	0.08	331766	0	25310	217024	331766	306456	1193	187	2919	144	197175	1572272	4443
361	2016-02-18 04:37:04	0	0	0	0	0	0	12.54	0.36	0.08	331766	0	25310	217024	331766	306456	1193	187	2919	144	197175	1572271	4443
362	2016-02-18 04:47:04	0	0	0	0	0	0	12.54	0.36	0.08	331767	0	25310	217024	331767	306457	1193	187	2919	144	197175	1572271	4443
363	2016-02-18 04:57:05	0	0	0	0	0	0	12.54	0.36	0.08	331768	0	25311	217024	331768	306457	1193	187	2919	144	197175	1572270	4443
364	2016-02-18 05:07:04	0	0	0	0	0	0	12.54	0.36	0.08	331770	0	25313	217024	331770	306457	1193	187	2919	144	197175	1572271	4443
365	2016-02-18 05:17:03	0	0	0	0	0	0	12.54	0.36	0.08	331770	0	25313	217024	331770	306457	1193	187	2919	144	197175	1572270	4443
366	2016-02-18 05:27:06	0	0	0	0	0	0	12.54	0.36	0.08	331772	0	25314	217024	331772	306458	1193	187	2919	144	197175	1572270	4443
367	2016-02-18 05:37:04	0	0	0	0	0	0	12.54	0.36	0.08	331772	0	25314	217024	331772	306458	1193	187	2919	144	197175	1572271	4443
368	2016-02-18 05:47:05	0	0	0	0	0	0	12.54	0.36	0.08	331775	0	25314	217024	331775	306461	1193	187	2919	144	197175	1572273	4443
369	2016-02-18 05:57:06	0	0	0	0	0	0	12.54	0.36	0.08	331775	0	25314	217024	331775	306461	1193	187	2919	144	197175	1572273	4443
370	2016-02-18 06:07:05	0	0	0	0	0	0	12.54	0.36	0.08	331775	0	25314	217024	331775	306461	1193	187	2919	144	197175	1572270	4443
371	2016-02-18 06:17:05	0	0	0	0	0	0	12.54	0.36	0.08	331776	0	25314	217024	331776	306462	1193	187	2919	144	197175	1572271	4443
372	2016-02-18 06:27:04	0	0	0	0	0	0	12.54	0.36	0.08	331777	0	25314	217024	331777	306463	1193	187	2919	144	197175	1572272	4443
373	2016-02-18 06:37:07	0	0	0	0	0	0	12.54	0.36	0.08	331777	0	25314	217024	331777	306463	1193	187	2919	144	197175	1572271	4443
374	2016-02-18 06:47:04	0	0	0	0	0	0	12.54	0.36	0.08	331777	0	25314	217024	331777	306463	1193	187	2919	144	197175	1572272	4443
375	2016-02-18 06:57:10	0	0	0	0	0	0	12.54	0.36	0.08	331777	0	25314	217024	331777	306463	1193	187	2919	144	197175	1572271	4443
376	2016-02-18 07:07:11	0	0	0	0	0	0	12.54	0.36	0.08	331778	0	25315	217024	331778	306463	1193	187	2919	144	197175	1572272	4443
377	2016-02-18 07:17:07	0	0	0	0	0	0	12.54	0.36	0.08	331778	0	25315	217024	331778	306463	1193	187	2919	144	197175	1572271	4443
378	2016-02-18 07:27:07	0	0	0	0	0	0	12.54	0.36	0.08	331780	0	25315	217024	331780	306465	1193	187	2919	144	197175	1572268	4443
379	2016-02-18 07:37:08	0	0	0	0	0	0	12.54	0.36	0.08	331780	0	25315	217024	331780	306465	1193	187	2919	144	197175	1572268	4443
380	2016-02-18 07:47:04	0	0	0	0	0	0	12.54	0.36	0.08	331782	0	25315	217024	331782	306467	1193	187	2919	144	197175	1572273	4443
381	2016-02-18 07:57:06	0	0	0	0	0	0	12.54	0.36	0.08	331783	0	25315	217024	331783	306468	1193	187	2919	144	197175	1572277	4443
382	2016-02-18 08:07:06	0	0	0	0	0	0	12.54	0.36	0.08	331783	0	25315	217024	331783	306468	1193	187	2919	144	197175	1572279	4443
383	2016-02-18 08:17:06	0	0	0	0	0	0	12.54	0.36	0.08	331788	0	25318	217024	331788	306470	1193	187	2919	144	197175	1572281	4443
384	2016-02-18 08:27:07	0	0	0	0	0	0	12.54	0.36	0.08	331789	0	25319	217024	331789	306470	1193	187	2919	144	197175	1572286	4443
385	2016-02-18 08:37:06	0	0	0	0	0	0	12.54	0.36	0.08	331789	0	25319	217024	331789	306470	1193	187	2919	144	197175	1572292	4443
386	2016-02-18 08:47:04	0	0	0	0	0	0	12.54	0.36	0.08	331799	0	25321	217024	331799	306478	1193	187	2919	144	197175	1572293	4443
387	2016-02-18 08:57:08	0	0	0	0	0	0	12.54	0.36	0.08	331803	0	25321	217024	331803	306482	1193	187	2919	144	197175	1572294	4443
388	2016-02-18 09:07:07	0	0	0	0	0	0	12.54	0.36	0.08	331804	0	25322	217024	331804	306482	1193	187	2920	144	197175	1572300	4444
389	2016-02-18 09:17:06	0	0	0	0	0	0	12.54	0.36	0.08	331804	0	25322	217024	331804	306482	1193	187	2920	144	197175	1572306	4444
390	2016-02-18 09:27:11	0	0	0	0	0	0	12.54	0.36	0.08	331812	0	25327	217024	331812	306485	1193	187	2920	144	197175	1572309	4444
391	2016-02-18 09:37:07	0	0	0	0	0	0	12.54	0.36	0.08	331812	0	25327	217024	331812	306485	1193	187	2920	144	197175	1572315	4444
392	2016-02-18 09:47:12	0	0	0	0	0	0	12.54	0.36	0.08	331817	0	25329	217024	331817	306488	1193	187	2920	144	197175	1572332	4444
393	2016-02-18 09:57:12	0	0	0	0	0	0	12.54	0.36	0.08	331822	0	25332	217024	331822	306490	1193	187	2920	144	197175	1572336	4444
394	2016-02-18 10:07:06	0	0	0	0	0	0	12.54	0.36	0.08	331822	0	25332	217024	331822	306490	1193	187	2920	144	197175	1572338	4444
395	2016-02-18 10:17:09	0	0	0	0	0	0	12.54	0.36	0.08	331834	0	25334	217024	331834	306500	1193	187	2920	144	197175	1572344	4444
396	2016-02-18 10:27:07	0	0	0	0	0	0	12.54	0.36	0.08	331835	0	25335	217024	331835	306500	1193	187	2920	144	197175	1572349	4444
397	2016-02-18 10:37:06	0	0	0	0	0	0	12.54	0.36	0.08	331835	0	25336	217024	331835	306507	1193	187	2920	144	197175	1572359	4444
398	2016-02-18 10:47:15	0	0	0	0	0	0	12.54	0.36	0.08	331844	0	25336	217024	331844	306508	1193	187	2920	144	197175	1572365	4444
399	2016-02-18 10:57:10	0	0	0	0	0	0	12.54	0.36	0.08	331844	0	25336	217024	331844	306508	1193	187	2920	144	197175	1572371	4444
400	2016-02-18 11:07:16	0	0	0	0	0	0	12.54	0.36	0.08	331857	0	25338	217024	331857	306519	1193	187	2920	144	197175	1572377	4444
401	2016-02-18 11:17:12	0	0	0	0	0	0	12.54	0.36	0.08	331857	0	25339	217024	331857	306519	1193	187	2920	144	197175	1572378	4444
402	2016-02-18 11:27:14	0	0	0	0	0	0	12.54	0.36	0.08	331865	0	25339	217024	331865	306526	1193	187	2920	144	197175	1572386	4444
403	2016-02-18 11:37:16	0	0	0	0	0	0	12.54	0.36	0.08	331869	0	25339	217024	331869	306530	1193	187	2920	144	197175	1572393	4444
404	2016-02-18 11:47:21	0	0	0	0	0	0	12.54	0.36	0.08	331874	0	25340	217024	331874	306534	1193	187	2920	144	197175	1572399	4444
405	2016-02-18 11:57:16	0	0	0	0	0	0	12.54	0.36	0.08	331878	0	25342	217024	331878	306536	1193	187	2920	144	197175	1572411	4444
406	2016-02-18 12:07:12	0	0	0	0	0	0	12.54	0.36	0.08	331883	0	25344	217024	331883	306539	1193	187	2920	144	197175	1572417	4444
407	2016-02-18 12:17:15	0	0	0	0	0	0	12.54	0.36	0.08	331884	0	25344	217024	331884	306540	1193	187	2920	144	197175	1572425	4444
408	2016-02-18 12:27:17	0	0	0	0	0	0	12.54	0.36	0.08	331891	0	25345	217024	331891	306546	1193	187	2920	144	197175	1572433	4444
409	2016-02-18 12:37:23	0	0	0	0	0	0	12.54	0.36	0.08	331894	0	25347	217024	331894	306547	1193	187	2920	144	197175	1572440	4444
410	2016-02-18 12:47:22	0	0	0	0	0	0	12.54	0.36	0.08	331900	0	25348	217024	331900	306552	1193	187	2920	144	197175	1572447	4444
411	2016-02-18 12:57:13	0	0	0	0	0	0	12.54	0.36	0.08	331900	0	25348	217024	331900	306552	1193	187	2920	144	197175	1572457	4444
412	2016-02-18 13:07:10	0	0	0	0	0	0	12.54	0.36	0.08	331905	0	25351	217024	331905	306554	1193	187	2920	144	197175	1572472	4444
413	2016-02-18 13:18:12	0	0	0	0	0	0	12.54	0.36	0.08	331910	0	25354	217024	331910	306556	1193	187	2920	144	197175	1572481	4444
414	2016-02-18 13:27:40	0	0	0	0	0	0	12.54	0.36	0.08	331910	0	25354	217024	331910	306556	1193	187	2920	144	197175	1572485	4444
415	2016-02-18 13:37:21	0	0	0	0	0	0	12.54	0.36	0.08	331920	0	25362	217024	331920	306558	1193	187	2920	144	197175	1572489	4444
416	2016-02-18 13:47:18	0	0	0	0	0	0	12.54	0.36	0.08	331923	0	25363	217024	331923	306560	1193	187	2920	144	197175	1572496	4444
417	2016-02-18 13:57:23	0	0	0	0	0	0	12.54	0.36	0.08	331928	0	25365	217024	331928	306563	1193	187	2920	144	197175	1572498	4444
418	2016-02-18 14:07:27	0	0	0	0	0	0	12.54	0.36	0.08	331931	0	25366	217024	331931	306565	1193	187	2920	144	197175	1572498	4444
419	2016-02-18 14:17:14	0	0	0	0	0	0	12.54	0.36	0.08	331939	0	25369	217024	331939	306570	1193	187	2920	144	197175	1572503	4444
420	2016-02-18 14:27:15	0	0	0	0	0	0	12.54	0.36	0.08	331942	0	25369	217024	331942	306573	1193	187	2920	144	197175	1572507	4444
421	2016-02-18 14:37:17	0	0	0	0	0	0	12.54	0.36	0.08	331944	0	25370	217024	331944	306574	1193	187	2920	144	197175	1572514	4444
422	2016-02-18 14:47:17	0	0	0	0	0	0	12.54	0.36	0.08	331944	0	25370	217024	331944	306574	1193	187	2920	144	197175	1572520	4444
423	2016-02-18 14:57:23	0	0	0	0	0	0	12.54	0.36	0.08	331949	0	25372	217024	331949	306577	1193	187	2920	144	197175	1572523	4444
424	2016-02-18 15:07:16	0	0	0	0	0	0	12.54	0.36	0.08	331949	0	25372	217024	331949	306577	1193	187	2920	144	197175	1572529	4444
425	2016-02-18 15:17:21	0	0	0	0	0	0	12.54	0.36	0.08	331957	0	25374	217024	331957	306583	1193	187	2920	144	197175	1572539	4444
426	2016-02-18 15:27:22	0	0	0	0	0	0	12.54	0.36	0.08	331961	0	25375	217024	331961	306586	1193	187	2920	144	197175	1572548	4444
427	2016-02-18 15:37:21	0	0	0	0	0	0	12.54	0.36	0.08	331961	0	25375	217024	331961	306586	1193	187	2920	144	197175	1572557	4444
428	2016-02-18 15:47:21	0	0	0	0	0	0	12.54	0.36	0.08	331972	0	25376	217024	331972	306596	1193	187	2920	144	197175	1572570	4444
429	2016-02-18 15:57:13	0	0	0	0	0	0	12.54	0.36	0.08	331972	0	25376	217024	331972	306596	1193	187	2920	144	197175	1572586	4444
430	2016-02-18 16:07:16	0	0	0	0	0	0	12.54	0.36	0.08	331985	0	25381	217077	331985	306604	1193	187	2920	144	197175	1572597	4444
431	2016-02-18 16:17:12	0	0	0	0	0	0	12.54	0.36	0.08	331985	0	25381	217077	331985	306604	1193	187	2920	144	197175	1572610	4444
432	2016-02-18 16:27:15	0	0	0	0	0	0	12.54	0.36	0.08	331996	0	25385	217077	331996	306611	1193	187	2920	144	197175	1572621	4444
433	2016-02-18 16:37:20	0	0	0	0	0	0	12.54	0.36	0.08	331997	0	25385	217077	331997	306612	1193	187	2920	144	197175	1572632	4444
434	2016-02-18 16:47:11	0	0	0	0	0	0	12.54	0.36	0.08	331997	0	25385	217077	331997	306612	1193	187	2920	144	197175	1572641	4444
435	2016-02-18 16:57:13	0	0	0	0	0	0	12.54	0.36	0.08	332005	0	25387	217077	332005	306618	1193	187	2920	144	197175	1572651	4444
436	2016-02-18 17:07:16	0	0	0	0	0	0	12.54	0.36	0.08	332011	0	25390	217077	332011	306621	1193	187	2920	144	197175	1572657	4444
437	2016-02-18 17:17:15	0	0	0	0	0	0	12.54	0.36	0.08	332015	0	25390	217077	332015	306625	1193	187	2920	144	197175	1572682	4444
438	2016-02-18 17:27:13	0	0	0	0	0	0	12.54	0.36	0.08	332026	0	25392	217077	332026	306634	1193	187	2920	144	197175	1572698	4444
439	2016-02-18 17:37:14	0	0	0	0	0	0	12.54	0.36	0.08	332029	0	25393	217077	332029	306636	1193	187	2920	144	197175	1572710	4444
440	2016-02-18 17:47:13	0	0	0	0	0	0	12.54	0.36	0.08	332038	0	25396	217077	332038	306642	1193	187	2920	144	197175	1572732	4444
