1	2016-01-25 20:02:12	0	0	0	0	0	0	0.89	0.41	0	15893	0	38	13060	15893	15855	65	3	68	8	13031	1461419	144
2	2016-01-25 20:12:10	0	0	0	0	0	0	0.89	0.28	0	23220	0	38	18413	23220	23135	65	4	99	10	13031	1461428	178
3	2016-01-25 20:22:11	0	0	0	0	0	0	1.66	0.48	0.01	32607	0	212	24423	32607	32395	155	5	155	17	24223	1461436	332
4	2016-01-25 20:32:11	0	0	0	0	0	0	1.85	0.47	0.01	36904	0	286	27216	36904	36618	172	7	175	19	27007	1461441	373
5	2016-01-25 20:42:11	0	0	0	0	0	0	2.11	0.48	0.01	43168	0	416	31147	43168	42752	207	8	213	26	30805	1461443	454
6	2016-01-25 20:52:12	0	0	0	0	0	0	2.31	0.47	0.01	48539	0	548	34131	48539	47991	229	10	228	27	33760	1461446	494
7	2016-01-25 21:02:14	0	0	0	0	0	0	2.49	0.53	0.01	52910	0	664	37020	52910	52246	279	14	284	29	36459	1461451	606
8	2016-01-25 21:12:12	0	0	0	0	0	0	2.49	0.53	0.01	52910	0	664	37020	52910	52246	279	14	284	29	36459	1461460	606
9	2016-01-25 21:22:12	0	0	0	0	0	0	2.69	0.56	0.01	60163	0	795	41878	60163	56532	337	18	336	33	39339	1461459	724
10	2016-01-25 21:32:12	0	0	0	0	0	0	2.93	0.55	0.02	63056	0	990	43409	63056	62066	348	19	357	33	42759	1461468	757
11	2016-01-25 21:42:13	0	0	0	0	0	0	3.18	0.56	0.02	67745	0	1137	47233	67745	66608	376	20	388	34	46426	1461477	818
12	2016-01-25 21:52:19	0	0	0	0	0	0	3.33	0.57	0.02	71429	0	1267	49696	71429	70162	409	21	408	34	48610	1461487	872
13	2016-01-25 22:02:15	0	0	0	0	0	0	3.33	0.57	0.02	71429	0	1267	49696	71429	70162	409	21	408	34	48610	1461491	872
14	2016-01-25 22:12:13	0	0	0	0	0	0	3.64	0.57	0.02	78196	0	1538	54744	78196	76658	447	22	450	34	53240	1461500	953
15	2016-01-25 22:22:12	0	0	0	0	0	0	3.72	0.57	0.02	79666	0	1607	55888	79666	78059	456	23	460	34	54353	1461508	973
16	2016-01-25 22:32:12	0	0	0	0	0	0	3.82	0.59	0.02	83049	0	1764	57484	83049	81285	486	23	470	35	55857	1461512	1014
17	2016-01-25 22:42:12	0	0	0	0	0	0	3.82	0.59	0.02	83049	0	1764	57484	83049	81285	486	23	470	35	55857	1461519	1014
18	2016-01-25 22:52:20	0	0	0	0	0	0	3.99	0.59	0.02	87169	0	1931	60168	87169	85238	511	23	491	36	58370	1461529	1061
19	2016-01-25 23:02:13	0	0	0	0	0	0	3.99	0.59	0.02	87169	0	1931	60168	87169	85238	511	23	491	36	58370	1461538	1061
20	2016-01-25 23:12:13	0	0	0	0	0	0	4.12	0.58	0.02	90188	0	2066	62055	90188	88122	526	23	509	38	60234	1461548	1096
21	2016-01-25 23:22:13	0	0	0	0	0	0	4.25	0.58	0.02	93884	0	2244	64005	93884	91640	544	23	532	38	62067	1461551	1137
22	2016-01-25 23:32:13	0	0	0	0	0	0	4.33	0.58	0.03	96432	0	2363	65312	96432	94069	556	23	540	39	63254	1461564	1158
23	2016-01-25 23:42:17	0	0	0	0	0	0	4.33	0.58	0.03	96432	0	2363	65312	96432	94069	556	23	540	39	63254	1461570	1158
24	2016-01-25 23:52:13	0	0	0	0	0	0	4.52	0.58	0.03	100594	0	2534	68469	100594	98060	583	23	554	40	66019	1461584	1200
25	2016-01-26 00:02:13	0	0	0	0	0	0	4.56	0.58	0.03	101823	0	2594	69207	101823	99229	590	23	570	40	66705	1461594	1223
26	2016-01-26 00:12:13	0	0	0	0	0	0	4.65	0.58	0.03	103901	0	2691	70400	103901	101210	606	23	578	40	67913	1461597	1247
27	2016-01-26 00:22:14	0	0	0	0	0	0	4.73	0.58	0.03	105951	0	2763	71800	105951	103188	615	23	585	40	69154	1461603	1263
28	2016-01-26 00:32:15	0	0	0	0	0	0	4.79	0.58	0.03	106912	0	2804	72656	106912	104108	623	23	588	41	69947	1461615	1275
29	2016-01-26 00:42:14	0	0	0	0	0	0	4.87	0.59	0.03	108879	0	2879	73815	108879	106000	638	23	600	41	71151	1461631	1302
30	2016-01-26 00:52:14	0	0	0	0	0	0	4.87	0.59	0.03	108879	0	2879	73815	108879	106000	644	23	600	41	71151	1461644	1308
31	2016-01-26 01:02:14	0	0	0	0	0	0	4.95	0.59	0.03	110585	0	2924	75076	110585	107661	650	23	610	43	72376	1461646	1326
32	2016-01-26 01:12:13	0	0	0	0	0	0	5.04	0.59	0.03	112564	0	2988	76310	112564	109576	668	23	614	43	73631	1461646	1348
33	2016-01-26 01:22:16	0	0	0	0	0	0	5.05	0.59	0.03	113067	0	3007	76570	113067	110060	670	23	618	43	73820	1461651	1354
34	2016-01-26 01:32:13	0	0	0	0	0	0	5.05	0.59	0.03	113067	0	3007	76570	113067	110060	670	23	618	43	73820	1461651	1354
35	2016-01-26 01:42:13	0	0	0	0	0	0	5.09	0.6	0.03	114585	0	3073	77203	114585	111512	682	25	624	43	74423	1461658	1374
36	2016-01-26 01:52:13	0	0	0	0	0	0	5.11	0.6	0.03	115427	0	3110	77416	115427	112317	688	25	630	43	74653	1461661	1386
37	2016-01-26 02:02:14	0	0	0	0	0	0	5.11	0.6	0.03	115427	0	3110	77416	115427	112317	688	25	630	43	74653	1461663	1386
38	2016-01-26 02:12:16	0	0	0	0	0	0	5.15	0.6	0.03	116636	0	3158	77880	116636	113478	694	25	634	46	75282	1461664	1399
39	2016-01-26 02:22:14	0	0	0	0	0	0	5.15	0.6	0.03	116636	0	3158	77880	116636	113478	694	25	634	46	75282	1461661	1399
40	2016-01-26 02:32:13	0	0	0	0	0	0	5.19	0.6	0.03	117653	0	3205	78514	117653	114448	704	26	640	46	75874	1461663	1416
41	2016-01-26 02:42:13	0	0	0	0	0	0	5.2	0.6	0.03	118167	0	3226	78610	118167	114941	707	26	641	46	76053	1461670	1420
42	2016-01-26 02:52:13	0	0	0	0	0	0	5.2	0.6	0.03	118167	0	3226	78610	118167	114941	707	26	641	46	76053	1461672	1420
43	2016-01-26 03:02:16	0	0	0	0	0	0	5.25	0.6	0.03	118799	0	3252	79290	118799	115547	713	26	642	46	76719	1462178	1427
44	2016-01-26 03:12:14	0	0	0	0	0	0	5.26	0.6	0.03	119225	0	3268	79567	119225	115547	714	26	644	46	76979	1462180	1430
45	2016-01-26 03:22:13	0	0	0	0	0	0	5.29	0.6	0.03	119534	0	3273	79920	119534	116261	715	26	648	46	77309	1462181	1435
46	2016-01-26 03:32:13	0	0	0	0	0	0	5.29	0.6	0.03	119534	0	3273	79920	119534	116261	715	26	648	46	77309	1462180	1435
47	2016-01-26 03:42:13	0	0	0	0	0	0	5.34	0.6	0.03	120004	0	3289	80804	120004	116715	718	26	650	46	78137	1462180	1440
48	2016-01-26 03:52:18	0	0	0	0	0	0	5.34	0.6	0.03	120004	0	3289	80804	120004	116715	718	26	650	46	78137	1462180	1440
49	2016-01-26 04:02:14	0	0	0	0	0	0	5.36	0.6	0.03	120397	0	3334	81092	120397	117063	723	26	655	49	78310	1462181	1453
50	2016-01-26 04:12:14	0	0	0	0	0	0	5.37	0.6	0.03	120581	0	3343	81450	120581	117238	724	26	655	49	78549	1462181	1454
51	2016-01-26 04:22:14	0	0	0	0	0	0	5.37	0.6	0.03	120581	0	3343	81493	120581	117238	724	26	655	49	78549	1462182	1454
52	2016-01-26 04:32:13	0	0	0	0	0	0	5.39	0.6	0.03	120752	0	3359	81726	120752	117470	724	26	656	49	78805	1462183	1455
53	2016-01-26 04:42:19	0	0	0	0	0	0	5.39	0.6	0.03	120993	0	3367	81726	120993	117626	725	26	658	49	78805	1462185	1458
54	2016-01-26 04:52:13	0	0	0	0	0	0	5.39	0.6	0.03	120993	0	3367	81726	120993	117626	725	26	658	49	78805	1462186	1458
55	2016-01-26 05:02:12	0	0	0	0	0	0	5.39	0.6	0.03	121124	0	3372	81795	121124	117752	726	26	658	49	78869	1462186	1459
56	2016-01-26 05:12:14	0	0	0	0	0	0	5.39	0.6	0.03	121287	0	3376	81795	121287	117959	727	26	658	49	78869	1462186	1460
57	2016-01-26 05:22:15	0	0	0	0	0	0	5.4	0.6	0.03	121399	0	3379	81898	121399	118020	727	26	660	49	78966	1462185	1462
58	2016-01-26 05:32:17	0	0	0	0	0	0	5.4	0.6	0.03	121459	0	3382	81898	121459	118077	728	26	660	49	78966	1462183	1463
59	2016-01-26 05:42:13	0	0	0	0	0	0	5.4	0.6	0.03	121577	0	3386	81898	121577	118191	730	26	660	49	78966	1462185	1465
60	2016-01-26 05:52:14	0	0	0	0	0	0	5.41	0.6	0.03	121765	0	3395	82037	121765	118370	730	26	661	49	79095	1462186	1466
61	2016-01-26 06:02:15	0	0	0	0	0	0	5.41	0.6	0.03	121831	0	3395	82037	121831	118435	730	26	661	49	79095	1462186	1466
62	2016-01-26 06:12:14	0	0	0	0	0	0	5.41	0.6	0.03	121977	0	3400	82050	121977	118577	731	26	661	49	79107	1462185	1467
63	2016-01-26 06:22:16	0	0	0	0	0	0	5.41	0.6	0.03	122145	0	3418	82085	122145	118727	732	26	662	49	79139	1462180	1469
64	2016-01-26 06:32:13	0	0	0	0	0	0	5.41	0.6	0.03	122145	0	3418	82085	122145	118727	732	26	662	49	79139	1462177	1469
65	2016-01-26 06:42:13	0	0	0	0	0	0	5.42	0.6	0.03	122386	0	3431	82164	122386	118955	732	26	662	49	79212	1462180	1469
66	2016-01-26 06:52:14	0	0	0	0	0	0	5.42	0.6	0.03	122595	0	3439	82233	122595	119156	733	26	662	49	79277	1462180	1470
67	2016-01-26 07:02:14	0	0	0	0	0	0	5.43	0.6	0.03	122693	0	3439	82373	122693	119253	733	26	662	49	79407	1462179	1470
68	2016-01-26 07:12:18	0	0	0	0	0	0	5.45	0.6	0.03	122935	0	3454	82686	122935	119481	734	26	663	49	79697	1462180	1472
69	2016-01-26 07:22:15	0	0	0	0	0	0	5.45	0.6	0.03	122935	0	3454	82686	122935	119481	734	26	663	49	79697	1462181	1472
70	2016-01-26 07:32:14	0	0	0	0	0	0	5.47	0.6	0.03	123420	0	3474	83152	123420	119946	737	26	666	49	79998	1462187	1478
71	2016-01-26 07:42:14	0	0	0	0	0	0	5.47	0.6	0.03	123420	0	3474	83152	123420	119946	739	26	666	49	79998	1462191	1480
72	2016-01-26 07:52:14	0	0	0	0	0	0	5.48	0.6	0.03	123996	0	3501	83309	123996	120495	741	26	668	49	80143	1462192	1484
73	2016-01-26 08:02:17	0	0	0	0	0	0	5.49	0.6	0.03	124407	0	3512	83416	124407	120895	744	26	670	49	80242	1462195	1489
74	2016-01-26 08:12:14	0	0	0	0	0	0	5.49	0.6	0.03	124407	0	3512	83416	124407	120895	744	26	670	49	80242	1462197	1489
75	2016-01-26 08:22:13	0	0	0	0	0	0	5.52	0.6	0.03	125050	0	3550	84092	125050	121500	747	26	673	49	80736	1462199	1495
76	2016-01-26 08:32:13	0	0	0	0	0	0	5.53	0.6	0.03	125638	0	3577	84236	125638	122061	753	26	675	49	80869	1462204	1503
77	2016-01-26 08:42:15	0	0	0	0	0	0	5.55	0.6	0.03	126256	0	3602	84544	126256	122654	757	26	680	49	81204	1462207	1512
78	2016-01-26 08:52:19	0	0	0	0	0	0	5.58	0.6	0.03	126531	0	3614	84859	126531	122917	760	26	680	49	81632	1462210	1515
79	2016-01-26 09:02:14	0	0	0	0	0	0	5.58	0.6	0.03	126531	0	3614	84859	126531	122917	760	26	680	49	81632	1462210	1515
80	2016-01-26 09:12:15	0	0	0	0	0	0	5.62	0.61	0.03	127734	0	3671	85500	127734	124063	775	26	684	49	82235	1462213	1534
81	2016-01-26 09:22:15	0	0	0	0	0	0	5.62	0.61	0.03	127734	0	3671	85500	127734	124063	775	26	684	49	82235	1462207	1534
82	2016-01-26 09:32:15	0	0	0	0	0	0	5.68	0.61	0.03	128923	0	3729	86410	128923	124801	786	27	690	51	83060	1462208	1554
83	2016-01-26 09:42:19	0	0	0	0	0	0	5.71	0.61	0.03	129273	0	3756	86639	129273	125517	794	27	693	51	83431	1462208	1565
84	2016-01-26 09:52:14	0	0	0	0	0	0	5.72	0.61	0.03	130074	0	3756	86841	130074	125517	797	27	699	51	83654	1462210	1574
85	2016-01-26 10:02:33	0	0	0	0	0	0	5.74	0.61	0.03	130840	0	3812	87211	130840	126669	800	27	702	51	83966	1462211	1580
86	2016-01-26 10:12:20	0	0	0	0	0	0	5.74	0.61	0.03	131199	0	3843	87666	131199	127356	800	27	704	51	83966	1462215	1582
87	2016-01-26 10:22:16	0	0	0	0	0	0	5.82	0.62	0.03	131944	0	3881	88500	131944	128063	812	27	707	51	85094	1462216	1597
88	2016-01-26 10:32:23	0	0	0	0	0	0	5.84	0.62	0.03	132698	0	3921	89019	132698	128777	818	27	711	51	85461	1462221	1607
89	2016-01-26 10:42:19	0	0	0	0	0	0	5.86	0.62	0.03	133399	0	3953	89280	133399	129446	823	28	711	51	85630	1462223	1613
90	2016-01-26 10:52:16	0	0	0	0	0	0	5.86	0.62	0.03	133399	0	3953	89280	133399	129829	823	28	711	51	85630	1462225	1613
91	2016-01-26 11:02:19	0	0	0	0	0	0	5.9	0.62	0.03	134637	0	4024	89507	134637	130613	839	29	717	51	86284	1462229	1636
92	2016-01-26 11:12:16	0	0	0	0	0	0	5.9	0.62	0.03	134946	0	4044	90033	134946	130902	842	29	723	51	86284	1462223	1645
93	2016-01-26 11:22:26	0	0	0	0	0	0	5.92	0.63	0.03	135663	0	4098	90447	135663	131565	851	29	727	51	86529	1462222	1658
94	2016-01-26 11:32:35	0	0	0	0	0	0	5.92	0.63	0.03	136280	0	4135	90615	136280	132145	855	29	730	51	86586	1462224	1665
95	2016-01-26 11:42:19	0	0	0	0	0	0	5.92	0.63	0.03	136280	0	4135	90615	136280	132145	855	29	730	51	86586	1462234	1665
96	2016-01-26 11:52:27	0	0	0	0	0	0	5.99	0.63	0.03	137560	0	4217	91782	137560	133343	866	29	736	51	87525	1462241	1682
97	2016-01-26 12:02:59	0	0	0	0	0	0	5.99	0.63	0.03	137926	0	4241	91880	137926	133685	871	29	736	51	87614	1462243	1687
98	2016-01-26 12:12:50	0	0	0	0	0	0	6.01	0.63	0.03	138478	0	4264	92121	138478	134214	871	29	737	51	87833	1462250	1688
99	2016-01-26 12:22:20	0	0	0	0	0	0	6.01	0.64	0.03	138478	0	4264	92121	138478	134214	880	29	737	51	87833	1462256	1697
100	2016-01-26 12:32:29	0	0	0	0	0	0	6.07	0.63	0.03	139590	0	4337	93132	139590	135253	884	29	744	51	88712	1462258	1708
101	2016-01-26 12:42:24	0	0	0	0	0	0	6.07	0.64	0.03	140271	0	4393	93340	140271	135878	895	30	748	52	88784	1462264	1725
102	2016-01-26 12:52:18	0	0	0	0	0	0	6.07	0.64	0.03	140271	0	4393	93340	140271	135878	895	30	748	52	88784	1462261	1725
103	2016-01-26 13:02:37	0	0	0	0	0	0	6.1	0.64	0.03	140948	0	4459	93741	140948	136837	903	30	756	52	89198	1462263	1741
104	2016-01-26 13:12:22	0	0	0	0	0	0	6.1	0.64	0.03	141607	0	4459	93832	141607	136837	912	30	758	53	89198	1462267	1753
105	2016-01-26 13:22:20	0	0	0	0	0	0	6.1	0.64	0.03	141607	0	4516	93906	141607	137344	912	30	758	53	89229	1462268	1753
106	2016-01-26 13:32:22	0	0	0	0	0	0	6.12	0.64	0.03	142723	0	4561	94106	142723	138162	920	30	762	53	89445	1462268	1765
107	2016-01-26 13:42:19	0	0	0	0	0	0	6.12	0.65	0.03	142723	0	4561	94491	142723	138162	929	30	762	53	89445	1462269	1774
108	2016-01-26 13:52:30	0	0	0	0	0	0	6.15	0.65	0.03	143559	0	4624	94908	143559	138935	933	30	766	54	89973	1462270	1783
109	2016-01-26 14:02:20	0	0	0	0	0	0	6.16	0.65	0.03	143868	0	4640	95053	143868	139228	935	31	768	54	90020	1462282	1788
110	2016-01-26 14:12:21	0	0	0	0	0	0	6.17	0.65	0.03	144296	0	4671	95156	144296	139625	937	31	770	54	90238	1462281	1792
111	2016-01-26 14:22:20	0	0	0	0	0	0	6.19	0.65	0.03	144782	0	4692	95514	144782	140090	943	31	774	54	90560	1462280	1802
112	2016-01-26 14:33:17	0	0	0	0	0	0	6.21	0.65	0.03	145216	0	4717	95679	145216	140499	944	31	774	54	90793	1462283	1803
113	2016-01-26 14:42:34	0	0	0	0	0	0	6.21	0.65	0.03	145216	0	4717	95679	145216	140499	949	31	774	54	90793	1462286	1808
114	2016-01-26 14:52:21	0	0	0	0	0	0	6.23	0.66	0.03	145791	0	4747	96082	145791	141044	958	31	781	54	91157	1462292	1824
115	2016-01-26 15:02:23	0	0	0	0	0	0	6.26	0.66	0.03	146242	0	4777	96382	146242	141465	965	31	783	54	91512	1462291	1833
116	2016-01-26 15:12:24	0	0	0	0	0	0	6.26	0.66	0.03	146242	0	4777	96382	146242	141465	965	31	783	54	91512	1462293	1833
117	2016-01-26 15:22:26	0	0	0	0	0	0	6.27	0.66	0.03	146885	0	4820	96655	146885	142065	969	31	785	54	91715	1462305	1839
118	2016-01-26 15:32:32	0	0	0	0	0	0	6.27	0.66	0.03	147297	0	4830	96778	147297	142458	973	31	788	54	91717	1462314	1846
119	2016-01-26 15:42:23	0	0	0	0	0	0	6.27	0.66	0.03	147297	0	4830	96778	147297	142458	973	31	788	54	91717	1462322	1846
120	2016-01-26 15:52:29	0	0	0	0	0	0	6.32	0.66	0.03	147926	0	4876	97491	147926	143050	980	31	791	56	92467	1462325	1858
121	2016-01-26 16:02:51	0	0	0	0	0	0	6.33	0.66	0.03	148319	0	4887	97534	148319	143432	985	31	792	56	92506	1462332	1864
122	2016-01-26 16:12:30	0	0	0	0	0	0	6.33	0.66	0.03	148319	0	4887	97534	148319	143432	985	31	792	56	92506	1462335	1864
123	2016-01-26 16:22:31	0	0	0	0	0	0	6.34	0.67	0.03	148725	0	4910	98224	148725	143815	992	31	795	56	92780	1462335	1874
124	2016-01-26 16:32:27	0	0	0	0	0	0	6.35	0.67	0.03	149290	0	4941	98317	149290	144166	996	31	795	56	92864	1462337	1878
125	2016-01-26 16:42:28	0	0	0	0	0	0	6.36	0.67	0.03	149507	0	4967	98405	149507	144540	1002	31	795	56	93031	1462343	1884
126	2016-01-26 16:52:32	0	0	0	0	0	0	6.36	0.67	0.03	149909	0	4988	98450	149909	144921	1008	31	797	56	93072	1462355	1892
127	2016-01-26 17:02:25	0	0	0	0	0	0	6.39	0.67	0.03	149909	0	4988	98862	149909	144921	1010	31	798	56	93440	1462359	1895
128	2016-01-26 17:12:28	0	0	0	0	0	0	6.39	0.68	0.03	150523	0	5020	98912	150523	145503	1019	31	800	56	93440	1462358	1906
129	2016-01-26 17:21:52	0	0	0	0	0	0	6.4	0.68	0.03	150711	0	5020	98936	150711	145683	1022	31	800	56	93642	1462365	1909
130	2016-01-26 17:32:03	0	0	0	0	0	0	6.43	0.68	0.03	150915	0	5039	99139	150915	145876	1024	31	801	56	93960	1462373	1912
131	2016-01-26 17:42:12	0	0	0	0	0	0	6.44	0.68	0.03	151393	0	5056	99336	151393	146337	1031	31	804	56	94137	1462377	1922
132	2016-01-26 17:52:24	0	0	0	0	0	0	6.44	0.68	0.03	151760	0	5067	99336	151760	146693	1034	31	805	56	94137	1462385	1926
133	2016-01-26 18:02:05	0	0	0	0	0	0	6.44	0.68	0.03	151760	0	5067	99336	151760	146693	1034	31	805	56	94137	1462386	1926
134	2016-01-26 18:11:44	0	0	0	0	0	0	6.45	0.68	0.03	152224	0	5083	99528	152224	147141	1038	31	810	56	94309	1462393	1935
135	2016-01-26 18:21:45	0	0	0	0	0	0	6.45	0.68	0.03	152372	0	5087	99528	152372	147285	1039	31	811	56	94309	1462392	1937
136	2016-01-26 18:31:45	0	0	0	0	0	0	6.45	0.68	0.03	152372	0	5087	99528	152372	147285	1039	31	811	56	94309	1462399	1937
137	2016-01-26 18:41:42	0	0	0	0	0	0	6.46	0.68	0.03	152985	0	5128	99810	152985	147857	1044	31	813	57	94470	1462409	1945
138	2016-01-26 18:51:50	0	0	0	0	0	0	6.47	0.68	0.03	153128	0	5131	99861	153128	147997	1045	31	814	57	94609	1462414	1947
139	2016-01-26 19:01:51	0	0	0	0	0	0	6.5	0.68	0.03	153392	0	5137	100308	153392	148255	1047	31	814	57	95010	1462417	1949
140	2016-01-26 19:11:47	0	0	0	0	0	0	6.5	0.68	0.03	153392	0	5137	100308	153392	148255	1047	31	814	57	95010	1462427	1949
141	2016-01-26 19:21:47	0	0	0	0	0	0	6.5	0.68	0.03	153808	0	5166	100412	153808	148642	1051	31	818	57	95103	1462449	1957
142	2016-01-26 19:31:45	0	0	0	0	0	0	6.5	0.68	0.03	153808	0	5166	100412	153808	148642	1051	31	818	57	95103	1462474	1957
143	2016-01-26 19:41:55	0	0	0	0	0	0	6.51	0.68	0.03	154188	0	5184	100490	154188	149004	1056	31	818	57	95173	1462513	1962
144	2016-01-26 19:52:25	0	0	0	0	0	0	6.51	0.69	0.03	154490	0	5212	100569	154490	149278	1059	32	821	57	95243	1462551	1969
145	2016-01-26 20:02:25	0	0	0	0	0	0	6.53	0.69	0.04	154739	0	5233	100804	154739	149506	1063	32	821	58	95455	1462585	1974
146	2016-01-26 20:12:25	0	0	0	0	0	0	6.53	0.69	0.04	154739	0	5233	100804	154739	149506	1063	32	821	58	95455	1462626	1974
147	2016-01-26 20:22:24	0	0	0	0	0	0	6.56	0.69	0.04	155095	0	5265	101299	155095	149830	1067	32	822	58	95898	1462656	1979
148	2016-01-26 20:32:31	0	0	0	0	0	0	6.56	0.69	0.04	155368	0	5280	101312	155368	150088	1071	32	823	58	96005	1462687	1984
149	2016-01-26 20:42:25	0	0	0	0	0	0	6.56	0.69	0.04	155368	0	5280	101312	155368	150088	1071	32	823	58	96005	1462722	1984
150	2016-01-26 20:52:27	0	0	0	0	0	0	6.58	0.69	0.04	155649	0	5301	101497	155649	150348	1075	32	824	58	96267	1462768	1989
151	2016-01-26 21:02:27	0	0	0	0	0	0	6.6	0.69	0.04	155947	0	5319	101871	155947	150628	1081	32	825	58	96555	1462818	1996
152	2016-01-26 21:12:29	0	0	0	0	0	0	6.61	0.69	0.04	156187	0	5337	102080	156187	150850	1081	32	826	58	96742	1462857	1997
153	2016-01-26 21:22:27	0	0	0	0	0	0	6.61	0.69	0.04	156457	0	5353	102090	156457	151104	1083	32	829	58	96742	1462897	2002
154	2016-01-26 21:32:28	0	0	0	0	0	0	6.62	0.69	0.04	156625	0	5377	102117	156625	151360	1087	32	829	59	96791	1462936	2007
155	2016-01-26 21:42:25	0	0	0	0	0	0	6.62	0.69	0.04	156931	0	5377	102238	156931	151360	1087	33	830	59	96791	1462984	2009
156	2016-01-26 21:52:24	0	0	0	0	0	0	6.62	0.69	0.04	157030	0	5397	102238	157030	151633	1088	33	830	59	96875	1463030	2010
157	2016-01-26 22:02:24	0	0	0	0	0	0	6.62	0.69	0.04	157296	0	5413	102238	157296	151883	1088	33	832	59	96875	1463069	2012
158	2016-01-26 22:12:27	0	0	0	0	0	0	6.62	0.69	0.04	157515	0	5420	102447	157515	152086	1091	33	832	59	96924	1463114	2015
159	2016-01-26 22:22:26	0	0	0	0	0	0	6.63	0.69	0.04	157619	0	5436	102447	157619	152183	1092	33	833	59	96972	1463163	2017
160	2016-01-26 22:32:25	0	0	0	0	0	0	6.64	0.69	0.04	157846	0	5443	102651	157846	152403	1094	33	833	59	97100	1463218	2019
161	2016-01-26 22:42:25	0	0	0	0	0	0	6.66	0.69	0.04	158072	0	5450	103006	158072	152622	1096	33	833	59	97418	1463256	2021
162	2016-01-26 22:52:24	0	0	0	0	0	0	6.66	0.69	0.04	158072	0	5450	103006	158072	152622	1096	33	833	59	97418	1463292	2021
163	2016-01-26 23:02:27	0	0	0	0	0	0	6.67	0.7	0.04	158414	0	5472	103544	158414	152942	1101	33	838	59	97602	1463341	2031
164	2016-01-26 23:12:27	0	0	0	0	0	0	6.67	0.7	0.04	158526	0	5478	103570	158526	153048	1103	33	839	59	97625	1463382	2034
165	2016-01-26 23:22:27	0	0	0	0	0	0	6.68	0.7	0.04	158779	0	5493	103637	158779	153286	1107	33	842	59	97784	1463433	2041
166	2016-01-26 23:32:26	0	0	0	0	0	0	6.69	0.7	0.04	158779	0	5493	103734	158779	153454	1110	33	843	59	97870	1463484	2045
167	2016-01-26 23:42:26	0	0	0	0	0	0	6.69	0.7	0.04	159040	0	5506	103762	159040	153454	1110	33	843	59	97870	1463528	2045
168	2016-01-26 23:52:24	0	0	0	0	0	0	6.69	0.7	0.04	159232	0	5524	103769	159232	153708	1111	33	844	59	97895	1463572	2047
169	2016-01-27 00:02:25	0	0	0	0	0	0	6.69	0.7	0.04	159455	0	5540	103825	159455	153915	1114	33	845	59	97945	1463619	2051
170	2016-01-27 00:12:24	0	0	0	0	0	0	6.69	0.7	0.04	159455	0	5540	103825	159455	153915	1114	33	845	59	97945	1463662	2051
171	2016-01-27 00:22:29	0	0	0	0	0	0	6.69	0.7	0.04	159644	0	5548	103825	159644	154096	1115	33	847	59	97945	1463705	2054
172	2016-01-27 00:32:23	0	0	0	0	0	0	6.7	0.7	0.04	159884	0	5569	103908	159884	154315	1117	33	850	59	98019	1463746	2059
173	2016-01-27 00:42:34	0	0	0	0	0	0	6.7	0.7	0.04	160041	0	5582	103992	160041	154459	1120	33	854	60	98094	1463782	2067
174	2016-01-27 00:52:27	0	0	0	0	0	0	6.7	0.7	0.04	160041	0	5582	103992	160041	154459	1120	33	854	60	98094	1463818	2067
175	2016-01-27 01:02:24	0	0	0	0	0	0	6.71	0.7	0.04	160237	0	5596	104047	160237	154641	1122	33	854	60	98192	1463860	2069
176	2016-01-27 01:12:27	0	0	0	0	0	0	6.71	0.7	0.04	160339	0	5601	104103	160339	154738	1122	33	854	60	98242	1463886	2069
177	2016-01-27 01:22:25	0	0	0	0	0	0	6.71	0.7	0.04	160339	0	5601	104103	160339	154738	1122	33	854	60	98242	1463908	2069
178	2016-01-27 01:32:26	0	0	0	0	0	0	6.72	0.7	0.04	160491	0	5611	104314	160491	154880	1122	33	856	60	98430	1463929	2071
179	2016-01-27 01:42:27	0	0	0	0	0	0	6.72	0.7	0.04	160561	0	5613	104317	160561	154948	1123	33	857	60	98433	1463953	2073
180	2016-01-27 01:52:24	0	0	0	0	0	0	6.72	0.7	0.04	160633	0	5618	104317	160633	155015	1125	33	857	60	98433	1463972	2075
181	2016-01-27 02:02:24	0	0	0	0	0	0	6.72	0.7	0.04	160633	0	5618	104317	160633	155015	1125	33	857	60	98433	1463991	2075
182	2016-01-27 02:12:25	0	0	0	0	0	0	6.72	0.7	0.04	160714	0	5625	104317	160714	155089	1125	33	858	60	98433	1464004	2076
183	2016-01-27 02:22:27	0	0	0	0	0	0	6.72	0.7	0.04	160761	0	5625	104317	160761	155136	1125	33	858	60	98433	1464013	2076
184	2016-01-27 02:32:27	0	0	0	0	0	0	6.72	0.7	0.04	160790	0	5626	104317	160790	155164	1125	33	859	60	98433	1464021	2077
185	2016-01-27 02:42:25	0	0	0	0	0	0	6.73	0.7	0.04	160838	0	5629	104345	160838	155209	1126	33	859	60	98458	1464030	2078
186	2016-01-27 02:52:25	0	0	0	0	0	0	6.73	0.7	0.04	160884	0	5632	104430	160884	155252	1127	33	859	60	98533	1464042	2079
187	2016-01-27 03:02:25	0	0	0	0	0	0	6.74	0.7	0.04	160896	0	5632	104430	160896	155264	1128	33	859	60	98533	1462844	2080
188	2016-01-27 03:12:27	0	0	0	0	0	0	6.74	0.7	0.04	160911	0	5633	104652	160911	155278	1128	33	859	60	98533	1462846	2080
189	2016-01-27 03:22:25	0	0	0	0	0	0	6.74	0.7	0.04	160959	0	5634	104680	160959	155325	1128	33	860	60	98558	1462856	2081
190	2016-01-27 03:32:24	0	0	0	0	0	0	6.74	0.7	0.04	160973	0	5634	104680	160973	155338	1128	33	860	60	98558	1462867	2081
191	2016-01-27 03:42:24	0	0	0	0	0	0	6.74	0.7	0.04	160998	0	5635	104680	160998	155363	1128	33	860	60	98558	1462872	2081
192	2016-01-27 03:52:25	0	0	0	0	0	0	6.74	0.7	0.04	160998	0	5635	104680	160998	155363	1128	33	860	60	98558	1462874	2081
193	2016-01-27 04:02:29	0	0	0	0	0	0	6.74	0.7	0.04	161021	0	5635	104680	161021	155386	1128	33	860	60	98558	1462876	2081
194	2016-01-27 04:12:26	0	0	0	0	0	0	6.74	0.7	0.04	161021	0	5635	104680	161021	155386	1128	33	860	60	98558	1462878	2081
195	2016-01-27 04:22:26	0	0	0	0	0	0	6.74	0.7	0.04	161056	0	5636	104737	161056	155420	1128	33	861	60	98608	1462878	2082
196	2016-01-27 04:32:28	0	0	0	0	0	0	6.74	0.7	0.04	161064	0	5636	104737	161064	155428	1129	33	861	60	98608	1462882	2083
197	2016-01-27 04:42:27	0	0	0	0	0	0	6.74	0.7	0.04	161064	0	5636	104737	161064	155428	1129	33	861	60	98608	1462890	2083
198	2016-01-27 04:52:27	0	0	0	0	0	0	6.75	0.7	0.04	161094	0	5637	104836	161094	155457	1129	33	861	60	98696	1462890	2083
199	2016-01-27 05:02:25	0	0	0	0	0	0	6.75	0.7	0.04	161104	0	5638	104836	161104	155466	1129	33	861	60	98696	1462893	2083
200	2016-01-27 05:12:26	0	0	0	0	0	0	6.75	0.7	0.04	161118	0	5638	104836	161118	155480	1129	33	863	60	98696	1462896	2085
201	2016-01-27 05:22:31	0	0	0	0	0	0	6.75	0.7	0.04	161125	0	5638	104836	161125	155487	1129	33	863	60	98696	1462895	2085
202	2016-01-27 05:32:31	0	0	0	0	0	0	6.75	0.7	0.04	161133	0	5638	104836	161133	155495	1129	33	863	60	98696	1462898	2085
203	2016-01-27 05:42:29	0	0	0	0	0	0	6.75	0.7	0.04	161150	0	5638	104836	161150	155512	1129	33	863	60	98696	1462904	2085
204	2016-01-27 05:52:25	0	0	0	0	0	0	6.75	0.7	0.04	161150	0	5638	104836	161150	155512	1129	33	863	60	98696	1462912	2085
205	2016-01-27 06:02:25	0	0	0	0	0	0	6.75	0.7	0.04	161165	0	5640	104836	161165	155525	1129	33	863	60	98696	1462914	2085
206	2016-01-27 06:12:26	0	0	0	0	0	0	6.75	0.7	0.04	161190	0	5640	104836	161190	155550	1129	33	863	60	98696	1462918	2085
207	2016-01-27 06:22:24	0	0	0	0	0	0	6.75	0.7	0.04	161202	0	5641	104836	161202	155561	1129	33	864	60	98696	1462922	2086
208	2016-01-27 06:32:29	0	0	0	0	0	0	6.75	0.7	0.04	161221	0	5642	104836	161221	155579	1130	33	864	60	98696	1462926	2087
209	2016-01-27 06:42:29	0	0	0	0	0	0	6.75	0.7	0.04	161226	0	5643	104836	161226	155583	1130	33	864	60	98696	1462931	2087
210	2016-01-27 06:52:31	0	0	0	0	0	0	6.75	0.7	0.04	161249	0	5644	104836	161249	155605	1131	33	864	60	98696	1462936	2088
211	2016-01-27 07:02:27	0	0	0	0	0	0	6.75	0.7	0.04	161249	0	5644	104836	161249	155605	1131	33	864	60	98696	1462942	2088
212	2016-01-27 07:12:25	0	0	0	0	0	0	6.77	0.7	0.04	161288	0	5645	105278	161288	155643	1132	33	864	60	99088	1462949	2089
213	2016-01-27 07:22:31	0	0	0	0	0	0	6.77	0.7	0.04	161319	0	5647	105278	161319	155672	1132	33	864	60	99088	1462961	2089
214	2016-01-27 07:32:25	0	0	0	0	0	0	6.77	0.7	0.04	161319	0	5647	105278	161319	155672	1132	33	864	60	99088	1462970	2089
215	2016-01-27 07:42:24	0	0	0	0	0	0	6.78	0.7	0.04	161359	0	5648	105321	161359	155711	1132	33	865	60	99126	1462976	2090
216	2016-01-27 07:52:27	0	0	0	0	0	0	6.78	0.7	0.04	161414	0	5652	105321	161414	155762	1133	33	865	60	99126	1462989	2091
217	2016-01-27 08:02:28	0	0	0	0	0	0	6.78	0.7	0.04	161440	0	5653	105321	161440	155787	1133	33	865	60	99126	1462999	2091
218	2016-01-27 08:12:27	0	0	0	0	0	0	6.78	0.7	0.04	161440	0	5653	105321	161440	155787	1133	33	865	60	99126	1463016	2091
219	2016-01-27 08:22:26	0	0	0	0	0	0	6.78	0.7	0.04	161495	0	5656	105350	161495	155839	1134	34	868	60	99151	1463032	2096
220	2016-01-27 08:32:25	0	0	0	0	0	0	6.78	0.7	0.04	161520	0	5660	105404	161520	155859	1134	34	868	60	99151	1463046	2096
221	2016-01-27 08:42:27	0	0	0	0	0	0	6.78	0.7	0.04	161536	0	5662	105418	161536	155874	1134	34	868	60	99164	1463060	2096
222	2016-01-27 08:52:27	0	0	0	0	0	0	6.78	0.7	0.04	161557	0	5665	105519	161557	155874	1134	34	868	60	99164	1463077	2096
223	2016-01-27 09:02:34	0	0	0	0	0	0	6.78	0.7	0.04	161572	0	5667	105519	161572	155905	1135	34	868	60	99253	1463091	2097
224	2016-01-27 09:12:29	0	0	0	0	0	0	6.78	0.7	0.04	161572	0	5667	105519	161572	155905	1135	34	868	60	99253	1463104	2097
225	2016-01-27 09:22:30	0	0	0	0	0	0	6.79	0.7	0.04	161594	0	5671	105576	161594	155923	1135	34	868	60	99304	1463127	2097
226	2016-01-27 09:32:30	0	0	0	0	0	0	6.79	0.7	0.04	161638	0	5675	105590	161638	155973	1135	34	868	60	99316	1463153	2097
227	2016-01-27 09:42:26	0	0	0	0	0	0	6.79	0.7	0.04	161670	0	5679	105590	161670	155973	1135	34	868	60	99316	1463168	2097
228	2016-01-27 09:52:31	0	0	0	0	0	0	6.79	0.7	0.04	161700	0	5681	105590	161700	156019	1136	34	868	60	99316	1463187	2098
229	2016-01-27 10:02:26	0	0	0	0	0	0	6.79	0.7	0.04	161724	0	5684	105604	161724	156040	1137	34	868	60	99316	1463208	2099
230	2016-01-27 10:12:36	0	0	0	0	0	0	6.79	0.7	0.04	161738	0	5684	105604	161738	156054	1137	34	868	60	99316	1463237	2099
231	2016-01-27 10:22:48	0	0	0	0	0	0	6.79	0.7	0.04	161764	0	5686	105604	161764	156078	1137	34	868	60	99316	1463270	2099
232	2016-01-27 10:32:37	0	0	0	0	0	0	6.79	0.7	0.04	161800	0	5686	105604	161800	156078	1137	34	868	60	99316	1463294	2099
233	2016-01-27 10:42:56	0	0	0	0	0	0	6.79	0.7	0.04	161815	0	5692	105604	161815	156108	1137	34	869	60	99316	1463330	2100
234	2016-01-27 10:52:31	0	0	0	0	0	0	6.79	0.7	0.04	161815	0	5693	105604	161815	156132	1139	34	869	60	99316	1463351	2102
235	2016-01-27 11:02:32	0	0	0	0	0	0	6.79	0.7	0.04	161857	0	5695	105658	161857	156162	1140	34	869	60	99364	1463381	2103
236	2016-01-27 11:12:45	0	0	0	0	0	0	6.79	0.7	0.04	161864	0	5695	105658	161864	156175	1140	34	869	60	99364	1463414	2103
237	2016-01-27 11:22:43	0	0	0	0	0	0	6.79	0.7	0.04	161888	0	5695	105658	161888	156185	1140	34	869	60	99364	1463449	2103
238	2016-01-27 11:32:44	0	0	0	0	0	0	6.79	0.7	0.04	161888	0	5695	105658	161888	156203	1141	34	869	60	99364	1463477	2104
239	2016-01-27 11:42:30	0	0	0	0	0	0	6.79	0.7	0.04	161912	0	5698	105658	161912	156228	1141	34	869	60	99364	1463505	2104
240	2016-01-27 11:52:37	0	0	0	0	0	0	6.79	0.7	0.04	161939	0	5699	105658	161939	156240	1141	34	869	60	99364	1463526	2104
241	2016-01-27 12:02:48	0	0	0	0	0	0	6.79	0.7	0.04	161959	0	5701	105658	161959	156258	1141	34	869	60	99364	1463556	2104
242	2016-01-27 12:12:34	0	0	0	0	0	0	6.79	0.7	0.04	161982	0	5702	105658	161982	156280	1141	34	869	60	99364	1463582	2104
243	2016-01-27 12:22:53	0	0	0	0	0	0	6.79	0.7	0.04	161996	0	5703	105658	161996	156293	1142	34	869	60	99364	1463604	2105
244	2016-01-27 12:32:36	0	0	0	0	0	0	6.79	0.7	0.04	162002	0	5703	105658	162002	156299	1142	34	869	60	99364	1463630	2105
245	2016-01-27 12:42:28	0	0	0	0	0	0	6.79	0.7	0.04	162013	0	5705	105658	162013	156308	1142	34	869	60	99364	1463657	2105
246	2016-01-27 12:52:57	0	0	0	0	0	0	6.79	0.7	0.04	162022	0	5705	105658	162022	156317	1142	34	869	60	99364	1463683	2105
247	2016-01-27 13:02:31	0	0	0	0	0	0	6.79	0.7	0.04	162043	0	5705	105658	162043	156338	1142	34	869	60	99364	1463710	2105
248	2016-01-27 13:13:02	0	0	0	0	0	0	6.79	0.7	0.04	162062	0	5708	105658	162062	156354	1142	34	869	60	99364	1463755	2105
249	2016-01-27 13:23:00	0	0	0	0	0	0	6.79	0.7	0.04	162067	0	5708	105658	162067	156359	1142	34	869	60	99364	1463790	2105
250	2016-01-27 13:32:31	0	0	0	0	0	0	6.79	0.7	0.04	162091	0	5709	105658	162091	156382	1142	34	869	60	99364	1463824	2105
251	2016-01-27 13:42:36	0	0	0	0	0	0	6.79	0.7	0.04	162108	0	5711	105658	162108	156397	1142	34	869	60	99364	1463881	2105
252	2016-01-27 13:52:39	0	0	0	0	0	0	6.79	0.7	0.04	162118	0	5711	105658	162118	156407	1142	34	869	60	99364	1463913	2105
253	2016-01-27 14:02:41	0	0	0	0	0	0	6.79	0.7	0.04	162128	0	5712	105658	162128	156416	1142	34	869	60	99364	1463948	2105
254	2016-01-27 14:12:32	0	0	0	0	0	0	6.79	0.7	0.04	162142	0	5714	105658	162142	156428	1142	34	869	60	99364	1463992	2105
255	2016-01-27 14:22:31	0	0	0	0	0	0	6.79	0.7	0.04	162156	0	5714	105658	162156	156442	1142	34	869	60	99364	1464027	2105
256	2016-01-27 14:32:31	0	0	0	0	0	0	6.79	0.7	0.04	162171	0	5717	105658	162171	156454	1142	34	869	60	99364	1464059	2105
257	2016-01-27 14:42:30	0	0	0	0	0	0	6.79	0.7	0.04	162171	0	5717	105658	162171	156454	1142	34	869	60	99364	1464086	2105
258	2016-01-27 14:52:55	0	0	0	0	0	0	6.79	0.7	0.04	162187	0	5718	105658	162187	156469	1142	34	869	60	99364	1464117	2105
259	2016-01-27 15:02:34	0	0	0	0	0	0	6.79	0.7	0.04	162187	0	5722	105658	162187	156469	1142	34	869	60	99364	1464149	2105
260	2016-01-27 15:12:44	0	0	0	0	0	0	6.79	0.7	0.04	162222	0	5722	105702	162222	156500	1142	34	869	60	99402	1464198	2105
261	2016-01-27 15:22:31	0	0	0	0	0	0	6.79	0.7	0.04	162237	0	5723	105702	162237	156514	1142	34	869	60	99402	1464240	2105
262	2016-01-27 15:32:37	0	0	0	0	0	0	6.79	0.7	0.04	162248	0	5725	105702	162248	156523	1142	34	869	60	99402	1464270	2105
263	2016-01-27 15:42:40	0	0	0	0	0	0	6.79	0.7	0.04	162263	0	5727	105702	162263	156536	1142	34	869	60	99402	1464304	2105
264	2016-01-27 15:52:34	0	0	0	0	0	0	6.79	0.7	0.04	162277	0	5728	105702	162277	156549	1142	34	869	60	99402	1464337	2105
265	2016-01-27 16:02:32	0	0	0	0	0	0	6.79	0.7	0.04	162289	0	5729	105702	162289	156560	1142	34	869	60	99402	1464357	2105
266	2016-01-27 16:12:32	0	0	0	0	0	0	6.79	0.7	0.04	162303	0	5731	105702	162303	156572	1142	34	869	60	99402	1464397	2105
267	2016-01-27 16:22:35	0	0	0	0	0	0	6.79	0.7	0.04	162319	0	5733	105702	162319	156586	1142	34	869	60	99402	1464426	2105
268	2016-01-27 16:32:34	0	0	0	0	0	0	6.79	0.7	0.04	162323	0	5733	105702	162323	156590	1142	34	869	60	99402	1464454	2105
269	2016-01-27 16:42:33	0	0	0	0	0	0	6.79	0.7	0.04	162340	0	5734	105702	162340	156590	1142	34	869	60	99402	1464476	2105
270	2016-01-27 16:52:35	0	0	0	0	0	0	6.79	0.7	0.04	162354	0	5735	105702	162354	156619	1142	34	869	60	99402	1464510	2105
271	2016-01-27 17:02:35	0	0	0	0	0	0	6.79	0.7	0.04	162354	0	5735	105702	162354	156619	1142	34	869	60	99402	1464538	2105
272	2016-01-27 17:12:34	0	0	0	0	0	0	6.79	0.7	0.04	162375	0	5736	105702	162375	156639	1142	34	869	60	99402	1464560	2105
273	2016-01-27 17:23:06	0	0	0	0	0	0	6.8	0.7	0.04	162384	0	5737	105875	162384	156647	1142	34	869	60	99556	1464583	2105
274	2016-01-27 17:32:31	0	0	0	0	0	0	6.8	0.7	0.04	162384	0	5737	105875	162384	156647	1142	34	869	60	99556	1464616	2105
275	2016-01-27 17:42:31	0	0	0	0	0	0	6.8	0.7	0.04	162411	0	5739	105875	162411	156672	1142	34	870	60	99556	1464646	2106
276	2016-01-27 17:52:38	0	0	0	0	0	0	6.81	0.7	0.04	162425	0	5741	106049	162425	156684	1142	34	870	60	99709	1464672	2106
277	2016-01-27 18:02:33	0	0	0	0	0	0	6.81	0.7	0.04	162425	0	5741	106049	162425	156684	1142	34	870	60	99709	1464705	2106
278	2016-01-27 18:12:35	0	0	0	0	0	0	6.82	0.7	0.04	162450	0	5743	106253	162450	156707	1143	34	870	60	99890	1464732	2107
279	2016-01-27 18:22:36	0	0	0	0	0	0	6.82	0.7	0.04	162464	0	5744	106253	162464	156720	1143	34	870	60	99890	1464765	2107
280	2016-01-27 18:32:36	0	0	0	0	0	0	6.82	0.7	0.04	162478	0	5747	106253	162478	156731	1143	34	870	60	99890	1464793	2107
281	2016-01-27 18:42:45	0	0	0	0	0	0	6.82	0.7	0.04	162493	0	5748	106253	162493	156745	1143	34	870	60	99890	1464810	2107
282	2016-01-27 18:52:36	0	0	0	0	0	0	6.82	0.7	0.04	162493	0	5748	106253	162493	156745	1143	34	870	60	99890	1464828	2107
283	2016-01-27 19:02:37	0	0	0	0	0	0	6.82	0.7	0.04	162518	0	5751	106253	162518	156767	1143	34	871	60	99890	1464865	2108
284	2016-01-27 19:12:32	0	0	0	0	0	0	6.82	0.7	0.04	162527	0	5751	106275	162527	156776	1143	34	871	60	99909	1464891	2108
285	2016-01-27 19:22:33	0	0	0	0	0	0	6.82	0.7	0.04	162541	0	5752	106275	162541	156789	1143	34	871	60	99909	1464925	2108
286	2016-01-27 19:32:32	0	0	0	0	0	0	6.82	0.7	0.04	162551	0	5752	106275	162551	156799	1143	34	871	60	99909	1464949	2108
287	2016-01-27 19:42:35	0	0	0	0	0	0	6.82	0.7	0.04	162562	0	5753	106275	162562	156809	1143	34	871	60	99909	1464977	2108
288	2016-01-27 19:52:35	0	0	0	0	0	0	6.82	0.7	0.04	162574	0	5757	106275	162574	156817	1143	34	871	60	99909	1464997	2108
289	2016-01-27 20:02:33	0	0	0	0	0	0	6.82	0.7	0.04	162574	0	5757	106275	162574	156817	1143	34	871	60	99909	1465023	2108
290	2016-01-27 20:12:35	0	0	0	0	0	0	6.82	0.7	0.04	162602	0	5761	106304	162602	156841	1143	34	871	60	99934	1465042	2108
291	2016-01-27 20:22:33	0	0	0	0	0	0	6.82	0.7	0.04	162620	0	5761	106304	162620	156859	1143	34	871	60	99934	1465062	2108
292	2016-01-27 20:32:34	0	0	0	0	0	0	6.82	0.7	0.04	162634	0	5761	106304	162634	156873	1143	34	871	60	99934	1465089	2108
293	2016-01-27 20:42:35	0	0	0	0	0	0	6.82	0.7	0.04	162642	0	5763	106326	162642	156879	1143	34	871	60	99954	1465112	2108
294	2016-01-27 20:52:32	0	0	0	0	0	0	6.82	0.7	0.04	162656	0	5764	106326	162656	156892	1143	34	871	60	99954	1465129	2108
295	2016-01-27 21:02:37	0	0	0	0	0	0	6.82	0.7	0.04	162665	0	5765	106326	162665	156900	1143	34	871	60	99954	1465160	2108
296	2016-01-27 21:12:36	0	0	0	0	0	0	6.82	0.7	0.04	162665	0	5765	106326	162665	156900	1143	34	871	60	99954	1465194	2108
297	2016-01-27 21:22:34	0	0	0	0	0	0	6.83	0.7	0.04	162697	0	5766	106384	162697	156931	1144	34	871	60	100006	1465215	2109
298	2016-01-27 21:32:37	0	0	0	0	0	0	6.83	0.7	0.04	162711	0	5767	106384	162711	156944	1144	34	871	60	100006	1465250	2109
299	2016-01-27 21:42:38	0	0	0	0	0	0	6.83	0.7	0.04	162728	0	5767	106384	162728	156961	1144	34	871	60	100006	1465272	2109
300	2016-01-27 21:52:36	0	0	0	0	0	0	6.82	0.7	0.04	162740	0	5769	106384	162740	156965	1144	34	871	60	100006	1465291	2109
301	2016-01-27 22:02:38	0	0	0	0	0	0	6.82	0.7	0.04	162746	0	5770	106384	162746	156976	1144	34	871	60	100006	1465312	2109
302	2016-01-27 22:12:34	0	0	0	0	0	0	6.82	0.7	0.04	162758	0	5772	106384	162758	156986	1144	34	871	60	100006	1465333	2109
303	2016-01-27 22:22:36	0	0	0	0	0	0	6.82	0.7	0.04	162765	0	5772	106384	162765	156993	1144	34	871	60	100006	1465362	2109
304	2016-01-27 22:32:35	0	0	0	0	0	0	6.82	0.7	0.04	162776	0	5775	106384	162776	157001	1144	34	871	60	100006	1465383	2109
305	2016-01-27 22:42:35	0	0	0	0	0	0	6.82	0.7	0.04	162789	0	5776	106384	162789	157013	1144	34	871	60	100006	1465411	2109
306	2016-01-27 22:52:34	0	0	0	0	0	0	6.82	0.7	0.04	162801	0	5777	106384	162801	157023	1145	34	871	60	100006	1465432	2110
307	2016-01-27 23:02:36	0	0	0	0	0	0	6.82	0.7	0.04	162808	0	5779	106384	162808	157029	1145	34	871	60	100006	1465447	2110
308	2016-01-27 23:12:39	0	0	0	0	0	0	6.82	0.7	0.04	162821	0	5782	106384	162821	157039	1145	34	871	60	100006	1465475	2110
309	2016-01-27 23:22:35	0	0	0	0	0	0	6.82	0.7	0.04	162821	0	5782	106384	162821	157039	1145	34	871	60	100006	1465502	2110
310	2016-01-27 23:32:35	0	0	0	0	0	0	6.82	0.7	0.04	162845	0	5784	106384	162845	157061	1145	34	871	60	100006	1465530	2110
311	2016-01-27 23:42:38	0	0	0	0	0	0	6.82	0.7	0.04	162857	0	5788	106384	162857	157069	1145	34	872	60	100006	1465554	2111
312	2016-01-27 23:52:38	0	0	0	0	0	0	6.82	0.7	0.04	162862	0	5788	106384	162862	157074	1145	34	872	60	100006	1465581	2111
313	2016-01-28 00:02:36	0	0	0	0	0	0	6.82	0.7	0.04	162862	0	5788	106384	162862	157074	1145	34	872	60	100006	1465612	2111
314	2016-01-28 00:12:40	0	0	0	0	0	0	6.83	0.7	0.04	162885	0	5789	106501	162885	157096	1145	34	872	60	100109	1465642	2111
315	2016-01-28 00:22:35	0	0	0	0	0	0	6.83	0.7	0.04	162903	0	5791	106501	162903	157112	1145	34	873	60	100109	1465651	2112
316	2016-01-28 00:32:34	0	0	0	0	0	0	6.83	0.7	0.04	162912	0	5794	106501	162912	157118	1145	34	873	60	100109	1465664	2112
317	2016-01-28 00:42:34	0	0	0	0	0	0	6.83	0.7	0.04	162927	0	5797	106501	162927	157130	1145	34	873	60	100109	1465685	2112
318	2016-01-28 00:52:37	0	0	0	0	0	0	6.83	0.7	0.04	162936	0	5801	106501	162936	157135	1145	34	873	60	100109	1465706	2112
319	2016-01-28 01:02:35	0	0	0	0	0	0	6.83	0.7	0.04	162948	0	5804	106501	162948	157144	1145	34	873	60	100109	1465723	2112
320	2016-01-28 01:12:37	0	0	0	0	0	0	6.83	0.7	0.04	162950	0	5804	106501	162950	157145	1145	34	873	60	100109	1465738	2112
321	2016-01-28 01:22:34	0	0	0	0	0	0	6.83	0.7	0.04	162957	0	5805	106501	162957	157152	1145	34	873	60	100109	1465755	2112
322	2016-01-28 01:32:34	0	0	0	0	0	0	6.83	0.7	0.04	162964	0	5805	106501	162964	157159	1145	34	873	60	100109	1465767	2112
323	2016-01-28 01:42:37	0	0	0	0	0	0	6.83	0.7	0.04	162966	0	5805	106501	162966	157161	1145	34	873	60	100109	1465782	2112
324	2016-01-28 01:52:37	0	0	0	0	0	0	6.83	0.7	0.04	162966	0	5805	106501	162966	157161	1145	34	873	60	100109	1465791	2112
325	2016-01-28 02:02:34	0	0	0	0	0	0	6.83	0.7	0.04	162978	0	5805	106501	162978	157173	1145	34	873	60	100109	1465802	2112
326	2016-01-28 02:12:34	0	0	0	0	0	0	6.83	0.7	0.04	162980	0	5805	106501	162980	157175	1145	34	873	60	100109	1465814	2112
327	2016-01-28 02:22:37	0	0	0	0	0	0	6.83	0.7	0.04	162982	0	5805	106501	162982	157177	1145	34	873	60	100109	1465820	2112
328	2016-01-28 02:32:41	0	0	0	0	0	0	6.83	0.7	0.04	162983	0	5805	106501	162983	157178	1145	34	873	60	100109	1465827	2112
329	2016-01-28 02:42:38	0	0	0	0	0	0	6.83	0.7	0.04	162983	0	5805	106560	162983	157178	1145	34	873	60	100109	1465830	2112
330	2016-01-28 02:52:35	0	0	0	0	0	0	6.83	0.7	0.04	162987	0	5806	106560	162987	157181	1146	34	873	60	100109	1465833	2113
331	2016-01-28 03:02:35	0	0	0	0	0	0	6.84	0.7	0.04	162988	0	5806	106560	162988	157182	1146	34	873	60	100109	1463417	2113
332	2016-01-28 03:12:33	0	0	0	0	0	0	6.84	0.7	0.04	162988	0	5806	106560	162988	157182	1146	34	873	60	100109	1463421	2113
333	2016-01-28 03:22:41	0	0	0	0	0	0	6.84	0.7	0.04	162992	0	5808	106560	162992	157184	1146	34	873	60	100109	1463419	2113
334	2016-01-28 03:32:35	0	0	0	0	0	0	6.84	0.7	0.04	162993	0	5808	106560	162993	157185	1146	34	873	60	100109	1463422	2113
335	2016-01-28 03:42:35	0	0	0	0	0	0	6.84	0.7	0.04	162994	0	5808	106560	162994	157186	1146	34	873	60	100109	1463424	2113
336	2016-01-28 03:52:35	0	0	0	0	0	0	6.84	0.7	0.04	162994	0	5808	106560	162994	157186	1146	34	873	60	100109	1463428	2113
337	2016-01-28 04:02:35	0	0	0	0	0	0	6.84	0.7	0.04	162994	0	5808	106560	162994	157186	1146	34	873	60	100109	1463431	2113
338	2016-01-28 04:12:36	0	0	0	0	0	0	6.84	0.7	0.04	162995	0	5808	106560	162995	157187	1146	34	873	60	100109	1463430	2113
339	2016-01-28 04:22:34	0	0	0	0	0	0	6.84	0.7	0.04	162995	0	5808	106560	162995	157187	1146	34	873	60	100109	1463429	2113
340	2016-01-28 04:32:38	0	0	0	0	0	0	6.84	0.7	0.04	162996	0	5808	106560	162996	157188	1146	34	873	60	100109	1463431	2113
341	2016-01-28 04:42:35	0	0	0	0	0	0	6.84	0.7	0.04	162997	0	5808	106560	162997	157189	1146	34	873	60	100109	1463433	2113
342	2016-01-28 04:52:34	0	0	0	0	0	0	6.84	0.7	0.04	162998	0	5808	106560	162998	157190	1146	34	873	60	100109	1463435	2113
343	2016-01-28 05:02:37	0	0	0	0	0	0	6.84	0.7	0.04	162999	0	5808	106560	162999	157191	1146	34	873	60	100109	1463435	2113
344	2016-01-28 05:12:37	0	0	0	0	0	0	6.84	0.7	0.04	162999	0	5808	106560	162999	157191	1146	34	873	60	100109	1463436	2113
345	2016-01-28 05:22:38	0	0	0	0	0	0	6.84	0.7	0.04	163000	0	5809	106560	163000	157191	1147	34	873	60	100109	1463436	2114
346	2016-01-28 05:32:35	0	0	0	0	0	0	6.84	0.7	0.04	163000	0	5809	106560	163000	157191	1147	34	873	60	100109	1463436	2114
347	2016-01-28 05:42:34	0	0	0	0	0	0	6.84	0.7	0.04	163000	0	5809	106560	163000	157191	1147	34	873	60	100109	1463438	2114
348	2016-01-28 05:52:37	0	0	0	0	0	0	6.84	0.7	0.04	163001	0	5809	106560	163001	157192	1147	34	873	60	100109	1463443	2114
349	2016-01-28 06:02:35	0	0	0	0	0	0	6.84	0.7	0.04	163001	0	5809	106560	163001	157192	1147	34	873	60	100109	1463446	2114
350	2016-01-28 06:12:33	0	0	0	0	0	0	6.84	0.7	0.04	163003	0	5809	106560	163003	157194	1147	34	873	60	100109	1463447	2114
351	2016-01-28 06:22:34	0	0	0	0	0	0	6.84	0.7	0.04	163004	0	5809	106560	163004	157195	1147	34	873	60	100109	1463448	2114
352	2016-01-28 06:32:38	0	0	0	0	0	0	6.84	0.7	0.04	163004	0	5809	106560	163004	157195	1147	34	873	60	100109	1463449	2114
353	2016-01-28 06:42:38	0	0	0	0	0	0	6.84	0.7	0.04	163005	0	5809	106560	163005	157196	1147	34	873	60	100109	1463453	2114
354	2016-01-28 06:52:37	0	0	0	0	0	0	6.84	0.7	0.04	163005	0	5809	106560	163005	157196	1147	34	873	60	100109	1463457	2114
355	2016-01-28 07:02:35	0	0	0	0	0	0	6.84	0.7	0.04	163005	0	5809	106560	163005	157196	1147	34	873	60	100109	1463457	2114
356	2016-01-28 07:12:37	0	0	0	0	0	0	6.84	0.7	0.04	163006	0	5810	106560	163006	157196	1147	34	873	60	100109	1463464	2114
357	2016-01-28 07:22:47	0	0	0	0	0	0	6.84	0.7	0.04	163006	0	5810	106560	163006	157196	1147	34	873	60	100109	1463468	2114
358	2016-01-28 07:32:48	0	0	0	0	0	0	6.84	0.7	0.04	163006	0	5810	106560	163006	157196	1147	34	873	60	100109	1463472	2114
359	2016-01-28 07:42:38	0	0	0	0	0	0	6.84	0.7	0.04	163006	0	5810	106560	163006	157196	1147	34	873	60	100109	1463476	2114
360	2016-01-28 07:52:37	0	0	0	0	0	0	6.84	0.7	0.04	163009	0	5810	106560	163009	157199	1147	34	873	60	100109	1463483	2114
361	2016-01-28 08:02:36	0	0	0	0	0	0	6.84	0.7	0.04	163010	0	5810	106560	163010	157200	1147	34	873	60	100109	1463492	2114
362	2016-01-28 08:12:39	0	0	0	0	0	0	6.84	0.7	0.04	163010	0	5810	106560	163010	157200	1147	34	873	60	100109	1463501	2114
363	2016-01-28 08:22:41	0	0	0	0	0	0	6.84	0.7	0.04	163013	0	5811	106560	163013	157202	1147	34	873	60	100109	1463502	2114
364	2016-01-28 08:32:35	0	0	0	0	0	0	6.84	0.7	0.04	163013	0	5811	106560	163013	157202	1147	34	873	60	100109	1463516	2114
365	2016-01-28 08:42:36	0	0	0	0	0	0	6.84	0.7	0.04	163015	0	5811	106560	163015	157204	1147	34	873	60	100109	1463525	2114
366	2016-01-28 08:52:39	0	0	0	0	0	0	6.84	0.7	0.04	163017	0	5812	106560	163017	157205	1147	34	873	60	100109	1463540	2114
367	2016-01-28 09:02:39	0	0	0	0	0	0	6.84	0.7	0.04	163021	0	5813	106560	163021	157208	1147	34	873	60	100109	1463543	2114
368	2016-01-28 09:12:41	0	0	0	0	0	0	6.84	0.7	0.04	163021	0	5813	106560	163021	157208	1147	34	873	60	100109	1463556	2114
369	2016-01-28 09:22:40	0	0	0	0	0	0	6.84	0.7	0.04	163021	0	5813	106560	163021	157208	1147	34	873	60	100109	1463567	2114
370	2016-01-28 09:32:42	0	0	0	0	0	0	6.84	0.7	0.04	163023	0	5813	106560	163023	157210	1147	34	873	60	100109	1463584	2114
371	2016-01-28 09:42:43	0	0	0	0	0	0	6.84	0.7	0.04	163025	0	5813	106560	163025	157212	1147	34	873	60	100109	1463595	2114
372	2016-01-28 09:52:40	0	0	0	0	0	0	6.84	0.7	0.04	163025	0	5813	106560	163025	157212	1147	34	873	60	100109	1463607	2114
373	2016-01-28 10:02:44	0	0	0	0	0	0	6.84	0.7	0.04	163034	0	5813	106560	163034	157221	1147	34	873	60	100109	1463612	2114
374	2016-01-28 10:12:40	0	0	0	0	0	0	6.84	0.7	0.04	163034	0	5813	106560	163034	157221	1147	34	873	60	100109	1463622	2114
375	2016-01-28 10:22:39	0	0	0	0	0	0	6.84	0.7	0.04	163041	0	5815	106560	163041	157226	1147	34	873	60	100109	1463638	2114
376	2016-01-28 10:32:44	0	0	0	0	0	0	6.84	0.7	0.04	163041	0	5815	106560	163041	157226	1147	34	873	60	100109	1463648	2114
377	2016-01-28 10:42:45	0	0	0	0	0	0	6.84	0.7	0.04	163042	0	5815	106560	163042	157227	1147	34	873	60	100109	1463657	2114
378	2016-01-28 10:52:45	0	0	0	0	0	0	6.84	0.7	0.04	163042	0	5815	106560	163042	157227	1147	34	873	60	100109	1463669	2114
379	2016-01-28 11:02:44	0	0	0	0	0	0	6.84	0.7	0.04	163045	0	5815	106560	163045	157230	1147	34	873	60	100109	1463685	2114
380	2016-01-28 11:12:41	0	0	0	0	0	0	6.84	0.7	0.04	163045	0	5815	106560	163045	157237	1147	34	873	60	100109	1463692	2114
381	2016-01-28 11:22:43	0	0	0	0	0	0	6.84	0.7	0.04	163056	0	5815	106560	163056	157241	1147	34	873	60	100109	1463703	2114
382	2016-01-28 11:32:44	0	0	0	0	0	0	6.84	0.7	0.04	163059	0	5815	106560	163059	157244	1147	34	873	60	100109	1463720	2114
383	2016-01-28 11:43:09	0	0	0	0	0	0	6.84	0.7	0.04	163064	0	5815	106560	163064	157249	1147	34	873	60	100109	1463742	2114
384	2016-01-28 11:52:45	0	0	0	0	0	0	6.84	0.7	0.04	163064	0	5815	106560	163064	157250	1147	34	873	60	100109	1463753	2114
385	2016-01-28 12:02:39	0	0	0	0	0	0	6.84	0.7	0.04	163068	0	5815	106560	163068	157250	1147	34	873	60	100109	1463772	2114
386	2016-01-28 12:12:39	0	0	0	0	0	0	6.84	0.7	0.04	163072	0	5815	106560	163072	157257	1147	34	873	60	100109	1463791	2114
387	2016-01-28 12:22:34	0	0	0	0	0	0	6.84	0.7	0.04	163072	0	5815	106560	163072	157257	1147	34	873	60	100109	1463807	2114
388	2016-01-28 12:32:47	0	0	0	0	0	0	6.84	0.7	0.04	163076	0	5816	106560	163076	157260	1147	34	873	60	100109	1463814	2114
389	2016-01-28 12:42:39	0	0	0	0	0	0	6.84	0.7	0.04	163079	0	5816	106560	163079	157263	1147	34	873	60	100109	1463829	2114
390	2016-01-28 12:52:36	0	0	0	0	0	0	6.84	0.7	0.04	163079	0	5816	106560	163079	157263	1147	34	873	60	100109	1463840	2114
391	2016-01-28 13:02:35	0	0	0	0	0	0	6.84	0.7	0.04	163083	0	5816	106560	163083	157267	1147	34	873	60	100109	1463852	2114
392	2016-01-28 13:12:39	0	0	0	0	0	0	6.84	0.7	0.04	163084	0	5816	106560	163084	157268	1147	34	873	60	100109	1463864	2114
393	2016-01-28 13:22:37	0	0	0	0	0	0	6.84	0.7	0.04	163092	0	5816	106560	163092	157276	1147	34	873	60	100135	1463868	2114
394	2016-01-28 13:32:45	0	0	0	0	0	0	6.84	0.7	0.04	163093	0	5816	106589	163093	157277	1147	34	873	60	100135	1463884	2114
395	2016-01-28 13:42:38	0	0	0	0	0	0	6.84	0.7	0.04	163095	0	5816	106589	163095	157279	1147	34	873	60	100135	1463890	2114
396	2016-01-28 13:52:35	0	0	0	0	0	0	6.84	0.7	0.04	163095	0	5816	106589	163095	157279	1147	34	873	60	100135	1463910	2114
397	2016-01-28 14:02:42	0	0	0	0	0	0	6.84	0.7	0.04	163100	0	5816	106589	163100	157284	1147	34	873	60	100135	1463933	2114
398	2016-01-28 14:12:48	0	0	0	0	0	0	6.84	0.7	0.04	163104	0	5816	106589	163104	157288	1147	34	873	60	100135	1463942	2114
399	2016-01-28 14:22:37	0	0	0	0	0	0	6.84	0.7	0.04	163104	0	5816	106589	163104	157288	1147	34	873	60	100135	1463962	2114
400	2016-01-28 14:32:40	0	0	0	0	0	0	6.84	0.7	0.04	163110	0	5816	106589	163110	157294	1147	34	873	60	100135	1463980	2114
401	2016-01-28 14:42:41	0	0	0	0	0	0	6.84	0.7	0.04	163113	0	5816	106589	163113	157297	1147	34	873	60	100135	1463991	2114
402	2016-01-28 14:52:42	0	0	0	0	0	0	6.84	0.7	0.04	163116	0	5816	106589	163116	157300	1147	34	873	60	100135	1464007	2114
403	2016-01-28 15:02:39	0	0	0	0	0	0	6.84	0.7	0.04	163121	0	5817	106589	163121	157304	1147	34	873	60	100135	1464031	2114
404	2016-01-28 15:12:42	0	0	0	0	0	0	6.84	0.7	0.04	163124	0	5817	106589	163124	157307	1147	34	873	60	100135	1464045	2114
405	2016-01-28 15:22:41	0	0	0	0	0	0	6.84	0.7	0.04	163131	0	5817	106589	163131	157314	1147	34	873	60	100135	1464066	2114
406	2016-01-28 15:32:41	0	0	0	0	0	0	6.84	0.7	0.04	163131	0	5817	106589	163131	157314	1147	34	873	60	100135	1464076	2114
407	2016-01-28 15:42:39	0	0	0	0	0	0	6.84	0.7	0.04	163141	0	5817	106589	163141	157324	1147	34	873	60	100135	1464095	2114
408	2016-01-28 15:52:42	0	0	0	0	0	0	6.84	0.7	0.04	163143	0	5817	106589	163143	157326	1147	34	873	60	100135	1464114	2114
409	2016-01-28 16:02:38	0	0	0	0	0	0	6.84	0.7	0.04	163148	0	5818	106589	163148	157330	1147	34	873	60	100135	1464123	2114
410	2016-01-28 16:13:01	0	0	0	0	0	0	6.84	0.7	0.04	163151	0	5818	106589	163151	157333	1147	34	873	60	100135	1464139	2114
411	2016-01-28 16:22:41	0	0	0	0	0	0	6.84	0.7	0.04	163152	0	5818	106589	163152	157334	1147	34	873	60	100135	1464160	2114
412	2016-01-28 16:32:39	0	0	0	0	0	0	6.84	0.7	0.04	163152	0	5818	106589	163152	157334	1147	34	873	60	100135	1464185	2114
413	2016-01-28 16:42:42	0	0	0	0	0	0	6.84	0.7	0.04	163160	0	5818	106589	163160	157342	1147	34	873	60	100135	1464201	2114
414	2016-01-28 16:52:44	0	0	0	0	0	0	6.84	0.7	0.04	163166	0	5819	106589	163166	157347	1147	34	873	60	100135	1464220	2114
415	2016-01-28 17:02:40	0	0	0	0	0	0	6.84	0.7	0.04	163168	0	5819	106589	163168	157349	1147	34	873	60	100135	1464244	2114
416	2016-01-28 17:12:43	0	0	0	0	0	0	6.84	0.7	0.04	163169	0	5819	106589	163169	157350	1147	34	873	60	100135	1464252	2114
417	2016-01-28 17:22:39	0	0	0	0	0	0	6.84	0.7	0.04	163169	0	5819	106589	163169	157350	1147	34	873	60	100135	1464274	2114
418	2016-01-28 17:32:49	0	0	0	0	0	0	6.84	0.7	0.04	163180	0	5820	106618	163180	157360	1147	34	873	60	100160	1464288	2114
419	2016-01-28 17:42:39	0	0	0	0	0	0	6.84	0.7	0.04	163180	0	5820	106618	163180	157360	1147	34	873	60	100160	1464302	2114
420	2016-01-28 17:52:50	0	0	0	0	0	0	6.84	0.7	0.04	163184	0	5820	106618	163184	157364	1147	34	873	60	100160	1464312	2114
421	2016-01-28 18:02:40	0	0	0	0	0	0	6.84	0.7	0.04	163190	0	5820	106618	163190	157370	1147	34	873	60	100160	1464325	2114
422	2016-01-28 18:13:00	0	0	0	0	0	0	6.84	0.7	0.04	163192	0	5820	106618	163192	157372	1147	34	873	60	100160	1464341	2114
423	2016-01-28 18:22:45	0	0	0	0	0	0	6.84	0.7	0.04	163192	0	5820	106618	163192	157372	1147	34	873	60	100160	1464353	2114
424	2016-01-28 18:32:47	0	0	0	0	0	0	6.84	0.7	0.04	163196	0	5820	106618	163196	157376	1147	34	873	60	100160	1464367	2114
425	2016-01-28 18:42:44	0	0	0	0	0	0	6.84	0.7	0.04	163198	0	5820	106618	163198	157378	1147	34	873	60	100160	1464388	2114
426	2016-01-28 18:52:48	0	0	0	0	0	0	6.84	0.7	0.04	163199	0	5820	106618	163199	157379	1147	34	873	60	100160	1464404	2114
427	2016-01-28 19:02:55	0	0	0	0	0	0	6.84	0.7	0.04	163204	0	5821	106618	163204	157383	1147	34	873	60	100160	1464416	2114
428	2016-01-28 19:13:32	0	0	0	0	0	0	6.84	0.7	0.04	163207	0	5821	106618	163207	157386	1147	34	873	60	100160	1464431	2114
429	2016-01-28 19:22:45	0	0	0	0	0	0	6.84	0.7	0.04	163209	0	5821	106618	163209	157388	1147	34	873	60	100160	1464444	2114
430	2016-01-28 19:32:46	0	0	0	0	0	0	6.84	0.7	0.04	163213	0	5821	106618	163213	157392	1147	34	873	60	100160	1464471	2114
431	2016-01-28 19:42:51	0	0	0	0	0	0	6.84	0.7	0.04	163221	0	5821	106618	163221	157400	1147	34	873	60	100160	1464507	2114
432	2016-01-28 19:52:43	0	0	0	0	0	0	6.84	0.7	0.04	163221	0	5821	106618	163221	157400	1147	34	873	60	100160	1464556	2114
