1	2015-11-12 23:07:07	0	0	0	0	0	0	0.6	0.15	0	9087	0	12	7791	9087	9075	14	3	44	2	7741	1285585	63
2	2015-11-12 23:17:07	0	0	0	0	0	0	0.6	0.15	0	9087	0	12	7791	9087	9075	14	3	44	2	7741	1285604	63
3	2015-11-12 23:27:08	0	0	0	0	0	0	1.13	0.18	0.01	20517	0	119	14729	20517	20398	36	9	128	7	14548	1285639	180
4	2015-11-12 23:37:08	0	0	0	0	0	0	1.34	0.2	0.01	25115	0	187	17512	25115	24928	51	11	159	7	17197	1285658	228
5	2015-11-12 23:47:09	0	0	0	0	0	0	1.42	0.2	0.01	26853	0	230	17512	26853	26623	53	11	159	7	18212	1285677	230
6	2015-11-12 23:57:10	0	0	0	0	0	0	1.56	0.19	0.01	30319	0	316	20530	30319	30003	59	14	209	11	20058	1285700	293
7	2015-11-13 00:07:22	0	0	0	0	0	0	1.69	0.21	0.01	33066	0	428	22132	33066	32638	70	15	226	13	21706	1285729	324
8	2015-11-13 00:17:30	0	0	0	0	0	0	1.74	0.21	0.01	34093	0	476	22863	34093	33617	73	15	233	13	22393	1285751	334
9	2015-11-13 00:27:33	0	0	0	0	0	0	1.82	0.22	0.02	36109	0	599	24018	36109	35510	81	16	246	13	23390	1285772	356
10	2015-11-13 00:37:33	0	0	0	0	0	0	1.87	0.23	0.02	36952	0	645	24682	36952	36307	85	16	251	13	24031	1285798	365
11	2015-11-13 00:47:34	0	0	0	0	0	0	1.94	0.24	0.02	38544	0	714	25725	38544	37830	93	16	263	13	24989	1285820	385
12	2015-11-13 00:57:56	0	0	0	0	0	0	2.01	0.25	0.02	39766	0	759	26606	39766	39007	100	16	272	13	25813	1285828	401
13	2015-11-13 01:07:57	0	0	0	0	0	0	2.03	0.25	0.02	40267	0	780	26881	40267	39487	101	16	278	13	26100	1285842	408
14	2015-11-13 01:17:59	0	0	0	0	0	0	2.08	0.25	0.02	41315	0	824	27546	41315	40491	105	16	282	13	26733	1285882	416
15	2015-11-13 01:27:59	0	0	0	0	0	0	2.08	0.25	0.02	41315	0	824	27546	41315	40491	105	16	282	13	26733	1285908	416
16	2015-11-13 01:37:59	0	0	0	0	0	0	2.16	0.26	0.02	42921	0	877	28756	42921	42044	111	16	289	15	27813	1285926	431
17	2015-11-13 01:48:00	0	0	0	0	0	0	2.21	0.26	0.02	43746	0	917	29254	43746	42829	114	16	293	15	28374	1285942	438
18	2015-11-13 01:58:02	0	0	0	0	0	0	2.24	0.26	0.02	44392	0	955	29718	44392	43437	116	16	298	15	28818	1285952	445
19	2015-11-13 02:08:02	0	0	0	0	0	0	2.26	0.26	0.02	45016	0	989	30053	45016	44027	117	16	302	15	29114	1285963	450
20	2015-11-13 02:18:06	0	0	0	0	0	0	2.27	0.26	0.02	45308	0	1003	30116	45308	44305	117	16	305	15	29173	1285969	453
21	2015-11-13 02:28:17	0	0	0	0	0	0	2.29	0.26	0.02	45806	0	1031	30416	45806	44775	118	16	307	15	29446	1285978	456
22	2015-11-13 02:38:30	0	0	0	0	0	0	2.31	0.26	0.02	46280	0	1051	30716	46280	45229	119	17	308	15	29708	1285988	459
23	2015-11-13 02:48:47	0	0	0	0	0	0	2.33	0.25	0.02	46702	0	1068	31084	46702	45634	119	17	310	15	29983	1285990	461
24	2015-11-13 02:59:05	0	0	0	0	0	0	2.34	0.25	0.02	46956	0	1077	31213	46956	45879	119	17	314	15	30075	1285990	465
25	2015-11-13 03:09:28	0	0	0	0	0	0	2.36	0.26	0.02	47321	0	1087	31470	47321	46234	121	17	315	15	30376	1285757	468
26	2015-11-13 03:19:29	0	0	0	0	0	0	2.37	0.26	0.02	47466	0	1092	31537	47466	46374	122	17	315	15	30457	1285761	469
27	2015-11-13 03:29:30	0	0	0	0	0	0	2.38	0.26	0.02	47796	0	1104	31723	47796	46692	124	17	315	15	30630	1285764	471
28	2015-11-13 03:39:30	0	0	0	0	0	0	2.38	0.26	0.02	47796	0	1104	31723	47796	46692	124	17	315	15	30630	1285765	471
29	2015-11-13 03:49:31	0	0	0	0	0	0	2.41	0.26	0.02	48174	0	1112	32041	48174	47062	126	17	316	15	30926	1285767	474
30	2015-11-13 03:59:32	0	0	0	0	0	0	2.42	0.26	0.02	48400	0	1117	32195	48400	47283	128	17	316	15	31070	1285768	476
31	2015-11-13 04:09:50	0	0	0	0	0	0	2.42	0.27	0.02	48584	0	1122	32308	48584	47462	130	17	317	15	31175	1285769	479
32	2015-11-13 04:19:50	0	0	0	0	0	0	2.43	0.27	0.02	48675	0	1122	32439	48675	47553	130	17	317	15	31289	1285769	479
33	2015-11-13 04:29:52	0	0	0	0	0	0	2.44	0.27	0.02	48834	0	1127	32509	48834	47707	130	17	317	15	31343	1285771	479
34	2015-11-13 04:39:55	0	0	0	0	0	0	2.44	0.27	0.02	49024	0	1132	32546	49024	47892	130	17	318	15	31378	1285770	480
35	2015-11-13 04:49:55	0	0	0	0	0	0	2.44	0.27	0.02	49024	0	1132	32546	49024	47892	130	17	318	15	31378	1285771	480
36	2015-11-13 05:00:00	0	0	0	0	0	0	2.44	0.27	0.02	49275	0	1142	32577	49275	48133	132	17	318	15	31437	1285773	482
37	2015-11-13 05:10:08	0	0	0	0	0	0	2.46	0.27	0.02	49407	0	1142	32748	49407	48199	132	17	318	15	31566	1285776	482
38	2015-11-13 05:20:08	0	0	0	0	0	0	2.46	0.27	0.02	49472	0	1147	32752	49472	48325	133	17	319	15	31570	1285776	484
39	2015-11-13 05:30:10	0	0	0	0	0	0	2.47	0.27	0.02	49612	0	1151	32891	49612	48461	133	17	320	15	31698	1285776	485
40	2015-11-13 05:40:26	0	0	0	0	0	0	2.47	0.27	0.02	49718	0	1153	32936	49718	48565	133	17	320	15	31761	1285775	485
41	2015-11-13 05:50:26	0	0	0	0	0	0	2.47	0.27	0.02	49785	0	1156	32992	49785	48629	133	17	320	15	31813	1285775	485
42	2015-11-13 06:00:48	0	0	0	0	0	0	2.49	0.27	0.02	49930	0	1160	33193	49930	48770	135	17	320	15	32000	1285775	487
43	2015-11-13 06:10:49	0	0	0	0	0	0	2.49	0.27	0.02	50085	0	1165	33276	50085	48920	135	17	320	15	32077	1285776	487
44	2015-11-13 06:20:52	0	0	0	0	0	0	2.49	0.27	0.02	50162	0	1168	33276	50162	48994	135	17	321	15	32077	1285780	488
45	2015-11-13 06:30:59	0	0	0	0	0	0	2.5	0.27	0.02	50343	0	1177	33371	50343	49166	136	17	321	15	32165	1285781	489
46	2015-11-13 06:40:59	0	0	0	0	0	0	2.5	0.27	0.02	50343	0	1177	33371	50343	49166	136	17	321	15	32165	1285784	489
47	2015-11-13 06:51:03	0	0	0	0	0	0	2.51	0.27	0.02	50772	0	1196	33544	50772	49576	137	17	324	15	32283	1285787	493
48	2015-11-13 07:01:03	0	0	0	0	0	0	2.52	0.27	0.02	50892	0	1202	33665	50892	49690	138	17	326	15	32395	1285788	496
49	2015-11-13 07:11:04	0	0	0	0	0	0	2.53	0.27	0.02	51187	0	1212	33837	51187	49975	139	17	328	18	32553	1285794	502
50	2015-11-13 07:21:05	0	0	0	0	0	0	2.55	0.27	0.02	51568	0	1224	34107	51568	50344	140	17	328	18	32803	1285798	503
51	2015-11-13 07:31:06	0	0	0	0	0	0	2.55	0.27	0.02	51743	0	1229	34131	51743	50514	140	17	329	18	32824	1285804	504
52	2015-11-13 07:41:07	0	0	0	0	0	0	2.58	0.27	0.02	52100	0	1252	34413	52100	50848	142	17	330	19	33187	1285807	508
53	2015-11-13 07:51:08	0	0	0	0	0	0	2.6	0.28	0.02	52543	0	1279	34579	52543	51264	145	17	335	19	33368	1285814	516
54	2015-11-13 08:01:09	0	0	0	0	0	0	2.62	0.28	0.03	52837	0	1298	34941	52837	51539	146	17	336	19	33695	1285818	518
55	2015-11-13 08:11:10	0	0	0	0	0	0	2.63	0.28	0.03	53306	0	1327	35140	53306	51979	149	17	341	19	33867	1285827	526
56	2015-11-13 08:21:11	0	0	0	0	0	0	2.67	0.28	0.03	53853	0	1347	35536	53853	52506	150	17	343	19	34271	1285829	529
57	2015-11-13 08:31:12	0	0	0	0	0	0	2.67	0.28	0.03	54212	0	1359	35638	54212	52853	150	17	345	19	34391	1285836	531
58	2015-11-13 08:41:14	0	0	0	0	0	0	2.7	0.28	0.03	54796	0	1388	36014	54796	53408	152	17	352	19	34737	1285841	540
59	2015-11-13 08:51:17	0	0	0	0	0	0	2.73	0.28	0.03	55113	0	1412	36345	55113	53701	153	17	356	19	35099	1285847	545
60	2015-11-13 09:01:24	0	0	0	0	0	0	2.77	0.28	0.03	55748	0	1448	36796	55748	54300	155	17	359	20	35572	1285845	551
61	2015-11-13 09:11:28	0	0	0	0	0	0	2.77	0.28	0.03	56139	0	1470	36900	56139	54669	157	17	363	20	35681	1285857	557
62	2015-11-13 09:21:37	0	0	0	0	0	0	2.81	0.28	0.03	56898	0	1504	37451	56898	55394	159	18	367	20	36183	1285866	564
63	2015-11-13 09:31:37	0	0	0	0	0	0	2.83	0.28	0.03	57270	0	1521	37726	57270	55749	162	18	369	20	36422	1285874	569
64	2015-11-13 09:41:49	0	0	0	0	0	0	2.89	0.28	0.03	57957	0	1552	38354	57957	56405	162	18	373	21	37118	1285887	574
65	2015-11-13 09:51:51	0	0	0	0	0	0	2.93	0.29	0.03	58686	0	1581	39011	58686	57105	170	18	376	21	37652	1285896	585
66	2015-11-13 10:01:51	0	0	0	0	0	0	2.93	0.29	0.03	58686	0	1581	39011	58686	57105	170	18	376	21	37652	1285902	585
67	2015-11-13 10:11:53	0	0	0	0	0	0	2.97	0.3	0.03	59716	0	1629	39585	59716	58087	179	18	384	21	38225	1285908	602
68	2015-11-13 10:22:14	0	0	0	0	0	0	3	0.32	0.03	60480	0	1656	40090	60480	58824	191	18	386	22	38621	1285921	617
69	2015-11-13 10:32:19	0	0	0	0	0	0	3.03	0.34	0.03	61217	0	1680	40505	61217	59537	207	18	395	22	39007	1285941	642
70	2015-11-13 10:42:21	0	0	0	0	0	0	3.07	0.35	0.03	61606	0	1697	40915	61606	59909	218	18	397	22	39418	1285955	655
71	2015-11-13 10:52:23	0	0	0	0	0	0	3.09	0.36	0.03	62258	0	1724	41259	62258	60534	223	18	402	22	39738	1285968	665
72	2015-11-13 11:02:51	0	0	0	0	0	0	3.12	0.37	0.03	62854	0	1745	41592	62854	61109	234	19	406	22	40088	1285989	681
73	2015-11-13 11:12:51	0	0	0	0	0	0	3.13	0.38	0.03	63102	0	1755	41708	63102	61347	241	19	408	22	40188	1285999	690
74	2015-11-13 11:23:19	0	0	0	0	0	0	3.15	0.39	0.03	63655	0	1769	42105	63655	61886	247	19	410	22	40556	1286019	698
75	2015-11-13 11:33:19	0	0	0	0	0	0	3.18	0.4	0.03	64227	0	1789	42431	64227	62438	254	19	414	22	40876	1286028	709
76	2015-11-13 11:43:21	0	0	0	0	0	0	3.18	0.4	0.03	64523	0	1800	42497	64523	62723	258	19	417	22	40954	1286042	716
77	2015-11-13 11:53:24	0	0	0	0	0	0	3.2	0.4	0.03	65048	0	1821	42751	65048	63227	262	19	419	22	41190	1286055	722
78	2015-11-13 12:03:24	0	0	0	0	0	0	3.2	0.4	0.03	65048	0	1821	42751	65048	63227	262	19	419	22	41190	1286071	722
79	2015-11-13 12:13:26	0	0	0	0	0	0	3.25	0.42	0.03	66023	0	1860	43346	66023	64163	275	19	425	22	41763	1286085	741
80	2015-11-13 12:23:28	0	0	0	0	0	0	3.26	0.42	0.03	66455	0	1884	43516	66455	64571	277	19	430	22	41894	1286096	748
81	2015-11-13 12:33:38	0	0	0	0	0	0	3.27	0.42	0.03	66722	0	1889	43702	66722	64833	282	19	434	22	42103	1286107	757
82	2015-11-13 12:43:40	0	0	0	0	0	0	3.3	0.43	0.03	67273	0	1912	44093	67273	65361	290	19	438	22	42409	1286119	769
83	2015-11-13 12:53:38	0	0	0	0	0	0	3.3	0.43	0.03	67273	0	1912	44093	67273	65361	290	19	438	22	42409	1286133	769
84	2015-11-13 13:03:40	0	0	0	0	0	0	3.33	0.43	0.03	68007	0	1951	44668	68007	66056	295	19	442	22	42841	1286144	778
85	2015-11-13 13:13:42	0	0	0	0	0	0	3.34	0.44	0.03	68544	0	1978	44854	68544	66566	305	19	445	22	43013	1286155	791
86	2015-11-13 13:23:53	0	0	0	0	0	0	3.36	0.45	0.03	68828	0	1989	45145	68828	66839	311	19	446	22	43279	1286170	798
87	2015-11-13 13:33:51	0	0	0	0	0	0	3.36	0.45	0.03	68828	0	1989	45145	68828	66839	311	19	446	22	43279	1286184	798
88	2015-11-13 13:43:55	0	0	0	0	0	0	3.42	0.47	0.03	69697	0	2017	45848	69697	67680	326	19	450	22	44015	1286191	817
89	2015-11-13 13:53:54	0	0	0	0	0	0	3.42	0.47	0.03	69697	0	2017	45848	69697	67680	326	19	450	22	44015	1286203	817
90	2015-11-13 14:03:55	0	0	0	0	0	0	3.44	0.49	0.03	70331	0	2048	46113	70331	68283	342	19	452	23	44300	1286217	836
91	2015-11-13 14:13:58	0	0	0	0	0	0	3.45	0.49	0.03	70551	0	2058	46190	70551	68493	343	19	455	23	44371	1286229	840
92	2015-11-13 14:23:58	0	0	0	0	0	0	3.46	0.49	0.03	70928	0	2079	46309	70928	68849	349	20	458	23	44481	1286239	850
93	2015-11-13 14:33:59	0	0	0	0	0	0	3.47	0.49	0.03	71168	0	2090	46425	71168	69078	351	20	460	23	44616	1286243	854
94	2015-11-13 14:44:00	0	0	0	0	0	0	3.49	0.5	0.03	71549	0	2108	46755	71549	69441	358	20	463	23	44921	1286260	864
95	2015-11-13 14:54:09	0	0	0	0	0	0	3.51	0.51	0.03	71992	0	2129	47027	71992	69863	365	20	465	23	45119	1286268	873
96	2015-11-13 15:04:11	0	0	0	0	0	0	3.52	0.51	0.03	72192	0	2140	47222	72192	70052	369	20	468	23	45277	1286274	880
97	2015-11-13 15:14:12	0	0	0	0	0	0	3.53	0.52	0.03	72571	0	2174	47366	72571	70397	376	20	469	23	45453	1286285	888
98	2015-11-13 15:24:13	0	0	0	0	0	0	3.55	0.52	0.03	72752	0	2184	47547	72752	70568	379	20	472	23	45619	1286299	894
99	2015-11-13 15:34:14	0	0	0	0	0	0	3.57	0.53	0.03	73103	0	2200	47905	73103	70903	384	20	472	23	45886	1286302	899
100	2015-11-13 15:44:29	0	0	0	0	0	0	3.57	0.53	0.03	73412	0	2218	47959	73412	71194	389	20	474	23	45935	1286307	906
101	2015-11-13 15:54:47	0	0	0	0	0	0	3.58	0.53	0.03	73804	0	2229	48054	73804	71575	391	20	479	23	46066	1286315	913
102	2015-11-13 16:05:06	0	0	0	0	0	0	3.58	0.53	0.03	74187	0	2241	48066	74187	71946	393	20	482	23	46066	1286326	918
103	2015-11-13 16:15:22	0	0	0	0	0	0	3.6	0.53	0.03	74338	0	2248	48314	74338	72090	396	20	486	23	46294	1286339	925
104	2015-11-13 16:25:25	0	0	0	0	0	0	3.6	0.53	0.03	74705	0	2258	48401	74705	72447	397	21	490	23	46369	1286355	931
105	2015-11-13 16:35:26	0	0	0	0	0	0	3.62	0.54	0.03	75106	0	2278	48712	75106	72828	404	22	493	23	46626	1286366	942
106	2015-11-13 16:45:26	0	0	0	0	0	0	3.63	0.54	0.03	75254	0	2286	48790	75254	72968	407	22	494	23	46698	1286385	946
107	2015-11-13 16:55:27	0	0	0	0	0	0	3.65	0.54	0.03	75654	0	2305	49023	75654	73349	409	22	494	23	46900	1286398	948
108	2015-11-13 17:05:30	0	0	0	0	0	0	3.67	0.54	0.03	75999	0	2317	49383	75999	73682	413	22	497	23	47275	1286406	955
109	2015-11-13 17:15:31	0	0	0	0	0	0	3.68	0.54	0.03	76181	0	2329	49465	76181	73852	415	22	499	23	47339	1286418	959
110	2015-11-13 17:25:33	0	0	0	0	0	0	3.69	0.54	0.03	76519	0	2347	49615	76519	74172	417	22	501	23	47477	1286431	963
111	2015-11-13 17:35:34	0	0	0	0	0	0	3.7	0.55	0.03	76845	0	2354	49736	76845	74491	419	22	502	23	47587	1286443	966
112	2015-11-13 17:46:01	0	0	0	0	0	0	3.7	0.55	0.03	77117	0	2366	49887	77117	74751	421	22	504	23	47643	1286456	970
113	2015-11-13 17:55:59	0	0	0	0	0	0	3.7	0.55	0.03	77117	0	2366	49887	77117	74751	421	22	504	23	47643	1286470	970
114	2015-11-13 18:06:27	0	0	0	0	0	0	3.72	0.55	0.03	77585	0	2384	50123	77585	75201	424	22	507	23	47852	1286483	976
115	2015-11-13 18:16:29	0	0	0	0	0	0	3.73	0.55	0.03	77826	0	2397	50201	77826	75429	425	22	510	23	47923	1286496	980
116	2015-11-13 18:26:30	0	0	0	0	0	0	3.74	0.55	0.03	78127	0	2409	50364	78127	75718	427	22	513	23	48072	1286513	985
117	2015-11-13 18:36:36	0	0	0	0	0	0	3.74	0.55	0.03	78270	0	2413	50469	78270	75857	430	22	514	23	48168	1286530	989
118	2015-11-13 18:41:33	0	0	0	0	0	0	3.74	0.55	0.03	78270	0	2413	50469	78270	75857	430	22	514	23	48168	1286535	989
119	2015-11-13 18:51:35	0	0	0	0	0	0	3.76	0.55	0.03	78650	0	2429	50624	78650	76221	434	22	516	23	48382	1286542	995
120	2015-11-13 19:01:34	0	0	0	0	0	0	3.76	0.55	0.03	78650	0	2429	50624	78650	76221	434	22	516	23	48382	1286553	995
121	2015-11-13 19:11:33	0	0	0	0	0	0	3.77	0.55	0.03	79011	0	2449	50795	79011	76562	436	22	520	23	48538	1286565	1001
122	2015-11-13 19:21:31	0	0	0	0	0	0	3.77	0.55	0.03	79011	0	2449	50795	79011	76562	436	22	520	23	48538	1286579	1001
123	2015-11-13 19:31:30	0	0	0	0	0	0	3.79	0.55	0.03	79409	0	2471	50864	79409	76938	437	22	523	23	48710	1286595	1005
124	2015-11-13 19:41:30	0	0	0	0	0	0	3.81	0.55	0.03	79661	0	2480	51265	79661	77181	437	22	524	23	49078	1286609	1006
125	2015-11-13 19:51:29	0	0	0	0	0	0	3.81	0.55	0.03	79661	0	2480	51265	79661	77181	437	22	524	23	49078	1286618	1006
126	2015-11-13 20:01:30	0	0	0	0	0	0	3.84	0.55	0.03	80047	0	2497	51675	80047	77550	439	22	525	23	49454	1286632	1009
127	2015-11-13 20:11:30	0	0	0	0	0	0	3.85	0.55	0.03	80236	0	2508	51727	80236	77728	441	22	528	23	49501	1286647	1014
128	2015-11-13 20:21:31	0	0	0	0	0	0	3.85	0.55	0.03	80348	0	2516	51824	80348	77832	442	22	530	23	49590	1286663	1017
129	2015-11-13 20:31:30	0	0	0	0	0	0	3.85	0.55	0.03	80348	0	2516	51824	80348	77832	442	22	530	23	49590	1286681	1017
130	2015-11-13 20:41:31	0	0	0	0	0	0	3.87	0.55	0.03	80739	0	2536	52031	80739	78203	445	22	532	23	49767	1286700	1022
131	2015-11-13 20:51:29	0	0	0	0	0	0	3.87	0.55	0.03	80739	0	2536	52031	80739	78203	445	22	532	23	49767	1286722	1022
132	2015-11-13 21:01:31	0	0	0	0	0	0	3.88	0.55	0.03	81258	0	2557	52228	81258	78701	449	23	537	23	49889	1286728	1032
133	2015-11-13 21:11:30	0	0	0	0	0	0	3.88	0.55	0.03	81258	0	2557	52228	81258	78701	449	23	537	23	49889	1286745	1032
134	2015-11-13 21:21:29	0	0	0	0	0	0	3.89	0.55	0.03	81578	0	2583	52382	81578	78995	451	23	539	23	50016	1286764	1036
135	2015-11-13 21:31:30	0	0	0	0	0	0	3.89	0.55	0.03	81803	0	2594	52456	81803	79209	452	24	542	23	50084	1286779	1041
136	2015-11-13 21:41:36	0	0	0	0	0	0	3.9	0.55	0.03	81928	0	2603	52529	81928	79325	452	24	542	23	50151	1286793	1041
137	2015-11-13 21:51:38	0	0	0	0	0	0	3.91	0.55	0.03	82211	0	2614	52747	82211	79597	455	24	545	24	50363	1286808	1048
138	2015-11-13 22:01:34	0	0	0	0	0	0	3.91	0.55	0.03	82211	0	2614	52747	82211	79597	455	24	545	24	50363	1286816	1048
139	2015-11-13 22:11:31	0	0	0	0	0	0	3.93	0.55	0.03	82686	0	2652	53057	82686	80034	456	24	548	24	50598	1286829	1052
140	2015-11-13 22:21:30	0	0	0	0	0	0	3.93	0.55	0.03	82686	0	2652	53057	82686	80034	456	24	548	24	50598	1286843	1052
141	2015-11-13 22:31:31	0	0	0	0	0	0	3.95	0.55	0.03	83043	0	2675	53266	83043	80368	457	24	550	24	50789	1286864	1055
142	2015-11-13 22:41:31	0	0	0	0	0	0	3.95	0.55	0.03	83043	0	2675	53266	83043	80368	457	24	550	24	50789	1286884	1055
143	2015-11-13 22:51:31	0	0	0	0	0	0	3.97	0.55	0.03	83407	0	2701	53726	83407	80706	457	24	553	24	51136	1286904	1058
144	2015-11-13 23:01:31	0	0	0	0	0	0	3.97	0.55	0.03	83407	0	2701	53726	83407	80706	457	24	553	24	51136	1286929	1058
145	2015-11-13 23:11:31	0	0	0	0	0	0	3.99	0.55	0.03	83851	0	2727	53953	83851	81124	460	24	555	24	51376	1286961	1063
146	2015-11-13 23:21:32	0	0	0	0	0	0	4.01	0.55	0.03	84141	0	2741	54104	84141	81400	461	24	560	25	51567	1286999	1070
147	2015-11-13 23:31:30	0	0	0	0	0	0	4.01	0.55	0.03	84141	0	2741	54104	84141	81400	461	24	560	25	51567	1287018	1070
148	2015-11-13 23:41:31	0	0	0	0	0	0	4.01	0.55	0.03	84520	0	2765	54316	84520	81755	467	24	563	25	51649	1287034	1079
149	2015-11-13 23:51:32	0	0	0	0	0	0	4.02	0.55	0.03	84757	0	2771	54445	84757	81986	470	24	564	25	51766	1287062	1083
150	2015-11-14 00:01:33	0	0	0	0	0	0	4.02	0.55	0.03	84861	0	2776	54452	84861	82085	470	24	564	25	51773	1287088	1083
151	2015-11-14 00:11:39	0	0	0	0	0	0	4.03	0.55	0.03	85045	0	2789	54498	85045	82256	470	25	565	25	51814	1287105	1085
152	2015-11-14 00:21:36	0	0	0	0	0	0	4.03	0.55	0.03	85045	0	2789	54498	85045	82256	470	25	565	25	51814	1287127	1085
153	2015-11-14 00:31:31	0	0	0	0	0	0	4.04	0.55	0.03	85285	0	2804	54675	85285	82481	472	25	566	25	51974	1287137	1088
154	2015-11-14 00:41:31	0	0	0	0	0	0	4.04	0.55	0.03	85434	0	2812	54770	85434	82622	472	25	567	25	52031	1287153	1089
155	2015-11-14 00:51:31	0	0	0	0	0	0	4.04	0.55	0.03	85434	0	2812	54770	85434	82622	473	25	567	25	52031	1287165	1090
156	2015-11-14 01:01:31	0	0	0	0	0	0	4.04	0.55	0.03	85728	0	2894	54878	85728	82834	474	26	569	25	52042	1287185	1094
157	2015-11-14 01:11:31	0	0	0	0	0	0	4.05	0.55	0.04	85877	0	2930	55102	85877	82947	475	26	569	25	52144	1287192	1095
158	2015-11-14 01:21:31	0	0	0	0	0	0	4.05	0.55	0.04	85877	0	2930	55102	85877	82947	475	26	569	25	52144	1287213	1095
159	2015-11-14 01:31:31	0	0	0	0	0	0	4.06	0.55	0.04	86066	0	2962	55273	86066	83104	475	26	569	25	52298	1287246	1095
160	2015-11-14 01:41:32	0	0	0	0	0	0	4.07	0.55	0.04	86123	0	2967	55342	86123	83156	475	26	570	25	52359	1287270	1096
161	2015-11-14 01:51:30	0	0	0	0	0	0	4.07	0.55	0.04	86123	0	2967	55342	86123	83156	475	26	570	25	52359	1287287	1096
162	2015-11-14 02:01:34	0	0	0	0	0	0	4.09	0.55	0.04	86317	0	2991	55645	86317	83326	477	26	571	25	52630	1287303	1099
163	2015-11-14 02:11:35	0	0	0	0	0	0	4.09	0.55	0.04	86363	0	2996	55693	86363	83367	477	26	573	25	52673	1287312	1101
164	2015-11-14 02:21:37	0	0	0	0	0	0	4.09	0.55	0.04	86441	0	2999	55693	86441	83442	477	26	576	25	52673	1287322	1104
165	2015-11-14 02:31:30	0	0	0	0	0	0	4.09	0.55	0.04	86441	0	2999	55693	86441	83442	477	26	576	25	52673	1287327	1104
166	2015-11-14 02:41:31	0	0	0	0	0	0	4.09	0.55	0.04	86560	0	3014	55709	86560	83546	478	26	576	25	52687	1287332	1105
167	2015-11-14 02:51:31	0	0	0	0	0	0	4.09	0.55	0.04	86560	0	3014	55709	86560	83546	478	26	576	25	52687	1287335	1105
168	2015-11-14 03:01:31	0	0	0	0	0	0	4.09	0.55	0.04	86661	0	3027	55749	86661	83634	478	26	577	25	52716	1287767	1106
169	2015-11-14 03:11:30	0	0	0	0	0	0	4.09	0.55	0.04	86661	0	3027	55749	86661	83634	478	26	577	25	52716	1287773	1106
170	2015-11-14 03:21:31	0	0	0	0	0	0	4.1	0.55	0.04	86713	0	3032	55781	86713	83681	478	26	577	25	52745	1287776	1106
171	2015-11-14 03:31:31	0	0	0	0	0	0	4.1	0.55	0.04	86732	0	3032	55805	86732	83700	479	26	577	25	52766	1287782	1107
172	2015-11-14 03:41:30	0	0	0	0	0	0	4.1	0.55	0.04	86732	0	3032	55805	86732	83700	479	26	577	25	52766	1287787	1107
173	2015-11-14 03:51:31	0	0	0	0	0	0	4.11	0.55	0.04	86807	0	3038	55833	86807	83769	480	26	577	25	52878	1287789	1108
174	2015-11-14 04:01:30	0	0	0	0	0	0	4.11	0.55	0.04	86807	0	3038	55833	86807	83769	480	26	577	25	52878	1287789	1108
175	2015-11-14 04:11:32	0	0	0	0	0	0	4.11	0.55	0.04	86849	0	3041	55833	86849	83808	481	26	577	25	52893	1287791	1109
176	2015-11-14 04:21:31	0	0	0	0	0	0	4.11	0.55	0.04	86849	0	3041	55833	86849	83808	481	26	577	25	52893	1287791	1109
177	2015-11-14 04:31:32	0	0	0	0	0	0	4.11	0.55	0.04	86889	0	3045	55865	86889	83844	481	26	577	25	52921	1287795	1109
178	2015-11-14 04:41:30	0	0	0	0	0	0	4.11	0.55	0.04	86889	0	3045	55865	86889	83844	481	26	577	25	52921	1287794	1109
179	2015-11-14 04:51:31	0	0	0	0	0	0	4.11	0.55	0.04	86917	0	3047	55865	86917	83870	481	26	577	25	52921	1287796	1109
180	2015-11-14 05:01:31	0	0	0	0	0	0	4.11	0.55	0.04	86917	0	3047	55865	86917	83870	481	26	577	25	52921	1287799	1109
181	2015-11-14 05:11:31	0	0	0	0	0	0	4.11	0.55	0.04	86957	0	3049	55865	86957	83908	482	26	577	25	52921	1287799	1110
182	2015-11-14 05:21:31	0	0	0	0	0	0	4.11	0.55	0.04	86965	0	3049	55865	86965	83916	482	26	577	25	52921	1287801	1110
183	2015-11-14 05:31:31	0	0	0	0	0	0	4.11	0.55	0.04	86989	0	3050	55865	86989	83939	482	26	577	25	52921	1287803	1110
184	2015-11-14 05:41:30	0	0	0	0	0	0	4.11	0.55	0.04	86989	0	3050	55865	86989	83939	482	26	577	25	52921	1287802	1110
185	2015-11-14 05:51:31	0	0	0	0	0	0	4.11	0.56	0.04	87019	0	3051	55906	87019	83968	483	26	577	25	52987	1287804	1111
186	2015-11-14 06:01:30	0	0	0	0	0	0	4.11	0.56	0.04	87019	0	3051	55906	87019	83968	483	26	577	25	52987	1287806	1111
187	2015-11-14 06:11:31	0	0	0	0	0	0	4.12	0.55	0.04	87056	0	3056	55970	87056	84000	483	26	577	25	53045	1287808	1111
188	2015-11-14 06:21:30	0	0	0	0	0	0	4.12	0.55	0.04	87056	0	3056	55970	87056	84000	483	26	577	25	53045	1287812	1111
189	2015-11-14 06:31:32	0	0	0	0	0	0	4.12	0.55	0.04	87096	0	3060	55970	87096	84036	483	26	577	25	53045	1287816	1111
190	2015-11-14 06:41:31	0	0	0	0	0	0	4.12	0.55	0.04	87096	0	3060	55970	87096	84036	483	26	577	25	53045	1287820	1111
191	2015-11-14 06:51:31	0	0	0	0	0	0	4.12	0.55	0.04	87141	0	3062	55970	87141	84079	483	26	578	25	53045	1287821	1112
192	2015-11-14 07:01:30	0	0	0	0	0	0	4.12	0.55	0.04	87141	0	3062	55970	87141	84079	483	26	578	25	53045	1287823	1112
193	2015-11-14 07:11:31	0	0	0	0	0	0	4.12	0.56	0.04	87182	0	3065	55987	87182	84117	484	26	578	25	53059	1287824	1113
194	2015-11-14 07:21:31	0	0	0	0	0	0	4.12	0.55	0.04	87215	0	3067	55987	87215	84148	484	26	578	25	53059	1287823	1113
195	2015-11-14 07:31:31	0	0	0	0	0	0	4.12	0.55	0.04	87215	0	3067	55987	87215	84148	484	26	578	25	53059	1287828	1113
196	2015-11-14 07:41:31	0	0	0	0	0	0	4.12	0.55	0.04	87281	0	3072	55987	87281	84209	484	26	578	25	53059	1287829	1113
197	2015-11-14 07:51:30	0	0	0	0	0	0	4.12	0.55	0.04	87281	0	3072	55987	87281	84209	484	26	578	25	53059	1287832	1113
198	2015-11-14 08:01:31	0	0	0	0	0	0	4.13	0.55	0.04	87369	0	3082	56095	87369	84287	484	26	580	25	53128	1287836	1115
199	2015-11-14 08:11:31	0	0	0	0	0	0	4.13	0.55	0.04	87369	0	3082	56095	87369	84287	484	26	580	25	53128	1287839	1115
200	2015-11-14 08:21:31	0	0	0	0	0	0	4.13	0.56	0.04	87499	0	3096	56095	87499	84403	486	26	580	25	53128	1287846	1117
201	2015-11-14 08:31:31	0	0	0	0	0	0	4.13	0.56	0.04	87499	0	3096	56095	87499	84403	486	26	580	25	53128	1287849	1117
202	2015-11-14 08:41:31	0	0	0	0	0	0	4.13	0.55	0.04	87591	0	3103	56111	87591	84488	486	26	580	25	53142	1287859	1117
203	2015-11-14 08:51:31	0	0	0	0	0	0	4.13	0.55	0.04	87591	0	3103	56111	87591	84488	486	26	580	25	53142	1287868	1117
204	2015-11-14 09:01:31	0	0	0	0	0	0	4.13	0.55	0.04	87726	0	3108	56192	87726	84618	486	26	584	25	53215	1287884	1121
205	2015-11-14 09:11:31	0	0	0	0	0	0	4.13	0.55	0.04	87726	0	3108	56192	87726	84618	486	26	584	25	53215	1287887	1121
206	2015-11-14 09:21:31	0	0	0	0	0	0	4.14	0.55	0.04	87889	0	3115	56290	87889	84774	487	26	585	25	53288	1287898	1123
207	2015-11-14 09:31:33	0	0	0	0	0	0	4.14	0.55	0.04	87945	0	3117	56307	87945	84828	487	26	585	25	53303	1287906	1123
208	2015-11-14 09:41:31	0	0	0	0	0	0	4.14	0.55	0.04	87945	0	3117	56307	87945	84828	487	26	585	25	53303	1287909	1123
209	2015-11-14 09:51:32	0	0	0	0	0	0	4.16	0.55	0.04	88130	0	3127	56647	88130	85003	487	26	588	25	53607	1287920	1126
210	2015-11-14 10:01:31	0	0	0	0	0	0	4.16	0.55	0.04	88130	0	3127	56647	88130	85003	487	26	588	25	53607	1287930	1126
211	2015-11-14 10:11:33	0	0	0	0	0	0	4.18	0.55	0.04	88272	0	3133	56964	88272	85139	487	26	589	25	53891	1287953	1127
212	2015-11-14 10:21:30	0	0	0	0	0	0	4.18	0.55	0.04	88272	0	3133	56964	88272	85139	487	26	589	25	53891	1287973	1127
213	2015-11-14 10:31:32	0	0	0	0	0	0	4.19	0.55	0.04	88423	0	3142	57119	88423	85281	488	26	589	25	54030	1287992	1128
214	2015-11-14 10:41:31	0	0	0	0	0	0	4.19	0.55	0.04	88423	0	3142	57119	88423	85281	488	26	589	25	54030	1288006	1128
215	2015-11-14 10:51:32	0	0	0	0	0	0	4.2	0.55	0.04	88553	0	3152	57128	88553	85401	488	26	589	25	54038	1288011	1128
216	2015-11-14 11:01:32	0	0	0	0	0	0	4.2	0.55	0.04	88659	0	3157	57136	88659	85502	489	26	589	25	54045	1288018	1129
217	2015-11-14 11:11:35	0	0	0	0	0	0	4.2	0.55	0.04	88704	0	3160	57136	88704	85544	489	26	589	25	54045	1288039	1129
218	2015-11-14 11:21:33	0	0	0	0	0	0	4.2	0.55	0.04	88704	0	3160	57136	88704	85544	489	26	589	25	54045	1288050	1129
219	2015-11-14 11:31:34	0	0	0	0	0	0	4.2	0.55	0.04	88831	0	3168	57220	88831	85663	489	26	589	25	54121	1288065	1129
220	2015-11-14 11:41:32	0	0	0	0	0	0	4.2	0.55	0.04	88831	0	3168	57220	88831	85663	489	26	589	25	54121	1288080	1129
221	2015-11-14 11:51:33	0	0	0	0	0	0	4.21	0.55	0.04	88881	0	3174	57348	88881	85707	489	26	589	25	54235	1288104	1129
222	2015-11-14 12:01:34	0	0	0	0	0	0	4.21	0.55	0.04	88920	0	3176	57352	88920	85744	489	26	589	25	54238	1288128	1129
223	2015-11-14 12:11:34	0	0	0	0	0	0	4.21	0.55	0.04	88937	0	3178	57352	88937	85759	489	26	589	25	54238	1288140	1129
224	2015-11-14 12:21:34	0	0	0	0	0	0	4.21	0.55	0.04	88974	0	3182	57352	88974	85792	489	26	589	25	54238	1288156	1129
225	2015-11-14 12:31:39	0	0	0	0	0	0	4.21	0.55	0.04	88986	0	3183	57382	88986	85803	489	26	589	25	54238	1288167	1129
226	2015-11-14 12:41:40	0	0	0	0	0	0	4.21	0.55	0.04	89016	0	3188	57398	89016	85828	489	26	589	25	54238	1288177	1129
227	2015-11-14 12:51:37	0	0	0	0	0	0	4.21	0.55	0.04	89016	0	3188	57398	89016	85828	489	26	589	25	54238	1288198	1129
228	2015-11-14 13:01:35	0	0	0	0	0	0	4.21	0.55	0.04	89054	0	3195	57431	89054	85859	489	26	589	25	54268	1288214	1129
229	2015-11-14 13:11:35	0	0	0	0	0	0	4.22	0.55	0.04	89072	0	3197	57482	89072	85875	489	26	589	25	54314	1288239	1129
230	2015-11-14 13:21:34	0	0	0	0	0	0	4.22	0.55	0.04	89072	0	3197	57482	89072	85875	489	26	589	25	54314	1288255	1129
231	2015-11-14 13:31:36	0	0	0	0	0	0	4.22	0.55	0.04	89131	0	3203	57482	89131	85928	489	26	589	25	54314	1288280	1129
232	2015-11-14 13:41:35	0	0	0	0	0	0	4.22	0.55	0.04	89131	0	3203	57482	89131	85928	489	26	589	25	54314	1288294	1129
233	2015-11-14 13:51:36	0	0	0	0	0	0	4.22	0.55	0.04	89158	0	3207	57482	89158	85951	489	26	589	25	54314	1288310	1129
234	2015-11-14 14:01:35	0	0	0	0	0	0	4.22	0.55	0.04	89158	0	3207	57482	89158	85951	489	26	589	25	54314	1288329	1129
235	2015-11-14 14:11:42	0	0	0	0	0	0	4.22	0.55	0.04	89188	0	3212	57482	89188	85976	489	26	589	25	54314	1288345	1129
236	2015-11-14 14:21:35	0	0	0	0	0	0	4.22	0.55	0.04	89188	0	3212	57482	89188	85976	489	26	589	25	54314	1288363	1129
237	2015-11-14 14:31:40	0	0	0	0	0	0	4.22	0.55	0.04	89227	0	3217	57482	89227	86010	489	26	589	25	54314	1288383	1129
238	2015-11-14 14:41:34	0	0	0	0	0	0	4.22	0.55	0.04	89227	0	3217	57482	89227	86010	489	26	589	25	54314	1288396	1129
239	2015-11-14 14:51:35	0	0	0	0	0	0	4.22	0.55	0.04	89255	0	3220	57482	89255	86035	489	26	589	25	54314	1288426	1129
240	2015-11-14 15:01:36	0	0	0	0	0	0	4.22	0.55	0.04	89267	0	3220	57482	89267	86047	489	26	589	25	54314	1288447	1129
241	2015-11-14 15:11:37	0	0	0	0	0	0	4.22	0.55	0.04	89279	0	3220	57482	89279	86059	489	26	589	25	54314	1288463	1129
242	2015-11-14 15:21:35	0	0	0	0	0	0	4.22	0.55	0.04	89279	0	3220	57482	89279	86059	489	26	589	25	54314	1288477	1129
243	2015-11-14 15:31:37	0	0	0	0	0	0	4.23	0.55	0.04	89317	0	3226	57737	89317	86091	489	26	589	25	54542	1288488	1129
244	2015-11-14 15:41:36	0	0	0	0	0	0	4.23	0.55	0.04	89317	0	3226	57737	89317	86091	489	26	589	25	54542	1288506	1129
245	2015-11-14 15:51:35	0	0	0	0	0	0	4.23	0.55	0.04	89341	0	3228	57737	89341	86113	489	26	589	25	54542	1288523	1129
246	2015-11-14 16:01:36	0	0	0	0	0	0	4.24	0.55	0.04	89356	0	3230	57858	89356	86126	489	26	589	25	54649	1288533	1129
247	2015-11-14 16:11:35	0	0	0	0	0	0	4.24	0.55	0.04	89356	0	3230	57858	89356	86126	489	26	589	25	54649	1288548	1129
248	2015-11-14 16:21:36	0	0	0	0	0	0	4.24	0.55	0.04	89385	0	3232	57889	89385	86153	489	26	589	25	54649	1288562	1129
249	2015-11-14 16:31:35	0	0	0	0	0	0	4.24	0.55	0.04	89385	0	3232	57889	89385	86153	489	26	589	25	54649	1288582	1129
250	2015-11-14 16:41:36	0	0	0	0	0	0	4.24	0.55	0.04	89405	0	3235	57889	89405	86170	489	26	589	25	54649	1288592	1129
251	2015-11-14 16:51:35	0	0	0	0	0	0	4.24	0.55	0.04	89405	0	3235	57889	89405	86170	489	26	589	25	54649	1288607	1129
252	2015-11-14 17:01:36	0	0	0	0	0	0	4.24	0.55	0.04	89431	0	3240	57923	89431	86191	489	26	589	25	54680	1288624	1129
253	2015-11-14 17:11:39	0	0	0	0	0	0	4.24	0.55	0.04	89443	0	3242	57923	89443	86201	489	26	589	25	54680	1288636	1129
254	2015-11-14 17:21:37	0	0	0	0	0	0	4.24	0.55	0.04	89443	0	3242	57923	89443	86201	489	26	589	25	54680	1288658	1129
255	2015-11-14 17:31:38	0	0	0	0	0	0	4.24	0.55	0.04	89471	0	3244	57923	89471	86227	489	26	589	25	54680	1288660	1129
256	2015-11-14 17:41:35	0	0	0	0	0	0	4.24	0.55	0.04	89471	0	3244	57923	89471	86227	489	26	589	25	54680	1288668	1129
257	2015-11-14 17:51:37	0	0	0	0	0	0	4.24	0.55	0.04	89494	0	3247	57923	89494	86247	489	26	589	25	54680	1288683	1129
258	2015-11-14 18:01:37	0	0	0	0	0	0	4.25	0.55	0.04	89515	0	3249	57975	89515	86266	489	26	589	25	54727	1288697	1129
259	2015-11-14 18:11:35	0	0	0	0	0	0	4.25	0.55	0.04	89515	0	3249	57975	89515	86266	489	26	589	25	54727	1288708	1129
260	2015-11-14 18:21:37	0	0	0	0	0	0	4.25	0.55	0.04	89538	0	3252	57975	89538	86286	489	26	589	25	54727	1288722	1129
261	2015-11-14 18:31:37	0	0	0	0	0	0	4.25	0.55	0.04	89553	0	3253	57975	89553	86300	489	26	589	25	54727	1288736	1129
262	2015-11-14 18:41:37	0	0	0	0	0	0	4.25	0.55	0.04	89553	0	3253	57975	89553	86300	489	26	589	25	54727	1288744	1129
263	2015-11-14 18:51:37	0	0	0	0	0	0	4.25	0.55	0.04	89570	0	3254	57975	89570	86316	489	26	589	25	54727	1288762	1129
264	2015-11-14 19:01:38	0	0	0	0	0	0	4.25	0.55	0.04	89586	0	3257	57975	89586	86329	489	26	589	25	54727	1288777	1129
265	2015-11-14 19:11:37	0	0	0	0	0	0	4.25	0.55	0.04	89586	0	3257	57975	89586	86329	489	26	589	25	54727	1288785	1129
266	2015-11-14 19:21:37	0	0	0	0	0	0	4.25	0.55	0.04	89608	0	3262	57975	89608	86346	489	26	589	25	54727	1288789	1129
267	2015-11-14 19:31:37	0	0	0	0	0	0	4.25	0.55	0.04	89608	0	3262	57975	89608	86346	489	26	589	25	54727	1288803	1129
268	2015-11-14 19:41:39	0	0	0	0	0	0	4.25	0.55	0.04	89623	0	3268	57990	89623	86355	489	26	589	25	54740	1288817	1129
269	2015-11-14 19:51:38	0	0	0	0	0	0	4.25	0.55	0.04	89623	0	3268	57990	89623	86355	489	26	589	25	54740	1288824	1129
270	2015-11-14 20:01:38	0	0	0	0	0	0	4.25	0.55	0.04	89637	0	3271	57990	89637	86366	489	26	589	25	54740	1288831	1129
271	2015-11-14 20:11:39	0	0	0	0	0	0	4.25	0.55	0.04	89651	0	3274	57990	89651	86377	489	26	589	25	54740	1288850	1129
272	2015-11-14 20:21:39	0	0	0	0	0	0	4.25	0.55	0.04	89665	0	3278	57990	89665	86387	489	26	589	25	54740	1288868	1129
273	2015-11-14 20:31:39	0	0	0	0	0	0	4.25	0.55	0.04	89665	0	3278	57990	89665	86387	489	26	589	25	54740	1288877	1129
274	2015-11-14 20:41:38	0	0	0	0	0	0	4.25	0.55	0.04	89686	0	3284	57990	89686	86402	489	26	589	25	54740	1288889	1129
275	2015-11-14 20:51:37	0	0	0	0	0	0	4.25	0.55	0.04	89686	0	3284	57990	89686	86402	489	26	589	25	54740	1288902	1129
276	2015-11-14 21:01:39	0	0	0	0	0	0	4.25	0.55	0.04	89718	0	3290	58129	89718	86428	489	26	589	25	54740	1288913	1129
277	2015-11-14 21:11:38	0	0	0	0	0	0	4.25	0.55	0.04	89718	0	3290	58129	89718	86428	489	26	589	25	54740	1288925	1129
278	2015-11-14 21:21:39	0	0	0	0	0	0	4.25	0.54	0.04	89737	0	3297	58129	89737	86440	489	26	589	25	54740	1288942	1129
279	2015-11-14 21:31:40	0	0	0	0	0	0	4.25	0.54	0.04	89750	0	3299	58146	89750	86451	489	26	589	25	54787	1288960	1129
280	2015-11-14 21:41:40	0	0	0	0	0	0	4.25	0.54	0.04	89759	0	3303	58269	89759	86456	489	26	589	25	54787	1288970	1129
281	2015-11-14 21:51:38	0	0	0	0	0	0	4.25	0.54	0.04	89759	0	3303	58269	89759	86456	489	26	589	25	54787	1288979	1129
282	2015-11-14 22:01:40	0	0	0	0	0	0	4.25	0.54	0.04	89787	0	3310	58273	89787	86477	489	26	589	25	54791	1288995	1129
283	2015-11-14 22:11:38	0	0	0	0	0	0	4.25	0.54	0.04	89787	0	3310	58273	89787	86477	489	26	589	25	54791	1289009	1129
284	2015-11-14 22:21:40	0	0	0	0	0	0	4.25	0.54	0.04	89816	0	3320	58273	89816	86496	489	26	589	25	54791	1289024	1129
285	2015-11-14 22:31:39	0	0	0	0	0	0	4.25	0.54	0.04	89816	0	3320	58273	89816	86496	489	26	589	25	54791	1289035	1129
286	2015-11-14 22:41:40	0	0	0	0	0	0	4.25	0.54	0.04	89832	0	3322	58273	89832	86510	489	26	589	25	54791	1289050	1129
287	2015-11-14 22:51:38	0	0	0	0	0	0	4.25	0.54	0.04	89832	0	3322	58273	89832	86510	489	26	589	25	54791	1289066	1129
288	2015-11-14 23:01:43	0	0	0	0	0	0	4.25	0.54	0.04	89864	0	3330	58273	89864	86534	489	26	589	25	54791	1289084	1129
289	2015-11-14 23:11:39	0	0	0	0	0	0	4.25	0.54	0.04	89864	0	3330	58273	89864	86534	489	26	589	25	54791	1289102	1129
290	2015-11-14 23:21:40	0	0	0	0	0	0	4.25	0.54	0.04	89877	0	3335	58308	89877	86542	489	26	589	25	54822	1289111	1129
291	2015-11-14 23:31:38	0	0	0	0	0	0	4.25	0.54	0.04	89877	0	3335	58308	89877	86542	489	26	589	25	54822	1289120	1129
292	2015-11-14 23:41:40	0	0	0	0	0	0	4.25	0.54	0.04	89903	0	3342	58308	89903	86561	489	26	589	25	54822	1289140	1129
293	2015-11-14 23:51:40	0	0	0	0	0	0	4.25	0.54	0.04	89909	0	3342	58308	89909	86567	489	26	589	25	54822	1289153	1129
294	2015-11-15 00:01:38	0	0	0	0	0	0	4.25	0.54	0.04	89909	0	3342	58308	89909	86567	489	26	589	25	54822	1289167	1129
295	2015-11-15 00:11:40	0	0	0	0	0	0	4.25	0.54	0.04	89925	0	3344	58308	89925	86581	489	26	589	25	54822	1289189	1129
296	2015-11-15 00:21:39	0	0	0	0	0	0	4.25	0.54	0.04	89925	0	3344	58308	89925	86581	489	26	589	25	54822	1289204	1129
297	2015-11-15 00:31:39	0	0	0	0	0	0	4.25	0.54	0.04	89944	0	3346	58308	89944	86598	489	26	590	26	54822	1289230	1131
298	2015-11-15 00:41:40	0	0	0	0	0	0	4.25	0.54	0.04	89953	0	3347	58308	89953	86606	489	26	590	26	54822	1289250	1131
299	2015-11-15 00:51:39	0	0	0	0	0	0	4.25	0.54	0.04	89953	0	3347	58308	89953	86606	489	26	590	26	54822	1289263	1131
300	2015-11-15 01:01:40	0	0	0	0	0	0	4.25	0.54	0.04	89971	0	3354	58308	89971	86617	489	26	590	26	54822	1289280	1131
301	2015-11-15 01:11:38	0	0	0	0	0	0	4.25	0.54	0.04	89971	0	3354	58308	89971	86617	489	26	590	26	54822	1289292	1131
302	2015-11-15 01:21:40	0	0	0	0	0	0	4.25	0.54	0.04	89993	0	3357	58308	89993	86636	489	26	590	26	54822	1289307	1131
303	2015-11-15 01:31:38	0	0	0	0	0	0	4.25	0.54	0.04	89993	0	3357	58308	89993	86636	489	26	590	26	54822	1289323	1131
304	2015-11-15 01:41:40	0	0	0	0	0	0	4.25	0.54	0.04	89999	0	3359	58308	89999	86640	489	26	590	26	54822	1289334	1131
305	2015-11-15 01:51:38	0	0	0	0	0	0	4.25	0.54	0.04	89999	0	3359	58308	89999	86640	489	26	590	26	54822	1289341	1131
306	2015-11-15 02:01:41	0	0	0	0	0	0	4.25	0.54	0.04	90009	0	3362	58308	90009	86647	489	26	590	26	54822	1289353	1131
307	2015-11-15 02:11:39	0	0	0	0	0	0	4.25	0.54	0.04	90009	0	3362	58308	90009	86647	489	26	590	26	54822	1289359	1131
308	2015-11-15 02:21:39	0	0	0	0	0	0	4.25	0.54	0.04	90016	0	3365	58308	90016	86651	489	26	590	26	54822	1289366	1131
309	2015-11-15 02:31:38	0	0	0	0	0	0	4.25	0.54	0.04	90016	0	3365	58308	90016	86651	489	26	590	26	54822	1289372	1131
310	2015-11-15 02:41:40	0	0	0	0	0	0	4.25	0.54	0.04	90028	0	3372	58308	90028	86656	489	26	590	26	54822	1289385	1131
311	2015-11-15 02:51:38	0	0	0	0	0	0	4.25	0.54	0.04	90028	0	3372	58308	90028	86656	489	26	590	26	54822	1289392	1131
312	2015-11-15 03:01:40	0	0	0	0	0	0	4.25	0.54	0.04	90030	0	3373	58308	90030	86657	489	26	590	26	54822	1289842	1131
313	2015-11-15 03:11:38	0	0	0	0	0	0	4.25	0.54	0.04	90030	0	3373	58308	90030	86657	489	26	590	26	54822	1289851	1131
314	2015-11-15 03:21:39	0	0	0	0	0	0	4.25	0.54	0.04	90037	0	3374	58308	90037	86663	489	26	590	26	54822	1289853	1131
315	2015-11-15 03:31:38	0	0	0	0	0	0	4.25	0.54	0.04	90037	0	3374	58308	90037	86663	489	26	590	26	54822	1289854	1131
316	2015-11-15 03:41:38	0	0	0	0	0	0	4.25	0.54	0.04	90038	0	3374	58308	90038	86664	489	26	590	26	54822	1289856	1131
317	2015-11-15 03:51:39	0	0	0	0	0	0	4.25	0.54	0.04	90039	0	3374	58308	90039	86665	489	26	590	26	54822	1289861	1131
318	2015-11-15 04:01:40	0	0	0	0	0	0	4.25	0.54	0.04	90042	0	3375	58308	90042	86667	489	26	590	26	54822	1289864	1131
319	2015-11-15 04:11:38	0	0	0	0	0	0	4.25	0.54	0.04	90042	0	3375	58308	90042	86667	489	26	590	26	54822	1289865	1131
320	2015-11-15 04:21:40	0	0	0	0	0	0	4.25	0.54	0.04	90044	0	3375	58308	90044	86669	489	26	590	26	54822	1289868	1131
321	2015-11-15 04:31:39	0	0	0	0	0	0	4.25	0.54	0.04	90044	0	3375	58308	90044	86669	489	26	590	26	54822	1289871	1131
322	2015-11-15 04:41:38	0	0	0	0	0	0	4.25	0.54	0.04	90046	0	3375	58308	90046	86671	489	26	590	26	54822	1289872	1131
323	2015-11-15 04:51:40	0	0	0	0	0	0	4.25	0.54	0.04	90046	0	3375	58308	90046	86671	489	26	590	26	54822	1289873	1131
324	2015-11-15 05:01:39	0	0	0	0	0	0	4.25	0.54	0.04	90046	0	3375	58308	90046	86671	489	26	590	26	54822	1289874	1131
325	2015-11-15 05:11:39	0	0	0	0	0	0	4.25	0.54	0.04	90049	0	3375	58308	90049	86674	489	26	590	26	54822	1289877	1131
326	2015-11-15 05:21:39	0	0	0	0	0	0	4.25	0.54	0.04	90049	0	3375	58308	90049	86674	489	26	590	26	54822	1289879	1131
327	2015-11-15 05:31:40	0	0	0	0	0	0	4.25	0.54	0.04	90053	0	3375	58308	90053	86678	489	26	590	26	54822	1289885	1131
328	2015-11-15 05:41:38	0	0	0	0	0	0	4.25	0.54	0.04	90053	0	3375	58308	90053	86678	489	26	590	26	54822	1289880	1131
329	2015-11-15 05:51:39	0	0	0	0	0	0	4.25	0.54	0.04	90054	0	3375	58308	90054	86679	489	26	590	26	54822	1289881	1131
330	2015-11-15 06:01:38	0	0	0	0	0	0	4.25	0.54	0.04	90054	0	3375	58308	90054	86679	489	26	590	26	54822	1289883	1131
331	2015-11-15 06:11:39	0	0	0	0	0	0	4.25	0.54	0.04	90056	0	3375	58308	90056	86681	489	26	590	26	54822	1289879	1131
332	2015-11-15 06:21:39	0	0	0	0	0	0	4.25	0.54	0.04	90056	0	3375	58308	90056	86681	489	26	590	26	54822	1289878	1131
333	2015-11-15 06:31:38	0	0	0	0	0	0	4.25	0.54	0.04	90056	0	3375	58308	90056	86681	489	26	590	26	54822	1289879	1131
334	2015-11-15 06:41:40	0	0	0	0	0	0	4.25	0.54	0.04	90059	0	3376	58308	90059	86683	489	26	590	26	54822	1289879	1131
335	2015-11-15 06:51:42	0	0	0	0	0	0	4.25	0.54	0.04	90059	0	3376	58308	90059	86683	489	26	590	26	54822	1289880	1131
336	2015-11-15 07:01:41	0	0	0	0	0	0	4.25	0.54	0.04	90059	0	3376	58308	90059	86683	489	26	590	26	54822	1289881	1131
337	2015-11-15 07:11:38	0	0	0	0	0	0	4.25	0.54	0.04	90060	0	3376	58308	90060	86684	489	26	590	26	54822	1289879	1131
338	2015-11-15 07:21:40	0	0	0	0	0	0	4.25	0.54	0.04	90060	0	3376	58308	90060	86684	489	26	590	26	54822	1289882	1131
339	2015-11-15 07:31:40	0	0	0	0	0	0	4.25	0.54	0.04	90060	0	3376	58308	90060	86684	489	26	590	26	54822	1289884	1131
340	2015-11-15 07:41:42	0	0	0	0	0	0	4.25	0.54	0.04	90062	0	3376	58308	90062	86686	489	26	590	26	54822	1289887	1131
341	2015-11-15 07:51:39	0	0	0	0	0	0	4.25	0.54	0.04	90062	0	3376	58308	90062	86686	489	26	590	26	54822	1289891	1131
342	2015-11-15 08:01:40	0	0	0	0	0	0	4.25	0.54	0.04	90064	0	3377	58308	90064	86687	489	26	590	26	54822	1289894	1131
343	2015-11-15 08:11:39	0	0	0	0	0	0	4.25	0.54	0.04	90064	0	3377	58308	90064	86687	489	26	590	26	54822	1289895	1131
344	2015-11-15 08:21:39	0	0	0	0	0	0	4.25	0.54	0.04	90068	0	3377	58308	90068	86691	489	26	590	26	54822	1289894	1131
345	2015-11-15 08:31:40	0	0	0	0	0	0	4.25	0.54	0.04	90072	0	3377	58308	90072	86695	489	26	590	26	54822	1289897	1131
346	2015-11-15 08:41:40	0	0	0	0	0	0	4.25	0.54	0.04	90072	0	3377	58308	90072	86695	489	26	590	26	54822	1289902	1131
347	2015-11-15 08:51:45	0	0	0	0	0	0	4.25	0.54	0.04	90075	0	3377	58308	90075	86698	489	26	590	26	54822	1289907	1131
348	2015-11-15 09:01:39	0	0	0	0	0	0	4.25	0.54	0.04	90075	0	3377	58308	90075	86698	489	26	590	26	54822	1289916	1131
349	2015-11-15 09:11:42	0	0	0	0	0	0	4.25	0.54	0.04	90077	0	3377	58308	90077	86700	490	26	590	26	54822	1289924	1132
350	2015-11-15 09:21:44	0	0	0	0	0	0	4.25	0.54	0.04	90081	0	3379	58308	90081	86702	490	26	590	26	54822	1289930	1132
351	2015-11-15 09:31:40	0	0	0	0	0	0	4.25	0.54	0.04	90081	0	3379	58308	90081	86702	490	26	590	26	54822	1289937	1132
352	2015-11-15 09:41:41	0	0	0	0	0	0	4.25	0.54	0.04	90084	0	3379	58308	90084	86705	490	26	590	26	54822	1289943	1132
353	2015-11-15 09:51:40	0	0	0	0	0	0	4.25	0.54	0.04	90084	0	3379	58308	90084	86705	490	26	590	26	54822	1289948	1132
354	2015-11-15 10:01:41	0	0	0	0	0	0	4.25	0.54	0.04	90091	0	3381	58308	90091	86710	490	26	590	26	54822	1289955	1132
355	2015-11-15 10:11:39	0	0	0	0	0	0	4.25	0.54	0.04	90091	0	3381	58308	90091	86710	490	26	590	26	54822	1289968	1132
356	2015-11-15 10:21:40	0	0	0	0	0	0	4.25	0.54	0.04	90100	0	3382	58308	90100	86718	490	26	590	26	54822	1289980	1132
357	2015-11-15 10:31:39	0	0	0	0	0	0	4.25	0.54	0.04	90100	0	3382	58308	90100	86718	490	26	590	26	54822	1289994	1132
358	2015-11-15 10:41:41	0	0	0	0	0	0	4.25	0.54	0.04	90103	0	3382	58308	90103	86721	490	26	590	26	54822	1290008	1132
359	2015-11-15 10:51:39	0	0	0	0	0	0	4.25	0.54	0.04	90103	0	3382	58308	90103	86721	490	26	590	26	54822	1290023	1132
360	2015-11-15 11:02:56	0	0	0	0	0	0	4.25	0.54	0.04	90109	0	3384	58308	90109	86725	490	26	590	26	54822	1290037	1132
361	2015-11-15 11:11:41	0	0	0	0	0	0	4.25	0.54	0.04	90109	0	3384	58308	90109	86725	490	26	590	26	54822	1290053	1132
362	2015-11-15 11:21:41	0	0	0	0	0	0	4.25	0.54	0.04	90114	0	3384	58308	90114	86730	490	26	590	26	54822	1290065	1132
363	2015-11-15 11:31:40	0	0	0	0	0	0	4.25	0.54	0.04	90114	0	3384	58308	90114	86730	490	26	590	26	54822	1290083	1132
364	2015-11-15 11:41:41	0	0	0	0	0	0	4.25	0.54	0.04	90120	0	3385	58308	90120	86735	490	26	590	27	54822	1290095	1133
365	2015-11-15 11:51:44	0	0	0	0	0	0	4.25	0.54	0.04	90123	0	3386	58308	90123	86737	490	26	590	27	54822	1290110	1133
366	2015-11-15 12:01:41	0	0	0	0	0	0	4.25	0.54	0.04	90123	0	3386	58308	90123	86737	490	26	590	27	54822	1290124	1133
367	2015-11-15 12:11:42	0	0	0	0	0	0	4.25	0.54	0.04	90129	0	3389	58308	90129	86740	490	26	590	27	54822	1290146	1133
368	2015-11-15 12:21:41	0	0	0	0	0	0	4.25	0.54	0.04	90129	0	3389	58308	90129	86740	490	26	590	27	54822	1290158	1133
369	2015-11-15 12:31:42	0	0	0	0	0	0	4.25	0.54	0.04	90141	0	3391	58308	90141	86750	490	27	591	27	54822	1290168	1135
370	2015-11-15 12:41:41	0	0	0	0	0	0	4.25	0.54	0.04	90141	0	3391	58308	90141	86750	490	27	591	27	54822	1290181	1135
371	2015-11-15 12:51:42	0	0	0	0	0	0	4.25	0.54	0.04	90149	0	3391	58308	90149	86758	490	27	591	27	54822	1290198	1135
372	2015-11-15 13:01:41	0	0	0	0	0	0	4.25	0.54	0.04	90149	0	3391	58308	90149	86758	490	27	591	27	54822	1290209	1135
373	2015-11-15 13:11:42	0	0	0	0	0	0	4.25	0.54	0.04	90153	0	3391	58308	90153	86762	490	27	591	27	54822	1290222	1135
374	2015-11-15 13:21:41	0	0	0	0	0	0	4.25	0.54	0.04	90153	0	3391	58308	90153	86762	490	27	591	27	54822	1290236	1135
375	2015-11-15 13:31:44	0	0	0	0	0	0	4.25	0.54	0.04	90156	0	3391	58308	90156	86765	490	27	591	27	54822	1290249	1135
376	2015-11-15 13:41:43	0	0	0	0	0	0	4.25	0.54	0.04	90156	0	3391	58308	90156	86765	490	27	591	27	54822	1290263	1135
377	2015-11-15 13:51:44	0	0	0	0	0	0	4.25	0.54	0.04	90162	0	3391	58343	90162	86771	490	27	591	27	54853	1290278	1135
378	2015-11-15 14:01:44	0	0	0	0	0	0	4.25	0.54	0.04	90162	0	3391	58343	90162	86771	490	27	591	27	54853	1290293	1135
379	2015-11-15 14:11:42	0	0	0	0	0	0	4.25	0.54	0.04	90166	0	3391	58343	90166	86775	490	27	591	27	54853	1290300	1135
380	2015-11-15 14:21:43	0	0	0	0	0	0	4.25	0.54	0.04	90170	0	3392	58343	90170	86778	490	27	591	27	54853	1290316	1135
381	2015-11-15 14:31:45	0	0	0	0	0	0	4.26	0.54	0.04	90177	0	3395	58414	90177	86782	490	27	591	27	54915	1290330	1135
382	2015-11-15 14:41:43	0	0	0	0	0	0	4.26	0.54	0.04	90177	0	3395	58414	90177	86782	490	27	591	27	54915	1290344	1135
383	2015-11-15 14:51:44	0	0	0	0	0	0	4.26	0.54	0.04	90182	0	3395	58414	90182	86787	490	27	591	27	54915	1290364	1135
384	2015-11-15 15:01:45	0	0	0	0	0	0	4.26	0.54	0.04	90185	0	3395	58414	90185	86790	490	27	591	27	54915	1290379	1135
385	2015-11-15 15:11:43	0	0	0	0	0	0	4.26	0.54	0.04	90185	0	3395	58414	90185	86790	490	27	591	27	54915	1290397	1135
386	2015-11-15 15:21:44	0	0	0	0	0	0	4.26	0.54	0.04	90189	0	3397	58414	90189	86792	490	27	591	27	54915	1290415	1135
387	2015-11-15 15:31:45	0	0	0	0	0	0	4.26	0.54	0.04	90190	0	3397	58414	90190	86793	490	27	591	27	54915	1290425	1135
388	2015-11-15 15:41:43	0	0	0	0	0	0	4.26	0.54	0.04	90190	0	3397	58414	90190	86793	490	27	591	27	54915	1290432	1135
389	2015-11-15 15:51:44	0	0	0	0	0	0	4.26	0.54	0.04	90199	0	3398	58414	90199	86801	491	27	591	27	54915	1290450	1136
390	2015-11-15 16:01:45	0	0	0	0	0	0	4.26	0.54	0.04	90201	0	3398	58414	90201	86803	491	27	591	27	54915	1290464	1136
391	2015-11-15 16:11:43	0	0	0	0	0	0	4.26	0.54	0.04	90201	0	3398	58414	90201	86803	491	27	591	27	54915	1290479	1136
392	2015-11-15 16:21:45	0	0	0	0	0	0	4.26	0.54	0.04	90208	0	3398	58414	90208	86810	491	27	591	27	54915	1290495	1136
393	2015-11-15 16:31:44	0	0	0	0	0	0	4.26	0.54	0.04	90208	0	3398	58414	90208	86810	491	27	591	27	54915	1290512	1136
394	2015-11-15 16:41:44	0	0	0	0	0	0	4.26	0.54	0.04	90213	0	3398	58414	90213	86815	491	27	591	27	54915	1290529	1136
395	2015-11-15 16:51:45	0	0	0	0	0	0	4.26	0.54	0.04	90214	0	3398	58414	90214	86816	491	27	591	27	54915	1290535	1136
396	2015-11-15 17:01:45	0	0	0	0	0	0	4.26	0.54	0.04	90217	0	3398	58414	90217	86819	491	27	591	27	54915	1290554	1136
397	2015-11-15 17:11:43	0	0	0	0	0	0	4.26	0.54	0.04	90217	0	3398	58414	90217	86819	491	27	591	27	54915	1290564	1136
398	2015-11-15 17:21:46	0	0	0	0	0	0	4.26	0.54	0.04	90222	0	3398	58414	90222	86824	491	27	591	27	54915	1290575	1136
399	2015-11-15 17:31:44	0	0	0	0	0	0	4.26	0.54	0.04	90222	0	3398	58414	90222	86824	491	27	591	27	54915	1290584	1136
400	2015-11-15 17:41:44	0	0	0	0	0	0	4.26	0.54	0.04	90233	0	3399	58414	90233	86834	491	27	591	27	54915	1290590	1136
401	2015-11-15 17:51:45	0	0	0	0	0	0	4.26	0.54	0.04	90234	0	3399	58414	90234	86835	491	27	591	27	54915	1290595	1136
402	2015-11-15 18:01:45	0	0	0	0	0	0	4.25	0.54	0.04	90234	0	3399	58414	90234	86835	491	27	591	27	54915	1290604	1136
403	2015-11-15 18:11:43	0	0	0	0	0	0	4.25	0.54	0.04	90234	0	3399	58414	90234	86835	491	27	591	27	54915	1290616	1136
404	2015-11-15 18:21:45	0	0	0	0	0	0	4.25	0.54	0.04	90239	0	3400	58414	90239	86839	491	27	591	27	54915	1290621	1136
405	2015-11-15 18:31:43	0	0	0	0	0	0	4.25	0.54	0.04	90239	0	3400	58414	90239	86839	491	27	591	27	54915	1290628	1136
406	2015-11-15 18:41:45	0	0	0	0	0	0	4.25	0.54	0.04	90245	0	3400	58414	90245	86843	491	27	591	27	54915	1290639	1136
407	2015-11-15 18:51:43	0	0	0	0	0	0	4.25	0.54	0.04	90245	0	3400	58414	90245	86843	491	27	591	27	54915	1290650	1136
408	2015-11-15 19:01:45	0	0	0	0	0	0	4.25	0.54	0.04	90246	0	3401	58414	90246	86845	491	27	591	27	54915	1290662	1136
409	2015-11-15 19:11:43	0	0	0	0	0	0	4.25	0.54	0.04	90246	0	3401	58414	90246	86845	491	27	591	27	54915	1290667	1136
410	2015-11-15 19:21:45	0	0	0	0	0	0	4.25	0.54	0.04	90249	0	3401	58414	90249	86848	491	27	591	27	54915	1290680	1136
411	2015-11-15 19:31:44	0	0	0	0	0	0	4.25	0.54	0.04	90249	0	3401	58414	90249	86848	491	27	591	27	54915	1290691	1136
412	2015-11-15 19:41:45	0	0	0	0	0	0	4.25	0.54	0.04	90254	0	3402	58414	90254	86852	491	27	591	27	54915	1290708	1136
413	2015-11-15 19:51:46	0	0	0	0	0	0	4.25	0.54	0.04	90261	0	3402	58414	90261	86859	491	27	591	27	54915	1290719	1136
414	2015-11-15 20:01:46	0	0	0	0	0	0	4.25	0.54	0.04	90263	0	3402	58414	90263	86861	491	27	591	27	54915	1290734	1136
415	2015-11-15 20:11:45	0	0	0	0	0	0	4.25	0.54	0.04	90263	0	3402	58414	90263	86861	491	27	591	27	54915	1290745	1136
416	2015-11-15 20:21:45	0	0	0	0	0	0	4.25	0.54	0.04	90270	0	3403	58414	90270	86867	491	27	591	27	54915	1290753	1136
417	2015-11-15 20:31:47	0	0	0	0	0	0	4.25	0.54	0.04	90271	0	3403	58414	90271	86868	491	27	591	27	54915	1290768	1136
418	2015-11-15 20:41:47	0	0	0	0	0	0	4.25	0.54	0.04	90272	0	3403	58414	90272	86869	491	27	591	27	54915	1290786	1136
419	2015-11-15 20:51:45	0	0	0	0	0	0	4.25	0.54	0.04	90272	0	3403	58414	90272	86869	491	27	591	27	54915	1290806	1136
420	2015-11-15 21:01:47	0	0	0	0	0	0	4.25	0.54	0.04	90277	0	3403	58414	90277	86874	491	27	591	27	54915	1290815	1136
421	2015-11-15 21:11:45	0	0	0	0	0	0	4.25	0.54	0.04	90277	0	3403	58414	90277	86874	491	27	591	27	54915	1290838	1136
422	2015-11-15 21:21:45	0	0	0	0	0	0	4.25	0.54	0.04	90281	0	3403	58414	90281	86878	491	27	591	27	54915	1290844	1136
423	2015-11-15 21:31:45	0	0	0	0	0	0	4.25	0.54	0.04	90281	0	3403	58414	90281	86878	491	27	591	27	54915	1290853	1136
424	2015-11-15 21:41:46	0	0	0	0	0	0	4.26	0.54	0.04	90286	0	3403	58484	90286	86883	491	27	591	27	54977	1290872	1136
425	2015-11-15 21:51:47	0	0	0	0	0	0	4.26	0.54	0.04	90288	0	3404	58484	90288	86884	491	27	591	27	54977	1290889	1136
426	2015-11-15 22:01:46	0	0	0	0	0	0	4.26	0.54	0.04	90288	0	3404	58484	90288	86884	491	27	591	27	54977	1290903	1136
427	2015-11-15 22:11:46	0	0	0	0	0	0	4.26	0.54	0.04	90290	0	3404	58484	90290	86886	491	27	591	27	54977	1290923	1136
428	2015-11-15 22:21:46	0	0	0	0	0	0	4.26	0.54	0.04	90292	0	3404	58484	90292	86888	491	27	591	27	54977	1290938	1136
429	2015-11-15 22:31:47	0	0	0	0	0	0	4.26	0.54	0.04	90296	0	3406	58484	90296	86890	491	27	591	27	54977	1290951	1136
430	2015-11-15 22:41:47	0	0	0	0	0	0	4.26	0.54	0.04	90298	0	3406	58484	90298	86892	491	27	591	27	54977	1290976	1136
431	2015-11-15 22:51:46	0	0	0	0	0	0	4.26	0.54	0.04	90298	0	3406	58484	90298	86892	491	27	591	27	54977	1290996	1136
