1	2017-02-03 07:36:03	0	0	0	0	0	0	0	0	0	4085	1	0	0	4085	4085	0	0	10	0	0	2612528	0
2	2017-02-03 07:46:03	0	0	0	0	0	0	0.6	1.35	0	18629	1	9	15712	18629	18620	251	4	29	0	15689	2612544	284
3	2017-02-03 07:56:03	0	0	0	0	0	0	1	1.58	0	31741	1	56	26169	31741	31685	502	12	44	0	26134	2612552	558
4	2017-02-03 08:06:03	0	0	0	0	0	0	1.31	1.82	0	43803	1	133	34526	43803	43670	797	12	60	0	34226	2612570	869
5	2017-02-03 08:16:03	0	0	0	0	0	0	1.63	1.9	0	54635	1	232	43207	54635	54403	1036	14	85	1	42666	2612587	1136
6	2017-02-03 08:26:03	0	0	0	0	0	0	1.87	2.03	0	64340	1	318	49567	64340	64022	1305	16	97	2	48823	2612608	1420
7	2017-02-03 08:36:03	0	0	0	0	0	0	2.1	2.09	0.01	73012	1	406	55745	73012	72606	1526	22	112	2	54767	2612631	1662
8	2017-02-03 08:46:03	0	0	0	0	0	0	2.36	2.16	0.01	81166	1	514	62891	81166	80652	1752	24	123	2	61629	2612660	1901
9	2017-02-03 08:56:03	0	0	0	0	0	0	2.63	2.07	0.01	88918	1	617	66587	88918	88301	1844	28	142	4	68649	2612684	2018
10	2017-02-03 09:06:03	0	0	0	0	0	0	2.81	2.22	0.01	96530	1	731	74503	96530	95799	2139	30	156	5	73318	2612707	2330
11	2017-02-03 09:16:03	0	0	0	0	0	0	2.99	2.25	0.01	103664	1	853	79270	103664	102811	2329	34	169	5	78008	2612727	2537
12	2017-02-03 09:26:02	0	0	0	0	0	0	3.17	2.24	0.01	110598	1	980	84068	110598	109618	2480	36	184	5	82809	2612741	2705
13	2017-02-03 09:36:04	0	0	0	0	0	0	3.3	2.26	0.01	116926	1	1091	87597	116926	115835	2639	40	192	6	86155	2612756	2877
14	2017-02-03 09:46:05	0	0	0	0	0	0	3.4	2.28	0.01	123032	1	1188	90671	123032	121844	2805	44	196	6	88932	2612768	3051
15	2017-02-03 09:56:07	0	0	0	0	0	0	3.53	2.31	0.01	128504	1	1295	94088	128504	127209	2969	48	203	6	92316	2612780	3226
16	2017-02-03 10:06:07	0	0	0	0	0	0	3.65	2.32	0.01	134455	1	1405	97380	134455	133050	3123	54	213	6	95413	2612795	3396
17	2017-02-03 10:16:07	0	0	0	0	0	0	3.77	2.32	0.01	140231	1	1507	100393	140231	138724	3250	54	215	6	98554	2612810	3525
18	2017-02-03 10:26:07	0	0	0	0	0	0	3.92	2.33	0.01	145636	1	1611	104330	145636	144025	3397	54	223	6	102494	2612822	3680
19	2017-02-03 10:36:07	0	0	0	0	0	0	4	2.34	0.01	150946	1	1721	106307	150946	149225	3525	56	229	6	104487	2612833	3816
20	2017-02-03 10:46:07	0	0	0	0	0	0	4.12	2.34	0.01	155731	1	1804	109472	155731	153927	3641	56	231	6	107632	2612853	3934
21	2017-02-03 10:56:08	0	0	0	0	0	0	4.21	2.35	0.01	160407	1	1893	111826	160407	158514	3774	56	236	6	109891	2612882	4072
22	2017-02-03 11:06:09	0	0	0	0	0	0	4.26	2.36	0.01	164201	1	1957	113146	164201	162244	3881	56	240	6	111358	2612904	4183
23	2017-02-03 11:16:08	0	0	0	0	0	0	4.32	2.37	0.01	167806	1	2018	114745	167806	165788	3974	58	244	6	112856	2612927	4282
24	2017-02-03 11:26:11	0	0	0	0	0	0	4.39	2.37	0.01	171168	1	2082	116673	171168	169086	4059	58	248	6	114619	2612946	4371
25	2017-02-03 11:36:11	0	0	0	0	0	0	4.46	2.37	0.01	174285	1	2145	118214	174285	172140	4135	60	252	6	116508	2612973	4453
26	2017-02-03 11:46:10	0	0	0	0	0	0	4.52	2.38	0.01	177306	1	2185	119864	177306	175121	4218	62	257	6	118075	2612998	4543
27	2017-02-03 11:56:10	0	0	0	0	0	0	4.59	2.38	0.01	180287	1	2246	121809	180287	178041	4299	72	265	6	119813	2613011	4642
28	2017-02-03 12:06:10	0	0	0	0	0	0	4.62	2.4	0.01	182989	1	2331	122736	182989	180658	4393	74	270	6	120710	2613028	4743
29	2017-02-03 12:16:11	0	0	0	0	0	0	4.68	2.41	0.01	185656	1	2400	124522	185656	183256	4469	74	273	6	122418	2613050	4822
30	2017-02-03 12:26:12	0	0	0	0	0	0	4.75	2.41	0.01	188367	1	2456	126156	188367	185911	4539	76	278	6	123997	2613068	4899
31	2017-02-03 12:36:11	0	0	0	0	0	0	4.8	2.41	0.01	190866	1	2526	127460	190866	188340	4605	78	280	6	125317	2613080	4969
32	2017-02-03 12:46:11	0	0	0	0	0	0	4.85	2.42	0.01	193097	1	2585	128912	193097	190512	4674	78	281	6	126721	2613096	5039
33	2017-02-03 12:56:13	0	0	0	0	0	0	4.94	2.42	0.01	195252	1	2657	131023	195252	192595	4734	78	284	6	129018	2613103	5102
34	2017-02-03 13:06:13	0	0	0	0	0	0	5	2.43	0.01	197303	1	2715	132848	197303	194588	4798	78	284	6	130786	2613124	5166
35	2017-02-03 13:16:12	0	0	0	0	0	0	5.02	2.43	0.01	199199	1	2759	133386	199199	196440	4838	78	288	6	131241	2613141	5210
36	2017-02-03 13:26:14	0	0	0	0	0	0	5.07	2.44	0.01	200956	1	2801	134711	200956	198155	4897	78	292	6	132484	2613167	5273
37	2017-02-03 13:36:14	0	0	0	0	0	0	5.14	2.44	0.01	202630	1	2843	135825	202630	199787	4953	78	293	6	134210	2613195	5330
38	2017-02-03 13:46:13	0	0	0	0	0	0	5.18	2.45	0.01	204396	1	2884	136997	204396	201512	5007	78	292	6	135354	2613208	5383
39	2017-02-03 13:56:14	0	0	0	0	0	0	5.22	2.45	0.01	206269	1	2923	137143	206269	203346	5062	78	295	6	136343	2613234	5441
40	2017-02-03 14:06:15	0	0	0	0	0	0	5.25	2.45	0.01	208150	1	2969	138616	208150	205181	5109	78	297	6	137080	2613269	5490
41	2017-02-03 14:16:15	0	0	0	0	0	0	5.27	2.46	0.01	209898	1	3011	139293	209898	206887	5159	78	301	6	137741	2613300	5544
42	2017-02-03 14:26:15	0	0	0	0	0	0	5.32	2.45	0.01	211579	1	3051	140630	211579	208528	5191	78	306	6	139049	2613324	5581
43	2017-02-03 14:36:15	0	0	0	0	0	0	5.35	2.45	0.01	213324	1	3091	141281	213324	210233	5231	80	307	6	139685	2613354	5624
44	2017-02-03 14:46:15	0	0	0	0	0	0	5.4	2.45	0.01	215042	1	3127	142776	215042	211915	5279	80	310	6	141044	2613385	5675
45	2017-02-03 14:56:16	0	0	0	0	0	0	5.46	2.46	0.01	216568	1	3167	144374	216568	213401	5321	80	313	6	142603	2613405	5720
46	2017-02-03 15:06:16	0	0	0	0	0	0	5.49	2.46	0.01	217921	1	3196	145352	217921	214725	5369	80	314	6	143557	2613421	5769
47	2017-02-03 15:16:16	0	0	0	0	0	0	5.5	2.47	0.02	219230	1	3243	145420	219230	215987	5412	80	314	6	143623	2613449	5812
48	2017-02-03 15:26:16	0	0	0	0	0	0	5.5	2.47	0.02	220465	1	3279	145611	220465	217186	5444	80	317	6	143823	2613480	5847
49	2017-02-03 15:36:18	0	0	0	0	0	0	5.54	2.47	0.02	221924	1	3311	145955	221924	218613	5473	80	317	6	144765	2613499	5876
50	2017-02-03 15:46:18	0	0	0	0	0	0	5.57	2.47	0.02	223172	1	3341	147358	223172	219831	5504	80	317	6	145527	2613512	5907
51	2017-02-03 15:56:19	0	0	0	0	0	0	5.6	2.47	0.02	224511	1	3369	148247	224511	221142	5537	80	319	6	146394	2613536	5942
52	2017-02-03 16:06:18	0	0	0	0	0	0	5.62	2.46	0.02	225696	1	3400	148838	225696	222296	5558	80	319	6	146970	2613550	5963
53	2017-02-03 16:16:19	0	0	0	0	0	0	5.66	2.47	0.02	226804	1	3424	149803	226804	223380	5595	80	320	6	147911	2613560	6001
54	2017-02-03 16:26:18	0	0	0	0	0	0	5.69	2.47	0.02	228118	1	3456	150663	228118	224662	5625	80	323	7	148750	2613577	6035
55	2017-02-03 16:36:18	0	0	0	0	0	0	5.72	2.47	0.02	229358	1	3483	151347	229358	225875	5662	80	324	7	149416	2613605	6073
56	2017-02-03 16:46:20	0	0	0	0	0	0	5.73	2.47	0.02	230644	1	3506	151642	230644	227138	5692	80	326	7	149704	2613624	6105
57	2017-02-03 16:56:20	0	0	0	0	0	0	5.75	2.47	0.02	232016	1	3530	152141	232016	228486	5724	80	327	7	150190	2613645	6138
58	2017-02-03 17:06:20	0	0	0	0	0	0	5.76	2.47	0.02	233231	1	3555	152493	233231	229676	5756	80	329	7	150621	2613680	6172
59	2017-02-03 17:16:20	0	0	0	0	0	0	5.8	2.47	0.02	234466	1	3576	153503	234466	230890	5784	80	330	7	151606	2613740	6201
60	2017-02-03 17:26:22	0	0	0	0	0	0	5.82	2.46	0.02	235775	1	3620	154005	235775	232155	5811	80	333	7	152095	2613797	6231
61	2017-02-03 17:36:26	0	0	0	0	0	0	5.85	2.46	0.02	236992	1	3657	154743	236992	233335	5838	80	335	7	152816	2613846	6260
62	2017-02-03 17:46:22	0	0	0	0	0	0	5.86	2.46	0.02	238157	1	3682	155162	238157	234475	5868	80	337	7	153224	2613928	6292
63	2017-02-03 17:56:21	0	0	0	0	0	0	5.9	2.46	0.02	239395	1	3716	156195	239395	235679	5900	80	338	7	154232	2613995	6325
64	2017-02-03 18:06:24	0	0	0	0	0	0	5.92	2.46	0.02	240494	1	3746	156636	240494	236748	5927	80	340	7	154661	2614081	6354
65	2017-02-03 18:16:21	0	0	0	0	0	0	5.96	2.46	0.02	241601	1	3776	157842	241601	237825	5952	80	342	7	155837	2614169	6381
66	2017-02-03 18:26:24	0	0	0	0	0	0	5.98	2.46	0.02	242717	1	3804	158480	242717	238913	5978	80	345	7	156459	2614226	6410
67	2017-02-03 18:36:22	0	0	0	0	0	0	6.01	2.46	0.02	243860	1	3841	159285	243860	240019	6009	80	347	7	157243	2614270	6443
68	2017-02-03 18:46:22	0	0	0	0	0	0	6.04	2.46	0.02	245011	1	3869	159844	245011	241142	6036	80	350	7	157788	2614312	6473
69	2017-02-03 18:56:23	0	0	0	0	0	0	6.06	2.46	0.02	246200	1	3903	160440	246200	242297	6067	80	351	7	158369	2614350	6505
70	2017-02-03 19:06:23	0	0	0	0	0	0	6.07	2.46	0.02	247313	1	3934	160648	247313	243379	6094	80	353	7	158572	2614395	6534
71	2017-02-03 19:16:24	0	0	0	0	0	0	6.08	2.47	0.02	248418	1	3961	160999	248418	244457	6124	80	355	7	158914	2614428	6566
72	2017-02-03 19:26:24	0	0	0	0	0	0	6.11	2.47	0.02	249555	1	3994	161638	249555	245561	6162	80	356	7	159800	2614485	6605
73	2017-02-03 19:36:23	0	0	0	0	0	0	6.16	2.47	0.02	250751	1	4018	163085	250751	246733	6192	80	356	7	160946	2614533	6635
74	2017-02-03 19:46:23	0	0	0	0	0	0	6.17	2.46	0.02	251930	1	4043	163551	251930	247887	6201	82	357	7	161399	2614576	6647
75	2017-02-03 19:56:25	0	0	0	0	0	0	6.2	2.47	0.02	253202	1	4074	164216	253202	249128	6254	82	358	7	162047	2614623	6701
76	2017-02-03 20:06:25	0	0	0	0	0	0	6.25	2.47	0.02	254343	1	4101	165533	254343	250242	6280	82	359	7	163329	2614678	6728
77	2017-02-03 20:16:26	0	0	0	0	0	0	6.29	2.47	0.02	255473	1	4133	166784	255473	251340	6315	82	361	7	164582	2614747	6765
78	2017-02-03 20:26:24	0	0	0	0	0	0	6.32	2.47	0.02	256626	1	4160	167487	256626	252466	6345	82	362	7	165267	2614804	6796
79	2017-02-03 20:36:24	0	0	0	0	0	0	6.33	2.47	0.02	257851	1	4178	167814	257851	253673	6375	82	364	7	165585	2614879	6828
80	2017-02-03 20:46:26	0	0	0	0	0	0	6.36	2.47	0.02	259033	1	4212	168462	259033	254821	6394	82	365	7	166216	2614940	6848
81	2017-02-03 20:56:27	0	0	0	0	0	0	6.37	2.47	0.02	260187	1	4241	168956	260187	255946	6428	82	367	7	166697	2614996	6884
82	2017-02-03 21:06:26	0	0	0	0	0	0	6.41	2.47	0.02	261374	1	4277	169902	261374	257097	6451	82	368	7	167545	2615048	6908
83	2017-02-03 21:16:26	0	0	0	0	0	0	6.42	2.47	0.02	262480	1	4303	170238	262480	258177	6485	82	369	7	167872	2615101	6943
84	2017-02-03 21:26:27	0	0	0	0	0	0	6.45	2.47	0.02	263576	1	4335	170971	263576	259241	6513	82	369	7	168585	2615171	6971
85	2017-02-03 21:36:27	0	0	0	0	0	0	6.46	2.47	0.02	264717	1	4356	171312	264717	260361	6543	82	371	7	168916	2615241	7003
86	2017-02-03 21:46:28	0	0	0	0	0	0	6.5	2.47	0.02	265837	1	4377	172350	265837	261460	6563	82	371	7	169925	2615314	7023
87	2017-02-03 21:56:28	0	0	0	0	0	0	6.52	2.47	0.02	266977	1	4398	172898	266977	262579	6584	82	371	7	170458	2615376	7044
88	2017-02-03 22:06:45	0	0	0	0	0	0	6.52	2.46	0.02	268032	1	4433	173082	268032	263599	6606	82	373	7	170637	2615451	7068
89	2017-02-03 22:16:45	0	0	0	0	0	0	6.53	2.46	0.02	268936	1	4463	173373	268936	264473	6628	82	373	7	170919	2615546	7090
90	2017-02-03 22:26:42	0	0	0	0	0	0	6.54	2.46	0.02	269883	1	4488	173626	269883	265395	6651	84	374	7	171165	2615591	7116
91	2017-02-03 22:36:44	0	0	0	0	0	0	6.56	2.46	0.02	270906	1	4515	173977	270906	266391	6668	84	374	7	171506	2615681	7133
92	2017-02-03 22:46:46	0	0	0	0	0	0	6.6	2.46	0.02	271796	1	4534	174955	271796	267262	6686	86	374	7	172572	2615726	7153
93	2017-02-03 22:56:46	0	0	0	0	0	0	6.63	2.46	0.02	272712	1	4552	175231	272712	268160	6717	86	374	7	173305	2615789	7184
94	2017-02-03 23:06:45	0	0	0	0	0	0	6.65	2.46	0.02	273653	1	4567	175872	273653	269086	6737	88	375	7	173932	2615844	7207
95	2017-02-03 23:16:45	0	0	0	0	0	0	6.7	2.46	0.02	274536	1	4607	177109	274536	269929	6760	88	376	7	175142	2615896	7231
96	2017-02-03 23:26:44	0	0	0	0	0	0	6.71	2.47	0.02	275474	1	4627	177515	275474	270847	6793	88	376	7	175539	2615946	7264
97	2017-02-03 23:36:44	0	0	0	0	0	0	6.74	2.47	0.02	276339	1	4644	178323	276339	271695	6815	88	379	7	176329	2615994	7289
98	2017-02-03 23:46:43	0	0	0	0	0	0	6.75	2.46	0.02	277134	1	4665	178784	277134	272469	6825	88	380	7	176618	2616042	7300
99	2017-02-03 23:56:44	0	0	0	0	0	0	6.77	2.46	0.02	277966	1	4692	179421	277966	273274	6839	88	383	7	177240	2616090	7317
100	2017-02-04 00:31:31	0	0	0	0	0	0	6.82	2.46	0.02	280426	1	4737	180703	280426	275689	6896	88	387	7	178491	2616187	7378
101	2017-02-04 01:31:33	0	0	0	0	0	0	6.86	2.45	0.02	283559	1	4794	181747	283559	278765	6961	88	390	7	179426	2616304	7446
102	2017-02-04 02:31:31	0	0	0	0	0	0	6.88	2.46	0.02	285749	1	4836	182319	285749	280913	7021	88	392	7	179984	2614768	7508
103	2017-02-04 03:31:34	0	0	0	0	0	0	6.89	2.46	0.02	287029	1	4858	182653	287029	282171	7060	90	394	7	180225	2614804	7551
104	2017-02-04 04:31:36	0	0	0	0	0	0	6.91	2.46	0.02	287924	1	4880	183085	287924	283044	7078	90	395	7	180645	2614832	7570
105	2017-02-04 05:31:33	0	0	0	0	0	0	6.91	2.46	0.02	288705	1	4901	183238	288705	283804	7094	90	396	7	180794	2614858	7587
106	2017-02-04 06:31:33	0	0	0	0	0	0	6.92	2.46	0.02	289732	1	4923	183585	289732	284809	7120	90	396	7	181048	2614923	7613
107	2017-02-04 07:06:34	0	0	0	0	0	0	6.94	2.46	0.02	290484	1	4941	184065	290484	285543	7145	90	398	7	181515	2615034	7640
108	2017-02-04 07:16:31	0	0	0	0	0	0	6.95	2.46	0.02	290760	1	4953	184241	290760	285807	7151	90	398	7	181685	2615073	7646
109	2017-02-04 07:26:30	0	0	0	0	0	0	6.96	2.46	0.02	291089	1	4960	184581	291089	286129	7157	90	399	7	182016	2615116	7653
110	2017-02-04 07:36:29	0	0	0	0	0	0	6.96	2.46	0.02	291429	1	4965	184625	291429	286464	7166	90	399	7	182059	2615162	7662
111	2017-02-04 07:46:34	0	0	0	0	0	0	6.97	2.46	0.02	291781	1	4976	184840	291781	286805	7177	90	402	7	182268	2615220	7676
112	2017-02-04 07:56:32	0	0	0	0	0	0	6.99	2.46	0.02	292186	1	4999	185294	292186	287187	7193	90	403	7	182709	2615281	7693
113	2017-02-04 08:06:33	0	0	0	0	0	0	6.99	2.46	0.02	292602	1	5009	185294	292602	287593	7210	90	403	7	182709	2615345	7710
114	2017-02-04 08:16:33	0	0	0	0	0	0	7	2.47	0.02	292998	1	5022	185738	292998	287976	7224	90	403	7	183141	2615417	7724
115	2017-02-04 08:26:35	0	0	0	0	0	0	7.01	2.47	0.02	293414	1	5037	186000	293414	288377	7243	92	403	7	183396	2615475	7745
116	2017-02-04 08:36:35	0	0	0	0	0	0	7.01	2.47	0.02	293829	1	5063	186000	293829	288766	7261	92	404	7	183396	2615544	7764
117	2017-02-04 08:46:34	0	0	0	0	0	0	7.02	2.47	0.02	294251	1	5085	186202	294251	289166	7273	92	405	7	183592	2615593	7777
118	2017-02-04 08:56:34	0	0	0	0	0	0	7.05	2.47	0.02	294690	1	5104	187107	294690	289586	7287	92	407	7	184472	2615667	7793
119	2017-02-04 09:06:36	0	0	0	0	0	0	7.05	2.47	0.02	295091	1	5122	187107	295091	289969	7297	92	407	7	184472	2615726	7803
120	2017-02-04 09:16:35	0	0	0	0	0	0	7.09	2.47	0.02	295492	1	5133	187731	295492	290359	7308	92	407	7	185434	2615776	7814
121	2017-02-04 09:26:36	0	0	0	0	0	0	7.1	2.47	0.02	295938	1	5155	188051	295938	290783	7321	92	407	7	185745	2615861	7827
122	2017-02-04 09:36:36	0	0	0	0	0	0	7.11	2.47	0.02	296411	1	5168	188319	296411	291243	7332	94	409	7	186007	2615915	7842
123	2017-02-04 09:46:37	0	0	0	0	0	0	7.11	2.47	0.02	296964	1	5196	188501	296964	291768	7347	96	409	7	186095	2615979	7859
124	2017-02-04 09:56:49	0	0	0	0	0	0	7.12	2.47	0.02	297510	1	5225	188754	297510	292285	7359	96	410	7	186342	2616045	7872
125	2017-02-04 10:06:37	0	0	0	0	0	0	7.13	2.48	0.02	298033	1	5239	189077	298033	292794	7381	96	411	7	186656	2616106	7895
126	2017-02-04 10:16:37	0	0	0	0	0	0	7.14	2.48	0.02	298516	1	5268	189169	298516	293248	7393	96	411	7	186746	2616190	7907
127	2017-02-04 10:26:38	0	0	0	0	0	0	7.14	2.48	0.02	298960	1	5293	189175	298960	293667	7403	96	411	7	186752	2616269	7917
128	2017-02-04 10:36:39	0	0	0	0	0	0	7.15	2.48	0.02	299353	1	5302	189569	299353	294051	7414	96	411	7	187090	2616352	7928
129	2017-02-04 10:46:54	0	0	0	0	0	0	7.15	2.48	0.02	299735	1	5317	189569	299735	294418	7430	96	411	7	187090	2616431	7944
130	2017-02-04 10:56:50	0	0	0	0	0	0	7.15	2.48	0.02	300094	1	5328	189662	300094	294766	7437	96	412	7	187181	2616499	7952
131	2017-02-04 11:06:45	0	0	0	0	0	0	7.16	2.48	0.02	300429	1	5344	189708	300429	295085	7445	96	413	7	187226	2616582	7961
132	2017-02-04 11:16:42	0	0	0	0	0	0	7.16	2.48	0.02	300800	1	5359	189903	300800	295441	7453	96	413	7	187416	2616650	7969
133	2017-02-04 11:26:44	0	0	0	0	0	0	7.16	2.48	0.02	301132	1	5363	189903	301132	295769	7457	96	413	7	187416	2616673	7973
134	2017-02-04 11:36:45	0	0	0	0	0	0	7.16	2.48	0.02	301434	1	5372	189903	301434	296062	7467	96	413	7	187416	2616701	7983
135	2017-02-04 11:47:31	0	0	0	0	0	0	7.17	2.48	0.02	301767	1	5383	190154	301767	296384	7478	96	413	7	187660	2616737	7994
136	2017-02-04 11:57:01	0	0	0	0	0	0	7.17	2.48	0.02	302065	1	5396	190154	302065	296669	7481	96	414	7	187660	2616782	7998
137	2017-02-04 12:06:57	0	0	0	0	0	0	7.17	2.48	0.02	302403	1	5411	190154	302403	296992	7485	96	414	7	187660	2616813	8002
138	2017-02-04 12:16:55	0	0	0	0	0	0	7.17	2.48	0.02	302695	1	5416	190154	302695	297279	7496	96	414	7	187660	2616846	8013
139	2017-02-04 12:26:54	0	0	0	0	0	0	7.17	2.48	0.02	303004	1	5433	190236	303004	297571	7507	96	415	7	187740	2616875	8025
140	2017-02-04 12:36:53	0	0	0	0	0	0	7.17	2.48	0.02	303305	1	5450	190253	303305	297855	7517	96	415	7	187757	2616902	8035
141	2017-02-04 12:47:26	0	0	0	0	0	0	7.18	2.48	0.02	303602	1	5465	190452	303602	298137	7522	96	415	7	187951	2616953	8040
142	2017-02-04 12:57:46	0	0	0	0	0	0	7.18	2.48	0.02	303915	1	5484	190452	303915	298431	7534	96	416	7	187951	2617008	8053
143	2017-02-04 13:07:23	0	0	0	0	0	0	7.18	2.48	0.02	304216	1	5509	190452	304216	298707	7543	96	417	7	187951	2617055	8063
144	2017-02-04 13:17:20	0	0	0	0	0	0	7.19	2.48	0.02	304544	1	5521	190710	304544	299023	7554	96	417	7	188156	2617105	8074
145	2017-02-04 13:27:22	0	0	0	0	0	0	7.19	2.48	0.02	304872	1	5567	190781	304872	299305	7567	96	417	7	188225	2617138	8087
146	2017-02-04 13:37:22	0	0	0	0	0	0	7.19	2.48	0.02	305162	1	5576	190781	305162	299586	7580	96	417	7	188225	2617175	8100
147	2017-02-04 13:47:33	0	0	0	0	0	0	7.2	2.48	0.02	305447	1	5582	190875	305447	299865	7589	96	417	7	188317	2617228	8109
148	2017-02-04 13:57:48	0	0	0	0	0	0	7.22	2.49	0.02	305756	1	5588	191441	305756	300168	7599	96	417	7	188868	2617276	8119
149	2017-02-04 14:07:55	0	0	0	0	0	0	7.22	2.49	0.02	306061	1	5600	191631	306061	300461	7608	96	417	7	189052	2617324	8128
150	2017-02-04 14:17:54	0	0	0	0	0	0	7.23	2.49	0.02	306369	1	5611	191726	306369	300758	7617	96	417	7	189145	2617361	8137
151	2017-02-04 14:27:58	0	0	0	0	0	0	7.23	2.49	0.02	306652	1	5619	191726	306652	301033	7625	96	417	7	189145	2617396	8145
152	2017-02-04 14:37:55	0	0	0	0	0	0	7.23	2.49	0.02	306901	1	5626	191892	306901	301275	7635	96	418	7	189307	2617423	8156
153	2017-02-04 14:47:56	0	0	0	0	0	0	7.23	2.49	0.02	307107	1	5633	191892	307107	301474	7640	96	418	7	189307	2617459	8161
154	2017-02-04 14:58:22	0	0	0	0	0	0	7.23	2.49	0.02	307343	1	5635	191892	307343	301708	7646	96	419	7	189307	2617477	8168
155	2017-02-04 15:09:01	0	0	0	0	0	0	7.23	2.49	0.02	307652	1	5642	191892	307652	302010	7660	96	419	7	189307	2617504	8182
156	2017-02-04 15:18:53	0	0	0	0	0	0	7.24	2.49	0.02	307899	1	5655	192226	307899	302244	7670	96	419	7	189492	2617529	8192
157	2017-02-04 15:29:10	0	0	0	0	0	0	7.24	2.49	0.02	308151	1	5659	192369	308151	302492	7675	96	419	7	189631	2617557	8197
158	2017-02-04 15:39:14	0	0	0	0	0	0	7.24	2.49	0.02	308396	1	5667	192369	308396	302729	7686	96	419	7	189631	2617603	8208
159	2017-02-04 15:49:14	0	0	0	0	0	0	7.25	2.49	0.02	308645	1	5674	192417	308645	302971	7698	96	419	7	189678	2617641	8220
160	2017-02-04 15:59:57	0	0	0	0	0	0	7.25	2.49	0.02	308872	1	5684	192489	308872	303188	7703	96	419	7	189748	2617673	8225
161	2017-02-04 16:11:30	0	0	0	0	0	0	7.25	2.49	0.02	309169	1	5701	192537	309169	303468	7709	96	420	7	189794	2617715	8232
162	2017-02-04 16:25:20	0	0	0	0	0	0	7.26	2.49	0.02	309390	1	5710	192701	309390	303680	7717	96	420	7	189954	2617762	8240
163	2017-02-04 16:34:33	0	0	0	0	0	0	7.26	2.5	0.02	309593	1	5727	192701	309593	303866	7726	96	420	7	189954	2617794	8249
164	2017-02-04 16:44:22	0	0	0	0	0	0	7.26	2.5	0.02	309811	1	5736	192701	309811	304075	7730	96	421	7	189954	2617840	8254
165	2017-02-04 16:54:45	0	0	0	0	0	0	7.26	2.5	0.02	310015	1	5743	192701	310015	304272	7740	96	421	7	189954	2617874	8264
166	2017-02-04 17:06:12	0	0	0	0	0	0	7.26	2.5	0.02	310247	1	5758	192940	310247	304489	7749	96	421	7	190186	2617915	8273
167	2017-02-04 17:16:11	0	0	0	0	0	0	7.26	2.5	0.02	310360	1	5762	192940	310360	304598	7757	96	421	7	190186	2617938	8281
168	2017-02-04 17:26:36	0	0	0	0	0	0	7.27	2.5	0.02	310454	1	5772	192987	310454	304682	7760	96	421	7	190231	2617984	8284
169	2017-02-04 17:36:44	0	0	0	0	0	0	7.27	2.5	0.02	310529	1	5776	192987	310529	304753	7763	96	421	7	190231	2618020	8287
170	2017-02-04 17:46:35	0	0	0	0	0	0	7.27	2.5	0.02	310619	1	5785	192987	310619	304834	7765	96	421	7	190231	2618058	8289
171	2017-02-04 17:56:50	0	0	0	0	0	0	7.27	2.5	0.02	310708	1	5788	192987	310708	304920	7768	96	421	7	190231	2618084	8292
172	2017-02-04 18:06:46	0	0	0	0	0	0	7.27	2.5	0.02	310788	1	5795	192987	310788	304993	7771	96	421	7	190231	2618114	8295
173	2017-02-04 18:18:11	0	0	0	0	0	0	7.27	2.5	0.02	310873	1	5802	192987	310873	305071	7777	96	421	7	190231	2618142	8301
174	2017-02-04 18:31:48	0	0	0	0	0	0	7.27	2.5	0.02	310998	1	5812	192987	310998	305186	7782	96	421	7	190231	2618190	8306
175	2017-02-04 18:43:03	0	0	0	0	0	0	7.27	2.5	0.02	311070	1	5817	192987	311070	305253	7787	96	421	7	190231	2618225	8311
176	2017-02-04 18:55:41	0	0	0	0	0	0	7.27	2.5	0.02	311141	1	5820	192987	311141	305321	7789	96	421	7	190231	2618272	8313
177	2017-02-04 19:07:08	0	0	0	0	0	0	7.27	2.5	0.02	311250	1	5826	192987	311250	305424	7795	96	421	7	190231	2618318	8319
178	2017-02-04 19:17:24	0	0	0	0	0	0	7.27	2.5	0.02	311316	1	5834	192999	311316	305482	7798	96	421	7	190243	2618354	8322
179	2017-02-04 19:28:52	0	0	0	0	0	0	7.27	2.51	0.02	311395	1	5841	192999	311395	305554	7804	96	421	7	190243	2618391	8328
180	2017-02-04 19:39:22	0	0	0	0	0	0	7.27	2.51	0.02	311458	1	5848	192999	311458	305610	7807	96	421	7	190243	2618430	8331
181	2017-02-04 19:51:33	0	0	0	0	0	0	7.27	2.51	0.02	311527	1	5858	192999	311527	305669	7810	96	421	7	190243	2618471	8334
182	2017-02-04 20:03:44	0	0	0	0	0	0	7.27	2.51	0.02	311574	1	5862	193167	311574	305712	7813	96	421	7	190407	2618506	8337
183	2017-02-04 20:14:17	0	0	0	0	0	0	7.27	2.51	0.02	311621	1	5864	193167	311621	305757	7814	96	421	7	190407	2618542	8338
184	2017-02-04 20:24:31	0	0	0	0	0	0	7.27	2.51	0.02	311649	1	5874	193167	311649	305775	7816	96	421	7	190407	2618575	8340
185	2017-02-04 20:34:38	0	0	0	0	0	0	7.27	2.51	0.02	311681	1	5876	193173	311681	305805	7817	96	422	7	190413	2618615	8342
186	2017-02-04 20:44:43	0	0	0	0	0	0	7.27	2.51	0.02	311721	1	5880	193173	311721	305841	7818	96	422	7	190413	2618661	8343
187	2017-02-04 20:55:08	0	0	0	0	0	0	7.27	2.51	0.02	311751	1	5884	193173	311751	305867	7818	96	422	7	190413	2618716	8343
188	2017-02-04 21:05:57	0	0	0	0	0	0	7.27	2.51	0.02	311784	1	5885	193173	311784	305899	7818	96	422	7	190413	2618772	8343
189	2017-02-04 21:16:24	0	0	0	0	0	0	7.27	2.51	0.02	311827	1	5892	193173	311827	305925	7820	96	422	7	190413	2618813	8345
190	2017-02-04 21:27:28	0	0	0	0	0	0	7.27	2.51	0.02	311857	1	5893	193173	311857	305964	7823	96	422	7	190413	2618856	8348
191	2017-02-04 21:38:05	0	0	0	0	0	0	7.27	2.51	0.02	311890	1	5897	193173	311890	305993	7824	96	422	7	190413	2618899	8349
192	2017-02-04 21:48:20	0	0	0	0	0	0	7.27	2.51	0.02	311915	1	5899	193173	311915	306016	7824	96	423	7	190413	2618943	8350
193	2017-02-04 22:00:34	0	0	0	0	0	0	7.27	2.51	0.02	311935	1	5901	193173	311935	306034	7826	96	423	7	190413	2619002	8352
194	2017-02-04 22:10:56	0	0	0	0	0	0	7.27	2.51	0.02	311960	1	5905	193173	311960	306055	7826	96	423	7	190413	2619054	8352
195	2017-02-04 22:20:56	0	0	0	0	0	0	7.27	2.51	0.02	311989	1	5909	193173	311989	306080	7826	96	423	7	190413	2619094	8352
196	2017-02-04 22:32:51	0	0	0	0	0	0	7.27	2.51	0.02	312032	1	5917	193173	312032	306115	7829	96	423	7	190413	2619140	8355
197	2017-02-04 22:43:34	0	0	0	0	0	0	7.27	2.51	0.02	312052	1	5922	193173	312052	306130	7829	96	423	7	190413	2619195	8355
198	2017-02-04 22:54:02	0	0	0	0	0	0	7.27	2.51	0.02	312078	1	5924	193173	312078	306154	7829	96	423	7	190413	2619234	8355
199	2017-02-04 23:04:04	0	0	0	0	0	0	7.27	2.51	0.02	312096	1	5924	193173	312096	306172	7831	96	423	7	190413	2619265	8357
200	2017-02-04 23:14:16	0	0	0	0	0	0	7.27	2.51	0.02	312112	1	5927	193173	312112	306185	7831	96	423	7	190413	2619305	8357
201	2017-02-04 23:25:51	0	0	0	0	0	0	7.27	2.51	0.02	312131	1	5931	193173	312131	306200	7831	96	423	7	190413	2619348	8357
202	2017-02-04 23:36:29	0	0	0	0	0	0	7.27	2.51	0.02	312142	1	5935	193173	312142	306209	7831	96	423	7	190413	2619374	8357
203	2017-02-04 23:48:00	0	0	0	0	0	0	7.27	2.51	0.02	312170	1	5937	193173	312170	306233	7832	96	423	7	190413	2619400	8358
204	2017-02-05 00:34:33	0	0	0	0	0	0	7.27	2.51	0.02	312231	1	5947	193173	312231	306284	7832	96	423	7	190413	2619625	8358
205	2017-02-05 01:34:00	0	0	0	0	0	0	7.27	2.51	0.02	312283	1	5954	193173	312283	306329	7834	96	423	7	190413	2619768	8360
206	2017-02-05 02:35:42	0	0	0	0	0	0	7.27	2.51	0.02	312312	1	5958	193173	312312	306354	7840	96	423	7	190413	2617873	8366
207	2017-02-05 03:39:59	0	0	0	0	0	0	7.27	2.51	0.02	312332	1	5964	193173	312332	306368	7840	96	423	7	190413	2617927	8366
208	2017-02-05 04:37:23	0	0	0	0	0	0	7.27	2.51	0.02	312339	1	5966	193173	312339	306373	7840	96	423	7	190413	2617961	8366
209	2017-02-05 05:39:08	0	0	0	0	0	0	7.27	2.51	0.02	312347	1	5968	193173	312347	306379	7840	96	423	7	190413	2617994	8366
210	2017-02-05 06:37:33	0	0	0	0	0	0	7.27	2.51	0.02	312360	1	5972	193173	312360	306388	7840	96	423	7	190413	2618033	8366
211	2017-02-05 07:12:35	0	0	0	0	0	0	7.27	2.51	0.02	312365	1	5973	193173	312365	306392	7840	96	423	7	190413	2618095	8366
212	2017-02-05 07:22:29	0	0	0	0	0	0	7.27	2.51	0.02	312368	1	5973	193173	312368	306395	7840	96	423	7	190413	2618120	8366
213	2017-02-05 07:32:33	0	0	0	0	0	0	7.27	2.51	0.02	312371	1	5974	193173	312371	306397	7840	96	423	7	190413	2618141	8366
214	2017-02-05 07:42:29	0	0	0	0	0	0	7.27	2.51	0.02	312376	1	5977	193173	312376	306399	7840	96	423	7	190413	2618168	8366
215	2017-02-05 07:53:29	0	0	0	0	0	0	7.27	2.51	0.02	312386	1	5978	193173	312386	306408	7840	96	423	7	190413	2618199	8366
216	2017-02-05 08:02:42	0	0	0	0	0	0	7.27	2.51	0.02	312391	1	5979	193173	312391	306412	7840	96	423	7	190413	2618224	8366
217	2017-02-05 08:13:28	0	0	0	0	0	0	7.27	2.51	0.02	312396	1	5981	193173	312396	306415	7840	96	423	7	190413	2618254	8366
218	2017-02-05 08:23:14	0	0	0	0	0	0	7.27	2.51	0.02	312400	1	5983	193173	312400	306417	7840	96	423	7	190413	2618290	8366
219	2017-02-05 08:34:14	0	0	0	0	0	0	7.27	2.51	0.02	312401	1	5983	193173	312401	306418	7840	96	423	7	190413	2618329	8366
220	2017-02-05 08:44:22	0	0	0	0	0	0	7.27	2.51	0.02	312415	1	5984	193173	312415	306431	7840	96	423	7	190413	2618366	8366
221	2017-02-05 08:56:34	0	0	0	0	0	0	7.27	2.51	0.02	312426	1	5984	193173	312426	306442	7840	96	423	7	190413	2618410	8366
222	2017-02-05 09:16:27	0	0	0	0	0	0	7.27	2.51	0.02	312444	1	5988	193173	312444	306456	7842	96	423	7	190413	2618479	8368
223	2017-02-05 09:26:37	0	0	0	0	0	0	7.27	2.51	0.02	312452	1	5989	193173	312452	306463	7842	96	423	7	190413	2618513	8368
224	2017-02-05 09:39:02	0	0	0	0	0	0	7.27	2.51	0.02	312465	1	5993	193173	312465	306472	7843	96	423	7	190413	2618568	8369
225	2017-02-05 09:49:54	0	0	0	0	0	0	7.27	2.51	0.02	312470	1	5993	193173	312470	306477	7846	96	423	7	190413	2618593	8372
226	2017-02-05 10:00:50	0	0	0	0	0	0	7.27	2.51	0.02	312475	1	5995	193173	312475	306480	7846	96	423	7	190413	2618634	8372
227	2017-02-05 10:11:04	0	0	0	0	0	0	7.27	2.51	0.02	312478	1	5996	193559	312478	306482	7846	96	423	7	190413	2618697	8372
228	2017-02-05 10:20:48	0	0	0	0	0	0	7.27	2.51	0.02	312484	1	5996	193559	312484	306488	7848	96	423	7	190413	2618731	8374
229	2017-02-05 10:31:16	0	0	0	0	0	0	7.27	2.51	0.02	312491	1	5997	193559	312491	306494	7848	96	423	7	190413	2618754	8374
230	2017-02-05 10:40:53	0	0	0	0	0	0	7.27	2.51	0.02	312500	1	6001	193559	312500	306499	7848	96	423	7	190413	2618786	8374
231	2017-02-05 10:51:09	0	0	0	0	0	0	7.27	2.51	0.02	312505	1	6001	193559	312505	306504	7848	96	423	7	190413	2618822	8374
232	2017-02-05 11:01:16	0	0	0	0	0	0	7.27	2.51	0.02	312509	1	6001	193559	312509	306508	7848	96	423	7	190413	2618867	8374
233	2017-02-05 11:11:27	0	0	0	0	0	0	7.27	2.51	0.02	312516	1	6003	193559	312516	306513	7848	96	423	7	190413	2618904	8374
234	2017-02-05 11:25:31	0	0	0	0	0	0	7.27	2.51	0.02	312529	1	6006	193559	312529	306523	7848	96	423	7	190413	2618948	8374
235	2017-02-05 11:34:47	0	0	0	0	0	0	7.27	2.51	0.02	312534	1	6006	193559	312534	306528	7848	96	423	7	190413	2618974	8374
236	2017-02-05 11:44:43	0	0	0	0	0	0	7.27	2.51	0.02	312542	1	6006	193559	312542	306536	7848	96	423	7	190413	2619004	8374
237	2017-02-05 11:55:31	0	0	0	0	0	0	7.27	2.51	0.02	312543	1	6007	193559	312543	306536	7848	96	423	7	190413	2619025	8374
238	2017-02-05 12:05:43	0	0	0	0	0	0	7.27	2.51	0.02	312547	1	6007	193559	312547	306540	7848	96	423	7	190413	2619067	8374
239	2017-02-05 12:16:43	0	0	0	0	0	0	7.27	2.51	0.02	312554	1	6008	193559	312554	306546	7848	96	423	7	190413	2619100	8374
240	2017-02-05 12:29:27	0	0	0	0	0	0	7.27	2.51	0.02	312559	1	6008	193559	312559	306551	7848	96	423	7	190413	2619140	8374
241	2017-02-05 12:46:48	0	0	0	0	0	0	7.27	2.51	0.02	312565	1	6008	193559	312565	306557	7848	96	423	7	190413	2619209	8374
242	2017-02-05 12:57:07	0	0	0	0	0	0	7.27	2.51	0.02	312572	1	6009	193559	312572	306563	7848	96	423	7	190413	2619243	8374
243	2017-02-05 13:11:28	0	0	0	0	0	0	7.27	2.51	0.02	312583	1	6013	193559	312583	306570	7848	96	423	7	190413	2619313	8374
244	2017-02-05 13:21:59	0	0	0	0	0	0	7.27	2.51	0.02	312587	1	6014	193559	312587	306573	7848	96	423	7	190413	2619346	8374
245	2017-02-05 13:34:13	0	0	0	0	0	0	7.27	2.51	0.02	312594	1	6015	193559	312594	306579	7848	96	423	7	190413	2619395	8374
246	2017-02-05 13:43:45	0	0	0	0	0	0	7.27	2.51	0.02	312599	1	6016	193559	312599	306583	7848	96	423	7	190413	2619434	8374
247	2017-02-05 13:54:17	0	0	0	0	0	0	7.27	2.51	0.02	312600	1	6016	193559	312600	306584	7848	96	423	7	190413	2619475	8374
248	2017-02-05 14:05:25	0	0	0	0	0	0	7.27	2.51	0.02	312604	1	6016	193559	312604	306588	7848	96	423	7	190413	2619510	8374
249	2017-02-05 14:17:00	0	0	0	0	0	0	7.27	2.51	0.02	312608	1	6017	193559	312608	306591	7848	96	423	7	190413	2619550	8374
250	2017-02-05 14:26:32	0	0	0	0	0	0	7.27	2.51	0.02	312611	1	6017	193559	312611	306594	7848	96	423	7	190413	2619578	8374
251	2017-02-05 14:38:38	0	0	0	0	0	0	7.27	2.51	0.02	312618	1	6018	193559	312618	306600	7848	96	423	7	190413	2619622	8374
252	2017-02-05 14:49:34	0	0	0	0	0	0	7.27	2.51	0.02	312624	1	6018	193559	312624	306606	7849	96	423	7	190413	2619673	8375
253	2017-02-05 15:08:12	0	0	0	0	0	0	7.27	2.51	0.02	312633	1	6019	193559	312633	306614	7849	96	423	7	190413	2619738	8375
254	2017-02-05 15:18:36	0	0	0	0	0	0	7.27	2.51	0.02	312635	1	6020	193559	312635	306615	7849	96	423	7	190413	2619774	8375
255	2017-02-05 15:32:06	0	0	0	0	0	0	7.27	2.51	0.02	312638	1	6021	193559	312638	306617	7850	96	424	7	190413	2619826	8377
256	2017-02-05 15:43:47	0	0	0	0	0	0	7.27	2.51	0.02	312643	1	6023	193559	312643	306620	7850	96	425	7	190413	2619875	8378
257	2017-02-05 15:53:17	0	0	0	0	0	0	7.27	2.51	0.02	312651	1	6027	193559	312651	306624	7850	96	425	7	190413	2619913	8378
258	2017-02-05 16:05:29	0	0	0	0	0	0	7.27	2.51	0.02	312655	1	6031	193559	312655	306624	7850	96	425	7	190413	2619954	8378
259	2017-02-05 16:18:11	0	0	0	0	0	0	7.27	2.51	0.02	312661	1	6032	193559	312661	306629	7850	96	425	7	190413	2620013	8378
260	2017-02-05 16:28:48	0	0	0	0	0	0	7.27	2.51	0.02	312665	1	6033	193559	312665	306632	7850	96	425	7	190413	2620051	8378
261	2017-02-05 17:02:19	0	0	0	0	0	0	7.27	2.51	0.02	312674	1	6034	193656	312674	306640	7850	96	425	7	190506	2620163	8378
262	2017-02-05 17:17:04	0	0	0	0	0	0	7.27	2.51	0.02	312679	1	6034	193656	312679	306645	7850	96	425	7	190506	2620234	8378
263	2017-02-05 17:34:36	0	0	0	0	0	0	7.28	2.51	0.02	312690	1	6035	193996	312690	306655	7850	96	425	7	190835	2620305	8378
264	2017-02-05 17:46:01	0	0	0	0	0	0	7.28	2.51	0.02	312698	1	6035	193996	312698	306663	7850	96	425	7	190835	2620355	8378
265	2017-02-05 18:16:19	0	0	0	0	0	0	7.28	2.51	0.02	312714	1	6039	193996	312714	306675	7850	96	425	7	190835	2620485	8378
266	2017-02-05 18:42:10	0	0	0	0	0	0	7.28	2.51	0.02	312722	1	6041	193996	312722	306681	7851	96	425	7	190835	2620583	8379
267	2017-02-05 18:57:04	0	0	0	0	0	0	7.28	2.51	0.02	312725	1	6041	193996	312725	306684	7851	96	425	7	190835	2620633	8379
268	2017-02-05 19:21:30	0	0	0	0	0	0	7.28	2.51	0.02	312734	1	6041	193996	312734	306693	7851	96	425	7	190835	2620731	8379
269	2017-02-05 19:33:05	0	0	0	0	0	0	7.28	2.51	0.02	312740	1	6042	193996	312740	306698	7851	96	425	7	190835	2620778	8379
270	2017-02-05 19:54:32	0	0	0	0	0	0	7.28	2.51	0.02	312752	1	6046	193996	312752	306706	7852	96	425	7	190835	2620894	8380
271	2017-02-05 20:10:34	0	0	0	0	0	0	7.28	2.51	0.02	312762	1	6048	193996	312762	306714	7852	96	425	7	190835	2620981	8380
272	2017-02-05 20:31:27	0	0	0	0	0	0	7.28	2.51	0.02	312771	1	6050	193996	312771	306721	7852	96	425	7	190835	2621184	8380
273	2017-02-05 20:45:54	0	0	0	0	0	0	7.28	2.51	0.02	312777	1	6051	193996	312777	306726	7852	96	425	7	190835	2621398	8380
274	2017-02-05 20:56:25	0	0	0	0	0	0	7.28	2.51	0.02	312781	1	6051	193996	312781	306730	7852	96	425	7	190835	2621531	8380
275	2017-02-05 21:06:38	0	0	0	0	0	0	7.28	2.51	0.02	312784	1	6051	193996	312784	306733	7852	96	425	7	190835	2621644	8380
276	2017-02-05 21:17:49	0	0	0	0	0	0	7.28	2.51	0.02	312790	1	6051	193996	312790	306739	7852	96	425	7	190835	2621750	8380
277	2017-02-05 22:11:11	0	0	0	0	0	0	7.28	2.51	0.02	312824	1	6052	193996	312824	306772	7853	96	425	7	190835	2622286	8381
278	2017-02-05 22:23:08	0	0	0	0	0	0	7.28	2.51	0.02	312828	1	6053	194045	312828	306775	7853	96	425	7	190835	2622397	8381
279	2017-02-05 22:37:51	0	0	0	0	0	0	7.28	2.51	0.02	312833	1	6053	194045	312833	306780	7853	96	425	7	190835	2622527	8381
280	2017-02-05 22:53:39	0	0	0	0	0	0	7.28	2.51	0.02	312837	1	6054	194045	312837	306783	7853	96	425	7	190835	2622669	8381
281	2017-02-05 23:07:53	0	0	0	0	0	0	7.28	2.51	0.02	312839	1	6054	194045	312839	306785	7853	96	425	7	190835	2622784	8381
282	2017-02-05 23:20:13	0	0	0	0	0	0	7.28	2.51	0.02	312842	1	6054	194045	312842	306788	7853	96	425	7	190835	2622882	8381
283	2017-02-05 23:32:36	0	0	0	0	0	0	7.28	2.51	0.02	312844	1	6055	194045	312844	306789	7853	96	425	7	190835	2622974	8381
284	2017-02-05 23:46:28	0	0	0	0	0	0	7.28	2.51	0.02	312846	1	6055	194045	312846	306791	7853	96	425	7	190835	2623075	8381
285	2017-02-05 23:58:25	0	0	0	0	0	0	7.27	2.51	0.02	312854	1	6055	194045	312854	306799	7853	96	425	7	190835	2623162	8381
286	2017-02-06 00:38:58	0	0	0	0	0	0	7.27	2.51	0.02	312861	1	6055	194045	312861	306806	7853	96	425	7	190835	2623381	8381
287	2017-02-06 01:49:02	0	0	0	0	0	0	7.27	2.51	0.02	312870	1	6056	194045	312870	306814	7853	96	425	7	190835	2623625	8381
288	2017-02-06 02:44:08	0	0	0	0	0	0	7.28	2.51	0.02	312875	1	6057	194045	312875	306818	7853	96	425	7	190835	2620707	8381
289	2017-02-06 03:40:22	0	0	0	0	0	0	7.28	2.51	0.02	312879	1	6057	194045	312879	306822	7853	96	425	7	190835	2620748	8381
290	2017-02-06 04:46:49	0	0	0	0	0	0	7.28	2.51	0.02	312882	1	6057	194045	312882	306825	7853	96	425	7	190835	2620785	8381
291	2017-02-06 06:11:20	0	0	0	0	0	0	7.28	2.51	0.02	312888	1	6057	194045	312888	306831	7853	96	425	7	190835	2620834	8381
