1	2018-02-26 10:57:50		0	0	0	0	0	0	0	0	0	0	0	0	0	0	0	0	1	0	0	0	3594332	0
2	2018-02-26 11:08:22		0	0	0	0	0	0	0.36	8.09	0.01	17099	0	112	13022	17099	17099	1384	50	132	20	12790	3594335	1586
3	2018-02-26 11:18:52		0	0	0	0	0	0	0.64	8.72	0.01	31732	0	469	23795	31732	31732	2766	96	272	34	23135	3594336	3168
4	2018-02-26 11:29:23		0	0	0	0	0	0	0.94	8.8	0.02	46626	0	1042	35059	46626	46626	4104	126	413	47	33776	3594337	4690
5	2018-02-26 11:39:52		0	0	0	0	0	0	1.17	8.83	0.03	59791	0	1705	43538	59791	59791	5278	149	503	60	42064	3594338	5990
6	2018-02-26 11:50:23		0	0	0	0	0	0	1.38	8.89	0.03	71259	0	2435	51738	71259	71259	6333	172	603	69	49498	3594337	7177
7	2018-02-26 12:00:56		0	0	0	0	0	0	1.59	8.93	0.04	82282	0	3229	60224	82282	82282	7348	208	676	78	57315	3594338	8310
8	2018-02-26 12:11:25		0	0	0	0	0	0	1.77	8.9	0.05	92909	0	4250	67323	92909	92909	8267	245	747	84	63586	3594339	9343
9	2018-02-26 12:22:34		0	0	0	0	0	0	1.95	8.84	0.05	102959	0	5350	74968	102959	102959	9106	266	806	90	70089	3594341	10268
10	2018-02-26 12:32:27		0	0	0	0	0	0	2.13	8.82	0.06	112060	0	6387	81609	112060	112060	9879	294	862	93	76588	3594344	11128
11	2018-02-26 12:42:56		0	0	0	0	0	0	2.37	8.73	0.06	125433	0	8136	91890	125433	125433	10954	313	922	97	85060	3594347	12286
12	2018-02-26 12:52:44		0	0	0	0	0	0	2.43	8.71	0.07	129819	0	8784	94756	129819	129819	11302	336	984	104	87352	3594349	12726
13	2018-02-26 13:03:14		0	0	0	0	0	0	2.7	8.63	0.08	142605	0	10763	105684	142605	142605	12302	356	1037	106	96899	3594355	13801
14	2018-02-26 13:13:44		0	0	0	0	0	0	2.84	8.54	0.08	150586	0	12013	109044	150586	150586	12859	380	1101	110	102144	3594355	14450
15	2018-02-26 13:24:15		0	0	0	0	0	0	2.93	8.48	0.08	158306	0	13326	116556	158306	158306	13419	405	1154	116	105404	3594359	15094
16	2018-02-26 13:34:46		0	0	0	0	0	0	3.04	8.46	0.09	165799	0	14678	121172	165799	165799	14021	427	1193	121	109376	3594365	15762
17	2018-02-26 13:45:17		0	0	0	0	0	0	3.12	8.4	0.09	173199	0	15994	124750	173199	173199	14541	450	1243	124	112245	3594364	16358
18	2018-02-26 13:55:49		0	0	0	0	0	0	3.22	8.33	0.1	180150	0	17335	128655	180150	180150	15000	463	1283	127	115656	3594366	16873
19	2018-02-26 14:06:20		0	0	0	0	0	0	3.32	8.28	0.1	186444	0	18594	132862	186444	186444	15433	483	1327	130	119357	3594365	17373
20	2018-02-26 14:16:50		0	0	0	0	0	0	3.4	8.23	0.1	192529	0	19812	136335	192529	192529	15839	500	1369	138	122215	3594369	17846
21	2018-02-26 14:27:20		0	0	0	0	0	0	3.46	8.2	0.11	198024	0	20969	139694	198024	198024	16231	523	1403	142	124400	3594367	18299
22	2018-02-26 14:37:49		0	0	0	0	0	0	3.51	8.23	0.11	202028	0	22034	141662	202028	202028	16634	535	1428	145	126319	3594368	18742
23	2018-02-26 14:48:21		0	0	0	0	0	0	3.58	8.13	0.11	207543	0	23663	145734	207543	207543	16863	545	1453	148	128809	3594376	19009
24	2018-02-26 14:58:51		0	0	0	0	0	0	3.61	8.1	0.12	210950	0	24719	147513	210950	210950	17088	557	1489	148	129935	3594375	19282
25	2018-02-26 15:09:28		0	0	0	0	0	0	3.64	8.09	0.12	212656	0	25263	148639	212656	214161	17214	570	1515	149	130808	3594376	19448
26	2018-02-26 15:19:58		0	0	0	0	0	0	3.7	8.07	0.12	217108	0	26723	152066	217108	217108	17512	577	1534	151	132837	3594370	19774
27	2018-02-26 15:30:22		0	0	0	0	0	0	3.71	8.04	0.13	220009	0	27670	153166	220009	220009	17699	590	1555	154	133356	3594373	19998
28	2018-02-26 15:40:53		0	0	0	0	0	0	3.73	8.03	0.13	222894	0	28608	155029	222894	222894	17892	594	1583	156	134234	3594374	20225
29	2018-02-26 15:51:22		0	0	0	0	0	0	3.78	8.02	0.13	225742	0	29496	156346	225742	225742	18094	599	1608	157	135785	3594379	20458
30	2018-02-26 16:01:54		0	0	0	0	0	0	3.82	8	0.13	228511	0	30401	158440	228511	228511	18284	606	1629	159	137347	3594388	20678
31	2018-02-26 16:12:30		0	0	0	0	0	0	3.84	8	0.14	231034	0	31267	159375	231034	231034	18473	613	1647	159	137913	3594400	20892
32	2018-02-26 16:22:54		0	0	0	0	0	0	3.86	7.98	0.14	233546	0	32101	161075	233546	233546	18640	617	1672	160	138773	3594420	21089
33	2018-02-26 16:33:24		0	0	0	0	0	0	3.92	7.94	0.14	237424	0	33434	164184	237424	237424	18862	628	1695	161	140952	3594438	21346
34	2018-02-26 16:43:54		0	0	0	0	0	0	3.94	7.93	0.14	240029	0	34245	165680	240029	240029	19034	639	1718	163	141678	3594462	21554
35	2018-02-26 16:54:25		0	0	0	0	0	0	3.99	7.92	0.14	242719	0	35055	167727	242719	242719	19221	644	1741	164	143530	3594477	21770
36	2018-02-26 17:04:55		0	0	0	0	0	0	4.02	7.91	0.15	245225	0	35791	168726	245225	245225	19396	655	1758	165	144530	3594493	21974
37	2018-02-26 17:15:28		0	0	0	0	0	0	4.04	7.9	0.15	247578	0	36573	169896	247578	247578	19562	674	1779	166	145130	3594508	22181
38	2018-02-26 17:26:00		0	0	0	0	0	0	4.07	7.89	0.15	250101	0	37431	171848	250101	250101	19729	683	1796	166	146310	3594526	22374
39	2018-02-26 17:36:28		0	0	0	0	0	0	4.1	7.87	0.15	252490	0	38258	173570	252490	252490	19871	696	1818	167	147438	3594541	22552
40	2018-02-26 17:46:59		0	0	0	0	0	0	4.13	7.86	0.15	254859	0	39037	175006	254859	254859	20027	704	1837	167	148533	3594545	22735
41	2018-02-26 17:57:28		0	0	0	0	0	0	4.17	7.85	0.15	257139	0	39813	177293	257139	257139	20191	708	1851	168	149887	3594554	22918
42	2018-02-26 18:08:00		0	0	0	0	0	0	4.22	7.84	0.16	260575	0	40996	179846	260575	260575	20417	717	1870	169	151760	3594569	23173
43	2018-02-26 18:18:30		0	0	0	0	0	0	4.24	7.82	0.16	262826	0	41802	180739	262826	262826	20543	727	1883	169	152365	3594580	23322
44	2018-02-26 18:29:01		0	0	0	0	0	0	4.25	7.8	0.16	265177	0	42634	182267	265177	265177	20680	739	1901	169	152791	3594597	23489
45	2018-02-26 18:39:32		0	0	0	0	0	0	4.28	7.79	0.16	267622	0	43498	183743	267622	267622	20843	757	1922	169	153858	3594604	23691
46	2018-02-26 18:50:02		0	0	0	0	0	0	4.3	7.77	0.16	269902	0	44302	185692	269902	269902	20967	768	1944	169	154602	3594616	23848
47	2018-02-26 19:00:31		0	0	0	0	0	0	4.35	7.75	0.17	272361	0	45231	188476	272361	272361	21098	780	1970	169	156367	3594635	24017
48	2018-02-26 19:11:02		0	0	0	0	0	0	4.39	7.73	0.17	274901	0	46273	190713	274901	274901	21254	788	1982	171	157936	3594646	24195
49	2018-02-26 19:21:32		0	0	0	0	0	0	4.43	7.71	0.17	277400	0	47267	192205	277400	277400	21398	797	1999	171	159350	3594660	24365
50	2018-02-26 19:32:01		0	0	0	0	0	0	4.47	7.69	0.17	279936	0	48259	193291	279936	279936	21530	813	2029	171	160744	3594681	24543
51	2018-02-26 19:42:35		0	0	0	0	0	0	4.49	7.67	0.17	282255	0	49199	194461	282255	282255	21653	824	2043	171	161310	3594692	24691
52	2018-02-26 19:53:06		0	0	0	0	0	0	4.51	7.65	0.18	285767	0	50645	195600	285767	285767	21850	835	2065	172	162078	3594713	24922
53	2018-02-26 20:03:38		0	0	0	0	0	0	4.54	7.63	0.18	288086	0	51598	197736	288086	288086	21986	846	2083	172	163102	3594725	25087
54	2018-02-26 20:14:06		0	0	0	0	0	0	4.57	7.62	0.18	290527	0	52597	199739	290527	290527	22134	863	2103	175	164201	3594733	25275
55	2018-02-26 20:24:38		0	0	0	0	0	0	4.61	7.6	0.18	293016	0	53558	201189	293016	293016	22280	867	2129	179	165544	3594745	25455
56	2018-02-26 20:35:09		0	0	0	0	0	0	4.63	7.59	0.18	295340	0	54479	202550	295340	295340	22425	875	2150	179	166545	3594761	25629
57	2018-02-26 20:45:35		0	0	0	0	0	0	4.66	7.58	0.19	297767	0	55404	204287	297767	297767	22561	889	2164	181	167627	3594782	25795
58	2018-02-26 20:56:06		0	0	0	0	0	0	4.69	7.55	0.19	300174	0	56377	205671	300174	300174	22675	897	2184	181	168576	3594792	25937
59	2018-02-26 21:06:36		0	0	0	0	0	0	4.71	7.54	0.19	302503	0	57274	207084	302503	302503	22802	905	2198	181	169424	3594799	26086
60	2018-02-26 21:17:07		0	0	0	0	0	0	4.72	7.52	0.19	304704	0	58070	208598	304704	304704	22915	921	2216	182	169824	3594821	26234
61	2018-02-26 21:27:36		0	0	0	0	0	0	4.74	7.51	0.19	306966	0	58929	211018	306966	306966	23043	927	2233	183	170343	3594822	26386
62	2018-02-26 21:38:08		0	0	0	0	0	0	4.76	7.48	0.19	310293	0	60202	214455	310293	310293	23212	933	2249	183	171249	3594837	26577
63	2018-02-26 21:48:37		0	0	0	0	0	0	4.78	7.46	0.2	312450	0	61063	215597	312450	312450	23322	942	2267	186	171667	3594853	26717
64	2018-02-26 21:59:08		0	0	0	0	0	0	4.79	7.45	0.2	314724	0	61943	216424	314724	314724	23446	949	2292	188	172354	3594863	26875
65	2018-02-26 22:09:39		0	0	0	0	0	0	4.83	7.44	0.2	316832	0	62794	217236	316832	316832	23566	955	2305	190	173644	3594882	27016
66	2018-02-26 22:20:10		0	0	0	0	0	0	4.85	7.43	0.2	318904	0	63608	218170	318904	318904	23680	962	2315	190	174201	3594910	27147
67	2018-02-26 22:30:43		0	0	0	0	0	0	4.88	7.41	0.2	320957	0	64405	218951	320957	320957	23796	970	2325	190	175489	3594933	27281
68	2018-02-26 22:41:10		0	0	0	0	0	0	4.9	7.41	0.2	322937	0	65190	219615	322937	322937	23919	978	2337	190	176046	3594948	27424
69	2018-02-26 22:51:41		0	0	0	0	0	0	4.91	7.39	0.2	324933	0	65987	220247	324933	324933	24018	984	2347	190	176402	3594964	27539
70	2018-02-26 23:02:12		0	0	0	0	0	0	4.94	7.38	0.2	326885	0	66710	221332	326885	326885	24114	986	2360	191	177657	3594979	27651
71	2018-02-26 23:12:42		0	0	0	0	0	0	4.97	7.37	0.21	328770	0	67455	222993	328770	328770	24229	993	2370	191	178664	3594995	27783
72	2018-02-26 23:23:11		0	0	0	0	0	0	5	7.36	0.21	331309	0	68422	224464	331309	331309	24371	1003	2375	192	179659	3595014	27941
73	2018-02-26 23:33:43		0	0	0	0	0	0	5.01	7.35	0.21	332820	0	69037	225847	332820	332820	24456	1010	2386	193	180014	3595029	28045
74	2018-02-26 23:44:13		0	0	0	0	0	0	5.02	7.34	0.21	334412	0	69664	226401	334412	334412	24530	1018	2399	194	180365	3595041	28141
75	2018-02-26 23:54:43		0	0	0	0	0	0	5.03	7.33	0.21	335822	0	70197	226994	335822	335822	24625	1020	2405	196	180816	3595054	28246
76	2018-02-27 00:22:15		0	0	0	0	0	0	5.07	7.32	0.21	338803	0	71337	229446	338803	338803	24794	1027	2428	197	182389	3595071	28446
77	2018-02-27 01:27:14		0	0	0	0	0	0	5.09	7.3	0.21	343656	0	73109	231098	343656	343656	25072	1039	2456	198	182901	3595090	28765
78	2018-02-27 02:32:14		0	0	0	0	0	0	5.15	7.29	0.21	346032	0	73981	234413	346032	346032	25215	1045	2477	199	185193	3595072	28936
79	2018-02-27 03:37:16		0	0	0	0	0	0	5.17	7.28	0.21	347345	0	74475	235405	347345	347345	25299	1049	2485	199	185812	3595058	29032
80	2018-02-27 04:42:18		0	0	0	0	0	0	5.17	7.28	0.21	348399	0	74861	236060	348399	348399	25367	1051	2495	199	185996	3595055	29112
81	2018-02-27 05:47:17		0	0	0	0	0	0	5.19	7.27	0.22	349952	0	75447	237699	349952	349952	25449	1055	2500	199	186595	3595048	29203
82	2018-02-27 06:52:18		0	0	0	0	0	0	5.21	7.26	0.22	353175	0	76751	238793	353175	353175	25623	1066	2522	199	187175	3595065	29410
83	2018-02-27 07:15:17		0	0	0	0	0	0	5.23	7.25	0.22	355118	0	77525	239996	355118	355118	25737	1076	2534	200	187845	3595075	29547
84	2018-02-27 07:25:48		0	0	0	0	0	0	5.23	7.24	0.22	356063	0	77856	240254	356063	356063	25790	1079	2539	201	188141	3595079	29609
85	2018-02-27 07:36:19		0	0	0	0	0	0	5.25	7.24	0.22	356917	0	78170	241537	356917	356917	25836	1084	2549	201	188668	3595089	29670
86	2018-02-27 07:46:50		0	0	0	0	0	0	5.26	7.24	0.22	357954	0	78538	242123	357954	357954	25901	1089	2558	202	189025	3595093	29750
87	2018-02-27 07:57:18		0	0	0	0	0	0	5.27	7.23	0.22	359014	0	78946	242730	359014	359014	25963	1094	2567	203	189326	3595102	29827
88	2018-02-27 08:07:50		0	0	0	0	0	0	5.28	7.23	0.22	360031	0	79372	243714	360031	360031	26023	1101	2573	205	189749	3595107	29902
89	2018-02-27 08:18:33		0	0	0	0	0	0	5.3	7.22	0.22	361110	0	79829	245677	361110	361110	26086	1102	2580	205	190397	3595113	29973
90	2018-02-27 08:28:51		0	0	0	0	0	0	5.32	7.22	0.22	362679	0	80455	246803	362679	362679	26177	1106	2591	205	191367	3595121	30079
91	2018-02-27 08:39:23		0	0	0	0	0	0	5.33	7.22	0.22	363771	0	80888	249156	363771	363771	26249	1111	2598	205	191509	3595139	30163
92	2018-02-27 08:49:53		0	0	0	0	0	0	5.33	7.21	0.22	364758	0	81309	249277	364758	364758	26316	1112	2608	207	191723	3595154	30243
93	2018-02-27 09:00:24		0	0	0	0	0	0	5.33	7.21	0.22	365785	0	81719	249302	365785	365785	26372	1117	2613	207	191738	3595165	30309
94	2018-02-27 09:10:52		0	0	0	0	0	0	5.35	7.2	0.22	366724	0	82173	249744	366724	366724	26418	1120	2617	208	192190	3595174	30363
95	2018-02-27 09:21:23		0	0	0	0	0	0	5.37	7.2	0.22	367820	0	82660	251895	367820	367820	26479	1125	2620	211	193051	3595183	30435
96	2018-02-27 09:31:53		0	0	0	0	0	0	5.38	7.2	0.23	368841	0	83098	252697	368841	368841	26549	1128	2627	211	193425	3595198	30515
97	2018-02-27 09:42:24		0	0	0	0	0	0	5.4	7.19	0.23	369822	0	83489	254086	369822	369822	26606	1130	2630	214	194153	3595206	30580
98	2018-02-27 09:52:54		0	0	0	0	0	0	5.41	7.19	0.23	370771	0	83891	255502	370771	370771	26670	1134	2640	215	194635	3595215	30659
99	2018-02-27 10:03:31		0	0	0	0	0	0	5.43	7.19	0.23	371815	0	84340	256770	371815	371815	26736	1140	2643	216	195372	3595224	30735
100	2018-02-27 10:13:56		0	0	0	0	0	0	5.44	7.19	0.23	373239	0	84893	257492	373239	373239	26830	1145	2648	216	195531	3595240	30839
101	2018-02-27 10:24:28		0	0	0	0	0	0	5.45	7.19	0.23	374196	0	85309	258995	374196	374196	26894	1149	2652	219	196098	3595252	30914
102	2018-02-27 10:35:01		0	0	0	0	0	0	5.48	7.18	0.23	375190	0	85696	260126	375190	375190	26949	1152	2653	219	196846	3595269	30973
103	2018-02-27 10:45:29		0	0	0	0	0	0	5.51	7.18	0.23	376106	0	86065	261245	376106	376106	26999	1154	2661	219	198131	3595279	31033
104	2018-02-27 10:56:00		0	0	0	0	0	0	5.51	7.17	0.23	377051	0	86463	261442	377051	377051	27043	1161	2665	219	198244	3595287	31088
105	2018-02-27 11:06:29		0	0	0	0	0	0	5.52	7.17	0.23	377996	0	86901	262129	377996	377996	27096	1166	2669	219	198396	3595300	31150
106	2018-02-27 11:17:01		0	0	0	0	0	0	5.53	7.16	0.23	378818	0	87316	262952	378818	378818	27140	1166	2672	219	198855	3595309	31197
107	2018-02-27 11:27:30		0	0	0	0	0	0	5.53	7.16	0.23	379561	0	87689	263042	379561	379561	27181	1169	2676	219	198855	3595319	31245
108	2018-02-27 11:38:01		0	0	0	0	0	0	5.54	7.16	0.23	380243	0	88044	263489	380243	380243	27213	1171	2679	219	199137	3595330	31282
109	2018-02-27 11:48:32		0	0	0	0	0	0	5.54	7.15	0.23	380934	0	88424	263714	380934	380934	27252	1173	2682	219	199239	3595350	31326
110	2018-02-27 11:59:01		0	0	0	0	0	0	5.54	7.15	0.23	381821	0	88899	264119	381821	381821	27299	1174	2685	219	199316	3595371	31377
111	2018-02-27 12:09:35		0	0	0	0	0	0	5.55	7.15	0.23	382473	0	89279	264384	382473	382473	27332	1176	2686	219	199521	3595386	31413
112	2018-02-27 12:20:03		0	0	0	0	0	0	5.56	7.15	0.23	383057	0	89617	264384	383057	383057	27372	1178	2688	219	199727	3595399	31457
113	2018-02-27 12:30:39		0	0	0	0	0	0	5.56	7.15	0.23	383641	0	89932	264429	383641	383641	27412	1182	2692	219	199727	3595406	31505
114	2018-02-27 12:41:07		0	0	0	0	0	0	5.56	7.14	0.23	384147	0	90213	264429	384147	384147	27436	1184	2694	219	199727	3595413	31533
115	2018-02-27 12:51:36		0	0	0	0	0	0	5.56	7.14	0.24	384783	0	90559	264429	384783	384783	27463	1186	2696	220	199727	3595425	31565
116	2018-02-27 13:02:05		0	0	0	0	0	0	5.56	7.14	0.24	385357	0	90847	264791	385357	385357	27499	1190	2704	220	199831	3595438	31613
117	2018-02-27 13:12:35		0	0	0	0	0	0	5.56	7.13	0.24	385907	0	91147	264870	385907	385907	27527	1192	2706	221	199876	3595451	31646
118	2018-02-27 13:23:05		0	0	0	0	0	0	5.56	7.13	0.24	386467	0	91456	265048	386467	386467	27553	1193	2707	221	199876	3595466	31674
119	2018-02-27 13:33:36		0	0	0	0	0	0	5.56	7.13	0.24	386981	0	91729	265366	386981	386981	27581	1194	2710	221	199979	3595484	31706
120	2018-02-27 13:44:06		0	0	0	0	0	0	5.56	7.13	0.24	387868	0	92206	265776	387868	387868	27636	1199	2713	221	200031	3595495	31769
121	2018-02-27 13:54:41		0	0	0	0	0	0	5.57	7.12	0.24	388393	0	92510	266049	388393	388393	27666	1201	2715	221	200185	3595516	31803
122	2018-02-27 14:05:08		0	0	0	0	0	0	5.57	7.12	0.24	388964	0	92797	266312	388964	388964	27698	1203	2717	222	200334	3595528	31840
123	2018-02-27 14:15:43		0	0	0	0	0	0	5.57	7.12	0.24	389516	0	93082	266450	389516	389516	27734	1204	2721	223	200334	3595535	31882
124	2018-02-27 14:26:16		0	0	0	0	0	0	5.58	7.12	0.24	390075	0	93387	267076	390075	390075	27766	1206	2723	223	200483	3595549	31918
125	2018-02-27 14:36:54		0	0	0	0	0	0	5.58	7.12	0.24	390578	0	93637	267076	390578	390578	27790	1208	2724	223	200483	3595556	31945
126	2018-02-27 14:47:17		0	0	0	0	0	0	5.58	7.11	0.24	391105	0	93909	267399	391105	391105	27823	1211	2725	223	200561	3595565	31982
127	2018-02-27 14:57:53		0	0	0	0	0	0	5.58	7.11	0.24	391660	0	94216	267659	391660	391660	27846	1214	2726	223	200707	3595579	32009
128	2018-02-27 15:08:15		0	0	0	0	0	0	5.58	7.11	0.24	392201	0	94502	268169	392201	392201	27876	1217	2730	223	200811	3595588	32046
129	2018-02-27 15:18:46		0	0	0	0	0	0	5.59	7.11	0.24	392709	0	94783	268634	392709	392709	27902	1217	2731	223	201046	3595604	32073
130	2018-02-27 15:29:17		0	0	0	0	0	0	5.6	7.1	0.24	393462	0	95169	269382	393462	393462	27946	1217	2733	223	201203	3595605	32119
131	2018-02-27 15:39:46		0	0	0	0	0	0	5.6	7.1	0.24	393977	0	95444	269993	393977	393977	27967	1219	2736	224	201255	3595612	32146
132	2018-02-27 15:50:23		0	0	0	0	0	0	5.6	7.1	0.24	394507	0	95737	270459	394507	394507	28001	1220	2738	225	201255	3595624	32184
133	2018-02-27 16:00:49		0	0	0	0	0	0	5.61	7.1	0.24	395058	0	96040	271219	395058	395058	28030	1222	2740	225	201622	3595637	32217
134	2018-02-27 16:11:18		0	0	0	0	0	0	5.61	7.09	0.24	395617	0	96328	271505	395617	395617	28053	1224	2742	226	201674	3595664	32245
135	2018-02-27 16:21:48		0	0	0	0	0	0	5.61	7.09	0.24	396072	0	96575	272076	396072	396072	28082	1224	2743	226	201674	3595672	32275
136	2018-02-27 16:32:21		0	0	0	0	0	0	5.62	7.09	0.24	396520	0	96815	273011	396520	396520	28116	1226	2745	226	201924	3595689	32313
137	2018-02-27 16:42:53		0	0	0	0	0	0	5.62	7.09	0.24	396974	0	97070	273999	396974	396974	28139	1228	2746	226	202228	3595705	32339
138	2018-02-27 16:53:23		0	0	0	0	0	0	5.63	7.09	0.24	397506	0	97315	274387	397506	397506	28172	1229	2748	226	202386	3595729	32375
139	2018-02-27 17:03:57		0	0	0	0	0	0	5.63	7.09	0.25	397997	0	97560	274777	397997	397997	28220	1231	2751	226	202598	3595745	32428
140	2018-02-27 17:14:23		0	0	0	0	0	0	5.66	7.09	0.25	398717	0	97937	275266	398717	398717	28251	1231	2753	226	203397	3595755	32461
141	2018-02-27 17:24:53		0	0	0	0	0	0	5.66	7.08	0.25	399158	0	98167	275266	399158	399158	28276	1238	2756	226	203397	3595772	32496
142	2018-02-27 17:35:26		0	0	0	0	0	0	5.66	7.08	0.25	399566	0	98371	275412	399566	399566	28295	1240	2759	226	203477	3595789	32520
143	2018-02-27 17:45:56		0	0	0	0	0	0	5.66	7.08	0.25	400025	0	98631	275412	400025	400025	28320	1240	2762	227	203504	3595802	32549
144	2018-02-27 17:56:25		0	0	0	0	0	0	5.66	7.08	0.25	400483	0	98886	276149	400483	400483	28342	1242	2766	227	203504	3595815	32577
145	2018-02-27 18:07:02		0	0	0	0	0	0	5.66	7.07	0.25	400916	0	99106	276495	400916	400916	28362	1242	2769	227	203504	3595820	32600
146	2018-02-27 18:17:31		0	0	0	0	0	0	5.67	7.07	0.25	401368	0	99337	276495	401368	401368	28384	1242	2773	227	203718	3595846	32626
147	2018-02-27 18:28:00		0	0	0	0	0	0	5.67	7.07	0.25	401804	0	99531	276692	401804	401804	28419	1244	2778	228	203825	3595864	32669
148	2018-02-27 18:38:33		0	0	0	0	0	0	5.68	7.07	0.25	402290	0	99781	277485	402290	402290	28448	1250	2780	228	204148	3595883	32706
149	2018-02-27 18:49:03		0	0	0	0	0	0	5.68	7.07	0.25	402756	0	100028	277840	402756	402756	28477	1255	2785	228	204148	3595894	32745
150	2018-02-27 18:59:34		0	0	0	0	0	0	5.68	7.07	0.25	403438	0	100398	277940	403438	403438	28513	1255	2787	228	204309	3595912	32783
151	2018-02-27 19:10:06		0	0	0	0	0	0	5.69	7.07	0.25	403833	0	100620	278240	403833	403833	28531	1255	2789	228	204471	3595932	32803
152	2018-02-27 19:20:34		0	0	0	0	0	0	5.69	7.06	0.25	404234	0	100843	278437	404234	404234	28556	1257	2791	228	204525	3595950	32832
153	2018-02-27 19:31:03		0	0	0	0	0	0	5.7	7.06	0.25	404654	0	101084	279014	404654	404654	28576	1260	2791	229	204836	3595973	32856
154	2018-02-27 19:41:31		0	0	0	0	0	0	5.7	7.06	0.25	405076	0	101335	279014	405076	405076	28591	1261	2793	229	204836	3595995	32874
155	2018-02-27 19:52:02		0	0	0	0	0	0	5.71	7.06	0.25	405490	0	101578	279316	405490	405490	28621	1262	2796	229	205217	3596008	32908
156	2018-02-27 20:02:35		0	0	0	0	0	0	5.71	7.06	0.25	405925	0	101800	279366	405925	405925	28642	1264	2801	229	205244	3596030	32936
157	2018-02-27 20:13:01		0	0	0	0	0	0	5.71	7.05	0.25	406392	0	102073	279517	406392	406392	28667	1268	2803	229	205298	3596049	32967
158	2018-02-27 20:23:33		0	0	0	0	0	0	5.71	7.05	0.25	406856	0	102319	279568	406856	406856	28692	1271	2805	229	205434	3596066	32997
159	2018-02-27 20:34:05		0	0	0	0	0	0	5.71	7.05	0.25	407293	0	102553	279666	407293	407293	28713	1272	2806	229	205434	3596094	33020
160	2018-02-27 20:44:36		0	0	0	0	0	0	5.72	7.05	0.25	407967	0	102956	280147	407967	407967	28752	1272	2808	229	205653	3596113	33061
161	2018-02-27 20:55:07		0	0	0	0	0	0	5.73	7.04	0.25	408436	0	103227	280515	408436	408436	28772	1277	2809	229	206139	3596132	33087
162	2018-02-27 21:05:34		0	0	0	0	0	0	5.74	7.04	0.25	408863	0	103463	281228	408863	408863	28790	1280	2811	230	206249	3596162	33111
163	2018-02-27 21:16:06		0	0	0	0	0	0	5.74	7.04	0.25	409326	0	103701	281612	409326	409326	28815	1280	2813	230	206455	3596183	33138
164	2018-02-27 21:26:36		0	0	0	0	0	0	5.75	7.04	0.25	409779	0	103935	281977	409779	409779	28839	1280	2813	231	206620	3596205	33163
165	2018-02-27 21:37:06		0	0	0	0	0	0	5.75	7.04	0.25	410215	0	104138	282234	410215	410215	28868	1280	2817	231	206675	3596235	33196
166	2018-02-27 21:47:36		0	0	0	0	0	0	5.75	7.04	0.25	410642	0	104362	282234	410642	410642	28900	1283	2818	231	206675	3596252	33232
167	2018-02-27 21:58:07		0	0	0	0	0	0	5.75	7.03	0.25	411121	0	104633	282492	411121	411121	28922	1283	2821	231	206841	3596272	33257
168	2018-02-27 22:08:38		0	0	0	0	0	0	5.75	7.03	0.25	411567	0	104881	282853	411567	411567	28939	1284	2824	231	206869	3596290	33278
169	2018-02-27 22:19:10		0	0	0	0	0	0	5.75	7.03	0.26	412084	0	105156	282853	412084	412084	28977	1285	2825	231	206869	3596310	33318
170	2018-02-27 22:29:40		0	0	0	0	0	0	5.75	7.03	0.26	412719	0	105482	283112	412719	412719	28994	1288	2826	231	206924	3596330	33339
171	2018-02-27 22:40:09		0	0	0	0	0	0	5.76	7.02	0.26	413110	0	105669	283319	413110	413110	29012	1289	2827	231	207256	3596346	33359
172	2018-02-27 22:50:38		0	0	0	0	0	0	5.76	7.02	0.26	413580	0	105911	283319	413580	413580	29040	1292	2829	231	207256	3596366	33392
173	2018-02-27 23:01:10		0	0	0	0	0	0	5.78	7.02	0.26	414023	0	106130	283786	414023	414023	29060	1293	2832	232	207757	3596386	33417
174	2018-02-27 23:11:39		0	0	0	0	0	0	5.78	7.02	0.26	414403	0	106344	284151	414403	414403	29078	1294	2833	232	207952	3596403	33437
175	2018-02-27 23:22:10		0	0	0	0	0	0	5.78	7.01	0.26	414785	0	106565	284464	414785	414785	29087	1294	2834	232	207952	3596419	33447
176	2018-02-27 23:32:41		0	0	0	0	0	0	5.79	7.01	0.26	415134	0	106783	284883	415134	415134	29099	1294	2836	232	208176	3596437	33461
177	2018-02-27 23:43:11		0	0	0	0	0	0	5.79	7.01	0.26	415492	0	106981	285250	415492	415492	29114	1294	2837	232	208176	3596464	33477
178	2018-02-27 23:53:41		0	0	0	0	0	0	5.79	7	0.26	415804	0	107144	285461	415804	415804	29122	1294	2838	232	208176	3596478	33486
179	2018-02-28 00:21:12		0	0	0	0	0	0	5.79	7	0.26	416570	0	107555	285461	416570	416570	29154	1296	2841	233	208232	3596500	33524
180	2018-02-28 01:26:12		0	0	0	0	0	0	5.8	6.99	0.26	417530	0	108026	285536	417530	417530	29200	1297	2845	233	208428	3596552	33575
181	2018-02-28 02:31:12		0	0	0	0	0	0	5.8	6.99	0.26	417993	0	108250	286223	417993	417993	29224	1299	2847	233	208597	3596564	33603
182	2018-02-28 03:36:14		0	0	0	0	0	0	5.8	6.99	0.26	418255	0	108363	286223	418255	418255	29242	1299	2847	233	208597	3596565	33621
183	2018-02-28 04:41:14		0	0	0	0	0	0	5.8	6.99	0.26	418430	0	108463	286328	418430	418430	29252	1300	2847	233	208597	3596584	33632
184	2018-02-28 05:46:14		0	0	0	0	0	0	5.8	6.99	0.26	418666	0	108584	286328	418666	418666	29255	1301	2848	233	208597	3596603	33637
185	2018-02-28 06:51:15		0	0	0	0	0	0	5.8	6.99	0.26	419186	0	108824	286527	419186	419186	29288	1302	2849	233	208597	3596631	33672
186	2018-02-28 07:14:19		0	0	0	0	0	0	5.8	6.99	0.26	419421	0	108946	286952	419421	419421	29301	1302	2849	233	208766	3596651	33685
187	2018-02-28 07:24:47		0	0	0	0	0	0	5.8	6.99	0.26	419538	0	109000	286952	419538	419538	29309	1303	2849	233	208766	3596665	33694
188	2018-02-28 07:35:21		0	0	0	0	0	0	5.81	6.98	0.26	419810	0	109146	287058	419810	419810	29322	1304	2849	233	208822	3596670	33708
189	2018-02-28 07:45:48		0	0	0	0	0	0	5.81	6.98	0.26	419963	0	109214	287058	419963	419963	29332	1304	2849	233	208822	3596678	33718
190	2018-02-28 07:56:19		0	0	0	0	0	0	5.81	6.98	0.26	420130	0	109301	287058	420130	420130	29340	1304	2849	233	208822	3596684	33726
191	2018-02-28 08:06:49		0	0	0	0	0	0	5.81	6.98	0.26	420295	0	109390	287112	420295	420295	29349	1304	2849	233	208822	3596698	33735
192	2018-02-28 08:17:18		0	0	0	0	0	0	5.81	6.98	0.26	420462	0	109470	287112	420462	420462	29355	1304	2849	233	208822	3596710	33741
193	2018-02-28 08:27:50		0	0	0	0	0	0	5.81	6.98	0.26	420624	0	109546	287271	420624	420624	29363	1304	2849	233	208822	3596723	33749
194	2018-02-28 08:38:20		0	0	0	0	0	0	5.81	6.98	0.26	420779	0	109616	287699	420779	420779	29376	1304	2849	233	209048	3596735	33762
195	2018-02-28 08:48:51		0	0	0	0	0	0	5.81	6.98	0.26	420949	0	109697	287699	420949	420949	29387	1305	2849	233	209048	3596746	33774
196	2018-02-28 08:59:22		0	0	0	0	0	0	5.81	6.98	0.26	421106	0	109772	287699	421106	421106	29396	1305	2849	234	209048	3596756	33784
197	2018-02-28 09:09:53		0	0	0	0	0	0	5.81	6.98	0.26	421248	0	109843	287859	421248	421248	29405	1305	2849	234	209132	3596773	33793
198	2018-02-28 09:20:23		0	0	0	0	0	0	5.81	6.98	0.26	421479	0	109966	288274	421479	421479	29412	1305	2850	235	209132	3596796	33802
199	2018-02-28 09:30:53		0	0	0	0	0	0	5.82	6.98	0.26	421646	0	110047	288328	421646	421646	29425	1305	2851	235	209330	3596813	33816
200	2018-02-28 09:41:23		0	0	0	0	0	0	5.82	6.98	0.26	421802	0	110128	288328	421802	421802	29437	1305	2851	236	209330	3596827	33829
201	2018-02-28 09:51:54		0	0	0	0	0	0	5.82	6.98	0.26	421959	0	110208	288328	421959	421959	29446	1305	2852	236	209330	3596833	33839
202	2018-02-28 10:02:26		0	0	0	0	0	0	5.82	6.98	0.26	422096	0	110272	288328	422096	422096	29451	1305	2853	236	209330	3596840	33845
203	2018-02-28 10:12:55		0	0	0	0	0	0	5.82	6.98	0.26	422253	0	110351	288328	422253	422253	29459	1305	2853	236	209443	3596847	33853
204	2018-02-28 10:23:24		0	0	0	0	0	0	5.83	6.98	0.26	422392	0	110420	288973	422392	422392	29471	1305	2854	236	209557	3596858	33866
205	2018-02-28 10:33:55		0	0	0	0	0	0	5.83	6.98	0.26	422533	0	110490	288973	422533	422533	29479	1307	2856	236	209557	3596867	33878
206	2018-02-28 10:44:26		0	0	0	0	0	0	5.83	6.98	0.26	422672	0	110557	288973	422672	422672	29483	1307	2856	236	209557	3596880	33882
207	2018-02-28 10:54:56		0	0	0	0	0	0	5.83	6.98	0.26	422806	0	110620	289074	422806	422806	29495	1307	2856	237	209557	3596891	33895
208	2018-02-28 11:05:26		0	0	0	0	0	0	5.83	6.97	0.26	423059	0	110737	289074	423059	423059	29505	1307	2857	237	209557	3596905	33906
209	2018-02-28 11:15:57		0	0	0	0	0	0	5.84	6.97	0.26	423227	0	110802	289074	423227	423227	29514	1307	2857	237	209898	3596917	33915
210	2018-02-28 11:26:34		0	0	0	0	0	0	5.84	6.97	0.26	423349	0	110862	289493	423349	423349	29521	1307	2858	237	209898	3596928	33923
211	2018-02-28 11:36:58		0	0	0	0	0	0	5.84	6.97	0.26	423517	0	110934	289493	423517	423517	29530	1307	2858	237	209898	3596940	33932
212	2018-02-28 11:47:29		0	0	0	0	0	0	5.84	6.97	0.26	423665	0	110994	289493	423665	423665	29533	1308	2859	237	209898	3596948	33937
213	2018-02-28 11:58:00		0	0	0	0	0	0	5.84	6.97	0.26	423828	0	111066	289493	423828	423828	29544	1308	2860	237	209898	3596963	33949
214	2018-02-28 12:08:31		0	0	0	0	0	0	5.84	6.97	0.26	423944	0	111124	289493	423944	423944	29551	1309	2860	237	209898	3596975	33957
215	2018-02-28 12:19:00		0	0	0	0	0	0	5.84	6.97	0.26	424076	0	111184	289493	424076	424076	29560	1309	2861	237	209898	3596987	33967
216	2018-02-28 12:29:33		0	0	0	0	0	0	5.84	6.97	0.26	424220	0	111258	289493	424220	424220	29570	1310	2862	237	209898	3596995	33979
217	2018-02-28 12:40:02		0	0	0	0	0	0	5.84	6.97	0.26	424351	0	111307	289493	424351	424351	29580	1310	2863	237	209898	3597004	33990
218	2018-02-28 12:50:38		0	0	0	0	0	0	5.84	6.97	0.26	424553	0	111407	289601	424553	424553	29583	1310	2864	237	209898	3597019	33994
219	2018-02-28 13:01:04		0	0	0	0	0	0	5.84	6.97	0.26	424672	0	111467	290008	424672	424672	29591	1311	2864	237	210111	3597037	34003
220	2018-02-28 13:11:33		0	0	0	0	0	0	5.84	6.97	0.26	424805	0	111533	290008	424805	424805	29596	1311	2864	237	210111	3597049	34008
221	2018-02-28 13:22:03		0	0	0	0	0	0	5.84	6.97	0.26	424942	0	111609	290199	424942	424942	29606	1313	2864	237	210111	3597054	34020
222	2018-02-28 13:32:34		0	0	0	0	0	0	5.84	6.97	0.26	425111	0	111665	290199	425111	425111	29614	1313	2864	237	210111	3597064	34028
223	2018-02-28 13:43:05		0	0	0	0	0	0	5.84	6.97	0.26	425297	0	111734	290335	425297	425297	29622	1313	2864	237	210111	3597085	34036
224	2018-02-28 13:53:36		0	0	0	0	0	0	5.84	6.96	0.26	425475	0	111818	290553	425475	425475	29630	1313	2864	237	210111	3597094	34044
225	2018-02-28 14:04:05		0	0	0	0	0	0	5.84	6.96	0.26	425614	0	111880	290553	425614	425614	29642	1313	2864	237	210111	3597109	34056
226	2018-02-28 14:14:36		0	0	0	0	0	0	5.84	6.96	0.26	425754	0	111939	291085	425754	425754	29649	1313	2865	237	210226	3597123	34064
227	2018-02-28 14:25:06		0	0	0	0	0	0	5.84	6.96	0.26	425901	0	111995	291085	425901	425901	29657	1313	2866	237	210226	3597132	34073
228	2018-02-28 14:35:37		0	0	0	0	0	0	5.84	6.96	0.26	426093	0	112082	291085	426093	426093	29665	1313	2867	237	210226	3597146	34082
229	2018-02-28 14:46:09		0	0	0	0	0	0	5.84	6.96	0.26	426227	0	112142	291085	426227	426227	29671	1314	2867	237	210226	3597162	34089
230	2018-02-28 14:56:38		0	0	0	0	0	0	5.85	6.96	0.26	426366	0	112198	291195	426366	426366	29679	1314	2867	237	210283	3597174	34097
231	2018-02-28 15:07:09		0	0	0	0	0	0	5.85	6.96	0.26	426519	0	112271	291195	426519	426519	29695	1314	2868	238	210283	3597188	34115
232	2018-02-28 15:17:39		0	0	0	0	0	0	5.85	6.96	0.26	426656	0	112329	291195	426656	426656	29709	1314	2870	238	210397	3597204	34131
233	2018-02-28 15:28:10		0	0	0	0	0	0	5.85	6.96	0.26	426812	0	112397	291414	426812	426812	29716	1314	2870	238	210397	3597212	34138
234	2018-02-28 15:38:41		0	0	0	0	0	0	5.85	6.96	0.26	426926	0	112439	291414	426926	426926	29717	1314	2870	238	210397	3597232	34139
235	2018-02-28 15:49:22		0	0	0	0	0	0	5.85	6.96	0.26	427062	0	112507	291414	427062	427062	29725	1314	2871	238	210397	3597246	34148
236	2018-02-28 15:59:40		0	0	0	0	0	0	5.85	6.96	0.26	427185	0	112561	291414	427185	427185	29726	1316	2872	238	210397	3597260	34152
237	2018-02-28 16:10:14		0	0	0	0	0	0	5.85	6.96	0.26	427340	0	112623	291414	427340	427340	29732	1316	2872	238	210397	3597263	34158
238	2018-02-28 16:20:41		0	0	0	0	0	0	5.85	6.96	0.26	427480	0	112687	291414	427480	427480	29736	1316	2872	238	210397	3597282	34162
239	2018-02-28 16:31:12		0	0	0	0	0	0	5.85	6.95	0.26	427606	0	112747	291414	427606	427606	29739	1316	2872	238	210397	3597290	34165
240	2018-02-28 16:41:42		0	0	0	0	0	0	5.85	6.95	0.26	427721	0	112797	291414	427721	427721	29745	1316	2872	238	210397	3597302	34171
241	2018-02-28 16:52:12		0	0	0	0	0	0	5.85	6.95	0.26	427848	0	112840	291524	427848	427848	29754	1316	2872	238	210454	3597325	34180
242	2018-02-28 17:02:46		0	0	0	0	0	0	5.85	6.95	0.26	427948	0	112901	291524	427948	427948	29762	1316	2872	238	210454	3597333	34188
243	2018-02-28 17:13:17		0	0	0	0	0	0	5.85	6.96	0.26	428066	0	112964	291524	428066	428066	29775	1316	2872	238	210454	3597353	34201
244	2018-02-28 17:23:51		0	0	0	0	0	0	5.85	6.95	0.26	428169	0	113019	291524	428169	428169	29777	1317	2873	238	210454	3597369	34205
245	2018-02-28 17:34:19		0	0	0	0	0	0	5.85	6.95	0.26	428285	0	113071	291524	428285	428285	29783	1317	2874	238	210569	3597382	34212
246	2018-02-28 17:44:50		0	0	0	0	0	0	5.86	6.95	0.26	428413	0	113130	291579	428413	428413	29789	1317	2874	238	210655	3597391	34218
247	2018-02-28 17:55:24		0	0	0	0	0	0	5.86	6.95	0.26	428539	0	113190	291579	428539	428539	29797	1317	2874	238	210655	3597404	34226
248	2018-02-28 18:05:56		0	0	0	0	0	0	5.86	6.95	0.26	428724	0	113258	291579	428724	428724	29802	1319	2874	239	210655	3597415	34234
249	2018-02-28 18:16:25		0	0	0	0	0	0	5.86	6.95	0.26	428854	0	113309	291579	428854	428854	29805	1319	2874	239	210655	3597422	34237
250	2018-02-28 18:27:00		0	0	0	0	0	0	5.86	6.95	0.26	428949	0	113353	291579	428949	428949	29811	1319	2874	239	210655	3597424	34243
251	2018-02-28 18:37:28		0	0	0	0	0	0	5.86	6.95	0.26	429096	0	113429	291579	429096	429096	29817	1319	2874	239	210655	3597433	34249
252	2018-02-28 18:47:56		0	0	0	0	0	0	5.86	6.95	0.26	429204	0	113479	291661	429204	429204	29824	1319	2874	239	210655	3597442	34256
253	2018-02-28 18:58:26		0	0	0	0	0	0	5.86	6.95	0.26	429309	0	113540	291661	429309	429309	29830	1319	2875	239	210655	3597452	34263
254	2018-02-28 19:08:56		0	0	0	0	0	0	5.86	6.95	0.26	429424	0	113599	291661	429424	429424	29837	1319	2875	239	210655	3597460	34270
255	2018-02-28 19:19:27		0	0	0	0	0	0	5.86	6.95	0.26	429577	0	113674	291661	429577	429577	29848	1319	2875	239	210655	3597466	34281
256	2018-02-28 19:29:57		0	0	0	0	0	0	5.86	6.95	0.26	429724	0	113759	291661	429724	429724	29851	1319	2875	239	210655	3597472	34284
257	2018-02-28 19:40:28		0	0	0	0	0	0	5.86	6.95	0.26	429844	0	113824	291661	429844	429844	29858	1319	2875	239	210655	3597477	34291
258	2018-02-28 19:50:58		0	0	0	0	0	0	5.86	6.94	0.26	430026	0	113909	291991	430026	430026	29865	1319	2875	239	210712	3597485	34298
259	2018-02-28 20:01:32		0	0	0	0	0	0	5.86	6.94	0.26	430146	0	113956	291991	430146	430146	29871	1319	2875	239	210712	3597499	34304
260	2018-02-28 20:12:00		0	0	0	0	0	0	5.86	6.94	0.26	430267	0	114019	292101	430267	430267	29877	1319	2876	239	210884	3597514	34311
261	2018-02-28 20:22:31		0	0	0	0	0	0	5.86	6.94	0.27	430408	0	114079	292101	430408	430408	29882	1319	2877	239	210884	3597525	34317
262	2018-02-28 20:32:59		0	0	0	0	0	0	5.86	6.94	0.27	430537	0	114138	292101	430537	430537	29892	1321	2878	239	210884	3597534	34330
263	2018-02-28 20:43:31		0	0	0	0	0	0	5.86	6.94	0.27	430682	0	114204	292515	430682	430682	29904	1321	2878	239	210884	3597543	34342
264	2018-02-28 20:54:01		0	0	0	0	0	0	5.86	6.94	0.27	430840	0	114278	292515	430840	430840	29911	1321	2879	239	210884	3597555	34350
265	2018-02-28 21:04:32		0	0	0	0	0	0	5.86	6.94	0.27	430989	0	114345	292515	430989	430989	29918	1321	2879	239	210884	3597564	34357
266	2018-02-28 21:15:03		0	0	0	0	0	0	5.86	6.94	0.27	431152	0	114421	292515	431152	431152	29928	1321	2880	239	210884	3597565	34368
267	2018-02-28 21:25:32		0	0	0	0	0	0	5.86	6.94	0.27	431284	0	114481	292515	431284	431284	29936	1321	2880	239	210884	3597575	34376
268	2018-02-28 21:36:04		0	0	0	0	0	0	5.86	6.94	0.27	431507	0	114582	292681	431507	431507	29947	1321	2881	239	210884	3597580	34388
269	2018-02-28 21:46:33		0	0	0	0	0	0	5.86	6.94	0.27	431647	0	114650	292681	431647	431647	29955	1321	2881	239	210884	3597589	34396
270	2018-02-28 21:57:06		0	0	0	0	0	0	5.86	6.94	0.27	431790	0	114701	293347	431790	431790	29963	1321	2882	239	210884	3597599	34405
271	2018-02-28 22:07:36		0	0	0	0	0	0	5.86	6.94	0.27	431948	0	114776	293347	431948	431948	29970	1322	2883	239	210884	3597605	34414
272	2018-02-28 22:18:05		0	0	0	0	0	0	5.86	6.94	0.27	432089	0	114843	293347	432089	432089	29980	1324	2883	239	210884	3597620	34426
273	2018-02-28 22:28:37		0	0	0	0	0	0	5.87	6.94	0.27	432216	0	114903	293347	432216	432216	29990	1324	2883	239	211114	3597628	34436
274	2018-02-28 22:39:06		0	0	0	0	0	0	5.87	6.94	0.27	432369	0	114968	293347	432369	432369	29996	1324	2885	239	211114	3597646	34444
275	2018-02-28 22:49:35		0	0	0	0	0	0	5.87	6.94	0.27	432527	0	115036	293347	432527	432527	29999	1325	2885	239	211114	3597657	34448
276	2018-02-28 23:00:05		0	0	0	0	0	0	5.87	6.94	0.27	432680	0	115095	293347	432680	432680	30015	1325	2885	239	211114	3597666	34464
277	2018-02-28 23:10:37		0	0	0	0	0	0	5.87	6.94	0.27	432809	0	115158	293347	432809	432809	30024	1325	2885	239	211114	3597671	34473
278	2018-02-28 23:21:07		0	0	0	0	0	0	5.87	6.94	0.27	433008	0	115227	293458	433008	433008	30031	1325	2885	239	211172	3597680	34480
279	2018-02-28 23:31:36		0	0	0	0	0	0	5.87	6.94	0.27	433136	0	115279	293458	433136	433136	30040	1326	2886	239	211172	3597691	34491
280	2018-02-28 23:42:07		0	0	0	0	0	0	5.87	6.93	0.27	433294	0	115355	293792	433294	433294	30047	1326	2887	239	211172	3597697	34499
281	2018-02-28 23:52:37		0	0	0	0	0	0	5.87	6.93	0.27	433423	0	115421	293792	433423	433423	30052	1326	2887	239	211172	3597696	34504
282	2018-03-01 00:03:08		0	0	0	0	0	0	5.87	6.93	0.27	433526	0	115470	293792	433526	433526	30059	1326	2887	239	211172	3597706	34511
283	2018-03-01 01:08:07		0	0	0	0	0	0	5.87	6.93	0.27	434019	0	115686	294015	434019	434019	30084	1329	2889	239	211229	3597715	34541
284	2018-03-01 02:13:09		0	0	0	0	0	0	5.89	6.93	0.27	434315	0	115827	294239	434315	434315	30106	1329	2889	240	211807	3597726	34564
285	2018-03-01 03:18:08		0	0	0	0	0	0	5.89	6.93	0.27	434437	0	115895	294659	434437	434437	30115	1329	2889	240	211807	3597723	34573
286	2018-03-01 04:23:10		0	0	0	0	0	0	5.89	6.93	0.27	434531	0	115950	294659	434531	434531	30116	1329	2889	240	211807	3597723	34574
287	2018-03-01 05:28:10		0	0	0	0	0	0	5.89	6.93	0.27	434645	0	116005	294771	434645	434645	30122	1329	2889	240	211865	3597715	34580
288	2018-03-01 06:33:10		0	0	0	0	0	0	5.89	6.93	0.27	434840	0	116099	294883	434840	434840	30129	1329	2889	240	211923	3597721	34587
289	2018-03-01 07:08:42		0	0	0	0	0	0	5.89	6.93	0.27	435032	0	116190	294883	435032	435032	30141	1329	2889	240	211923	3597728	34599
290	2018-03-01 07:19:14		0	0	0	0	0	0	5.89	6.93	0.27	435097	0	116223	294883	435097	435097	30145	1329	2889	240	211923	3597732	34603
291	2018-03-01 07:29:45		0	0	0	0	0	0	5.89	6.93	0.27	435161	0	116254	294883	435161	435161	30147	1329	2889	240	211923	3597738	34605
292	2018-03-01 07:40:20		0	0	0	0	0	0	5.89	6.93	0.27	435223	0	116281	294883	435223	435223	30148	1329	2889	240	211923	3597744	34606
293	2018-03-01 07:50:45		0	0	0	0	0	0	5.89	6.93	0.27	435299	0	116315	294883	435299	435299	30153	1329	2890	241	211923	3597750	34613
294	2018-03-01 08:01:17		0	0	0	0	0	0	5.89	6.93	0.27	435377	0	116344	294883	435377	435377	30158	1329	2890	241	211923	3597752	34618
295	2018-03-01 08:11:49		0	0	0	0	0	0	5.89	6.93	0.27	435483	0	116384	295333	435483	435483	30163	1331	2891	241	211923	3597755	34626
296	2018-03-01 08:22:20		0	0	0	0	0	0	5.9	6.93	0.27	435572	0	116422	295333	435572	435572	30166	1331	2891	241	212359	3597751	34629
297	2018-03-01 08:33:15		0	0	0	0	0	0	5.91	6.93	0.27	435653	0	116457	295531	435653	435653	30176	1331	2891	241	212461	3597760	34639
298	2018-03-01 08:43:24		0	0	0	0	0	0	5.91	6.93	0.27	435747	0	116499	295531	435747	435747	30181	1331	2891	241	212461	3597767	34644
299	2018-03-01 08:53:50		0	0	0	0	0	0	5.91	6.93	0.27	435847	0	116537	295531	435847	435847	30186	1331	2891	241	212461	3597780	34649
300	2018-03-01 09:04:20		0	0	0	0	0	0	5.91	6.93	0.27	435936	0	116577	295531	435936	435936	30191	1331	2891	241	212461	3597796	34654
301	2018-03-01 09:14:50		0	0	0	0	0	0	5.91	6.93	0.27	436027	0	116619	295531	436027	436027	30199	1332	2891	241	212461	3597807	34663
302	2018-03-01 09:25:21		0	0	0	0	0	0	5.91	6.93	0.27	436117	0	116665	295531	436117	436117	30203	1332	2891	241	212461	3597815	34667
303	2018-03-01 09:35:51		0	0	0	0	0	0	5.91	6.92	0.27	436192	0	116703	295531	436192	436192	30206	1332	2891	241	212461	3597827	34670
304	2018-03-01 09:46:20		0	0	0	0	0	0	5.91	6.92	0.27	436262	0	116736	295531	436262	436262	30211	1332	2891	241	212461	3597837	34675
305	2018-03-01 09:56:52		0	0	0	0	0	0	5.91	6.92	0.27	436393	0	116798	295531	436393	436393	30215	1332	2892	241	212461	3597841	34680
306	2018-03-01 10:07:23		0	0	0	0	0	0	5.91	6.92	0.27	436470	0	116830	295531	436470	436470	30217	1332	2892	241	212461	3597852	34682
307	2018-03-01 10:17:52		0	0	0	0	0	0	5.91	6.92	0.27	436556	0	116868	295756	436556	436556	30220	1332	2892	241	212461	3597872	34685
308	2018-03-01 10:28:30		0	0	0	0	0	0	5.91	6.92	0.27	436631	0	116902	295756	436631	436631	30225	1332	2893	241	212461	3597891	34691
309	2018-03-01 10:38:56		0	0	0	0	0	0	5.91	6.92	0.27	436706	0	116939	295756	436706	436706	30231	1334	2893	242	212461	3597901	34700
310	2018-03-01 10:49:26		0	0	0	0	0	0	5.91	6.92	0.27	436796	0	116976	295756	436796	436796	30235	1334	2893	242	212461	3597913	34704
