1	2017-11-21 09:38:30		0	0	0	0	0	0	0.5	1.69	0	24036	0	0	17460	24036	24036	406	0	41	1	17261	3463525	448
2	2017-11-21 09:48:58		0	0	0	0	0	0	0.5	1.7	0	24069	0	0	17460	24069	24069	408	0	41	1	17261	3463536	450
3	2017-11-21 09:59:28		0	0	0	0	0	0	0.5	1.69	0	24098	0	0	17532	24098	24098	408	0	41	1	17331	3463556	450
4	2017-11-21 10:09:59		0	0	0	0	0	0	0.5	1.69	0	24132	0	0	17574	24132	24132	408	0	41	1	17372	3463574	450
5	2017-11-21 10:20:35		0	0	0	0	0	0	0.5	1.69	0	24163	0	0	17594	24163	24163	408	0	41	1	17391	3463582	450
6	2017-11-21 10:31:01		0	0	0	0	0	0	0.5	1.69	0	24218	0	0	17610	24218	24218	409	1	41	1	17407	3463586	452
7	2017-11-21 10:41:29		0	0	0	0	0	0	0.5	1.69	0	24264	0	5	17634	24264	24259	411	1	41	1	17430	3463594	454
8	2017-11-21 10:52:00		0	0	0	0	0	0	0.5	1.7	0	24299	0	9	17672	24299	24290	412	1	41	1	17468	3463594	455
9	2017-11-21 11:02:29		0	0	0	0	0	0	0.5	1.69	0	24340	0	16	17695	24340	24324	412	1	41	1	17490	3463600	455
10	2017-11-21 11:12:59		0	0	0	0	0	0	0.51	1.69	0	24363	0	20	17720	24363	24343	412	1	41	1	17515	3463609	455
11	2017-11-21 11:23:30		0	0	0	0	0	0	0.51	1.7	0	24403	0	21	17753	24403	24382	415	1	41	1	17521	3463622	458
12	2017-11-21 11:33:59		0	0	0	0	0	0	0.51	1.7	0	24444	0	21	17762	24444	24423	415	1	41	1	17530	3463634	458
13	2017-11-21 11:44:30		0	0	0	0	0	0	0.51	1.7	0	24479	0	22	17763	24479	24457	416	1	42	1	17531	3463649	460
14	2017-11-21 11:55:00		0	0	0	0	0	0	0.51	1.71	0	24531	0	24	17796	24531	24507	419	1	42	1	17563	3463658	463
15	2017-11-21 12:05:30		0	0	0	0	0	0	0.51	1.71	0	24569	0	26	17842	24569	24543	420	1	42	1	17608	3463671	464
16	2017-11-21 12:16:03		0	0	0	0	0	0	0.51	1.71	0	24601	0	27	17842	24601	24574	420	1	43	1	17608	3463685	465
17	2017-11-21 12:26:31		0	0	0	0	0	0	0.51	1.71	0	24635	0	27	17853	24635	24608	421	1	44	1	17619	3463708	467
18	2017-11-21 12:36:59		0	0	0	0	0	0	0.51	1.71	0	24678	0	28	17859	24678	24650	422	1	44	1	17625	3463720	468
19	2017-11-21 12:47:30		0	0	0	0	0	0	0.51	1.71	0	24713	0	30	17891	24713	24683	423	1	44	1	17656	3463738	469
20	2017-11-21 12:58:01		0	0	0	0	0	0	0.51	1.71	0	24751	0	31	17994	24751	24720	423	1	44	1	17756	3463751	469
21	2017-11-21 13:08:31		0	0	0	0	0	0	0.51	1.71	0	24789	0	33	17994	24789	24756	423	1	44	1	17756	3463760	469
22	2017-11-21 13:19:03		0	0	0	0	0	0	0.51	1.7	0	24847	0	33	18020	24847	24814	423	1	44	1	17782	3463774	469
23	2017-11-21 13:29:31		0	0	0	0	0	0	0.51	1.71	0	24896	0	34	18020	24896	24862	425	1	44	1	17782	3463788	471
24	2017-11-21 13:40:09		0	0	0	0	0	0	0.51	1.7	0	24927	0	38	18078	24927	24889	425	1	44	1	17798	3463804	471
25	2017-11-21 13:50:34		0	0	0	0	0	0	0.51	1.7	0	24952	0	40	18100	24952	24912	425	1	44	1	17820	3463820	471
26	2017-11-21 14:01:11		0	0	0	0	0	0	0.52	1.7	0	24988	0	42	18127	24988	24946	426	1	44	1	17846	3463829	472
27	2017-11-21 14:11:32		0	0	0	0	0	0	0.52	1.71	0	25017	0	42	18130	25017	24975	427	1	44	1	17849	3463847	473
28	2017-11-21 14:22:02		0	0	0	0	0	0	0.52	1.71	0	25039	0	43	18144	25039	24996	427	1	44	1	17862	3463852	473
29	2017-11-21 14:32:32		0	0	0	0	0	0	0.52	1.71	0	25067	0	43	18144	25067	25024	429	1	44	1	17862	3463866	475
30	2017-11-21 14:43:02		0	0	0	0	0	0	0.52	1.71	0	25096	0	43	18191	25096	25053	429	1	44	1	17935	3463881	475
31	2017-11-21 14:53:31		0	0	0	0	0	0	0.52	1.72	0	25128	0	43	18229	25128	25085	431	1	44	1	17972	3463903	477
32	2017-11-21 15:04:02		0	0	0	0	0	0	0.52	1.71	0	25171	0	44	18230	25171	25127	431	1	44	1	17973	3463930	477
33	2017-11-21 15:14:32		0	0	0	0	0	0	0.52	1.71	0	25199	0	46	18231	25199	25153	431	1	44	1	17973	3463951	477
34	2017-11-21 15:25:14		0	0	0	0	0	0	0.52	1.71	0	25223	0	47	18231	25223	25176	431	1	44	1	17973	3463974	477
35	2017-11-21 15:35:38		0	0	0	0	0	0	0.52	1.71	0	25249	0	47	18255	25249	25202	431	1	44	1	17997	3463989	477
36	2017-11-21 15:46:06		0	0	0	0	0	0	0.52	1.71	0	25285	0	47	18283	25285	25238	432	1	44	1	18024	3464006	478
37	2017-11-21 15:56:46		0	0	0	0	0	0	0.52	1.71	0	25335	0	47	18293	25335	25288	434	1	45	1	18034	3464018	481
38	2017-11-21 16:07:13		0	0	0	0	0	0	0.52	1.71	0	25364	0	47	18293	25364	25317	434	1	45	1	18034	3464036	481
39	2017-11-21 16:17:40		0	0	0	0	0	0	0.52	1.71	0	25401	0	47	18334	25401	25354	434	1	45	1	18074	3464058	481
40	2017-11-21 16:28:07		0	0	0	0	0	0	0.52	1.71	0	25431	0	47	18334	25431	25384	434	1	45	1	18074	3464094	481
41	2017-11-21 16:38:35		0	0	0	0	0	0	0.52	1.7	0	25460	0	48	18376	25460	25413	434	1	45	1	18115	3464120	481
42	2017-11-21 16:49:06		0	0	0	0	0	0	0.52	1.71	0	25496	0	48	18399	25496	25448	435	1	45	1	18137	3464149	482
43	2017-11-21 16:59:34		0	0	0	0	0	0	0.52	1.71	0	25521	0	48	18434	25521	25473	436	1	45	1	18171	3464170	483
44	2017-11-21 17:10:04		0	0	0	0	0	0	0.52	1.71	0	25551	0	48	18434	25551	25503	436	1	45	1	18171	3464188	483
45	2017-11-21 17:20:35		0	0	0	0	0	0	0.53	1.71	0	25584	0	48	18506	25584	25536	438	1	45	1	18241	3464207	485
46	2017-11-21 17:31:05		0	0	0	0	0	0	0.53	1.71	0	25611	0	48	18509	25611	25563	438	1	45	1	18244	3464225	485
47	2017-11-21 17:41:35		0	0	0	0	0	0	0.53	1.71	0	25650	0	50	18509	25650	25600	439	1	45	1	18244	3464242	486
48	2017-11-21 17:52:06		0	0	0	0	0	0	0.53	1.71	0	25681	0	52	18550	25681	25629	439	1	45	1	18284	3464255	486
49	2017-11-21 18:02:37		0	0	0	0	0	0	0.53	1.71	0	25714	0	52	18550	25714	25662	439	1	45	1	18284	3464265	486
50	2017-11-21 18:13:11		0	0	0	0	0	0	0.53	1.71	0	25737	0	52	18568	25737	25685	439	1	45	1	18301	3464282	486
51	2017-11-21 18:23:36		0	0	0	0	0	0	0.53	1.7	0	25763	0	52	18596	25763	25711	439	1	45	1	18329	3464303	486
52	2017-11-21 18:34:10		0	0	0	0	0	0	0.53	1.7	0	25792	0	52	18596	25792	25740	439	1	46	1	18329	3464325	487
53	2017-11-21 18:44:39		0	0	0	0	0	0	0.53	1.7	0	25813	0	52	18632	25813	25761	439	1	46	1	18364	3464347	487
54	2017-11-21 18:55:09		0	0	0	0	0	0	0.53	1.7	0	25840	0	52	18663	25840	25788	440	1	46	1	18393	3464364	488
55	2017-11-21 19:05:39		0	0	0	0	0	0	0.53	1.7	0	25867	0	52	18668	25867	25815	441	1	46	1	18419	3464384	489
56	2017-11-21 19:16:16		0	0	0	0	0	0	0.53	1.71	0	25889	0	52	18669	25889	25837	442	1	46	1	18420	3464406	490
57	2017-11-21 19:26:45		0	0	0	0	0	0	0.53	1.71	0	25911	0	52	18675	25911	25859	442	1	46	1	18426	3464424	490
58	2017-11-21 19:37:13		0	0	0	0	0	0	0.53	1.7	0	25931	0	52	18693	25931	25879	442	1	46	1	18444	3464446	490
59	2017-11-21 19:47:44		0	0	0	0	0	0	0.53	1.7	0	25956	0	52	18737	25956	25904	442	1	46	1	18486	3464470	490
60	2017-11-21 19:58:24		0	0	0	0	0	0	0.53	1.7	0	25976	0	53	18773	25976	25923	442	1	46	1	18508	3464488	490
61	2017-11-21 20:09:04		0	0	0	0	0	0	0.54	1.7	0	25995	0	53	18802	25995	25942	442	1	46	1	18536	3464511	490
62	2017-11-21 20:19:30		0	0	0	0	0	0	0.54	1.7	0	26025	0	53	18824	26025	25972	442	1	46	1	18557	3464538	490
63	2017-11-21 20:29:48		0	0	0	0	0	0	0.54	1.7	0	26046	0	53	18824	26046	25993	443	1	46	1	18557	3464569	491
64	2017-11-21 20:40:19		0	0	0	0	0	0	0.54	1.7	0	26061	0	53	18824	26061	26008	443	1	46	1	18557	3464596	491
65	2017-11-21 20:50:44		0	0	0	0	0	0	0.54	1.7	0	26078	0	53	18824	26078	26025	443	1	46	1	18557	3464614	491
66	2017-11-21 21:01:14		0	0	0	0	0	0	0.54	1.7	0	26101	0	53	18837	26101	26048	444	1	46	1	18570	3464633	492
67	2017-11-21 21:11:53		0	0	0	0	0	0	0.54	1.7	0	26123	0	53	18866	26123	26070	444	1	46	1	18597	3464654	492
68	2017-11-21 21:22:23		0	0	0	0	0	0	0.54	1.7	0	26137	0	53	18879	26137	26084	445	1	46	1	18610	3464674	493
69	2017-11-21 21:33:14		0	0	0	0	0	0	0.54	1.71	0	26158	0	53	18927	26158	26105	446	1	47	1	18631	3464693	495
70	2017-11-21 21:43:29		0	0	0	0	0	0	0.54	1.7	0	26175	0	53	18927	26175	26122	446	1	47	1	18631	3464709	495
71	2017-11-21 21:54:00		0	0	0	0	0	0	0.54	1.71	0	26205	0	53	18940	26205	26152	447	1	48	1	18644	3464727	497
72	2017-11-21 22:04:40		0	0	0	0	0	0	0.54	1.7	0	26225	0	53	18940	26225	26172	447	1	48	1	18644	3464747	497
73	2017-11-21 22:15:07		0	0	0	0	0	0	0.54	1.71	0	26248	0	53	18961	26248	26195	448	1	48	1	18665	3464759	498
74	2017-11-21 22:25:35		0	0	0	0	0	0	0.54	1.71	0	26263	0	53	18983	26263	26210	448	1	48	1	18686	3464771	498
75	2017-11-21 22:37:07		0	0	0	0	0	0	0.54	1.71	0	26275	0	53	18998	26275	26222	448	1	48	1	18701	3464787	498
76	2017-11-21 22:47:22		0	0	0	0	0	0	0.54	1.7	0	26287	0	53	19006	26287	26234	448	1	48	1	18708	3464802	498
77	2017-11-21 22:57:44		0	0	0	0	0	0	0.54	1.7	0	26296	0	53	19006	26296	26243	448	1	48	1	18708	3464808	498
78	2017-11-21 23:08:02		0	0	0	0	0	0	0.54	1.7	0	26306	0	53	19011	26306	26253	448	1	48	1	18713	3464827	498
79	2017-11-21 23:18:57		0	0	0	0	0	0	0.54	1.71	0	26314	0	53	19011	26314	26261	449	1	48	1	18713	3464839	499
80	2017-11-21 23:30:48		0	0	0	0	0	0	0.54	1.71	0	26327	0	54	19011	26327	26273	449	1	48	1	18713	3464856	499
81	2017-11-21 23:41:22		0	0	0	0	0	0	0.54	1.7	0	26337	0	54	19022	26337	26283	449	1	48	1	18724	3464871	499
82	2017-11-21 23:51:44		0	0	0	0	0	0	0.54	1.7	0	26340	0	54	19022	26340	26286	449	1	48	1	18724	3464891	499
83	2017-11-22 00:02:59		0	0	0	0	0	0	0.54	1.7	0	26349	0	55	19026	26349	26294	449	1	48	1	18728	3464900	499
84	2017-11-22 01:08:51		0	0	0	0	0	0	0.54	1.71	0	26381	0	55	19029	26381	26326	452	1	48	1	18730	3464926	502
85	2017-11-22 02:13:44		0	0	0	0	0	0	0.54	1.71	0	26395	0	55	19029	26395	26340	452	1	48	1	18730	3464926	502
86	2017-11-22 03:18:57		0	0	0	0	0	0	0.54	1.71	0	26405	0	55	19029	26405	26350	452	1	48	1	18730	3464938	502
87	2017-11-22 04:29:27		0	0	0	0	0	0	0.54	1.71	0	26412	0	55	19030	26412	26357	452	1	48	1	18731	3464934	502
88	2017-11-22 05:31:06		0	0	0	0	0	0	0.54	1.71	0	26414	0	55	19030	26414	26359	452	1	48	1	18731	3464948	502
89	2017-11-22 06:35:22		0	0	0	0	0	0	0.54	1.71	0	26435	0	55	19071	26435	26380	452	1	48	1	18771	3464958	502
90	2017-11-22 07:18:15		0	0	0	0	0	0	0.54	1.71	0	26448	0	55	19071	26448	26393	453	1	48	1	18771	3464987	503
91	2017-11-22 07:31:28		0	0	0	0	0	0	0.54	1.71	0	26453	0	55	19071	26453	26398	453	1	48	1	18771	3464989	503
92	2017-11-22 07:40:54		0	0	0	0	0	0	0.54	1.71	0	26457	0	55	19071	26457	26402	453	1	48	1	18771	3464997	503
93	2017-11-22 07:51:26		0	0	0	0	0	0	0.54	1.71	0	26460	0	55	19071	26460	26405	453	1	48	1	18771	3465009	503
94	2017-11-22 08:01:59		0	0	0	0	0	0	0.54	1.71	0	26464	0	55	19071	26464	26409	453	1	48	1	18771	3465013	503
95	2017-11-22 08:12:33		0	0	0	0	0	0	0.54	1.71	0	26468	0	55	19071	26468	26413	453	1	48	1	18771	3465022	503
96	2017-11-22 08:25:24		0	0	0	0	0	0	0.54	1.72	0	26472	0	55	19071	26472	26417	454	1	48	1	18771	3465028	504
97	2017-11-22 08:49:45		0	0	0	0	0	0	0.54	1.71	0	26480	0	55	19085	26480	26425	454	1	48	1	18771	3465046	504
98	2017-11-22 08:58:54		0	0	0	0	0	0	0.54	1.71	0	26486	0	55	19096	26486	26431	454	1	48	1	18782	3465061	504
99	2017-11-22 09:08:51		0	0	0	0	0	0	0.54	1.71	0	26493	0	55	19134	26493	26438	454	1	48	1	18811	3465067	504
100	2017-11-22 09:19:49		0	0	0	0	0	0	0.54	1.71	0	26498	0	55	19134	26498	26443	454	1	48	1	18811	3465069	504
101	2017-11-22 09:43:45		0	0	0	0	0	0	0.54	1.71	0	26513	0	55	19134	26513	26458	454	1	48	1	18811	3465080	504
102	2017-11-22 09:57:51		0	0	0	0	0	0	0.54	1.71	0	26516	0	55	19134	26516	26461	454	1	48	1	18811	3465076	504
103	2017-11-22 10:13:28		0	0	0	0	0	0	0.54	1.71	0	26523	0	55	19134	26523	26468	454	1	48	1	18811	3465087	504
104	2017-11-22 10:36:15		0	0	0	0	0	0	0.54	1.71	0	26533	0	55	19134	26533	26478	454	1	48	1	18811	3465099	504
105	2017-11-22 10:45:56		0	0	0	0	0	0	0.54	1.71	0	26535	0	55	19134	26535	26480	454	1	48	1	18811	3465102	504
106	2017-11-22 11:01:26		0	0	0	0	0	0	0.54	1.71	0	26540	0	57	19160	26540	26483	454	1	48	1	18811	3465106	504
107	2017-11-22 11:27:14		0	0	0	0	0	0	0.54	1.71	0	26553	0	57	19160	26553	26496	454	1	48	1	18811	3465112	504
108	2017-11-22 11:46:37		0	0	0	0	0	0	0.54	1.71	0	26562	0	57	19187	26562	26505	454	1	48	1	18837	3465125	504
109	2017-11-22 11:56:55		0	0	0	0	0	0	0.54	1.71	0	26563	0	57	19187	26563	26506	454	1	48	1	18837	3465133	504
110	2017-11-22 12:07:31		0	0	0	0	0	0	0.54	1.71	0	26565	0	57	19187	26565	26508	454	1	48	1	18837	3465145	504
111	2017-11-22 12:25:46		0	0	0	0	0	0	0.54	1.71	0	26570	0	57	19201	26570	26513	454	1	48	1	18851	3465155	504
112	2017-11-22 12:34:10		0	0	0	0	0	0	0.54	1.71	0	26572	0	57	19201	26572	26515	454	1	48	1	18851	3465160	504
113	2017-11-22 12:48:44		0	0	0	0	0	0	0.54	1.71	0	26579	0	57	19217	26579	26522	455	1	48	1	18865	3465158	505
114	2017-11-22 13:00:34		0	0	0	0	0	0	0.54	1.71	0	26581	0	57	19217	26581	26524	455	1	48	1	18865	3465162	505
115	2017-11-22 13:13:04		0	0	0	0	0	0	0.54	1.71	0	26583	0	57	19217	26583	26526	455	1	48	1	18865	3465166	505
116	2017-11-22 13:30:59		0	0	0	0	0	0	0.54	1.71	0	26591	0	57	19217	26591	26534	455	1	48	1	18865	3465164	505
117	2017-11-22 13:45:14		0	0	0	0	0	0	0.54	1.71	0	26593	0	57	19217	26593	26536	455	1	48	1	18865	3465174	505
118	2017-11-22 14:17:50		0	0	0	0	0	0	0.54	1.71	0	26597	0	57	19217	26597	26540	455	1	48	1	18865	3465186	505
119	2017-11-22 14:25:13		0	0	0	0	0	0	0.54	1.71	0	26599	0	57	19217	26599	26542	455	1	48	1	18865	3465191	505
120	2017-11-22 14:39:27		0	0	0	0	0	0	0.54	1.71	0	26602	0	57	19217	26602	26545	455	1	48	1	18865	3465187	505
121	2017-11-22 14:48:48		0	0	0	0	0	0	0.54	1.71	0	26604	0	57	19217	26604	26547	455	1	48	1	18865	3465186	505
122	2017-11-22 15:23:13		0	0	0	0	0	0	0.55	1.72	0	26619	0	57	19218	26619	26562	457	1	48	1	18912	3465193	507
123	2017-11-22 15:45:51		0	0	0	0	0	0	0.55	1.72	0	26626	0	57	19230	26626	26569	457	1	48	1	18923	3465212	507
124	2017-11-22 16:03:55		0	0	0	0	0	0	0.55	1.72	0	26634	0	57	19237	26634	26577	457	1	49	1	18929	3465237	508
125	2017-11-22 16:13:52		0	0	0	0	0	0	0.55	1.72	0	26634	0	57	19237	26634	26577	457	1	49	1	18929	3465244	508
126	2017-11-22 16:56:46		0	0	0	0	0	0	0.55	1.72	0	26645	0	57	19237	26645	26588	457	1	49	1	18929	3465256	508
127	2017-11-22 17:05:13		0	0	0	0	0	0	0.55	1.71	0	26650	0	57	19237	26650	26593	457	1	49	1	18929	3465257	508
128	2017-11-22 17:24:44		0	0	0	0	0	0	0.55	1.71	0	26654	0	57	19237	26654	26597	457	1	49	1	18929	3465257	508
129	2017-11-22 17:33:36		0	0	0	0	0	0	0.55	1.71	0	26656	0	57	19237	26656	26599	457	1	49	1	18929	3465259	508
130	2017-11-22 18:01:29		0	0	0	0	0	0	0.55	1.71	0	26666	0	57	19237	26666	26609	457	1	49	1	18929	3465260	508
131	2017-11-22 18:13:47		0	0	0	0	0	0	0.55	1.71	0	26668	0	57	19237	26668	26611	457	1	49	1	18929	3465265	508
132	2017-11-22 18:33:24		0	0	0	0	0	0	0.55	1.71	0	26674	0	57	19237	26674	26617	457	1	49	1	18929	3465263	508
133	2017-11-22 18:41:31		0	0	0	0	0	0	0.55	1.71	0	26676	0	57	19237	26676	26619	457	1	49	1	18929	3465264	508
134	2017-11-22 19:12:32		0	0	0	0	0	0	0.55	1.71	0	26690	0	57	19237	26690	26633	457	1	49	1	18929	3465275	508
135	2017-11-22 19:19:01		0	0	0	0	0	0	0.55	1.71	0	26695	0	57	19237	26695	26638	457	1	49	1	18929	3465280	508
136	2017-11-22 19:39:50		0	0	0	0	0	0	0.55	1.71	0	26701	0	57	19237	26701	26644	457	1	49	1	18929	3465292	508
137	2017-11-22 19:56:32		0	0	0	0	0	0	0.55	1.71	0	26705	0	57	19251	26705	26648	457	1	49	1	18943	3465295	508
138	2017-11-22 20:05:55		0	0	0	0	0	0	0.55	1.71	0	26717	0	57	19251	26717	26660	457	1	49	1	18943	3465296	508
139	2017-11-22 20:16:04		0	0	0	0	0	0	0.55	1.71	0	26722	0	57	19251	26722	26665	457	1	49	1	18943	3465304	508
140	2017-11-22 20:57:39		0	0	0	0	0	0	0.55	1.71	0	26737	0	58	19251	26737	26679	457	1	49	1	18943	3465322	508
141	2017-11-22 21:09:17		0	0	0	0	0	0	0.55	1.71	0	26750	0	58	19251	26750	26692	457	1	49	1	18943	3465335	508
142	2017-11-22 21:18:57		0	0	0	0	0	0	0.55	1.71	0	26755	0	58	19259	26755	26697	457	1	49	1	18951	3465345	508
143	2017-11-22 21:35:48		0	0	0	0	0	0	0.55	1.71	0	26766	0	60	19267	26766	26706	457	1	49	1	18958	3465349	508
144	2017-11-22 21:45:39		0	0	0	0	0	0	0.55	1.71	0	26777	0	60	19267	26777	26717	457	1	49	1	18958	3465359	508
145	2017-11-22 22:05:03		0	0	0	0	0	0	0.55	1.71	0	26788	0	60	19274	26788	26728	458	1	49	1	18966	3465378	509
146	2017-11-23 09:42:00		0	0	0	0	0	0	0.55	1.72	0	26883	0	60	19346	26883	26823	462	1	50	1	19035	3465578	514
147	2017-11-23 09:52:32		0	0	0	0	0	0	0.55	1.72	0	26884	0	60	19346	26884	26824	462	1	50	1	19035	3465583	514
148	2017-11-23 10:00:05		0	0	0	0	0	0	0.55	1.72	0	26885	0	60	19346	26885	26825	462	1	50	1	19035	3465585	514
149	2017-11-23 10:10:33		0	0	0	0	0	0	0.55	1.72	0	26886	0	60	19346	26886	26826	462	1	50	1	19035	3465590	514
150	2017-11-23 10:21:03		0	0	0	0	0	0	0.55	1.72	0	26886	0	60	19346	26886	26826	462	1	50	1	19035	3465595	514
151	2017-11-23 10:31:34		0	0	0	0	0	0	0.55	1.72	0	26888	0	60	19346	26888	26828	462	1	50	1	19035	3465596	514
152	2017-11-23 10:42:09		0	0	0	0	0	0	0.55	1.72	0	26889	0	60	19346	26889	26829	462	1	50	1	19035	3465599	514
153	2017-11-23 10:52:40		0	0	0	0	0	0	0.55	1.72	0	26893	0	60	19346	26893	26833	462	1	50	1	19035	3465612	514
154	2017-11-23 11:03:05		0	0	0	0	0	0	0.55	1.72	0	26897	0	60	19346	26897	26837	462	1	50	1	19035	3465622	514
155	2017-11-23 11:13:33		0	0	0	0	0	0	0.55	1.72	0	26900	0	60	19346	26900	26840	462	1	50	1	19035	3465629	514
156	2017-11-23 11:24:04		0	0	0	0	0	0	0.55	1.72	0	26901	0	60	19346	26901	26841	462	1	50	1	19035	3465638	514
157	2017-11-23 11:34:33		0	0	0	0	0	0	0.55	1.72	0	26902	0	60	19346	26902	26842	462	1	50	1	19035	3465642	514
158	2017-11-23 11:45:04		0	0	0	0	0	0	0.55	1.72	0	26903	0	60	19346	26903	26843	462	1	50	1	19035	3465655	514
159	2017-11-23 11:55:34		0	0	0	0	0	0	0.55	1.72	0	26904	0	60	19346	26904	26844	462	1	50	1	19035	3465663	514
160	2017-11-23 12:06:04		0	0	0	0	0	0	0.55	1.72	0	26908	0	60	19346	26908	26848	462	1	52	1	19035	3465668	516
161	2017-11-23 12:16:34		0	0	0	0	0	0	0.55	1.72	0	26912	0	60	19346	26912	26852	462	1	52	1	19035	3465691	516
162	2017-11-23 12:27:06		0	0	0	0	0	0	0.55	1.72	0	26913	0	60	19346	26913	26853	463	1	52	1	19035	3465702	517
163	2017-11-23 12:37:37		0	0	0	0	0	0	0.55	1.72	0	26914	0	60	19346	26914	26854	463	1	52	1	19035	3465710	517
164	2017-11-23 12:48:06		0	0	0	0	0	0	0.55	1.72	0	26916	0	60	19346	26916	26856	463	1	52	1	19035	3465719	517
165	2017-11-23 12:58:35		0	0	0	0	0	0	0.55	1.72	0	26916	0	60	19346	26916	26856	463	1	52	1	19035	3465731	517
166	2017-11-23 13:09:08		0	0	0	0	0	0	0.55	1.72	0	26916	0	60	19346	26916	26856	463	1	52	1	19035	3465740	517
167	2017-11-23 13:19:34		0	0	0	0	0	0	0.55	1.72	0	26918	0	60	19346	26918	26858	463	1	52	1	19035	3465748	517
168	2017-11-23 13:30:13		0	0	0	0	0	0	0.55	1.72	0	26918	0	60	19346	26918	26858	463	1	52	1	19035	3465761	517
169	2017-11-23 13:40:38		0	0	0	0	0	0	0.55	1.72	0	26919	0	60	19346	26919	26859	463	1	52	1	19035	3465778	517
170	2017-11-23 13:51:12		0	0	0	0	0	0	0.55	1.72	0	26920	0	60	19346	26920	26860	463	1	52	1	19035	3465789	517
171	2017-11-23 14:01:39		0	0	0	0	0	0	0.55	1.72	0	26920	0	60	19346	26920	26860	463	1	52	1	19035	3465796	517
172	2017-11-23 14:12:07		0	0	0	0	0	0	0.55	1.72	0	26921	0	60	19346	26921	26861	463	1	52	1	19035	3465817	517
173	2017-11-23 14:22:37		0	0	0	0	0	0	0.55	1.72	0	26922	0	60	19350	26922	26862	463	1	52	1	19038	3465827	517
174	2017-11-23 14:33:17		0	0	0	0	0	0	0.55	1.72	0	26922	0	60	19350	26922	26862	463	1	52	1	19038	3465838	517
175	2017-11-23 14:43:43		0	0	0	0	0	0	0.55	1.72	0	26924	0	60	19350	26924	26864	463	1	52	1	19038	3465857	517
176	2017-11-23 14:54:10		0	0	0	0	0	0	0.55	1.72	0	26926	0	60	19350	26926	26866	463	1	52	1	19038	3465870	517
177	2017-11-23 15:04:48		0	0	0	0	0	0	0.55	1.72	0	26928	0	60	19365	26928	26868	463	1	52	1	19053	3465884	517
178	2017-11-23 15:15:07		0	0	0	0	0	0	0.55	1.72	0	26928	0	60	19365	26928	26868	463	1	52	1	19053	3465899	517
179	2017-11-23 15:25:38		0	0	0	0	0	0	0.55	1.72	0	26930	0	60	19365	26930	26870	463	1	52	1	19053	3465908	517
180	2017-11-23 15:36:09		0	0	0	0	0	0	0.55	1.72	0	26931	0	60	19365	26931	26871	463	1	52	1	19053	3465918	517
181	2017-11-23 15:46:43		0	0	0	0	0	0	0.55	1.72	0	26932	0	60	19365	26932	26872	463	1	52	1	19053	3465931	517
182	2017-11-23 15:57:09		0	0	0	0	0	0	0.55	1.72	0	26934	0	60	19365	26934	26874	463	1	52	1	19053	3465946	517
183	2017-11-23 16:07:55		0	0	0	0	0	0	0.55	1.72	0	26936	0	60	19365	26936	26876	463	1	52	1	19053	3465956	517
184	2017-11-23 16:18:09		0	0	0	0	0	0	0.55	1.72	0	26939	0	60	19365	26939	26879	463	1	52	1	19053	3465974	517
185	2017-11-23 16:28:42		0	0	0	0	0	0	0.55	1.72	0	26939	0	60	19365	26939	26879	463	1	52	1	19053	3465990	517
186	2017-11-23 16:39:09		0	0	0	0	0	0	0.55	1.72	0	26940	0	60	19365	26940	26880	463	1	52	1	19053	3465994	517
187	2017-11-23 16:49:40		0	0	0	0	0	0	0.55	1.72	0	26942	0	60	19365	26942	26882	463	1	52	1	19053	3466002	517
188	2017-11-23 17:00:18		0	0	0	0	0	0	0.55	1.72	0	26943	0	60	19373	26943	26883	463	1	52	1	19061	3466012	517
189	2017-11-23 17:10:43		0	0	0	0	0	0	0.55	1.72	0	26946	0	60	19373	26946	26886	463	1	52	1	19061	3466023	517
190	2017-11-23 17:21:18		0	0	0	0	0	0	0.55	1.72	0	26949	0	60	19384	26949	26889	463	1	52	1	19072	3466036	517
191	2017-11-23 17:31:43		0	0	0	0	0	0	0.55	1.72	0	26950	0	60	19384	26950	26890	463	1	52	1	19072	3466039	517
192	2017-11-23 17:42:11		0	0	0	0	0	0	0.55	1.72	0	26951	0	60	19384	26951	26891	463	1	52	1	19072	3466050	517
193	2017-11-23 17:52:40		0	0	0	0	0	0	0.55	1.72	0	26953	0	60	19384	26953	26893	463	1	52	1	19072	3466064	517
194	2017-11-23 18:03:17		0	0	0	0	0	0	0.55	1.72	0	26955	0	60	19384	26955	26895	463	1	52	1	19072	3466084	517
195	2017-11-23 18:13:53		0	0	0	0	0	0	0.55	1.72	0	26956	0	60	19384	26956	26896	463	1	52	1	19072	3466101	517
