1	2017-09-14 11:36:45		0	0	0	0	0	0	0.43	5.69	0	15510	0	11	14431	15510	15499	882	40	28	18	14354	3354842	968
2	2017-09-14 11:47:46		0	0	0	0	0	0	1.57	8.47	0.01	62253	0	569	53105	62253	61684	5274	83	76	38	52522	3354855	5471
3	2017-09-14 11:58:45		0	0	0	0	0	0	1.89	15.85	0.01	77258	0	963	64305	77258	76295	12246	118	111	50	63566	3354871	12525
4	2017-09-14 12:09:45		0	0	0	0	0	0	2.23	16.33	0.02	92065	0	1433	76108	92065	90632	15035	140	143	61	74709	3354884	15379
5	2017-09-14 12:20:46		0	0	0	0	0	0	2.47	16.82	0.02	104459	0	1871	84695	104459	102588	17572	153	171	66	82985	3354897	17962
6	2017-09-14 12:31:45		0	0	0	0	0	0	2.96	17.07	0.02	127282	0	2754	102052	127282	124528	21732	169	195	75	99452	3354910	22171
7	2017-09-14 12:42:47		0	0	0	0	0	0	3.2	17.04	0.03	138143	0	3506	110621	138143	134637	23539	185	210	80	107446	3354919	24014
8	2017-09-14 13:05:00		0	0	0	0	0	0	3.63	16.23	0.03	165434	0	5476	126730	165434	159958	26844	217	236	91	121821	3354940	27388
9	2017-09-14 13:15:45		0	0	0	0	0	0	3.81	17.01	0.04	174560	0	6024	133152	174560	168536	29696	229	251	102	127955	3354953	30278
10	2017-09-14 13:26:47		0	0	0	0	0	0	3.98	17.03	0.04	183006	0	6592	139237	183006	176414	31164	236	261	108	133415	3354965	31769
11	2017-09-14 13:48:47		0	0	0	0	0	0	4.33	17.12	0.04	202285	0	7964	147633	202285	194321	34636	256	281	112	145386	3354985	35285
12	2017-09-14 14:22:31		0	0	0	0	0	0	4.76	17.16	0.04	226543	0	9534	168651	226543	217009	38878	276	302	128	159711	3355038	39584
13	2017-09-14 14:32:46		0	0	0	0	0	0	4.85	17.17	0.04	232132	0	9866	171714	232132	222266	39862	282	312	132	162848	3355051	40588
14	2017-09-14 14:55:14		0	0	0	0	0	0	5.16	16.85	0.05	248738	0	11041	182542	248738	237697	41924	292	329	137	173155	3355076	42682
15	2017-09-14 15:05:46		0	0	0	0	0	0	5.28	16.85	0.05	253811	0	11399	187073	253811	242412	42757	301	333	139	177227	3355085	43530
16	2017-09-14 15:16:46		0	0	0	0	0	0	5.34	16.84	0.05	258819	0	11748	189564	258819	247071	43594	309	347	141	179170	3355095	44391
17	2017-09-14 15:27:46		0	0	0	0	0	0	5.43	17.21	0.05	263550	0	12150	192367	263550	251400	45362	313	355	145	182099	3355102	46175
18	2017-09-14 15:38:46		0	0	0	0	0	0	5.56	17.23	0.05	272386	0	12758	197591	272386	259628	46935	320	358	147	186381	3355109	47760
19	2017-09-14 15:49:46		0	0	0	0	0	0	5.62	17.22	0.05	276799	0	13021	200481	276799	263778	47668	323	372	149	188627	3355117	48512
20	2017-09-14 16:11:46		0	0	0	0	0	0	5.84	17.24	0.05	289812	0	13889	208237	289812	275923	49958	330	390	154	195947	3355121	50832
21	2017-09-14 16:33:47		0	0	0	0	0	0	6.12	17	0.05	303495	0	14845	217687	303495	288650	51604	342	404	157	205322	3355139	52507
22	2017-09-14 16:44:46		0	0	0	0	0	0	6.22	16.99	0.05	308071	0	15183	217687	308071	292888	52345	351	410	158	208766	3355142	53264
23	2017-09-14 16:55:47		0	0	0	0	0	0	6.31	17.23	0.05	312905	0	15505	224006	312905	297400	53922	353	418	160	211627	3355155	54853
24	2017-09-14 17:06:46		0	0	0	0	0	0	6.4	17.23	0.05	318307	0	15844	227981	318307	302463	54843	362	431	164	214813	3355159	55800
25	2017-09-14 17:17:46		0	0	0	0	0	0	6.57	17.01	0.05	327475	0	16449	234495	327475	311026	55711	370	437	166	220288	3355172	56684
26	2017-09-14 17:28:46		0	0	0	0	0	0	6.66	17.26	0.05	332756	0	16855	238987	332756	315901	57445	379	445	167	223620	3355184	58436
27	2017-09-14 17:39:46		0	0	0	0	0	0	6.78	17.26	0.05	337858	0	17275	243037	337858	320583	58321	385	455	168	227362	3355193	59329
28	2017-09-14 17:50:46		0	0	0	0	0	0	6.96	17.07	0.05	347321	0	18063	249615	347321	329258	59281	392	469	169	233549	3355201	60311
29	2017-09-14 18:01:46		0	0	0	0	0	0	7.02	17.3	0.06	351605	0	18417	251735	351605	333188	60835	395	477	175	235547	3355211	61882
30	2017-09-14 18:12:46		0	0	0	0	0	0	7.16	17.13	0.06	359304	0	18976	256064	359304	340328	61535	401	481	180	240280	3355228	62597
31	2017-09-14 18:23:47		0	0	0	0	0	0	7.2	17.34	0.06	363384	0	19278	257447	363384	344106	63016	407	492	183	241497	3355230	64098
32	2017-09-14 18:34:46		0	0	0	0	0	0	7.28	17.35	0.06	367848	0	19614	260369	367848	348234	63805	414	499	186	244202	3355244	64904
33	2017-09-14 18:45:47		0	0	0	0	0	0	7.43	17.16	0.06	376585	0	20305	266798	376585	356280	64619	420	512	191	249446	3355254	65742
34	2017-09-14 18:56:51		0	0	0	0	0	0	7.49	17.35	0.06	380591	0	20618	269035	380591	359973	66040	424	518	195	251319	3355268	67177
35	2017-09-14 19:07:48		0	0	0	0	0	0	7.59	17.37	0.06	385148	0	20976	272521	385148	364172	66892	429	533	199	254536	3355277	68053
36	2017-09-14 19:18:48		0	0	0	0	0	0	7.76	17.2	0.06	393556	0	21647	279204	393556	371909	67694	434	535	201	260314	3355281	68864
37	2017-09-14 19:29:46		0	0	0	0	0	0	7.8	17.37	0.06	397898	0	21982	281405	397898	375916	69106	443	542	204	261827	3355288	70295
38	2017-09-14 19:40:46		0	0	0	0	0	0	7.92	17.36	0.06	402660	0	22394	285255	402660	380266	69892	450	550	206	265760	3355284	71098
39	2017-09-14 19:51:46		0	0	0	0	0	0	8.08	17.37	0.06	410875	0	23045	291211	410875	387830	71359	453	555	210	271041	3355310	72577
40	2017-09-14 20:02:46		0	0	0	0	0	0	8.16	17.37	0.06	415049	0	23448	294129	415049	391601	72110	466	558	215	273664	3355331	73349
41	2017-09-14 20:13:47		0	0	0	0	0	0	8.25	17.4	0.06	421631	0	24066	297396	421631	397565	73376	470	566	218	276699	3355357	74630
42	2017-09-14 20:24:46		0	0	0	0	0	0	8.38	17.41	0.06	425345	0	24452	301192	425345	400893	74053	474	574	225	281102	3355381	75326
43	2017-09-14 20:35:46		0	0	0	0	0	0	8.53	17.27	0.06	433042	0	25142	307070	433042	407900	74769	477	584	227	286149	3355402	76057
44	2017-09-14 20:46:46		0	0	0	0	0	0	8.63	17.41	0.06	437554	0	25513	310422	437554	412041	76182	484	595	230	289484	3355425	77491
45	2017-09-14 20:57:46		0	0	0	0	0	0	8.73	17.41	0.06	442129	0	25847	313205	442129	416282	76982	495	605	233	292903	3355458	78315
46	2017-09-14 21:08:46		0	0	0	0	0	0	8.88	17.25	0.06	451347	0	26598	319701	451347	424749	77855	501	615	234	298088	3355486	79205
47	2017-09-14 21:19:45		0	0	0	0	0	0	8.93	17.43	0.06	455329	0	26930	321252	455329	428399	79345	505	620	237	299784	3355513	80707
48	2017-09-14 21:30:45		0	0	0	0	0	0	9.1	17.25	0.06	464798	0	27687	327104	464798	437111	80192	511	633	238	305264	3355535	81574
49	2017-09-14 21:41:45		0	0	0	0	0	0	9.17	17.44	0.06	469402	0	28067	329762	469402	441335	81881	516	637	241	307578	3355560	83275
50	2017-09-14 21:52:45		0	0	0	0	0	0	9.28	17.45	0.06	474097	0	28459	333769	474097	445638	82717	523	646	241	311562	3355584	84127
51	2017-09-14 22:03:46		0	0	0	0	0	0	9.44	17.46	0.06	483751	0	29274	339145	483751	454477	84465	527	649	244	316662	3355618	85885
52	2017-09-14 22:14:47		0	0	0	0	0	0	9.51	17.47	0.06	488331	0	29660	339815	488331	458671	85305	532	654	246	319275	3355661	86737
53	2017-09-14 22:25:48		0	0	0	0	0	0	9.59	17.47	0.06	492479	0	30050	342002	492479	462429	86015	539	664	253	321775	3355699	87471
54	2017-09-14 22:36:47		0	0	0	0	0	0	9.78	17.48	0.07	502546	0	30918	349599	502546	471628	87836	543	673	258	328040	3355748	89310
55	2017-09-14 22:47:46		0	0	0	0	0	0	9.86	17.49	0.07	506652	0	31337	352434	506652	475315	88615	548	682	260	330800	3355804	90105
56	2017-09-14 22:58:45		0	0	0	0	0	0	9.94	17.5	0.07	510583	0	31732	355826	510583	478851	89357	555	687	263	333534	3355848	90862
57	2017-09-14 23:09:45		0	0	0	0	0	0	10.06	17.53	0.07	518290	0	32610	359691	518290	485680	90851	559	693	271	337709	3355895	92374
58	2017-09-14 23:20:46		0	0	0	0	0	0	10.12	17.54	0.07	522474	0	33063	361212	522474	489411	91631	562	695	275	339644	3355937	93163
59	2017-09-14 23:31:46		0	0	0	0	0	0	10.25	17.43	0.07	529996	0	33744	367306	529996	496252	92359	570	701	276	343839	3355970	93906
60	2017-09-14 23:42:45		0	0	0	0	0	0	10.29	17.56	0.07	533881	0	34093	369157	533881	499788	93725	576	707	278	345181	3356008	95286
61	2017-09-14 23:53:45		0	0	0	0	0	0	10.4	17.39	0.07	543510	0	34742	375093	543510	508768	94535	581	716	283	349038	3356044	96115
62	2017-09-15 00:21:46		0	0	0	0	0	0	10.65	17.58	0.07	557500	0	35691	382790	557500	521809	98003	596	738	307	357397	3356139	99644
63	2017-09-15 01:21:45		0	0	0	0	0	0	11.12	17.63	0.07	585413	0	37731	398711	585413	547682	103210	616	772	319	373217	3356245	104917
64	2017-09-15 02:21:47		0	0	0	0	0	0	11.29	17.76	0.07	595837	0	38637	404843	595837	557200	105804	624	792	328	378863	3356277	107548
65	2017-09-15 03:21:46		0	0	0	0	0	0	11.42	17.77	0.07	602243	0	39253	409311	602243	562990	107008	626	803	332	383152	3356301	108769
66	2017-09-15 04:21:45		0	0	0	0	0	0	11.53	17.78	0.07	606145	0	39602	413714	606145	566543	107794	629	807	333	387056	3356327	109563
67	2017-09-15 05:21:47		0	0	0	0	0	0	11.59	17.77	0.07	610132	0	40075	416189	610132	570057	108406	632	808	335	388940	3356331	110181
68	2017-09-15 06:21:46		0	0	0	0	0	0	11.72	17.77	0.07	616974	0	40653	421511	616974	576321	109607	635	822	336	393209	3356357	111400
69	2017-09-15 07:04:47		0	0	0	0	0	0	11.86	17.75	0.07	627175	0	41692	427195	627175	585483	111353	643	834	336	398101	3356411	113166
70	2017-09-15 07:15:47		0	0	0	0	0	0	11.91	17.76	0.07	629113	0	41852	429090	629113	587261	111717	646	839	337	399745	3356423	113539
71	2017-09-15 07:26:47		0	0	0	0	0	0	11.92	17.76	0.07	630986	0	42064	429387	630986	588922	112061	651	842	338	400003	3356438	113892
72	2017-09-15 07:37:47		0	0	0	0	0	0	11.96	17.76	0.07	635077	0	42480	430574	635077	592597	112801	657	846	340	401449	3356458	114644
73	2017-09-15 07:48:46		0	0	0	0	0	0	11.98	17.76	0.07	637209	0	42702	431888	637209	594507	113199	660	847	341	402173	3356484	115047
74	2017-09-15 07:59:46		0	0	0	0	0	0	12.03	17.77	0.07	639796	0	42997	434007	639796	596799	113693	664	850	348	403851	3356504	115555
75	2017-09-15 08:10:47		0	0	0	0	0	0	12.13	17.7	0.07	645376	0	43510	437641	645376	601866	114226	665	853	351	407103	3356536	116095
76	2017-09-15 08:21:45		0	0	0	0	0	0	12.15	17.69	0.07	648295	0	43797	438257	648295	604498	114708	669	860	354	407851	3356560	116591
77	2017-09-15 08:32:46		0	0	0	0	0	0	12.23	17.78	0.07	651641	0	44214	441475	651641	607427	115871	673	865	357	410419	3356588	117766
78	2017-09-15 08:43:46		0	0	0	0	0	0	12.33	17.78	0.07	655019	0	44598	445733	655019	610421	116489	677	877	362	413847	3356608	118405
79	2017-09-15 08:54:46		0	0	0	0	0	0	12.39	17.79	0.07	661593	0	45325	448039	661593	616268	117701	682	883	365	415834	3356643	119631
80	2017-09-15 09:05:47		0	0	0	0	0	0	12.47	17.79	0.07	665137	0	45724	451288	665137	619413	118322	685	885	367	418532	3356676	120259
81	2017-09-15 09:16:47		0	0	0	0	0	0	12.5	17.79	0.07	668768	0	46092	452607	668768	622676	118997	694	890	371	419667	3356705	120952
82	2017-09-15 09:27:47		0	0	0	0	0	0	12.64	17.7	0.07	675708	0	46766	459266	675708	628942	119604	696	896	375	424423	3356728	121571
83	2017-09-15 09:38:48		0	0	0	0	0	0	12.71	17.8	0.07	679231	0	47137	461834	679231	632094	120929	702	906	377	426616	3356758	122914
84	2017-09-15 09:49:48		0	0	0	0	0	0	12.79	17.81	0.07	683067	0	47494	465130	683067	635573	121651	703	914	381	429337	3356790	123649
85	2017-09-15 10:00:46		0	0	0	0	0	0	12.85	17.81	0.07	686380	0	47850	466426	686380	638530	122253	708	918	385	431401	3356820	124264
86	2017-09-15 10:11:45		0	0	0	0	0	0	12.96	17.72	0.08	693000	0	48534	469147	693000	644466	122817	712	922	387	435190	3356852	124838
87	2017-09-15 10:22:46		0	0	0	0	0	0	13.04	17.72	0.08	696567	0	48914	471504	696567	647653	123412	714	928	388	437713	3356889	125442
88	2017-09-15 10:33:46		0	0	0	0	0	0	13.1	17.72	0.08	700112	0	49318	474403	700112	650794	124061	716	932	389	439702	3356917	126098
89	2017-09-15 10:44:46		0	0	0	0	0	0	13.12	17.82	0.08	703273	0	49688	475423	703273	653585	125350	722	934	391	440578	3356951	127397
90	2017-09-15 10:55:46		0	0	0	0	0	0	13.15	17.83	0.08	706733	0	50092	476592	706733	656641	126013	723	944	396	441582	3356992	128076
91	2017-09-15 11:06:49		0	0	0	0	0	0	13.29	17.76	0.08	712709	0	50808	482048	712709	661901	126586	725	948	396	446021	3357012	128655
92	2017-09-15 11:17:46		0	0	0	0	0	0	13.35	17.84	0.08	715562	0	51140	484026	715562	664422	127655	725	957	398	448232	3357041	129735
93	2017-09-15 11:28:48		0	0	0	0	0	0	13.41	17.84	0.08	718298	0	51505	486126	718298	666793	128111	726	963	400	450163	3357073	130200
94	2017-09-15 11:39:48		0	0	0	0	0	0	13.45	17.84	0.08	720943	0	51826	487561	720943	669117	128600	730	970	401	451393	3357102	130701
95	2017-09-15 11:50:51		0	0	0	0	0	0	13.54	17.84	0.08	723187	0	52140	491274	723187	671047	129038	732	972	405	454441	3357129	131147
96	2017-09-15 12:01:50		0	0	0	0	0	0	13.59	17.82	0.08	726268	0	52826	492485	726268	673442	129396	732	975	406	456181	3357164	131509
97	2017-09-15 12:12:48		0	0	0	0	0	0	13.6	17.83	0.08	727543	0	53154	493385	727543	674389	129703	732	977	407	456618	3357194	131819
98	2017-09-15 12:23:47		0	0	0	0	0	0	13.63	17.87	0.08	728732	0	53463	494962	728732	675269	130214	732	981	407	457698	3357231	132334
99	2017-09-15 12:34:47		0	0	0	0	0	0	13.64	17.86	0.08	730033	0	53874	495675	730033	676159	130420	735	981	408	457766	3357276	132544
100	2017-09-15 12:45:48		0	0	0	0	0	0	13.64	17.87	0.08	731254	0	54225	496003	731254	677029	130649	735	981	409	458045	3357315	132774
101	2017-09-15 12:56:47		0	0	0	0	0	0	13.67	17.84	0.08	733348	0	54783	497517	733348	678565	130865	735	982	409	458928	3357353	132991
102	2017-09-15 13:07:48		0	0	0	0	0	0	13.7	17.85	0.08	734425	0	55046	498468	734425	679379	131059	735	982	409	460010	3357381	133185
103	2017-09-15 13:18:48		0	0	0	0	0	0	13.72	17.87	0.08	735508	0	55338	498644	735508	680170	131471	737	984	409	460707	3357413	133601
104	2017-09-15 13:29:48		0	0	0	0	0	0	13.74	17.88	0.08	737431	0	55888	500336	737431	681543	131884	737	986	410	461325	3357443	134017
105	2017-09-15 13:40:48		0	0	0	0	0	0	13.75	17.89	0.08	738325	0	56131	501064	738325	682194	132072	739	989	410	461807	3357482	134210
106	2017-09-15 13:51:49		0	0	0	0	0	0	13.75	17.89	0.08	739161	0	56369	501064	739161	682792	132224	740	990	411	461807	3357516	134365
107	2017-09-15 14:02:50		0	0	0	0	0	0	13.77	17.87	0.08	740887	0	56895	502284	740887	683992	132382	743	990	411	462359	3357545	134526
108	2017-09-15 14:13:49		0	0	0	0	0	0	13.78	17.9	0.08	741699	0	57134	502610	741699	684565	132732	743	990	411	462635	3357580	134876
109	2017-09-15 14:24:49		0	0	0	0	0	0	13.83	17.9	0.08	742574	0	57390	504576	742574	685184	132911	743	991	411	464300	3357614	135056
110	2017-09-15 14:35:49		0	0	0	0	0	0	13.86	17.9	0.08	743313	0	57628	505152	743313	685685	133046	744	993	411	465416	3357639	135194
111	2017-09-15 14:46:48		0	0	0	0	0	0	13.87	17.88	0.08	744878	0	58075	505440	744878	686803	133210	745	996	411	465661	3357671	135362
112	2017-09-15 14:57:49		0	0	0	0	0	0	13.87	17.91	0.08	745586	0	58268	505440	745586	687318	133506	745	996	412	465661	3357706	135659
113	2017-09-15 15:08:49		0	0	0	0	0	0	13.89	17.89	0.09	746956	0	58641	506267	746956	688315	133625	747	996	412	466363	3357740	135780
114	2017-09-15 15:19:50		0	0	0	0	0	0	13.93	17.89	0.09	747711	0	58865	506888	747711	688846	133736	748	998	413	467737	3357773	135895
115	2017-09-15 15:30:50		0	0	0	0	0	0	13.94	17.91	0.09	748480	0	59075	507301	748480	689405	134039	748	999	414	468088	3357794	136200
116	2017-09-15 15:41:50		0	0	0	0	0	0	13.96	17.89	0.09	749940	0	59512	508008	749940	690428	134163	747	1001	414	468690	3357816	136325
117	2017-09-15 15:52:53		0	0	0	0	0	0	13.96	17.89	0.09	750834	0	59767	508134	750834	691067	134323	747	1001	414	468690	3357869	136485
118	2017-09-15 16:03:53		0	0	0	0	0	0	13.97	17.91	0.09	751646	0	60024	508634	751646	691622	134604	747	1001	414	469116	3357912	136766
119	2017-09-15 16:14:53		0	0	0	0	0	0	13.98	17.91	0.09	752318	0	60222	508903	752318	692096	134763	749	1002	414	469345	3357943	136928
120	2017-09-15 16:25:51		0	0	0	0	0	0	13.99	17.9	0.09	753881	0	60662	509584	753881	693219	134921	749	1003	415	469737	3357979	137088
121	2017-09-15 16:36:51		0	0	0	0	0	0	13.99	17.92	0.09	754545	0	60834	509878	754545	693711	135223	749	1003	416	469737	3358018	137391
122	2017-09-15 16:47:52		0	0	0	0	0	0	13.99	17.92	0.09	755255	0	61021	509878	755255	694234	135362	749	1003	417	469737	3358064	137531
123	2017-09-15 16:58:54		0	0	0	0	0	0	13.99	17.92	0.09	755914	0	61204	510025	755914	694710	135466	749	1003	417	469862	3358098	137635
124	2017-09-15 17:09:52		0	0	0	0	0	0	14	17.93	0.09	757379	0	61590	510277	757379	695789	135766	750	1004	417	470076	3358142	137937
125	2017-09-15 17:20:52		0	0	0	0	0	0	14.01	17.92	0.09	758049	0	61789	510613	758049	696260	135878	751	1004	418	470361	3358183	138051
126	2017-09-15 17:31:52		0	0	0	0	0	0	14.01	17.92	0.09	758773	0	61994	510698	758773	696779	135999	751	1004	419	470361	3358225	138173
127	2017-09-15 17:42:52		0	0	0	0	0	0	14.01	17.91	0.09	760287	0	62415	511077	760287	697872	136152	752	1005	420	470611	3358268	138329
128	2017-09-15 17:53:52		0	0	0	0	0	0	14.01	17.91	0.09	761022	0	62602	511415	761022	698420	136272	753	1006	420	470611	3358305	138451
129	2017-09-15 18:04:51		0	0	0	0	0	0	14.02	17.92	0.09	761762	0	62806	511541	761762	698956	136541	753	1008	422	470719	3358338	138724
130	2017-09-15 18:15:51		0	0	0	0	0	0	14.06	17.91	0.09	763118	0	63168	513195	763118	699950	136679	754	1010	422	472118	3358363	138865
131	2017-09-15 18:26:52		0	0	0	0	0	0	14.06	17.93	0.09	763849	0	63339	513195	763849	700510	136960	757	1012	422	472118	3358391	139151
132	2017-09-15 18:37:52		0	0	0	0	0	0	14.1	17.91	0.09	765250	0	63694	516028	765250	701556	137083	758	1013	422	473399	3358431	139276
133	2017-09-15 18:48:51		0	0	0	0	0	0	14.1	17.92	0.09	765960	0	63887	516028	765960	702073	137233	757	1013	423	473399	3358457	139426
134	2017-09-15 18:59:51		0	0	0	0	0	0	14.1	17.94	0.09	766751	0	64082	516028	766751	702669	137520	757	1013	424	473399	3358495	139714
135	2017-09-15 19:11:07		0	0	0	0	0	0	14.1	17.94	0.09	767428	0	64267	516028	767428	703161	137644	757	1014	425	473399	3358531	139840
136	2017-09-15 19:21:53		0	0	0	0	0	0	14.1	17.94	0.09	768640	0	64613	516028	768640	704027	137883	757	1014	425	473399	3358553	140079
137	2017-09-15 19:32:53		0	0	0	0	0	0	14.1	17.94	0.09	769320	0	64795	516437	769320	704525	137989	758	1015	425	473617	3358579	140187
138	2017-09-15 19:43:53		0	0	0	0	0	0	14.1	17.92	0.09	770668	0	65147	516437	770668	705521	138102	758	1016	426	473617	3358604	140302
139	2017-09-15 19:54:51		0	0	0	0	0	0	14.13	17.94	0.09	771353	0	65332	517256	771353	706021	138373	758	1017	426	474597	3358630	140574
140	2017-09-15 20:05:56		0	0	0	0	0	0	14.13	17.94	0.09	772076	0	65519	517256	772076	706557	138486	758	1018	426	474597	3358666	140688
141	2017-09-15 20:16:54		0	0	0	0	0	0	14.13	17.92	0.09	773249	0	65884	517256	773249	707365	138602	758	1019	426	474597	3358702	140805
142	2017-09-15 20:28:39		0	0	0	0	0	0	14.14	17.94	0.09	773892	0	66057	517602	773892	707835	138811	758	1020	426	474888	3358723	141015
143	2017-09-15 20:38:59		0	0	0	0	0	0	14.14	17.94	0.09	774487	0	66196	517602	774487	708291	138957	759	1020	426	474888	3358749	141162
144	2017-09-15 20:50:02		0	0	0	0	0	0	14.15	17.94	0.09	775382	0	66445	517602	775382	708937	139128	759	1020	426	475179	3358775	141333
145	2017-09-15 21:01:00		0	0	0	0	0	0	14.15	17.94	0.09	775878	0	66585	517602	775878	709293	139218	762	1021	426	475179	3358802	141427
146	2017-09-15 21:12:00		0	0	0	0	0	0	14.16	17.93	0.09	776981	0	66881	518295	776981	710100	139316	763	1021	426	475471	3358820	141526
147	2017-09-15 21:23:23		0	0	0	0	0	0	14.16	17.95	0.09	777547	0	67050	518295	777547	710497	139535	763	1024	426	475471	3358837	141748
148	2017-09-15 21:34:20		0	0	0	0	0	0	14.16	17.95	0.09	778090	0	67220	518642	778090	710870	139654	764	1025	426	475764	3358853	141869
149	2017-09-15 21:45:21		0	0	0	0	0	0	14.19	17.94	0.09	779176	0	67524	518816	779176	711652	139750	764	1025	426	476496	3358878	141965
150	2017-09-15 21:56:35		0	0	0	0	0	0	14.19	17.95	0.1	779671	0	67645	519034	779671	712026	139918	766	1025	426	476642	3358896	142135
151	2017-09-15 22:07:32		0	0	0	0	0	0	14.19	17.93	0.1	780708	0	67938	519034	780708	712770	140010	767	1025	426	476642	3358924	142228
152	2017-09-15 22:18:42		0	0	0	0	0	0	14.19	17.94	0.1	781256	0	68102	519034	781256	713154	140193	768	1025	426	476642	3358947	142412
153	2017-09-15 22:29:37		0	0	0	0	0	0	14.19	17.94	0.1	782239	0	68376	519034	782239	713863	140298	768	1025	426	476642	3358974	142517
154	2017-09-15 22:40:37		0	0	0	0	0	0	14.23	17.95	0.1	782765	0	68521	520429	782765	714244	140509	769	1025	427	478041	3358994	142730
155	2017-09-15 22:52:18		0	0	0	0	0	0	14.24	17.94	0.1	783833	0	68803	520823	783833	715030	140604	769	1026	427	478373	3359010	142826
156	2017-09-15 23:02:34		0	0	0	0	0	0	14.24	17.95	0.1	784382	0	68994	520823	784382	715388	140828	770	1027	427	478373	3359025	143052
157	2017-09-15 23:13:34		0	0	0	0	0	0	14.24	17.95	0.1	784856	0	69131	520823	784856	715725	140907	771	1028	427	478373	3359032	143133
158	2017-09-15 23:26:12		0	0	0	0	0	0	14.24	17.95	0.1	785915	0	69413	521218	785915	716502	141087	772	1028	427	478410	3359049	143314
159	2017-09-15 23:36:13		0	0	0	0	0	0	14.26	17.95	0.1	786447	0	69553	521745	786447	716894	141179	772	1028	427	478854	3359081	143406
160	2017-09-15 23:47:09		0	0	0	0	0	0	14.26	17.96	0.1	787284	0	69815	521745	787284	717469	141364	772	1029	427	478854	3359104	143592
161	2017-09-15 23:58:09		0	0	0	0	0	0	14.26	17.96	0.1	787703	0	69946	521745	787703	717757	141447	772	1029	427	478854	3359119	143675
162	2017-09-16 00:42:15		0	0	0	0	0	0	14.27	17.96	0.1	789756	0	70603	522791	789756	719153	141861	778	1032	428	479438	3359202	144099
163	2017-09-16 01:42:16		0	0	0	0	0	0	14.28	17.96	0.1	792404	0	71426	523941	792404	720978	142336	778	1035	429	479735	3359255	144578
164	2017-09-16 02:42:12		0	0	0	0	0	0	14.29	17.97	0.1	793786	0	71877	525035	793786	721909	142608	780	1036	431	480065	3359296	144855
165	2017-09-16 03:42:32		0	0	0	0	0	0	14.29	17.97	0.1	794532	0	72125	525035	794532	722407	142781	780	1037	431	480065	3359313	145029
166	2017-09-16 04:46:09		0	0	0	0	0	0	14.3	17.97	0.1	795135	0	72329	525546	795135	722806	142892	780	1038	431	480492	3359327	145141
167	2017-09-16 05:44:42		0	0	0	0	0	0	14.3	17.97	0.1	795535	0	72499	525546	795535	723036	142942	780	1038	431	480492	3359334	145191
168	2017-09-16 06:47:22		0	0	0	0	0	0	14.3	17.97	0.1	796047	0	72684	525613	796047	723363	143035	780	1039	431	480492	3359343	145285
169	2017-09-16 07:14:22		0	0	0	0	0	0	14.3	17.97	0.1	796367	0	72810	525613	796367	723557	143087	780	1039	431	480492	3359350	145337
170	2017-09-16 07:29:28		0	0	0	0	0	0	14.3	17.97	0.1	796479	0	72841	525616	796479	723638	143107	780	1039	431	480492	3359352	145357
171	2017-09-16 07:46:24		0	0	0	0	0	0	14.3	17.97	0.1	796692	0	72888	525616	796692	723804	143145	780	1039	431	480492	3359357	145395
172	2017-09-16 08:02:58		0	0	0	0	0	0	14.3	17.96	0.1	797019	0	73007	525794	797019	724012	143178	780	1040	431	480492	3359362	145429
173	2017-09-16 08:27:58		0	0	0	0	0	0	14.31	17.96	0.1	797614	0	73178	525973	797614	724436	143273	779	1040	431	480641	3359381	145523
174	2017-09-16 08:38:39		0	0	0	0	0	0	14.31	17.96	0.1	798062	0	73311	525973	798062	724751	143362	781	1041	432	480641	3359401	145616
175	2017-09-16 08:48:44		0	0	0	0	0	0	14.31	17.97	0.1	798302	0	73397	525973	798302	724905	143462	782	1042	432	480641	3359425	145718
176	2017-09-16 09:08:59		0	0	0	0	0	0	14.31	17.97	0.1	798820	0	73559	525973	798820	725261	143570	782	1043	432	480641	3359449	145827
177	2017-09-16 09:21:45		0	0	0	0	0	0	14.31	17.97	0.1	799132	0	73669	526151	799132	725463	143625	782	1044	432	480791	3359467	145883
178	2017-09-16 09:39:26		0	0	0	0	0	0	14.31	17.98	0.1	799646	0	73829	526666	799646	725817	143755	782	1044	433	480791	3359497	146014
179	2017-09-16 09:53:44		0	0	0	0	0	0	14.31	17.98	0.1	800208	0	74009	526733	800208	726199	143874	782	1044	433	480847	3359519	146133
180	2017-09-16 10:07:58		0	0	0	0	0	0	14.31	17.97	0.1	800501	0	74104	526733	800501	726397	143874	782	1044	433	480847	3359533	146133
181	2017-09-16 10:15:59		0	0	0	0	0	0	14.31	17.98	0.1	800750	0	74190	526733	800750	726560	144013	782	1046	433	480847	3359559	146274
182	2017-09-16 10:57:12		0	0	0	0	0	0	14.32	17.98	0.1	802115	0	74591	527047	802115	727524	144255	782	1046	436	481108	3359626	146519
183	2017-09-16 11:06:11		0	0	0	0	0	0	14.32	17.99	0.1	802379	0	74671	527047	802379	727708	144364	782	1046	436	481108	3359641	146628
184	2017-09-16 11:17:20		0	0	0	0	0	0	14.32	17.99	0.1	802612	0	74745	527047	802612	727867	144413	782	1046	436	481108	3359655	146677
185	2017-09-16 11:29:19		0	0	0	0	0	0	14.34	18	0.1	803102	0	74889	527047	803102	728213	144519	782	1047	436	481857	3359672	146784
186	2017-09-16 12:08:47		0	0	0	0	0	0	14.35	18	0.1	804057	0	75213	527946	804057	728844	144741	783	1051	436	482007	3359759	147011
187	2017-09-16 12:27:17		0	0	0	0	0	0	14.35	18	0.1	804523	0	75360	527946	804523	729163	144836	782	1052	436	482007	3359793	147106
188	2017-09-16 12:44:13		0	0	0	0	0	0	14.35	18.01	0.1	805014	0	75524	528374	805014	729490	144952	782	1052	437	482232	3359834	147223
189	2017-09-16 12:55:58		0	0	0	0	0	0	14.36	18.01	0.1	805248	0	75599	528644	805248	729649	145017	782	1053	437	482457	3359860	147289
190	2017-09-16 13:13:29		0	0	0	0	0	0	14.36	18.01	0.1	805728	0	75753	528644	805728	729975	145132	782	1054	438	482457	3359916	147406
191	2017-09-16 13:24:07		0	0	0	0	0	0	14.36	18.01	0.1	805982	0	75833	528644	805982	730149	145182	782	1054	438	482457	3359950	147456
192	2017-09-16 13:35:23		0	0	0	0	0	0	14.36	18.01	0.1	806383	0	75959	528780	806383	730424	145263	783	1054	438	482457	3359969	147538
193	2017-09-16 14:32:24		0	0	0	0	0	0	14.36	18.02	0.1	807524	0	76355	528915	807524	731169	145519	787	1056	439	482570	3360115	147801
194	2017-09-16 14:39:40		0	0	0	0	0	0	14.36	18.02	0.1	807879	0	76467	528915	807879	731412	145556	787	1057	439	482570	3360132	147839
195	2017-09-16 14:58:39		0	0	0	0	0	0	14.38	18.02	0.1	808292	0	76599	529679	808292	731693	145641	788	1059	439	483206	3360175	147927
196	2017-09-16 15:10:31		0	0	0	0	0	0	14.38	18.02	0.1	808462	0	76648	529679	808462	731814	145717	788	1059	439	483206	3360207	148003
197	2017-09-16 15:21:43		0	0	0	0	0	0	14.38	18.02	0.1	808676	0	76714	529679	808676	731962	145755	789	1059	439	483206	3360239	148042
198	2017-09-16 16:22:54		0	0	0	0	0	0	14.42	18.02	0.11	810199	0	77245	531132	810199	732954	146010	791	1061	439	484491	3360377	148301
199	2017-09-16 16:30:36		0	0	0	0	0	0	14.42	18.02	0.11	810565	0	77343	531406	810565	733222	146086	791	1061	439	484718	3360386	148377
200	2017-09-16 17:09:21		0	0	0	0	0	0	14.42	18.03	0.11	810960	0	77473	531954	810960	733487	146207	791	1064	439	484718	3360448	148501
201	2017-09-16 17:21:30		0	0	0	0	0	0	14.43	18.03	0.11	811515	0	77636	532317	811515	733879	146337	793	1066	439	484870	3360469	148635
202	2017-09-16 17:30:15		0	0	0	0	0	0	14.43	18.03	0.11	811849	0	77726	532317	811849	734123	146377	793	1066	439	484870	3360485	148675
203	2017-09-16 17:41:47		0	0	0	0	0	0	14.44	18.03	0.11	812051	0	77777	532866	812051	734274	146409	793	1066	439	485326	3360499	148707
204	2017-09-16 18:01:53		0	0	0	0	0	0	14.45	18.03	0.11	812406	0	77890	533004	812406	734516	146516	793	1066	439	485440	3360518	148814
205	2017-09-16 18:10:12		0	0	0	0	0	0	14.45	18.04	0.11	812613	0	77941	533004	812613	734672	146575	793	1066	439	485440	3360525	148873
206	2017-09-16 18:25:06		0	0	0	0	0	0	14.45	18.04	0.11	812984	0	78038	533279	812984	734946	146640	793	1066	439	485669	3360552	148938
207	2017-09-16 19:26:51		0	0	0	0	0	0	14.45	18.04	0.11	814344	0	78411	533647	814344	735933	146914	793	1067	439	485669	3360649	149213
208	2017-09-16 20:14:38		0	0	0	0	0	0	14.45	18.04	0.11	815510	0	78775	533923	815510	736735	147096	794	1069	439	485669	3360718	149398
209	2017-09-16 20:33:25		0	0	0	0	0	0	14.47	18.04	0.11	815960	0	78901	535562	815960	737059	147198	794	1070	439	486260	3360747	149501
210	2017-09-17 10:26:30		0	0	0	0	0	0	14.68	18.06	0.11	827111	0	81958	541841	827111	745153	149416	798	1086	440	493447	3361242	151740
211	2017-09-17 10:37:26		0	0	0	0	0	0	14.68	18.07	0.11	827223	0	81987	541841	827223	745236	149448	798	1086	440	493447	3361244	151772
212	2017-09-17 10:48:27		0	0	0	0	0	0	14.71	18.06	0.11	827483	0	82045	542982	827483	745438	149468	798	1087	440	494393	3361256	151793
213	2017-09-17 10:59:27		0	0	0	0	0	0	14.71	18.07	0.11	827636	0	82076	542982	827636	745560	149528	798	1087	440	494393	3361264	151853
214	2017-09-17 11:10:27		0	0	0	0	0	0	14.71	18.07	0.11	827784	0	82105	543125	827784	745679	149555	798	1087	440	494511	3361270	151880
215	2017-09-17 11:21:27		0	0	0	0	0	0	14.71	18.06	0.11	828087	0	82166	543125	828087	745921	149584	798	1088	440	494511	3361274	151910
