1	2016-04-28 18:02:38	0	0	0	0	0	0	1.16	0.29	0.01	25073	0	218	20801	25073	24855	72	38	260	13	20689	1781716	383
2	2016-04-28 18:12:36	0	0	0	0	0	0	1.7	0.33	0.02	37615	0	609	30732	37615	37006	124	56	422	23	30361	1781744	625
3	2016-04-28 18:22:37	0	0	0	0	0	0	2.38	0.4	0.03	58351	0	1902	43513	58351	56449	234	89	665	31	42394	1781769	1019
4	2016-04-28 18:32:34	0	0	0	0	0	0	2.64	0.4	0.04	66161	0	2457	48617	66161	63704	267	96	768	33	47000	1781788	1164
5	2016-04-28 18:42:35	0	0	0	0	0	0	3.13	0.44	0.05	78369	0	3748	58210	78369	74621	346	120	932	40	55731	1781818	1438
6	2016-04-28 18:52:34	0	0	0	0	0	0	3.28	0.44	0.05	83541	0	4291	61268	83541	79250	368	131	1002	42	58498	1781845	1543
7	2016-04-28 19:02:37	0	0	0	0	0	0	3.73	0.45	0.06	94565	0	5681	69880	94565	88884	422	150	1140	57	66376	1781870	1769
8	2016-04-28 19:12:36	0	0	0	0	0	0	3.9	0.44	0.07	99512	0	6373	73441	99512	93139	439	159	1199	59	69513	1781900	1856
9	2016-04-28 19:22:36	0	0	0	0	0	0	4.14	0.45	0.07	107729	0	7443	78595	107729	100286	485	174	1306	59	73791	1781920	2024
10	2016-04-28 19:32:37	0	0	0	0	0	0	4.26	0.45	0.08	111777	0	7987	81042	111777	103790	502	183	1371	61	75955	1781947	2117
11	2016-04-28 19:42:38	0	0	0	0	0	0	4.59	0.45	0.08	120515	0	9209	87779	120515	111306	539	198	1462	75	81799	1781977	2274
12	2016-04-28 19:52:34	0	0	0	0	0	0	4.68	0.45	0.09	124029	0	9729	89795	124029	114300	554	202	1500	78	83406	1782003	2334
13	2016-04-28 20:02:36	0	0	0	0	0	0	4.92	0.45	0.09	132139	0	10974	94914	132139	121165	589	215	1591	82	87663	1782028	2477
14	2016-04-28 20:12:35	0	0	0	0	0	0	5.01	0.45	0.09	135447	0	11460	96477	135447	123987	607	218	1621	83	89333	1782053	2529
15	2016-04-28 20:22:35	0	0	0	0	0	0	5.22	0.45	0.1	142173	0	12440	100717	142173	129733	641	225	1688	90	93094	1782073	2644
16	2016-04-28 20:32:37	0	0	0	0	0	0	5.3	0.45	0.1	145213	0	12877	102460	145213	132336	656	226	1723	91	94457	1782097	2696
17	2016-04-28 20:42:37	0	0	0	0	0	0	5.48	0.45	0.1	151458	0	13758	106382	151458	137700	679	231	1776	100	97687	1782119	2786
18	2016-04-28 20:52:35	0	0	0	0	0	0	5.67	0.45	0.1	156842	0	14525	109897	156842	142317	705	235	1828	104	100962	1782137	2872
19	2016-04-28 21:02:39	0	0	0	0	0	0	5.81	0.44	0.1	162158	0	15337	113674	162158	146821	716	240	1854	108	103493	1782144	2918
20	2016-04-28 21:12:36	0	0	0	0	0	0	5.94	0.45	0.11	165372	0	15823	116299	165372	149549	745	247	1916	112	105849	1782171	3020
21	2016-04-28 21:22:35	0	0	0	0	0	0	5.99	0.45	0.11	167969	0	16208	117294	167969	151761	760	248	1945	114	106820	1782194	3067
22	2016-04-28 21:32:35	0	0	0	0	0	0	6.27	0.45	0.11	173979	0	17066	122975	173979	156913	781	249	2011	116	111797	1782240	3157
23	2016-04-28 21:42:36	0	0	0	0	0	0	6.35	0.45	0.11	177091	0	17508	124737	177091	159583	802	253	2041	119	113244	1782287	3215
24	2016-04-28 21:52:34	0	0	0	0	0	0	6.53	0.45	0.11	182386	0	18322	128404	182386	164064	821	257	2093	123	116385	1782327	3294
25	2016-04-28 22:02:35	0	0	0	0	0	0	6.66	0.45	0.11	187052	0	19145	130833	187052	167907	837	260	2140	128	118617	1782366	3365
26	2016-04-28 22:12:35	0	0	0	0	0	0	6.68	0.45	0.11	189067	0	19494	131589	189067	169573	844	262	2159	129	119064	1782406	3394
27	2016-04-28 22:22:37	0	0	0	0	0	0	6.81	0.45	0.12	193350	0	20287	135450	193350	173063	861	269	2191	133	121404	1782460	3454
28	2016-04-28 22:32:36	0	0	0	0	0	0	6.86	0.44	0.12	195703	0	20727	136386	195703	174976	868	270	2212	136	122243	1782499	3486
29	2016-04-28 22:42:35	0	0	0	0	0	0	7.02	0.44	0.12	200311	0	21506	139408	200311	178805	883	277	2263	143	125199	1782553	3566
30	2016-04-28 22:52:35	0	0	0	0	0	0	7.07	0.44	0.12	202789	0	21940	140815	202789	180849	889	282	2293	147	126004	1782582	3611
31	2016-04-28 23:02:35	0	0	0	0	0	0	7.16	0.44	0.12	207015	0	22663	142577	207015	184352	903	286	2335	149	127723	1782615	3673
32	2016-04-28 23:12:36	0	0	0	0	0	0	7.22	0.44	0.12	208783	0	22969	143402	208783	185814	915	290	2358	149	128619	1782646	3712
33	2016-04-28 23:22:35	0	0	0	0	0	0	7.35	0.44	0.13	213089	0	23698	146584	213089	189391	936	295	2399	150	131037	1782685	3780
34	2016-04-28 23:32:35	0	0	0	0	0	0	7.41	0.44	0.13	214968	0	24013	148672	214968	190955	949	300	2421	151	132160	1782718	3821
35	2016-04-28 23:42:35	0	0	0	0	0	0	7.55	0.44	0.13	218950	0	24651	151140	218950	194299	966	303	2462	152	134525	1782746	3883
36	2016-04-28 23:52:35	0	0	0	0	0	0	7.6	0.44	0.13	221015	0	24958	152315	221015	196057	976	303	2477	153	135522	1782770	3909
37	2016-04-29 00:02:35	0	0	0	0	0	0	7.7	0.44	0.13	224141	0	25405	154177	224141	198736	988	305	2510	159	137346	1782788	3962
38	2016-04-29 00:12:35	0	0	0	0	0	0	7.79	0.44	0.13	226728	0	25751	156258	226728	200977	1001	306	2536	159	138862	1782796	4002
39	2016-04-29 00:22:35	0	0	0	0	0	0	7.84	0.44	0.13	227895	0	25917	157120	227895	201978	1004	311	2546	162	139788	1782808	4023
40	2016-04-29 00:32:34	0	0	0	0	0	0	7.92	0.44	0.13	230627	0	26374	158772	230627	204253	1012	314	2566	166	141126	1782826	4058
41	2016-04-29 00:42:35	0	0	0	0	0	0	7.94	0.44	0.13	231621	0	26518	158976	231621	205103	1014	315	2576	166	141545	1782837	4071
42	2016-04-29 00:52:37	0	0	0	0	0	0	8	0.44	0.13	233755	0	26808	160160	233755	206947	1026	320	2596	172	142549	1782842	4114
43	2016-04-29 01:02:34	0	0	0	0	0	0	8.01	0.44	0.13	235555	0	27086	160558	235555	208469	1036	325	2619	176	142864	1782851	4156
44	2016-04-29 01:12:37	0	0	0	0	0	0	8.05	0.44	0.13	236431	0	27205	160938	236431	209226	1037	325	2627	176	143537	1782859	4165
45	2016-04-29 01:22:35	0	0	0	0	0	0	8.11	0.44	0.13	237817	0	27375	161906	237817	210442	1044	330	2642	176	144656	1782866	4192
46	2016-04-29 01:32:35	0	0	0	0	0	0	8.15	0.44	0.13	238522	0	27465	162738	238522	211057	1047	332	2653	177	145320	1782873	4209
47	2016-04-29 01:42:35	0	0	0	0	0	0	8.2	0.44	0.13	239856	0	27666	164213	239856	212190	1060	333	2669	177	146232	1782879	4239
48	2016-04-29 01:52:35	0	0	0	0	0	0	8.21	0.44	0.13	240399	0	27749	164527	240399	212650	1063	333	2680	177	146426	1782884	4253
49	2016-04-29 02:02:37	0	0	0	0	0	0	8.24	0.44	0.13	241435	0	27884	165159	241435	213551	1066	334	2692	177	146885	1783235	4269
50	2016-04-29 02:12:37	0	0	0	0	0	0	8.26	0.44	0.13	241942	0	27957	165981	241942	213985	1070	334	2695	177	147373	1783236	4276
51	2016-04-29 02:22:35	0	0	0	0	0	0	8.28	0.44	0.13	242726	0	28087	166723	242726	214639	1073	336	2709	178	147711	1783236	4296
52	2016-04-29 02:32:36	0	0	0	0	0	0	8.29	0.44	0.13	243148	0	28150	166921	243148	214998	1074	337	2713	178	147866	1783235	4302
53	2016-04-29 02:42:35	0	0	0	0	0	0	8.3	0.44	0.13	243903	0	28260	167065	243903	215643	1079	337	2726	179	147951	1783234	4321
54	2016-04-29 02:52:37	0	0	0	0	0	0	8.3	0.44	0.13	244202	0	28306	167209	244202	215896	1079	338	2735	179	148064	1783237	4331
55	2016-04-29 03:02:35	0	0	0	0	0	0	8.32	0.44	0.13	244853	0	28420	167675	244853	216433	1080	339	2741	179	148429	1783240	4339
56	2016-04-29 03:12:36	0	0	0	0	0	0	8.34	0.44	0.13	245162	0	28484	168003	245162	216678	1081	341	2744	179	148657	1783243	4345
57	2016-04-29 03:22:35	0	0	0	0	0	0	8.36	0.44	0.13	245693	0	28587	168442	245693	217106	1087	342	2750	179	149001	1783243	4358
58	2016-04-29 03:32:35	0	0	0	0	0	0	8.39	0.44	0.13	246211	0	28674	169157	246211	217537	1088	342	2761	179	149560	1783245	4370
59	2016-04-29 03:42:34	0	0	0	0	0	0	8.39	0.44	0.13	246476	0	28716	169231	246476	217760	1088	342	2765	179	149560	1783247	4374
60	2016-04-29 03:52:36	0	0	0	0	0	0	8.39	0.44	0.13	246978	0	28807	169555	246978	218171	1090	343	2772	179	149582	1783249	4384
61	2016-04-29 04:02:35	0	0	0	0	0	0	8.4	0.44	0.13	247200	0	28832	169704	247200	218368	1092	343	2775	179	149727	1783248	4389
62	2016-04-29 04:12:35	0	0	0	0	0	0	8.41	0.44	0.13	247669	0	28902	169946	247669	218767	1094	343	2783	179	149915	1783248	4399
63	2016-04-29 04:22:35	0	0	0	0	0	0	8.43	0.44	0.13	247880	0	28930	170395	247880	218950	1096	343	2785	179	150264	1783251	4403
64	2016-04-29 04:32:35	0	0	0	0	0	0	8.43	0.44	0.13	248271	0	28977	170508	248271	219294	1097	343	2790	179	150352	1783251	4409
65	2016-04-29 04:42:35	0	0	0	0	0	0	8.44	0.44	0.13	248616	0	29031	170715	248616	219585	1097	344	2796	180	150513	1783253	4417
66	2016-04-29 04:52:35	0	0	0	0	0	0	8.44	0.44	0.13	248777	0	29053	170771	248777	219724	1097	344	2797	180	150557	1783253	4418
67	2016-04-29 05:02:35	0	0	0	0	0	0	8.49	0.44	0.13	249053	0	29090	171395	249053	219963	1097	345	2798	180	151337	1783254	4420
68	2016-04-29 05:12:34	0	0	0	0	0	0	8.49	0.44	0.13	249198	0	29117	171395	249198	220081	1097	345	2798	180	151337	1783256	4420
69	2016-04-29 05:22:36	0	0	0	0	0	0	8.5	0.44	0.13	249565	0	29179	171547	249565	220386	1098	347	2804	180	151559	1783256	4429
70	2016-04-29 05:32:39	0	0	0	0	0	0	8.51	0.44	0.13	249963	0	29246	171699	249963	220717	1099	347	2805	180	151678	1783258	4431
71	2016-04-29 05:42:38	0	0	0	0	0	0	8.52	0.44	0.13	250160	0	29284	172081	250160	220876	1099	347	2807	180	151856	1783260	4433
72	2016-04-29 05:52:38	0	0	0	0	0	0	8.52	0.44	0.13	250595	0	29355	172387	250595	221240	1100	347	2809	180	151916	1783268	4436
73	2016-04-29 06:02:40	0	0	0	0	0	0	8.52	0.44	0.13	250882	0	29399	172522	250882	221483	1103	347	2813	180	152020	1783272	4443
74	2016-04-29 06:12:36	0	0	0	0	0	0	8.54	0.44	0.13	251524	0	29503	172690	251524	222021	1105	347	2821	180	152203	1783275	4453
75	2016-04-29 06:22:37	0	0	0	0	0	0	8.55	0.44	0.13	251892	0	29577	173115	251892	222315	1107	347	2825	180	152533	1783277	4459
76	2016-04-29 06:32:36	0	0	0	0	0	0	8.56	0.44	0.13	252701	0	29734	173270	252701	222967	1112	347	2837	183	152653	1783285	4479
77	2016-04-29 06:42:37	0	0	0	0	0	0	8.58	0.44	0.13	253128	0	29819	173815	253128	223309	1113	347	2840	183	153076	1783291	4483
78	2016-04-29 06:52:38	0	0	0	0	0	0	8.59	0.44	0.13	253956	0	29986	173893	253956	223970	1115	348	2850	183	153167	1783300	4496
79	2016-04-29 07:02:38	0	0	0	0	0	0	8.59	0.44	0.13	254415	0	30076	173989	254415	224339	1120	348	2857	183	153242	1783306	4508
80	2016-04-29 07:12:35	0	0	0	0	0	0	8.64	0.44	0.13	255480	0	30296	175091	255480	225184	1127	350	2865	186	154019	1783319	4528
81	2016-04-29 07:22:36	0	0	0	0	0	0	8.64	0.44	0.13	256028	0	30411	175229	256028	225617	1129	350	2868	186	154019	1783326	4533
82	2016-04-29 07:32:37	0	0	0	0	0	0	8.66	0.44	0.14	257289	0	30698	176086	257289	226591	1136	351	2881	188	154527	1783347	4556
83	2016-04-29 07:42:36	0	0	0	0	0	0	8.67	0.44	0.14	257912	0	30840	176446	257912	227072	1138	351	2883	188	154681	1783354	4560
84	2016-04-29 07:52:41	0	0	0	0	0	0	8.72	0.44	0.14	259513	0	31170	177336	259513	228343	1146	355	2898	188	155551	1783363	4587
85	2016-04-29 08:02:36	0	0	0	0	0	0	8.73	0.44	0.14	260358	0	31332	177519	260358	229026	1156	357	2913	188	155645	1783375	4614
86	2016-04-29 08:12:39	0	0	0	0	0	0	8.77	0.44	0.14	262003	0	31690	178573	262003	230313	1164	358	2934	189	156455	1783384	4645
87	2016-04-29 08:22:39	0	0	0	0	0	0	8.78	0.45	0.14	262885	0	31868	178986	262885	231017	1171	359	2941	190	156645	1783394	4661
88	2016-04-29 08:32:37	0	0	0	0	0	0	8.83	0.45	0.14	264672	0	32239	179100	264672	232433	1181	362	2960	191	157498	1783415	4694
89	2016-04-29 08:42:41	0	0	0	0	0	0	8.88	0.45	0.14	265663	0	32423	180318	265663	233240	1190	364	2979	192	158374	1783423	4725
90	2016-04-29 08:52:38	0	0	0	0	0	0	8.94	0.45	0.14	267432	0	32811	181023	267432	234621	1199	365	2995	193	159359	1783435	4752
91	2016-04-29 09:02:36	0	0	0	0	0	0	8.96	0.45	0.14	268503	0	33047	181775	268503	235456	1206	368	3017	194	159811	1783459	4785
92	2016-04-29 09:12:37	0	0	0	0	0	0	8.96	0.45	0.14	270121	0	33414	181940	270121	236707	1214	371	3041	194	159882	1783477	4820
93	2016-04-29 09:22:36	0	0	0	0	0	0	8.99	0.45	0.14	270957	0	33622	182487	270957	237335	1220	371	3048	194	160320	1783491	4833
94	2016-04-29 09:32:36	0	0	0	0	0	0	9.03	0.45	0.14	272999	0	34089	182853	272999	238910	1235	375	3071	194	160979	1783503	4875
95	2016-04-29 09:42:43	0	0	0	0	0	0	9.06	0.45	0.14	273911	0	34306	183558	273911	239605	1238	378	3096	194	161617	1783516	4906
96	2016-04-29 09:52:37	0	0	0	0	0	0	9.09	0.45	0.14	275596	0	34665	184326	275596	240931	1250	379	3112	194	162165	1783527	4935
97	2016-04-29 10:02:38	0	0	0	0	0	0	9.13	0.45	0.14	276511	0	34874	184986	276511	241637	1257	381	3122	194	162814	1783541	4954
98	2016-04-29 10:12:37	0	0	0	0	0	0	9.16	0.46	0.15	277997	0	35229	185541	277997	242768	1273	386	3141	194	163312	1783560	4994
99	2016-04-29 10:22:37	0	0	0	0	0	0	9.17	0.46	0.15	278723	0	35414	185763	278723	243309	1279	388	3150	194	163484	1783581	5011
100	2016-04-29 10:32:38	0	0	0	0	0	0	9.18	0.46	0.15	280216	0	35771	186457	280216	244445	1288	390	3172	195	163657	1783608	5045
101	2016-04-29 10:42:39	0	0	0	0	0	0	9.2	0.46	0.15	280907	0	35922	187020	280907	244985	1292	391	3178	195	164091	1783624	5056
102	2016-04-29 10:52:40	0	0	0	0	0	0	9.26	0.46	0.15	282429	0	36275	188465	282429	246154	1300	392	3200	196	165132	1783642	5088
103	2016-04-29 11:02:38	0	0	0	0	0	0	9.28	0.46	0.15	283130	0	36435	188781	283130	246695	1305	393	3210	197	165516	1783655	5105
104	2016-04-29 11:12:38	0	0	0	0	0	0	9.32	0.46	0.15	284407	0	36758	189631	284407	247649	1311	396	3229	197	166276	1783675	5133
105	2016-04-29 11:22:44	0	0	0	0	0	0	9.37	0.46	0.15	285182	0	36963	190073	285182	248219	1311	397	3240	199	167047	1783698	5147
106	2016-04-29 11:32:46	0	0	0	0	0	0	9.38	0.46	0.15	286446	0	37313	190237	286446	249133	1315	399	3252	199	167264	1783709	5165
107	2016-04-29 11:42:44	0	0	0	0	0	0	9.39	0.46	0.15	286934	0	37432	190541	286934	249502	1318	400	3257	200	167481	1783726	5175
108	2016-04-29 11:52:43	0	0	0	0	0	0	9.44	0.46	0.15	288067	0	37727	191631	288067	250340	1326	401	3268	203	168396	1783735	5198
109	2016-04-29 12:02:39	0	0	0	0	0	0	9.46	0.46	0.15	288696	0	37879	192164	288696	250817	1328	401	3274	203	168751	1783755	5206
110	2016-04-29 12:12:38	0	0	0	0	0	0	9.47	0.46	0.15	289866	0	38176	192435	289866	251690	1334	402	3284	206	168951	1783770	5226
111	2016-04-29 12:22:38	0	0	0	0	0	0	9.48	0.46	0.15	290433	0	38306	192603	290433	252127	1335	402	3293	206	169044	1783787	5236
112	2016-04-29 12:32:42	0	0	0	0	0	0	9.5	0.46	0.15	291528	0	38598	193306	291528	252930	1337	405	3310	206	169409	1783816	5258
113	2016-04-29 12:42:40	0	0	0	0	0	0	9.52	0.46	0.15	292568	0	38885	194277	292568	253683	1342	408	3332	207	169818	1783807	5289
114	2016-04-29 12:52:41	0	0	0	0	0	0	9.54	0.46	0.15	293021	0	39012	194716	293021	254009	1345	408	3335	207	170154	1783799	5295
115	2016-04-29 13:02:40	0	0	0	0	0	0	9.57	0.46	0.15	293550	0	39160	195442	293550	254390	1348	408	3338	207	170679	1783815	5301
116	2016-04-29 13:12:39	0	0	0	0	0	0	9.58	0.46	0.15	294555	0	39417	195967	294555	255138	1352	410	3350	207	170938	1783834	5319
117	2016-04-29 13:22:39	0	0	0	0	0	0	9.59	0.46	0.16	295560	0	39700	196332	295560	255860	1356	414	3365	207	171140	1783839	5342
118	2016-04-29 13:32:42	0	0	0	0	0	0	9.65	0.46	0.16	296075	0	39836	197837	296075	256239	1358	415	3365	209	172129	1783857	5347
119	2016-04-29 13:42:42	0	0	0	0	0	0	9.68	0.46	0.16	297171	0	40147	198202	297171	257024	1358	415	3371	209	172648	1783874	5353
120	2016-04-29 13:52:42	0	0	0	0	0	0	9.7	0.46	0.16	297680	0	40286	198297	297680	257394	1366	417	3386	209	173029	1783891	5378
121	2016-04-29 14:02:42	0	0	0	0	0	0	9.72	0.46	0.16	298208	0	40443	198857	298208	257765	1368	418	3394	209	173378	1783918	5389
122	2016-04-29 14:12:41	0	0	0	0	0	0	9.78	0.46	0.16	299137	0	40730	200389	299137	258407	1371	420	3408	209	174538	1783935	5408
123	2016-04-29 14:22:42	0	0	0	0	0	0	9.8	0.46	0.16	299642	0	40860	200801	299642	258782	1372	421	3416	209	174775	1783960	5418
124	2016-04-29 14:32:40	0	0	0	0	0	0	9.8	0.46	0.16	300520	0	41123	200853	300520	259397	1377	421	3427	209	174775	1783983	5434
125	2016-04-29 14:42:41	0	0	0	0	0	0	9.8	0.46	0.16	301002	0	41233	200853	301002	259769	1382	421	3434	209	174834	1784016	5446
126	2016-04-29 14:52:54	0	0	0	0	0	0	9.8	0.46	0.16	301920	0	41512	201081	301920	260408	1388	422	3450	209	174854	1784030	5469
127	2016-04-29 15:02:41	0	0	0	0	0	0	9.8	0.46	0.16	302351	0	41623	201094	302351	260728	1388	423	3456	209	174854	1784049	5476
128	2016-04-29 15:12:42	0	0	0	0	0	0	9.82	0.46	0.16	303148	0	41838	201649	303148	261310	1389	426	3460	209	175233	1784069	5484
129	2016-04-29 15:22:41	0	0	0	0	0	0	9.83	0.46	0.16	303527	0	41957	201649	303527	261570	1391	428	3466	209	175392	1784090	5494
130	2016-04-29 15:32:40	0	0	0	0	0	0	9.85	0.46	0.16	304370	0	42218	202011	304370	262152	1395	429	3480	210	175711	1784110	5514
131	2016-04-29 15:42:42	0	0	0	0	0	0	9.85	0.46	0.16	304762	0	42364	202513	304762	262398	1399	430	3487	210	175790	1784132	5526
132	2016-04-29 15:52:39	0	0	0	0	0	0	9.87	0.46	0.16	305494	0	42603	202964	305494	262891	1400	432	3497	212	176130	1784154	5541
133	2016-04-29 16:02:41	0	0	0	0	0	0	9.88	0.46	0.16	305870	0	42732	203071	305870	263138	1401	432	3505	212	176191	1784171	5550
134	2016-04-29 16:12:48	0	0	0	0	0	0	9.89	0.46	0.16	306748	0	43018	203444	306748	263730	1401	433	3518	212	176472	1784192	5564
135	2016-04-29 16:22:42	0	0	0	0	0	0	9.9	0.46	0.16	307071	0	43113	203766	307071	263958	1401	433	3522	212	176633	1784217	5568
136	2016-04-29 16:32:40	0	0	0	0	0	0	9.91	0.46	0.16	307873	0	43370	204182	307873	264503	1407	434	3530	212	176865	1784240	5583
137	2016-04-29 16:33:13	0	0	0	0	0	0	9.91	0.46	0.16	307873	0	43370	204182	307873	264503	1407	434	3530	212	176865	1784240	5583
138	2016-04-29 16:43:15	0	0	0	0	0	0	9.93	0.46	0.16	308310	0	43483	204452	308310	264827	1409	434	3537	212	177148	1784261	5592
139	2016-04-29 16:53:20	0	0	0	0	0	0	9.96	0.46	0.16	309093	0	43709	204871	309093	265384	1412	435	3543	213	177626	1784274	5603
140	2016-04-29 17:03:16	0	0	0	0	0	0	9.95	0.46	0.16	309402	0	43800	204871	309402	265602	1412	435	3549	213	177626	1784291	5609
141	2016-04-29 17:13:14	0	0	0	0	0	0	9.96	0.46	0.17	310027	0	43983	204953	310027	266044	1415	435	3556	213	177687	1784311	5619
142	2016-04-29 17:23:13	0	0	0	0	0	0	9.99	0.46	0.17	310559	0	44131	205371	310559	266428	1417	435	3564	215	178175	1784337	5631
143	2016-04-29 17:33:13	0	0	0	0	0	0	10.01	0.46	0.17	310886	0	44228	206027	310886	266658	1418	435	3568	215	178669	1784358	5636
144	2016-04-29 17:43:15	0	0	0	0	0	0	10.03	0.46	0.17	311430	0	44402	206825	311430	267028	1426	435	3575	219	178896	1784376	5655
145	2016-04-29 17:53:15	0	0	0	0	0	0	10.03	0.46	0.17	311818	0	44532	206825	311818	267286	1429	435	3580	221	178979	1784391	5665
146	2016-05-01 00:40:04	0	0	0	0	0	0	10.24	0.47	0.19	331526	0	52455	214763	331526	279071	1548	464	3835	238	182907	1786988	6085
