1	2017-03-28 11:31:01	0	0	0	0	0	0	1.02	0.35	0.01	33418	1	348	29417	33418	33070	117	290	335	20	29116	2843011	762
2	2017-03-28 11:41:01	0	0	0	0	0	0	3.27	0.73	0.07	115731	1	7082	97919	115731	108649	843	726	784	41	92983	2843031	2394
3	2017-03-28 11:51:03	0	0	0	0	0	0	4.53	0.92	0.11	175227	1	17742	142331	175227	157485	1612	1080	1123	55	128881	2843046	3870
4	2017-03-28 12:01:05	0	0	0	0	0	0	5.44	1.01	0.15	225625	1	30090	177577	225625	195535	2269	1372	1389	63	154549	2843052	5093
5	2017-03-28 12:11:03	0	0	0	0	0	0	6.34	1.07	0.18	269263	1	41878	211625	269263	227385	2894	1572	1586	69	180216	2843071	6121
6	2017-03-28 12:21:04	0	0	0	0	0	0	7.07	1.11	0.21	307468	1	53107	240049	307468	254361	3401	1764	1765	76	201147	2843094	7006
7	2017-03-28 12:31:09	0	0	0	0	0	0	7.47	1.14	0.23	342121	1	63923	258238	342121	278198	3904	1912	1931	82	212455	2843108	7829
8	2017-03-28 12:41:09	0	0	0	0	0	0	7.9	1.15	0.25	374376	1	75014	277254	374376	299362	4315	2078	2062	91	224486	2843119	8546
9	2017-03-28 12:51:06	0	0	0	0	0	0	8.31	1.16	0.27	404418	1	85634	293777	404418	318784	4707	2252	2192	99	236193	2843129	9250
10	2017-03-28 13:01:08	0	0	0	0	0	0	8.61	1.18	0.29	433693	1	96585	304499	433693	337108	5096	2382	2329	104	244930	2843139	9911
11	2017-03-28 13:11:25	0	0	0	0	0	0	8.97	1.17	0.3	459972	1	106906	324463	459972	353066	5386	2506	2435	110	255059	2843158	10437
12	2017-03-28 13:21:12	0	0	0	0	0	0	9.29	1.18	0.32	485430	1	116874	345409	485430	368556	5707	2620	2526	118	264270	2843169	10971
13	2017-03-28 13:31:13	0	0	0	0	0	0	9.74	1.18	0.33	511390	1	126799	362759	511390	384591	6016	2738	2626	126	276826	2843185	11506
14	2017-03-29 12:50:47	0	0	0	0	0	0	20.27	1.16	0.59	1404204	1	518331	889723	1404204	885873	16277	6168	5462	243	577418	2848119	28150
15	2017-03-29 13:00:21	0	0	0	0	0	0	20.3	1.16	0.59	1405466	1	519073	892480	1405466	886393	16291	6170	5464	244	578173	2848129	28169
16	2017-03-29 13:10:18	0	0	0	0	0	0	20.31	1.16	0.59	1406601	1	519796	892995	1406601	886805	16305	6174	5469	244	578389	2848141	28192
17	2017-03-29 13:20:19	0	0	0	0	0	0	20.31	1.16	0.59	1407748	1	520505	893478	1407748	887243	16320	6180	5469	244	578592	2848149	28213
18	2017-03-29 13:30:19	0	0	0	0	0	0	20.31	1.16	0.59	1408820	1	521179	894121	1408820	887641	16328	6184	5474	244	578592	2848159	28230
19	2017-03-29 13:40:18	0	0	0	0	0	0	20.31	1.16	0.59	1409962	1	521902	895414	1409962	888060	16351	6190	5478	244	578592	2848176	28263
20	2017-03-29 13:50:20	0	0	0	0	0	0	20.34	1.16	0.59	1411105	1	522619	895932	1411105	888486	16374	6192	5480	244	579458	2848189	28290
21	2017-03-29 14:00:21	0	0	0	0	0	0	20.34	1.16	0.59	1412215	1	523369	896062	1412215	888846	16387	6196	5482	244	579458	2848205	28309
22	2017-03-29 14:10:19	0	0	0	0	0	0	20.34	1.16	0.59	1413356	1	524173	896062	1413356	889183	16394	6206	5486	244	579458	2848218	28330
23	2017-03-29 14:20:21	0	0	0	0	0	0	20.34	1.16	0.59	1414436	1	524936	896062	1414436	889500	16407	6208	5487	245	579458	2848229	28347
24	2017-03-29 14:30:22	0	0	0	0	0	0	20.34	1.16	0.59	1415465	1	525604	896062	1415465	889861	16417	6210	5489	245	579458	2848238	28361
25	2017-03-29 14:40:21	0	0	0	0	0	0	20.37	1.16	0.59	1416494	1	526236	896321	1416494	890258	16428	6212	5490	245	580327	2848254	28375
26	2017-03-29 14:50:21	0	0	0	0	0	0	20.37	1.16	0.59	1417521	1	526871	896321	1417521	890650	16441	6218	5493	245	580327	2848267	28397
27	2017-03-29 15:00:22	0	0	0	0	0	0	20.37	1.16	0.59	1418550	1	527546	896321	1418550	891004	16456	6216	5493	245	580327	2848281	28410
28	2017-03-29 15:10:24	0	0	0	0	0	0	20.37	1.16	0.59	1419445	1	528125	896321	1419445	891320	16467	6216	5495	245	580327	2848291	28423
29	2017-03-29 15:20:23	0	0	0	0	0	0	20.37	1.16	0.59	1420394	1	528781	896321	1420394	891613	16480	6218	5495	245	580327	2848298	28438
30	2017-03-29 15:30:22	0	0	0	0	0	0	20.39	1.16	0.59	1421378	1	529458	897490	1421378	891920	16490	6228	5497	245	580653	2848308	28460
31	2017-03-29 15:40:23	0	0	0	0	0	0	20.39	1.16	0.59	1422344	1	530118	897490	1422344	892226	16497	6230	5498	245	580653	2848318	28470
32	2017-03-29 15:50:22	0	0	0	0	0	0	20.39	1.16	0.59	1423216	1	530697	897490	1423216	892519	16506	6232	5501	245	580653	2848335	28484
33	2017-03-29 16:00:21	0	0	0	0	0	0	20.39	1.16	0.59	1423665	1	531022	897490	1423665	892798	16515	6238	5503	245	580653	2848345	28501
34	2017-03-29 16:10:23	0	0	0	0	0	0	20.39	1.16	0.6	1424623	1	531670	897490	1424623	892953	16527	6246	5505	245	580653	2848357	28523
35	2017-03-29 16:20:22	0	0	0	0	0	0	20.39	1.16	0.6	1425463	1	532244	897685	1425463	893219	16541	6248	5505	245	580653	2848375	28539
36	2017-03-29 16:30:22	0	0	0	0	0	0	20.39	1.16	0.6	1426320	1	532805	898141	1426320	893656	16546	6250	5506	245	580844	2848396	28547
37	2017-03-29 16:40:25	0	0	0	0	0	0	20.39	1.16	0.6	1427155	1	533356	898401	1427155	893928	16553	6256	5508	245	580844	2848412	28562
38	2017-03-29 16:50:24	0	0	0	0	0	0	20.39	1.16	0.6	1428021	1	533942	898850	1428021	894201	16565	6258	5508	245	580844	2848431	28576
39	2017-03-29 17:00:27	0	0	0	0	0	0	20.39	1.16	0.6	1429137	1	534702	898850	1429137	894435	16573	6260	5509	245	580844	2848454	28587
40	2017-03-29 17:10:26	0	0	0	0	0	0	20.39	1.16	0.6	1429524	1	535223	898850	1429524	894553	16581	6264	5510	245	580844	2848484	28600
41	2017-03-29 17:20:32	0	0	0	0	0	0	20.4	1.16	0.6	1430633	1	535721	899633	1430633	894912	16592	6266	5512	245	581171	2848528	28615
42	2017-03-29 17:30:50	0	0	0	0	0	0	20.41	1.16	0.6	1431423	1	536235	899764	1431423	895188	16599	6270	5512	245	581335	2848581	28626
43	2017-03-29 17:40:44	0	0	0	0	0	0	20.41	1.16	0.6	1432229	1	536749	899764	1432229	895480	16610	6274	5514	245	581335	2848619	28643
44	2017-03-29 17:50:45	0	0	0	0	0	0	20.41	1.16	0.6	1433046	1	537286	900025	1433046	895760	16616	6274	5516	245	581335	2848665	28651
45	2017-03-29 18:00:41	0	0	0	0	0	0	20.41	1.16	0.6	1433831	1	537779	900025	1433831	896052	16629	6274	5517	245	581335	2848702	28665
46	2017-03-29 18:10:42	0	0	0	0	0	0	20.41	1.16	0.6	1434503	1	538253	901992	1434503	896250	16634	6274	5518	245	581335	2848747	28671
47	2017-03-29 18:20:43	0	0	0	0	0	0	20.41	1.16	0.6	1435143	1	538701	901992	1435143	896442	16640	6274	5518	245	581335	2848798	28677
48	2017-03-29 18:30:44	0	0	0	0	0	0	20.41	1.16	0.6	1435786	1	539109	901992	1435786	896677	16645	6276	5518	246	581335	2848834	28685
49	2017-03-29 18:40:41	0	0	0	0	0	0	20.41	1.16	0.6	1436362	1	539538	901992	1436362	896824	16651	6278	5520	246	581335	2848889	28695
50	2017-03-29 18:50:45	0	0	0	0	0	0	20.41	1.16	0.6	1436897	1	539954	901992	1436897	896943	16657	6278	5520	246	581335	2848938	28701
51	2017-03-29 19:00:46	0	0	0	0	0	0	20.4	1.16	0.6	1437435	1	540375	902123	1437435	897060	16665	6278	5520	246	581335	2848998	28709
52	2017-03-29 19:10:51	0	0	0	0	0	0	20.4	1.16	0.6	1437986	1	540797	902123	1437986	897189	16671	6282	5521	246	581335	2849046	28720
53	2017-03-29 19:20:48	0	0	0	0	0	0	20.4	1.16	0.6	1438483	1	541178	902123	1438483	897305	16676	6282	5522	246	581335	2849105	28726
54	2017-03-29 19:30:46	0	0	0	0	0	0	20.4	1.16	0.6	1439060	1	541637	902123	1439060	897423	16683	6284	5523	246	581335	2849178	28736
55	2017-03-29 19:40:45	0	0	0	0	0	0	20.4	1.16	0.6	1439547	1	541828	902123	1439547	897527	16686	6286	5523	246	581335	2849242	28741
56	2017-03-29 19:50:48	0	0	0	0	0	0	20.42	1.16	0.6	1440062	1	542433	903176	1440062	897629	16690	6286	5524	246	581772	2849301	28746
57	2017-03-29 20:00:50	0	0	0	0	0	0	20.42	1.16	0.6	1440562	1	542830	903176	1440562	897732	16693	6286	5525	246	581772	2849377	28750
58	2017-03-29 20:10:48	0	0	0	0	0	0	20.42	1.16	0.61	1441002	1	543188	903176	1441002	897814	16698	6290	5525	246	581772	2849430	28759
59	2017-03-29 20:20:53	0	0	0	0	0	0	20.42	1.16	0.61	1441548	1	543601	903176	1441548	897947	16705	6290	5528	246	581772	2849497	28769
60	2017-03-29 20:30:49	0	0	0	0	0	0	20.42	1.16	0.61	1442082	1	543998	903176	1442082	898084	16709	6290	5529	246	581772	2849567	28774
61	2017-03-29 20:40:49	0	0	0	0	0	0	20.42	1.16	0.61	1442338	1	544201	903176	1442338	898193	16716	6290	5530	246	581772	2849615	28782
62	2017-03-29 20:50:48	0	0	0	0	0	0	20.42	1.16	0.61	1442865	1	544615	903176	1442865	898299	16721	6290	5530	246	581772	2849692	28787
63	2017-03-29 21:00:50	0	0	0	0	0	0	20.41	1.16	0.61	1443321	1	544969	903176	1443321	898399	16727	6290	5530	246	581772	2849757	28793
64	2017-03-29 21:10:51	0	0	0	0	0	0	20.42	1.16	0.61	1444042	1	545515	904231	1444042	898527	16733	6292	5530	246	581990	2849820	28801
65	2017-03-29 21:20:53	0	0	0	0	0	0	20.42	1.16	0.61	1444501	1	545876	904231	1444501	898625	16740	6292	5531	246	581990	2849872	28809
66	2017-03-29 21:30:52	0	0	0	0	0	0	20.42	1.16	0.61	1445030	1	546246	904231	1445030	898784	16747	6296	5531	246	581990	2849938	28820
67	2017-03-29 21:40:54	0	0	0	0	0	0	20.42	1.16	0.61	1445502	1	546604	904231	1445502	898898	16750	6296	5531	246	581990	2850012	28823
68	2017-03-29 21:50:53	0	0	0	0	0	0	20.42	1.16	0.61	1446028	1	547008	904495	1446028	899020	16759	6304	5533	246	581990	2850087	28842
69	2017-03-29 22:00:54	0	0	0	0	0	0	20.42	1.16	0.61	1446295	1	547224	904495	1446295	899119	16761	6304	5533	246	581990	2850166	28844
70	2017-03-29 22:10:54	0	0	0	0	0	0	20.42	1.16	0.61	1446774	1	547603	904495	1446774	899235	16764	6304	5534	246	581990	2850261	28848
71	2017-03-29 22:20:55	0	0	0	0	0	0	20.42	1.16	0.61	1447253	1	547964	904495	1447253	899289	16768	6304	5535	246	581990	2850353	28853
72	2017-03-29 22:30:56	0	0	0	0	0	0	20.42	1.16	0.61	1447718	1	548329	904495	1447718	899429	16772	6304	5535	246	581990	2850434	28857
73	2017-03-29 22:40:57	0	0	0	0	0	0	20.42	1.16	0.61	1448180	1	548680	904495	1448180	899548	16779	6304	5537	246	581990	2850501	28866
74	2017-03-29 22:50:58	0	0	0	0	0	0	20.42	1.16	0.61	1448781	1	549140	904495	1448781	899641	16783	6306	5538	246	581990	2850581	28873
75	2017-03-29 23:01:00	0	0	0	0	0	0	20.42	1.16	0.61	1448979	1	549290	904495	1448979	899732	16789	6306	5538	246	581990	2850667	28879
76	2017-03-29 23:11:08	0	0	0	0	0	0	20.42	1.16	0.61	1449521	1	549685	904495	1449521	899836	16794	6306	5539	246	581990	2850725	28885
77	2017-03-29 23:21:00	0	0	0	0	0	0	20.43	1.16	0.61	1449689	1	549934	904495	1449689	899922	16794	6306	5539	246	582428	2850789	28885
78	2017-03-29 23:31:05	0	0	0	0	0	0	20.43	1.16	0.61	1450176	1	550170	905007	1450176	900006	16798	6306	5539	246	582428	2850855	28889
79	2017-03-29 23:41:02	0	0	0	0	0	0	20.43	1.16	0.61	1450416	1	550367	905007	1450416	900049	16799	6306	5539	246	582428	2850923	28890
80	2017-03-29 23:50:59	0	0	0	0	0	0	20.43	1.16	0.61	1450534	1	550463	905007	1450534	900071	16806	6304	5539	246	582428	2850999	28895
81	2017-03-30 00:01:01	0	0	0	0	0	0	20.43	1.16	0.61	1450761	1	550651	905007	1450761	900129	16807	6302	5540	246	582428	2851049	28895
82	2017-03-30 00:48:12	0	0	0	0	0	0	20.43	1.16	0.61	1451591	1	551361	905007	1451591	900230	16813	6304	5541	246	582428	2851253	28904
83	2017-03-30 01:48:15	0	0	0	0	0	0	20.43	1.16	0.61	1452084	1	551787	905007	1452084	900297	16820	6304	5541	246	582647	2851747	28911
84	2017-03-30 02:48:12	0	0	0	0	0	0	20.43	1.16	0.61	1452312	1	551985	905007	1452312	900327	16822	6304	5541	246	582647	2851822	28913
85	2017-03-30 03:48:20	0	0	0	0	0	0	20.43	1.16	0.61	1452459	1	552113	905007	1452459	900346	16824	6304	5541	246	582647	2851857	28915
86	2017-03-30 04:48:10	0	0	0	0	0	0	20.43	1.16	0.61	1452603	1	552244	905007	1452603	900359	16825	6302	5541	246	582647	2851902	28914
87	2017-03-30 05:48:15	0	0	0	0	0	0	20.43	1.16	0.61	1452813	1	552435	905007	1452813	900378	16827	6302	5541	246	582647	2851967	28916
88	2017-03-30 06:48:12	0	0	0	0	0	0	20.43	1.16	0.61	1453231	1	552819	905007	1453231	900412	16831	6302	5541	246	582647	2852103	28920
89	2017-03-30 07:10:44	0	0	0	0	0	0	20.43	1.16	0.61	1453407	1	552978	905007	1453407	900429	16835	6302	5541	246	582647	2852216	28924
90	2017-03-30 07:20:43	0	0	0	0	0	0	20.43	1.16	0.61	1453525	1	553079	905206	1453525	900446	16836	6304	5542	246	582647	2852272	28928
91	2017-03-30 07:30:46	0	0	0	0	0	0	20.43	1.16	0.61	1453623	1	553158	905206	1453623	900465	16837	6304	5542	246	582647	2852322	28929
92	2017-03-30 07:40:45	0	0	0	0	0	0	20.43	1.16	0.61	1453736	1	553259	905206	1453736	900477	16838	6304	5543	246	582647	2852370	28931
93	2017-03-30 07:50:45	0	0	0	0	0	0	20.43	1.16	0.61	1453855	1	553365	905206	1453855	900490	16841	6304	5543	246	582647	2852437	28934
94	2017-03-30 08:00:49	0	0	0	0	0	0	20.43	1.16	0.61	1453968	1	553467	905206	1453968	900501	16841	6304	5543	246	582647	2852492	28934
95	2017-03-30 08:10:47	0	0	0	0	0	0	20.43	1.16	0.61	1454075	1	553563	905206	1454075	900512	16842	6304	5543	246	582647	2852539	28935
96	2017-03-30 08:20:46	0	0	0	0	0	0	20.43	1.16	0.61	1454172	1	553640	905206	1454172	900532	16844	6304	5543	246	582647	2852607	28937
97	2017-03-30 08:30:46	0	0	0	0	0	0	20.42	1.16	0.61	1454259	1	553715	905206	1454259	900544	16846	6304	5543	246	582647	2852672	28939
98	2017-03-30 08:40:46	0	0	0	0	0	0	20.42	1.16	0.61	1454355	1	553794	906000	1454355	900561	16848	6306	5543	246	582647	2852736	28943
99	2017-03-30 08:51:01	0	0	0	0	0	0	20.42	1.16	0.62	1454443	1	553870	906000	1454443	900573	16849	6306	5543	246	582647	2852804	28944
100	2017-03-30 09:00:49	0	0	0	0	0	0	20.42	1.16	0.62	1454538	1	553955	906000	1454538	900583	16850	6306	5543	246	582647	2852874	28945
101	2017-03-30 09:10:49	0	0	0	0	0	0	20.42	1.16	0.62	1454649	1	554055	906000	1454649	900594	16851	6306	5544	246	582647	2852924	28947
102	2017-03-30 09:20:52	0	0	0	0	0	0	20.42	1.16	0.62	1454736	1	554130	906000	1454736	900606	16853	6306	5545	246	582647	2852986	28950
103	2017-03-30 09:30:55	0	0	0	0	0	0	20.42	1.16	0.62	1454834	1	554215	906000	1454834	900619	16853	6308	5545	246	582647	2853053	28952
104	2017-03-30 09:40:51	0	0	0	0	0	0	20.42	1.16	0.62	1454923	1	554291	906000	1454923	900632	16856	6308	5545	246	582647	2853137	28955
105	2017-03-30 09:50:53	0	0	0	0	0	0	20.42	1.16	0.62	1455008	1	554366	906000	1455008	900642	16857	6308	5545	246	582647	2853211	28956
106	2017-03-30 10:00:50	0	0	0	0	0	0	20.42	1.16	0.62	1455088	1	554436	906000	1455088	900652	16857	6308	5545	246	582647	2853287	28956
107	2017-03-30 10:10:47	0	0	0	0	0	0	20.42	1.16	0.62	1455156	1	554490	906000	1455156	900666	16858	6308	5545	246	582647	2853353	28957
108	2017-03-30 10:20:48	0	0	0	0	0	0	20.42	1.16	0.62	1455218	1	554545	906000	1455218	900673	16859	6308	5545	246	582647	2853422	28958
109	2017-03-30 10:30:56	0	0	0	0	0	0	20.42	1.16	0.62	1455290	1	554609	906199	1455290	900681	16861	6308	5545	246	582647	2853496	28960
110	2017-03-30 10:40:50	0	0	0	0	0	0	20.42	1.16	0.62	1455363	1	554669	906199	1455363	900694	16862	6308	5545	246	582647	2853568	28961
111	2017-03-30 10:51:11	0	0	0	0	0	0	20.42	1.16	0.62	1455444	1	554743	906199	1455444	900701	16863	6308	5545	246	582647	2853642	28962
112	2017-03-30 11:01:16	0	0	0	0	0	0	20.42	1.16	0.62	1455503	1	554795	906199	1455503	900708	16865	6308	5545	246	582647	2853717	28964
113	2017-03-30 11:10:59	0	0	0	0	0	0	20.42	1.16	0.62	1455569	1	554853	906199	1455569	900716	16867	6308	5545	246	582647	2853792	28966
114	2017-03-30 11:21:03	0	0	0	0	0	0	20.42	1.16	0.62	1455640	1	554916	906199	1455640	900724	16868	6308	5545	246	582647	2853879	28967
115	2017-03-30 11:31:06	0	0	0	0	0	0	20.42	1.16	0.62	1455696	1	554963	906199	1455696	900733	16868	6308	5545	246	582647	2853953	28967
116	2017-03-30 11:41:02	0	0	0	0	0	0	20.41	1.16	0.62	1455748	1	555008	906199	1455748	900740	16870	6308	5545	246	582647	2854033	28969
117	2017-03-30 11:50:59	0	0	0	0	0	0	20.41	1.16	0.62	1455810	1	555060	906199	1455810	900750	16872	6308	5546	246	582647	2854112	28972
118	2017-03-30 12:01:09	0	0	0	0	0	0	20.41	1.16	0.62	1455876	1	555118	906199	1455876	900758	16872	6308	5546	246	582647	2854175	28972
119	2017-03-30 12:11:02	0	0	0	0	0	0	20.41	1.16	0.62	1455935	1	555167	906199	1455935	900768	16874	6308	5546	246	582647	2854251	28974
120	2017-03-30 12:20:57	0	0	0	0	0	0	20.41	1.16	0.62	1455989	1	555210	906199	1455989	900779	16876	6308	5546	246	582647	2854321	28976
121	2017-03-30 12:30:55	0	0	0	0	0	0	20.41	1.16	0.62	1456052	1	555262	906199	1456052	900790	16877	6308	5546	246	582647	2854395	28977
122	2017-03-30 12:40:58	0	0	0	0	0	0	20.41	1.16	0.62	1456119	1	555317	906199	1456119	900802	16877	6308	5546	246	582647	2854478	28977
123	2017-03-30 12:51:03	0	0	0	0	0	0	20.41	1.16	0.62	1456175	1	555364	906199	1456175	900811	16877	6308	5546	246	582647	2854559	28977
124	2017-03-30 13:00:58	0	0	0	0	0	0	20.41	1.16	0.62	1456251	1	555436	906199	1456251	900815	16877	6310	5546	246	582647	2854660	28979
125	2017-03-30 13:10:55	0	0	0	0	0	0	20.41	1.16	0.62	1456324	1	555502	906199	1456324	900822	16878	6310	5546	246	582647	2854757	28980
126	2017-03-30 13:20:55	0	0	0	0	0	0	20.41	1.16	0.62	1456386	1	555561	906199	1456386	900825	16878	6312	5546	246	582647	2854850	28982
127	2017-03-30 13:31:16	0	0	0	0	0	0	20.41	1.16	0.62	1456445	1	555607	906199	1456445	900838	16878	6316	5546	246	582647	2854952	28986
128	2017-03-30 13:41:00	0	0	0	0	0	0	20.41	1.16	0.62	1456546	1	555701	906199	1456546	900845	16878	6316	5546	246	582647	2855064	28986
129	2017-03-30 13:50:58	0	0	0	0	0	0	20.41	1.16	0.62	1456650	1	555797	906199	1456650	900853	16879	6316	5546	246	582647	2855181	28987
130	2017-03-30 14:00:59	0	0	0	0	0	0	20.41	1.16	0.62	1456755	1	555884	906199	1456755	900871	16882	6316	5546	246	582647	2855298	28990
131	2017-03-30 14:11:06	0	0	0	0	0	0	20.4	1.16	0.62	1456838	1	555965	906199	1456838	900873	16882	6316	5546	246	582647	2855423	28990
132	2017-03-30 14:20:58	0	0	0	0	0	0	20.4	1.16	0.62	1456914	1	556037	906199	1456914	900877	16884	6316	5546	246	582647	2855537	28992
133	2017-03-30 14:31:00	0	0	0	0	0	0	20.4	1.16	0.62	1456995	1	556107	906199	1456995	900888	16884	6316	5546	246	582647	2855660	28992
134	2017-03-30 14:41:02	0	0	0	0	0	0	20.4	1.16	0.62	1457061	1	556162	906199	1457061	900899	16885	6316	5546	246	582647	2855773	28993
135	2017-03-30 14:51:31	0	0	0	0	0	0	20.4	1.16	0.62	1457149	1	556238	906199	1457149	900911	16886	6316	5546	246	582647	2855911	28994
136	2017-03-30 15:01:09	0	0	0	0	0	0	20.4	1.16	0.62	1457227	1	556311	906199	1457227	900916	16886	6316	5546	246	582647	2856021	28994
137	2017-03-30 15:11:00	0	0	0	0	0	0	20.4	1.16	0.62	1457278	1	556358	906199	1457278	900920	16888	6316	5546	246	582647	2856111	28996
138	2017-03-30 15:21:03	0	0	0	0	0	0	20.4	1.16	0.62	1457331	1	556409	906199	1457331	900922	16889	6316	5546	246	582647	2856214	28997
139	2017-03-30 15:31:22	0	0	0	0	0	0	20.4	1.16	0.62	1457389	1	556460	906199	1457389	900929	16889	6316	5546	246	582647	2856321	28997
140	2017-03-30 15:41:04	0	0	0	0	0	0	20.4	1.16	0.62	1457457	1	556526	906199	1457457	900931	16889	6316	5546	246	582647	2856425	28997
141	2017-03-30 15:51:02	0	0	0	0	0	0	20.4	1.16	0.62	1457521	1	556584	906199	1457521	900937	16889	6316	5546	246	582647	2856526	28997
142	2017-03-30 16:01:01	0	0	0	0	0	0	20.4	1.16	0.62	1457603	1	556656	906199	1457603	900947	16889	6316	5546	246	582647	2856632	28997
143	2017-03-30 16:10:57	0	0	0	0	0	0	20.4	1.16	0.62	1457673	1	556718	906199	1457673	900955	16890	6316	5546	246	582647	2856722	28998
144	2017-03-30 16:21:27	0	0	0	0	0	0	20.4	1.16	0.62	1457734	1	556769	906199	1457734	900965	16891	6316	5546	246	582647	2856810	28999
145	2017-03-30 16:30:57	0	0	0	0	0	0	20.39	1.16	0.62	1457774	1	556799	906332	1457774	900975	16892	6316	5546	246	582647	2856887	29000
146	2017-03-30 16:40:54	0	0	0	0	0	0	20.39	1.16	0.62	1457842	1	556852	906332	1457842	900990	16893	6316	5546	246	582647	2856956	29001
147	2017-03-30 16:50:56	0	0	0	0	0	0	20.39	1.16	0.62	1457906	1	556909	906332	1457906	900997	16894	6316	5546	246	582647	2857046	29002
148	2017-03-30 17:00:52	0	0	0	0	0	0	20.39	1.16	0.62	1457963	1	556954	906332	1457963	901009	16895	6316	5546	246	582647	2857135	29003
149	2017-03-30 17:11:26	0	0	0	0	0	0	20.39	1.16	0.62	1458017	1	557000	906332	1458017	901017	16895	6316	5546	246	582647	2857226	29003
150	2017-03-30 17:21:12	0	0	0	0	0	0	20.39	1.16	0.62	1458084	1	557054	906332	1458084	901030	16895	6316	5546	246	582647	2857311	29003
151	2017-03-30 17:30:56	0	0	0	0	0	0	20.39	1.16	0.62	1458142	1	557095	906332	1458142	901047	16897	6316	5546	246	582647	2857389	29005
152	2017-03-30 17:40:56	0	0	0	0	0	0	20.39	1.16	0.62	1458197	1	557140	906332	1458197	901057	16898	6316	5546	246	582647	2857470	29006
153	2017-03-30 17:50:54	0	0	0	0	0	0	20.39	1.16	0.62	1458254	1	557189	906332	1458254	901065	16899	6316	5546	246	582647	2857541	29007
154	2017-03-30 18:01:40	0	0	0	0	0	0	20.39	1.16	0.62	1458305	1	557227	906332	1458305	901078	16900	6316	5546	246	582647	2857619	29008
155	2017-03-30 18:12:42	0	0	0	0	0	0	20.39	1.16	0.62	1458380	1	557285	906332	1458380	901095	16900	6316	5546	246	582647	2857700	29008
156	2017-03-30 18:20:21	0	0	0	0	0	0	20.39	1.16	0.62	1458405	1	557308	906332	1458405	901097	16900	6316	5546	246	582647	2857751	29008
157	2017-03-30 18:30:23	0	0	0	0	0	0	20.39	1.16	0.62	1458453	1	557344	906332	1458453	901109	16900	6316	5546	246	582647	2857821	29008
158	2017-03-30 18:40:26	0	0	0	0	0	0	20.39	1.16	0.62	1458503	1	557385	906431	1458503	901118	16901	6316	5546	246	582647	2857867	29009
159	2017-03-30 18:50:17	0	0	0	0	0	0	20.39	1.16	0.62	1458552	1	557424	906431	1458552	901128	16902	6316	5546	246	582647	2857915	29010
160	2017-03-30 19:00:18	0	0	0	0	0	0	20.39	1.16	0.62	1458608	1	557470	906431	1458608	901138	16902	6316	5546	246	582647	2857996	29010
161	2017-03-30 19:10:17	0	0	0	0	0	0	20.39	1.16	0.62	1458666	1	557517	906431	1458666	901149	16904	6316	5546	246	582647	2858060	29012
162	2017-03-30 19:20:15	0	0	0	0	0	0	20.39	1.16	0.62	1458713	1	557551	906431	1458713	901162	16905	6318	5546	246	582647	2858139	29015
163	2017-03-30 19:30:18	0	0	0	0	0	0	20.38	1.16	0.62	1458783	1	557607	906431	1458783	901176	16905	6320	5547	246	582647	2858230	29018
164	2017-03-30 19:40:15	0	0	0	0	0	0	20.38	1.16	0.62	1458849	1	557665	906431	1458849	901184	16905	6322	5548	246	582647	2858327	29021
165	2017-03-30 19:50:14	0	0	0	0	0	0	20.38	1.16	0.62	1458920	1	557724	906431	1458920	901196	16905	6324	5548	246	582647	2858453	29023
166	2017-03-30 20:00:15	0	0	0	0	0	0	20.38	1.16	0.62	1459011	1	557802	906431	1459011	901209	16906	6324	5548	246	582647	2858555	29024
167	2017-03-30 20:10:17	0	0	0	0	0	0	20.38	1.16	0.62	1459074	1	557859	906431	1459074	901215	16907	6324	5548	246	582647	2858656	29025
168	2017-03-30 20:20:15	0	0	0	0	0	0	20.38	1.16	0.62	1459149	1	557922	906431	1459149	901227	16907	6324	5548	246	582647	2858795	29025
169	2017-03-30 20:30:14	0	0	0	0	0	0	20.38	1.16	0.62	1459213	1	557978	906431	1459213	901235	16909	6324	5548	246	582647	2858933	29027
170	2017-03-30 20:40:16	0	0	0	0	0	0	20.38	1.16	0.62	1459268	1	558029	906431	1459268	901239	16911	6324	5548	246	582647	2859060	29029
171	2017-03-30 20:50:24	0	0	0	0	0	0	20.38	1.16	0.62	1459332	1	558084	906431	1459332	901248	16912	6322	5548	246	582647	2859163	29028
172	2017-03-30 21:00:18	0	0	0	0	0	0	20.38	1.16	0.62	1459410	1	558151	906431	1459410	901259	16913	6322	5548	246	582647	2859277	29029
173	2017-03-30 21:10:18	0	0	0	0	0	0	20.38	1.16	0.62	1459475	1	558206	906431	1459475	901269	16914	6322	5548	246	582647	2859407	29030
174	2017-03-30 21:20:16	0	0	0	0	0	0	20.38	1.16	0.62	1459537	1	558262	906431	1459537	901275	16914	6320	5548	246	582647	2859511	29028
175	2017-03-30 21:30:20	0	0	0	0	0	0	20.37	1.16	0.62	1459610	1	558324	906431	1459610	901286	16914	6320	5548	246	582647	2859620	29028
176	2017-03-30 21:40:19	0	0	0	0	0	0	20.37	1.16	0.62	1459673	1	558372	906431	1459673	901301	16916	6318	5548	246	582647	2859733	29028
177	2017-03-30 21:50:19	0	0	0	0	0	0	20.37	1.16	0.62	1459719	1	558406	906431	1459719	901313	16917	6318	5548	246	582647	2859836	29029
178	2017-03-30 22:00:21	0	0	0	0	0	0	20.37	1.16	0.62	1459778	1	558453	906431	1459778	901325	16919	6318	5548	246	582647	2859934	29031
179	2017-03-30 22:10:22	0	0	0	0	0	0	20.37	1.16	0.62	1459851	1	558517	906431	1459851	901334	16919	6318	5548	246	582647	2860050	29031
180	2017-03-30 22:20:27	0	0	0	0	0	0	20.37	1.16	0.62	1459929	1	558579	906431	1459929	901350	16919	6318	5548	246	582647	2860146	29031
181	2017-03-30 22:30:31	0	0	0	0	0	0	20.37	1.16	0.62	1459991	1	558629	906431	1459991	901362	16919	6318	5548	246	582647	2860254	29031
182	2017-03-30 22:40:33	0	0	0	0	0	0	20.37	1.16	0.62	1460045	1	558674	906431	1460045	901371	16919	6318	5548	246	582647	2860385	29031
183	2017-03-30 22:49:56	0	0	0	0	0	0	20.37	1.16	0.62	1460102	1	558716	906431	1460102	901386	16919	6318	5548	246	582647	2860506	29031
184	2017-03-30 22:59:42	0	0	0	0	0	0	20.37	1.16	0.62	1460143	1	558741	906431	1460143	901402	16919	6318	5548	246	582647	2860634	29031
185	2017-03-30 23:09:41	0	0	0	0	0	0	20.37	1.16	0.62	1460185	1	558768	906431	1460185	901417	16919	6318	5548	246	582647	2860757	29031
186	2017-03-30 23:19:42	0	0	0	0	0	0	20.37	1.16	0.62	1460232	1	558804	906431	1460232	901428	16919	6318	5548	246	582647	2860876	29031
187	2017-03-30 23:29:43	0	0	0	0	0	0	20.37	1.16	0.62	1460280	1	558838	906431	1460280	901442	16919	6318	5548	246	582647	2861014	29031
188	2017-03-30 23:39:42	0	0	0	0	0	0	20.36	1.16	0.62	1460324	1	558874	906431	1460324	901450	16920	6318	5548	246	582647	2861120	29032
189	2017-03-30 23:49:44	0	0	0	0	0	0	20.36	1.16	0.62	1460366	1	558911	906431	1460366	901455	16920	6318	5549	246	582647	2861225	29033
190	2017-03-30 23:59:42	0	0	0	0	0	0	20.36	1.16	0.62	1460413	1	558950	906431	1460413	901463	16922	6318	5549	246	582647	2861318	29035
191	2017-03-31 00:47:13	0	0	0	0	0	0	20.36	1.16	0.62	1460534	1	559037	906431	1460534	901497	16923	6318	5549	246	582647	2861623	29036
192	2017-03-31 01:47:24	0	0	0	0	0	0	20.41	1.16	0.62	1460628	1	559115	906431	1460628	901513	16926	6320	5549	246	582647	2854952	29041
193	2017-03-31 02:47:12	0	0	0	0	0	0	20.41	1.16	0.62	1460680	1	559158	906431	1460680	901522	16927	6320	5549	246	582647	2855015	29042
194	2017-03-31 03:47:11	0	0	0	0	0	0	20.41	1.16	0.62	1460721	1	559197	906431	1460721	901524	16927	6320	5549	246	582647	2855055	29042
195	2017-03-31 04:47:14	0	0	0	0	0	0	20.41	1.16	0.62	1460750	1	559224	906431	1460750	901526	16927	6320	5549	246	582647	2855084	29042
196	2017-03-31 05:47:20	0	0	0	0	0	0	20.41	1.16	0.62	1460812	1	559281	906431	1460812	901531	16928	6320	5549	246	582647	2855118	29043
197	2017-03-31 06:47:15	0	0	0	0	0	0	20.41	1.16	0.62	1460903	1	559360	906431	1460903	901543	16930	6320	5550	246	582647	2855240	29046
198	2017-03-31 07:09:41	0	0	0	0	0	0	20.41	1.16	0.62	1460963	1	559415	906431	1460963	901548	16930	6320	5551	246	582647	2855298	29047
199	2017-03-31 07:19:42	0	0	0	0	0	0	20.41	1.16	0.62	1460996	1	559442	906431	1460996	901554	16930	6320	5551	246	582647	2855336	29047
200	2017-03-31 07:29:41	0	0	0	0	0	0	20.41	1.16	0.62	1461019	1	559459	906431	1461019	901560	16931	6320	5551	246	582647	2855383	29048
201	2017-03-31 07:39:43	0	0	0	0	0	0	20.4	1.16	0.62	1461039	1	559472	906431	1461039	901567	16931	6320	5551	246	582647	2855427	29048
202	2017-03-31 07:49:43	0	0	0	0	0	0	20.4	1.16	0.62	1461053	1	559485	906431	1461053	901568	16931	6320	5551	246	582647	2855477	29048
203	2017-03-31 07:59:48	0	0	0	0	0	0	20.4	1.16	0.62	1461071	1	559498	906431	1461071	901573	16931	6320	5551	246	582647	2855540	29048
204	2017-03-31 08:09:45	0	0	0	0	0	0	20.4	1.16	0.62	1461088	1	559508	906431	1461088	901580	16931	6320	5551	246	582647	2855589	29048
205	2017-03-31 08:19:43	0	0	0	0	0	0	20.4	1.16	0.62	1461111	1	559527	906431	1461111	901584	16931	6320	5551	246	582647	2855639	29048
206	2017-03-31 08:29:44	0	0	0	0	0	0	20.4	1.16	0.62	1461140	1	559548	906431	1461140	901592	16932	6320	5551	246	582647	2855690	29049
207	2017-03-31 08:39:44	0	0	0	0	0	0	20.4	1.16	0.62	1461163	1	559568	906431	1461163	901595	16932	6320	5551	246	582647	2855753	29049
208	2017-03-31 08:49:44	0	0	0	0	0	0	20.4	1.16	0.62	1461186	1	559583	906431	1461186	901603	16932	6320	5551	246	582647	2855811	29049
209	2017-03-31 08:59:46	0	0	0	0	0	0	20.4	1.16	0.62	1461206	1	559599	906431	1461206	901607	16934	6320	5551	246	582647	2855876	29051
210	2017-03-31 09:09:44	0	0	0	0	0	0	20.4	1.16	0.62	1461224	1	559614	906431	1461224	901610	16934	6320	5551	246	582647	2855925	29051
211	2017-03-31 09:19:45	0	0	0	0	0	0	20.4	1.16	0.62	1461250	1	559634	906431	1461250	901616	16935	6320	5551	246	582647	2855980	29052
212	2017-03-31 09:29:45	0	0	0	0	0	0	20.4	1.16	0.62	1461272	1	559651	906431	1461272	901621	16935	6320	5551	246	582647	2856039	29052
213	2017-03-31 09:39:45	0	0	0	0	0	0	20.4	1.16	0.62	1461296	1	559669	906431	1461296	901627	16936	6320	5551	246	582757	2856106	29053
214	2017-03-31 09:49:47	0	0	0	0	0	0	20.4	1.16	0.62	1461315	1	559683	906431	1461315	901632	16936	6320	5551	246	582757	2856175	29053
215	2017-03-31 09:59:49	0	0	0	0	0	0	20.4	1.16	0.62	1461327	1	559692	906431	1461327	901635	16936	6320	5551	246	582757	2856234	29053
216	2017-03-31 10:09:48	0	0	0	0	0	0	20.4	1.16	0.62	1461343	1	559703	906431	1461343	901640	16937	6320	5551	246	582757	2856307	29054
217	2017-03-31 10:19:50	0	0	0	0	0	0	20.4	1.16	0.62	1461362	1	559720	906431	1461362	901642	16937	6320	5551	246	582757	2856368	29054
218	2017-03-31 10:29:48	0	0	0	0	0	0	20.4	1.16	0.62	1461379	1	559730	906431	1461379	901649	16937	6320	5551	246	582757	2856437	29054
219	2017-03-31 10:39:50	0	0	0	0	0	0	20.4	1.16	0.62	1461398	1	559745	906431	1461398	901653	16937	6320	5551	246	582757	2856511	29054
220	2017-03-31 10:49:55	0	0	0	0	0	0	20.4	1.16	0.62	1461417	1	559759	906431	1461417	901658	16937	6320	5551	246	582757	2856576	29054
221	2017-03-31 11:00:04	0	0	0	0	0	0	20.4	1.16	0.62	1461427	1	559768	906431	1461427	901659	16937	6320	5551	246	582757	2856657	29054
222	2017-03-31 11:10:08	0	0	0	0	0	0	20.4	1.16	0.62	1461446	1	559778	906431	1461446	901668	16937	6320	5551	246	582757	2856727	29054
223	2017-03-31 11:19:59	0	0	0	0	0	0	20.4	1.16	0.62	1461459	1	559789	906431	1461459	901670	16937	6320	5551	246	582757	2856796	29054
