1	2016-05-30 16:02:26	0	0	0	0	0	0	0.65	1.25	0	13568	0	6	11872	13568	13562	170	1	9	2	11863	1836453	182
2	2016-05-30 16:12:26	0	0	0	0	0	0	1.81	2.12	0	42266	0	134	33434	42266	42132	898	3	34	5	33248	1836464	940
3	2016-05-30 16:22:26	0	0	0	0	0	0	2.25	2.25	0	54227	0	202	41713	54227	54025	1219	4	44	6	41383	1836472	1273
4	2016-05-30 16:32:26	0	0	0	0	0	0	2.83	2.38	0	72405	0	326	52407	72405	72079	1725	5	52	11	52033	1836486	1793
5	2016-05-30 16:42:26	0	0	0	0	0	0	3.16	2.4	0.01	81498	0	407	58567	81498	81091	1953	7	60	11	58083	1836505	2031
6	2016-05-30 16:52:26	0	0	0	0	0	0	3.47	2.25	0.01	97625	0	492	69026	97625	97050	2201	7	64	11	63734	1836532	2283
7	2016-05-30 17:02:27	0	0	0	0	0	0	3.93	2.49	0.01	104336	0	664	72567	104336	103672	2598	8	69	13	72205	1836554	2688
8	2016-05-30 17:12:27	0	0	0	0	0	0	4.25	2.51	0.01	114011	0	786	78576	114011	113225	2858	8	75	13	78081	1836571	2954
9	2016-05-30 17:22:24	0	0	0	0	0	0	4.41	2.51	0.01	118887	0	830	81546	118887	118057	2986	8	80	13	81013	1836592	3087
10	2016-05-30 17:32:25	0	0	0	0	0	0	4.77	2.52	0.01	130464	0	932	88437	130464	129532	3291	9	88	15	87671	1836599	3403
11	2016-05-30 17:42:25	0	0	0	0	0	0	5	2.51	0.01	136550	0	997	92761	136550	135553	3434	9	91	15	91874	1836610	3549
12	2016-05-30 17:52:25	0	0	0	0	0	0	5.27	2.51	0.01	145490	0	1116	97537	145490	144374	3654	9	94	16	96739	1836633	3773
13	2016-05-30 18:02:27	0	0	0	0	0	0	5.36	2.51	0.01	150300	0	1173	99352	150300	149127	3774	9	94	16	98401	1836654	3893
14	2016-05-30 18:12:25	0	0	0	0	0	0	5.56	2.52	0.01	158280	0	1262	103272	158280	157018	3988	9	97	16	102158	1836672	4110
15	2016-05-30 18:22:26	0	0	0	0	0	0	5.74	2.53	0.01	164219	0	1325	106594	164219	162894	4153	10	99	16	105407	1836699	4278
16	2016-05-30 18:32:25	0	0	0	0	0	0	5.83	2.53	0.01	167679	0	1368	108358	167679	166311	4243	10	99	16	107132	1836721	4368
17	2016-05-30 18:42:25	0	0	0	0	0	0	6.02	2.52	0.01	173313	0	1435	111717	173313	171878	4359	10	100	16	110635	1836733	4485
18	2016-05-30 18:52:26	0	0	0	0	0	0	6.09	2.52	0.01	176127	0	1460	113055	176127	174667	4439	10	100	16	111947	1836759	4565
19	2016-05-30 19:02:30	0	0	0	0	0	0	6.3	2.52	0.01	182173	0	1507	116731	182173	180666	4584	10	102	16	115793	1836786	4712
20	2016-05-30 19:12:29	0	0	0	0	0	0	6.38	2.51	0.01	184809	0	1528	118123	184809	183281	4642	10	104	17	117162	1836806	4773
21	2016-05-30 19:22:26	0	0	0	0	0	0	6.59	2.52	0.01	190759	0	1660	122300	190759	189099	4802	11	108	17	121074	1836832	4938
22	2016-05-30 19:32:26	0	0	0	0	0	0	6.69	2.51	0.01	193308	0	1709	124080	193308	191599	4860	11	108	18	122818	1836862	4997
23	2016-05-30 19:42:26	0	0	0	0	0	0	6.8	2.52	0.01	198378	0	1800	126109	198378	196578	4991	12	112	19	124926	1836891	5134
24	2016-05-30 19:52:26	0	0	0	0	0	0	6.88	2.51	0.01	201162	0	1848	127665	201162	199314	5057	12	115	20	126375	1836910	5204
25	2016-05-30 20:02:27	0	0	0	0	0	0	7.1	2.51	0.01	206886	0	1956	131530	206886	204930	5198	13	122	21	130380	1836924	5354
26	2016-05-30 20:12:27	0	0	0	0	0	0	7.15	2.51	0.01	209696	0	1996	132416	209696	207700	5261	13	124	21	131251	1836944	5419
27	2016-05-30 20:22:26	0	0	0	0	0	0	7.26	2.49	0.01	214319	0	2080	134559	214319	212239	5347	13	128	22	133357	1836968	5510
28	2016-05-30 20:32:26	0	0	0	0	0	0	7.4	2.48	0.01	219144	0	2152	137349	219144	216992	5438	14	131	22	136010	1836999	5605
29	2016-05-30 20:42:27	0	0	0	0	0	0	7.57	2.48	0.01	221889	0	2212	140390	221889	219677	5504	14	131	22	138991	1837030	5671
30	2016-05-30 20:52:26	0	0	0	0	0	0	7.66	2.47	0.01	226305	0	2305	142085	226305	224000	5593	14	133	23	140729	1837052	5763
31	2016-05-30 21:02:27	0	0	0	0	0	0	7.74	2.47	0.01	228657	0	2346	143590	228657	226311	5639	14	134	23	142206	1837082	5810
32	2016-05-30 21:12:27	0	0	0	0	0	0	7.9	2.46	0.01	232841	0	2425	146495	232841	230416	5735	15	136	23	145162	1837120	5909
33	2016-05-30 21:22:27	0	0	0	0	0	0	7.97	2.46	0.01	234917	0	2458	147528	234917	232459	5780	15	137	24	146398	1837145	5956
34	2016-05-30 21:32:27	0	0	0	0	0	0	8.07	2.46	0.01	238987	0	2529	149494	238987	236458	5882	15	138	25	148333	1837162	6060
35	2016-05-30 21:42:26	0	0	0	0	0	0	8.1	2.46	0.01	241144	0	2564	149884	241144	238580	5933	15	140	25	148833	1837188	6113
36	2016-05-30 21:52:26	0	0	0	0	0	0	8.22	2.45	0.01	245167	0	2646	152063	245167	242521	6010	15	143	30	150981	1837212	6198
37	2016-05-30 22:02:27	0	0	0	0	0	0	8.3	2.45	0.01	247337	0	2687	153610	247337	244650	6053	15	143	30	152453	1837225	6241
38	2016-05-30 22:12:26	0	0	0	0	0	0	8.46	2.44	0.01	250860	0	2746	156674	250860	248114	6131	15	146	30	155423	1837250	6322
39	2016-05-30 22:22:27	0	0	0	0	0	0	8.49	2.44	0.01	252402	0	2780	157199	252402	249622	6159	15	146	30	155940	1837284	6350
40	2016-05-30 22:32:27	0	0	0	0	0	0	8.63	2.44	0.01	256014	0	2884	159826	256014	253130	6241	16	151	32	158541	1837309	6440
41	2016-05-30 22:42:27	0	0	0	0	0	0	8.66	2.43	0.01	258137	0	2933	160380	258137	255204	6274	16	151	32	159021	1837330	6473
42	2016-05-30 22:52:27	0	0	0	0	0	0	8.83	2.43	0.01	262024	0	3032	163677	262024	258992	6372	18	152	32	162262	1837357	6574
43	2016-05-30 23:02:27	0	0	0	0	0	0	8.94	2.43	0.01	263826	0	3076	165554	263826	260750	6409	18	152	34	164316	1837374	6613
44	2016-05-30 23:12:27	0	0	0	0	0	0	9.07	2.43	0.01	267908	0	3170	167975	267908	264738	6501	18	156	36	166700	1837399	6711
45	2016-05-30 23:22:26	0	0	0	0	0	0	9.09	2.42	0.01	269593	0	3217	168363	269593	266376	6536	19	157	37	167082	1837421	6749
46	2016-05-30 23:32:27	0	0	0	0	0	0	9.19	2.41	0.01	273127	0	3314	170158	273127	269813	6595	20	161	37	168850	1837440	6813
47	2016-05-30 23:42:27	0	0	0	0	0	0	9.22	2.42	0.01	274930	0	3350	170737	274930	271580	6644	20	164	37	169420	1837464	6865
48	2016-05-30 23:52:27	0	0	0	0	0	0	9.31	2.42	0.01	278486	0	3416	172367	278486	275070	6730	20	166	38	171025	1837481	6954
49	2016-05-31 00:02:27	0	0	0	0	0	0	9.35	2.42	0.01	279962	0	3447	173105	279962	276515	6765	21	166	38	171751	1837486	6990
50	2016-05-31 00:12:26	0	0	0	0	0	0	9.42	2.41	0.01	282794	0	3484	174408	282794	279310	6819	21	167	38	173015	1837508	7045
51	2016-05-31 00:22:28	0	0	0	0	0	0	9.51	2.41	0.01	284566	0	3510	176184	284566	281056	6846	21	168	39	174762	1837549	7074
52	2016-05-31 00:32:26	0	0	0	0	0	0	9.61	2.4	0.01	287359	0	3550	178073	287359	283809	6905	21	169	40	176621	1837583	7135
53	2016-05-31 00:42:27	0	0	0	0	0	0	9.72	2.4	0.01	289560	0	3590	180072	289560	285970	6949	21	173	40	178587	1837611	7183
54	2016-05-31 00:52:26	0	0	0	0	0	0	9.72	2.4	0.01	290696	0	3604	180072	290696	287092	6972	21	173	40	178587	1837636	7206
55	2016-05-31 01:02:26	0	0	0	0	0	0	9.83	2.4	0.01	292716	0	3643	182167	292716	289073	7030	21	175	41	180647	1837648	7267
56	2016-05-31 01:12:29	0	0	0	0	0	0	9.84	2.4	0.01	293684	0	3656	182360	293684	290028	7053	21	176	42	180837	1837661	7292
57	2016-05-31 01:22:27	0	0	0	0	0	0	9.91	2.4	0.01	295384	0	3688	183718	295384	291696	7085	21	177	42	182089	1837681	7325
58	2016-05-31 01:32:27	0	0	0	0	0	0	9.93	2.4	0.01	295999	0	3696	184111	295999	292303	7098	21	177	42	182476	1837696	7338
59	2016-05-31 01:42:26	0	0	0	0	0	0	9.97	2.4	0.01	297255	0	3711	184638	297255	293544	7123	21	179	44	183167	1837705	7367
60	2016-05-31 01:52:27	0	0	0	0	0	0	9.98	2.4	0.01	297823	0	3716	184859	297823	294107	7136	21	180	44	183384	1837710	7381
61	2016-05-31 02:02:27	0	0	0	0	0	0	10.01	2.4	0.01	298715	0	3723	185335	298715	294992	7158	21	180	44	183852	1836727	7403
62	2016-05-31 02:12:27	0	0	0	0	0	0	10.03	2.4	0.01	299184	0	3727	185690	299184	295457	7173	21	180	44	184202	1836733	7418
63	2016-05-31 02:22:27	0	0	0	0	0	0	10.03	2.4	0.01	299999	0	3738	185796	299999	296261	7195	21	180	44	184218	1836739	7440
64	2016-05-31 02:32:27	0	0	0	0	0	0	10.04	2.4	0.01	300415	0	3745	185930	300415	296670	7204	21	180	44	184350	1836740	7449
65	2016-05-31 02:42:27	0	0	0	0	0	0	10.08	2.4	0.01	301104	0	3754	186608	301104	297350	7226	21	181	44	185088	1836738	7472
66	2016-05-31 02:52:27	0	0	0	0	0	0	10.08	2.4	0.01	301430	0	3756	186698	301430	297674	7234	21	181	44	185177	1836741	7480
67	2016-05-31 03:02:27	0	0	0	0	0	0	10.12	2.4	0.01	302038	0	3762	187365	302038	298276	7245	21	181	44	185832	1836744	7491
68	2016-05-31 03:12:27	0	0	0	0	0	0	10.12	2.4	0.01	302267	0	3766	187376	302267	298501	7251	21	181	44	185844	1836746	7497
69	2016-05-31 03:22:27	0	0	0	0	0	0	10.14	2.4	0.01	302705	0	3772	187784	302705	298933	7261	21	183	44	186245	1836750	7509
70	2016-05-31 03:32:27	0	0	0	0	0	0	10.15	2.4	0.01	303036	0	3775	187921	303036	299261	7274	21	183	44	186380	1836752	7522
71	2016-05-31 03:42:27	0	0	0	0	0	0	10.15	2.4	0.01	303212	0	3777	187921	303212	299435	7275	21	183	44	186380	1836751	7523
72	2016-05-31 03:52:27	0	0	0	0	0	0	10.15	2.4	0.01	303555	0	3784	187990	303555	299771	7279	21	183	44	186447	1836752	7527
73	2016-05-31 04:02:27	0	0	0	0	0	0	10.16	2.4	0.01	303723	0	3785	188447	303723	299938	7283	21	183	44	186537	1836752	7531
74	2016-05-31 04:12:27	0	0	0	0	0	0	10.17	2.4	0.01	303890	0	3787	188631	303890	300103	7284	21	183	44	186717	1836752	7532
75	2016-05-31 04:22:27	0	0	0	0	0	0	10.17	2.4	0.01	304163	0	3793	188792	304163	300370	7286	21	183	44	186875	1836752	7534
76	2016-05-31 04:32:27	0	0	0	0	0	0	10.19	2.4	0.01	304398	0	3797	189103	304398	300601	7293	21	183	44	187180	1836753	7541
77	2016-05-31 04:42:27	0	0	0	0	0	0	10.19	2.4	0.01	304524	0	3802	189103	304524	300722	7295	21	184	44	187180	1836753	7544
78	2016-05-31 04:52:27	0	0	0	0	0	0	10.2	2.4	0.01	304814	0	3805	189242	304814	301009	7301	21	184	44	187316	1836755	7550
79	2016-05-31 05:02:27	0	0	0	0	0	0	10.2	2.39	0.01	304949	0	3808	189242	304949	301141	7303	21	184	44	187316	1836757	7552
80	2016-05-31 05:12:27	0	0	0	0	0	0	10.2	2.39	0.01	305256	0	3813	189323	305256	301443	7310	21	184	45	187395	1836758	7560
81	2016-05-31 05:22:27	0	0	0	0	0	0	10.22	2.39	0.01	305597	0	3821	189601	305597	301776	7316	21	185	45	187668	1836759	7567
82	2016-05-31 05:32:28	0	0	0	0	0	0	10.23	2.39	0.01	305811	0	3826	189758	305811	301985	7322	21	185	45	187821	1836760	7573
83	2016-05-31 05:42:29	0	0	0	0	0	0	10.25	2.39	0.01	306194	0	3834	190271	306194	302359	7324	21	185	45	188187	1836761	7575
84	2016-05-31 05:52:28	0	0	0	0	0	0	10.25	2.39	0.01	306382	0	3843	190306	306382	302539	7329	21	185	45	188358	1836763	7580
85	2016-05-31 06:02:27	0	0	0	0	0	0	10.26	2.39	0.01	306879	0	3856	190445	306879	303023	7338	21	185	45	188495	1836763	7589
86	2016-05-31 06:12:29	0	0	0	0	0	0	10.27	2.39	0.01	307159	0	3867	190586	307159	303292	7345	21	185	45	188632	1836765	7596
87	2016-05-31 06:22:27	0	0	0	0	0	0	10.28	2.39	0.01	307550	0	3881	190783	307550	303669	7349	21	185	45	188825	1836769	7600
88	2016-05-31 06:32:28	0	0	0	0	0	0	10.29	2.39	0.01	308363	0	3903	190994	308363	304460	7359	22	185	45	189032	1836776	7611
89	2016-05-31 06:42:28	0	0	0	0	0	0	10.29	2.39	0.01	308748	0	3914	191030	308748	304834	7367	22	185	45	189032	1836777	7619
90	2016-05-31 06:52:28	0	0	0	0	0	0	10.36	2.38	0.01	309738	0	3952	192395	309738	305786	7385	22	186	45	190328	1836785	7638
91	2016-05-31 07:02:28	0	0	0	0	0	0	10.38	2.38	0.01	310226	0	3975	192742	310226	306251	7391	22	189	45	190668	1836789	7647
92	2016-05-31 07:12:29	0	0	0	0	0	0	10.42	2.38	0.01	311282	0	4015	193548	311282	307267	7404	22	191	45	191456	1836795	7662
93	2016-05-31 07:22:28	0	0	0	0	0	0	10.44	2.38	0.01	312491	0	4060	193861	312491	308431	7423	22	193	45	191763	1836804	7683
94	2016-05-31 07:32:28	0	0	0	0	0	0	10.47	2.37	0.01	313077	0	4082	194372	313077	308995	7434	22	194	45	192239	1836810	7695
95	2016-05-31 07:42:28	0	0	0	0	0	0	10.5	2.37	0.01	314518	0	4133	194911	314518	310385	7458	22	195	45	192862	1836814	7720
96	2016-05-31 07:52:30	0	0	0	0	0	0	10.51	2.37	0.01	315230	0	4154	194911	315230	311076	7476	22	195	45	193054	1836824	7738
97	2016-05-31 08:02:28	0	0	0	0	0	0	10.53	2.37	0.01	316470	0	4187	195258	316470	312283	7505	22	195	45	193395	1836838	7767
98	2016-05-31 08:12:28	0	0	0	0	0	0	10.61	2.37	0.01	317843	0	4223	196683	317843	313620	7532	22	195	45	194866	1836850	7794
99	2016-05-31 08:22:29	0	0	0	0	0	0	10.62	2.37	0.01	318669	0	4245	196858	318669	314424	7548	22	195	45	195038	1836862	7810
100	2016-05-31 08:32:29	0	0	0	0	0	0	10.71	2.36	0.01	320474	0	4289	198587	320474	316185	7579	23	197	45	196736	1836885	7844
101	2016-05-31 08:42:28	0	0	0	0	0	0	10.77	2.36	0.01	321403	0	4328	199776	321403	317075	7595	23	197	45	197902	1836906	7860
102	2016-05-31 08:52:29	0	0	0	0	0	0	10.81	2.36	0.01	323138	0	4371	200461	323138	318767	7636	23	198	45	198575	1836928	7902
103	2016-05-31 09:02:29	0	0	0	0	0	0	10.83	2.36	0.01	324036	0	4397	200773	324036	319639	7648	23	198	45	198881	1836949	7914
104	2016-05-31 09:12:29	0	0	0	0	0	0	10.87	2.36	0.01	325881	0	4447	201649	325881	321434	7695	23	200	46	199740	1836970	7964
105	2016-05-31 09:22:31	0	0	0	0	0	0	10.88	2.36	0.01	326843	0	4480	201807	326843	322363	7715	23	200	46	199895	1836992	7984
106	2016-05-31 09:32:29	0	0	0	0	0	0	10.92	2.36	0.01	328489	0	4540	202546	328489	323949	7750	23	200	46	200620	1837004	8019
107	2016-05-31 09:42:29	0	0	0	0	0	0	10.94	2.36	0.01	329377	0	4568	202865	329377	324809	7768	24	201	46	200933	1837026	8039
108	2016-05-31 09:52:29	0	0	0	0	0	0	10.95	2.36	0.01	330308	0	4597	203211	330308	325711	7787	24	201	46	201168	1837044	8058
109	2016-05-31 10:02:30	0	0	0	0	0	0	11	2.35	0.01	332036	0	4653	204196	332036	327383	7816	24	202	46	202133	1837062	8088
110	2016-05-31 10:12:29	0	0	0	0	0	0	11.01	2.35	0.01	332643	0	4676	204330	332643	327967	7827	24	202	46	202265	1837080	8099
111	2016-05-31 10:22:30	0	0	0	0	0	0	11.04	2.35	0.01	334075	0	4715	204952	334075	329360	7860	24	205	46	202874	1837096	8135
112	2016-05-31 10:32:29	0	0	0	0	0	0	11.04	2.35	0.01	334773	0	4740	204952	334773	330033	7876	24	205	46	202874	1837115	8151
113	2016-05-31 10:42:34	0	0	0	0	0	0	11.07	2.36	0.01	336195	0	4781	205442	336195	331414	7922	24	205	48	203354	1837136	8199
114	2016-05-31 12:48:40	0	0	0	0	0	0	11.38	2.35	0.01	348072	0	5128	211138	348072	342944	8182	24	214	53	209102	1837419	8473
115	2016-05-31 12:58:39	0	0	0	0	0	0	11.39	2.35	0.01	348660	0	5149	211252	348660	343511	8202	24	216	54	209214	1837434	8496
116	2016-05-31 13:08:38	0	0	0	0	0	0	11.4	2.35	0.02	349655	0	5175	211562	349655	344480	8225	24	217	54	209519	1837449	8520
117	2016-05-31 13:18:41	0	0	0	0	0	0	11.43	2.35	0.02	350165	0	5203	212127	350165	344962	8235	24	217	54	210073	1837467	8530
118	2016-05-31 13:28:40	0	0	0	0	0	0	11.46	2.35	0.02	351266	0	5241	212623	351266	346025	8263	24	217	54	210559	1837489	8558
119	2016-05-31 13:38:39	0	0	0	0	0	0	11.48	2.35	0.02	351741	0	5256	212944	351741	346485	8273	24	217	54	210874	1837513	8568
120	2016-05-31 13:48:40	0	0	0	0	0	0	11.5	2.35	0.02	352714	0	5272	213385	352714	347442	8288	24	217	55	211306	1837537	8584
121	2016-05-31 13:58:40	0	0	0	0	0	0	11.53	2.35	0.02	353577	0	5300	213973	353577	348277	8314	24	218	55	211883	1837561	8611
122	2016-05-31 14:08:39	0	0	0	0	0	0	11.54	2.35	0.02	353960	0	5311	214202	353960	348649	8322	24	218	55	212107	1837583	8619
123	2016-05-31 14:18:40	0	0	0	0	0	0	11.58	2.35	0.02	354811	0	5344	214916	354811	349467	8350	25	219	56	212807	1837613	8650
124	2016-05-31 14:28:39	0	0	0	0	0	0	11.58	2.35	0.02	355308	0	5371	214946	355308	349937	8364	25	219	56	212836	1837655	8664
125	2016-05-31 14:38:40	0	0	0	0	0	0	11.59	2.35	0.02	356185	0	5403	215155	356185	350782	8382	25	220	56	213041	1837693	8683
126	2016-05-31 14:48:40	0	0	0	0	0	0	11.59	2.35	0.02	356623	0	5419	215155	356623	351204	8391	25	220	56	213041	1837729	8692
127	2016-05-31 15:08:24	0	0	0	0	0	0	11.6	2.36	0.02	357866	0	5447	215229	357866	352419	8429	25	220	56	213115	1837782	8730
128	2016-05-31 15:13:42	0	0	0	0	0	0	11.62	2.35	0.02	358275	0	5474	215589	358275	352801	8435	25	221	57	213467	1837793	8738
129	2016-05-31 15:18:41	0	0	0	0	0	0	11.62	2.35	0.02	358275	0	5474	215589	358275	352801	8435	25	221	57	213467	1837808	8738
130	2016-05-31 15:28:45	0	0	0	0	0	0	11.63	2.35	0.02	359009	0	5513	215905	359009	353496	8453	25	221	57	213777	1837839	8756
131	2016-05-31 15:38:45	0	0	0	0	0	0	11.63	2.35	0.02	359457	0	5532	215905	359457	353925	8463	25	223	57	213777	1837857	8768
132	2016-05-31 15:48:49	0	0	0	0	0	0	11.63	2.36	0.02	360290	0	5572	215964	360290	354718	8488	25	223	57	213835	1837882	8793
133	2016-05-31 15:58:51	0	0	0	0	0	0	11.66	2.36	0.02	361082	0	5600	216402	361082	355482	8508	25	223	58	214235	1837910	8814
134	2016-05-31 16:08:51	0	0	0	0	0	0	11.66	2.36	0.02	361477	0	5617	216447	361477	355860	8520	25	223	58	214279	1837943	8826
135	2016-05-31 16:18:52	0	0	0	0	0	0	11.66	2.36	0.02	362142	0	5657	216508	362142	356485	8537	25	223	58	214338	1837974	8843
136	2016-05-31 16:28:45	0	0	0	0	0	0	11.66	2.36	0.02	362566	0	5668	216508	362566	356898	8548	25	223	59	214338	1837998	8855
137	2016-05-31 16:38:48	0	0	0	0	0	0	11.67	2.36	0.02	362951	0	5685	216680	362951	357266	8557	25	223	59	214507	1838033	8864
138	2016-05-31 16:48:47	0	0	0	0	0	0	11.71	2.36	0.02	363636	0	5712	217335	363636	357924	8573	25	224	59	215201	1838058	8881
139	2016-05-31 16:58:48	0	0	0	0	0	0	11.72	2.36	0.02	363978	0	5725	217579	363978	358253	8577	25	224	59	215441	1838084	8885
140	2016-05-31 17:08:47	0	0	0	0	0	0	11.74	2.36	0.02	364523	0	5740	217885	364523	358783	8592	25	224	59	215741	1838114	8900
141	2016-05-31 17:18:50	0	0	0	0	0	0	11.74	2.36	0.02	364852	0	5756	218131	364852	359096	8604	25	224	59	215741	1838147	8912
142	2016-05-31 17:28:48	0	0	0	0	0	0	11.77	2.36	0.02	365400	0	5770	218685	365400	359630	8618	25	224	59	216283	1838197	8926
143	2016-05-31 17:38:56	0	0	0	0	0	0	11.77	2.36	0.02	365888	0	5781	218716	365888	360107	8635	25	224	59	216314	1838229	8943
144	2016-05-31 17:48:56	0	0	0	0	0	0	11.78	2.36	0.02	366133	0	5788	218933	366133	360345	8641	25	224	59	216525	1838254	8949
145	2016-05-31 17:58:55	0	0	0	0	0	0	11.79	2.36	0.02	366664	0	5807	219227	366664	360857	8656	25	224	59	216813	1838277	8964
146	2016-05-31 18:08:50	0	0	0	0	0	0	11.8	2.36	0.02	366914	0	5813	219352	366914	361101	8657	25	224	59	216935	1838310	8965
147	2016-05-31 18:18:52	0	0	0	0	0	0	11.82	2.36	0.02	367422	0	5831	219655	367422	361591	8675	25	224	59	217231	1838348	8983
148	2016-05-31 18:28:53	0	0	0	0	0	0	11.83	2.36	0.02	367682	0	5842	219873	367682	361840	8679	25	224	59	217445	1838382	8987
149	2016-05-31 18:38:51	0	0	0	0	0	0	11.83	2.36	0.02	368140	0	5857	219873	368140	362283	8688	25	224	59	217445	1838417	8996
150	2016-05-31 18:48:51	0	0	0	0	0	0	11.84	2.36	0.02	368539	0	5869	220147	368539	362670	8708	25	224	59	217713	1838455	9016
151	2016-05-31 18:58:53	0	0	0	0	0	0	11.86	2.36	0.02	368792	0	5878	220460	368792	362914	8716	25	225	59	218019	1838489	9025
152	2016-05-31 19:08:57	0	0	0	0	0	0	11.89	2.36	0.02	369353	0	5894	220995	369353	363459	8732	25	225	59	218542	1838533	9041
153	2016-05-31 19:18:51	0	0	0	0	0	0	11.91	2.36	0.02	369636	0	5897	221438	369636	363739	8739	25	226	59	218975	1838574	9049
154	2016-05-31 19:28:53	0	0	0	0	0	0	11.94	2.36	0.02	370097	0	5915	221962	370097	364182	8752	25	227	59	219487	1838615	9063
155	2016-05-31 19:38:57	0	0	0	0	0	0	11.95	2.37	0.02	370379	0	5925	222232	370379	364454	8761	25	227	59	219752	1838653	9072
156	2016-05-31 19:48:55	0	0	0	0	0	0	11.97	2.37	0.02	370937	0	5950	222616	370937	364987	8773	25	227	59	220127	1838699	9084
157	2016-05-31 19:58:57	0	0	0	0	0	0	12	2.36	0.02	371225	0	5959	223065	371225	365266	8777	25	227	59	220566	1838732	9088
158	2016-05-31 20:08:55	0	0	0	0	0	0	12.04	2.36	0.02	371704	0	5971	223952	371704	365733	8784	25	227	59	221434	1838772	9095
159	2016-05-31 20:18:51	0	0	0	0	0	0	12.07	2.36	0.02	371883	0	5975	224407	371883	365908	8790	25	227	59	221878	1838804	9101
160	2016-05-31 20:28:56	0	0	0	0	0	0	12.07	2.36	0.02	372266	0	5985	224407	372266	366281	8802	25	227	59	221878	1838835	9113
161	2016-05-31 20:38:56	0	0	0	0	0	0	12.08	2.36	0.02	372705	0	5996	224732	372705	366709	8814	25	227	60	222196	1838883	9126
162	2016-05-31 20:49:07	0	0	0	0	0	0	12.1	2.37	0.02	372940	0	5998	224994	372940	366942	8821	25	227	60	222452	1838927	9133
163	2016-05-31 20:58:56	0	0	0	0	0	0	12.1	2.36	0.02	373375	0	6012	224994	373375	367363	8826	25	227	60	222452	1838966	9138
164	2016-05-31 21:09:05	0	0	0	0	0	0	12.11	2.36	0.02	373586	0	6018	225174	373586	367568	8831	25	227	62	222628	1839007	9145
165	2016-05-31 21:19:06	0	0	0	0	0	0	12.13	2.36	0.02	374014	0	6029	225567	374014	367985	8842	25	227	62	223013	1839049	9156
166	2016-05-31 21:28:53	0	0	0	0	0	0	12.13	2.36	0.02	374251	0	6037	225567	374251	368214	8850	25	227	62	223013	1839086	9164
167	2016-05-31 21:39:02	0	0	0	0	0	0	12.15	2.36	0.02	374726	0	6060	225962	374726	368666	8858	25	227	62	223399	1839134	9172
168	2016-05-31 21:48:57	0	0	0	0	0	0	12.15	2.36	0.02	374960	0	6067	225962	374960	368893	8863	25	227	62	223399	1839172	9177
169	2016-05-31 21:59:08	0	0	0	0	0	0	12.15	2.36	0.02	375365	0	6084	226028	375365	369281	8872	25	229	63	223463	1839220	9189
170	2016-05-31 22:08:55	0	0	0	0	0	0	12.15	2.36	0.02	375590	0	6101	226028	375590	369489	8879	25	229	64	223463	1839257	9197
171	2016-05-31 22:18:47	0	0	0	0	0	0	12.16	2.36	0.02	376059	0	6126	226161	376059	369933	8891	25	229	65	223592	1839304	9210
172	2016-05-31 22:28:43	0	0	0	0	0	0	12.16	2.36	0.02	376304	0	6144	226293	376304	370160	8893	25	230	65	223722	1839342	9213
173	2016-05-31 22:38:43	0	0	0	0	0	0	12.2	2.36	0.02	376733	0	6175	226948	376733	370558	8901	25	230	65	224362	1839370	9221
174	2016-05-31 22:48:43	0	0	0	0	0	0	12.2	2.36	0.02	377136	0	6205	226948	377136	370931	8910	25	230	65	224362	1839391	9230
175	2016-05-31 22:58:44	0	0	0	0	0	0	12.2	2.36	0.02	377346	0	6211	226948	377346	371135	8914	25	230	65	224362	1839417	9234
176	2016-05-31 23:08:43	0	0	0	0	0	0	12.2	2.36	0.02	377770	0	6230	227081	377770	371540	8929	25	230	65	224492	1839434	9249
177	2016-05-31 23:18:44	0	0	0	0	0	0	12.21	2.36	0.02	377974	0	6237	227281	377974	371737	8933	25	230	65	224688	1839449	9253
178	2016-05-31 23:28:42	0	0	0	0	0	0	12.25	2.36	0.02	378328	0	6245	227950	378328	372083	8941	25	230	65	225342	1839456	9261
179	2016-05-31 23:38:42	0	0	0	0	0	0	12.29	2.36	0.02	378673	0	6262	228776	378673	372411	8952	25	230	65	226148	1839468	9272
180	2016-05-31 23:48:43	0	0	0	0	0	0	12.29	2.36	0.02	378891	0	6273	228776	378891	372618	8956	25	230	65	226148	1839502	9276
181	2016-05-31 23:58:43	0	0	0	0	0	0	12.32	2.36	0.02	379221	0	6286	229250	379221	372935	8968	25	231	65	226612	1839538	9289
182	2016-06-01 00:08:43	0	0	0	0	0	0	12.32	2.36	0.02	379397	0	6295	229250	379397	373102	8970	25	231	65	226612	1839573	9291
183	2016-06-01 00:18:42	0	0	0	0	0	0	12.33	2.36	0.02	379670	0	6301	229539	379670	373369	8973	25	231	65	226894	1839596	9294
184	2016-06-01 00:28:43	0	0	0	0	0	0	12.33	2.36	0.02	379782	0	6304	229539	379782	373478	8976	25	231	65	226894	1839612	9297
185	2016-06-01 00:38:42	0	0	0	0	0	0	12.33	2.36	0.02	380027	0	6309	229539	380027	373718	8980	25	231	65	226894	1839627	9301
186	2016-06-01 00:48:43	0	0	0	0	0	0	12.34	2.36	0.02	380149	0	6312	229539	380149	373837	8983	25	231	65	227094	1839635	9304
187	2016-06-01 00:58:42	0	0	0	0	0	0	12.34	2.36	0.02	380325	0	6314	229539	380325	374011	8989	25	231	65	227094	1839643	9310
188	2016-06-01 01:08:43	0	0	0	0	0	0	12.34	2.36	0.02	380477	0	6317	229539	380477	374160	8990	25	231	65	227094	1839650	9311
189	2016-06-01 01:18:43	0	0	0	0	0	0	12.34	2.36	0.02	380567	0	6320	229539	380567	374247	8992	25	231	65	227094	1839657	9313
190	2016-06-01 01:28:43	0	0	0	0	0	0	12.34	2.36	0.02	380718	0	6324	229539	380718	374394	8993	25	233	65	227094	1839661	9316
191	2016-06-01 01:38:42	0	0	0	0	0	0	12.34	2.36	0.02	380779	0	6325	229539	380779	374454	8996	25	233	65	227094	1839671	9319
192	2016-06-01 01:48:43	0	0	0	0	0	0	12.34	2.36	0.02	380894	0	6326	229539	380894	374568	8999	25	233	65	227094	1839675	9322
193	2016-06-01 01:58:43	0	0	0	0	0	0	12.34	2.36	0.02	380945	0	6327	229539	380945	374618	9000	25	233	65	227094	1839677	9323
194	2016-06-01 02:08:44	0	0	0	0	0	0	12.39	2.36	0.02	381049	0	6333	230050	381049	374716	9002	25	233	65	227594	1837374	9325
195	2016-06-01 02:18:44	0	0	0	0	0	0	12.39	2.36	0.02	381107	0	6336	230186	381107	374771	9003	25	233	65	227594	1837380	9326
196	2016-06-01 02:28:44	0	0	0	0	0	0	12.39	2.36	0.02	381216	0	6338	230186	381216	374878	9007	25	233	65	227594	1837384	9330
197	2016-06-01 02:38:43	0	0	0	0	0	0	12.39	2.36	0.02	381258	0	6338	230186	381258	374920	9007	25	233	65	227594	1837387	9330
198	2016-06-01 02:48:43	0	0	0	0	0	0	12.39	2.36	0.02	381339	0	6340	230186	381339	374999	9009	25	233	65	227594	1837389	9332
199	2016-06-01 02:58:44	0	0	0	0	0	0	12.4	2.36	0.02	381376	0	6340	230392	381376	375036	9009	25	233	65	227795	1837393	9332
200	2016-06-01 03:08:43	0	0	0	0	0	0	12.4	2.36	0.02	381442	0	6343	230392	381442	375099	9012	25	233	65	227795	1837391	9335
201	2016-06-01 03:18:43	0	0	0	0	0	0	12.4	2.36	0.02	381465	0	6343	230392	381465	375122	9014	25	233	65	227795	1837393	9337
202	2016-06-01 03:28:43	0	0	0	0	0	0	12.4	2.36	0.02	381533	0	6345	230392	381533	375188	9017	25	233	65	227795	1837394	9340
203	2016-06-01 03:38:43	0	0	0	0	0	0	12.4	2.36	0.02	381558	0	6345	230392	381558	375213	9017	25	233	65	227795	1837397	9340
204	2016-06-01 03:48:42	0	0	0	0	0	0	12.4	2.36	0.02	381594	0	6346	230392	381594	375248	9018	25	233	65	227795	1837399	9341
205	2016-06-01 03:58:43	0	0	0	0	0	0	12.4	2.36	0.02	381616	0	6346	230392	381616	375270	9018	25	233	65	227795	1837401	9341
206	2016-06-01 04:08:44	0	0	0	0	0	0	12.4	2.36	0.02	381649	0	6346	230443	381649	375303	9019	25	233	65	227846	1837403	9342
207	2016-06-01 04:18:42	0	0	0	0	0	0	12.4	2.36	0.02	381664	0	6346	230443	381664	375318	9019	25	233	65	227846	1837405	9342
208	2016-06-01 04:28:43	0	0	0	0	0	0	12.4	2.36	0.02	381692	0	6347	230443	381692	375345	9021	25	233	65	227846	1837406	9344
209	2016-06-01 04:38:43	0	0	0	0	0	0	12.4	2.36	0.02	381707	0	6348	230443	381707	375359	9021	25	233	65	227846	1837409	9344
210	2016-06-01 04:48:43	0	0	0	0	0	0	12.4	2.36	0.02	381729	0	6348	230443	381729	375381	9023	25	233	65	227846	1837411	9346
211	2016-06-01 04:58:43	0	0	0	0	0	0	12.4	2.36	0.02	381738	0	6348	230443	381738	375390	9023	25	234	65	227846	1837410	9347
212	2016-06-01 05:08:43	0	0	0	0	0	0	12.4	2.36	0.02	381746	0	6349	230443	381746	375397	9026	25	234	65	227846	1837411	9350
213	2016-06-01 05:18:43	0	0	0	0	0	0	12.4	2.36	0.02	381753	0	6349	230443	381753	375404	9026	25	234	65	227846	1837411	9350
214	2016-06-01 05:28:43	0	0	0	0	0	0	12.4	2.36	0.02	381768	0	6349	230443	381768	375419	9026	25	234	65	227846	1837412	9350
215	2016-06-01 05:38:43	0	0	0	0	0	0	12.4	2.36	0.02	381780	0	6350	230443	381780	375430	9027	25	234	65	227846	1837415	9351
216	2016-06-01 05:48:44	0	0	0	0	0	0	12.4	2.36	0.02	381799	0	6350	230443	381799	375449	9027	25	234	65	227846	1837419	9351
217	2016-06-01 05:58:43	0	0	0	0	0	0	12.4	2.36	0.02	381815	0	6351	230443	381815	375464	9027	25	234	65	227846	1837422	9351
218	2016-06-01 06:08:43	0	0	0	0	0	0	12.4	2.36	0.02	381824	0	6353	230443	381824	375471	9028	25	234	65	227846	1837426	9352
219	2016-06-01 06:18:43	0	0	0	0	0	0	12.4	2.36	0.02	381857	0	6357	230443	381857	375500	9029	25	234	65	227846	1837428	9353
220	2016-06-01 06:28:44	0	0	0	0	0	0	12.41	2.36	0.02	381875	0	6359	230546	381875	375516	9029	25	234	65	227946	1837434	9353
221	2016-06-01 06:38:44	0	0	0	0	0	0	12.41	2.36	0.02	381903	0	6361	230546	381903	375542	9029	25	234	65	227946	1837439	9353
222	2016-06-01 06:48:44	0	0	0	0	0	0	12.41	2.37	0.02	381944	0	6364	230546	381944	375580	9033	25	234	65	227946	1837442	9357
223	2016-06-01 06:58:44	0	0	0	0	0	0	12.41	2.36	0.02	381965	0	6366	230546	381965	375599	9033	25	234	65	227946	1837447	9357
224	2016-06-01 07:08:44	0	0	0	0	0	0	12.41	2.36	0.02	382014	0	6375	230546	382014	375639	9033	25	234	65	227946	1837455	9357
225	2016-06-01 07:18:45	0	0	0	0	0	0	12.41	2.36	0.02	382064	0	6381	230546	382064	375683	9034	25	234	65	227946	1837462	9358
226	2016-06-01 07:28:44	0	0	0	0	0	0	12.41	2.36	0.02	382090	0	6387	230546	382090	375703	9035	25	234	65	227946	1837471	9359
227	2016-06-01 07:38:45	0	0	0	0	0	0	12.41	2.36	0.02	382147	0	6392	230546	382147	375755	9036	25	234	65	227946	1837482	9360
228	2016-06-01 07:48:44	0	0	0	0	0	0	12.41	2.36	0.02	382174	0	6397	230546	382174	375777	9036	25	234	65	227946	1837489	9360
229	2016-06-01 07:58:44	0	0	0	0	0	0	12.41	2.36	0.02	382242	0	6404	230615	382242	375838	9037	25	234	65	227946	1837497	9361
230	2016-06-01 08:08:45	0	0	0	0	0	0	12.41	2.36	0.02	382270	0	6406	230744	382270	375864	9038	25	234	65	228072	1837507	9362
231	2016-06-01 08:18:44	0	0	0	0	0	0	12.42	2.36	0.02	382326	0	6408	230847	382326	375918	9038	25	234	65	228173	1837518	9362
232	2016-06-01 08:28:45	0	0	0	0	0	0	12.42	2.36	0.02	382352	0	6410	230847	382352	375942	9039	26	234	65	228173	1837525	9364
233	2016-06-01 08:38:45	0	0	0	0	0	0	12.42	2.36	0.02	382400	0	6416	230847	382400	375984	9042	26	234	65	228173	1837533	9367
234	2016-06-01 08:48:45	0	0	0	0	0	0	12.42	2.36	0.02	382428	0	6419	231105	382428	376009	9043	26	234	65	228173	1837543	9368
235	2016-06-01 08:58:46	0	0	0	0	0	0	12.42	2.37	0.02	382481	0	6421	231105	382481	376060	9046	26	234	65	228173	1837554	9371
236	2016-06-01 09:08:45	0	0	0	0	0	0	12.42	2.37	0.02	382508	0	6423	231105	382508	376085	9048	26	234	65	228173	1837562	9373
237	2016-06-01 09:18:45	0	0	0	0	0	0	12.42	2.37	0.02	382550	0	6426	231105	382550	376124	9049	26	234	65	228173	1837578	9374
238	2016-06-01 09:28:45	0	0	0	0	0	0	12.42	2.37	0.02	382579	0	6429	231105	382579	376150	9049	26	234	65	228173	1837591	9374
239	2016-06-01 09:38:46	0	0	0	0	0	0	12.42	2.37	0.02	382624	0	6433	231105	382624	376191	9050	26	234	65	228173	1837600	9375
240	2016-06-01 09:48:45	0	0	0	0	0	0	12.42	2.37	0.02	382649	0	6433	231105	382649	376216	9052	26	234	65	228173	1837609	9377
241	2016-06-01 09:58:47	0	0	0	0	0	0	12.42	2.37	0.02	382681	0	6435	231105	382681	376246	9052	26	234	65	228173	1837618	9377
242	2016-06-01 10:08:57	0	0	0	0	0	0	12.42	2.37	0.02	382705	0	6438	231105	382705	376267	9052	26	234	65	228173	1837629	9377
243	2016-06-01 10:18:48	0	0	0	0	0	0	12.42	2.37	0.02	382720	0	6440	231105	382720	376280	9054	26	234	65	228173	1837639	9379
244	2016-06-01 10:28:46	0	0	0	0	0	0	12.42	2.37	0.02	382755	0	6442	231105	382755	376313	9056	26	234	65	228173	1837647	9381
245	2016-06-01 10:38:47	0	0	0	0	0	0	12.42	2.37	0.02	382782	0	6445	231105	382782	376337	9056	26	234	65	228173	1837656	9381
246	2016-06-01 10:48:47	0	0	0	0	0	0	12.42	2.37	0.02	382797	0	6447	231105	382797	376350	9057	26	234	65	228173	1837668	9382
247	2016-06-01 10:58:50	0	0	0	0	0	0	12.42	2.37	0.02	382817	0	6451	231105	382817	376366	9057	26	234	65	228173	1837689	9382
248	2016-06-01 11:08:49	0	0	0	0	0	0	12.42	2.37	0.02	382849	0	6453	231105	382849	376396	9058	26	234	65	228173	1837697	9383
249	2016-06-01 11:18:55	0	0	0	0	0	0	12.42	2.37	0.02	382870	0	6455	231105	382870	376415	9060	26	234	65	228173	1837712	9385
250	2016-06-01 11:28:48	0	0	0	0	0	0	12.42	2.37	0.02	382883	0	6456	231105	382883	376427	9060	26	234	65	228173	1837724	9385
251	2016-06-01 11:38:51	0	0	0	0	0	0	12.42	2.37	0.02	382919	0	6460	231105	382919	376459	9060	26	234	65	228173	1837737	9385
252	2016-06-01 11:48:49	0	0	0	0	0	0	12.42	2.37	0.02	382946	0	6463	231105	382946	376483	9061	26	234	65	228173	1837750	9386
253	2016-06-01 11:58:55	0	0	0	0	0	0	12.42	2.37	0.02	382957	0	6464	231105	382957	376493	9061	26	234	65	228173	1837760	9386
254	2016-06-01 12:09:02	0	0	0	0	0	0	12.42	2.37	0.02	382980	0	6469	231105	382980	376511	9061	26	234	65	228173	1837773	9386
255	2016-06-01 12:18:49	0	0	0	0	0	0	12.42	2.37	0.02	382999	0	6471	231105	382999	376528	9061	26	234	65	228173	1837780	9386
256	2016-06-01 12:28:54	0	0	0	0	0	0	12.42	2.37	0.02	383023	0	6477	231105	383023	376546	9061	26	234	65	228173	1837791	9386
257	2016-06-01 12:38:53	0	0	0	0	0	0	12.42	2.37	0.02	383049	0	6480	231105	383049	376569	9061	26	234	65	228173	1837805	9386
258	2016-06-01 12:48:51	0	0	0	0	0	0	12.42	2.37	0.02	383056	0	6481	231105	383056	376575	9061	26	234	65	228173	1837820	9386
259	2016-06-01 12:58:51	0	0	0	0	0	0	12.42	2.37	0.02	383075	0	6485	231105	383075	376590	9061	26	234	65	228173	1837837	9386
260	2016-06-01 13:08:50	0	0	0	0	0	0	12.42	2.37	0.02	383086	0	6488	231105	383086	376598	9061	26	234	65	228173	1837855	9386
261	2016-06-01 13:18:50	0	0	0	0	0	0	12.42	2.37	0.02	383100	0	6490	231105	383100	376610	9061	26	234	65	228173	1837869	9386
262	2016-06-01 13:28:51	0	0	0	0	0	0	12.41	2.37	0.02	383115	0	6490	231105	383115	376624	9061	26	234	65	228173	1837883	9386
263	2016-06-01 13:38:51	0	0	0	0	0	0	12.41	2.37	0.02	383123	0	6493	231105	383123	376630	9061	26	234	65	228173	1837902	9386
264	2016-06-01 13:48:52	0	0	0	0	0	0	12.41	2.36	0.02	383130	0	6493	231105	383130	376637	9061	26	234	65	228173	1837928	9386
265	2016-06-01 13:58:52	0	0	0	0	0	0	12.41	2.36	0.02	383152	0	6493	231105	383152	376659	9061	26	234	65	228173	1837950	9386
266	2016-06-01 14:08:53	0	0	0	0	0	0	12.41	2.36	0.02	383163	0	6494	231105	383163	376669	9061	26	234	65	228173	1837975	9386
267	2016-06-01 14:18:57	0	0	0	0	0	0	12.41	2.36	0.02	383181	0	6498	231105	383181	376683	9061	26	234	65	228173	1837991	9386
268	2016-06-01 14:28:51	0	0	0	0	0	0	12.41	2.36	0.02	383196	0	6498	231105	383196	376698	9061	26	234	65	228173	1838008	9386
269	2016-06-01 14:38:53	0	0	0	0	0	0	12.41	2.36	0.02	383204	0	6501	231105	383204	376703	9062	26	234	65	228173	1838026	9387
270	2016-06-01 14:48:53	0	0	0	0	0	0	12.41	2.37	0.02	383227	0	6502	231105	383227	376725	9064	26	234	65	228173	1838047	9389
271	2016-06-01 14:58:54	0	0	0	0	0	0	12.41	2.37	0.02	383238	0	6502	231105	383238	376736	9064	26	234	65	228173	1838061	9389
272	2016-06-01 15:08:58	0	0	0	0	0	0	12.41	2.36	0.02	383258	0	6502	231105	383258	376756	9064	26	234	65	228173	1838070	9389
273	2016-06-01 15:18:53	0	0	0	0	0	0	12.41	2.36	0.02	383264	0	6503	231105	383264	376761	9064	26	234	65	228173	1838093	9389
274	2016-06-01 15:28:53	0	0	0	0	0	0	12.41	2.36	0.02	383276	0	6505	231105	383276	376771	9064	26	234	65	228173	1838110	9389
275	2016-06-01 15:38:53	0	0	0	0	0	0	12.41	2.36	0.02	383284	0	6505	231105	383284	376779	9064	26	234	65	228173	1838123	9389
276	2016-06-01 15:48:55	0	0	0	0	0	0	12.41	2.36	0.02	383302	0	6505	231105	383302	376797	9064	26	234	65	228173	1838155	9389
277	2016-06-01 15:58:55	0	0	0	0	0	0	12.41	2.36	0.02	383308	0	6506	231105	383308	376802	9064	26	234	65	228173	1838193	9389
278	2016-06-01 16:08:54	0	0	0	0	0	0	12.41	2.36	0.02	383316	0	6507	231105	383316	376809	9064	26	234	65	228173	1838226	9389
279	2016-06-01 16:18:54	0	0	0	0	0	0	12.41	2.36	0.02	383323	0	6507	231105	383323	376816	9064	26	234	65	228173	1838264	9389
280	2016-06-01 16:28:54	0	0	0	0	0	0	12.41	2.36	0.02	383335	0	6509	231105	383335	376826	9064	26	234	65	228173	1838298	9389
281	2016-06-01 16:38:54	0	0	0	0	0	0	12.41	2.36	0.02	383338	0	6510	231105	383338	376828	9064	26	234	65	228173	1838324	9389
282	2016-06-01 16:48:57	0	0	0	0	0	0	12.41	2.36	0.02	383350	0	6511	231105	383350	376839	9064	26	234	65	228173	1838360	9389
283	2016-06-01 16:58:58	0	0	0	0	0	0	12.41	2.36	0.02	383356	0	6511	231105	383356	376845	9064	26	234	65	228173	1838385	9389
284	2016-06-01 17:09:01	0	0	0	0	0	0	12.41	2.36	0.02	383367	0	6512	231105	383367	376855	9064	26	234	65	228173	1838412	9389
285	2016-06-01 17:18:51	0	0	0	0	0	0	12.41	2.36	0.02	383376	0	6513	231105	383376	376863	9064	26	234	65	228173	1838441	9389
286	2016-06-01 17:28:51	0	0	0	0	0	0	12.41	2.36	0.02	383382	0	6514	231105	383382	376868	9064	26	234	65	228173	1838458	9389
287	2016-06-01 17:38:51	0	0	0	0	0	0	12.41	2.36	0.02	383384	0	6514	231105	383384	376870	9064	26	234	65	228173	1838485	9389
288	2016-06-01 17:48:51	0	0	0	0	0	0	12.41	2.36	0.02	383399	0	6514	231105	383399	376885	9064	26	234	65	228173	1838519	9389
289	2016-06-01 17:58:52	0	0	0	0	0	0	12.41	2.36	0.02	383407	0	6514	231105	383407	376893	9064	26	234	65	228173	1838546	9389
290	2016-06-01 18:08:51	0	0	0	0	0	0	12.41	2.36	0.02	383412	0	6515	231105	383412	376897	9064	26	234	65	228173	1838572	9389
291	2016-06-01 18:18:52	0	0	0	0	0	0	12.41	2.36	0.02	383415	0	6515	231105	383415	376900	9064	26	234	65	228173	1838600	9389
292	2016-06-01 18:28:51	0	0	0	0	0	0	12.41	2.36	0.02	383431	0	6515	231105	383431	376916	9064	26	234	65	228173	1838631	9389
293	2016-06-01 18:38:51	0	0	0	0	0	0	12.41	2.36	0.02	383443	0	6516	231105	383443	376927	9064	26	234	65	228173	1838651	9389
294	2016-06-01 18:48:52	0	0	0	0	0	0	12.41	2.36	0.02	383448	0	6516	231105	383448	376932	9065	26	234	65	228173	1838676	9390
295	2016-06-01 18:58:56	0	0	0	0	0	0	12.41	2.36	0.02	383461	0	6516	231105	383461	376945	9065	26	234	65	228173	1838709	9390
296	2016-06-01 19:08:53	0	0	0	0	0	0	12.41	2.36	0.02	383465	0	6516	231105	383465	376949	9065	26	234	65	228173	1838731	9390
297	2016-06-01 19:18:54	0	0	0	0	0	0	12.41	2.36	0.02	383478	0	6516	231105	383478	376962	9065	26	234	65	228173	1838752	9390
298	2016-06-01 19:28:53	0	0	0	0	0	0	12.41	2.36	0.02	383490	0	6518	231105	383490	376972	9065	26	234	65	228173	1838776	9390
299	2016-06-01 19:38:57	0	0	0	0	0	0	12.41	2.36	0.02	383492	0	6518	231105	383492	376974	9065	26	234	65	228173	1838794	9390
300	2016-06-01 19:48:55	0	0	0	0	0	0	12.41	2.36	0.02	383505	0	6521	231105	383505	376984	9065	26	234	65	228173	1838817	9390
301	2016-06-01 19:58:54	0	0	0	0	0	0	12.41	2.36	0.02	383507	0	6521	231105	383507	376986	9065	26	234	65	228173	1838838	9390
302	2016-06-01 20:08:55	0	0	0	0	0	0	12.41	2.36	0.02	383523	0	6521	231105	383523	377002	9065	26	234	65	228173	1838861	9390
303	2016-06-01 20:28:55	0	0	0	0	0	0	12.41	2.36	0.02	383534	0	6522	231105	383534	377012	9065	26	234	65	228173	1838891	9390
304	2016-06-01 20:38:57	0	0	0	0	0	0	12.41	2.36	0.02	383537	0	6522	231105	383537	377015	9065	26	234	65	228173	1838922	9390
305	2016-06-01 20:48:56	0	0	0	0	0	0	12.41	2.36	0.02	383543	0	6524	231105	383543	377019	9065	26	234	65	228173	1838943	9390
306	2016-06-01 20:58:59	0	0	0	0	0	0	12.41	2.36	0.02	383547	0	6524	231105	383547	377023	9065	26	234	65	228173	1838963	9390
307	2016-06-01 21:08:56	0	0	0	0	0	0	12.41	2.36	0.02	383563	0	6524	231105	383563	377039	9065	26	234	65	228173	1838987	9390
308	2016-06-01 21:18:55	0	0	0	0	0	0	12.41	2.36	0.02	383565	0	6524	231105	383565	377041	9065	26	234	65	228173	1839018	9390
309	2016-06-01 21:28:54	0	0	0	0	0	0	12.41	2.36	0.02	383574	0	6525	231105	383574	377049	9066	26	234	65	228173	1839038	9391
310	2016-06-01 21:38:56	0	0	0	0	0	0	12.41	2.36	0.02	383593	0	6525	231105	383593	377068	9066	26	234	65	228173	1839059	9391
311	2016-06-01 21:48:56	0	0	0	0	0	0	12.41	2.36	0.02	383597	0	6526	231105	383597	377071	9067	26	234	65	228173	1839084	9392
312	2016-06-01 21:58:56	0	0	0	0	0	0	12.41	2.36	0.02	383605	0	6527	231105	383605	377078	9067	26	234	65	228173	1839112	9392
313	2016-06-01 22:08:55	0	0	0	0	0	0	12.41	2.36	0.02	383608	0	6527	231105	383608	377081	9068	26	234	65	228173	1839133	9393
314	2016-06-01 22:18:54	0	0	0	0	0	0	12.41	2.36	0.02	383612	0	6527	231105	383612	377085	9068	26	234	65	228173	1839160	9393
315	2016-06-01 22:28:55	0	0	0	0	0	0	12.41	2.36	0.02	383618	0	6527	231105	383618	377091	9068	26	234	65	228173	1839183	9393
316	2016-06-01 22:38:55	0	0	0	0	0	0	12.41	2.36	0.02	383624	0	6527	231105	383624	377097	9068	26	234	65	228173	1839217	9393
317	2016-06-01 22:48:55	0	0	0	0	0	0	12.41	2.36	0.02	383631	0	6527	231105	383631	377104	9068	26	234	65	228173	1839235	9393
318	2016-06-01 22:58:55	0	0	0	0	0	0	12.41	2.36	0.02	383641	0	6528	231105	383641	377113	9069	26	234	65	228173	1839261	9394
319	2016-06-01 23:08:56	0	0	0	0	0	0	12.41	2.36	0.02	383644	0	6528	231105	383644	377116	9069	26	234	65	228173	1839289	9394
320	2016-06-01 23:18:55	0	0	0	0	0	0	12.41	2.36	0.02	383652	0	6529	231105	383652	377123	9069	26	234	65	228173	1839307	9394
321	2016-06-01 23:28:55	0	0	0	0	0	0	12.41	2.36	0.02	383655	0	6529	231105	383655	377126	9069	26	234	65	228173	1839324	9394
322	2016-06-01 23:38:55	0	0	0	0	0	0	12.41	2.36	0.02	383661	0	6529	231105	383661	377132	9069	26	234	65	228173	1839350	9394
323	2016-06-01 23:48:54	0	0	0	0	0	0	12.4	2.36	0.02	383665	0	6529	231105	383665	377136	9069	26	234	65	228173	1839365	9394
324	2016-06-01 23:58:54	0	0	0	0	0	0	12.4	2.36	0.02	383674	0	6529	231105	383674	377145	9070	26	234	65	228173	1839377	9395
325	2016-06-02 00:08:53	0	0	0	0	0	0	12.4	2.36	0.02	383677	0	6529	231105	383677	377148	9070	26	234	65	228173	1839387	9395
326	2016-06-02 00:18:55	0	0	0	0	0	0	12.4	2.36	0.02	383681	0	6529	231105	383681	377152	9071	26	234	65	228173	1839392	9396
327	2016-06-02 00:28:54	0	0	0	0	0	0	12.4	2.36	0.02	383685	0	6529	231105	383685	377156	9071	26	234	65	228173	1839402	9396
328	2016-06-02 00:38:55	0	0	0	0	0	0	12.4	2.36	0.02	383690	0	6529	231105	383690	377161	9071	26	234	65	228173	1839413	9396
329	2016-06-02 00:48:55	0	0	0	0	0	0	12.4	2.36	0.02	383691	0	6529	231105	383691	377162	9071	26	234	65	228173	1839417	9396
330	2016-06-02 00:58:54	0	0	0	0	0	0	12.4	2.36	0.02	383692	0	6529	231105	383692	377163	9071	26	234	65	228173	1839421	9396
331	2016-06-02 01:08:54	0	0	0	0	0	0	12.4	2.36	0.02	383696	0	6529	231105	383696	377167	9071	26	234	65	228173	1839426	9396
332	2016-06-02 01:18:54	0	0	0	0	0	0	12.4	2.36	0.02	383697	0	6529	231105	383697	377168	9071	26	234	65	228173	1839430	9396
333	2016-06-02 01:28:54	0	0	0	0	0	0	12.4	2.36	0.02	383697	0	6529	231105	383697	377168	9071	26	234	65	228173	1839438	9396
334	2016-06-02 01:38:54	0	0	0	0	0	0	12.4	2.36	0.02	383699	0	6529	231105	383699	377170	9071	26	234	65	228173	1839444	9396
335	2016-06-02 01:48:54	0	0	0	0	0	0	12.4	2.36	0.02	383700	0	6529	231105	383700	377171	9071	26	234	65	228173	1839448	9396
336	2016-06-02 01:58:53	0	0	0	0	0	0	12.4	2.36	0.02	383700	0	6529	231105	383700	377171	9071	26	234	65	228173	1839449	9396
337	2016-06-02 02:08:55	0	0	0	0	0	0	12.41	2.36	0.02	383700	0	6529	231105	383700	377171	9071	26	234	65	228173	1838313	9396
338	2016-06-02 02:18:55	0	0	0	0	0	0	12.41	2.36	0.02	383703	0	6529	231105	383703	377174	9071	26	234	65	228173	1838316	9396
339	2016-06-02 02:28:54	0	0	0	0	0	0	12.41	2.36	0.02	383706	0	6529	231105	383706	377177	9071	26	234	65	228173	1838317	9396
340	2016-06-02 02:38:54	0	0	0	0	0	0	12.41	2.36	0.02	383710	0	6529	231105	383710	377181	9071	26	234	65	228173	1838317	9396
341	2016-06-02 02:48:54	0	0	0	0	0	0	12.41	2.36	0.02	383712	0	6529	231105	383712	377183	9071	26	235	65	228173	1838320	9397
342	2016-06-02 02:58:53	0	0	0	0	0	0	12.41	2.36	0.02	383715	0	6530	231105	383715	377185	9071	26	235	65	228173	1838323	9397
343	2016-06-02 03:08:53	0	0	0	0	0	0	12.41	2.36	0.02	383715	0	6530	231105	383715	377185	9071	26	235	65	228173	1838326	9397
344	2016-06-02 03:18:54	0	0	0	0	0	0	12.41	2.36	0.02	383715	0	6530	231105	383715	377185	9071	26	235	65	228173	1838328	9397
345	2016-06-02 03:28:54	0	0	0	0	0	0	12.41	2.36	0.02	383716	0	6530	231105	383716	377186	9071	26	235	65	228173	1838327	9397
346	2016-06-02 03:38:53	0	0	0	0	0	0	12.41	2.36	0.02	383719	0	6531	231105	383719	377188	9071	26	235	65	228173	1838329	9397
347	2016-06-02 03:48:54	0	0	0	0	0	0	12.41	2.36	0.02	383719	0	6531	231105	383719	377188	9071	26	235	65	228173	1838327	9397
348	2016-06-02 03:58:53	0	0	0	0	0	0	12.41	2.36	0.02	383721	0	6531	231105	383721	377190	9071	26	235	65	228173	1838326	9397
349	2016-06-02 04:08:54	0	0	0	0	0	0	12.41	2.36	0.02	383723	0	6532	231105	383723	377191	9071	26	235	65	228173	1838328	9397
350	2016-06-02 04:18:54	0	0	0	0	0	0	12.41	2.36	0.02	383724	0	6532	231105	383724	377192	9071	26	235	65	228173	1838331	9397
351	2016-06-02 04:28:53	0	0	0	0	0	0	12.41	2.36	0.02	383724	0	6532	231105	383724	377192	9071	26	235	65	228173	1838330	9397
352	2016-06-02 04:38:54	0	0	0	0	0	0	12.41	2.36	0.02	383724	0	6532	231105	383724	377192	9071	26	235	65	228173	1838333	9397
353	2016-06-02 04:48:54	0	0	0	0	0	0	12.41	2.36	0.02	383726	0	6532	231105	383726	377194	9071	26	235	65	228173	1838334	9397
354	2016-06-02 04:58:54	0	0	0	0	0	0	12.41	2.36	0.02	383727	0	6532	231105	383727	377195	9071	26	235	65	228173	1838337	9397
355	2016-06-02 05:08:54	0	0	0	0	0	0	12.41	2.36	0.02	383727	0	6532	231105	383727	377195	9071	26	235	65	228173	1838338	9397
356	2016-06-02 05:18:53	0	0	0	0	0	0	12.41	2.36	0.02	383728	0	6532	231105	383728	377196	9071	26	235	65	228173	1838344	9397
357	2016-06-02 05:28:55	0	0	0	0	0	0	12.41	2.36	0.02	383728	0	6532	231105	383728	377196	9071	26	235	65	228173	1838348	9397
358	2016-06-02 05:38:54	0	0	0	0	0	0	12.41	2.36	0.02	383728	0	6532	231105	383728	377196	9071	26	235	65	228173	1838350	9397
359	2016-06-02 05:48:55	0	0	0	0	0	0	12.41	2.36	0.02	383728	0	6532	231105	383728	377196	9071	26	235	65	228173	1838353	9397
360	2016-06-02 05:58:55	0	0	0	0	0	0	12.41	2.36	0.02	383728	0	6532	231105	383728	377196	9071	26	235	65	228173	1838357	9397
361	2016-06-02 06:09:02	0	0	0	0	0	0	12.41	2.36	0.02	383728	0	6532	231105	383728	377196	9071	26	235	65	228173	1838357	9397
362	2016-06-02 06:19:05	0	0	0	0	0	0	12.41	2.36	0.02	383728	0	6532	231105	383728	377196	9071	26	235	65	228173	1838357	9397
363	2016-06-02 06:28:58	0	0	0	0	0	0	12.41	2.36	0.02	383728	0	6532	231105	383728	377196	9071	26	235	65	228173	1838360	9397
364	2016-06-02 06:38:56	0	0	0	0	0	0	12.41	2.36	0.02	383729	0	6532	231105	383729	377197	9071	26	235	65	228173	1838366	9397
365	2016-06-02 06:48:59	0	0	0	0	0	0	12.41	2.36	0.02	383729	0	6532	231105	383729	377197	9071	26	235	65	228173	1838377	9397
366	2016-06-02 06:58:54	0	0	0	0	0	0	12.41	2.36	0.02	383729	0	6532	231105	383729	377197	9071	26	235	65	228173	1838379	9397
367	2016-06-02 07:08:56	0	0	0	0	0	0	12.41	2.36	0.02	383729	0	6532	231105	383729	377197	9071	26	235	65	228173	1838383	9397
368	2016-06-02 07:18:55	0	0	0	0	0	0	12.41	2.36	0.02	383730	0	6532	231105	383730	377198	9071	26	235	65	228173	1838386	9397
369	2016-06-02 07:28:56	0	0	0	0	0	0	12.41	2.36	0.02	383731	0	6532	231105	383731	377199	9071	26	235	65	228173	1838394	9397
370	2016-06-02 07:38:56	0	0	0	0	0	0	12.41	2.36	0.02	383731	0	6532	231105	383731	377199	9071	26	235	65	228173	1838404	9397
371	2016-06-02 07:48:57	0	0	0	0	0	0	12.41	2.36	0.02	383734	0	6533	231105	383734	377201	9071	26	235	65	228173	1838414	9397
372	2016-06-02 07:58:56	0	0	0	0	0	0	12.41	2.36	0.02	383734	0	6533	231105	383734	377201	9071	26	235	65	228173	1838423	9397
373	2016-06-02 08:09:06	0	0	0	0	0	0	12.41	2.36	0.02	383734	0	6533	231105	383734	377201	9071	26	235	65	228173	1838430	9397
374	2016-06-02 08:18:55	0	0	0	0	0	0	12.41	2.36	0.02	383738	0	6533	231105	383738	377205	9071	26	235	65	228173	1838441	9397
375	2016-06-02 08:28:56	0	0	0	0	0	0	12.41	2.36	0.02	383739	0	6533	231105	383739	377206	9071	26	235	65	228173	1838454	9397
376	2016-06-02 08:38:56	0	0	0	0	0	0	12.41	2.36	0.02	383740	0	6533	231105	383740	377207	9071	26	235	65	228173	1838464	9397
377	2016-06-02 08:48:57	0	0	0	0	0	0	12.41	2.36	0.02	383742	0	6533	231105	383742	377209	9071	26	235	65	228173	1838473	9397
378	2016-06-02 08:59:00	0	0	0	0	0	0	12.41	2.36	0.02	383742	0	6533	231105	383742	377209	9071	26	235	65	228173	1838482	9397
379	2016-06-02 09:08:58	0	0	0	0	0	0	12.41	2.36	0.02	383744	0	6533	231105	383744	377211	9071	26	235	65	228173	1838503	9397
380	2016-06-02 09:19:01	0	0	0	0	0	0	12.41	2.36	0.02	383750	0	6533	231105	383750	377217	9071	26	235	65	228173	1838510	9397
381	2016-06-02 09:29:07	0	0	0	0	0	0	12.41	2.36	0.02	383750	0	6533	231105	383750	377217	9071	26	235	65	228173	1838523	9397
382	2016-06-02 09:39:18	0	0	0	0	0	0	12.41	2.36	0.02	383751	0	6534	231105	383751	377217	9071	26	235	65	228173	1838540	9397
383	2016-06-02 09:48:56	0	0	0	0	0	0	12.41	2.36	0.02	383754	0	6535	231105	383754	377219	9071	26	235	65	228173	1838552	9397
384	2016-06-02 09:58:57	0	0	0	0	0	0	12.41	2.36	0.02	383754	0	6535	231105	383754	377219	9071	26	235	65	228173	1838559	9397
385	2016-06-02 10:07:38	0	0	0	0	0	0	12.41	2.36	0.02	383756	0	6535	231105	383756	377221	9071	26	235	65	228173	1838571	9397
386	2016-06-02 10:17:36	0	0	0	0	0	0	12.41	2.36	0.02	383756	0	6535	231105	383756	377221	9071	26	235	65	228173	1838582	9397
387	2016-06-02 10:27:38	0	0	0	0	0	0	12.41	2.36	0.02	383757	0	6535	231105	383757	377222	9071	26	235	65	228173	1838595	9397
388	2016-06-02 10:37:38	0	0	0	0	0	0	12.41	2.36	0.02	383758	0	6535	231105	383758	377223	9071	26	235	65	228173	1838603	9397
389	2016-06-02 10:47:38	0	0	0	0	0	0	12.41	2.36	0.02	383764	0	6535	231105	383764	377229	9071	26	235	65	228173	1838613	9397
