1	2018-05-10 12:03:10		0	0	0	0	0	0	0.03	6.25	0	1616	0	3	1288	1616	1616	101	2	20	2	1231	3736158	125
2	2018-05-10 12:13:29		0	0	0	0	0	0	0.09	6.63	0	5098	0	16	3678	5098	5098	338	4	29	3	3510	3736205	374
3	2018-05-10 12:23:10		0	0	0	0	0	0	0.15	6.59	0	8182	0	23	6000	8182	8182	539	5	42	3	5713	3736267	589
4	2018-05-10 12:29:28		0	0	0	0	0	0	0.17	6.59	0	9374	0	26	6793	9374	9374	618	5	48	3	6460	3736295	674
5	2018-05-10 12:39:28		0	0	0	0	0	0	0.2	6.8	0	10895	0	40	8030	10895	10895	741	5	53	3	7604	3736344	802
6	2018-05-10 12:49:29		0	0	0	0	0	0	0.23	7.1	0	12304	0	44	9123	12304	12304	874	5	63	3	8630	3736395	945
7	2018-05-10 12:59:30		0	0	0	0	0	0	0.26	7.33	0	13696	0	51	10136	13696	13696	1004	7	73	3	9540	3736433	1087
8	2018-05-10 13:09:33		0	0	0	0	0	0	0.27	7.82	0	14838	0	56	10755	14838	14838	1160	7	80	3	10058	3736468	1250
9	2018-05-10 13:19:34		0	0	0	0	0	0	0.29	7.56	0	15789	0	57	11492	15789	15789	1194	7	85	3	10808	3736509	1289
10	2018-05-10 13:29:35		0	0	0	0	0	0	0.31	7.89	0	16992	0	60	12186	16992	16992	1340	7	94	4	11474	3736553	1445
11	2018-05-10 13:39:34		0	0	0	0	0	0	0.32	7.58	0	18264	0	63	12908	18264	18264	1384	7	100	4	12112	3736603	1495
12	2018-05-10 13:49:33		0	0	0	0	0	0	0.34	7.59	0	19419	0	66	13632	19419	19419	1474	7	103	4	12835	3736642	1588
13	2018-05-10 13:59:33		0	0	0	0	0	0	0.37	7.53	0	20581	0	69	14614	20581	20581	1549	7	111	4	13878	3736682	1671
14	2018-05-10 14:09:35		0	0	0	0	0	0	0.39	7.46	0	21626	0	70	15147	21626	21626	1614	7	113	5	14390	3736727	1739
15	2018-05-10 14:19:35		0	0	0	0	0	0	0.4	7.49	0	22468	0	73	15672	22468	22468	1683	7	113	5	14852	3736782	1808
16	2018-05-10 14:29:35		0	0	0	0	0	0	0.41	7.54	0	23351	0	82	16313	23351	23351	1761	7	116	5	15449	3736833	1889
17	2018-05-10 14:39:36		0	0	0	0	0	0	0.43	7.52	0	24147	0	88	17021	24147	24147	1815	7	119	5	16059	3736865	1946
18	2018-05-10 14:49:36		0	0	0	0	0	0	0.44	7.37	0	24894	0	91	17659	24894	24894	1835	7	121	5	16609	3736906	1968
19	2018-05-10 14:59:37		0	0	0	0	0	0	0.46	7.3	0	25610	0	94	18227	25610	25610	1870	8	125	5	17080	3736935	2008
20	2018-05-10 15:09:39		0	0	0	0	0	0	0.47	7.35	0	26319	0	97	18954	26319	26319	1934	8	127	6	17714	3736966	2075
21	2018-05-10 15:19:41		0	0	0	0	0	0	0.49	7.26	0	27001	0	102	19443	27001	27001	1961	8	129	6	18157	3737004	2104
22	2018-05-10 15:29:43		0	0	0	0	0	0	0.49	7.27	0	27671	0	108	19841	27671	27671	2012	8	132	7	18460	3737033	2159
23	2018-05-10 15:39:48		0	0	0	0	0	0	0.5	7.37	0	28343	0	108	20354	28343	28343	2090	8	133	7	18717	3737068	2238
24	2018-05-10 15:49:41		0	0	0	0	0	0	0.51	7.37	0	28947	0	114	20501	28947	28947	2133	8	134	8	19073	3737100	2283
25	2018-05-10 15:59:41		0	0	0	0	0	0	0.52	7.34	0	29603	0	118	21034	29603	29603	2173	8	138	8	19611	3737133	2327
26	2018-05-10 16:09:45		0	0	0	0	0	0	0.53	7.28	0	30236	0	122	21416	30236	30236	2202	8	139	8	19938	3737152	2357
27	2018-05-10 16:19:42		0	0	0	0	0	0	0.54	7.27	0	30774	0	122	21814	30774	30774	2238	8	140	8	20317	3737177	2394
28	2018-05-10 16:29:44		0	0	0	0	0	0	0.55	7.22	0	31306	0	123	22025	31306	31306	2260	8	143	9	20556	3737213	2420
29	2018-05-10 16:39:44		0	0	0	0	0	0	0.56	7.2	0	31930	0	128	22280	31930	31930	2300	8	145	9	20775	3737242	2462
30	2018-05-10 16:49:44		0	0	0	0	0	0	0.57	7.16	0	32562	0	128	22763	32562	32562	2330	8	147	9	21195	3737273	2494
31	2018-05-10 16:59:46		0	0	0	0	0	0	0.58	7.15	0	33207	0	131	23275	33207	33207	2375	8	148	9	21557	3737313	2540
32	2018-05-10 17:09:46		0	0	0	0	0	0	0.59	7.1	0	33713	0	131	23586	33713	33713	2393	8	150	9	21902	3737335	2560
33	2018-05-10 17:19:45		0	0	0	0	0	0	0.6	7.09	0	34552	0	132	24161	34552	34552	2449	8	153	9	22453	3737371	2619
34	2018-05-10 17:29:45		0	0	0	0	0	0	0.61	7.07	0	35135	0	134	24437	35135	35135	2484	8	155	9	22762	3737410	2656
35	2018-05-10 17:39:46		0	0	0	0	0	0	0.62	7.11	0	35477	0	135	24798	35477	35477	2522	8	156	9	23266	3737448	2695
36	2018-05-10 17:49:46		0	0	0	0	0	0	0.63	7.07	0	36120	0	138	25309	36120	36120	2554	8	157	9	23403	3737477	2728
37	2018-05-10 17:59:47		0	0	0	0	0	0	0.64	7.07	0	36764	0	142	25992	36764	36764	2598	8	160	9	24075	3737511	2775
38	2018-05-10 18:09:48		0	0	0	0	0	0	0.66	6.99	0	37602	0	143	26419	37602	37602	2628	8	162	9	24518	3737552	2807
39	2018-05-10 18:19:48		0	0	0	0	0	0	0.66	6.97	0	38126	0	143	26865	38126	38126	2657	9	164	9	24613	3737570	2839
40	2018-05-10 18:29:54		0	0	0	0	0	0	0.67	6.97	0	38600	0	149	27217	38600	38600	2691	9	165	9	25173	3737614	2874
41	2018-05-10 18:39:52		0	0	0	0	0	0	0.68	6.94	0	39084	0	151	27457	39084	39084	2712	9	166	9	25398	3737649	2896
42	2018-05-10 18:49:53		0	0	0	0	0	0	0.68	6.97	0	39314	0	151	27901	39314	39564	2742	9	168	9	25530	3737676	2928
43	2018-05-10 18:59:54		0	0	0	0	0	0	0.69	6.94	0	39799	0	151	28034	39799	39799	2762	9	169	9	25800	3737703	2949
44	2018-05-10 19:09:54		0	0	0	0	0	0	0.7	6.88	0	40358	0	155	28163	40358	40358	2778	9	169	9	25999	3737727	2965
45	2018-05-10 19:19:55		0	0	0	0	0	0	0.7	6.86	0	40756	0	157	28272	40756	40554	2797	9	170	9	26091	3737762	2985
46	2018-05-10 19:29:55		0	0	0	0	0	0	0.71	6.83	0	41209	0	161	28765	41209	41209	2816	9	171	9	26503	3737783	3005
47	2018-05-10 19:39:56		0	0	0	0	0	0	0.72	6.81	0	41650	0	164	29018	41650	41650	2835	9	173	9	26780	3737822	3026
48	2018-05-10 19:49:57		0	0	0	0	0	0	0.72	6.83	0	41840	0	172	29117	41840	41840	2857	9	174	9	26906	3737862	3049
49	2018-05-10 19:59:57		0	0	0	0	0	0	0.73	6.83	0	42218	0	176	29315	42218	42415	2882	9	177	9	27182	3737895	3077
50	2018-05-10 20:10:03		0	0	0	0	0	0	0.73	6.76	0	42839	0	176	29510	42839	42839	2897	9	177	9	27349	3737917	3092
51	2018-05-10 20:19:59		0	0	0	0	0	0	0.74	6.74	0	43221	0	180	29811	43221	43221	2915	9	177	9	27608	3737949	3110
52	2018-05-10 20:30:01		0	0	0	0	0	0	0.75	6.71	0	43672	0	180	30242	43672	43672	2932	9	177	9	27989	3737993	3127
53	2018-05-10 20:39:59		0	0	0	0	0	0	0.76	6.7	0	44069	0	181	30592	44069	44069	2953	9	177	10	28330	3738038	3149
54	2018-05-10 20:50:01		0	0	0	0	0	0	0.77	6.68	0	44451	0	184	30968	44451	44451	2971	9	180	10	28743	3738081	3170
55	2018-05-10 21:00:01		0	0	0	0	0	0	0.78	6.64	0	44865	0	190	31264	44865	44865	2980	9	181	10	29001	3738138	3180
56	2018-05-10 21:10:02		0	0	0	0	0	0	0.78	6.63	0	45212	0	190	31511	45212	45212	2996	9	181	10	29229	3738185	3196
57	2018-05-10 21:20:02		0	0	0	0	0	0	0.79	6.59	0	45607	0	194	31862	45607	45607	3005	9	182	10	29496	3738205	3206
58	2018-05-10 21:30:05		0	0	0	0	0	0	0.79	6.57	0	46058	0	196	32067	46058	46058	3024	9	182	10	29654	3738241	3225
59	2018-05-10 21:40:05		0	0	0	0	0	0	0.8	6.53	0	46536	0	197	32141	46536	46280	3038	9	184	10	29735	3738302	3241
60	2018-05-10 21:50:05		0	0	0	0	0	0	0.81	6.48	0	47055	0	201	32867	47055	47055	3050	9	185	10	30322	3738368	3254
61	2018-05-10 22:00:06		0	0	0	0	0	0	0.82	6.46	0	47523	0	201	33411	47523	47523	3070	9	187	10	30833	3738469	3276
62	2018-05-10 22:10:07		0	0	0	0	0	0	0.83	6.44	0	48034	0	203	33637	48034	48034	3094	9	188	10	30991	3738562	3301
63	2018-05-10 22:20:08		0	0	0	0	0	0	0.83	6.42	0	48522	0	207	33865	48522	48522	3116	10	189	10	31176	3738673	3325
64	2018-05-10 22:30:09		0	0	0	0	0	0	0.84	6.38	0	49060	0	210	34306	49060	49060	3132	10	192	10	31570	3738806	3344
65	2018-05-10 22:40:11		0	0	0	0	0	0	0.85	6.36	0	49570	0	213	34486	49570	49570	3155	10	193	11	31673	3738941	3369
66	2018-05-10 22:50:11		0	0	0	0	0	0	0.85	6.35	0	50069	0	215	34728	50069	50069	3177	10	194	11	31887	3739073	3392
67	2018-05-10 23:00:12		0	0	0	0	0	0	0.86	6.31	0	50546	0	219	35139	50546	50546	3189	10	195	11	32283	3739184	3405
68	2018-05-10 23:10:13		0	0	0	0	0	0	0.87	6.28	0	50962	0	226	35461	50962	50962	3201	10	196	11	32626	3739306	3418
69	2018-05-10 23:20:12		0	0	0	0	0	0	0.88	6.3	0	51192	0	232	35842	51192	51192	3227	10	197	11	32929	3739439	3445
70	2018-05-10 23:30:13		0	0	0	0	0	0	0.89	6.26	0	51833	0	237	36096	51833	51833	3245	10	199	11	33138	3739574	3465
71	2018-05-10 23:40:13		0	0	0	0	0	0	0.89	6.25	0	52065	0	239	36237	52065	52065	3254	10	199	11	33294	3739686	3474
72	2018-05-10 23:50:14		0	0	0	0	0	0	0.9	6.2	0	52642	0	240	36698	52642	52642	3265	10	199	11	33643	3739803	3485
73	2018-05-11 00:00:18		0	0	0	0	0	0	0.9	6.2	0	52995	0	243	36943	52995	52995	3284	10	200	11	33822	3739904	3505
74	2018-05-11 00:10:14		0	0	0	0	0	0	0.9	6.2	0	53174	0	243	36971	53174	53353	3296	10	201	11	33845	3740020	3518
75	2018-05-11 00:20:13		0	0	0	0	0	0	0.91	6.17	0	53530	0	243	37145	53530	53684	3302	10	203	11	33992	3740122	3526
76	2018-05-11 00:30:15		0	0	0	0	0	0	0.92	6.13	0	54037	0	247	37384	54037	54037	3314	10	204	11	34348	3740229	3539
77	2018-05-11 00:40:15		0	0	0	0	0	0	0.92	6.11	0	54293	0	247	37442	54293	54293	3320	10	206	11	34372	3740336	3547
78	2018-05-11 08:56:35		0	0	0	0	0	0	1.03	6.08	0	60954	0	278	42619	60954	60954	3707	10	215	11	38595	3742444	3943
79	2018-05-11 09:06:36		0	0	0	0	0	0	1.03	6.08	0	61235	0	278	42736	61235	61235	3721	10	217	11	38686	3742554	3959
80	2018-05-11 09:16:36		0	0	0	0	0	0	1.04	6.07	0	61542	0	282	42828	61542	61542	3738	10	217	11	38824	3742681	3976
81	2018-05-11 09:26:36		0	0	0	0	0	0	1.05	6.07	0	61826	0	282	43053	61826	61826	3754	10	218	11	39119	3742805	3993
82	2018-05-11 09:36:37		0	0	0	0	0	0	1.05	6.07	0	62099	0	282	43251	62099	62099	3767	10	218	11	39294	3742921	4006
83	2018-05-11 09:46:39		0	0	0	0	0	0	1.06	6.06	0	62338	0	283	43426	62338	62338	3779	10	219	11	39519	3743076	4019
84	2018-05-11 09:56:40		0	0	0	0	0	0	1.06	6.07	0	62596	0	284	43573	62596	62596	3797	10	219	11	39649	3743219	4037
85	2018-05-11 10:06:42		0	0	0	0	0	0	1.06	6.07	0	62856	0	284	43590	62856	62856	3817	10	220	11	39679	3743350	4058
86	2018-05-11 10:16:40		0	0	0	0	0	0	1.07	6.06	0	63145	0	284	43904	63145	63145	3828	10	221	11	39972	3743468	4070
87	2018-05-11 10:26:43		0	0	0	0	0	0	1.07	6.05	0	63377	0	284	44155	63377	63377	3837	10	221	11	40197	3743588	4079
88	2018-05-11 10:36:40		0	0	0	0	0	0	1.08	6.06	0	63684	0	286	44258	63684	63684	3857	10	221	11	40270	3743729	4099
89	2018-05-11 10:46:41		0	0	0	0	0	0	1.08	6.06	0	63926	0	291	44420	63926	63926	3871	10	221	11	40404	3743855	4113
90	2018-05-11 10:56:42		0	0	0	0	0	0	1.08	6.05	0	64186	0	291	44504	64186	64186	3881	10	223	11	40474	3743971	4125
91	2018-05-11 11:06:42		0	0	0	0	0	0	1.08	6.04	0	64384	0	291	44630	64384	64384	3889	10	223	11	40510	3744086	4133
92	2018-05-11 11:16:42		0	0	0	0	0	0	1.08	6.03	0	64634	0	292	44720	64634	64634	3899	10	223	11	40584	3744185	4143
93	2018-05-11 11:26:43		0	0	0	0	0	0	1.09	6.02	0	64873	0	292	44886	64873	64873	3906	10	223	11	40755	3744288	4150
94	2018-05-11 11:36:43		0	0	0	0	0	0	1.09	6.03	0	65089	0	292	45024	65089	65089	3922	10	224	11	40921	3744400	4167
95	2018-05-11 11:46:44		0	0	0	0	0	0	1.09	6.01	0	65315	0	292	45122	65315	65315	3928	10	225	11	40993	3744505	4174
96	2018-05-11 11:56:45		0	0	0	0	0	0	1.1	6.01	0	65537	0	292	45180	65537	65537	3942	10	225	11	41032	3744616	4188
97	2018-05-11 12:06:52		0	0	0	0	0	0	1.1	6.01	0	65734	0	292	45353	65734	65734	3952	10	225	11	41175	3744714	4198
98	2018-05-11 12:16:46		0	0	0	0	0	0	1.1	6.01	0	65953	0	292	45484	65953	65953	3964	10	225	11	41265	3744823	4210
99	2018-05-11 12:26:46		0	0	0	0	0	0	1.11	6.02	0	66113	0	294	45599	66113	66113	3978	10	226	11	41395	3744932	4225
100	2018-05-11 12:36:47		0	0	0	0	0	0	1.11	6.01	0	66293	0	297	45685	66293	66293	3986	10	226	11	41466	3745022	4233
101	2018-05-11 12:46:47		0	0	0	0	0	0	1.11	6.01	0	66441	0	297	45848	66441	66441	3991	10	226	11	41582	3745113	4238
102	2018-05-11 12:56:48		0	0	0	0	0	0	1.11	6.01	0	66504	0	297	45848	66504	66504	3997	10	227	11	41582	3745200	4245
103	2018-05-11 13:06:49		0	0	0	0	0	0	1.12	6.01	0	66713	0	298	46069	66713	66713	4010	10	227	11	41804	3745290	4258
104	2018-05-11 13:16:49		0	0	0	0	0	0	1.12	6.01	0	66808	0	298	46129	66808	66808	4012	10	229	11	41854	3745383	4262
105	2018-05-11 13:26:49		0	0	0	0	0	0	1.12	6.01	0	66921	0	299	46129	66921	66921	4019	10	229	11	41872	3745477	4269
106	2018-05-11 13:36:55		0	0	0	0	0	0	1.12	6	0	67047	0	299	46162	67047	67047	4023	10	229	11	41872	3745578	4273
107	2018-05-11 13:46:51		0	0	0	0	0	0	1.12	6	0	67171	0	299	46247	67171	67171	4027	10	229	11	41943	3745681	4277
108	2018-05-11 13:56:53		0	0	0	0	0	0	1.12	5.99	0	67255	0	299	46286	67255	67255	4029	10	229	11	41943	3745757	4279
109	2018-05-11 14:06:55		0	0	0	0	0	0	1.12	5.98	0	67371	0	299	46486	67371	67371	4031	10	229	11	42052	3745851	4281
110	2018-05-11 14:16:54		0	0	0	0	0	0	1.12	5.98	0	67467	0	299	46574	67467	67467	4036	10	229	11	42124	3745939	4286
111	2018-05-11 14:26:54		0	0	0	0	0	0	1.12	5.98	0	67544	0	299	46642	67544	67544	4042	10	230	11	42129	3746016	4293
112	2018-05-11 14:36:54		0	0	0	0	0	0	1.13	5.98	0	67659	0	300	46785	67659	67659	4048	10	230	11	42357	3746091	4299
113	2018-05-11 14:46:54		0	0	0	0	0	0	1.13	5.98	0	67767	0	300	46808	67767	67767	4055	10	231	11	42375	3746176	4307
114	2018-05-11 14:57:06		0	0	0	0	0	0	1.13	5.98	0	67873	0	300	47001	67873	67873	4061	10	231	11	42478	3746290	4313
115	2018-05-11 15:07:08		0	0	0	0	0	0	1.14	5.98	0	67977	0	300	47013	67977	67977	4066	9	231	11	42524	3746370	4317
116	2018-05-11 15:17:06		0	0	0	0	0	0	1.14	5.98	0	68078	0	301	47058	68078	68078	4070	10	231	11	42561	3746467	4322
117	2018-05-11 15:27:12		0	0	0	0	0	0	1.14	5.98	0	68165	0	301	47092	68165	68165	4073	10	231	11	42589	3746568	4325
118	2018-05-11 15:37:21		0	0	0	0	0	0	1.14	5.97	0	68272	0	301	47115	68272	68272	4076	10	231	11	42646	3746644	4328
119	2018-05-11 15:47:26		0	0	0	0	0	0	1.14	5.97	0	68353	0	301	47224	68353	68353	4081	10	231	11	42735	3746732	4333
120	2018-05-11 15:57:11		0	0	0	0	0	0	1.14	5.97	0	68448	0	302	47224	68448	68448	4087	10	231	11	42735	3746803	4339
121	2018-05-11 16:07:13		0	0	0	0	0	0	1.14	5.97	0	68560	0	302	47224	68560	68560	4094	10	231	11	42735	3746868	4346
122	2018-05-11 16:17:10		0	0	0	0	0	0	1.14	5.97	0	68664	0	303	47409	68664	68664	4101	10	231	11	42820	3746953	4353
123	2018-05-11 16:27:10		0	0	0	0	0	0	1.14	5.97	0	68721	0	303	47455	68721	68721	4105	10	231	11	42858	3747024	4357
124	2018-05-11 16:37:11		0	0	0	0	0	0	1.14	5.97	0	68813	0	305	47531	68813	68813	4110	10	232	11	42858	3747101	4363
125	2018-05-11 16:47:11		0	0	0	0	0	0	1.15	5.97	0	68885	0	305	47578	68885	68885	4112	10	232	11	42970	3747197	4365
126	2018-05-11 16:57:43		0	0	0	0	0	0	1.15	5.97	0	68963	0	305	47733	68963	68963	4115	10	232	11	43115	3747280	4368
127	2018-05-11 17:07:28		0	0	0	0	0	0	1.15	5.97	0	69040	0	307	47875	69040	69040	4120	10	232	11	43231	3747359	4373
128	2018-05-11 17:17:17		0	0	0	0	0	0	1.16	5.96	0	69115	0	307	48005	69115	69115	4122	10	232	11	43308	3747435	4375
129	2018-05-11 17:27:28		0	0	0	0	0	0	1.16	5.96	0	69190	0	307	48017	69190	69190	4125	10	232	11	43318	3747520	4378
130	2018-05-11 17:37:19		0	0	0	0	0	0	1.16	5.96	0	69275	0	309	48116	69275	69275	4129	10	232	11	43364	3747604	4382
131	2018-05-11 17:47:20		0	0	0	0	0	0	1.16	5.96	0	69340	0	309	48176	69340	69340	4131	10	232	11	43530	3747690	4384
132	2018-05-11 17:57:19		0	0	0	0	0	0	1.16	5.95	0	69426	0	312	48260	69426	69426	4134	10	233	11	43579	3747779	4388
133	2018-05-11 18:07:25		0	0	0	0	0	0	1.16	5.95	0	69445	0	312	48281	69445	69445	4135	10	233	11	43596	3747851	4389
134	2018-05-11 18:17:19		0	0	0	0	0	0	1.16	5.95	0	69534	0	313	48281	69534	69534	4140	10	233	11	43596	3747921	4394
135	2018-05-11 18:27:21		0	0	0	0	0	0	1.16	5.95	0	69614	0	314	48317	69614	69614	4145	10	233	11	43596	3748008	4399
136	2018-05-11 18:37:20		0	0	0	0	0	0	1.16	5.95	0	69680	0	316	48335	69680	69680	4147	10	233	11	43611	3748110	4401
137	2018-05-11 18:47:21		0	0	0	0	0	0	1.16	5.95	0	69774	0	317	48341	69774	69774	4151	10	233	11	43616	3748203	4405
138	2018-05-11 18:57:22		0	0	0	0	0	0	1.17	5.95	0	69849	0	317	48414	69849	69849	4156	10	233	11	43675	3748283	4410
139	2018-05-11 19:07:30		0	0	0	0	0	0	1.17	5.95	0	69933	0	317	48560	69933	69933	4162	10	233	11	43694	3748369	4416
140	2018-05-11 19:17:25		0	0	0	0	0	0	1.17	5.95	0	70018	0	317	48619	70018	70018	4165	10	232	11	43782	3748455	4418
141	2018-05-11 19:27:27		0	0	0	0	0	0	1.17	5.95	0	70086	0	317	48662	70086	70086	4167	10	232	11	43876	3748538	4420
142	2018-05-11 19:37:27		0	0	0	0	0	0	1.17	5.94	0	70156	0	317	48686	70156	70156	4167	10	233	11	43876	3748629	4421
143	2018-05-11 19:47:27		0	0	0	0	0	0	1.17	5.93	0	70229	0	317	48723	70229	70229	4168	10	233	11	43876	3748710	4422
144	2018-05-11 19:57:28		0	0	0	0	0	0	1.17	5.93	0	70309	0	317	48723	70309	70309	4170	10	233	11	43876	3748803	4424
145	2018-05-11 20:07:33		0	0	0	0	0	0	1.17	5.93	0	70409	0	317	48920	70409	70409	4173	10	234	11	44016	3748873	4428
146	2018-05-11 20:17:29		0	0	0	0	0	0	1.17	5.93	0	70497	0	317	48920	70497	70497	4181	10	235	11	44036	3748962	4437
147	2018-05-11 20:27:29		0	0	0	0	0	0	1.17	5.93	0	70566	0	317	48920	70566	70566	4182	10	236	11	44036	3749035	4439
148	2018-05-11 20:37:31		0	0	0	0	0	0	1.18	5.92	0	70628	0	317	48926	70628	70628	4183	10	236	11	44101	3749112	4440
149	2018-05-11 20:47:31		0	0	0	0	0	0	1.18	5.92	0	70699	0	317	48926	70699	70699	4184	10	236	11	44101	3749184	4441
150	2018-05-11 20:57:31		0	0	0	0	0	0	1.18	5.91	0	70773	0	317	48948	70773	70773	4185	10	236	11	44112	3749283	4442
151	2018-05-11 21:07:33		0	0	0	0	0	0	1.18	5.91	0	70848	0	318	48977	70848	70848	4188	10	236	11	44135	3749366	4445
152	2018-05-11 21:17:34		0	0	0	0	0	0	1.18	5.91	0	70918	0	318	49052	70918	70918	4189	10	236	11	44196	3749460	4446
153	2018-05-11 21:27:36		0	0	0	0	0	0	1.18	5.9	0	70988	0	318	49173	70988	70988	4191	10	236	11	44295	3749535	4448
154	2018-05-11 21:37:35		0	0	0	0	0	0	1.18	5.9	0	71047	0	318	49173	71047	71047	4195	10	236	11	44295	3749612	4452
155	2018-05-11 21:47:36		0	0	0	0	0	0	1.18	5.9	0	71117	0	318	49186	71117	71117	4199	10	236	11	44295	3749696	4456
156	2018-05-11 21:57:37		0	0	0	0	0	0	1.18	5.9	0	71191	0	318	49186	71191	71191	4201	10	236	11	44295	3749768	4458
157	2018-05-11 22:07:39		0	0	0	0	0	0	1.18	5.9	0	71268	0	319	49205	71268	71268	4202	10	236	11	44310	3749856	4459
158	2018-05-11 22:17:40		0	0	0	0	0	0	1.18	5.89	0	71350	0	321	49258	71350	71350	4205	10	236	11	44317	3749932	4462
159	2018-05-11 22:27:41		0	0	0	0	0	0	1.19	5.89	0	71442	0	322	49349	71442	71442	4207	10	236	11	44493	3750008	4464
160	2018-05-11 22:37:40		0	0	0	0	0	0	1.19	5.88	0	71519	0	322	49410	71519	71519	4208	10	236	11	44503	3750084	4465
161	2018-05-11 22:47:40		0	0	0	0	0	0	1.19	5.88	0	71593	0	324	49467	71593	71593	4210	10	236	11	44519	3750161	4467
162	2018-05-11 22:57:40		0	0	0	0	0	0	1.19	5.88	0	71634	0	324	49467	71634	71634	4213	10	236	11	44519	3750223	4470
163	2018-05-11 23:07:42		0	0	0	0	0	0	1.19	5.87	0	71762	0	324	49600	71762	71762	4216	10	237	11	44626	3750312	4474
164	2018-05-11 23:17:41		0	0	0	0	0	0	1.19	5.87	0	71830	0	324	49726	71830	71830	4217	10	237	11	44728	3750398	4475
165	2018-05-11 23:27:42		0	0	0	0	0	0	1.19	5.87	0	71894	0	324	49752	71894	71894	4219	10	237	11	44749	3750476	4477
166	2018-05-11 23:37:43		0	0	0	0	0	0	1.19	5.87	0	71953	0	324	49835	71953	71953	4221	10	237	11	44816	3750573	4479
167	2018-05-11 23:47:43		0	0	0	0	0	0	1.19	5.86	0	72027	0	324	49861	72027	72027	4222	10	237	11	44816	3750647	4480
168	2018-05-11 23:57:43		0	0	0	0	0	0	1.2	5.86	0	72112	0	325	49957	72112	72112	4223	10	237	11	44894	3750732	4481
169	2018-05-12 00:07:47		0	0	0	0	0	0	1.2	5.86	0	72177	0	329	50151	72177	72177	4226	10	237	11	45051	3750806	4484
170	2018-05-12 00:17:55		0	0	0	0	0	0	1.2	5.86	0	72237	0	329	50151	72237	72237	4230	10	237	11	45051	3750877	4488
171	2018-05-12 00:27:45		0	0	0	0	0	0	1.2	5.85	0	72296	0	329	50151	72296	72296	4232	10	237	11	45051	3750935	4490
172	2018-05-12 00:37:43		0	0	0	0	0	0	1.2	5.85	0	72359	0	331	50189	72359	72359	4235	10	238	11	45102	3751007	4494
173	2018-05-12 00:47:43		0	0	0	0	0	0	1.2	5.85	0	72411	0	331	50189	72411	72411	4237	10	238	11	45102	3751069	4496
174	2018-05-12 00:57:44		0	0	0	0	0	0	1.21	5.85	0	72466	0	331	50290	72466	72466	4240	10	238	11	45226	3751117	4499
175	2018-05-12 01:07:45		0	0	0	0	0	0	1.21	5.85	0	72494	0	331	50329	72494	72494	4241	10	238	11	45258	3751161	4500
176	2018-05-12 01:17:46		0	0	0	0	0	0	1.21	5.85	0	72542	0	331	50329	72542	72542	4245	10	238	11	45258	3751239	4504
177	2018-05-12 01:27:46		0	0	0	0	0	0	1.21	5.85	0	72565	0	332	50408	72565	72565	4246	10	238	11	45321	3751295	4505
178	2018-05-12 01:37:46		0	0	0	0	0	0	1.21	5.85	0	72604	0	332	50408	72604	72604	4248	10	238	11	45321	3751352	4507
179	2018-05-12 01:47:46		0	0	0	0	0	0	1.21	5.85	0	72635	0	332	50408	72635	72635	4248	10	238	11	45321	3751408	4507
180	2018-05-12 01:57:47		0	0	0	0	0	0	1.21	5.85	0	72658	0	332	50408	72658	72658	4248	10	238	11	45321	3751432	4507
181	2018-05-12 02:07:48		0	0	0	0	0	0	1.21	5.85	0	72692	0	332	50408	72692	72692	4250	10	238	11	45321	3751463	4509
182	2018-05-12 02:17:48		0	0	0	0	0	0	1.21	5.84	0	72716	0	332	50432	72716	72716	4250	10	238	11	45341	3751495	4509
183	2018-05-12 02:27:48		0	0	0	0	0	0	1.21	5.84	0	72731	0	332	50432	72731	72731	4250	10	238	11	45341	3751522	4509
184	2018-05-12 02:37:49		0	0	0	0	0	0	1.21	5.84	0	72749	0	332	50432	72749	72749	4250	10	238	11	45341	3751536	4509
185	2018-05-12 02:47:49		0	0	0	0	0	0	1.21	5.84	0	72762	0	332	50478	72762	72762	4251	10	238	11	45378	3751555	4510
186	2018-05-12 02:57:50		0	0	0	0	0	0	1.21	5.84	0	72780	0	332	50478	72780	72780	4251	10	238	11	45378	3751571	4510
187	2018-05-12 03:07:50		0	0	0	0	0	0	1.21	5.84	0	72787	0	332	50478	72787	72787	4251	10	238	11	45378	3751582	4510
188	2018-05-12 03:17:50		0	0	0	0	0	0	1.21	5.84	0	72798	0	332	50478	72798	72798	4251	10	238	11	45378	3751594	4510
189	2018-05-12 03:27:51		0	0	0	0	0	0	1.21	5.84	0	72816	0	332	50478	72816	72816	4252	10	238	11	45378	3751605	4511
190	2018-05-12 03:37:51		0	0	0	0	0	0	1.21	5.84	0	72828	0	332	50478	72828	72828	4252	10	238	11	45378	3751616	4511
191	2018-05-12 03:47:52		0	0	0	0	0	0	1.21	5.84	0	72838	0	332	50478	72838	72838	4253	10	238	11	45378	3751630	4512
192	2018-05-12 03:57:53		0	0	0	0	0	0	1.21	5.84	0	72849	0	332	50478	72849	72849	4254	10	238	11	45378	3751646	4513
193	2018-05-12 04:07:56		0	0	0	0	0	0	1.21	5.84	0	72855	0	332	50478	72855	72855	4255	10	238	11	45378	3751656	4514
194	2018-05-12 04:17:55		0	0	0	0	0	0	1.21	5.84	0	72864	0	332	50478	72864	72864	4255	10	238	11	45378	3751661	4514
195	2018-05-12 04:27:54		0	0	0	0	0	0	1.21	5.84	0	72872	0	332	50478	72872	72872	4255	10	238	11	45378	3751662	4514
196	2018-05-12 04:37:54		0	0	0	0	0	0	1.21	5.84	0	72877	0	332	50478	72877	72877	4255	10	238	11	45378	3751669	4514
197	2018-05-12 04:47:55		0	0	0	0	0	0	1.21	5.84	0	72881	0	332	50478	72881	72881	4255	10	238	11	45378	3751679	4514
198	2018-05-12 04:57:59		0	0	0	0	0	0	1.21	5.84	0	72886	0	332	50478	72886	72886	4257	10	238	11	45378	3751687	4516
199	2018-05-12 05:07:58		0	0	0	0	0	0	1.21	5.84	0	72893	0	332	50478	72893	72893	4258	10	238	11	45378	3751698	4517
200	2018-05-12 05:17:59		0	0	0	0	0	0	1.21	5.84	0	72899	0	332	50478	72899	72899	4259	10	238	11	45378	3751704	4518
201	2018-05-12 05:27:58		0	0	0	0	0	0	1.21	5.84	0	72908	0	332	50480	72908	72908	4259	10	238	11	45380	3751712	4518
202	2018-05-12 05:37:59		0	0	0	0	0	0	1.21	5.84	0	72922	0	332	50559	72922	72922	4262	10	238	11	45380	3751722	4521
203	2018-05-12 05:47:59		0	0	0	0	0	0	1.21	5.84	0	72938	0	332	50586	72938	72938	4263	10	238	11	45380	3751731	4522
204	2018-05-12 05:57:59		0	0	0	0	0	0	1.21	5.84	0	72943	0	332	50586	72943	72943	4263	10	238	11	45380	3751749	4522
205	2018-05-12 06:08:00		0	0	0	0	0	0	1.21	5.84	0	72961	0	332	50586	72961	72961	4264	10	238	11	45380	3751770	4523
206	2018-05-12 06:18:00		0	0	0	0	0	0	1.21	5.84	0	72976	0	332	50638	72976	72976	4265	10	238	11	45422	3751787	4524
207	2018-05-12 06:28:00		0	0	0	0	0	0	1.21	5.84	0	72989	0	332	50663	72989	72989	4265	10	238	11	45442	3751814	4524
208	2018-05-12 06:38:01		0	0	0	0	0	0	1.21	5.84	0	73002	0	332	50663	73002	73002	4265	10	238	11	45442	3751847	4524
209	2018-05-12 06:48:06		0	0	0	0	0	0	1.21	5.84	0	73014	0	332	50663	73014	73014	4265	10	238	11	45442	3751873	4524
210	2018-05-12 06:58:03		0	0	0	0	0	0	1.21	5.84	0	73038	0	332	50663	73038	73038	4266	10	238	11	45442	3751899	4525
211	2018-05-12 07:08:05		0	0	0	0	0	0	1.21	5.84	0	73058	0	332	50730	73058	73058	4267	10	239	11	45496	3751938	4527
212	2018-05-12 07:18:04		0	0	0	0	0	0	1.21	5.84	0	73092	0	332	50730	73092	73092	4268	10	239	11	45496	3751974	4528
213	2018-05-12 07:28:04		0	0	0	0	0	0	1.21	5.84	0	73113	0	332	50736	73113	73113	4268	10	239	11	45501	3752020	4528
214	2018-05-12 07:38:04		0	0	0	0	0	0	1.21	5.84	0	73151	0	332	50805	73151	73151	4270	10	239	11	45551	3752074	4530
215	2018-05-12 07:48:05		0	0	0	0	0	0	1.21	5.84	0	73192	0	332	50805	73192	73192	4272	10	239	11	45551	3752128	4532
216	2018-05-12 07:58:05		0	0	0	0	0	0	1.21	5.84	0	73240	0	332	50805	73240	73240	4275	10	239	11	45551	3752203	4535
217	2018-05-12 08:08:06		0	0	0	0	0	0	1.21	5.84	0	73282	0	332	50805	73282	73282	4278	10	239	11	45551	3752269	4538
218	2018-05-12 08:18:07		0	0	0	0	0	0	1.22	5.84	0	73336	0	332	50885	73336	73336	4284	10	239	11	45615	3752343	4544
219	2018-05-12 08:28:07		0	0	0	0	0	0	1.22	5.84	0	73381	0	332	50885	73381	73381	4289	10	239	11	45615	3752420	4549
220	2018-05-12 08:38:11		0	0	0	0	0	0	1.22	5.84	0	73434	0	333	50908	73434	73434	4291	10	239	11	45634	3752505	4551
221	2018-05-12 08:48:13		0	0	0	0	0	0	1.22	5.84	0	73465	0	333	50962	73465	73465	4292	10	239	11	45634	3752598	4552
222	2018-05-12 08:58:10		0	0	0	0	0	0	1.22	5.84	0	73514	0	333	50975	73514	73514	4294	10	239	11	45645	3752691	4554
223	2018-05-12 09:08:12		0	0	0	0	0	0	1.22	5.84	0	73563	0	333	51272	73563	73563	4297	10	240	11	45796	3752793	4558
224	2018-05-12 09:18:11		0	0	0	0	0	0	1.22	5.84	0	73637	0	333	51329	73637	73637	4301	10	241	11	45972	3752883	4563
225	2018-05-12 09:28:11		0	0	0	0	0	0	1.23	5.84	0	73697	0	333	51516	73697	73697	4306	10	242	11	46068	3752990	4569
226	2018-05-12 09:38:12		0	0	0	0	0	0	1.23	5.84	0	73760	0	334	51574	73760	73760	4310	10	243	11	46092	3753076	4574
227	2018-05-12 09:48:12		0	0	0	0	0	0	1.23	5.84	0	73806	0	334	51574	73806	73806	4313	10	243	11	46092	3753180	4577
228	2018-05-12 09:58:13		0	0	0	0	0	0	1.23	5.85	0	73846	0	335	51588	73846	73846	4317	10	243	11	46103	3753279	4581
229	2018-05-12 10:08:14		0	0	0	0	0	0	1.23	5.85	0	73911	0	335	51726	73911	73911	4324	10	244	11	46213	3753361	4589
230	2018-05-12 10:18:13		0	0	0	0	0	0	1.23	5.85	0	73993	0	335	51746	73993	73993	4328	10	244	11	46229	3753463	4593
231	2018-05-12 10:28:14		0	0	0	0	0	0	1.23	5.85	0	74026	0	335	51774	74026	74026	4329	10	244	11	46229	3753571	4594
232	2018-05-12 10:38:16		0	0	0	0	0	0	1.23	5.85	0	74074	0	335	51816	74074	74074	4331	10	244	11	46229	3753664	4596
233	2018-05-12 10:48:16		0	0	0	0	0	0	1.23	5.85	0	74127	0	335	51899	74127	74127	4333	10	244	11	46274	3753743	4598
234	2018-05-12 10:58:18		0	0	0	0	0	0	1.23	5.84	0	74178	0	335	51909	74178	74178	4335	10	244	11	46293	3753835	4600
235	2018-05-12 11:08:19		0	0	0	0	0	0	1.23	5.84	0	74224	0	335	51909	74224	74224	4337	10	244	11	46293	3753923	4602
236	2018-05-12 11:18:20		0	0	0	0	0	0	1.24	5.84	0	74278	0	335	51951	74278	74278	4339	10	244	11	46371	3754017	4604
237	2018-05-12 11:28:18		0	0	0	0	0	0	1.24	5.84	0	74312	0	335	51951	74312	74312	4340	10	244	11	46371	3754092	4605
238	2018-05-12 11:38:18		0	0	0	0	0	0	1.24	5.84	0	74364	0	335	51965	74364	74364	4342	10	244	11	46371	3754181	4607
239	2018-05-12 11:48:18		0	0	0	0	0	0	1.24	5.84	0	74415	0	335	52007	74415	74415	4344	10	244	11	46404	3754279	4609
240	2018-05-12 11:58:19		0	0	0	0	0	0	1.24	5.84	0	74463	0	335	52035	74463	74463	4349	10	244	11	46426	3754370	4614
241	2018-05-12 12:08:20		0	0	0	0	0	0	1.24	5.84	0	74508	0	335	52035	74508	74508	4351	10	244	11	46426	3754437	4616
242	2018-05-12 12:18:20		0	0	0	0	0	0	1.24	5.84	0	74561	0	336	52049	74561	74561	4353	10	244	11	46437	3754520	4618
243	2018-05-12 12:28:21		0	0	0	0	0	0	1.24	5.84	0	74598	0	336	52049	74598	74598	4355	10	244	11	46437	3754600	4620
244	2018-05-12 12:38:21		0	0	0	0	0	0	1.24	5.83	0	74636	0	336	52168	74636	74636	4355	10	245	11	46555	3754673	4621
245	2018-05-12 12:48:22		0	0	0	0	0	0	1.24	5.84	0	74672	0	336	52168	74672	74672	4358	10	245	11	46555	3754747	4624
246	2018-05-12 12:58:24		0	0	0	0	0	0	1.24	5.83	0	74712	0	336	52172	74712	74712	4358	10	245	11	46558	3754824	4624
247	2018-05-12 13:08:25		0	0	0	0	0	0	1.24	5.83	0	74750	0	336	52172	74750	74750	4358	10	245	11	46558	3754889	4624
248	2018-05-12 13:18:26		0	0	0	0	0	0	1.24	5.83	0	74792	0	336	52172	74792	74792	4361	10	245	11	46558	3754963	4627
249	2018-05-12 13:28:24		0	0	0	0	0	0	1.24	5.83	0	74839	0	337	52200	74839	74839	4366	10	246	11	46580	3755059	4633
250	2018-05-12 13:38:25		0	0	0	0	0	0	1.24	5.84	0	74869	0	337	52200	74869	74869	4369	10	246	11	46580	3755125	4636
251	2018-05-12 13:48:25		0	0	0	0	0	0	1.24	5.83	0	74905	0	337	52260	74905	74905	4369	10	246	11	46628	3755200	4636
252	2018-05-12 13:58:25		0	0	0	0	0	0	1.24	5.83	0	74942	0	337	52260	74942	74942	4371	10	246	11	46628	3755269	4638
253	2018-05-12 14:08:26		0	0	0	0	0	0	1.24	5.83	0	74967	0	338	52260	74967	74967	4372	10	246	11	46628	3755353	4639
254	2018-05-12 14:18:27		0	0	0	0	0	0	1.24	5.83	0	74993	0	338	52260	74993	74993	4372	10	246	11	46628	3755410	4639
255	2018-05-12 14:28:27		0	0	0	0	0	0	1.24	5.83	0	75015	0	338	52260	75015	75015	4373	10	246	11	46628	3755481	4640
256	2018-05-12 14:38:28		0	0	0	0	0	0	1.24	5.83	0	75056	0	339	52260	75056	75056	4376	10	246	11	46628	3755554	4643
257	2018-05-12 14:48:58		0	0	0	0	0	0	1.24	5.83	0	75088	0	339	52323	75088	75088	4379	10	246	11	46723	3755626	4646
258	2018-05-12 14:58:33		0	0	0	0	0	0	1.24	5.83	0	75112	0	339	52352	75112	75112	4381	10	246	11	46746	3755694	4648
259	2018-05-12 15:08:34		0	0	0	0	0	0	1.24	5.83	0	75147	0	339	52352	75147	75147	4382	10	246	11	46746	3755770	4649
260	2018-05-12 15:18:32		0	0	0	0	0	0	1.24	5.83	0	75177	0	339	52352	75177	75177	4382	10	246	11	46746	3755845	4649
261	2018-05-12 15:28:31		0	0	0	0	0	0	1.25	5.83	0	75211	0	339	52375	75211	75211	4384	10	246	11	46764	3755916	4651
262	2018-05-12 15:38:31		0	0	0	0	0	0	1.25	5.83	0	75237	0	339	52375	75237	75237	4386	10	246	11	46764	3755966	4653
263	2018-05-12 15:48:32		0	0	0	0	0	0	1.25	5.83	0	75259	0	339	52375	75259	75259	4387	10	246	11	46764	3756032	4654
264	2018-05-12 15:58:32		0	0	0	0	0	0	1.25	5.83	0	75294	0	339	52481	75294	75294	4389	10	246	11	46849	3756107	4656
265	2018-05-12 16:08:33		0	0	0	0	0	0	1.25	5.83	0	75326	0	339	52483	75326	75326	4390	10	246	11	46851	3756168	4657
266	2018-05-12 16:18:34		0	0	0	0	0	0	1.25	5.83	0	75353	0	339	52483	75353	75353	4391	10	246	11	46851	3756251	4658
267	2018-05-12 16:28:34		0	0	0	0	0	0	1.25	5.83	0	75389	0	339	52508	75389	75389	4392	10	246	11	46870	3756294	4659
268	2018-05-12 16:38:36		0	0	0	0	0	0	1.25	5.83	0	75428	0	342	52519	75428	75428	4394	10	246	11	46870	3756357	4661
269	2018-05-12 16:48:39		0	0	0	0	0	0	1.25	5.82	0	75467	0	342	52626	75467	75467	4395	10	246	11	47001	3756421	4662
270	2018-05-12 16:58:37		0	0	0	0	0	0	1.25	5.82	0	75502	0	342	52683	75502	75502	4397	10	246	11	47047	3756476	4664
271	2018-05-12 17:08:37		0	0	0	0	0	0	1.25	5.82	0	75534	0	342	52733	75534	75534	4397	10	246	11	47047	3756535	4664
272	2018-05-12 17:18:38		0	0	0	0	0	0	1.25	5.82	0	75573	0	342	52845	75573	75573	4399	10	246	11	47136	3756595	4666
273	2018-05-12 17:28:37		0	0	0	0	0	0	1.26	5.82	0	75608	0	342	52874	75608	75608	4402	10	246	11	47159	3756664	4669
274	2018-05-12 17:38:38		0	0	0	0	0	0	1.26	5.82	0	75645	0	342	52975	75645	75645	4402	10	246	11	47378	3756732	4669
275	2018-05-12 17:48:38		0	0	0	0	0	0	1.26	5.82	0	75685	0	343	53091	75685	75685	4405	10	246	11	47471	3756787	4672
276	2018-05-12 17:58:38		0	0	0	0	0	0	1.26	5.82	0	75719	0	343	53091	75719	75719	4405	10	246	11	47471	3756842	4672
277	2018-05-12 18:08:40		0	0	0	0	0	0	1.26	5.81	0	75762	0	343	53091	75762	75762	4405	10	246	11	47471	3756893	4672
278	2018-05-12 18:18:40		0	0	0	0	0	0	1.26	5.81	0	75792	0	343	53149	75792	75792	4407	10	246	11	47517	3756957	4674
279	2018-05-12 18:29:22		0	0	0	0	0	0	1.26	5.81	0	75817	0	343	53149	75817	75817	4408	10	246	11	47517	3756999	4675
280	2018-05-12 18:38:42		0	0	0	0	0	0	1.27	5.82	0	75854	0	344	53222	75854	75854	4411	10	246	11	47575	3757051	4678
