1	2018-06-08 19:56:24		0	0	0	0	0	0	0.06	4.9	0	2590	0	1	2132	2590	2590	127	0	14	0	10	0	0	0	1	2477	3842836	142
2	2018-06-08 20:06:30		0	0	0	0	0	0	0.26	5.88	0.01	10464	0	90	8525	10464	10464	615	17	63	1	86	1	0	0	8	10014	3842867	703
3	2018-06-08 20:16:28		0	0	0	0	0	0	0.54	6.68	0.01	22182	0	192	17514	22182	22182	1481	22	87	3	130	1	0	2	14	20854	3842899	1604
4	2018-06-08 20:26:28		0	0	0	0	0	0	0.76	6.67	0.01	31351	0	387	23749	31351	31351	2091	28	105	4	176	1	1	2	20	29190	3842923	2244
5	2018-06-08 20:36:28		0	0	0	0	0	0	0.94	6.73	0.01	39230	0	567	28855	39230	39230	2642	31	124	5	221	1	3	2	25	36158	3842955	2822
6	2018-06-08 20:46:29		0	0	0	0	0	0	1.1	6.69	0.02	46434	0	745	33151	46434	46434	3106	33	139	6	258	1	3	2	25	42456	3842979	3303
7	2018-06-08 20:56:30		0	0	0	0	0	0	1.24	6.64	0.02	52564	0	961	37514	52564	52564	3489	34	152	7	272	1	3	3	26	47801	3842993	3701
8	2018-06-08 21:06:31		0	0	0	0	0	0	1.37	6.56	0.02	58301	0	1020	41997	58301	58301	3826	34	165	7	301	1	3	3	27	52824	3843010	4052
9	2018-06-08 21:16:36		0	0	0	0	0	0	1.49	6.49	0.02	63322	0	1179	44744	63322	63322	4112	38	172	7	323	1	3	3	29	57152	3843042	4351
10	2018-06-08 21:26:35		0	0	0	0	0	0	1.59	6.47	0.02	68042	0	1319	48196	68042	68042	4404	42	177	7	347	1	3	3	33	61228	3843074	4656
11	2018-06-08 21:36:36		0	0	0	0	0	0	1.7	6.44	0.02	72798	0	1481	51964	72798	72798	4687	48	184	7	368	1	4	4	35	65332	3843101	4954
12	2018-06-08 21:46:36		0	0	0	0	0	0	1.8	6.33	0.02	77344	0	1561	55484	77344	77344	4898	51	186	7	379	1	4	4	36	69232	3843134	5171
13	2018-06-08 21:56:36		0	0	0	0	0	0	1.89	6.28	0.02	81584	0	1772	58383	81584	81584	5127	53	194	9	391	2	5	6	37	72803	3843164	5411
14	2018-06-08 22:06:37		0	0	0	0	0	0	1.98	6.26	0.02	85388	0	1845	61409	85388	85388	5344	56	200	9	401	2	5	6	38	75909	3843194	5638
15	2018-06-08 22:16:39		0	0	0	0	0	0	2.05	6.22	0.02	88941	0	2037	63914	88941	90557	5534	57	204	9	410	2	5	7	39	78848	3843233	5834
16	2018-06-08 22:26:40		0	0	0	0	0	0	2.12	6.21	0.02	92176	0	2132	66193	92176	92176	5726	57	210	9	422	2	5	7	41	81466	3843263	6034
17	2018-06-08 22:36:40		0	0	0	0	0	0	2.19	6.24	0.02	95401	0	2333	68733	95401	95401	5951	57	211	9	429	2	5	7	41	84023	3843294	6260
18	2018-06-08 22:46:41		0	0	0	0	0	0	2.25	6.2	0.02	98359	0	2392	70749	98359	98359	6101	62	220	9	442	2	5	7	41	86435	3843325	6424
19	2018-06-08 22:56:41		0	0	0	0	0	0	2.31	6.18	0.03	101188	0	2572	72789	101188	101188	6253	64	224	9	448	2	5	7	41	88670	3843345	6582
20	2018-06-08 23:06:42		0	0	0	0	0	0	2.36	6.1	0.03	103883	0	2795	75089	103883	103883	6333	65	230	9	453	2	5	7	41	90860	3843366	6669
21	2018-06-08 23:16:42		0	0	0	0	0	0	2.42	6.13	0.03	106428	0	2873	76894	106428	106428	6525	65	233	9	460	2	6	7	43	92854	3843403	6866
22	2018-06-08 23:26:43		0	0	0	0	0	0	2.47	6.09	0.03	108880	0	3092	78542	108880	108880	6629	67	236	9	468	2	6	7	43	94821	3843422	6975
23	2018-06-08 23:36:46		0	0	0	0	0	0	2.54	6	0.03	112169	0	3254	80307	112169	112169	6727	68	239	9	475	2	6	7	44	97454	3843447	7078
24	2018-06-08 23:46:42		0	0	0	0	0	0	2.56	5.99	0.03	113156	0	3310	81112	113156	113156	6782	68	244	9	480	2	6	7	44	98240	3843473	7138
25	2018-06-08 23:56:42		0	0	0	0	0	0	2.59	6.04	0.03	114957	0	3452	82105	114957	114957	6943	68	246	9	483	2	6	7	44	99635	3843500	7301
26	2018-06-09 00:06:44		0	0	0	0	0	0	2.63	5.98	0.03	116780	0	3633	82990	116780	116780	6989	68	248	9	488	2	6	7	44	101004	3843521	7349
27	2018-06-09 00:16:43		0	0	0	0	0	0	2.66	5.98	0.03	118378	0	3742	84719	118378	118378	7075	70	249	9	492	2	6	7	45	102275	3843540	7439
28	2018-06-09 00:26:44		0	0	0	0	0	0	2.69	5.99	0.03	119948	0	3829	85574	119948	119948	7187	70	250	10	496	2	6	7	45	103524	3843559	7552
29	2018-06-09 00:36:45		0	0	0	0	0	0	2.72	5.96	0.03	121269	0	3873	86425	121269	121269	7226	72	251	10	500	2	6	7	45	104543	3843576	7594
30	2018-06-09 00:46:45		0	0	0	0	0	0	2.75	5.99	0.03	122513	0	3986	87045	122513	122513	7334	73	253	10	503	2	6	7	46	105519	3843596	7706
31	2018-06-09 00:56:46		0	0	0	0	0	0	2.77	5.98	0.03	123721	0	4035	88045	123721	123721	7397	74	256	10	506	2	6	7	46	106487	3843610	7773
32	2018-06-09 01:06:47		0	0	0	0	0	0	2.79	5.95	0.03	124891	0	4142	88321	124891	124891	7427	75	258	11	514	2	6	7	46	107415	3843619	7806
33	2018-06-09 01:16:48		0	0	0	0	0	0	2.81	5.98	0.03	125900	0	4249	89485	125900	125900	7533	75	259	11	515	2	6	7	46	108198	3843627	7913
34	2018-06-09 01:26:49		0	0	0	0	0	0	2.85	5.96	0.03	126884	0	4370	90081	126884	126884	7568	77	260	11	523	2	6	7	47	109356	3843632	7952
35	2018-06-09 01:36:49		0	0	0	0	0	0	2.86	5.98	0.04	127902	0	4480	90278	127902	127902	7648	77	263	11	527	3	6	7	47	109774	3843632	8035
36	2018-06-09 01:46:49		0	0	0	0	0	0	2.87	5.98	0.04	128749	0	4524	90584	128749	128749	7703	77	264	11	531	3	6	7	47	110437	3843637	8091
37	2018-06-09 01:56:50		0	0	0	0	0	0	2.89	5.97	0.04	129595	0	4644	90836	129595	129595	7736	78	265	11	535	3	6	7	47	111101	3843642	8126
38	2018-06-09 02:06:51		0	0	0	0	0	0	2.91	5.97	0.04	130363	0	4682	91326	130363	130363	7779	78	266	11	541	3	6	7	47	111728	3843649	8170
39	2018-06-09 02:16:50		0	0	0	0	0	0	2.92	5.97	0.04	131004	0	4747	91867	131004	131004	7816	81	267	11	541	3	6	7	47	112259	3843653	8211
40	2018-06-09 02:26:51		0	0	0	0	0	0	2.93	5.97	0.04	131599	0	4833	92097	131599	131599	7863	82	271	11	544	3	6	7	47	112736	3843658	8263
41	2018-06-09 02:36:51		0	0	0	0	0	0	2.94	5.97	0.04	132136	0	4868	92259	132136	132136	7883	82	272	11	550	3	6	7	47	113166	3843662	8284
42	2018-06-09 02:46:52		0	0	0	0	0	0	2.96	5.98	0.04	132674	0	4962	92413	132674	132674	7933	82	273	11	553	3	6	7	48	113590	3843665	8336
43	2018-06-09 02:56:53		0	0	0	0	0	0	2.97	5.97	0.04	133165	0	5001	92985	133165	133165	7946	83	273	11	555	3	6	7	48	113969	3843667	8350
44	2018-06-09 03:06:55		0	0	0	0	0	0	2.97	5.97	0.04	133578	0	5036	93383	133578	133578	7974	83	273	11	558	3	6	7	48	114298	3843671	8378
45	2018-06-09 03:16:56		0	0	0	0	0	0	2.98	5.97	0.04	133931	0	5080	93851	133931	133931	7997	83	273	11	558	3	6	7	48	114590	3843669	8401
46	2018-06-09 03:26:54		0	0	0	0	0	0	2.99	5.96	0.04	134289	0	5116	93959	134289	134289	8007	83	273	11	561	3	6	7	48	114859	3843671	8411
47	2018-06-09 03:36:55		0	0	0	0	0	0	3	5.96	0.04	134646	0	5145	94044	134646	134646	8030	83	273	11	563	3	6	7	48	115154	3843681	8434
48	2018-06-09 03:46:55		0	0	0	0	0	0	3	5.97	0.04	134929	0	5166	94262	134929	134929	8051	83	273	11	563	3	6	7	49	115367	3843688	8456
49	2018-06-09 03:56:57		0	0	0	0	0	0	3.01	5.96	0.04	135235	0	5200	94486	135235	135235	8064	84	273	11	563	3	6	7	49	115716	3843689	8470
50	2018-06-09 04:06:57		0	0	0	0	0	0	3.01	5.96	0.04	135533	0	5215	94886	135533	135533	8080	84	273	11	564	3	6	7	49	115847	3843688	8486
51	2018-06-09 04:16:57		0	0	0	0	0	0	3.02	5.96	0.04	135780	0	5245	95090	135780	135780	8088	84	274	11	565	3	6	7	49	116035	3843690	8495
52	2018-06-09 04:26:57		0	0	0	0	0	0	3.02	5.95	0.04	136037	0	5273	95182	136037	136037	8096	84	274	11	566	3	6	7	49	116244	3843695	8503
53	2018-06-09 04:36:58		0	0	0	0	0	0	3.03	5.95	0.04	136324	0	5283	95334	136324	136324	8114	84	274	11	567	3	6	7	49	116465	3843698	8521
54	2018-06-09 04:47:03		0	0	0	0	0	0	3.04	5.96	0.04	136615	0	5309	95605	136615	136615	8137	84	274	11	567	3	6	7	49	116686	3843696	8544
55	2018-06-09 04:57:00		0	0	0	0	0	0	3.04	5.95	0.04	136872	0	5350	95775	136872	136872	8148	84	274	11	567	3	6	7	49	116883	3843695	8555
56	2018-06-09 05:07:00		0	0	0	0	0	0	3.05	5.95	0.04	137137	0	5363	95869	137137	137137	8157	84	275	11	568	3	6	7	49	117078	3843699	8565
57	2018-06-09 05:17:00		0	0	0	0	0	0	3.05	5.94	0.04	137392	0	5397	96178	137392	137392	8161	84	276	11	570	3	6	7	50	117277	3843703	8571
58	2018-06-09 05:27:01		0	0	0	0	0	0	3.06	5.94	0.04	137629	0	5407	96454	137629	137629	8171	84	276	11	571	3	6	7	50	117456	3843705	8581
59	2018-06-09 05:37:01		0	0	0	0	0	0	3.06	5.93	0.04	137903	0	5441	96662	137903	137903	8184	84	276	11	571	3	6	7	50	117664	3843706	8594
60	2018-06-09 05:47:02		0	0	0	0	0	0	3.07	5.94	0.04	138162	0	5452	97001	138162	138162	8207	84	276	11	572	3	6	7	50	117851	3843706	8617
61	2018-06-09 05:57:02		0	0	0	0	0	0	3.07	5.95	0.04	138458	0	5482	97109	138458	138458	8233	84	277	11	573	3	6	7	50	118079	3843711	8644
62	2018-06-09 06:07:03		0	0	0	0	0	0	3.08	5.94	0.04	138786	0	5496	97206	138786	138786	8244	84	278	11	575	3	6	7	50	118351	3843712	8656
63	2018-06-09 06:17:05		0	0	0	0	0	0	3.09	5.94	0.04	139127	0	5528	97439	139127	139127	8264	84	278	11	576	3	6	7	50	118627	3843715	8676
64	2018-06-09 06:27:05		0	0	0	0	0	0	3.09	5.94	0.04	139509	0	5555	97808	139509	139509	8282	84	278	11	578	3	6	7	50	118922	3843720	8694
65	2018-06-09 06:37:06		0	0	0	0	0	0	3.1	5.93	0.04	139933	0	5573	97939	139933	139933	8292	86	278	11	579	3	6	7	50	119242	3843726	8706
66	2018-06-09 06:47:06		0	0	0	0	0	0	3.11	5.94	0.04	140471	0	5608	98449	140471	140471	8346	87	279	11	580	3	6	7	50	119672	3843732	8762
67	2018-06-09 06:57:06		0	0	0	0	0	0	3.12	5.95	0.04	141026	0	5661	98889	141026	141026	8384	87	280	11	581	3	6	7	50	120111	3843739	8801
68	2018-06-09 07:07:07		0	0	0	0	0	0	3.14	5.93	0.04	141679	0	5726	99350	141679	141679	8399	87	281	11	584	3	6	7	50	120632	3843746	8817
69	2018-06-09 07:17:07		0	0	0	0	0	0	3.16	5.94	0.04	142474	0	5779	99580	142474	142474	8459	87	281	11	585	3	6	7	50	121277	3843754	8877
70	2018-06-09 07:27:08		0	0	0	0	0	0	3.17	5.94	0.04	143332	0	5847	100056	143332	143332	8510	87	281	11	586	3	6	7	50	121980	3843769	8928
71	2018-06-09 07:37:08		0	0	0	0	0	0	3.2	5.94	0.04	144361	0	5919	100897	144361	144361	8578	88	283	11	593	3	6	7	50	122811	3843784	8999
72	2018-06-09 07:47:11		0	0	0	0	0	0	3.22	5.95	0.04	145398	0	5985	101582	145398	145398	8654	88	284	11	595	3	6	7	50	123627	3843794	9076
73	2018-06-09 07:57:09		0	0	0	0	0	0	3.24	5.96	0.04	146525	0	6070	102223	146525	146525	8726	89	285	12	599	3	6	7	50	124541	3843808	9150
74	2018-06-09 08:07:12		0	0	0	0	0	0	3.27	5.96	0.04	147729	0	6181	103086	147729	147729	8800	89	286	12	599	3	6	7	50	125515	3843826	9225
75	2018-06-09 08:17:12		0	0	0	0	0	0	3.29	5.97	0.04	148834	0	6288	103560	148834	148834	8890	90	287	12	603	4	6	7	50	126347	3843839	9317
76	2018-06-09 08:27:12		0	0	0	0	0	0	3.31	5.98	0.04	150072	0	6395	104398	150072	150072	8967	91	287	12	605	4	6	7	51	127335	3843849	9396
77	2018-06-09 08:37:13		0	0	0	0	0	0	3.34	5.98	0.04	151451	0	6512	105276	151451	151451	9062	94	290	12	613	4	6	7	51	128424	3843858	9497
78	2018-06-09 08:47:13		0	0	0	0	0	0	3.37	5.99	0.04	152868	0	6660	106671	152868	152868	9152	94	291	13	617	4	6	7	51	129552	3843875	9588
79	2018-06-09 08:57:13		0	0	0	0	0	0	3.4	6	0.04	154340	0	6776	107609	154340	154340	9260	94	293	13	626	4	6	7	51	130756	3843890	9698
80	2018-06-09 09:07:14		0	0	0	0	0	0	3.43	6.02	0.04	155830	0	6875	108580	155830	155830	9385	94	295	13	631	4	6	7	51	131939	3843915	9825
81	2018-06-09 09:17:16		0	0	0	0	0	0	3.46	6.03	0.04	157345	0	7002	109459	157345	157345	9494	95	297	13	638	5	6	7	51	133116	3843938	9937
82	2018-06-09 09:27:17		0	0	0	0	0	0	3.49	6.05	0.04	158819	0	7107	110300	158819	158819	9603	95	298	13	646	5	6	7	52	134286	3843957	10048
83	2018-06-09 09:37:17		0	0	0	0	0	0	3.53	6.06	0.05	160333	0	7220	111252	160333	160333	9721	96	301	14	650	5	6	7	53	135505	3843986	10171
84	2018-06-09 09:47:18		0	0	0	0	0	0	3.56	6.06	0.05	161900	0	7350	111781	161900	161900	9818	98	303	14	653	5	6	7	53	136747	3844006	10272
85	2018-06-09 09:57:18		0	0	0	0	0	0	3.59	6.06	0.05	163380	0	7499	112999	163380	163380	9908	98	306	14	663	6	6	8	53	137898	3844021	10365
86	2018-06-09 10:07:20		0	0	0	0	0	0	3.62	6.07	0.05	164822	0	7600	113840	164822	164822	10000	98	309	14	667	6	6	8	52	139031	3844045	10459
87	2018-06-09 10:17:20		0	0	0	0	0	0	3.64	6.07	0.05	166234	0	7745	114684	166234	166234	10089	100	311	14	671	7	6	8	53	140093	3844066	10553
88	2018-06-09 10:27:22		0	0	0	0	0	0	3.67	6.08	0.05	167619	0	7892	115389	167619	167619	10184	101	312	14	678	7	7	8	53	141157	3844086	10650
89	2018-06-09 10:37:22		0	0	0	0	0	0	3.7	6.08	0.05	169142	0	8103	115999	169142	169142	10292	104	315	14	678	7	7	8	53	142322	3844123	10764
90	2018-06-09 10:47:23		0	0	0	0	0	0	3.73	6.09	0.05	170684	0	8377	116631	170684	170684	10398	104	317	14	693	7	7	8	53	143450	3844143	10872
91	2018-06-09 10:57:23		0	0	0	0	0	0	3.76	6.09	0.05	172232	0	8627	117405	172232	172232	10497	104	321	14	701	8	7	8	54	144604	3844150	10976
92	2018-06-09 11:07:24		0	0	0	0	0	0	3.79	6.1	0.05	173660	0	8797	117834	173660	173660	10595	104	321	14	704	8	7	8	54	145668	3844177	11074
93	2018-06-09 11:17:25		0	0	0	0	0	0	3.82	6.1	0.05	175126	0	8971	119859	175126	175126	10689	105	323	14	707	8	7	9	54	146800	3844209	11171
94	2018-06-09 11:27:26		0	0	0	0	0	0	3.84	6.11	0.05	176443	0	9156	121049	176443	176443	10779	106	323	14	712	8	7	9	54	147763	3844237	11262
95	2018-06-09 11:37:26		0	0	0	0	0	0	3.87	6.11	0.05	177718	0	9328	122162	177718	177718	10859	109	324	14	722	8	7	9	54	148665	3844268	11346
96	2018-06-09 11:47:28		0	0	0	0	0	0	3.89	6.11	0.05	178892	0	9497	122907	178892	178892	10925	109	325	15	723	8	8	9	54	149504	3844283	11413
97	2018-06-09 11:57:32		0	0	0	0	0	0	3.91	6.11	0.05	179965	0	9634	123132	179965	179965	10988	109	325	15	730	8	8	9	54	150276	3844306	11476
98	2018-06-09 15:04:54		0	0	0	0	0	0	4.56	6.12	0.06	210237	0	11592	147338	210237	210237	12867	120	358	17	828	9	8	13	62	175178	3844723	13407
99	2018-06-09 15:14:53		0	0	0	0	0	0	4.59	6.12	0.06	211817	0	11728	148312	211817	211817	12967	122	360	17	834	9	8	13	63	176489	3844757	13512
100	2018-06-09 15:24:54		0	0	0	0	0	0	4.62	6.12	0.06	213333	0	11887	149397	213333	213333	13050	123	364	17	838	9	8	13	63	177767	3844769	13600
101	2018-06-09 15:34:54		0	0	0	0	0	0	4.66	6.12	0.06	214803	0	12032	149802	214803	214803	13139	124	367	18	844	9	8	13	64	178998	3844786	13694
102	2018-06-09 15:44:56		0	0	0	0	0	0	4.69	6.11	0.06	216165	0	12171	150864	216165	216165	13218	125	375	18	849	9	8	13	66	180164	3844800	13784
103	2018-06-09 15:54:57		0	0	0	0	0	0	4.72	6.11	0.06	217518	0	12287	152438	217518	217518	13294	125	375	18	855	10	8	13	66	181311	3844828	13860
104	2018-06-09 16:04:59		0	0	0	0	0	0	4.75	6.1	0.06	218894	0	12410	153306	218894	218894	13358	125	377	18	860	10	8	13	66	182500	3844837	13926
105	2018-06-09 16:14:58		0	0	0	0	0	0	4.78	6.1	0.06	220194	0	12542	153854	220194	220194	13430	127	377	18	866	10	8	13	66	183609	3844863	14000
106	2018-06-09 16:24:57		0	0	0	0	0	0	4.8	6.1	0.06	221475	0	12676	154588	221475	221475	13509	127	381	19	872	10	8	13	66	184680	3844889	14083
107	2018-06-09 16:34:58		0	0	0	0	0	0	4.83	6.1	0.06	222720	0	12792	155776	222720	222720	13577	127	383	19	877	10	8	13	67	185772	3844905	14154
108	2018-06-09 16:44:58		0	0	0	0	0	0	4.86	6.1	0.06	223970	0	12899	156630	223970	223970	13656	127	387	19	877	10	8	13	68	186858	3844925	14238
109	2018-06-09 16:54:59		0	0	0	0	0	0	4.89	6.1	0.06	225213	0	13010	157683	225213	225213	13744	128	388	19	879	10	8	13	68	187933	3844953	14328
110	2018-06-09 17:05:01		0	0	0	0	0	0	4.92	6.1	0.06	226518	0	13116	158101	226518	226518	13808	128	388	19	885	10	8	13	68	189058	3844979	14392
111	2018-06-09 17:15:00		0	0	0	0	0	0	4.94	6.09	0.06	227692	0	13209	159183	227692	227692	13874	129	388	19	886	10	8	14	68	190075	3845005	14459
112	2018-06-09 17:25:01		0	0	0	0	0	0	4.97	6.09	0.06	228848	0	13324	159445	228848	228848	13945	130	392	19	893	10	8	14	68	191078	3845028	14535
113	2018-06-09 17:35:03		0	0	0	0	0	0	5	6.09	0.06	230101	0	13419	160316	230101	230101	14013	130	393	20	898	10	8	14	68	192184	3845057	14604
114	2018-06-09 17:45:04		0	0	0	0	0	0	5.03	6.09	0.06	231418	0	13506	161081	231418	231418	14089	131	393	20	900	10	8	14	68	193368	3845081	14681
115	2018-06-09 17:55:04		0	0	0	0	0	0	5.06	6.08	0.06	232695	0	13609	162429	232695	232695	14151	131	398	20	904	10	8	14	69	194472	3845105	14749
116	2018-06-09 18:05:04		0	0	0	0	0	0	5.09	6.08	0.06	233935	0	13703	163561	233935	233935	14217	132	400	20	908	10	8	14	69	195586	3845139	14818
117	2018-06-09 18:15:04		0	0	0	0	0	0	5.11	6.08	0.06	235162	0	13805	164386	235162	235162	14293	133	400	20	913	10	9	14	69	196637	3845160	14895
118	2018-06-09 18:25:04		0	0	0	0	0	0	5.15	6.08	0.06	236534	0	13929	164806	236534	236534	14375	133	401	20	915	10	9	14	71	197843	3845179	14980
119	2018-06-09 18:35:06		0	0	0	0	0	0	5.17	6.08	0.06	237860	0	14037	165540	237860	237860	14466	137	403	20	921	11	9	15	71	198983	3845211	15077
120	2018-06-09 18:45:05		0	0	0	0	0	0	5.21	6.08	0.06	239225	0	14190	166224	239225	239225	14533	137	404	20	922	11	9	15	71	200169	3845234	15145
121	2018-06-09 18:55:06		0	0	0	0	0	0	5.24	6.07	0.06	240562	0	14279	166689	240562	240562	14605	138	408	20	929	12	9	15	71	201339	3845262	15222
122	2018-06-09 19:05:07		0	0	0	0	0	0	5.26	6.07	0.06	241783	0	14363	167275	241783	241783	14685	139	409	20	932	12	9	15	71	202409	3845278	15304
123	2018-06-09 19:15:09		0	0	0	0	0	0	5.29	6.07	0.06	242967	0	14462	168655	242967	242967	14747	139	411	20	933	12	9	15	71	203448	3845296	15368
124	2018-06-09 19:25:09		0	0	0	0	0	0	5.32	6.07	0.06	244161	0	14548	169363	244161	244161	14816	140	413	20	939	12	9	15	71	204500	3845315	15440
125	2018-06-09 19:35:10		0	0	0	0	0	0	5.35	6.06	0.06	245392	0	14650	170461	245392	245392	14867	141	416	20	944	12	9	15	71	205561	3845337	15495
126	2018-06-09 19:45:10		0	0	0	0	0	0	5.37	6.05	0.06	246594	0	14782	170937	246594	246594	14917	141	417	20	951	12	9	15	72	206575	3845351	15547
127	2018-06-09 19:55:12		0	0	0	0	0	0	5.4	6.04	0.06	247679	0	14891	171581	247679	247679	14964	141	419	20	956	12	9	15	72	207492	3845372	15596
128	2018-06-09 20:05:13		0	0	0	0	0	0	5.42	6.04	0.06	248621	0	14988	172287	248621	248621	15009	141	419	20	957	12	9	15	72	208288	3845395	15641
129	2018-06-09 20:15:12		0	0	0	0	0	0	5.43	6.03	0.06	249304	0	15071	172787	249304	249304	15034	141	421	20	960	12	9	15	72	208860	3845419	15668
130	2018-06-09 20:25:13		0	0	0	0	0	0	5.44	6.03	0.06	249917	0	15142	173125	249917	249917	15072	142	422	20	961	12	9	15	72	209362	3845432	15708
131	2018-06-09 20:35:13		0	0	0	0	0	0	5.46	6.03	0.06	250540	0	15219	173513	250540	250540	15105	142	422	20	963	12	9	15	72	209853	3845448	15741
132	2018-06-09 20:45:14		0	0	0	0	0	0	5.47	6.03	0.06	251150	0	15314	173669	251150	251150	15139	143	424	20	966	12	9	15	72	210335	3845475	15778
133	2018-06-09 20:55:17		0	0	0	0	0	0	5.48	6.03	0.06	251753	0	15411	173976	251753	251753	15171	144	425	20	969	12	9	15	72	210814	3845506	15812
134	2018-06-09 21:05:19		0	0	0	0	0	0	5.49	6.02	0.06	252338	0	15496	173976	252338	252338	15200	145	426	20	970	12	9	15	73	211283	3845537	15844
135	2018-06-09 21:15:20		0	0	0	0	0	0	5.51	6.02	0.06	252919	0	15571	174057	252919	252919	15230	145	426	20	972	12	9	15	73	211737	3845557	15874
136	2018-06-09 21:25:18		0	0	0	0	0	0	5.52	6.02	0.06	253479	0	15664	174508	253479	253479	15254	145	428	20	973	12	9	15	73	212162	3845590	15900
137	2018-06-09 21:35:22		0	0	0	0	0	0	5.53	6.01	0.06	254016	0	15735	174764	254016	254016	15277	145	428	20	973	12	9	15	73	212596	3845624	15923
138	2018-06-09 21:45:20		0	0	0	0	0	0	5.54	6.01	0.06	254539	0	15801	175552	254539	254539	15304	145	428	20	974	12	9	15	74	213023	3845656	15951
139	2018-06-09 21:55:21		0	0	0	0	0	0	5.55	6.01	0.06	255016	0	15886	175741	255016	255016	15325	145	429	20	978	12	9	15	74	213376	3845694	15973
140	2018-06-09 22:05:23		0	0	0	0	0	0	5.56	6.01	0.06	255497	0	15960	176302	255497	255497	15349	145	432	20	979	12	9	15	74	213750	3845720	16000
141	2018-06-09 22:15:23		0	0	0	0	0	0	5.57	6.01	0.06	255913	0	16026	176916	255913	255913	15372	145	432	20	980	12	9	15	74	214053	3845755	16023
142	2018-06-09 22:25:23		0	0	0	0	0	0	5.57	6.01	0.06	256343	0	16102	176916	256343	256343	15399	145	433	20	982	12	9	15	74	214382	3845801	16051
143	2018-06-09 22:35:24		0	0	0	0	0	0	5.58	6	0.06	256824	0	16185	177139	256824	256824	15416	145	435	20	982	12	9	15	75	214751	3845831	16071
144	2018-06-09 22:45:25		0	0	0	0	0	0	5.59	6	0.06	257281	0	16246	177398	257281	257281	15445	146	436	20	983	12	9	15	75	215114	3845876	16102
145	2018-06-09 22:55:28		0	0	0	0	0	0	5.6	6	0.06	257727	0	16306	177805	257727	257727	15463	146	436	20	987	12	9	15	75	215455	3845917	16120
146	2018-06-09 23:05:27		0	0	0	0	0	0	5.61	6	0.06	258147	0	16376	177887	258147	258147	15488	146	438	20	987	12	9	15	75	215772	3845960	16147
147	2018-06-09 23:15:27		0	0	0	0	0	0	5.62	6	0.06	258594	0	16448	178256	258594	258594	15503	146	438	20	989	13	9	15	75	216113	3845993	16162
148	2018-06-09 23:25:27		0	0	0	0	0	0	5.63	5.99	0.06	258975	0	16503	179080	258975	258975	15524	146	438	20	991	13	9	15	75	216410	3846026	16183
149	2018-06-09 23:35:30		0	0	0	0	0	0	5.64	5.99	0.06	259385	0	16560	179678	259385	259385	15542	146	438	20	992	13	9	15	75	216727	3846063	16201
150	2018-06-09 23:45:28		0	0	0	0	0	0	5.64	5.99	0.06	259774	0	16616	179761	259774	259774	15564	146	439	20	994	13	9	15	75	217030	3846099	16224
151	2018-06-09 23:55:29		0	0	0	0	0	0	5.65	5.99	0.06	260148	0	16691	180237	260148	260148	15581	146	439	20	994	13	9	15	75	217318	3846123	16241
152	2018-06-10 00:05:27		0	0	0	0	0	0	5.66	5.99	0.06	260475	0	16747	180532	260475	260475	15594	146	440	20	995	13	9	15	75	217570	3846151	16255
153	2018-06-10 00:15:27		0	0	0	0	0	0	5.66	5.98	0.06	260804	0	16802	180616	260804	260804	15607	147	442	20	996	13	9	15	75	217825	3846178	16271
154	2018-06-10 00:25:29		0	0	0	0	0	0	5.67	5.98	0.06	261148	0	16848	180890	261148	261148	15625	147	442	21	997	13	9	15	75	218103	3846206	16289
155	2018-06-10 00:35:31		0	0	0	0	0	0	5.68	5.98	0.06	261472	0	16888	181218	261472	261472	15643	147	443	21	999	13	9	15	75	218347	3846244	16308
156	2018-06-10 00:45:32		0	0	0	0	0	0	5.68	5.98	0.06	261765	0	16945	181378	261765	261765	15656	147	444	21	999	13	9	15	75	218567	3846269	16322
157	2018-06-10 00:55:29		0	0	0	0	0	0	5.69	5.98	0.06	262011	0	16983	181718	262011	262011	15666	147	444	21	999	13	9	15	75	218758	3846285	16332
158	2018-06-10 01:05:38		0	0	0	0	0	0	5.69	5.98	0.07	262252	0	17047	181718	262252	262252	15678	148	444	21	1001	13	9	15	76	218926	3846307	16346
159	2018-06-10 01:15:31		0	0	0	0	0	0	5.7	5.98	0.07	262514	0	17132	182264	262514	262514	15686	149	444	21	1003	13	9	15	76	219108	3846327	16355
160	2018-06-10 01:25:31		0	0	0	0	0	0	5.7	5.97	0.07	262790	0	17190	182350	262790	262790	15694	148	444	21	1006	13	9	15	76	219316	3846342	16362
161	2018-06-10 01:35:32		0	0	0	0	0	0	5.71	5.97	0.07	263022	0	17238	182350	263022	263022	15699	148	444	21	1006	13	9	15	76	219488	3846354	16367
162	2018-06-10 01:45:32		0	0	0	0	0	0	5.71	5.97	0.07	263227	0	17269	182350	263227	263227	15703	148	444	21	1006	13	9	15	76	219628	3846365	16371
163	2018-06-10 01:55:33		0	0	0	0	0	0	5.71	5.96	0.07	263396	0	17307	182350	263396	263396	15710	149	444	21	1006	13	9	15	76	219754	3846376	16379
164	2018-06-10 02:05:39		0	0	0	0	0	0	5.72	5.97	0.07	263571	0	17345	182393	263571	263571	15724	149	444	21	1007	13	9	15	76	219888	3846384	16393
165	2018-06-10 02:15:40		0	0	0	0	0	0	5.72	5.97	0.07	263742	0	17370	182495	263742	263742	15733	149	444	21	1007	13	9	15	76	220028	3846392	16402
166	2018-06-10 02:25:35		0	0	0	0	0	0	5.72	5.96	0.07	263882	0	17390	182861	263882	263882	15740	149	444	21	1008	13	9	15	76	220143	3846394	16409
167	2018-06-10 02:35:36		0	0	0	0	0	0	5.73	5.97	0.07	264039	0	17433	183164	264039	264039	15751	149	444	21	1008	13	9	16	76	220248	3846398	16420
168	2018-06-10 02:45:37		0	0	0	0	0	0	5.73	5.97	0.07	264170	0	17458	183424	264170	264170	15762	149	444	21	1008	13	9	16	76	220343	3846406	16431
169	2018-06-10 02:55:37		0	0	0	0	0	0	5.73	5.97	0.07	264279	0	17485	183424	264279	264279	15767	149	444	21	1008	13	9	16	76	220419	3846409	16436
170	2018-06-10 03:05:37		0	0	0	0	0	0	5.73	5.96	0.07	264385	0	17506	183577	264385	264385	15770	149	444	22	1009	13	9	16	76	220499	3846415	16439
171	2018-06-10 03:15:37		0	0	0	0	0	0	5.73	5.96	0.07	264482	0	17526	183577	264482	264482	15772	149	444	22	1009	13	9	16	76	220579	3846413	16441
172	2018-06-10 03:25:38		0	0	0	0	0	0	5.74	5.96	0.07	264560	0	17542	183620	264560	264560	15773	149	444	22	1009	13	9	16	76	220645	3846415	16442
173	2018-06-10 03:35:39		0	0	0	0	0	0	5.74	5.96	0.07	264653	0	17562	183658	264653	264653	15783	149	444	22	1009	13	9	16	76	220710	3846415	16452
174	2018-06-10 03:45:39		0	0	0	0	0	0	5.74	5.96	0.07	264721	0	17579	183920	264721	264721	15787	149	444	22	1010	13	9	16	76	220758	3846420	16456
175	2018-06-10 03:55:40		0	0	0	0	0	0	5.74	5.96	0.07	264801	0	17594	183920	264801	264801	15791	149	444	22	1010	13	9	16	76	220824	3846421	16460
176	2018-06-10 04:05:43		0	0	0	0	0	0	5.74	5.96	0.07	264857	0	17604	183920	264857	264857	15793	149	445	22	1010	13	9	17	76	220866	3846422	16463
177	2018-06-10 04:15:42		0	0	0	0	0	0	5.74	5.96	0.07	264914	0	17614	183920	264914	264914	15795	149	445	22	1010	13	9	17	76	220907	3846425	16465
178	2018-06-10 04:25:41		0	0	0	0	0	0	5.74	5.96	0.07	264964	0	17621	183920	264964	264964	15796	149	445	22	1010	13	9	17	76	220943	3846427	16466
179	2018-06-10 04:35:42		0	0	0	0	0	0	5.75	5.96	0.07	265023	0	17625	183920	265023	265023	15801	149	445	23	1010	13	9	17	76	220986	3846429	16471
180	2018-06-10 04:45:43		0	0	0	0	0	0	5.75	5.96	0.07	265096	0	17638	183920	265096	265096	15807	149	445	23	1010	13	9	17	76	221039	3846430	16477
181	2018-06-10 04:55:43		0	0	0	0	0	0	5.75	5.96	0.07	265152	0	17644	183920	265152	265152	15810	149	445	23	1010	13	9	17	76	221089	3846429	16480
182	2018-06-10 05:05:43		0	0	0	0	0	0	5.75	5.96	0.07	265209	0	17656	183920	265209	265209	15812	149	445	23	1010	13	9	17	76	221136	3846432	16482
183	2018-06-10 05:15:44		0	0	0	0	0	0	5.75	5.96	0.07	265247	0	17665	183920	265247	265247	15814	149	445	23	1010	13	9	17	76	221168	3846438	16484
184	2018-06-10 05:25:44		0	0	0	0	0	0	5.75	5.96	0.07	265306	0	17673	183920	265306	265306	15820	149	445	23	1010	13	9	17	76	221219	3846439	16490
185	2018-06-10 05:35:46		0	0	0	0	0	0	5.75	5.96	0.07	265356	0	17685	183920	265356	265356	15821	149	445	23	1010	13	9	17	76	221255	3846441	16491
186	2018-06-10 05:45:47		0	0	0	0	0	0	5.75	5.96	0.07	265400	0	17688	183920	265400	265400	15824	149	445	23	1010	13	9	17	76	221291	3846444	16494
187	2018-06-10 05:55:48		0	0	0	0	0	0	5.75	5.96	0.07	265456	0	17694	183920	265456	265456	15828	149	445	23	1010	13	9	17	76	221341	3846445	16498
188	2018-06-10 06:05:47		0	0	0	0	0	0	5.76	5.96	0.07	265500	0	17702	183920	265500	265500	15829	149	445	23	1010	13	9	17	76	221375	3846449	16499
189	2018-06-10 06:15:47		0	0	0	0	0	0	5.76	5.96	0.07	265559	0	17714	184095	265559	265559	15831	149	445	23	1010	13	9	17	76	221425	3846453	16501
190	2018-06-10 06:25:48		0	0	0	0	0	0	5.76	5.96	0.07	265635	0	17727	184095	265635	265635	15840	149	445	23	1010	13	9	17	76	221487	3846459	16510
191	2018-06-10 06:35:48		0	0	0	0	0	0	5.76	5.96	0.07	265721	0	17741	184095	265721	265721	15849	149	445	23	1011	13	9	17	76	221554	3846463	16519
192	2018-06-10 06:45:49		0	0	0	0	0	0	5.76	5.97	0.07	265807	0	17751	184227	265807	265807	15857	149	445	23	1011	13	9	17	76	221631	3846470	16527
193	2018-06-10 06:55:49		0	0	0	0	0	0	5.76	5.97	0.07	265892	0	17755	184227	265892	265892	15863	149	445	23	1011	13	9	17	76	221700	3846479	16533
194	2018-06-10 07:05:51		0	0	0	0	0	0	5.77	5.97	0.07	265990	0	17765	184314	265990	265990	15872	149	446	23	1011	13	9	17	76	221778	3846492	16543
195	2018-06-10 07:15:50		0	0	0	0	0	0	5.77	5.97	0.07	266114	0	17775	184578	266114	266114	15878	149	447	23	1011	13	9	17	76	221876	3846499	16550
196	2018-06-10 07:26:05		0	0	0	0	0	0	5.77	5.97	0.07	266255	0	17786	184589	266255	266255	15885	149	447	23	1011	13	9	17	76	221994	3846512	16557
197	2018-06-10 07:35:54		0	0	0	0	0	0	5.77	5.97	0.07	266393	0	17799	185069	266393	266393	15896	149	448	23	1012	13	9	17	76	222109	3846524	16569
198	2018-06-10 07:45:53		0	0	0	0	0	0	5.78	5.97	0.07	266542	0	17807	185401	266542	266542	15910	149	449	23	1012	13	9	17	76	222231	3846550	16584
199	2018-06-10 07:55:54		0	0	0	0	0	0	5.78	5.97	0.07	266726	0	17824	185401	266726	266726	15920	149	449	23	1012	13	9	17	76	222373	3846558	16594
200	2018-06-10 08:05:54		0	0	0	0	0	0	5.78	5.97	0.07	266884	0	17844	185401	266884	266884	15926	149	449	23	1012	13	9	17	76	222500	3846585	16600
201	2018-06-10 08:15:54		0	0	0	0	0	0	5.79	5.97	0.07	267077	0	17876	185401	267077	267077	15936	149	449	23	1012	13	9	17	76	222656	3846608	16610
202	2018-06-10 08:25:56		0	0	0	0	0	0	5.79	5.97	0.07	267276	0	17923	185490	267276	267276	15948	149	449	23	1012	13	9	17	76	222799	3846618	16622
203	2018-06-10 08:35:55		0	0	0	0	0	0	5.8	5.97	0.07	267456	0	17946	185579	267456	267456	15956	149	449	24	1012	13	9	17	76	222944	3846641	16630
204	2018-06-10 08:45:56		0	0	0	0	0	0	5.8	5.97	0.07	267694	0	17979	185579	267694	267694	15970	149	449	24	1012	13	9	17	76	223127	3846659	16644
205	2018-06-10 08:55:57		0	0	0	0	0	0	5.81	5.97	0.07	267906	0	18000	185624	267906	267906	15986	149	449	24	1013	13	9	17	76	223311	3846682	16660
206	2018-06-10 09:05:58		0	0	0	0	0	0	5.81	5.97	0.07	268153	0	18041	185624	268153	268153	16001	150	449	24	1015	13	9	17	76	223497	3846714	16676
207	2018-06-10 09:15:58		0	0	0	0	0	0	5.81	5.97	0.07	268385	0	18067	186025	268385	268385	16015	150	451	24	1016	13	9	17	76	223686	3846739	16692
208	2018-06-10 09:25:59		0	0	0	0	0	0	5.82	5.97	0.07	268656	0	18118	186515	268656	268656	16030	150	451	24	1017	13	9	17	76	223891	3846755	16707
209	2018-06-10 09:36:00		0	0	0	0	0	0	5.83	5.96	0.07	268915	0	18171	186989	268915	268915	16040	150	451	24	1021	13	9	17	77	224106	3846786	16718
210	2018-06-10 09:45:59		0	0	0	0	0	0	5.83	5.97	0.07	269180	0	18215	187076	269180	269180	16058	151	452	24	1022	13	9	17	77	224314	3846814	16738
211	2018-06-10 09:56:00		0	0	0	0	0	0	5.84	5.97	0.07	269433	0	18285	187212	269433	269433	16077	151	452	24	1024	13	9	17	77	224509	3846835	16757
212	2018-06-10 10:06:01		0	0	0	0	0	0	5.84	5.97	0.07	269675	0	18332	187620	269675	269675	16088	151	452	24	1026	13	9	17	77	224702	3846859	16768
213	2018-06-10 10:16:01		0	0	0	0	0	0	5.85	5.97	0.07	269901	0	18356	187893	269901	269901	16102	151	453	24	1026	13	9	17	77	224881	3846884	16783
214	2018-06-10 10:26:02		0	0	0	0	0	0	5.85	5.96	0.07	270189	0	18418	188162	270189	270189	16111	151	453	24	1027	13	9	17	78	225097	3846914	16793
215	2018-06-10 10:36:02		0	0	0	0	0	0	5.86	5.96	0.07	270451	0	18457	188179	270451	270451	16127	151	453	24	1029	13	9	17	78	225302	3846950	16809
216	2018-06-10 10:46:03		0	0	0	0	0	0	5.86	5.96	0.07	270704	0	18509	188339	270704	270704	16144	152	453	24	1029	13	10	17	78	225494	3846987	16827
217	2018-06-10 10:56:03		0	0	0	0	0	0	5.87	5.96	0.07	271015	0	18566	188890	271015	271015	16159	152	453	24	1031	13	10	17	78	225742	3847003	16842
218	2018-06-10 11:06:05		0	0	0	0	0	0	5.87	5.96	0.07	271282	0	18612	188902	271282	271282	16178	152	454	24	1033	13	10	17	78	225942	3847020	16862
219	2018-06-10 11:16:05		0	0	0	0	0	0	5.88	5.96	0.07	271549	0	18668	188947	271549	271549	16197	152	454	24	1033	13	10	17	78	226145	3847034	16881
220	2018-06-10 11:26:06		0	0	0	0	0	0	5.88	5.96	0.07	271795	0	18727	188968	271795	271795	16211	152	454	24	1034	13	10	17	78	226326	3847055	16895
221	2018-06-10 11:36:07		0	0	0	0	0	0	5.89	5.97	0.07	272062	0	18769	189107	272062	272062	16230	152	454	24	1036	14	10	17	78	226538	3847073	16914
222	2018-06-10 11:46:10		0	0	0	0	0	0	5.89	5.96	0.07	272319	0	18822	189384	272319	272319	16242	152	455	24	1036	14	10	17	78	226732	3847098	16927
223	2018-06-10 11:56:08		0	0	0	0	0	0	5.9	5.96	0.07	272582	0	18869	189837	272582	272582	16256	152	456	24	1036	14	10	17	78	226942	3847121	16942
224	2018-06-10 12:06:08		0	0	0	0	0	0	5.9	5.96	0.07	272847	0	18922	189884	272847	272847	16272	153	457	24	1036	14	10	17	78	227138	3847149	16960
225	2018-06-10 12:16:09		0	0	0	0	0	0	5.91	5.96	0.07	273087	0	18965	189884	273087	273087	16283	153	457	24	1037	14	10	17	78	227327	3847163	16971
226	2018-06-10 12:26:09		0	0	0	0	0	0	5.91	5.96	0.07	273305	0	19001	190023	273305	273305	16297	153	457	24	1038	14	10	17	78	227500	3847184	16985
227	2018-06-10 12:36:09		0	0	0	0	0	0	5.92	5.96	0.07	273541	0	19031	190023	273541	273541	16316	153	457	24	1039	14	10	17	78	227682	3847210	17004
228	2018-06-10 12:46:10		0	0	0	0	0	0	5.92	5.97	0.07	273760	0	19065	190117	273760	273760	16335	153	458	24	1041	14	10	17	78	227856	3847240	17024
229	2018-06-10 12:56:11		0	0	0	0	0	0	5.93	5.97	0.07	274014	0	19107	190117	274014	274014	16353	153	458	24	1042	14	10	17	78	228052	3847265	17042
230	2018-06-10 13:06:11		0	0	0	0	0	0	5.93	5.97	0.07	274195	0	19139	190117	274195	274195	16363	153	458	24	1042	14	10	17	78	228191	3847290	17052
231	2018-06-10 13:16:12		0	0	0	0	0	0	5.94	5.97	0.07	274402	0	19173	190164	274402	274402	16380	153	458	24	1044	14	10	17	78	228351	3847302	17069
232	2018-06-10 13:26:23		0	0	0	0	0	0	5.94	5.97	0.07	274599	0	19231	190164	274599	274599	16390	153	458	24	1045	14	10	17	78	228485	3847333	17079
233	2018-06-10 13:36:16		0	0	0	0	0	0	5.94	5.97	0.07	274793	0	19259	190164	274793	274793	16408	153	459	24	1045	14	10	17	78	228642	3847351	17098
234	2018-06-10 13:46:13		0	0	0	0	0	0	5.95	5.97	0.07	275009	0	19301	190175	275009	275009	16423	153	459	24	1045	14	10	17	78	228805	3847375	17113
235	2018-06-10 13:56:14		0	0	0	0	0	0	5.95	5.97	0.07	275235	0	19339	190688	275235	275235	16439	153	459	24	1045	14	10	17	78	228976	3847402	17129
236	2018-06-10 14:06:15		0	0	0	0	0	0	5.96	5.97	0.07	275469	0	19377	191135	275469	275469	16456	153	459	24	1046	14	10	17	78	229167	3847427	17146
237	2018-06-10 14:16:14		0	0	0	0	0	0	5.96	5.98	0.07	275701	0	19417	191584	275701	275701	16476	153	459	24	1046	14	10	17	78	229358	3847448	17166
238	2018-06-10 14:26:15		0	0	0	0	0	0	5.97	5.98	0.07	275936	0	19460	191632	275936	275936	16499	153	459	24	1047	14	10	17	78	229555	3847463	17189
239	2018-06-10 14:36:17		0	0	0	0	0	0	5.97	5.98	0.07	276139	0	19485	191774	276139	276139	16511	153	459	24	1048	14	10	17	78	229720	3847491	17201
240	2018-06-10 14:46:16		0	0	0	0	0	0	5.98	5.98	0.07	276371	0	19514	191774	276371	276371	16527	153	459	24	1050	14	10	17	79	229910	3847519	17218
241	2018-06-10 14:56:17		0	0	0	0	0	0	5.98	5.98	0.07	276595	0	19550	191774	276595	276595	16545	153	460	24	1051	14	10	17	79	230093	3847551	17237
242	2018-06-10 15:06:18		0	0	0	0	0	0	5.99	5.98	0.07	276849	0	19611	191964	276849	276849	16554	153	460	24	1051	14	10	17	79	230288	3847565	17246
243	2018-06-10 15:16:37		0	0	0	0	0	0	5.99	5.98	0.07	277052	0	19645	191964	277052	277052	16571	153	460	24	1052	14	10	17	79	230452	3847590	17263
244	2018-06-10 15:26:20		0	0	0	0	0	0	5.99	5.98	0.07	277249	0	19661	191964	277249	277249	16583	153	460	24	1054	14	10	17	79	230626	3847621	17275
245	2018-06-10 15:36:20		0	0	0	0	0	0	6	5.98	0.07	277455	0	19694	192012	277455	277455	16595	153	461	24	1054	14	10	17	79	230796	3847641	17288
246	2018-06-10 15:46:20		0	0	0	0	0	0	6	5.98	0.07	277658	0	19718	192060	277658	277658	16608	153	461	24	1056	14	10	17	79	230966	3847656	17301
247	2018-06-10 15:56:20		0	0	0	0	0	0	6.01	5.98	0.07	277883	0	19735	192107	277883	277883	16617	153	461	24	1057	14	10	17	79	231159	3847669	17310
248	2018-06-10 16:06:21		0	0	0	0	0	0	6.01	5.98	0.07	278090	0	19769	192107	278090	278090	16628	153	461	24	1058	14	10	17	79	231319	3847687	17321
249	2018-06-10 16:16:21		0	0	0	0	0	0	6.02	5.98	0.07	278270	0	19792	192310	278270	278270	16635	153	461	24	1058	14	10	17	79	231460	3847698	17328
250	2018-06-10 16:26:23		0	0	0	0	0	0	6.02	5.98	0.07	278478	0	19824	192346	278478	278478	16648	153	461	24	1059	14	10	17	79	231620	3847719	17341
251	2018-06-10 16:36:22		0	0	0	0	0	0	6.02	5.98	0.07	278705	0	19851	192513	278705	278705	16661	154	461	24	1060	14	10	17	79	231806	3847740	17355
252	2018-06-10 16:46:25		0	0	0	0	0	0	6.03	5.98	0.07	278894	0	19869	192513	278894	278894	16675	154	461	24	1061	14	10	17	79	231961	3847757	17369
253	2018-06-10 16:56:25		0	0	0	0	0	0	6.03	5.98	0.07	279082	0	19896	192729	279082	279082	16686	154	461	24	1063	14	10	17	79	232118	3847773	17380
254	2018-06-10 17:06:26		0	0	0	0	0	0	6.04	5.98	0.07	279268	0	19924	192729	279268	279268	16700	154	461	24	1064	14	10	17	79	232263	3847797	17394
255	2018-06-10 17:16:25		0	0	0	0	0	0	6.04	5.98	0.07	279480	0	19954	193023	279480	279480	16711	155	461	24	1065	14	10	17	79	232438	3847820	17406
256	2018-06-10 17:26:25		0	0	0	0	0	0	6.05	5.98	0.07	279679	0	19977	193263	279679	279679	16721	154	461	24	1066	14	10	17	79	232605	3847838	17415
257	2018-06-10 17:36:26		0	0	0	0	0	0	6.05	5.98	0.07	279892	0	20013	193529	279892	279892	16734	154	461	24	1066	14	10	17	79	232773	3847850	17428
258	2018-06-10 17:46:26		0	0	0	0	0	0	6.05	5.98	0.07	280116	0	20052	193529	280116	280116	16745	154	461	24	1066	14	10	17	79	232958	3847876	17439
259	2018-06-10 17:56:27		0	0	0	0	0	0	6.06	5.98	0.07	280341	0	20082	193938	280341	280341	16755	154	461	24	1067	14	10	17	79	233150	3847899	17449
260	2018-06-10 18:06:28		0	0	0	0	0	0	6.06	5.98	0.07	280532	0	20101	194278	280532	280532	16763	154	461	24	1067	14	10	17	79	233308	3847920	17457
261	2018-06-10 18:16:28		0	0	0	0	0	0	6.07	5.98	0.07	280771	0	20128	194761	280771	280771	16781	154	461	24	1071	14	10	17	79	233512	3847931	17475
262	2018-06-10 18:26:29		0	0	0	0	0	0	6.07	5.98	0.07	280944	0	20146	194761	280944	280944	16789	154	461	24	1071	14	10	17	79	233660	3847950	17483
263	2018-06-10 18:36:32		0	0	0	0	0	0	6.08	5.98	0.07	281147	0	20178	194761	281147	281147	16799	154	462	24	1071	14	10	17	79	233814	3847977	17494
264	2018-06-10 18:46:31		0	0	0	0	0	0	6.08	5.98	0.07	281369	0	20206	194835	281369	281369	16814	154	463	24	1071	14	10	17	79	234002	3847992	17510
265	2018-06-10 18:56:30		0	0	0	0	0	0	6.09	5.98	0.07	281582	0	20222	194957	281582	281582	16826	154	463	24	1072	14	10	17	79	234193	3848022	17522
266	2018-06-10 19:06:31		0	0	0	0	0	0	6.09	5.98	0.07	281810	0	20260	194957	281810	281810	16843	154	463	24	1072	14	10	17	79	234374	3848044	17539
267	2018-06-10 19:16:31		0	0	0	0	0	0	6.1	5.98	0.07	282009	0	20277	194957	282009	282009	16861	154	463	24	1072	14	10	17	79	234546	3848064	17557
268	2018-06-10 19:26:32		0	0	0	0	0	0	6.1	5.98	0.07	282243	0	20304	194957	282243	282243	16877	155	463	24	1073	14	10	17	79	234747	3848079	17574
269	2018-06-10 19:36:33		0	0	0	0	0	0	6.1	5.98	0.07	282435	0	20332	194957	282435	282435	16889	154	463	24	1073	14	10	17	79	234906	3848098	17585
270	2018-06-10 19:46:33		0	0	0	0	0	0	6.11	5.98	0.07	282627	0	20367	195007	282627	282627	16903	154	464	24	1073	14	10	17	79	235049	3848110	17600
271	2018-06-10 19:56:34		0	0	0	0	0	0	6.11	5.98	0.07	282858	0	20407	195111	282858	282858	16910	154	464	24	1073	14	10	17	79	235243	3848144	17607
272	2018-06-10 20:06:35		0	0	0	0	0	0	6.12	5.98	0.07	283030	0	20426	195209	283030	283030	16921	155	464	24	1073	14	10	17	79	235392	3848167	17619
273	2018-06-10 20:16:37		0	0	0	0	0	0	6.12	5.98	0.07	283195	0	20455	195431	283195	283195	16932	154	464	24	1073	14	10	17	79	235519	3848198	17629
274	2018-06-10 20:26:43		0	0	0	0	0	0	6.12	5.98	0.07	283338	0	20476	195857	283338	283338	16938	154	464	24	1073	14	10	17	79	235627	3848219	17635
275	2018-06-10 20:36:37		0	0	0	0	0	0	6.13	5.98	0.07	283479	0	20495	195907	283479	283479	16944	154	464	24	1073	14	10	17	79	235734	3848243	17641
276	2018-06-10 20:46:41		0	0	0	0	0	0	6.13	5.98	0.07	283655	0	20510	195907	283655	283655	16953	155	464	24	1074	14	10	17	79	235883	3848258	17651
277	2018-06-10 20:56:41		0	0	0	0	0	0	6.13	5.98	0.07	283813	0	20537	195907	283813	283813	16958	155	464	24	1074	14	10	17	79	236003	3848282	17656
278	2018-06-10 21:06:45		0	0	0	0	0	0	6.14	5.97	0.07	284003	0	20567	196205	284003	284003	16968	155	464	24	1074	14	10	17	79	236157	3848302	17666
279	2018-06-10 21:16:42		0	0	0	0	0	0	6.14	5.98	0.07	284192	0	20595	196205	284192	284192	16981	155	464	24	1074	14	10	17	79	236318	3848323	17679
280	2018-06-10 21:26:43		0	0	0	0	0	0	6.14	5.98	0.07	284362	0	20619	196504	284362	284362	16991	156	464	24	1074	14	10	17	79	236458	3848343	17690
281	2018-06-10 21:36:43		0	0	0	0	0	0	6.15	5.98	0.07	284551	0	20640	196504	284551	284551	17003	156	464	24	1075	14	10	17	79	236615	3848363	17702
282	2018-06-10 21:46:45		0	0	0	0	0	0	6.15	5.98	0.07	284717	0	20660	196504	284717	284717	17013	156	465	24	1076	14	10	17	79	236754	3848387	17713
283	2018-06-10 21:56:47		0	0	0	0	0	0	6.16	5.97	0.07	284908	0	20683	196653	284908	284908	17021	156	465	24	1076	14	10	17	79	236906	3848413	17721
284	2018-06-10 22:06:51		0	0	0	0	0	0	6.16	5.97	0.07	285102	0	20711	196828	285102	285102	17031	156	465	24	1077	14	10	17	79	237064	3848431	17731
285	2018-06-10 22:16:48		0	0	0	0	0	0	6.16	5.97	0.07	285300	0	20733	196866	285300	285300	17040	156	465	24	1077	14	10	17	79	237231	3848453	17740
286	2018-06-10 22:26:47		0	0	0	0	0	0	6.17	5.97	0.07	285499	0	20755	196966	285499	285499	17049	156	465	24	1078	14	10	17	79	237393	3848468	17749
287	2018-06-10 22:36:50		0	0	0	0	0	0	6.17	5.97	0.07	285653	0	20779	197343	285653	285653	17055	156	465	24	1078	14	10	17	79	237518	3848489	17755
288	2018-06-10 22:46:48		0	0	0	0	0	0	6.18	5.97	0.07	285826	0	20801	197494	285826	285826	17063	156	465	25	1079	14	10	17	79	237652	3848511	17763
289	2018-06-10 22:56:49		0	0	0	0	0	0	6.18	5.97	0.07	285986	0	20827	197494	285986	285986	17067	156	465	25	1079	14	10	17	79	237779	3848539	17767
290	2018-06-10 23:06:47		0	0	0	0	0	0	6.18	5.97	0.07	286126	0	20848	197494	286126	286126	17075	156	466	25	1079	14	10	17	79	237894	3848556	17776
291	2018-06-10 23:16:47		0	0	0	0	0	0	6.19	5.97	0.07	286294	0	20867	197595	286294	286294	17086	156	466	25	1081	14	10	17	79	238038	3848586	17787
292	2018-06-10 23:26:48		0	0	0	0	0	0	6.19	5.97	0.07	286483	0	20891	197784	286483	286483	17097	156	466	25	1081	14	10	17	79	238181	3848610	17798
293	2018-06-10 23:36:50		0	0	0	0	0	0	6.19	5.97	0.07	286613	0	20900	197784	286613	286613	17100	156	466	25	1081	14	10	17	79	238297	3848623	17801
294	2018-06-10 23:46:51		0	0	0	0	0	0	6.19	5.97	0.07	286742	0	20915	197885	286742	286742	17107	156	466	25	1081	14	10	17	79	238413	3848659	17808
295	2018-06-10 23:56:49		0	0	0	0	0	0	6.2	5.97	0.07	286856	0	20934	197885	286856	286856	17111	156	466	25	1082	14	10	17	79	238491	3848679	17812
296	2018-06-11 00:06:51		0	0	0	0	0	0	6.2	5.96	0.07	286994	0	20956	198088	286994	286994	17116	156	467	25	1082	14	10	17	79	238601	3848704	17818
297	2018-06-11 00:16:50		0	0	0	0	0	0	6.2	5.96	0.07	287139	0	20970	198088	287139	287139	17124	156	468	25	1082	14	10	17	79	238713	3848718	17827
298	2018-06-11 00:26:51		0	0	0	0	0	0	6.2	5.96	0.07	287229	0	20988	198291	287229	287229	17129	157	468	25	1082	14	10	17	79	238786	3848732	17833
299	2018-06-11 00:36:51		0	0	0	0	0	0	6.21	5.96	0.07	287351	0	21011	198335	287351	287351	17136	157	468	25	1082	14	10	17	79	238880	3848741	17840
300	2018-06-11 00:46:52		0	0	0	0	0	0	6.21	5.96	0.07	287459	0	21033	198335	287459	287459	17142	157	468	25	1083	14	10	17	79	238959	3848747	17846
301	2018-06-11 00:56:52		0	0	0	0	0	0	6.21	5.96	0.07	287574	0	21047	198335	287574	287574	17152	157	468	25	1084	14	10	17	80	239060	3848760	17857
302	2018-06-11 01:06:54		0	0	0	0	0	0	6.21	5.96	0.07	287673	0	21065	198335	287673	287673	17155	157	468	25	1085	14	10	17	80	239144	3848774	17860
303	2018-06-11 01:16:54		0	0	0	0	0	0	6.22	5.96	0.07	287759	0	21079	198335	287759	287759	17162	157	469	25	1085	14	10	17	80	239210	3848784	17868
304	2018-06-11 01:26:55		0	0	0	0	0	0	6.22	5.96	0.07	287815	0	21086	198335	287815	287815	17163	157	469	25	1085	14	10	17	80	239259	3848794	17869
305	2018-06-11 01:36:56		0	0	0	0	0	0	6.22	5.96	0.07	287888	0	21098	198411	287888	287888	17169	157	469	25	1085	14	10	17	80	239313	3848803	17875
306	2018-06-11 01:46:55		0	0	0	0	0	0	6.22	5.96	0.07	287928	0	21108	198411	287928	287928	17171	157	469	25	1085	14	10	17	80	239341	3848814	17877
307	2018-06-11 01:56:56		0	0	0	0	0	0	6.22	5.96	0.07	287970	0	21118	198411	287970	287970	17172	157	469	25	1085	14	10	17	80	239365	3848815	17878
308	2018-06-11 02:06:58		0	0	0	0	0	0	6.22	5.96	0.07	288008	0	21124	198411	288008	288008	17174	157	469	25	1085	14	10	17	80	239400	3848819	17880
309	2018-06-11 02:16:56		0	0	0	0	0	0	6.22	5.96	0.07	288044	0	21130	198411	288044	288044	17175	157	469	25	1085	14	10	17	80	239423	3848819	17881
310	2018-06-11 02:26:58		0	0	0	0	0	0	6.22	5.96	0.07	288090	0	21139	198411	288090	288090	17177	157	469	25	1085	14	10	17	80	239460	3848820	17883
311	2018-06-11 02:36:58		0	0	0	0	0	0	6.22	5.96	0.07	288129	0	21141	198411	288129	288129	17178	157	469	25	1085	14	10	17	80	239493	3848825	17884
312	2018-06-11 02:46:58		0	0	0	0	0	0	6.22	5.96	0.07	288157	0	21147	198411	288157	288157	17179	157	469	25	1085	14	10	17	80	239514	3848830	17885
313	2018-06-11 02:57:00		0	0	0	0	0	0	6.22	5.96	0.07	288191	0	21152	198411	288191	288191	17183	157	469	25	1085	14	10	17	80	239540	3848829	17889
314	2018-06-11 03:07:02		0	0	0	0	0	0	6.22	5.96	0.07	288212	0	21153	198411	288212	288212	17184	157	469	25	1085	14	10	17	80	239557	3848829	17890
315	2018-06-11 03:17:01		0	0	0	0	0	0	6.22	5.96	0.07	288249	0	21158	198411	288249	288249	17186	157	469	25	1085	14	10	17	80	239589	3848826	17892
316	2018-06-11 03:27:01		0	0	0	0	0	0	6.23	5.96	0.07	288270	0	21163	198411	288270	288270	17187	157	469	25	1085	14	10	17	80	239605	3848825	17893
317	2018-06-11 03:37:02		0	0	0	0	0	0	6.23	5.96	0.07	288292	0	21167	198411	288292	288292	17187	157	469	25	1085	14	10	17	80	239624	3848822	17893
318	2018-06-11 03:47:02		0	0	0	0	0	0	6.23	5.96	0.07	288307	0	21171	198564	288307	288307	17188	157	469	25	1085	14	10	17	80	239633	3848823	17894
319	2018-06-11 03:57:02		0	0	0	0	0	0	6.23	5.96	0.07	288330	0	21177	198564	288330	288330	17189	157	469	25	1085	14	10	17	80	239649	3848823	17895
320	2018-06-11 04:07:03		0	0	0	0	0	0	6.23	5.96	0.07	288355	0	21180	198564	288355	288355	17190	157	469	25	1085	14	10	17	80	239670	3848824	17896
321	2018-06-11 04:17:03		0	0	0	0	0	0	6.23	5.96	0.07	288369	0	21182	198564	288369	288369	17190	157	469	25	1085	14	10	17	80	239681	3848826	17896
322	2018-06-11 04:27:04		0	0	0	0	0	0	6.23	5.96	0.07	288390	0	21183	198717	288390	288390	17191	157	470	25	1085	14	10	17	80	239698	3848828	17898
323	2018-06-11 04:37:06		0	0	0	0	0	0	6.23	5.96	0.07	288406	0	21184	198717	288406	288406	17191	157	470	25	1085	14	10	17	80	239711	3848827	17898
324	2018-06-11 04:47:07		0	0	0	0	0	0	6.23	5.96	0.07	288427	0	21190	199023	288427	288427	17192	157	470	25	1085	14	10	17	80	239726	3848829	17899
325	2018-06-11 04:57:09		0	0	0	0	0	0	6.23	5.96	0.07	288439	0	21194	199023	288439	288439	17193	157	471	25	1085	14	10	17	80	239745	3848828	17901
326	2018-06-11 05:07:07		0	0	0	0	0	0	6.23	5.96	0.07	288472	0	21199	199023	288472	288472	17196	157	471	25	1085	14	10	17	80	239757	3848827	17904
327	2018-06-11 05:17:07		0	0	0	0	0	0	6.23	5.96	0.07	288495	0	21201	199023	288495	288495	17197	157	471	25	1085	14	10	17	80	239777	3848830	17905
328	2018-06-11 05:27:07		0	0	0	0	0	0	6.23	5.96	0.07	288533	0	21204	199023	288533	288533	17197	157	471	25	1085	14	10	17	80	239808	3848832	17905
329	2018-06-11 05:37:08		0	0	0	0	0	0	6.23	5.96	0.07	288557	0	21206	199023	288557	288557	17198	157	471	25	1085	14	10	17	80	239828	3848834	17906
330	2018-06-11 05:47:09		0	0	0	0	0	0	6.23	5.96	0.07	288583	0	21212	199023	288583	288583	17199	157	471	25	1085	14	10	17	80	239849	3848837	17907
331	2018-06-11 05:57:09		0	0	0	0	0	0	6.23	5.96	0.07	288618	0	21216	199049	288618	288618	17199	157	471	25	1085	14	10	17	80	239880	3848836	17907
332	2018-06-11 06:07:16		0	0	0	0	0	0	6.23	5.96	0.07	288660	0	21218	199049	288660	288660	17199	157	472	25	1085	14	10	17	80	239915	3848839	17908
333	2018-06-11 06:17:13		0	0	0	0	0	0	6.23	5.96	0.07	288708	0	21222	199203	288708	288708	17202	157	472	25	1085	14	10	17	80	239953	3848841	17911
334	2018-06-11 06:27:12		0	0	0	0	0	0	6.24	5.96	0.07	288749	0	21225	199203	288749	288749	17203	157	472	25	1085	14	10	17	80	239990	3848842	17912
335	2018-06-11 06:37:14		0	0	0	0	0	0	6.24	5.96	0.07	288789	0	21228	199203	288789	288789	17207	157	472	25	1085	14	10	17	80	240023	3848838	17916
336	2018-06-11 06:47:15		0	0	0	0	0	0	6.24	5.96	0.07	288842	0	21233	199203	288842	288842	17208	157	472	25	1085	14	10	17	80	240067	3848843	17917
337	2018-06-11 06:57:13		0	0	0	0	0	0	6.24	5.96	0.07	288899	0	21236	199203	288899	288899	17214	157	472	25	1085	14	10	17	80	240115	3848854	17923
338	2018-06-11 07:07:14		0	0	0	0	0	0	6.24	5.96	0.07	288946	0	21242	199254	288946	288946	17216	157	472	25	1085	14	10	17	80	240153	3848867	17925
339	2018-06-11 07:17:14		0	0	0	0	0	0	6.24	5.96	0.07	289022	0	21245	199254	289022	289022	17218	157	472	25	1085	14	10	17	80	240222	3848877	17927
340	2018-06-11 07:27:14		0	0	0	0	0	0	6.24	5.96	0.07	289107	0	21248	199254	289107	289107	17224	157	472	25	1085	14	10	17	80	240301	3848877	17933
341	2018-06-11 07:37:15		0	0	0	0	0	0	6.25	5.96	0.07	289198	0	21262	199254	289198	289198	17227	157	472	25	1085	14	10	17	80	240372	3848879	17936
342	2018-06-11 07:47:16		0	0	0	0	0	0	6.25	5.96	0.07	289288	0	21272	199453	289288	289288	17231	157	472	25	1085	14	10	17	80	240448	3848887	17940
343	2018-06-11 07:57:16		0	0	0	0	0	0	6.25	5.96	0.07	289369	0	21275	199479	289369	289369	17234	157	473	25	1085	14	10	17	80	240525	3848892	17944
344	2018-06-11 08:07:29		0	0	0	0	0	0	6.25	5.95	0.07	289465	0	21293	199479	289465	289465	17237	157	473	25	1085	14	10	17	80	240601	3848899	17947
345	2018-06-11 08:17:21		0	0	0	0	0	0	6.25	5.95	0.07	289556	0	21299	199762	289556	289556	17241	157	473	25	1085	14	10	17	80	240677	3848908	17951
346	2018-06-11 08:27:30		0	0	0	0	0	0	6.26	5.95	0.07	289665	0	21309	199762	289665	289665	17245	157	473	25	1086	14	10	17	81	240765	3848915	17956
347	2018-06-11 08:37:30		0	0	0	0	0	0	6.26	5.96	0.07	289761	0	21318	199762	289761	289761	17258	157	473	25	1087	14	10	17	81	240850	3848927	17969
348	2018-06-11 08:47:20		0	0	0	0	0	0	6.26	5.96	0.07	289876	0	21334	199762	289876	289876	17271	157	473	25	1088	14	10	17	82	240952	3848929	17983
349	2018-06-11 08:57:27		0	0	0	0	0	0	6.26	5.96	0.07	289993	0	21347	199942	289993	289993	17283	157	473	25	1089	14	10	17	82	241056	3848934	17995
350	2018-06-11 09:07:22		0	0	0	0	0	0	6.27	5.96	0.07	290114	0	21366	199942	290114	290114	17289	157	473	25	1089	14	10	17	82	241154	3848943	18001
351	2018-06-11 09:17:22		0	0	0	0	0	0	6.27	5.96	0.07	290238	0	21391	199942	290238	290238	17299	157	474	25	1092	14	10	17	82	241249	3848953	18012
352	2018-06-11 09:27:23		0	0	0	0	0	0	6.27	5.96	0.07	290373	0	21404	200564	290373	290373	17311	157	474	25	1092	14	10	17	82	241364	3848955	18024
353	2018-06-11 09:37:24		0	0	0	0	0	0	6.27	5.96	0.07	290496	0	21413	200616	290496	290496	17320	157	474	25	1093	14	10	17	82	241470	3848966	18033
354	2018-06-11 09:47:24		0	0	0	0	0	0	6.28	5.96	0.07	290625	0	21424	200616	290625	290625	17327	157	474	25	1093	14	10	17	82	241582	3848975	18040
355	2018-06-11 09:57:24		0	0	0	0	0	0	6.28	5.96	0.07	290760	0	21442	200616	290760	290760	17343	157	475	25	1094	14	10	17	82	241694	3848988	18057
356	2018-06-11 10:07:26		0	0	0	0	0	0	6.28	5.96	0.07	290875	0	21457	200616	290875	290875	17349	157	475	25	1094	14	10	17	82	241790	3848995	18063
357	2018-06-11 10:17:28		0	0	0	0	0	0	6.28	5.96	0.07	290999	0	21483	200772	290999	290999	17356	157	475	25	1094	14	10	17	82	241882	3849009	18070
358	2018-06-11 10:27:27		0	0	0	0	0	0	6.29	5.96	0.07	291100	0	21492	200824	291100	291100	17362	157	475	25	1095	14	10	17	82	241970	3849019	18076
359	2018-06-11 10:37:28		0	0	0	0	0	0	6.29	5.96	0.07	291205	0	21507	200824	291205	291205	17369	157	475	25	1095	14	10	17	82	242058	3849028	18083
360	2018-06-11 10:47:28		0	0	0	0	0	0	6.29	5.96	0.07	291337	0	21523	201020	291337	291337	17377	157	475	25	1095	14	10	17	82	242160	3849040	18091
361	2018-06-11 10:57:29		0	0	0	0	0	0	6.29	5.97	0.07	291465	0	21543	201020	291465	291465	17387	157	475	25	1095	14	10	17	82	242266	3849050	18101
362	2018-06-11 11:07:30		0	0	0	0	0	0	6.3	5.97	0.07	291595	0	21552	201020	291595	291595	17394	157	475	25	1097	14	10	17	83	242381	3849076	18109
363	2018-06-11 11:17:34		0	0	0	0	0	0	6.3	5.97	0.07	291695	0	21572	201020	291695	291695	17401	157	475	25	1098	14	10	17	83	242464	3849092	18116
364	2018-06-11 11:27:30		0	0	0	0	0	0	6.3	5.97	0.07	291774	0	21590	201118	291774	291774	17408	157	475	25	1100	14	10	17	83	242526	3849107	18123
365	2018-06-11 11:37:31		0	0	0	0	0	0	6.3	5.97	0.07	291860	0	21605	201222	291860	291860	17415	157	476	25	1100	14	10	17	83	242595	3849123	18131
366	2018-06-11 11:47:32		0	0	0	0	0	0	6.3	5.97	0.07	291946	0	21619	201275	291946	291946	17416	157	478	25	1100	15	10	17	83	242659	3849132	18134
367	2018-06-11 11:57:34		0	0	0	0	0	0	6.31	5.96	0.07	292035	0	21638	201275	292035	292035	17417	157	478	25	1100	15	10	17	83	242728	3849144	18135
368	2018-06-11 12:07:36		0	0	0	0	0	0	6.31	5.96	0.07	292107	0	21647	201275	292107	292107	17422	157	478	25	1100	15	10	17	83	242785	3849159	18140
369	2018-06-11 12:17:35		0	0	0	0	0	0	6.31	5.96	0.07	292158	0	21660	201275	292158	292158	17426	157	478	25	1100	15	10	17	83	242820	3849170	18144
370	2018-06-11 12:27:43		0	0	0	0	0	0	6.31	5.97	0.07	292243	0	21685	201275	292243	292243	17437	157	478	25	1100	15	10	17	83	242884	3849181	18155
371	2018-06-11 12:37:39		0	0	0	0	0	0	6.31	5.97	0.07	292313	0	21700	201275	292313	292313	17440	157	478	25	1100	15	10	17	83	242934	3849197	18158
372	2018-06-11 12:47:40		0	0	0	0	0	0	6.31	5.97	0.07	292391	0	21709	201275	292391	292391	17442	157	478	25	1100	15	10	17	83	242999	3849207	18160
373	2018-06-11 12:57:40		0	0	0	0	0	0	6.31	5.97	0.07	292454	0	21721	201458	292454	292454	17447	157	478	25	1100	15	10	17	83	243046	3849217	18165
374	2018-06-11 13:07:39		0	0	0	0	0	0	6.32	5.97	0.07	292528	0	21735	201458	292528	292528	17455	157	478	25	1100	15	10	17	83	243102	3849222	18173
375	2018-06-11 13:17:37		0	0	0	0	0	0	6.32	5.97	0.07	292605	0	21755	201458	292605	292605	17461	158	478	25	1100	15	10	17	83	243159	3849240	18180
376	2018-06-11 13:27:38		0	0	0	0	0	0	6.32	5.97	0.07	292682	0	21774	201484	292682	292682	17466	158	478	25	1101	15	10	17	83	243214	3849260	18185
377	2018-06-11 13:37:38		0	0	0	0	0	0	6.32	5.97	0.07	292772	0	21806	201563	292772	292772	17469	158	478	25	1101	15	10	17	83	243268	3849269	18188
378	2018-06-11 13:47:42		0	0	0	0	0	0	6.32	5.97	0.07	292851	0	21818	201563	292851	292851	17477	158	478	25	1101	15	10	17	83	243331	3849277	18196
379	2018-06-11 13:57:40		0	0	0	0	0	0	6.32	5.97	0.07	292949	0	21841	201615	292949	292949	17480	158	478	25	1102	15	10	17	83	243406	3849291	18199
380	2018-06-11 14:07:41		0	0	0	0	0	0	6.33	5.97	0.07	293047	0	21869	201615	293047	293047	17485	158	478	25	1103	15	10	17	83	243485	3849300	18204
381	2018-06-11 14:17:42		0	0	0	0	0	0	6.33	5.97	0.07	293120	0	21888	201615	293120	293120	17490	158	478	25	1103	15	10	17	83	243539	3849307	18209
382	2018-06-11 14:27:43		0	0	0	0	0	0	6.33	5.97	0.07	293205	0	21910	201615	293205	293205	17491	158	478	25	1103	15	10	17	83	243599	3849321	18210
383	2018-06-11 14:37:43		0	0	0	0	0	0	6.33	5.97	0.07	293271	0	21923	201615	293271	293271	17497	158	478	25	1104	15	10	17	83	243651	3849340	18216
384	2018-06-11 14:48:07		0	0	0	0	0	0	6.33	5.97	0.07	293349	0	21939	201615	293349	293349	17500	158	478	25	1104	15	10	17	83	243711	3849351	18219
385	2018-06-11 14:58:06		0	0	0	0	0	0	6.33	5.97	0.07	293427	0	21953	201826	293427	293427	17506	158	478	25	1105	15	10	17	83	243775	3849370	18225
386	2018-06-11 15:07:47		0	0	0	0	0	0	6.33	5.97	0.07	293514	0	21965	201826	293514	293514	17514	158	478	25	1105	15	10	17	83	243849	3849385	18233
387	2018-06-11 15:17:47		0	0	0	0	0	0	6.34	5.97	0.07	293594	0	21973	201826	293594	293594	17519	158	478	25	1106	15	10	17	83	243918	3849396	18238
388	2018-06-11 15:27:48		0	0	0	0	0	0	6.34	5.97	0.07	293687	0	21987	201826	293687	293687	17524	158	478	25	1106	15	10	17	83	243996	3849408	18243
389	2018-06-11 15:37:50		0	0	0	0	0	0	6.34	5.97	0.07	293769	0	22001	201826	293769	293769	17528	158	478	25	1106	15	10	17	83	244058	3849415	18247
390	2018-06-11 15:47:56		0	0	0	0	0	0	6.34	5.97	0.07	293843	0	22014	201826	293843	293843	17535	158	478	25	1106	15	10	17	83	244119	3849422	18254
391	2018-06-11 15:57:51		0	0	0	0	0	0	6.34	5.97	0.07	293917	0	22029	201826	293917	293917	17544	158	478	25	1106	15	10	17	83	244180	3849434	18263
392	2018-06-11 16:07:53		0	0	0	0	0	0	6.34	5.97	0.07	293984	0	22042	201905	293984	293984	17548	158	478	25	1106	15	10	17	83	244235	3849447	18267
393	2018-06-11 16:17:51		0	0	0	0	0	0	6.35	5.97	0.07	294039	0	22048	201905	294039	294039	17550	158	478	25	1106	15	10	17	83	244279	3849458	18269
394	2018-06-11 16:26:51		0	0	0	0	0	0	6.35	5.97	0.07	294096	0	22057	202010	294096	294096	17555	158	478	25	1106	15	10	17	83	244324	3849472	18274
395	2018-06-11 16:36:50		0	0	0	0	0	0	6.35	5.97	0.08	294164	0	22064	202010	294164	294164	17560	158	478	25	1106	15	10	17	83	244384	3849487	18279
396	2018-06-11 16:46:50		0	0	0	0	0	0	6.35	5.97	0.08	294231	0	22074	202274	294231	294231	17567	158	478	25	1106	15	10	17	83	244439	3849500	18286
397	2018-06-11 16:56:51		0	0	0	0	0	0	6.35	5.97	0.08	294291	0	22081	202274	294291	294291	17572	158	478	25	1106	15	10	17	83	244485	3849514	18291
398	2018-06-11 17:06:52		0	0	0	0	0	0	6.35	5.97	0.08	294364	0	22094	202565	294364	294364	17575	158	478	25	1106	15	10	17	83	244533	3849524	18294
399	2018-06-11 17:17:19		0	0	0	0	0	0	6.35	5.97	0.08	294429	0	22104	202565	294429	294429	17579	158	478	25	1106	15	10	17	83	244591	3849533	18298
400	2018-06-11 17:27:04		0	0	0	0	0	0	6.36	5.97	0.08	294493	0	22114	202565	294493	294493	17580	159	479	25	1106	15	10	17	83	244643	3849546	18301
401	2018-06-11 17:37:02		0	0	0	0	0	0	6.36	5.97	0.08	294550	0	22125	202565	294550	294550	17580	159	479	25	1106	15	10	17	83	244687	3849561	18301
402	2018-06-11 17:46:58		0	0	0	0	0	0	6.36	5.97	0.08	294615	0	22142	202565	294615	294615	17584	159	479	25	1106	15	10	17	83	244731	3849577	18305
403	2018-06-11 17:57:00		0	0	0	0	0	0	6.36	5.97	0.08	294691	0	22160	202565	294691	294691	17587	159	479	25	1106	15	10	17	83	244783	3849588	18308
404	2018-06-11 18:06:59		0	0	0	0	0	0	6.36	5.97	0.08	294760	0	22169	202565	294760	294760	17588	159	479	25	1107	15	10	17	83	244839	3849611	18309
405	2018-06-11 18:17:24		0	0	0	0	0	0	6.36	5.97	0.08	294806	0	22179	202777	294806	294806	17590	159	481	25	1107	15	10	17	83	244877	3849624	18313
406	2018-06-11 18:27:03		0	0	0	0	0	0	6.36	5.97	0.08	294864	0	22192	202777	294864	294864	17592	159	481	25	1107	15	10	17	83	244921	3849644	18315
407	2018-06-11 18:37:01		0	0	0	0	0	0	6.36	5.97	0.08	294908	0	22202	202777	294908	294908	17598	159	481	25	1107	15	10	17	83	244950	3849668	18321
408	2018-06-11 18:47:00		0	0	0	0	0	0	6.36	5.97	0.08	294970	0	22213	202777	294970	294970	17603	159	481	25	1108	15	10	17	83	245002	3849691	18326
409	2018-06-11 18:57:01		0	0	0	0	0	0	6.37	5.97	0.08	295031	0	22221	202777	295031	295031	17606	159	481	25	1108	15	10	17	83	245053	3849701	18329
410	2018-06-11 19:07:03		0	0	0	0	0	0	6.37	5.97	0.08	295096	0	22242	202777	295096	295096	17612	159	481	25	1109	15	10	17	83	245099	3849725	18335
411	2018-06-11 19:17:03		0	0	0	0	0	0	6.37	5.97	0.08	295163	0	22255	202777	295163	295163	17617	159	481	25	1109	15	10	17	84	245155	3849742	18341
412	2018-06-11 19:27:02		0	0	0	0	0	0	6.37	5.97	0.08	295219	0	22268	202777	295219	295219	17622	159	481	25	1109	15	10	17	84	245195	3849752	18346
413	2018-06-11 19:37:02		0	0	0	0	0	0	6.37	5.97	0.08	295271	0	22279	202777	295271	295271	17625	159	481	25	1109	15	10	17	84	245228	3849764	18349
414	2018-06-11 19:47:03		0	0	0	0	0	0	6.37	5.97	0.08	295327	0	22290	203236	295327	295327	17629	159	481	25	1109	15	10	17	84	245267	3849784	18353
