1	2017-02-03 13:56:06	0	0	0	0	0	0	0.04	0.35	0	1139	1	0	1079	1139	1139	4	2	15	2	1076	2613233	23
2	2017-02-03 14:06:06	0	0	0	0	0	0	0.98	2.16	0	30146	1	113	13993	30146	30033	652	38	92	9	25673	2613269	791
3	2017-02-03 14:16:06	0	0	0	0	0	0	1.67	2.46	0.01	54393	1	570	44181	54393	53823	1337	52	167	18	43536	2613300	1574
4	2017-02-03 14:26:06	0	0	0	0	0	0	2.01	2.75	0.01	69122	1	991	49466	69122	68131	1901	62	227	21	52558	2613324	2211
5	2017-02-03 14:36:06	0	0	0	0	0	0	2.33	2.94	0.02	82311	1	1431	62638	82311	80880	2420	76	276	21	60923	2613354	2793
6	2017-02-03 14:46:06	0	0	0	0	0	0	2.58	3.06	0.02	94249	1	1899	69820	94249	92350	2883	90	332	21	67362	2613385	3326
7	2017-02-03 14:56:07	0	0	0	0	0	0	2.83	3.13	0.02	104449	1	2349	77210	104449	102100	3272	90	365	24	73874	2613405	3751
8	2017-02-03 15:06:07	0	0	0	0	0	0	2.98	3.2	0.03	112747	1	2761	79591	112747	109986	3607	102	399	24	77978	2613420	4132
9	2017-02-03 15:16:08	0	0	0	0	0	0	3.18	3.24	0.03	120460	1	3223	87267	120460	117237	3903	108	420	24	83195	2613448	4455
10	2017-02-03 15:26:07	0	0	0	0	0	0	3.31	3.28	0.03	127829	1	3622	90520	127829	124207	4198	112	448	24	86551	2613481	4782
11	2017-02-03 15:36:09	0	0	0	0	0	0	3.44	3.29	0.03	134865	1	4029	92480	134865	130836	4435	114	469	25	90019	2613499	5043
12	2017-02-03 15:46:09	0	0	0	0	0	0	3.54	3.3	0.03	140514	1	4409	97063	140514	136105	4634	114	484	25	92553	2613512	5257
13	2017-02-03 15:56:10	0	0	0	0	0	0	3.65	3.3	0.03	145894	1	4757	100176	145894	141137	4820	120	499	25	95392	2613536	5464
14	2017-02-03 16:06:10	0	0	0	0	0	0	3.77	3.33	0.03	150507	1	5061	103022	150507	145446	5009	124	511	25	98612	2613550	5669
15	2017-02-03 16:16:10	0	0	0	0	0	0	3.84	3.35	0.04	154883	1	5341	105226	154883	149542	5181	124	525	25	100261	2613560	5855
16	2017-02-03 16:26:09	0	0	0	0	0	0	3.9	3.36	0.04	159213	1	5615	106941	159213	153598	5343	124	532	25	101954	2613577	6024
17	2017-02-03 16:36:09	0	0	0	0	0	0	4.01	3.36	0.04	163426	1	5861	107978	163426	157565	5493	126	554	25	104911	2613606	6198
18	2017-02-03 16:46:11	0	0	0	0	0	0	4.09	3.36	0.04	167389	1	6086	112075	167389	161303	5616	130	564	25	106830	2613624	6335
19	2017-02-03 16:56:11	0	0	0	0	0	0	4.16	3.34	0.04	170993	1	6277	113898	170993	164716	5713	130	576	26	108823	2613644	6445
20	2017-02-03 17:06:11	0	0	0	0	0	0	4.22	3.34	0.04	173954	1	6476	115349	173954	167478	5817	130	587	28	110233	2613679	6562
21	2017-02-03 17:16:11	0	0	0	0	0	0	4.25	3.35	0.04	176819	1	6667	116895	176819	170152	5921	132	593	28	111131	2613739	6674
22	2017-02-03 17:26:12	0	0	0	0	0	0	4.31	3.35	0.04	179773	1	6834	118408	179773	172939	6020	134	602	28	112711	2613796	6784
23	2017-02-03 17:36:15	0	0	0	0	0	0	4.41	3.35	0.04	182698	1	6978	121226	182698	175720	6117	134	616	28	115287	2613845	6895
24	2017-02-03 17:46:13	0	0	0	0	0	0	4.44	3.35	0.04	185636	1	7150	122267	185636	178486	6224	138	629	28	116159	2613926	7019
25	2017-02-03 17:56:12	0	0	0	0	0	0	4.55	3.34	0.04	188729	1	7333	125399	188729	181396	6308	142	636	28	118957	2613994	7114
26	2017-02-03 18:06:14	0	0	0	0	0	0	4.64	3.34	0.04	191958	1	7501	127572	191958	184457	6407	144	647	28	121242	2614081	7226
27	2017-02-03 18:16:12	0	0	0	0	0	0	4.69	3.33	0.04	194996	1	7659	129118	194996	187337	6485	150	659	28	122483	2614167	7322
28	2017-02-03 18:26:15	0	0	0	0	0	0	4.77	3.32	0.04	198022	1	7845	130641	198022	190177	6581	150	665	28	124716	2614226	7424
29	2017-02-03 18:36:13	0	0	0	0	0	0	4.82	3.31	0.04	200837	1	8023	132831	200837	192814	6657	154	677	28	125922	2614270	7516
30	2017-02-03 18:46:13	0	0	0	0	0	0	4.87	3.31	0.04	203312	1	8184	134385	203312	195128	6722	156	684	29	127443	2614310	7591
31	2017-02-03 18:56:14	0	0	0	0	0	0	4.93	3.3	0.04	205741	1	8331	135902	205741	197410	6798	156	689	29	128896	2614350	7672
32	2017-02-03 19:06:15	0	0	0	0	0	0	4.99	3.3	0.04	207772	1	8465	137076	207772	199307	6860	160	693	29	130534	2614394	7742
33	2017-02-03 19:16:15	0	0	0	0	0	0	5	3.3	0.04	209791	1	8616	138030	209791	201175	6915	160	706	30	130808	2614425	7811
34	2017-02-03 19:26:15	0	0	0	0	0	0	5.07	3.3	0.04	211985	1	8771	139762	211985	203214	6988	160	718	30	132532	2614483	7896
35	2017-02-03 19:36:15	0	0	0	0	0	0	5.11	3.29	0.04	214248	1	8926	140211	214248	205322	7044	160	724	30	133705	2614533	7958
36	2017-02-03 19:46:15	0	0	0	0	0	0	5.13	3.27	0.04	216412	1	9077	141285	216412	207335	7073	162	728	30	134238	2614576	7993
37	2017-02-03 19:56:16	0	0	0	0	0	0	5.21	3.28	0.04	218423	1	9200	143004	218423	209223	7160	162	732	30	136255	2614623	8084
38	2017-02-03 20:06:16	0	0	0	0	0	0	5.27	3.27	0.04	220470	1	9304	144535	220470	211166	7214	162	738	30	137748	2614677	8144
39	2017-02-03 20:16:18	0	0	0	0	0	0	5.3	3.27	0.04	222451	1	9427	145395	222451	213024	7279	164	748	30	138529	2614747	8221
40	2017-02-03 20:26:16	0	0	0	0	0	0	5.34	3.25	0.04	224619	1	9559	145655	224619	215060	7301	164	755	30	139738	2614801	8250
41	2017-02-03 20:36:16	0	0	0	0	0	0	5.41	3.25	0.04	226806	1	9688	148582	226806	217118	7382	166	760	31	141497	2614876	8339
42	2017-02-03 20:46:17	0	0	0	0	0	0	5.48	3.23	0.04	228836	1	9816	150142	228836	219020	7401	168	768	31	143294	2614939	8368
43	2017-02-03 20:56:18	0	0	0	0	0	0	5.5	3.23	0.04	230738	1	9929	151390	230738	220809	7464	168	777	31	143834	2614996	8440
44	2017-02-03 21:06:18	0	0	0	0	0	0	5.54	3.23	0.05	232526	1	10055	152911	232526	222471	7509	170	782	31	144799	2615048	8492
45	2017-02-03 21:16:18	0	0	0	0	0	0	5.57	3.22	0.05	234357	1	10202	153739	234357	224155	7551	176	789	31	145760	2615101	8547
46	2017-02-03 21:26:18	0	0	0	0	0	0	5.6	3.22	0.05	236169	1	10310	154742	236169	225859	7603	178	794	31	146578	2615170	8606
47	2017-02-03 21:36:18	0	0	0	0	0	0	5.64	3.21	0.05	238139	1	10427	155824	238139	227712	7655	180	800	31	147450	2615241	8666
48	2017-02-03 21:46:19	0	0	0	0	0	0	5.68	3.21	0.05	240149	1	10541	156938	240149	229608	7702	180	811	31	148618	2615314	8724
49	2017-02-03 21:56:20	0	0	0	0	0	0	5.71	3.2	0.05	242106	1	10655	157687	242106	231451	7739	180	816	31	149290	2615374	8766
50	2017-02-03 22:06:31	0	0	0	0	0	0	5.74	3.2	0.05	243530	1	10734	158958	243530	232796	7788	180	818	31	150253	2615450	8817
51	2017-02-03 22:16:30	0	0	0	0	0	0	5.77	3.2	0.05	245018	1	10818	159515	245018	234200	7832	182	821	31	150868	2615544	8866
52	2017-02-03 22:26:28	0	0	0	0	0	0	5.8	3.19	0.05	246657	1	10933	160590	246657	235724	7863	182	829	32	151800	2615589	8906
53	2017-02-03 22:36:30	0	0	0	0	0	0	5.83	3.19	0.05	248301	1	11040	161200	248301	237261	7913	182	837	32	152563	2615681	8964
54	2017-02-03 22:46:30	0	0	0	0	0	0	5.88	3.18	0.05	250104	1	11140	162341	250104	238964	7952	184	842	32	153829	2615725	9010
55	2017-02-03 22:56:31	0	0	0	0	0	0	5.9	3.17	0.05	251905	1	11265	162957	251905	240640	7994	184	847	32	154350	2615787	9057
56	2017-02-03 23:06:31	0	0	0	0	0	0	5.94	3.17	0.05	253691	1	11360	163835	253691	242331	8036	188	850	32	155371	2615842	9106
57	2017-02-03 23:16:30	0	0	0	0	0	0	5.99	3.17	0.05	255441	1	11455	165344	255441	243986	8091	190	853	33	156728	2615894	9167
58	2017-02-03 23:26:29	0	0	0	0	0	0	6.02	3.16	0.05	257363	1	11553	165866	257363	245810	8141	190	860	33	157453	2615946	9224
59	2017-02-03 23:36:30	0	0	0	0	0	0	6.06	3.16	0.05	259156	1	11654	167011	259156	247502	8195	192	867	34	158484	2615992	9288
60	2017-02-03 23:46:30	0	0	0	0	0	0	6.1	3.16	0.05	260872	1	11740	168322	260872	249132	8232	192	868	34	159697	2616042	9326
61	2017-02-03 23:56:30	0	0	0	0	0	0	6.16	3.15	0.05	262655	1	11829	169806	262655	250826	8277	194	875	34	161100	2616090	9380
62	2017-02-04 00:31:23	0	0	0	0	0	0	6.27	3.14	0.05	268003	1	12101	172471	268003	255902	8415	196	888	34	164098	2616187	9533
63	2017-02-04 01:31:23	0	0	0	0	0	0	6.42	3.12	0.05	274810	1	12351	176324	274810	262459	8580	200	907	34	168010	2616304	9721
64	2017-02-04 02:31:22	0	0	0	0	0	0	6.53	3.11	0.05	279417	1	12541	179299	279417	266876	8695	202	922	34	170633	2614768	9853
65	2017-02-04 03:31:24	0	0	0	0	0	0	6.56	3.1	0.05	282081	1	12621	180154	282081	269460	8757	202	924	34	171555	2614804	9917
66	2017-02-04 04:31:27	0	0	0	0	0	0	6.58	3.1	0.05	283968	1	12684	181127	283968	271284	8798	202	926	34	172135	2614832	9960
67	2017-02-04 05:31:24	0	0	0	0	0	0	6.63	3.1	0.05	285582	1	12751	182022	285582	272831	8844	204	927	34	173253	2614857	10009
68	2017-02-04 06:31:23	0	0	0	0	0	0	6.69	3.09	0.05	287885	1	12838	183788	287885	275047	8903	204	938	34	174931	2614922	10079
69	2017-02-04 07:06:25	0	0	0	0	0	0	6.73	3.09	0.05	290059	1	12958	184426	290059	277101	8971	206	943	35	175970	2615034	10155
70	2017-02-04 07:16:23	0	0	0	0	0	0	6.74	3.09	0.05	290924	1	13001	184547	290924	277923	8994	208	944	35	176331	2615074	10181
71	2017-02-04 07:26:22	0	0	0	0	0	0	6.76	3.09	0.05	291813	1	13036	184905	291813	278777	9019	210	946	35	176698	2615116	10210
72	2017-02-04 07:36:21	0	0	0	0	0	0	6.8	3.09	0.05	292773	1	13083	185893	292773	279690	9046	210	946	35	177927	2615161	10237
73	2017-02-04 07:46:24	0	0	0	0	0	0	6.83	3.09	0.05	293692	1	13149	186678	293692	280543	9070	212	947	35	178728	2615219	10264
74	2017-02-04 07:56:24	0	0	0	0	0	0	6.86	3.09	0.05	294756	1	13202	187219	294756	281554	9099	212	950	35	179328	2615281	10296
75	2017-02-04 08:06:24	0	0	0	0	0	0	6.88	3.09	0.05	296084	1	13266	188341	296084	282818	9144	212	955	35	180043	2615345	10346
76	2017-02-04 08:16:24	0	0	0	0	0	0	6.96	3.08	0.05	297550	1	13332	189748	297550	284218	9175	214	959	35	182117	2615417	10383
77	2017-02-04 08:26:25	0	0	0	0	0	0	6.99	3.09	0.05	299095	1	13402	191071	299095	285693	9229	214	965	35	182708	2615473	10443
78	2017-02-04 08:36:26	0	0	0	0	0	0	7	3.08	0.05	300686	1	13499	191508	300686	287187	9273	218	971	35	182978	2615542	10497
79	2017-02-04 08:46:25	0	0	0	0	0	0	7.01	3.08	0.05	302235	1	13633	191692	302235	288602	9322	218	974	35	183466	2615592	10549
80	2017-02-04 08:56:25	0	0	0	0	0	0	7.05	3.08	0.05	303822	1	13728	193540	303822	290094	9362	218	976	35	184304	2615665	10591
81	2017-02-04 09:06:27	0	0	0	0	0	0	7.07	3.08	0.05	305474	1	13831	194243	305474	291643	9412	218	982	35	184941	2615726	10647
82	2017-02-04 09:16:26	0	0	0	0	0	0	7.08	3.07	0.05	307221	1	13942	194316	307221	293279	9447	220	985	35	185206	2615776	10687
83	2017-02-04 09:26:27	0	0	0	0	0	0	7.1	3.07	0.05	308939	1	14038	195038	308939	294901	9497	222	987	35	185662	2615861	10741
84	2017-02-04 09:36:27	0	0	0	0	0	0	7.12	3.07	0.05	310715	1	14132	195871	310715	296583	9541	222	990	35	186338	2615915	10788
85	2017-02-04 09:46:27	0	0	0	0	0	0	7.15	3.07	0.05	312470	1	14253	196527	312470	298217	9595	222	998	35	186931	2615977	10850
86	2017-02-04 09:56:36	0	0	0	0	0	0	7.2	3.07	0.05	314179	1	14350	197878	314179	299829	9648	222	998	35	188285	2616043	10903
87	2017-02-04 10:06:28	0	0	0	0	0	0	7.21	3.07	0.05	315747	1	14436	198411	315747	301311	9684	224	1004	35	188589	2616104	10947
88	2017-02-04 10:16:27	0	0	0	0	0	0	7.24	3.07	0.05	317222	1	14561	199408	317222	302661	9723	224	1008	35	189350	2616189	10990
89	2017-02-04 10:26:29	0	0	0	0	0	0	7.29	3.06	0.05	318655	1	14664	200967	318655	303991	9764	226	1011	35	190732	2616268	11036
90	2017-02-04 10:36:30	0	0	0	0	0	0	7.3	3.06	0.05	320011	1	14753	201268	320011	305258	9803	226	1015	35	191003	2616350	11079
91	2017-02-04 10:46:44	0	0	0	0	0	0	7.32	3.06	0.05	321492	1	14842	201792	321492	306650	9843	226	1021	35	191476	2616430	11125
92	2017-02-04 10:56:37	0	0	0	0	0	0	7.35	3.06	0.05	322776	1	14920	202432	322776	307856	9880	226	1026	36	192195	2616496	11168
93	2017-02-04 11:06:36	0	0	0	0	0	0	7.4	3.06	0.05	323878	1	15004	202910	323878	308874	9921	226	1029	36	193564	2616578	11212
94	2017-02-04 11:16:32	0	0	0	0	0	0	7.42	3.06	0.05	325052	1	15083	204505	325052	309969	9949	228	1033	36	194086	2616650	11246
95	2017-02-04 11:26:34	0	0	0	0	0	0	7.46	3.06	0.05	326339	1	15170	205830	326339	311169	9987	230	1040	36	195279	2616672	11293
96	2017-02-04 11:36:35	0	0	0	0	0	0	7.48	3.06	0.05	327383	1	15262	206289	327383	312121	10015	230	1046	36	195792	2616701	11327
97	2017-02-04 11:47:15	0	0	0	0	0	0	7.54	3.06	0.05	328442	1	15353	208245	328442	313089	10051	230	1049	36	197251	2616736	11366
98	2017-02-04 11:56:51	0	0	0	0	0	0	7.54	3.06	0.05	329521	1	15434	208245	329521	314087	10077	232	1051	36	197251	2616780	11396
99	2017-02-04 12:06:47	0	0	0	0	0	0	7.56	3.06	0.05	330813	1	15520	208259	330813	315293	10114	234	1054	36	197792	2616812	11438
100	2017-02-04 12:16:46	0	0	0	0	0	0	7.58	3.05	0.05	332174	1	15603	209484	332174	316571	10143	236	1058	36	198362	2616846	11473
101	2017-02-04 12:26:45	0	0	0	0	0	0	7.61	3.05	0.05	333441	1	15690	210675	333441	317751	10180	238	1067	36	199070	2616875	11521
102	2017-02-04 12:36:44	0	0	0	0	0	0	7.64	3.05	0.05	334624	1	15776	211019	334624	318848	10214	238	1071	36	199880	2616902	11559
103	2017-02-04 12:47:14	0	0	0	0	0	0	7.68	3.05	0.05	335930	1	15851	212640	335930	320079	10261	242	1078	36	201040	2616952	11617
104	2017-02-04 12:57:24	0	0	0	0	0	0	7.71	3.05	0.05	337302	1	15968	213600	337302	321334	10304	250	1082	37	201846	2617008	11673
105	2017-02-04 13:07:14	0	0	0	0	0	0	7.73	3.05	0.05	338623	1	16089	214369	338623	322534	10342	250	1083	37	202268	2617054	11712
106	2017-02-04 13:17:11	0	0	0	0	0	0	7.75	3.05	0.05	339823	1	16170	214496	339823	323653	10370	250	1084	37	202910	2617104	11741
107	2017-02-04 13:27:13	0	0	0	0	0	0	7.79	3.05	0.05	341011	1	16286	215582	341011	324725	10413	252	1088	37	203882	2617137	11790
108	2017-02-04 13:37:13	0	0	0	0	0	0	7.81	3.05	0.05	342097	1	16362	216182	342097	325735	10451	254	1089	37	204527	2617174	11831
109	2017-02-04 13:47:21	0	0	0	0	0	0	7.88	3.05	0.05	343271	1	16432	217959	343271	326839	10483	256	1091	38	206117	2617227	11868
110	2017-02-04 13:57:34	0	0	0	0	0	0	7.9	3.05	0.05	344559	1	16506	218736	344559	328053	10526	258	1092	38	206757	2617274	11914
111	2017-02-04 14:07:46	0	0	0	0	0	0	7.92	3.05	0.05	345704	1	16569	219185	345704	329135	10550	258	1096	38	207269	2617323	11942
112	2017-02-04 14:17:45	0	0	0	0	0	0	7.95	3.05	0.05	346917	1	16651	219777	346917	330266	10585	258	1101	38	207965	2617361	11982
113	2017-02-04 14:27:48	0	0	0	0	0	0	8	3.05	0.05	348081	1	16722	220984	348081	331359	10621	260	1103	38	209286	2617396	12022
114	2017-02-04 14:37:46	0	0	0	0	0	0	8	3.05	0.05	349270	1	16794	220984	349270	332476	10660	264	1104	38	209286	2617422	12066
115	2017-02-04 14:47:46	0	0	0	0	0	0	8	3.05	0.05	350338	1	16854	220984	350338	333484	10696	264	1110	38	209442	2617459	12108
116	2017-02-04 14:58:04	0	0	0	0	0	0	8.02	3.05	0.05	351291	1	16931	221411	351291	334360	10720	264	1111	38	209953	2617476	12133
117	2017-02-04 15:08:34	0	0	0	0	0	0	8.03	3.05	0.05	352085	1	17006	221919	352085	335079	10750	266	1114	38	210295	2617502	12168
118	2017-02-04 15:18:39	0	0	0	0	0	0	8.06	3.05	0.05	352951	1	17074	222106	352951	335877	10779	266	1118	38	211066	2617528	12201
119	2017-02-04 15:28:59	0	0	0	0	0	0	8.07	3.05	0.05	353778	1	17152	222933	353778	336626	10801	266	1119	38	211264	2617557	12224
120	2017-02-04 15:39:03	0	0	0	0	0	0	8.08	3.05	0.05	354609	1	17214	223094	354609	337395	10822	266	1119	38	211408	2617600	12245
121	2017-02-04 15:49:03	0	0	0	0	0	0	8.09	3.05	0.05	355432	1	17277	223223	355432	338155	10842	266	1120	38	211697	2617640	12266
122	2017-02-04 15:59:36	0	0	0	0	0	0	8.12	3.05	0.05	356253	1	17346	224063	356253	338907	10863	266	1121	38	212453	2617671	12288
123	2017-02-04 16:10:56	0	0	0	0	0	0	8.14	3.05	0.05	356989	1	17404	224745	356989	339585	10888	268	1124	38	213125	2617714	12318
124	2017-02-04 16:24:26	0	0	0	0	0	0	8.16	3.05	0.05	358025	1	17482	225281	358025	340543	10910	268	1125	38	213606	2617761	12341
125	2017-02-04 16:34:20	0	0	0	0	0	0	8.17	3.05	0.05	358766	1	17552	225609	358766	341214	10926	270	1126	38	213901	2617794	12360
126	2017-02-04 16:44:12	0	0	0	0	0	0	8.18	3.04	0.05	359469	1	17623	226004	359469	341846	10945	270	1127	38	214257	2617840	12380
127	2017-02-04 16:54:27	0	0	0	0	0	0	8.19	3.04	0.05	360082	1	17678	226302	360082	342404	10962	270	1130	38	214524	2617873	12400
128	2017-02-04 17:06:02	0	0	0	0	0	0	8.22	3.05	0.05	360683	1	17740	226965	360683	342943	10990	270	1131	38	215120	2617914	12429
129	2017-02-04 17:16:01	0	0	0	0	0	0	8.22	3.05	0.05	361202	1	17789	227098	361202	343413	11003	270	1131	38	215240	2617937	12442
130	2017-02-04 17:26:26	0	0	0	0	0	0	8.23	3.04	0.05	361982	1	17859	227236	361982	344123	11012	270	1132	38	215483	2617984	12452
131	2017-02-04 17:36:33	0	0	0	0	0	0	8.24	3.04	0.05	362443	1	17900	227336	362443	344543	11024	270	1133	38	215678	2618020	12465
132	2017-02-04 17:46:25	0	0	0	0	0	0	8.26	3.04	0.05	362952	1	17942	228056	362952	345010	11034	270	1135	38	216341	2618057	12477
133	2017-02-04 17:56:38	0	0	0	0	0	0	8.26	3.04	0.05	363493	1	17987	228056	363493	345506	11049	270	1136	38	216341	2618083	12493
134	2017-02-04 18:06:35	0	0	0	0	0	0	8.27	3.04	0.05	364017	1	18029	228308	364017	345988	11069	270	1137	38	216568	2618112	12514
135	2017-02-04 18:17:39	0	0	0	0	0	0	8.29	3.04	0.05	364524	1	18065	228713	364524	346459	11087	270	1138	38	216932	2618141	12533
136	2017-02-04 18:31:37	0	0	0	0	0	0	8.29	3.04	0.05	365235	1	18117	228861	365235	347118	11107	270	1139	38	217065	2618189	12554
137	2017-02-04 18:42:37	0	0	0	0	0	0	8.29	3.04	0.05	365738	1	18153	228920	365738	347585	11125	270	1143	38	217119	2618222	12576
138	2017-02-04 18:55:27	0	0	0	0	0	0	8.31	3.04	0.05	366293	1	18201	229310	366293	348092	11136	270	1146	38	217469	2618271	12590
139	2017-02-04 19:06:30	0	0	0	0	0	0	8.33	3.04	0.05	367090	1	18281	229889	367090	348809	11156	272	1148	39	217990	2618316	12615
140	2017-02-04 19:17:05	0	0	0	0	0	0	8.33	3.04	0.05	367582	1	18346	229991	367582	349236	11179	272	1149	39	218082	2618353	12639
141	2017-02-04 19:28:33	0	0	0	0	0	0	8.33	3.04	0.05	368054	1	18393	229991	368054	349661	11190	272	1149	39	218082	2618389	12650
142	2017-02-04 19:38:48	0	0	0	0	0	0	8.33	3.04	0.05	368513	1	18438	230128	368513	350075	11206	272	1149	39	218205	2618428	12666
143	2017-02-04 19:51:04	0	0	0	0	0	0	8.34	3.04	0.05	368970	1	18477	230316	368970	350493	11219	272	1150	39	218436	2618467	12680
144	2017-02-04 20:03:26	0	0	0	0	0	0	8.35	3.04	0.05	369674	1	18532	230694	369674	351142	11235	274	1151	39	218776	2618506	12699
145	2017-02-04 20:13:58	0	0	0	0	0	0	8.36	3.04	0.05	370092	1	18572	230797	370092	351520	11246	274	1152	39	218868	2618541	12711
146	2017-02-04 20:24:15	0	0	0	0	0	0	8.36	3.04	0.05	370539	1	18603	230900	370539	351936	11257	274	1153	39	218961	2618575	12723
147	2017-02-04 20:34:21	0	0	0	0	0	0	8.36	3.04	0.05	370956	1	18637	230900	370956	352319	11264	274	1155	39	218961	2618615	12732
148	2017-02-04 20:44:27	0	0	0	0	0	0	8.37	3.04	0.05	371365	1	18670	231021	371365	352695	11273	274	1155	39	219070	2618660	12741
149	2017-02-04 20:54:48	0	0	0	0	0	0	8.37	3.03	0.05	371754	1	18709	231228	371754	353045	11279	274	1156	39	219256	2618715	12748
150	2017-02-04 21:05:42	0	0	0	0	0	0	8.38	3.03	0.05	372150	1	18742	231435	372150	353408	11287	274	1156	39	219442	2618769	12756
151	2017-02-04 21:16:04	0	0	0	0	0	0	8.38	3.03	0.05	372557	1	18773	231435	372557	353784	11293	274	1157	39	219442	2618813	12763
152	2017-02-04 21:27:09	0	0	0	0	0	0	8.39	3.03	0.05	373126	1	18830	231712	373126	354296	11305	274	1158	39	219691	2618853	12776
153	2017-02-04 21:37:20	0	0	0	0	0	0	8.39	3.03	0.05	373508	1	18868	231712	373508	354640	11312	274	1158	39	219691	2618896	12783
154	2017-02-04 21:48:00	0	0	0	0	0	0	8.4	3.03	0.05	373714	1	18905	231990	373714	354809	11321	274	1158	40	220003	2618940	12793
155	2017-02-04 21:59:47	0	0	0	0	0	0	8.4	3.03	0.05	373900	1	18939	231990	373900	354961	11328	276	1158	40	220003	2619000	12802
156	2017-02-04 22:10:35	0	0	0	0	0	0	8.4	3.03	0.05	374091	1	18972	232060	374091	355119	11335	276	1158	40	220066	2619050	12809
157	2017-02-04 22:20:38	0	0	0	0	0	0	8.42	3.03	0.05	374246	1	18993	232613	374246	355253	11338	276	1158	40	220564	2619093	12812
158	2017-02-04 22:32:35	0	0	0	0	0	0	8.43	3.03	0.05	374487	1	19036	232893	374487	355451	11344	276	1158	40	220815	2619137	12818
159	2017-02-04 22:43:02	0	0	0	0	0	0	8.43	3.03	0.05	374654	1	19064	232893	374654	355590	11350	276	1159	40	220815	2619191	12825
160	2017-02-04 22:53:46	0	0	0	0	0	0	8.43	3.03	0.05	374798	1	19082	232893	374798	355716	11353	276	1160	40	220815	2619232	12829
161	2017-02-04 23:03:35	0	0	0	0	0	0	8.43	3.03	0.05	374974	1	19114	232963	374974	355860	11359	276	1161	40	220878	2619263	12836
162	2017-02-04 23:13:57	0	0	0	0	0	0	8.43	3.03	0.05	375150	1	19143	232963	375150	356007	11365	276	1163	40	220878	2619303	12844
163	2017-02-04 23:25:30	0	0	0	0	0	0	8.44	3.03	0.05	375322	1	19163	233174	375322	356159	11368	278	1164	40	221068	2619347	12850
164	2017-02-04 23:36:14	0	0	0	0	0	0	8.44	3.03	0.05	375499	1	19215	233174	375499	356284	11370	278	1164	40	221068	2619375	12852
165	2017-02-04 23:47:24	0	0	0	0	0	0	8.45	3.03	0.05	375733	1	19249	233297	375733	356484	11373	278	1164	40	221305	2619397	12855
166	2017-02-05 00:34:09	0	0	0	0	0	0	8.45	3.03	0.05	376219	1	19361	233402	376219	356858	11384	278	1165	40	221400	2619621	12867
167	2017-02-05 01:33:29	0	0	0	0	0	0	8.46	3.02	0.05	376712	1	19444	233609	376712	357268	11395	278	1165	40	221586	2619768	12878
168	2017-02-05 02:35:29	0	0	0	0	0	0	8.46	3.03	0.05	376914	1	19493	233609	376914	357421	11403	278	1165	40	221586	2617873	12886
169	2017-02-05 03:38:55	0	0	0	0	0	0	8.46	3.03	0.05	376978	1	19512	233609	376978	357466	11406	278	1166	40	221586	2617927	12890
170	2017-02-05 04:37:12	0	0	0	0	0	0	8.46	3.03	0.05	377020	1	19528	233715	377020	357492	11406	278	1166	40	221586	2617961	12890
171	2017-02-05 05:37:46	0	0	0	0	0	0	8.46	3.02	0.05	377061	1	19544	233715	377061	357517	11406	278	1166	40	221586	2617993	12890
172	2017-02-05 06:37:23	0	0	0	0	0	0	8.46	3.03	0.05	377099	1	19558	233715	377099	357541	11408	278	1166	40	221586	2618033	12892
173	2017-02-05 07:12:24	0	0	0	0	0	0	8.46	3.02	0.05	377137	1	19575	233715	377137	357562	11408	280	1166	40	221586	2618095	12894
174	2017-02-05 07:22:19	0	0	0	0	0	0	8.46	3.03	0.05	377144	1	19578	233715	377144	357570	11409	278	1166	40	221586	2618119	12893
175	2017-02-05 07:32:24	0	0	0	0	0	0	8.46	3.02	0.05	377164	1	19586	233715	377164	357574	11409	278	1166	40	221586	2618141	12893
176	2017-02-05 07:42:19	0	0	0	0	0	0	8.46	3.02	0.05	377172	1	19590	233715	377172	357582	11409	278	1166	40	221586	2618168	12893
177	2017-02-05 07:53:08	0	0	0	0	0	0	8.46	3.02	0.05	377197	1	19599	233715	377197	357598	11409	278	1166	40	221586	2618196	12893
178	2017-02-05 08:02:32	0	0	0	0	0	0	8.46	3.02	0.05	377214	1	19604	233715	377214	357610	11409	278	1166	40	221586	2618225	12893
179	2017-02-05 08:13:00	0	0	0	0	0	0	8.46	3.02	0.05	377235	1	19616	233715	377235	357619	11409	278	1166	40	221586	2618253	12893
180	2017-02-05 08:22:59	0	0	0	0	0	0	8.46	3.02	0.05	377260	1	19626	233715	377260	357634	11409	278	1166	40	221586	2618290	12893
181	2017-02-05 08:33:49	0	0	0	0	0	0	8.46	3.02	0.05	377287	1	19637	233715	377287	357650	11410	278	1166	40	221586	2618329	12894
182	2017-02-05 08:44:08	0	0	0	0	0	0	8.46	3.02	0.05	377312	1	19652	233715	377312	357660	11411	278	1166	40	221586	2618366	12895
183	2017-02-05 08:55:56	0	0	0	0	0	0	8.46	3.02	0.05	377337	1	19665	233715	377337	357672	11412	278	1166	40	221586	2618409	12896
184	2017-02-05 09:16:17	0	0	0	0	0	0	8.46	3.02	0.06	377398	1	19691	233715	377398	357707	11413	278	1166	40	221586	2618480	12897
185	2017-02-05 09:26:23	0	0	0	0	0	0	8.46	3.02	0.06	377432	1	19710	233715	377432	357722	11415	278	1166	40	221586	2618511	12899
186	2017-02-05 09:38:49	0	0	0	0	0	0	8.48	3.02	0.06	377473	1	19729	234210	377473	357744	11417	278	1166	40	222031	2618567	12901
187	2017-02-05 09:49:34	0	0	0	0	0	0	8.48	3.02	0.06	377508	1	19747	234210	377508	357761	11417	278	1166	40	222031	2618591	12901
188	2017-02-05 10:00:38	0	0	0	0	0	0	8.48	3.02	0.06	377531	1	19760	234210	377531	357771	11417	278	1166	40	222031	2618635	12901
189	2017-02-05 10:10:51	0	0	0	0	0	0	8.48	3.02	0.06	377560	1	19775	234210	377560	357785	11419	278	1166	40	222031	2618695	12903
190	2017-02-05 10:20:37	0	0	0	0	0	0	8.48	3.02	0.06	377582	1	19784	234210	377582	357798	11421	278	1166	40	222031	2618731	12905
191	2017-02-05 10:31:02	0	0	0	0	0	0	8.48	3.02	0.06	377604	1	19791	234210	377604	357813	11422	278	1166	40	222031	2618755	12906
192	2017-02-05 10:40:41	0	0	0	0	0	0	8.48	3.02	0.06	377628	1	19799	234210	377628	357829	11422	278	1166	40	222031	2618783	12906
193	2017-02-05 10:50:50	0	0	0	0	0	0	8.48	3.02	0.06	377644	1	19807	234210	377644	357837	11422	278	1166	40	222031	2618823	12906
194	2017-02-05 11:01:05	0	0	0	0	0	0	8.48	3.02	0.06	377666	1	19817	234210	377666	357849	11422	278	1166	40	222031	2618866	12906
195	2017-02-05 11:11:12	0	0	0	0	0	0	8.48	3.02	0.06	377684	1	19825	234210	377684	357859	11422	278	1166	40	222031	2618903	12906
196	2017-02-05 11:23:05	0	0	0	0	0	0	8.48	3.02	0.06	377711	1	19836	234210	377711	357875	11422	278	1166	40	222031	2618934	12906
197	2017-02-05 11:34:34	0	0	0	0	0	0	8.48	3.02	0.06	377738	1	19850	234210	377738	357888	11422	278	1166	40	222031	2618973	12906
198	2017-02-05 11:44:30	0	0	0	0	0	0	8.48	3.02	0.06	377757	1	19862	234210	377757	357895	11424	278	1166	40	222031	2619003	12908
199	2017-02-05 11:55:18	0	0	0	0	0	0	8.48	3.02	0.06	377778	1	19872	234210	377778	357906	11424	278	1166	40	222031	2619024	12908
200	2017-02-05 12:05:31	0	0	0	0	0	0	8.48	3.02	0.06	377786	1	19874	234210	377786	357912	11425	278	1166	40	222031	2619068	12909
201	2017-02-05 12:16:31	0	0	0	0	0	0	8.48	3.02	0.06	377812	1	19879	234210	377812	357933	11426	278	1166	40	222031	2619100	12910
202	2017-02-05 12:28:28	0	0	0	0	0	0	8.48	3.02	0.06	377842	1	19893	234210	377842	357949	11427	278	1166	40	222031	2619132	12911
203	2017-02-05 12:44:47	0	0	0	0	0	0	8.48	3.02	0.06	377872	1	19905	234210	377872	357967	11427	278	1166	40	222031	2619197	12911
204	2017-02-05 12:56:36	0	0	0	0	0	0	8.48	3.02	0.06	377885	1	19911	234210	377885	357974	11427	278	1166	40	222031	2619241	12911
205	2017-02-05 13:11:16	0	0	0	0	0	0	8.48	3.02	0.06	377903	1	19922	234210	377903	357981	11427	278	1166	40	222031	2619311	12911
206	2017-02-05 13:21:42	0	0	0	0	0	0	8.48	3.02	0.06	377915	1	19927	234210	377915	357988	11427	278	1167	40	222031	2619344	12912
207	2017-02-05 13:33:58	0	0	0	0	0	0	8.48	3.02	0.06	377932	1	19934	234210	377932	357998	11427	278	1167	40	222031	2619394	12912
208	2017-02-05 13:43:30	0	0	0	0	0	0	8.48	3.02	0.06	377943	1	19937	234210	377943	358006	11427	278	1167	40	222031	2619434	12912
209	2017-02-05 13:53:51	0	0	0	0	0	0	8.48	3.02	0.06	377955	1	19943	234210	377955	358012	11427	278	1167	40	222031	2619474	12912
210	2017-02-05 14:05:10	0	0	0	0	0	0	8.48	3.02	0.06	377969	1	19949	234210	377969	358020	11428	278	1167	40	222031	2619509	12913
211	2017-02-05 14:15:34	0	0	0	0	0	0	8.48	3.02	0.06	377978	1	19954	234210	377978	358024	11428	278	1167	40	222031	2619547	12913
212	2017-02-05 14:26:17	0	0	0	0	0	0	8.48	3.02	0.06	377991	1	19961	234210	377991	358030	11428	278	1167	40	222031	2619578	12913
213	2017-02-05 14:38:19	0	0	0	0	0	0	8.48	3.02	0.06	378008	1	19970	234210	378008	358038	11428	278	1167	40	222031	2619622	12913
214	2017-02-05 14:49:17	0	0	0	0	0	0	8.48	3.02	0.06	378018	1	19972	234281	378018	358046	11428	278	1167	40	222031	2619671	12913
215	2017-02-05 15:07:26	0	0	0	0	0	0	8.48	3.02	0.06	378034	1	19975	234281	378034	358059	11428	278	1167	40	222031	2619732	12913
216	2017-02-05 15:18:11	0	0	0	0	0	0	8.48	3.02	0.06	378049	1	19981	234281	378049	358068	11429	278	1167	40	222031	2619772	12914
217	2017-02-05 15:31:52	0	0	0	0	0	0	8.48	3.02	0.06	378053	1	19982	234281	378053	358071	11429	278	1167	40	222031	2619825	12914
218	2017-02-05 15:42:14	0	0	0	0	0	0	8.47	3.02	0.06	378063	1	19988	234281	378063	358075	11429	278	1167	40	222031	2619868	12914
219	2017-02-05 15:53:00	0	0	0	0	0	0	8.47	3.02	0.06	378076	1	19994	234281	378076	358080	11429	278	1167	40	222031	2619913	12914
220	2017-02-05 16:04:08	0	0	0	0	0	0	8.47	3.02	0.06	378082	1	19997	234281	378082	358085	11429	278	1167	40	222031	2619943	12914
221	2017-02-05 16:17:54	0	0	0	0	0	0	8.47	3.02	0.06	378091	1	20001	234281	378091	358088	11429	278	1167	40	222031	2620012	12914
222	2017-02-05 16:28:33	0	0	0	0	0	0	8.47	3.02	0.06	378099	1	20006	234281	378099	358093	11429	278	1167	40	222031	2620051	12914
223	2017-02-05 16:47:25	0	0	0	0	0	0	8.47	3.02	0.06	378109	1	20012	234281	378109	358097	11429	278	1167	40	222031	2620108	12914
224	2017-02-05 17:16:45	0	0	0	0	0	0	8.47	3.02	0.06	378129	1	20023	234281	378129	358106	11429	278	1167	40	222031	2620232	12914
225	2017-02-05 17:34:22	0	0	0	0	0	0	8.47	3.02	0.06	378149	1	20027	234281	378149	358122	11429	278	1167	40	222031	2620302	12914
226	2017-02-05 17:45:13	0	0	0	0	0	0	8.47	3.02	0.06	378154	1	20031	234281	378154	358123	11429	278	1167	40	222031	2620350	12914
227	2017-02-05 18:15:18	0	0	0	0	0	0	8.47	3.02	0.06	378189	1	20044	234281	378189	358145	11430	278	1167	40	222031	2620477	12915
228	2017-02-05 18:28:43	0	0	0	0	0	0	8.47	3.02	0.06	378200	1	20048	234565	378200	358152	11430	278	1167	40	222031	2620534	12915
229	2017-02-05 18:56:34	0	0	0	0	0	0	8.47	3.02	0.06	378220	1	20059	234565	378220	358161	11430	278	1167	40	222031	2620634	12915
230	2017-02-05 19:20:56	0	0	0	0	0	0	8.47	3.02	0.06	378240	1	20067	234565	378240	358173	11430	278	1167	40	222031	2620731	12915
231	2017-02-05 19:32:34	0	0	0	0	0	0	8.47	3.02	0.06	378249	1	20069	234565	378249	358180	11430	278	1167	40	222031	2620775	12915
232	2017-02-05 19:54:09	0	0	0	0	0	0	8.47	3.02	0.06	378273	1	20073	234565	378273	358200	11430	278	1167	40	222031	2620895	12915
233	2017-02-05 20:09:58	0	0	0	0	0	0	8.47	3.02	0.06	378287	1	20079	234565	378287	358208	11430	278	1167	40	222031	2620981	12915
234	2017-02-05 20:30:54	0	0	0	0	0	0	8.48	3.02	0.06	378300	1	20085	234707	378300	358215	11430	278	1167	40	222158	2621177	12915
235	2017-02-05 20:45:33	0	0	0	0	0	0	8.47	3.02	0.06	378310	1	20088	234707	378310	358222	11430	278	1167	40	222158	2621393	12915
236	2017-02-05 20:55:49	0	0	0	0	0	0	8.47	3.02	0.06	378321	1	20089	234707	378321	358232	11430	278	1167	40	222158	2621521	12915
237	2017-02-05 21:06:21	0	0	0	0	0	0	8.47	3.02	0.06	378331	1	20091	234707	378331	358240	11430	278	1167	40	222158	2621643	12915
238	2017-02-05 21:17:20	0	0	0	0	0	0	8.48	3.02	0.06	378341	1	20095	234992	378341	358246	11430	278	1167	40	222413	2621744	12915
239	2017-02-05 22:10:24	0	0	0	0	0	0	8.48	3.02	0.06	378384	1	20111	234992	378384	358273	11430	278	1167	40	222413	2622277	12915
240	2017-02-05 22:22:48	0	0	0	0	0	0	8.48	3.02	0.06	378391	1	20116	234992	378391	358275	11430	278	1167	40	222413	2622394	12915
241	2017-02-05 22:37:14	0	0	0	0	0	0	8.48	3.02	0.06	378404	1	20121	234992	378404	358283	11430	278	1167	40	222413	2622521	12915
242	2017-02-05 22:53:01	0	0	0	0	0	0	8.48	3.02	0.06	378415	1	20127	234992	378415	358288	11430	278	1167	40	222413	2622667	12915
243	2017-02-05 23:07:29	0	0	0	0	0	0	8.48	3.02	0.06	378421	1	20127	234992	378421	358294	11430	278	1167	40	222413	2622780	12915
244	2017-02-05 23:19:49	0	0	0	0	0	0	8.48	3.02	0.06	378430	1	20133	234992	378430	358297	11430	278	1167	40	222413	2622882	12915
245	2017-02-05 23:32:09	0	0	0	0	0	0	8.49	3.02	0.06	378438	1	20137	235277	378438	358301	11430	278	1167	40	222668	2622974	12915
246	2017-02-05 23:46:16	0	0	0	0	0	0	8.49	3.02	0.06	378445	1	20139	235277	378445	358306	11431	278	1167	40	222668	2623073	12916
247	2017-02-05 23:56:31	0	0	0	0	0	0	8.49	3.02	0.06	378453	1	20141	235277	378453	358312	11431	278	1167	40	222668	2623150	12916
248	2017-02-06 00:38:30	0	0	0	0	0	0	8.49	3.02	0.06	378474	1	20148	235277	378474	358323	11431	278	1167	40	222668	2623383	12916
249	2017-02-06 01:48:27	0	0	0	0	0	0	8.49	3.02	0.06	378496	1	20153	235415	378496	358343	11431	278	1167	40	222793	2623624	12916
250	2017-02-06 02:43:46	0	0	0	0	0	0	8.5	3.02	0.06	378502	1	20156	235415	378502	358346	11431	278	1167	40	222793	2620706	12916
251	2017-02-06 03:40:04	0	0	0	0	0	0	8.5	3.02	0.06	378509	1	20159	235415	378509	358350	11431	278	1167	40	222793	2620748	12916
252	2017-02-06 04:46:32	0	0	0	0	0	0	8.5	3.02	0.06	378512	1	20159	235415	378512	358353	11431	278	1167	40	222793	2620785	12916
253	2017-02-06 06:10:58	0	0	0	0	0	0	8.5	3.02	0.06	378516	1	20160	235415	378516	358356	11431	278	1167	40	222793	2620834	12916
254	2017-02-06 07:44:44	0	0	0	0	0	0	8.5	3.02	0.06	378526	1	20162	235415	378526	358364	11431	278	1167	40	222793	2620986	12916
255	2017-02-06 07:58:49	0	0	0	0	0	0	8.5	3.02	0.06	378527	1	20163	235415	378527	358364	11431	278	1167	40	222793	2621033	12916
256	2017-02-06 08:14:57	0	0	0	0	0	0	8.5	3.02	0.06	378527	1	20163	235415	378527	358364	11431	278	1167	40	222793	2621086	12916
257	2017-02-06 08:29:06	0	0	0	0	0	0	8.5	3.02	0.06	378529	1	20165	235415	378529	358364	11431	278	1167	40	222793	2621136	12916
258	2017-02-06 08:54:20	0	0	0	0	0	0	8.5	3.02	0.06	378533	1	20168	235415	378533	358365	11431	278	1167	40	222793	2621244	12916
259	2017-02-06 09:05:52	0	0	0	0	0	0	8.5	3.02	0.06	378536	1	20168	235415	378536	358368	11432	278	1167	40	222793	2621295	12917
260	2017-02-06 09:26:20	0	0	0	0	0	0	8.5	3.02	0.06	378538	1	20169	235415	378538	358369	11432	278	1167	40	222793	2621397	12917
261	2017-02-06 09:40:03	0	0	0	0	0	0	8.5	3.02	0.06	378546	1	20171	235415	378546	358375	11432	278	1167	40	222793	2621468	12917
262	2017-02-06 10:02:01	0	0	0	0	0	0	8.5	3.02	0.06	378551	1	20171	235415	378551	358380	11432	278	1167	40	222793	2621594	12917
263	2017-02-06 10:13:58	0	0	0	0	0	0	8.5	3.02	0.06	378559	1	20174	235415	378559	358385	11432	278	1167	40	222793	2621632	12917
264	2017-02-06 10:35:12	0	0	0	0	0	0	8.5	3.02	0.06	378564	1	20175	235415	378564	358389	11432	278	1167	40	222793	2621708	12917
265	2017-02-06 10:51:35	0	0	0	0	0	0	8.5	3.02	0.06	378564	1	20175	235415	378564	358389	11432	278	1167	40	222793	2621789	12917
266	2017-02-06 11:40:53	0	0	0	0	0	0	8.5	3.02	0.06	378575	1	20178	235415	378575	358397	11432	278	1167	40	222793	2622022	12917
267	2017-02-06 11:50:58	0	0	0	0	0	0	8.5	3.02	0.06	378576	1	20178	235415	378576	358398	11432	278	1167	40	222793	2622085	12917
268	2017-02-06 12:00:47	0	0	0	0	0	0	8.5	3.02	0.06	378577	1	20178	235415	378577	358399	11432	278	1167	40	222793	2622128	12917
269	2017-02-06 12:10:45	0	0	0	0	0	0	8.5	3.02	0.06	378580	1	20180	235415	378580	358400	11432	278	1167	40	222793	2622169	12917
270	2017-02-06 12:20:46	0	0	0	0	0	0	8.5	3.02	0.06	378584	1	20182	235415	378584	358402	11432	278	1167	40	222793	2622215	12917
271	2017-02-06 12:30:46	0	0	0	0	0	0	8.5	3.02	0.06	378589	1	20185	235415	378589	358404	11432	278	1167	40	222793	2622265	12917
272	2017-02-06 12:40:44	0	0	0	0	0	0	8.5	3.02	0.06	378592	1	20187	235415	378592	358405	11432	278	1167	40	222793	2622305	12917
273	2017-02-06 12:50:45	0	0	0	0	0	0	8.5	3.02	0.06	378596	1	20189	235415	378596	358407	11432	278	1167	40	222793	2622356	12917
274	2017-02-06 13:00:56	0	0	0	0	0	0	8.5	3.02	0.06	378597	1	20189	235415	378597	358408	11432	278	1167	40	222793	2622401	12917
275	2017-02-06 13:10:57	0	0	0	0	0	0	8.5	3.02	0.06	378598	1	20190	235415	378598	358408	11432	278	1167	40	222793	2622452	12917
276	2017-02-06 13:21:05	0	0	0	0	0	0	8.5	3.02	0.06	378602	1	20191	235415	378602	358411	11432	278	1167	40	222793	2622494	12917
277	2017-02-06 13:31:20	0	0	0	0	0	0	8.5	3.02	0.06	378602	1	20191	235415	378602	358411	11432	278	1167	40	222793	2622547	12917
278	2017-02-06 13:41:01	0	0	0	0	0	0	8.5	3.02	0.06	378604	1	20193	235415	378604	358411	11432	278	1167	40	222793	2622581	12917
279	2017-02-06 13:50:46	0	0	0	0	0	0	8.5	3.02	0.06	378605	1	20194	235415	378605	358411	11432	278	1167	40	222793	2622625	12917
