1	2017-09-13 14:02:40		0	0	0	0	0	0	0.51	1.25	0	19202	0	85	7801	19202	19117	240	20	45	9	16999	3353738	314
2	2017-09-13 15:02:04		0	0	0	0	0	0	1.59	2.13	0.02	70638	0	1425	54848	70638	69213	1505	52	175	22	53381	3353802	1754
3	2017-09-13 15:11:10		0	0	0	0	0	0	1.67	2.14	0.02	75974	0	1625	57749	75974	74349	1629	53	191	22	56126	3353820	1895
4	2017-09-13 15:42:13		0	0	0	0	0	0	1.92	2.19	0.02	89651	0	2158	66451	89651	87493	1960	61	230	23	64489	3353862	2274
5	2017-09-13 16:14:41		0	0	0	0	0	0	2.14	2.21	0.03	102471	0	2750	74286	102471	99721	2264	65	255	25	71872	3353900	2609
6	2017-09-13 17:36:46		0	0	0	0	0	0	2.62	2.19	0.03	128227	0	3802	90777	128227	124425	2804	74	316	26	87878	3354005	3220
7	2017-09-13 17:47:45		0	0	0	0	0	0	2.74	2.18	0.03	133447	0	3968	94893	133447	129479	2908	75	322	27	91839	3354024	3332
8	2017-09-13 17:58:45		0	0	0	0	0	0	2.81	2.16	0.03	136830	0	4047	97341	136830	132783	2962	75	326	27	94130	3354040	3390
9	2017-09-13 18:09:47		0	0	0	0	0	0	2.86	2.16	0.03	139868	0	4139	98959	139868	135729	3021	75	334	27	95820	3354056	3457
10	2017-09-13 18:20:45		0	0	0	0	0	0	2.94	2.15	0.03	142762	0	4228	101962	142762	138534	3069	77	342	27	98583	3354069	3515
11	2017-09-13 18:31:46		0	0	0	0	0	0	3.01	2.14	0.03	145781	0	4299	104615	145781	141482	3114	77	348	28	101113	3354095	3567
12	2017-09-13 18:42:46		0	0	0	0	0	0	3.11	2.12	0.03	150171	0	4466	107150	150171	145705	3191	78	352	28	104246	3354107	3649
13	2017-09-13 18:53:47		0	0	0	0	0	0	3.18	2.11	0.03	153261	0	4608	109823	153261	148653	3235	79	358	29	106598	3354127	3701
14	2017-09-13 19:04:48		0	0	0	0	0	0	3.23	2.1	0.03	156048	0	4702	111636	156048	151346	3279	79	366	30	108400	3354141	3754
15	2017-09-13 19:15:46		0	0	0	0	0	0	3.28	2.08	0.03	158751	0	4832	113193	158751	153919	3309	79	367	31	109867	3354155	3786
16	2017-09-13 19:26:47		0	0	0	0	0	0	3.33	2.07	0.03	161481	0	4938	115099	161481	156543	3343	79	374	31	111726	3354175	3827
17	2017-09-13 19:37:47		0	0	0	0	0	0	3.4	2.06	0.03	165260	0	5098	117378	165260	160162	3410	80	379	31	114007	3354184	3900
18	2017-09-13 19:48:46		0	0	0	0	0	0	3.43	2.05	0.03	167737	0	5197	118695	167737	162540	3435	80	388	31	115180	3354196	3934
19	2017-09-13 19:59:47		0	0	0	0	0	0	3.48	2.04	0.03	170197	0	5297	120433	170197	164900	3467	81	397	31	116587	3354202	3976
20	2017-09-13 20:10:47		0	0	0	0	0	0	3.5	2.03	0.03	172397	0	5374	121205	172397	167023	3500	81	400	31	117315	3354215	4012
21	2017-09-13 20:21:47		0	0	0	0	0	0	3.58	2.02	0.03	174692	0	5448	123568	174692	169244	3528	81	404	31	120009	3354221	4044
22	2017-09-13 20:32:47		0	0	0	0	0	0	3.64	2	0.03	178381	0	5603	125649	178381	172778	3568	82	410	31	122202	3354236	4091
23	2017-09-13 20:43:46		0	0	0	0	0	0	3.72	1.99	0.03	180953	0	5703	128239	180953	175250	3601	83	416	32	124651	3354253	4132
24	2017-09-13 20:54:46		0	0	0	0	0	0	3.79	1.98	0.03	183626	0	5810	130837	183626	177816	3631	84	419	32	127068	3354265	4166
25	2017-09-13 21:05:45		0	0	0	0	0	0	3.85	1.97	0.03	185885	0	5916	132623	185885	179969	3665	84	423	32	128991	3354274	4204
26	2017-09-13 21:16:45		0	0	0	0	0	0	3.89	1.96	0.03	188065	0	5996	133014	188065	182069	3692	84	423	32	130443	3354294	4231
27	2017-09-13 21:27:45		0	0	0	0	0	0	3.96	1.95	0.03	191476	0	6123	136188	191476	185353	3737	84	426	32	132724	3354310	4279
28	2017-09-13 21:38:49		0	0	0	0	0	0	3.99	1.95	0.03	193672	0	6233	137467	193672	187439	3779	85	428	32	133938	3354323	4324
29	2017-09-13 21:49:48		0	0	0	0	0	0	4.04	1.95	0.03	195961	0	6315	138960	195961	189646	3813	86	431	32	135355	3354342	4362
30	2017-09-13 22:00:48		0	0	0	0	0	0	4.14	1.94	0.03	198441	0	6410	141431	198441	192031	3851	87	437	32	138735	3354361	4407
31	2017-09-13 22:11:47		0	0	0	0	0	0	4.17	1.94	0.03	200745	0	6500	142958	200745	194245	3892	89	441	32	139875	3354371	4454
32	2017-09-13 22:22:48		0	0	0	0	0	0	4.25	1.93	0.03	204624	0	6660	145617	204624	197964	3943	90	445	33	142445	3354392	4511
33	2017-09-13 22:33:46		0	0	0	0	0	0	4.25	1.93	0.03	204624	0	6660	145617	204624	197964	3943	91	446	33	142445	3354405	4513
34	2017-09-13 22:44:47		0	0	0	0	0	0	4.25	1.93	0.03	204624	0	6660	145617	204624	197964	3943	92	452	33	142445	3354422	4520
35	2017-09-13 22:55:47		0	0	0	0	0	0	4.25	1.93	0.03	204624	0	6660	145617	204624	197964	3943	93	461	33	142445	3354430	4530
36	2017-09-13 23:06:46		0	0	0	0	0	0	4.25	1.93	0.03	204624	0	6660	145617	204624	197964	3943	93	466	33	142445	3354442	4535
37	2017-09-13 23:17:47		0	0	0	0	0	0	4.25	1.93	0.03	204624	0	6660	145617	204624	197964	3943	95	470	33	142445	3354457	4541
38	2017-09-13 23:28:47		0	0	0	0	0	0	4.25	1.93	0.03	204624	0	6660	145617	204624	197964	3943	96	475	33	142445	3354471	4547
39	2017-09-13 23:39:46		0	0	0	0	0	0	4.25	1.93	0.03	204624	0	6660	145617	204624	197964	3943	96	477	33	142445	3354484	4549
40	2017-09-13 23:50:47		0	0	0	0	0	0	4.25	1.93	0.03	204624	0	6660	145617	204624	197964	3943	97	478	33	142445	3354498	4551
41	2017-09-14 00:01:47		0	0	0	0	0	0	4.25	1.93	0.03	204624	0	6660	145617	204624	197964	3943	97	480	33	142445	3354505	4553
42	2017-09-14 01:01:46		0	0	0	0	0	0	4.83	1.82	0.03	234759	0	7802	165900	234759	226957	4270	98	493	33	161897	3354538	4894
43	2017-09-14 02:01:46		0	0	0	0	0	0	4.92	1.81	0.03	239463	0	7950	169512	239463	231513	4333	101	503	33	165198	3354548	4970
44	2017-09-14 03:01:45		0	0	0	0	0	0	4.97	1.8	0.03	242113	0	8034	171010	242113	234079	4368	102	506	33	166621	3354557	5009
45	2017-09-14 04:01:47		0	0	0	0	0	0	4.99	1.8	0.03	243994	0	8077	171853	243994	235917	4394	102	508	33	167348	3354562	5037
46	2017-09-14 05:01:46		0	0	0	0	0	0	5.05	1.8	0.03	245546	0	8117	174124	245546	237429	4411	102	509	33	169501	3354554	5055
47	2017-09-14 06:01:46		0	0	0	0	0	0	5.1	1.79	0.03	247944	0	8168	175873	247944	239776	4449	104	514	33	171196	3354567	5100
48	2017-09-14 07:01:46		0	0	0	0	0	0	5.19	1.78	0.03	252758	0	8330	178940	252758	244428	4505	106	526	33	174142	3354583	5170
49	2017-09-14 07:12:46		0	0	0	0	0	0	5.21	1.78	0.03	253681	0	8364	179573	253681	245317	4522	106	527	33	174741	3354593	5188
50	2017-09-14 07:23:47		0	0	0	0	0	0	5.24	1.78	0.03	254653	0	8402	180699	254653	246251	4533	106	528	33	175808	3354598	5200
51	2017-09-14 07:34:46		0	0	0	0	0	0	5.25	1.78	0.03	255661	0	8447	181157	255661	247214	4550	106	528	33	176241	3354603	5217
52	2017-09-14 07:45:46		0	0	0	0	0	0	5.26	1.78	0.03	256679	0	8499	181411	256679	248195	4577	106	531	33	176482	3354605	5247
53	2017-09-14 07:56:47		0	0	0	0	0	0	5.3	1.78	0.03	258240	0	8538	182845	258240	249702	4602	106	531	33	177696	3354620	5272
54	2017-09-14 08:07:46		0	0	0	0	0	0	5.33	1.78	0.03	259261	0	8575	184107	259261	250686	4620	106	532	33	178763	3354624	5291
55	2017-09-14 08:18:48		0	0	0	0	0	0	5.35	1.78	0.03	260218	0	8621	184868	260218	251597	4633	108	538	33	179637	3354630	5312
56	2017-09-14 08:29:47		0	0	0	0	0	0	5.39	1.78	0.03	261235	0	8669	186269	261235	252566	4648	108	539	33	180959	3354641	5328
57	2017-09-14 08:40:47		0	0	0	0	0	0	5.41	1.78	0.03	262318	0	8713	186955	262318	253605	4664	108	539	33	181607	3354655	5344
58	2017-09-14 08:51:46		0	0	0	0	0	0	5.45	1.78	0.03	263942	0	8767	188217	263942	255175	4688	109	542	33	182711	3354670	5372
59	2017-09-14 09:02:45		0	0	0	0	0	0	5.45	1.77	0.03	264963	0	8810	188492	264963	256153	4703	109	545	33	182797	3354677	5390
60	2017-09-14 09:13:46		0	0	0	0	0	0	5.48	1.77	0.03	265983	0	8851	189217	265983	257132	4721	111	548	33	183959	3354684	5413
61	2017-09-14 09:24:47		0	0	0	0	0	0	5.51	1.78	0.03	267070	0	8911	189963	267070	258159	4741	111	549	34	184840	3354689	5435
62	2017-09-14 09:35:45		0	0	0	0	0	0	5.53	1.78	0.03	268072	0	8964	190504	268072	259108	4760	112	552	34	185441	3354691	5458
63	2017-09-14 09:46:47		0	0	0	0	0	0	5.55	1.78	0.03	269579	0	9028	191431	269579	260551	4786	112	553	34	186140	3354709	5485
64	2017-09-14 09:57:46		0	0	0	0	0	0	5.57	1.77	0.03	270508	0	9067	192236	270508	261441	4796	113	553	34	186902	3354716	5496
65	2017-09-14 10:08:48		0	0	0	0	0	0	5.57	1.77	0.03	271488	0	9104	192344	271488	262384	4812	114	553	34	187003	3354727	5513
66	2017-09-14 10:19:49		0	0	0	0	0	0	5.6	1.77	0.03	272436	0	9170	193111	272436	263266	4827	114	555	34	187728	3354740	5530
67	2017-09-14 10:30:46		0	0	0	0	0	0	5.61	1.77	0.03	273357	0	9208	193933	273357	264149	4842	114	557	34	188368	3354754	5547
68	2017-09-14 10:41:46		0	0	0	0	0	0	5.63	1.77	0.03	274634	0	9271	194647	274634	265363	4865	114	560	34	189040	3354769	5573
69	2017-09-14 10:52:45		0	0	0	0	0	0	5.66	1.77	0.04	275488	0	9322	195482	275488	266166	4881	116	561	34	189828	3354787	5592
70	2017-09-14 11:03:46		0	0	0	0	0	0	5.69	1.77	0.04	276337	0	9368	196830	276337	266969	4892	116	561	34	191005	3354791	5603
71	2017-09-14 11:14:46		0	0	0	0	0	0	5.71	1.77	0.04	277073	0	9409	197323	277073	267664	4903	116	562	34	191398	3354807	5615
72	2017-09-14 11:25:45		0	0	0	0	0	0	5.72	1.77	0.04	277841	0	9446	197713	277841	268395	4919	116	563	34	192003	3354827	5632
73	2017-09-14 11:36:47		0	0	0	0	0	0	5.76	1.77	0.04	278887	0	9501	198983	278887	269386	4932	116	563	34	193200	3354842	5645
74	2017-09-14 11:47:47		0	0	0	0	0	0	5.78	1.77	0.04	279623	0	9533	199908	279623	270090	4940	116	563	34	194072	3354855	5653
75	2017-09-14 11:58:45		0	0	0	0	0	0	5.79	1.77	0.04	280347	0	9568	200185	280347	270779	4949	117	565	34	194333	3354871	5665
76	2017-09-14 12:09:47		0	0	0	0	0	0	5.8	1.77	0.04	281058	0	9590	200444	281058	271468	4961	117	566	34	194578	3354884	5678
77	2017-09-14 12:20:45		0	0	0	0	0	0	5.82	1.77	0.04	281776	0	9617	200886	281776	272159	4974	117	568	34	195166	3354897	5693
78	2017-09-14 12:31:45		0	0	0	0	0	0	5.82	1.76	0.04	282684	0	9672	201147	282684	273012	4987	117	569	34	195412	3354910	5707
79	2017-09-14 12:42:46		0	0	0	0	0	0	5.84	1.76	0.04	283228	0	9694	201606	283228	273534	4998	117	570	34	195845	3354919	5719
80	2017-09-14 13:05:00		0	0	0	0	0	0	5.84	1.76	0.04	284411	0	9759	201790	284411	274652	5015	117	570	34	196019	3354940	5736
81	2017-09-14 13:15:46		0	0	0	0	0	0	5.86	1.76	0.04	284974	0	9783	202238	284974	275191	5019	117	570	34	196441	3354953	5740
82	2017-09-14 13:26:47		0	0	0	0	0	0	5.86	1.76	0.04	285801	0	9822	202317	285801	275979	5038	117	571	34	196516	3354965	5760
83	2017-09-14 13:48:47		0	0	0	0	0	0	5.91	1.76	0.04	286855	0	9888	203909	286855	276967	5057	119	573	34	198221	3354985	5783
84	2017-09-14 14:22:30		0	0	0	0	0	0	5.93	1.77	0.04	287988	0	10002	204617	287988	277986	5085	119	575	34	198889	3355038	5813
85	2017-09-14 14:32:46		0	0	0	0	0	0	5.94	1.77	0.04	288193	0	10022	204928	288193	278171	5088	119	575	34	199184	3355051	5816
86	2017-09-14 14:55:15		0	0	0	0	0	0	5.94	1.77	0.04	288601	0	10061	205037	288601	278540	5096	119	575	34	199184	3355078	5824
87	2017-09-14 15:05:48		0	0	0	0	0	0	5.94	1.77	0.04	288764	0	10083	205145	288764	278681	5101	119	575	34	199286	3355085	5829
88	2017-09-14 15:16:48		0	0	0	0	0	0	5.94	1.77	0.04	289060	0	10120	205417	289060	278940	5110	119	576	34	199389	3355095	5839
89	2017-09-14 15:27:48		0	0	0	0	0	0	5.94	1.77	0.04	289251	0	10135	205417	289251	279116	5113	119	577	34	199389	3355102	5843
90	2017-09-14 15:38:47		0	0	0	0	0	0	5.94	1.77	0.04	289466	0	10162	205445	289466	279304	5115	119	578	34	199415	3355109	5846
91	2017-09-14 15:49:46		0	0	0	0	0	0	5.94	1.77	0.04	289674	0	10187	205445	289674	279487	5117	119	578	34	199415	3355117	5848
92	2017-09-14 16:11:47		0	0	0	0	0	0	5.96	1.77	0.04	290072	0	10238	205964	290072	279834	5132	120	579	34	199904	3355121	5865
93	2017-09-14 16:33:47		0	0	0	0	0	0	5.96	1.77	0.04	290418	0	10282	205964	290418	280136	5143	121	580	34	199904	3355139	5878
94	2017-09-14 16:44:47		0	0	0	0	0	0	5.97	1.77	0.04	290682	0	10308	206238	290682	280374	5145	121	581	34	200162	3355142	5881
95	2017-09-14 16:55:48		0	0	0	0	0	0	5.98	1.77	0.04	290861	0	10331	206624	290861	280530	5148	121	581	34	200525	3355155	5884
96	2017-09-14 17:06:46		0	0	0	0	0	0	5.98	1.77	0.04	291059	0	10353	206624	291059	280706	5148	121	581	34	200525	3355159	5884
97	2017-09-14 17:17:46		0	0	0	0	0	0	5.98	1.77	0.04	291234	0	10374	206624	291234	280860	5151	121	581	34	200525	3355172	5887
98	2017-09-14 17:28:46		0	0	0	0	0	0	5.98	1.77	0.04	291370	0	10397	206624	291370	280973	5154	121	581	34	200525	3355184	5890
99	2017-09-14 17:39:47		0	0	0	0	0	0	5.98	1.77	0.04	291604	0	10420	206734	291604	281184	5160	121	581	34	200629	3355193	5896
100	2017-09-14 17:50:47		0	0	0	0	0	0	5.99	1.77	0.04	291774	0	10436	207121	291774	281338	5162	121	581	34	200994	3355201	5898
101	2017-09-14 18:01:47		0	0	0	0	0	0	5.99	1.77	0.04	291944	0	10473	207121	291944	281471	5164	121	583	34	200994	3355211	5902
102	2017-09-14 18:12:48		0	0	0	0	0	0	6.01	1.77	0.04	292077	0	10491	207788	292077	281586	5165	121	583	34	201622	3355228	5903
103	2017-09-14 18:23:46		0	0	0	0	0	0	6.01	1.77	0.04	292239	0	10514	207788	292239	281725	5167	121	583	34	201622	3355230	5905
104	2017-09-14 18:34:47		0	0	0	0	0	0	6.01	1.77	0.04	292472	0	10537	207956	292472	281935	5172	121	583	34	201780	3355244	5910
105	2017-09-14 18:45:47		0	0	0	0	0	0	6.01	1.77	0.04	292635	0	10562	207956	292635	282073	5175	121	583	34	201780	3355254	5913
106	2017-09-14 18:56:51		0	0	0	0	0	0	6.02	1.77	0.04	292809	0	10580	208180	292809	282229	5176	121	583	34	201832	3355268	5914
107	2017-09-14 19:07:48		0	0	0	0	0	0	6.03	1.77	0.04	292989	0	10597	208600	292989	282392	5180	121	584	34	202228	3355277	5919
108	2017-09-14 19:18:48		0	0	0	0	0	0	6.04	1.77	0.04	293141	0	10612	208938	293141	282529	5184	121	584	34	202545	3355281	5923
109	2017-09-14 19:29:47		0	0	0	0	0	0	6.04	1.77	0.04	293369	0	10636	208938	293369	282733	5188	121	584	34	202545	3355288	5927
110	2017-09-14 19:40:46		0	0	0	0	0	0	6.04	1.77	0.04	293511	0	10656	208938	293511	282855	5191	121	584	34	202545	3355284	5930
111	2017-09-14 19:51:47		0	0	0	0	0	0	6.04	1.77	0.04	293652	0	10679	208938	293652	282973	5193	121	586	34	202545	3355310	5934
112	2017-09-14 20:02:46		0	0	0	0	0	0	6.05	1.77	0.04	293794	0	10696	209249	293794	283098	5194	121	587	34	202837	3355331	5936
113	2017-09-14 20:13:46		0	0	0	0	0	0	6.05	1.77	0.04	293941	0	10718	209249	293941	283223	5196	121	587	34	202837	3355357	5938
114	2017-09-14 20:24:45		0	0	0	0	0	0	6.05	1.77	0.04	294154	0	10747	209334	294154	283407	5201	121	587	34	202917	3355381	5943
115	2017-09-14 20:35:47		0	0	0	0	0	0	6.05	1.77	0.04	294235	0	10768	209334	294235	283478	5207	121	588	34	202917	3355402	5950
116	2017-09-14 20:46:46		0	0	0	0	0	0	6.05	1.77	0.04	294488	0	10787	209688	294488	283701	5209	121	588	34	203143	3355425	5952
117	2017-09-14 20:57:45		0	0	0	0	0	0	6.05	1.77	0.04	294654	0	10801	209688	294654	283853	5209	121	588	34	203143	3355458	5952
118	2017-09-14 21:08:47		0	0	0	0	0	0	6.05	1.77	0.04	294810	0	10822	209688	294810	283988	5211	121	588	34	203143	3355486	5954
119	2017-09-14 21:19:46		0	0	0	0	0	0	6.06	1.77	0.04	294964	0	10835	210015	294964	284129	5212	121	588	34	203450	3355513	5955
120	2017-09-14 21:30:46		0	0	0	0	0	0	6.06	1.77	0.04	295116	0	10852	210015	295116	284264	5215	121	588	34	203450	3355535	5958
121	2017-09-14 21:41:47		0	0	0	0	0	0	6.06	1.77	0.04	295327	0	10879	210072	295327	284448	5218	121	588	34	203503	3355560	5961
122	2017-09-14 21:52:46		0	0	0	0	0	0	6.07	1.77	0.04	295487	0	10890	210186	295487	284597	5219	121	588	34	203611	3355584	5962
123	2017-09-14 22:03:46		0	0	0	0	0	0	6.07	1.77	0.04	295637	0	10908	210186	295637	284729	5222	121	589	34	203611	3355618	5966
124	2017-09-14 22:14:48		0	0	0	0	0	0	6.07	1.77	0.04	295788	0	10929	210186	295788	284859	5225	121	590	34	203611	3355661	5970
125	2017-09-14 22:25:47		0	0	0	0	0	0	6.07	1.77	0.04	295938	0	10951	210215	295938	285062	5228	122	591	34	203637	3355699	5975
126	2017-09-14 22:36:47		0	0	0	0	0	0	6.07	1.77	0.04	296170	0	10971	210379	296170	285199	5230	122	591	34	203791	3355748	5977
127	2017-09-14 22:47:47		0	0	0	0	0	0	6.09	1.77	0.04	296313	0	10992	211107	296313	285321	5231	122	591	34	204474	3355804	5978
128	2017-09-14 22:58:46		0	0	0	0	0	0	6.1	1.76	0.04	296460	0	11005	211222	296460	285455	5231	122	592	34	204583	3355848	5979
129	2017-09-14 23:09:45		0	0	0	0	0	0	6.1	1.76	0.04	296595	0	11024	211337	296595	285571	5234	122	592	34	204691	3355895	5982
130	2017-09-14 23:20:46		0	0	0	0	0	0	6.11	1.77	0.04	296723	0	11045	211583	296723	285678	5238	122	592	34	204921	3355937	5986
131	2017-09-14 23:31:46		0	0	0	0	0	0	6.11	1.76	0.04	296917	0	11070	211583	296917	285847	5238	122	592	34	204921	3355970	5986
132	2017-09-14 23:42:47		0	0	0	0	0	0	6.11	1.76	0.04	297021	0	11087	211583	297021	285934	5240	122	592	34	204921	3356008	5988
133	2017-09-14 23:53:46		0	0	0	0	0	0	6.11	1.76	0.04	297113	0	11093	211583	297113	286020	5241	122	592	34	204921	3356044	5989
134	2017-09-15 00:21:47		0	0	0	0	0	0	6.11	1.76	0.04	297411	0	11116	211583	297411	286295	5243	122	593	34	204921	3356139	5992
135	2017-09-15 01:21:45		0	0	0	0	0	0	6.12	1.76	0.04	297797	0	11157	212018	297797	286640	5250	122	593	34	205329	3356245	5999
136	2017-09-15 02:21:47		0	0	0	0	0	0	6.12	1.76	0.04	298043	0	11180	212134	298043	286863	5259	122	593	34	205437	3356277	6008
137	2017-09-15 03:21:46		0	0	0	0	0	0	6.13	1.76	0.04	298165	0	11191	212352	298165	286974	5262	122	593	34	205642	3356301	6011
138	2017-09-15 04:21:46		0	0	0	0	0	0	6.13	1.77	0.04	298237	0	11195	212468	298237	287042	5264	122	593	34	205751	3356327	6013
139	2017-09-15 05:21:47		0	0	0	0	0	0	6.13	1.76	0.04	298311	0	11203	212468	298311	287108	5265	122	593	34	205751	3356331	6014
140	2017-09-15 06:21:46		0	0	0	0	0	0	6.13	1.76	0.04	298413	0	11219	212468	298413	287194	5265	122	594	34	205751	3356357	6015
141	2017-09-15 07:04:46		0	0	0	0	0	0	6.14	1.76	0.04	298509	0	11233	212899	298509	287276	5265	122	594	34	206156	3356411	6015
142	2017-09-15 07:15:47		0	0	0	0	0	0	6.14	1.76	0.04	298537	0	11238	212899	298537	287299	5266	122	594	34	206156	3356423	6016
143	2017-09-15 07:26:49		0	0	0	0	0	0	6.14	1.76	0.04	298579	0	11241	212899	298579	287337	5266	122	594	34	206156	3356438	6016
144	2017-09-15 07:37:47		0	0	0	0	0	0	6.14	1.76	0.04	298625	0	11249	212899	298625	287376	5266	122	594	34	206156	3356458	6016
145	2017-09-15 07:48:48		0	0	0	0	0	0	6.14	1.76	0.04	298670	0	11254	212899	298670	287416	5266	122	594	34	206156	3356484	6016
146	2017-09-15 07:59:47		0	0	0	0	0	0	6.14	1.76	0.04	298715	0	11259	212899	298715	287456	5268	122	594	34	206156	3356504	6018
147	2017-09-15 08:10:46		0	0	0	0	0	0	6.14	1.76	0.04	298755	0	11265	212899	298755	287490	5272	122	594	34	206156	3356536	6022
148	2017-09-15 08:21:46		0	0	0	0	0	0	6.14	1.76	0.04	298797	0	11270	212899	298797	287527	5272	122	594	34	206156	3356560	6022
149	2017-09-15 08:32:46		0	0	0	0	0	0	6.14	1.76	0.04	298867	0	11277	212899	298867	287590	5272	122	594	34	206156	3356588	6022
150	2017-09-15 08:43:45		0	0	0	0	0	0	6.14	1.76	0.04	298926	0	11284	212899	298926	287642	5275	122	595	34	206156	3356608	6026
151	2017-09-15 08:54:46		0	0	0	0	0	0	6.14	1.77	0.04	298968	0	11291	212899	298968	287677	5277	122	595	34	206156	3356643	6028
152	2017-09-15 09:05:47		0	0	0	0	0	0	6.14	1.77	0.04	299007	0	11294	212958	299007	287713	5279	122	595	34	206210	3356676	6030
153	2017-09-15 09:16:46		0	0	0	0	0	0	6.14	1.77	0.04	299042	0	11298	212958	299042	287744	5283	122	595	34	206210	3356705	6034
154	2017-09-15 09:27:47		0	0	0	0	0	0	6.14	1.77	0.04	299109	0	11309	212958	299109	287800	5286	122	595	34	206210	3356728	6037
155	2017-09-15 09:38:49		0	0	0	0	0	0	6.14	1.77	0.04	299153	0	11314	212958	299153	287839	5287	122	595	34	206210	3356758	6038
156	2017-09-15 09:49:46		0	0	0	0	0	0	6.14	1.77	0.04	299202	0	11318	212958	299202	287884	5287	122	596	34	206210	3356790	6039
157	2017-09-15 10:00:46		0	0	0	0	0	0	6.14	1.77	0.04	299236	0	11321	212958	299236	287915	5288	122	596	34	206210	3356820	6040
158	2017-09-15 10:11:47		0	0	0	0	0	0	6.14	1.77	0.04	299295	0	11328	212973	299295	287952	5288	122	596	34	206224	3356852	6040
159	2017-09-15 10:22:46		0	0	0	0	0	0	6.14	1.77	0.04	299331	0	11333	212973	299331	287998	5289	122	596	34	206224	3356889	6041
160	2017-09-15 10:33:45		0	0	0	0	0	0	6.14	1.77	0.04	299374	0	11336	212973	299374	288038	5289	122	596	34	206224	3356917	6041
161	2017-09-15 10:44:45		0	0	0	0	0	0	6.14	1.77	0.04	299412	0	11338	212973	299412	288074	5290	123	596	34	206224	3356951	6043
162	2017-09-15 10:55:47		0	0	0	0	0	0	6.14	1.77	0.04	299450	0	11348	212973	299450	288102	5290	123	596	34	206224	3356992	6043
163	2017-09-15 11:06:48		0	0	0	0	0	0	6.14	1.77	0.04	299498	0	11355	213031	299498	288143	5292	123	596	34	206279	3357012	6045
164	2017-09-15 11:17:47		0	0	0	0	0	0	6.14	1.77	0.04	299552	0	11362	213031	299552	288190	5293	123	596	34	206279	3357041	6046
165	2017-09-15 11:28:48		0	0	0	0	0	0	6.14	1.77	0.04	299584	0	11367	213031	299584	288217	5294	123	596	34	206279	3357073	6047
166	2017-09-15 11:39:49		0	0	0	0	0	0	6.14	1.77	0.04	299614	0	11371	213031	299614	288243	5294	123	596	34	206279	3357102	6047
167	2017-09-15 11:50:49		0	0	0	0	0	0	6.14	1.77	0.04	299649	0	11378	213031	299649	288271	5295	123	597	34	206279	3357129	6049
168	2017-09-15 12:01:49		0	0	0	0	0	0	6.15	1.77	0.04	299684	0	11382	213266	299684	288302	5296	123	597	34	206499	3357164	6050
169	2017-09-15 12:12:49		0	0	0	0	0	0	6.15	1.77	0.04	299728	0	11388	213266	299728	288340	5298	123	597	34	206499	3357194	6052
170	2017-09-15 12:23:47		0	0	0	0	0	0	6.15	1.77	0.04	299756	0	11394	213266	299756	288362	5298	123	597	34	206499	3357231	6052
171	2017-09-15 12:34:47		0	0	0	0	0	0	6.15	1.77	0.04	299781	0	11398	213266	299781	288383	5298	123	597	34	206499	3357276	6052
172	2017-09-15 12:45:48		0	0	0	0	0	0	6.15	1.77	0.04	299811	0	11401	213266	299811	288410	5298	123	597	34	206554	3357315	6052
173	2017-09-15 12:56:48		0	0	0	0	0	0	6.15	1.77	0.04	299840	0	11403	213266	299840	288437	5298	123	597	34	206554	3357353	6052
174	2017-09-15 13:07:48		0	0	0	0	0	0	6.15	1.77	0.04	299880	0	11412	213266	299880	288468	5298	123	597	34	206554	3357381	6052
175	2017-09-15 13:18:48		0	0	0	0	0	0	6.15	1.77	0.04	299905	0	11416	213266	299905	288489	5298	123	597	34	206554	3357413	6052
176	2017-09-15 13:29:49		0	0	0	0	0	0	6.15	1.77	0.04	299938	0	11418	213325	299938	288520	5298	123	597	34	206610	3357443	6052
177	2017-09-15 13:40:49		0	0	0	0	0	0	6.15	1.77	0.04	299972	0	11426	213325	299972	288546	5298	123	598	34	206610	3357482	6053
178	2017-09-15 13:51:49		0	0	0	0	0	0	6.15	1.77	0.04	300008	0	11430	213325	300008	288578	5299	123	598	34	206610	3357516	6054
179	2017-09-15 14:02:50		0	0	0	0	0	0	6.15	1.77	0.04	300053	0	11435	213325	300053	288618	5299	123	598	34	206610	3357545	6054
180	2017-09-15 14:13:50		0	0	0	0	0	0	6.15	1.77	0.04	300078	0	11440	213325	300078	288638	5299	123	598	34	206610	3357580	6054
181	2017-09-15 14:24:50		0	0	0	0	0	0	6.15	1.77	0.04	300103	0	11444	213325	300103	288659	5299	123	598	34	206610	3357614	6054
182	2017-09-15 14:35:51		0	0	0	0	0	0	6.16	1.77	0.04	300131	0	11446	213413	300131	288685	5299	123	598	34	206692	3357639	6054
183	2017-09-15 14:46:48		0	0	0	0	0	0	6.16	1.77	0.04	300163	0	11451	213413	300163	288712	5299	123	598	34	206692	3357671	6054
184	2017-09-15 14:57:49		0	0	0	0	0	0	6.16	1.77	0.04	300194	0	11455	213413	300194	288739	5300	123	599	34	206692	3357706	6056
185	2017-09-15 15:08:50		0	0	0	0	0	0	6.16	1.77	0.04	300219	0	11460	213413	300219	288759	5300	123	599	34	206692	3357740	6056
186	2017-09-15 15:19:50		0	0	0	0	0	0	6.16	1.77	0.04	300260	0	11463	213413	300260	288797	5300	123	599	34	206692	3357773	6056
187	2017-09-15 15:30:50		0	0	0	0	0	0	6.16	1.77	0.04	300290	0	11466	213413	300290	288824	5301	123	600	34	206692	3357794	6058
188	2017-09-15 15:41:50		0	0	0	0	0	0	6.16	1.77	0.04	300321	0	11472	213501	300321	288849	5301	123	600	34	206775	3357816	6058
189	2017-09-15 15:52:53		0	0	0	0	0	0	6.16	1.76	0.04	300353	0	11479	213678	300353	288874	5301	123	600	34	206941	3357869	6058
190	2017-09-15 16:03:53		0	0	0	0	0	0	6.16	1.76	0.04	300383	0	11483	213678	300383	288900	5301	123	600	34	206941	3357912	6058
191	2017-09-15 16:14:53		0	0	0	0	0	0	6.16	1.76	0.04	300433	0	11488	213678	300433	288945	5302	123	600	34	206941	3357943	6059
192	2017-09-15 16:25:51		0	0	0	0	0	0	6.16	1.77	0.04	300464	0	11491	213678	300464	288973	5304	123	600	34	206941	3357979	6061
193	2017-09-15 16:36:52		0	0	0	0	0	0	6.16	1.77	0.04	300504	0	11495	213678	300504	289009	5304	123	600	34	206941	3358018	6061
194	2017-09-15 16:47:53		0	0	0	0	0	0	6.16	1.76	0.04	300545	0	11500	213678	300545	289045	5304	123	600	34	206941	3358064	6061
195	2017-09-15 16:58:54		0	0	0	0	0	0	6.17	1.76	0.04	300579	0	11504	213855	300579	289075	5304	123	601	34	207107	3358098	6062
196	2017-09-15 17:09:53		0	0	0	0	0	0	6.17	1.76	0.04	300626	0	11516	213855	300626	289110	5304	123	601	34	207107	3358142	6062
197	2017-09-15 17:20:53		0	0	0	0	0	0	6.17	1.76	0.04	300664	0	11522	213855	300664	289142	5304	123	601	34	207107	3358183	6062
198	2017-09-15 17:31:52		0	0	0	0	0	0	6.17	1.76	0.04	300700	0	11528	213855	300700	289172	5304	123	601	34	207107	3358225	6062
199	2017-09-15 17:42:52		0	0	0	0	0	0	6.17	1.76	0.04	300724	0	11531	214062	300724	289193	5305	123	601	34	207301	3358268	6063
200	2017-09-15 17:53:53		0	0	0	0	0	0	6.17	1.76	0.04	300746	0	11534	214062	300746	289212	5305	123	601	34	207301	3358305	6063
201	2017-09-15 18:04:52		0	0	0	0	0	0	6.17	1.76	0.04	300804	0	11544	214062	300804	289260	5305	123	601	34	207301	3358338	6063
202	2017-09-15 18:15:52		0	0	0	0	0	0	6.17	1.76	0.04	300851	0	11550	214062	300851	289301	5305	123	601	34	207301	3358363	6063
203	2017-09-15 18:26:52		0	0	0	0	0	0	6.17	1.76	0.04	300897	0	11554	214062	300897	289343	5306	123	601	34	207301	3358391	6064
204	2017-09-15 18:37:52		0	0	0	0	0	0	6.17	1.76	0.04	300934	0	11560	214062	300934	289374	5306	123	601	34	207301	3358431	6064
205	2017-09-15 18:48:52		0	0	0	0	0	0	6.17	1.76	0.04	300971	0	11567	214062	300971	289404	5306	123	601	34	207301	3358457	6064
206	2017-09-15 18:59:53		0	0	0	0	0	0	6.18	1.76	0.04	301023	0	11579	214181	301023	289444	5307	123	601	34	207412	3358495	6065
207	2017-09-15 19:11:07		0	0	0	0	0	0	6.18	1.76	0.04	301053	0	11584	214181	301053	289469	5307	123	601	34	207412	3358531	6065
208	2017-09-15 19:21:53		0	0	0	0	0	0	6.18	1.76	0.04	301067	0	11584	214181	301067	289483	5307	123	601	34	207412	3358553	6065
209	2017-09-15 19:32:52		0	0	0	0	0	0	6.18	1.76	0.04	301102	0	11586	214181	301102	289516	5307	123	601	34	207412	3358579	6065
210	2017-09-15 19:43:53		0	0	0	0	0	0	6.18	1.76	0.04	301140	0	11589	214299	301140	289551	5307	123	601	34	207523	3358604	6065
211	2017-09-15 19:54:52		0	0	0	0	0	0	6.18	1.76	0.04	301192	0	11595	214299	301192	289597	5308	123	601	34	207523	3358630	6066
212	2017-09-15 20:05:56		0	0	0	0	0	0	6.18	1.76	0.04	301228	0	11599	214299	301228	289629	5309	123	601	34	207523	3358666	6067
213	2017-09-15 20:16:54		0	0	0	0	0	0	6.18	1.76	0.04	301268	0	11607	214299	301268	289661	5309	123	601	34	207523	3358702	6067
214	2017-09-15 20:28:39		0	0	0	0	0	0	6.18	1.76	0.04	301303	0	11611	214299	301303	289692	5311	123	601	34	207523	3358726	6069
215	2017-09-15 20:38:59		0	0	0	0	0	0	6.18	1.76	0.04	301340	0	11613	214325	301340	289727	5313	123	601	34	207548	3358749	6071
216	2017-09-15 20:50:03		0	0	0	0	0	0	6.18	1.76	0.04	301385	0	11618	214325	301385	289755	5315	123	601	34	207548	3358775	6073
217	2017-09-15 21:01:00		0	0	0	0	0	0	6.18	1.76	0.04	301419	0	11624	214325	301419	289795	5318	123	601	34	207548	3358802	6076
218	2017-09-15 21:11:59		0	0	0	0	0	0	6.18	1.76	0.04	301454	0	11631	214325	301454	289823	5319	123	602	34	207548	3358820	6078
219	2017-09-15 21:23:23		0	0	0	0	0	0	6.18	1.76	0.04	301486	0	11635	214325	301486	289851	5319	123	602	34	207548	3358837	6078
220	2017-09-15 21:34:20		0	0	0	0	0	0	6.18	1.76	0.04	301514	0	11637	214325	301514	289877	5319	123	602	34	207548	3358853	6078
221	2017-09-15 21:45:22		0	0	0	0	0	0	6.18	1.76	0.04	301570	0	11644	214429	301570	289926	5319	123	602	34	207645	3358878	6078
222	2017-09-15 21:56:35		0	0	0	0	0	0	6.18	1.76	0.04	301616	0	11648	214429	301616	289968	5320	123	602	34	207645	3358896	6079
223	2017-09-15 22:07:33		0	0	0	0	0	0	6.18	1.76	0.04	301643	0	11650	214429	301643	289993	5320	123	602	34	207645	3358924	6079
224	2017-09-15 22:18:43		0	0	0	0	0	0	6.18	1.76	0.04	301675	0	11653	214429	301675	290022	5320	123	602	34	207645	3358947	6079
225	2017-09-15 22:29:37		0	0	0	0	0	0	6.18	1.76	0.04	301708	0	11659	214429	301708	290049	5320	123	602	34	207645	3358974	6079
226	2017-09-15 22:40:37		0	0	0	0	0	0	6.18	1.76	0.04	301765	0	11668	214544	301765	290097	5320	123	602	34	207753	3358994	6079
227	2017-09-15 22:52:37		0	0	0	0	0	0	6.18	1.76	0.04	301799	0	11673	214544	301799	290126	5322	123	604	34	207753	3359010	6083
228	2017-09-15 23:02:35		0	0	0	0	0	0	6.18	1.76	0.04	301836	0	11680	214544	301836	290156	5323	123	604	34	207753	3359025	6084
229	2017-09-15 23:13:35		0	0	0	0	0	0	6.18	1.76	0.04	301866	0	11682	214544	301866	290184	5323	123	604	34	207753	3359032	6084
230	2017-09-15 23:26:12		0	0	0	0	0	0	6.18	1.76	0.04	301911	0	11692	214604	301911	290222	5323	123	604	34	207753	3359049	6084
231	2017-09-15 23:36:13		0	0	0	0	0	0	6.19	1.76	0.04	301971	0	11694	214604	301971	290277	5324	123	604	34	207809	3359081	6085
232	2017-09-15 23:47:10		0	0	0	0	0	0	6.19	1.76	0.04	302018	0	11699	214604	302018	290319	5324	123	604	34	207809	3359104	6085
233	2017-09-15 23:58:09		0	0	0	0	0	0	6.19	1.76	0.04	302059	0	11704	214604	302059	290355	5324	123	604	34	207809	3359119	6085
234	2017-09-16 00:42:15		0	0	0	0	0	0	6.19	1.76	0.04	302237	0	11725	214782	302237	290512	5329	123	606	34	207976	3359202	6092
235	2017-09-16 01:42:16		0	0	0	0	0	0	6.2	1.76	0.04	302429	0	11741	215021	302429	290688	5332	123	606	34	208200	3359255	6095
236	2017-09-16 02:42:13		0	0	0	0	0	0	6.2	1.76	0.04	302539	0	11750	215021	302539	290789	5333	123	606	34	208200	3359296	6096
237	2017-09-16 03:42:33		0	0	0	0	0	0	6.2	1.76	0.04	302602	0	11757	215066	302602	290845	5333	123	606	34	208242	3359313	6096
238	2017-09-16 04:46:10		0	0	0	0	0	0	6.2	1.76	0.04	302648	0	11763	215066	302648	290885	5333	123	606	34	208242	3359327	6096
239	2017-09-16 05:44:42		0	0	0	0	0	0	6.2	1.76	0.04	302677	0	11766	215066	302677	290911	5333	123	606	34	208242	3359334	6096
240	2017-09-16 06:47:23		0	0	0	0	0	0	6.2	1.76	0.04	302712	0	11770	215066	302712	290942	5333	123	606	34	208242	3359343	6096
241	2017-09-16 07:14:22		0	0	0	0	0	0	6.2	1.76	0.04	302728	0	11771	215066	302728	290957	5333	123	606	34	208242	3359350	6096
242	2017-09-16 07:29:29		0	0	0	0	0	0	6.2	1.76	0.04	302738	0	11773	215066	302738	290965	5333	123	606	34	208242	3359352	6096
243	2017-09-16 07:46:38		0	0	0	0	0	0	6.2	1.76	0.04	302750	0	11774	215066	302750	290976	5334	123	606	34	208242	3359357	6097
244	2017-09-16 08:03:17		0	0	0	0	0	0	6.2	1.76	0.04	302767	0	11777	215066	302767	290990	5334	123	606	34	208242	3359362	6097
245	2017-09-16 08:28:09		0	0	0	0	0	0	6.21	1.76	0.04	302821	0	11781	215395	302821	291040	5336	123	607	34	208551	3359383	6100
246	2017-09-16 08:38:40		0	0	0	0	0	0	6.21	1.76	0.04	302852	0	11786	215395	302852	291066	5336	123	607	34	208551	3359401	6100
247	2017-09-16 08:48:45		0	0	0	0	0	0	6.21	1.76	0.04	302883	0	11791	215395	302883	291092	5336	123	607	34	208551	3359425	6100
248	2017-09-16 09:09:02		0	0	0	0	0	0	6.21	1.76	0.04	302919	0	11793	215605	302919	291126	5338	123	607	34	208551	3359449	6102
249	2017-09-16 09:27:54		0	0	0	0	0	0	6.21	1.76	0.04	302939	0	11795	215605	302939	291144	5338	123	607	34	208551	3359467	6102
250	2017-09-16 09:39:27		0	0	0	0	0	0	6.21	1.76	0.04	302986	0	11798	215605	302986	291188	5339	123	607	34	208551	3359497	6103
251	2017-09-16 09:53:45		0	0	0	0	0	0	6.21	1.76	0.04	303012	0	11804	215605	303012	291208	5340	123	607	34	208551	3359519	6104
252	2017-09-16 10:08:10		0	0	0	0	0	0	6.21	1.76	0.04	303038	0	11807	215605	303038	291231	5341	123	607	34	208551	3359533	6105
253	2017-09-16 10:16:01		0	0	0	0	0	0	6.21	1.76	0.04	303059	0	11809	215605	303059	291250	5342	123	607	34	208551	3359559	6106
254	2017-09-16 10:57:17		0	0	0	0	0	0	6.21	1.76	0.04	303163	0	11821	215605	303163	291342	5345	123	607	34	208551	3359626	6109
255	2017-09-16 11:06:11		0	0	0	0	0	0	6.21	1.76	0.04	303191	0	11827	215605	303191	291364	5345	123	607	34	208551	3359641	6109
256	2017-09-16 11:17:21		0	0	0	0	0	0	6.21	1.76	0.04	303224	0	11829	215605	303224	291395	5345	123	607	34	208551	3359655	6109
257	2017-09-16 11:29:19		0	0	0	0	0	0	6.21	1.76	0.04	303252	0	11832	215605	303252	291420	5345	123	607	34	208551	3359672	6109
258	2017-09-16 12:08:49		0	0	0	0	0	0	6.21	1.76	0.04	303352	0	11839	215605	303352	291506	5348	124	607	34	208551	3359759	6113
259	2017-09-16 12:27:41		0	0	0	0	0	0	6.21	1.76	0.04	303389	0	11840	215605	303389	291549	5348	124	607	34	208551	3359793	6113
260	2017-09-16 12:44:14		0	0	0	0	0	0	6.21	1.76	0.04	303452	0	11844	215605	303452	291608	5348	124	607	34	208551	3359834	6113
261	2017-09-16 12:55:58		0	0	0	0	0	0	6.21	1.76	0.04	303475	0	11847	215605	303475	291628	5348	124	607	34	208551	3359859	6113
262	2017-09-16 13:13:31		0	0	0	0	0	0	6.23	1.76	0.04	303535	0	11856	216328	303535	291679	5348	124	607	34	209227	3359916	6113
263	2017-09-16 13:24:08		0	0	0	0	0	0	6.23	1.76	0.04	303553	0	11859	216328	303553	291694	5349	124	607	34	209227	3359950	6114
264	2017-09-16 13:35:25		0	0	0	0	0	0	6.23	1.76	0.04	303572	0	11861	216328	303572	291711	5349	124	607	34	209227	3359969	6114
