1	2016-11-19 22:05:07	0	0	0	0	0	0	0.43	0.06	0.01	11336	1	124	10073	11336	11212	7	24618	11628	716	10013	2310425	36969
2	2016-11-19 22:15:13	0	0	0	0	0	0	1.14	0.2	0.05	32434	1	1407	27276	32434	31027	65	24738	11766	722	26238	2310431	37291
3	2016-11-19 22:25:07	0	0	0	0	0	0	1.74	0.25	0.08	53635	1	4055	43493	53635	49580	134	24860	11897	727	40198	2310439	37618
4	2016-11-19 22:36:32	0	0	0	0	0	0	2.27	0.26	0.12	73246	1	7638	59348	73246	65608	189	24974	12026	735	52332	2310445	37924
5	2016-11-19 22:45:15	0	0	0	0	0	0	2.66	0.28	0.15	90316	1	11439	71691	90316	78877	254	25050	12105	739	61453	2310448	38148
6	2016-11-19 22:55:15	0	0	0	0	0	0	2.99	0.3	0.17	105688	1	15302	82353	105688	90386	313	25122	12195	743	69127	2310446	38373
7	2016-11-19 23:05:09	0	0	0	0	0	0	3.16	0.3	0.18	119157	1	17195	92932	119157	95517	361	25180	12258	745	72933	2310454	38544
8	2016-11-19 23:15:05	0	0	0	0	0	0	3.48	0.31	0.2	125406	1	20703	97723	125406	104703	383	25230	12316	746	80330	2310456	38675
9	2016-11-19 23:25:06	0	0	0	0	0	0	3.77	0.32	0.21	137267	1	24172	106835	137267	113095	435	25274	12378	751	87108	2310454	38838
10	2016-11-19 23:35:08	0	0	0	0	0	0	3.93	0.32	0.23	148162	1	27447	112574	148162	120715	477	25320	12422	753	90871	2310461	38972
11	2016-11-19 23:45:07	0	0	0	0	0	0	4.16	0.34	0.24	158305	1	30593	120937	158305	127712	531	25348	12467	759	96161	2310469	39105
12	2016-11-19 23:55:43	0	0	0	0	0	0	4.43	0.33	0.25	172344	1	34955	129279	172344	137389	575	25378	12503	760	102250	2310473	39216
13	2016-11-20 00:05:07	0	0	0	0	0	0	4.52	0.34	0.26	176508	1	36274	132922	176508	140234	596	25430	12540	762	104482	2310480	39328
14	2016-11-20 00:15:07	0	0	0	0	0	0	4.71	0.34	0.27	184203	1	38864	139790	184203	145339	628	25458	12573	764	108880	2310488	39423
15	2016-11-20 00:25:16	0	0	0	0	0	0	4.86	0.35	0.27	191082	1	41133	145488	191082	149949	676	25478	12615	767	112204	2310489	39536
16	2016-11-20 00:35:16	0	0	0	0	0	0	4.95	0.35	0.28	197601	1	43279	148795	197601	154322	685	25500	12638	768	114323	2310503	39591
17	2016-11-20 00:53:47	0	0	0	0	0	0	5.17	0.35	0.29	208911	1	47127	156238	208911	161784	725	25550	12687	771	119378	2310524	39733
18	2016-11-20 00:56:32	0	0	0	0	0	0	5.17	0.35	0.29	208911	1	47127	156238	208911	161784	725	25550	12699	771	119378	2310526	39745
19	2016-11-20 01:05:11	0	0	0	0	0	0	5.27	0.35	0.3	213774	1	48738	158788	213774	165036	746	25580	12720	772	121721	2310530	39818
20	2016-11-20 01:15:09	0	0	0	0	0	0	5.38	0.35	0.3	218261	1	50257	162603	218261	168004	771	25590	12736	774	124194	2310539	39871
21	2016-11-20 01:25:05	0	0	0	0	0	0	5.45	0.35	0.3	222227	1	51571	164468	222227	170656	786	25608	12749	775	125975	2310539	39918
22	2016-11-20 01:35:15	0	0	0	0	0	0	5.53	0.35	0.3	225692	1	52678	167802	225692	173014	800	25620	12767	778	127817	2310542	39965
23	2016-11-20 01:45:19	0	0	0	0	0	0	5.59	0.36	0.31	229026	1	53835	169404	229026	175191	818	25636	12784	779	129102	2310545	40017
24	2016-11-20 01:56:07	0	0	0	0	0	0	5.68	0.36	0.31	233459	1	55342	173473	233459	178117	833	25646	12800	779	131216	2310550	40058
25	2016-11-20 02:05:05	0	0	0	0	0	0	5.71	0.36	0.31	234843	1	55807	175126	234843	179036	840	25652	12809	779	132075	2311096	40080
26	2016-11-20 02:15:03	0	0	0	0	0	0	5.75	0.36	0.31	237318	1	56614	175795	237318	180704	855	25658	12825	779	132898	2311097	40117
27	2016-11-20 02:25:09	0	0	0	0	0	0	5.8	0.36	0.31	239605	1	57362	177580	239605	182243	869	25664	12828	779	133974	2311098	40140
28	2016-11-20 02:35:14	0	0	0	0	0	0	5.84	0.36	0.32	241572	1	57985	178831	241572	183587	875	25672	12835	779	134896	2311096	40161
29	2016-11-20 02:45:20	0	0	0	0	0	0	5.85	0.36	0.32	243418	1	58582	179536	243418	184836	882	25676	12841	779	135202	2311096	40178
30	2016-11-20 02:55:51	0	0	0	0	0	0	5.92	0.36	0.32	245898	1	59344	181669	245898	186554	893	25684	12851	779	136879	2311097	40207
31	2016-11-20 03:08:09	0	0	0	0	0	0	5.96	0.37	0.32	247467	1	59834	182370	247467	187633	907	25686	12862	780	137679	2311096	40235
32	2016-11-20 03:15:02	0	0	0	0	0	0	5.96	0.37	0.32	248221	1	60076	183231	248221	188145	911	25688	12872	780	137826	2311096	40251
33	2016-11-20 03:25:02	0	0	0	0	0	0	6	0.37	0.32	249564	1	60508	184288	249564	189056	923	25690	12876	780	138597	2311100	40269
34	2016-11-20 03:35:03	0	0	0	0	0	0	6.04	0.37	0.32	250883	1	60934	185159	250883	189949	933	25702	12882	780	139484	2311101	40297
35	2016-11-20 03:45:02	0	0	0	0	0	0	6.05	0.37	0.32	252013	1	61319	185420	252013	190694	937	25708	12886	781	139897	2311099	40312
36	2016-11-20 03:55:03	0	0	0	0	0	0	6.08	0.37	0.32	253167	1	61715	186424	253167	191452	943	25714	12887	780	140455	2311099	40324
37	2016-11-20 04:05:03	0	0	0	0	0	0	6.09	0.37	0.32	254209	1	62095	186672	254209	192114	952	25720	12891	780	140749	2311100	40343
38	2016-11-20 04:15:02	0	0	0	0	0	0	6.11	0.37	0.32	255179	1	62455	187480	255179	192724	953	25724	12896	780	141211	2311103	40353
39	2016-11-20 04:25:03	0	0	0	0	0	0	6.13	0.37	0.32	256136	1	62815	187844	256136	193321	957	25728	12897	780	141631	2311101	40362
40	2016-11-20 04:35:03	0	0	0	0	0	0	6.17	0.37	0.33	256984	1	63118	188941	256984	193866	960	25730	12902	780	142647	2311101	40372
41	2016-11-20 04:45:26	0	0	0	0	0	0	6.18	0.37	0.33	257826	1	63417	189010	257826	194409	963	25734	12905	780	142897	2311105	40382
42	2016-11-20 04:55:11	0	0	0	0	0	0	6.2	0.37	0.33	258670	1	63704	189699	258670	194966	964	25742	12909	781	143211	2311104	40396
43	2016-11-20 05:05:13	0	0	0	0	0	0	6.2	0.37	0.33	259516	1	63992	189973	259516	195524	965	25742	12911	782	143211	2311102	40400
44	2016-11-20 05:15:08	0	0	0	0	0	0	6.21	0.37	0.33	260285	1	64290	190084	260285	195995	970	25744	12912	782	143633	2311101	40408
45	2016-11-20 05:25:10	0	0	0	0	0	0	6.25	0.37	0.33	261114	1	64601	191045	261114	196513	976	25746	12914	782	144329	2311103	40418
46	2016-11-20 05:35:07	0	0	0	0	0	0	6.26	0.38	0.33	261937	1	64940	191325	261937	196997	986	25756	12918	782	144597	2311100	40442
47	2016-11-20 05:46:34	0	0	0	0	0	0	6.27	0.38	0.33	263398	1	65597	191749	263398	197801	996	25764	12921	782	144916	2311099	40463
48	2016-11-20 06:04:46	0	0	0	0	0	0	6.29	0.38	0.33	264961	1	66266	192213	264961	198695	1004	25772	12927	782	145277	2311102	40485
49	2016-11-20 06:06:14	0	0	0	0	0	0	6.29	0.38	0.33	264961	1	66266	192213	264961	198695	1004	25772	12927	782	145277	2311102	40485
50	2016-11-20 06:15:11	0	0	0	0	0	0	6.3	0.38	0.33	266027	1	66741	192652	266027	199286	1014	25776	12931	782	145610	2311101	40503
51	2016-11-20 06:25:16	0	0	0	0	0	0	6.31	0.38	0.34	267178	1	67237	193205	267178	199941	1020	25782	12936	782	145761	2311103	40520
52	2016-11-20 06:35:07	0	0	0	0	0	0	6.33	0.38	0.34	268409	1	67754	194172	268409	200655	1027	25796	12942	783	146403	2311105	40548
53	2016-11-20 06:45:22	0	0	0	0	0	0	6.36	0.38	0.34	269761	1	68364	195095	269761	201397	1037	25804	12948	783	146931	2311103	40572
54	2016-11-20 06:55:08	0	0	0	0	0	0	6.38	0.39	0.34	271320	1	69005	195946	271320	202315	1046	25822	12962	783	147365	2311101	40613
55	2016-11-20 07:05:32	0	0	0	0	0	0	6.38	0.39	0.34	273102	1	69804	196525	273102	203298	1058	25828	12972	784	147551	2311102	40642
56	2016-11-20 07:15:05	0	0	0	0	0	0	6.43	0.39	0.35	275242	1	70738	198027	275242	204504	1071	25836	12981	784	148533	2311103	40672
57	2016-11-20 07:25:50	0	0	0	0	0	0	6.45	0.39	0.35	277440	1	71692	200626	277440	205748	1085	25842	12987	784	149094	2311107	40698
58	2016-11-20 07:36:59	0	0	0	0	0	0	6.5	0.39	0.35	281251	1	73351	201990	281251	207900	1107	25856	12998	784	150277	2311109	40745
59	2016-11-20 07:45:22	0	0	0	0	0	0	6.54	0.4	0.35	282564	1	73934	203030	282564	208630	1118	25860	13005	784	151132	2311114	40767
60	2016-11-20 07:55:14	0	0	0	0	0	0	6.57	0.4	0.36	285354	1	75123	204867	285354	210231	1133	25868	13012	784	151860	2311115	40797
61	2016-11-20 08:05:09	0	0	0	0	0	0	6.62	0.4	0.36	288320	1	76424	206381	288320	211896	1151	25876	13024	784	152924	2311114	40835
62	2016-11-20 08:15:15	0	0	0	0	0	0	6.65	0.4	0.36	291606	1	77906	208063	291606	213700	1163	25892	13034	784	153618	2311115	40873
63	2016-11-20 08:25:09	0	0	0	0	0	0	6.72	0.4	0.37	295110	1	79387	210139	295110	215723	1177	25912	13050	787	155232	2311118	40926
64	2016-11-20 08:35:09	0	0	0	0	0	0	6.78	0.4	0.37	298827	1	80984	213026	298827	217843	1194	25934	13067	788	156677	2311117	40983
65	2016-11-20 08:46:04	0	0	0	0	0	0	6.88	0.4	0.38	302888	1	82753	216195	302888	220135	1221	25946	13080	791	158961	2311124	41038
66	2016-11-20 08:55:04	0	0	0	0	0	0	6.94	0.41	0.38	307026	1	84597	220212	307026	222429	1255	25970	13098	791	160475	2311128	41114
67	2016-11-20 09:06:48	0	0	0	0	0	0	7.09	0.41	0.39	313247	1	87379	226291	313247	225868	1284	25996	13123	793	163905	2311131	41196
68	2016-11-20 09:16:30	0	0	0	0	0	0	7.14	0.42	0.39	315417	1	88395	228469	315417	227022	1314	26012	13143	793	165023	2311139	41262
69	2016-11-20 09:26:33	0	0	0	0	0	0	7.19	0.42	0.39	319835	1	90445	230639	319835	229390	1345	26036	13163	793	166092	2311143	41337
70	2016-11-20 09:35:05	0	0	0	0	0	0	7.25	0.42	0.4	324586	1	92560	232623	324586	232026	1354	26046	13182	794	167591	2311147	41376
71	2016-11-20 09:45:11	0	0	0	0	0	0	7.31	0.42	0.4	329361	1	94728	234198	329361	234633	1385	26070	13206	796	168917	2311148	41457
72	2016-11-20 09:55:07	0	0	0	0	0	0	7.37	0.42	0.41	334231	1	96907	237121	334231	237324	1414	26086	13223	797	170376	2311147	41520
73	2016-11-20 10:05:15	0	0	0	0	0	0	7.5	0.42	0.41	339204	1	99148	241093	339204	240056	1438	26106	13253	798	173383	2311152	41595
74	2016-11-20 10:15:13	0	0	0	0	0	0	7.64	0.43	0.42	344146	1	101396	245772	344146	242750	1467	26132	13271	798	176506	2311153	41668
75	2016-11-20 10:25:22	0	0	0	0	0	0	7.68	0.43	0.42	349045	1	103681	249038	349045	245364	1501	26150	13295	799	177584	2311164	41745
76	2016-11-20 10:35:28	0	0	0	0	0	0	7.75	0.43	0.43	353707	1	105847	253203	353707	247860	1536	26164	13313	799	179140	2311164	41812
77	2016-11-20 10:45:55	0	0	0	0	0	0	7.81	0.44	0.43	358366	1	108062	256837	358366	250304	1569	26186	13333	801	180535	2311163	41889
78	2016-11-20 10:55:19	0	0	0	0	0	0	7.87	0.44	0.44	363016	1	110268	261095	363016	252748	1592	26210	13348	801	181932	2311171	41951
79	2016-11-20 11:05:56	0	0	0	0	0	0	7.94	0.44	0.44	367625	1	112546	264835	367625	255079	1617	26234	13369	804	183403	2311176	42024
80	2016-11-20 11:15:27	0	0	0	0	0	0	7.99	0.44	0.45	372177	1	114802	267476	372177	257375	1646	26268	13392	807	184746	2311181	42113
81	2016-11-20 11:26:44	0	0	0	0	0	0	8.09	0.45	0.45	376698	1	117078	270582	376698	259620	1694	26292	13412	810	186874	2311193	42208
82	2016-11-20 11:41:09	0	0	0	0	0	0	8.18	0.45	0.46	383249	1	120462	275508	383249	262787	1712	26332	13446	812	189116	2311207	42302
83	2016-11-20 11:45:09	0	0	0	0	0	0	8.18	0.45	0.46	383249	1	120462	275508	383249	262787	1712	26350	13452	813	189116	2311210	42327
84	2016-11-20 11:55:30	0	0	0	0	0	0	8.28	0.45	0.47	389619	1	123864	283019	389619	265755	1762	26368	13471	814	191330	2311221	42415
85	2016-11-20 12:05:13	0	0	0	0	0	0	8.35	0.45	0.47	393926	1	126153	286353	393926	267773	1783	26398	13487	814	193088	2311227	42482
86	2016-11-20 12:15:16	0	0	0	0	0	0	8.42	0.46	0.48	397982	1	128314	289592	397982	269668	1814	26422	13508	814	194709	2311241	42558
87	2016-11-20 12:25:37	0	0	0	0	0	0	8.49	0.45	0.48	402108	1	130483	292616	402108	271625	1828	26442	13522	816	196307	2311257	42608
88	2016-11-20 12:35:16	0	0	0	0	0	0	8.53	0.46	0.48	406179	1	132584	295207	406179	273595	1862	26454	13539	818	197120	2311270	42673
89	2016-11-20 12:45:28	0	0	0	0	0	0	8.55	0.46	0.49	410238	1	134629	297610	410238	275609	1879	26478	13557	818	197642	2311280	42732
90	2016-11-20 12:55:26	0	0	0	0	0	0	8.68	0.46	0.49	414297	1	136751	300109	414297	277546	1894	26508	13567	820	200598	2311299	42789
91	2016-11-20 13:05:28	0	0	0	0	0	0	8.8	0.46	0.5	418481	1	138908	302920	418481	279573	1921	26522	13588	820	203295	2311318	42851
92	2016-11-20 13:16:30	0	0	0	0	0	0	8.82	0.46	0.5	422476	1	140956	304200	422476	281520	1943	26548	13613	820	203884	2311339	42924
93	2016-11-20 13:33:49	0	0	0	0	0	0	8.92	0.46	0.51	430386	1	144976	308742	430386	285410	2001	26580	13644	821	206216	2311364	43046
94	2016-11-20 13:35:21	0	0	0	0	0	0	8.92	0.46	0.51	430386	1	144976	308742	430386	285410	2001	26582	13646	821	206216	2311363	43050
95	2016-11-20 13:45:16	0	0	0	0	0	0	8.93	0.47	0.51	434426	1	147062	310405	434426	287364	2032	26604	13666	822	206381	2311372	43124
96	2016-11-20 13:55:19	0	0	0	0	0	0	9.01	0.47	0.52	438658	1	149194	313883	438658	289464	2047	26630	13680	822	208150	2311381	43179
97	2016-11-20 14:05:58	0	0	0	0	0	0	9.05	0.47	0.52	443043	1	151474	316154	443043	291569	2072	26650	13703	824	209261	2311409	43249
98	2016-11-20 14:15:20	0	0	0	0	0	0	9.12	0.47	0.52	447228	1	153650	319292	447228	293578	2091	26666	13717	824	210914	2311418	43298
99	2016-11-20 14:25:23	0	0	0	0	0	0	9.18	0.47	0.53	451250	1	155751	321171	451250	295499	2109	26674	13736	826	212176	2311432	43345
100	2016-11-20 14:35:27	0	0	0	0	0	0	9.2	0.47	0.53	455000	1	157769	322174	455000	297231	2124	26688	13755	826	212598	2311449	43393
101	2016-11-20 14:51:22	0	0	0	0	0	0	9.23	0.47	0.54	460587	1	160735	325891	460587	299852	2157	26716	13787	827	213413	2311478	43487
102	2016-11-20 15:02:38	0	0	0	0	0	0	9.29	0.47	0.54	466218	1	163682	329796	466218	302536	2182	26742	13804	831	214846	2311495	43559
103	2016-11-20 15:06:23	0	0	0	0	0	0	9.29	0.47	0.54	466218	1	163682	329796	466218	302536	2182	26750	13812	831	214846	2311497	43575
104	2016-11-20 15:15:45	0	0	0	0	0	0	9.37	0.47	0.54	469768	1	165502	331309	469768	304266	2205	26768	13824	832	216617	2311510	43629
105	2016-11-20 15:25:42	0	0	0	0	0	0	9.42	0.47	0.55	473425	1	167410	333253	473425	306015	2228	26782	13844	834	217706	2311534	43688
106	2016-11-20 15:35:54	0	0	0	0	0	0	9.48	0.47	0.55	476922	1	169255	335128	476922	307667	2247	26790	13859	835	219108	2311552	43731
107	2016-11-20 15:45:36	0	0	0	0	0	0	9.55	0.47	0.55	480443	1	171072	337181	480443	309371	2266	26806	13877	837	220729	2311569	43786
108	2016-11-20 15:55:52	0	0	0	0	0	0	9.62	0.47	0.56	483993	1	172932	338663	483993	311061	2286	26834	13899	838	222289	2311593	43857
109	2016-11-20 16:21:48	0	0	0	0	0	0	9.74	0.47	0.56	492983	1	177626	346246	492983	315357	2338	26862	13936	840	225162	2311639	43976
110	2016-11-20 16:26:50	0	0	0	0	0	0	9.74	0.47	0.56	492983	1	177626	346246	492983	315357	2338	26878	13945	840	225162	2311648	44001
111	2016-11-20 16:27:52	0	0	0	0	0	0	9.77	0.47	0.57	496469	1	179442	348683	496469	317027	2357	26884	13945	840	225934	2311649	44026
112	2016-11-20 16:35:22	0	0	0	0	0	0	9.81	0.47	0.57	498302	1	180398	349686	498302	317904	2364	26908	13955	840	226786	2311665	44067
113	2016-11-20 16:45:36	0	0	0	0	0	0	9.84	0.48	0.57	501791	1	182299	350657	501791	319492	2384	26914	13969	842	227403	2311678	44109
114	2016-11-20 16:56:33	0	0	0	0	0	0	9.9	0.48	0.57	505253	1	184141	354318	505253	321112	2401	26932	13981	845	228933	2311690	44159
115	2016-11-20 17:05:27	0	0	0	0	0	0	9.93	0.48	0.58	508665	1	185904	354765	508665	322761	2417	26944	13995	845	229544	2311693	44201
116	2016-11-20 17:15:26	0	0	0	0	0	0	9.97	0.47	0.58	511976	1	187664	355896	511976	324312	2431	26962	14007	845	230586	2311704	44245
117	2016-11-20 17:25:49	0	0	0	0	0	0	9.98	0.47	0.58	515341	1	189504	357035	515341	325837	2440	26974	14022	845	230719	2311717	44281
118	2016-11-20 17:36:38	0	0	0	0	0	0	10.03	0.47	0.58	518622	1	191274	359815	518622	327348	2453	26994	14029	846	231860	2311733	44322
119	2016-11-20 17:45:22	0	0	0	0	0	0	10.07	0.47	0.59	522098	1	193132	362787	522098	328966	2475	27010	14039	848	232740	2311748	44372
120	2016-11-20 17:55:29	0	0	0	0	0	0	10.07	0.47	0.59	525680	1	195024	363626	525680	330656	2495	27018	14047	849	232897	2311766	44409
121	2016-11-20 18:05:43	0	0	0	0	0	0	10.1	0.48	0.59	529039	1	196714	365876	529039	332325	2520	27036	14062	850	233495	2311777	44468
122	2016-11-20 18:16:04	0	0	0	0	0	0	10.15	0.48	0.59	532376	1	198560	367047	532376	333816	2536	27050	14078	850	234556	2311793	44514
123	2016-11-20 18:26:07	0	0	0	0	0	0	10.19	0.48	0.6	535751	1	200384	368428	535751	335367	2556	27068	14093	851	235555	2311805	44568
124	2016-11-20 18:51:42	0	0	0	0	0	0	10.29	0.48	0.6	544450	1	204984	373607	544450	339466	2587	27114	14117	853	237851	2311841	44671
125	2016-11-20 18:55:33	0	0	0	0	0	0	10.29	0.48	0.6	544450	1	204984	373607	544450	339466	2587	27122	14118	853	237851	2311850	44680
126	2016-11-20 19:06:14	0	0	0	0	0	0	10.39	0.48	0.61	549968	1	207982	376366	549968	341986	2613	27136	14129	854	240143	2311866	44732
127	2016-11-20 19:17:50	0	0	0	0	0	0	10.44	0.47	0.61	555350	1	210908	379667	555350	344442	2636	27154	14143	856	241379	2311885	44789
128	2016-11-20 19:26:07	0	0	0	0	0	0	10.48	0.47	0.61	557129	1	211889	380262	557129	345240	2644	27160	14153	857	242210	2311917	44814
129	2016-11-20 19:35:57	0	0	0	0	0	0	10.53	0.47	0.62	560691	1	213778	382021	560691	346913	2661	27180	14165	861	243496	2311937	44867
130	2016-11-20 19:45:47	0	0	0	0	0	0	10.57	0.47	0.62	564170	1	215680	385313	564170	348490	2671	27188	14180	861	244476	2311962	44900
131	2016-11-20 19:56:16	0	0	0	0	0	0	10.69	0.47	0.62	567681	1	217524	388521	567681	350157	2690	27214	14192	862	247176	2311976	44958
132	2016-11-20 20:05:51	0	0	0	0	0	0	10.71	0.47	0.62	571191	1	219299	390173	571191	351892	2704	27226	14205	863	247680	2311991	44998
133	2016-11-20 20:15:30	0	0	0	0	0	0	10.78	0.47	0.63	574678	1	221095	392996	574678	353583	2723	27252	14216	865	249316	2312004	45056
134	2016-11-20 20:25:27	0	0	0	0	0	0	10.79	0.47	0.63	578159	1	222967	393445	578159	355192	2741	27260	14230	866	249376	2312019	45097
135	2016-11-20 20:35:28	0	0	0	0	0	0	10.87	0.47	0.63	581606	1	224812	396215	581606	356794	2757	27262	14238	867	251217	2312029	45124
136	2016-11-20 20:45:29	0	0	0	0	0	0	10.91	0.47	0.63	584964	1	226587	398016	584964	358377	2775	27276	14255	868	252189	2312044	45174
137	2016-11-20 20:55:29	0	0	0	0	0	0	10.94	0.47	0.63	588357	1	228368	399351	588357	359989	2792	27284	14268	868	253034	2312051	45212
138	2016-11-20 21:05:32	0	0	0	0	0	0	11	0.47	0.64	591597	1	230108	400682	591597	361489	2806	27290	14277	868	254406	2312059	45241
139	2016-11-20 21:15:32	0	0	0	0	0	0	11.09	0.47	0.64	594719	1	231755	403370	594719	362964	2814	27298	14289	870	256376	2312081	45271
140	2016-11-20 21:25:36	0	0	0	0	0	0	11.15	0.47	0.64	597963	1	233453	404582	597963	364510	2837	27318	14301	871	257736	2312088	45327
141	2016-11-20 21:35:32	0	0	0	0	0	0	11.18	0.48	0.64	601254	1	235163	406228	601254	366091	2858	27334	14312	871	258532	2312096	45375
142	2016-11-20 21:45:29	0	0	0	0	0	0	11.24	0.47	0.64	604489	1	236816	408438	604489	367673	2870	27360	14325	873	259932	2312102	45428
143	2016-11-20 21:55:31	0	0	0	0	0	0	11.28	0.48	0.65	607881	1	238621	410604	607881	369260	2890	27372	14335	874	260918	2312112	45471
144	2016-11-20 22:05:31	0	0	0	0	0	0	11.37	0.48	0.65	611027	1	240329	412327	611027	370698	2908	27380	14345	876	262845	2312121	45509
145	2016-11-20 22:15:30	0	0	0	0	0	0	11.4	0.48	0.65	614111	1	241944	413614	614111	372167	2920	27390	14358	877	263558	2312135	45545
146	2016-11-20 22:25:32	0	0	0	0	0	0	11.43	0.48	0.65	617252	1	243591	415390	617252	373661	2934	27410	14372	879	264165	2312148	45595
147	2016-11-20 22:35:29	0	0	0	0	0	0	11.46	0.48	0.65	620306	1	245308	416704	620306	374998	2947	27418	14383	882	265070	2312156	45630
148	2016-11-20 22:45:30	0	0	0	0	0	0	11.49	0.47	0.66	623091	1	246865	418167	623091	376226	2955	27432	14395	882	265615	2312166	45664
149	2016-11-20 22:55:28	0	0	0	0	0	0	11.53	0.48	0.66	626009	1	248466	419809	626009	377543	2975	27446	14408	883	266575	2312173	45712
150	2016-11-20 23:05:29	0	0	0	0	0	0	11.53	0.48	0.66	628651	1	249912	421553	628651	378739	2988	27454	14416	883	266667	2312181	45741
151	2016-11-20 23:15:32	0	0	0	0	0	0	11.55	0.48	0.66	631066	1	251314	423832	631066	379752	2999	27460	14424	884	267064	2312199	45767
152	2016-11-20 23:25:34	0	0	0	0	0	0	11.6	0.48	0.66	633413	1	252609	424580	633413	380804	3019	27472	14432	886	268241	2312213	45809
153	2016-11-20 23:35:30	0	0	0	0	0	0	11.61	0.48	0.66	635594	1	253845	425865	635594	381749	3030	27488	14436	886	268334	2312221	45840
154	2016-11-20 23:45:29	0	0	0	0	0	0	11.73	0.48	0.67	637689	1	254994	426444	637689	382695	3036	27498	14442	887	271234	2312227	45863
155	2016-11-20 23:55:28	0	0	0	0	0	0	11.73	0.48	0.67	639585	1	256063	426914	639585	383522	3050	27504	14450	888	271281	2312235	45892
156	2016-11-21 00:05:30	0	0	0	0	0	0	11.76	0.48	0.67	641367	1	257030	427622	641367	384337	3058	27514	14455	888	271853	2312248	45915
157	2016-11-21 00:15:18	0	0	0	0	0	0	11.77	0.48	0.67	642917	1	257874	429580	642917	385043	3071	27518	14458	889	272163	2312263	45936
158	2016-11-21 00:25:16	0	0	0	0	0	0	11.77	0.48	0.67	644372	1	258688	430087	644372	385684	3077	27526	14463	890	272163	2312277	45956
159	2016-11-21 00:35:17	0	0	0	0	0	0	11.77	0.48	0.67	645763	1	259415	430259	645763	386348	3082	27532	14467	890	272208	2312281	45971
160	2016-11-21 00:45:18	0	0	0	0	0	0	11.77	0.48	0.67	647015	1	260132	430289	647015	386883	3086	27542	14473	890	272208	2312289	45991
161	2016-11-21 00:55:17	0	0	0	0	0	0	11.8	0.48	0.67	648212	1	260763	430289	648212	387449	3093	27544	14478	890	272784	2312298	46005
162	2016-11-21 01:05:18	0	0	0	0	0	0	11.8	0.48	0.67	649248	1	261326	430738	649248	387922	3099	27546	14483	890	272856	2312305	46018
163	2016-11-21 01:15:16	0	0	0	0	0	0	11.8	0.48	0.67	650225	1	261873	430857	650225	388352	3104	27550	14489	890	272856	2312307	46033
164	2016-11-21 01:25:17	0	0	0	0	0	0	11.81	0.48	0.67	651057	1	262313	430917	651057	388744	3107	27556	14493	891	273169	2312309	46047
165	2016-11-21 01:35:16	0	0	0	0	0	0	11.81	0.48	0.68	651835	1	262733	430917	651835	389102	3113	27562	14496	892	273169	2312313	46063
166	2016-11-21 01:45:17	0	0	0	0	0	0	11.82	0.48	0.68	652486	1	263085	432301	652486	389401	3116	27568	14504	893	273362	2312313	46081
167	2016-11-21 01:55:17	0	0	0	0	0	0	11.83	0.48	0.68	653106	1	263421	432603	653106	389685	3123	27568	14505	893	273555	2312314	46089
168	2016-11-21 02:05:17	0	0	0	0	0	0	11.83	0.48	0.68	653653	1	263704	432603	653653	389949	3126	27570	14510	893	273652	2313733	46099
169	2016-11-21 02:15:17	0	0	0	0	0	0	11.83	0.48	0.68	654164	1	263988	433330	654164	390176	3130	27574	14511	893	273652	2313744	46108
170	2016-11-21 02:25:17	0	0	0	0	0	0	11.83	0.48	0.68	654617	1	264256	433755	654617	390361	3134	27574	14512	893	273652	2313747	46113
171	2016-11-21 02:35:17	0	0	0	0	0	0	11.85	0.48	0.68	654959	1	264460	434241	654959	390499	3137	27576	14513	893	274233	2313750	46119
172	2016-11-21 02:45:16	0	0	0	0	0	0	11.86	0.48	0.68	655322	1	264662	435096	655322	390660	3140	27578	14513	893	274525	2313751	46124
173	2016-11-21 02:55:22	0	0	0	0	0	0	11.86	0.48	0.68	655653	1	264851	435340	655653	390802	3140	27578	14513	893	274525	2313752	46124
174	2016-11-21 03:05:17	0	0	0	0	0	0	11.86	0.48	0.68	655967	1	265035	435830	655967	390932	3141	27580	14513	893	274525	2313754	46127
175	2016-11-21 03:15:17	0	0	0	0	0	0	11.86	0.48	0.68	656211	1	265160	435830	656211	391051	3143	27582	14513	893	274525	2313755	46131
176	2016-11-21 03:25:17	0	0	0	0	0	0	11.86	0.48	0.68	656506	1	265340	435830	656506	391166	3144	27582	14514	893	274525	2313755	46133
177	2016-11-21 03:35:17	0	0	0	0	0	0	11.86	0.48	0.68	656751	1	265485	435830	656751	391266	3145	27582	14514	893	274525	2313759	46134
178	2016-11-21 03:45:17	0	0	0	0	0	0	11.88	0.48	0.68	656978	1	265620	436314	656978	391358	3146	27584	14515	893	274912	2313762	46138
179	2016-11-21 03:55:17	0	0	0	0	0	0	11.88	0.48	0.68	657210	1	265756	436314	657210	391454	3146	27584	14518	893	274912	2313760	46141
180	2016-11-21 04:05:17	0	0	0	0	0	0	11.88	0.48	0.68	657430	1	265893	436437	657430	391537	3148	27584	14520	894	274912	2313761	46146
181	2016-11-21 04:15:18	0	0	0	0	0	0	11.88	0.48	0.68	657636	1	266012	436560	657636	391624	3150	27586	14520	894	274912	2313762	46150
182	2016-11-21 04:25:16	0	0	0	0	0	0	11.88	0.48	0.68	657847	1	266151	436560	657847	391696	3151	27586	14523	894	274912	2313762	46154
183	2016-11-21 04:35:18	0	0	0	0	0	0	11.88	0.48	0.68	658053	1	266300	436560	658053	391753	3156	27588	14524	894	274912	2313763	46162
184	2016-11-21 04:45:16	0	0	0	0	0	0	11.88	0.48	0.68	658295	1	266476	437053	658295	391819	3156	27590	14525	895	274912	2313763	46166
185	2016-11-21 04:55:18	0	0	0	0	0	0	11.88	0.48	0.68	658540	1	266641	437424	658540	391899	3159	27596	14526	895	274912	2313761	46176
186	2016-11-21 05:05:16	0	0	0	0	0	0	11.88	0.48	0.68	658774	1	266811	437671	658774	391963	3159	27598	14527	895	274912	2313760	46179
187	2016-11-21 05:15:18	0	0	0	0	0	0	11.88	0.48	0.68	659031	1	266983	437671	659031	392048	3161	27600	14528	895	274912	2313761	46184
188	2016-11-21 05:25:18	0	0	0	0	0	0	11.9	0.48	0.68	659303	1	267177	438290	659303	392126	3162	27600	14529	895	275352	2313762	46186
189	2016-11-21 05:35:17	0	0	0	0	0	0	11.9	0.48	0.68	659592	1	267393	438943	659592	392199	3162	27602	14529	895	275352	2313762	46188
190	2016-11-21 05:45:17	0	0	0	0	0	0	11.9	0.48	0.68	659889	1	267614	438943	659889	392275	3163	27602	14530	895	275352	2313763	46190
191	2016-11-21 05:55:20	0	0	0	0	0	0	11.9	0.48	0.68	660189	1	267829	439316	660189	392360	3165	27604	14531	895	275352	2313761	46195
192	2016-11-21 06:05:23	0	0	0	0	0	0	11.9	0.48	0.68	660534	1	268077	439316	660534	392457	3167	27604	14533	896	275352	2313764	46200
193	2016-11-21 06:15:18	0	0	0	0	0	0	11.9	0.48	0.68	660871	1	268288	439558	660871	392583	3168	27604	14536	896	275447	2313764	46204
194	2016-11-21 06:25:18	0	0	0	0	0	0	11.9	0.48	0.68	661241	1	268532	439558	661241	392709	3172	27604	14537	896	275447	2313767	46209
195	2016-11-21 06:35:19	0	0	0	0	0	0	11.9	0.48	0.68	661671	1	268836	439558	661671	392835	3175	27606	14538	896	275447	2313768	46215
196	2016-11-21 06:45:18	0	0	0	0	0	0	11.9	0.48	0.68	662166	1	269157	439558	662166	393009	3176	27612	14539	896	275447	2313771	46223
197	2016-11-21 06:55:21	0	0	0	0	0	0	11.91	0.48	0.69	662706	1	269547	439777	662706	393159	3181	27620	14542	896	275582	2313770	46239
198	2016-11-21 07:05:19	0	0	0	0	0	0	11.92	0.48	0.69	663370	1	269997	439777	663370	393373	3184	27624	14544	896	275778	2313777	46248
199	2016-11-21 07:15:18	0	0	0	0	0	0	11.92	0.48	0.69	664030	1	270465	439777	664030	393565	3187	27628	14544	896	275778	2313780	46255
200	2016-11-21 07:25:19	0	0	0	0	0	0	11.92	0.48	0.69	664748	1	270918	442155	664748	393830	3189	27628	14545	896	275877	2313785	46258
201	2016-11-21 07:35:21	0	0	0	0	0	0	11.92	0.48	0.69	665490	1	271434	442155	665490	394056	3196	27630	14548	896	275877	2313789	46270
202	2016-11-21 07:45:20	0	0	0	0	0	0	11.92	0.48	0.69	666265	1	271958	442345	666265	394307	3199	27630	14551	896	275877	2313788	46276
203	2016-11-21 07:55:21	0	0	0	0	0	0	11.93	0.48	0.69	667185	1	272576	442851	667185	394609	3208	27636	14553	896	275975	2313795	46293
204	2016-11-21 08:05:21	0	0	0	0	0	0	11.94	0.48	0.69	668229	1	273237	443227	668229	394992	3215	27644	14555	896	276221	2313800	46310
205	2016-11-21 08:15:20	0	0	0	0	0	0	11.94	0.48	0.69	669252	1	273869	443449	669252	395383	3222	27650	14561	896	276221	2313802	46329
206	2016-11-21 08:25:20	0	0	0	0	0	0	11.95	0.48	0.69	670392	1	274552	443834	670392	395840	3228	27656	14566	896	276614	2313813	46346
207	2016-11-21 08:35:22	0	0	0	0	0	0	11.95	0.48	0.69	671572	1	275260	444025	671572	396312	3240	27662	14567	896	276614	2313816	46365
208	2016-11-21 08:45:21	0	0	0	0	0	0	11.96	0.48	0.7	672891	1	276124	444280	672891	396767	3244	27676	14570	896	276812	2313829	46386
209	2016-11-21 08:55:20	0	0	0	0	0	0	11.99	0.48	0.7	674216	1	277019	444758	674216	397197	3250	27678	14573	896	277507	2313835	46397
210	2016-11-21 09:05:21	0	0	0	0	0	0	12.01	0.48	0.7	675573	1	277890	445911	675573	397683	3262	27684	14574	896	277918	2313842	46416
211	2016-11-21 09:15:21	0	0	0	0	0	0	12.03	0.48	0.7	676975	1	278812	446811	676975	398163	3268	27686	14578	897	278292	2313857	46429
212	2016-11-21 09:25:24	0	0	0	0	0	0	12.03	0.48	0.7	678298	1	279665	448007	678298	398633	3279	27692	14581	897	278292	2313865	46449
213	2016-11-21 09:35:23	0	0	0	0	0	0	12.04	0.48	0.7	679629	1	280518	448462	679629	399111	3283	27702	14585	899	278593	2313873	46469
214	2016-11-21 09:45:22	0	0	0	0	0	0	12.04	0.48	0.7	680990	1	281445	448462	680990	399545	3292	27706	14589	899	278693	2313885	46486
215	2016-11-21 09:55:23	0	0	0	0	0	0	12.05	0.48	0.71	682239	1	282348	449993	682239	399891	3298	27712	14592	899	278731	2313891	46501
216	2016-11-21 10:05:24	0	0	0	0	0	0	12.07	0.48	0.71	683486	1	283268	452757	683486	400218	3306	27716	14597	899	279183	2313897	46518
217	2016-11-21 10:15:23	0	0	0	0	0	0	12.07	0.48	0.71	684536	1	284125	452956	684536	400411	3310	27722	14602	900	279259	2313916	46534
218	2016-11-21 10:25:23	0	0	0	0	0	0	12.07	0.48	0.71	685473	1	284927	453092	685473	400546	3316	27726	14604	900	279259	2313926	46546
219	2016-11-21 10:35:23	0	0	0	0	0	0	12.07	0.48	0.71	686415	1	285767	453756	686415	400648	3322	27728	14605	900	279259	2313933	46555
220	2016-11-21 10:45:23	0	0	0	0	0	0	12.07	0.48	0.71	687233	1	286493	454351	687233	400740	3330	27730	14605	900	279259	2313949	46565
221	2016-11-21 10:55:24	0	0	0	0	0	0	12.07	0.48	0.72	688050	1	287205	454752	688050	400845	3335	27738	14606	900	279410	2313968	46579
222	2016-11-21 11:05:24	0	0	0	0	0	0	12.07	0.48	0.72	688920	1	287980	455287	688920	400940	3341	27738	14606	900	279410	2313975	46585
223	2016-11-21 11:15:25	0	0	0	0	0	0	12.08	0.49	0.72	689660	1	288655	455852	689660	401005	3350	27746	14606	900	279612	2313991	46602
224	2016-11-21 11:25:28	0	0	0	0	0	0	12.08	0.49	0.72	690385	1	289308	455987	690385	401077	3355	27754	14608	900	279612	2314004	46617
225	2016-11-21 11:35:35	0	0	0	0	0	0	12.09	0.49	0.72	691098	1	289944	456188	691098	401154	3359	27758	14609	900	279687	2314012	46626
226	2016-11-21 11:45:30	0	0	0	0	0	0	12.09	0.49	0.72	691845	1	290632	458485	691845	401213	3367	27760	14610	900	279839	2314027	46637
227	2016-11-21 11:55:26	0	0	0	0	0	0	12.09	0.49	0.73	692540	1	291272	458756	692540	401268	3371	27764	14611	900	279839	2314041	46646
228	2016-11-21 12:05:30	0	0	0	0	0	0	12.09	0.49	0.73	693221	1	291904	459778	693221	401317	3373	27768	14612	900	279839	2314056	46653
229	2016-11-21 12:15:26	0	0	0	0	0	0	12.1	0.49	0.73	693888	1	292525	460052	693888	401363	3380	27774	14612	900	279940	2314075	46666
230	2016-11-21 12:25:28	0	0	0	0	0	0	12.1	0.49	0.73	694571	1	293144	460428	694571	401427	3383	27774	14613	900	279940	2314095	46670
231	2016-11-21 12:35:27	0	0	0	0	0	0	12.1	0.49	0.73	695230	1	293752	461870	695230	401478	3386	27774	14614	900	279940	2314114	46674
232	2016-11-21 12:45:26	0	0	0	0	0	0	12.1	0.49	0.73	695831	1	294307	461870	695831	401524	3394	27780	14614	900	279940	2314128	46688
233	2016-11-21 12:55:28	0	0	0	0	0	0	12.1	0.49	0.73	696381	1	294809	461870	696381	401572	3397	27780	14614	900	279940	2314150	46691
234	2016-11-21 13:05:28	0	0	0	0	0	0	12.1	0.49	0.74	696941	1	295328	462111	696941	401613	3399	27780	14614	901	279940	2314168	46694
235	2016-11-21 13:15:29	0	0	0	0	0	0	12.1	0.49	0.74	697457	1	295802	462111	697457	401655	3399	27788	14615	901	280042	2314182	46703
236	2016-11-21 13:25:30	0	0	0	0	0	0	12.1	0.49	0.74	697952	1	296258	462111	697952	401694	3400	27792	14616	901	280042	2314202	46709
237	2016-11-21 13:35:30	0	0	0	0	0	0	12.1	0.49	0.74	698396	1	296669	462249	698396	401727	3402	27794	14616	901	280042	2314218	46713
238	2016-11-21 13:45:28	0	0	0	0	0	0	12.1	0.49	0.74	698778	1	297012	462521	698778	401766	3403	27792	14616	901	280042	2314233	46712
239	2016-11-21 13:55:29	0	0	0	0	0	0	12.1	0.49	0.74	699183	1	297386	462521	699183	401797	3406	27794	14616	901	280042	2314251	46717
240	2016-11-21 14:05:30	0	0	0	0	0	0	12.1	0.49	0.74	699633	1	297805	462729	699633	401828	3406	27798	14618	901	280042	2314267	46723
241	2016-11-21 14:15:31	0	0	0	0	0	0	12.1	0.49	0.74	700073	1	298211	462729	700073	401862	3408	27798	14619	901	280042	2314281	46726
242	2016-11-21 14:25:30	0	0	0	0	0	0	12.1	0.49	0.74	700514	1	298613	463317	700514	401901	3413	27798	14620	901	280042	2314289	46732
243	2016-11-21 14:35:29	0	0	0	0	0	0	12.1	0.49	0.74	700914	1	298980	463317	700914	401934	3416	27798	14620	901	280042	2314303	46735
244	2016-11-21 14:45:30	0	0	0	0	0	0	12.1	0.49	0.74	701332	1	299368	463317	701332	401964	3417	27800	14621	901	280042	2314314	46739
245	2016-11-21 14:55:32	0	0	0	0	0	0	12.1	0.49	0.75	701764	1	299768	463456	701764	401996	3420	27800	14621	901	280042	2314325	46742
246	2016-11-21 15:05:31	0	0	0	0	0	0	12.1	0.49	0.75	702162	1	300128	463664	702162	402034	3422	27802	14621	901	280042	2314342	46746
247	2016-11-21 15:15:31	0	0	0	0	0	0	12.1	0.49	0.75	702575	1	300506	463664	702575	402069	3430	27806	14622	901	280042	2314363	46759
248	2016-11-21 15:25:30	0	0	0	0	0	0	12.1	0.49	0.75	702939	1	300844	463942	702939	402095	3434	27808	14622	901	280042	2314367	46765
249	2016-11-21 15:35:31	0	0	0	0	0	0	12.12	0.49	0.75	703298	1	301172	463942	703298	402126	3438	27810	14622	901	280447	2314386	46771
250	2016-11-21 15:45:30	0	0	0	0	0	0	12.12	0.49	0.75	703644	1	301490	463942	703644	402154	3440	27810	14623	901	280447	2314403	46774
251	2016-11-21 15:55:34	0	0	0	0	0	0	12.12	0.49	0.75	703992	1	301816	463942	703992	402176	3440	27810	14623	901	280447	2314420	46774
252	2016-11-21 16:05:31	0	0	0	0	0	0	12.12	0.49	0.75	704315	1	302113	463942	704315	402202	3441	27814	14623	901	280447	2314432	46779
253	2016-11-21 16:15:31	0	0	0	0	0	0	12.12	0.49	0.75	704674	1	302444	466107	704674	402230	3441	27814	14623	901	280447	2314441	46779
254	2016-11-21 16:25:32	0	0	0	0	0	0	12.12	0.49	0.75	705018	1	302760	466107	705018	402258	3441	27814	14624	901	280447	2314445	46780
255	2016-11-21 16:35:31	0	0	0	0	0	0	12.12	0.49	0.75	705337	1	303056	466107	705337	402281	3445	27816	14624	901	280447	2314461	46786
256	2016-11-21 16:45:31	0	0	0	0	0	0	12.12	0.49	0.75	705616	1	303184	466107	705616	402310	3445	27818	14624	901	280447	2314480	46788
257	2016-11-21 16:55:32	0	0	0	0	0	0	12.12	0.49	0.75	705880	1	303554	467091	705880	402326	3445	27820	14624	901	280447	2314498	46790
258	2016-11-21 17:05:32	0	0	0	0	0	0	12.12	0.49	0.76	706157	1	303808	467091	706157	402349	3446	27820	14624	901	280447	2314520	46791
259	2016-11-21 17:15:31	0	0	0	0	0	0	12.12	0.49	0.76	706418	1	304038	467232	706418	402380	3447	27820	14624	901	280447	2314530	46792
260	2016-11-21 17:25:33	0	0	0	0	0	0	12.12	0.49	0.76	706674	1	304270	467232	706674	402404	3448	27822	14624	901	280447	2314550	46795
261	2016-11-21 17:35:30	0	0	0	0	0	0	12.12	0.49	0.76	706925	1	304503	467232	706925	402422	3448	27822	14624	901	280447	2314564	46795
262	2016-11-21 17:45:31	0	0	0	0	0	0	12.12	0.49	0.76	707154	1	304701	467514	707154	402453	3448	27822	14624	901	280549	2314583	46795
263	2016-11-21 17:55:55	0	0	0	0	0	0	12.12	0.49	0.76	707414	1	304938	467514	707414	402476	3449	27822	14625	901	280549	2314593	46797
264	2016-11-21 18:05:55	0	0	0	0	0	0	12.12	0.49	0.76	707659	1	305165	467514	707659	402494	3450	27824	14625	901	280549	2314598	46800
265	2016-11-21 18:15:57	0	0	0	0	0	0	12.12	0.49	0.76	707908	1	305388	467514	707908	402520	3452	27826	14625	901	280549	2314600	46804
266	2016-11-21 18:25:57	0	0	0	0	0	0	12.12	0.49	0.76	708163	1	305620	467514	708163	402543	3452	27828	14625	901	280549	2314614	46806
267	2016-11-21 18:35:53	0	0	0	0	0	0	12.12	0.49	0.76	708411	1	305844	467514	708411	402567	3452	27828	14625	901	280549	2314630	46806
268	2016-11-21 18:45:51	0	0	0	0	0	0	12.13	0.49	0.76	708681	1	306090	467514	708681	402591	3454	27828	14625	901	280651	2314645	46808
269	2016-11-21 18:55:54	0	0	0	0	0	0	12.12	0.49	0.76	708915	1	306296	467514	708915	402619	3455	27832	14626	901	280651	2314665	46814
270	2016-11-21 19:05:54	0	0	0	0	0	0	12.14	0.49	0.76	709162	1	306512	468753	709162	402650	3456	27832	14626	902	281007	2314678	46816
271	2016-11-21 19:15:54	0	0	0	0	0	0	12.14	0.49	0.76	709410	1	306746	469286	709410	402664	3456	27832	14626	902	281007	2314686	46816
272	2016-11-21 19:25:54	0	0	0	0	0	0	12.14	0.49	0.76	709602	1	306919	469286	709602	402683	3457	27834	14627	902	281007	2314701	46820
273	2016-11-21 19:35:54	0	0	0	0	0	0	12.14	0.49	0.76	709835	1	307122	469428	709835	402713	3457	27836	14628	902	281007	2314712	46823
274	2016-11-21 19:45:55	0	0	0	0	0	0	12.14	0.49	0.76	710091	1	307361	469428	710091	402730	3457	27836	14628	902	281007	2314733	46823
275	2016-11-21 19:55:55	0	0	0	0	0	0	12.14	0.49	0.76	710337	1	307577	469428	710337	402760	3459	27838	14629	902	281007	2314753	46828
276	2016-11-21 20:05:56	0	0	0	0	0	0	12.14	0.49	0.76	710527	1	307750	469428	710527	402777	3460	27838	14629	902	281007	2314768	46829
277	2016-11-21 20:15:53	0	0	0	0	0	0	12.14	0.49	0.76	710691	1	307890	469428	710691	402801	3462	27838	14629	902	281007	2314784	46831
278	2016-11-21 20:25:55	0	0	0	0	0	0	12.14	0.49	0.76	710905	1	308086	469428	710905	402819	3463	27840	14629	902	281007	2314804	46834
279	2016-11-21 20:35:55	0	0	0	0	0	0	12.14	0.49	0.77	711115	1	308272	469428	711115	402843	3465	27840	14630	902	281007	2314820	46837
280	2016-11-21 20:45:54	0	0	0	0	0	0	12.14	0.49	0.77	711287	1	308423	469428	711287	402864	3467	27840	14630	902	281007	2314832	46839
281	2016-11-21 20:55:55	0	0	0	0	0	0	12.14	0.49	0.77	711483	1	308599	469428	711483	402884	3467	27840	14630	902	281007	2314842	46839
282	2016-11-21 21:05:55	0	0	0	0	0	0	12.14	0.49	0.77	711692	1	308794	469428	711692	402898	3467	27840	14630	902	281007	2314859	46839
283	2016-11-21 21:15:55	0	0	0	0	0	0	12.14	0.49	0.77	711865	1	308952	469713	711865	402913	3467	27838	14630	902	281109	2314886	46837
284	2016-11-21 21:25:57	0	0	0	0	0	0	12.14	0.49	0.77	712026	1	309092	469713	712026	402934	3467	27838	14630	902	281109	2314904	46837
285	2016-11-21 21:35:55	0	0	0	0	0	0	12.14	0.49	0.77	712232	1	309271	469713	712232	402961	3467	27840	14630	902	281109	2314919	46839
286	2016-11-21 21:45:56	0	0	0	0	0	0	12.14	0.49	0.77	712406	1	309432	469713	712406	402974	3467	27840	14630	902	281109	2314934	46839
287	2016-11-21 21:55:56	0	0	0	0	0	0	12.14	0.49	0.77	712577	1	309588	469713	712577	402989	3467	27840	14630	902	281109	2314942	46839
288	2016-11-21 22:05:57	0	0	0	0	0	0	12.14	0.49	0.77	712740	1	309736	469713	712740	403004	3468	27842	14630	902	281109	2314964	46842
289	2016-11-21 22:15:57	0	0	0	0	0	0	12.14	0.49	0.77	712877	1	309862	469713	712877	403015	3470	27840	14630	902	281109	2314980	46842
290	2016-11-21 22:25:56	0	0	0	0	0	0	12.14	0.49	0.77	713056	1	310016	469713	713056	403040	3471	27840	14630	902	281109	2314990	46843
291	2016-11-21 22:35:58	0	0	0	0	0	0	12.14	0.49	0.77	713210	1	310148	469713	713210	403062	3471	27842	14630	902	281109	2315011	46845
292	2016-11-21 22:45:56	0	0	0	0	0	0	12.14	0.49	0.77	713363	1	310283	469713	713363	403080	3473	27842	14630	902	281109	2315034	46847
293	2016-11-21 22:55:59	0	0	0	0	0	0	12.14	0.49	0.77	713504	1	310404	470141	713504	403100	3474	27842	14630	902	281109	2315049	46848
294	2016-11-21 23:05:57	0	0	0	0	0	0	12.14	0.49	0.77	713626	1	310504	470141	713626	403122	3474	27846	14630	902	281109	2315059	46852
295	2016-11-21 23:15:56	0	0	0	0	0	0	12.14	0.49	0.77	713738	1	310603	470141	713738	403135	3475	27846	14630	902	281109	2315078	46853
296	2016-11-21 23:25:57	0	0	0	0	0	0	12.14	0.49	0.77	713852	1	310701	470141	713852	403151	3476	27844	14630	902	281109	2315093	46852
297	2016-11-21 23:35:55	0	0	0	0	0	0	12.14	0.49	0.77	713974	1	310804	470141	713974	403170	3476	27846	14630	902	281109	2315111	46854
298	2016-11-21 23:45:56	0	0	0	0	0	0	12.14	0.49	0.77	714076	1	310891	470141	714076	403185	3476	27848	14630	902	281109	2315133	46856
299	2016-11-21 23:55:37	0	0	0	0	0	0	12.14	0.49	0.77	714166	1	310974	470427	714166	403192	3477	27850	14630	902	281109	2315147	46859
300	2016-11-22 00:05:35	0	0	0	0	0	0	12.14	0.49	0.77	714254	1	311051	470427	714254	403203	3479	27852	14630	902	281109	2315156	46863
301	2016-11-22 00:15:35	0	0	0	0	0	0	12.14	0.49	0.77	714337	1	311123	470427	714337	403214	3480	27852	14631	902	281109	2315167	46865
302	2016-11-22 00:25:35	0	0	0	0	0	0	12.14	0.49	0.77	714403	1	311184	470427	714403	403219	3480	27852	14631	902	281109	2315176	46865
303	2016-11-22 00:35:35	0	0	0	0	0	0	12.14	0.49	0.77	714460	1	311230	470427	714460	403230	3480	27852	14631	902	281109	2315183	46865
304	2016-11-22 00:45:39	0	0	0	0	0	0	12.14	0.49	0.77	714491	1	311260	470427	714491	403234	3480	27852	14631	902	281109	2315203	46865
305	2016-11-22 00:55:37	0	0	0	0	0	0	12.14	0.49	0.77	714587	1	311342	470427	714587	403245	3480	27852	14631	902	281109	2315210	46865
306	2016-11-22 01:05:35	0	0	0	0	0	0	12.14	0.49	0.77	714629	1	311382	470427	714629	403247	3480	27852	14631	902	281109	2315220	46865
307	2016-11-22 01:15:34	0	0	0	0	0	0	12.14	0.49	0.77	714673	1	311425	470427	714673	403248	3481	27852	14631	902	281109	2315230	46866
308	2016-11-22 01:25:36	0	0	0	0	0	0	12.14	0.49	0.77	714700	1	311449	470427	714700	403251	3481	27852	14631	902	281109	2315234	46866
309	2016-11-22 01:35:36	0	0	0	0	0	0	12.14	0.49	0.77	714732	1	311481	470427	714732	403251	3481	27852	14631	902	281109	2315242	46866
310	2016-11-22 01:45:37	0	0	0	0	0	0	12.14	0.49	0.77	714768	1	311514	470427	714768	403254	3481	27852	14631	902	281109	2315249	46866
311	2016-11-22 01:55:35	0	0	0	0	0	0	12.14	0.49	0.77	714791	1	311535	470427	714791	403256	3481	27852	14631	902	281109	2315254	46866
312	2016-11-22 02:05:35	0	0	0	0	0	0	12.14	0.49	0.77	714808	1	311551	470427	714808	403257	3481	27852	14631	902	281109	2315158	46866
313	2016-11-22 02:15:33	0	0	0	0	0	0	12.14	0.49	0.77	714823	1	311564	470427	714823	403259	3481	27852	14631	902	281109	2315156	46866
314	2016-11-22 02:25:35	0	0	0	0	0	0	12.15	0.49	0.77	714843	1	311581	470641	714843	403262	3481	27852	14631	902	281186	2315159	46866
315	2016-11-22 02:35:35	0	0	0	0	0	0	12.15	0.49	0.77	714858	1	311596	470641	714858	403262	3481	27852	14631	902	281186	2315161	46866
316	2016-11-22 02:45:34	0	0	0	0	0	0	12.15	0.49	0.77	714872	1	311608	470641	714872	403264	3481	27852	14631	902	281186	2315163	46866
317	2016-11-22 02:55:35	0	0	0	0	0	0	12.15	0.49	0.77	714881	1	311616	470641	714881	403265	3481	27852	14631	902	281186	2315163	46866
318	2016-11-22 03:05:35	0	0	0	0	0	0	12.15	0.49	0.77	714902	1	311634	470641	714902	403268	3481	27852	14631	902	281186	2315164	46866
319	2016-11-22 03:15:35	0	0	0	0	0	0	12.15	0.49	0.77	714919	1	311648	470641	714919	403271	3481	27852	14631	902	281186	2315167	46866
320	2016-11-22 03:25:34	0	0	0	0	0	0	12.15	0.49	0.77	714925	1	311654	470641	714925	403271	3481	27852	14631	902	281186	2315168	46866
321	2016-11-22 03:35:34	0	0	0	0	0	0	12.15	0.49	0.77	714936	1	311664	470641	714936	403272	3481	27852	14631	902	281186	2315170	46866
322	2016-11-22 03:45:34	0	0	0	0	0	0	12.15	0.49	0.77	714951	1	311677	470641	714951	403274	3481	27852	14631	902	281186	2315171	46866
323	2016-11-22 03:55:36	0	0	0	0	0	0	12.15	0.49	0.77	714965	1	311687	470641	714965	403278	3481	27852	14631	902	281186	2315169	46866
324	2016-11-22 04:05:34	0	0	0	0	0	0	12.15	0.49	0.77	714977	1	311698	470641	714977	403279	3481	27852	14631	902	281186	2315170	46866
325	2016-11-22 04:15:34	0	0	0	0	0	0	12.15	0.49	0.77	714986	1	311706	470641	714986	403280	3481	27852	14631	902	281186	2315173	46866
326	2016-11-22 04:25:35	0	0	0	0	0	0	12.15	0.49	0.77	714993	1	311712	470641	714993	403281	3481	27852	14631	902	281186	2315173	46866
327	2016-11-22 04:35:35	0	0	0	0	0	0	12.15	0.49	0.77	715003	1	311720	470641	715003	403283	3481	27852	14631	902	281186	2315174	46866
328	2016-11-22 04:45:35	0	0	0	0	0	0	12.15	0.49	0.77	715015	1	311730	470641	715015	403285	3481	27852	14631	902	281186	2315174	46866
329	2016-11-22 04:55:36	0	0	0	0	0	0	12.15	0.49	0.77	715027	1	311739	470641	715027	403288	3481	27852	14631	902	281186	2315174	46866
330	2016-11-22 05:05:36	0	0	0	0	0	0	12.15	0.49	0.77	715042	1	311751	470641	715042	403291	3481	27852	14631	902	281186	2315179	46866
331	2016-11-22 05:15:35	0	0	0	0	0	0	12.15	0.49	0.77	715058	1	311766	470641	715058	403292	3481	27852	14631	902	281186	2315181	46866
332	2016-11-22 05:25:36	0	0	0	0	0	0	12.15	0.49	0.77	715073	1	311780	470641	715073	403293	3481	27852	14631	902	281186	2315183	46866
333	2016-11-22 05:35:37	0	0	0	0	0	0	12.15	0.49	0.77	715090	1	311796	470641	715090	403294	3481	27852	14631	902	281186	2315187	46866
334	2016-11-22 05:45:37	0	0	0	0	0	0	12.15	0.49	0.77	715105	1	311810	470641	715105	403295	3481	27852	14631	902	281186	2315187	46866
335	2016-11-22 05:55:38	0	0	0	0	0	0	12.15	0.49	0.77	715119	1	311823	470641	715119	403296	3481	27852	14631	902	281186	2315190	46866
336	2016-11-22 06:05:36	0	0	0	0	0	0	12.15	0.49	0.77	715138	1	311840	470641	715138	403298	3481	27852	14631	902	281186	2315192	46866
337	2016-11-22 06:15:36	0	0	0	0	0	0	12.15	0.49	0.77	715160	1	311858	470641	715160	403302	3481	27852	14631	902	281186	2315193	46866
338	2016-11-22 06:25:38	0	0	0	0	0	0	12.15	0.49	0.77	715180	1	311875	470641	715180	403305	3481	27852	14631	902	281186	2315196	46866
339	2016-11-22 06:35:37	0	0	0	0	0	0	12.15	0.49	0.77	715212	1	311900	470641	715212	403312	3481	27852	14631	902	281186	2315200	46866
340	2016-11-22 06:45:36	0	0	0	0	0	0	12.15	0.49	0.77	715234	1	311919	470641	715234	403315	3481	27852	14631	902	281186	2315198	46866
341	2016-11-22 06:55:37	0	0	0	0	0	0	12.15	0.49	0.77	715245	1	311929	470641	715245	403317	3481	27852	14631	902	281186	2315203	46866
342	2016-11-22 07:05:38	0	0	0	0	0	0	12.15	0.49	0.77	715266	1	311957	470641	715266	403322	3481	27852	14631	902	281186	2315203	46866
343	2016-11-22 07:15:37	0	0	0	0	0	0	12.15	0.49	0.77	715301	1	311977	470641	715301	403324	3481	27852	14631	902	281186	2315207	46866
344	2016-11-22 07:25:39	0	0	0	0	0	0	12.15	0.49	0.77	715328	1	311999	470641	715328	403325	3482	27852	14632	902	281186	2315209	46868
345	2016-11-22 07:35:39	0	0	0	0	0	0	12.15	0.49	0.77	715356	1	312025	470641	715356	403331	3482	27852	14632	902	281186	2315217	46868
346	2016-11-22 07:45:40	0	0	0	0	0	0	12.15	0.49	0.77	715385	1	312051	470641	715385	403334	3482	27852	14632	902	281186	2315227	46868
347	2016-11-22 07:55:40	0	0	0	0	0	0	12.15	0.49	0.77	715416	1	312068	470641	715416	403337	3482	27854	14632	902	281186	2315237	46870
348	2016-11-22 08:05:38	0	0	0	0	0	0	12.14	0.49	0.77	715434	1	312095	470641	715434	403339	3482	27856	14632	902	281186	2315242	46872
349	2016-11-22 08:15:38	0	0	0	0	0	0	12.14	0.49	0.77	715468	1	312127	470641	715468	403341	3482	27854	14632	902	281186	2315249	46870
350	2016-11-22 08:25:39	0	0	0	0	0	0	12.14	0.49	0.77	715507	1	312158	470641	715507	403349	3482	27854	14632	902	281186	2315256	46870
351	2016-11-22 08:35:41	0	0	0	0	0	0	12.14	0.49	0.77	715546	1	312217	470641	715546	403353	3482	27854	14632	902	281186	2315266	46870
352	2016-11-22 08:45:56	0	0	0	0	0	0	12.14	0.49	0.77	715621	1	312258	470641	715621	403363	3482	27854	14632	902	281186	2315277	46870
353	2016-11-22 08:55:37	0	0	0	0	0	0	12.14	0.49	0.77	715658	1	312294	470641	715658	403364	3482	27856	14632	902	281186	2315289	46872
354	2016-11-22 09:05:37	0	0	0	0	0	0	12.14	0.49	0.77	715717	1	312347	470641	715717	403370	3483	27854	14632	902	281186	2315299	46871
355	2016-11-22 09:15:38	0	0	0	0	0	0	12.14	0.49	0.77	715774	1	312395	470641	715774	403379	3483	27854	14632	902	281186	2315315	46871
356	2016-11-22 09:25:36	0	0	0	0	0	0	12.14	0.49	0.77	715837	1	312452	470641	715837	403385	3483	27854	14632	902	281186	2315319	46871
357	2016-11-22 09:35:39	0	0	0	0	0	0	12.14	0.49	0.77	715904	1	312514	470641	715904	403390	3484	27856	14632	902	281186	2315324	46874
358	2016-11-22 09:45:38	0	0	0	0	0	0	12.14	0.49	0.77	715973	1	312578	470641	715973	403402	3484	27856	14632	902	281186	2315338	46874
359	2016-11-22 09:55:39	0	0	0	0	0	0	12.14	0.49	0.77	716026	1	312623	470641	716026	403403	3485	27858	14632	902	281186	2315348	46877
360	2016-11-22 10:05:39	0	0	0	0	0	0	12.14	0.49	0.78	716072	1	312660	470641	716072	403415	3485	27858	14632	902	281186	2315364	46877
361	2016-11-22 10:15:39	0	0	0	0	0	0	12.14	0.49	0.78	716110	1	312692	470641	716110	403418	3485	27858	14632	902	281186	2315368	46877
362	2016-11-22 10:25:39	0	0	0	0	0	0	12.14	0.49	0.78	716162	1	312736	470641	716162	403428	3486	27858	14632	902	281186	2315381	46878
363	2016-11-22 10:35:38	0	0	0	0	0	0	12.14	0.49	0.78	716202	1	312772	470641	716202	403430	3486	27858	14632	902	281186	2315383	46878
364	2016-11-22 10:45:37	0	0	0	0	0	0	12.14	0.49	0.78	716246	1	312808	470641	716246	403438	3486	27858	14632	902	281186	2315389	46878
365	2016-11-22 10:55:39	0	0	0	0	0	0	12.14	0.49	0.78	716293	1	312850	470641	716293	403443	3487	27858	14632	902	281186	2315393	46879
366	2016-11-22 11:05:37	0	0	0	0	0	0	12.14	0.49	0.78	716345	1	312896	470926	716345	403449	3487	27858	14632	902	281186	2315405	46879
367	2016-11-22 11:15:39	0	0	0	0	0	0	12.14	0.49	0.78	716397	1	312940	470926	716397	403457	3488	27858	14632	902	281186	2315404	46880
368	2016-11-22 11:25:39	0	0	0	0	0	0	12.14	0.49	0.78	716436	1	312978	470926	716436	403458	3488	27858	14632	902	281186	2315405	46880
369	2016-11-22 11:35:43	0	0	0	0	0	0	12.14	0.49	0.78	716483	1	313019	471177	716483	403464	3488	27858	14632	902	281186	2315408	46880
370	2016-11-22 11:45:39	0	0	0	0	0	0	12.14	0.49	0.78	716524	1	313050	471177	716524	403474	3488	27858	14632	902	281186	2315407	46880
371	2016-11-22 11:55:40	0	0	0	0	0	0	12.14	0.49	0.78	716558	1	313079	471177	716558	403479	3488	27858	14632	902	281186	2315413	46880
372	2016-11-22 12:05:43	0	0	0	0	0	0	12.14	0.49	0.78	716595	1	313108	471177	716595	403487	3488	27860	14632	902	281186	2315431	46882
373	2016-11-22 12:15:41	0	0	0	0	0	0	12.14	0.49	0.78	716633	1	313143	471177	716633	403490	3489	27860	14632	902	281186	2315439	46883
374	2016-11-22 12:25:41	0	0	0	0	0	0	12.14	0.49	0.78	716671	1	313177	471177	716671	403494	3489	27860	14632	902	281186	2315453	46883
375	2016-11-22 12:35:41	0	0	0	0	0	0	12.14	0.49	0.78	716737	1	313238	471177	716737	403499	3489	27862	14632	902	281186	2315460	46885
376	2016-11-22 12:45:41	0	0	0	0	0	0	12.14	0.49	0.78	716786	1	313284	471177	716786	403502	3489	27862	14632	902	281186	2315471	46885
377	2016-11-22 12:55:42	0	0	0	0	0	0	12.14	0.49	0.78	716824	1	313317	471177	716824	403507	3490	27862	14632	902	281186	2315474	46886
378	2016-11-22 13:05:47	0	0	0	0	0	0	12.14	0.49	0.78	716874	1	313356	471177	716874	403520	3490	27862	14632	902	281186	2315485	46886
379	2016-11-22 13:15:53	0	0	0	0	0	0	12.14	0.49	0.78	716911	1	313388	471177	716911	403526	3490	27862	14632	902	281186	2315497	46886
380	2016-11-22 13:25:49	0	0	0	0	0	0	12.14	0.49	0.78	716965	1	313435	471177	716965	403530	3490	27862	14632	902	281186	2315505	46886
381	2016-11-22 13:35:43	0	0	0	0	0	0	12.14	0.49	0.78	716994	1	313463	471177	716994	403531	3490	27862	14632	902	281186	2315515	46886
382	2016-11-22 13:45:43	0	0	0	0	0	0	12.14	0.49	0.78	717023	1	313489	471177	717023	403534	3490	27862	14632	902	281186	2315528	46886
383	2016-11-22 13:55:44	0	0	0	0	0	0	12.14	0.49	0.78	717061	1	313521	471177	717061	403540	3490	27862	14632	902	281186	2315533	46886
384	2016-11-22 14:05:46	0	0	0	0	0	0	12.14	0.49	0.78	717104	1	313559	471177	717104	403545	3490	27864	14632	902	281186	2315543	46888
385	2016-11-22 14:15:43	0	0	0	0	0	0	12.14	0.49	0.78	717139	1	313592	471177	717139	403547	3490	27864	14632	902	281186	2315550	46888
386	2016-11-22 14:25:43	0	0	0	0	0	0	12.14	0.49	0.78	717176	1	313625	471177	717176	403551	3490	27866	14632	902	281186	2315569	46890
387	2016-11-22 14:35:44	0	0	0	0	0	0	12.14	0.49	0.78	717227	1	313672	471177	717227	403555	3491	27868	14632	902	281186	2315575	46893
388	2016-11-22 14:45:44	0	0	0	0	0	0	12.14	0.49	0.78	717271	1	313709	471177	717271	403562	3491	27868	14632	902	281186	2315587	46893
389	2016-11-22 14:55:45	0	0	0	0	0	0	12.14	0.49	0.78	717305	1	313741	471177	717305	403564	3491	27868	14632	902	281186	2315597	46893
390	2016-11-22 15:05:45	0	0	0	0	0	0	12.14	0.49	0.78	717337	1	313769	471177	717337	403568	3491	27868	14632	902	281186	2315603	46893
391	2016-11-22 15:15:44	0	0	0	0	0	0	12.14	0.49	0.78	717371	1	313799	471177	717371	403572	3491	27870	14632	902	281186	2315605	46895
392	2016-11-22 15:25:45	0	0	0	0	0	0	12.14	0.49	0.78	717411	1	313835	471464	717411	403576	3491	27870	14632	902	281186	2315616	46895
393	2016-11-22 15:35:46	0	0	0	0	0	0	12.14	0.49	0.78	717450	1	313865	471464	717450	403585	3492	27872	14632	902	281186	2315630	46898
394	2016-11-22 15:45:45	0	0	0	0	0	0	12.14	0.49	0.78	717501	1	313908	471464	717501	403593	3493	27872	14632	902	281186	2315636	46899
395	2016-11-22 15:55:48	0	0	0	0	0	0	12.14	0.49	0.78	717558	1	313961	471464	717558	403597	3493	27872	14632	902	281186	2315648	46899
396	2016-11-22 16:05:52	0	0	0	0	0	0	12.14	0.49	0.78	717593	1	313991	471464	717593	403602	3494	27872	14632	902	281186	2315663	46900
397	2016-11-22 16:15:54	0	0	0	0	0	0	12.14	0.49	0.78	717644	1	314037	471464	717644	403607	3494	27872	14632	902	281186	2315676	46900
398	2016-11-22 16:25:51	0	0	0	0	0	0	12.14	0.49	0.78	717690	1	314076	471464	717690	403614	3494	27872	14632	902	281186	2315697	46900
399	2016-11-22 16:35:45	0	0	0	0	0	0	12.14	0.49	0.78	717720	1	314104	471464	717720	403616	3494	27872	14632	902	281186	2315720	46900
400	2016-11-22 16:45:46	0	0	0	0	0	0	12.14	0.49	0.78	717755	1	314132	471464	717755	403623	3494	27872	14632	902	281186	2315737	46900
401	2016-11-22 16:55:47	0	0	0	0	0	0	12.14	0.49	0.78	717796	1	314169	471464	717796	403627	3494	27872	14632	902	281186	2315749	46900
402	2016-11-22 17:05:48	0	0	0	0	0	0	12.14	0.49	0.78	717841	1	314209	471608	717841	403632	3494	27872	14632	902	281186	2315770	46900
403	2016-11-22 17:15:45	0	0	0	0	0	0	12.14	0.49	0.78	717871	1	314235	471608	717871	403636	3494	27872	14632	902	281186	2315783	46900
404	2016-11-22 17:25:48	0	0	0	0	0	0	12.14	0.49	0.78	717911	1	314273	471608	717911	403638	3496	27872	14632	902	281186	2315792	46902
405	2016-11-22 17:35:45	0	0	0	0	0	0	12.14	0.49	0.78	717949	1	314309	471608	717949	403640	3496	27872	14632	902	281186	2315812	46902
406	2016-11-22 17:45:46	0	0	0	0	0	0	12.14	0.49	0.78	717989	1	314345	471608	717989	403644	3496	27872	14633	902	281186	2315830	46903
407	2016-11-22 17:56:18	0	0	0	0	0	0	12.14	0.49	0.78	718026	1	314378	472183	718026	403649	3496	27872	14633	902	281186	2315846	46903
408	2016-11-22 18:06:12	0	0	0	0	0	0	12.14	0.49	0.78	718060	1	314411	472183	718060	403649	3496	27872	14633	902	281186	2315857	46903
409	2016-11-22 18:26:17	0	0	0	0	0	0	12.14	0.49	0.78	718136	1	314479	472183	718136	403659	3497	27872	14633	902	281186	2315876	46904
410	2016-11-22 18:36:17	0	0	0	0	0	0	12.14	0.49	0.78	718168	1	314505	472183	718168	403667	3498	27872	14633	902	281186	2315888	46905
411	2016-11-22 18:46:11	0	0	0	0	0	0	12.14	0.49	0.78	718212	1	314541	472183	718212	403671	3498	27872	14633	902	281186	2315902	46905
412	2016-11-22 18:56:14	0	0	0	0	0	0	12.14	0.49	0.78	718273	1	314595	472183	718273	403678	3500	27872	14634	902	281186	2315911	46908
413	2016-11-22 19:16:17	0	0	0	0	0	0	12.14	0.49	0.78	718350	1	314670	472183	718350	403680	3500	27872	14634	902	281186	2315944	46908
414	2016-11-22 19:26:13	0	0	0	0	0	0	12.14	0.49	0.78	718388	1	314701	472183	718388	403687	3500	27872	14634	902	281186	2315952	46908
415	2016-11-22 19:36:14	0	0	0	0	0	0	12.14	0.49	0.78	718424	1	314734	472183	718424	403690	3500	27872	14634	902	281186	2315965	46908
416	2016-11-22 19:46:17	0	0	0	0	0	0	12.14	0.49	0.78	718457	1	314764	472183	718457	403693	3500	27872	14634	902	281186	2315977	46908
417	2016-11-22 19:56:18	0	0	0	0	0	0	12.14	0.49	0.78	718488	1	314787	472183	718488	403701	3500	27872	14634	902	281186	2315995	46908
418	2016-11-22 20:06:16	0	0	0	0	0	0	12.14	0.49	0.78	718517	1	314811	472183	718517	403706	3500	27872	14634	902	281186	2316009	46908
419	2016-11-22 20:16:17	0	0	0	0	0	0	12.14	0.49	0.78	718552	1	314841	472183	718552	403711	3500	27872	14634	902	281186	2316028	46908
420	2016-11-22 20:26:17	0	0	0	0	0	0	12.14	0.49	0.78	718583	1	314869	472183	718583	403714	3501	27872	14634	902	281186	2316042	46909
421	2016-11-22 20:36:18	0	0	0	0	0	0	12.14	0.49	0.78	718614	1	314895	472183	718614	403719	3501	27872	14634	902	281186	2316058	46909
422	2016-11-22 20:46:17	0	0	0	0	0	0	12.14	0.49	0.78	718655	1	314931	472183	718655	403724	3501	27872	14634	902	281186	2316078	46909
423	2016-11-22 20:56:17	0	0	0	0	0	0	12.14	0.49	0.78	718695	1	314966	472183	718695	403729	3501	27872	14634	902	281186	2316104	46909
424	2016-11-22 21:06:18	0	0	0	0	0	0	12.14	0.49	0.78	718723	1	314992	472183	718723	403731	3501	27872	14634	902	281186	2316121	46909
425	2016-11-22 21:16:20	0	0	0	0	0	0	12.14	0.49	0.78	718740	1	315007	472183	718740	403733	3501	27872	14634	902	281186	2316139	46909
426	2016-11-22 21:26:20	0	0	0	0	0	0	12.14	0.49	0.78	718773	1	315038	472183	718773	403735	3502	27872	14634	902	281186	2316154	46910
427	2016-11-22 21:36:23	0	0	0	0	0	0	12.14	0.49	0.78	718803	1	315062	472183	718803	403741	3502	27872	14634	902	281186	2316174	46910
428	2016-11-22 21:46:23	0	0	0	0	0	0	12.14	0.49	0.78	718838	1	315091	472183	718838	403747	3502	27872	14634	902	281186	2316192	46910
429	2016-11-22 21:56:21	0	0	0	0	0	0	12.14	0.49	0.78	718861	1	315109	472183	718861	403752	3502	27872	14634	902	281186	2316203	46910
