1	2017-02-24 12:18:36	0	0	0	0	0	0	2.58	3.37	0.02	91895	1	1542	66326	91895	90353	3100	64	183	38	68638	2665320	3385
2	2017-02-24 12:28:36	0	0	0	0	0	0	2.86	3.43	0.02	102072	1	1893	77929	102072	100179	3496	72	199	40	76202	2665339	3807
3	2017-02-24 12:38:35	0	0	0	0	0	0	3.08	3.44	0.02	110498	1	2205	84640	110498	108293	3799	76	216	40	82219	2665379	4131
4	2017-02-24 12:48:35	0	0	0	0	0	0	3.28	3.45	0.02	118686	1	2518	87135	118686	116168	4089	82	231	46	87415	2665414	4448
5	2017-02-24 12:58:39	0	0	0	0	0	0	3.48	3.36	0.02	126494	1	2852	95440	126494	123642	4245	90	247	46	92713	2665432	4628
6	2017-02-24 13:08:39	0	0	0	0	0	0	3.65	3.5	0.02	132404	1	3136	100300	132404	129268	4629	92	254	46	97201	2665450	5021
7	2017-02-24 13:18:39	0	0	0	0	0	0	3.77	3.52	0.03	137512	1	3386	104164	137512	134126	4837	96	265	46	100534	2665481	5244
8	2017-02-24 13:28:40	0	0	0	0	0	0	3.91	3.47	0.03	142276	1	3601	106279	142276	138675	4932	100	269	46	104185	2665515	5347
9	2017-02-24 13:38:40	0	0	0	0	0	0	4.05	3.55	0.03	146823	1	3823	112270	146823	143000	5209	106	279	47	107899	2665544	5641
10	2017-02-24 13:48:42	0	0	0	0	0	0	4.13	3.56	0.03	151461	1	4026	114467	151461	147435	5390	106	288	47	110021	2665581	5831
11	2017-02-24 13:58:41	0	0	0	0	0	0	4.25	3.56	0.03	156408	1	4238	117614	156408	152170	5564	108	289	47	113376	2665614	6008
12	2017-02-24 14:08:41	0	0	0	0	0	0	4.36	3.56	0.03	161455	1	4418	120564	161455	157037	5747	110	296	49	116202	2665638	6202
13	2017-02-24 14:18:41	0	0	0	0	0	0	4.47	3.57	0.03	166617	1	4625	121919	166617	161992	5946	114	301	49	119215	2665669	6410
14	2017-02-24 14:28:41	0	0	0	0	0	0	4.56	3.57	0.03	171629	1	4859	126458	171629	166770	6129	118	308	49	121624	2665707	6604
15	2017-02-24 14:38:41	0	0	0	0	0	0	4.67	3.57	0.03	176466	1	5056	129381	176466	171410	6303	118	316	50	124436	2665731	6787
16	2017-02-24 14:48:41	0	0	0	0	0	0	4.77	3.56	0.03	181161	1	5244	130589	181161	175917	6458	126	321	50	127209	2665755	6955
17	2017-02-24 14:58:43	0	0	0	0	0	0	4.88	3.59	0.03	185472	1	5434	133773	185472	180038	6653	130	327	51	130118	2665778	7161
18	2017-02-24 15:08:42	0	0	0	0	0	0	4.96	3.6	0.03	189044	1	5611	137207	189044	183433	6800	134	334	51	132181	2665805	7319
19	2017-02-24 15:18:42	0	0	0	0	0	0	5.05	3.6	0.03	192685	1	5796	139806	192685	186889	6942	140	340	51	134616	2665834	7473
20	2017-02-24 15:28:44	0	0	0	0	0	0	5.1	3.61	0.03	196294	1	5953	141296	196294	190341	7080	142	347	50	135996	2665872	7619
21	2017-02-24 15:38:44	0	0	0	0	0	0	5.21	3.62	0.03	199667	1	6130	144683	199667	193537	7221	146	353	50	138838	2665898	7770
22	2017-02-24 15:48:43	0	0	0	0	0	0	5.27	3.62	0.03	203249	1	6298	145208	203249	196951	7360	146	361	50	140510	2665924	7917
23	2017-02-24 15:58:46	0	0	0	0	0	0	5.35	3.63	0.03	206822	1	6447	147849	206822	200375	7500	146	368	51	142596	2665952	8065
24	2017-02-24 16:08:46	0	0	0	0	0	0	5.42	3.63	0.03	210553	1	6598	150649	210553	203955	7642	148	373	51	144451	2665984	8214
25	2017-02-24 16:18:46	0	0	0	0	0	0	5.53	3.63	0.03	214134	1	6734	151630	214134	207400	7774	150	377	51	147303	2666006	8352
26	2017-02-24 16:28:47	0	0	0	0	0	0	5.6	3.63	0.03	217891	1	6905	155000	217891	210986	7919	154	383	51	149342	2666043	8507
27	2017-02-24 16:38:46	0	0	0	0	0	0	5.69	3.64	0.03	221239	1	7020	156414	221239	214219	8046	154	385	51	151664	2666082	8636
28	2017-02-24 16:48:46	0	0	0	0	0	0	5.79	3.63	0.03	224703	1	7161	159385	224703	217542	8155	154	386	51	154490	2666140	8746
29	2017-02-24 16:58:48	0	0	0	0	0	0	5.84	3.62	0.03	228138	1	7281	161948	228138	220857	8263	154	391	52	155757	2666221	8860
30	2017-02-24 17:08:48	0	0	0	0	0	0	5.9	3.63	0.03	231636	1	7409	163750	231636	224227	8404	154	395	52	157408	2666290	9005
31	2017-02-24 17:18:47	0	0	0	0	0	0	5.98	3.63	0.03	235115	1	7571	165863	235115	227544	8534	156	397	54	159359	2666375	9141
32	2017-02-24 17:28:48	0	0	0	0	0	0	6.06	3.62	0.03	238810	1	7712	168269	238810	231098	8643	156	404	55	161646	2666467	9258
33	2017-02-24 17:38:51	0	0	0	0	0	0	6.18	3.62	0.03	242483	1	7853	171862	242483	234630	8788	158	410	56	164722	2666553	9412
34	2017-02-24 17:48:54	0	0	0	0	0	0	6.25	3.63	0.03	246029	1	8019	173053	246029	238010	8933	158	415	57	166650	2666645	9563
35	2017-02-24 17:58:54	0	0	0	0	0	0	6.36	3.63	0.03	249615	1	8153	176858	249615	241462	9051	160	422	58	169677	2666724	9691
36	2017-02-24 18:08:50	0	0	0	0	0	0	6.44	3.62	0.03	253366	1	8282	178907	253366	245084	9163	162	426	60	171619	2666796	9811
37	2017-02-24 18:19:06	0	0	0	0	0	0	6.53	3.61	0.03	257315	1	8429	181277	257315	248886	9297	168	431	61	174266	2666892	9957
38	2017-02-24 18:29:04	0	0	0	0	0	0	6.62	3.61	0.03	261441	1	8569	183803	261441	252872	9448	170	437	62	176438	2666982	10117
39	2017-02-24 18:39:07	0	0	0	0	0	0	6.7	3.6	0.03	265603	1	8748	186010	265603	256855	9562	172	443	62	178718	2667066	10239
40	2017-02-24 18:49:07	0	0	0	0	0	0	6.81	3.6	0.03	269586	1	8935	189019	269586	260651	9696	176	450	62	181670	2667159	10384
41	2017-02-24 18:59:07	0	0	0	0	0	0	6.92	3.6	0.03	273560	1	9113	192271	273560	264447	9836	176	459	62	184628	2667234	10533
42	2017-02-24 19:09:07	0	0	0	0	0	0	6.96	3.6	0.03	277238	1	9289	193328	277238	267949	9971	176	462	62	185602	2667298	10671
43	2017-02-24 19:19:09	0	0	0	0	0	0	7.02	3.59	0.03	280803	1	9444	195205	280803	271359	10086	180	467	62	187218	2667379	10795
44	2017-02-24 19:29:07	0	0	0	0	0	0	7.1	3.59	0.04	284542	1	9627	197425	284542	274915	10207	184	469	62	189444	2667483	10922
45	2017-02-24 19:39:07	0	0	0	0	0	0	7.16	3.59	0.04	288142	1	9806	199208	288142	278336	10332	186	472	62	191040	2667568	11052
46	2017-02-24 19:49:07	0	0	0	0	0	0	7.22	3.58	0.04	291809	1	9956	200958	291809	281853	10449	186	476	62	192649	2667656	11173
47	2017-02-24 19:59:11	0	0	0	0	0	0	7.3	3.58	0.04	295513	1	10148	203087	295513	285365	10567	186	483	62	194776	2667722	11298
48	2017-02-24 20:09:10	0	0	0	0	0	0	7.33	3.57	0.04	299153	1	10336	203774	299153	288817	10677	188	489	62	195562	2667800	11416
49	2017-02-24 20:19:09	0	0	0	0	0	0	7.37	3.56	0.04	302658	1	10502	204920	302658	292156	10788	188	494	62	196593	2667880	11532
50	2017-02-24 20:29:10	0	0	0	0	0	0	7.43	3.56	0.04	306395	1	10661	206729	306395	295734	10902	190	497	62	198156	2667952	11651
51	2017-02-24 20:39:12	0	0	0	0	0	0	7.47	3.55	0.04	310010	1	10816	208227	310010	299194	11013	190	498	62	199351	2668038	11763
52	2017-02-24 20:49:11	0	0	0	0	0	0	7.54	3.55	0.04	313619	1	10954	209928	313619	302665	11124	196	503	63	201066	2668116	11886
53	2017-02-24 20:59:12	0	0	0	0	0	0	7.66	3.55	0.04	317324	1	11119	212960	317324	306205	11251	198	508	63	204364	2668192	12020
54	2017-02-24 21:09:13	0	0	0	0	0	0	7.75	3.54	0.04	321013	1	11285	215528	321013	309728	11370	200	512	64	206783	2668269	12146
55	2017-02-24 21:19:11	0	0	0	0	0	0	7.84	3.54	0.04	324882	1	11465	218606	324882	313417	11496	200	515	64	209264	2668339	12275
56	2017-02-24 21:29:14	0	0	0	0	0	0	7.98	3.53	0.04	328875	1	11647	222611	328875	317228	11620	204	523	65	213019	2668425	12412
57	2017-02-24 21:39:13	0	0	0	0	0	0	8.03	3.53	0.04	332942	1	11830	224439	332942	321112	11752	206	531	66	214410	2668489	12555
58	2017-02-24 21:49:23	0	0	0	0	0	0	8.13	3.52	0.04	337558	1	12060	227012	337558	325498	11877	206	534	67	216848	2668568	12684
59	2017-02-24 21:59:17	0	0	0	0	0	0	8.24	3.52	0.04	341931	1	12286	230630	341931	329645	12021	210	535	67	220022	2668652	12833
60	2017-02-24 22:09:13	0	0	0	0	0	0	8.34	3.51	0.04	345848	1	12512	233899	345848	333336	12124	214	540	68	222676	2668730	12946
61	2017-02-24 22:19:15	0	0	0	0	0	0	8.45	3.51	0.04	349569	1	12735	237039	349569	336834	12266	214	545	69	225586	2668829	13094
62	2017-02-24 22:29:17	0	0	0	0	0	0	8.54	3.5	0.04	353279	1	12952	239810	353279	340327	12366	214	546	73	227960	2668931	13199
63	2017-02-24 22:39:15	0	0	0	0	0	0	8.62	3.5	0.04	356837	1	13173	241909	356837	343664	12484	216	554	73	230197	2669008	13327
64	2017-02-24 22:49:19	0	0	0	0	0	0	8.7	3.5	0.04	360357	1	13374	243900	360357	346983	12599	216	560	73	232139	2669090	13448
65	2017-02-24 22:59:14	0	0	0	0	0	0	8.76	3.49	0.04	364046	1	13606	246007	364046	350440	12709	216	568	74	233906	2669158	13567
66	2017-02-24 23:09:16	0	0	0	0	0	0	8.86	3.49	0.04	367906	1	13800	248395	367906	354106	12827	222	571	75	236424	2669232	13695
67	2017-02-24 23:19:16	0	0	0	0	0	0	8.92	3.49	0.04	371906	1	13998	250333	371906	357908	12964	222	579	76	238106	2669302	13841
68	2017-02-24 23:29:16	0	0	0	0	0	0	8.94	3.48	0.04	375962	1	14213	251184	375962	361749	13085	228	586	76	238727	2669379	13975
69	2017-02-24 23:39:13	0	0	0	0	0	0	9.04	3.48	0.04	379780	1	14389	253835	379780	365391	13212	232	589	76	241403	2669457	14109
70	2017-02-24 23:49:23	0	0	0	0	0	0	9.1	3.47	0.04	383620	1	14590	255489	383620	369030	13325	236	593	76	242937	2669522	14230
71	2017-02-24 23:59:15	0	0	0	0	0	0	9.15	3.47	0.04	387359	1	14822	256748	387359	372537	13448	240	599	76	244229	2669607	14363
72	2017-02-25 00:46:34	0	0	0	0	0	0	9.44	3.47	0.04	400196	1	15517	265259	400196	384679	13872	248	619	77	252164	2669825	14816
73	2017-02-25 01:46:33	0	0	0	0	0	0	9.74	3.46	0.04	411735	1	16090	273344	411735	395645	14238	254	626	79	260113	2669995	15197
74	2017-02-25 02:46:35	0	0	0	0	0	0	9.88	3.44	0.04	418917	1	16350	277477	418917	402567	14417	256	633	79	263320	2666461	15385
75	2017-02-25 03:46:38	0	0	0	0	0	0	9.99	3.43	0.04	423076	1	16520	280950	423076	406556	14529	256	638	80	266446	2666500	15503
76	2017-02-25 04:46:37	0	0	0	0	0	0	10.06	3.43	0.04	425864	1	16638	282966	425864	409226	14605	258	639	80	268351	2666534	15582
77	2017-02-25 05:46:42	0	0	0	0	0	0	10.1	3.43	0.04	428074	1	16752	283691	428074	411322	14684	262	641	80	269378	2666582	15667
78	2017-02-25 06:46:43	0	0	0	0	0	0	10.15	3.42	0.04	432186	1	16983	284807	432186	415203	14789	266	644	80	270573	2666660	15779
79	2017-02-25 07:09:13	0	0	0	0	0	0	10.21	3.42	0.04	434190	1	17118	286001	434190	417072	14867	266	646	80	272223	2666702	15859
80	2017-02-25 07:19:13	0	0	0	0	0	0	10.22	3.42	0.04	435337	1	17222	286729	435337	418115	14901	266	646	80	272594	2666737	15893
81	2017-02-25 07:29:11	0	0	0	0	0	0	10.23	3.42	0.04	436538	1	17314	287035	436538	419224	14933	266	647	80	272919	2666774	15926
82	2017-02-25 07:39:10	0	0	0	0	0	0	10.27	3.42	0.04	437801	1	17397	288586	437801	420404	14955	266	649	80	273860	2666812	15950
83	2017-02-25 07:49:17	0	0	0	0	0	0	10.3	3.42	0.04	440006	1	17552	289423	440006	422454	15045	270	650	80	274613	2666842	16045
84	2017-02-25 07:59:12	0	0	0	0	0	0	10.3	3.42	0.04	440845	1	17612	289423	440845	423233	15069	272	651	80	274613	2666896	16072
85	2017-02-25 08:09:13	0	0	0	0	0	0	10.32	3.42	0.04	442654	1	17748	289978	442654	424906	15158	274	653	81	275113	2666937	16166
86	2017-02-25 08:19:13	0	0	0	0	0	0	10.38	3.43	0.04	444522	1	17908	291644	444522	426614	15226	278	653	82	276810	2666992	16239
87	2017-02-25 08:29:12	0	0	0	0	0	0	10.46	3.42	0.04	446556	1	18067	293650	446556	428489	15259	278	654	83	279018	2667038	16274
88	2017-02-25 08:39:12	0	0	0	0	0	0	10.49	3.42	0.04	448560	1	18240	294908	448560	430320	15344	278	655	84	279863	2667089	16361
89	2017-02-25 08:49:14	0	0	0	0	0	0	10.56	3.43	0.04	450396	1	18404	296760	450396	431992	15429	278	658	84	281530	2667138	16449
90	2017-02-25 08:59:27	0	0	0	0	0	0	10.63	3.42	0.04	453267	1	18609	298966	453267	434658	15519	282	659	85	283515	2667197	16545
91	2017-02-25 09:09:18	0	0	0	0	0	0	10.65	3.43	0.04	454167	1	18682	299501	454167	435485	15561	286	663	85	283996	2667259	16595
92	2017-02-25 09:19:17	0	0	0	0	0	0	10.67	3.43	0.04	456057	1	18842	299947	456057	437215	15662	288	667	86	284472	2667332	16703
93	2017-02-25 09:29:30	0	0	0	0	0	0	10.71	3.43	0.04	458969	1	19067	300704	458969	439902	15734	290	671	86	285785	2667385	16781
94	2017-02-25 09:39:28	0	0	0	0	0	0	10.73	3.43	0.04	459942	1	19210	301055	459942	441687	15779	290	673	86	286101	2667445	16828
95	2017-02-25 09:49:18	0	0	0	0	0	0	10.77	3.42	0.04	461873	1	19285	301991	461873	442588	15810	292	675	88	287366	2667509	16865
96	2017-02-25 09:59:29	0	0	0	0	0	0	10.86	3.43	0.04	463743	1	19504	303944	463743	444316	15913	292	676	88	289675	2667579	16969
97	2017-02-25 10:09:22	0	0	0	0	0	0	10.88	3.42	0.04	465492	1	19595	305262	465492	445897	15942	294	677	88	290327	2667651	17001
98	2017-02-25 10:19:16	0	0	0	0	0	0	10.9	3.42	0.04	467177	1	19756	306289	467177	447421	15991	294	679	89	290872	2667697	17053
99	2017-02-25 10:29:17	0	0	0	0	0	0	10.92	3.42	0.04	468847	1	19923	306714	468847	448924	16040	294	681	89	291255	2667764	17104
100	2017-02-25 10:39:27	0	0	0	0	0	0	10.95	3.43	0.04	470340	1	20051	307376	470340	450289	16134	294	682	89	292017	2667817	17199
101	2017-02-25 10:49:31	0	0	0	0	0	0	10.96	3.43	0.04	471784	1	20270	307559	471784	452181	16183	298	684	89	292514	2667892	17254
102	2017-02-25 10:59:24	0	0	0	0	0	0	11.01	3.43	0.04	473106	1	20327	308969	473106	452779	16236	300	687	89	293677	2667956	17312
103	2017-02-25 11:09:25	0	0	0	0	0	0	11.03	3.43	0.05	474488	1	20470	309498	474488	454018	16268	302	688	89	294155	2668013	17347
104	2017-02-25 11:19:24	0	0	0	0	0	0	11.03	3.43	0.05	476352	1	20624	309866	476352	455728	16328	304	693	89	294264	2668069	17414
105	2017-02-25 11:30:24	0	0	0	0	0	0	11.11	3.42	0.05	479406	1	20852	310145	479406	458554	16403	304	696	89	296490	2668155	17492
106	2017-02-25 11:39:48	0	0	0	0	0	0	11.14	3.42	0.05	481212	1	21011	312808	481212	460201	16446	306	699	89	297201	2668229	17540
107	2017-02-25 11:49:52	0	0	0	0	0	0	11.16	3.42	0.05	482952	1	21143	313156	482952	461809	16504	306	701	89	297687	2668295	17600
108	2017-02-25 12:00:07	0	0	0	0	0	0	11.16	3.42	0.05	484672	1	21267	313283	484672	463405	16553	306	702	89	297859	2668349	17650
109	2017-02-25 12:10:02	0	0	0	0	0	0	11.22	3.42	0.05	486197	1	21399	314844	486197	464798	16611	308	703	89	299269	2668405	17711
110	2017-02-25 12:20:05	0	0	0	0	0	0	11.23	3.41	0.05	487738	1	21521	315486	487738	466217	16655	308	705	89	299791	2668465	17757
111	2017-02-25 12:33:09	0	0	0	0	0	0	11.27	3.41	0.05	489148	1	21651	316550	489148	467497	16694	312	709	89	300752	2668531	17804
112	2017-02-25 12:42:31	0	0	0	0	0	0	11.28	3.41	0.05	490416	1	21774	316809	490416	468642	16736	314	709	89	301103	2668579	17848
113	2017-02-25 12:53:05	0	0	0	0	0	0	11.29	3.41	0.05	491607	1	21886	317052	491607	469721	16773	314	709	89	301322	2668631	17885
114	2017-02-25 13:03:07	0	0	0	0	0	0	11.33	3.41	0.05	492801	1	21988	317052	492801	470813	16801	314	711	90	302315	2668685	17916
115	2017-02-25 13:13:16	0	0	0	0	0	0	11.34	3.41	0.05	493859	1	22084	319131	493859	471775	16843	314	711	90	302729	2668751	17958
116	2017-02-25 13:23:09	0	0	0	0	0	0	11.37	3.41	0.05	494905	1	22159	319296	494905	472746	16869	316	711	90	303322	2668803	17986
117	2017-02-25 13:33:21	0	0	0	0	0	0	11.37	3.41	0.05	495928	1	22250	319428	495928	473678	16905	318	714	90	303441	2668855	18027
118	2017-02-25 13:44:13	0	0	0	0	0	0	11.37	3.41	0.05	496896	1	22342	319494	496896	474554	16929	318	714	90	303501	2668901	18051
119	2017-02-25 13:56:58	0	0	0	0	0	0	11.38	3.4	0.05	498262	1	22473	319551	498262	475789	16965	318	718	90	303791	2668961	18091
120	2017-02-25 14:07:49	0	0	0	0	0	0	11.39	3.41	0.05	499180	1	22544	319815	499180	476636	17003	320	718	90	303910	2669018	18131
121	2017-02-25 14:18:18	0	0	0	0	0	0	11.39	3.41	0.05	500029	1	22616	319873	500029	477413	17028	320	719	90	304067	2669061	18157
122	2017-02-25 14:30:13	0	0	0	0	0	0	11.44	3.4	0.05	501320	1	22737	320851	501320	478583	17062	322	720	90	305447	2669119	18194
123	2017-02-25 14:41:16	0	0	0	0	0	0	11.45	3.4	0.05	502222	1	22822	322539	502222	479400	17087	324	720	91	305643	2669179	18222
124	2017-02-25 14:53:06	0	0	0	0	0	0	11.45	3.4	0.05	503149	1	22896	322539	503149	480253	17106	324	720	91	305643	2669240	18241
125	2017-02-25 15:11:27	0	0	0	0	0	0	11.47	3.4	0.05	504802	1	23049	322993	504802	481753	17143	324	722	91	306111	2669314	18280
126	2017-02-25 15:21:44	0	0	0	0	0	0	11.47	3.4	0.05	505619	1	23103	323092	505619	482516	17170	326	722	91	306140	2669361	18309
127	2017-02-25 15:32:46	0	0	0	0	0	0	11.49	3.4	0.05	506403	1	23174	323219	506403	483229	17195	326	722	91	306617	2669393	18334
128	2017-02-25 15:42:06	0	0	0	0	0	0	11.51	3.39	0.05	507170	1	23228	323963	507170	483942	17215	326	722	91	307286	2669419	18354
129	2017-02-25 15:53:00	0	0	0	0	0	0	11.56	3.39	0.05	507918	1	23289	324906	507918	484629	17236	326	723	91	308503	2669468	18376
130	2017-02-25 16:03:11	0	0	0	0	0	0	11.56	3.39	0.05	508580	1	23344	324906	508580	485236	17253	326	723	91	308503	2669504	18393
131	2017-02-25 16:13:36	0	0	0	0	0	0	11.56	3.39	0.05	509213	1	23385	325034	509213	485828	17265	326	723	91	308619	2669548	18405
132	2017-02-25 16:22:52	0	0	0	0	0	0	11.56	3.39	0.05	509803	1	23431	325034	509803	486372	17283	326	724	92	308619	2669583	18425
133	2017-02-25 16:33:28	0	0	0	0	0	0	11.58	3.39	0.05	510456	1	23485	325581	510456	486971	17308	326	724	92	309112	2669627	18450
134	2017-02-25 16:44:13	0	0	0	0	0	0	11.59	3.39	0.05	511087	1	23552	325786	511087	487535	17328	328	724	92	309297	2669659	18472
135	2017-02-25 16:53:41	0	0	0	0	0	0	11.59	3.39	0.05	511722	1	23597	326044	511722	488125	17350	328	724	92	309529	2669688	18494
136	2017-02-25 17:05:46	0	0	0	0	0	0	11.63	3.39	0.05	512684	1	23685	327215	512684	488999	17375	328	724	92	310522	2669734	18519
137	2017-02-25 17:18:09	0	0	0	0	0	0	11.64	3.39	0.05	513315	1	23740	327353	513315	489575	17390	328	724	92	310896	2669784	18534
138	2017-02-25 17:30:14	0	0	0	0	0	0	11.68	3.39	0.05	514183	1	23811	328325	514183	490372	17417	328	724	92	311773	2669838	18561
139	2017-02-25 17:45:21	0	0	0	0	0	0	11.7	3.39	0.05	515114	1	23889	328325	515114	491225	17452	330	724	93	312384	2669884	18599
140	2017-02-25 17:56:09	0	0	0	0	0	0	11.7	3.39	0.05	515733	1	23943	329073	515733	491790	17465	330	724	93	312447	2669902	18612
141	2017-02-25 18:08:01	0	0	0	0	0	0	11.72	3.39	0.05	516292	1	23983	329695	516292	492309	17483	330	724	93	313008	2669949	18630
142	2017-02-25 18:18:56	0	0	0	0	0	0	11.73	3.39	0.05	516824	1	24031	329836	516824	492793	17495	330	726	93	313135	2669991	18644
143	2017-02-25 18:36:51	0	0	0	0	0	0	11.74	3.38	0.05	517894	1	24132	330311	517894	493762	17521	330	727	93	313547	2670044	18671
144	2017-02-25 18:50:03	0	0	0	0	0	0	11.74	3.38	0.05	518394	1	24201	330805	518394	494448	17541	330	727	93	313547	2670093	18691
145	2017-02-25 19:01:02	0	0	0	0	0	0	11.78	3.38	0.05	519156	1	24238	331975	519156	494918	17552	330	728	93	314598	2670141	18703
146	2017-02-25 19:15:28	0	0	0	0	0	0	11.8	3.38	0.05	519918	1	24293	332546	519918	495625	17575	330	728	93	315110	2670187	18726
147	2017-02-25 19:25:55	0	0	0	0	0	0	11.83	3.38	0.05	520437	1	24328	333549	520437	496109	17594	330	729	93	316011	2670217	18746
148	2017-02-25 19:39:29	0	0	0	0	0	0	11.86	3.38	0.05	520925	1	24371	334125	520925	496554	17607	330	729	93	316657	2670269	18759
149	2017-02-25 19:50:32	0	0	0	0	0	0	11.86	3.38	0.05	521704	1	24438	334188	521704	497266	17617	332	729	93	316714	2670300	18771
150	2017-02-25 20:04:15	0	0	0	0	0	0	11.87	3.38	0.05	522286	1	24504	334332	522286	497782	17632	338	731	93	316844	2670345	18794
151	2017-02-25 20:14:24	0	0	0	0	0	0	11.87	3.37	0.05	522853	1	24563	334332	522853	498290	17642	338	731	93	317103	2670384	18804
152	2017-02-25 20:29:51	0	0	0	0	0	0	11.89	3.37	0.05	523570	1	24646	334694	523570	498924	17659	340	734	93	317428	2670425	18826
153	2017-02-25 20:44:12	0	0	0	0	0	0	11.89	3.37	0.05	524339	1	24737	334911	524339	499602	17680	344	734	93	317624	2670476	18851
154	2017-02-25 20:54:54	0	0	0	0	0	0	11.89	3.37	0.05	524901	1	24815	334911	524901	500086	17699	344	734	93	317624	2670515	18870
155	2017-02-25 21:12:18	0	0	0	0	0	0	11.9	3.37	0.05	526088	1	24948	335051	526088	501140	17728	344	734	93	317750	2670583	18899
156	2017-02-25 21:22:29	0	0	0	0	0	0	11.9	3.37	0.05	526663	1	25030	335196	526663	501633	17742	346	734	93	317880	2670628	18915
157	2017-02-25 21:33:05	0	0	0	0	0	0	11.9	3.37	0.05	527229	1	25115	335632	527229	502114	17754	348	734	93	317880	2670661	18929
158	2017-02-25 21:47:40	0	0	0	0	0	0	11.92	3.37	0.05	527992	1	25225	335842	527992	502767	17775	348	735	93	318330	2670717	18951
159	2017-02-25 22:16:03	0	0	0	0	0	0	11.93	3.37	0.05	528893	1	25458	336316	528893	503435	17806	348	736	93	318756	2670830	18983
160	2017-02-25 22:27:24	0	0	0	0	0	0	11.93	3.37	0.05	529126	1	25526	336316	529126	503600	17817	348	738	93	318756	2670871	18996
161	2017-02-25 22:40:26	0	0	0	0	0	0	11.94	3.37	0.05	529491	1	25629	336471	529491	503862	17826	348	738	93	318895	2670913	19005
162	2017-02-25 22:51:21	0	0	0	0	0	0	11.94	3.37	0.05	529733	1	25689	336471	529733	504044	17836	350	738	93	318895	2670951	19017
163	2017-02-25 23:03:56	0	0	0	0	0	0	11.94	3.37	0.05	529947	1	25735	336471	529947	504212	17842	350	739	93	318895	2671002	19024
164	2017-02-25 23:14:41	0	0	0	0	0	0	11.94	3.37	0.05	530176	1	25781	336508	530176	504395	17848	350	739	93	318994	2671042	19030
165	2017-02-25 23:30:46	0	0	0	0	0	0	11.94	3.37	0.05	530540	1	25887	336508	530540	504653	17858	350	739	93	318994	2671130	19040
166	2017-02-25 23:42:44	0	0	0	0	0	0	11.94	3.37	0.05	530703	1	25935	336508	530703	504768	17862	350	741	93	318994	2671174	19046
167	2017-02-25 23:53:50	0	0	0	0	0	0	11.94	3.37	0.05	530883	1	25981	336525	530883	504902	17869	350	741	93	319009	2671215	19053
168	2017-02-26 00:17:12	0	0	0	0	0	0	11.94	3.37	0.05	531244	1	26079	336708	531244	505165	17886	350	741	93	319042	2671298	19070
169	2017-02-26 01:20:53	0	0	0	0	0	0	11.95	3.36	0.05	531913	1	26244	337994	531913	505669	17898	350	742	93	319174	2671442	19083
170	2017-02-26 02:24:26	0	0	0	0	0	0	11.96	3.36	0.05	532247	1	26327	337994	532247	505920	17904	350	742	93	319174	2668351	19089
171	2017-02-26 03:21:23	0	0	0	0	0	0	11.96	3.36	0.05	532429	1	26354	337994	532429	506075	17909	350	742	93	319174	2668381	19094
172	2017-02-26 04:25:53	0	0	0	0	0	0	11.96	3.36	0.05	532575	1	26388	337994	532575	506193	17913	350	742	93	319174	2668419	19098
173	2017-02-26 05:31:05	0	0	0	0	0	0	11.96	3.36	0.05	532691	1	26412	338013	532691	506279	17920	350	742	93	319190	2668444	19105
174	2017-02-26 06:30:19	0	0	0	0	0	0	11.96	3.36	0.05	532773	1	26433	338013	532773	506340	17922	350	742	93	319190	2668475	19107
175	2017-02-26 07:15:51	0	0	0	0	0	0	11.97	3.36	0.05	532909	1	26461	338271	532909	506448	17926	350	742	93	319421	2668518	19111
176	2017-02-26 07:29:36	0	0	0	0	0	0	11.97	3.36	0.05	532978	1	26475	338419	532978	506503	17929	350	742	93	319552	2668537	19114
177	2017-02-26 07:51:28	0	0	0	0	0	0	11.98	3.36	0.05	533126	1	26507	338493	533126	506592	17934	350	742	93	319618	2668570	19119
178	2017-02-26 08:01:59	0	0	0	0	0	0	11.98	3.36	0.05	533183	1	26518	338493	533183	506665	17935	350	742	93	319618	2668592	19120
179	2017-02-26 08:13:06	0	0	0	0	0	0	11.98	3.36	0.05	533260	1	26535	338493	533260	506725	17943	350	742	93	319618	2668618	19128
180	2017-02-26 08:23:31	0	0	0	0	0	0	11.98	3.36	0.05	533339	1	26562	338641	533339	506777	17946	350	742	93	319618	2668645	19131
181	2017-02-26 08:46:35	0	0	0	0	0	0	11.99	3.37	0.05	533539	1	26602	339086	533539	506937	17959	350	742	93	320015	2668710	19144
182	2017-02-26 08:57:26	0	0	0	0	0	0	12	3.37	0.05	533628	1	26620	339086	533628	507008	17963	350	743	93	320147	2668746	19149
183	2017-02-26 09:16:08	0	0	0	0	0	0	12	3.37	0.05	533737	1	26642	339309	533737	507095	17970	350	743	93	320213	2668816	19156
184	2017-02-26 09:28:24	0	0	0	0	0	0	12	3.37	0.05	533884	1	26665	339309	533884	507219	17976	350	743	93	320213	2668854	19162
185	2017-02-26 09:48:29	0	0	0	0	0	0	12.02	3.37	0.05	534069	1	26699	339942	534069	507370	17984	350	743	93	320777	2668916	19170
186	2017-02-26 09:59:29	0	0	0	0	0	0	12.02	3.37	0.05	534151	1	26717	339942	534151	507434	17989	350	743	93	320777	2668952	19175
187	2017-02-26 10:11:50	0	0	0	0	0	0	12.02	3.37	0.05	534300	1	26743	339942	534300	507557	17994	350	743	93	320777	2668983	19180
188	2017-02-26 10:26:24	0	0	0	0	0	0	12.02	3.37	0.05	534392	1	26759	339942	534392	507633	17999	350	743	93	320777	2669034	19185
189	2017-02-26 10:45:29	0	0	0	0	0	0	12.02	3.37	0.05	534569	1	26794	340204	534569	507775	18005	350	743	93	320777	2669289	19191
190	2017-02-26 10:56:19	0	0	0	0	0	0	12.05	3.37	0.05	534653	1	26802	341207	534653	507851	18013	350	743	93	321669	2669507	19199
191	2017-02-26 11:17:35	0	0	0	0	0	0	12.05	3.37	0.05	534840	1	26831	341207	534840	508009	18019	350	743	93	321669	2669863	19205
192	2017-02-26 11:35:30	0	0	0	0	0	0	12.06	3.37	0.05	534953	1	26850	341357	534953	508103	18023	350	744	93	321936	2670160	19210
193	2017-02-26 11:57:35	0	0	0	0	0	0	12.06	3.37	0.05	535136	1	26882	341357	535136	508254	18029	350	744	93	321936	2670464	19216
194	2017-02-26 12:24:37	0	0	0	0	0	0	12.05	3.37	0.05	535283	1	26914	341357	535283	508369	18034	350	744	93	321936	2670759	19221
195	2017-02-26 12:36:07	0	0	0	0	0	0	12.05	3.37	0.05	535347	1	26929	341357	535347	508418	18038	350	744	93	321936	2670904	19225
196	2017-02-26 13:04:54	0	0	0	0	0	0	12.05	3.37	0.05	535494	1	26951	341357	535494	508543	18043	350	744	93	321936	2671264	19230
197	2017-02-26 14:06:17	0	0	0	0	0	0	0	0	0	0	0	0	0	0	0	0	350	0	0	0	0	0
198	2017-02-26 14:38:52	0	0	0	0	0	0	12.1	3.37	0.05	535977	1	27023	342642	535977	508954	18054	350	744	93	323348	2672324	19241
199	2017-02-26 14:50:56	0	0	0	0	0	0	12.1	3.37	0.05	536021	1	27030	342642	536021	508991	18055	350	744	93	323348	2672427	19242
200	2017-02-26 15:02:36	0	0	0	0	0	0	12.1	3.37	0.05	536104	1	27047	342642	536104	509057	18059	350	744	94	323348	2672538	19247
201	2017-02-26 15:12:45	0	0	0	0	0	0	12.1	3.37	0.05	536156	1	27063	342642	536156	509093	18060	350	744	94	323348	2672622	19248
202	2017-02-26 15:30:44	0	0	0	0	0	0	12.1	3.37	0.05	536231	1	27081	342642	536231	509150	18063	350	744	94	323348	2672773	19251
203	2017-02-26 15:43:55	0	0	0	0	0	0	12.1	3.37	0.05	536303	1	27094	342642	536303	509209	18063	350	744	94	323348	2672878	19251
204	2017-02-26 16:36:28	0	0	0	0	0	0	12.1	3.37	0.05	536501	1	27122	342642	536501	509379	18066	350	744	94	323348	2673256	19254
205	2017-02-26 17:00:26	0	0	0	0	0	0	0	0	0	0	0	0	0	0	0	0	350	0	0	0	0	0
206	2017-02-26 17:10:44	0	0	0	0	0	0	12.09	3.37	0.05	536734	1	27165	342642	536734	509569	18074	350	744	94	323348	2673524	19262
207	2017-02-26 17:32:08	0	0	0	0	0	0	12.09	3.37	0.05	536860	1	27185	342642	536860	509675	18078	350	744	94	323348	2673688	19266
208	2017-02-26 17:50:57	0	0	0	0	0	0	12.1	3.37	0.05	536925	1	27195	342642	536925	509730	18080	350	744	94	323483	2673820	19268
209	2017-02-26 18:01:15	0	0	0	0	0	0	12.1	3.37	0.05	536967	1	27202	342793	536967	509765	18081	350	744	94	323483	2673898	19269
210	2017-02-26 18:13:04	0	0	0	0	0	0	12.1	3.37	0.05	537031	1	27213	342793	537031	509818	18082	350	744	94	323483	2673977	19270
211	2017-02-26 18:23:04	0	0	0	0	0	0	12.1	3.37	0.05	537058	1	27219	342793	537058	509839	18083	350	744	94	323483	2674049	19271
212	2017-02-26 18:34:09	0	0	0	0	0	0	12.1	3.37	0.05	537104	1	27225	342793	537104	509879	18084	350	744	94	323483	2674129	19272
213	2017-02-26 18:44:11	0	0	0	0	0	0	12.1	3.37	0.05	537140	1	27231	342793	537140	509909	18087	350	744	94	323483	2674208	19275
214	2017-02-26 18:59:05	0	0	0	0	0	0	12.1	3.37	0.05	537197	1	27239	342869	537197	509958	18093	350	744	94	323551	2674307	19281
215	2017-02-26 19:09:12	0	0	0	0	0	0	12.1	3.37	0.05	537244	1	27248	342869	537244	509996	18094	350	744	94	323551	2674395	19282
216	2017-02-26 19:20:11	0	0	0	0	0	0	12.1	3.37	0.05	537297	1	27257	342869	537297	510040	18097	350	745	94	323551	2674470	19286
217	2017-02-26 19:36:27	0	0	0	0	0	0	12.1	3.37	0.05	537373	1	27270	342869	537373	510103	18099	350	745	94	323551	2674594	19288
218	2017-02-26 20:04:05	0	0	0	0	0	0	12.1	3.37	0.05	537531	1	27300	342869	537531	510231	18102	350	745	94	323551	2674808	19291
219	2017-02-26 20:31:31	0	0	0	0	0	0	12.1	3.37	0.05	537647	1	27325	342869	537647	510322	18108	350	745	94	323551	2675037	19297
220	2017-02-26 20:41:49	0	0	0	0	0	0	12.09	3.37	0.05	537696	1	27329	342869	537696	510367	18109	350	745	94	323551	2675137	19298
221	2017-02-26 20:53:18	0	0	0	0	0	0	12.09	3.37	0.05	537773	1	27339	342869	537773	510434	18111	350	745	94	323551	2675248	19300
222	2017-02-26 21:07:39	0	0	0	0	0	0	12.09	3.37	0.05	537838	1	27351	342869	537838	510487	18114	350	745	94	323551	2675391	19303
223	2017-02-26 21:38:04	0	0	0	0	0	0	12.09	3.37	0.05	537947	1	27364	342869	537947	510583	18120	350	745	94	323551	2675688	19309
224	2017-02-26 21:52:31	0	0	0	0	0	0	12.09	3.37	0.05	538012	1	27372	342869	538012	510640	18121	350	745	94	323551	2675793	19310
225	2017-02-26 22:03:10	0	0	0	0	0	0	12.09	3.37	0.05	538061	1	27380	342869	538061	510681	18122	350	745	94	323551	2675876	19311
226	2017-02-26 22:21:02	0	0	0	0	0	0	12.09	3.37	0.05	538114	1	27388	342869	538114	510726	18129	350	745	94	323551	2676019	19318
227	2017-02-26 22:34:06	0	0	0	0	0	0	12.09	3.37	0.05	538194	1	27397	342869	538194	510797	18129	350	745	94	323551	2676130	19318
228	2017-02-26 22:56:47	0	0	0	0	0	0	12.09	3.37	0.05	538275	1	27406	342869	538275	510869	18131	350	745	94	323551	2676323	19320
229	2017-02-26 23:23:48	0	0	0	0	0	0	12.1	3.37	0.05	538396	1	27420	342936	538396	510976	18134	350	745	94	323813	2676549	19323
230	2017-02-26 23:46:48	0	0	0	0	0	0	12.1	3.37	0.05	538459	1	27428	343069	538459	511031	18134	350	745	94	323932	2676703	19323
231	2017-02-27 00:45:00	0	0	0	0	0	0	12.1	3.37	0.05	538622	1	27450	343069	538622	511172	18145	350	745	94	323932	2677043	19334
232	2017-02-27 01:45:55	0	0	0	0	0	0	12.1	3.37	0.05	538675	1	27452	343069	538675	511223	18147	350	746	94	323932	2677240	19337
233	2017-02-27 03:21:22	0	0	0	0	0	0	12.12	3.37	0.05	538719	1	27459	343069	538719	511260	18148	350	746	94	323932	2672111	19338
234	2017-02-27 04:28:00	0	0	0	0	0	0	12.12	3.37	0.05	538737	1	27463	343069	538737	511276	18149	350	746	94	323932	2672166	19339
235	2017-02-27 05:37:19	0	0	0	0	0	0	12.13	3.37	0.05	538754	1	27463	343297	538754	511291	18150	350	746	94	324135	2672206	19340
236	2017-02-27 06:35:15	0	0	0	0	0	0	12.13	3.37	0.05	538811	1	27467	343297	538811	511344	18150	350	746	94	324135	2672306	19340
237	2017-02-27 07:23:55	0	0	0	0	0	0	12.13	3.37	0.05	538872	1	27472	343297	538872	511400	18152	350	746	94	324135	2672498	19342
238	2017-02-27 07:37:17	0	0	0	0	0	0	12.13	3.37	0.05	538886	1	27474	343297	538886	511412	18152	350	746	94	324135	2672576	19342
239	2017-02-27 08:32:28	0	0	0	0	0	0	12.13	3.37	0.05	538974	1	27480	343297	538974	511494	18155	350	746	94	324135	2672966	19345
240	2017-02-27 08:48:20	0	0	0	0	0	0	12.13	3.37	0.05	539005	1	27482	343297	539005	511523	18159	350	746	94	324135	2673100	19349
241	2017-02-27 09:03:26	0	0	0	0	0	0	12.13	3.37	0.05	539047	1	27483	343297	539047	511564	18160	350	746	94	324135	2673214	19350
242	2017-02-27 09:20:38	0	0	0	0	0	0	12.12	3.37	0.05	539078	1	27486	343297	539078	511592	18161	350	746	94	324135	2673324	19351
243	2017-02-27 09:55:08	0	0	0	0	0	0	12.13	3.37	0.05	539173	1	27497	343525	539173	511676	18164	350	746	94	324339	2673579	19354
244	2017-02-27 10:05:25	0	0	0	0	0	0	12.13	3.37	0.05	539204	1	27502	343525	539204	511702	18166	350	746	94	324339	2673657	19356
245	2017-02-27 10:25:33	0	0	0	0	0	0	12.13	3.37	0.05	539267	1	27507	343525	539267	511760	18167	350	746	94	324339	2673800	19357
246	2017-02-27 10:55:50	0	0	0	0	0	0	12.13	3.37	0.05	539342	1	27513	343525	539342	511829	18172	350	746	94	324339	2674017	19362
247	2017-02-27 11:05:52	0	0	0	0	0	0	12.13	3.37	0.05	539359	1	27514	343525	539359	511845	18174	350	746	94	324339	2674099	19364
248	2017-02-27 11:15:56	0	0	0	0	0	0	12.13	3.37	0.05	539376	1	27515	343525	539376	511861	18175	350	746	94	324339	2674146	19365
