1	2017-08-04 13:31:40		0	0	0	0	0	0	0.25	0.22	0	9196	0	16	8319	9196	9180	20	12	27	1	8241	3294065	60
2	2017-08-04 13:41:40		0	0	0	0	0	0	0.41	0.38	0.01	16446	0	103	13714	16446	16343	63	16	51	4	13465	3294135	134
3	2017-08-04 13:51:39		0	0	0	0	0	0	0.5	0.47	0.01	20834	0	182	16839	20834	20652	97	20	66	4	16506	3294243	187
4	2017-08-04 14:01:39		0	0	0	0	0	0	0.57	0.54	0.01	23906	0	246	19271	23906	23660	129	26	73	5	18771	3294338	233
5	2017-08-04 14:09:34		0	0	0	0	0	0	0.61	0.57	0.01	26319	0	294	20767	26319	26025	149	26	77	5	20204	3294395	257
6	2017-08-04 14:20:33		0	0	0	0	0	0	0.67	0.59	0.01	28550	0	350	22822	28550	28200	169	26	86	5	22147	3294511	286
7	2017-08-04 14:31:33		0	0	0	0	0	0	0.71	0.6	0.01	30655	0	396	24177	30655	30259	183	26	97	5	23427	3294610	311
8	2017-08-04 14:42:35		0	0	0	0	0	0	0.76	0.62	0.01	32579	0	434	25783	32579	32145	201	28	106	5	25038	3294710	340
9	2017-08-04 14:53:33		0	0	0	0	0	0	0.8	0.63	0.01	34332	0	497	27110	34332	33835	216	28	112	5	26405	3294821	361
10	2017-08-04 15:04:33		0	0	0	0	0	0	0.85	0.64	0.02	36587	0	562	28737	36587	36025	234	28	113	5	27971	3294899	380
11	2017-08-04 15:15:34		0	0	0	0	0	0	0.88	0.65	0.02	37902	0	605	29638	37902	37297	246	32	115	5	28832	3295003	398
12	2017-08-04 15:26:35		0	0	0	0	0	0	0.9	0.66	0.02	39070	0	645	30558	39070	38425	257	32	118	5	29720	3295095	412
13	2017-08-04 15:37:33		0	0	0	0	0	0	0.93	0.67	0.02	40123	0	665	31513	40123	39458	270	32	121	5	30647	3295175	428
14	2017-08-04 15:48:33		0	0	0	0	0	0	0.94	0.67	0.02	41149	0	685	31982	41149	40464	276	34	127	5	31140	3295255	442
15	2017-08-04 15:59:35		0	0	0	0	0	0	0.98	0.68	0.02	42564	0	731	33170	42564	41833	288	34	131	6	32308	3295349	459
16	2017-08-04 16:10:33		0	0	0	0	0	0	1	0.68	0.02	43325	0	767	33789	43325	42558	296	34	134	6	32862	3295451	470
17	2017-08-04 16:21:32		0	0	0	0	0	0	1	0.68	0.02	44002	0	785	34061	44002	43217	301	34	135	6	33040	3295546	476
18	2017-08-04 16:32:34		0	0	0	0	0	0	1.01	0.69	0.02	44700	0	798	34287	44700	43902	307	36	138	6	33321	3295646	487
19	2017-08-04 16:43:33		0	0	0	0	0	0	1.02	0.68	0.02	45422	0	816	34622	45422	44606	311	36	142	6	33714	3295727	495
20	2017-08-04 16:54:36		0	0	0	0	0	0	1.04	0.68	0.02	46409	0	852	35253	46409	45557	316	36	145	6	34356	3295771	503
21	2017-08-04 17:05:36		0	0	0	0	0	0	1.05	0.69	0.02	46971	0	871	35604	46971	46100	322	36	147	6	34700	3295805	511
22	2017-08-04 17:16:34		0	0	0	0	0	0	1.07	0.68	0.02	47539	0	885	36028	47539	46654	323	36	148	6	35135	3295838	513
23	2017-08-04 17:27:33		0	0	0	0	0	0	1.09	0.68	0.02	48141	0	898	36753	48141	47243	326	36	151	6	35778	3295871	519
24	2017-08-04 17:38:33		0	0	0	0	0	0	1.1	0.67	0.02	48742	0	916	37209	48742	47826	329	36	153	6	36261	3295894	524
25	2017-08-04 17:50:10		0	0	0	0	0	0	1.12	0.67	0.02	49594	0	937	37808	49594	48657	331	36	156	6	36858	3295927	529
26	2017-08-04 18:00:32		0	0	0	0	0	0	1.13	0.67	0.02	50177	0	949	38336	50177	49228	335	36	159	6	37368	3295956	536
27	2017-08-04 18:11:33		0	0	0	0	0	0	1.15	0.66	0.02	50673	0	956	38945	50673	49717	336	36	160	6	37916	3295989	538
28	2017-08-04 18:22:34		0	0	0	0	0	0	1.16	0.66	0.02	51148	0	973	39176	51148	50175	338	36	161	6	38135	3296027	541
29	2017-08-04 18:33:32		0	0	0	0	0	0	1.16	0.66	0.02	51621	0	982	39371	51621	50639	339	36	162	6	38351	3296057	543
30	2017-08-04 18:44:32		0	0	0	0	0	0	1.18	0.65	0.02	52426	0	1000	40018	52426	51172	340	38	164	6	39020	3296088	548
31	2017-08-04 18:55:40		0	0	0	0	0	0	1.2	0.65	0.02	52941	0	1008	40417	52941	51933	342	38	164	7	39411	3296125	551
32	2017-08-04 19:06:35		0	0	0	0	0	0	1.21	0.64	0.02	53360	0	1016	40982	53360	52344	344	38	164	7	39956	3296145	553
33	2017-08-04 19:17:37		0	0	0	0	0	0	1.22	0.64	0.02	53806	0	1029	41323	53806	52777	344	40	165	7	40267	3296181	556
34	2017-08-04 19:28:37		0	0	0	0	0	0	1.23	0.64	0.02	54259	0	1040	41652	54259	53219	346	42	165	7	40614	3296213	560
35	2017-08-04 19:39:52		0	0	0	0	0	0	1.24	0.64	0.02	54988	0	1061	41895	54988	53927	351	42	168	7	40845	3296247	568
36	2017-08-04 19:50:37		0	0	0	0	0	0	1.25	0.64	0.02	55431	0	1071	42139	55431	54360	352	42	168	7	41112	3296278	569
37	2017-08-04 20:01:34		0	0	0	0	0	0	1.26	0.63	0.02	55922	0	1079	42674	55922	54843	353	42	171	7	41585	3296318	573
38	2017-08-04 20:12:34		0	0	0	0	0	0	1.27	0.63	0.02	56408	0	1091	43071	56408	55317	356	42	175	7	41965	3296343	580
39	2017-08-04 20:23:35		0	0	0	0	0	0	1.28	0.63	0.02	56851	0	1109	43306	56851	55742	358	44	177	7	42226	3296376	586
40	2017-08-04 20:34:35		0	0	0	0	0	0	1.28	0.64	0.02	57295	0	1146	43411	57295	56149	365	44	180	7	42326	3296410	596
41	2017-08-04 20:45:35		0	0	0	0	0	0	1.3	0.63	0.02	58042	0	1188	43963	58042	56854	367	48	181	7	42845	3296438	603
42	2017-08-04 20:56:35		0	0	0	0	0	0	1.31	0.63	0.02	58532	0	1222	44526	58532	57310	369	50	181	7	43283	3296474	607
43	2017-08-04 21:07:39		0	0	0	0	0	0	1.32	0.63	0.02	58954	0	1238	44849	58954	57716	370	50	181	7	43587	3296503	608
44	2017-08-04 21:18:40		0	0	0	0	0	0	1.33	0.62	0.02	59418	0	1259	45131	59418	58159	370	50	184	7	43899	3296528	611
45	2017-08-04 21:29:39		0	0	0	0	0	0	1.35	0.62	0.02	59893	0	1296	45596	59893	58597	373	50	186	7	44399	3296574	616
46	2017-08-04 21:40:37		0	0	0	0	0	0	1.36	0.62	0.02	60628	0	1326	46219	60628	59302	375	50	186	7	44917	3296609	618
47	2017-08-04 21:51:36		0	0	0	0	0	0	1.37	0.62	0.02	61183	0	1348	46550	61183	59835	377	50	186	7	45219	3296650	620
48	2017-08-04 22:02:35		0	0	0	0	0	0	1.38	0.62	0.02	61661	0	1358	47012	61661	60303	380	50	186	7	45612	3296691	623
49	2017-08-04 22:13:34		0	0	0	0	0	0	1.39	0.62	0.02	62115	0	1377	47325	62115	60738	383	50	188	7	45841	3296733	628
50	2017-08-04 22:24:36		0	0	0	0	0	0	1.4	0.62	0.02	62585	0	1391	47666	62585	61194	385	50	189	7	46140	3296771	631
51	2017-08-04 22:35:36		0	0	0	0	0	0	1.42	0.61	0.02	63358	0	1420	48338	63358	61938	386	50	190	7	46787	3296807	633
52	2017-08-04 22:47:01		0	0	0	0	0	0	1.43	0.61	0.02	63842	0	1429	48703	63842	62413	387	50	191	7	47174	3296853	635
53	2017-08-04 22:57:37		0	0	0	0	0	0	1.44	0.6	0.02	64343	0	1443	48951	64343	62900	389	50	191	7	47395	3296898	637
54	2017-08-04 23:08:37		0	0	0	0	0	0	1.45	0.6	0.02	64860	0	1454	49301	64860	63406	392	50	193	7	47723	3296942	642
55	2017-08-04 23:19:40		0	0	0	0	0	0	1.45	0.6	0.02	65351	0	1469	49450	65351	63882	395	50	193	7	47947	3296982	645
56	2017-08-04 23:30:35		0	0	0	0	0	0	1.47	0.6	0.02	66113	0	1487	50071	66113	64626	396	52	194	7	48542	3297026	649
57	2017-08-04 23:41:41		0	0	0	0	0	0	1.48	0.6	0.02	66591	0	1506	50253	66591	65085	399	52	195	7	48713	3297060	653
58	2017-08-04 23:52:38		0	0	0	0	0	0	1.48	0.6	0.02	67017	0	1517	50397	67017	65500	400	52	196	7	48922	3297091	655
59	2017-08-05 00:20:42		0	0	0	0	0	0	1.51	0.59	0.02	68262	0	1554	51493	68262	66708	406	54	198	7	49897	3297162	665
60	2017-08-05 01:20:40		0	0	0	0	0	0	1.55	0.6	0.02	70222	0	1605	52575	70222	68617	418	56	203	7	51042	3297250	684
61	2017-08-05 02:20:48		0	0	0	0	0	0	1.56	0.6	0.02	71427	0	1621	53128	71427	69720	425	56	205	7	51557	3297279	693
62	2017-08-05 03:20:50		0	0	0	0	0	0	1.57	0.59	0.02	72083	0	1631	53473	72083	70452	427	56	208	7	51888	3297305	698
63	2017-08-05 04:20:47		0	0	0	0	0	0	1.59	0.59	0.02	72658	0	1646	54085	72658	71012	428	56	209	7	52465	3297314	700
64	2017-08-05 05:20:47		0	0	0	0	0	0	1.6	0.59	0.02	73108	0	1656	54476	73108	71452	429	56	210	7	52876	3297316	702
65	2017-08-05 06:20:38		0	0	0	0	0	0	1.62	0.59	0.02	73616	0	1668	54897	73616	71948	431	56	210	7	53273	3297325	704
66	2017-08-05 07:03:38		0	0	0	0	0	0	1.63	0.58	0.02	74221	0	1682	55256	74221	72539	433	56	210	7	53610	3297330	706
67	2017-08-05 07:14:55		0	0	0	0	0	0	1.63	0.58	0.02	74410	0	1685	55323	74410	72725	435	56	210	7	53681	3297335	708
68	2017-08-05 07:26:00		0	0	0	0	0	0	1.63	0.59	0.02	74595	0	1688	55456	74595	72907	438	56	210	7	53807	3297337	711
69	2017-08-05 07:36:54		0	0	0	0	0	0	1.64	0.59	0.02	74994	0	1704	55642	74994	73290	439	58	210	7	53951	3297339	714
70	2017-08-05 07:48:27		0	0	0	0	0	0	1.64	0.58	0.02	75264	0	1709	55883	75264	73555	439	58	210	7	54178	3297347	714
71	2017-08-05 07:59:27		0	0	0	0	0	0	1.65	0.58	0.02	75574	0	1716	56218	75574	73858	439	58	213	7	54477	3297355	717
72	2017-08-05 08:10:26		0	0	0	0	0	0	1.66	0.58	0.02	75909	0	1722	56425	75909	74187	440	58	213	7	54718	3297364	718
73	2017-08-05 08:22:01		0	0	0	0	0	0	1.67	0.58	0.02	76468	0	1738	56681	76468	74730	445	58	214	7	54990	3297367	724
74	2017-08-05 08:32:27		0	0	0	0	0	0	1.67	0.58	0.02	76863	0	1749	56920	76863	75114	447	58	215	7	55215	3297374	727
75	2017-08-05 08:43:49		0	0	0	0	0	0	1.69	0.58	0.02	77290	0	1760	57444	77290	75530	447	58	215	7	55676	3297382	727
76	2017-08-05 08:54:47		0	0	0	0	0	0	1.7	0.58	0.02	77705	0	1770	57802	77705	75935	447	58	216	7	56012	3297385	728
77	2017-08-05 09:05:45		0	0	0	0	0	0	1.7	0.58	0.02	78147	0	1785	57919	78147	76362	451	58	217	7	56126	3297388	733
78	2017-08-05 09:16:44		0	0	0	0	0	0	1.72	0.57	0.02	78786	0	1806	58249	78786	76980	453	58	217	7	56601	3297393	735
79	2017-08-05 09:29:15		0	0	0	0	0	0	1.73	0.58	0.02	79204	0	1820	58812	79204	77384	457	58	217	7	57209	3297402	739
80	2017-08-05 09:39:53		0	0	0	0	0	0	1.74	0.58	0.02	79577	0	1833	59007	79577	77744	461	58	220	7	57393	3297403	746
81	2017-08-05 09:51:14		0	0	0	0	0	0	1.75	0.58	0.02	79977	0	1845	59440	79977	78132	462	58	220	7	57820	3297408	747
82	2017-08-05 10:04:25		0	0	0	0	0	0	1.77	0.58	0.02	80569	0	1861	59991	80569	78708	466	58	223	7	58341	3297414	754
83	2017-08-05 10:21:42		0	0	0	0	0	0	1.78	0.57	0.02	81105	0	1883	60458	81105	79222	466	60	223	7	58818	3297430	756
84	2017-08-05 10:28:45		0	0	0	0	0	0	1.79	0.57	0.02	81445	0	1900	60832	81445	79545	466	60	223	7	59172	3297436	756
85	2017-08-05 10:40:20		0	0	0	0	0	0	1.8	0.57	0.02	81736	0	1916	61032	81736	79820	467	60	223	7	59253	3297450	757
86	2017-08-05 10:50:57		0	0	0	0	0	0	1.81	0.57	0.02	82029	0	1935	61381	82029	80094	469	60	225	7	59581	3297462	761
87	2017-08-05 11:04:46		0	0	0	0	0	0	1.82	0.57	0.02	82456	0	1948	61678	82456	80508	471	60	226	7	59935	3297473	764
88	2017-08-05 11:15:21		0	0	0	0	0	0	1.82	0.57	0.02	82701	0	1955	61752	82701	80746	473	60	228	7	60005	3297482	768
89	2017-08-05 11:26:20		0	0	0	0	0	0	1.83	0.57	0.02	82979	0	1970	61979	82979	81009	474	60	228	7	60219	3297499	769
90	2017-08-05 11:42:33		0	0	0	0	0	0	1.84	0.57	0.02	83408	0	1986	62344	83408	81422	475	60	232	7	60563	3297516	774
91	2017-08-05 11:54:42		0	0	0	0	0	0	1.85	0.57	0.02	83778	0	2005	62702	83778	81773	476	60	232	7	60978	3297539	775
92	2017-08-05 12:04:02		0	0	0	0	0	0	1.86	0.57	0.02	84010	0	2011	62916	84010	81999	476	60	232	7	61181	3297548	775
93	2017-08-05 12:30:21		0	0	0	0	0	0	1.87	0.56	0.02	84632	0	2036	63527	84632	82596	478	60	232	7	61759	3297574	777
94	2017-08-05 12:49:14		0	0	0	0	0	0	1.88	0.56	0.02	85075	0	2054	63755	85075	83021	479	62	232	7	61974	3297595	780
95	2017-08-05 13:05:38		0	0	0	0	0	0	1.89	0.56	0.02	85371	0	2076	64135	85371	83295	481	62	232	7	62334	3297618	782
96	2017-08-05 13:24:07		0	0	0	0	0	0	1.9	0.57	0.03	85786	0	2101	64324	85786	83685	485	62	234	7	62593	3297636	788
97	2017-08-05 13:37:01		0	0	0	0	0	0	1.9	0.56	0.03	85980	0	2115	64364	85980	83865	485	62	235	7	62631	3297646	789
98	2017-08-05 13:53:34		0	0	0	0	0	0	1.91	0.56	0.03	86250	0	2130	64608	86250	84120	485	62	236	7	62862	3297660	790
99	2017-08-05 14:01:39		0	0	0	0	0	0	1.91	0.56	0.03	86440	0	2140	64684	86440	84300	487	62	237	7	62934	3297670	793
100	2017-08-05 14:25:54		0	0	0	0	0	0	1.91	0.57	0.03	86765	0	2152	64760	86765	84613	491	62	237	7	63005	3297695	797
101	2017-08-05 14:37:15		0	0	0	0	0	0	1.91	0.57	0.03	86900	0	2162	64760	86900	84738	492	62	237	7	63005	3297704	798
102	2017-08-05 14:49:01		0	0	0	0	0	0	1.91	0.57	0.03	86973	0	2164	64803	86973	84809	492	62	238	7	63046	3297720	799
103	2017-08-05 15:14:17		0	0	0	0	0	0	1.91	0.57	0.03	87172	0	2177	64890	87172	84995	493	62	239	7	63098	3297742	801
104	2017-08-05 15:24:11		0	0	0	0	0	0	1.91	0.57	0.03	87250	0	2180	64890	87250	85070	493	62	239	7	63098	3297755	801
105	2017-08-05 15:34:59		0	0	0	0	0	0	1.91	0.56	0.03	87329	0	2183	64890	87329	85146	493	62	239	7	63098	3297764	801
106	2017-08-05 15:49:22		0	0	0	0	0	0	1.91	0.56	0.03	87436	0	2188	64934	87436	85248	493	62	239	7	63139	3297772	801
107	2017-08-05 16:00:30		0	0	0	0	0	0	1.92	0.56	0.03	87495	0	2189	65051	87495	85306	493	62	239	7	63250	3297783	801
108	2017-08-05 16:21:44		0	0	0	0	0	0	1.92	0.56	0.03	87628	0	2197	65188	87628	85431	493	62	239	7	63374	3297805	801
109	2017-08-05 16:32:24		0	0	0	0	0	0	1.92	0.56	0.03	87691	0	2200	65204	87691	85493	493	62	239	7	63390	3297810	801
110	2017-08-05 16:45:41		0	0	0	0	0	0	1.92	0.56	0.03	87797	0	2205	65292	87797	85592	493	62	239	7	63473	3297812	801
111	2017-08-05 16:56:35		0	0	0	0	0	0	1.93	0.56	0.03	87858	0	2210	65458	87858	85648	493	62	239	7	63629	3297820	801
112	2017-08-05 17:35:31		0	0	0	0	0	0	1.94	0.56	0.03	88113	0	2218	65683	88113	85895	493	62	239	7	63842	3297863	801
113	2017-08-05 17:46:55		0	0	0	0	0	0	1.94	0.56	0.03	88161	0	2221	65683	88161	85940	493	62	239	7	63842	3297880	801
114	2017-08-05 18:05:36		0	0	0	0	0	0	1.94	0.56	0.03	88266	0	2227	65705	88266	86039	494	62	239	7	63842	3297922	802
115	2017-08-05 18:19:23		0	0	0	0	0	0	1.94	0.56	0.03	88356	0	2231	65761	88356	86125	494	62	239	7	63895	3297963	802
116	2017-08-05 18:29:20		0	0	0	0	0	0	1.94	0.56	0.03	88410	0	2233	65795	88410	86177	494	62	239	7	63926	3297981	802
117	2017-08-05 18:51:10		0	0	0	0	0	0	1.94	0.56	0.03	88519	0	2239	65795	88519	86280	494	62	239	7	63958	3298026	802
118	2017-08-05 18:57:51		0	0	0	0	0	0	1.94	0.56	0.03	88561	0	2240	65887	88561	86321	494	62	239	7	64045	3298047	802
119	2017-08-05 19:54:09		0	0	0	0	0	0	1.94	0.56	0.03	88839	0	2254	65997	88839	86585	495	62	239	7	64149	3298155	803
120	2017-08-05 20:17:09		0	0	0	0	0	0	1.94	0.56	0.03	88973	0	2257	65997	88973	86716	495	62	239	7	64149	3298185	803
121	2017-08-05 20:27:42		0	0	0	0	0	0	1.95	0.56	0.03	89023	0	2262	66019	89023	86764	495	62	240	7	64170	3298200	804
122	2017-08-05 20:44:27		0	0	0	0	0	0	1.95	0.56	0.03	89139	0	2265	66070	89139	86874	497	62	240	7	64218	3298234	806
123	2017-08-05 20:56:58		0	0	0	0	0	0	1.95	0.56	0.03	89189	0	2268	66070	89189	86921	497	62	240	7	64218	3298257	806
124	2017-08-05 21:07:52		0	0	0	0	0	0	1.95	0.56	0.03	89253	0	2271	66070	89253	86982	497	62	240	7	64218	3298273	806
125	2017-08-05 21:32:08		0	0	0	0	0	0	1.95	0.56	0.03	89348	0	2272	66104	89348	87076	497	62	240	7	64335	3298308	806
126	2017-08-05 21:40:55		0	0	0	0	0	0	1.95	0.56	0.03	89390	0	2276	66104	89390	87114	498	62	240	7	64335	3298322	807
127	2017-08-05 22:45:02		0	0	0	0	0	0	1.95	0.56	0.03	89448	0	2280	66104	89448	87168	498	62	240	7	64335	3298409	807
128	2017-08-05 22:55:32		0	0	0	0	0	0	1.95	0.56	0.03	89749	0	2286	66217	89749	87463	499	64	241	7	64443	3298422	811
129	2017-08-05 23:07:55		0	0	0	0	0	0	1.95	0.56	0.03	89803	0	2292	66217	89803	87511	499	64	241	7	64443	3298417	811
130	2017-08-05 23:47:58		0	0	0	0	0	0	1.96	0.56	0.03	89988	0	2304	66359	89988	87684	500	64	241	7	64539	3298421	812
131	2017-08-05 23:55:01		0	0	0	0	0	0	1.96	0.56	0.03	90023	0	2305	66381	90023	87718	500	64	241	7	64561	3298423	812
132	2017-08-06 00:02:36		0	0	0	0	0	0	1.96	0.56	0.03	90049	0	2306	66381	90049	87743	500	64	241	7	64561	3298427	812
133	2017-08-06 01:13:15		0	0	0	0	0	0	1.96	0.56	0.03	90267	0	2318	66398	90267	87949	501	64	242	7	64561	3298429	814
134	2017-08-06 09:45:52		0	0	0	0	0	0	1.96	0.56	0.03	90687	0	2349	66518	90687	88338	504	64	242	7	64679	3298438	817
135	2017-08-06 09:51:05		0	0	0	0	0	0	1.96	0.56	0.03	90696	0	2350	66518	90696	88346	504	64	242	7	64679	3298436	817
136	2017-08-06 10:02:00		0	0	0	0	0	0	1.96	0.56	0.03	90710	0	2352	66564	90710	88358	504	64	242	7	64723	3298437	817
137	2017-08-06 10:13:02		0	0	0	0	0	0	1.96	0.56	0.03	90722	0	2352	66564	90722	88370	504	64	242	7	64723	3298440	817
138	2017-08-06 10:24:01		0	0	0	0	0	0	1.96	0.56	0.03	90739	0	2352	66610	90739	88387	504	64	242	7	64766	3298448	817
139	2017-08-06 10:35:01		0	0	0	0	0	0	1.96	0.56	0.03	90750	0	2352	66610	90750	88398	505	64	242	7	64766	3298454	818
140	2017-08-06 10:46:01		0	0	0	0	0	0	1.96	0.56	0.03	90764	0	2353	66610	90764	88411	505	64	242	7	64766	3298463	818
141	2017-08-06 10:57:01		0	0	0	0	0	0	1.96	0.56	0.03	90769	0	2354	66610	90769	88415	505	64	242	7	64766	3298467	818
142	2017-08-06 11:08:01		0	0	0	0	0	0	1.96	0.56	0.03	90780	0	2354	66610	90780	88426	505	64	242	7	64766	3298475	818
143	2017-08-06 11:19:00		0	0	0	0	0	0	1.96	0.56	0.03	90798	0	2356	66610	90798	88442	505	64	242	7	64766	3298482	818
144	2017-08-06 11:30:01		0	0	0	0	0	0	1.96	0.56	0.03	90806	0	2356	66610	90806	88450	505	64	242	7	64766	3298484	818
145	2017-08-06 11:41:01		0	0	0	0	0	0	1.96	0.56	0.03	90820	0	2358	66610	90820	88462	505	64	242	7	64766	3298499	818
146	2017-08-06 11:52:01		0	0	0	0	0	0	1.96	0.56	0.03	90837	0	2361	66610	90837	88476	505	64	242	7	64766	3298505	818
147	2017-08-06 12:03:01		0	0	0	0	0	0	1.96	0.56	0.03	90848	0	2362	66610	90848	88486	505	64	242	7	64766	3298518	818
148	2017-08-06 12:14:01		0	0	0	0	0	0	1.96	0.56	0.03	90867	0	2362	66610	90867	88505	505	64	242	7	64766	3298524	818
149	2017-08-06 12:25:02		0	0	0	0	0	0	1.96	0.56	0.03	90880	0	2362	66650	90880	88518	505	64	242	7	64804	3298531	818
150	2017-08-06 12:36:03		0	0	0	0	0	0	1.96	0.56	0.03	90889	0	2362	66650	90889	88527	505	64	242	7	64804	3298533	818
151	2017-08-06 12:47:01		0	0	0	0	0	0	1.96	0.56	0.03	90906	0	2364	66650	90906	88542	505	64	242	7	64804	3298533	818
152	2017-08-06 12:58:00		0	0	0	0	0	0	1.96	0.56	0.03	90912	0	2364	66650	90912	88548	505	64	242	7	64804	3298532	818
153	2017-08-06 13:09:02		0	0	0	0	0	0	1.96	0.56	0.03	90934	0	2364	66650	90934	88570	505	64	242	7	64804	3298536	818
154	2017-08-06 13:20:01		0	0	0	0	0	0	1.96	0.56	0.03	90949	0	2365	66650	90949	88584	505	64	243	7	64804	3298537	819
155	2017-08-06 13:31:02		0	0	0	0	0	0	1.97	0.56	0.03	90963	0	2366	66693	90963	88597	505	64	243	7	64845	3298542	819
156	2017-08-06 13:42:01		0	0	0	0	0	0	1.97	0.56	0.03	90976	0	2368	66693	90976	88608	505	64	243	7	64845	3298544	819
157	2017-08-06 13:53:01		0	0	0	0	0	0	1.97	0.55	0.03	90994	0	2369	66693	90994	88625	505	64	243	7	64845	3298552	819
158	2017-08-06 14:04:02		0	0	0	0	0	0	1.97	0.55	0.03	91006	0	2369	66693	91006	88637	505	64	243	7	64845	3298554	819
159	2017-08-06 14:15:02		0	0	0	0	0	0	1.97	0.55	0.03	91025	0	2369	66693	91025	88656	505	64	243	7	64845	3298559	819
160	2017-08-06 14:26:02		0	0	0	0	0	0	1.97	0.55	0.03	91032	0	2369	66693	91032	88663	505	64	243	7	64845	3298560	819
161	2017-08-06 14:37:05		0	0	0	0	0	0	1.97	0.55	0.03	91041	0	2369	66693	91041	88672	505	64	243	7	64845	3298563	819
162	2017-08-06 14:48:01		0	0	0	0	0	0	1.97	0.55	0.03	91060	0	2370	66693	91060	88690	505	64	243	7	64845	3298566	819
163	2017-08-06 14:59:01		0	0	0	0	0	0	1.97	0.55	0.03	91081	0	2370	66693	91081	88711	505	64	243	7	64845	3298570	819
164	2017-08-06 15:10:03		0	0	0	0	0	0	1.97	0.55	0.03	91090	0	2370	66693	91090	88720	505	64	243	7	64845	3298582	819
165	2017-08-06 15:21:02		0	0	0	0	0	0	1.97	0.55	0.03	91101	0	2370	66693	91101	88731	505	64	243	7	64845	3298590	819
166	2017-08-06 15:32:02		0	0	0	0	0	0	1.97	0.55	0.03	91113	0	2370	66716	91113	88743	505	64	243	7	64866	3298596	819
167	2017-08-06 15:43:01		0	0	0	0	0	0	1.97	0.55	0.03	91124	0	2372	66716	91124	88752	505	64	243	7	64866	3298598	819
168	2017-08-06 15:54:01		0	0	0	0	0	0	1.97	0.55	0.03	91151	0	2372	66716	91151	88779	505	64	244	7	64866	3298604	820
169	2017-08-06 16:05:01		0	0	0	0	0	0	1.97	0.56	0.03	91166	0	2373	66716	91166	88793	506	64	244	7	64866	3298599	821
170	2017-08-06 16:16:04		0	0	0	0	0	0	1.97	0.55	0.03	91178	0	2373	66716	91178	88805	506	64	244	7	64866	3298604	821
171	2017-08-06 16:27:04		0	0	0	0	0	0	1.97	0.55	0.03	91191	0	2373	66716	91191	88818	506	64	244	7	64866	3298609	821
172	2017-08-06 16:38:04		0	0	0	0	0	0	1.97	0.55	0.03	91201	0	2374	66716	91201	88827	506	64	244	7	64866	3298610	821
173	2017-08-06 16:49:02		0	0	0	0	0	0	1.97	0.55	0.03	91220	0	2374	66716	91220	88846	506	64	244	7	64866	3298616	821
174	2017-08-06 17:00:02		0	0	0	0	0	0	1.97	0.55	0.03	91230	0	2374	66716	91230	88856	506	64	244	7	64866	3298622	821
175	2017-08-06 17:11:02		0	0	0	0	0	0	1.97	0.56	0.03	91244	0	2374	66716	91244	88870	507	64	245	7	64866	3298625	823
176	2017-08-06 17:22:04		0	0	0	0	0	0	1.97	0.56	0.03	91258	0	2375	66716	91258	88883	507	64	245	7	64866	3298633	823
177	2017-08-06 17:33:02		0	0	0	0	0	0	1.97	0.56	0.03	91275	0	2375	66716	91275	88900	507	64	245	7	64866	3298637	823
178	2017-08-06 17:44:02		0	0	0	0	0	0	1.97	0.56	0.03	91293	0	2378	66716	91293	88915	507	64	245	7	64866	3298644	823
179	2017-08-06 17:55:06		0	0	0	0	0	0	1.97	0.56	0.03	91305	0	2378	66727	91305	88927	507	64	245	7	64877	3298655	823
180	2017-08-06 18:06:04		0	0	0	0	0	0	1.97	0.56	0.03	91320	0	2378	66727	91320	88942	507	64	245	7	64877	3298659	823
181	2017-08-06 18:17:20		0	0	0	0	0	0	1.97	0.56	0.03	91337	0	2379	66727	91337	88958	508	64	245	7	64877	3298663	824
182	2017-08-06 18:28:04		0	0	0	0	0	0	1.97	0.56	0.03	91354	0	2380	66727	91354	88974	508	64	245	7	64877	3298666	824
183	2017-08-06 18:39:03		0	0	0	0	0	0	1.97	0.56	0.03	91376	0	2380	66796	91376	88996	508	64	245	7	64942	3298673	824
184	2017-08-06 18:50:24		0	0	0	0	0	0	1.97	0.56	0.03	91390	0	2381	66796	91390	89009	508	64	245	7	64942	3298674	824
185	2017-08-06 19:01:08		0	0	0	0	0	0	1.97	0.56	0.03	91402	0	2381	66796	91402	89021	508	64	245	7	64942	3298680	824
186	2017-08-06 19:12:03		0	0	0	0	0	0	1.97	0.56	0.03	91418	0	2381	66796	91418	89037	508	64	245	7	64942	3298682	824
187	2017-08-06 19:23:06		0	0	0	0	0	0	1.97	0.56	0.03	91435	0	2382	66887	91435	89053	508	64	245	7	65028	3298683	824
188	2017-08-06 19:34:03		0	0	0	0	0	0	1.97	0.56	0.03	91456	0	2382	66887	91456	89074	508	64	245	7	65028	3298690	824
189	2017-08-06 19:45:13		0	0	0	0	0	0	1.97	0.56	0.03	91478	0	2382	66887	91478	89096	508	64	245	7	65028	3298694	824
190	2017-08-06 19:56:04		0	0	0	0	0	0	1.97	0.56	0.03	91484	0	2382	66887	91484	89102	508	64	245	7	65028	3298703	824
191	2017-08-06 20:07:09		0	0	0	0	0	0	1.97	0.56	0.03	91493	0	2382	66887	91493	89111	508	64	245	7	65028	3298704	824
192	2017-08-06 20:18:06		0	0	0	0	0	0	1.97	0.56	0.03	91505	0	2386	67009	91505	89119	508	64	245	7	65028	3298707	824
193	2017-08-06 20:29:10		0	0	0	0	0	0	1.97	0.56	0.03	91519	0	2387	67009	91519	89132	508	64	245	7	65028	3298712	824
194	2017-08-06 20:40:04		0	0	0	0	0	0	1.97	0.55	0.03	91539	0	2389	67009	91539	89150	508	64	245	7	65028	3298712	824
195	2017-08-06 20:51:05		0	0	0	0	0	0	1.97	0.55	0.03	91554	0	2389	67009	91554	89165	508	64	245	8	65028	3298717	825
196	2017-08-06 21:02:05		0	0	0	0	0	0	1.97	0.55	0.03	91573	0	2389	67009	91573	89184	508	64	245	8	65028	3298727	825
197	2017-08-06 21:13:05		0	0	0	0	0	0	1.97	0.55	0.03	91587	0	2390	67009	91587	89197	508	64	245	8	65028	3298733	825
198	2017-08-06 21:24:12		0	0	0	0	0	0	1.97	0.55	0.03	91610	0	2390	67009	91610	89220	508	64	245	8	65028	3298738	825
199	2017-08-06 21:35:09		0	0	0	0	0	0	1.97	0.55	0.03	91623	0	2392	67009	91623	89231	508	64	245	8	65028	3298745	825
200	2017-08-06 21:46:18		0	0	0	0	0	0	1.97	0.55	0.03	91631	0	2392	67032	91631	89239	508	64	245	8	65050	3298754	825
201	2017-08-06 21:57:18		0	0	0	0	0	0	1.97	0.55	0.03	91649	0	2392	67032	91649	89257	508	64	245	8	65050	3298771	825
202	2017-08-06 22:08:31		0	0	0	0	0	0	1.97	0.55	0.03	91661	0	2392	67079	91661	89269	508	66	245	8	65094	3298773	827
203	2017-08-06 22:19:04		0	0	0	0	0	0	1.97	0.55	0.03	91678	0	2402	67096	91678	89276	508	66	245	8	65094	3298777	827
204	2017-08-06 22:30:06		0	0	0	0	0	0	1.98	0.55	0.03	91698	0	2405	67140	91698	89293	508	66	245	8	65179	3298784	827
205	2017-08-06 22:41:06		0	0	0	0	0	0	1.98	0.55	0.03	91723	0	2406	67140	91723	89317	508	66	245	8	65179	3298792	827
206	2017-08-06 22:52:15		0	0	0	0	0	0	1.98	0.55	0.03	91737	0	2406	67186	91737	89331	508	66	245	8	65223	3298799	827
207	2017-08-06 23:03:12		0	0	0	0	0	0	1.98	0.55	0.03	91752	0	2407	67186	91752	89345	508	66	245	8	65223	3298807	827
208	2017-08-06 23:14:05		0	0	0	0	0	0	1.98	0.55	0.03	91766	0	2410	67186	91766	89357	508	66	245	8	65223	3298806	827
209	2017-08-06 23:25:08		0	0	0	0	0	0	1.98	0.55	0.03	91782	0	2410	67186	91782	89372	508	66	245	8	65223	3298812	827
210	2017-08-06 23:36:27		0	0	0	0	0	0	1.98	0.55	0.03	91793	0	2411	67186	91793	89382	508	66	245	8	65223	3298817	827
211	2017-08-06 23:47:07		0	0	0	0	0	0	1.98	0.55	0.03	91808	0	2413	67186	91808	89395	508	66	245	8	65223	3298824	827
212	2017-08-06 23:58:36		0	0	0	0	0	0	1.98	0.55	0.03	91812	0	2413	67186	91812	89399	508	66	245	8	65223	3298825	827
213	2017-08-07 00:42:37		0	0	0	0	0	0	1.98	0.55	0.03	91843	0	2420	67327	91843	89423	508	66	245	8	65355	3298837	827
214	2017-08-07 01:42:33		0	0	0	0	0	0	1.98	0.55	0.03	91870	0	2422	67327	91870	89448	508	66	245	9	65355	3298855	828
215	2017-08-07 02:42:27		0	0	0	0	0	0	1.98	0.55	0.03	91882	0	2422	67327	91882	89460	508	66	245	9	65355	3298853	828
216	2017-08-07 03:42:31		0	0	0	0	0	0	1.98	0.55	0.03	91893	0	2422	67327	91893	89471	508	66	245	9	65355	3298852	828
217	2017-08-07 04:42:48		0	0	0	0	0	0	1.98	0.55	0.03	91897	0	2422	67327	91897	89475	508	66	245	9	65355	3298851	828
218	2017-08-07 05:42:59		0	0	0	0	0	0	1.98	0.55	0.03	91904	0	2422	67327	91904	89482	508	66	245	9	65355	3298850	828
219	2017-08-07 06:42:39		0	0	0	0	0	0	1.98	0.55	0.03	91918	0	2423	67327	91918	89495	508	66	245	9	65355	3298858	828
220	2017-08-07 07:13:47		0	0	0	0	0	0	1.98	0.55	0.03	91929	0	2424	67327	91929	89505	508	66	245	9	65355	3298859	828
221	2017-08-07 07:23:30		0	0	0	0	0	0	1.98	0.55	0.03	91931	0	2424	67327	91931	89507	508	66	245	9	65355	3298861	828
222	2017-08-07 07:42:42		0	0	0	0	0	0	1.98	0.55	0.03	91937	0	2424	67327	91937	89513	508	66	245	9	65355	3298864	828
223	2017-08-07 07:51:29		0	0	0	0	0	0	1.98	0.55	0.03	91945	0	2424	67327	91945	89521	508	66	245	9	65355	3298866	828
224	2017-08-07 08:02:26		0	0	0	0	0	0	1.98	0.55	0.03	91946	0	2424	67327	91946	89522	508	66	245	9	65355	3298865	828
225	2017-08-07 08:15:08		0	0	0	0	0	0	1.98	0.55	0.03	91946	0	2424	67327	91946	89522	508	66	245	9	65355	3298868	828
226	2017-08-07 08:33:22		0	0	0	0	0	0	1.98	0.55	0.03	91959	0	2425	67327	91959	89534	508	66	245	9	65355	3298868	828
227	2017-08-07 08:42:55		0	0	0	0	0	0	1.98	0.55	0.03	91970	0	2426	67327	91970	89544	508	66	245	9	65355	3298871	828
228	2017-08-07 08:52:04		0	0	0	0	0	0	1.98	0.55	0.03	91979	0	2430	67327	91979	89549	508	66	245	9	65355	3298877	828
229	2017-08-07 09:02:55		0	0	0	0	0	0	1.98	0.55	0.03	91987	0	2431	67327	91987	89556	508	66	245	9	65355	3298884	828
230	2017-08-07 09:30:38		0	0	0	0	0	0	1.98	0.55	0.03	92000	0	2431	67327	92000	89569	508	66	245	9	65355	3298898	828
231	2017-08-07 09:34:41		0	0	0	0	0	0	1.98	0.55	0.03	92011	0	2432	67327	92011	89579	509	66	245	9	65355	3298899	829
232	2017-08-07 09:43:44		0	0	0	0	0	0	1.98	0.55	0.03	92019	0	2432	67327	92019	89587	509	66	245	9	65355	3298905	829
233	2017-08-07 09:54:50		0	0	0	0	0	0	1.98	0.55	0.03	92025	0	2433	67327	92025	89592	509	66	245	9	65355	3298908	829
234	2017-08-07 10:12:37		0	0	0	0	0	0	1.98	0.55	0.03	92036	0	2433	67327	92036	89603	509	66	245	9	65355	3298915	829
235	2017-08-07 10:23:34		0	0	0	0	0	0	1.98	0.55	0.03	92043	0	2434	67327	92043	89609	509	66	245	9	65355	3298917	829
236	2017-08-07 10:34:33		0	0	0	0	0	0	1.98	0.55	0.03	92052	0	2435	67371	92052	89617	509	66	245	9	65396	3298919	829
237	2017-08-07 10:45:32		0	0	0	0	0	0	1.98	0.55	0.03	92064	0	2437	67371	92064	89627	509	66	245	9	65396	3298928	829
238	2017-08-07 10:56:36		0	0	0	0	0	0	1.98	0.55	0.03	92068	0	2437	67371	92068	89631	509	66	245	9	65396	3298930	829
239	2017-08-07 11:07:33		0	0	0	0	0	0	1.98	0.55	0.03	92070	0	2437	67371	92070	89633	509	66	245	9	65396	3298935	829
240	2017-08-07 11:18:33		0	0	0	0	0	0	1.98	0.55	0.03	92078	0	2437	67371	92078	89641	509	66	245	9	65396	3298952	829
241	2017-08-07 11:29:32		0	0	0	0	0	0	1.98	0.55	0.03	92080	0	2437	67371	92080	89643	509	66	245	9	65396	3298953	829
242	2017-08-07 11:40:33		0	0	0	0	0	0	1.98	0.55	0.03	92086	0	2437	67371	92086	89649	509	66	245	9	65396	3298959	829
243	2017-08-07 11:51:33		0	0	0	0	0	0	1.98	0.55	0.03	92089	0	2437	67371	92089	89652	509	66	245	9	65396	3298966	829
244	2017-08-07 12:02:33		0	0	0	0	0	0	1.98	0.55	0.03	92094	0	2437	67371	92094	89657	509	66	245	9	65396	3298973	829
245	2017-08-07 12:13:33		0	0	0	0	0	0	1.98	0.55	0.03	92100	0	2437	67371	92100	89663	509	66	245	9	65396	3298982	829
246	2017-08-07 12:24:33		0	0	0	0	0	0	1.98	0.55	0.03	92102	0	2437	67371	92102	89665	509	66	245	9	65396	3298985	829
247	2017-08-07 12:35:33		0	0	0	0	0	0	1.98	0.55	0.03	92112	0	2437	67371	92112	89675	509	66	245	9	65396	3298988	829
248	2017-08-07 12:46:34		0	0	0	0	0	0	1.98	0.55	0.03	92118	0	2437	67371	92118	89681	509	66	245	9	65396	3298991	829
249	2017-08-07 12:57:34		0	0	0	0	0	0	1.98	0.55	0.03	92125	0	2438	67371	92125	89687	509	66	245	9	65396	3298997	829
250	2017-08-07 13:08:34		0	0	0	0	0	0	1.98	0.55	0.03	92130	0	2438	67371	92130	89692	509	66	245	9	65396	3299004	829
251	2017-08-07 13:19:35		0	0	0	0	0	0	1.98	0.55	0.03	92134	0	2438	67371	92134	89696	509	66	245	9	65396	3299004	829
