1	2017-10-30 13:14:29	6083238144727	0	0	0	0	0	0	0	0	0	0	0	0	0	0	0	0	0	0	0	0	3446174	0
2	2017-10-30 13:17:12	6083238144727	0	0	0	0	0	0	0	0	0	0	0	0	0	0	0	0	0	0	0	0	3446177	0
3	2017-10-30 13:25:31	6083238144727	0	0	0	0	0	0	0	0	0	0	0	0	0	0	0	0	0	0	0	0	3446180	0
4	2017-10-30 13:28:14	6083238144727	0	0	0	0	0	0	0	0	0	0	0	0	0	0	0	0	0	0	0	0	3446185	0
5	2017-10-30 13:36:32	6083238144727	0	0	0	0	0	0	0	0	0	0	0	0	0	0	0	0	0	0	0	0	3446192	0
6	2017-10-30 13:39:16	6083238144727	0	0	0	0	0	0	0	0	0	0	0	0	0	0	0	0	0	0	0	0	3446195	0
7	2017-10-30 13:47:32	6083238144727	0	0	0	0	0	0	0	0	0	0	0	0	0	0	0	0	0	0	0	0	3446199	0
8	2017-10-30 13:50:17	6083238144727	0	0	0	0	0	0	0	0	0	0	0	0	0	0	0	0	0	0	0	0	3446198	0
9	2017-10-30 13:58:31	6083238144727	0	0	0	0	0	0	0	0	0	0	0	0	0	0	0	0	0	0	0	0	3446204	0
10	2017-10-30 14:01:21	6083238144727	0	0	0	0	0	0	0	0	0	0	0	0	0	0	0	0	0	0	0	0	3446212	0
11	2017-10-30 14:09:35	6083238144727	0	0	0	0	0	0	0	0	0	0	0	0	0	0	0	0	0	0	0	0	3446216	0
12	2017-10-30 14:12:24	6083238144727	0	0	0	0	0	0	0	0	0	0	0	0	0	0	0	0	0	0	0	0	3446219	0
13	2017-10-30 14:20:31	6083238144727	0	0	0	0	0	0	0	0	0	0	0	0	0	0	0	0	0	0	0	0	3446229	0
14	2017-10-30 14:23:24	6083238144727	0	0	0	0	0	0	0	0	0	0	0	0	0	0	0	0	0	0	0	0	3446231	0
15	2017-10-30 14:31:38	6083238144727	0	0	0	0	0	0	0	0	0	0	0	0	0	0	0	0	0	0	0	0	3446241	0
16	2017-10-30 14:34:26	6083238144727	0	0	0	0	0	0	0	0	0	0	0	0	0	0	0	0	0	0	0	0	3446244	0
17	2017-10-30 14:42:31	6083238144727	0	0	0	0	0	0	0	0	0	0	0	0	0	0	0	0	0	0	0	0	3446256	0
18	2017-10-30 14:45:29	6083238144727	0	0	0	0	0	0	0	0	0	0	0	0	0	0	0	0	0	0	0	0	3446256	0
19	2017-10-30 14:53:32	6083238144727	0	0	0	0	0	0	0	0	0	0	0	0	0	0	0	0	0	0	0	0	3446269	0
20	2017-10-30 14:56:31	6083238144727	0	0	0	0	0	0	0	0	0	0	0	0	0	0	0	0	0	0	0	0	3446271	0
21	2017-10-30 15:04:32	6083238144727	0	0	0	0	0	0	0	0	0	0	0	0	0	0	0	0	0	0	0	0	3446271	0
22	2017-10-30 15:07:35	6083238144727	0	0	0	0	0	0	0	0	0	0	0	0	0	0	0	0	0	0	0	0	3446279	0
23	2017-10-30 15:15:32	6083238144727	0	0	0	0	0	0	0	0	0	0	0	0	0	0	0	0	0	0	0	0	3446290	0
24	2017-10-30 15:18:37	6083238144727	0	0	0	0	0	0	0	0	0	0	0	0	0	0	0	0	0	0	0	0	3446292	0
25	2017-10-30 15:26:31	6083238144727	0	0	0	0	0	0	0	0	0	0	0	0	0	0	0	0	0	0	0	0	3446298	0
26	2017-10-30 15:29:40	6083238144727	0	0	0	0	0	0	0	0	0	0	0	0	0	0	0	0	0	0	0	0	3446304	0
27	2017-10-30 15:37:33	6083238144727	0	0	0	0	0	0	0	0	0	0	0	0	0	0	0	0	0	0	0	0	3446310	0
28	2017-10-30 15:40:43	6083238144727	0	0	0	0	0	0	0	0	0	0	0	0	0	0	0	0	0	0	0	0	3446319	0
29	2017-10-30 15:48:34	6083238144727	0	0	0	0	0	0	0	0	0	0	0	0	0	0	0	0	0	0	0	0	3446328	0
30	2017-10-30 15:51:47	6083238144727	0	0	0	0	0	0	0	0	0	0	0	0	0	0	0	0	0	0	0	0	3446335	0
31	2017-10-30 15:59:37	6083238144727	0	0	0	0	0	0	0	0	0	0	0	0	0	0	0	0	0	0	0	0	3446345	0
32	2017-10-30 16:02:47	6083238144727	0	0	0	0	0	0	0	0	0	0	0	0	0	0	0	0	0	0	0	0	3446348	0
33	2017-10-30 16:10:35	6083238144727	0	0	0	0	0	0	0	0	0	0	0	0	0	0	0	0	0	0	0	0	3446360	0
34	2017-10-30 16:13:50	6083238144727	0	0	0	0	0	0	0	0	0	0	0	0	0	0	0	0	0	0	0	0	3446362	0
35	2017-10-30 16:17:29	6083238144727	0	0	0	0	0	0	0	0	0	0	0	0	0	0	0	0	0	0	0	0	3446368	0
36	2017-10-30 16:21:51	6083238144727	0	0	0	0	0	0	0	0	0	0	0	0	0	0	0	0	0	0	0	0	3446380	0
37	2017-10-30 16:24:52	6083238144727	0	0	0	0	0	0	0	0	0	0	0	0	0	0	0	0	0	0	0	0	3446384	0
38	2017-10-30 16:32:50	6083238144727	0	0	0	0	0	0	0	0	0	0	0	0	0	0	0	0	0	0	0	0	3446400	0
39	2017-10-30 16:35:54	6083238144727	0	0	0	0	0	0	0	0	0	0	0	0	0	0	0	0	0	0	0	0	3446408	0
40	2017-10-30 16:43:51	6083238144727	0	0	0	0	0	0	0	0	0	0	0	0	0	0	0	0	0	0	0	0	3446428	0
41	2017-10-30 16:46:58	6083238144727	0	0	0	0	0	0	0	0	0	0	0	0	0	0	0	0	0	0	0	0	3446436	0
42	2017-10-30 16:54:50	6083238144727	0	0	0	0	0	0	0	0	0	0	0	0	0	0	0	0	0	0	0	0	3446447	0
43	2017-10-30 16:57:59	6083238144727	0	0	0	0	0	0	0	0	0	0	0	0	0	0	0	0	0	0	0	0	3446454	0
44	2017-10-30 17:05:50	6083238144727	0	0	0	0	0	0	0	0	0	0	0	0	0	0	0	0	0	0	0	0	3446468	0
45	2017-10-30 17:09:01	6083238144727	0	0	0	0	0	0	0	0	0	0	0	0	0	0	0	0	0	0	0	0	3446472	0
46	2017-10-30 17:17:02	6083238144727	0	0	0	0	0	0	0	0	0	0	0	0	0	0	0	0	0	0	0	0	3446481	0
47	2017-10-30 17:20:02	6083238144727	0	0	0	0	0	0	0	0	0	0	0	0	0	0	0	0	0	0	0	0	3446488	0
48	2017-10-30 17:27:53	6083238144727	0	0	0	0	0	0	0	0	0	0	0	0	0	0	0	0	0	0	0	0	3446493	0
49	2017-10-30 17:31:05	6083238144727	0	0	0	0	0	0	0	0	0	0	0	0	0	0	0	0	0	0	0	0	3446499	0
50	2017-10-30 17:39:00	6083238144727	0	0	0	0	0	0	0	0	0	0	0	0	0	0	0	0	0	0	0	0	3446511	0
51	2017-10-30 17:42:08	6083238144727	0	0	0	0	0	0	0	0	0	0	0	0	0	0	0	0	0	0	0	0	3446519	0
52	2017-10-30 17:49:51	6083238144727	0	0	0	0	0	0	0	0	0	0	0	0	0	0	0	0	0	0	0	0	3446532	0
53	2017-10-30 17:53:10	6083238144727	0	0	0	0	0	0	0	0	0	0	0	0	0	0	0	0	0	0	0	0	3446536	0
54	2017-10-30 18:00:51	6083238144727	0	0	0	0	0	0	0	0	0	0	0	0	0	0	0	0	0	0	0	0	3446548	0
55	2017-10-30 18:04:11	6083238144727	0	0	0	0	0	0	0	0	0	0	0	0	0	0	0	0	0	0	0	0	3446559	0
56	2017-10-30 18:11:54	6083238144727	0	0	0	0	0	0	0	0	0	0	0	0	0	0	0	0	0	0	0	0	3446565	0
57	2017-10-30 18:15:14	6083238144727	0	0	0	0	0	0	0	0	0	0	0	0	0	0	0	0	0	0	0	0	3446571	0
58	2017-10-30 18:22:51	6083238144727	0	0	0	0	0	0	0	0	0	0	0	0	0	0	0	0	0	0	0	0	3446577	0
59	2017-10-30 18:26:16	6083238144727	0	0	0	0	0	0	0	0	0	0	0	0	0	0	0	0	0	0	0	0	3446579	0
60	2017-10-30 18:33:51	6083238144727	0	0	0	0	0	0	0	0	0	0	0	0	0	0	0	0	0	0	0	0	3446594	0
61	2017-10-30 18:37:19	6083238144727	0	0	0	0	0	0	0	0	0	0	0	0	0	0	0	0	0	0	0	0	3446602	0
62	2017-10-30 18:44:51	6083238144727	0	0	0	0	0	0	0	0	0	0	0	0	0	0	0	0	0	0	0	0	3446606	0
63	2017-10-30 18:55:51	6083238144727	0	0	0	0	0	0	0	0	0	0	0	0	0	0	0	0	0	0	0	0	3446624	0
64	2017-10-30 19:06:57	6083238144727	0	0	0	0	0	0	0	0	0	0	0	0	0	0	0	0	0	0	0	0	3446649	0
65	2017-10-30 19:17:53	6083238144727	0	0	0	0	0	0	0	0	0	0	0	0	0	0	0	0	0	0	0	0	3446662	0
66	2017-10-30 19:28:51	6083238144727	0	0	0	0	0	0	0	0	0	0	0	0	0	0	0	0	0	0	0	0	3446676	0
67	2017-10-30 19:39:51	6083238144727	0	0	0	0	0	0	0	0	0	0	0	0	0	0	0	0	0	0	0	0	3446682	0
68	2017-10-30 19:50:52	6083238144727	0	0	0	0	0	0	0	0	0	0	0	0	0	0	0	0	0	0	0	0	3446696	0
69	2017-10-30 20:01:52	6083238144727	0	0	0	0	0	0	0	0	0	0	0	0	0	0	0	0	0	0	0	0	3446703	0
70	2017-10-30 20:12:51	6083238144727	0	0	0	0	0	0	0	0	0	0	0	0	0	0	0	0	0	0	0	0	3446724	0
71	2017-10-30 20:23:51	6083238144727	0	0	0	0	0	0	0	0	0	0	0	0	0	0	0	0	0	0	0	0	3446739	0
72	2017-10-30 20:34:52	6083238144727	0	0	0	0	0	0	0	0	0	0	0	0	0	0	0	0	0	0	0	0	3446756	0
73	2017-10-30 20:45:52	6083238144727	0	0	0	0	0	0	0	0	0	0	0	0	0	0	0	0	0	0	0	0	3446779	0
74	2017-10-30 20:56:54	6083238144727	0	0	0	0	0	0	0	0	0	0	0	0	0	0	0	0	0	0	0	0	3446790	0
75	2017-10-30 21:07:53	6083238144727	0	0	0	0	0	0	0	0	0	0	0	0	0	0	0	0	0	0	0	0	3446803	0
76	2017-10-30 21:18:52	6083238144727	0	0	0	0	0	0	0	0	0	0	0	0	0	0	0	0	0	0	0	0	3446823	0
77	2017-10-30 21:29:52	6083238144727	0	0	0	0	0	0	0	0	0	0	0	0	0	0	0	0	0	0	0	0	3446848	0
78	2017-10-30 21:40:52	6083238144727	0	0	0	0	0	0	0	0	0	0	0	0	0	0	0	0	0	0	0	0	3446860	0
79	2017-10-30 21:51:54	6083238144727	0	0	0	0	0	0	0	0	0	0	0	0	0	0	0	0	0	0	0	0	3446867	0
80	2017-10-30 22:02:52	6083238144727	0	0	0	0	0	0	0	0	0	0	0	0	0	0	0	0	0	0	0	0	3446884	0
81	2017-10-30 22:13:53	6083238144727	0	0	0	0	0	0	0	0	0	0	0	0	0	0	0	0	0	0	0	0	3446904	0
82	2017-10-30 22:24:52	6083238144727	0	0	0	0	0	0	0	0	0	0	0	0	0	0	0	0	0	0	0	0	3446916	0
83	2017-10-30 22:35:52	6083238144727	0	0	0	0	0	0	0	0	0	0	0	0	0	0	0	0	0	0	0	0	3446929	0
84	2017-10-30 22:46:56	6083238144727	0	0	0	0	0	0	0	0	0	0	0	0	0	0	0	0	0	0	0	0	3446943	0
85	2017-10-30 22:57:53	6083238144727	0	0	0	0	0	0	0	0	0	0	0	0	0	0	0	0	0	0	0	0	3446956	0
86	2017-10-30 23:08:53	6083238144727	0	0	0	0	0	0	0	0	0	0	0	0	0	0	0	0	0	0	0	0	3446962	0
87	2017-10-30 23:19:53	6083238144727	0	0	0	0	0	0	0	0	0	0	0	0	0	0	0	0	0	0	0	0	3446986	0
88	2017-10-30 23:30:53	6083238144727	0	0	0	0	0	0	0	0	0	0	0	0	0	0	0	0	0	0	0	0	3446999	0
89	2017-10-30 23:41:53	6083238144727	0	0	0	0	0	0	0	0	0	0	0	0	0	0	0	0	0	0	0	0	3447010	0
90	2017-10-30 23:52:53	6083238144727	0	0	0	0	0	0	0	0	0	0	0	0	0	0	0	0	0	0	0	0	3447023	0
91	2017-10-31 00:20:56	6083238144727	0	0	0	0	0	0	0	0	0	0	0	0	0	0	0	0	0	0	0	0	3447039	0
92	2017-10-31 01:20:54	6083238144727	0	0	0	0	0	0	0	0	0	0	0	0	0	0	0	0	0	0	0	0	3447060	0
93	2017-10-31 02:20:58	6083238144727	0	0	0	0	0	0	0	0	0	0	0	0	0	0	0	0	0	0	0	0	3447066	0
94	2017-10-31 03:20:55	6083238144727	0	0	0	0	0	0	0	0	0	0	0	0	0	0	0	0	0	0	0	0	3447061	0
95	2017-10-31 04:20:55	6083238144727	0	0	0	0	0	0	0	0	0	0	0	0	0	0	0	0	0	0	0	0	3447057	0
96	2017-10-31 05:20:57	6083238144727	0	0	0	0	0	0	0	0	0	0	0	0	0	0	0	0	0	0	0	0	3447050	0
97	2017-10-31 06:20:56	6083238144727	0	0	0	0	0	0	0	0	0	0	0	0	0	0	0	0	0	0	0	0	3447049	0
98	2017-10-31 07:03:56	6083238144727	0	0	0	0	0	0	0	0	0	0	0	0	0	0	0	0	0	0	0	0	3447056	0
99	2017-10-31 07:14:57	6083238144727	0	0	0	0	0	0	0	0	0	0	0	0	0	0	0	0	0	0	0	0	3447056	0
100	2017-10-31 07:25:57	6083238144727	0	0	0	0	0	0	0	0	0	0	0	0	0	0	0	0	0	0	0	0	3447057	0
101	2017-10-31 07:37:15	6083238144727	0	0	0	0	0	0	0	0	0	0	0	0	0	0	0	0	0	0	0	0	3447064	0
102	2017-10-31 07:47:58	6083238144727	0	0	0	0	0	0	0	0	0	0	0	0	0	0	0	0	0	0	0	0	3447074	0
103	2017-10-31 07:59:02	6083238144727	0	0	0	0	0	0	0	0	0	0	0	0	0	0	0	0	0	0	0	0	3447079	0
104	2017-10-31 08:10:44	6083238144727	0	0	0	0	0	0	0	0	0	0	0	0	0	0	0	0	0	0	0	0	3447090	0
105	2017-10-31 08:21:12	6083238144727	0	0	0	0	0	0	0	0	0	0	0	0	0	0	0	0	0	0	0	0	3447093	0
106	2017-10-31 08:32:14	6083238144727	0	0	0	0	0	0	0	0	0	0	0	0	0	0	0	0	0	0	0	0	3447103	0
107	2017-10-31 08:43:14	6083238144727	0	0	0	0	0	0	0	0	0	0	0	0	0	0	0	0	0	0	0	0	3447117	0
108	2017-10-31 08:55:48	6083238144727	0	0	0	0	0	0	0	0	0	0	0	0	0	0	0	0	0	0	0	0	3447132	0
109	2017-10-31 09:05:15	6083238144727	0	0	0	0	0	0	0	0	0	0	0	0	0	0	0	0	0	0	0	0	3447139	0
110	2017-10-31 09:16:13	6083238144727	0	0	0	0	0	0	0	0	0	0	0	0	0	0	0	0	0	0	0	0	3447142	0
111	2017-10-31 09:27:16	6083238144727	0	0	0	0	0	0	0	0	0	0	0	0	0	0	0	0	0	0	0	0	3447152	0
112	2017-10-31 09:38:14	6083238144727	0	0	0	0	0	0	0	0	0	0	0	0	0	0	0	0	0	0	0	0	3447156	0
113	2017-10-31 09:49:16	6083238144727	0	0	0	0	0	0	0	0	0	0	0	0	0	0	0	0	0	0	0	0	3447169	0
114	2017-10-31 10:02:42	6083238144727	0	0	0	0	0	0	0	0	0	0	0	0	0	0	0	0	0	0	0	0	3447179	0
115	2017-10-31 10:11:15	6083238144727	0	0	0	0	0	0	0	0	0	0	0	0	0	0	0	0	0	0	0	0	3447182	0
116	2017-10-31 10:22:17	6083238144727	0	0	0	0	0	0	0	0	0	0	0	0	0	0	0	0	0	0	0	0	3447189	0
117	2017-10-31 10:33:19	6083238144727	0	0	0	0	0	0	0	0	0	0	0	0	0	0	0	0	0	0	0	0	3447191	0
118	2017-10-31 10:44:17	6083238144727	0	0	0	0	0	0	0	0	0	0	0	0	0	0	0	0	0	0	0	0	3447194	0
119	2017-10-31 10:55:41	6083238144727	0	0	0	0	0	0	0	0	0	0	0	0	0	0	0	0	0	0	0	0	3447196	0
120	2017-10-31 11:07:44	6083238144727	0	0	0	0	0	0	0	0	0	0	0	0	0	0	0	0	0	0	0	0	3447193	0
121	2017-10-31 11:18:29	6083238144727	0	0	0	0	0	0	0	0	0	0	0	0	0	0	0	0	0	0	0	0	3447198	0
122	2017-10-31 11:29:30	6083238144727	0	0	0	0	0	0	0	0	0	0	0	0	0	0	0	0	0	0	0	0	3447198	0
123	2017-10-31 11:40:30	6083238144727	0	0	0	0	0	0	0	0	0	0	0	0	0	0	0	0	0	0	0	0	3447197	0
124	2017-10-31 11:51:32	6083238144727	0	0	0	0	0	0	0	0	0	0	0	0	0	0	0	0	0	0	0	0	3447200	0
125	2017-10-31 12:02:27	6083238144727	0	0	0	0	0	0	0	0	0	0	0	0	0	0	0	0	0	0	0	0	3447199	0
126	2017-10-31 12:13:31	6083238144727	0	0	0	0	0	0	0	0	0	0	0	0	0	0	0	0	0	0	0	0	3447202	0
127	2017-10-31 12:24:42	6083238144727	0	0	0	0	0	0	0	0	0	0	0	0	0	0	0	0	0	0	0	0	3447213	0
128	2017-10-31 12:35:54	6083238144727	0	0	0	0	0	0	0	0	0	0	0	0	0	0	0	0	0	0	0	0	3447223	0
129	2017-10-31 12:46:51	6083238144727	0	0	0	0	0	0	0	0	0	0	0	0	0	0	0	0	0	0	0	0	3447246	0
130	2017-10-31 12:57:53	6083238144727	0	0	0	0	0	0	0	0	0	0	0	0	0	0	0	0	0	0	0	0	3447252	0
131	2017-10-31 13:09:57	6083238144727	0	0	0	0	0	0	0	0	0	0	0	0	0	0	0	0	0	0	0	0	3447259	0
132	2017-10-31 13:20:47	6083238144727	0	0	0	0	0	0	0	0	0	0	0	0	0	0	0	0	0	0	0	0	3447276	0
133	2017-10-31 13:31:47	6083238144727	0	0	0	0	0	0	0	0	0	0	0	0	0	0	0	0	0	0	0	0	3447278	0
134	2017-10-31 13:43:01	6083238144727	0	0	0	0	0	0	0	0	0	0	0	0	0	0	0	0	0	0	0	0	3447287	0
135	2017-10-31 13:57:54	6083238144727	0	0	0	0	0	0	0	0	0	0	0	0	0	0	0	0	0	0	0	0	3447302	0
136	2017-10-31 14:08:21	6083238144727	0	0	0	0	0	0	0	0	0	0	0	0	0	0	0	0	0	0	0	0	3447303	0
137	2017-10-31 14:19:22	6083238144727	0	0	0	0	0	0	0	0	0	0	0	0	0	0	0	0	0	0	0	0	3447307	0
138	2017-10-31 14:30:38	6083238144727	0	0	0	0	0	0	0	0	0	0	0	0	0	0	0	0	0	0	0	0	3447307	0
139	2017-10-31 14:43:22	6083238144727	16.4	3290	0.004985	9.08	4.98	4.985	1.04	14.87	0	67863	36244	23	62793	37265	37242	8831	13	40	6	35830	3447324	8890
140	2017-10-31 14:54:18	6083238144727	32.56	12810	0.002542	28.46	2.54	2.542	1.52	15.42	0	100018	45015	68	89101	57433	57365	21667	13	52	7	52343	3447344	21739
141	2017-10-31 15:05:21	6083238144727	35.38	14538	0.002434	30.77	2.43	2.434	1.78	17.31	0	115393	47241	94	100380	69726	69632	26608	14	57	9	61448	3447347	26688
142	2017-10-31 15:22:42	6083238144727	37.52	15389	0.002438	31.22	2.44	2.438	2.17	19	0	137406	49294	132	116840	88907	88775	32284	19	59	9	74670	3447370	32371
143	2017-10-31 15:33:42	6083238144727	38.24	15792	0.002421	31.57	2.42	2.421	2.47	17.89	0	154475	50016	182	129249	104567	104385	34498	20	65	9	85024	3447386	34592
144	2017-10-31 15:44:42	6083238144727	38.79	16063	0.002415	31.71	2.42	2.415	2.61	19.71	0	162820	50657	197	134735	112320	112123	38203	20	68	9	90040	3447397	38300
145	2017-10-31 15:55:42	6083238144727	39.54	16345	0.002419	31.84	2.42	2.419	2.77	19.7	0	170140	51327	223	141584	119142	118919	39816	23	73	9	95640	3447412	39921
146	2017-10-31 16:06:44	6083238144727	39.91	16519	0.002416	31.84	2.42	2.416	2.91	19.87	0	178364	51889	274	147466	126830	126556	41722	25	77	9	100470	3447417	41833
147	2017-10-31 16:17:41	6083238144727	40.26	16699	0.002411	31.93	2.41	2.411	3.14	19.04	0	191691	52293	346	155318	139394	139048	43241	26	79	9	108080	3447431	43355
148	2017-10-31 16:28:45	6083238144727	40.66	16865	0.002411	32.02	2.41	2.411	3.25	20.06	0	198581	52672	386	160277	145928	145542	46134	26	80	9	111871	3447434	46249
149	2017-10-31 16:39:45	6083238144727	41.02	16957	0.002419	31.94	2.42	2.419	3.35	20.06	0	204081	53085	425	162981	151145	150720	47278	27	80	10	115516	3447435	47395
150	2017-10-31 16:50:51	6083238144727	41.31	17106	0.002415	32.06	2.42	2.415	3.45	20.07	0	210214	53354	448	166602	156955	156507	48607	27	81	10	118965	3447445	48725
151	2017-10-31 16:54:36	6083238144727	41.4	17147	0.002414	32.07	2.41	2.414	3.56	19.38	0	215804	53473	481	166602	162296	161815	48607	27	82	10	122583	3447448	48726
152	2017-10-31 17:05:27	6083238144727	41.67	17259	0.002414	32.08	2.41	2.414	3.66	20.15	0	221350	53799	515	174467	167584	167069	51028	28	83	11	126126	3447450	51150
153	2017-10-31 17:09:51	6083238144727	41.72	17259	0.002417	32.02	2.42	2.417	3.66	20.15	0	221350	53908	515	174467	167584	167069	51028	28	83	11	126126	3447457	51150
154	2017-10-31 17:20:49	6083238144727	41.87	17413	0.002405	32.13	2.4	2.405	3.74	20.09	0	226948	54202	551	177071	172912	172361	52145	28	84	12	129032	3447472	52269
155	2017-10-31 17:31:50	6083238144727	42.08	17524	0.002401	32.15	2.4	2.401	3.93	19.62	0	237078	54514	598	184380	182554	181956	53347	28	86	12	135316	3447490	53473
156	2017-10-31 17:42:49	6083238144727	42.18	17571	0.002401	32.13	2.4	2.401	3.98	19.62	0	242009	54688	623	185763	187292	186669	54325	28	87	12	137265	3447485	54452
157	2017-10-31 17:53:49	6083238144727	42.34	17656	0.002398	32.15	2.4	2.398	4.03	20.18	0	246891	54923	646	187561	191986	191340	56398	30	89	12	138983	3447482	56529
158	2017-10-31 18:04:55	6083238144727	42.5	17753	0.002394	32.16	2.39	2.394	4.1	20.17	0	251044	55203	674	190769	195958	195284	57278	31	90	13	141418	3447476	57412
159	2017-10-31 18:15:50	6083238144727	42.73	17808	0.002399	32.12	2.4	2.399	4.19	20.2	0	255615	55442	709	193850	200322	199613	58282	32	93	13	144453	3447485	58420
160	2017-10-31 18:26:50	6083238144727	42.86	17888	0.002396	32.15	2.4	2.396	4.28	20.24	0	262960	55631	765	197430	207331	206566	59849	33	96	13	147725	3447495	59991
161	2017-10-31 18:37:50	6083238144727	42.97	17961	0.002392	32.18	2.39	2.392	4.37	20.22	0	266918	55809	804	200530	211123	210319	60657	33	98	14	150705	3447508	60802
162	2017-10-31 18:48:50	6083238144727	43.07	18021	0.00239	32.2	2.39	2.39	4.44	20.25	0	270860	55973	832	202942	214919	214087	61536	33	100	15	152965	3447516	61684
163	2017-10-31 18:53:32	6083238144727	43.11	18043	0.002389	32.19	2.39	2.389	4.44	20.24	0	270860	56046	832	202942	214919	214087	61536	33	100	15	152965	3447519	61684
164	2017-10-31 18:59:51	6083238144727	43.17	18067	0.002389	32.09	2.39	2.389	4.55	20.26	0	274856	56294	869	206835	218742	217873	62393	34	100	16	156729	3447521	62543
165	2017-10-31 19:10:55	6083238144727	43.7	18420	0.002372	29.21	2.37	2.372	4.81	19.89	0	288904	63066	914	219199	225015	224101	63166	37	106	16	165979	3447531	63325
166	2017-10-31 19:21:57	6083238144727	48.42	23738	0.00204	30.04	2.04	2.04	5.05	17.97	0	304931	79017	946	219199	228067	227121	64731	39	115	17	174084	3447536	64902
167	2017-10-31 19:32:50	6083238144727	51.22	27840	0.00184	32.13	1.84	1.84	5.22	19.85	0	315537	86644	991	241634	231462	230471	73784	39	123	17	180092	3447543	73963
168	2017-10-31 19:43:51	6083238144727	52.37	29250	0.00179	31.39	1.79	1.79	5.36	20.02	0	323224	93194	1034	246577	234874	233840	76268	40	130	19	184675	3447564	76457
169	2017-10-31 19:54:51	6083238144727	54.79	32838	0.001668	30.41	1.67	1.668	5.76	18.96	0	351347	107967	1116	270386	241756	240640	78671	45	134	20	198541	3447578	78870
170	2017-10-31 20:05:52	6083238144727	58.28	38571	0.001511	32.29	1.51	1.511	5.91	20.28	0	364492	119456	1167	281259	245156	243989	88295	48	144	21	203823	3447593	88508
171	2017-10-31 20:16:50	6083238144727	59.85	41625	0.001438	32.95	1.44	1.438	6.03	20.04	0	374093	126331	1218	289489	248782	247564	91483	51	150	22	207783	3447606	91706
172	2017-10-31 20:27:56	6083238144727	61.16	43495	0.001406	31.78	1.41	1.406	6.23	20.14	0.01	384999	136844	1282	299683	252189	250907	94282	52	162	24	214763	3447608	94520
173	2017-10-31 20:38:51	6083238144727	62.59	47239	0.001325	32.03	1.32	1.325	6.33	19.54	0.01	395440	147499	1328	307960	254871	253543	97048	53	172	28	218064	3447612	97301
174	2017-10-31 20:49:51	6083238144727	63.85	50448	0.001266	32.61	1.27	1.266	6.72	19.29	0.01	415575	154683	1421	329780	260620	259199	100714	54	175	28	231821	3447621	100971
175	2017-10-31 21:00:50	6083238144727	65.42	53414	0.001225	32.12	1.22	1.225	6.89	19.97	0.01	426840	166312	1472	337380	263818	262346	106101	55	183	29	237439	3447625	106368
176	2017-10-31 21:11:51	6083238144727	67.18	56280	0.001194	31.41	1.19	1.194	7.03	20.15	0.01	441506	179171	1560	347787	267140	265580	110119	59	189	31	242430	3447627	110398
177	2017-10-31 21:22:50	6083238144727	69.48	61515	0.001129	31.6	1.13	1.129	7.21	19.55	0.01	456579	194660	1659	361618	270360	268701	114357	65	202	31	248494	3447635	114655
178	2017-10-31 21:33:51	6083238144727	72.6	67313	0.001079	31.99	1.08	1.079	7.37	18.92	0.01	472103	210410	1718	373229	273207	271489	119000	69	214	32	254105	3447646	119315
179	2017-10-31 21:44:51	6083238144727	75.19	71091	0.001058	31.64	1.06	1.058	7.67	18.92	0.01	502357	224657	1889	395203	279349	277460	123957	69	223	34	264394	3447646	124283
180	2017-10-31 21:55:51	6083238144727	77.56	76300	0.001017	32.05	1.02	1.017	7.86	19.79	0.01	514838	238045	1966	404582	282131	280165	132134	77	225	34	270950	3447653	132470
181	2017-10-31 22:06:49		0	0	0	0	0	0	8.08	25.63	0.01	532384	243972	2203	420102	288412	286209	136467	78	231	34	278474	3447658	136810
182	2017-10-31 22:17:50		0	0	0	0	0	0	8.12	25.86	0.01	536226	244720	2270	421331	291506	289236	138653	78	234	35	279947	3447656	139000
183	2017-10-31 22:28:49		0	0	0	0	0	0	8.18	26.03	0.01	539714	245188	2337	424457	294526	292189	140480	78	234	35	282041	3447659	140827
184	2017-10-31 22:39:56		0	0	0	0	0	0	8.35	25.85	0.01	546920	246050	2452	431592	300870	298418	141406	79	237	35	287972	3447657	141757
185	2017-10-31 22:50:50		0	0	0	0	0	0	8.41	25.97	0.01	550369	246333	2521	433586	304036	301515	142918	80	240	35	289859	3447658	143273
186	2017-10-31 23:01:50		0	0	0	0	0	0	8.47	25.95	0.01	553470	246562	2572	434286	306908	304336	143638	81	240	35	292087	3447653	143994
187	2017-10-31 23:12:50		0	0	0	0	0	0	8.58	25.92	0.01	557193	246776	2643	437414	310417	307774	144433	81	241	35	295749	3447651	144790
188	2017-10-31 23:23:49		0	0	0	0	0	0	8.75	25.73	0.01	564648	247186	2756	444032	317462	314706	145307	81	245	36	301678	3447648	145669
189	2017-10-31 23:34:49		0	0	0	0	0	0	8.82	25.74	0.01	567553	247322	2804	446594	320231	317427	146110	81	245	36	303988	3447648	146472
190	2017-10-31 23:45:50		0	0	0	0	0	0	8.88	25.85	0.01	570193	247458	2849	448616	322735	319886	147401	82	247	36	306008	3447646	147766
191	2017-10-31 23:56:49		0	0	0	0	0	0	8.99	25.72	0.01	575172	247699	2892	453403	327473	324581	147924	82	248	36	309956	3447645	148290
192	2017-11-01 00:40:51		0	0	0	0	0	0	9.22	25.7	0.01	586277	248076	3048	461285	338201	335153	150670	84	256	36	317779	3447650	151046
193	2017-11-01 01:40:51		0	0	0	0	0	0	9.35	25.64	0.01	595761	248277	3183	466172	347484	344301	152728	85	259	36	322223	3447643	153108
194	2017-11-01 02:40:52		0	0	0	0	0	0	9.46	25.59	0.01	600811	248363	3276	469762	352448	349172	153759	85	260	37	326221	3447637	154141
195	2017-11-01 03:40:51		0	0	0	0	0	0	9.54	25.59	0.01	603502	248397	3322	472756	355105	351783	154448	86	261	37	328845	3447629	154832
196	2017-11-01 04:40:52		0	0	0	0	0	0	9.55	25.58	0.01	606342	248399	3376	473851	357943	354567	155077	87	264	37	329374	3447627	155465
197	2017-11-01 05:40:51		0	0	0	0	0	0	9.59	25.56	0.01	609514	248399	3445	475670	361115	357670	155812	87	265	37	330782	3447620	156201
198	2017-11-01 06:40:52		0	0	0	0	0	0	9.74	25.52	0.01	617227	248399	3564	480841	368828	365264	157529	87	269	37	335913	3447613	157922
199	2017-11-01 07:07:53		0	0	0	0	0	0	9.85	25.43	0.01	622377	248399	3669	484984	373978	370309	158252	88	271	37	339542	3447613	158648
200	2017-11-01 07:18:54		0	0	0	0	0	0	9.86	25.48	0.01	624578	248399	3709	485326	376179	372470	159144	88	271	37	339858	3447615	159540
201	2017-11-01 07:29:55		0	0	0	0	0	0	9.91	25.47	0.01	626377	248399	3755	488272	377978	374223	159558	88	273	37	341677	3447614	159956
202	2017-11-01 07:40:53		0	0	0	0	0	0	9.95	25.46	0.01	628348	248399	3796	490282	379949	376153	159962	89	273	37	343040	3447615	160361
203	2017-11-01 07:52:24		0	0	0	0	0	0	9.97	25.44	0.01	630347	248399	3835	490593	381948	378113	160377	89	273	37	343630	3447615	160776
204	2017-11-01 08:03:19		0	0	0	0	0	0	9.98	25.42	0.01	632691	248399	3869	491489	384292	380423	160860	90	274	37	344232	3447623	161261
205	2017-11-01 08:14:20		0	0	0	0	0	0	10.01	25.41	0.01	634881	248399	3897	493093	386482	382585	161321	90	274	37	345018	3447614	161722
206	2017-11-01 08:25:18		0	0	0	0	0	0	10.06	25.4	0.01	637020	248399	3935	494037	388621	384686	161778	91	275	37	346873	3447616	162181
207	2017-11-01 08:36:23		0	0	0	0	0	0	10.08	25.29	0.01	641665	248399	4020	495827	393266	389246	162278	91	275	37	347416	3447611	162681
208	2017-11-01 08:47:23		0	0	0	0	0	0	10.13	25.26	0.01	644055	248399	4061	497840	395656	391595	162717	91	276	37	349373	3447610	163121
209	2017-11-01 08:59:01		0	0	0	0	0	0	10.19	25.3	0.01	646624	248399	4105	500455	398225	394120	163597	92	277	37	351296	3447611	164003
210	2017-11-01 09:09:36		0	0	0	0	0	0	10.27	25.28	0.01	648801	248399	4141	502241	400402	396261	164003	92	278	37	354108	3447614	164410
211	2017-11-01 09:20:38		0	0	0	0	0	0	10.32	25.25	0.01	651438	248399	4187	504163	403039	398852	164463	92	279	37	355674	3447626	164871
212	2017-11-01 09:31:35		0	0	0	0	0	0	10.36	25.23	0.01	653573	248399	4229	506244	405174	400945	164867	93	280	37	357058	3447634	165277
213	2017-11-01 09:42:42		0	0	0	0	0	0	10.37	25.21	0.01	655720	248399	4271	506866	407321	403050	165279	93	281	37	357532	3447665	165690
214	2017-11-01 09:53:41		0	0	0	0	0	0	10.39	25.18	0.01	657891	248399	4316	507822	409492	405176	165686	93	283	37	358256	3447676	166099
215	2017-11-01 10:04:39		0	0	0	0	0	0	10.44	25.17	0.01	659713	248399	4348	508405	411314	406966	166038	93	284	37	359922	3447679	166452
216	2017-11-01 10:15:47		0	0	0	0	0	0	10.45	25.08	0.01	663399	248399	4414	509409	415000	410586	166361	93	284	37	360131	3447692	166775
217	2017-11-01 10:26:40		0	0	0	0	0	0	10.58	25.07	0.01	665103	248399	4442	511259	416704	412262	166741	94	284	37	364756	3447725	167156
218	2017-11-01 10:37:41		0	0	0	0	0	0	10.59	25.1	0.01	666927	248399	4475	511259	418528	414053	167383	94	286	37	365229	3447746	167800
219	2017-11-01 10:49:08		0	0	0	0	0	0	10.6	25.08	0.01	668644	248399	4500	511428	420245	415745	167698	94	287	37	365315	3447769	168116
220	2017-11-01 11:00:06		0	0	0	0	0	0	10.63	25.06	0.01	670291	248399	4521	511935	421892	417371	168008	94	287	37	366613	3447798	168426
221	2017-11-01 11:11:05		0	0	0	0	0	0	10.66	25.05	0.01	672091	248399	4556	513911	423692	419136	168337	94	287	37	367625	3447813	168755
222	2017-11-01 11:23:42		0	0	0	0	0	0	10.71	25.02	0.01	675062	248399	4610	515274	426663	422053	168926	95	287	37	369200	3447837	169345
223	2017-11-01 11:34:04		0	0	0	0	0	0	10.73	25.01	0.01	676563	248399	4647	515961	428164	423517	169217	96	289	37	369817	3447848	169639
224	2017-11-01 11:45:06		0	0	0	0	0	0	10.75	25	0.01	678129	248399	4677	517254	429730	425053	169507	97	290	37	370481	3447868	169931
225	2017-11-01 11:58:16		0	0	0	0	0	0	10.78	24.98	0.01	679727	248399	4707	518770	431328	426621	169811	98	292	37	371704	3447893	170238
226	2017-11-01 12:08:48		0	0	0	0	0	0	10.8	24.97	0.01	681225	248399	4743	518846	432826	428083	170102	98	295	37	372280	3447910	170532
227	2017-11-01 12:19:49		0	0	0	0	0	0	10.81	24.96	0.01	682557	248399	4765	519454	434158	429393	170346	98	296	37	372592	3447935	170777
228	2017-11-01 12:34:19		0	0	0	0	0	0	10.89	24.9	0.01	685233	248399	4815	521422	436834	432019	170614	99	296	37	375644	3447950	171046
229	2017-11-01 12:42:07		0	0	0	0	0	0	10.9	24.92	0.01	686631	248399	4842	521642	438232	433390	171140	100	296	37	375758	3447967	171573
230	2017-11-01 12:53:08		0	0	0	0	0	0	10.93	24.91	0.01	688117	248399	4864	523715	439718	434854	171422	101	297	37	376832	3447985	171857
231	2017-11-01 13:12:56		0	0	0	0	0	0	10.97	24.89	0.01	690837	248399	4920	524514	442438	437518	171949	102	297	37	378121	3448036	172385
232	2017-11-01 13:20:12		0	0	0	0	0	0	10.98	24.88	0.01	692193	248399	4945	525226	443794	438849	172201	102	299	37	378583	3448059	172639
233	2017-11-01 13:31:14		0	0	0	0	0	0	10.98	24.87	0.01	693256	248399	4967	525582	444857	439890	172443	102	300	37	378768	3448087	172882
234	2017-11-01 13:42:30		0	0	0	0	0	0	11.01	24.87	0.01	694226	248399	4995	527103	445827	440832	172639	102	300	37	379604	3448111	173078
235	2017-11-01 13:55:42		0	0	0	0	0	0	11.01	24.86	0.01	695144	248399	5025	527373	446745	441720	172833	102	300	37	379744	3448125	173272
236	2017-11-01 14:05:34		0	0	0	0	0	0	11.01	24.86	0.01	696004	248399	5041	527463	447605	442564	173009	102	300	37	379790	3448142	173448
237	2017-11-01 14:16:38		0	0	0	0	0	0	11.05	24.84	0.01	697971	248399	5107	529062	449572	444465	173374	102	301	37	381181	3448156	173814
238	2017-11-01 14:29:42		0	0	0	0	0	0	11.05	24.83	0.01	699309	248399	5136	529062	450910	445774	173610	103	301	37	381181	3448171	174051
239	2017-11-01 14:47:51		0	0	0	0	0	0	11.08	24.79	0.01	701281	248399	5197	529954	452882	447685	173840	103	301	37	381973	3448221	174281
240	2017-11-01 15:03:02		0	0	0	0	0	0	11.11	24.81	0.01	702232	248399	5224	530305	453833	448609	174234	103	301	37	383102	3448252	174675
241	2017-11-01 15:14:24		0	0	0	0	0	0	11.12	24.81	0.01	703119	248399	5242	530305	454720	449478	174415	103	302	37	383280	3448294	174857
242	2017-11-01 15:29:57		0	0	0	0	0	0	11.13	24.8	0.01	704686	248399	5286	531215	456287	451001	174771	104	303	37	383945	3448341	175215
243	2017-11-01 15:44:14		0	0	0	0	0	0	11.13	24.8	0.01	705541	248399	5308	531215	457142	451834	174953	104	303	37	383945	3448375	175397
244	2017-11-01 16:01:20		0	0	0	0	0	0	11.14	24.76	0.01	707294	248399	5348	531306	458895	453547	175156	104	304	37	383993	3448424	175601
245	2017-11-01 16:11:40		0	0	0	0	0	0	11.15	24.79	0.01	708049	248399	5374	531443	459650	454276	175494	104	304	38	384446	3448462	175940
246	2017-11-01 16:28:03		0	0	0	0	0	0	11.16	24.78	0.01	709627	248399	5419	531945	461228	455809	175835	104	305	38	384708	3448515	176282
