1	2018-04-12 10:03:03		0	0	0	0	0	0	0.06	10.11	0.01	2840	0	20	2155	2840	2840	287	0	10	1	2096	3672036	298
2	2018-04-12 10:13:34		0	0	0	0	0	0	0.44	12.29	0	22220	0	54	16666	22220	22220	2731	1	20	5	16113	3672051	2757
3	2018-04-12 10:24:04	6099318239676	0	0	0	0	0	0	0.63	12.53	0	31751	0	76	23733	31751	31751	3979	2	25	5	23018	3672057	4011
4	2018-04-12 10:34:34	6099318239676	0	0	0	0	0	0	0.79	12.62	0	40345	0	120	29987	40345	40345	5093	2	27	5	29091	3672064	5127
5	2018-04-12 10:45:05	6099318239676	0	0	0	0	0	0	0.93	12.47	0	48360	0	145	35202	48360	48360	6029	3	31	5	34093	3672077	6068
6	2018-04-12 10:55:38	6099318239676	0.01	0	0	0	0	0	1.03	0	0	55517	77	189	39070	0	55481	6913	3	32	5	37968	3672090	6953
7	2018-04-12 11:06:10	6099318239676	5.77	816	0.007071	10.15	7.07	7.071	1.18	0	0	68150	8037	208	49930	0	61670	8749	4	34	5	43245	3672098	8792
8	2018-04-12 11:16:43	6099318239676	6.75	1462	0.004617	15.49	4.62	4.617	1.31	0	0	76878	9437	236	56700	0	67800	9946	4	36	7	48264	3672106	9993
9	2018-04-12 11:27:11	6099318239676	7.18	1715	0.004187	17.14	4.19	4.187	1.43	0	0	83746	10004	247	61742	0	73947	10735	4	37	7	52452	3672111	10783
10	2018-04-12 11:37:39	6099318239676	7.6	1832	0.004148	17.2	4.15	4.148	1.53	0	0	89717	10654	274	65880	0	79450	11455	4	39	7	56122	3672117	11505
11	2018-04-12 11:48:12	6099318239676	9.2	2026	0.004541	15.21	4.54	4.541	1.63	0	0	96159	13316	303	71355	0	84329	12252	5	42	7	59937	3672121	12306
12	2018-04-12 11:58:47	6099318239676	20.7	3264	0.006342	10.5	6.34	6.342	1.9	0	0	122802	31093	352	97414	0	91244	15746	9	57	8	69887	3672126	15820
13	2018-04-12 12:09:14	6099318239676	33.95	6954	0.004882	13.28	4.88	4.882	2.09	0	0	147654	52358	387	120623	0	95407	19267	13	74	8	76894	3672136	19362
14	2018-04-12 12:19:42	6099318239676	45.53	9215	0.004941	12.92	4.94	4.941	2.27	0	0	169812	71313	433	142051	0	99065	22325	13	81	8	83443	3672149	22427
15	2018-04-12 12:30:12	6099318239676	54.99	12022	0.004574	13.8	4.57	4.574	2.42	0	0	187292	87132	482	156048	0	102715	24881	20	95	11	88758	3672161	25007
16	2018-04-12 12:40:43	6099318239676	59.84	13297	0.0045	13.93	4.5	4.5	2.54	0	0	199381	95435	527	163347	0	106091	26646	22	102	12	93274	3672168	26782
17	2018-04-12 12:51:13	6099318239676	63.14	14586	0.004329	14.42	4.33	4.329	2.63	0	0.01	209014	101144	590	177214	0	109465	27965	25	102	13	96491	3672176	28105
18	2018-04-12 13:01:45	6099318239676	65.58	15452	0.004244	14.67	4.24	4.244	2.76	0	0.01	216957	105329	653	184072	0	112836	29031	26	110	13	101520	3672190	29180
19	2018-04-12 13:12:20	6099318239676	68.07	15910	0.004278	14.52	4.28	4.278	2.85	0	0.01	223948	109584	708	190081	0	115755	29927	26	110	13	104680	3672197	30076
20	2018-04-12 13:22:47	6099318239676	70.7	16694	0.004235	14.63	4.24	4.235	2.95	0	0.01	231201	114084	764	197902	0	118847	30900	28	117	14	108358	3672203	31059
21	2018-04-12 13:33:17	6099318239676	74.16	17613	0.004211	14.68	4.21	4.211	3.04	0	0.01	238792	119980	853	202586	0	121737	31936	30	128	14	111560	3672211	32108
22	2018-04-12 13:43:56	6099318239676	79.03	18465	0.00428	14.38	4.28	4.28	3.26	0	0.01	255631	128415	892	217808	0	126613	34111	30	143	15	119596	3672216	34299
23	2018-04-12 13:54:18	6099318239676	85.52	19975	0.004281	14.3	4.28	4.281	3.42	0	0.01	268254	139733	936	225414	0	130041	35732	31	149	18	125764	3672226	35930
24	2018-04-12 14:04:49	6099318239676	90.94	21083	0.004313	14.13	4.31	4.313	3.58	0	0.01	281563	149177	995	244171	0	134051	37514	34	161	19	131382	3672233	37728
25	2018-04-12 14:15:18	6099318239676	97.23	22703	0.004283	14.2	4.28	4.283	3.69	0	0.01	295022	159931	1067	249654	0	137679	39311	36	175	20	135485	3672241	39542
26	2018-04-12 14:25:49	6099318239676	105.12	24722	0.004252	14.3	4.25	4.252	3.82	0	0.01	310749	172925	1141	269713	0	140996	41403	39	187	20	140355	3672247	41649
27	2018-04-12 14:36:19	6099318239676	113.73	26252	0.004332	14.02	4.33	4.332	3.98	0	0.01	327680	187273	1190	284591	0	144340	43725	43	199	21	146248	3672255	43988
28	2018-04-12 14:46:50	6099318239676	122.88	28760	0.004273	14.2	4.27	4.273	4.13	0	0.01	345700	202525	1243	302604	0	147597	46280	45	221	24	151672	3672268	46570
29	2018-04-12 14:57:20	6099318239676	131.44	30542	0.004304	14.04	4.3	4.304	4.29	0	0.01	363947	217546	1292	320615	0	150854	48798	47	235	24	157452	3672279	49104
30	2018-04-12 15:08:09	6099318239676	140.3	33046	0.004246	14.16	4.25	4.246	4.43	0	0.01	381063	233301	1353	335296	0	154093	51295	50	240	24	162765	3672284	51609
31	2018-04-12 15:18:24	6099318239676	147.16	35272	0.004172	14.37	4.17	4.172	4.58	0	0.01	396622	245525	1491	351412	0	157524	54612	54	255	25	168257	3672297	54946
32	2018-04-12 15:28:54	6099318239676	154.02	36763	0.00419	14.26	4.19	4.19	4.78	0	0.01	419688	257715	1568	377825	0	162655	56797	57	268	27	175462	3672307	57149
33	2018-04-12 15:39:23	6099318239676	161.04	38880	0.004142	14.38	4.14	4.142	4.88	0	0.01	434828	270345	1651	391590	0	165660	58974	60	281	28	179193	3672316	59343
34	2018-04-12 15:49:53	6099318239676	168.47	41238	0.004085	14.53	4.08	4.085	5	0	0.01	451033	283823	1729	402416	0	168693	61341	63	296	28	183767	3672325	61728
35	2018-04-12 16:00:27	6099318239676	175.8	42818	0.004106	14.43	4.11	4.106	5.06	0	0.01	466697	296750	1802	415523	0	171725	63628	65	307	30	185835	3672320	64030
36	2018-04-12 16:11:04	6099318239676	183.04	45124	0.004056	14.57	4.06	4.056	5.17	0	0.01	481905	309618	1874	433389	0	174640	65947	66	318	31	189700	3672328	66362
37	2018-04-12 16:21:25	6099318239676	190.3	46629	0.004081	14.47	4.08	4.081	5.31	0	0.01	497317	322321	1940	447482	0	177472	68203	71	333	33	195008	3672335	68640
38	2018-04-12 16:31:55	6099318239676	197.38	49005	0.004028	14.63	4.03	4.028	5.41	0	0.01	512612	334939	2006	466899	0	180381	70475	74	342	33	198496	3672341	70924
39	2018-04-12 16:42:25	6099318239676	206.37	51268	0.004025	14.63	4.03	4.025	5.52	0	0.01	527333	350344	2099	478676	0	183269	72756	79	358	32	202635	3672346	73225
40	2018-04-12 16:52:56	6099318239676	216.86	53015	0.004091	14.39	4.09	4.091	5.63	0	0.01	544529	368455	2191	492461	0	186216	75273	84	383	34	206675	3672362	75774
41	2018-04-12 17:03:27	6099318239676	229.82	56689	0.004054	14.5	4.05	4.054	5.88	0	0.01	581547	390877	2388	527261	0	190555	80599	90	407	35	215973	3672382	81131
42	2018-04-12 17:13:58	6099318239676	240.43	59128	0.004066	14.44	4.07	4.066	6.06	0	0.01	602360	409417	2519	544400	0	193301	83646	94	425	37	222659	3672404	84202
43	2018-04-12 17:24:30	6099318239676	249.21	62149	0.00401	14.63	4.01	4.01	6.15	0	0.01	620047	424775	2671	551533	0	196109	86327	97	444	37	225737	3672417	86905
44	2018-04-12 17:35:02	6099318239676	257.12	64669	0.003976	14.75	3.98	3.976	6.24	0	0.01	636380	438430	2807	574548	0	198960	88704	100	453	37	229244	3672423	89294
45	2018-04-12 17:45:30	6099318239676	265.09	66305	0.003998	14.67	4	3.998	6.36	0	0.01	652506	452033	2941	591146	0	201647	91074	102	480	37	233434	3672438	91693
46	2018-04-12 17:56:00	6099318239676	275.24	68921	0.003994	14.67	3.99	3.994	6.49	0	0.02	671553	469729	3094	604210	0	204379	93744	103	500	37	238174	3672449	94384
47	2018-04-12 18:06:31	6099318239676	289.47	72377	0.003999	14.62	4	3.999	6.6	0	0.02	695336	495076	3242	624993	0	207260	97036	109	512	38	242546	3672459	97695
48	2018-04-12 18:17:00	6099318239676	301.73	74679	0.00404	14.43	4.04	4.04	6.82	0	0.02	718983	517554	3368	645325	0	209882	100235	111	531	40	250548	3672471	100917
49	2018-04-12 18:27:33	6099318239676	313.68	78256	0.004008	14.51	4.01	4.008	6.94	0	0.02	743933	539207	3492	669045	0	212554	103611	113	550	43	255049	3672490	104317
50	2018-04-12 18:38:02	6099318239676	323.41	80296	0.004028	14.41	4.03	4.028	7	0	0.02	765191	557106	3620	685352	0	215174	106463	117	568	44	256914	3672495	107192
51	2018-04-12 18:48:35	6099318239676	332.3	83118	0.003998	14.49	4	3.998	7.17	0	0.02	793766	573573	3797	715805	0	219282	110362	121	587	44	263439	3672508	111114
52	2018-04-12 18:59:07	6099318239676	340.82	85676	0.003978	14.53	3.98	3.978	7.26	0	0.02	812004	589565	3949	727141	0	222078	112823	123	605	46	266717	3672529	113597
53	2018-04-12 19:09:38	6099318239676	349.18	87442	0.003993	14.45	3.99	3.993	7.4	0	0.02	830163	605156	4078	739990	0	224877	115238	125	623	46	271863	3672540	116032
54	2018-04-12 19:20:11	6099318239676	357.22	89846	0.003976	14.48	3.98	3.976	7.59	0	0.02	847976	620525	4199	759747	0	227601	117566	126	641	48	278844	3672559	118381
55	2018-04-12 19:30:40	6099318239676	367.45	91446	0.004018	14.28	4.02	4.018	7.68	0	0.02	866594	640178	4358	775126	0	230403	119937	131	667	48	282192	3672572	120783
56	2018-04-12 19:41:09	6099318239676	376.64	94019	0.004006	14.29	4.01	4.006	7.76	0	0.02	886416	657799	4487	789240	0	233206	122455	135	693	49	284957	3672590	123332
57	2018-04-12 19:51:38	6099318239676	385.65	96620	0.003991	14.31	3.99	3.991	7.88	0	0.02	906541	675357	4643	806745	0	235817	124935	137	714	49	289408	3672614	125835
58	2018-04-12 20:02:13	6099318239676	394.07	98319	0.004008	14.21	4.01	4.008	7.99	0	0.02	925604	692038	4790	827659	0	238454	127330	140	731	50	293535	3672624	128251
59	2018-04-12 20:12:40	6099318239676	403.11	100877	0.003996	14.21	4	3.996	8.11	0	0.02	944869	709667	4926	839247	0	240899	129761	143	761	50	297984	3672645	130715
60	2018-04-12 20:23:11	6099318239676	412.83	103687	0.003982	14.23	3.98	3.982	8.29	0	0.02	965669	728850	5091	864888	0	243504	132343	148	789	52	304587	3672657	133332
61	2018-04-12 20:33:42	6099318239676	422.67	105551	0.004004	14.11	4	4.004	8.39	0	0.02	997989	748035	5339	887805	0	247371	136332	151	815	54	308141	3672657	137352
62	2018-04-12 20:44:11	6099318239676	434.13	108264	0.00401	14.05	4.01	4.01	8.48	0	0.02	1018869	770565	5523	903115	0	250130	138932	156	842	55	311332	3672668	139985
63	2018-04-12 20:54:43	6099318239676	443.33	109996	0.00403	13.95	4.03	4.03	8.61	0	0.02	1039216	788511	5677	922651	0	252837	141384	157	868	60	316225	3672681	142469
64	2018-04-12 21:05:14	6099318239676	452.62	112634	0.004019	13.96	4.02	4.019	8.71	0	0.02	1059625	806829	5841	944197	0	255396	143914	159	889	61	319983	3672695	145023
65	2018-04-12 21:15:45	6099318239676	462.35	115384	0.004007	13.97	4.01	4.007	8.76	0	0.02	1081099	826033	5966	965476	0	257938	146531	161	920	62	321833	3672713	147674
66	2018-04-12 21:26:16	6099318239676	470.59	117053	0.00402	13.89	4.02	4.02	8.83	0	0.02	1100083	842526	6126	977043	0	260632	148847	166	948	63	324429	3672726	150024
67	2018-04-12 21:36:46	6099318239676	479.44	119542	0.004011	13.9	4.01	4.011	8.92	0	0.02	1119559	859842	6299	992939	0	263407	151273	169	979	64	327482	3672746	152485
68	2018-04-12 21:47:16	6099318239676	488.97	122142	0.004003	13.91	4	4.003	8.99	0	0.02	1140100	878373	6444	1014223	0	266069	153733	173	1007	65	330145	3672763	154978
69	2018-04-12 21:57:46	6099318239676	500.67	124043	0.004036	13.76	4.04	4.036	9.1	0	0.02	1161920	901757	6611	1035028	0	268676	156421	173	1039	67	334325	3672778	157700
70	2018-04-12 22:08:17	6099318239676	511.39	126924	0.004029	13.75	4.03	4.029	9.25	0	0.02	1183940	923215	6778	1058141	0	271216	159151	179	1081	68	339590	3672802	160479
71	2018-04-12 22:18:47	6099318239676	521.07	128993	0.00404	13.68	4.04	4.04	9.39	0	0.03	1217162	942852	7029	1084121	0	274479	163265	182	1110	69	344948	3672818	164626
72	2018-04-12 22:29:17	6099318239676	530.85	131880	0.004025	13.7	4.03	4.025	9.52	0	0.03	1239511	962877	7238	1102798	0	277089	166082	187	1140	69	349641	3672841	167478
73	2018-04-12 22:39:48	6099318239676	541.54	135051	0.00401	13.71	4.01	4.01	9.6	0	0.03	1263109	984801	7460	1116971	0	279710	169053	191	1166	70	352564	3672861	170480
74	2018-04-12 22:50:20	6099318239676	552.3	137248	0.004024	13.63	4.02	4.024	9.75	0	0.03	1287613	1007074	7665	1136027	0	282352	172182	192	1205	71	358192	3672883	173650
75	2018-04-12 23:00:51	6099318239676	562.48	140416	0.004006	13.66	4.01	4.006	9.92	0	0.03	1310926	1028215	7832	1161666	0	284950	175259	194	1239	73	364243	3672887	176765
76	2018-04-12 23:11:17	6099318239676	571.83	142590	0.00401	13.61	4.01	4.01	9.98	0	0.03	1332662	1047477	8002	1177704	0	287401	178000	198	1267	77	366418	3672907	179542
77	2018-04-12 23:21:46	6099318239676	581.02	145238	0.004	13.62	4	4	10.06	0	0.03	1350773	1066382	8191	1189838	0	289799	180486	203	1292	78	369465	3672926	182059
78	2018-04-12 23:32:18	6099318239676	588.95	147751	0.003986	13.65	3.99	3.986	10.11	0	0.03	1368077	1082200	8362	1201118	0	291952	182848	206	1315	79	371391	3672946	184448
79	2018-04-12 23:42:48	6099318239676	594.36	149418	0.003978	13.67	3.98	3.978	10.14	0	0.03	1384657	1093340	8505	1207029	0	294015	185078	211	1331	78	372352	3672970	186698
80	2018-04-12 23:53:18	6099318239676	596.56	150636	0.00396	13.72	3.96	3.96	10.19	0	0.03	1392516	1097763	8640	1215320	0	295956	186191	212	1342	78	374400	3672981	187823
81	2018-04-13 00:20:49	6099318239676	604.73	152873	0.003956	13.73	3.96	3.956	10.31	0	0.03	1414259	1113713	9083	1233375	0	300869	189275	220	1370	78	378624	3673025	190943
82	2018-04-13 01:25:49	6099318239676	628.29	159726	0.003934	13.75	3.93	3.934	10.55	0	0.03	1470361	1161780	9710	1278679	0	309203	197196	236	1448	82	387372	3673069	198962
83	2018-04-13 02:30:50	6099318239676	643.13	163913	0.003924	13.78	3.92	3.924	10.72	0	0.03	1502746	1189800	10052	1312748	0	313381	201961	244	1484	84	393870	3673090	203773
84	2018-04-13 03:35:55	6099318239676	649.67	165900	0.003916	13.8	3.92	3.916	10.83	0	0.03	1518086	1201956	10221	1332019	0	316074	204288	249	1501	86	397939	3673108	206124
85	2018-04-13 04:40:52	6099318239676	655.67	167544	0.003913	13.81	3.91	3.913	10.91	0	0.03	1530852	1212984	10357	1347563	0	317890	206107	250	1517	87	400895	3673112	207961
86	2018-04-13 05:45:52	6099318239676	664.51	169801	0.003913	13.81	3.91	3.913	10.98	0	0.03	1548991	1229221	10512	1364487	0	320048	208807	253	1540	89	403402	3673124	210689
87	2018-04-13 06:50:55	6099318239676	684.68	174777	0.003917	13.79	3.92	3.917	11.24	0	0.03	1591108	1267004	10913	1393319	0	324821	214812	260	1587	90	412714	3673151	216749
88	2018-04-13 07:14:00	6099318239676	692.3	177238	0.003906	13.83	3.91	3.906	11.31	0	0.03	1606172	1281767	11112	1404796	0	326975	217063	263	1610	90	415421	3673165	219026
89	2018-04-13 07:24:25	6099318239676	696.15	178094	0.003909	13.81	3.91	3.909	11.33	0	0.03	1614550	1289249	11224	1424426	0	328240	218310	265	1615	90	416175	3673172	220280
90	2018-04-13 07:34:54	6099318239676	700.22	179490	0.003901	13.84	3.9	3.901	11.38	0	0.03	1628131	1297321	11399	1438008	0	330219	220354	271	1628	90	418122	3673178	222343
91	2018-04-13 07:45:26	6099318239676	704.57	180474	0.003904	13.82	3.9	3.904	11.42	0	0.03	1637819	1305698	11539	1442027	0	331656	221740	272	1646	90	419453	3673187	223748
92	2018-04-13 07:55:56	6099318239676	709.88	181937	0.003902	13.82	3.9	3.902	11.51	0	0.04	1648206	1316445	11684	1458155	0	333227	223269	273	1657	90	422761	3673194	225289
93	2018-04-13 08:06:26	6099318239676	714.81	183523	0.003895	13.84	3.9	3.895	11.56	0	0.04	1658972	1326130	11843	1470403	0	334745	224887	277	1671	91	424674	3673201	226926
94	2018-04-13 08:17:00	6099318239676	720.17	184684	0.003899	13.82	3.9	3.899	11.62	0	0.04	1670562	1336652	12003	1480067	0	336290	226620	278	1686	92	426796	3673208	228676
95	2018-04-13 08:27:29	6099318239676	725.65	186608	0.003889	13.85	3.89	3.889	11.64	0	0.04	1682528	1347283	12155	1483236	0	337794	228415	278	1708	94	427738	3673223	230495
96	2018-04-13 08:38:00	6099318239676	731.22	188496	0.003879	13.88	3.88	3.879	11.73	0	0.04	1694427	1358100	12337	1492823	0	339330	230265	279	1720	96	430840	3673237	232360
97	2018-04-13 08:48:30	6099318239676	737.4	189873	0.003884	13.86	3.88	3.884	11.79	0	0.04	1707263	1369884	12482	1497787	0	340898	232216	278	1738	96	433251	3673251	234328
98	2018-04-13 08:59:00	6099318239676	744.48	192056	0.003876	13.88	3.88	3.876	11.84	0	0.04	1721248	1383676	12601	1509148	0	342423	234212	279	1760	97	434955	3673271	236348
99	2018-04-13 09:09:32	6099318239676	751.96	193652	0.003883	13.85	3.88	3.883	11.9	0	0.04	1736578	1398046	12752	1521383	0	343942	236442	283	1775	97	437151	3673285	238597
100	2018-04-13 09:20:01	6099318239676	759.24	195992	0.003874	13.88	3.87	3.874	11.96	0	0.04	1759663	1412373	12937	1547204	0	346009	239761	288	1798	97	439353	3673294	241944
101	2018-04-13 09:30:33	6099318239676	766.97	198356	0.003867	13.9	3.87	3.867	11.99	0	0.04	1775761	1427535	13098	1558006	0	347334	242095	292	1807	98	440353	3673305	244292
102	2018-04-13 09:41:04	6099318239676	776.16	200020	0.00388	13.84	3.88	3.88	12.05	0	0.04	1791780	1445682	13232	1574157	0	348596	244335	292	1823	97	442476	3673331	246547
103	2018-04-13 09:51:32	6099318239676	784.68	202621	0.003873	13.86	3.87	3.873	12.08	0	0.04	1808425	1462163	13368	1589562	0	349824	246742	295	1838	98	443808	3673347	248973
104	2018-04-13 10:02:05	6099318239676	793.13	204431	0.00388	13.82	3.88	3.88	12.13	0	0.04	1826080	1478709	13490	1602558	0	351026	249194	294	1853	98	445709	3673355	251439
105	2018-04-13 10:12:34	6099318239676	801.75	207069	0.003872	13.85	3.87	3.872	12.17	0	0.04	1843340	1495540	13631	1619426	0	351980	251576	295	1868	98	446996	3673383	253837
106	2018-04-13 10:23:10	6099318239676	810.26	209784	0.003862	13.87	3.86	3.862	12.21	0	0.04	1860187	1512242	13750	1628690	0	352753	253953	295	1890	99	448517	3673421	256237
107	2018-04-13 10:33:35	6099318239676	819.3	211538	0.003873	13.83	3.87	3.873	12.25	0	0.04	1878244	1529935	13907	1641697	0	353507	256415	298	1903	99	450082	3673465	258715
108	2018-04-13 10:44:08	6099318239676	828.06	214216	0.003866	13.84	3.87	3.866	12.28	0	0.04	1895955	1547309	14035	1646854	0	354191	258769	298	1915	99	451029	3673515	261081
109	2018-04-13 10:54:37	6099318239676	838.15	217038	0.003862	13.85	3.86	3.862	12.31	0	0.04	1913844	1566812	14168	1654444	0	354839	261293	302	1933	99	452148	3673550	263627
110	2018-04-13 11:05:07	6099318239676	848.5	219097	0.003873	13.8	3.87	3.873	12.38	0	0.04	1944809	1587144	14394	1679003	0	355743	265307	308	1950	99	454613	3673583	267664
111	2018-04-13 11:15:37	6099318239676	859.73	221976	0.003873	13.79	3.87	3.873	12.44	0	0.04	1963462	1609281	14549	1696277	0	356363	267765	310	1966	101	456976	3673614	270142
112	2018-04-13 11:26:07	6099318239676	868.43	223782	0.003881	13.76	3.88	3.881	12.51	0	0.04	1981139	1626540	14683	1720250	0	356912	270114	315	1978	103	459749	3673653	272510
113	2018-04-13 11:36:38	6099318239676	876.85	226274	0.003875	13.77	3.88	3.875	12.54	0	0.04	1998238	1643506	14810	1727327	0	357414	272275	315	1995	103	460510	3673688	274688
114	2018-04-13 11:47:08	6099318239676	884.54	228675	0.003868	13.79	3.87	3.868	12.58	0	0.04	2013907	1658864	14949	1734463	0	357976	274346	315	2015	106	461983	3673715	276782
115	2018-04-13 11:57:39	6099318239676	891.21	230040	0.003874	13.76	3.87	3.874	12.59	0	0.04	2028238	1672332	15072	1740343	0	358474	276158	315	2023	106	462703	3673743	278602
116	2018-04-13 12:08:12	6099318239676	897.54	231917	0.00387	13.76	3.87	3.87	12.63	0	0.04	2041132	1685026	15200	1752967	0	358919	277832	319	2031	106	463908	3673771	280288
117	2018-04-13 12:18:41	6099318239676	903.46	233735	0.003865	13.77	3.86	3.865	12.72	0	0.04	2053268	1697083	15315	1759504	0	359346	279439	323	2047	106	467489	3673795	281915
118	2018-04-13 12:29:12	6099318239676	909.51	234981	0.003871	13.75	3.87	3.871	12.73	0	0.04	2065444	1709206	15449	1764140	0	359812	281065	324	2066	106	467701	3673823	283561
119	2018-04-13 12:39:43	6099318239676	916.56	236767	0.003871	13.74	3.87	3.871	12.76	0	0.04	2077826	1723378	15594	1769180	0	360291	282671	325	2077	107	468621	3673850	285180
120	2018-04-13 12:50:13	6099318239676	922.96	237980	0.003878	13.71	3.88	3.878	12.81	0	0.04	2096731	1736170	15798	1788275	0	360958	285143	328	2080	107	470776	3673877	287658
121	2018-04-13 13:00:43	6099318239676	930.47	239956	0.003878	13.7	3.88	3.878	12.84	0	0.04	2111572	1751107	15918	1796771	0	361430	287097	328	2098	108	471565	3673912	289631
122	2018-04-13 13:11:14	6099318239676	938.25	242285	0.003873	13.72	3.87	3.873	12.87	0	0.04	2126734	1766141	16054	1805707	0	361858	289220	330	2115	108	472931	3673939	291773
123	2018-04-13 13:21:47	6099318239676	946.01	243969	0.003878	13.7	3.88	3.878	12.92	0	0.04	2141930	1781322	16189	1821240	0	362307	291388	335	2127	108	474580	3673960	293958
124	2018-04-13 13:32:20	6099318239676	953.39	246116	0.003874	13.7	3.87	3.874	12.94	0	0.05	2156696	1795843	16342	1828635	0	362782	293377	339	2146	108	475364	3673986	295970
125	2018-04-13 13:42:53	6099318239676	961.03	248407	0.003869	13.72	3.87	3.869	12.96	0	0.05	2171703	1810819	16467	1848593	0	363279	295397	343	2156	109	476223	3674016	298005
126	2018-04-13 13:53:24	6099318239676	968.43	249919	0.003875	13.69	3.88	3.875	13.01	0	0.05	2186257	1825381	16610	1859487	0	363695	297356	348	2171	109	477913	3674036	299984
127	2018-04-13 14:03:48	6099318239676	976.26	251989	0.003874	13.69	3.87	3.874	13.06	0	0.05	2199955	1841231	16780	1863123	0	364191	299145	351	2183	110	479876	3674066	301789
128	2018-04-13 14:14:17	6099318239676	982.76	253274	0.00388	13.66	3.88	3.88	13.12	0	0.05	2212979	1854229	16933	1872206	0	364666	300959	354	2194	110	482108	3674094	303617
129	2018-04-13 14:24:48	6099318239676	989.32	253913	0.003896	13.6	3.9	3.896	13.13	0	0.05	2226251	1867318	17084	1875963	0	365111	302746	356	2208	110	482258	3674118	305420
130	2018-04-13 14:35:18	6099318239676	996.29	254886	0.003909	13.55	3.91	3.909	13.17	0	0.05	2247254	1881434	17313	1899265	0	365812	305665	358	2225	111	483746	3674138	308359
131	2018-04-13 14:45:49	6099318239676	1002.98	256218	0.003915	13.52	3.92	3.915	13.2	0	0.05	2261422	1895338	17459	1906226	0	366261	307564	361	2240	112	484883	3674170	310277
132	2018-04-13 14:56:22	6099318239676	1010.84	259942	0.003889	13.6	3.89	3.889	13.26	0	0.05	2277018	1911447	17618	1925339	0	366741	309614	364	2261	112	487248	3674201	312351
133	2018-04-13 15:06:55	6099318239676	1022.22	262331	0.003897	13.56	3.9	3.897	13.31	0	0.05	2299185	1934389	17774	1949000	0	367208	312360	366	2288	112	489057	3674228	315126
134	2018-04-13 15:17:24	6099318239676	1033.13	266113	0.003882	13.6	3.88	3.882	13.32	0	0.05	2321920	1956741	17939	1976265	0	367662	315331	370	2314	112	489482	3674259	318127
135	2018-04-13 15:27:56	6099318239676	1042.81	269056	0.003876	13.61	3.88	3.876	13.38	0	0.05	2342158	1976752	18097	1991518	0	368201	317952	374	2338	112	491541	3674293	320776
136	2018-04-13 15:38:25	6099318239676	1051.42	270771	0.003883	13.58	3.88	3.883	13.43	0	0.05	2360381	1994610	18251	2002425	0	368676	320319	378	2354	112	493559	3674312	323163
137	2018-04-13 15:48:56	6099318239676	1061.18	273339	0.003882	13.57	3.88	3.882	13.49	0	0.05	2377328	2014998	18393	2014722	0	369129	322561	379	2385	113	495613	3674344	325438
138	2018-04-13 15:59:24	6099318239676	1069.08	275929	0.003874	13.58	3.87	3.874	13.55	0	0.05	2394021	2031652	18546	2018991	0	369574	324722	385	2404	116	497744	3674373	327627
139	2018-04-13 16:09:57	6099318239676	1076.96	277619	0.003879	13.55	3.88	3.879	13.58	0	0.05	2411074	2048267	18677	2035792	0	370021	326944	385	2421	119	498977	3674408	329869
140	2018-04-13 16:17:00	6099318239676	1081.5	279113	0.003875	13.56	3.88	3.875	13.6	0	0.05	2427241	2057774	18840	2049849	0	370490	329005	387	2432	120	499702	3674430	331944
141	2018-04-13 16:27:00	6099318239676	1089.23	280606	0.003882	13.53	3.88	3.882	13.69	0	0.05	2443027	2073945	19019	2061964	0	370949	331004	392	2446	121	502979	3674446	333963
142	2018-04-13 16:37:02	6099318239676	1096.78	282757	0.003879	13.53	3.88	3.879	13.74	0	0.05	2459015	2089639	19257	2075168	0	371372	333060	394	2459	123	504948	3674470	336036
143	2018-04-13 16:47:03	6099318239676	1104.33	284266	0.003885	13.5	3.88	3.885	13.75	0	0.05	2474979	2105422	19468	2089081	0	371831	335127	397	2480	123	505092	3674499	338127
144	2018-04-13 16:57:05	6099318239676	1111.6	286453	0.003881	13.51	3.88	3.881	13.75	0	0.05	2490284	2120563	19682	2096552	0	372288	337043	398	2487	123	505375	3674529	340051
145	2018-04-13 17:07:03	6099318239676	1117.31	287800	0.003882	13.5	3.88	3.882	13.8	0	0.05	2502990	2132478	19886	2109294	0	372713	338643	400	2507	123	506941	3674547	341673
146	2018-04-13 17:17:03	6099318239676	1122.52	289425	0.003878	13.51	3.88	3.878	13.8	0	0.05	2513866	2143062	20063	2111092	0	373127	340085	401	2514	123	507252	3674585	343123
147	2018-04-13 17:27:04	6099318239676	1126.58	290499	0.003878	13.5	3.88	3.878	13.83	0	0.05	2524141	2151276	20257	2116051	0	373543	341529	401	2527	123	508377	3674615	344580
148	2018-04-13 17:37:04	6099318239676	1131.51	292069	0.003874	13.51	3.87	3.874	13.87	0	0.05	2534725	2161511	20434	2125128	0	373967	342867	402	2539	124	509716	3674646	345932
149	2018-04-13 17:47:04	6099318239676	1136.4	293019	0.003878	13.49	3.88	3.878	13.9	0	0.06	2544883	2171443	20614	2132813	0	374366	344240	402	2554	125	510598	3674671	347321
150	2018-04-13 17:57:04	6099318239676	1141.69	294526	0.003876	13.5	3.88	3.876	13.97	0	0.06	2555619	2182018	20785	2137230	0	374777	345635	402	2572	126	513456	3674689	348735
151	2018-04-13 18:07:06	6099318239676	1147.63	295557	0.003883	13.47	3.88	3.883	14	0	0.06	2567455	2194101	20951	2138660	0	375195	347065	402	2588	126	514488	3674726	350181
152	2018-04-13 18:17:05	6099318239676	1154.38	297359	0.003882	13.47	3.88	3.882	14.02	0	0.06	2580507	2207359	21090	2143796	0	375583	348794	402	2600	127	515162	3674751	351923
153	2018-04-13 18:27:06	6099318239676	1162.21	298785	0.00389	13.44	3.89	3.89	14.08	0	0.06	2595005	2222689	21252	2154729	0	375982	350725	404	2618	128	517373	3674780	353875
154	2018-04-13 18:37:05	6099318239676	1170	301027	0.003887	13.45	3.89	3.887	14.11	0	0.06	2610972	2237860	21445	2178607	0	376431	352686	409	2634	129	518565	3674798	355858
155	2018-04-13 18:47:07	6099318239676	1176.3	302540	0.003888	13.45	3.89	3.888	14.11	0	0.06	2626398	2250036	21630	2185250	0	376817	354653	411	2653	132	518565	3674825	357849
156	2018-04-13 18:57:13	6099318239676	1183.85	304556	0.003887	13.45	3.89	3.887	14.15	0	0.06	2641233	2264872	21862	2194737	0	377273	356448	412	2662	132	519816	3674849	359654
157	2018-04-13 19:07:12	6099318239676	1191.99	305997	0.003895	13.42	3.9	3.895	14.2	0	0.06	2657280	2280851	22026	2209013	0	377700	358489	413	2685	132	522001	3674874	361719
158	2018-04-13 19:17:12	6099318239676	1201.45	308414	0.003896	13.41	3.9	3.896	14.29	0	0.06	2675566	2299530	22209	2220448	0	378141	360741	415	2705	132	524963	3674903	363993
159	2018-04-13 19:27:12	6099318239676	1209.1	309992	0.0039	13.39	3.9	3.9	14.33	0	0.06	2691613	2314842	22381	2232003	0	378562	362671	417	2726	132	526526	3674937	365946
160	2018-04-13 19:37:14	6099318239676	1215.88	311957	0.003898	13.4	3.9	3.898	14.36	0	0.06	2705569	2328510	22584	2240355	0	379008	364407	420	2733	133	527782	3674955	367693
161	2018-04-13 19:47:15	6099318239676	1222.73	313251	0.003903	13.37	3.9	3.903	14.39	0	0.06	2719131	2342248	22788	2253040	0	379452	366105	422	2750	134	528864	3674980	369411
162	2018-04-13 19:57:15	6099318239676	1230.01	315211	0.003902	13.37	3.9	3.902	14.4	0	0.06	2733702	2356721	22997	2255091	0	379909	367837	422	2765	135	529384	3675010	371159
163	2018-04-13 20:07:20	6099318239676	1235.5	316395	0.003905	13.36	3.91	3.905	14.44	0	0.06	2747789	2367819	23173	2271974	0	380352	369448	424	2785	135	530648	3675025	372792
164	2018-04-13 20:17:16	6099318239676	1242.42	318235	0.003904	13.36	3.9	3.904	14.47	0	0.06	2761766	2381678	23370	2283441	0	380821	371063	425	2801	135	531765	3675043	374424
165	2018-04-13 20:27:17	6099318239676	1248.89	319331	0.003911	13.33	3.91	3.911	14.5	0	0.06	2774916	2394771	23586	2296035	0	381254	372629	427	2824	135	533012	3675058	376015
166	2018-04-13 20:37:18	6099318239676	1255.44	321028	0.003911	13.33	3.91	3.911	14.56	0	0.06	2788318	2408151	23828	2298591	0	381737	374144	429	2838	136	535038	3675083	377547
167	2018-04-13 20:47:16	6099318239676	1262.07	322203	0.003917	13.31	3.92	3.917	14.62	0	0.06	2801985	2421645	24054	2304003	0	382199	375749	433	2851	138	537173	3675108	379171
168	2018-04-13 20:57:19	6099318239676	1268.74	324034	0.003915	13.31	3.92	3.915	14.63	0	0.06	2815753	2435120	24270	2307007	0	382667	377405	435	2870	139	537803	3675126	380849
169	2018-04-13 21:07:20	6099318239676	1274.86	325182	0.00392	13.29	3.92	3.92	14.7	0	0.06	2828494	2447469	24496	2322980	0	383171	378898	436	2889	139	540189	3675147	382362
170	2018-04-13 21:17:20	6099318239676	1280.61	326826	0.003918	13.29	3.92	3.918	14.73	0	0.06	2840446	2458776	24734	2324724	0	383657	380391	440	2905	140	541488	3675163	383876
171	2018-04-13 21:27:20	6099318239676	1286.82	327862	0.003925	13.27	3.92	3.925	14.76	0	0.06	2852646	2471233	24942	2341200	0	384131	381841	441	2918	140	542365	3675182	385340
172	2018-04-13 21:37:21	6099318239676	1292.22	329579	0.003921	13.28	3.92	3.921	14.77	0	0.07	2866008	2482033	25153	2352316	0	384625	383455	449	2929	141	542746	3675206	386974
173	2018-04-13 21:47:22	6099318239676	1299.49	330936	0.003927	13.26	3.93	3.927	14.83	0	0.07	2880472	2496367	25449	2362581	0	385187	385285	451	2947	141	545134	3675230	388824
174	2018-04-13 21:57:23	6099318239676	1307.71	332990	0.003927	13.25	3.93	3.927	14.84	0	0.07	2896402	2512413	25703	2373219	0	385739	387168	454	2968	147	545519	3675253	390737
175	2018-04-13 22:07:24	6099318239676	1316.74	334438	0.003937	13.22	3.94	3.937	14.9	0	0.07	2914163	2530257	25967	2395655	0	386279	389212	459	3000	148	547496	3675268	392819
176	2018-04-13 22:17:23	6099318239676	1326.32	336944	0.003936	13.22	3.94	3.936	14.92	0	0.07	2933099	2549186	26277	2404609	0	386903	391469	460	3019	148	548223	3675297	395096
177	2018-04-13 22:27:24	6099318239676	1336.73	338714	0.003946	13.18	3.95	3.946	14.98	0	0.07	2953753	2570074	26536	2426515	0	387452	393887	463	3045	148	550709	3675333	397543
178	2018-04-13 22:37:25	6099318239676	1348.18	341507	0.003948	13.17	3.95	3.948	15.03	0	0.07	2975637	2592843	26799	2442787	0	388003	396442	465	3075	150	552429	3675362	400132
179	2018-04-13 22:47:25	6099318239676	1360.66	343596	0.00396	13.13	3.96	3.96	15.09	0	0.07	3000886	2617669	27078	2473399	0	388557	399346	471	3108	150	554705	3675401	403075
180	2018-04-13 22:57:26	6099318239676	1372.9	346965	0.003957	13.13	3.96	3.957	15.13	0	0.07	3025828	2642302	27344	2491607	0	389121	402330	476	3147	150	556271	3675437	406103
181	2018-04-13 23:07:26	6099318239676	1383.07	349171	0.003961	13.11	3.96	3.961	15.18	0	0.07	3051439	2663112	27611	2509458	0	389665	405366	480	3163	150	558038	3675462	409159
182	2018-04-13 23:17:27	6099318239676	1394.71	352486	0.003957	13.12	3.96	3.957	15.27	0	0.07	3075875	2687059	27861	2539527	0	390217	408324	484	3191	150	561170	3675500	412149
183	2018-04-13 23:27:25	6099318239676	1404.56	354162	0.003966	13.08	3.97	3.966	15.34	0	0.07	3095620	2707254	28153	2560131	0	390773	410662	488	3226	151	563929	3675533	414527
184	2018-04-13 23:37:23	6099318239676	1414.83	356865	0.003965	13.08	3.96	3.965	15.38	0	0.07	3116175	2728084	28458	2574901	0	391302	413214	490	3251	151	565139	3675559	417106
185	2018-04-13 23:47:23	6099318239676	1424.32	358803	0.00397	13.06	3.97	3.97	15.4	0	0.07	3136485	2747435	28745	2586724	0	391858	415829	499	3280	151	565862	3675587	419759
186	2018-04-13 23:57:25	6099318239676	1432.89	361498	0.003964	13.07	3.96	3.964	15.46	0	0.07	3154906	2765200	29009	2608756	0	392368	417972	506	3302	153	568250	3675608	421933
187	2018-04-14 00:07:25	6099318239676	1440.83	363261	0.003966	13.06	3.97	3.966	15.48	0	0.07	3172031	2781649	29278	2621282	0	392842	420221	505	3326	155	569112	3675631	424207
188	2018-04-14 00:17:26	6099318239676	1446.91	365281	0.003961	13.07	3.96	3.961	15.53	0	0.08	3185736	2794283	29552	2646099	0	393319	421952	506	3351	156	570682	3675663	425965
189	2018-04-14 00:27:26	6099318239676	1452.61	366438	0.003964	13.06	3.96	3.964	15.53	0	0.08	3197676	2806329	29758	2664027	0	393694	423479	508	3369	157	570998	3675684	427513
190	2018-04-14 00:37:27	6099318239676	1457.63	367989	0.003961	13.06	3.96	3.961	15.57	0	0.08	3208686	2816721	29963	2674580	0	394069	424863	511	3389	158	572145	3675700	428921
191	2018-04-14 00:47:30	6099318239676	1461.03	368907	0.00396	13.06	3.96	3.96	15.58	0	0.08	3218263	2824047	30181	2676585	0	394448	426042	512	3401	158	572568	3675722	430113
192	2018-04-14 00:57:31	6099318239676	1465.01	370169	0.003958	13.07	3.96	3.958	15.59	0	0.08	3227027	2832584	30385	2678322	0	394783	427177	517	3414	158	573098	3675743	431266
193	2018-04-14 01:07:31	6099318239676	1468.84	370906	0.00396	13.06	3.96	3.96	15.59	0	0.08	3234939	2840587	30521	2690979	0	395037	428169	517	3419	158	573098	3675751	432263
194	2018-04-14 01:17:29	6099318239676	1472.03	371921	0.003958	13.06	3.96	3.958	15.62	0	0.08	3241861	2847371	30641	2690979	0	395272	429083	518	3430	158	574268	3675767	433189
195	2018-04-14 01:27:29	6099318239676	1474.98	372559	0.003959	13.06	3.96	3.959	15.63	0	0.08	3248322	2853354	30763	2692002	0	395516	429936	519	3433	158	574701	3675780	434046
196	2018-04-14 01:37:30	6099318239676	1477.54	373403	0.003957	13.06	3.96	3.957	15.66	0	0.08	3253747	2858766	30867	2693759	0	395710	430678	519	3435	158	575542	3675785	434790
197	2018-04-14 01:47:31	6099318239676	1479.91	373905	0.003958	13.06	3.96	3.958	15.67	0	0.08	3258847	2863673	30967	2701397	0	395888	431332	519	3439	159	575970	3675800	435449
198	2018-04-14 01:57:31	6099318239676	1482.04	374575	0.003957	13.06	3.96	3.957	15.69	0	0.08	3263308	2867902	31054	2708190	0	396058	431937	521	3441	160	576828	3675808	436059
199	2018-04-14 02:07:32	6099318239676	1483.59	374987	0.003956	13.06	3.96	3.956	15.69	0	0.08	3267532	2871245	31117	2709226	0	396207	432486	521	3449	160	576828	3675814	436616
200	2018-04-14 02:17:31	6099318239676	1485.43	375368	0.003957	13.06	3.96	3.957	15.75	0	0.08	3271183	2874845	31205	2709226	0	396380	432978	524	3458	161	578986	3675822	437121
201	2018-04-14 02:27:31	6099318239676	1486.97	375855	0.003956	13.06	3.96	3.956	15.75	0	0.08	3274456	2877934	31292	2712193	0	396546	433422	526	3466	161	578986	3675824	437575
202	2018-04-14 02:37:33	6099318239676	1488.53	376177	0.003957	13.06	3.96	3.957	15.75	0	0.08	3277603	2881058	31352	2714571	0	396666	433820	527	3467	161	579040	3675830	437975
203	2018-04-14 02:47:33	6099318239676	1490.05	376569	0.003957	13.06	3.96	3.957	15.75	0	0.08	3280651	2884052	31439	2714571	0	396807	434196	528	3473	161	579040	3675831	438358
204	2018-04-14 02:57:35	6099318239676	1491.41	376879	0.003957	13.05	3.96	3.957	15.78	0	0.08	3283556	2886899	31511	2718108	0	396933	434555	528	3479	161	579880	3675837	438723
205	2018-04-14 03:07:36	6099318239676	1492.78	377264	0.003957	13.06	3.96	3.957	15.78	0	0.08	3286394	2889631	31562	2719152	0	397035	434898	530	3483	161	579880	3675838	439072
206	2018-04-14 03:17:33	6099318239676	1493.96	377504	0.003957	13.05	3.96	3.957	15.78	0	0.08	3288896	2892011	31593	2721841	0	397111	435213	530	3486	161	579880	3675842	439390
207	2018-04-14 03:27:35	6099318239676	1494.75	377823	0.003956	13.06	3.96	3.956	15.78	0	0.08	3291045	2893691	31631	2726035	0	397200	435495	530	3489	161	579962	3675845	439675
208	2018-04-14 03:37:37	6099318239676	1495.61	377998	0.003957	13.05	3.96	3.957	15.78	0	0.08	3292852	2895463	31681	2727235	0	397288	435720	530	3491	162	579962	3675844	439903
209	2018-04-14 03:47:36	6099318239676	1496.39	378248	0.003956	13.06	3.96	3.956	15.78	0	0.08	3294466	2897042	31707	2727235	0	397348	435941	530	3493	162	579962	3675846	440126
210	2018-04-14 03:57:37	6099318239676	1497.1	378374	0.003957	13.05	3.96	3.957	15.8	0	0.08	3295927	2898446	31735	2727235	0	397412	436125	530	3493	162	580832	3675851	440310
211	2018-04-14 04:07:38	6099318239676	1497.72	378566	0.003956	13.06	3.96	3.956	15.8	0	0.08	3297253	2899718	31765	2729640	0	397466	436290	532	3497	162	580832	3675856	440481
212	2018-04-14 04:17:38	6099318239676	1498.36	378712	0.003956	13.05	3.96	3.956	15.8	0	0.08	3298613	2901022	31800	2729640	0	397539	436482	532	3499	162	580832	3675857	440675
213	2018-04-14 04:27:42	6099318239676	1499	378902	0.003956	13.06	3.96	3.956	15.8	0	0.08	3299931	2902295	31840	2729640	0	397623	436661	533	3500	162	580832	3675858	440856
214	2018-04-14 04:37:39	6099318239676	1499.57	379003	0.003957	13.05	3.96	3.957	15.8	0	0.08	3301236	2903554	31894	2732048	0	397711	436805	534	3501	162	580832	3675860	441002
215	2018-04-14 04:47:39	6099318239676	1500.22	379183	0.003956	13.05	3.96	3.956	15.8	0	0.08	3302513	2904809	31930	2732048	0	397776	436982	534	3504	162	580887	3675861	441182
216	2018-04-14 04:57:42	6099318239676	1500.8	379309	0.003957	13.05	3.96	3.957	15.8	0	0.08	3303791	2906044	31954	2732048	0	397825	437165	534	3505	162	580887	3675864	441366
217	2018-04-14 05:07:42	6099318239676	1501.45	379528	0.003956	13.05	3.96	3.956	15.8	0	0.08	3305191	2907195	31985	2734461	0	397894	437363	534	3505	162	580887	3675865	441564
218	2018-04-14 05:17:43	6099318239676	1502.2	379659	0.003957	13.05	3.96	3.957	15.81	0	0.08	3306714	2908643	32013	2734461	0	397958	437554	534	3508	162	581323	3675869	441758
219	2018-04-14 05:27:42	6099318239676	1502.98	379875	0.003957	13.05	3.96	3.957	15.82	0	0.08	3308164	2910040	32040	2734461	0	398025	437743	534	3510	162	581541	3675874	441949
220	2018-04-14 05:37:42	6099318239676	1503.71	380015	0.003957	13.05	3.96	3.957	15.82	0	0.08	3309594	2911497	32082	2734461	0	398115	437948	535	3511	162	581541	3675877	442156
221	2018-04-14 05:47:43	6099318239676	1504.38	380228	0.003957	13.05	3.96	3.957	15.82	0	0.08	3311019	2912801	32113	2734461	0	398184	438160	535	3513	162	581541	3675883	442370
222	2018-04-14 05:57:43	6099318239676	1505.18	380391	0.003957	13.05	3.96	3.957	15.86	0	0.08	3312565	2914351	32147	2736878	0	398252	438376	535	3515	162	583157	3675888	442588
223	2018-04-14 06:07:44	6099318239676	1506.01	380651	0.003956	13.05	3.96	3.956	15.86	0	0.08	3314257	2916072	32195	2738996	0	398337	438628	535	3519	162	583157	3675892	442844
224	2018-04-14 06:17:45	6099318239676	1507.12	380853	0.003957	13.05	3.96	3.957	15.87	0	0.08	3316447	2918166	32260	2738996	0	398440	438928	535	3519	162	583486	3675895	443144
225	2018-04-14 06:27:46	6099318239676	1508.2	381193	0.003957	13.05	3.96	3.957	15.87	0	0.08	3318566	2920294	32311	2742635	0	398548	439244	535	3520	162	583486	3675897	443461
226	2018-04-14 06:37:46	6099318239676	1509.12	381465	0.003956	13.05	3.96	3.956	15.87	0	0.08	3320876	2922099	32361	2746123	0	398643	439606	535	3520	162	583486	3675899	443823
227	2018-04-14 06:47:47	6099318239676	1510.59	381905	0.003955	13.06	3.96	3.955	15.88	0	0.08	3323758	2925008	32419	2746123	0	398763	440032	535	3521	162	583706	3675907	444250
228	2018-04-14 06:57:51	6099318239676	1512.18	382246	0.003956	13.05	3.96	3.956	15.89	0	0.08	3327150	2928372	32489	2746732	0	398897	440513	535	3523	162	583927	3675910	444733
229	2018-04-14 07:07:51	6099318239676	1514.05	382824	0.003955	13.06	3.96	3.955	15.9	0	0.08	3330935	2932113	32542	2754635	0	399027	441074	536	3529	162	584533	3675918	445301
230	2018-04-14 07:17:55	6099318239676	1516.42	383288	0.003956	13.05	3.96	3.956	15.91	0	0.08	3335658	2936938	32617	2759238	0	399177	441729	540	3536	162	584754	3675922	445967
231	2018-04-14 07:27:51	6099318239676	1520.92	384412	0.003956	13.05	3.96	3.956	15.95	0	0.08	3344081	2946044	32735	2770657	0	399381	442914	542	3554	162	586248	3675931	447172
232	2018-04-14 07:37:51	6099318239676	1526.51	385446	0.00396	13.03	3.96	3.96	15.96	0	0.08	3354996	2957384	32834	2778738	0	399581	444414	544	3564	162	586637	3675945	448684
233	2018-04-14 07:47:51	6099318239676	1532.64	387246	0.003958	13.04	3.96	3.958	15.96	0	0.08	3367209	2970122	32962	2788435	0	399843	446065	547	3571	162	586637	3675961	450345
234	2018-04-14 07:57:52	6099318239676	1538.03	388563	0.003958	13.03	3.96	3.958	15.97	0	0.08	3381048	2981358	33089	2798951	0	400114	447917	548	3581	162	587138	3675971	452208
235	2018-04-14 08:07:56	6099318239676	1544.67	390663	0.003954	13.04	3.95	3.954	16.03	0	0.08	3395215	2995310	33224	2799900	0	400377	449747	551	3598	163	589415	3675979	454059
236	2018-04-14 08:17:53	6099318239676	1551.38	392000	0.003958	13.03	3.96	3.958	16.05	0	0.08	3409009	3009237	33414	2817015	0	400699	451700	553	3614	163	590089	3676004	456030
237	2018-04-14 08:27:53	6099318239676	1557.76	394117	0.003953	13.04	3.95	3.953	16.06	0	0.08	3422060	3022466	33571	2822029	0	400990	453562	555	3623	163	590314	3676026	457903
238	2018-04-14 08:37:54	6099318239676	1563.94	395421	0.003955	13.03	3.96	3.955	16.13	0	0.08	3434785	3035120	33720	2836084	0	401299	455360	557	3630	163	592857	3676058	459710
239	2018-04-14 08:47:55	6099318239676	1570.07	397468	0.00395	13.04	3.95	3.95	16.18	0	0.08	3447389	3047670	33907	2850034	0	401633	457156	559	3640	164	594679	3676084	461519
240	2018-04-14 08:57:55	6099318239676	1576.2	398812	0.003952	13.03	3.95	3.952	16.21	0	0.08	3460090	3060407	34071	2860811	0	401962	459009	561	3666	164	596052	3676107	463400
241	2018-04-14 09:07:57	6099318239676	1582.54	400859	0.003948	13.04	3.95	3.948	16.25	0	0.09	3473361	3073541	34261	2871715	0	402309	460870	562	3678	165	597433	3676135	465275
242	2018-04-14 09:17:59	6099318239676	1587.67	402196	0.003948	13.04	3.95	3.948	16.28	0	0.09	3486659	3084379	34446	2887700	0	402619	462697	564	3693	164	598645	3676166	467118
243	2018-04-14 09:27:58	6099318239676	1594.76	404420	0.003943	13.05	3.94	3.943	16.35	0	0.09	3501259	3098838	34660	2909664	0	403001	464745	565	3709	164	601115	3676191	469183
244	2018-04-14 09:38:00	6099318239676	1602.11	405910	0.003947	13.03	3.95	3.947	16.36	0	0.09	3516527	3114132	34844	2921051	0	403351	466810	567	3725	164	601319	3676211	471266
245	2018-04-14 09:47:58	6099318239676	1609.53	408195	0.003943	13.04	3.94	3.943	16.38	0	0.09	3531986	3129405	35030	2925968	0	403693	468865	569	3745	164	602079	3676236	473343
246	2018-04-14 09:57:58	6099318239676	1617.51	409666	0.003948	13.02	3.95	3.948	16.42	0	0.09	3547704	3145605	35217	2935666	0	404021	470980	569	3758	164	603664	3676256	475471
247	2018-04-14 10:08:00	6099318239676	1625.11	412077	0.003944	13.04	3.94	3.944	16.45	0	0.09	3563351	3160983	35407	2946667	0	404344	473120	570	3774	165	604843	3676279	477629
248	2018-04-14 10:17:59	6099318239676	1632.46	413606	0.003947	13.02	3.95	3.947	16.46	0	0.09	3578487	3175969	35570	2953518	0	404637	475144	572	3784	165	605257	3676308	479665
249	2018-04-14 10:27:58	6099318239676	1639.69	415766	0.003944	13.03	3.94	3.944	16.52	0	0.09	3593379	3190773	35742	2957750	0	404933	477066	572	3796	166	607394	3676345	481600
250	2018-04-14 10:38:00	6099318239676	1646.91	417230	0.003947	13.02	3.95	3.947	16.54	0	0.09	3608008	3205705	35891	2965540	0	405211	479000	573	3810	167	608229	3676364	483550
251	2018-04-14 10:48:00	6099318239676	1652.71	419300	0.003942	13.03	3.94	3.942	16.57	0	0.09	3622947	3217695	36037	2971945	0	405457	480869	576	3826	167	609157	3676388	485438
252	2018-04-14 10:58:01	6099318239676	1661.31	420749	0.003948	13	3.95	3.948	16.61	0	0.09	3639925	3235303	36219	2989971	0	405754	482953	578	3841	167	610809	3676409	487539
253	2018-04-14 11:08:03	6099318239676	1671.75	423487	0.003948	13	3.95	3.948	16.67	0	0.09	3661039	3256439	36375	3005890	0	406019	485454	581	3863	167	612713	3676440	490065
254	2018-04-14 11:18:02	6099318239676	1681.75	425260	0.003955	12.98	3.96	3.955	16.79	0	0.09	3681121	3276641	36531	3016506	0	406256	487840	582	3882	167	617170	3676461	492471
255	2018-04-14 11:28:05	6099318239676	1690.75	427809	0.003952	12.98	3.95	3.952	16.83	0	0.09	3699584	3295095	36677	3023501	0	406524	490030	583	3896	167	618832	3676477	494676
256	2018-04-14 11:38:06	6099318239676	1698.81	429349	0.003957	12.96	3.96	3.957	16.87	0	0.09	3716616	3311899	36823	3031457	0	406809	492013	584	3910	167	620071	3676516	496674
257	2018-04-14 11:48:05	6099318239676	1706.92	431606	0.003955	12.97	3.96	3.955	16.87	0	0.09	3732910	3328736	36978	3043328	0	407089	494074	585	3926	170	620071	3676540	498755
258	2018-04-14 11:58:05	6099318239676	1714.68	433039	0.00396	12.95	3.96	3.96	16.91	0	0.09	3749388	3344965	37130	3047822	0	407380	495980	585	3938	170	621846	3676555	500673
259	2018-04-14 12:08:05	6099318239676	1721.32	435240	0.003955	12.96	3.96	3.955	16.95	0	0.09	3766164	3358828	37279	3065076	0	407648	497895	586	3955	171	623034	3676583	502607
260	2018-04-14 12:18:04	6099318239676	1729.12	436630	0.00396	12.94	3.96	3.96	16.96	0	0.09	3782302	3375041	37409	3069027	0	407905	499779	588	3969	171	623536	3676612	504507
261	2018-04-14 12:28:06	6099318239676	1737	438637	0.00396	12.93	3.96	3.96	16.99	0	0.09	3798248	3391433	37556	3069027	0	408164	501538	590	3985	173	624542	3676627	506286
262	2018-04-14 12:38:06	6099318239676	1744.75	439997	0.003965	12.91	3.96	3.965	17.03	0	0.09	3814775	3407825	37730	3074742	0	408454	503455	591	3998	173	626232	3676650	508217
263	2018-04-14 12:48:07	6099318239676	1752.87	442130	0.003965	12.91	3.96	3.965	17.06	0	0.09	3832055	3425314	37873	3113681	0	408721	505292	594	4011	173	627278	3676668	510070
264	2018-04-14 12:58:07	6099318239676	1760.57	443541	0.003969	12.89	3.97	3.969	17.07	0	0.09	3848797	3441861	38017	3116509	0	408951	507192	594	4025	173	627660	3676691	511984
265	2018-04-14 13:08:08	6099318239676	1767.22	445486	0.003967	12.89	3.97	3.967	17.08	0	0.09	3863248	3456499	38119	3129404	0	409181	508849	598	4038	173	627851	3676718	513658
266	2018-04-14 13:18:13	6099318239676	1773.33	446652	0.00397	12.87	3.97	3.97	17.21	0	0.09	3876847	3469876	38244	3134949	0	409405	510361	600	4047	175	632653	3676738	515183
267	2018-04-14 13:28:11	6099318239676	1778.46	448388	0.003966	12.88	3.97	3.966	17.28	0	0.09	3890405	3481033	38380	3139294	0	409629	511922	602	4052	175	635217	3676753	516751
268	2018-04-14 13:38:09	6099318239676	1784.96	449498	0.003971	12.86	3.97	3.971	17.29	0	0.09	3905123	3495693	38518	3145473	0	409872	513471	605	4065	175	635739	3676769	518316
269	2018-04-14 13:48:11	6099318239676	1791.77	451301	0.00397	12.85	3.97	3.97	17.3	0	0.09	3920300	3511068	38650	3152478	0	410120	515037	606	4075	177	636130	3676797	519895
270	2018-04-14 13:58:12	6099318239676	1798.57	452500	0.003975	12.83	3.98	3.975	17.39	0	0.09	3935362	3526310	38772	3156898	0	410350	516654	607	4086	178	639282	3676813	521525
271	2018-04-14 14:08:11	6099318239676	1804.46	454237	0.003973	12.83	3.97	3.973	17.43	0	0.09	3949077	3539674	38907	3168102	0	410587	518190	607	4100	178	640870	3676831	523075
272	2018-04-14 14:18:10	6099318239676	1810.03	455297	0.003975	12.82	3.98	3.975	17.49	0	0.1	3961646	3552445	39036	3175006	0	410818	519622	609	4112	178	643000	3676840	524521
273	2018-04-14 14:28:11	6099318239676	1815.53	456359	0.003978	12.8	3.98	3.978	17.5	0	0.1	3974192	3564937	39146	3177016	0	411027	521006	608	4125	178	643401	3676857	525917
274	2018-04-14 14:38:12	6099318239676	1821.22	457891	0.003977	12.8	3.98	3.977	17.51	0	0.1	3986895	3577918	39285	3183530	0	411269	522428	615	4133	180	643668	3676871	527356
275	2018-04-14 14:48:12	6099318239676	1826.97	458951	0.003981	12.78	3.98	3.981	17.53	0	0.1	3999952	3590905	39421	3189268	0	411515	523880	615	4143	180	644740	3676883	528818
276	2018-04-14 14:58:13	6099318239676	1831.76	460625	0.003977	12.79	3.98	3.977	17.58	0	0.1	4012999	3601805	39560	3192505	0	411755	525397	618	4152	181	646549	3676895	530348
277	2018-04-14 15:08:14	6099318239676	1837.54	461763	0.003979	12.77	3.98	3.979	17.66	0	0.1	4026134	3614844	39704	3196213	0	412011	526894	619	4169	183	649448	3676910	531865
278	2018-04-14 15:18:14	6099318239676	1843.12	463377	0.003978	12.77	3.98	3.978	17.68	0	0.1	4038645	3627310	39852	3199490	0	412247	528332	620	4180	184	650197	3676913	533316
279	2018-04-14 15:28:16	6099318239676	1849.24	464513	0.003981	12.76	3.98	3.981	17.7	0	0.1	4051931	3641037	39981	3205234	0	412481	529915	621	4186	186	650709	3676927	534908
280	2018-04-14 15:38:22	6099318239676	1855.99	466397	0.003979	12.76	3.98	3.979	17.71	0	0.1	4066502	3655973	40115	3211832	0	412732	531681	622	4203	187	651120	3676937	536693
281	2018-04-14 15:48:17	6099318239676	1863.31	467718	0.003984	12.74	3.98	3.984	17.75	0	0.1	4082402	3672377	40274	3216837	0	413000	533504	625	4208	188	652492	3676951	538525
282	2018-04-14 15:58:17	6099318239676	1869.74	469862	0.003979	12.75	3.98	3.979	17.78	0	0.1	4099704	3686409	40412	3229787	0	413252	535428	628	4225	189	653939	3676965	540470
283	2018-04-14 16:08:17	6099318239676	1878.16	471378	0.003984	12.72	3.98	3.984	17.8	0	0.1	4118102	3704833	40571	3240667	0	413539	537475	630	4242	190	654423	3676981	542537
284	2018-04-14 16:18:17	6099318239676	1885.76	473578	0.003982	12.72	3.98	3.982	17.88	0	0.1	4135058	3721648	40720	3247252	0	413807	539422	631	4258	190	657620	3677002	544501
285	2018-04-14 16:28:17	6099318239676	1893.81	475066	0.003986	12.71	3.99	3.986	17.93	0	0.1	4152006	3738974	40867	3261361	0	414057	541376	633	4270	191	659160	3677002	546470
286	2018-04-14 16:38:18	6099318239676	1902.14	477288	0.003985	12.7	3.98	3.985	17.99	0	0.1	4169511	3756759	41011	3272510	0	414325	543335	635	4285	192	661552	3677017	548447
287	2018-04-14 16:48:18	6099318239676	1910.68	478844	0.00399	12.68	3.99	3.99	17.99	0	0.1	4187744	3775156	41143	3279442	0	414594	545442	639	4299	192	661622	3677039	550572
288	2018-04-14 16:58:19	6099318239676	1919.27	481149	0.003989	12.68	3.99	3.989	18.12	0	0.1	4206082	3793583	41298	3292957	0	414863	547464	640	4318	193	666168	3677054	552615
289	2018-04-14 17:08:20	6099318239676	1927.91	482748	0.003994	12.66	3.99	3.994	18.16	0	0.1	4224536	3811851	41454	3307246	0	415135	549591	642	4333	194	667848	3677071	554760
290	2018-04-14 17:18:19	6099318239676	1935.78	485003	0.003991	12.67	3.99	3.991	18.19	0	0.1	4241056	3828465	41584	3313882	0	415371	551547	642	4350	194	668713	3677084	556733
291	2018-04-14 17:28:20	6099318239676	1944.02	486418	0.003997	12.65	4	3.997	18.19	0	0.1	4257804	3845594	41719	3315657	0	415636	553517	644	4370	194	668966	3677093	558725
292	2018-04-14 17:38:21	6099318239676	1951.53	488870	0.003992	12.66	3.99	3.992	18.25	0	0.1	4276679	3861197	41857	3323219	0	415882	555730	646	4390	194	671023	3677116	560960
293	2018-04-14 17:48:21	6099318239676	1960.94	490544	0.003997	12.64	4	3.997	18.27	0	0.1	4296019	3880736	41994	3332608	0	416150	557965	650	4406	195	671824	3677137	563216
294	2018-04-14 17:58:21	6099318239676	1970.09	492953	0.003997	12.64	4	3.997	18.3	0	0.1	4315170	3899995	42185	3350640	0	416474	560092	650	4421	195	672882	3677152	565358
295	2018-04-14 18:08:22	6099318239676	1979.01	494472	0.004002	12.62	4	4.002	18.32	0	0.1	4333910	3918893	42350	3353929	0	416792	562139	652	4427	196	673761	3677165	567414
296	2018-04-14 18:18:22	6099318239676	1988.77	496855	0.004003	12.61	4	4.003	18.35	0	0.1	4353642	3939408	42528	3357907	0	417104	564340	654	4440	196	674890	3677181	569630
297	2018-04-14 18:28:23	6099318239676	1999.03	498590	0.004009	12.59	4.01	4.009	18.37	0	0.1	4374484	3960335	42714	3368638	0	417409	566634	656	4457	197	675552	3677200	571944
298	2018-04-14 18:38:23	6099318239676	2010.51	501444	0.004009	12.59	4.01	4.009	18.39	0	0.1	4397298	3983401	42878	3379554	0	417692	569263	659	4471	198	676216	3677225	574591
299	2018-04-14 18:48:24	6099318239676	2021.12	503376	0.004015	12.57	4.02	4.015	18.45	0	0.1	4418667	4004814	43054	3389902	0	417994	571730	661	4498	199	678569	3677247	577088
300	2018-04-14 18:58:24	6099318239676	2028.8	505944	0.00401	12.58	4.01	4.01	18.48	0	0.1	4438816	4020544	43207	3398973	0	418292	573904	662	4519	201	679462	3677274	579286
301	2018-04-14 19:08:25	6099318239676	2037.96	507485	0.004016	12.56	4.02	4.016	18.51	0	0.1	4457725	4039429	43359	3415552	0	418594	576029	666	4533	201	680732	3677288	581429
302	2018-04-14 19:18:31	6099318239676	2046.4	509663	0.004015	12.56	4.02	4.015	18.54	0	0.1	4475111	4056760	43520	3429977	0	418873	577938	668	4552	202	681781	3677300	583360
303	2018-04-14 19:28:30	6099318239676	2055.29	511143	0.004021	12.54	4.02	4.021	18.61	0	0.1	4493054	4075023	43655	3435448	0	419142	579824	670	4559	203	684333	3677311	585256
304	2018-04-14 19:38:31	6099318239676	2063.43	513211	0.004021	12.54	4.02	4.021	18.65	0	0.1	4509950	4092026	43792	3442968	0	419434	581598	674	4578	203	685773	3677328	587053
305	2018-04-14 19:48:30	6099318239676	2071.04	514430	0.004026	12.52	4.03	4.026	18.7	0	0.1	4526174	4108005	44008	3451604	0	419804	583283	675	4598	203	687601	3677347	588759
306	2018-04-14 19:58:31	6099318239676	2079.66	516401	0.004027	12.52	4.03	4.027	18.8	0	0.11	4543225	4125536	44155	3464396	0	420093	585126	679	4616	205	691507	3677365	590626
307	2018-04-14 20:08:33	6099318239676	2088.47	517807	0.004033	12.5	4.03	4.033	18.82	0	0.11	4561459	4143784	44296	3488978	0	420366	586984	681	4633	205	692125	3677369	592503
308	2018-04-14 20:18:33	6099318239676	2098.43	519896	0.004036	12.49	4.04	4.036	18.83	0	0.11	4580601	4163960	44471	3512727	0	420606	588876	683	4644	210	692357	3677387	594413
309	2018-04-14 20:28:33	6099318239676	2107.1	521478	0.004041	12.47	4.04	4.041	18.84	0	0.11	4601930	4181535	44625	3522843	0	420815	591099	687	4669	211	692667	3677413	596666
310	2018-04-14 20:38:35	6099318239676	2117.88	523894	0.004043	12.46	4.04	4.043	18.91	0	0.11	4623850	4203616	44809	3550863	0	421051	593218	687	4696	211	695350	3677430	598812
311	2018-04-14 20:48:33	6099318239676	2128.52	525512	0.00405	12.44	4.05	4.05	18.95	0	0.11	4645702	4225530	44935	3562032	0	421221	595377	691	4719	213	696759	3677450	601000
312	2018-04-14 20:58:35	6099318239676	2139.22	527911	0.004052	12.43	4.05	4.052	18.99	0	0.11	4667498	4247656	45090	3570440	0	421423	597510	695	4743	213	698330	3677464	603161
313	2018-04-14 21:08:36	6099318239676	2149.86	529598	0.004059	12.4	4.06	4.059	19	0	0.11	4689705	4269913	45296	3588511	0	421676	599650	701	4781	213	698803	3677482	605345
314	2018-04-14 21:18:35	6099318239676	2160.19	531957	0.004061	12.4	4.06	4.061	19.04	0	0.11	4711310	4291684	45504	3614101	0	421911	601749	705	4807	213	700106	3677497	607474
315	2018-04-14 21:28:36	6099318239676	2170.58	533433	0.004069	12.37	4.07	4.069	19.07	0	0.11	4732391	4313301	45734	3628394	0	422177	603757	710	4837	213	701375	3677515	609517
316	2018-04-14 21:38:38	6099318239676	2181.29	535772	0.004071	12.36	4.07	4.071	19.1	0	0.11	4754163	4335162	45951	3651359	0	422420	605847	712	4862	214	702569	3677529	611635
317	2018-04-14 21:48:37	6099318239676	2192.42	537372	0.00408	12.33	4.08	4.08	19.17	0	0.11	4776167	4357942	46149	3673016	0	422658	608028	716	4892	215	704968	3677538	613851
318	2018-04-14 21:58:38	6099318239676	2201.86	540034	0.004077	12.34	4.08	4.077	19.18	0	0.11	4800452	4377451	46386	3697690	0	422936	610407	721	4916	215	705279	3677558	616259
319	2018-04-14 22:08:40	6099318239676	2213.22	541740	0.004085	12.31	4.08	4.085	19.19	0	0.11	4823720	4401015	46587	3719902	0	423163	612710	729	4941	215	705882	3677573	618595
320	2018-04-14 22:18:42	6099318239676	2224.37	544262	0.004087	12.3	4.09	4.087	19.24	0	0.11	4847198	4424466	46786	3722137	0	423403	614918	732	4971	215	707535	3677597	620836
321	2018-04-14 22:28:42	6099318239676	2234.7	545907	0.004094	12.28	4.09	4.094	19.24	0	0.11	4867873	4445768	46984	3744114	0	423633	617046	736	4996	216	707697	3677620	622994
322	2018-04-14 22:38:41	6099318239676	2245.85	548401	0.004095	12.27	4.09	4.095	19.28	0	0.11	4889828	4468280	47189	3756037	0	423880	619363	739	5019	218	709075	3677641	625339
323	2018-04-14 22:48:39	6099318239676	2257.79	550390	0.004102	12.25	4.1	4.102	19.32	0	0.11	4914002	4492571	47433	3784731	0	424151	622074	740	5055	219	710697	3677657	628088
324	2018-04-14 22:58:42	6099318239676	2268.71	553156	0.004101	12.25	4.1	4.101	19.35	0	0.11	4936354	4514991	47625	3797787	0	424384	624526	745	5079	219	711595	3677666	630569
325	2018-04-14 23:08:43	6099318239676	2280.23	555116	0.004108	12.23	4.11	4.108	19.35	0	0.11	4959092	4537905	47815	3820927	0	424598	627137	748	5110	219	711759	3677694	633214
326	2018-04-14 23:18:42	6099318239676	2289.71	557722	0.004105	12.24	4.11	4.105	19.46	0	0.11	4978596	4557196	48036	3833789	0	424843	629407	751	5131	220	715516	3677719	635509
327	2018-04-14 23:28:44	6099318239676	2297.53	559428	0.004107	12.23	4.11	4.107	19.5	0	0.11	4998600	4573245	48273	3850176	0	425112	631692	752	5154	220	717174	3677735	637818
328	2018-04-14 23:38:44	6099318239676	2307.56	562004	0.004106	12.23	4.11	4.106	19.5	0	0.11	5018905	4593582	48481	3859620	0	425350	633994	755	5180	221	717340	3677761	640150
329	2018-04-14 23:48:39	6099318239676	2315.24	563664	0.004107	12.23	4.11	4.107	19.53	0	0.11	5034973	4609399	48683	3863835	0	425581	636073	759	5201	222	718338	3677783	642255
330	2018-04-14 23:58:39	6099318239676	2315.51	565000	0.004098	12.26	4.1	4.098	19.53	0	0.11	5036095	4610002	48884	3863835	0	425817	637059	762	5217	223	718338	3677801	643261
331	2018-04-15 00:08:40	6099318239676	2317.04	565492	0.004097	12.26	4.1	4.097	19.53	0	0.12	5038358	4612936	49075	3865040	0	426043	637817	765	5221	224	718338	3677812	644027
332	2018-04-15 00:18:41	6099318239676	2321.93	567015	0.004095	12.27	4.09	4.095	19.53	0	0.12	5047832	4622532	49288	3871913	0	426279	639424	768	5242	226	718338	3677825	645660
333	2018-04-15 00:28:42	6099318239676	2326.87	568182	0.004095	12.26	4.09	4.095	19.54	0	0.12	5058269	4632781	49475	3886407	0	426495	640954	772	5257	226	718484	3677838	647209
334	2018-04-15 00:38:43	6099318239676	2331	569674	0.004092	12.27	4.09	4.092	19.54	0	0.12	5066956	4641602	49652	3890069	0	426684	642208	774	5272	226	718651	3677848	648480
335	2018-04-15 00:48:43	6099318239676	2334.9	570511	0.004093	12.27	4.09	4.093	19.59	0	0.12	5075445	4650010	49826	3905132	0	426882	643349	776	5276	226	720485	3677865	649627
336	2018-04-15 00:58:44	6099318239676	2338.01	571372	0.004092	12.27	4.09	4.092	19.61	0	0.12	5084075	4656931	49984	3908213	0	427061	644490	777	5292	226	721072	3677876	650785
337	2018-04-15 01:08:44	6099318239676	2341.98	572636	0.00409	12.27	4.09	4.09	19.61	0	0.12	5092681	4665596	50141	3917058	0	427240	645713	779	5302	227	721072	3677887	652021
338	2018-04-15 01:18:44	6099318239676	2346.49	573550	0.004091	12.27	4.09	4.091	19.61	0	0.12	5102243	4675379	50263	3919538	0	427378	646839	779	5320	230	721072	3677896	653168
339	2018-04-15 01:28:45	6099318239676	2351.44	574869	0.00409	12.27	4.09	4.09	19.62	0	0.12	5112693	4686055	50393	3924972	0	427529	648161	782	5329	230	721445	3677904	654502
340	2018-04-15 01:38:48	6099318239676	2356.86	575882	0.004093	12.26	4.09	4.093	19.63	0	0.12	5124343	4697731	50515	3931942	0	427676	649549	782	5346	231	722118	3677912	655908
341	2018-04-15 01:48:47	6099318239676	2361.53	577369	0.00409	12.26	4.09	4.09	19.63	0	0.12	5134572	4707765	50611	3944151	0	427783	650801	785	5368	231	722118	3677926	657185
342	2018-04-15 01:58:48	6099318239676	2365.77	578258	0.004091	12.26	4.09	4.091	19.63	0	0.12	5143731	4716989	50706	3949024	0	427887	651901	788	5382	231	722118	3677932	658302
343	2018-04-15 02:08:48	6099318239676	2369.14	579421	0.004089	12.26	4.09	4.089	19.71	0	0.12	5151435	4724218	50805	3963081	0	427992	652891	789	5389	232	725077	3677942	659301
344	2018-04-15 02:18:49	6099318239676	2371.62	580021	0.004089	12.26	4.09	4.089	19.73	0	0.12	5157192	4729826	50868	3971660	0	428069	653594	791	5396	232	725672	3677944	660013
345	2018-04-15 02:28:48	6099318239676	2373.3	580720	0.004087	12.27	4.09	4.087	19.74	0	0.12	5162002	4733700	50955	3979156	0	428167	654217	791	5403	232	725927	3677950	660643
346	2018-04-15 02:38:48	6099318239676	2375.16	581138	0.004087	12.27	4.09	4.087	19.74	0	0.12	5166361	4738112	51030	3980435	0	428250	654702	792	5405	233	725927	3677957	661132
347	2018-04-15 02:48:49	6099318239676	2377.1	581612	0.004087	12.26	4.09	4.087	19.74	0	0.12	5170842	4742614	51085	3984837	0	428313	655193	792	5408	233	725927	3677966	661626
348	2018-04-15 02:58:50	6099318239676	2379	582002	0.004088	12.26	4.09	4.088	19.75	0	0.12	5175475	4747245	51145	3989972	0	428377	655691	793	5413	234	726268	3677968	662131
349	2018-04-15 03:08:51	6099318239676	2380.84	582601	0.004087	12.26	4.09	4.087	19.75	0	0.12	5179907	4751830	51211	3992223	0	428449	656208	793	5416	234	726268	3677973	662651
350	2018-04-15 03:18:51	6099318239676	2382.38	582928	0.004087	12.26	4.09	4.087	19.75	0	0.12	5183813	4755574	51242	3992223	0	428482	656612	793	5420	234	726311	3677975	663059
351	2018-04-15 03:28:52	6099318239676	2383.92	583363	0.004087	12.26	4.09	4.087	19.78	0	0.12	5187487	4759359	51273	3996087	0	428521	657003	794	5427	234	727676	3677977	663458
352	2018-04-15 03:38:53	6099318239676	2385.53	583665	0.004087	12.25	4.09	4.087	19.78	0	0.12	5191295	4763305	51319	4005781	0	428576	657389	794	5434	234	727676	3677983	663851
353	2018-04-15 03:48:54	6099318239676	2387.5	584152	0.004087	12.25	4.09	4.087	19.8	0	0.12	5195831	4767777	51344	4010320	0	428603	657886	796	5440	234	728189	3677982	664356
354	2018-04-15 03:58:56	6099318239676	2389	584507	0.004087	12.25	4.09	4.087	19.8	0	0.12	5200148	4771244	51393	4010320	0	428653	658366	796	5444	234	728189	3677986	664840
355	2018-04-15 04:08:56	6099318239676	2390.61	584973	0.004087	12.25	4.09	4.087	19.8	0	0.12	5203747	4774910	51430	4010320	0	428700	658719	796	5450	234	728189	3677988	665199
356	2018-04-15 04:18:55	6099318239676	2392.09	585241	0.004087	12.25	4.09	4.087	19.8	0	0.12	5207018	4778256	51455	4010320	0	428730	659078	797	5456	235	728189	3677991	665566
357	2018-04-15 04:28:55	6099318239676	2393.47	585644	0.004087	12.25	4.09	4.087	19.8	0	0.12	5210061	4781355	51478	4015521	0	428756	659437	797	5460	235	728189	3677992	665929
358	2018-04-15 04:38:56	6099318239676	2394.67	585867	0.004087	12.25	4.09	4.087	19.81	0	0.12	5212782	4784031	51509	4015847	0	428790	659741	797	5464	235	728789	3677995	666237
359	2018-04-15 04:48:57	6099318239676	2395.86	586185	0.004087	12.25	4.09	4.087	19.81	0	0.12	5215329	4786616	51530	4015847	0	428811	660008	797	5466	235	728789	3677997	666506
360	2018-04-15 04:58:57	6099318239676	2396.78	586374	0.004087	12.24	4.09	4.087	19.81	0	0.12	5217552	4788740	51554	4019757	0	428835	660242	797	5473	235	728789	3677997	666747
361	2018-04-15 05:08:58	6099318239676	2397.75	586643	0.004087	12.25	4.09	4.087	19.82	0	0.12	5219559	4790795	51578	4023675	0	428861	660510	797	5476	235	728918	3678001	667018
362	2018-04-15 05:19:02	6099318239676	2398.62	586817	0.004088	12.24	4.09	4.088	19.82	0	0.12	5221441	4792717	51602	4023675	0	428887	660737	797	5480	235	728918	3678002	667249
363	2018-04-15 05:29:07	6099318239676	2399.31	587066	0.004087	12.25	4.09	4.087	19.82	0	0.12	5223229	4794143	51632	4023675	0	428917	660943	797	5482	236	728918	3678003	667458
364	2018-04-15 05:39:06	6099318239676	2400.12	587241	0.004087	12.24	4.09	4.087	19.82	0	0.12	5225105	4796008	51665	4023675	0	428950	661198	797	5486	236	728918	3678008	667717
365	2018-04-15 05:49:01	6099318239676	2401.03	587477	0.004087	12.24	4.09	4.087	19.82	0	0.12	5227005	4797945	51687	4023961	0	428972	661415	798	5488	236	728918	3678009	667937
366	2018-04-15 05:59:01	6099318239676	2401.99	587685	0.004087	12.24	4.09	4.087	19.82	0	0.12	5229063	4800053	51712	4024941	0	429001	661708	798	5490	236	728918	3678010	668232
367	2018-04-15 06:09:01	6099318239676	2403.12	587989	0.004087	12.24	4.09	4.087	19.82	0	0.12	5231296	4802378	51733	4024941	0	429027	661997	798	5494	236	728918	3678013	668525
368	2018-04-15 06:19:01	6099318239676	2404.15	588215	0.004087	12.24	4.09	4.087	19.82	0	0.12	5233603	4804580	51767	4024941	0	429065	662277	799	5498	236	728918	3678009	668810
369	2018-04-15 06:29:02	6099318239676	2405.21	588547	0.004087	12.24	4.09	4.087	19.84	0	0.12	5235890	4806960	51806	4026250	0	429110	662566	800	5504	236	729734	3678014	669106
370	2018-04-15 06:39:02	6099318239676	2406.37	588769	0.004087	12.24	4.09	4.087	19.84	0	0.12	5238297	4809356	51837	4026250	0	429145	662880	801	5506	236	729734	3678014	669423
371	2018-04-15 06:49:03	6099318239676	2407.29	589160	0.004086	12.25	4.09	4.086	19.86	0	0.12	5240722	4811324	51869	4028828	0	429180	663246	801	5509	236	730421	3678017	669792
372	2018-04-15 06:59:03	6099318239676	2408.42	589430	0.004086	12.24	4.09	4.086	19.86	0	0.12	5243206	4813846	51907	4028828	0	429223	663633	801	5515	236	730421	3678015	670185
373	2018-04-15 07:09:05	6099318239676	2409.79	589863	0.004085	12.25	4.08	4.085	19.86	0	0.12	5246204	4816765	51952	4036049	0	429276	664017	803	5518	236	730421	3678018	670574
374	2018-04-15 07:19:06	6099318239676	2411.58	590202	0.004086	12.24	4.09	4.086	19.87	0	0.12	5249974	4820595	51999	4039999	0	429327	664523	803	5524	236	730766	3678020	671086
375	2018-04-15 07:29:11	6099318239676	2413.6	590813	0.004085	12.24	4.08	4.085	19.87	0	0.12	5254191	4824986	52067	4039999	0	429400	665127	803	5529	236	730766	3678025	671695
376	2018-04-15 07:39:05	6099318239676	2416.06	591312	0.004086	12.24	4.09	4.086	19.87	0	0.12	5259350	4830251	52137	4042636	0	429474	665826	804	5535	236	730766	3678035	672401
377	2018-04-15 07:49:06	6099318239676	2419.21	592243	0.004085	12.24	4.08	4.085	19.87	0	0.12	5265769	4836820	52192	4042636	0	429539	666715	804	5542	236	730766	3678037	673297
378	2018-04-15 07:59:06	6099318239676	2423.09	593016	0.004086	12.24	4.09	4.086	19.88	0	0.12	5273321	4844833	52287	4043874	0	429645	667814	804	5547	236	731111	3678046	674401
379	2018-04-15 08:09:07	6099318239676	2426.3	594326	0.004082	12.25	4.08	4.082	19.88	0	0.12	5281849	4851709	52377	4057120	0	429744	669041	804	5557	236	731370	3678055	675638
380	2018-04-15 08:19:08	6099318239676	2430.9	595272	0.004084	12.25	4.08	4.084	19.92	0	0.12	5291290	4861332	52497	4057120	0	429877	670358	805	5568	236	732755	3678058	676967
381	2018-04-15 08:29:07		0	0	0	0	0	0	19.93	12.67	0.12	5298214	4868229	52587	4057120	429985	429985	671455	805	5573	236	733102	3678067	678069
382	2018-04-15 08:39:07		0	0	0	0	0	0	19.93	12.68	0.12	5299507	4869412	52682	4060404	430095	430095	671805	805	5576	236	733102	3678076	678422
383	2018-04-15 08:49:07		0	0	0	0	0	0	19.94	12.68	0.12	5300352	4870146	52777	4060404	430206	430206	672066	805	5577	236	733275	3678081	678684
384	2018-04-15 08:59:09		0	0	0	0	0	0	19.94	12.68	0.12	5301107	4870767	52899	4060404	430340	430340	672280	805	5577	236	733275	3678090	678898
385	2018-04-15 09:09:10		0	0	0	0	0	0	19.94	12.68	0.12	5301759	4871278	53025	4060404	430481	430481	672506	808	5577	236	733275	3678101	679127
386	2018-04-15 09:19:12		0	0	0	0	0	0	19.94	12.69	0.12	5302413	4871804	53141	4060404	430609	430609	672750	808	5578	236	733275	3678109	679372
387	2018-04-15 09:29:10		0	0	0	0	0	0	19.94	12.69	0.12	5303001	4872234	53288	4063068	430767	430767	672993	808	5578	236	733275	3678124	679615
388	2018-04-15 09:39:09		0	0	0	0	0	0	19.94	12.69	0.12	5303555	4872642	53426	4063068	430913	430913	673224	809	5580	236	733275	3678136	679849
389	2018-04-15 09:49:11		0	0	0	0	0	0	19.94	12.7	0.12	5304084	4873031	53555	4063068	431053	431053	673416	809	5584	236	733275	3678147	680045
