1	2016-09-07 14:53:52	0	0	0	0	0	0	0	0	0	0	1	0	0	0	0	0	0	3	3	0	2141353	0
2	2016-09-07 15:03:50	0	0	0	0	0	0	2.06	4.41	0	52456	1	182	44306	52456	52274	2312	20	77	16	44184	2141378	2425
3	2016-09-07 15:13:50	0	0	0	0	0	0	3.43	4.85	0.01	87935	1	709	74179	87935	87226	4268	40	166	27	73539	2141397	4501
4	2016-09-07 15:23:50	0	0	0	0	0	0	5.57	5.47	0.02	150043	1	2361	121291	150043	147682	8206	56	242	35	119381	2141425	8539
5	2016-09-07 15:33:50	0	0	0	0	0	0	6.33	5.72	0.02	178762	1	3392	138207	178762	175370	10227	74	298	37	135637	2141449	10636
6	2016-09-07 15:43:50	0	0	0	0	0	0	7.9	6.05	0.02	231223	1	5441	172573	231223	225782	13989	78	351	43	169236	2141467	14461
7	2016-09-07 15:53:52	0	0	0	0	0	0	8.56	6.11	0.03	255387	1	6578	187489	255387	248809	15599	82	397	45	183372	2141484	16123
8	2016-09-07 16:03:52	0	0	0	0	0	0	9.56	6.25	0.03	290178	1	8317	210201	290178	281861	18124	88	437	50	204753	2141509	18699
9	2016-09-07 16:13:51	0	0	0	0	0	0	10.5	6.26	0.03	327097	1	10297	230421	327097	316800	20492	98	487	51	224800	2141529	21128
10	2016-09-07 16:23:51	0	0	0	0	0	0	10.83	6.26	0.03	342627	1	11232	239101	342627	331395	21461	108	522	55	231853	2141548	22146
11	2016-09-07 16:33:51	0	0	0	0	0	0	11.58	6.29	0.04	377212	1	13377	256752	377212	363835	23729	114	553	57	248054	2141567	24453
12	2016-09-07 16:43:52	0	0	0	0	0	0	12.21	6.31	0.04	404234	1	15186	271426	404234	389048	25513	116	577	57	261382	2141594	26263
13	2016-09-07 16:53:54	0	0	0	0	0	0	12.45	6.31	0.04	415527	1	15983	278006	415527	399544	26228	116	609	56	266609	2141623	27009
14	2016-09-07 17:03:53	0	0	0	0	0	0	12.77	6.32	0.04	434652	1	17352	286030	434652	417300	27449	120	632	56	273399	2141638	28257
15	2016-09-07 17:13:54	0	0	0	0	0	0	13.19	6.31	0.04	456227	1	18956	296077	456227	437271	28773	122	648	60	282461	2141660	29603
16	2016-09-07 17:23:53	0	0	0	0	0	0	13.54	6.15	0.05	478371	1	20665	304980	478371	457706	29396	124	665	63	290077	2141685	30248
17	2016-09-07 17:33:54	0	0	0	0	0	0	13.77	6.29	0.05	488883	1	21396	310138	488883	467487	30755	124	679	65	294908	2141706	31623
18	2016-09-07 17:43:54	0	0	0	0	0	0	14.34	6.15	0.05	509706	1	22793	323634	509706	486913	31364	124	691	62	307089	2141737	32241
19	2016-09-07 17:53:53	0	0	0	0	0	0	14.45	6.26	0.05	518347	1	23383	326548	518347	494964	32423	124	710	66	309557	2141754	33323
20	2016-09-07 18:03:52	0	0	0	0	0	0	14.82	6.23	0.05	536770	1	24665	335516	536770	512105	33415	124	720	67	317458	2141773	34326
21	2016-09-07 18:13:53	0	0	0	0	0	0	15.01	6.21	0.05	544404	1	25211	340002	544404	519193	33823	130	728	70	321470	2141799	34751
22	2016-09-07 18:23:54	0	0	0	0	0	0	15.39	6.19	0.05	561248	1	26352	348733	561248	534896	34754	130	737	70	329633	2141826	35691
23	2016-09-07 18:33:55	0	0	0	0	0	0	15.55	6.17	0.05	569125	1	26844	353158	569125	542281	35115	130	746	70	333135	2141851	36061
24	2016-09-07 18:43:56	0	0	0	0	0	0	15.88	6.15	0.05	582374	1	27657	361259	582374	554717	35834	130	761	71	340036	2141877	36796
25	2016-09-07 18:53:56	0	0	0	0	0	0	16.09	6.13	0.05	596915	1	28658	366860	596915	568257	36568	134	776	71	344686	2141899	37549
26	2016-09-07 19:03:56	0	0	0	0	0	0	16.32	6.12	0.05	604049	1	29167	371605	604049	574882	36972	134	782	71	349585	2141927	37959
27	2016-09-07 19:13:55	0	0	0	0	0	0	16.59	6.1	0.05	616783	1	30067	377205	616783	586716	37652	138	793	71	355290	2141948	38654
28	2016-09-07 19:23:55	0	0	0	0	0	0	16.78	6.1	0.05	623086	1	30500	382555	623086	592586	37979	138	795	73	359489	2141970	38985
29	2016-09-07 19:33:56	0	0	0	0	0	0	17.06	6.08	0.05	635841	1	31328	389662	635841	604513	38633	138	803	73	365477	2141987	39647
30	2016-09-07 19:43:56	0	0	0	0	0	0	17.33	6.05	0.05	647911	1	32153	395580	647911	615758	39221	138	814	74	371233	2142003	40247
31	2016-09-07 19:53:55	0	0	0	0	0	0	17.39	6.05	0.05	653810	1	32552	397102	653810	621258	39529	138	830	75	372394	2142019	40572
32	2016-09-07 20:03:57	0	0	0	0	0	0	17.65	6.04	0.05	665270	1	33366	403312	665270	631904	40160	144	838	77	378081	2142047	41219
33	2016-09-07 20:13:56	0	0	0	0	0	0	17.85	6.03	0.05	670474	1	33738	408695	670474	636736	40429	144	847	77	382382	2142055	41497
34	2016-09-07 20:23:56	0	0	0	0	0	0	18.08	6.01	0.05	682491	1	34567	414515	682491	647924	41032	144	852	77	387327	2142074	42105
35	2016-09-07 20:33:57	0	0	0	0	0	0	18.19	6	0.05	688115	1	34966	417049	688115	653149	41312	148	858	77	389734	2142095	42395
36	2016-09-07 20:43:56	0	0	0	0	0	0	18.34	5.99	0.05	697702	1	35584	421197	697702	662118	41816	148	868	78	392862	2142118	42910
37	2016-09-07 20:53:57	0	0	0	0	0	0	18.39	5.98	0.05	703776	1	35985	423082	703776	667791	42118	150	876	81	393899	2142141	43225
38	2016-09-07 21:03:58	0	0	0	0	0	0	18.75	5.97	0.05	714265	1	36573	431630	714265	677692	42624	152	881	81	401676	2142168	43738
39	2016-09-07 21:13:56	0	0	0	0	0	0	18.86	5.96	0.05	719468	1	36906	434858	719468	682562	42909	152	886	81	404047	2142187	44028
40	2016-09-07 21:23:56	0	0	0	0	0	0	19.1	5.94	0.05	731434	1	37553	441752	731434	693881	43448	154	897	82	409072	2142214	44581
41	2016-09-07 21:33:57	0	0	0	0	0	0	19.4	5.92	0.05	742730	1	38230	446313	742730	704500	43965	156	906	84	415529	2142250	45111
42	2016-09-07 21:43:57	0	0	0	0	0	0	19.6	5.91	0.05	748854	1	38577	450207	748854	710277	44230	158	910	84	419811	2142289	45382
43	2016-09-07 21:53:58	0	0	0	0	0	0	19.85	5.89	0.05	759530	1	39305	455793	759530	720225	44719	158	919	84	425306	2142317	45880
44	2016-09-07 22:03:58	0	0	0	0	0	0	20.02	5.87	0.05	768939	1	39890	459799	768939	729049	45126	158	926	86	428792	2142349	46296
45	2016-09-07 22:13:59	0	0	0	0	0	0	20.07	5.86	0.05	773866	1	40265	461168	773866	733601	45360	160	931	88	429982	2142384	46539
46	2016-09-07 22:23:58	0	0	0	0	0	0	20.32	5.85	0.06	784363	1	41029	466720	784363	743334	45881	164	935	88	435417	2142415	47068
47	2016-09-07 22:33:57	0	0	0	0	0	0	20.6	5.84	0.06	794043	1	41690	472498	794043	752353	46360	164	941	88	441320	2142463	47553
48	2016-09-07 22:43:58	0	0	0	0	0	0	20.65	5.83	0.06	799613	1	42042	473709	799613	757571	46585	164	945	88	442376	2142483	47782
49	2016-09-07 22:53:58	0	0	0	0	0	0	20.79	5.82	0.06	805718	1	42378	477177	805718	763340	46859	166	950	88	445399	2142512	48063
50	2016-09-07 23:03:58	0	0	0	0	0	0	20.99	5.8	0.06	816446	1	42997	480528	816446	773449	47390	166	953	88	449619	2142547	48597
51	2016-09-07 23:13:58	0	0	0	0	0	0	21.21	5.8	0.06	825414	1	43536	486101	825414	781878	47840	166	961	88	454494	2142567	49055
52	2016-09-07 23:23:57	0	0	0	0	0	0	21.27	5.79	0.06	829373	1	43766	487548	829373	785607	48006	166	963	90	455759	2142592	49225
53	2016-09-07 23:33:58	0	0	0	0	0	0	21.44	5.78	0.06	837187	1	44298	490279	837187	792889	48382	166	968	90	459402	2142614	49606
54	2016-09-07 23:43:58	0	0	0	0	0	0	21.59	5.78	0.06	841464	1	44502	493876	841464	796962	48600	166	971	90	462559	2142629	49827
55	2016-09-07 23:53:58	0	0	0	0	0	0	21.78	5.77	0.06	849295	1	44925	498337	849295	804370	49026	164	974	91	466611	2142653	50255
56	2016-09-08 00:03:57	0	0	0	0	0	0	21.82	5.77	0.06	852028	1	45084	499382	852028	806944	49176	164	975	91	467456	2142675	50406
57	2016-09-08 00:13:57	0	0	0	0	0	0	21.93	5.77	0.06	858363	1	45435	501632	858363	812928	49507	164	980	92	469859	2142692	50743
58	2016-09-08 00:23:57	0	0	0	0	0	0	22.09	5.76	0.06	863806	1	45694	504493	863806	818112	49779	164	980	92	473234	2142703	51015
59	2016-09-08 00:33:59	0	0	0	0	0	0	22.13	5.76	0.06	866743	1	45835	505646	866743	820908	49932	164	981	92	474249	2142705	51169
60	2016-09-08 00:43:57	0	0	0	0	0	0	22.23	5.76	0.06	871473	1	46040	507886	871473	825433	50213	164	982	92	476365	2142715	51451
61	2016-09-08 00:53:57	0	0	0	0	0	0	22.26	5.76	0.06	873697	1	46133	508532	873697	827564	50295	164	984	92	476934	2142716	51535
62	2016-09-08 01:03:58	0	0	0	0	0	0	22.3	5.75	0.06	877147	1	46276	508950	877147	830871	50469	164	985	92	477743	2142728	51710
63	2016-09-08 01:13:57	0	0	0	0	0	0	22.31	5.75	0.06	878937	1	46350	509034	878937	832587	50572	164	986	92	477964	2142729	51814
64	2016-09-08 01:23:57	0	0	0	0	0	0	22.35	5.75	0.06	881580	1	46444	510040	881580	835136	50706	164	989	92	478851	2142730	51951
65	2016-09-08 01:33:59	0	0	0	0	0	0	22.41	5.75	0.06	884197	1	46561	511980	884197	837636	50864	164	990	92	480263	2142734	52110
66	2016-09-08 01:43:59	0	0	0	0	0	0	22.45	5.75	0.06	885462	1	46612	512934	885462	838850	50924	168	990	93	481102	2142735	52175
67	2016-09-08 01:53:58	0	0	0	0	0	0	22.56	5.75	0.06	887547	1	46699	515453	887547	840848	51027	168	991	93	483318	2142738	52279
68	2016-09-08 02:03:58	0	0	0	0	0	0	22.56	5.75	0.06	888352	1	46732	515453	888352	841620	51071	168	991	93	483318	2142174	52323
69	2016-09-08 02:13:58	0	0	0	0	0	0	22.67	5.75	0.06	889911	1	46794	517412	889911	843117	51163	168	992	93	485649	2142179	52416
70	2016-09-08 02:23:59	0	0	0	0	0	0	22.68	5.75	0.06	891242	1	46846	517758	891242	844396	51216	168	993	93	485953	2142183	52470
71	2016-09-08 02:33:58	0	0	0	0	0	0	22.71	5.75	0.06	891854	1	46870	518365	891854	844984	51240	168	995	93	486488	2142181	52496
72	2016-09-08 02:43:58	0	0	0	0	0	0	22.77	5.74	0.06	893164	1	46934	519757	893164	846230	51311	170	997	93	487714	2142183	52571
73	2016-09-08 02:54:00	0	0	0	0	0	0	22.77	5.75	0.06	893666	1	46958	519932	893666	846708	51348	170	997	93	487868	2142185	52608
74	2016-09-08 03:03:57	0	0	0	0	0	0	22.8	5.74	0.06	894706	1	46999	520631	894706	847707	51395	170	997	93	488483	2142188	52655
75	2016-09-08 03:13:57	0	0	0	0	0	0	22.85	5.74	0.06	895569	1	47029	521684	895569	848540	51440	170	997	93	489565	2142188	52700
76	2016-09-08 03:23:58	0	0	0	0	0	0	22.91	5.74	0.06	896017	1	47049	523006	896017	848968	51462	170	999	94	490729	2142191	52725
77	2016-09-08 03:33:58	0	0	0	0	0	0	22.91	5.74	0.06	896744	1	47087	523094	896744	849657	51494	170	999	94	490806	2142192	52757
78	2016-09-08 03:43:57	0	0	0	0	0	0	22.91	5.74	0.06	897361	1	47113	523094	897361	850248	51521	170	1001	94	490806	2142193	52786
79	2016-09-08 03:53:57	0	0	0	0	0	0	22.95	5.74	0.06	897743	1	47125	523935	897743	850618	51534	170	1001	94	491547	2142195	52799
80	2016-09-08 04:03:57	0	0	0	0	0	0	22.99	5.74	0.06	898360	1	47161	524334	898360	851199	51561	170	1001	94	492524	2142196	52826
81	2016-09-08 04:13:58	0	0	0	0	0	0	23.01	5.74	0.06	898606	1	47177	524867	898606	851429	51575	170	1001	94	492994	2142196	52840
82	2016-09-08 04:23:57	0	0	0	0	0	0	23.01	5.74	0.06	899243	1	47199	524867	899243	852044	51599	170	1002	94	492994	2142197	52865
83	2016-09-08 04:33:57	0	0	0	0	0	0	23.02	5.74	0.06	899550	1	47208	525001	899550	852342	51610	170	1002	94	493112	2142198	52876
84	2016-09-08 04:43:57	0	0	0	0	0	0	23.02	5.74	0.06	900190	1	47235	525001	900190	852955	51636	170	1002	94	493112	2142197	52902
85	2016-09-08 04:53:59	0	0	0	0	0	0	23.02	5.73	0.06	900699	1	47260	525001	900699	853439	51649	170	1002	94	493112	2142199	52915
86	2016-09-08 05:03:57	0	0	0	0	0	0	23.02	5.73	0.06	901011	1	47284	525001	901011	853727	51665	170	1002	94	493112	2142201	52931
87	2016-09-08 05:13:57	0	0	0	0	0	0	23.02	5.73	0.06	901739	1	47334	525001	901739	854405	51682	170	1002	94	493112	2142203	52948
88	2016-09-08 05:23:58	0	0	0	0	0	0	23.02	5.73	0.06	902135	1	47357	525001	902135	854778	51701	170	1002	94	493112	2142205	52967
89	2016-09-08 05:33:58	0	0	0	0	0	0	23.02	5.73	0.06	902944	1	47411	525001	902944	855533	51729	170	1003	94	493112	2142207	52996
90	2016-09-08 05:43:57	0	0	0	0	0	0	23.02	5.73	0.06	903414	1	47440	525001	903414	855974	51746	170	1003	94	493112	2142209	53013
91	2016-09-08 05:53:57	0	0	0	0	0	0	23.03	5.73	0.06	904399	1	47492	525357	904399	856907	51777	170	1003	94	493426	2142212	53044
92	2016-09-08 06:03:58	0	0	0	0	0	0	23.03	5.72	0.06	905436	1	47551	525357	905436	857885	51813	170	1003	94	493426	2142215	53080
93	2016-09-08 06:14:00	0	0	0	0	0	0	23.04	5.72	0.06	906178	1	47587	525625	906178	858591	51838	170	1004	94	493663	2142220	53106
94	2016-09-08 06:24:00	0	0	0	0	0	0	23.09	5.72	0.06	907811	1	47676	526631	907811	860135	51912	170	1005	94	494550	2142227	53181
95	2016-09-08 06:34:00	0	0	0	0	0	0	23.19	5.72	0.06	908700	1	47716	529150	908700	860984	51953	170	1005	94	496771	2142235	53222
96	2016-09-08 06:43:59	0	0	0	0	0	0	23.21	5.71	0.06	910276	1	47794	529694	910276	862482	52009	170	1008	94	497250	2142247	53281
97	2016-09-08 06:54:00	0	0	0	0	0	0	23.21	5.71	0.06	912287	1	47900	529694	912287	864387	52099	170	1010	94	497250	2142253	53373
98	2016-09-08 07:03:59	0	0	0	0	0	0	23.21	5.71	0.06	913190	1	47952	529694	913190	865238	52137	170	1011	95	497250	2142261	53413
99	2016-09-08 07:14:00	0	0	0	0	0	0	23.24	5.71	0.06	915711	1	48077	531193	915711	867634	52244	170	1011	96	497970	2142268	53521
100	2016-09-08 07:23:59	0	0	0	0	0	0	23.26	5.7	0.06	917041	1	48134	531669	917041	868907	52291	170	1012	96	498388	2142281	53569
101	2016-09-08 07:34:01	0	0	0	0	0	0	23.32	5.7	0.06	919704	1	48262	533134	919704	871442	52416	170	1012	96	499675	2142284	53694
102	2016-09-08 07:43:59	0	0	0	0	0	0	23.33	5.7	0.06	921079	1	48342	533547	921079	872737	52479	170	1012	96	499715	2142290	53757
103	2016-09-08 07:54:00	0	0	0	0	0	0	23.4	5.7	0.06	923896	1	48494	535218	923896	875402	52622	170	1013	96	501323	2142290	53901
104	2016-09-08 08:03:59	0	0	0	0	0	0	23.42	5.69	0.06	925502	1	48587	535589	925502	876915	52685	170	1014	96	501648	2142293	53965
105	2016-09-08 08:13:59	0	0	0	0	0	0	23.48	5.69	0.06	928616	1	48750	537028	928616	879866	52807	170	1016	96	503074	2142298	54089
106	2016-09-08 08:24:01	0	0	0	0	0	0	23.55	5.67	0.06	931545	1	48906	538570	931545	882639	52863	170	1019	97	504426	2142304	54149
107	2016-09-08 08:34:03	0	0	0	0	0	0	23.56	5.68	0.06	933201	1	49006	538968	933201	884195	53005	170	1020	97	504776	2142316	54292
108	2016-09-08 08:44:10	0	0	0	0	0	0	23.58	5.68	0.06	936206	1	49150	539485	936206	887056	53133	170	1021	96	505229	2142318	54420
109	2016-09-08 08:54:02	0	0	0	0	0	0	23.59	5.67	0.06	937727	1	49231	540332	937727	888496	53197	170	1023	96	505394	2142324	54486
110	2016-09-08 09:03:59	0	0	0	0	0	0	23.67	5.67	0.06	940791	1	49403	542177	940791	891388	53338	170	1024	96	507007	2142324	54628
111	2016-09-08 09:14:00	0	0	0	0	0	0	23.67	5.67	0.06	942328	1	49470	542213	942328	892858	53409	170	1026	96	507039	2142332	54701
112	2016-09-08 09:24:01	0	0	0	0	0	0	23.68	5.66	0.06	945089	1	49591	542545	945089	895498	53536	172	1027	96	507329	2142342	54831
113	2016-09-08 09:34:02	0	0	0	0	0	0	23.7	5.66	0.06	946413	1	49674	542926	946413	896739	53609	176	1028	96	507662	2142352	54909
114	2016-09-08 09:44:01	0	0	0	0	0	0	23.89	5.66	0.06	949707	1	49894	548156	949707	899813	53767	176	1033	96	511894	2142361	55072
115	2016-09-08 09:54:02	0	0	0	0	0	0	24.11	5.66	0.06	952494	1	50042	552805	952494	902452	53916	176	1034	96	516462	2142362	55222
116	2016-09-08 10:04:09	0	0	0	0	0	0	24.13	5.66	0.06	954025	1	50150	552805	954025	903875	53985	176	1036	96	516979	2142375	55293
117	2016-09-08 10:14:01	0	0	0	0	0	0	24.16	5.66	0.06	956915	1	50339	553794	956915	906576	54125	176	1037	96	517498	2142388	55434
118	2016-09-08 10:24:09	0	0	0	0	0	0	24.24	5.65	0.06	958322	1	50428	555882	958322	907894	54180	176	1037	96	519320	2142397	55489
119	2016-09-08 10:34:02	0	0	0	0	0	0	24.24	5.65	0.06	961268	1	50608	556356	961268	910660	54330	178	1038	96	519407	2142396	55642
120	2016-09-08 10:44:02	0	0	0	0	0	0	24.31	5.65	0.06	962474	1	50673	556706	962474	911801	54386	180	1041	96	520761	2142398	55703
121	2016-09-08 10:54:04	0	0	0	0	0	0	24.32	5.65	0.06	965447	1	50833	557007	965447	914614	54519	180	1042	96	521024	2142407	55837
122	2016-09-08 11:04:04	0	0	0	0	0	0	24.35	5.64	0.06	968212	1	50989	557759	968212	917223	54575	180	1043	96	521683	2142413	55894
123	2016-09-08 11:14:07	0	0	0	0	0	0	24.35	5.64	0.06	969649	1	51058	557759	969649	918591	54708	180	1045	96	521683	2142413	56029
124	2016-09-08 11:24:09	0	0	0	0	0	0	24.43	5.64	0.06	972375	1	51197	559624	972375	921178	54842	180	1045	96	523358	2142425	56163
125	2016-09-08 11:34:10	0	0	0	0	0	0	24.45	5.64	0.06	973781	1	51271	560466	973781	922510	54909	182	1046	96	523751	2142433	56233
126	2016-09-08 11:44:10	0	0	0	0	0	0	24.51	5.63	0.06	976554	1	51396	561584	976554	925158	54959	182	1049	96	525083	2142436	56286
127	2016-09-08 11:54:10	0	0	0	0	0	0	24.51	5.64	0.06	977687	1	51453	561584	977687	926234	55100	184	1052	96	525083	2142440	56432
128	2016-09-08 12:04:08	0	0	0	0	0	0	24.6	5.63	0.06	980427	1	51585	563321	980427	928842	55224	184	1055	96	526960	2142453	56559
129	2016-09-08 12:14:07	0	0	0	0	0	0	24.66	5.63	0.06	981560	1	51633	564966	981560	929927	55276	184	1056	96	528399	2142466	56612
130	2016-09-08 12:24:09	0	0	0	0	0	0	24.7	5.63	0.06	984497	1	51777	565766	984497	932720	55379	184	1056	96	529098	2142483	56715
131	2016-09-08 12:34:08	0	0	0	0	0	0	24.74	5.62	0.06	986668	1	51883	566905	986668	934785	55468	184	1056	96	530095	2142489	56804
132	2016-09-08 12:44:11	0	0	0	0	0	0	24.75	5.62	0.06	987846	1	51935	566905	987846	935911	55515	184	1056	96	530276	2142499	56851
133	2016-09-08 12:54:14	0	0	0	0	0	0	24.83	5.62	0.06	990242	1	52034	568963	990242	938208	55606	184	1056	96	532076	2142516	56942
134	2016-09-08 13:04:10	0	0	0	0	0	0	24.88	5.61	0.06	992523	1	52125	570010	992523	940398	55651	184	1056	96	532992	2142525	56987
135	2016-09-08 13:14:11	0	0	0	0	0	0	24.88	5.61	0.06	993668	1	52158	570010	993668	941510	55745	184	1057	97	532992	2142545	57083
136	2016-09-08 13:24:11	0	0	0	0	0	0	24.95	5.61	0.06	995894	1	52250	571694	995894	943644	55826	190	1057	97	534464	2142564	57170
137	2016-09-08 13:34:11	0	0	0	0	0	0	25.03	5.6	0.06	998080	1	52339	573441	998080	945741	55915	190	1057	97	536362	2142575	57259
138	2016-09-08 13:44:12	0	0	0	0	0	0	25.05	5.6	0.06	999411	1	52389	573866	999411	947022	55971	188	1057	97	536734	2142589	57313
139	2016-09-08 13:54:18	0	0	0	0	0	0	25.14	5.6	0.06	1001776	1	52463	574452	1001776	949313	56053	190	1058	97	538742	2142597	57398
140	2016-09-08 14:04:19	0	0	0	0	0	0	25.18	5.59	0.06	1003086	1	52516	575279	1003086	950570	56101	190	1059	97	539469	2142607	57447
141	2016-09-08 14:14:27	0	0	0	0	0	0	25.18	5.59	0.06	1005531	1	52627	575493	1005531	952904	56198	190	1060	97	539563	2142627	57545
142	2016-09-08 14:24:26	0	0	0	0	0	0	25.19	5.59	0.06	1006541	1	52665	575707	1006541	953876	56237	188	1061	97	539751	2142646	57583
143	2016-09-08 14:34:32	0	0	0	0	0	0	25.23	5.59	0.06	1009166	1	52762	576672	1009166	956404	56363	188	1063	97	540599	2142661	57711
144	2016-09-08 14:44:23	0	0	0	0	0	0	25.25	5.58	0.06	1010222	1	52803	577102	1010222	957419	56414	188	1064	97	540977	2142691	57763
145	2016-09-08 14:54:35	0	0	0	0	0	0	25.3	5.58	0.06	1012721	1	52907	578166	1012721	959814	56510	188	1067	97	542102	2142722	57862
146	2016-09-08 15:04:27	0	0	0	0	0	0	25.3	5.58	0.06	1013903	1	52964	578166	1013903	960939	56562	188	1068	97	542102	2142747	57915
147	2016-09-08 15:14:33	0	0	0	0	0	0	25.31	5.57	0.06	1015899	1	53046	578544	1015899	962853	56624	188	1069	97	542434	2142765	57978
148	2016-09-08 15:24:27	0	0	0	0	0	0	25.36	5.57	0.06	1017997	1	53148	579600	1017997	964849	56721	188	1070	97	543362	2142775	58076
149	2016-09-08 15:34:32	0	0	0	0	0	0	25.36	5.57	0.06	1019136	1	53200	579600	1019136	965936	56774	188	1070	97	543362	2142792	58129
150	2016-09-08 15:44:25	0	0	0	0	0	0	25.39	5.57	0.06	1021178	1	53296	580523	1021178	967882	56866	188	1071	97	544079	2142814	58222
151	2016-09-08 15:54:36	0	0	0	0	0	0	25.39	5.57	0.06	1022204	1	53342	580523	1022204	968862	56893	188	1071	97	544079	2142839	58249
152	2016-09-08 16:04:29	0	0	0	0	0	0	25.39	5.56	0.06	1024184	1	53434	580632	1024184	970750	56965	188	1071	97	544174	2142875	58321
153	2016-09-08 16:14:38	0	0	0	0	0	0	25.43	5.56	0.06	1025076	1	53484	580959	1025076	971592	57007	188	1072	97	544844	2142897	58364
154	2016-09-08 16:24:27	0	0	0	0	0	0	25.47	5.56	0.06	1026936	1	53563	582106	1026936	973373	57088	188	1072	97	545853	2142909	58445
155	2016-09-08 16:34:22	0	0	0	0	0	0	25.48	5.56	0.06	1027697	1	53585	582736	1027697	974112	57118	186	1072	97	546046	2142929	58473
156	2016-09-08 16:44:29	0	0	0	0	0	0	25.5	5.55	0.05	1029492	1	53665	583285	1029492	975827	57188	186	1072	97	546527	2142949	58543
157	2016-09-08 16:54:36	0	0	0	0	0	0	25.59	5.55	0.05	1031346	1	53745	585186	1031346	977601	57271	188	1073	97	548488	2142984	58629
158	2016-09-08 17:04:31	0	0	0	0	0	0	25.63	5.55	0.05	1032110	1	53784	586156	1032110	978326	57310	188	1074	97	549339	2143007	58669
159	2016-09-08 17:14:35	0	0	0	0	0	0	25.64	5.55	0.05	1033736	1	53873	586378	1033736	979863	57379	188	1075	97	549534	2143026	58739
160	2016-09-08 17:24:33	0	0	0	0	0	0	25.64	5.55	0.05	1035414	1	53965	586378	1035414	981449	57436	188	1075	97	549534	2143046	58796
161	2016-09-08 17:34:43	0	0	0	0	0	0	25.67	5.55	0.05	1036399	1	54005	587045	1036399	982394	57482	188	1077	97	550120	2143064	58844
162	2016-09-08 17:44:42	0	0	0	0	0	0	25.77	5.54	0.05	1038113	1	54088	589377	1038113	984025	57558	188	1077	98	552365	2143083	58921
163	2016-09-08 17:54:47	0	0	0	0	0	0	25.78	5.54	0.05	1039062	1	54135	589602	1039062	984927	57598	188	1077	98	552562	2143111	58961
164	2016-09-08 18:04:31	0	0	0	0	0	0	25.83	5.54	0.05	1040654	1	54210	590719	1040654	986444	57672	188	1077	98	553544	2143136	59035
165	2016-09-08 18:14:40	0	0	0	0	0	0	25.84	5.54	0.05	1041567	1	54250	591058	1041567	987317	57716	188	1079	98	553841	2143153	59081
166	2016-09-08 18:24:30	0	0	0	0	0	0	25.88	5.54	0.05	1043348	1	54330	591905	1043348	989018	57790	188	1079	98	554585	2143174	59155
167	2016-09-08 18:34:38	0	0	0	0	0	0	25.88	5.54	0.05	1044168	1	54366	591905	1044168	989802	57825	188	1079	98	554585	2143189	59190
168	2016-09-08 18:44:32	0	0	0	0	0	0	25.89	5.54	0.05	1044975	1	54399	592358	1044975	990576	57866	188	1079	98	554983	2143208	59231
169	2016-09-08 18:54:46	0	0	0	0	0	0	25.91	5.54	0.05	1046660	1	54478	592812	1046660	992182	57936	190	1079	98	555381	2143231	59303
170	2016-09-08 19:04:34	0	0	0	0	0	0	25.91	5.53	0.05	1047514	1	54520	593323	1047514	992994	57971	190	1079	98	555381	2143253	59338
171	2016-09-08 19:14:44	0	0	0	0	0	0	25.96	5.53	0.05	1049105	1	54576	594006	1049105	994529	58035	190	1079	98	556379	2143270	59402
172	2016-09-08 19:24:33	0	0	0	0	0	0	25.99	5.53	0.05	1050353	1	54647	594748	1050353	995706	58094	190	1080	98	557029	2143293	59462
173	2016-09-08 19:34:42	0	0	0	0	0	0	25.99	5.53	0.05	1051139	1	54687	594748	1051139	996452	58114	190	1081	98	557029	2143320	59483
174	2016-09-08 19:44:38	0	0	0	0	0	0	26.01	5.53	0.05	1052563	1	54744	595205	1052563	997819	58175	192	1082	98	557430	2143337	59547
175	2016-09-08 19:55:43	0	0	0	0	0	0	26.01	5.53	0.05	1053331	1	54778	595205	1053331	998553	58205	192	1082	98	557430	2143355	59577
176	2016-09-08 20:04:47	0	0	0	0	0	0	26.04	5.52	0.05	1054545	1	54830	595892	1054545	999715	58249	192	1082	98	558033	2143375	59621
177	2016-09-08 20:14:45	0	0	0	0	0	0	26.04	5.52	0.05	1055178	1	54857	596122	1055178	1000321	58273	192	1082	98	558234	2143398	59645
178	2016-09-08 20:24:34	0	0	0	0	0	0	26.04	5.52	0.05	1056402	1	54907	596122	1056402	1001495	58314	192	1082	98	558234	2143424	59686
179	2016-09-08 20:34:42	0	0	0	0	0	0	26.04	5.52	0.05	1057666	1	54953	596351	1057666	1002713	58371	192	1082	98	558234	2143449	59743
180	2016-09-08 20:44:38	0	0	0	0	0	0	26.06	5.52	0.05	1059011	1	55006	596682	1059011	1004005	58428	192	1083	98	558524	2143474	59801
181	2016-09-08 20:54:50	0	0	0	0	0	0	26.06	5.52	0.05	1059798	1	55038	596682	1059798	1004760	58463	192	1085	98	558524	2143505	59838
182	2016-09-08 21:04:36	0	0	0	0	0	0	26.08	5.51	0.05	1060656	1	55088	597596	1060656	1005568	58491	190	1087	98	559129	2143526	59866
183	2016-09-08 21:14:46	0	0	0	0	0	0	26.09	5.51	0.05	1062136	1	55187	597725	1062136	1006949	58565	190	1088	98	559243	2143551	59941
184	2016-09-08 21:24:37	0	0	0	0	0	0	26.1	5.51	0.05	1063413	1	55255	598072	1063413	1008158	58618	190	1088	98	559546	2143579	59994
185	2016-09-08 21:34:49	0	0	0	0	0	0	26.12	5.51	0.05	1064259	1	55305	598766	1064259	1008954	58652	188	1088	98	559951	2143595	60026
186	2016-09-08 21:44:35	0	0	0	0	0	0	26.14	5.51	0.05	1066145	1	55390	599171	1066145	1010755	58726	188	1089	98	560305	2143611	60101
187	2016-09-08 21:54:52	0	0	0	0	0	0	26.15	5.51	0.05	1067159	1	55431	599403	1067159	1011728	58767	188	1089	98	560508	2143618	60142
188	2016-09-08 22:04:38	0	0	0	0	0	0	26.16	5.5	0.05	1069143	1	55495	599606	1069143	1013648	58843	188	1089	98	560686	2143632	60218
189	2016-09-08 22:14:48	0	0	0	0	0	0	26.17	5.5	0.05	1071162	1	55566	599955	1071162	1015596	58934	188	1089	98	560990	2143657	60309
190	2016-09-08 22:24:40	0	0	0	0	0	0	26.19	5.5	0.05	1072170	1	55585	600129	1072170	1016585	58974	188	1089	98	561346	2143668	60349
191	2016-09-08 22:34:47	0	0	0	0	0	0	26.27	5.5	0.05	1074413	1	55644	600580	1074413	1018769	59049	188	1091	98	563171	2143692	60426
192	2016-09-08 22:44:46	0	0	0	0	0	0	26.29	5.49	0.05	1075437	1	55689	601047	1075437	1019748	59092	188	1091	98	563581	2143716	60469
193	2016-09-08 22:54:48	0	0	0	0	0	0	26.29	5.49	0.05	1077067	1	55745	601047	1077067	1021322	59155	188	1091	98	563581	2143733	60532
194	2016-09-08 23:04:43	0	0	0	0	0	0	26.35	5.49	0.05	1078019	1	55778	602450	1078019	1022241	59192	188	1091	98	564815	2143750	60569
195	2016-09-08 23:14:51	0	0	0	0	0	0	26.39	5.49	0.05	1079734	1	55845	603625	1079734	1023889	59273	188	1091	98	565847	2143768	60650
196	2016-09-08 23:24:33	0	0	0	0	0	0	26.41	5.49	0.05	1080675	1	55868	603978	1080675	1024807	59307	188	1091	98	566158	2143784	60684
197	2016-09-08 23:34:48	0	0	0	0	0	0	26.5	5.49	0.05	1082386	1	55922	605158	1082386	1026464	59396	188	1091	99	568027	2143806	60774
198	2016-09-08 23:44:39	0	0	0	0	0	0	26.5	5.49	0.05	1083068	1	55945	605158	1083068	1027123	59424	188	1091	100	568027	2143830	60803
199	2016-09-08 23:54:47	0	0	0	0	0	0	26.5	5.49	0.05	1084511	1	55995	605277	1084511	1028516	59489	188	1091	100	568131	2143840	60868
200	2016-09-09 00:04:43	0	0	0	0	0	0	26.57	5.48	0.05	1085323	1	56021	606938	1085323	1029302	59527	188	1091	100	569595	2143853	60906
201	2016-09-09 00:14:48	0	0	0	0	0	0	26.57	5.48	0.05	1086712	1	56048	606938	1086712	1030664	59583	188	1092	100	569595	2143865	60963
202	2016-09-09 00:24:36	0	0	0	0	0	0	26.57	5.48	0.05	1088009	1	56085	606938	1088009	1031924	59647	188	1092	100	569595	2143877	61027
203	2016-09-09 00:34:44	0	0	0	0	0	0	26.57	5.48	0.05	1088607	1	56103	606938	1088607	1032504	59666	188	1092	100	569595	2143884	61046
204	2016-09-09 00:44:40	0	0	0	0	0	0	26.63	5.48	0.05	1089812	1	56130	608369	1089812	1033682	59716	188	1093	100	570855	2143894	61097
205	2016-09-09 00:54:46	0	0	0	0	0	0	26.65	5.48	0.05	1090876	1	56156	608608	1090876	1034720	59756	188	1094	100	571276	2143908	61138
206	2016-09-09 01:04:43	0	0	0	0	0	0	26.65	5.48	0.05	1091434	1	56172	608727	1091434	1035262	59784	188	1094	100	571382	2143913	61166
207	2016-09-09 01:14:56	0	0	0	0	0	0	26.65	5.48	0.05	1092268	1	56193	608727	1092268	1036075	59824	188	1094	100	571382	2143918	61206
208	2016-09-09 01:24:39	0	0	0	0	0	0	26.65	5.48	0.05	1092891	1	56212	608727	1092891	1036679	59858	188	1094	100	571382	2143927	61240
209	2016-09-09 01:34:57	0	0	0	0	0	0	26.65	5.48	0.05	1093238	1	56217	608727	1093238	1037021	59874	188	1095	100	571382	2143926	61257
210	2016-09-09 01:44:46	0	0	0	0	0	0	26.68	5.48	0.05	1093924	1	56224	609386	1093924	1037700	59904	188	1096	100	571962	2143930	61288
211	2016-09-09 01:54:19	0	0	0	0	0	0	26.68	5.48	0.05	1094434	1	56232	609386	1094434	1038202	59929	188	1096	100	571962	2143934	61313
212	2016-09-09 02:04:18	0	0	0	0	0	0	26.68	5.47	0.05	1094865	1	56242	609386	1094865	1038623	59943	188	1096	100	571962	2144179	61327
213	2016-09-09 02:14:19	0	0	0	0	0	0	26.68	5.47	0.05	1095145	1	56245	609386	1095145	1038900	59955	188	1096	100	571962	2144179	61339
214	2016-09-09 02:24:21	0	0	0	0	0	0	26.74	5.47	0.05	1095528	1	56250	611070	1095528	1039278	59968	188	1096	100	573445	2144178	61352
215	2016-09-09 02:34:19	0	0	0	0	0	0	26.74	5.47	0.05	1095722	1	56254	611070	1095722	1039468	59977	188	1096	100	573445	2144177	61361
216	2016-09-09 02:44:20	0	0	0	0	0	0	26.78	5.47	0.05	1096082	1	56257	611976	1096082	1039825	59994	188	1096	100	574243	2144181	61378
217	2016-09-09 02:54:19	0	0	0	0	0	0	26.78	5.47	0.05	1096255	1	56264	611976	1096255	1039991	60005	188	1096	100	574243	2144182	61389
218	2016-09-09 03:04:20	0	0	0	0	0	0	26.78	5.47	0.05	1096472	1	56269	611976	1096472	1040203	60020	188	1096	100	574243	2144184	61404
219	2016-09-09 03:14:20	0	0	0	0	0	0	26.78	5.47	0.05	1096521	1	56269	611976	1096521	1040252	60024	188	1096	100	574243	2144184	61408
220	2016-09-09 03:24:18	0	0	0	0	0	0	26.78	5.47	0.05	1096617	1	56274	611976	1096617	1040343	60030	188	1096	100	574243	2144185	61414
221	2016-09-09 03:34:22	0	0	0	0	0	0	26.78	5.47	0.05	1096677	1	56276	611976	1096677	1040401	60033	188	1096	100	574243	2144185	61417
222	2016-09-09 03:44:19	0	0	0	0	0	0	26.78	5.47	0.05	1096711	1	56276	611976	1096711	1040435	60035	188	1096	100	574243	2144187	61419
223	2016-09-09 03:54:20	0	0	0	0	0	0	26.78	5.47	0.05	1096775	1	56278	611976	1096775	1040497	60037	188	1096	100	574243	2144187	61421
224	2016-09-09 04:04:18	0	0	0	0	0	0	26.78	5.47	0.05	1096804	1	56281	611976	1096804	1040523	60042	188	1096	100	574243	2144188	61426
225	2016-09-09 04:14:20	0	0	0	0	0	0	26.78	5.47	0.05	1096845	1	56284	611976	1096845	1040561	60043	188	1096	100	574243	2144186	61427
226	2016-09-09 04:24:18	0	0	0	0	0	0	26.78	5.47	0.05	1096872	1	56285	611976	1096872	1040587	60046	190	1096	100	574243	2144187	61432
227	2016-09-09 04:34:17	0	0	0	0	0	0	26.78	5.47	0.05	1096910	1	56289	611976	1096910	1040621	60050	192	1096	100	574243	2144186	61438
228	2016-09-09 04:44:19	0	0	0	0	0	0	26.78	5.47	0.05	1096932	1	56292	611976	1096932	1040640	60051	192	1096	100	574243	2144187	61439
229	2016-09-09 04:54:17	0	0	0	0	0	0	26.78	5.47	0.05	1096969	1	56298	611976	1096969	1040671	60054	192	1096	100	574243	2144190	61442
230	2016-09-09 05:04:17	0	0	0	0	0	0	26.78	5.47	0.05	1097024	1	56304	611976	1097024	1040720	60058	192	1096	100	574243	2144193	61446
231	2016-09-09 05:14:19	0	0	0	0	0	0	26.78	5.47	0.05	1097047	1	56307	611976	1097047	1040740	60059	192	1096	100	574243	2144192	61447
232	2016-09-09 05:24:18	0	0	0	0	0	0	26.78	5.47	0.05	1097108	1	56317	611976	1097108	1040791	60061	192	1096	100	574243	2144193	61449
233	2016-09-09 05:34:19	0	0	0	0	0	0	26.78	5.47	0.05	1097143	1	56319	611976	1097143	1040824	60062	192	1096	100	574243	2144199	61450
234	2016-09-09 05:44:18	0	0	0	0	0	0	26.79	5.47	0.05	1097221	1	56324	612082	1097221	1040897	60067	192	1096	100	574336	2144205	61455
235	2016-09-09 05:54:19	0	0	0	0	0	0	26.79	5.47	0.05	1097269	1	56331	612082	1097269	1040938	60070	192	1096	100	574336	2144206	61458
236	2016-09-09 06:04:19	0	0	0	0	0	0	26.79	5.47	0.05	1097378	1	56341	612082	1097378	1041037	60073	192	1096	100	574336	2144208	61461
237	2016-09-09 06:14:23	0	0	0	0	0	0	26.79	5.47	0.05	1097436	1	56353	612082	1097436	1041083	60074	192	1096	100	574336	2144210	61462
238	2016-09-09 06:24:26	0	0	0	0	0	0	26.79	5.47	0.05	1097569	1	56368	612263	1097569	1041201	60079	192	1096	100	574496	2144211	61467
239	2016-09-09 06:34:25	0	0	0	0	0	0	26.79	5.47	0.05	1097625	1	56375	612263	1097625	1041250	60080	192	1096	100	574496	2144213	61468
240	2016-09-09 06:44:26	0	0	0	0	0	0	26.79	5.47	0.05	1097750	1	56389	612263	1097750	1041361	60085	192	1096	100	574496	2144222	61473
241	2016-09-09 06:54:20	0	0	0	0	0	0	26.79	5.47	0.05	1097807	1	56397	612263	1097807	1041410	60088	192	1096	100	574496	2144226	61476
242	2016-09-09 07:04:20	0	0	0	0	0	0	26.79	5.47	0.05	1097956	1	56412	612263	1097956	1041544	60092	192	1096	100	574496	2144230	61480
243	2016-09-09 07:14:21	0	0	0	0	0	0	26.79	5.47	0.05	1098044	1	56417	612263	1098044	1041627	60095	192	1096	100	574496	2144235	61483
244	2016-09-09 07:24:21	0	0	0	0	0	0	26.79	5.47	0.05	1098224	1	56434	612263	1098224	1041790	60102	192	1096	100	574496	2144242	61490
245	2016-09-09 07:34:21	0	0	0	0	0	0	26.79	5.47	0.05	1098401	1	56451	612263	1098401	1041950	60108	192	1096	100	574496	2144246	61496
246	2016-09-09 07:44:23	0	0	0	0	0	0	26.8	5.47	0.05	1098491	1	56457	612505	1098491	1042034	60108	190	1096	100	574709	2144255	61494
247	2016-09-09 07:54:23	0	0	0	0	0	0	26.8	5.47	0.05	1098674	1	56470	612505	1098674	1042204	60118	190	1096	100	574709	2144263	61504
248	2016-09-09 08:04:22	0	0	0	0	0	0	26.8	5.47	0.05	1098831	1	56481	612505	1098831	1042350	60132	190	1096	100	574709	2144276	61518
249	2016-09-09 08:14:24	0	0	0	0	0	0	26.8	5.47	0.05	1098954	1	56486	612505	1098954	1042468	60139	190	1096	100	574709	2144284	61525
250	2016-09-09 08:24:23	0	0	0	0	0	0	26.8	5.47	0.05	1099122	1	56501	612505	1099122	1042621	60147	190	1096	100	574709	2144285	61533
251	2016-09-09 08:34:23	0	0	0	0	0	0	26.8	5.47	0.05	1099218	1	56508	612505	1099218	1042710	60153	190	1096	100	574709	2144297	61539
252	2016-09-09 08:44:24	0	0	0	0	0	0	26.8	5.47	0.05	1099419	1	56527	612505	1099419	1042892	60167	190	1097	100	574709	2144299	61554
253	2016-09-09 08:54:46	0	0	0	0	0	0	26.8	5.47	0.05	1099506	1	56535	612505	1099506	1042971	60173	190	1097	100	574709	2144303	61560
254	2016-09-09 09:01:57	0	0	0	0	0	0	26.8	5.47	0.05	1099671	1	56549	612505	1099671	1043122	60185	190	1097	100	574709	2144310	61572
255	2016-09-09 09:11:53	0	0	0	0	0	0	26.8	5.47	0.05	1099745	1	56555	612505	1099745	1043190	60188	190	1097	100	574709	2144319	61575
256	2016-09-09 09:21:53	0	0	0	0	0	0	26.8	5.47	0.05	1099895	1	56564	612505	1099895	1043331	60201	190	1097	100	574709	2144330	61588
257	2016-09-09 09:31:55	0	0	0	0	0	0	26.8	5.47	0.05	1099975	1	56576	612505	1099975	1043399	60205	190	1097	100	574709	2144347	61592
258	2016-09-09 09:41:52	0	0	0	0	0	0	26.8	5.47	0.05	1100115	1	56606	612687	1100115	1043509	60211	192	1098	100	574709	2144369	61601
259	2016-09-09 09:51:53	0	0	0	0	0	0	26.8	5.47	0.05	1100196	1	56624	612687	1100196	1043572	60215	192	1098	100	574709	2144381	61605
260	2016-09-09 10:01:52	0	0	0	0	0	0	26.84	5.47	0.05	1100363	1	56667	613598	1100363	1043696	60226	192	1098	100	575457	2144402	61616
261	2016-09-09 10:11:53	0	0	0	0	0	0	26.84	5.47	0.05	1100431	1	56686	613598	1100431	1043745	60229	192	1098	100	575457	2144415	61619
262	2016-09-09 10:21:55	0	0	0	0	0	0	26.84	5.47	0.05	1100567	1	56721	613598	1100567	1043846	60241	192	1098	100	575457	2144427	61631
263	2016-09-09 10:31:54	0	0	0	0	0	0	26.83	5.47	0.05	1100700	1	56742	613598	1100700	1043958	60246	192	1098	100	575457	2144447	61636
264	2016-09-09 10:41:59	0	0	0	0	0	0	26.83	5.47	0.05	1100746	1	56750	613598	1100746	1043996	60246	192	1098	100	575457	2144461	61636
265	2016-09-09 10:52:07	0	0	0	0	0	0	26.83	5.47	0.05	1100849	1	56787	613598	1100849	1044062	60251	192	1099	100	575457	2144480	61642
266	2016-09-09 11:01:59	0	0	0	0	0	0	26.83	5.47	0.05	1100892	1	56799	613598	1100892	1044093	60253	192	1099	100	575457	2144496	61644
267	2016-09-09 11:12:00	0	0	0	0	0	0	26.83	5.47	0.05	1100998	1	56834	613598	1100998	1044164	60254	192	1099	100	575457	2144516	61645
268	2016-09-09 11:21:56	0	0	0	0	0	0	26.83	5.47	0.05	1101045	1	56857	613598	1101045	1044188	60259	192	1099	100	575457	2144529	61650
269	2016-09-09 11:32:07	0	0	0	0	0	0	26.83	5.47	0.05	1101085	1	56864	613598	1101085	1044221	60260	192	1099	100	575457	2144543	61651
270	2016-09-09 11:41:56	0	0	0	0	0	0	26.83	5.47	0.05	1101171	1	56887	613598	1101171	1044284	60268	192	1099	100	575457	2144559	61659
271	2016-09-09 11:52:01	0	0	0	0	0	0	26.83	5.47	0.05	1101215	1	56898	613598	1101215	1044317	60269	192	1099	100	575457	2144583	61660
272	2016-09-09 12:02:00	0	0	0	0	0	0	26.83	5.47	0.05	1101284	1	56917	613598	1101284	1044367	60272	192	1099	100	575457	2144601	61663
273	2016-09-09 12:11:58	0	0	0	0	0	0	26.83	5.47	0.05	1101328	1	56932	613598	1101328	1044396	60274	192	1099	100	575457	2144614	61665
274	2016-09-09 12:21:57	0	0	0	0	0	0	26.83	5.47	0.05	1101361	1	56942	613598	1101361	1044419	60274	192	1099	100	575457	2144625	61665
275	2016-09-09 12:31:58	0	0	0	0	0	0	26.83	5.47	0.05	1101438	1	56959	613598	1101438	1044479	60281	192	1099	100	575457	2144644	61672
276	2016-09-09 12:41:58	0	0	0	0	0	0	26.83	5.47	0.05	1101468	1	56968	613598	1101468	1044500	60282	192	1099	100	575457	2144655	61673
277	2016-09-09 12:51:57	0	0	0	0	0	0	26.83	5.47	0.05	1101526	1	56983	613598	1101526	1044543	60284	192	1099	100	575457	2144666	61675
278	2016-09-09 13:01:59	0	0	0	0	0	0	26.83	5.47	0.05	1101555	1	56992	613598	1101555	1044563	60287	192	1099	100	575457	2144680	61678
279	2016-09-09 13:12:00	0	0	0	0	0	0	26.83	5.47	0.05	1101604	1	56998	613598	1101604	1044606	60290	192	1099	100	575457	2144694	61681
280	2016-09-09 13:21:59	0	0	0	0	0	0	26.83	5.47	0.05	1101636	1	57004	613598	1101636	1044632	60292	192	1099	100	575457	2144710	61683
281	2016-09-09 13:32:02	0	0	0	0	0	0	26.83	5.47	0.05	1101696	1	57024	613598	1101696	1044672	60295	192	1099	100	575457	2144719	61686
282	2016-09-09 13:42:01	0	0	0	0	0	0	26.83	5.47	0.05	1101712	1	57031	613598	1101712	1044681	60297	192	1099	100	575457	2144729	61688
283	2016-09-09 13:51:58	0	0	0	0	0	0	26.83	5.47	0.05	1101758	1	57046	613598	1101758	1044712	60300	192	1099	100	575457	2144744	61691
284	2016-09-09 14:02:00	0	0	0	0	0	0	26.83	5.47	0.05	1101811	1	57067	613598	1101811	1044744	60303	192	1099	100	575457	2144757	61694
285	2016-09-09 14:12:01	0	0	0	0	0	0	26.83	5.47	0.05	1101822	1	57070	613598	1101822	1044752	60303	192	1099	100	575457	2144782	61694
286	2016-09-09 14:22:01	0	0	0	0	0	0	26.84	5.47	0.05	1101871	1	57086	613598	1101871	1044785	60303	192	1099	100	575671	2144791	61694
287	2016-09-09 14:32:00	0	0	0	0	0	0	26.84	5.47	0.05	1101892	1	57091	613598	1101892	1044801	60304	192	1099	100	575671	2144803	61695
288	2016-09-09 14:42:01	0	0	0	0	0	0	26.84	5.47	0.05	1101936	1	57111	613598	1101936	1044825	60306	192	1099	100	575671	2144813	61697
289	2016-09-09 14:52:00	0	0	0	0	0	0	26.84	5.47	0.05	1101971	1	57120	613598	1101971	1044851	60307	192	1099	100	575671	2144826	61698
290	2016-09-09 15:02:02	0	0	0	0	0	0	26.84	5.47	0.05	1102017	1	57137	613598	1102017	1044880	60307	192	1099	100	575671	2144836	61698
291	2016-09-09 15:12:03	0	0	0	0	0	0	26.84	5.47	0.05	1102054	1	57144	613598	1102054	1044910	60311	192	1099	100	575671	2144856	61702
292	2016-09-09 15:22:02	0	0	0	0	0	0	26.84	5.47	0.05	1102081	1	57151	613598	1102081	1044930	60312	192	1099	100	575671	2144868	61703
293	2016-09-09 15:32:02	0	0	0	0	0	0	26.84	5.47	0.05	1102119	1	57161	613598	1102119	1044958	60314	192	1099	100	575671	2144887	61705
294	2016-09-09 15:42:02	0	0	0	0	0	0	26.84	5.47	0.05	1102160	1	57179	613598	1102160	1044981	60315	192	1099	100	575671	2144906	61706
295	2016-09-09 15:52:01	0	0	0	0	0	0	26.84	5.47	0.05	1102185	1	57189	613598	1102185	1044996	60316	192	1099	100	575671	2144913	61707
296	2016-09-09 16:02:04	0	0	0	0	0	0	26.84	5.47	0.05	1102213	1	57203	613598	1102213	1045010	60316	192	1099	100	575671	2144926	61707
297	2016-09-09 16:12:04	0	0	0	0	0	0	26.86	5.47	0.05	1102259	1	57218	614054	1102259	1045041	60317	192	1099	100	576072	2144936	61708
298	2016-09-09 16:22:05	0	0	0	0	0	0	26.86	5.47	0.05	1102279	1	57225	614054	1102279	1045054	60317	192	1099	100	576072	2144944	61708
299	2016-09-09 16:32:04	0	0	0	0	0	0	26.86	5.47	0.05	1102321	1	57233	614054	1102321	1045088	60318	192	1099	100	576072	2144951	61709
300	2016-09-09 16:42:05	0	0	0	0	0	0	26.86	5.47	0.05	1102378	1	57246	614054	1102378	1045126	60319	192	1099	101	576072	2144972	61711
301	2016-09-09 16:52:03	0	0	0	0	0	0	26.86	5.47	0.05	1102406	1	57258	614054	1102406	1045148	60322	192	1099	101	576072	2144981	61714
302	2016-09-09 17:02:04	0	0	0	0	0	0	26.86	5.47	0.05	1102456	1	57280	614054	1102456	1045176	60323	192	1099	101	576072	2144998	61715
303	2016-09-09 17:12:09	0	0	0	0	0	0	26.86	5.47	0.05	1102510	1	57299	614054	1102510	1045211	60326	192	1099	101	576072	2145007	61718
304	2016-09-09 17:22:04	0	0	0	0	0	0	26.86	5.47	0.05	1102527	1	57304	614054	1102527	1045223	60327	192	1099	101	576072	2145015	61719
305	2016-09-09 17:32:04	0	0	0	0	0	0	26.86	5.47	0.05	1102577	1	57319	614054	1102577	1045258	60327	192	1099	101	576072	2145018	61719
306	2016-09-09 17:42:08	0	0	0	0	0	0	26.86	5.47	0.05	1102633	1	57326	614054	1102633	1045302	60327	192	1099	101	576072	2145034	61719
307	2016-09-09 17:52:05	0	0	0	0	0	0	26.86	5.47	0.05	1102642	1	57332	614054	1102642	1045310	60331	192	1099	101	576072	2145042	61723
308	2016-09-09 18:02:16	0	0	0	0	0	0	26.86	5.47	0.05	1102686	1	57345	614054	1102686	1045341	60334	192	1099	101	576072	2145053	61726
309	2016-09-09 18:12:05	0	0	0	0	0	0	26.86	5.47	0.05	1102721	1	57350	614054	1102721	1045371	60335	192	1099	101	576072	2145069	61727
310	2016-09-09 18:22:07	0	0	0	0	0	0	26.86	5.47	0.05	1102782	1	57362	614054	1102782	1045420	60337	192	1099	101	576072	2145083	61729
311	2016-09-09 18:32:13	0	0	0	0	0	0	26.86	5.47	0.05	1102800	1	57370	614054	1102800	1045430	60337	192	1099	101	576072	2145108	61729
312	2016-09-09 18:42:08	0	0	0	0	0	0	26.85	5.47	0.05	1102865	1	57381	614054	1102865	1045484	60338	192	1099	101	576072	2145125	61730
313	2016-09-09 18:52:11	0	0	0	0	0	0	26.85	5.47	0.05	1102918	1	57392	614054	1102918	1045526	60340	192	1099	101	576072	2145135	61732
314	2016-09-09 19:02:08	0	0	0	0	0	0	26.85	5.47	0.05	1102944	1	57397	614054	1102944	1045547	60340	192	1099	101	576072	2145142	61732
315	2016-09-09 19:12:07	0	0	0	0	0	0	26.85	5.47	0.05	1102974	1	57403	614054	1102974	1045571	60341	192	1099	101	576072	2145159	61733
316	2016-09-09 19:22:09	0	0	0	0	0	0	26.85	5.47	0.05	1103027	1	57410	614054	1103027	1045617	60343	190	1099	101	576072	2145179	61733
317	2016-09-09 19:32:08	0	0	0	0	0	0	26.85	5.47	0.05	1103084	1	57415	614054	1103084	1045669	60345	188	1099	101	576072	2145193	61733
318	2016-09-09 19:42:07	0	0	0	0	0	0	26.85	5.47	0.05	1103111	1	57422	614054	1103111	1045689	60347	188	1099	101	576072	2145212	61735
319	2016-09-09 19:52:04	0	0	0	0	0	0	26.85	5.47	0.05	1103176	1	57433	614054	1103176	1045743	60349	188	1099	101	576072	2145226	61737
320	2016-09-09 20:02:07	0	0	0	0	0	0	26.85	5.47	0.05	1103199	1	57441	614054	1103199	1045758	60349	188	1099	101	576072	2145230	61737
321	2016-09-09 20:12:08	0	0	0	0	0	0	26.85	5.47	0.05	1103260	1	57453	614054	1103260	1045807	60350	188	1099	101	576072	2145243	61738
322	2016-09-09 20:22:10	0	0	0	0	0	0	26.85	5.47	0.05	1103283	1	57458	614054	1103283	1045825	60352	188	1099	101	576072	2145257	61740
323	2016-09-09 20:32:08	0	0	0	0	0	0	26.85	5.47	0.05	1103336	1	57467	614176	1103336	1045869	60355	188	1099	101	576072	2145269	61743
324	2016-09-09 20:42:07	0	0	0	0	0	0	26.85	5.47	0.05	1103393	1	57479	614176	1103393	1045914	60355	188	1099	101	576072	2145281	61743
325	2016-09-09 20:52:09	0	0	0	0	0	0	26.85	5.47	0.05	1103420	1	57481	614176	1103420	1045939	60355	188	1099	101	576072	2145300	61743
326	2016-09-09 21:02:10	0	0	0	0	0	0	26.85	5.47	0.05	1103472	1	57492	614176	1103472	1045980	60357	188	1099	101	576072	2145311	61745
327	2016-09-09 21:12:08	0	0	0	0	0	0	26.85	5.47	0.05	1103530	1	57503	614176	1103530	1046027	60357	188	1099	101	576072	2145319	61745
328	2016-09-09 21:22:09	0	0	0	0	0	0	26.85	5.47	0.05	1103555	1	57506	614176	1103555	1046049	60358	188	1099	101	576072	2145328	61746
329	2016-09-09 21:32:09	0	0	0	0	0	0	26.85	5.47	0.05	1103629	1	57519	614176	1103629	1046110	60358	188	1099	101	576072	2145338	61746
330	2016-09-09 21:42:10	0	0	0	0	0	0	26.85	5.47	0.05	1103655	1	57524	614176	1103655	1046131	60359	188	1099	101	576072	2145347	61747
331	2016-09-09 21:52:09	0	0	0	0	0	0	26.85	5.47	0.05	1103699	1	57532	614176	1103699	1046167	60359	188	1099	101	576072	2145365	61747
332	2016-09-09 22:02:10	0	0	0	0	0	0	26.85	5.47	0.05	1103737	1	57537	614176	1103737	1046200	60361	188	1099	101	576072	2145377	61749
333	2016-09-09 22:12:09	0	0	0	0	0	0	26.85	5.47	0.06	1103777	1	57546	614176	1103777	1046231	60364	188	1099	101	576072	2145401	61752
334	2016-09-09 22:22:10	0	0	0	0	0	0	26.85	5.47	0.06	1103804	1	57548	614176	1103804	1046256	60364	188	1099	101	576072	2145415	61752
335	2016-09-09 22:32:08	0	0	0	0	0	0	26.85	5.47	0.06	1103866	1	57554	614176	1103866	1046312	60365	188	1099	101	576072	2145438	61753
336	2016-09-09 22:42:08	0	0	0	0	0	0	26.85	5.47	0.06	1103900	1	57561	614176	1103900	1046339	60365	188	1099	101	576072	2145446	61753
337	2016-09-09 22:52:08	0	0	0	0	0	0	26.85	5.47	0.06	1103949	1	57568	614176	1103949	1046381	60367	188	1099	101	576072	2145458	61755
338	2016-09-09 23:02:09	0	0	0	0	0	0	26.85	5.47	0.06	1103983	1	57572	614176	1103983	1046411	60367	188	1099	101	576072	2145473	61755
339	2016-09-09 23:12:12	0	0	0	0	0	0	26.85	5.47	0.06	1104029	1	57582	614176	1104029	1046447	60368	188	1099	101	576072	2145488	61756
340	2016-09-09 23:22:12	0	0	0	0	0	0	26.85	5.47	0.06	1104087	1	57592	614176	1104087	1046495	60369	188	1100	101	576072	2145492	61758
341	2016-09-09 23:32:07	0	0	0	0	0	0	26.85	5.47	0.06	1104100	1	57593	614176	1104100	1046507	60369	188	1100	101	576072	2145502	61758
342	2016-09-09 23:42:08	0	0	0	0	0	0	26.85	5.47	0.06	1104148	1	57606	614176	1104148	1046542	60372	188	1100	101	576072	2145507	61761
343	2016-09-09 23:52:08	0	0	0	0	0	0	26.85	5.47	0.06	1104206	1	57618	614176	1104206	1046588	60372	188	1101	101	576072	2145519	61762
344	2016-09-10 00:02:09	0	0	0	0	0	0	26.85	5.47	0.06	1104231	1	57620	614176	1104231	1046611	60372	188	1101	101	576072	2145529	61762
345	2016-09-10 00:12:07	0	0	0	0	0	0	26.85	5.47	0.06	1104261	1	57624	614176	1104261	1046637	60372	188	1101	101	576072	2145535	61762
346	2016-09-10 00:22:08	0	0	0	0	0	0	26.85	5.47	0.06	1104275	1	57626	614176	1104275	1046649	60373	188	1101	101	576072	2145537	61763
347	2016-09-10 00:32:10	0	0	0	0	0	0	26.85	5.47	0.06	1104314	1	57637	614176	1104314	1046677	60375	188	1101	101	576072	2145540	61765
348	2016-09-10 00:42:07	0	0	0	0	0	0	26.87	5.47	0.06	1104355	1	57645	614633	1104355	1046710	60375	188	1101	101	576474	2145544	61765
349	2016-09-10 00:52:09	0	0	0	0	0	0	26.87	5.47	0.06	1104373	1	57647	614633	1104373	1046726	60375	188	1101	101	576474	2145553	61765
350	2016-09-10 01:02:08	0	0	0	0	0	0	26.87	5.47	0.06	1104405	1	57652	614633	1104405	1046753	60375	188	1101	101	576474	2145562	61765
351	2016-09-10 01:12:09	0	0	0	0	0	0	26.87	5.47	0.06	1104429	1	57656	614633	1104429	1046773	60376	188	1101	101	576474	2145566	61766
352	2016-09-10 01:22:07	0	0	0	0	0	0	26.87	5.47	0.06	1104441	1	57661	614633	1104441	1046780	60377	188	1101	101	576474	2145575	61767
353	2016-09-10 01:32:06	0	0	0	0	0	0	26.87	5.47	0.06	1104451	1	57663	614633	1104451	1046788	60377	188	1101	101	576474	2145579	61767
354	2016-09-10 01:42:08	0	0	0	0	0	0	26.87	5.47	0.06	1104463	1	57670	614633	1104463	1046793	60378	188	1101	101	576474	2145582	61768
355	2016-09-10 01:52:09	0	0	0	0	0	0	26.87	5.47	0.06	1104469	1	57671	614633	1104469	1046798	60378	188	1101	101	576474	2145589	61768
356	2016-09-10 02:02:10	0	0	0	0	0	0	26.86	5.47	0.06	1104470	1	57671	614633	1104470	1046799	60378	188	1101	101	576474	2146147	61768
357	2016-09-10 02:12:08	0	0	0	0	0	0	26.86	5.47	0.06	1104479	1	57672	614633	1104479	1046807	60378	188	1101	101	576474	2146149	61768
358	2016-09-10 02:22:08	0	0	0	0	0	0	26.86	5.47	0.06	1104484	1	57673	614633	1104484	1046811	60378	188	1101	101	576474	2146150	61768
359	2016-09-10 02:32:06	0	0	0	0	0	0	26.86	5.47	0.06	1104491	1	57674	614633	1104491	1046817	60378	188	1101	101	576474	2146146	61768
360	2016-09-10 02:42:08	0	0	0	0	0	0	26.86	5.47	0.06	1104499	1	57676	614633	1104499	1046823	60378	188	1101	101	576474	2146148	61768
361	2016-09-10 02:52:07	0	0	0	0	0	0	26.86	5.47	0.06	1104502	1	57678	614633	1104502	1046824	60378	188	1101	101	576474	2146148	61768
362	2016-09-10 03:02:08	0	0	0	0	0	0	26.86	5.47	0.06	1104510	1	57681	614633	1104510	1046829	60378	188	1101	101	576474	2146144	61768
363	2016-09-10 03:12:07	0	0	0	0	0	0	26.86	5.47	0.06	1104513	1	57682	614633	1104513	1046831	60379	188	1101	101	576474	2146146	61769
364	2016-09-10 03:22:08	0	0	0	0	0	0	26.86	5.47	0.06	1104518	1	57684	614633	1104518	1046834	60379	188	1101	101	576474	2146147	61769
365	2016-09-10 03:32:09	0	0	0	0	0	0	26.86	5.47	0.06	1104522	1	57686	614633	1104522	1046836	60379	188	1101	101	576474	2146150	61769
366	2016-09-10 03:42:08	0	0	0	0	0	0	26.86	5.47	0.06	1104526	1	57686	614633	1104526	1046840	60379	188	1101	101	576474	2146151	61769
367	2016-09-10 03:52:07	0	0	0	0	0	0	26.86	5.47	0.06	1104526	1	57686	614633	1104526	1046840	60379	188	1101	101	576474	2146150	61769
368	2016-09-10 04:02:09	0	0	0	0	0	0	26.86	5.47	0.06	1104530	1	57688	614633	1104530	1046842	60379	188	1101	101	576474	2146150	61769
369	2016-09-10 04:12:05	0	0	0	0	0	0	26.86	5.47	0.06	1104530	1	57688	614633	1104530	1046842	60379	188	1101	101	576474	2146149	61769
370	2016-09-10 04:22:11	0	0	0	0	0	0	26.86	5.47	0.06	1104534	1	57690	614633	1104534	1046844	60379	188	1101	101	576474	2146151	61769
371	2016-09-10 04:32:05	0	0	0	0	0	0	26.86	5.47	0.06	1104536	1	57690	614633	1104536	1046846	60379	188	1101	101	576474	2146150	61769
372	2016-09-10 04:42:07	0	0	0	0	0	0	26.86	5.47	0.06	1104536	1	57690	614633	1104536	1046846	60379	188	1101	101	576474	2146150	61769
373	2016-09-10 04:52:07	0	0	0	0	0	0	26.86	5.47	0.06	1104541	1	57692	614633	1104541	1046849	60379	188	1101	101	576474	2146149	61769
374	2016-09-10 05:02:09	0	0	0	0	0	0	26.86	5.47	0.06	1104541	1	57692	614633	1104541	1046849	60379	188	1101	101	576474	2146149	61769
375	2016-09-10 05:12:08	0	0	0	0	0	0	26.86	5.47	0.06	1104543	1	57692	614633	1104543	1046851	60379	188	1101	101	576474	2146150	61769
376	2016-09-10 05:22:08	0	0	0	0	0	0	26.86	5.47	0.06	1104546	1	57694	614633	1104546	1046852	60379	188	1101	101	576474	2146151	61769
377	2016-09-10 05:32:08	0	0	0	0	0	0	26.86	5.47	0.06	1104547	1	57695	614633	1104547	1046852	60379	188	1101	101	576474	2146150	61769
378	2016-09-10 05:42:13	0	0	0	0	0	0	26.86	5.47	0.06	1104547	1	57695	614633	1104547	1046852	60379	188	1101	101	576474	2146153	61769
379	2016-09-10 05:52:07	0	0	0	0	0	0	26.86	5.47	0.06	1104547	1	57695	614633	1104547	1046852	60379	188	1101	101	576474	2146153	61769
380	2016-09-10 06:02:09	0	0	0	0	0	0	26.86	5.47	0.06	1104550	1	57697	614633	1104550	1046853	60379	188	1101	101	576474	2146152	61769
381	2016-09-10 06:12:09	0	0	0	0	0	0	26.86	5.47	0.06	1104551	1	57698	614633	1104551	1046853	60379	188	1101	101	576474	2146155	61769
382	2016-09-10 06:22:11	0	0	0	0	0	0	26.86	5.47	0.06	1104553	1	57700	614633	1104553	1046853	60379	188	1101	101	576474	2146156	61769
383	2016-09-10 06:32:08	0	0	0	0	0	0	26.86	5.47	0.06	1104555	1	57701	614633	1104555	1046854	60380	188	1101	101	576474	2146159	61770
384	2016-09-10 06:42:08	0	0	0	0	0	0	26.86	5.47	0.06	1104555	1	57701	614633	1104555	1046854	60380	188	1101	101	576474	2146165	61770
385	2016-09-10 06:52:08	0	0	0	0	0	0	26.86	5.47	0.06	1104556	1	57701	614633	1104556	1046855	60380	188	1101	101	576474	2146168	61770
386	2016-09-10 07:02:09	0	0	0	0	0	0	26.86	5.47	0.06	1104563	1	57703	614633	1104563	1046860	60380	188	1101	101	576474	2146167	61770
387	2016-09-10 07:12:11	0	0	0	0	0	0	26.86	5.47	0.06	1104564	1	57703	614633	1104564	1046861	60380	188	1101	101	576474	2146166	61770
388	2016-09-10 07:22:11	0	0	0	0	0	0	26.86	5.47	0.06	1104576	1	57706	614633	1104576	1046870	60382	188	1101	101	576474	2146168	61772
389	2016-09-10 07:32:11	0	0	0	0	0	0	26.86	5.47	0.06	1104581	1	57708	614633	1104581	1046873	60382	188	1101	101	576474	2146171	61772
390	2016-09-10 07:42:13	0	0	0	0	0	0	26.86	5.47	0.06	1104586	1	57712	614633	1104586	1046874	60382	188	1101	101	576474	2146173	61772
391	2016-09-10 07:52:11	0	0	0	0	0	0	26.86	5.47	0.06	1104601	1	57717	614633	1104601	1046884	60382	188	1101	101	576474	2146176	61772
392	2016-09-10 08:02:11	0	0	0	0	0	0	26.86	5.47	0.06	1104609	1	57721	614633	1104609	1046888	60383	188	1101	101	576474	2146179	61773
393	2016-09-10 08:12:10	0	0	0	0	0	0	26.86	5.47	0.06	1104616	1	57725	614633	1104616	1046891	60383	188	1101	101	576474	2146186	61773
394	2016-09-10 08:22:12	0	0	0	0	0	0	26.86	5.47	0.06	1104624	1	57726	614633	1104624	1046898	60383	188	1101	101	576474	2146188	61773
395	2016-09-10 08:32:11	0	0	0	0	0	0	26.86	5.47	0.06	1104632	1	57726	614633	1104632	1046906	60384	188	1101	101	576474	2146195	61774
396	2016-09-10 08:42:13	0	0	0	0	0	0	26.86	5.47	0.06	1104638	1	57731	614633	1104638	1046907	60384	188	1101	101	576474	2146197	61774
397	2016-09-10 08:52:14	0	0	0	0	0	0	26.86	5.47	0.06	1104646	1	57733	614633	1104646	1046913	60384	188	1101	101	576474	2146200	61774
398	2016-09-10 09:02:14	0	0	0	0	0	0	26.86	5.47	0.06	1104658	1	57739	614633	1104658	1046919	60385	188	1101	101	576474	2146207	61775
399	2016-09-10 09:12:12	0	0	0	0	0	0	26.86	5.47	0.06	1104663	1	57740	614633	1104663	1046923	60385	188	1101	101	576474	2146218	61775
400	2016-09-10 09:22:12	0	0	0	0	0	0	26.86	5.47	0.06	1104680	1	57747	614633	1104680	1046933	60387	188	1101	101	576474	2146230	61777
401	2016-09-10 09:32:13	0	0	0	0	0	0	26.86	5.47	0.06	1104683	1	57749	614633	1104683	1046934	60387	188	1101	101	576474	2146235	61777
402	2016-09-10 09:42:13	0	0	0	0	0	0	26.86	5.47	0.06	1104693	1	57754	614633	1104693	1046939	60387	188	1101	101	576474	2146243	61777
403	2016-09-10 09:52:11	0	0	0	0	0	0	26.86	5.47	0.06	1104699	1	57755	614633	1104699	1046944	60387	188	1101	101	576474	2146247	61777
