1	2016-12-18 11:23:06	0	0	0	0	0	0	0	0	0	0	1	0	0	0	0	0	0	0	1	0	2376791	0
2	2016-12-18 11:27:14	0	0	0	0	0	0	0	0	0	0	1	0	0	0	0	0	6	25	3	0	2376791	0
3	2016-12-18 11:37:17	0	0	0	0	0	0	1.42	1.22	0.01	39967	1	495	34273	39967	39472	486	32	134	13	33859	2376799	665
4	2016-12-18 11:47:18	0	0	0	0	0	0	2.04	1.53	0.02	59946	1	1278	49646	59946	58668	915	54	201	16	48373	2376797	1186
5	2016-12-18 11:57:25	0	0	0	0	0	0	2.49	1.67	0.03	76674	1	2153	61415	76674	74521	1278	66	259	21	59131	2376803	1624
6	2016-12-18 12:07:43	0	0	0	0	0	0	2.91	1.77	0.03	89291	1	2924	71960	89291	86367	1583	84	304	21	69064	2376809	1992
7	2016-12-18 12:36:03	0	0	0	0	0	0	3.59	1.87	0.04	112976	1	4610	89601	112976	108366	2113	98	399	22	85231	2376817	2632
8	2016-12-18 12:38:07	0	0	0	0	0	0	3.59	1.87	0.04	112976	1	4610	89601	112976	108366	2113	100	403	22	85231	2376816	2638
9	2016-12-18 12:49:55	0	0	0	0	0	0	3.83	1.9	0.05	124180	1	5478	95844	124180	118702	2357	100	426	24	90925	2376820	2907
10	2016-12-18 12:59:41	0	0	0	0	0	0	4.03	1.9	0.05	131462	1	6048	101290	131462	125414	2498	112	446	25	95790	2376826	3081
11	2016-12-18 13:20:52	0	0	0	0	0	0	4.28	1.91	0.05	143928	1	7182	108317	143928	136746	2752	118	467	25	101702	2376845	3362
12	2016-12-18 13:29:38	0	0	0	0	0	0	4.39	1.91	0.05	149537	1	7606	111116	149537	141931	2862	118	481	25	104266	2376854	3486
13	2016-12-18 13:56:16	0	0	0	0	0	0	4.82	1.93	0.06	162415	1	8554	123697	162415	153861	3141	122	523	26	114655	2376865	3812
14	2016-12-18 14:04:05	0	0	0	0	0	0	4.99	1.93	0.06	167391	1	8966	127862	167391	158425	3232	126	532	28	118695	2376873	3918
15	2016-12-18 14:32:41	0	0	0	0	0	0	5.3	1.95	0.06	181031	1	10095	137189	181031	170936	3522	132	571	30	125980	2376894	4255
16	2016-12-18 14:39:25	0	0	0	0	0	0	5.33	1.94	0.06	183219	1	10271	138170	183219	172948	3563	136	579	31	126807	2376900	4309
17	2016-12-18 14:49:55	0	0	0	0	0	0	5.46	1.95	0.06	187498	1	10650	142105	187498	176848	3660	138	591	32	129699	2376910	4421
18	2016-12-18 15:52:37	0	0	0	0	0	0	5.99	1.94	0.06	209784	1	12619	156361	209784	197165	4076	152	649	38	142424	2376989	4915
19	2016-12-18 15:58:48	0	0	0	0	0	0	6.01	1.94	0.06	211399	1	12750	156820	211399	198649	4104	152	652	38	142805	2377009	4946
20	2016-12-18 16:14:56	0	0	0	0	0	0	6.1	1.94	0.06	215885	1	13144	158901	215885	202741	4186	152	666	38	145057	2377124	5042
21	2016-12-18 16:42:35	0	0	0	0	0	0	6.33	1.93	0.07	224391	1	13862	163897	224391	210529	4338	154	682	38	150376	2377323	5212
22	2016-12-18 16:49:50	0	0	0	0	0	0	6.37	1.93	0.07	225723	1	13959	164878	225723	211764	4367	154	682	38	151438	2377368	5241
23	2016-12-18 17:00:01	0	0	0	0	0	0	0	1.93	0.07	228490	1	14168	166807	228490	214322	4407	154	0	0	153230	0	0
24	2016-12-18 17:17:16	0	0	0	0	0	0	6.5	1.93	0.07	232220	1	14488	168470	232220	217732	4477	160	694	38	154602	2377536	5369
25	2016-12-18 17:21:37	0	0	0	0	0	0	6.5	1.93	0.07	232220	1	14488	168470	232220	217732	4477	160	696	38	154602	2377567	5371
26	2016-12-18 17:31:53	0	0	0	0	0	0	6.63	1.93	0.07	235559	1	14764	171212	235559	220795	4538	162	703	38	157582	2377610	5441
27	2016-12-18 17:40:10	0	0	0	0	0	0	6.69	1.93	0.07	237764	1	14948	172772	237764	222816	4581	162	706	38	159000	2377639	5487
28	2016-12-18 19:48:04	0	0	0	0	0	0	7.37	1.89	0.07	266245	1	17331	192248	266245	248914	5039	178	768	41	175341	2378320	6026
29	2016-12-18 20:29:40	0	0	0	0	0	0	7.49	1.88	0.07	273215	1	17896	195491	273215	255319	5140	178	784	41	178066	2378516	6143
30	2016-12-18 20:35:23	0	0	0	0	0	0	7.49	1.88	0.07	274024	1	17955	195843	274024	256069	5156	178	785	41	178230	2378550	6160
31	2016-12-18 20:59:35	0	0	0	0	0	0	7.6	1.87	0.07	278281	1	18273	198683	278281	260008	5216	180	800	41	180769	2378672	6237
32	2016-12-18 21:12:29	0	0	0	0	0	0	7.63	1.88	0.07	279965	1	18386	199490	279965	261579	5252	180	802	41	181489	2378725	6275
33	2016-12-18 21:45:49	0	0	0	0	0	0	7.71	1.86	0.07	285787	1	18811	202107	285787	266976	5327	180	813	43	183348	2378903	6363
34	2016-12-18 22:11:34	0	0	0	0	0	0	7.84	1.86	0.07	290026	1	19114	205320	290026	270912	5386	182	820	43	186605	2378992	6431
35	2016-12-18 22:29:33	0	0	0	0	0	0	7.91	1.85	0.07	293477	1	19322	206656	293477	274155	5436	184	828	43	188256	2379077	6491
36	2016-12-18 23:55:15	0	0	0	0	0	0	8.26	1.85	0.07	305520	1	20200	213080	305520	285320	5642	188	856	44	196521	2379469	6730
37	2016-12-18 23:58:39	0	0	0	0	0	0	8.29	1.85	0.07	306120	1	20238	213963	306120	285882	5652	188	857	44	197272	2379488	6741
38	2016-12-19 01:54:38	0	0	0	0	0	0	8.46	1.83	0.07	315696	1	20804	218237	315696	294892	5791	192	878	44	201422	2379799	6905
39	2016-12-19 02:00:54	0	0	0	0	0	0	8.47	1.83	0.07	315890	1	20814	218268	315890	295076	5793	192	878	44	201605	2378872	6907
40	2016-12-19 03:39:40	0	0	0	0	0	0	8.53	1.83	0.07	318572	1	20958	219692	318572	297614	5839	196	882	44	202926	2378944	6961
41	2016-12-19 04:29:01	0	0	0	0	0	0	8.55	1.83	0.07	319341	1	20998	220286	319341	298343	5855	196	884	44	203433	2378963	6979
42	2016-12-19 04:35:30	0	0	0	0	0	0	8.56	1.83	0.07	319418	1	21003	220474	319418	298415	5856	196	884	44	203594	2378966	6980
43	2016-12-19 04:45:04	0	0	0	0	0	0	8.56	1.83	0.07	319570	1	21011	220474	319570	298559	5858	196	885	44	203594	2378968	6983
44	2016-12-19 04:51:31	0	0	0	0	0	0	8.56	1.83	0.07	319640	1	21014	220474	319640	298626	5860	196	885	44	203594	2378970	6985
45	2016-12-19 05:00:11	0	0	0	0	0	0	0	0	0	0	0	0	0	0	0	0	196	0	0	0	0	0
46	2016-12-19 05:04:48	0	0	0	0	0	0	8.57	1.83	0.07	319868	1	21025	220726	319868	298843	5867	196	885	44	203808	2378976	6992
47	2016-12-19 05:15:47	0	0	0	0	0	0	8.57	1.83	0.07	320032	1	21037	220789	320032	298995	5870	196	885	44	203862	2378987	6995
48	2016-12-19 05:28:31	0	0	0	0	0	0	8.57	1.83	0.07	320194	1	21048	220978	320194	299146	5872	196	885	44	203862	2378995	6997
49	2016-12-19 05:33:42	0	0	0	0	0	0	8.57	1.83	0.07	320294	1	21068	220978	320294	299235	5873	196	885	44	203862	2379002	6998
50	2016-12-19 05:41:37	0	0	0	0	0	0	8.59	1.83	0.07	320488	1	21075	221495	320488	299413	5874	196	885	44	204302	2379005	6999
51	2016-12-19 05:53:21	0	0	0	0	0	0	8.59	1.83	0.07	320686	1	21090	221495	320686	299596	5875	196	885	44	204302	2379020	7000
52	2016-12-19 06:00:55	0	0	0	0	0	0	8.59	1.83	0.07	320911	1	21107	221495	320911	299804	5879	196	885	44	204302	2379029	7004
53	2016-12-19 06:13:20	0	0	0	0	0	0	8.59	1.83	0.07	321152	1	21129	221495	321152	300023	5881	198	885	44	204302	2379035	7008
54	2016-12-19 07:11:59	0	0	0	0	0	0	0	0	0	0	0	0	0	0	0	0	198	0	0	0	0	0
55	2016-12-19 10:10:50	0	0	0	0	0	0	8.91	1.83	0.07	336844	1	22381	230436	336844	314463	6158	212	911	45	212104	2379876	7326
56	2016-12-19 10:20:46	0	0	0	0	0	0	8.93	1.83	0.07	337513	1	22450	231047	337513	315063	6167	212	914	45	212621	2379920	7338
57	2016-12-19 10:23:55	0	0	0	0	0	0	8.93	1.83	0.07	337513	1	22450	231047	337513	315063	6167	212	916	45	212621	2379941	7340
58	2016-12-19 10:26:46	0	0	0	0	0	0	8.94	1.83	0.07	337808	1	22476	231323	337808	315332	6176	212	916	45	212826	2379955	7349
59	2016-12-19 10:35:40	0	0	0	0	0	0	8.95	1.83	0.07	338387	1	22551	231634	338387	315836	6185	212	917	45	213090	2379986	7359
60	2016-12-19 10:36:49	0	0	0	0	0	0	8.95	1.83	0.07	338387	1	22551	231634	338387	315836	6185	212	917	45	213090	2379991	7359
61	2016-12-19 10:42:02	0	0	0	0	0	0	8.95	1.83	0.07	338672	1	22585	231634	338672	316087	6193	212	919	45	213090	2380013	7369
62	2016-12-19 10:46:52	0	0	0	0	0	0	8.95	1.83	0.07	338672	1	22585	231634	338672	316087	6193	212	922	45	213090	2380022	7372
63	2016-12-19 10:52:02	0	0	0	0	0	0	8.99	1.83	0.07	339271	1	22652	232447	339271	316619	6200	212	922	45	213885	2380037	7379
64	2016-12-19 10:56:51	0	0	0	0	0	0	8.99	1.83	0.07	339271	1	22652	232447	339271	316619	6200	212	924	45	213885	2380055	7381
65	2016-12-19 11:02:04	0	0	0	0	0	0	8.99	1.83	0.07	339891	1	22712	232447	339891	317179	6209	214	927	45	213885	2380076	7395
66	2016-12-19 11:12:04	0	0	0	0	0	0	8.99	1.82	0.07	340397	1	22784	232447	340397	317613	6212	214	929	45	213885	2380117	7400
67	2016-12-19 11:22:08	0	0	0	0	0	0	9	1.82	0.07	340857	1	22832	232867	340857	318025	6218	214	932	45	214240	2380155	7409
68	2016-12-19 11:32:12	0	0	0	0	0	0	9.01	1.82	0.07	341265	1	22886	233095	341265	318379	6226	214	933	45	214492	2380189	7418
69	2016-12-19 11:42:13	0	0	0	0	0	0	9.02	1.82	0.07	341667	1	22932	233200	341667	318735	6235	214	935	45	214581	2380220	7429
70	2016-12-19 11:52:09	0	0	0	0	0	0	9.03	1.82	0.07	342061	1	22967	233270	342061	319094	6239	214	937	45	214879	2380254	7435
71	2016-12-19 12:02:07	0	0	0	0	0	0	9.03	1.82	0.07	342442	1	23008	233270	342442	319434	6245	214	938	45	214879	2380286	7442
72	2016-12-19 12:12:07	0	0	0	0	0	0	9.03	1.82	0.07	342750	1	23042	233552	342750	319708	6249	214	939	45	214998	2380315	7447
73	2016-12-19 12:26:02	0	0	0	0	0	0	9.03	1.82	0.07	343203	1	23094	233622	343203	320109	6254	214	941	45	215058	2380345	7454
74	2016-12-19 12:36:14	0	0	0	0	0	0	9.03	1.82	0.07	343474	1	23124	233622	343474	320350	6259	214	943	45	215058	2380388	7461
75	2016-12-19 12:38:05	0	0	0	0	0	0	9.03	1.82	0.07	343474	1	23124	233622	343474	320350	6259	214	943	45	215058	2380392	7461
76	2016-12-19 13:46:42	0	0	0	0	0	0	9.1	1.82	0.07	345727	1	23397	235074	345727	322330	6300	224	951	45	216545	2380626	7520
77	2016-12-19 13:56:49	0	0	0	0	0	0	9.1	1.82	0.07	346014	1	23442	235182	346014	322572	6302	224	951	45	216636	2380664	7522
78	2016-12-19 14:04:07	0	0	0	0	0	0	9.11	1.82	0.07	346147	1	23460	235378	346147	322687	6306	224	951	45	216803	2380688	7526
79	2016-12-19 14:06:51	0	0	0	0	0	0	9.11	1.82	0.07	346147	1	23460	235378	346147	322687	6306	224	952	45	216803	2380693	7527
80	2016-12-19 14:16:40	0	0	0	0	0	0	9.12	1.82	0.07	346515	1	23507	235790	346515	323008	6316	224	952	45	217153	2380720	7537
81	2016-12-19 14:26:44	0	0	0	0	0	0	9.12	1.82	0.07	346748	1	23536	235858	346748	323212	6317	224	954	45	217210	2380754	7540
82	2016-12-19 14:30:24	0	0	0	0	0	0	9.12	1.82	0.07	346748	1	23536	235858	346748	323212	6317	224	954	45	217210	2380770	7540
83	2016-12-19 14:36:43	0	0	0	0	0	0	9.13	1.82	0.07	346989	1	23563	236074	346989	323426	6318	224	954	45	217271	2380788	7541
84	2016-12-19 14:40:25	0	0	0	0	0	0	9.13	1.82	0.07	346989	1	23563	236074	346989	323426	6318	224	954	45	217271	2380795	7541
85	2016-12-19 14:42:13	0	0	0	0	0	0	9.13	1.82	0.07	347099	1	23573	236074	347099	323526	6320	224	954	45	217271	2380801	7543
86	2016-12-19 14:52:17	0	0	0	0	0	0	9.13	1.82	0.07	347347	1	23605	236110	347347	323742	6323	224	955	45	217301	2380829	7547
87	2016-12-19 15:02:19	0	0	0	0	0	0	9.13	1.82	0.07	347569	1	23622	236164	347569	323947	6325	224	956	45	217347	2380859	7550
88	2016-12-19 15:12:18	0	0	0	0	0	0	9.13	1.82	0.07	347734	1	23639	236173	347734	324095	6328	224	956	45	217355	2380889	7553
89	2016-12-19 15:22:19	0	0	0	0	0	0	9.13	1.82	0.07	347912	1	23656	236209	347912	324256	6334	224	957	45	217385	2380925	7560
90	2016-12-19 15:32:21	0	0	0	0	0	0	9.13	1.82	0.07	348100	1	23685	236281	348100	324415	6336	224	957	45	217446	2380960	7562
91	2016-12-19 15:42:21	0	0	0	0	0	0	9.14	1.82	0.07	348318	1	23706	236497	348318	324612	6340	224	958	45	217630	2380991	7567
92	2016-12-19 15:52:24	0	0	0	0	0	0	9.14	1.82	0.07	348537	1	23728	236497	348537	324809	6344	224	959	45	217630	2381029	7572
93	2016-12-19 16:02:21	0	0	0	0	0	0	9.15	1.82	0.07	348737	1	23759	236751	348737	324978	6350	224	960	45	217844	2381056	7579
94	2016-12-19 16:12:18	0	0	0	0	0	0	9.15	1.82	0.07	348940	1	23786	236751	348940	325154	6353	224	961	45	217844	2381084	7583
95	2016-12-19 16:22:18	0	0	0	0	0	0	9.15	1.82	0.07	349149	1	23818	237041	349149	325331	6357	226	961	45	217844	2381120	7589
96	2016-12-19 16:32:17	0	0	0	0	0	0	9.15	1.82	0.07	349386	1	23841	237041	349386	325545	6362	226	962	45	217844	2381142	7595
97	2016-12-19 16:42:16	0	0	0	0	0	0	9.15	1.82	0.07	349595	1	23865	237186	349595	325730	6365	226	963	45	217967	2381172	7599
98	2016-12-19 16:52:18	0	0	0	0	0	0	9.15	1.82	0.07	349816	1	23891	237186	349816	325925	6369	226	963	45	217967	2381203	7603
99	2016-12-19 17:02:19	0	0	0	0	0	0	9.15	1.82	0.07	350007	1	23906	237222	350007	326101	6375	228	965	45	217997	2381233	7613
100	2016-12-19 17:12:18	0	0	0	0	0	0	9.15	1.82	0.07	350190	1	23930	237222	350190	326260	6377	228	966	45	217997	2381275	7616
101	2016-12-19 17:22:18	0	0	0	0	0	0	9.16	1.82	0.07	350374	1	23950	237368	350374	326424	6378	228	967	45	218120	2381298	7618
102	2016-12-19 17:32:20	0	0	0	0	0	0	9.17	1.82	0.07	350525	1	23973	237531	350525	326552	6380	228	968	45	218259	2381325	7621
103	2016-12-19 17:42:21	0	0	0	0	0	0	9.17	1.82	0.07	350661	1	23994	237604	350661	326667	6384	228	968	45	218443	2381355	7625
104	2016-12-19 17:52:27	0	0	0	0	0	0	9.17	1.82	0.07	350814	1	24010	237604	350814	326804	6385	228	968	45	218443	2381396	7626
105	2016-12-19 18:02:26	0	0	0	0	0	0	9.17	1.82	0.07	350942	1	24027	237604	350942	326915	6389	228	968	45	218443	2381427	7630
106	2016-12-19 18:12:27	0	0	0	0	0	0	9.17	1.82	0.07	351083	1	24044	237604	351083	327039	6392	228	969	45	218443	2381462	7634
107	2016-12-19 18:22:38	0	0	0	0	0	0	9.19	1.82	0.07	351248	1	24060	238263	351248	327188	6394	228	970	45	218814	2381500	7637
108	2016-12-19 18:32:38	0	0	0	0	0	0	9.19	1.82	0.07	351423	1	24088	238409	351423	327335	6399	228	970	45	218938	2381515	7642
109	2016-12-19 18:42:39	0	0	0	0	0	0	9.19	1.82	0.07	351579	1	24102	238409	351579	327477	6400	228	971	45	218938	2381545	7644
110	2016-12-19 18:52:40	0	0	0	0	0	0	9.2	1.82	0.07	351725	1	24120	238556	351725	327605	6401	228	971	45	219062	2381566	7645
111	2016-12-19 19:02:38	0	0	0	0	0	0	9.2	1.82	0.07	351864	1	24140	238593	351864	327724	6402	228	971	45	219093	2381600	7646
112	2016-12-19 19:12:40	0	0	0	0	0	0	9.2	1.82	0.07	352016	1	24158	238740	352016	327858	6402	228	971	45	219217	2381635	7646
113	2016-12-19 19:22:43	0	0	0	0	0	0	9.2	1.82	0.07	352151	1	24169	238740	352151	327982	6403	228	972	45	219217	2381673	7648
114	2016-12-19 19:32:40	0	0	0	0	0	0	9.2	1.82	0.07	352299	1	24191	238961	352299	328108	6406	228	972	45	219217	2381698	7651
115	2016-12-19 19:42:40	0	0	0	0	0	0	9.2	1.82	0.07	352457	1	24218	238961	352457	328239	6408	228	973	45	219217	2381714	7654
116	2016-12-19 19:56:41	0	0	0	0	0	0	9.21	1.82	0.07	352656	1	24249	238998	352656	328407	6414	228	973	45	219372	2381747	7660
117	2016-12-19 20:06:38	0	0	0	0	0	0	9.21	1.82	0.07	352802	1	24267	238998	352802	328535	6415	228	974	45	219372	2381773	7662
118	2016-12-19 20:17:29	0	0	0	0	0	0	9.21	1.82	0.07	352944	1	24284	238998	352944	328660	6417	228	974	45	219372	2381804	7664
119	2016-12-19 20:27:28	0	0	0	0	0	0	9.21	1.82	0.07	353050	1	24311	238998	353050	328739	6418	228	975	45	219372	2381832	7666
120	2016-12-19 20:37:31	0	0	0	0	0	0	9.22	1.82	0.07	353182	1	24327	239220	353182	328855	6418	228	975	45	219652	2381864	7666
121	2016-12-19 20:47:30	0	0	0	0	0	0	9.22	1.82	0.07	353293	1	24348	239220	353293	328945	6418	228	975	45	219652	2381896	7666
122	2016-12-19 20:57:32	0	0	0	0	0	0	9.22	1.82	0.07	353406	1	24364	239257	353406	329042	6420	228	975	45	219683	2381924	7668
123	2016-12-19 21:07:33	0	0	0	0	0	0	9.23	1.82	0.07	353499	1	24383	239479	353499	329116	6421	228	975	45	219871	2381951	7669
124	2016-12-19 21:17:31	0	0	0	0	0	0	9.23	1.82	0.07	353621	1	24396	239479	353621	329225	6421	228	975	45	219871	2381993	7669
125	2016-12-19 21:27:34	0	0	0	0	0	0	9.25	1.82	0.07	353746	1	24412	239999	353746	329334	6423	228	975	45	220309	2382012	7671
126	2016-12-19 21:37:32	0	0	0	0	0	0	9.26	1.82	0.07	353864	1	24428	240147	353864	329436	6426	228	975	45	220685	2382030	7674
127	2016-12-19 21:47:35	0	0	0	0	0	0	9.26	1.82	0.07	353984	1	24452	240147	353984	329532	6428	228	975	45	220685	2382052	7676
128	2016-12-19 21:57:36	0	0	0	0	0	0	9.27	1.82	0.07	354115	1	24474	240222	354115	329641	6432	228	975	45	220748	2382075	7680
129	2016-12-19 22:07:36	0	0	0	0	0	0	9.27	1.82	0.07	354245	1	24491	240222	354245	329754	6436	228	975	45	220748	2382087	7684
130	2016-12-19 22:17:34	0	0	0	0	0	0	9.27	1.82	0.07	354353	1	24499	240222	354353	329854	6437	228	975	45	220748	2382094	7685
131	2016-12-19 22:27:36	0	0	0	0	0	0	9.27	1.82	0.07	354468	1	24515	240222	354468	329953	6438	228	975	45	220748	2382104	7686
132	2016-12-19 22:37:33	0	0	0	0	0	0	9.27	1.82	0.07	354579	1	24529	240222	354579	330050	6441	228	975	45	220748	2382112	7689
133	2016-12-19 22:47:34	0	0	0	0	0	0	9.27	1.82	0.07	354690	1	24550	240222	354690	330140	6441	228	976	45	220748	2382123	7690
134	2016-12-19 22:57:34	0	0	0	0	0	0	9.27	1.82	0.07	354781	1	24565	240222	354781	330216	6444	228	977	45	220748	2382137	7694
135	2016-12-19 23:07:33	0	0	0	0	0	0	9.28	1.82	0.07	354870	1	24580	240483	354870	330290	6446	228	977	45	220969	2382148	7696
136	2016-12-19 23:17:34	0	0	0	0	0	0	9.28	1.82	0.07	354952	1	24596	240708	354952	330356	6446	228	977	45	221158	2382155	7696
137	2016-12-19 23:27:36	0	0	0	0	0	0	9.28	1.82	0.07	355014	1	24607	240708	355014	330407	6447	228	977	45	221158	2382159	7697
138	2016-12-19 23:37:38	0	0	0	0	0	0	9.28	1.82	0.07	355058	1	24628	240708	355058	330430	6451	228	977	45	221158	2382165	7701
139	2016-12-19 23:47:43	0	0	0	0	0	0	9.28	1.82	0.07	355090	1	24638	240708	355090	330452	6451	228	977	45	221158	2382176	7701
140	2016-12-19 23:57:51	0	0	0	0	0	0	9.28	1.82	0.07	355116	1	24649	240708	355116	330467	6451	228	977	45	221158	2382184	7701
141	2016-12-20 00:07:45	0	0	0	0	0	0	9.28	1.82	0.07	355146	1	24658	240708	355146	330488	6451	228	977	45	221158	2382189	7701
142	2016-12-20 00:17:38	0	0	0	0	0	0	9.28	1.82	0.07	355165	1	24662	240708	355165	330503	6452	228	977	45	221158	2382199	7702
143	2016-12-20 00:27:38	0	0	0	0	0	0	9.28	1.82	0.07	355191	1	24675	240708	355191	330516	6453	228	977	45	221158	2382213	7703
144	2016-12-20 00:37:38	0	0	0	0	0	0	9.28	1.82	0.07	355219	1	24684	240708	355219	330535	6453	228	977	45	221158	2382223	7703
145	2016-12-20 00:47:39	0	0	0	0	0	0	9.28	1.82	0.07	355232	1	24686	240708	355232	330546	6453	228	977	45	221158	2382234	7703
146	2016-12-20 00:57:41	0	0	0	0	0	0	9.28	1.82	0.07	355245	1	24689	240708	355245	330556	6453	228	977	45	221158	2382246	7703
147	2016-12-20 01:07:40	0	0	0	0	0	0	9.28	1.82	0.07	355258	1	24697	240708	355258	330561	6453	228	977	45	221158	2382249	7703
148	2016-12-20 01:17:48	0	0	0	0	0	0	9.28	1.82	0.07	355270	1	24700	240708	355270	330570	6453	228	977	45	221158	2382253	7703
149	2016-12-20 01:27:40	0	0	0	0	0	0	9.28	1.82	0.07	355283	1	24703	240708	355283	330580	6453	228	977	45	221158	2382256	7703
150	2016-12-20 01:37:49	0	0	0	0	0	0	9.28	1.82	0.07	355288	1	24705	240708	355288	330583	6453	228	977	45	221158	2382256	7703
151	2016-12-20 01:47:40	0	0	0	0	0	0	9.28	1.82	0.07	355292	1	24708	240708	355292	330584	6453	228	977	45	221158	2382258	7703
152	2016-12-20 01:57:52	0	0	0	0	0	0	9.28	1.82	0.07	355294	1	24708	240708	355294	330586	6453	228	977	45	221158	2382263	7703
153	2016-12-20 02:07:41	0	0	0	0	0	0	9.27	1.82	0.07	355300	1	24708	240708	355300	330592	6453	228	977	45	221158	2386059	7703
154	2016-12-20 02:17:52	0	0	0	0	0	0	9.27	1.82	0.07	355306	1	24710	240708	355306	330596	6453	228	977	45	221158	2386060	7703
155	2016-12-20 02:28:12	0	0	0	0	0	0	9.27	1.82	0.07	355308	1	24710	240708	355308	330598	6453	228	977	45	221158	2386061	7703
156	2016-12-20 02:38:35	0	0	0	0	0	0	9.27	1.82	0.07	355312	1	24711	240708	355312	330601	6453	228	977	45	221158	2386059	7703
157	2016-12-20 02:49:15	0	0	0	0	0	0	9.27	1.82	0.07	355315	1	24711	240708	355315	330604	6453	228	977	45	221158	2386061	7703
158	2016-12-20 03:01:30	0	0	0	0	0	0	9.27	1.82	0.07	355322	1	24712	240708	355322	330610	6453	228	977	45	221158	2386061	7703
159	2016-12-20 03:11:24	0	0	0	0	0	0	9.27	1.82	0.07	355326	1	24714	240708	355326	330612	6453	228	977	45	221158	2386062	7703
160	2016-12-20 03:21:36	0	0	0	0	0	0	9.27	1.82	0.07	355329	1	24716	240708	355329	330613	6453	228	977	45	221158	2386060	7703
161	2016-12-20 03:31:35	0	0	0	0	0	0	9.27	1.82	0.07	355332	1	24718	240708	355332	330614	6453	228	977	45	221158	2386062	7703
162	2016-12-20 03:41:37	0	0	0	0	0	0	9.27	1.82	0.07	355335	1	24718	240708	355335	330617	6453	228	977	45	221158	2386062	7703
163	2016-12-20 03:55:23	0	0	0	0	0	0	9.27	1.82	0.07	355337	1	24719	240708	355337	330618	6453	228	977	45	221158	2386062	7703
164	2016-12-20 04:05:18	0	0	0	0	0	0	9.27	1.82	0.07	355339	1	24719	240708	355339	330620	6453	228	977	45	221158	2386062	7703
165	2016-12-20 04:15:31	0	0	0	0	0	0	9.27	1.82	0.07	355345	1	24722	240708	355345	330624	6453	228	977	45	221158	2386064	7703
166	2016-12-20 04:25:36	0	0	0	0	0	0	9.27	1.82	0.07	355347	1	24722	240708	355347	330625	6453	228	977	45	221158	2386064	7703
167	2016-12-20 04:35:39	0	0	0	0	0	0	9.27	1.82	0.07	355350	1	24722	240708	355350	330628	6454	228	977	45	221158	2386063	7704
168	2016-12-20 04:45:48	0	0	0	0	0	0	9.27	1.82	0.07	355352	1	24722	240708	355352	330631	6454	228	977	45	221158	2386065	7704
169	2016-12-20 04:56:50	0	0	0	0	0	0	9.27	1.82	0.07	355356	1	24723	240708	355356	330633	6454	228	977	45	221158	2386067	7704
170	2016-12-20 05:07:32	0	0	0	0	0	0	9.27	1.82	0.07	355359	1	24725	240708	355359	330634	6454	228	977	45	221158	2386067	7704
171	2016-12-20 05:17:48	0	0	0	0	0	0	9.27	1.82	0.07	355360	1	24725	240708	355360	330635	6454	228	977	45	221158	2386071	7704
172	2016-12-20 05:28:07	0	0	0	0	0	0	9.27	1.82	0.07	355364	1	24726	240708	355364	330638	6454	228	978	45	221158	2386071	7705
173	2016-12-20 05:38:31	0	0	0	0	0	0	9.27	1.82	0.07	355367	1	24726	240708	355367	330641	6454	228	978	45	221158	2386073	7705
174	2016-12-20 05:48:53	0	0	0	0	0	0	9.27	1.82	0.07	355369	1	24728	240708	355369	330641	6454	228	978	45	221158	2386075	7705
175	2016-12-20 05:59:09	0	0	0	0	0	0	9.27	1.82	0.07	355373	1	24729	240708	355373	330644	6454	228	978	45	221158	2386073	7705
176	2016-12-20 06:09:44	0	0	0	0	0	0	9.27	1.82	0.07	355379	1	24730	240708	355379	330649	6454	228	978	45	221158	2386072	7705
177	2016-12-20 06:20:19	0	0	0	0	0	0	9.27	1.82	0.07	355384	1	24730	240708	355384	330654	6454	228	978	45	221158	2386075	7705
178	2016-12-20 06:30:50	0	0	0	0	0	0	9.27	1.82	0.07	355391	1	24732	240708	355391	330659	6454	228	978	45	221158	2386080	7705
179	2016-12-20 06:41:34	0	0	0	0	0	0	9.27	1.82	0.07	355399	1	24735	240708	355399	330664	6454	228	978	45	221158	2386081	7705
180	2016-12-20 06:52:12	0	0	0	0	0	0	9.27	1.82	0.07	355404	1	24737	240708	355404	330667	6454	228	978	45	221158	2386082	7705
181	2016-12-20 07:03:09	0	0	0	0	0	0	9.27	1.82	0.07	355407	1	24738	240708	355407	330669	6454	228	978	45	221158	2386084	7705
182	2016-12-20 07:14:18	0	0	0	0	0	0	9.27	1.82	0.07	355415	1	24740	240708	355415	330675	6454	228	978	45	221158	2386086	7705
183	2016-12-20 07:24:58	0	0	0	0	0	0	9.27	1.82	0.07	355427	1	24747	240708	355427	330680	6454	228	978	45	221158	2386085	7705
184	2016-12-20 07:37:02	0	0	0	0	0	0	9.27	1.82	0.07	355446	1	24754	240708	355446	330692	6454	228	978	45	221158	2386089	7705
185	2016-12-20 08:02:19	0	0	0	0	0	0	9.27	1.82	0.07	355471	1	24764	240708	355471	330707	6454	228	978	45	221158	2386103	7705
186	2016-12-20 08:12:10	0	0	0	0	0	0	9.27	1.82	0.07	355486	1	24768	240708	355486	330718	6454	228	978	45	221158	2386106	7705
187	2016-12-20 08:25:42	0	0	0	0	0	0	9.27	1.82	0.07	355503	1	24775	240708	355503	330728	6454	228	978	45	221158	2386115	7705
188	2016-12-20 08:38:22	0	0	0	0	0	0	9.27	1.82	0.07	355512	1	24776	240708	355512	330736	6454	228	978	45	221158	2386124	7705
189	2016-12-20 08:50:21	0	0	0	0	0	0	9.27	1.82	0.07	355520	1	24781	240708	355520	330739	6454	228	978	45	221158	2386134	7705
190	2016-12-20 09:01:32	0	0	0	0	0	0	9.27	1.82	0.07	355544	1	24792	240708	355544	330752	6454	228	979	45	221158	2386142	7706
191	2016-12-20 09:13:18	0	0	0	0	0	0	9.27	1.82	0.07	355558	1	24798	240708	355558	330760	6454	228	979	45	221158	2386149	7706
192	2016-12-20 09:25:01	0	0	0	0	0	0	9.27	1.82	0.07	355574	1	24803	240708	355574	330771	6454	228	979	45	221158	2386160	7706
193	2016-12-20 09:50:21	0	0	0	0	0	0	9.27	1.81	0.08	355605	1	24810	240708	355605	330795	6454	228	979	45	221158	2386179	7706
194	2016-12-20 10:08:09	0	0	0	0	0	0	9.27	1.81	0.08	355626	1	24820	241007	355626	330806	6454	228	979	45	221158	2386199	7706
195	2016-12-20 10:18:14	0	0	0	0	0	0	9.27	1.81	0.08	355629	1	24820	241007	355629	330809	6454	228	979	45	221158	2386205	7706
196	2016-12-20 10:28:54	0	0	0	0	0	0	9.27	1.81	0.08	355635	1	24822	241007	355635	330813	6454	228	979	45	221158	2386218	7706
197	2016-12-20 10:39:34	0	0	0	0	0	0	9.27	1.81	0.08	355640	1	24822	241007	355640	330818	6454	228	979	45	221158	2386227	7706
198	2016-12-20 10:50:34	0	0	0	0	0	0	9.27	1.82	0.08	355645	1	24827	241007	355645	330818	6455	228	979	45	221158	2386240	7707
199	2016-12-20 11:01:28	0	0	0	0	0	0	9.27	1.81	0.08	355657	1	24828	241007	355657	330829	6455	228	979	45	221158	2386239	7707
200	2016-12-20 11:12:24	0	0	0	0	0	0	9.27	1.81	0.08	355661	1	24829	241007	355661	330832	6455	228	979	45	221158	2386250	7707
201	2016-12-20 11:23:26	0	0	0	0	0	0	9.27	1.81	0.08	355668	1	24833	241007	355668	330835	6455	228	979	45	221158	2386255	7707
202	2016-12-20 11:34:34	0	0	0	0	0	0	9.27	1.81	0.08	355677	1	24836	241007	355677	330841	6455	228	979	45	221158	2386263	7707
203	2016-12-20 11:45:40	0	0	0	0	0	0	9.27	1.81	0.08	355682	1	24838	241007	355682	330844	6455	228	979	45	221158	2386275	7707
204	2016-12-20 11:56:54	0	0	0	0	0	0	9.27	1.81	0.08	355692	1	24840	241007	355692	330852	6455	228	979	45	221158	2386287	7707
205	2016-12-20 12:08:10	0	0	0	0	0	0	9.27	1.81	0.08	355701	1	24845	241007	355701	330856	6455	228	979	45	221158	2386301	7707
206	2016-12-20 12:19:25	0	0	0	0	0	0	9.27	1.81	0.08	355708	1	24847	241007	355708	330861	6455	228	979	45	221158	2386311	7707
207	2016-12-20 12:30:47	0	0	0	0	0	0	9.27	1.81	0.08	355715	1	24848	241007	355715	330867	6455	228	979	45	221158	2386321	7707
208	2016-12-20 12:42:07	0	0	0	0	0	0	9.27	1.81	0.08	355722	1	24850	241007	355722	330872	6455	228	979	45	221158	2386329	7707
209	2016-12-20 12:53:31	0	0	0	0	0	0	9.27	1.81	0.08	355729	1	24853	241158	355729	330876	6455	228	979	45	221285	2386336	7707
210	2016-12-20 13:04:56	0	0	0	0	0	0	9.27	1.81	0.08	355731	1	24854	241158	355731	330877	6455	228	979	45	221285	2386340	7707
211	2016-12-20 13:16:31	0	0	0	0	0	0	9.27	1.81	0.08	355744	1	24857	241158	355744	330887	6455	228	979	45	221285	2386347	7707
212	2016-12-20 13:28:07	0	0	0	0	0	0	9.27	1.81	0.08	355747	1	24858	241158	355747	330889	6455	228	979	45	221285	2386353	7707
213	2016-12-20 13:39:47	0	0	0	0	0	0	9.27	1.81	0.08	355750	1	24859	241158	355750	330891	6455	228	979	45	221285	2386364	7707
214	2016-12-20 13:51:36	0	0	0	0	0	0	9.27	1.81	0.08	355760	1	24865	241158	355760	330895	6455	228	979	45	221285	2386376	7707
215	2016-12-20 14:03:27	0	0	0	0	0	0	9.27	1.81	0.08	355761	1	24866	241158	355761	330895	6455	228	979	45	221285	2386384	7707
216	2016-12-20 14:15:22	0	0	0	0	0	0	9.27	1.81	0.08	355763	1	24866	241158	355763	330897	6455	228	979	45	221285	2386395	7707
217	2016-12-20 14:27:22	0	0	0	0	0	0	9.27	1.81	0.08	355779	1	24873	241158	355779	330906	6455	228	979	45	221285	2386403	7707
218	2016-12-20 14:39:30	0	0	0	0	0	0	9.27	1.81	0.08	355783	1	24875	241158	355783	330908	6455	228	979	45	221285	2386414	7707
219	2016-12-20 14:52:04	0	0	0	0	0	0	9.27	1.81	0.08	355791	1	24876	241158	355791	330915	6455	228	979	45	221285	2386419	7707
220	2016-12-20 15:04:20	0	0	0	0	0	0	9.27	1.81	0.08	355797	1	24880	241158	355797	330917	6455	228	979	45	221285	2386430	7707
221	2016-12-20 18:10:35	0	0	0	0	0	0	9.28	1.81	0.08	355885	1	24908	241308	355885	330977	6457	226	980	45	221411	2386607	7708
222	2016-12-20 18:20:26	0	0	0	0	0	0	9.28	1.81	0.08	355891	1	24912	241308	355891	330979	6457	226	980	45	221411	2386610	7708
223	2016-12-20 18:30:22	0	0	0	0	0	0	9.28	1.81	0.08	355899	1	24914	241308	355899	330985	6457	226	980	45	221411	2386615	7708
224	2016-12-20 18:40:25	0	0	0	0	0	0	9.28	1.81	0.08	355904	1	24916	241308	355904	330988	6457	226	980	45	221411	2386618	7708
225	2016-12-20 18:50:21	0	0	0	0	0	0	9.28	1.81	0.08	355908	1	24916	241308	355908	330992	6457	226	980	45	221411	2386630	7708
226	2016-12-20 19:00:27	0	0	0	0	0	0	9.28	1.81	0.08	355916	1	24920	241308	355916	330996	6457	226	980	45	221411	2386642	7708
227	2016-12-20 19:10:26	0	0	0	0	0	0	9.28	1.81	0.08	355923	1	24922	241308	355923	331001	6457	226	981	45	221411	2386649	7709
228	2016-12-20 19:20:30	0	0	0	0	0	0	9.28	1.81	0.08	355934	1	24925	241308	355934	331009	6458	226	981	45	221411	2386653	7710
229	2016-12-20 19:30:30	0	0	0	0	0	0	9.28	1.81	0.08	355937	1	24928	241308	355937	331009	6459	226	981	45	221411	2386662	7711
230	2016-12-20 19:40:30	0	0	0	0	0	0	9.28	1.81	0.08	355942	1	24930	241308	355942	331012	6459	226	981	45	221411	2386662	7711
231	2016-12-20 19:50:31	0	0	0	0	0	0	9.28	1.81	0.08	355949	1	24933	241308	355949	331016	6460	226	981	45	221411	2386667	7712
232	2016-12-20 20:00:35	0	0	0	0	0	0	9.28	1.81	0.08	355957	1	24935	241308	355957	331022	6460	226	981	45	221411	2386679	7712
233	2016-12-20 20:10:32	0	0	0	0	0	0	9.28	1.81	0.08	355970	1	24938	241308	355970	331032	6460	226	981	45	221411	2386689	7712
234	2016-12-20 20:20:32	0	0	0	0	0	0	9.28	1.81	0.08	355977	1	24941	241308	355977	331036	6460	226	981	45	221411	2386711	7712
235	2016-12-20 20:30:35	0	0	0	0	0	0	9.28	1.81	0.08	355987	1	24944	241308	355987	331043	6460	226	981	45	221411	2386726	7712
236	2016-12-20 20:40:31	0	0	0	0	0	0	9.28	1.81	0.08	355991	1	24945	241308	355991	331046	6460	226	981	45	221411	2386747	7712
237	2016-12-20 20:50:28	0	0	0	0	0	0	9.29	1.81	0.08	355998	1	24946	241609	355998	331052	6460	226	981	45	221665	2386761	7712
238	2016-12-20 21:00:31	0	0	0	0	0	0	9.29	1.81	0.08	356001	1	24946	241609	356001	331055	6460	226	981	45	221665	2386775	7712
239	2016-12-20 21:10:35	0	0	0	0	0	0	9.29	1.81	0.08	356008	1	24947	241609	356008	331061	6460	224	981	45	221665	2386789	7710
240	2016-12-20 21:20:33	0	0	0	0	0	0	9.29	1.81	0.08	356010	1	24947	241609	356010	331063	6460	224	981	45	221665	2386803	7710
241	2016-12-20 21:30:42	0	0	0	0	0	0	9.29	1.81	0.08	356014	1	24948	241609	356014	331066	6460	224	981	45	221665	2386822	7710
242	2016-12-20 21:40:30	0	0	0	0	0	0	9.29	1.81	0.08	356019	1	24950	241609	356019	331069	6460	224	981	45	221665	2386834	7710
243	2016-12-20 21:50:43	0	0	0	0	0	0	9.29	1.81	0.08	356024	1	24952	241609	356024	331072	6460	224	981	45	221665	2386849	7710
244	2016-12-20 22:00:35	0	0	0	0	0	0	9.29	1.81	0.08	356028	1	24953	241609	356028	331075	6460	224	981	45	221665	2386869	7710
245	2016-12-20 22:10:36	0	0	0	0	0	0	9.29	1.81	0.08	356035	1	24956	241609	356035	331079	6460	224	981	45	221665	2386879	7710
246	2016-12-20 22:20:34	0	0	0	0	0	0	9.29	1.81	0.08	356042	1	24958	241609	356042	331084	6460	224	981	45	221665	2386892	7710
247	2016-12-20 22:30:35	0	0	0	0	0	0	9.29	1.81	0.08	356046	1	24959	241609	356046	331087	6460	224	981	45	221665	2386905	7710
248	2016-12-20 22:40:35	0	0	0	0	0	0	9.29	1.81	0.08	356052	1	24962	241609	356052	331090	6460	224	981	45	221665	2386916	7710
249	2016-12-20 22:50:32	0	0	0	0	0	0	9.29	1.81	0.08	356060	1	24966	241609	356060	331094	6460	224	981	45	221665	2386931	7710
250	2016-12-20 23:00:34	0	0	0	0	0	0	9.29	1.81	0.08	356066	1	24968	241609	356066	331098	6460	224	981	45	221665	2386943	7710
251	2016-12-20 23:10:31	0	0	0	0	0	0	9.29	1.81	0.08	356070	1	24971	241609	356070	331099	6460	224	981	45	221665	2386957	7710
252	2016-12-20 23:20:32	0	0	0	0	0	0	9.29	1.81	0.08	356074	1	24971	241609	356074	331103	6460	224	981	45	221665	2386976	7710
253	2016-12-20 23:30:31	0	0	0	0	0	0	9.29	1.81	0.08	356081	1	24975	241609	356081	331106	6460	224	981	45	221665	2386988	7710
254	2016-12-20 23:40:29	0	0	0	0	0	0	9.29	1.81	0.08	356085	1	24977	241609	356085	331108	6460	224	981	45	221665	2387003	7710
255	2016-12-20 23:50:29	0	0	0	0	0	0	9.29	1.81	0.08	356089	1	24979	241609	356089	331110	6460	224	981	45	221665	2387018	7710
256	2016-12-21 00:00:29	0	0	0	0	0	0	9.29	1.81	0.08	356091	1	24981	241609	356091	331110	6460	224	981	45	221665	2387027	7710
257	2016-12-21 00:10:03	0	0	0	0	0	0	9.29	1.81	0.08	356092	1	24981	241609	356092	331111	6460	224	981	45	221665	2387033	7710
258	2016-12-21 00:20:06	0	0	0	0	0	0	9.29	1.81	0.08	356095	1	24982	241609	356095	331113	6460	224	981	45	221665	2387040	7710
259	2016-12-21 00:30:01	0	0	0	0	0	0	9.29	1.81	0.08	356098	1	24983	241609	356098	331115	6460	224	981	45	221665	2387055	7710
260	2016-12-21 00:40:01	0	0	0	0	0	0	9.29	1.81	0.08	356098	1	24983	241609	356098	331115	6460	224	981	45	221665	2387063	7710
261	2016-12-21 00:49:55	0	0	0	0	0	0	9.29	1.81	0.08	356101	1	24985	241609	356101	331116	6460	224	981	45	221665	2387065	7710
262	2016-12-21 01:00:00	0	0	0	0	0	0	9.29	1.81	0.08	356102	1	24985	241609	356102	331117	6460	224	981	45	221665	2387072	7710
263	2016-12-21 01:10:00	0	0	0	0	0	0	9.29	1.81	0.08	356103	1	24986	241609	356103	331117	6460	224	981	45	221665	2387077	7710
264	2016-12-21 01:19:59	0	0	0	0	0	0	9.29	1.81	0.08	356103	1	24986	241609	356103	331117	6460	224	981	45	221665	2387087	7710
265	2016-12-21 01:30:00	0	0	0	0	0	0	9.29	1.81	0.08	356105	1	24987	241609	356105	331118	6460	224	981	45	221665	2387091	7710
266	2016-12-21 01:40:01	0	0	0	0	0	0	9.29	1.81	0.08	356105	1	24987	241609	356105	331118	6460	224	981	45	221665	2387096	7710
267	2016-12-21 01:49:55	0	0	0	0	0	0	9.29	1.81	0.08	356105	1	24987	241609	356105	331118	6460	224	981	45	221665	2387101	7710
268	2016-12-21 01:59:58	0	0	0	0	0	0	9.29	1.81	0.08	356107	1	24989	241609	356107	331118	6460	224	981	45	221665	2387096	7710
269	2016-12-21 02:09:59	0	0	0	0	0	0	9.27	1.81	0.08	356108	1	24989	241609	356108	331119	6460	224	981	45	221665	2390114	7710
270	2016-12-21 02:20:00	0	0	0	0	0	0	9.27	1.81	0.08	356110	1	24990	241609	356110	331120	6460	224	981	45	221665	2390118	7710
271	2016-12-21 02:30:00	0	0	0	0	0	0	9.27	1.81	0.08	356112	1	24991	241609	356112	331121	6460	224	981	45	221665	2390119	7710
272	2016-12-21 02:39:58	0	0	0	0	0	0	9.27	1.81	0.08	356112	1	24991	241609	356112	331121	6460	224	981	45	221665	2390121	7710
273	2016-12-21 02:49:57	0	0	0	0	0	0	9.27	1.81	0.08	356112	1	24991	241609	356112	331121	6460	224	981	45	221665	2390122	7710
274	2016-12-21 03:00:00	0	0	0	0	0	0	9.27	1.81	0.08	356114	1	24992	241609	356114	331122	6460	224	981	45	221665	2390123	7710
275	2016-12-21 03:09:58	0	0	0	0	0	0	9.27	1.81	0.08	356115	1	24992	241609	356115	331123	6460	224	981	45	221665	2390125	7710
276	2016-12-21 03:20:00	0	0	0	0	0	0	9.27	1.81	0.08	356117	1	24993	241609	356117	331124	6460	224	981	45	221665	2390126	7710
277	2016-12-21 03:29:59	0	0	0	0	0	0	9.27	1.81	0.08	356117	1	24993	241609	356117	331124	6460	224	981	45	221665	2390120	7710
278	2016-12-21 03:39:58	0	0	0	0	0	0	9.27	1.81	0.08	356117	1	24993	241609	356117	331124	6460	224	981	45	221665	2390122	7710
279	2016-12-21 03:50:01	0	0	0	0	0	0	9.27	1.81	0.08	356118	1	24994	241609	356118	331124	6460	224	981	45	221665	2390126	7710
280	2016-12-21 04:00:01	0	0	0	0	0	0	9.27	1.81	0.08	356118	1	24994	241609	356118	331124	6460	224	981	45	221665	2390127	7710
281	2016-12-21 04:10:00	0	0	0	0	0	0	9.27	1.81	0.08	356118	1	24994	241609	356118	331124	6460	224	981	45	221665	2390126	7710
282	2016-12-21 04:20:01	0	0	0	0	0	0	9.27	1.81	0.08	356118	1	24994	241609	356118	331124	6460	224	981	45	221665	2390126	7710
283	2016-12-21 04:30:01	0	0	0	0	0	0	9.27	1.81	0.08	356118	1	24994	241609	356118	331124	6460	224	981	45	221665	2390125	7710
284	2016-12-21 04:39:59	0	0	0	0	0	0	9.27	1.81	0.08	356118	1	24994	241609	356118	331124	6460	224	981	45	221665	2390127	7710
285	2016-12-21 04:50:01	0	0	0	0	0	0	9.27	1.81	0.08	356118	1	24994	241609	356118	331124	6460	224	981	45	221665	2390127	7710
286	2016-12-21 05:00:00	0	0	0	0	0	0	9.27	1.81	0.08	356118	1	24994	241609	356118	331124	6460	224	981	45	221665	2390127	7710
287	2016-12-21 05:10:05	0	0	0	0	0	0	9.27	1.81	0.08	356118	1	24994	241609	356118	331124	6460	224	981	45	221665	2390126	7710
288	2016-12-21 05:20:08	0	0	0	0	0	0	9.27	1.81	0.08	356118	1	24994	241609	356118	331124	6460	224	981	45	221665	2390128	7710
289	2016-12-21 05:30:10	0	0	0	0	0	0	9.27	1.81	0.08	356118	1	24994	241609	356118	331124	6460	224	981	45	221665	2390130	7710
290	2016-12-21 05:40:15	0	0	0	0	0	0	9.27	1.81	0.08	356118	1	24994	241609	356118	331124	6460	224	981	45	221665	2390128	7710
291	2016-12-21 05:50:10	0	0	0	0	0	0	9.27	1.81	0.08	356119	1	24994	241609	356119	331125	6460	224	981	45	221665	2390129	7710
292	2016-12-21 06:00:11	0	0	0	0	0	0	9.27	1.81	0.08	356120	1	24994	241609	356120	331126	6460	224	981	45	221665	2390126	7710
293	2016-12-21 06:10:14	0	0	0	0	0	0	9.27	1.81	0.08	356121	1	24995	241609	356121	331126	6460	224	981	45	221665	2390131	7710
294	2016-12-21 06:20:12	0	0	0	0	0	0	9.27	1.81	0.08	356122	1	24995	241609	356122	331127	6460	224	981	45	221665	2390135	7710
295	2016-12-21 06:30:52	0	0	0	0	0	0	9.27	1.81	0.08	356122	1	24995	241609	356122	331127	6460	224	981	45	221665	2390137	7710
296	2016-12-21 06:41:53	0	0	0	0	0	0	9.27	1.81	0.08	356123	1	24995	241609	356123	331128	6460	224	981	45	221665	2390134	7710
297	2016-12-21 06:51:47	0	0	0	0	0	0	9.27	1.81	0.08	356125	1	24996	241609	356125	331129	6460	224	981	45	221665	2390136	7710
298	2016-12-21 07:01:49	0	0	0	0	0	0	9.27	1.81	0.08	356125	1	24996	241609	356125	331129	6460	224	981	45	221665	2390140	7710
299	2016-12-21 07:12:06	0	0	0	0	0	0	9.27	1.81	0.08	356129	1	24998	241609	356129	331131	6460	224	981	45	221665	2390139	7710
300	2016-12-21 07:21:57	0	0	0	0	0	0	9.27	1.81	0.08	356129	1	24998	241609	356129	331131	6460	224	981	45	221665	2390142	7710
301	2016-12-21 07:31:54	0	0	0	0	0	0	9.27	1.81	0.08	356131	1	24998	241609	356131	331133	6460	224	981	45	221665	2390143	7710
302	2016-12-21 07:42:19	0	0	0	0	0	0	9.27	1.81	0.08	356131	1	24998	241609	356131	331133	6460	224	981	45	221665	2390153	7710
303	2016-12-21 07:52:37	0	0	0	0	0	0	9.27	1.81	0.08	356132	1	24998	241609	356132	331134	6460	224	981	45	221665	2390162	7710
304	2016-12-21 08:06:53	0	0	0	0	0	0	9.27	1.81	0.08	356135	1	24999	241609	356135	331136	6460	224	981	45	221665	2390170	7710
305	2016-12-21 08:17:37	0	0	0	0	0	0	9.27	1.81	0.08	356138	1	24999	241609	356138	331139	6460	224	981	45	221665	2390170	7710
306	2016-12-21 08:27:34	0	0	0	0	0	0	9.27	1.81	0.08	356140	1	25001	241609	356140	331139	6460	224	981	45	221665	2390174	7710
307	2016-12-21 08:37:39	0	0	0	0	0	0	9.27	1.81	0.08	356141	1	25001	241609	356141	331140	6460	224	981	45	221665	2390182	7710
308	2016-12-21 08:50:14	0	0	0	0	0	0	9.27	1.81	0.08	356144	1	25004	241609	356144	331140	6460	224	981	45	221665	2390192	7710
309	2016-12-21 09:00:01	0	0	0	0	0	0	9.27	1.81	0.08	356144	1	25004	241609	356144	331140	6460	224	981	45	221665	2390199	7710
310	2016-12-21 09:10:06	0	0	0	0	0	0	9.27	1.81	0.08	356147	1	25006	241609	356147	331141	6460	224	981	45	221665	2390208	7710
311	2016-12-21 09:20:14	0	0	0	0	0	0	9.27	1.81	0.08	356150	1	25009	241609	356150	331141	6460	224	981	45	221665	2390216	7710
312	2016-12-21 09:30:19	0	0	0	0	0	0	9.27	1.81	0.08	356151	1	25010	241609	356151	331141	6460	224	981	45	221665	2390225	7710
313	2016-12-21 09:40:22	0	0	0	0	0	0	9.27	1.81	0.08	356152	1	25010	241609	356152	331142	6460	224	981	45	221665	2390234	7710
314	2016-12-21 10:10:32	0	0	0	0	0	0	9.27	1.81	0.08	356155	1	25013	242062	356155	331142	6460	224	981	45	221665	2390258	7710
315	2016-12-21 10:20:33	0	0	0	0	0	0	9.27	1.81	0.08	356155	1	25013	242062	356155	331142	6460	224	981	45	221665	2390267	7710
316	2016-12-21 10:30:32	0	0	0	0	0	0	9.27	1.81	0.08	356156	1	25013	242062	356156	331143	6460	224	981	45	221665	2390277	7710
