1	2016-11-28 07:32:19	0	0	0	0	0	0	0.03	0.35	0	850	1	0	801	850	850	3	0	2	1	798	2323361	6
2	2016-11-28 07:42:19	0	0	0	0	0	0	0.51	1.11	0	14014	1	15	11798	14014	13999	155	6	13	12	11795	2323363	186
3	2016-11-28 07:52:18	0	0	0	0	0	0	0.88	1.39	0	24601	1	54	20614	24601	24547	343	10	22	13	20501	2323368	388
4	2016-11-28 08:02:19	0	0	0	0	0	0	1.2	1.58	0	33638	1	108	27985	33638	33530	532	18	29	14	27766	2323370	593
5	2016-11-28 08:12:19	0	0	0	0	0	0	1.45	1.72	0	41382	1	204	34087	41382	41178	712	20	36	16	33805	2323370	784
6	2016-11-28 08:22:19	0	0	0	0	0	0	1.69	1.78	0.01	48541	1	269	39661	48541	48272	862	20	45	17	39306	2323371	944
7	2016-11-28 08:32:19	0	0	0	0	0	0	1.88	1.85	0.01	55094	1	335	44136	55094	54759	1019	22	47	17	43690	2323375	1105
8	2016-11-28 08:42:19	0	0	0	0	0	0	2.04	1.87	0.01	61312	1	400	47868	61312	60912	1147	22	52	18	47350	2323376	1239
9	2016-11-28 08:52:18	0	0	0	0	0	0	2.21	1.89	0.01	67247	1	462	52176	67247	66785	1269	22	55	19	51452	2323379	1365
10	2016-11-28 09:02:19	0	0	0	0	0	0	2.36	1.91	0.01	72863	1	516	55548	72863	72347	1393	24	59	19	54828	2323383	1495
11	2016-11-28 09:12:19	0	0	0	0	0	0	2.54	1.93	0.01	78236	1	590	59847	78236	77646	1513	24	65	21	59040	2323383	1623
12	2016-11-28 09:22:19	0	0	0	0	0	0	2.67	1.93	0.01	83397	1	644	62702	83397	82753	1613	24	70	21	61955	2323382	1728
13	2016-11-28 09:32:19	0	0	0	0	0	0	2.85	1.94	0.01	88699	1	727	66781	88699	87972	1720	26	75	21	66114	2323387	1842
14	2016-11-28 09:42:19	0	0	0	0	0	0	3.03	1.95	0.01	93929	1	788	71111	93929	93141	1829	30	79	22	70487	2323386	1960
15	2016-11-28 09:52:19	0	0	0	0	0	0	3.18	1.98	0.01	98606	1	851	74667	98606	97755	1948	32	84	22	73922	2323387	2086
16	2016-11-28 10:02:20	0	0	0	0	0	0	3.31	2	0.01	102620	1	900	77797	102620	101720	2057	32	92	22	76990	2323390	2203
17	2016-11-28 10:12:20	0	0	0	0	0	0	3.43	2.01	0.01	106377	1	943	80360	106377	105434	2134	34	98	22	79629	2323391	2288
18	2016-11-28 10:22:21	0	0	0	0	0	0	3.53	2.01	0.01	110019	1	983	82856	110019	109036	2211	34	100	22	82027	2323393	2367
19	2016-11-28 10:32:20	0	0	0	0	0	0	3.61	2.02	0.01	113495	1	1038	84664	113495	112457	2289	34	107	22	83781	2323399	2452
20	2016-11-28 10:42:21	0	0	0	0	0	0	3.68	2.02	0.01	116911	1	1070	86309	116911	115841	2361	34	111	22	85505	2323402	2528
21	2016-11-28 10:52:20	0	0	0	0	0	0	3.76	2.03	0.01	120347	1	1112	88086	120347	119235	2439	36	113	22	87366	2323407	2610
22	2016-11-28 11:02:24	0	0	0	0	0	0	3.86	2.04	0.01	123734	1	1154	90428	123734	122580	2526	36	117	23	89670	2323416	2702
23	2016-11-28 11:12:24	0	0	0	0	0	0	3.96	2.04	0.01	126867	1	1189	92766	126867	125678	2590	38	119	23	91969	2323419	2770
24	2016-11-28 11:22:24	0	0	0	0	0	0	4.01	2.05	0.01	129453	1	1241	94013	129453	128212	2657	38	123	23	93194	2323421	2841
25	2016-11-28 11:32:23	0	0	0	0	0	0	4.1	2.07	0.01	131854	1	1285	96161	131854	130569	2726	38	125	23	95281	2323424	2912
26	2016-11-28 11:42:25	0	0	0	0	0	0	4.15	2.08	0.01	134056	1	1314	97267	134056	132742	2786	38	125	23	96366	2323430	2972
27	2016-11-28 11:52:25	0	0	0	0	0	0	4.2	2.09	0.01	136317	1	1343	98671	136317	134974	2850	38	128	23	97670	2323433	3039
28	2016-11-28 12:02:29	0	0	0	0	0	0	4.26	2.1	0.01	138619	1	1384	99813	138619	137235	2907	40	131	23	98877	2323433	3101
29	2016-11-28 12:12:26	0	0	0	0	0	0	4.28	2.11	0.01	140646	1	1419	100368	140646	139227	2962	40	133	24	99422	2323439	3159
30	2016-11-28 12:22:26	0	0	0	0	0	0	4.32	2.11	0.01	142559	1	1453	101388	142559	141106	3012	40	134	24	100423	2323444	3210
31	2016-11-28 12:32:26	0	0	0	0	0	0	4.36	2.12	0.01	144420	1	1499	102357	144420	142921	3061	40	136	24	101280	2323448	3261
32	2016-11-28 12:42:27	0	0	0	0	0	0	4.41	2.13	0.01	146132	1	1526	103520	146132	144606	3116	44	136	24	102419	2323461	3320
33	2016-11-28 12:52:26	0	0	0	0	0	0	4.46	2.14	0.01	148056	1	1554	104637	148056	146502	3161	46	137	24	103512	2323469	3368
34	2016-11-28 13:02:28	0	0	0	0	0	0	4.51	2.14	0.01	149834	1	1586	105805	149834	148248	3210	46	138	24	104826	2323479	3418
35	2016-11-28 13:12:26	0	0	0	0	0	0	4.56	2.15	0.01	151396	1	1619	106842	151396	149777	3255	48	138	24	105843	2323480	3465
36	2016-11-28 13:22:27	0	0	0	0	0	0	4.6	2.16	0.01	152947	1	1653	107822	152947	151294	3306	48	140	24	106805	2323492	3518
37	2016-11-28 13:32:28	0	0	0	0	0	0	4.63	2.16	0.01	154493	1	1697	108532	154493	152796	3341	52	141	24	107681	2323496	3558
38	2016-11-28 13:42:27	0	0	0	0	0	0	4.67	2.17	0.01	155311	1	1733	109334	155311	154367	3367	52	142	24	108471	2323500	3585
39	2016-11-28 13:52:28	0	0	0	0	0	0	4.71	2.16	0.01	157509	1	1766	110277	157509	155743	3403	52	144	24	109367	2323507	3623
40	2016-11-28 14:02:31	0	0	0	0	0	0	4.75	2.17	0.01	158923	1	1800	111223	158923	157123	3447	52	144	24	110298	2323513	3667
41	2016-11-28 14:12:30	0	0	0	0	0	0	4.77	2.18	0.01	160270	1	1814	112060	160270	158456	3489	52	143	24	110827	2323517	3708
42	2016-11-28 14:22:30	0	0	0	0	0	0	4.81	2.17	0.01	161754	1	1837	113073	161754	159197	3516	52	144	24	111763	2323524	3736
43	2016-11-28 14:32:29	0	0	0	0	0	0	4.86	2.18	0.01	162489	1	1862	113980	162489	161335	3547	52	145	24	113009	2323532	3768
44	2016-11-28 14:42:30	0	0	0	0	0	0	4.89	2.18	0.01	164611	1	1888	114554	164611	162723	3586	54	145	24	113573	2323542	3809
45	2016-11-28 14:52:30	0	0	0	0	0	0	4.91	2.19	0.01	165289	1	1918	115472	165289	163388	3621	54	145	24	114079	2323548	3844
46	2016-11-28 15:02:31	0	0	0	0	0	0	4.95	2.19	0.01	167368	1	1935	116836	167368	164780	3660	56	146	24	115129	2323557	3886
47	2016-11-28 15:12:29	0	0	0	0	0	0	5.01	2.19	0.01	168577	1	1960	117967	168577	166617	3694	56	147	24	116487	2323568	3921
48	2016-11-28 15:22:31	0	0	0	0	0	0	5.02	2.2	0.01	169184	1	1970	118021	169184	167214	3723	56	148	24	116649	2323585	3951
49	2016-11-28 15:32:30	0	0	0	0	0	0	5.06	2.2	0.01	171106	1	1997	118929	171106	169109	3756	56	148	24	117572	2323596	3984
50	2016-11-28 15:42:30	0	0	0	0	0	0	5.07	2.21	0.01	171722	1	2009	119140	171722	169720	3789	56	149	24	117921	2323610	4018
51	2016-11-28 15:52:30	0	0	0	0	0	0	5.1	2.2	0.01	173105	1	2028	119822	173105	171088	3804	58	150	24	118590	2323623	4036
52	2016-11-28 16:02:31	0	0	0	0	0	0	5.13	2.21	0.01	174396	1	2038	120442	174396	172364	3855	58	150	24	119128	2323631	4087
53	2016-11-28 16:12:30	0	0	0	0	0	0	5.15	2.21	0.01	175550	1	2054	120974	175550	173501	3887	58	151	24	119648	2323641	4120
54	2016-11-28 16:22:31	0	0	0	0	0	0	5.16	2.22	0.01	176725	1	2072	121305	176725	174664	3916	58	151	24	119973	2323658	4149
55	2016-11-28 16:32:32	0	0	0	0	0	0	5.19	2.22	0.01	177876	1	2089	121929	177876	175787	3944	60	151	24	120564	2323668	4179
56	2016-11-28 16:42:31	0	0	0	0	0	0	5.22	2.22	0.01	179099	1	2129	122605	179099	176970	3970	60	151	24	121225	2323680	4205
57	2016-11-28 19:19:46	0	0	0	0	0	0	5.67	2.22	0.01	197327	1	2419	133000	197327	194908	4390	60	153	25	131774	2324000	4628
58	2016-11-28 20:19:29	0	0	0	0	0	0	5.82	2.21	0.01	203594	1	2513	136398	203594	201081	4500	62	157	25	135275	2324149	4744
59	2016-11-28 20:29:27	0	0	0	0	0	0	5.83	2.21	0.01	204572	1	2524	136590	204572	202048	4525	62	158	25	135464	2324171	4770
60	2016-11-28 20:39:27	0	0	0	0	0	0	5.85	2.21	0.01	205588	1	2539	137026	205588	203049	4539	62	159	25	135892	2324191	4785
61	2016-11-28 20:49:25	0	0	0	0	0	0	5.87	2.21	0.01	206716	1	2554	137583	206716	204162	4566	62	159	25	136440	2324204	4812
62	2016-11-28 20:59:28	0	0	0	0	0	0	5.9	2.21	0.01	207805	1	2568	138310	207805	205237	4591	62	162	25	137155	2324234	4840
63	2016-11-28 21:09:27	0	0	0	0	0	0	5.92	2.21	0.01	208807	1	2578	138710	208807	206229	4609	62	163	25	137548	2324268	4859
64	2016-11-28 21:19:23	0	0	0	0	0	0	5.95	2.2	0.01	209756	1	2593	139462	209756	207163	4624	62	163	25	138288	2324293	4874
65	2016-11-28 21:29:24	0	0	0	0	0	0	5.97	2.2	0.01	210670	1	2608	139989	210670	208062	4641	62	165	25	138806	2324328	4893
66	2016-11-28 21:39:23	0	0	0	0	0	0	5.98	2.2	0.01	211623	1	2622	140109	211623	209001	4662	62	167	25	138924	2324359	4916
67	2016-11-28 21:49:25	0	0	0	0	0	0	6	2.2	0.01	212608	1	2639	140585	212608	209969	4674	62	167	25	139392	2324388	4928
68	2016-11-28 21:59:23	0	0	0	0	0	0	6.02	2.19	0.01	213520	1	2656	141052	213520	210864	4685	62	167	25	139851	2324410	4939
69	2016-11-28 22:09:26	0	0	0	0	0	0	6.02	2.19	0.01	214395	1	2672	141059	214395	211723	4705	62	169	25	139858	2324436	4961
70	2016-11-28 22:19:24	0	0	0	0	0	0	6.03	2.2	0.01	215262	1	2688	141342	215262	212574	4728	62	169	25	140136	2324459	4984
71	2016-11-28 22:29:26	0	0	0	0	0	0	6.05	2.2	0.01	216216	1	2697	141847	216216	213519	4746	62	169	25	140633	2324478	5002
72	2016-11-28 22:39:25	0	0	0	0	0	0	6.08	2.19	0.01	217211	1	2709	142605	217211	214502	4758	62	172	25	141377	2324493	5017
73	2016-11-28 22:49:23	0	0	0	0	0	0	6.13	2.19	0.01	218129	1	2720	143730	218129	215409	4778	60	172	25	142483	2324520	5035
74	2016-11-28 22:59:23	0	0	0	0	0	0	6.15	2.19	0.01	219040	1	2736	144323	219040	216304	4796	60	173	25	143066	2324545	5054
75	2016-11-28 23:09:23	0	0	0	0	0	0	6.18	2.19	0.01	219964	1	2745	144922	219964	217219	4815	60	174	25	143655	2324565	5074
76	2016-11-28 23:19:24	0	0	0	0	0	0	6.2	2.19	0.01	220837	1	2761	145426	220837	218076	4835	60	176	25	144150	2324586	5096
77	2016-11-28 23:29:21	0	0	0	0	0	0	6.22	2.19	0.01	221680	1	2772	145782	221680	218908	4852	60	177	25	144500	2324608	5114
78	2016-11-28 23:39:23	0	0	0	0	0	0	6.23	2.19	0.01	222499	1	2783	146016	222499	219716	4863	60	177	25	144729	2324626	5125
79	2016-11-28 23:49:22	0	0	0	0	0	0	6.26	2.18	0.01	223280	1	2791	146722	223280	220489	4876	60	177	25	145423	2324637	5138
80	2016-11-28 23:59:24	0	0	0	0	0	0	6.28	2.18	0.01	223966	1	2799	147238	223966	221167	4893	60	177	25	145985	2324659	5155
81	2016-11-29 00:09:22	0	0	0	0	0	0	6.31	2.19	0.01	224671	1	2802	147938	224671	221869	4914	60	178	25	146673	2324667	5177
82	2016-11-29 00:19:23	0	0	0	0	0	0	6.32	2.19	0.01	225287	1	2810	148221	225287	222477	4929	60	178	25	146951	2324685	5192
83	2016-11-29 00:29:23	0	0	0	0	0	0	6.32	2.19	0.01	225857	1	2817	148221	225857	223040	4941	60	178	25	146951	2324700	5204
84	2016-11-29 00:39:23	0	0	0	0	0	0	6.34	2.19	0.01	226366	1	2826	148618	226366	223540	4952	60	178	25	147341	2324708	5215
85	2016-11-29 00:49:23	0	0	0	0	0	0	6.35	2.19	0.01	226823	1	2828	148787	226823	223995	4964	60	178	25	147508	2324720	5227
86	2016-11-29 00:59:24	0	0	0	0	0	0	6.35	2.19	0.01	227260	1	2830	148931	227260	224430	4978	60	178	25	147649	2324726	5241
87	2016-11-29 01:09:22	0	0	0	0	0	0	6.36	2.19	0.01	227689	1	2832	149160	227689	224857	4983	60	179	25	147874	2324735	5247
88	2016-11-29 01:19:23	0	0	0	0	0	0	6.36	2.19	0.01	228078	1	2840	149246	228078	225238	4994	62	179	25	147959	2324740	5260
89	2016-11-29 01:29:23	0	0	0	0	0	0	6.38	2.19	0.01	228451	1	2850	149564	228451	225601	5003	62	179	25	148271	2324745	5269
90	2016-11-29 01:39:23	0	0	0	0	0	0	6.38	2.19	0.01	228836	1	2855	149650	228836	225981	5011	62	179	25	148356	2324749	5277
91	2016-11-29 01:49:23	0	0	0	0	0	0	6.39	2.19	0.01	229105	1	2856	149737	229105	226249	5016	62	179	25	148442	2324751	5282
92	2016-11-29 01:59:22	0	0	0	0	0	0	6.39	2.19	0.01	229384	1	2857	149839	229384	226527	5023	62	179	25	148541	2324753	5289
93	2016-11-29 02:09:24	0	0	0	0	0	0	6.39	2.19	0.01	229600	1	2859	149926	229600	226741	5027	62	179	25	148627	2324128	5293
94	2016-11-29 02:19:27	0	0	0	0	0	0	6.39	2.19	0.01	229819	1	2860	149926	229819	226959	5032	62	179	25	148627	2324131	5298
95	2016-11-29 02:29:23	0	0	0	0	0	0	6.39	2.19	0.01	230004	1	2863	149926	230004	227141	5036	62	179	25	148627	2324132	5302
96	2016-11-29 02:39:23	0	0	0	0	0	0	6.39	2.19	0.01	230188	1	2864	149926	230188	227324	5041	62	179	25	148627	2324137	5307
97	2016-11-29 02:49:25	0	0	0	0	0	0	6.4	2.19	0.01	230381	1	2866	150100	230381	227515	5046	62	179	25	148798	2324137	5312
98	2016-11-29 02:59:22	0	0	0	0	0	0	6.41	2.19	0.01	230553	1	2867	150188	230553	227686	5050	62	179	25	148884	2324138	5316
99	2016-11-29 03:09:21	0	0	0	0	0	0	6.41	2.19	0.01	230704	1	2868	150275	230704	227836	5054	62	179	25	148970	2324141	5320
100	2016-11-29 03:19:23	0	0	0	0	0	0	6.41	2.19	0.01	230840	1	2869	150275	230840	227971	5057	62	179	25	148970	2324140	5323
101	2016-11-29 03:29:21	0	0	0	0	0	0	6.41	2.19	0.01	230971	1	2869	150319	230971	228102	5061	62	179	25	149013	2324139	5327
102	2016-11-29 03:39:21	0	0	0	0	0	0	6.41	2.19	0.01	231095	1	2870	150319	231095	228225	5063	62	179	25	149013	2324140	5329
103	2016-11-29 03:49:21	0	0	0	0	0	0	6.42	2.19	0.01	231214	1	2874	150553	231214	228340	5066	62	179	25	149243	2324142	5332
104	2016-11-29 03:59:21	0	0	0	0	0	0	6.42	2.19	0.01	231314	1	2875	150553	231314	228439	5070	62	179	25	149243	2324143	5336
105	2016-11-29 04:09:20	0	0	0	0	0	0	6.43	2.19	0.01	231431	1	2875	150699	231431	228556	5070	62	179	25	149387	2324144	5336
106	2016-11-29 04:19:22	0	0	0	0	0	0	6.43	2.19	0.01	231526	1	2877	150817	231526	228649	5076	62	179	25	149502	2324145	5342
107	2016-11-29 04:29:21	0	0	0	0	0	0	6.43	2.19	0.01	231629	1	2878	150817	231629	228751	5079	62	179	25	149502	2324145	5345
108	2016-11-29 04:39:21	0	0	0	0	0	0	6.43	2.19	0.01	231746	1	2879	150868	231746	228867	5080	62	179	25	149553	2324145	5346
109	2016-11-29 04:49:21	0	0	0	0	0	0	6.44	2.19	0.01	231854	1	2880	151100	231854	228974	5084	62	179	25	149781	2324143	5350
110	2016-11-29 04:59:24	0	0	0	0	0	0	6.44	2.19	0.01	231969	1	2883	151100	231969	229086	5088	62	179	25	149781	2324142	5354
111	2016-11-29 05:09:21	0	0	0	0	0	0	6.45	2.19	0.01	232094	1	2883	151159	232094	229211	5090	62	179	25	149839	2324144	5356
112	2016-11-29 05:19:23	0	0	0	0	0	0	6.45	2.19	0.01	232196	1	2885	151336	232196	229311	5090	62	179	25	150013	2324143	5356
113	2016-11-29 05:29:24	0	0	0	0	0	0	6.45	2.19	0.01	232323	1	2885	151336	232323	229438	5091	62	179	25	150013	2324147	5357
114	2016-11-29 05:39:24	0	0	0	0	0	0	6.46	2.19	0.01	232512	1	2888	151451	232512	229624	5095	62	179	25	150184	2324148	5361
115	2016-11-29 05:49:22	0	0	0	0	0	0	6.48	2.19	0.01	232720	1	2891	151986	232720	229829	5097	62	179	25	150710	2324149	5363
116	2016-11-29 05:59:29	0	0	0	0	0	0	6.49	2.19	0.01	232917	1	2892	152188	232917	230025	5099	62	179	25	150908	2324151	5365
117	2016-11-29 06:09:31	0	0	0	0	0	0	6.49	2.19	0.01	233158	1	2897	152188	233158	230261	5103	62	179	25	150908	2324152	5369
118	2016-11-29 06:19:21	0	0	0	0	0	0	6.53	2.19	0.01	233438	1	2898	153076	233438	230540	5108	62	179	25	151781	2324156	5374
119	2016-11-29 06:29:22	0	0	0	0	0	0	6.54	2.19	0.01	233725	1	2900	153195	233725	230825	5112	62	179	25	151899	2324159	5378
120	2016-11-29 06:39:22	0	0	0	0	0	0	6.55	2.19	0.01	233996	1	2901	153647	233996	231095	5114	62	179	25	152343	2324163	5380
121	2016-11-29 06:49:23	0	0	0	0	0	0	6.57	2.19	0.01	234298	1	2906	153953	234298	231392	5120	62	179	25	152644	2324170	5386
122	2016-11-29 06:59:25	0	0	0	0	0	0	6.57	2.19	0.01	234622	1	2909	154014	234622	231713	5128	62	179	25	152704	2324178	5394
123	2016-11-29 07:09:24	0	0	0	0	0	0	6.58	2.19	0.01	234999	1	2911	154150	234999	232088	5135	62	179	25	152838	2324194	5401
124	2016-11-29 07:19:24	0	0	0	0	0	0	6.61	2.18	0.01	235425	1	2917	154929	235425	232508	5144	62	179	25	153604	2324201	5410
125	2016-11-29 07:29:26	0	0	0	0	0	0	6.61	2.18	0.01	235854	1	2919	154989	235854	232935	5151	62	179	25	153662	2324214	5417
126	2016-11-29 07:39:26	0	0	0	0	0	0	6.61	2.18	0.01	236294	1	2923	155051	236294	233371	5160	62	179	25	153723	2324230	5426
127	2016-11-29 07:49:25	0	0	0	0	0	0	6.61	2.18	0.01	236728	1	2924	155051	236728	233804	5170	62	179	25	153723	2324237	5436
128	2016-11-29 07:59:26	0	0	0	0	0	0	6.63	2.19	0.01	236933	1	2929	155487	236933	234212	5177	62	179	25	154152	2324249	5443
129	2016-11-29 08:09:27	0	0	0	0	0	0	6.65	2.18	0.01	237530	1	2932	155831	237530	234598	5183	62	179	25	154490	2324266	5449
130	2016-11-29 08:19:27	0	0	0	0	0	0	6.68	2.18	0.01	237888	1	2935	156588	237888	234953	5188	62	179	25	155234	2324288	5454
131	2016-11-29 08:29:27	0	0	0	0	0	0	6.69	2.18	0.01	238298	1	2939	156937	238298	235359	5200	62	179	25	155452	2324303	5466
132	2016-11-29 08:39:28	0	0	0	0	0	0	6.69	2.18	0.01	238494	1	2940	157064	238494	235742	5209	62	180	25	155576	2324323	5476
133	2016-11-29 08:49:26	0	0	0	0	0	0	6.7	2.18	0.01	239014	1	2945	157231	239014	236069	5216	62	180	25	155740	2324351	5483
134	2016-11-29 08:59:27	0	0	0	0	0	0	6.71	2.18	0.01	239348	1	2956	157455	239348	236392	5221	62	180	25	155929	2324363	5488
135	2016-11-29 09:09:25	0	0	0	0	0	0	6.71	2.18	0.01	239634	1	2963	157455	239634	236671	5233	62	181	25	155929	2324381	5501
136	2016-11-29 09:19:27	0	0	0	0	0	0	6.71	2.19	0.01	239916	1	2967	157455	239916	236949	5243	62	181	25	155929	2324400	5511
137	2016-11-29 09:29:26	0	0	0	0	0	0	6.72	2.18	0.01	240226	1	2970	157639	240226	237256	5246	62	181	25	156109	2324410	5514
138	2016-11-29 09:39:25	0	0	0	0	0	0	6.72	2.18	0.01	240489	1	2974	157639	240489	237379	5247	62	181	25	156109	2324431	5515
139	2016-11-29 09:49:27	0	0	0	0	0	0	6.72	2.18	0.01	240608	1	2978	157760	240608	237631	5249	62	181	25	156227	2324453	5517
140	2016-11-29 09:59:26	0	0	0	0	0	0	6.72	2.18	0.01	240958	1	2984	157808	240958	237974	5255	62	181	25	156275	2324476	5523
141	2016-11-29 10:09:27	0	0	0	0	0	0	6.72	2.18	0.01	241070	1	2992	157808	241070	238187	5260	62	181	25	156275	2324495	5528
142	2016-11-29 10:19:40	0	0	0	0	0	0	6.73	2.18	0.01	241370	1	2996	157886	241370	238374	5266	62	181	25	156352	2324515	5534
143	2016-11-29 10:29:32	0	0	0	0	0	0	6.73	2.18	0.01	241565	1	2999	157951	241565	238566	5269	62	181	25	156415	2324529	5537
144	2016-11-29 10:39:37	0	0	0	0	0	0	6.74	2.18	0.01	241749	1	3005	158145	241749	238744	5274	62	181	25	156605	2324548	5542
145	2016-11-29 10:49:52	0	0	0	0	0	0	6.74	2.18	0.01	241926	1	3007	158274	241926	238919	5278	62	181	25	156732	2324567	5546
146	2016-11-29 11:00:14	0	0	0	0	0	0	6.74	2.18	0.01	242115	1	3009	158290	242115	239106	5282	62	182	25	156747	2324590	5551
147	2016-11-29 11:09:57	0	0	0	0	0	0	6.74	2.18	0.01	242309	1	3012	158290	242309	239297	5285	62	182	25	156747	2324614	5554
148	2016-11-29 11:19:42	0	0	0	0	0	0	6.75	2.18	0.01	242505	1	3015	158436	242505	239490	5291	62	182	25	156890	2324635	5560
149	2016-11-29 11:29:36	0	0	0	0	0	0	6.75	2.18	0.01	242664	1	3016	158436	242664	239648	5295	62	182	25	156890	2324651	5564
150	2016-11-29 11:39:34	0	0	0	0	0	0	6.75	2.18	0.01	242863	1	3021	158448	242863	239842	5301	62	182	25	156902	2324670	5570
151	2016-11-29 11:49:48	0	0	0	0	0	0	6.75	2.18	0.01	243062	1	3023	158448	243062	240039	5304	62	182	25	156902	2324708	5573
152	2016-11-29 11:59:32	0	0	0	0	0	0	6.75	2.18	0.01	243155	1	3024	158505	243155	240131	5308	62	182	25	156958	2324728	5577
153	2016-11-29 12:09:49	0	0	0	0	0	0	6.76	2.18	0.01	243401	1	3031	158618	243401	240370	5310	62	182	25	157070	2324756	5579
154	2016-11-29 12:19:46	0	0	0	0	0	0	6.76	2.18	0.01	243575	1	3032	158618	243575	240543	5315	62	182	25	157070	2324774	5584
155	2016-11-29 12:29:45	0	0	0	0	0	0	6.76	2.18	0.01	243755	1	3035	158749	243755	240720	5320	62	182	25	157197	2324796	5589
156	2016-11-29 12:39:49	0	0	0	0	0	0	6.79	2.18	0.01	243946	1	3038	159247	243946	240908	5324	62	182	25	157814	2324816	5593
157	2016-11-29 12:49:38	0	0	0	0	0	0	6.79	2.18	0.01	244121	1	3042	159247	244121	241000	5329	62	182	25	157814	2324833	5598
158	2016-11-29 12:59:37	0	0	0	0	0	0	6.79	2.18	0.01	244212	1	3045	159247	244212	241168	5333	62	182	25	157814	2324848	5602
159	2016-11-29 13:09:33	0	0	0	0	0	0	6.79	2.18	0.01	244422	1	3046	159279	244422	241309	5340	62	182	25	157846	2324864	5609
160	2016-11-29 13:19:36	0	0	0	0	0	0	6.79	2.19	0.01	244501	1	3052	159526	244501	241453	5348	62	182	25	157846	2324885	5617
161	2016-11-29 13:29:36	0	0	0	0	0	0	6.8	2.19	0.01	244679	1	3055	159591	244679	241624	5349	62	182	25	158153	2324903	5618
162	2016-11-29 13:39:36	0	0	0	0	0	0	6.81	2.19	0.01	244881	1	3058	159837	244881	241823	5352	62	182	25	158394	2324917	5621
163	2016-11-29 13:49:35	0	0	0	0	0	0	6.81	2.18	0.01	245082	1	3060	159837	245082	242024	5353	62	183	25	158394	2324925	5623
164	2016-11-29 13:59:50	0	0	0	0	0	0	6.82	2.18	0.01	245395	1	3066	159903	245395	242329	5358	62	183	25	158459	2324929	5628
165	2016-11-29 14:09:38	0	0	0	0	0	0	6.82	2.18	0.01	245499	1	3067	159903	245499	242432	5360	62	183	25	158459	2324934	5630
166	2016-11-29 14:19:44	0	0	0	0	0	0	6.82	2.18	0.01	245692	1	3069	159903	245692	242624	5365	62	183	25	158459	2324939	5635
167	2016-11-29 14:29:39	0	0	0	0	0	0	6.82	2.18	0.01	245900	1	3071	159903	245900	242830	5365	62	183	25	158459	2324943	5635
168	2016-11-29 14:39:34	0	0	0	0	0	0	6.82	2.18	0.01	246076	1	3073	159970	246076	243003	5370	62	183	25	158524	2324947	5640
169	2016-11-29 14:49:31	0	0	0	0	0	0	6.82	2.18	0.01	246267	1	3075	159970	246267	243193	5372	62	183	25	158524	2324956	5642
170	2016-11-29 14:59:39	0	0	0	0	0	0	6.82	2.18	0.01	246467	1	3079	160036	246467	243388	5381	62	183	25	158589	2324974	5651
171	2016-11-29 15:09:37	0	0	0	0	0	0	6.82	2.18	0.01	246637	1	3079	160081	246637	243558	5388	62	183	25	158634	2324986	5658
172	2016-11-29 15:19:36	0	0	0	0	0	0	6.82	2.19	0.01	246778	1	3080	160081	246778	243698	5393	62	183	25	158634	2325005	5663
173	2016-11-29 15:29:43	0	0	0	0	0	0	6.84	2.18	0.01	247007	1	3082	160446	247007	243925	5395	62	183	25	158992	2325020	5665
174	2016-11-29 15:39:48	0	0	0	0	0	0	6.84	2.19	0.01	247161	1	3082	160513	247161	244079	5402	62	183	25	159057	2325034	5672
175	2016-11-29 15:49:48	0	0	0	0	0	0	6.84	2.19	0.01	247333	1	3083	160513	247333	244250	5406	62	183	25	159057	2325043	5676
176	2016-11-29 15:59:45	0	0	0	0	0	0	6.84	2.19	0.01	247522	1	3084	160513	247522	244438	5411	62	183	25	159057	2325060	5681
177	2016-11-29 16:09:42	0	0	0	0	0	0	6.84	2.19	0.01	247670	1	3084	160513	247670	244586	5415	62	183	25	159057	2325073	5685
178	2016-11-29 16:19:49	0	0	0	0	0	0	6.84	2.19	0.01	247811	1	3084	160579	247811	244727	5421	62	183	25	159123	2325091	5691
179	2016-11-29 16:29:46	0	0	0	0	0	0	6.84	2.19	0.01	247950	1	3085	160579	247950	244865	5423	62	183	25	159123	2325111	5693
180	2016-11-29 16:39:50	0	0	0	0	0	0	6.84	2.19	0.01	248084	1	3088	160579	248084	244996	5426	62	183	25	159123	2325130	5696
181	2016-11-29 16:49:45	0	0	0	0	0	0	6.84	2.19	0.01	248200	1	3089	160579	248200	245111	5429	62	183	25	159123	2325138	5699
182	2016-11-29 16:59:55	0	0	0	0	0	0	6.84	2.19	0.01	248331	1	3092	160579	248331	245239	5430	62	183	25	159123	2325150	5700
183	2016-11-29 17:09:39	0	0	0	0	0	0	6.84	2.19	0.01	248451	1	3094	160579	248451	245357	5438	62	183	25	159123	2325164	5708
184	2016-11-29 17:19:50	0	0	0	0	0	0	6.85	2.19	0.01	248573	1	3095	161014	248573	245478	5441	62	183	25	159352	2325175	5711
185	2016-11-29 17:29:36	0	0	0	0	0	0	6.85	2.19	0.01	248696	1	3097	161014	248696	245599	5445	62	183	26	159352	2325183	5716
186	2016-11-29 17:39:35	0	0	0	0	0	0	6.85	2.19	0.01	248816	1	3099	161014	248816	245717	5449	62	183	26	159352	2325199	5720
187	2016-11-29 17:49:39	0	0	0	0	0	0	6.86	2.19	0.01	248946	1	3101	161282	248946	245845	5451	62	183	26	159615	2325214	5722
188	2016-11-29 17:59:40	0	0	0	0	0	0	6.88	2.19	0.01	249083	1	3102	161534	249083	245981	5453	62	183	26	159862	2325229	5724
189	2016-11-29 18:09:35	0	0	0	0	0	0	6.88	2.19	0.01	249193	1	3103	161534	249193	246090	5458	62	183	26	159862	2325238	5729
190	2016-11-29 18:19:40	0	0	0	0	0	0	6.88	2.19	0.01	249330	1	3103	161534	249330	246227	5460	62	183	26	159862	2325263	5731
191	2016-11-29 18:29:39	0	0	0	0	0	0	6.88	2.19	0.01	249461	1	3106	161568	249461	246355	5461	62	183	26	159895	2325274	5732
192	2016-11-29 18:39:39	0	0	0	0	0	0	6.9	2.19	0.01	249601	1	3108	162211	249601	246493	5464	62	183	26	160525	2325286	5735
193	2016-11-29 18:49:41	0	0	0	0	0	0	6.9	2.19	0.01	249740	1	3110	162245	249740	246630	5468	62	183	26	160559	2325308	5739
194	2016-11-29 18:59:37	0	0	0	0	0	0	6.91	2.19	0.01	249887	1	3112	162373	249887	246775	5473	62	183	26	160684	2325325	5744
195	2016-11-29 19:09:48	0	0	0	0	0	0	6.91	2.19	0.01	250021	1	3112	162390	250021	246909	5479	62	183	26	160700	2325340	5750
196	2016-11-29 19:19:43	0	0	0	0	0	0	6.92	2.19	0.01	250174	1	3114	162663	250174	247060	5484	62	183	26	160968	2325355	5755
197	2016-11-29 19:29:42	0	0	0	0	0	0	6.92	2.19	0.01	250345	1	3116	162663	250345	247229	5489	62	183	26	160968	2325362	5760
198	2016-11-29 19:39:49	0	0	0	0	0	0	6.92	2.19	0.01	250459	1	3117	162663	250459	247342	5493	62	184	26	160968	2325384	5765
199	2016-11-29 19:49:45	0	0	0	0	0	0	6.92	2.19	0.01	250533	1	3120	162663	250533	247413	5495	62	184	26	160968	2325397	5767
200	2016-11-29 19:59:51	0	0	0	0	0	0	6.92	2.19	0.01	250593	1	3121	162731	250593	247472	5496	62	184	26	161035	2325416	5768
201	2016-11-29 20:09:38	0	0	0	0	0	0	6.93	2.19	0.01	250643	1	3121	162817	250643	247522	5496	62	184	26	161118	2325432	5768
202	2016-11-29 20:19:48	0	0	0	0	0	0	6.93	2.19	0.01	250685	1	3123	162886	250685	247562	5496	62	184	26	161185	2325447	5768
203	2016-11-29 20:29:37	0	0	0	0	0	0	6.93	2.19	0.01	250722	1	3124	162886	250722	247598	5497	62	184	26	161185	2325469	5769
204	2016-11-29 20:39:38	0	0	0	0	0	0	6.93	2.19	0.01	250758	1	3127	162886	250758	247631	5499	62	184	26	161185	2325493	5771
205	2016-11-29 20:49:41	0	0	0	0	0	0	6.93	2.19	0.01	250785	1	3130	162954	250785	247655	5500	62	184	26	161253	2325516	5772
206	2016-11-29 20:59:38	0	0	0	0	0	0	6.93	2.19	0.01	250812	1	3132	162954	250812	247680	5500	62	184	26	161253	2325541	5772
207	2016-11-29 21:09:46	0	0	0	0	0	0	6.93	2.19	0.01	250850	1	3133	162954	250850	247717	5500	62	184	26	161253	2325563	5772
208	2016-11-29 21:19:32	0	0	0	0	0	0	6.93	2.19	0.01	250878	1	3135	162954	250878	247743	5502	62	184	26	161253	2325580	5774
209	2016-11-29 21:29:32	0	0	0	0	0	0	6.93	2.19	0.01	250911	1	3138	162954	250911	247773	5503	62	184	26	161253	2325595	5775
210	2016-11-29 21:39:34	0	0	0	0	0	0	6.93	2.19	0.01	250934	1	3140	162954	250934	247794	5503	62	184	26	161253	2325614	5775
211	2016-11-29 21:49:32	0	0	0	0	0	0	6.93	2.19	0.01	250959	1	3142	162954	250959	247817	5503	62	184	26	161253	2325632	5775
212	2016-11-29 21:59:34	0	0	0	0	0	0	6.93	2.19	0.01	250980	1	3143	162954	250980	247837	5504	62	184	26	161253	2325638	5776
213	2016-11-29 22:09:35	0	0	0	0	0	0	6.93	2.19	0.01	251001	1	3143	162954	251001	247858	5504	62	184	26	161253	2325653	5776
214	2016-11-29 22:19:33	0	0	0	0	0	0	6.93	2.19	0.01	251025	1	3144	162954	251025	247881	5504	62	184	26	161253	2325660	5776
215	2016-11-29 22:29:32	0	0	0	0	0	0	6.93	2.19	0.01	251046	1	3146	162954	251046	247900	5504	62	184	26	161253	2325675	5776
216	2016-11-29 22:39:34	0	0	0	0	0	0	6.93	2.19	0.01	251062	1	3148	162954	251062	247914	5504	62	184	26	161253	2325694	5776
217	2016-11-29 22:49:32	0	0	0	0	0	0	6.93	2.19	0.01	251092	1	3149	162954	251092	247943	5506	62	184	26	161253	2325712	5778
218	2016-11-29 22:59:36	0	0	0	0	0	0	6.93	2.19	0.01	251110	1	3149	162954	251110	247961	5506	62	184	26	161253	2325725	5778
219	2016-11-29 23:09:35	0	0	0	0	0	0	6.93	2.19	0.01	251134	1	3150	162954	251134	247984	5507	62	184	26	161253	2325736	5779
220	2016-11-29 23:19:33	0	0	0	0	0	0	6.94	2.19	0.01	251143	1	3150	163018	251143	247993	5507	62	184	26	161316	2325752	5779
221	2016-11-29 23:29:34	0	0	0	0	0	0	6.94	2.19	0.01	251159	1	3152	163018	251159	248007	5507	62	184	26	161316	2325760	5779
222	2016-11-29 23:39:35	0	0	0	0	0	0	6.94	2.19	0.01	251172	1	3152	163018	251172	248020	5507	62	184	26	161316	2325778	5779
223	2016-11-29 23:49:39	0	0	0	0	0	0	6.94	2.19	0.01	251185	1	3152	163018	251185	248033	5507	62	184	26	161316	2325790	5779
224	2016-11-29 23:59:34	0	0	0	0	0	0	6.94	2.19	0.01	251191	1	3152	163018	251191	248039	5507	62	184	26	161316	2325796	5779
225	2016-11-30 00:09:33	0	0	0	0	0	0	6.94	2.19	0.01	251204	1	3153	163018	251204	248051	5507	62	184	26	161316	2325804	5779
226	2016-11-30 00:19:33	0	0	0	0	0	0	6.94	2.19	0.01	251212	1	3154	163018	251212	248058	5507	62	184	26	161316	2325814	5779
227	2016-11-30 00:29:34	0	0	0	0	0	0	6.94	2.19	0.01	251222	1	3155	163018	251222	248067	5507	62	184	26	161316	2325826	5779
228	2016-11-30 00:39:35	0	0	0	0	0	0	6.94	2.19	0.01	251230	1	3155	163121	251230	248075	5507	62	184	26	161416	2325835	5779
229	2016-11-30 00:49:48	0	0	0	0	0	0	6.94	2.19	0.01	251233	1	3155	163121	251233	248078	5507	62	184	26	161416	2325844	5779
230	2016-11-30 00:59:37	0	0	0	0	0	0	6.94	2.19	0.01	251235	1	3155	163121	251235	248080	5507	62	184	26	161416	2325849	5779
231	2016-11-30 01:09:37	0	0	0	0	0	0	6.94	2.19	0.01	251239	1	3156	163121	251239	248083	5507	62	184	26	161416	2325854	5779
232	2016-11-30 01:19:34	0	0	0	0	0	0	6.94	2.19	0.01	251241	1	3156	163121	251241	248085	5507	62	184	26	161416	2325859	5779
233	2016-11-30 01:29:35	0	0	0	0	0	0	6.94	2.19	0.01	251249	1	3156	163121	251249	248093	5507	62	184	26	161416	2325864	5779
234	2016-11-30 01:39:38	0	0	0	0	0	0	6.94	2.19	0.01	251252	1	3156	163121	251252	248096	5507	62	184	26	161416	2325867	5779
235	2016-11-30 01:49:36	0	0	0	0	0	0	6.94	2.19	0.01	251257	1	3156	163121	251257	248101	5507	62	184	26	161416	2325869	5779
236	2016-11-30 01:59:46	0	0	0	0	0	0	6.94	2.19	0.01	251261	1	3156	163121	251261	248105	5507	62	184	26	161416	2325869	5779
237	2016-11-30 02:09:43	0	0	0	0	0	0	6.94	2.19	0.01	251262	1	3156	163121	251262	248106	5507	62	184	26	161416	2325446	5779
238	2016-11-30 02:19:36	0	0	0	0	0	0	6.94	2.19	0.01	251264	1	3156	163121	251264	248108	5507	62	184	26	161416	2325448	5779
239	2016-11-30 02:29:34	0	0	0	0	0	0	6.94	2.19	0.01	251264	1	3156	163121	251264	248108	5507	62	184	26	161416	2325451	5779
240	2016-11-30 02:39:33	0	0	0	0	0	0	6.94	2.19	0.01	251265	1	3157	163121	251265	248108	5507	62	184	26	161416	2325452	5779
241	2016-11-30 02:49:35	0	0	0	0	0	0	6.94	2.19	0.01	251265	1	3157	163121	251265	248108	5507	62	184	26	161416	2325450	5779
242	2016-11-30 02:59:34	0	0	0	0	0	0	6.94	2.19	0.01	251266	1	3157	163121	251266	248109	5507	62	184	26	161416	2325450	5779
243	2016-11-30 03:09:45	0	0	0	0	0	0	6.94	2.19	0.01	251267	1	3157	163121	251267	248110	5507	62	184	26	161416	2325451	5779
244	2016-11-30 03:19:37	0	0	0	0	0	0	6.94	2.19	0.01	251268	1	3157	163121	251268	248111	5507	62	184	26	161416	2325452	5779
245	2016-11-30 03:29:38	0	0	0	0	0	0	6.94	2.19	0.01	251269	1	3157	163121	251269	248112	5507	62	184	26	161416	2325454	5779
246	2016-11-30 03:39:36	0	0	0	0	0	0	6.94	2.19	0.01	251270	1	3157	163121	251270	248113	5507	62	184	26	161416	2325455	5779
247	2016-11-30 03:49:34	0	0	0	0	0	0	6.94	2.19	0.01	251270	1	3157	163121	251270	248113	5507	62	184	26	161416	2325457	5779
248	2016-11-30 03:59:34	0	0	0	0	0	0	6.94	2.19	0.01	251271	1	3158	163121	251271	248113	5507	62	184	26	161416	2325458	5779
249	2016-11-30 04:09:33	0	0	0	0	0	0	6.94	2.19	0.01	251271	1	3158	163121	251271	248113	5507	62	184	26	161416	2325458	5779
250	2016-11-30 04:19:44	0	0	0	0	0	0	6.94	2.19	0.01	251272	1	3158	163121	251272	248114	5507	62	184	26	161416	2325459	5779
251	2016-11-30 04:29:40	0	0	0	0	0	0	6.94	2.19	0.01	251276	1	3160	163121	251276	248116	5507	62	184	26	161416	2325461	5779
252	2016-11-30 04:39:36	0	0	0	0	0	0	6.94	2.19	0.01	251276	1	3160	163121	251276	248116	5507	62	184	26	161416	2325462	5779
253	2016-11-30 04:49:33	0	0	0	0	0	0	6.94	2.19	0.01	251278	1	3160	163121	251278	248118	5507	62	184	26	161416	2325460	5779
254	2016-11-30 04:59:41	0	0	0	0	0	0	6.94	2.19	0.01	251280	1	3160	163121	251280	248120	5507	62	184	26	161416	2325461	5779
255	2016-11-30 05:09:43	0	0	0	0	0	0	6.94	2.19	0.01	251280	1	3160	163121	251280	248120	5507	62	184	26	161416	2325459	5779
256	2016-11-30 05:19:37	0	0	0	0	0	0	6.94	2.19	0.01	251282	1	3160	163121	251282	248122	5507	62	184	26	161416	2325459	5779
257	2016-11-30 05:30:02	0	0	0	0	0	0	6.94	2.19	0.01	251285	1	3160	163121	251285	248125	5507	62	184	26	161416	2325462	5779
258	2016-11-30 05:39:40	0	0	0	0	0	0	6.94	2.19	0.01	251286	1	3160	163121	251286	248126	5507	62	184	26	161416	2325465	5779
259	2016-11-30 05:49:36	0	0	0	0	0	0	6.94	2.19	0.01	251289	1	3160	163121	251289	248129	5507	62	184	26	161416	2325467	5779
260	2016-11-30 05:59:40	0	0	0	0	0	0	6.94	2.19	0.01	251291	1	3161	163121	251291	248130	5507	62	184	26	161416	2325469	5779
261	2016-11-30 06:09:43	0	0	0	0	0	0	6.94	2.19	0.01	251291	1	3161	163121	251291	248130	5507	62	184	26	161416	2325471	5779
262	2016-11-30 06:19:41	0	0	0	0	0	0	6.94	2.19	0.01	251293	1	3161	163121	251293	248132	5507	62	184	26	161416	2325469	5779
263	2016-11-30 06:29:39	0	0	0	0	0	0	6.94	2.19	0.01	251300	1	3161	163121	251300	248139	5507	62	184	26	161416	2325472	5779
264	2016-11-30 06:39:48	0	0	0	0	0	0	6.94	2.19	0.01	251304	1	3161	163121	251304	248143	5507	62	184	26	161416	2325479	5779
265	2016-11-30 06:49:45	0	0	0	0	0	0	6.94	2.19	0.01	251306	1	3161	163121	251306	248145	5507	62	184	26	161416	2325480	5779
266	2016-11-30 06:59:39	0	0	0	0	0	0	6.94	2.19	0.01	251310	1	3163	163121	251310	248147	5507	62	184	26	161416	2325482	5779
267	2016-11-30 07:09:37	0	0	0	0	0	0	6.94	2.19	0.01	251312	1	3163	163121	251312	248149	5507	62	184	26	161416	2325484	5779
268	2016-11-30 07:19:39	0	0	0	0	0	0	6.94	2.19	0.01	251314	1	3163	163121	251314	248151	5507	62	184	26	161416	2325489	5779
269	2016-11-30 07:29:36	0	0	0	0	0	0	6.94	2.19	0.01	251317	1	3163	163121	251317	248154	5507	62	184	26	161416	2325493	5779
270	2016-11-30 07:39:39	0	0	0	0	0	0	6.94	2.19	0.01	251320	1	3163	163121	251320	248157	5507	62	184	26	161416	2325496	5779
271	2016-11-30 07:50:14	0	0	0	0	0	0	6.94	2.19	0.01	251323	1	3163	163121	251323	248160	5507	62	184	26	161416	2325501	5779
272	2016-11-30 07:59:40	0	0	0	0	0	0	6.94	2.19	0.01	251325	1	3164	163121	251325	248161	5507	62	184	26	161416	2325504	5779
273	2016-11-30 08:09:38	0	0	0	0	0	0	6.94	2.19	0.01	251334	1	3164	163121	251334	248170	5508	62	184	26	161416	2325516	5780
274	2016-11-30 08:19:40	0	0	0	0	0	0	6.94	2.19	0.01	251340	1	3164	163121	251340	248176	5508	62	184	26	161416	2325525	5780
275	2016-11-30 08:29:39	0	0	0	0	0	0	6.94	2.19	0.01	251342	1	3164	163121	251342	248178	5508	62	184	26	161416	2325544	5780
276	2016-11-30 08:39:37	0	0	0	0	0	0	6.94	2.19	0.01	251342	1	3164	163121	251342	248179	5508	62	184	26	161416	2325554	5780
277	2016-11-30 08:49:38	0	0	0	0	0	0	6.94	2.19	0.01	251347	1	3164	163121	251347	248183	5508	62	184	26	161416	2325566	5780
278	2016-11-30 08:59:40	0	0	0	0	0	0	6.94	2.19	0.01	251354	1	3164	163121	251354	248190	5508	62	184	26	161416	2325579	5780
279	2016-11-30 09:09:58	0	0	0	0	0	0	6.94	2.19	0.01	251358	1	3165	163121	251358	248193	5509	62	184	26	161416	2325591	5781
280	2016-11-30 09:19:39	0	0	0	0	0	0	6.94	2.19	0.01	251358	1	3165	163121	251358	248197	5510	62	184	26	161416	2325597	5782
281	2016-11-30 09:29:37	0	0	0	0	0	0	6.94	2.19	0.01	251364	1	3166	163121	251364	248199	5513	62	184	26	161416	2325604	5785
282	2016-11-30 09:39:41	0	0	0	0	0	0	6.94	2.19	0.01	251369	1	3166	163121	251369	248203	5513	62	184	26	161416	2325608	5785
283	2016-11-30 09:49:36	0	0	0	0	0	0	6.94	2.19	0.01	251372	1	3167	163121	251372	248205	5513	62	184	26	161416	2325612	5785
284	2016-11-30 09:59:40	0	0	0	0	0	0	6.94	2.19	0.01	251375	1	3167	163121	251375	248208	5513	62	184	26	161416	2325616	5785
285	2016-11-30 10:09:51	0	0	0	0	0	0	6.94	2.19	0.01	251377	1	3167	163121	251377	248210	5513	62	184	26	161416	2325618	5785
286	2016-11-30 10:19:43	0	0	0	0	0	0	6.94	2.19	0.01	251378	1	3167	163121	251378	248211	5513	62	184	26	161416	2325621	5785
287	2016-11-30 10:30:36	0	0	0	0	0	0	6.94	2.19	0.01	251379	1	3167	163121	251379	248212	5513	62	184	26	161416	2325624	5785
288	2016-11-30 10:39:43	0	0	0	0	0	0	6.94	2.19	0.01	251379	1	3167	163121	251379	248212	5513	62	184	26	161416	2325626	5785
289	2016-11-30 10:49:49	0	0	0	0	0	0	6.94	2.19	0.01	251381	1	3167	163121	251381	248214	5513	62	184	26	161416	2325629	5785
290	2016-11-30 10:59:43	0	0	0	0	0	0	6.94	2.19	0.01	251382	1	3167	163121	251382	248215	5513	62	184	26	161416	2325639	5785
291	2016-11-30 11:10:10	0	0	0	0	0	0	6.94	2.19	0.01	251387	1	3169	163121	251387	248218	5513	62	184	26	161416	2325645	5785
292	2016-11-30 11:19:54	0	0	0	0	0	0	6.94	2.19	0.01	251388	1	3169	163121	251388	248219	5513	62	184	26	161416	2325647	5785
293	2016-11-30 11:29:54	0	0	0	0	0	0	6.94	2.19	0.01	251389	1	3169	163121	251389	248220	5513	62	184	26	161416	2325649	5785
294	2016-11-30 11:40:02	0	0	0	0	0	0	6.94	2.19	0.01	251393	1	3169	163121	251393	248224	5513	62	184	26	161416	2325660	5785
295	2016-11-30 11:50:08	0	0	0	0	0	0	6.94	2.19	0.01	251397	1	3171	163121	251397	248226	5513	62	184	26	161416	2325669	5785
296	2016-11-30 12:00:33	0	0	0	0	0	0	6.94	2.19	0.01	251397	1	3171	163121	251397	248226	5513	62	184	26	161416	2325674	5785
297	2016-11-30 12:09:53	0	0	0	0	0	0	6.94	2.19	0.01	251400	1	3172	163121	251400	248228	5513	62	184	26	161416	2325681	5785
298	2016-11-30 12:19:54	0	0	0	0	0	0	6.94	2.19	0.01	251402	1	3172	163121	251402	248230	5513	62	184	26	161416	2325692	5785
299	2016-11-30 12:29:59	0	0	0	0	0	0	6.94	2.19	0.01	251404	1	3172	163121	251404	248232	5513	62	184	26	161416	2325703	5785
300	2016-11-30 12:39:53	0	0	0	0	0	0	6.94	2.19	0.01	251406	1	3172	163121	251406	248234	5513	62	184	26	161416	2325706	5785
301	2016-11-30 12:49:53	0	0	0	0	0	0	6.94	2.19	0.01	251406	1	3172	163121	251406	248234	5514	62	184	26	161416	2325713	5786
302	2016-11-30 12:59:47	0	0	0	0	0	0	6.94	2.19	0.01	251407	1	3172	163121	251407	248235	5514	62	184	26	161416	2325722	5786
303	2016-11-30 13:09:44	0	0	0	0	0	0	6.94	2.19	0.01	251407	1	3172	163121	251407	248235	5514	62	184	26	161416	2325733	5786
304	2016-11-30 13:19:56	0	0	0	0	0	0	6.94	2.19	0.01	251412	1	3172	163121	251412	248240	5514	62	184	26	161416	2325746	5786
305	2016-11-30 13:29:46	0	0	0	0	0	0	6.94	2.19	0.01	251413	1	3172	163121	251413	248241	5514	62	184	26	161416	2325751	5786
306	2016-11-30 13:39:46	0	0	0	0	0	0	6.94	2.19	0.01	251415	1	3172	163121	251415	248243	5514	62	184	26	161416	2325755	5786
307	2016-11-30 13:50:23	0	0	0	0	0	0	6.94	2.19	0.01	251416	1	3172	163121	251416	248244	5514	62	184	26	161416	2325760	5786
308	2016-11-30 14:00:13	0	0	0	0	0	0	6.94	2.19	0.01	251417	1	3172	163121	251417	248245	5514	62	184	26	161416	2325764	5786
309	2016-11-30 14:09:56	0	0	0	0	0	0	6.94	2.19	0.01	251418	1	3172	163121	251418	248246	5514	62	184	26	161416	2325775	5786
310	2016-11-30 14:19:57	0	0	0	0	0	0	6.94	2.19	0.01	251423	1	3173	163121	251423	248250	5514	62	184	26	161416	2325786	5786
311	2016-11-30 14:29:56	0	0	0	0	0	0	6.94	2.19	0.01	251425	1	3173	163121	251425	248252	5514	62	184	26	161416	2325804	5786
312	2016-11-30 14:39:55	0	0	0	0	0	0	6.94	2.19	0.01	251427	1	3173	163121	251427	248254	5514	62	184	26	161416	2325817	5786
313	2016-11-30 14:49:52	0	0	0	0	0	0	6.94	2.19	0.01	251427	1	3173	163121	251427	248254	5514	62	184	26	161416	2325835	5786
314	2016-11-30 15:00:25	0	0	0	0	0	0	6.94	2.19	0.01	251430	1	3173	163121	251430	248257	5514	62	184	26	161416	2325850	5786
315	2016-11-30 15:12:00	0	0	0	0	0	0	6.94	2.19	0.01	251430	1	3173	163121	251430	248257	5514	62	184	26	161416	2325871	5786
316	2016-11-30 15:21:04	0	0	0	0	0	0	6.94	2.19	0.01	251431	1	3174	163121	251431	248257	5514	62	184	26	161416	2325889	5786
317	2016-11-30 15:30:05	0	0	0	0	0	0	6.94	2.19	0.01	251433	1	3174	163121	251433	248259	5514	62	184	26	161416	2325925	5786
318	2016-11-30 15:39:58	0	0	0	0	0	0	6.94	2.19	0.01	251434	1	3174	163121	251434	248259	5514	62	184	26	161416	2325949	5786
319	2016-11-30 15:50:06	0	0	0	0	0	0	6.94	2.19	0.01	251435	1	3174	163121	251435	248261	5514	62	184	26	161416	2325973	5786
320	2016-11-30 16:02:48	0	0	0	0	0	0	6.94	2.19	0.01	251444	1	3174	163121	251444	248270	5514	62	184	26	161416	2326014	5786
321	2016-11-30 16:10:52	0	0	0	0	0	0	6.94	2.19	0.01	251444	1	3174	163121	251444	248270	5514	62	184	26	161416	2326050	5786
322	2016-11-30 16:20:21	0	0	0	0	0	0	6.94	2.19	0.01	251445	1	3174	163121	251445	248271	5514	62	184	26	161416	2326092	5786
323	2016-11-30 16:31:16	0	0	0	0	0	0	6.94	2.19	0.01	251448	1	3174	163121	251448	248274	5514	62	184	26	161416	2326126	5786
324	2016-11-30 16:40:28	0	0	0	0	0	0	6.94	2.19	0.01	251451	1	3174	163121	251451	248277	5514	62	184	26	161416	2326154	5786
325	2016-11-30 16:53:17	0	0	0	0	0	0	6.94	2.19	0.01	251456	1	3174	163121	251456	248282	5514	62	184	26	161416	2326194	5786
326	2016-11-30 17:00:48	0	0	0	0	0	0	6.94	2.19	0.01	251465	1	3174	163121	251465	248291	5514	62	184	26	161416	2326207	5786
327	2016-11-30 17:12:40	0	0	0	0	0	0	6.94	2.19	0.01	251469	1	3174	163121	251469	248295	5514	62	184	26	161416	2326250	5786
328	2016-11-30 17:20:43	0	0	0	0	0	0	6.94	2.19	0.01	251473	1	3174	163121	251473	248299	5514	62	184	26	161416	2326266	5786
329	2016-11-30 17:31:44	0	0	0	0	0	0	6.94	2.19	0.01	251473	1	3174	163121	251473	248299	5514	62	184	26	161416	2326280	5786
330	2016-11-30 17:40:37	0	0	0	0	0	0	6.94	2.19	0.01	251477	1	3175	163121	251477	248302	5514	62	184	26	161416	2326285	5786
331	2016-11-30 17:50:40	0	0	0	0	0	0	6.94	2.19	0.01	251482	1	3175	163121	251482	248307	5514	62	184	26	161416	2326297	5786
332	2016-11-30 18:00:11	0	0	0	0	0	0	6.94	2.19	0.01	251483	1	3175	163121	251483	248308	5514	62	184	26	161416	2326313	5786
333	2016-11-30 18:10:21	0	0	0	0	0	0	6.94	2.19	0.01	251487	1	3175	163121	251487	248312	5514	62	184	26	161416	2326320	5786
334	2016-11-30 18:20:22	0	0	0	0	0	0	6.94	2.19	0.01	251488	1	3175	163121	251488	248313	5514	62	184	26	161416	2326329	5786
335	2016-11-30 18:30:29	0	0	0	0	0	0	6.94	2.19	0.01	251491	1	3175	163121	251491	248316	5514	62	184	26	161416	2326340	5786
336	2016-11-30 18:41:13	0	0	0	0	0	0	6.94	2.19	0.01	251492	1	3175	163121	251492	248317	5514	62	184	26	161416	2326353	5786
337	2016-11-30 18:50:02	0	0	0	0	0	0	6.94	2.19	0.01	251495	1	3175	163121	251495	248320	5514	62	184	26	161416	2326368	5786
338	2016-11-30 19:01:21	0	0	0	0	0	0	6.94	2.19	0.01	251497	1	3175	163121	251497	248322	5514	62	184	26	161416	2326385	5786
339	2016-11-30 19:11:00	0	0	0	0	0	0	6.94	2.19	0.01	251498	1	3175	163121	251498	248323	5514	62	184	26	161416	2326396	5786
340	2016-11-30 19:21:15	0	0	0	0	0	0	6.94	2.19	0.01	251500	1	3175	163121	251500	248325	5514	62	184	26	161416	2326408	5786
341	2016-11-30 19:30:40	0	0	0	0	0	0	6.94	2.19	0.01	251503	1	3175	163121	251503	248328	5514	62	184	26	161416	2326420	5786
342	2016-11-30 19:41:07	0	0	0	0	0	0	6.94	2.19	0.01	251504	1	3175	163121	251504	248329	5514	62	184	26	161416	2326439	5786
343	2016-11-30 19:50:55	0	0	0	0	0	0	6.94	2.19	0.01	251507	1	3175	163121	251507	248332	5514	62	184	26	161416	2326457	5786
344	2016-11-30 20:02:02	0	0	0	0	0	0	6.94	2.19	0.01	251508	1	3175	163121	251508	248333	5514	62	184	26	161416	2326477	5786
345	2016-11-30 20:10:29	0	0	0	0	0	0	6.94	2.19	0.01	251515	1	3176	163121	251515	248339	5514	62	184	26	161416	2326487	5786
346	2016-11-30 20:20:13	0	0	0	0	0	0	6.94	2.19	0.01	251518	1	3177	163121	251518	248341	5514	62	184	26	161416	2326501	5786
347	2016-11-30 20:30:13	0	0	0	0	0	0	6.94	2.19	0.01	251518	1	3177	163121	251518	248341	5514	62	184	26	161416	2326518	5786
348	2016-11-30 20:40:04	0	0	0	0	0	0	6.94	2.19	0.01	251521	1	3177	163121	251521	248345	5514	62	184	26	161416	2326525	5786
349	2016-11-30 20:50:17	0	0	0	0	0	0	6.94	2.19	0.01	251524	1	3178	163121	251524	248346	5514	62	184	26	161416	2326541	5786
350	2016-11-30 21:00:06	0	0	0	0	0	0	6.94	2.19	0.01	251527	1	3178	163121	251527	248349	5514	62	184	26	161416	2326561	5786
351	2016-11-30 21:10:04	0	0	0	0	0	0	6.94	2.19	0.01	251527	1	3178	163121	251527	248349	5514	62	184	26	161416	2326589	5786
352	2016-11-30 21:20:12	0	0	0	0	0	0	6.94	2.19	0.01	251532	1	3179	163121	251532	248353	5514	62	184	26	161416	2326616	5786
353	2016-11-30 21:30:05	0	0	0	0	0	0	6.94	2.19	0.01	251532	1	3179	163121	251532	248353	5514	62	184	26	161416	2326640	5786
354	2016-11-30 21:40:01	0	0	0	0	0	0	6.94	2.19	0.01	251535	1	3179	163121	251535	248356	5514	62	184	26	161416	2326664	5786
355	2016-11-30 21:51:13	0	0	0	0	0	0	6.94	2.19	0.01	251538	1	3181	163121	251538	248357	5514	62	184	26	161416	2326696	5786
356	2016-11-30 22:01:53	0	0	0	0	0	0	6.94	2.19	0.01	251542	1	3181	163121	251542	248361	5514	62	184	26	161416	2326725	5786
357	2016-11-30 22:10:44	0	0	0	0	0	0	6.94	2.19	0.01	251548	1	3182	163121	251548	248366	5514	62	184	26	161416	2326747	5786
358	2016-11-30 22:20:15	0	0	0	0	0	0	6.94	2.19	0.01	251548	1	3182	163121	251548	248366	5514	62	184	26	161416	2326763	5786
359	2016-11-30 22:30:09	0	0	0	0	0	0	6.94	2.19	0.01	251550	1	3183	163121	251550	248367	5514	62	184	26	161416	2326784	5786
360	2016-11-30 22:40:13	0	0	0	0	0	0	6.94	2.19	0.01	251550	1	3183	163121	251550	248367	5514	62	184	26	161416	2326805	5786
361	2016-11-30 22:50:09	0	0	0	0	0	0	6.94	2.19	0.01	251551	1	3183	163121	251551	248368	5514	62	184	26	161416	2326825	5786
362	2016-11-30 23:00:05	0	0	0	0	0	0	6.94	2.19	0.01	251555	1	3183	163121	251555	248372	5514	62	184	26	161416	2326840	5786
363	2016-11-30 23:10:05	0	0	0	0	0	0	6.94	2.19	0.01	251558	1	3183	163121	251558	248375	5514	62	184	26	161416	2326855	5786
364	2016-11-30 23:20:06	0	0	0	0	0	0	6.94	2.19	0.01	251559	1	3183	163121	251559	248376	5514	62	184	26	161416	2326875	5786
365	2016-11-30 23:30:04	0	0	0	0	0	0	6.94	2.19	0.01	251562	1	3183	163121	251562	248379	5514	62	184	26	161416	2326889	5786
366	2016-11-30 23:39:54	0	0	0	0	0	0	6.94	2.19	0.01	251564	1	3183	163121	251564	248381	5515	62	184	26	161416	2326905	5787
367	2016-11-30 23:50:43	0	0	0	0	0	0	6.94	2.19	0.01	251566	1	3183	163121	251566	248383	5515	62	184	26	161416	2326927	5787
368	2016-12-01 00:00:24	0	0	0	0	0	0	6.94	2.19	0.01	251567	1	3184	163121	251567	248383	5515	62	184	26	161416	2326947	5787
369	2016-12-01 00:10:10	0	0	0	0	0	0	6.94	2.19	0.01	251568	1	3184	163121	251568	248384	5515	62	184	26	161416	2326964	5787
370	2016-12-01 00:19:59	0	0	0	0	0	0	6.94	2.19	0.01	251569	1	3184	163121	251569	248385	5515	62	184	26	161416	2326968	5787
371	2016-12-01 00:29:59	0	0	0	0	0	0	6.94	2.19	0.01	251572	1	3184	163121	251572	248388	5515	62	184	26	161416	2326977	5787
372	2016-12-01 00:39:56	0	0	0	0	0	0	6.94	2.19	0.01	251573	1	3184	163121	251573	248389	5515	62	184	26	161416	2326992	5787
373	2016-12-01 00:49:56	0	0	0	0	0	0	6.94	2.19	0.01	251574	1	3184	163121	251574	248390	5515	62	184	26	161416	2327005	5787
374	2016-12-01 00:59:58	0	0	0	0	0	0	6.94	2.19	0.01	251574	1	3184	163121	251574	248390	5515	62	184	26	161416	2327010	5787
375	2016-12-01 01:09:54	0	0	0	0	0	0	6.94	2.19	0.01	251574	1	3184	163121	251574	248390	5515	62	184	26	161416	2327015	5787
376	2016-12-01 01:19:55	0	0	0	0	0	0	6.94	2.19	0.01	251575	1	3184	163121	251575	248391	5515	62	184	26	161416	2327017	5787
377	2016-12-01 01:29:54	0	0	0	0	0	0	6.94	2.19	0.01	251575	1	3184	163121	251575	248391	5515	62	184	26	161416	2327025	5787
378	2016-12-01 01:39:52	0	0	0	0	0	0	6.94	2.19	0.01	251578	1	3184	163121	251578	248394	5515	62	184	26	161416	2327030	5787
379	2016-12-01 01:50:38	0	0	0	0	0	0	6.94	2.19	0.01	251584	1	3185	163121	251584	248399	5515	62	184	26	161416	2327031	5787
380	2016-12-01 02:04:05	0	0	0	0	0	0	6.94	2.19	0.01	251585	1	3185	163121	251585	248400	5515	62	184	26	161416	2325902	5787
381	2016-12-01 02:10:34	0	0	0	0	0	0	6.94	2.19	0.01	251585	1	3185	163121	251585	248400	5515	62	184	26	161416	2325903	5787
382	2016-12-01 02:20:13	0	0	0	0	0	0	6.94	2.19	0.01	251585	1	3185	163121	251585	248400	5515	62	184	26	161416	2325902	5787
383	2016-12-01 02:30:12	0	0	0	0	0	0	6.94	2.19	0.01	251585	1	3185	163121	251585	248400	5515	62	184	26	161416	2325906	5787
384	2016-12-01 02:39:54	0	0	0	0	0	0	6.94	2.19	0.01	251586	1	3185	163121	251586	248401	5515	62	184	26	161416	2325907	5787
385	2016-12-01 02:50:10	0	0	0	0	0	0	6.94	2.19	0.01	251586	1	3185	163121	251586	248401	5515	62	184	26	161416	2325911	5787
386	2016-12-01 02:59:52	0	0	0	0	0	0	6.94	2.19	0.01	251586	1	3185	163121	251586	248401	5515	62	184	26	161416	2325913	5787
387	2016-12-01 03:09:55	0	0	0	0	0	0	6.94	2.19	0.01	251587	1	3185	163121	251587	248402	5515	62	184	26	161416	2325917	5787
388	2016-12-01 03:19:59	0	0	0	0	0	0	6.94	2.19	0.01	251588	1	3185	163121	251588	248403	5515	62	184	26	161416	2325917	5787
389	2016-12-01 03:29:55	0	0	0	0	0	0	6.94	2.19	0.01	251588	1	3185	163121	251588	248403	5515	62	184	26	161416	2325918	5787
390	2016-12-01 03:39:56	0	0	0	0	0	0	6.94	2.19	0.01	251589	1	3185	163121	251589	248404	5515	62	184	26	161416	2325918	5787
391	2016-12-01 03:49:54	0	0	0	0	0	0	6.94	2.19	0.01	251589	1	3185	163121	251589	248404	5515	62	184	26	161416	2325918	5787
392	2016-12-01 03:59:56	0	0	0	0	0	0	6.94	2.19	0.01	251589	1	3185	163121	251589	248404	5515	62	184	26	161416	2325922	5787
393	2016-12-01 04:10:00	0	0	0	0	0	0	6.94	2.19	0.01	251589	1	3185	163121	251589	248404	5515	62	184	26	161416	2325924	5787
394	2016-12-01 04:21:29	0	0	0	0	0	0	6.94	2.19	0.01	251589	1	3185	163121	251589	248404	5515	62	184	26	161416	2325925	5787
395	2016-12-01 04:30:37	0	0	0	0	0	0	6.94	2.19	0.01	251590	1	3185	163121	251590	248405	5515	62	184	26	161416	2325925	5787
396	2016-12-01 04:44:05	0	0	0	0	0	0	6.94	2.19	0.01	251590	1	3185	163121	251590	248405	5515	62	184	26	161416	2325926	5787
397	2016-12-01 04:50:57	0	0	0	0	0	0	6.94	2.19	0.01	251590	1	3185	163121	251590	248405	5515	62	184	26	161416	2325925	5787
398	2016-12-01 05:01:06	0	0	0	0	0	0	6.94	2.19	0.01	251590	1	3185	163121	251590	248405	5515	62	184	26	161416	2325924	5787
399	2016-12-01 05:10:40	0	0	0	0	0	0	6.94	2.19	0.01	251590	1	3185	163121	251590	248405	5515	62	184	26	161416	2325924	5787
400	2016-12-01 05:22:01	0	0	0	0	0	0	6.94	2.19	0.01	251590	1	3185	163121	251590	248405	5515	62	184	26	161416	2325923	5787
401	2016-12-01 05:30:53	0	0	0	0	0	0	6.94	2.19	0.01	251591	1	3185	163121	251591	248406	5515	62	184	26	161416	2325922	5787
402	2016-12-01 05:41:37	0	0	0	0	0	0	6.94	2.19	0.01	251592	1	3185	163121	251592	248407	5515	62	184	26	161416	2325921	5787
403	2016-12-01 05:53:33	0	0	0	0	0	0	6.94	2.19	0.01	251592	1	3185	163121	251592	248407	5515	62	184	26	161416	2325922	5787
404	2016-12-01 05:59:54	0	0	0	0	0	0	6.94	2.19	0.01	251592	1	3185	163121	251592	248407	5515	62	184	26	161416	2325924	5787
405	2016-12-01 06:09:59	0	0	0	0	0	0	6.94	2.19	0.01	251593	1	3185	163121	251593	248408	5515	62	184	26	161416	2325930	5787
406	2016-12-01 06:20:03	0	0	0	0	0	0	6.94	2.19	0.01	251593	1	3185	163121	251593	248408	5515	62	184	26	161416	2325933	5787
407	2016-12-01 06:30:08	0	0	0	0	0	0	6.94	2.19	0.01	251594	1	3185	163121	251594	248409	5515	62	184	26	161416	2325940	5787
408	2016-12-01 06:39:58	0	0	0	0	0	0	6.94	2.19	0.01	251594	1	3185	163121	251594	248409	5515	62	184	26	161416	2325946	5787
409	2016-12-01 06:49:58	0	0	0	0	0	0	6.94	2.19	0.01	251596	1	3185	163121	251596	248411	5515	62	184	26	161416	2325951	5787
410	2016-12-01 06:59:53	0	0	0	0	0	0	6.94	2.19	0.01	251596	1	3185	163121	251596	248411	5515	62	184	26	161416	2325955	5787
411	2016-12-01 07:09:54	0	0	0	0	0	0	6.94	2.19	0.01	251596	1	3185	163121	251596	248411	5515	62	184	26	161416	2325960	5787
412	2016-12-01 07:19:55	0	0	0	0	0	0	6.94	2.19	0.01	251598	1	3185	163121	251598	248413	5515	62	184	26	161416	2325962	5787
413	2016-12-01 07:29:54	0	0	0	0	0	0	6.94	2.19	0.01	251598	1	3185	163121	251598	248413	5515	62	184	26	161416	2325968	5787
