1	2015-11-21 20:08:33	0	0	0	0	0	0	1.03	0.52	0.01	16804	0	236	13653	16804	16568	87	4	41	3	13433	1303738	135
2	2015-11-21 20:18:32	0	0	0	0	0	0	1.03	0.52	0.01	16804	0	236	13653	16804	16568	87	4	41	3	13433	1303753	135
3	2015-11-21 20:28:32	0	0	0	0	0	0	2.25	0.57	0.06	42776	0	2363	31432	42776	40413	243	53	423	29	29387	1303757	748
4	2015-11-21 20:38:32	0	0	0	0	0	0	2.25	0.57	0.06	42776	0	2363	31432	42776	40413	243	53	423	29	29387	1303770	748
5	2015-11-21 20:48:32	0	0	0	0	0	0	3.08	0.6	0.09	62069	0	5336	43911	62069	56733	375	83	586	36	40122	1303780	1080
6	2015-11-21 20:58:32	0	0	0	0	0	0	3.59	0.62	0.11	74862	0	7627	52446	74862	67235	465	98	710	48	46760	1303788	1321
7	2015-11-21 21:08:33	0	0	0	0	0	0	3.79	0.62	0.12	80863	0	8856	55777	80863	72007	505	106	748	50	49452	1303799	1409
8	2015-11-21 21:18:33	0	0	0	0	0	0	3.79	0.62	0.12	80863	0	8856	55777	80863	72007	505	106	748	50	49452	1303814	1409
9	2015-11-21 21:28:33	0	0	0	0	0	0	4.47	0.65	0.15	98531	0	12974	67679	98531	85557	641	132	920	63	58279	1303818	1756
10	2015-11-21 21:38:33	0	0	0	0	0	0	4.67	0.66	0.16	102523	0	13936	70315	102523	88587	673	138	955	65	60927	1303827	1831
11	2015-11-21 21:48:32	0	0	0	0	0	0	4.67	0.66	0.16	102523	0	13936	70315	102523	88587	673	138	955	65	60927	1303834	1831
12	2015-11-21 21:58:33	0	0	0	0	0	0	5.22	0.67	0.18	116246	0	17590	80966	116246	98656	778	154	1084	78	68042	1303840	2094
13	2015-11-21 22:08:33	0	0	0	0	0	0	5.48	0.66	0.19	123656	0	19652	86102	123656	104004	814	162	1149	82	71472	1303851	2207
14	2015-11-21 22:18:33	0	0	0	0	0	0	5.48	0.66	0.19	123656	0	19652	86102	123656	104004	814	162	1149	82	71472	1303860	2207
15	2015-11-21 22:28:34	0	0	0	0	0	0	5.94	0.68	0.21	137351	0	23710	96190	137351	113641	936	186	1276	94	77496	1303874	2492
16	2015-11-21 22:38:33	0	0	0	0	0	0	5.94	0.68	0.21	137351	0	23710	96190	137351	113641	936	186	1276	94	77496	1303889	2492
17	2015-11-21 22:48:33	0	0	0	0	0	0	6.37	0.69	0.22	148135	0	27051	104113	148135	121084	1018	202	1383	99	83113	1303905	2702
18	2015-11-21 22:58:33	0	0	0	0	0	0	6.37	0.69	0.22	148135	0	27051	104113	148135	121084	1018	202	1383	99	83113	1303911	2702
19	2015-11-21 23:08:33	0	0	0	0	0	0	6.73	0.69	0.24	158797	0	30378	111730	158797	128419	1100	219	1478	105	87760	1303923	2902
20	2015-11-21 23:18:34	0	0	0	0	0	0	6.93	0.69	0.24	165341	0	32434	115713	165341	132907	1143	234	1554	108	90425	1303926	3039
21	2015-11-21 23:28:34	0	0	0	0	0	0	7.09	0.7	0.25	168555	0	33349	117977	168555	135206	1172	236	1588	111	92443	1303933	3107
22	2015-11-21 23:38:34	0	0	0	0	0	0	7.29	0.7	0.25	175610	0	35431	122036	175610	140179	1234	253	1643	115	95117	1303955	3245
23	2015-11-21 23:48:34	0	0	0	0	0	0	7.29	0.7	0.25	175610	0	35431	122036	175610	140179	1234	253	1643	115	95117	1303974	3245
24	2015-11-21 23:58:34	0	0	0	0	0	0	7.62	0.71	0.26	185143	0	38317	128728	185143	146826	1313	264	1710	119	99411	1303990	3406
25	2015-11-22 00:08:34	0	0	0	0	0	0	7.62	0.71	0.26	185143	0	38317	128728	185143	146826	1313	264	1710	119	99411	1303998	3406
26	2015-11-22 00:18:33	0	0	0	0	0	0	8.15	0.72	0.27	196898	0	42215	137119	196898	154683	1415	285	1820	130	106268	1304009	3650
27	2015-11-22 00:28:34	0	0	0	0	0	0	8.21	0.72	0.28	199683	0	43203	139112	199683	156480	1440	289	1845	132	107113	1304010	3706
28	2015-11-22 00:38:33	0	0	0	0	0	0	8.21	0.72	0.28	199683	0	43203	139112	199683	156480	1440	289	1845	132	107113	1304020	3706
29	2015-11-22 00:48:34	0	0	0	0	0	0	8.43	0.73	0.28	207042	0	45801	144135	207042	161241	1506	304	1913	141	109905	1304028	3864
30	2015-11-22 00:58:34	0	0	0	0	0	0	8.43	0.73	0.28	207042	0	45801	144135	207042	161241	1506	304	1913	141	109905	1304033	3864
31	2015-11-22 01:08:34	0	0	0	0	0	0	8.79	0.73	0.29	216764	0	49229	151392	216764	167535	1585	323	2012	158	114672	1304041	4078
32	2015-11-22 01:18:33	0	0	0	0	0	0	8.79	0.73	0.29	216764	0	49229	151392	216764	167535	1585	323	2012	158	114672	1304048	4078
33	2015-11-22 01:28:33	0	0	0	0	0	0	9.02	0.74	0.3	223202	0	51554	155404	223202	171648	1641	337	2057	168	117670	1304057	4203
34	2015-11-22 01:38:33	0	0	0	0	0	0	9.02	0.74	0.3	223202	0	51554	155404	223202	171648	1641	337	2057	168	117670	1304062	4203
35	2015-11-22 01:48:33	0	0	0	0	0	0	9.22	0.75	0.31	229096	0	53618	159342	229096	175478	1715	345	2112	171	120170	1304067	4343
36	2015-11-22 01:58:33	0	0	0	0	0	0	9.3	0.75	0.31	232989	0	54885	161528	232989	178104	1748	352	2149	179	121333	1304068	4428
37	2015-11-22 02:08:33	0	0	0	0	0	0	9.3	0.75	0.31	232989	0	54885	161528	232989	178104	1748	352	2149	179	121333	1304074	4428
38	2015-11-22 02:18:33	0	0	0	0	0	0	9.57	0.76	0.31	238503	0	56669	166905	238503	181834	1808	363	2197	183	124736	1304083	4551
39	2015-11-22 02:28:33	0	0	0	0	0	0	9.57	0.76	0.31	238503	0	56669	166905	238503	181834	1808	363	2197	183	124736	1304087	4551
40	2015-11-22 02:38:32	0	0	0	0	0	0	9.76	0.76	0.32	244771	0	58672	171575	244771	186099	1863	373	2243	192	127318	1304090	4671
41	2015-11-22 02:48:34	0	0	0	0	0	0	9.85	0.76	0.32	246336	0	59216	172800	246336	187120	1878	379	2263	193	128437	1304091	4713
42	2015-11-22 02:58:32	0	0	0	0	0	0	9.85	0.76	0.32	246336	0	59216	172800	246336	187120	1878	379	2263	193	128437	1304092	4713
43	2015-11-22 03:08:33	0	0	0	0	0	0	10.01	0.76	0.32	250489	0	60694	175607	250489	189795	1910	386	2301	196	130599	1304716	4793
44	2015-11-22 03:18:32	0	0	0	0	0	0	10.01	0.76	0.32	250489	0	60694	175607	250489	189795	1910	386	2301	196	130599	1304720	4793
45	2015-11-22 03:28:32	0	0	0	0	0	0	10.14	0.77	0.32	254993	0	62255	178711	254993	192738	1951	392	2346	200	132270	1304723	4889
46	2015-11-22 03:38:33	0	0	0	0	0	0	10.21	0.77	0.32	256851	0	62873	180340	256851	193978	1968	394	2363	201	133183	1304723	4926
47	2015-11-22 03:48:33	0	0	0	0	0	0	10.21	0.77	0.32	256851	0	62873	180340	256851	193978	1968	394	2363	201	133183	1304724	4926
48	2015-11-22 03:58:33	0	0	0	0	0	0	10.32	0.77	0.33	259189	0	63649	182319	259189	195540	1985	399	2378	203	134590	1304724	4965
49	2015-11-22 04:08:33	0	0	0	0	0	0	10.32	0.77	0.33	259189	0	63649	182319	259189	195540	1985	399	2378	203	134590	1304727	4965
50	2015-11-22 04:18:33	0	0	0	0	0	0	10.41	0.77	0.33	261406	0	64402	183177	261406	197004	2003	399	2393	204	135820	1304728	4999
51	2015-11-22 04:28:32	0	0	0	0	0	0	10.41	0.77	0.33	261406	0	64402	183177	261406	197004	2003	399	2393	204	135820	1304730	4999
52	2015-11-22 04:38:32	0	0	0	0	0	0	10.51	0.77	0.33	263815	0	65226	184322	263815	198589	2030	401	2415	208	137174	1304731	5054
53	2015-11-22 04:48:32	0	0	0	0	0	0	10.51	0.77	0.33	263815	0	65226	184322	263815	198589	2030	401	2415	208	137174	1304731	5054
54	2015-11-22 04:58:35	0	0	0	0	0	0	10.57	0.77	0.33	265065	0	65636	185359	265065	199429	2038	401	2424	209	137846	1304727	5072
55	2015-11-22 05:08:33	0	0	0	0	0	0	10.57	0.77	0.33	265065	0	65636	185359	265065	199429	2038	401	2424	209	137846	1304727	5072
56	2015-11-22 05:18:32	0	0	0	0	0	0	10.6	0.77	0.33	266625	0	66166	186173	266625	200459	2055	404	2436	209	138277	1304726	5104
57	2015-11-22 05:28:32	0	0	0	0	0	0	10.6	0.77	0.33	266625	0	66166	186173	266625	200459	2055	404	2436	209	138277	1304726	5104
58	2015-11-22 05:38:32	0	0	0	0	0	0	10.64	0.77	0.33	267721	0	66524	187245	267721	201197	2062	404	2443	209	138795	1304726	5118
59	2015-11-22 05:48:32	0	0	0	0	0	0	10.64	0.77	0.33	267721	0	66524	187245	267721	201197	2062	404	2443	209	138795	1304727	5118
60	2015-11-22 05:58:33	0	0	0	0	0	0	10.66	0.77	0.33	269065	0	66979	187739	269065	202086	2073	407	2453	211	139119	1304727	5144
61	2015-11-22 06:08:32	0	0	0	0	0	0	10.66	0.77	0.33	269065	0	66979	187739	269065	202086	2073	407	2453	211	139119	1304727	5144
62	2015-11-22 06:18:33	0	0	0	0	0	0	10.68	0.77	0.33	270034	0	67350	188058	270034	202684	2083	409	2457	212	139357	1304727	5161
63	2015-11-22 06:28:32	0	0	0	0	0	0	10.68	0.77	0.33	270034	0	67350	188058	270034	202684	2083	409	2457	212	139357	1304729	5161
64	2015-11-22 06:38:32	0	0	0	0	0	0	10.71	0.77	0.33	270922	0	67670	188355	270922	203252	2094	411	2462	212	139684	1304729	5179
65	2015-11-22 06:48:33	0	0	0	0	0	0	10.74	0.77	0.33	271577	0	67905	189184	271577	203672	2099	411	2468	214	140139	1304731	5192
66	2015-11-22 06:58:32	0	0	0	0	0	0	10.74	0.77	0.33	271577	0	67905	189184	271577	203672	2099	411	2468	214	140139	1304734	5192
67	2015-11-22 07:08:33	0	0	0	0	0	0	10.76	0.77	0.33	272453	0	68238	190335	272453	204215	2109	413	2472	215	140368	1304736	5209
68	2015-11-22 07:18:32	0	0	0	0	0	0	10.76	0.77	0.33	272453	0	68238	190335	272453	204215	2109	413	2472	215	140368	1304735	5209
69	2015-11-22 07:28:32	0	0	0	0	0	0	10.83	0.78	0.34	273887	0	68786	191158	273887	205101	2127	414	2483	216	141258	1304736	5240
70	2015-11-22 07:38:32	0	0	0	0	0	0	10.84	0.78	0.34	274602	0	69099	191548	274602	205503	2133	414	2483	216	141393	1304737	5246
71	2015-11-22 07:48:33	0	0	0	0	0	0	10.84	0.78	0.34	275001	0	69253	191762	275001	205748	2141	414	2488	216	141393	1304736	5259
72	2015-11-22 07:58:32	0	0	0	0	0	0	10.84	0.78	0.34	275001	0	69253	191762	275001	205748	2141	414	2488	216	141393	1304735	5259
73	2015-11-22 08:08:34	0	0	0	0	0	0	10.9	0.78	0.34	276594	0	69953	192734	276594	206641	2157	415	2496	216	142221	1304739	5284
74	2015-11-22 08:18:32	0	0	0	0	0	0	10.9	0.78	0.34	276594	0	69953	192734	276594	206641	2157	415	2496	216	142221	1304740	5284
75	2015-11-22 08:28:33	0	0	0	0	0	0	10.93	0.78	0.34	279217	0	70973	193826	279217	208244	2181	418	2511	216	142650	1304741	5326
76	2015-11-22 08:38:33	0	0	0	0	0	0	10.94	0.79	0.34	279899	0	71251	194740	279899	208648	2199	421	2521	217	142755	1304740	5358
77	2015-11-22 08:48:32	0	0	0	0	0	0	10.94	0.79	0.34	279899	0	71251	194740	279899	208648	2199	421	2521	217	142755	1304743	5358
78	2015-11-22 08:58:32	0	0	0	0	0	0	11.05	0.78	0.34	282924	0	72488	196790	282924	210436	2218	424	2534	217	144189	1304743	5393
79	2015-11-22 09:08:33	0	0	0	0	0	0	11.1	0.78	0.35	283732	0	72844	198138	283732	210888	2226	425	2541	217	144802	1304742	5409
80	2015-11-22 09:18:32	0	0	0	0	0	0	11.1	0.78	0.35	283732	0	72844	198138	283732	210888	2226	425	2541	217	144802	1304740	5409
81	2015-11-22 09:28:33	0	0	0	0	0	0	11.25	0.79	0.35	287575	0	74539	201700	287575	213036	2273	430	2572	222	146821	1304746	5497
82	2015-11-22 09:38:32	0	0	0	0	0	0	11.25	0.79	0.35	287575	0	74539	201700	287575	213036	2273	430	2572	222	146821	1304752	5497
83	2015-11-22 09:48:34	0	0	0	0	0	0	11.3	0.8	0.35	291169	0	76149	203041	291169	215020	2320	434	2597	225	147433	1304755	5576
84	2015-11-22 09:58:32	0	0	0	0	0	0	11.3	0.8	0.35	291169	0	76149	203041	291169	215020	2320	434	2597	225	147433	1304755	5576
85	2015-11-22 10:08:32	0	0	0	0	0	0	11.45	0.8	0.36	296131	0	78354	206273	296131	217777	2380	447	2638	227	149436	1304757	5692
86	2015-11-22 10:18:32	0	0	0	0	0	0	11.5	0.8	0.36	297465	0	78961	207184	297465	218504	2391	448	2649	227	150001	1304763	5715
87	2015-11-22 10:28:32	0	0	0	0	0	0	11.54	0.81	0.36	300077	0	80164	207879	300077	219913	2427	449	2681	227	150577	1304765	5784
88	2015-11-22 10:38:33	0	0	0	0	0	0	11.58	0.81	0.37	303153	0	81549	208478	303153	221604	2466	453	2719	235	151126	1304767	5873
89	2015-11-22 10:48:32	0	0	0	0	0	0	11.58	0.81	0.37	303153	0	81549	208478	303153	221604	2466	453	2719	235	151126	1304771	5873
90	2015-11-22 10:58:33	0	0	0	0	0	0	11.68	0.82	0.37	307927	0	83698	211590	307927	224229	2515	457	2756	238	152379	1304778	5966
91	2015-11-22 11:08:33	0	0	0	0	0	0	11.68	0.82	0.37	307927	0	83698	211590	307927	224229	2515	457	2756	238	152379	1304781	5966
92	2015-11-22 11:18:33	0	0	0	0	0	0	11.81	0.82	0.38	312157	0	85712	214231	312157	226445	2563	465	2794	243	154134	1304782	6065
93	2015-11-22 11:28:33	0	0	0	0	0	0	11.97	0.82	0.38	314774	0	86977	217309	314774	227797	2594	475	2834	247	156187	1304781	6150
94	2015-11-22 11:38:33	0	0	0	0	0	0	12.08	0.82	0.39	317529	0	88352	219194	317529	229177	2601	478	2847	251	157590	1304789	6177
95	2015-11-22 11:48:33	0	0	0	0	0	0	12.08	0.82	0.39	317529	0	88352	219194	317529	229177	2601	478	2847	251	157590	1304800	6177
96	2015-11-22 11:58:33	0	0	0	0	0	0	12.13	0.82	0.39	320743	0	89928	221198	320743	230815	2641	482	2892	259	158218	1304804	6274
97	2015-11-22 12:08:33	0	0	0	0	0	0	12.26	0.83	0.39	323854	0	91406	224384	323854	232448	2678	488	2919	262	159934	1304810	6347
98	2015-11-22 12:18:34	0	0	0	0	0	0	12.34	0.83	0.4	326761	0	92788	226468	326761	233973	2724	493	2959	264	161038	1304815	6440
99	2015-11-22 12:28:34	0	0	0	0	0	0	12.41	0.83	0.4	328078	0	93438	227266	328078	234640	2739	494	2975	264	161880	1304822	6472
100	2015-11-22 12:38:34	0	0	0	0	0	0	12.61	0.84	0.4	330555	0	94674	229875	330555	235881	2764	496	3005	264	164523	1304828	6529
101	2015-11-22 12:48:36	0	0	0	0	0	0	12.69	0.84	0.4	333279	0	95972	231191	333279	237307	2796	498	3029	265	165632	1304831	6588
102	2015-11-22 12:58:34	0	0	0	0	0	0	12.69	0.84	0.4	333279	0	95972	231191	333279	237307	2796	498	3029	265	165632	1304835	6588
103	2015-11-22 13:08:35	0	0	0	0	0	0	12.88	0.84	0.41	337256	0	97836	233943	337256	239420	2842	511	3071	267	168095	1304837	6691
104	2015-11-22 13:18:35	0	0	0	0	0	0	12.88	0.84	0.41	337256	0	97836	233943	337256	239420	2842	511	3071	267	168095	1304845	6691
105	2015-11-22 13:28:35	0	0	0	0	0	0	12.94	0.85	0.41	340571	0	99504	235195	340571	241067	2890	516	3103	269	168801	1304851	6778
106	2015-11-22 13:38:35	0	0	0	0	0	0	12.95	0.85	0.42	342751	0	100612	235661	342751	242139	2914	520	3131	273	169041	1304857	6838
107	2015-11-22 13:48:35	0	0	0	0	0	0	12.95	0.85	0.42	342751	0	100612	235661	342751	242139	2914	520	3131	273	169041	1304859	6838
108	2015-11-22 13:58:35	0	0	0	0	0	0	13.01	0.85	0.42	347139	0	102966	237454	347139	244173	2966	531	3195	282	169743	1304866	6974
109	2015-11-22 14:08:36	0	0	0	0	0	0	13.01	0.85	0.42	348236	0	103591	237600	348236	244645	2973	536	3210	284	169817	1304869	7003
110	2015-11-22 14:18:35	0	0	0	0	0	0	13.01	0.85	0.42	348236	0	103591	237600	348236	244645	2973	536	3210	284	169817	1304886	7003
111	2015-11-22 14:28:36	0	0	0	0	0	0	13.09	0.86	0.43	352838	0	106200	240324	352838	246638	3023	548	3270	295	170819	1304899	7136
112	2015-11-22 14:38:36	0	0	0	0	0	0	13.09	0.86	0.43	352838	0	106200	240324	352838	246638	3023	548	3270	295	170819	1304912	7136
113	2015-11-22 14:48:36	0	0	0	0	0	0	13.13	0.86	0.44	355910	0	107944	242441	355910	247966	3051	552	3298	306	171381	1304930	7207
114	2015-11-22 14:58:37	0	0	0	0	0	0	13.17	0.86	0.44	357940	0	109073	243576	357940	248867	3071	557	3320	307	171805	1304952	7255
115	2015-11-22 15:08:36	0	0	0	0	0	0	13.17	0.86	0.44	357940	0	109073	243576	357940	248867	3071	557	3320	307	171805	1304974	7255
116	2015-11-22 15:18:36	0	0	0	0	0	0	13.23	0.86	0.44	360938	0	110866	245750	360938	250072	3104	561	3349	310	172609	1304992	7324
117	2015-11-22 15:28:36	0	0	0	0	0	0	13.27	0.86	0.45	362704	0	111871	247143	362704	250833	3129	563	3373	311	173217	1305005	7376
118	2015-11-22 15:38:36	0	0	0	0	0	0	13.27	0.86	0.45	362704	0	111871	247143	362704	250833	3129	563	3373	311	173217	1305014	7376
119	2015-11-22 15:50:05	0	0	0	0	0	0	13.35	0.86	0.45	366079	0	113803	249262	366079	252276	3160	573	3417	314	174177	1305029	7464
120	2015-11-22 15:58:37	0	0	0	0	0	0	13.35	0.86	0.45	366079	0	113803	249262	366079	252276	3160	573	3417	314	174177	1305049	7464
121	2015-11-22 16:08:36	0	0	0	0	0	0	13.4	0.87	0.45	368633	0	115254	251292	368633	253379	3195	577	3448	316	174874	1305061	7536
122	2015-11-22 16:18:35	0	0	0	0	0	0	13.4	0.87	0.45	368633	0	115254	251292	368633	253379	3195	577	3448	316	174874	1305082	7536
123	2015-11-22 16:28:37	0	0	0	0	0	0	13.48	0.87	0.46	371998	0	117174	252640	371998	254824	3242	586	3471	323	175888	1305097	7622
124	2015-11-22 16:38:37	0	0	0	0	0	0	13.48	0.87	0.46	372844	0	117688	252640	372844	255156	3249	588	3485	323	175888	1305115	7645
125	2015-11-22 16:48:37	0	0	0	0	0	0	13.49	0.87	0.46	374430	0	118603	253654	374430	255827	3267	590	3504	325	176022	1305131	7686
126	2015-11-22 16:58:37	0	0	0	0	0	0	13.49	0.87	0.46	374430	0	118603	253654	374430	255827	3267	590	3504	325	176022	1305148	7686
127	2015-11-22 17:08:37	0	0	0	0	0	0	13.56	0.88	0.47	376878	0	119929	254787	376878	256949	3300	590	3519	325	177033	1305166	7734
128	2015-11-22 17:18:37	0	0	0	0	0	0	13.63	0.88	0.47	378359	0	120766	257231	378359	257593	3319	592	3528	327	177923	1305177	7766
129	2015-11-22 17:28:37	0	0	0	0	0	0	13.63	0.88	0.47	378359	0	120766	257231	378359	257593	3319	592	3528	327	177923	1305191	7766
130	2015-11-22 17:38:37	0	0	0	0	0	0	13.67	0.88	0.47	380608	0	122003	258822	380608	258605	3347	595	3556	327	178416	1305206	7825
131	2015-11-22 17:48:36	0	0	0	0	0	0	13.67	0.88	0.47	380608	0	122003	258822	380608	258605	3347	595	3556	327	178416	1305213	7825
132	2015-11-22 17:58:38	0	0	0	0	0	0	13.74	0.88	0.48	383454	0	123579	259887	383454	259875	3372	604	3593	332	179322	1305225	7901
133	2015-11-22 18:09:33	0	0	0	0	0	0	13.77	0.88	0.48	384246	0	124002	260280	384246	260244	3379	604	3603	333	179718	1305231	7919
134	2015-11-22 18:18:37	0	0	0	0	0	0	13.77	0.88	0.48	384246	0	124002	260280	384246	260244	3379	604	3603	333	179718	1305236	7919
135	2015-11-22 18:28:37	0	0	0	0	0	0	13.84	0.88	0.48	386951	0	125458	260762	386951	261493	3413	606	3632	334	180598	1305245	7985
136	2015-11-22 18:38:36	0	0	0	0	0	0	13.84	0.88	0.48	386951	0	125458	260762	386951	261493	3413	606	3632	334	180598	1305252	7985
137	2015-11-22 18:48:36	0	0	0	0	0	0	13.98	0.89	0.48	388908	0	126582	262598	388908	262326	3447	611	3651	342	182445	1305258	8051
138	2015-11-22 18:58:36	0	0	0	0	0	0	13.98	0.89	0.48	388908	0	126582	262598	388908	262326	3447	611	3651	342	182445	1305271	8051
139	2015-11-22 19:08:37	0	0	0	0	0	0	14.03	0.89	0.49	391629	0	128077	262954	391629	263552	3482	615	3672	347	183179	1305281	8116
140	2015-11-22 19:18:37	0	0	0	0	0	0	14.03	0.89	0.49	391629	0	128077	262954	391629	263552	3482	615	3672	347	183179	1305292	8116
141	2015-11-22 19:28:36	0	0	0	0	0	0	14.11	0.89	0.49	394045	0	129388	265524	394045	264657	3503	620	3699	355	184214	1305300	8177
142	2015-11-22 19:38:42	0	0	0	0	0	0	14.13	0.89	0.49	395710	0	130298	266094	395710	265412	3520	623	3713	356	184422	1305314	8212
143	2015-11-22 19:48:38	0	0	0	0	0	0	14.13	0.89	0.49	395710	0	130298	266094	395710	265412	3520	623	3713	356	184422	1305331	8212
144	2015-11-22 19:58:38	0	0	0	0	0	0	14.21	0.89	0.49	398199	0	131655	267502	398199	266544	3541	629	3747	362	185450	1305341	8279
145	2015-11-22 20:08:39	0	0	0	0	0	0	14.23	0.89	0.49	399145	0	132149	267919	399145	266996	3554	630	3759	362	185806	1305350	8305
146	2015-11-22 20:18:38	0	0	0	0	0	0	14.23	0.89	0.49	399145	0	132149	267919	399145	266996	3554	630	3759	362	185806	1305356	8305
147	2015-11-22 20:28:40	0	0	0	0	0	0	14.33	0.89	0.5	402612	0	133994	269877	402612	268618	3590	634	3792	371	187004	1305367	8387
148	2015-11-22 20:38:39	0	0	0	0	0	0	14.33	0.89	0.5	402612	0	133994	269877	402612	268618	3590	634	3792	371	187004	1305377	8387
149	2015-11-22 20:48:39	0	0	0	0	0	0	14.36	0.89	0.5	405142	0	135296	270602	405142	269846	3618	641	3823	376	187490	1305393	8458
150	2015-11-22 20:58:39	0	0	0	0	0	0	14.36	0.89	0.5	405142	0	135296	270602	405142	269846	3618	641	3823	376	187490	1305400	8458
151	2015-11-22 21:08:39	0	0	0	0	0	0	14.41	0.9	0.5	407413	0	136592	271563	407413	270821	3647	645	3849	380	188145	1305406	8521
152	2015-11-22 21:18:39	0	0	0	0	0	0	14.43	0.89	0.51	409013	0	137522	272357	409013	271491	3659	648	3866	381	188348	1305404	8554
153	2015-11-22 21:28:39	0	0	0	0	0	0	14.43	0.89	0.51	409013	0	137522	272357	409013	271491	3659	648	3866	381	188348	1305407	8554
154	2015-11-22 21:38:39	0	0	0	0	0	0	14.48	0.9	0.51	411198	0	138796	273796	411198	272402	3684	651	3881	382	189041	1305411	8598
155	2015-11-22 21:48:39	0	0	0	0	0	0	14.5	0.9	0.51	412537	0	139592	275079	412537	272945	3700	656	3889	383	189284	1305412	8628
156	2015-11-22 21:58:39	0	0	0	0	0	0	14.5	0.9	0.51	412537	0	139592	275079	412537	272945	3700	656	3889	383	189284	1305422	8628
157	2015-11-22 22:18:39	0	0	0	0	0	0	14.53	0.9	0.52	415846	0	141628	277458	415846	274218	3743	663	3926	390	189643	1305440	8722
158	2015-11-22 22:28:38	0	0	0	0	0	0	14.53	0.9	0.52	415846	0	141628	277458	415846	274218	3743	663	3926	390	189643	1305450	8722
159	2015-11-22 22:38:38	0	0	0	0	0	0	14.53	0.9	0.52	418504	0	143314	278231	418504	275190	3778	671	3954	392	189701	1305458	8795
160	2015-11-22 22:48:38	0	0	0	0	0	0	14.53	0.9	0.52	418504	0	143314	278231	418504	275190	3778	671	3954	392	189701	1305464	8795
161	2015-11-22 22:58:39	0	0	0	0	0	0	14.56	0.91	0.52	420602	0	144624	279330	420602	275978	3811	673	3980	398	190015	1305472	8862
162	2015-11-22 23:08:40	0	0	0	0	0	0	14.56	0.9	0.53	422030	0	145522	279911	422030	276508	3816	673	3986	399	190015	1305479	8874
163	2015-11-22 23:18:38	0	0	0	0	0	0	14.56	0.9	0.53	422030	0	145522	279911	422030	276508	3816	673	3986	399	190015	1305492	8874
164	2015-11-22 23:28:39	0	0	0	0	0	0	14.59	0.91	0.53	423969	0	146738	281488	423969	277231	3848	684	4023	407	190529	1305509	8962
165	2015-11-22 23:38:49	0	0	0	0	0	0	14.59	0.91	0.53	424668	0	147204	281847	424668	277464	3858	685	4034	407	190529	1305516	8984
166	2015-11-22 23:48:39	0	0	0	0	0	0	14.59	0.91	0.53	424668	0	147204	281847	424668	277464	3858	685	4034	407	190529	1305519	8984
167	2015-11-22 23:58:39	0	0	0	0	0	0	14.62	0.91	0.53	427085	0	148438	282890	427085	278110	3880	686	4056	411	190879	1305525	9033
168	2015-11-23 00:08:39	0	0	0	0	0	0	14.63	0.91	0.54	427609	0	149116	282981	427609	278493	3885	688	4065	412	191026	1305541	9050
169	2015-11-23 00:18:38	0	0	0	0	0	0	14.63	0.91	0.54	427609	0	149116	282981	427609	278493	3885	688	4065	412	191026	1305543	9050
170	2015-11-23 00:28:39	0	0	0	0	0	0	14.64	0.91	0.54	429596	0	150437	283188	429596	279159	3902	694	4089	416	191191	1305547	9101
171	2015-11-23 00:38:38	0	0	0	0	0	0	14.64	0.91	0.54	429596	0	150437	283188	429596	279159	3902	694	4089	416	191191	1305556	9101
172	2015-11-23 00:48:39	0	0	0	0	0	0	14.67	0.91	0.54	431171	0	151506	283850	431171	279665	3933	696	4103	419	191469	1305563	9151
173	2015-11-23 00:58:39	0	0	0	0	0	0	14.67	0.91	0.54	431171	0	151506	283850	431171	279665	3933	696	4103	419	191469	1305577	9151
174	2015-11-23 01:08:39	0	0	0	0	0	0	14.7	0.91	0.54	432533	0	152390	285209	432533	280143	3951	698	4118	419	191944	1305591	9186
175	2015-11-23 01:18:38	0	0	0	0	0	0	14.7	0.91	0.54	432533	0	152390	285209	432533	280143	3951	698	4118	419	191944	1305598	9186
176	2015-11-23 01:28:39	0	0	0	0	0	0	14.74	0.91	0.55	433883	0	153226	285815	433883	280657	3969	699	4131	421	192457	1305605	9220
177	2015-11-23 01:38:38	0	0	0	0	0	0	14.74	0.91	0.55	433883	0	153226	285815	433883	280657	3969	699	4131	421	192457	1305614	9220
178	2015-11-23 01:48:38	0	0	0	0	0	0	14.75	0.91	0.55	434690	0	153743	287727	434690	280947	3977	702	4141	427	192553	1305621	9247
179	2015-11-23 01:58:39	0	0	0	0	0	0	14.75	0.91	0.55	435236	0	153929	287727	435236	281035	3980	703	4144	427	192553	1305628	9254
180	2015-11-23 02:08:38	0	0	0	0	0	0	14.75	0.91	0.55	435236	0	153929	287727	435236	281035	3980	703	4144	427	192553	1305626	9254
181	2015-11-23 02:18:39	0	0	0	0	0	0	14.78	0.91	0.55	435821	0	154465	288048	435821	281356	3987	705	4159	428	192912	1305628	9279
182	2015-11-23 02:28:38	0	0	0	0	0	0	14.78	0.91	0.55	435821	0	154465	288048	435821	281356	3987	705	4159	428	192912	1305631	9279
183	2015-11-23 02:38:38	0	0	0	0	0	0	14.78	0.92	0.55	436358	0	154822	288316	436358	281536	3993	706	4168	429	192985	1305636	9296
184	2015-11-23 02:48:37	0	0	0	0	0	0	14.78	0.92	0.55	436358	0	154822	288316	436358	281536	3993	706	4168	429	192985	1305640	9296
185	2015-11-23 02:58:38	0	0	0	0	0	0	14.79	0.92	0.55	436886	0	155149	289070	436886	281737	4000	707	4170	429	193153	1305640	9306
186	2015-11-23 03:08:37	0	0	0	0	0	0	14.79	0.92	0.55	436886	0	155149	289070	436886	281737	4000	707	4170	429	193153	1305760	9306
187	2015-11-23 03:18:40	0	0	0	0	0	0	14.79	0.92	0.55	437213	0	155362	289070	437213	281851	4004	708	4174	429	193153	1305761	9315
188	2015-11-23 03:28:37	0	0	0	0	0	0	14.79	0.92	0.55	437213	0	155362	289070	437213	281851	4004	708	4174	429	193153	1305760	9315
189	2015-11-23 03:38:38	0	0	0	0	0	0	14.79	0.92	0.55	437489	0	155545	289070	437489	281944	4004	709	4175	429	193153	1305761	9317
190	2015-11-23 03:48:37	0	0	0	0	0	0	14.79	0.92	0.55	437489	0	155545	289070	437489	281944	4004	709	4175	429	193153	1305761	9317
191	2015-11-23 03:58:38	0	0	0	0	0	0	14.79	0.92	0.55	437749	0	155727	289111	437749	282022	4008	710	4177	430	193153	1305763	9325
192	2015-11-23 04:08:38	0	0	0	0	0	0	14.79	0.92	0.55	437749	0	155727	289111	437749	282022	4008	710	4177	430	193153	1305763	9325
193	2015-11-23 04:18:37	0	0	0	0	0	0	14.79	0.92	0.55	437921	0	155843	289111	437921	282078	4010	710	4177	430	193177	1305765	9327
194	2015-11-23 04:28:38	0	0	0	0	0	0	14.8	0.92	0.55	438003	0	155887	289165	438003	282116	4011	710	4179	430	193201	1305766	9330
195	2015-11-23 04:38:42	0	0	0	0	0	0	14.82	0.92	0.55	438050	0	155915	289165	438050	282135	4011	710	4180	430	193491	1305768	9331
196	2015-11-23 04:48:37	0	0	0	0	0	0	14.82	0.92	0.55	438050	0	155915	289165	438050	282135	4011	710	4180	430	193491	1305770	9331
197	2015-11-23 04:58:38	0	0	0	0	0	0	14.82	0.92	0.55	438180	0	155989	289219	438180	282191	4011	710	4180	431	193491	1305774	9332
198	2015-11-23 05:08:38	0	0	0	0	0	0	14.82	0.92	0.55	438271	0	156048	289219	438271	282223	4013	710	4180	431	193491	1305774	9334
199	2015-11-23 05:18:37	0	0	0	0	0	0	14.82	0.92	0.55	438271	0	156048	289219	438271	282223	4013	710	4180	431	193491	1305773	9334
200	2015-11-23 05:28:38	0	0	0	0	0	0	14.82	0.92	0.55	438438	0	156169	289219	438438	282269	4013	710	4184	431	193491	1305772	9338
201	2015-11-23 05:38:38	0	0	0	0	0	0	14.82	0.92	0.55	438501	0	156210	289219	438501	282291	4013	711	4185	431	193491	1305773	9340
202	2015-11-23 05:48:38	0	0	0	0	0	0	14.83	0.92	0.55	438604	0	156280	289219	438604	282324	4015	711	4186	431	193661	1305774	9343
203	2015-11-23 05:58:37	0	0	0	0	0	0	14.83	0.92	0.55	438604	0	156280	289219	438604	282324	4015	711	4186	431	193661	1305774	9343
204	2015-11-23 06:08:38	0	0	0	0	0	0	14.83	0.92	0.55	438766	0	156386	289219	438766	282380	4019	711	4188	433	193661	1305773	9351
205	2015-11-23 06:18:38	0	0	0	0	0	0	14.83	0.92	0.55	438905	0	156480	289219	438905	282425	4019	711	4188	433	193661	1305775	9351
206	2015-11-23 06:28:38	0	0	0	0	0	0	14.83	0.92	0.55	438905	0	156480	289219	438905	282425	4019	711	4188	433	193661	1305775	9351
207	2015-11-23 06:38:38	0	0	0	0	0	0	14.83	0.92	0.55	439119	0	156617	289219	439119	282502	4021	711	4189	434	193661	1305776	9355
208	2015-11-23 06:48:37	0	0	0	0	0	0	14.83	0.92	0.55	439119	0	156617	289219	439119	282502	4021	711	4189	434	193661	1305778	9355
209	2015-11-23 06:58:38	0	0	0	0	0	0	14.83	0.92	0.55	439461	0	156766	289219	439461	282586	4024	711	4193	434	193661	1305779	9362
210	2015-11-23 07:08:37	0	0	0	0	0	0	14.83	0.92	0.55	439461	0	156766	289219	439461	282586	4024	711	4193	434	193661	1305778	9362
211	2015-11-23 07:18:38	0	0	0	0	0	0	14.83	0.92	0.56	439839	0	157096	289219	439839	282743	4028	712	4199	435	193661	1305776	9374
212	2015-11-23 07:28:37	0	0	0	0	0	0	14.83	0.92	0.56	439839	0	157096	289219	439839	282743	4028	712	4199	435	193661	1305778	9374
213	2015-11-23 07:38:38	0	0	0	0	0	0	14.83	0.92	0.56	440181	0	157334	289327	440181	282847	4035	713	4201	435	193709	1305779	9384
214	2015-11-23 07:48:39	0	0	0	0	0	0	14.83	0.92	0.56	440504	0	157551	289435	440504	282953	4037	714	4207	439	193709	1305780	9397
215	2015-11-23 07:58:42	0	0	0	0	0	0	14.83	0.92	0.56	440705	0	157689	289651	440705	283016	4040	714	4209	439	193709	1305782	9402
216	2015-11-23 08:08:39	0	0	0	0	0	0	14.83	0.92	0.56	440705	0	157689	289651	440705	283016	4040	714	4209	439	193709	1305784	9402
217	2015-11-23 08:18:38	0	0	0	0	0	0	14.83	0.92	0.56	441385	0	158185	290412	441385	283200	4046	715	4217	439	193709	1305787	9417
218	2015-11-23 08:28:38	0	0	0	0	0	0	14.83	0.92	0.56	441385	0	158185	290412	441385	283200	4046	715	4217	439	193709	1305789	9417
219	2015-11-23 08:38:38	0	0	0	0	0	0	14.86	0.92	0.56	441883	0	158579	290739	441883	283304	4052	717	4221	440	194098	1305792	9430
220	2015-11-23 08:48:38	0	0	0	0	0	0	14.86	0.92	0.56	442202	0	158832	290794	442202	283370	4054	717	4222	440	194098	1305798	9433
221	2015-11-23 08:58:38	0	0	0	0	0	0	14.86	0.92	0.56	442202	0	158832	290794	442202	283370	4054	717	4222	440	194098	1305795	9433
222	2015-11-23 09:08:38	0	0	0	0	0	0	14.86	0.92	0.56	442696	0	159245	290794	442696	283451	4064	719	4233	444	194098	1305800	9460
223	2015-11-23 09:18:38	0	0	0	0	0	0	14.86	0.92	0.56	442696	0	159245	290794	442696	283451	4064	719	4233	444	194098	1305802	9460
224	2015-11-23 09:28:39	0	0	0	0	0	0	14.86	0.92	0.56	443242	0	159715	290794	443242	283527	4069	721	4240	445	194098	1305808	9475
225	2015-11-23 09:38:38	0	0	0	0	0	0	14.86	0.92	0.56	443242	0	159715	290794	443242	283527	4069	721	4240	445	194098	1305813	9475
226	2015-11-23 09:48:38	0	0	0	0	0	0	14.86	0.92	0.56	443811	0	160191	291095	443811	283620	4078	722	4248	445	194098	1305818	9493
227	2015-11-23 09:58:39	0	0	0	0	0	0	14.86	0.92	0.57	444164	0	160476	292187	444164	283688	4081	725	4250	445	194098	1305819	9501
228	2015-11-23 10:08:38	0	0	0	0	0	0	14.86	0.92	0.57	444164	0	160476	292187	444164	283688	4081	725	4250	445	194098	1305821	9501
229	2015-11-23 10:18:39	0	0	0	0	0	0	14.86	0.92	0.57	444741	0	160977	292187	444741	283764	4084	725	4258	446	194098	1305829	9513
230	2015-11-23 10:28:38	0	0	0	0	0	0	14.86	0.92	0.57	444741	0	160977	292187	444741	283764	4084	725	4258	446	194098	1305834	9513
231	2015-11-23 10:38:40	0	0	0	0	0	0	14.92	0.92	0.57	445297	0	161452	292242	445297	283845	4091	726	4263	448	194830	1305835	9528
232	2015-11-23 10:48:39	0	0	0	0	0	0	14.92	0.92	0.57	445297	0	161452	292242	445297	283845	4091	726	4263	448	194830	1305839	9528
233	2015-11-23 10:58:39	0	0	0	0	0	0	14.93	0.92	0.57	445994	0	162034	293266	445994	283960	4103	729	4270	450	194953	1305845	9552
234	2015-11-23 11:08:40	0	0	0	0	0	0	14.93	0.92	0.57	446184	0	162195	293572	446184	283989	4103	729	4270	450	194953	1305849	9552
235	2015-11-23 11:18:39	0	0	0	0	0	0	14.93	0.92	0.57	446184	0	162195	293572	446184	283989	4103	729	4270	450	194953	1305852	9552
236	2015-11-23 11:28:39	0	0	0	0	0	0	14.94	0.92	0.57	446785	0	162692	293990	446785	284093	4119	730	4282	451	195113	1305852	9582
237	2015-11-23 11:38:40	0	0	0	0	0	0	14.94	0.92	0.57	446956	0	162837	293990	446956	284119	4120	730	4283	451	195113	1305858	9584
238	2015-11-23 11:48:39	0	0	0	0	0	0	14.94	0.92	0.57	446956	0	162837	293990	446956	284119	4120	730	4283	451	195113	1305865	9584
239	2015-11-23 11:58:40	0	0	0	0	0	0	14.94	0.92	0.57	447535	0	163312	294269	447535	284223	4125	732	4288	454	195113	1305871	9599
240	2015-11-23 12:08:43	0	0	0	0	0	0	14.94	0.92	0.58	447785	0	163525	294269	447785	284260	4134	732	4290	454	195113	1305883	9610
241	2015-11-23 12:18:44	0	0	0	0	0	0	14.94	0.92	0.58	447897	0	163619	294381	447897	284278	4135	733	4292	454	195113	1305888	9614
242	2015-11-23 12:28:42	0	0	0	0	0	0	14.94	0.92	0.58	447897	0	163619	294381	447897	284278	4135	733	4292	454	195113	1305894	9614
243	2015-11-23 12:38:41	0	0	0	0	0	0	14.94	0.92	0.58	448454	0	164094	294381	448454	284360	4142	734	4303	457	195113	1305901	9636
244	2015-11-23 12:48:41	0	0	0	0	0	0	14.94	0.92	0.58	448454	0	164094	294381	448454	284360	4142	734	4303	457	195113	1305906	9636
245	2015-11-23 12:58:41	0	0	0	0	0	0	14.95	0.92	0.58	448845	0	164431	295019	448845	284414	4145	736	4306	458	195208	1305911	9645
246	2015-11-23 13:08:42	0	0	0	0	0	0	14.95	0.92	0.58	449168	0	164724	295132	449168	284444	4151	737	4309	459	195208	1305913	9656
247	2015-11-23 13:18:41	0	0	0	0	0	0	14.95	0.92	0.58	449168	0	164724	295132	449168	284444	4151	737	4309	459	195208	1305919	9656
248	2015-11-23 13:28:41	0	0	0	0	0	0	14.95	0.92	0.58	449690	0	165199	295132	449690	284491	4158	739	4311	459	195208	1305938	9667
249	2015-11-23 13:38:43	0	0	0	0	0	0	14.95	0.92	0.58	449874	0	165359	295132	449874	284515	4159	740	4315	462	195208	1305960	9676
250	2015-11-23 13:48:42	0	0	0	0	0	0	14.95	0.92	0.58	449874	0	165359	295132	449874	284515	4159	740	4315	462	195208	1305980	9676
251	2015-11-23 13:58:43	0	0	0	0	0	0	14.96	0.92	0.58	450386	0	165796	295583	450386	284590	4161	740	4321	465	195356	1306005	9687
252	2015-11-23 14:08:43	0	0	0	0	0	0	14.96	0.92	0.58	450504	0	165898	295583	450504	284606	4162	741	4321	465	195356	1306029	9689
253	2015-11-23 14:18:42	0	0	0	0	0	0	14.96	0.92	0.58	450504	0	165898	295583	450504	284606	4162	741	4321	465	195356	1306048	9689
254	2015-11-23 14:28:43	0	0	0	0	0	0	14.96	0.92	0.58	451004	0	166328	295950	451004	284676	4168	742	4324	465	195393	1306067	9699
255	2015-11-23 14:38:42	0	0	0	0	0	0	14.96	0.92	0.58	451182	0	166482	295950	451182	284700	4171	742	4328	465	195393	1306087	9706
256	2015-11-23 14:48:42	0	0	0	0	0	0	14.96	0.92	0.58	451182	0	166482	295950	451182	284700	4171	742	4328	465	195393	1306118	9706
257	2015-11-23 14:58:42	0	0	0	0	0	0	14.96	0.92	0.59	451536	0	166785	296063	451536	284751	4172	742	4330	467	195393	1306129	9711
258	2015-11-23 15:08:42	0	0	0	0	0	0	14.96	0.92	0.59	451736	0	166950	296063	451736	284786	4174	742	4330	467	195393	1306154	9713
259	2015-11-23 15:18:43	0	0	0	0	0	0	14.96	0.92	0.59	451842	0	167038	296063	451842	284804	4174	743	4330	467	195393	1306172	9714
260	2015-11-23 15:28:43	0	0	0	0	0	0	14.96	0.92	0.59	451842	0	167038	296063	451842	284804	4174	743	4330	467	195393	1306200	9714
261	2015-11-23 15:38:53	0	0	0	0	0	0	14.96	0.92	0.59	452112	0	167275	296389	452112	284837	4179	743	4333	467	195393	1306216	9722
262	2015-11-23 15:48:42	0	0	0	0	0	0	14.96	0.92	0.59	452112	0	167275	296389	452112	284837	4179	743	4333	467	195393	1306227	9722
263	2015-11-23 15:58:43	0	0	0	0	0	0	14.96	0.92	0.59	452443	0	167548	296389	452443	284895	4182	743	4334	467	195393	1306238	9726
264	2015-11-23 16:08:43	0	0	0	0	0	0	14.96	0.92	0.59	452583	0	167671	296389	452583	284912	4185	743	4338	467	195393	1306259	9733
265	2015-11-23 16:18:43	0	0	0	0	0	0	14.96	0.92	0.59	452583	0	167671	296389	452583	284912	4185	743	4338	467	195393	1306274	9733
266	2015-11-23 16:28:43	0	0	0	0	0	0	14.96	0.92	0.59	452848	0	167898	297178	452848	284950	4187	745	4342	470	195393	1306289	9744
267	2015-11-23 16:38:43	0	0	0	0	0	0	14.96	0.92	0.59	452848	0	167898	297178	452848	284950	4187	745	4342	470	195393	1306308	9744
268	2015-11-23 16:48:43	0	0	0	0	0	0	14.97	0.93	0.59	453117	0	168131	297521	453117	284986	4193	745	4342	470	195541	1306321	9750
269	2015-11-23 16:58:42	0	0	0	0	0	0	14.97	0.93	0.59	453117	0	168131	297521	453117	284986	4193	745	4342	470	195541	1306339	9750
270	2015-11-23 17:08:43	0	0	0	0	0	0	14.97	0.93	0.59	453452	0	168431	298194	453452	285021	4195	745	4343	472	195541	1306356	9755
271	2015-11-23 17:18:45	0	0	0	0	0	0	14.97	0.93	0.59	453635	0	168592	298252	453635	285043	4199	745	4343	474	195541	1306371	9761
272	2015-11-23 17:28:43	0	0	0	0	0	0	14.97	0.93	0.59	453635	0	168592	298252	453635	285043	4199	745	4343	474	195541	1306391	9761
273	2015-11-23 17:38:44	0	0	0	0	0	0	14.97	0.93	0.59	453889	0	168815	298252	453889	285074	4201	745	4346	475	195541	1306411	9767
274	2015-11-23 17:48:43	0	0	0	0	0	0	14.97	0.93	0.59	453889	0	168815	298252	453889	285074	4201	745	4346	475	195541	1306424	9767
275	2015-11-23 17:58:44	0	0	0	0	0	0	14.97	0.93	0.59	454112	0	169010	298252	454112	285102	4203	745	4348	475	195541	1306438	9771
276	2015-11-23 18:08:45	0	0	0	0	0	0	14.97	0.93	0.59	454264	0	169137	298252	454264	285127	4203	745	4352	477	195541	1306449	9777
277	2015-11-23 18:18:46	0	0	0	0	0	0	14.97	0.93	0.59	454360	0	169222	298367	454360	285138	4204	745	4353	477	195541	1306461	9779
278	2015-11-23 18:28:43	0	0	0	0	0	0	14.97	0.93	0.59	454360	0	169222	298367	454360	285138	4204	745	4353	477	195541	1306470	9779
279	2015-11-23 18:38:44	0	0	0	0	0	0	14.97	0.93	0.59	454650	0	169469	298655	454650	285181	4207	746	4356	478	195541	1306492	9787
280	2015-11-23 18:48:45	0	0	0	0	0	0	14.97	0.93	0.59	454786	0	169586	298655	454786	285200	4207	746	4357	478	195541	1306517	9788
281	2015-11-23 18:58:48	0	0	0	0	0	0	14.97	0.92	0.59	454838	0	169628	298655	454838	285210	4207	746	4358	478	195541	1306529	9789
282	2015-11-23 19:08:48	0	0	0	0	0	0	14.97	0.93	0.6	454963	0	169731	298655	454963	285232	4209	746	4358	478	195541	1306541	9791
283	2015-11-23 19:18:44	0	0	0	0	0	0	14.97	0.93	0.6	454963	0	169731	298655	454963	285232	4209	746	4358	478	195541	1306544	9791
284	2015-11-23 19:28:44	0	0	0	0	0	0	14.97	0.93	0.6	455160	0	169903	298655	455160	285257	4211	746	4359	478	195541	1306558	9794
285	2015-11-23 19:38:43	0	0	0	0	0	0	14.97	0.93	0.6	455160	0	169903	298655	455160	285257	4211	746	4359	478	195541	1306569	9794
286	2015-11-23 19:48:44	0	0	0	0	0	0	14.97	0.93	0.6	455358	0	170072	298655	455358	285286	4213	746	4361	478	195541	1306585	9798
287	2015-11-23 19:58:43	0	0	0	0	0	0	14.97	0.93	0.6	455358	0	170072	298655	455358	285286	4213	746	4361	478	195541	1306606	9798
288	2015-11-23 20:08:44	0	0	0	0	0	0	14.97	0.93	0.6	455631	0	170316	298885	455631	285315	4221	746	4361	478	195541	1306623	9806
289	2015-11-23 20:18:44	0	0	0	0	0	0	14.97	0.93	0.6	455768	0	170434	298885	455768	285334	4222	747	4362	478	195541	1306633	9809
290	2015-11-23 20:28:43	0	0	0	0	0	0	14.97	0.93	0.6	455768	0	170434	298885	455768	285334	4222	747	4362	478	195541	1306648	9809
291	2015-11-23 20:38:44	0	0	0	0	0	0	14.96	0.93	0.6	455965	0	170604	299058	455965	285361	4224	747	4362	479	195541	1306662	9812
292	2015-11-23 20:48:45	0	0	0	0	0	0	14.96	0.93	0.6	456103	0	170722	299170	456103	285381	4230	747	4366	482	195541	1306668	9825
293	2015-11-23 20:58:43	0	0	0	0	0	0	14.96	0.93	0.6	456103	0	170722	299170	456103	285381	4230	747	4366	482	195541	1306689	9825
294	2015-11-23 21:08:44	0	0	0	0	0	0	14.96	0.93	0.6	456186	0	170791	299170	456186	285395	4232	747	4369	482	195541	1306706	9830
295	2015-11-23 21:18:44	0	0	0	0	0	0	14.96	0.93	0.6	456186	0	170791	299170	456186	285395	4232	747	4369	482	195541	1306717	9830
296	2015-11-23 21:28:45	0	0	0	0	0	0	14.96	0.93	0.6	456292	0	170880	299225	456292	285412	4232	747	4369	483	195541	1306729	9831
297	2015-11-23 21:38:44	0	0	0	0	0	0	14.96	0.93	0.6	456292	0	170880	299225	456292	285412	4232	747	4369	483	195541	1306743	9831
298	2015-11-23 21:48:44	0	0	0	0	0	0	14.96	0.93	0.6	456567	0	171127	299268	456567	285440	4233	747	4373	483	195541	1306762	9836
299	2015-11-23 21:58:44	0	0	0	0	0	0	14.96	0.93	0.6	456733	0	171272	300051	456733	285461	4235	747	4375	484	195541	1306776	9841
300	2015-11-23 22:08:45	0	0	0	0	0	0	14.96	0.93	0.6	456874	0	171395	300051	456874	285479	4235	748	4379	485	195541	1306793	9847
301	2015-11-23 22:18:44	0	0	0	0	0	0	14.96	0.93	0.6	456874	0	171395	300051	456874	285479	4235	748	4379	485	195541	1306812	9847
302	2015-11-23 22:28:45	0	0	0	0	0	0	14.96	0.93	0.6	457100	0	171592	300051	457100	285508	4238	748	4381	485	195541	1306831	9852
303	2015-11-23 22:38:44	0	0	0	0	0	0	14.96	0.93	0.6	457100	0	171592	300051	457100	285508	4238	748	4381	485	195541	1306847	9852
304	2015-11-23 22:48:44	0	0	0	0	0	0	14.96	0.93	0.6	457361	0	171815	300164	457361	285546	4240	749	4381	485	195541	1306865	9855
305	2015-11-23 22:58:44	0	0	0	0	0	0	14.96	0.93	0.6	457444	0	171882	300397	457444	285562	4240	750	4383	487	195541	1306892	9860
306	2015-11-23 23:08:45	0	0	0	0	0	0	14.96	0.93	0.6	457549	0	171976	300397	457549	285573	4242	750	4385	487	195541	1306916	9864
307	2015-11-23 23:18:45	0	0	0	0	0	0	14.96	0.93	0.6	457600	0	172013	300397	457600	285587	4242	751	4386	487	195541	1306941	9866
308	2015-11-23 23:28:45	0	0	0	0	0	0	14.96	0.93	0.6	457729	0	172127	300397	457729	285602	4243	752	4389	487	195541	1306959	9871
309	2015-11-23 23:38:44	0	0	0	0	0	0	14.96	0.93	0.6	457729	0	172127	300397	457729	285602	4243	752	4389	487	195541	1306977	9871
310	2015-11-23 23:48:45	0	0	0	0	0	0	14.96	0.93	0.6	457924	0	172287	300397	457924	285637	4247	752	4391	487	195541	1306988	9877
311	2015-11-23 23:58:44	0	0	0	0	0	0	14.96	0.93	0.6	457924	0	172287	300397	457924	285637	4247	752	4391	487	195541	1307011	9877
312	2015-11-24 00:08:44	0	0	0	0	0	0	14.97	0.93	0.6	458126	0	172458	300630	458126	285668	4247	752	4392	488	195640	1307031	9879
313	2015-11-24 00:18:45	0	0	0	0	0	0	14.97	0.93	0.6	458250	0	172560	300630	458250	285690	4248	752	4392	488	195640	1307051	9880
314	2015-11-24 00:28:47	0	0	0	0	0	0	14.97	0.93	0.6	458382	0	172681	300981	458382	285701	4248	753	4395	489	195640	1307067	9885
315	2015-11-24 00:38:44	0	0	0	0	0	0	14.97	0.93	0.6	458382	0	172681	300981	458382	285701	4248	753	4395	489	195640	1307086	9885
316	2015-11-24 00:48:44	0	0	0	0	0	0	15.02	0.93	0.6	458560	0	172840	300981	458560	285720	4251	754	4400	490	196384	1307108	9895
317	2015-11-24 00:58:45	0	0	0	0	0	0	15.02	0.93	0.61	458611	0	172886	300981	458611	285725	4251	754	4400	490	196384	1307122	9895
318	2015-11-24 01:08:44	0	0	0	0	0	0	15.02	0.93	0.61	458611	0	172886	300981	458611	285725	4251	754	4400	490	196384	1307137	9895
319	2015-11-24 01:18:44	0	0	0	0	0	0	15.03	0.93	0.61	458762	0	173021	301420	458762	285741	4252	754	4403	491	196471	1307144	9900
320	2015-11-24 01:28:44	0	0	0	0	0	0	15.03	0.93	0.61	458762	0	173021	301420	458762	285741	4252	754	4403	491	196471	1307156	9900
321	2015-11-24 01:38:44	0	0	0	0	0	0	15.03	0.93	0.61	458894	0	173134	301420	458894	285760	4253	754	4406	491	196471	1307170	9904
322	2015-11-24 01:48:45	0	0	0	0	0	0	15.03	0.93	0.61	458924	0	173156	301420	458924	285768	4255	754	4406	491	196471	1307181	9906
323	2015-11-24 01:58:45	0	0	0	0	0	0	15.03	0.93	0.61	458924	0	173156	301420	458924	285768	4255	754	4406	491	196471	1307187	9906
324	2015-11-24 02:08:44	0	0	0	0	0	0	15.03	0.93	0.61	459001	0	173215	301420	459001	285786	4261	754	4407	491	196471	1307194	9913
325	2015-11-24 02:18:44	0	0	0	0	0	0	15.03	0.93	0.61	459001	0	173215	301420	459001	285786	4261	754	4407	491	196471	1307201	9913
326	2015-11-24 02:28:45	0	0	0	0	0	0	15.03	0.93	0.61	459082	0	173287	301420	459082	285795	4262	754	4407	491	196471	1307207	9914
327	2015-11-24 02:38:47	0	0	0	0	0	0	15.03	0.93	0.61	459099	0	173303	301420	459099	285796	4262	754	4407	491	196471	1307212	9914
328	2015-11-24 02:48:44	0	0	0	0	0	0	15.03	0.93	0.61	459099	0	173303	301420	459099	285796	4262	754	4407	491	196471	1307218	9914
329	2015-11-24 02:58:45	0	0	0	0	0	0	15.03	0.93	0.61	459155	0	173350	301420	459155	285805	4263	754	4410	491	196471	1307218	9918
330	2015-11-24 03:08:44	0	0	0	0	0	0	15.03	0.93	0.61	459155	0	173350	301420	459155	285805	4263	754	4410	491	196471	1307444	9918
331	2015-11-24 03:18:45	0	0	0	0	0	0	15.03	0.93	0.61	459188	0	173379	301420	459188	285809	4263	754	4410	491	196471	1307447	9918
332	2015-11-24 03:28:44	0	0	0	0	0	0	15.03	0.93	0.61	459188	0	173379	301420	459188	285809	4263	754	4410	491	196471	1307447	9918
333	2015-11-24 03:38:44	0	0	0	0	0	0	15.03	0.93	0.61	459210	0	173398	301420	459210	285812	4263	754	4410	491	196471	1307450	9918
334	2015-11-24 03:48:44	0	0	0	0	0	0	15.03	0.93	0.61	459210	0	173398	301420	459210	285812	4263	754	4410	491	196471	1307455	9918
335	2015-11-24 03:58:45	0	0	0	0	0	0	15.03	0.93	0.61	459236	0	173416	301420	459236	285820	4263	754	4410	491	196471	1307454	9918
336	2015-11-24 04:08:44	0	0	0	0	0	0	15.03	0.93	0.61	459236	0	173416	301420	459236	285820	4263	754	4410	491	196471	1307459	9918
337	2015-11-24 04:18:45	0	0	0	0	0	0	15.03	0.93	0.61	459258	0	173437	301420	459258	285821	4263	754	4410	491	196471	1307461	9918
338	2015-11-24 04:28:44	0	0	0	0	0	0	15.03	0.93	0.61	459258	0	173437	301420	459258	285821	4263	754	4410	491	196471	1307466	9918
339	2015-11-24 04:38:44	0	0	0	0	0	0	15.03	0.93	0.61	459272	0	173450	301420	459272	285822	4263	754	4410	491	196471	1307468	9918
340	2015-11-24 04:48:44	0	0	0	0	0	0	15.03	0.93	0.61	459272	0	173450	301420	459272	285822	4263	754	4410	491	196471	1307470	9918
341	2015-11-24 04:58:45	0	0	0	0	0	0	15.03	0.93	0.61	459284	0	173462	301420	459284	285822	4263	754	4410	491	196471	1307470	9918
342	2015-11-24 05:08:46	0	0	0	0	0	0	15.03	0.93	0.61	459289	0	173467	301420	459289	285822	4263	754	4410	491	196471	1307471	9918
343	2015-11-24 05:18:44	0	0	0	0	0	0	15.03	0.93	0.61	459289	0	173467	301420	459289	285822	4263	754	4410	491	196471	1307472	9918
344	2015-11-24 05:28:44	0	0	0	0	0	0	15.03	0.93	0.61	459297	0	173474	301420	459297	285823	4263	754	4410	491	196471	1307472	9918
345	2015-11-24 05:38:44	0	0	0	0	0	0	15.03	0.93	0.61	459297	0	173474	301420	459297	285823	4263	754	4410	491	196471	1307470	9918
346	2015-11-24 05:48:44	0	0	0	0	0	0	15.03	0.93	0.61	459312	0	173487	301420	459312	285825	4264	754	4411	492	196471	1307471	9921
347	2015-11-24 05:58:45	0	0	0	0	0	0	15.03	0.93	0.61	459318	0	173493	301420	459318	285825	4264	754	4411	492	196471	1307471	9921
348	2015-11-24 06:08:44	0	0	0	0	0	0	15.03	0.93	0.61	459318	0	173493	301420	459318	285825	4264	754	4411	492	196471	1307471	9921
349	2015-11-24 06:18:44	0	0	0	0	0	0	15.03	0.93	0.61	459336	0	173509	301420	459336	285827	4264	754	4411	492	196471	1307471	9921
350	2015-11-24 06:28:45	0	0	0	0	0	0	15.03	0.93	0.61	459342	0	173515	301420	459342	285827	4264	754	4411	492	196471	1307472	9921
351	2015-11-24 06:38:44	0	0	0	0	0	0	15.03	0.93	0.61	459342	0	173515	301420	459342	285827	4264	754	4411	492	196471	1307477	9921
352	2015-11-24 06:48:44	0	0	0	0	0	0	15.03	0.93	0.61	459365	0	173536	301420	459365	285829	4264	754	4412	492	196471	1307478	9922
353	2015-11-24 06:58:45	0	0	0	0	0	0	15.03	0.93	0.61	459378	0	173548	301420	459378	285830	4264	754	4412	492	196471	1307477	9922
354	2015-11-24 07:08:44	0	0	0	0	0	0	15.03	0.93	0.61	459378	0	173548	301420	459378	285830	4264	754	4412	492	196471	1307476	9922
355	2015-11-24 07:18:45	0	0	0	0	0	0	15.03	0.93	0.61	459396	0	173565	301420	459396	285831	4264	754	4412	492	196471	1307477	9922
356	2015-11-24 07:28:44	0	0	0	0	0	0	15.03	0.93	0.61	459396	0	173565	301420	459396	285831	4264	754	4412	492	196471	1307478	9922
357	2015-11-24 07:38:44	0	0	0	0	0	0	15.03	0.93	0.61	459428	0	173591	301420	459428	285837	4264	754	4412	492	196471	1307486	9922
358	2015-11-24 07:48:45	0	0	0	0	0	0	15.03	0.93	0.61	459447	0	173609	301420	459447	285838	4264	754	4412	492	196471	1307489	9922
359	2015-11-24 07:58:45	0	0	0	0	0	0	15.03	0.93	0.61	459469	0	173629	301420	459469	285840	4264	754	4412	492	196471	1307494	9922
360	2015-11-24 08:08:44	0	0	0	0	0	0	15.03	0.93	0.61	459469	0	173629	301420	459469	285840	4264	754	4412	492	196471	1307493	9922
361	2015-11-24 08:18:45	0	0	0	0	0	0	15.03	0.93	0.61	459505	0	173664	301420	459505	285841	4264	755	4415	492	196471	1307498	9926
362	2015-11-24 08:28:45	0	0	0	0	0	0	15.03	0.93	0.61	459544	0	173697	301420	459544	285847	4264	755	4416	492	196471	1307506	9927
363	2015-11-24 08:38:44	0	0	0	0	0	0	15.03	0.93	0.61	459544	0	173697	301420	459544	285847	4264	755	4416	492	196471	1307507	9927
364	2015-11-24 08:48:46	0	0	0	0	0	0	15.03	0.93	0.61	459605	0	173755	301420	459605	285850	4265	755	4417	492	196471	1307513	9929
365	2015-11-24 08:58:45	0	0	0	0	0	0	15.03	0.93	0.61	459605	0	173755	301420	459605	285850	4265	755	4417	492	196471	1307518	9929
366	2015-11-24 09:08:46	0	0	0	0	0	0	15.03	0.93	0.61	459660	0	173808	301420	459660	285852	4265	755	4418	492	196471	1307521	9930
367	2015-11-24 09:18:45	0	0	0	0	0	0	15.03	0.93	0.61	459660	0	173808	301420	459660	285852	4265	755	4418	492	196471	1307524	9930
368	2015-11-24 09:28:46	0	0	0	0	0	0	15.03	0.93	0.61	459714	0	173857	301420	459714	285857	4265	755	4419	492	196471	1307527	9931
369	2015-11-24 09:38:46	0	0	0	0	0	0	15.03	0.93	0.61	459743	0	173883	301420	459743	285860	4265	755	4419	492	196471	1307534	9931
370	2015-11-24 09:48:45	0	0	0	0	0	0	15.03	0.93	0.61	459743	0	173883	301420	459743	285860	4265	755	4419	492	196471	1307540	9931
371	2015-11-24 09:58:46	0	0	0	0	0	0	15.03	0.93	0.61	459809	0	173941	301655	459809	285868	4265	756	4420	492	196471	1307548	9933
372	2015-11-24 10:08:46	0	0	0	0	0	0	15.03	0.93	0.61	459809	0	173941	301655	459809	285868	4265	756	4420	492	196471	1307559	9933
373	2015-11-24 10:18:46	0	0	0	0	0	0	15.03	0.93	0.61	459877	0	173998	301655	459877	285879	4268	756	4421	492	196471	1307566	9937
374	2015-11-24 10:28:49	0	0	0	0	0	0	15.03	0.93	0.61	459913	0	174032	301655	459913	285881	4269	756	4422	492	196471	1307574	9939
375	2015-11-24 10:38:46	0	0	0	0	0	0	15.03	0.93	0.61	459913	0	174032	301655	459913	285881	4269	756	4422	492	196471	1307588	9939
376	2015-11-24 10:48:46	0	0	0	0	0	0	15.03	0.93	0.61	459971	0	174082	301655	459971	285889	4270	756	4423	492	196471	1307596	9941
377	2015-11-24 10:58:46	0	0	0	0	0	0	15.03	0.93	0.61	459997	0	174102	301655	459997	285895	4270	756	4424	492	196471	1307612	9942
378	2015-11-24 11:08:47	0	0	0	0	0	0	15.03	0.93	0.61	460021	0	174126	301655	460021	285895	4270	756	4425	492	196471	1307621	9943
379	2015-11-24 11:18:47	0	0	0	0	0	0	15.03	0.93	0.61	460021	0	174126	301655	460021	285895	4270	756	4425	492	196471	1307626	9943
380	2015-11-24 11:28:47	0	0	0	0	0	0	15.02	0.93	0.61	460061	0	174162	301655	460061	285899	4271	756	4425	492	196471	1307635	9944
381	2015-11-24 11:38:46	0	0	0	0	0	0	15.02	0.93	0.61	460061	0	174162	301655	460061	285899	4271	756	4425	492	196471	1307644	9944
382	2015-11-24 11:48:47	0	0	0	0	0	0	15.02	0.93	0.61	460119	0	174214	301655	460119	285905	4271	756	4427	493	196471	1307656	9947
383	2015-11-24 11:58:47	0	0	0	0	0	0	15.02	0.93	0.61	460119	0	174214	301655	460119	285905	4271	756	4427	493	196471	1307663	9947
384	2015-11-24 12:08:47	0	0	0	0	0	0	15.02	0.93	0.61	460171	0	174255	301655	460171	285916	4272	756	4427	495	196471	1307669	9950
385	2015-11-24 12:18:46	0	0	0	0	0	0	15.02	0.93	0.61	460171	0	174255	301655	460171	285916	4272	756	4427	495	196471	1307674	9950
386	2015-11-24 12:28:47	0	0	0	0	0	0	15.02	0.93	0.61	460236	0	174306	301655	460236	285930	4273	758	4427	496	196471	1307688	9954
387	2015-11-24 12:38:48	0	0	0	0	0	0	15.02	0.93	0.61	460242	0	174309	301655	460242	285933	4275	758	4427	496	196471	1307697	9956
388	2015-11-24 12:48:48	0	0	0	0	0	0	15.02	0.93	0.61	460273	0	174337	301655	460273	285936	4275	759	4431	496	196471	1307703	9961
389	2015-11-24 12:58:47	0	0	0	0	0	0	15.02	0.93	0.61	460273	0	174337	301655	460273	285936	4275	759	4431	496	196471	1307715	9961
390	2015-11-24 13:08:48	0	0	0	0	0	0	15.02	0.93	0.61	460339	0	174397	301655	460339	285942	4276	759	4433	496	196471	1307719	9964
391	2015-11-24 13:18:50	0	0	0	0	0	0	15.02	0.93	0.61	460387	0	174434	301655	460387	285953	4276	759	4434	496	196471	1307727	9965
392	2015-11-24 13:28:48	0	0	0	0	0	0	15.02	0.93	0.61	460387	0	174434	301655	460387	285953	4276	759	4434	496	196471	1307757	9965
393	2015-11-24 13:38:49	0	0	0	0	0	0	15.02	0.93	0.61	460435	0	174473	301655	460435	285962	4277	759	4435	497	196471	1307790	9968
394	2015-11-24 13:48:48	0	0	0	0	0	0	15.02	0.93	0.61	460435	0	174473	301655	460435	285962	4277	759	4435	497	196471	1307819	9968
395	2015-11-24 13:58:48	0	0	0	0	0	0	15.02	0.93	0.61	460491	0	174523	301655	460491	285968	4278	760	4436	498	196471	1307869	9972
396	2015-11-24 14:08:49	0	0	0	0	0	0	15.02	0.93	0.61	460529	0	174556	301655	460529	285973	4278	760	4437	498	196471	1307922	9973
397	2015-11-24 14:18:49	0	0	0	0	0	0	15.02	0.93	0.61	460529	0	174556	301655	460529	285973	4278	760	4437	498	196471	1307964	9973
398	2015-11-24 14:28:49	0	0	0	0	0	0	15.02	0.93	0.61	460572	0	174597	301655	460572	285975	4278	760	4438	498	196471	1308009	9974
399	2015-11-24 14:38:49	0	0	0	0	0	0	15.02	0.93	0.61	460610	0	174626	301655	460610	285984	4279	760	4439	498	196471	1308050	9976
400	2015-11-24 14:48:50	0	0	0	0	0	0	15.02	0.93	0.61	460623	0	174636	301655	460623	285987	4279	760	4439	498	196471	1308087	9976
401	2015-11-24 14:58:49	0	0	0	0	0	0	15.02	0.93	0.61	460623	0	174636	301655	460623	285987	4279	760	4439	498	196471	1308131	9976
402	2015-11-24 15:08:50	0	0	0	0	0	0	15.02	0.93	0.61	460698	0	174702	301655	460698	285996	4280	760	4440	499	196471	1308160	9979
403	2015-11-24 15:18:50	0	0	0	0	0	0	15.02	0.93	0.61	460698	0	174702	301655	460698	285996	4280	760	4440	499	196471	1308185	9979
404	2015-11-24 15:28:51	0	0	0	0	0	0	15.02	0.93	0.61	460769	0	174764	301714	460769	286005	4281	760	4440	499	196471	1308219	9980
405	2015-11-24 15:38:49	0	0	0	0	0	0	15.02	0.93	0.61	460769	0	174764	301714	460769	286005	4281	760	4440	499	196471	1308266	9980
406	2015-11-24 15:48:51	0	0	0	0	0	0	15.02	0.93	0.61	460827	0	174811	301714	460827	286016	4281	760	4441	499	196471	1308295	9981
407	2015-11-24 15:58:49	0	0	0	0	0	0	15.02	0.93	0.61	460827	0	174811	301714	460827	286016	4281	760	4441	499	196471	1308332	9981
408	2015-11-24 16:08:50	0	0	0	0	0	0	15.02	0.93	0.61	460896	0	174865	301714	460896	286031	4282	761	4443	501	196471	1308369	9987
409	2015-11-24 16:18:50	0	0	0	0	0	0	15.02	0.93	0.61	460896	0	174865	301714	460896	286031	4282	761	4443	501	196471	1308396	9987
410	2015-11-24 16:28:50	0	0	0	0	0	0	15.02	0.93	0.61	460959	0	174919	301714	460959	286040	4283	761	4443	501	196471	1308427	9988
411	2015-11-24 16:38:50	0	0	0	0	0	0	15.02	0.93	0.61	460959	0	174919	301714	460959	286040	4283	761	4443	501	196471	1308468	9988
412	2015-11-24 16:48:51	0	0	0	0	0	0	15.01	0.93	0.61	461010	0	174965	301714	461010	286045	4283	762	4444	501	196471	1308503	9990
413	2015-11-24 16:58:51	0	0	0	0	0	0	15.01	0.93	0.61	461026	0	174978	301714	461026	286048	4284	762	4445	501	196471	1308527	9992
414	2015-11-24 17:08:51	0	0	0	0	0	0	15.01	0.93	0.61	461070	0	175015	301714	461070	286055	4284	762	4446	501	196471	1308557	9993
415	2015-11-24 17:18:50	0	0	0	0	0	0	15.01	0.93	0.61	461070	0	175015	301714	461070	286055	4284	762	4446	501	196471	1308590	9993
416	2015-11-24 17:28:51	0	0	0	0	0	0	15.01	0.93	0.61	461131	0	175068	301714	461131	286063	4287	762	4448	502	196471	1308620	9999
417	2015-11-24 17:38:53	0	0	0	0	0	0	15.01	0.93	0.61	461151	0	175085	301714	461151	286066	4287	762	4449	502	196471	1308648	10000
418	2015-11-24 17:48:59	0	0	0	0	0	0	15.01	0.93	0.61	461171	0	175104	301714	461171	286067	4287	762	4449	502	196471	1308673	10000
419	2015-11-24 17:58:53	0	0	0	0	0	0	15.01	0.93	0.61	461171	0	175104	301714	461171	286067	4287	762	4449	502	196471	1308700	10000
420	2015-11-24 18:08:51	0	0	0	0	0	0	15.01	0.93	0.61	461234	0	175149	301714	461234	286085	4288	762	4449	502	196471	1308720	10001
421	2015-11-24 18:18:52	0	0	0	0	0	0	15.01	0.93	0.61	461244	0	175157	301714	461244	286087	4289	762	4449	502	196471	1308741	10002
422	2015-11-24 18:35:35	0	0	0	0	0	0	15.01	0.93	0.61	461286	0	175189	301714	461286	286097	4289	762	4451	502	196471	1308793	10004
423	2015-11-24 18:38:58	0	0	0	0	0	0	15.01	0.93	0.61	461286	0	175189	301714	461286	286097	4289	762	4451	502	196471	1308800	10004
424	2015-11-24 18:48:52	0	0	0	0	0	0	15.01	0.93	0.61	461312	0	175209	301714	461312	286103	4289	762	4451	502	196471	1308821	10004
425	2015-11-24 18:58:51	0	0	0	0	0	0	15.01	0.93	0.61	461312	0	175209	301714	461312	286103	4289	762	4451	502	196471	1308846	10004
426	2015-11-24 19:08:52	0	0	0	0	0	0	15.01	0.93	0.61	461356	0	175246	301890	461356	286110	4289	762	4451	502	196471	1308870	10004
427	2015-11-24 19:18:51	0	0	0	0	0	0	15.01	0.93	0.61	461356	0	175246	301890	461356	286110	4289	762	4451	502	196471	1308889	10004
428	2015-11-24 19:28:51	0	0	0	0	0	0	15.01	0.93	0.61	461390	0	175273	301890	461390	286117	4289	762	4452	503	196471	1308922	10006
429	2015-11-24 19:38:52	0	0	0	0	0	0	15.01	0.93	0.61	461407	0	175286	301890	461407	286121	4289	762	4452	503	196471	1308942	10006
430	2015-11-24 19:48:51	0	0	0	0	0	0	15.01	0.93	0.61	461407	0	175286	301890	461407	286121	4289	762	4452	503	196471	1308966	10006
431	2015-11-24 19:58:53	0	0	0	0	0	0	15.01	0.93	0.61	461462	0	175332	301890	461462	286130	4289	762	4452	503	196471	1308982	10006
