1	2016-05-05 07:33:13	0	0	0	0	0	0	0	0	0	0	0	0	0	0	0	0	0	0	0	0	1795809	0
2	2016-05-05 07:43:12	0	0	0	0	0	0	0.22	0.25	0	4354	0	0	3893	4354	4354	11	0	2	3	3887	1795818	0
3	2016-05-05 07:53:13	0	0	0	0	0	0	0.42	0.37	0	9088	0	2	7467	9088	9086	34	1	10	4	7458	1795830	49
4	2016-05-05 08:03:13	0	0	0	0	0	0	0.48	0.47	0	10861	0	2	8695	10861	10859	51	1	13	6	8692	1795844	71
5	2016-05-05 08:13:15	0	0	0	0	0	0	0.63	0.58	0	14218	0	6	11253	14218	14212	83	1	14	8	11229	1795847	106
6	2016-05-05 08:23:12	0	0	0	0	0	0	0.7	0.51	0	17191	0	10	13643	17191	17179	88	1	17	8	12554	1795861	114
7	2016-05-05 08:33:13	0	0	0	0	0	0	0.8	0.58	0	18511	0	17	14436	18511	18494	108	1	22	9	14339	1795874	140
8	2016-05-05 08:43:14	0	0	0	0	0	0	0.9	0.64	0	20891	0	24	16213	20891	20867	133	1	24	9	16124	1795892	167
9	2016-05-05 08:53:16	0	0	0	0	0	0	0.95	0.69	0	22158	0	31	17165	22158	22127	153	1	26	11	17030	1795909	191
10	2016-05-05 09:03:13	0	0	0	0	0	0	1.05	0.68	0	24690	0	36	18994	24690	24654	168	1	27	11	18928	1795924	207
11	2016-05-05 09:13:13	0	0	0	0	0	0	1.09	0.77	0	25635	0	40	19715	25635	25595	198	1	29	11	19644	1795948	239
12	2016-05-05 09:23:14	0	0	0	0	0	0	1.19	0.78	0	27922	0	44	21493	27922	27878	219	1	31	11	21459	1795970	262
13	2016-05-05 09:33:16	0	0	0	0	0	0	1.23	0.78	0	29120	0	44	22250	29120	29076	227	1	34	12	22173	1795989	274
14	2016-05-05 09:43:13	0	0	0	0	0	0	1.33	0.8	0	31502	0	50	24004	31502	31452	253	1	35	12	23873	1796008	301
15	2016-05-05 09:53:15	0	0	0	0	0	0	1.41	0.78	0	33764	0	56	25505	33764	33708	263	1	36	12	25324	1796020	312
16	2016-05-05 10:03:14	0	0	0	0	0	0	1.44	0.81	0	34844	0	61	26092	34844	34783	281	1	38	12	25930	1796032	332
17	2016-05-05 10:13:14	0	0	0	0	0	0	1.48	0.84	0	35950	0	61	26692	35950	35889	302	1	40	13	26522	1796044	356
18	2016-05-05 10:23:14	0	0	0	0	0	0	1.57	0.86	0	38336	0	68	28374	38336	38268	330	1	41	13	28183	1796059	385
19	2016-05-05 10:33:13	0	0	0	0	0	0	1.61	0.86	0	39639	0	73	29082	39639	39566	342	1	44	13	28882	1796071	400
20	2016-05-05 10:43:16	0	0	0	0	0	0	1.66	0.89	0	40804	0	74	29912	40804	40730	363	1	44	13	29755	1796087	421
21	2016-05-05 10:53:15	0	0	0	0	0	0	1.78	0.9	0	43434	0	83	32122	43434	43351	393	2	49	13	31941	1796098	457
22	2016-05-05 11:03:14	0	0	0	0	0	0	1.82	0.93	0	44533	0	91	32886	44533	44442	413	2	49	13	32696	1796113	477
23	2016-05-05 11:13:14	0	0	0	0	0	0	1.92	0.95	0	47151	0	103	34826	47151	47048	446	2	52	13	34565	1796126	513
24	2016-05-05 11:23:15	0	0	0	0	0	0	1.96	0.95	0	48222	0	104	35520	48222	48118	456	2	53	13	35201	1796136	524
25	2016-05-05 11:33:16	0	0	0	0	0	0	2.05	0.96	0	50678	0	125	37107	50678	50553	488	2	54	13	36758	1796151	557
26	2016-05-05 11:43:15	0	0	0	0	0	0	2.08	0.98	0	51592	0	129	37695	51592	51463	504	2	55	13	37335	1796164	574
27	2016-05-05 11:53:16	0	0	0	0	0	0	2.17	0.98	0	53908	0	143	39286	53908	53765	530	2	55	13	38919	1796182	600
28	2016-05-05 12:03:17	0	0	0	0	0	0	2.21	0.99	0	56073	0	149	40948	56073	55921	553	2	56	13	39742	1796190	624
29	2016-05-05 12:13:20	0	0	0	0	0	0	2.28	1	0	57168	0	155	41434	57168	57013	569	2	61	13	41026	1796211	645
30	2016-05-05 12:23:18	0	0	0	0	0	0	2.35	0.99	0	59008	0	163	42678	59008	58845	587	2	61	14	42255	1796218	664
31	2016-05-05 12:33:18	0	0	0	0	0	0	2.39	0.99	0	59922	0	167	43302	59922	59755	595	2	61	14	42866	1796235	672
32	2016-05-05 12:43:18	0	0	0	0	0	0	2.43	0.99	0	61492	0	175	44166	61492	61317	609	2	62	14	43713	1796246	687
33	2016-05-05 12:53:17	0	0	0	0	0	0	2.51	1	0	63095	0	187	45568	63095	62908	631	3	64	14	45170	1796260	712
34	2016-05-05 13:03:17	0	0	0	0	0	0	2.55	1.01	0	63881	0	193	46237	63881	63688	646	3	65	14	45827	1796271	728
35	2016-05-05 13:13:19	0	0	0	0	0	0	2.59	1	0	65652	0	199	47549	65652	65445	659	3	65	14	46455	1796282	741
36	2016-05-05 13:23:19	0	0	0	0	0	0	2.66	1.03	0	66457	0	210	48188	66457	66247	682	3	66	14	47726	1796293	765
37	2016-05-05 13:33:18	0	0	0	0	0	0	2.72	1.04	0	67990	0	225	49282	67990	67765	704	3	67	14	48799	1796308	788
38	2016-05-05 13:43:17	0	0	0	0	0	0	2.74	1.04	0	68799	0	227	49767	68799	68572	715	3	67	14	49274	1796346	799
39	2016-05-05 13:53:17	0	0	0	0	0	0	2.83	1.03	0	70491	0	240	51302	70491	70251	724	3	68	14	50792	1796363	809
40	2016-05-05 14:03:21	0	0	0	0	0	0	2.85	1.05	0	71247	0	243	51731	71247	71004	748	3	69	14	51239	1796370	834
41	2016-05-05 14:13:17	0	0	0	0	0	0	2.87	1.06	0	71955	0	248	52020	71955	71707	761	3	69	14	51549	1796385	847
42	2016-05-05 14:33:19	0	0	0	0	0	0	2.92	1.06	0	74049	0	265	52921	74049	73784	783	3	69	14	52491	1796425	869
43	2016-05-05 14:43:18	0	0	0	0	0	0	2.97	1.05	0	75475	0	270	53840	75475	75205	796	3	70	14	53395	1796446	883
44	2016-05-05 14:53:18	0	0	0	0	0	0	3.01	1.05	0	76238	0	276	54572	76238	75962	802	4	71	15	54115	1796462	892
45	2016-05-05 15:03:18	0	0	0	0	0	0	3.04	1.06	0	76992	0	280	54995	76992	76712	816	4	74	15	54531	1796477	909
46	2016-05-05 15:13:17	0	0	0	0	0	0	3.07	1.06	0	78193	0	289	55660	78193	77904	828	4	74	15	55185	1796493	921
47	2016-05-05 15:23:18	0	0	0	0	0	0	3.09	1.06	0	78853	0	295	55982	78853	78558	835	4	75	15	55501	1796507	929
48	2016-05-05 15:33:18	0	0	0	0	0	0	3.12	1.06	0	80129	0	299	56587	80129	79830	846	4	75	15	56112	1796520	940
49	2016-05-05 15:43:18	0	0	0	0	0	0	3.16	1.06	0	80720	0	304	57172	80720	80416	858	4	75	15	56687	1796541	952
50	2016-05-05 15:53:18	0	0	0	0	0	0	3.18	1.06	0	82011	0	310	57637	82011	81701	870	4	76	15	57145	1796558	965
51	2016-05-05 16:03:18	0	0	0	0	0	0	3.19	1.07	0	82491	0	313	57833	82491	82178	881	4	77	15	57337	1796571	977
52	2016-05-05 16:13:18	0	0	0	0	0	0	3.23	1.07	0	83392	0	319	58550	83392	83073	892	4	79	15	58042	1796589	990
53	2016-05-05 16:23:19	0	0	0	0	0	0	3.24	1.07	0	83938	0	325	58737	83938	83613	895	4	79	15	58226	1796605	993
54	2016-05-05 16:33:19	0	0	0	0	0	0	3.27	1.06	0	85004	0	331	59348	85004	84673	905	4	80	15	58826	1796617	1004
55	2016-05-05 16:43:18	0	0	0	0	0	0	3.3	1.07	0	85459	0	338	59868	85459	85121	911	4	82	15	59273	1796629	1012
56	2016-05-05 16:53:18	0	0	0	0	0	0	3.32	1.07	0	86289	0	344	60229	86289	85945	920	4	82	15	59627	1796643	1021
57	2016-05-05 17:03:19	0	0	0	0	0	0	3.33	1.07	0	86645	0	346	60352	86645	86299	927	4	82	15	59748	1796657	1028
58	2016-05-05 17:13:18	0	0	0	0	0	0	3.38	1.07	0	87547	0	349	61419	87547	87198	935	4	82	15	60793	1796673	1036
59	2016-05-05 17:23:19	0	0	0	0	0	0	3.39	1.07	0	87946	0	351	61534	87946	87595	938	4	83	15	60906	1796678	1040
60	2016-05-05 17:33:18	0	0	0	0	0	0	3.42	1.07	0	88851	0	358	62043	88851	88493	947	4	83	15	61434	1796689	1049
61	2016-05-05 17:43:19	0	0	0	0	0	0	3.43	1.06	0	89298	0	361	62226	89298	88937	950	4	83	15	61613	1796699	1052
62	2016-05-05 17:53:21	0	0	0	0	0	0	3.43	1.06	0	90107	0	367	62316	90107	89740	957	4	84	15	61702	1796714	1060
63	2016-05-05 18:03:19	0	0	0	0	0	0	3.45	1.06	0	90574	0	367	62590	90574	90207	963	4	84	15	61970	1796736	1066
64	2016-05-05 18:13:22	0	0	0	0	0	0	3.47	1.07	0	90973	0	370	62997	90973	90603	969	4	84	15	62369	1796749	1072
65	2016-05-05 18:23:21	0	0	0	0	0	0	3.49	1.07	0	91754	0	373	63403	91754	91381	979	4	84	15	62767	1796770	1082
66	2016-05-05 18:33:32	0	0	0	0	0	0	3.52	1.07	0	92589	0	375	63840	92589	92214	994	4	84	15	63195	1796788	1097
67	2016-05-05 18:43:18	0	0	0	0	0	0	3.53	1.07	0	92993	0	376	64008	92993	92617	997	4	84	15	63360	1796801	1100
68	2016-05-05 18:53:18	0	0	0	0	0	0	3.54	1.07	0	93469	0	377	64241	93469	93092	999	4	84	16	63588	1796811	1103
69	2016-05-05 19:03:19	0	0	0	0	0	0	3.57	1.07	0	94316	0	383	64868	94316	93933	1009	4	84	16	64074	1796827	1113
70	2016-05-05 19:13:19	0	0	0	0	0	0	3.58	1.07	0	95083	0	392	65094	95083	94691	1017	4	85	16	64295	1796842	1122
71	2016-05-05 19:23:19	0	0	0	0	0	0	3.59	1.07	0	95465	0	395	65376	95465	95070	1019	4	85	16	64571	1796857	1124
72	2016-05-05 19:33:19	0	0	0	0	0	0	3.61	1.07	0	96346	0	398	65730	96346	95948	1027	4	86	16	64916	1796873	1133
73	2016-05-05 19:43:19	0	0	0	0	0	0	3.63	1.07	0	96769	0	402	66117	96769	96367	1032	4	86	16	65293	1796878	1138
74	2016-05-05 19:53:27	0	0	0	0	0	0	3.66	1.06	0	97493	0	405	66533	97493	97088	1037	4	86	16	65699	1796897	1143
75	2016-05-05 20:03:29	0	0	0	0	0	0	3.67	1.06	0	97876	0	407	66717	97876	97469	1040	4	86	16	65878	1796905	1146
76	2016-05-05 20:13:29	0	0	0	0	0	0	3.7	1.06	0	98557	0	415	67272	98557	98142	1049	4	86	16	66419	1796911	1155
77	2016-05-05 20:23:29	0	0	0	0	0	0	3.72	1.06	0	99386	0	421	67695	99386	98965	1054	4	87	16	66832	1796932	1161
78	2016-05-05 20:33:29	0	0	0	0	0	0	3.72	1.06	0	99870	0	427	67772	99870	99443	1063	4	87	16	66907	1796946	1170
79	2016-05-05 20:43:28	0	0	0	0	0	0	3.74	1.06	0	100400	0	427	68076	100400	99973	1065	4	87	16	67203	1796953	1172
80	2016-05-05 20:53:30	0	0	0	0	0	0	3.77	1.06	0	101327	0	431	68714	101327	100896	1075	4	87	16	67777	1796966	1182
81	2016-05-05 21:03:30	0	0	0	0	0	0	3.79	1.06	0	101783	0	433	69029	101783	101350	1077	4	87	16	68084	1796977	1184
82	2016-05-05 21:13:29	0	0	0	0	0	0	3.83	1.06	0	102612	0	437	69603	102612	102175	1086	4	87	16	68740	1796984	1193
83	2016-05-05 21:23:30	0	0	0	0	0	0	3.84	1.05	0	103043	0	440	69905	103043	102603	1087	4	87	16	69033	1796996	1194
84	2016-05-05 21:33:30	0	0	0	0	0	0	3.88	1.05	0	103989	0	447	70677	103989	103542	1094	4	87	17	69786	1797002	1202
85	2016-05-05 21:43:32	0	0	0	0	0	0	3.91	1.05	0	104825	0	451	71102	104825	104374	1098	4	87	17	70201	1797014	1206
86	2016-05-05 21:53:30	0	0	0	0	0	0	3.92	1.04	0	105271	0	453	71318	105271	104818	1100	4	88	17	70412	1797024	1209
87	2016-05-05 22:03:31	0	0	0	0	0	0	3.94	1.04	0	105981	0	458	71639	105981	105523	1106	4	89	17	70725	1797034	1216
88	2016-05-05 22:13:31	0	0	0	0	0	0	3.97	1.04	0	106453	0	463	72211	106453	105990	1111	4	89	17	71281	1797045	1221
89	2016-05-05 22:23:31	0	0	0	0	0	0	3.99	1.04	0	106923	0	465	72558	106923	106458	1113	4	89	17	71619	1797056	1223
90	2016-05-05 22:33:31	0	0	0	0	0	0	4.02	1.04	0	107692	0	472	73134	107692	107220	1116	4	90	17	72181	1797072	1227
91	2016-05-05 22:43:30	0	0	0	0	0	0	4.04	1.04	0	108333	0	477	73607	108333	107856	1122	4	90	17	72642	1797097	1233
92	2016-05-05 22:53:31	0	0	0	0	0	0	4.07	1.03	0	109029	0	478	74096	109029	108551	1126	4	90	17	73174	1797119	1237
93	2016-05-05 23:03:34	0	0	0	0	0	0	4.08	1.03	0	109394	0	478	74244	109394	108916	1130	4	90	17	73401	1797134	1241
94	2016-05-05 23:13:31	0	0	0	0	0	0	4.12	1.03	0	110134	0	487	74893	110134	109647	1137	4	90	17	74007	1797150	1248
95	2016-05-05 23:23:31	0	0	0	0	0	0	4.13	1.03	0	110472	0	488	75064	110472	109984	1139	4	91	17	74173	1797160	1251
96	2016-05-05 23:33:31	0	0	0	0	0	0	4.14	1.03	0	111150	0	492	75347	111150	110658	1142	4	91	17	74450	1797176	1254
97	2016-05-05 23:43:31	0	0	0	0	0	0	4.17	1.03	0	111801	0	494	75841	111801	111307	1148	4	91	17	74933	1797189	1260
98	2016-05-05 23:53:31	0	0	0	0	0	0	4.18	1.02	0	112169	0	498	76018	112169	111671	1149	4	91	17	75105	1797204	1261
99	2016-05-06 00:03:31	0	0	0	0	0	0	4.19	1.02	0	112471	0	503	76179	112471	111968	1151	4	91	17	75262	1797215	1263
100	2016-05-06 00:13:30	0	0	0	0	0	0	4.22	1.02	0	113104	0	506	76760	113104	112598	1157	4	91	17	75830	1797222	1269
101	2016-05-06 00:23:30	0	0	0	0	0	0	4.25	1.02	0	113664	0	509	77235	113664	113155	1160	4	91	17	76293	1797233	1272
102	2016-05-06 00:33:30	0	0	0	0	0	0	4.25	1.02	0	113966	0	512	77475	113966	113454	1164	4	91	17	76436	1797240	1276
103	2016-05-06 00:43:20	0	0	0	0	0	0	4.26	1.02	0	114369	0	514	77672	114369	113855	1169	4	91	17	76628	1797252	1281
104	2016-05-06 00:53:20	0	0	0	0	0	0	4.28	1.02	0	114587	0	514	77938	114587	114073	1169	4	91	17	76887	1797262	1281
105	2016-05-06 01:03:21	0	0	0	0	0	0	4.29	1.02	0	114790	0	516	78087	114790	114274	1169	4	92	17	77032	1797264	1282
106	2016-05-06 01:13:20	0	0	0	0	0	0	4.3	1.02	0	115158	0	519	78399	115158	114639	1171	4	92	17	77336	1797269	1284
107	2016-05-06 01:23:20	0	0	0	0	0	0	4.31	1.02	0	115498	0	525	78543	115498	114973	1175	4	92	17	77475	1797277	1288
108	2016-05-06 01:33:20	0	0	0	0	0	0	4.31	1.02	0	115630	0	525	78620	115630	115105	1176	4	92	17	77551	1797279	1289
109	2016-05-06 01:43:20	0	0	0	0	0	0	4.32	1.02	0	115891	0	527	78732	115891	115364	1178	4	94	17	77660	1797287	1293
110	2016-05-06 01:53:20	0	0	0	0	0	0	4.34	1.02	0	116060	0	528	79053	116060	115532	1181	4	94	17	77972	1797291	1296
111	2016-05-06 02:03:20	0	0	0	0	0	0	4.34	1.02	0	116278	0	529	79085	116278	115749	1185	4	94	17	78003	1797629	1300
112	2016-05-06 02:13:20	0	0	0	0	0	0	4.34	1.02	0	116368	0	530	79085	116368	115838	1185	4	94	17	78003	1797631	1300
113	2016-05-06 02:23:20	0	0	0	0	0	0	4.35	1.02	0	116539	0	530	79278	116539	116009	1187	4	94	17	78191	1797640	1302
114	2016-05-06 02:33:20	0	0	0	0	0	0	4.36	1.02	0	116709	0	531	79499	116709	116178	1191	4	94	17	78406	1797641	1306
115	2016-05-06 02:43:22	0	0	0	0	0	0	4.36	1.02	0	116784	0	531	79532	116784	116253	1191	4	94	17	78438	1797645	1306
116	2016-05-06 02:53:20	0	0	0	0	0	0	4.37	1.02	0	116935	0	531	79745	116935	116404	1194	4	94	17	78645	1797647	1309
117	2016-05-06 03:03:21	0	0	0	0	0	0	4.38	1.02	0	117046	0	532	79869	117046	116514	1196	4	94	17	78765	1797648	1311
118	2016-05-06 03:13:20	0	0	0	0	0	0	4.38	1.02	0	117111	0	534	79869	117111	116577	1196	4	94	17	78765	1797651	1311
119	2016-05-06 03:23:21	0	0	0	0	0	0	4.39	1.02	0	117167	0	535	79968	117167	116632	1197	4	94	17	78862	1797653	1312
120	2016-05-06 03:33:20	0	0	0	0	0	0	4.39	1.02	0	117278	0	535	79992	117278	116743	1198	4	95	18	78886	1797656	1315
121	2016-05-06 03:43:20	0	0	0	0	0	0	4.39	1.02	0	117367	0	535	80075	117367	116832	1199	4	97	18	78966	1797659	1318
122	2016-05-06 03:53:20	0	0	0	0	0	0	4.39	1.02	0	117418	0	535	80075	117418	116883	1200	4	97	18	78966	1797660	1319
123	2016-05-06 04:03:20	0	0	0	0	0	0	4.39	1.02	0	117511	0	538	80075	117511	116973	1200	4	97	18	78966	1797661	1319
124	2016-05-06 04:13:20	0	0	0	0	0	0	4.39	1.02	0	117552	0	539	80075	117552	117013	1200	4	97	18	78966	1797663	1319
125	2016-05-06 04:23:20	0	0	0	0	0	0	4.4	1.02	0	117661	0	540	80141	117661	117121	1200	4	97	18	79030	1797663	1319
126	2016-05-06 04:33:20	0	0	0	0	0	0	4.4	1.02	0	117696	0	541	80141	117696	117155	1200	4	97	18	79030	1797665	1319
127	2016-05-06 04:43:20	0	0	0	0	0	0	4.41	1.02	0	117768	0	541	80141	117768	117227	1201	4	97	18	79257	1797666	1320
128	2016-05-06 04:53:23	0	0	0	0	0	0	4.42	1.02	0	117833	0	542	80274	117833	117291	1202	4	97	18	79387	1797668	1321
129	2016-05-06 05:03:20	0	0	0	0	0	0	4.42	1.02	0	117875	0	542	80324	117875	117333	1202	4	97	18	79436	1797669	1321
130	2016-05-06 05:13:20	0	0	0	0	0	0	4.42	1.02	0	117987	0	542	80349	117987	117445	1202	4	97	18	79460	1797669	1321
131	2016-05-06 05:23:20	0	0	0	0	0	0	4.42	1.02	0	118019	0	542	80349	118019	117477	1202	4	97	18	79460	1797668	1321
132	2016-05-06 05:33:21	0	0	0	0	0	0	4.42	1.02	0	118115	0	542	80349	118115	117573	1203	4	97	18	79460	1797669	1322
133	2016-05-06 05:43:22	0	0	0	0	0	0	4.42	1.02	0	118165	0	542	80399	118165	117623	1203	4	97	18	79509	1797671	1322
134	2016-05-06 05:53:23	0	0	0	0	0	0	4.42	1.02	0	118219	0	542	80399	118219	117677	1203	4	97	18	79509	1797672	1322
135	2016-05-06 06:03:20	0	0	0	0	0	0	4.42	1.02	0	118351	0	543	80399	118351	117808	1204	4	97	18	79509	1797672	1323
136	2016-05-06 06:13:20	0	0	0	0	0	0	4.43	1.02	0	118470	0	543	80466	118470	117927	1205	4	97	18	79575	1797672	1324
137	2016-05-06 06:23:20	0	0	0	0	0	0	4.43	1.02	0	118560	0	544	80483	118560	118016	1206	4	97	18	79591	1797672	1325
138	2016-05-06 06:33:21	0	0	0	0	0	0	4.43	1.02	0	118646	0	544	80483	118646	118102	1206	4	97	18	79591	1797676	1325
139	2016-05-06 06:43:20	0	0	0	0	0	0	4.43	1.02	0	118849	0	546	80483	118849	118303	1207	4	97	18	79591	1797676	1326
140	2016-05-06 06:53:20	0	0	0	0	0	0	4.43	1.02	0	119046	0	549	80483	119046	118497	1209	4	98	18	79591	1797678	1329
141	2016-05-06 07:03:21	0	0	0	0	0	0	4.43	1.02	0	119151	0	549	80516	119151	118602	1210	4	99	18	79624	1797677	1331
142	2016-05-06 07:13:20	0	0	0	0	0	0	4.43	1.01	0	119256	0	550	80516	119256	118706	1210	4	99	18	79624	1797679	1331
143	2016-05-06 07:23:21	0	0	0	0	0	0	4.44	1.01	0	119523	0	553	80680	119523	118970	1213	4	99	18	79755	1797686	1334
144	2016-05-06 07:33:24	0	0	0	0	0	0	4.45	1.01	0	119662	0	553	80983	119662	119109	1213	4	99	18	80052	1797688	1334
145	2016-05-06 07:43:22	0	0	0	0	0	0	4.46	1.01	0	119939	0	556	81145	119939	119383	1217	4	99	18	80209	1797689	1338
146	2016-05-06 07:53:22	0	0	0	0	0	0	4.47	1.01	0	120104	0	558	81305	120104	119546	1218	4	99	18	80365	1797697	1339
147	2016-05-06 08:03:22	0	0	0	0	0	0	4.49	1.01	0	120370	0	559	81574	120370	119811	1218	4	99	18	80629	1797706	1339
148	2016-05-06 08:13:22	0	0	0	0	0	0	4.49	1.01	0	120483	0	559	81656	120483	119924	1221	4	99	18	80709	1797705	1342
149	2016-05-06 08:23:23	0	0	0	0	0	0	4.5	1.01	0	120757	0	561	81824	120757	120196	1223	4	99	18	80873	1797707	1344
150	2016-05-06 08:33:22	0	0	0	0	0	0	4.5	1.01	0	120888	0	561	81824	120888	120327	1224	4	99	18	80873	1797711	1345
151	2016-05-06 08:43:25	0	0	0	0	0	0	4.51	1.01	0	121002	0	561	81954	121002	120441	1225	4	99	18	81000	1797720	1346
152	2016-05-06 08:53:22	0	0	0	0	0	0	4.51	1.01	0	121308	0	563	81954	121308	120745	1228	4	99	18	81000	1797728	1349
153	2016-05-06 09:03:24	0	0	0	0	0	0	4.51	1.01	0	121559	0	565	82111	121559	120994	1233	4	99	18	81153	1797735	1354
154	2016-05-06 09:13:22	0	0	0	0	0	0	4.52	1.01	0	121684	0	566	82181	121684	121118	1234	4	100	18	81221	1797747	1356
155	2016-05-06 09:23:22	0	0	0	0	0	0	4.52	1.01	0	121937	0	574	82251	121937	121363	1237	4	100	18	81290	1797749	1359
156	2016-05-06 09:33:22	0	0	0	0	0	0	4.53	1.01	0	122057	0	575	82356	122057	121482	1238	4	100	18	81392	1797755	1360
157	2016-05-06 09:43:25	0	0	0	0	0	0	4.53	1.01	0	122302	0	580	82439	122302	121722	1240	4	100	18	81474	1797758	1362
158	2016-05-06 09:53:23	0	0	0	0	0	0	4.54	1.01	0	122434	0	580	82571	122434	121854	1241	4	100	18	81602	1797764	1363
159	2016-05-06 10:03:24	0	0	0	0	0	0	4.54	1.01	0	122605	0	584	82597	122605	122021	1241	4	100	18	81628	1797774	1363
160	2016-05-06 10:13:23	0	0	0	0	0	0	4.54	1.01	0	122740	0	585	82597	122740	122155	1243	4	101	18	81628	1797782	1366
161	2016-05-06 10:23:23	0	0	0	0	0	0	4.55	1.01	0	122925	0	586	82765	122925	122339	1243	4	101	18	81792	1797786	1366
162	2016-05-06 10:33:23	0	0	0	0	0	0	4.55	1.01	0	123021	0	589	82792	123021	122432	1244	4	101	18	81818	1797794	1367
163	2016-05-06 10:43:25	0	0	0	0	0	0	4.57	1.01	0	123196	0	591	83094	123196	122605	1244	4	101	18	82113	1797801	1367
164	2016-05-06 10:53:27	0	0	0	0	0	0	4.57	1.01	0	123303	0	593	83112	123303	122710	1244	4	101	18	82131	1797808	1367
165	2016-05-06 11:03:24	0	0	0	0	0	0	4.57	1.01	0	123396	0	594	83183	123396	122802	1244	4	101	18	82200	1797824	1367
166	2016-05-06 11:13:30	0	0	0	0	0	0	4.58	1.01	0	123570	0	594	83255	123570	122976	1245	4	102	18	82270	1797838	1369
167	2016-05-06 11:23:26	0	0	0	0	0	0	4.58	1.01	0	123701	0	594	83326	123701	123107	1248	4	102	18	82340	1797844	1372
168	2016-05-06 11:33:25	0	0	0	0	0	0	4.58	1.01	0	123800	0	596	83344	123800	123204	1248	4	102	18	82358	1797854	1372
169	2016-05-06 11:43:24	0	0	0	0	0	0	4.58	1.01	0	123873	0	596	83344	123873	123277	1248	4	102	18	82358	1797863	1372
170	2016-05-06 11:53:25	0	0	0	0	0	0	4.61	1.01	0	124057	0	598	83795	124057	123459	1250	4	102	18	82798	1797871	1374
171	2016-05-06 12:03:24	0	0	0	0	0	0	4.62	1.01	0	124125	0	598	84014	124125	123527	1251	4	102	18	83011	1797886	1375
172	2016-05-06 12:13:26	0	0	0	0	0	0	4.62	1.01	0	124280	0	598	84050	124280	123682	1254	4	103	18	83047	1797881	1379
173	2016-05-06 12:23:27	0	0	0	0	0	0	4.63	1.01	0	124430	0	600	84380	124430	123830	1255	4	103	18	83315	1797877	1380
174	2016-05-06 12:34:08	0	0	0	0	0	0	4.64	1.01	0	124504	0	602	84472	124504	123902	1258	4	103	18	83459	1797877	1383
175	2016-05-06 12:44:09	0	0	0	0	0	0	4.64	1.01	0	124564	0	602	84472	124564	123962	1260	4	103	18	83459	1797878	1385
176	2016-05-06 12:53:54	0	0	0	0	0	0	4.65	1.01	0	124715	0	603	84583	124715	124112	1261	4	103	18	83567	1797897	1386
177	2016-05-06 13:03:34	0	0	0	0	0	0	4.65	1.01	0	124815	0	603	84694	124815	124212	1264	4	103	18	83675	1797906	1389
178	2016-05-06 13:13:30	0	0	0	0	0	0	4.66	1.01	0	124883	0	604	84733	124883	124279	1265	4	103	18	83713	1797914	1390
179	2016-05-06 13:23:50	0	0	0	0	0	0	4.66	1.01	0	124951	0	604	84872	124951	124347	1265	4	103	18	83849	1797917	1390
180	2016-05-06 13:33:37	0	0	0	0	0	0	4.66	1.01	0	125063	0	604	84872	125063	124459	1267	4	103	18	83849	1797919	1392
181	2016-05-06 13:43:32	0	0	0	0	0	0	4.68	1.01	0	125189	0	605	85115	125189	124584	1270	4	103	18	84086	1797920	1395
182	2016-05-06 13:53:36	0	0	0	0	0	0	4.68	1.01	0	125252	0	605	85190	125252	124647	1270	4	104	18	84159	1797930	1396
183	2016-05-06 14:03:26	0	0	0	0	0	0	4.69	1.01	0	125324	0	606	85340	125324	124718	1270	4	104	18	84306	1797940	1396
184	2016-05-06 14:13:25	0	0	0	0	0	0	4.69	1.01	0	125441	0	608	85340	125441	124833	1272	4	106	18	84306	1797946	1400
185	2016-05-06 14:23:25	0	0	0	0	0	0	4.69	1.02	0	125504	0	608	85340	125504	124896	1274	4	106	18	84306	1797952	1402
186	2016-05-06 14:33:26	0	0	0	0	0	0	4.69	1.01	0	125604	0	610	85387	125604	124994	1274	4	106	18	84351	1797956	1402
187	2016-05-06 14:43:26	0	0	0	0	0	0	4.7	1.01	0	125723	0	610	85519	125723	125113	1275	4	106	18	84480	1797958	1403
188	2016-05-06 14:53:25	0	0	0	0	0	0	4.7	1.02	0	125781	0	610	85613	125781	125171	1277	4	106	18	84573	1797965	1405
189	2016-05-06 15:03:26	0	0	0	0	0	0	4.7	1.02	0	125841	0	611	85613	125841	125230	1278	4	106	18	84573	1797969	1406
190	2016-05-06 15:13:25	0	0	0	0	0	0	4.71	1.02	0	125937	0	611	85763	125937	125326	1283	4	106	18	84718	1797978	1411
191	2016-05-06 15:23:26	0	0	0	0	0	0	4.71	1.02	0	125983	0	611	85801	125983	125372	1283	4	106	18	84755	1797986	1411
192	2016-05-06 15:33:26	0	0	0	0	0	0	4.72	1.02	0	126094	0	611	85834	126094	125483	1285	4	107	18	84788	1798004	1414
193	2016-05-06 15:43:26	0	0	0	0	0	0	4.72	1.02	0	126217	0	614	85948	126217	125603	1287	4	107	18	84900	1798019	1416
194	2016-05-06 15:53:29	0	0	0	0	0	0	4.72	1.02	0	126284	0	615	85967	126284	125669	1287	4	107	18	84918	1798032	1416
195	2016-05-06 16:03:29	0	0	0	0	0	0	4.72	1.02	0	126413	0	615	85967	126413	125798	1294	4	107	18	84918	1798035	1423
196	2016-05-06 16:13:26	0	0	0	0	0	0	4.72	1.02	0	126495	0	615	85967	126495	125880	1294	4	107	18	84918	1798052	1423
197	2016-05-06 16:23:29	0	0	0	0	0	0	4.72	1.02	0	126636	0	615	85967	126636	126021	1296	4	107	18	84918	1798062	1425
198	2016-05-06 16:33:27	0	0	0	0	0	0	4.72	1.02	0	126761	0	616	85967	126761	126145	1298	4	108	18	84918	1798084	1428
199	2016-05-06 16:43:27	0	0	0	0	0	0	4.72	1.02	0	126825	0	616	85967	126825	126209	1298	4	108	18	84918	1798091	1428
200	2016-05-06 16:53:29	0	0	0	0	0	0	4.73	1.02	0	126899	0	616	86039	126899	126283	1298	4	108	18	84988	1798101	1428
201	2016-05-06 17:03:27	0	0	0	0	0	0	4.73	1.02	0	127021	0	616	86058	127021	126405	1300	4	109	18	85007	1798114	1431
202	2016-05-06 17:13:26	0	0	0	0	0	0	4.73	1.02	0	127089	0	616	86135	127089	126473	1300	4	109	18	85082	1798119	1431
203	2016-05-06 17:23:29	0	0	0	0	0	0	4.73	1.02	0	127167	0	618	86135	127167	126549	1300	4	109	18	85082	1798123	1431
204	2016-05-06 17:33:31	0	0	0	0	0	0	4.74	1.02	0	127314	0	621	86288	127314	126693	1304	4	109	18	85231	1798129	1435
205	2016-05-06 17:43:28	0	0	0	0	0	0	4.74	1.02	0	127421	0	621	86288	127421	126800	1304	4	109	18	85231	1798140	1435
206	2016-05-06 17:53:38	0	0	0	0	0	0	4.74	1.02	0	127473	0	621	86288	127473	126852	1305	4	109	18	85231	1798164	1436
207	2016-05-06 18:03:27	0	0	0	0	0	0	4.75	1.02	0	127522	0	621	86403	127522	126901	1305	4	109	18	85343	1798177	1436
208	2016-05-06 18:13:28	0	0	0	0	0	0	4.75	1.02	0	127615	0	621	86403	127615	126994	1307	4	109	18	85343	1798191	1438
209	2016-05-06 18:23:28	0	0	0	0	0	0	4.75	1.02	0	127708	0	621	86403	127708	127087	1307	4	109	18	85343	1798199	1438
210	2016-05-06 18:33:27	0	0	0	0	0	0	4.75	1.02	0	127763	0	622	86403	127763	127141	1307	4	109	18	85343	1798209	1438
211	2016-05-06 18:43:27	0	0	0	0	0	0	4.75	1.02	0	127849	0	622	86403	127849	127227	1307	4	109	18	85343	1798216	1438
212	2016-05-06 18:53:27	0	0	0	0	0	0	4.75	1.02	0	127898	0	622	86403	127898	127276	1307	4	109	18	85343	1798225	1438
213	2016-05-06 19:03:27	0	0	0	0	0	0	4.75	1.02	0	127995	0	623	86403	127995	127372	1307	4	109	18	85343	1798240	1438
214	2016-05-06 19:13:28	0	0	0	0	0	0	4.75	1.02	0	128065	0	623	86412	128065	127442	1307	4	109	18	85352	1798248	1438
215	2016-05-06 19:23:27	0	0	0	0	0	0	4.75	1.02	0	128116	0	623	86412	128116	127493	1307	4	109	18	85352	1798255	1438
216	2016-05-06 19:33:30	0	0	0	0	0	0	4.75	1.02	0	128207	0	623	86490	128207	127584	1308	4	109	18	85428	1798263	1439
217	2016-05-06 19:43:28	0	0	0	0	0	0	4.75	1.02	0	128248	0	623	86490	128248	127625	1308	4	109	18	85428	1798277	1439
218	2016-05-06 19:53:28	0	0	0	0	0	0	4.75	1.02	0	128305	0	624	86490	128305	127681	1308	4	110	18	85428	1798287	1440
219	2016-05-06 20:03:51	0	0	0	0	0	0	4.76	1.02	0	128333	0	625	86606	128333	127708	1308	4	111	18	85541	1798299	1441
220	2016-05-06 20:13:54	0	0	0	0	0	0	4.76	1.02	0	128375	0	625	86606	128375	127750	1309	4	111	18	85541	1798316	1442
221	2016-05-06 20:23:51	0	0	0	0	0	0	4.76	1.02	0	128404	0	625	86606	128404	127779	1309	4	111	18	85541	1798328	1442
222	2016-05-06 20:33:48	0	0	0	0	0	0	4.76	1.02	0	128432	0	625	86625	128432	127807	1309	4	111	18	85560	1798341	1442
223	2016-05-06 20:43:50	0	0	0	0	0	0	4.76	1.02	0	128446	0	626	86625	128446	127820	1309	4	111	18	85560	1798357	1442
224	2016-05-06 20:53:47	0	0	0	0	0	0	4.76	1.02	0	128467	0	627	86625	128467	127840	1309	4	111	18	85560	1798372	1442
225	2016-05-06 21:03:48	0	0	0	0	0	0	4.76	1.02	0	128497	0	628	86703	128497	127869	1309	4	111	18	85636	1798386	1442
226	2016-05-06 21:13:47	0	0	0	0	0	0	4.76	1.02	0	128524	0	629	86749	128524	127895	1309	4	111	18	85681	1798401	1442
227	2016-05-06 21:23:48	0	0	0	0	0	0	4.76	1.02	0	128535	0	629	86749	128535	127906	1309	4	111	18	85681	1798417	1442
228	2016-05-06 21:33:47	0	0	0	0	0	0	4.76	1.02	0	128556	0	629	86749	128556	127927	1310	4	111	18	85681	1798434	1443
229	2016-05-06 21:43:47	0	0	0	0	0	0	4.76	1.02	0	128573	0	631	86749	128573	127942	1310	4	111	18	85681	1798455	1443
230	2016-05-06 21:53:48	0	0	0	0	0	0	4.76	1.02	0	128601	0	631	86749	128601	127970	1312	4	111	18	85681	1798468	1445
231	2016-05-06 22:03:50	0	0	0	0	0	0	4.76	1.02	0	128617	0	631	86749	128617	127986	1312	4	111	18	85681	1798479	1445
232	2016-05-06 22:13:48	0	0	0	0	0	0	4.76	1.02	0	128634	0	631	86749	128634	128003	1312	4	111	18	85681	1798494	1445
233	2016-05-06 22:23:48	0	0	0	0	0	0	4.76	1.02	0	128666	0	632	86749	128666	128034	1312	4	111	18	85681	1798512	1445
234	2016-05-06 22:33:47	0	0	0	0	0	0	4.76	1.02	0	128674	0	632	86749	128674	128042	1312	4	111	18	85681	1798523	1445
235	2016-05-06 22:43:48	0	0	0	0	0	0	4.77	1.02	0	128690	0	633	86827	128690	128057	1312	4	111	18	85757	1798537	1445
236	2016-05-06 22:53:48	0	0	0	0	0	0	4.77	1.02	0	128700	0	633	86827	128700	128067	1312	4	111	18	85757	1798554	1445
237	2016-05-06 23:03:47	0	0	0	0	0	0	4.77	1.02	0	128722	0	634	86827	128722	128088	1312	4	111	18	85757	1798571	1445
238	2016-05-06 23:13:48	0	0	0	0	0	0	4.77	1.02	0	128750	0	636	86827	128750	128114	1312	4	113	18	85757	1798590	1447
239	2016-05-06 23:23:48	0	0	0	0	0	0	4.77	1.02	0	128756	0	636	86934	128756	128120	1312	4	113	18	85861	1798606	1447
240	2016-05-06 23:33:47	0	0	0	0	0	0	4.77	1.02	0	128776	0	636	86934	128776	128140	1312	4	113	18	85861	1798617	1447
241	2016-05-06 23:43:48	0	0	0	0	0	0	4.77	1.02	0	128781	0	636	86934	128781	128145	1312	4	113	18	85861	1798626	1447
242	2016-05-06 23:53:48	0	0	0	0	0	0	4.77	1.02	0	128795	0	638	86934	128795	128157	1312	4	113	18	85861	1798640	1447
243	2016-05-07 00:03:48	0	0	0	0	0	0	4.77	1.02	0.01	128807	0	642	86934	128807	128165	1312	4	113	18	85861	1798652	1447
244	2016-05-07 00:13:47	0	0	0	0	0	0	4.77	1.02	0.01	128817	0	643	86934	128817	128174	1312	4	113	18	85861	1798664	1447
245	2016-05-07 00:23:48	0	0	0	0	0	0	4.77	1.02	0.01	128824	0	643	86934	128824	128181	1312	4	113	18	85861	1798681	1447
246	2016-05-07 00:33:48	0	0	0	0	0	0	4.78	1.02	0.01	128837	0	644	87002	128837	128193	1312	4	113	18	85928	1798696	1447
247	2016-05-07 00:43:49	0	0	0	0	0	0	4.78	1.02	0.01	128845	0	644	87002	128845	128201	1312	4	113	18	85928	1798714	1447
248	2016-05-07 00:53:29	0	0	0	0	0	0	4.78	1.02	0.01	128850	0	644	87002	128850	128206	1312	4	113	18	85928	1798721	1447
249	2016-05-07 01:03:30	0	0	0	0	0	0	4.78	1.02	0.01	128859	0	644	87002	128859	128215	1312	4	113	18	85928	1798725	1447
250	2016-05-07 01:13:29	0	0	0	0	0	0	4.78	1.02	0.01	128860	0	644	87002	128860	128216	1312	4	113	18	85928	1798735	1447
251	2016-05-07 01:23:29	0	0	0	0	0	0	4.78	1.02	0.01	128868	0	645	87002	128868	128223	1312	4	113	18	85928	1798740	1447
252	2016-05-07 01:33:29	0	0	0	0	0	0	4.78	1.02	0.01	128872	0	645	87002	128872	128227	1312	4	113	18	85928	1798753	1447
253	2016-05-07 01:43:30	0	0	0	0	0	0	4.78	1.02	0.01	128880	0	645	87002	128880	128235	1312	4	113	18	85928	1798759	1447
254	2016-05-07 01:53:29	0	0	0	0	0	0	4.78	1.02	0.01	128882	0	645	87002	128882	128237	1312	4	113	18	85928	1798766	1447
255	2016-05-07 02:03:31	0	0	0	0	0	0	4.77	1.02	0.01	128886	0	645	87002	128886	128241	1312	4	113	18	85928	1799934	1447
256	2016-05-07 02:13:30	0	0	0	0	0	0	4.77	1.02	0.01	128889	0	645	87002	128889	128244	1312	4	113	18	85928	1799937	1447
257	2016-05-07 02:23:29	0	0	0	0	0	0	4.77	1.02	0.01	128897	0	645	87002	128897	128252	1312	4	113	18	85928	1799939	1447
258	2016-05-07 02:33:29	0	0	0	0	0	0	4.78	1.02	0.01	128902	0	645	87032	128902	128257	1312	4	113	18	85957	1799937	1447
259	2016-05-07 02:43:29	0	0	0	0	0	0	4.78	1.02	0.01	128903	0	645	87032	128903	128258	1312	4	113	18	85957	1799938	1447
260	2016-05-07 02:53:29	0	0	0	0	0	0	4.78	1.02	0.01	128905	0	645	87032	128905	128260	1312	4	113	18	85957	1799944	1447
261	2016-05-07 03:03:28	0	0	0	0	0	0	4.78	1.02	0.01	128909	0	645	87032	128909	128264	1312	4	113	18	85957	1799946	1447
262	2016-05-07 03:13:28	0	0	0	0	0	0	4.78	1.02	0.01	128910	0	645	87032	128910	128265	1312	4	113	18	85957	1799947	1447
263	2016-05-07 03:23:29	0	0	0	0	0	0	4.78	1.02	0.01	128910	0	645	87032	128910	128265	1312	4	113	18	85957	1799948	1447
264	2016-05-07 03:33:31	0	0	0	0	0	0	4.78	1.02	0.01	128913	0	645	87032	128913	128268	1312	4	113	18	85957	1799951	1447
265	2016-05-07 03:43:28	0	0	0	0	0	0	4.78	1.02	0.01	128916	0	645	87032	128916	128271	1312	4	113	18	85957	1799956	1447
266	2016-05-07 03:53:28	0	0	0	0	0	0	4.78	1.02	0.01	128916	0	645	87032	128916	128271	1312	4	113	18	85957	1799957	1447
267	2016-05-07 04:03:30	0	0	0	0	0	0	4.78	1.02	0.01	128917	0	645	87032	128917	128272	1312	4	113	18	85957	1799961	1447
268	2016-05-07 04:13:28	0	0	0	0	0	0	4.78	1.02	0.01	128919	0	645	87032	128919	128274	1312	4	113	18	85957	1799960	1447
269	2016-05-07 04:23:29	0	0	0	0	0	0	4.78	1.02	0.01	128922	0	645	87032	128922	128277	1312	4	113	18	85957	1799960	1447
270	2016-05-07 04:33:28	0	0	0	0	0	0	4.78	1.02	0.01	128923	0	645	87032	128923	128278	1312	4	113	18	85957	1799960	1447
271	2016-05-07 04:43:28	0	0	0	0	0	0	4.78	1.02	0.01	128925	0	645	87032	128925	128280	1312	4	113	18	85957	1799960	1447
272	2016-05-07 04:53:28	0	0	0	0	0	0	4.78	1.02	0.01	128928	0	645	87032	128928	128283	1312	4	113	18	85957	1799961	1447
273	2016-05-07 05:03:29	0	0	0	0	0	0	4.78	1.02	0.01	128929	0	645	87032	128929	128284	1312	4	113	18	85957	1799962	1447
274	2016-05-07 05:13:28	0	0	0	0	0	0	4.78	1.02	0.01	128930	0	645	87032	128930	128285	1312	4	113	18	85957	1799961	1447
275	2016-05-07 05:23:29	0	0	0	0	0	0	4.78	1.02	0.01	128931	0	645	87032	128931	128286	1312	4	113	18	85957	1799963	1447
276	2016-05-07 05:33:28	0	0	0	0	0	0	4.78	1.02	0.01	128932	0	645	87032	128932	128287	1312	4	113	18	85957	1799963	1447
277	2016-05-07 05:43:29	0	0	0	0	0	0	4.78	1.02	0.01	128933	0	645	87032	128933	128288	1312	4	113	18	85957	1799963	1447
278	2016-05-07 05:53:29	0	0	0	0	0	0	4.78	1.02	0.01	128933	0	645	87032	128933	128288	1312	4	113	18	85957	1799965	1447
279	2016-05-07 06:03:29	0	0	0	0	0	0	4.78	1.02	0.01	128935	0	645	87032	128935	128290	1312	4	113	18	85957	1799965	1447
280	2016-05-07 06:13:29	0	0	0	0	0	0	4.78	1.02	0.01	128935	0	645	87032	128935	128290	1312	4	113	18	85957	1799966	1447
281	2016-05-07 06:23:30	0	0	0	0	0	0	4.78	1.02	0.01	128936	0	645	87032	128936	128291	1312	4	113	18	85957	1799968	1447
282	2016-05-07 06:33:29	0	0	0	0	0	0	4.78	1.02	0.01	128936	0	645	87032	128936	128291	1312	4	113	18	85957	1799968	1447
283	2016-05-07 06:43:29	0	0	0	0	0	0	4.78	1.02	0.01	128936	0	645	87032	128936	128291	1313	4	113	18	85957	1799969	1448
284	2016-05-07 06:53:28	0	0	0	0	0	0	4.78	1.02	0.01	128936	0	645	87032	128936	128291	1313	4	113	18	85957	1799973	1448
285	2016-05-07 07:03:30	0	0	0	0	0	0	4.78	1.02	0.01	128937	0	645	87032	128937	128292	1313	4	113	18	85957	1799976	1448
286	2016-05-07 07:13:30	0	0	0	0	0	0	4.78	1.02	0.01	128938	0	645	87032	128938	128293	1313	4	113	18	85957	1799982	1448
287	2016-05-07 07:23:29	0	0	0	0	0	0	4.78	1.02	0.01	128940	0	645	87032	128940	128295	1313	4	113	18	85957	1799985	1448
288	2016-05-07 07:33:29	0	0	0	0	0	0	4.78	1.02	0.01	128946	0	645	87032	128946	128301	1313	4	113	18	85957	1799988	1448
289	2016-05-07 07:43:29	0	0	0	0	0	0	4.78	1.02	0.01	128948	0	645	87032	128948	128303	1313	4	113	18	85957	1799994	1448
290	2016-05-07 07:53:30	0	0	0	0	0	0	4.78	1.02	0.01	128951	0	645	87032	128951	128306	1313	4	113	18	85957	1799997	1448
291	2016-05-07 08:03:30	0	0	0	0	0	0	4.78	1.02	0.01	128954	0	645	87032	128954	128309	1313	4	113	18	85957	1800001	1448
292	2016-05-07 08:13:32	0	0	0	0	0	0	4.78	1.02	0.01	128958	0	645	87091	128958	128313	1313	4	113	18	86014	1800009	1448
293	2016-05-07 08:23:33	0	0	0	0	0	0	4.78	1.02	0.01	128959	0	645	87091	128959	128314	1313	4	113	18	86014	1800016	1448
294	2016-05-07 08:33:31	0	0	0	0	0	0	4.78	1.02	0.01	128962	0	645	87091	128962	128317	1313	4	113	18	86014	1800023	1448
295	2016-05-07 08:43:30	0	0	0	0	0	0	4.78	1.02	0.01	128962	0	645	87091	128962	128317	1313	4	113	18	86014	1800027	1448
296	2016-05-07 08:53:32	0	0	0	0	0	0	4.78	1.02	0.01	128968	0	645	87091	128968	128323	1313	4	113	18	86014	1800038	1448
297	2016-05-07 09:03:31	0	0	0	0	0	0	4.78	1.02	0.01	128971	0	645	87091	128971	128326	1313	4	113	18	86014	1800041	1448
298	2016-05-07 09:13:32	0	0	0	0	0	0	4.78	1.02	0.01	128977	0	645	87091	128977	128332	1313	4	113	18	86014	1800051	1448
299	2016-05-07 09:23:30	0	0	0	0	0	0	4.78	1.02	0.01	128983	0	645	87091	128983	128338	1313	4	113	18	86014	1800063	1448
300	2016-05-07 09:33:30	0	0	0	0	0	0	4.78	1.02	0.01	128986	0	645	87091	128986	128341	1313	4	113	18	86014	1800077	1448
301	2016-05-07 09:43:31	0	0	0	0	0	0	4.78	1.02	0.01	128989	0	645	87091	128989	128344	1313	4	113	18	86014	1800087	1448
302	2016-05-07 09:53:32	0	0	0	0	0	0	4.78	1.02	0.01	128990	0	645	87091	128990	128345	1313	4	113	18	86014	1800094	1448
303	2016-05-07 10:03:32	0	0	0	0	0	0	4.78	1.02	0.01	128992	0	645	87091	128992	128347	1313	4	113	18	86014	1800108	1448
304	2016-05-07 10:13:31	0	0	0	0	0	0	4.78	1.02	0.01	128994	0	645	87091	128994	128349	1313	4	113	18	86014	1800121	1448
305	2016-05-07 10:23:32	0	0	0	0	0	0	4.78	1.02	0.01	128995	0	645	87091	128995	128350	1313	4	113	18	86014	1800124	1448
306	2016-05-07 10:33:31	0	0	0	0	0	0	4.78	1.02	0.01	129001	0	645	87091	129001	128356	1313	4	113	18	86014	1800135	1448
307	2016-05-07 10:43:30	0	0	0	0	0	0	4.78	1.02	0.01	129003	0	645	87091	129003	128358	1313	4	113	18	86014	1800155	1448
308	2016-05-07 10:53:31	0	0	0	0	0	0	4.78	1.02	0.01	129007	0	645	87091	129007	128362	1313	4	113	18	86014	1800171	1448
309	2016-05-07 11:03:32	0	0	0	0	0	0	4.78	1.02	0.01	129012	0	645	87091	129012	128367	1313	4	113	18	86014	1800181	1448
310	2016-05-07 11:13:32	0	0	0	0	0	0	4.78	1.02	0.01	129015	0	645	87159	129015	128370	1313	4	113	18	86081	1800198	1448
311	2016-05-07 11:23:34	0	0	0	0	0	0	4.78	1.02	0.01	129015	0	645	87159	129015	128370	1313	4	113	18	86081	1800205	1448
312	2016-05-07 11:33:32	0	0	0	0	0	0	4.79	1.02	0.01	129021	0	645	87159	129021	128376	1313	4	113	18	86158	1800224	1448
313	2016-05-07 11:43:31	0	0	0	0	0	0	4.79	1.02	0.01	129023	0	645	87159	129023	128378	1313	4	113	18	86158	1800237	1448
314	2016-05-07 11:53:33	0	0	0	0	0	0	4.79	1.02	0.01	129025	0	645	87159	129025	128380	1313	4	113	18	86158	1800251	1448
315	2016-05-07 12:03:31	0	0	0	0	0	0	4.79	1.02	0.01	129028	0	645	87159	129028	128383	1313	4	113	18	86158	1800251	1448
316	2016-05-07 12:13:31	0	0	0	0	0	0	4.79	1.02	0.01	129030	0	645	87159	129030	128385	1313	4	113	18	86158	1800265	1448
317	2016-05-07 12:23:33	0	0	0	0	0	0	4.79	1.02	0.01	129031	0	645	87159	129031	128386	1313	4	113	18	86158	1800275	1448
318	2016-05-07 12:33:32	0	0	0	0	0	0	4.79	1.02	0.01	129037	0	645	87159	129037	128392	1313	4	113	18	86158	1800285	1448
319	2016-05-07 12:43:33	0	0	0	0	0	0	4.79	1.02	0.01	129040	0	645	87159	129040	128395	1313	4	113	18	86158	1800308	1448
320	2016-05-07 12:53:33	0	0	0	0	0	0	4.79	1.02	0.01	129046	0	645	87159	129046	128401	1313	4	113	18	86158	1800326	1448
321	2016-05-07 13:03:33	0	0	0	0	0	0	4.79	1.02	0.01	129051	0	645	87159	129051	128406	1313	4	113	18	86158	1800328	1448
322	2016-05-07 13:13:32	0	0	0	0	0	0	4.79	1.02	0.01	129053	0	645	87159	129053	128408	1313	4	113	18	86158	1800343	1448
323	2016-05-07 13:23:34	0	0	0	0	0	0	4.79	1.02	0.01	129058	0	645	87159	129058	128413	1313	4	113	18	86158	1800354	1448
324	2016-05-07 13:33:35	0	0	0	0	0	0	4.79	1.02	0.01	129066	0	645	87159	129066	128421	1313	4	113	18	86158	1800368	1448
325	2016-05-07 13:43:34	0	0	0	0	0	0	4.79	1.02	0.01	129067	0	645	87159	129067	128422	1313	4	113	18	86158	1800381	1448
326	2016-05-07 13:53:34	0	0	0	0	0	0	4.79	1.02	0.01	129069	0	645	87159	129069	128424	1313	4	113	18	86158	1800395	1448
327	2016-05-07 14:03:34	0	0	0	0	0	0	4.79	1.02	0.01	129073	0	645	87159	129073	128428	1313	4	113	18	86158	1800411	1448
328	2016-05-07 14:13:33	0	0	0	0	0	0	4.79	1.02	0.01	129077	0	645	87159	129077	128432	1313	4	113	18	86158	1800426	1448
329	2016-05-07 14:23:35	0	0	0	0	0	0	4.79	1.02	0.01	129084	0	645	87159	129084	128439	1313	4	113	18	86158	1800436	1448
330	2016-05-07 14:33:34	0	0	0	0	0	0	4.79	1.02	0.01	129094	0	645	87159	129094	128449	1313	4	113	18	86158	1800446	1448
331	2016-05-07 14:43:34	0	0	0	0	0	0	4.79	1.02	0.01	129097	0	645	87159	129097	128452	1313	4	113	18	86158	1800459	1448
332	2016-05-07 14:53:33	0	0	0	0	0	0	4.79	1.02	0.01	129097	0	645	87159	129097	128452	1313	4	113	18	86158	1800471	1448
333	2016-05-07 15:03:35	0	0	0	0	0	0	4.79	1.02	0.01	129102	0	645	87159	129102	128457	1313	4	113	18	86158	1800489	1448
334	2016-05-07 15:13:36	0	0	0	0	0	0	4.79	1.02	0.01	129105	0	645	87159	129105	128460	1313	4	113	18	86158	1800502	1448
335	2016-05-07 15:23:33	0	0	0	0	0	0	4.79	1.02	0.01	129108	0	645	87159	129108	128463	1313	4	113	18	86158	1800515	1448
336	2016-05-07 15:33:33	0	0	0	0	0	0	4.79	1.02	0.01	129109	0	645	87159	129109	128464	1313	4	113	18	86158	1800526	1448
337	2016-05-07 15:43:33	0	0	0	0	0	0	4.79	1.02	0.01	129113	0	645	87159	129113	128468	1313	4	113	18	86158	1800537	1448
338	2016-05-07 15:53:34	0	0	0	0	0	0	4.79	1.02	0.01	129114	0	645	87159	129114	128469	1313	4	113	18	86158	1800551	1448
339	2016-05-07 16:03:34	0	0	0	0	0	0	4.79	1.02	0.01	129116	0	645	87159	129116	128471	1313	4	113	18	86158	1800558	1448
340	2016-05-07 16:13:34	0	0	0	0	0	0	4.79	1.02	0.01	129116	0	645	87159	129116	128471	1313	4	113	18	86158	1800574	1448
341	2016-05-07 16:23:34	0	0	0	0	0	0	4.79	1.02	0.01	129116	0	645	87159	129116	128471	1313	4	113	18	86158	1800579	1448
342	2016-05-07 16:33:34	0	0	0	0	0	0	4.78	1.02	0.01	129118	0	645	87159	129118	128473	1313	4	113	18	86158	1800591	1448
343	2016-05-07 16:43:34	0	0	0	0	0	0	4.78	1.02	0.01	129124	0	645	87159	129124	128479	1313	4	113	18	86158	1800606	1448
344	2016-05-07 16:53:34	0	0	0	0	0	0	4.78	1.02	0.01	129125	0	645	87159	129125	128480	1313	4	113	18	86158	1800619	1448
345	2016-05-07 17:03:35	0	0	0	0	0	0	4.79	1.02	0.01	129127	0	645	87196	129127	128482	1313	4	113	18	86194	1800636	1448
346	2016-05-07 17:13:35	0	0	0	0	0	0	4.79	1.02	0.01	129128	0	645	87196	129128	128483	1313	4	113	18	86194	1800650	1448
347	2016-05-07 17:23:34	0	0	0	0	0	0	4.79	1.02	0.01	129130	0	645	87275	129130	128485	1313	4	113	18	86194	1800666	1448
348	2016-05-07 17:33:35	0	0	0	0	0	0	4.79	1.02	0.01	129130	0	645	87275	129130	128485	1313	4	113	18	86194	1800677	1448
349	2016-05-07 17:43:34	0	0	0	0	0	0	4.79	1.02	0.01	129133	0	645	87275	129133	128488	1313	4	113	18	86194	1800703	1448
350	2016-05-07 17:53:34	0	0	0	0	0	0	4.79	1.02	0.01	129135	0	645	87275	129135	128490	1313	4	113	18	86194	1800716	1448
351	2016-05-07 18:03:35	0	0	0	0	0	0	4.79	1.02	0.01	129136	0	645	87275	129136	128491	1313	4	113	18	86194	1800732	1448
352	2016-05-07 18:13:35	0	0	0	0	0	0	4.79	1.02	0.01	129137	0	645	87275	129137	128492	1313	4	113	18	86194	1800747	1448
353	2016-05-07 18:23:36	0	0	0	0	0	0	4.79	1.02	0.01	129139	0	645	87275	129139	128494	1313	4	113	18	86194	1800768	1448
354	2016-05-07 18:33:35	0	0	0	0	0	0	4.79	1.02	0.01	129141	0	645	87275	129141	128496	1313	4	113	18	86194	1800780	1448
355	2016-05-07 18:43:35	0	0	0	0	0	0	4.79	1.02	0.01	129146	0	645	87275	129146	128501	1313	4	113	18	86194	1800801	1448
356	2016-05-07 18:53:35	0	0	0	0	0	0	4.79	1.02	0.01	129146	0	645	87275	129146	128501	1313	4	113	18	86194	1800814	1448
357	2016-05-07 19:03:36	0	0	0	0	0	0	4.79	1.02	0.01	129150	0	645	87275	129150	128505	1313	4	113	18	86194	1800836	1448
358	2016-05-07 19:13:36	0	0	0	0	0	0	4.79	1.02	0.01	129150	0	645	87275	129150	128505	1313	4	113	18	86194	1800858	1448
359	2016-05-07 19:23:36	0	0	0	0	0	0	4.79	1.02	0.01	129152	0	645	87275	129152	128507	1313	4	113	18	86194	1800868	1448
360	2016-05-07 19:33:36	0	0	0	0	0	0	4.79	1.02	0.01	129153	0	645	87275	129153	128508	1313	4	113	18	86194	1800879	1448
361	2016-05-07 19:43:36	0	0	0	0	0	0	4.79	1.02	0.01	129155	0	645	87275	129155	128510	1313	4	113	18	86194	1800894	1448
362	2016-05-07 19:53:39	0	0	0	0	0	0	4.79	1.02	0.01	129158	0	645	87275	129158	128513	1313	4	113	18	86194	1800909	1448
363	2016-05-07 20:03:37	0	0	0	0	0	0	4.79	1.02	0.01	129160	0	645	87275	129160	128515	1313	4	113	18	86194	1800925	1448
364	2016-05-07 20:13:39	0	0	0	0	0	0	4.79	1.02	0.01	129162	0	645	87275	129162	128517	1313	4	113	18	86194	1800929	1448
365	2016-05-07 20:24:06	0	0	0	0	0	0	4.79	1.02	0.01	129165	0	645	87275	129165	128520	1313	4	113	18	86194	1800942	1448
366	2016-05-07 20:34:03	0	0	0	0	0	0	4.79	1.02	0.01	129168	0	645	87275	129168	128523	1313	4	113	18	86194	1800959	1448
367	2016-05-07 20:44:02	0	0	0	0	0	0	4.79	1.02	0.01	129168	0	645	87275	129168	128523	1313	4	113	18	86194	1800974	1448
368	2016-05-07 20:54:02	0	0	0	0	0	0	4.79	1.02	0.01	129169	0	645	87275	129169	128524	1313	4	113	18	86194	1800998	1448
369	2016-05-07 21:04:04	0	0	0	0	0	0	4.79	1.02	0.01	129171	0	645	87275	129171	128526	1313	4	113	18	86194	1801015	1448
370	2016-05-07 21:14:03	0	0	0	0	0	0	4.79	1.02	0.01	129172	0	645	87275	129172	128527	1313	4	113	18	86194	1801034	1448
371	2016-05-07 21:24:04	0	0	0	0	0	0	4.79	1.02	0.01	129174	0	645	87275	129174	128529	1313	4	113	18	86194	1801057	1448
372	2016-05-07 21:34:04	0	0	0	0	0	0	4.79	1.02	0.01	129176	0	645	87275	129176	128531	1313	4	113	18	86194	1801071	1448
373	2016-05-07 21:44:06	0	0	0	0	0	0	4.79	1.02	0.01	129177	0	645	87275	129177	128532	1313	4	113	18	86194	1801093	1448
374	2016-05-07 21:54:05	0	0	0	0	0	0	4.79	1.02	0.01	129179	0	645	87275	129179	128534	1313	4	113	18	86194	1801112	1448
375	2016-05-07 22:04:05	0	0	0	0	0	0	4.79	1.02	0.01	129184	0	645	87275	129184	128539	1313	4	113	18	86194	1801140	1448
376	2016-05-07 22:14:05	0	0	0	0	0	0	4.79	1.02	0.01	129184	0	645	87275	129184	128539	1313	4	113	18	86194	1801164	1448
377	2016-05-07 22:24:05	0	0	0	0	0	0	4.79	1.02	0.01	129184	0	645	87275	129184	128539	1313	4	113	18	86194	1801175	1448
378	2016-05-07 22:34:04	0	0	0	0	0	0	4.79	1.02	0.01	129185	0	645	87275	129185	128540	1313	4	113	18	86194	1801198	1448
379	2016-05-07 22:44:05	0	0	0	0	0	0	4.79	1.02	0.01	129186	0	645	87275	129186	128541	1313	4	113	18	86194	1801213	1448
380	2016-05-07 22:54:06	0	0	0	0	0	0	4.79	1.02	0.01	129186	0	645	87275	129186	128541	1313	4	113	18	86194	1801229	1448
381	2016-05-07 23:04:09	0	0	0	0	0	0	4.79	1.02	0.01	129189	0	645	87275	129189	128544	1313	4	113	18	86194	1801247	1448
382	2016-05-07 23:14:05	0	0	0	0	0	0	4.79	1.02	0.01	129191	0	645	87275	129191	128546	1313	4	113	18	86194	1801257	1448
383	2016-05-07 23:24:06	0	0	0	0	0	0	4.79	1.02	0.01	129192	0	645	87275	129192	128547	1313	4	113	18	86194	1801277	1448
384	2016-05-07 23:34:05	0	0	0	0	0	0	4.79	1.02	0.01	129197	0	645	87275	129197	128552	1313	4	113	18	86194	1801297	1448
385	2016-05-07 23:44:04	0	0	0	0	0	0	4.79	1.02	0.01	129198	0	645	87275	129198	128553	1313	4	113	18	86194	1801329	1448
386	2016-05-07 23:54:05	0	0	0	0	0	0	4.78	1.02	0.01	129199	0	645	87275	129199	128554	1313	4	113	18	86194	1801344	1448
387	2016-05-08 00:04:08	0	0	0	0	0	0	4.78	1.02	0.01	129200	0	645	87275	129200	128555	1313	4	113	18	86194	1801353	1448
388	2016-05-08 00:14:06	0	0	0	0	0	0	4.78	1.02	0.01	129201	0	645	87275	129201	128556	1313	4	113	18	86194	1801377	1448
389	2016-05-08 00:24:05	0	0	0	0	0	0	4.78	1.02	0.01	129202	0	645	87275	129202	128557	1313	4	113	18	86194	1801400	1448
390	2016-05-08 00:34:07	0	0	0	0	0	0	4.78	1.02	0.01	129203	0	645	87275	129203	128558	1313	4	113	18	86194	1801425	1448
391	2016-05-08 00:44:05	0	0	0	0	0	0	4.78	1.02	0.01	129204	0	645	87275	129204	128559	1313	4	113	18	86194	1801438	1448
392	2016-05-08 00:54:04	0	0	0	0	0	0	4.78	1.02	0.01	129208	0	645	87275	129208	128563	1313	4	113	18	86194	1801459	1448
393	2016-05-08 01:03:37	0	0	0	0	0	0	4.78	1.02	0.01	129208	0	645	87275	129208	128563	1313	4	113	18	86194	1801481	1448
394	2016-05-08 01:13:37	0	0	0	0	0	0	4.78	1.02	0.01	129208	0	645	87275	129208	128563	1313	4	113	18	86194	1801502	1448
395	2016-05-08 01:23:37	0	0	0	0	0	0	4.78	1.02	0.01	129211	0	645	87275	129211	128566	1313	4	113	18	86194	1801511	1448
396	2016-05-08 01:33:38	0	0	0	0	0	0	4.78	1.02	0.01	129213	0	645	87275	129213	128568	1313	4	113	18	86194	1801520	1448
397	2016-05-08 01:43:39	0	0	0	0	0	0	4.78	1.02	0.01	129213	0	645	87275	129213	128568	1313	4	113	18	86194	1801529	1448
398	2016-05-08 01:53:37	0	0	0	0	0	0	4.78	1.02	0.01	129214	0	645	87275	129214	128569	1313	4	113	18	86194	1801542	1448
399	2016-05-08 02:03:39	0	0	0	0	0	0	4.78	1.02	0.01	129215	0	645	87275	129215	128570	1313	4	113	18	86194	1802094	1448
400	2016-05-08 02:13:37	0	0	0	0	0	0	4.78	1.02	0.01	129217	0	645	87275	129217	128572	1313	4	113	18	86194	1802105	1448
401	2016-05-08 02:23:38	0	0	0	0	0	0	4.78	1.02	0.01	129217	0	645	87275	129217	128572	1313	4	113	18	86194	1802114	1448
