1	2017-03-20 10:05:11	0	0	0	0	0	0	0.77	1.13	0	23996	1	79	21712	23996	23917	272	20	93	7	21625	2803145	392
2	2017-03-20 10:16:20	0	0	0	0	0	0	1.4	1.55	0.01	46724	1	509	39508	46724	46215	725	46	179	9	39316	2803172	959
3	2017-03-20 10:28:11	0	0	0	0	0	0	1.96	1.72	0.02	66361	1	1048	55747	66361	65313	1142	64	245	10	54924	2803214	1461
4	2017-03-20 10:56:50	0	0	0	0	0	0	3.23	1.92	0.03	116146	1	3058	93770	116146	113088	2231	100	375	14	90669	2803320	2720
5	2017-03-20 11:08:36	0	0	0	0	0	0	3.78	1.98	0.03	137503	1	4095	109758	137503	133408	2718	106	415	17	105945	2803354	3256
6	2017-03-20 11:24:13	0	0	0	0	0	0	4.13	2.01	0.03	155046	1	5070	119846	155046	149976	3114	112	466	19	115772	2803393	3711
7	2017-03-20 11:34:10	0	0	0	0	0	0	4.35	2.04	0.04	164798	1	5660	126292	164798	159138	3366	118	485	20	121987	2803418	3989
8	2017-03-20 11:47:26	0	0	0	0	0	0	4.55	2.07	0.04	172871	1	6254	132278	172871	166617	3584	124	510	21	127673	2803457	4239
9	2017-03-20 11:57:35	0	0	0	0	0	0	4.77	2.1	0.04	180258	1	6809	138820	180258	173449	3787	128	529	22	133648	2803490	4466
10	2017-03-20 12:27:05	0	0	0	0	0	0	5.24	2.15	0.04	198692	1	8161	153265	198692	190531	4270	136	567	23	146781	2803566	4996
11	2017-03-20 12:37:17	0	0	0	0	0	0	5.31	2.16	0.04	203159	1	8527	155207	203159	194632	4388	140	572	23	148947	2803600	5123
12	2017-03-20 12:53:12	0	0	0	0	0	0	5.44	2.18	0.05	208728	1	9081	159381	208728	199647	4550	146	592	23	152535	2803635	5311
13	2017-03-20 13:24:02	0	0	0	0	0	0	5.68	2.19	0.05	220596	1	10183	168230	220596	210413	4841	158	621	23	159168	2803698	5643
14	2017-03-20 13:34:01	0	0	0	0	0	0	5.75	2.2	0.05	224249	1	10501	170457	224249	213748	4933	168	629	25	161160	2803735	5755
15	2017-03-20 13:49:02	0	0	0	0	0	0	5.89	2.21	0.05	229326	1	11046	173952	229326	218280	5058	172	646	25	165055	2803795	5901
16	2017-03-20 14:02:15	0	0	0	0	0	0	5.94	2.21	0.05	232713	1	11388	175507	232713	221325	5135	174	660	25	166616	2803844	5994
17	2017-03-20 14:13:30	0	0	0	0	0	0	6.02	2.23	0.05	235620	1	11877	177881	235620	223903	5256	180	664	25	168828	2803880	6125
18	2017-03-20 14:24:41	0	0	0	0	0	0	6.12	2.21	0.05	240414	1	12194	181186	240414	228220	5324	182	668	25	171545	2803911	6199
19	2017-03-20 14:49:07	0	0	0	0	0	0	6.26	2.21	0.05	248891	1	12858	185821	248891	236033	5502	188	681	26	175408	2804001	6397
20	2017-03-20 14:58:29	0	0	0	0	0	0	6.3	2.21	0.05	250603	1	12979	187101	250603	237624	5538	188	688	26	176709	2804046	6440
21	2017-03-20 15:09:46	0	0	0	0	0	0	6.39	2.22	0.06	254539	1	13356	189761	254539	241183	5640	192	700	26	179246	2804085	6558
22	2017-03-20 15:19:53	0	0	0	0	0	0	6.45	2.22	0.06	256964	1	13552	191534	256964	243412	5704	194	701	26	180827	2804121	6625
23	2017-03-20 15:31:20	0	0	0	0	0	0	6.52	2.22	0.06	259482	1	13778	193672	259482	245704	5752	204	709	26	182948	2804146	6691
24	2017-03-20 15:41:11	0	0	0	0	0	0	6.55	2.21	0.06	262172	1	14006	194433	262172	248166	5804	204	716	26	183670	2804182	6750
25	2017-03-20 15:58:42	0	0	0	0	0	0	6.63	2.21	0.06	266194	1	14404	197723	266194	251790	5881	208	728	26	186020	2804236	6843
26	2017-03-20 16:36:34	0	0	0	0	0	0	6.75	2.22	0.06	274970	1	15281	201469	274970	259689	6107	218	750	26	189292	2804411	7101
27	2017-03-20 16:48:22	0	0	0	0	0	0	6.8	2.22	0.06	277130	1	15470	203440	277130	261660	6153	220	753	26	190808	2804463	7152
28	2017-03-20 17:03:59	0	0	0	0	0	0	6.88	2.22	0.06	280584	1	15842	205786	280584	264819	6237	220	760	26	192871	2804528	7243
29	2017-03-20 17:17:52	0	0	0	0	0	0	6.91	2.22	0.06	283329	1	16010	206900	283329	267319	6280	224	766	26	193849	2804588	7296
30	2017-03-20 17:30:05	0	0	0	0	0	0	6.97	2.22	0.06	286153	1	16314	207984	286153	269839	6353	228	771	26	195489	2804637	7378
31	2017-03-20 18:01:50	0	0	0	0	0	0	7.04	2.21	0.06	292224	1	16929	209801	292224	275295	6467	236	786	26	197433	2804712	7515
32	2017-03-20 18:14:40	0	0	0	0	0	0	7.08	2.21	0.06	294877	1	17191	210539	294877	277686	6518	238	795	26	198544	2804729	7577
33	2017-03-20 18:25:35	0	0	0	0	0	0	7.11	2.21	0.06	296785	1	17432	211977	296785	279353	6549	242	802	26	199413	2804743	7619
34	2017-03-20 18:50:23	0	0	0	0	0	0	7.23	2.19	0.06	301702	1	17917	216222	301702	283785	6621	244	816	27	202660	2804783	7708
35	2017-03-20 19:01:48	0	0	0	0	0	0	7.25	2.19	0.06	303619	1	18087	216486	303619	285532	6664	244	821	27	203212	2804812	7756
36	2017-03-20 19:44:41	0	0	0	0	0	0	7.44	2.18	0.06	313081	1	18961	222423	313081	294120	6833	254	847	27	208810	2804942	7961
37	2017-03-20 20:00:06	0	0	0	0	0	0	7.56	2.18	0.06	316529	1	19253	226137	316529	297276	6897	262	855	27	211949	2804981	8041
38	2017-03-20 20:44:37	0	0	0	0	0	0	7.72	2.17	0.07	325556	1	20486	231763	325556	305070	7067	276	871	27	216436	2805097	8241
39	2017-03-20 20:56:15	0	0	0	0	0	0	7.73	2.17	0.07	327398	1	20725	232197	327398	306673	7098	278	874	27	216906	2805128	8277
40	2017-03-20 21:14:46	0	0	0	0	0	0	7.76	2.16	0.07	330710	1	21215	233268	330710	309495	7155	280	880	27	217794	2805178	8342
41	2017-03-20 21:27:22	0	0	0	0	0	0	7.78	2.16	0.07	332467	1	21466	233761	332467	311001	7185	282	885	27	218224	2805223	8379
42	2017-03-20 21:52:51	0	0	0	0	0	0	7.86	2.16	0.07	336927	1	22051	236601	336927	314876	7264	286	897	27	220509	2805324	8474
43	2017-03-20 22:14:34	0	0	0	0	0	0	8	2.15	0.07	341246	1	22600	240535	341246	318646	7330	294	906	27	224441	2805394	8557
44	2017-03-20 22:26:24	0	0	0	0	0	0	8.03	2.15	0.07	343017	1	22817	241576	343017	320200	7366	300	911	27	225413	2805463	8604
45	2017-03-20 23:18:38	0	0	0	0	0	0	8.23	2.13	0.07	351608	1	23673	247094	351608	327935	7504	308	936	28	230896	2805689	8776
46	2017-03-20 23:30:56	0	0	0	0	0	0	8.27	2.13	0.07	353817	1	23871	248452	353817	329946	7539	314	940	28	232082	2805732	8821
47	2017-03-20 23:41:11	0	0	0	0	0	0	8.29	2.13	0.07	355137	1	23971	249232	355137	331166	7556	314	942	28	232622	2805759	8840
48	2017-03-21 00:31:59	0	0	0	0	0	0	8.4	2.12	0.07	360142	1	24358	251514	360142	335784	7647	316	952	28	235681	2805878	8943
49	2017-03-21 01:44:28	0	0	0	0	0	0	8.51	2.12	0.07	364083	1	24619	254960	364083	339464	7720	320	958	28	238925	2806065	9026
50	2017-03-21 02:51:23	0	0	0	0	0	0	8.54	2.12	0.07	365872	1	24727	255618	365872	341145	7751	320	959	28	239502	2806085	9058
51	2017-03-21 04:05:38	0	0	0	0	0	0	8.56	2.12	0.07	366987	1	24804	256507	366987	342183	7770	320	960	28	240283	2806091	9078
52	2017-03-21 05:27:18	0	0	0	0	0	0	8.58	2.12	0.07	368159	1	24904	257178	368159	343255	7792	318	960	28	240872	2806105	9098
53	2017-03-21 07:07:10	0	0	0	0	0	0	8.64	2.11	0.07	371556	1	25228	259460	371556	346328	7847	320	970	28	242567	2806187	9165
54	2017-03-21 07:37:42	0	0	0	0	0	0	8.67	2.11	0.07	373455	1	25415	260398	373455	348040	7881	324	973	28	243387	2806224	9206
55	2017-03-21 07:57:24	0	0	0	0	0	0	8.73	2.11	0.07	374784	1	25577	262251	374784	349207	7906	330	980	28	245005	2806242	9244
56	2017-03-21 08:08:03	0	0	0	0	0	0	8.74	2.11	0.07	375568	1	25650	262827	375568	349918	7917	330	984	28	245355	2806257	9259
57	2017-03-21 09:03:25	0	0	0	0	0	0	8.82	2.11	0.07	380077	1	26118	265234	380077	353959	8006	334	1003	28	247532	2806330	9371
58	2017-03-21 09:15:02	0	0	0	0	0	0	8.83	2.11	0.07	380941	1	26196	266032	380941	354745	8034	334	1006	28	247928	2806346	9402
59	2017-03-21 09:25:14	0	0	0	0	0	0	8.89	2.11	0.07	381743	1	26281	267686	381743	355462	8051	334	1008	28	249365	2806363	9421
60	2017-03-21 09:40:37	0	0	0	0	0	0	8.92	2.11	0.07	383404	1	26444	268470	383404	356960	8092	336	1011	28	250206	2806392	9467
61	2017-03-21 10:25:35	0	0	0	0	0	0	8.99	2.12	0.07	386287	1	26715	271316	386287	359572	8173	336	1015	29	252183	2806459	9553
62	2017-03-21 10:35:34	0	0	0	0	0	0	9	2.12	0.07	386773	1	26779	272127	386773	359783	8184	338	1015	29	252676	2806470	9566
63	2017-03-21 10:45:32	0	0	0	0	0	0	9.01	2.12	0.07	387021	1	26830	272127	387021	360213	8203	340	1015	29	252759	2806491	9587
64	2017-03-21 10:55:35	0	0	0	0	0	0	9.01	2.12	0.07	387454	1	26895	272318	387454	360594	8213	342	1016	29	252924	2806510	9600
65	2017-03-21 11:05:36	0	0	0	0	0	0	9.02	2.12	0.07	387857	1	26949	272558	387857	361087	8227	342	1017	29	253131	2806535	9615
66	2017-03-21 11:15:35	0	0	0	0	0	0	9.02	2.12	0.07	388219	1	27001	272918	388219	361242	8237	342	1017	29	253131	2806555	9625
67	2017-03-21 11:25:37	0	0	0	0	0	0	9.03	2.12	0.07	388589	1	27037	272918	388589	361568	8252	346	1018	29	253525	2806574	9645
68	2017-03-21 11:35:37	0	0	0	0	0	0	9.03	2.12	0.07	389113	1	27098	272918	389113	362015	8262	346	1019	29	253525	2806601	9656
69	2017-03-21 11:45:37	0	0	0	0	0	0	9.03	2.12	0.07	389438	1	27139	272918	389438	362299	8265	348	1019	29	253525	2806625	9661
70	2017-03-21 11:55:37	0	0	0	0	0	0	9.03	2.12	0.08	389607	1	27198	272918	389607	362439	8275	348	1019	29	253525	2806654	9671
71	2017-03-21 12:05:39	0	0	0	0	0	0	9.03	2.12	0.08	389947	1	27226	273497	389947	362721	8278	348	1020	29	253525	2806680	9675
72	2017-03-21 12:15:37	0	0	0	0	0	0	9.04	2.12	0.08	390209	1	27274	273787	390209	362935	8284	350	1021	29	253774	2806699	9684
73	2017-03-21 12:25:38	0	0	0	0	0	0	9.04	2.12	0.08	390467	1	27321	273787	390467	363146	8292	350	1021	29	253774	2806727	9692
74	2017-03-21 12:35:38	0	0	0	0	0	0	9.04	2.12	0.08	390791	1	27368	273787	390791	363423	8300	350	1021	29	253774	2806750	9700
75	2017-03-21 12:45:38	0	0	0	0	0	0	9.05	2.12	0.08	391054	1	27417	273981	391054	363637	8308	350	1022	29	253941	2806776	9709
76	2017-03-21 12:55:41	0	0	0	0	0	0	9.05	2.12	0.08	391335	1	27474	273981	391335	363861	8313	350	1023	29	253941	2806817	9715
77	2017-03-21 13:05:39	0	0	0	0	0	0	9.06	2.13	0.08	391615	1	27532	274370	391615	364083	8331	350	1023	29	254274	2806837	9733
78	2017-03-21 13:15:40	0	0	0	0	0	0	9.06	2.13	0.08	391903	1	27580	274467	391903	364323	8342	350	1024	29	254358	2806865	9745
79	2017-03-21 13:25:41	0	0	0	0	0	0	9.07	2.13	0.08	392157	1	27621	275394	392157	364536	8350	350	1024	29	254525	2806894	9753
80	2017-03-21 13:35:40	0	0	0	0	0	0	9.07	2.13	0.08	392371	1	27667	275541	392371	364704	8360	350	1024	29	254525	2806924	9763
81	2017-03-21 13:45:41	0	0	0	0	0	0	9.08	2.13	0.08	392583	1	27701	275836	392583	364882	8369	350	1025	29	254776	2806956	9773
82	2017-03-21 13:55:42	0	0	0	0	0	0	9.08	2.13	0.08	392795	1	27744	275836	392795	365051	8375	350	1025	29	254776	2806987	9779
83	2017-03-21 14:05:43	0	0	0	0	0	0	9.09	2.13	0.08	393004	1	27780	276230	393004	365224	8385	350	1026	30	255112	2807023	9791
84	2017-03-21 14:15:43	0	0	0	0	0	0	9.09	2.13	0.08	393222	1	27811	276230	393222	365411	8391	350	1027	30	255112	2807050	9798
85	2017-03-21 14:25:44	0	0	0	0	0	0	9.09	2.13	0.08	393453	1	27856	276230	393453	365597	8399	350	1027	30	255112	2807081	9806
86	2017-03-21 14:35:44	0	0	0	0	0	0	9.09	2.14	0.08	393663	1	27888	276230	393663	365775	8415	350	1027	30	255112	2807108	9822
87	2017-03-21 14:45:42	0	0	0	0	0	0	9.09	2.14	0.08	393902	1	27932	276427	393902	365970	8420	352	1028	30	255280	2807146	9830
88	2017-03-21 14:55:47	0	0	0	0	0	0	9.09	2.14	0.08	394161	1	27973	276816	394161	366188	8423	352	1028	30	255280	2807186	9833
89	2017-03-21 15:05:49	0	0	0	0	0	0	9.09	2.14	0.08	394383	1	28011	276816	394383	366372	8425	352	1029	30	255280	2807236	9836
90	2017-03-21 15:15:55	0	0	0	0	0	0	9.1	2.14	0.08	394581	1	28035	276816	394581	366546	8433	352	1029	30	255533	2807287	9844
91	2017-03-21 15:25:51	0	0	0	0	0	0	9.1	2.14	0.08	394747	1	28056	276816	394747	366691	8438	352	1029	30	255533	2807321	9849
92	2017-03-21 15:35:47	0	0	0	0	0	0	9.1	2.14	0.08	394951	1	28090	276816	394951	366861	8442	352	1029	30	255533	2807358	9853
93	2017-03-21 15:45:43	0	0	0	0	0	0	9.1	2.14	0.08	395157	1	28124	276816	395157	367033	8447	352	1029	30	255533	2807386	9858
94	2017-03-21 15:55:46	0	0	0	0	0	0	9.11	2.14	0.08	395361	1	28149	277014	395361	367212	8454	352	1029	30	255702	2807434	9865
95	2017-03-21 16:05:45	0	0	0	0	0	0	9.11	2.14	0.08	395538	1	28179	277014	395538	367359	8458	352	1029	30	255702	2807464	9869
96	2017-03-21 16:15:46	0	0	0	0	0	0	9.11	2.14	0.08	395647	1	28205	277114	395647	367442	8464	354	1030	30	255702	2807504	9878
97	2017-03-21 16:25:47	0	0	0	0	0	0	9.11	2.14	0.08	395810	1	28244	277114	395810	367566	8470	354	1030	30	255702	2807542	9884
98	2017-03-21 16:35:48	0	0	0	0	0	0	9.11	2.14	0.08	395965	1	28279	277188	395965	367686	8475	354	1032	30	255765	2807593	9891
99	2017-03-21 16:45:45	0	0	0	0	0	0	9.11	2.14	0.08	396123	1	28323	277188	396123	367800	8478	354	1032	30	255765	2807633	9894
100	2017-03-21 16:55:49	0	0	0	0	0	0	9.11	2.14	0.08	396257	1	28351	277188	396257	367906	8479	354	1032	30	255765	2807691	9895
101	2017-03-21 17:05:46	0	0	0	0	0	0	9.11	2.14	0.08	396384	1	28375	277188	396384	368009	8483	354	1032	30	255765	2807737	9899
102	2017-03-21 17:15:47	0	0	0	0	0	0	9.11	2.14	0.08	396530	1	28407	277188	396530	368123	8485	354	1033	30	255765	2807779	9902
103	2017-03-21 17:25:46	0	0	0	0	0	0	9.11	2.14	0.08	396661	1	28436	277287	396661	368225	8486	356	1033	30	255765	2807828	9905
104	2017-03-21 17:35:47	0	0	0	0	0	0	9.11	2.14	0.08	396809	1	28472	277337	396809	368337	8487	356	1033	30	255765	2807869	9906
105	2017-03-21 17:45:47	0	0	0	0	0	0	9.11	2.14	0.08	396948	1	28513	277635	396948	368435	8491	356	1033	30	255765	2807901	9910
106	2017-03-21 17:55:49	0	0	0	0	0	0	9.11	2.14	0.08	397074	1	28541	277635	397074	368533	8496	358	1033	30	255765	2807946	9917
107	2017-03-21 18:05:47	0	0	0	0	0	0	9.11	2.14	0.08	397191	1	28569	277635	397191	368622	8497	358	1033	30	255765	2807989	9918
108	2017-03-21 18:15:48	0	0	0	0	0	0	9.11	2.14	0.08	397309	1	28601	277635	397309	368708	8499	358	1033	30	255765	2808046	9920
109	2017-03-21 18:26:26	0	0	0	0	0	0	9.11	2.14	0.08	397401	1	28624	277735	397401	368777	8503	358	1033	30	255850	2808102	9924
110	2017-03-21 18:36:14	0	0	0	0	0	0	9.11	2.14	0.08	397486	1	28658	277735	397486	368828	8505	358	1033	30	255850	2808148	9926
111	2017-03-21 18:46:15	0	0	0	0	0	0	9.11	2.14	0.08	397572	1	28692	277735	397572	368880	8507	358	1033	30	255850	2808195	9928
112	2017-03-21 18:56:19	0	0	0	0	0	0	9.11	2.14	0.08	397664	1	28729	277735	397664	368935	8511	358	1033	30	255850	2808262	9932
113	2017-03-21 19:06:13	0	0	0	0	0	0	9.11	2.14	0.08	397734	1	28751	277735	397734	368983	8512	358	1033	30	255850	2808309	9933
114	2017-03-21 19:16:16	0	0	0	0	0	0	9.11	2.14	0.08	397810	1	28778	277735	397810	369032	8513	358	1034	30	255850	2808384	9935
115	2017-03-21 19:26:16	0	0	0	0	0	0	9.13	2.14	0.08	397887	1	28802	278334	397887	369085	8513	358	1034	30	256358	2808471	9935
116	2017-03-21 19:36:17	0	0	0	0	0	0	9.13	2.14	0.08	397982	1	28827	278334	397982	369155	8517	358	1034	30	256358	2808570	9939
117	2017-03-21 19:46:14	0	0	0	0	0	0	9.13	2.14	0.08	398062	1	28852	278334	398062	369210	8519	358	1034	30	256358	2808663	9941
118	2017-03-21 19:56:17	0	0	0	0	0	0	9.13	2.14	0.08	398160	1	28879	278334	398160	369281	8522	358	1034	30	256528	2808759	9944
119	2017-03-21 20:06:20	0	0	0	0	0	0	9.13	2.14	0.08	398243	1	28909	278334	398243	369334	8523	358	1034	30	256528	2808870	9945
120	2017-03-21 20:16:16	0	0	0	0	0	0	9.13	2.14	0.08	398311	1	28934	278334	398311	369377	8525	358	1034	30	256528	2808973	9947
121	2017-03-21 20:26:18	0	0	0	0	0	0	9.13	2.14	0.08	398383	1	28958	278334	398383	369425	8528	358	1034	30	256528	2809095	9950
122	2017-03-21 20:36:19	0	0	0	0	0	0	9.14	2.14	0.08	398472	1	28988	278334	398472	369484	8528	358	1034	30	256869	2809211	9950
123	2017-03-21 20:46:18	0	0	0	0	0	0	9.14	2.14	0.08	398529	1	29002	278334	398529	369527	8529	358	1034	30	256869	2809317	9951
124	2017-03-21 20:56:18	0	0	0	0	0	0	9.14	2.14	0.08	398601	1	29027	278334	398601	369574	8529	358	1034	30	256869	2809424	9951
125	2017-03-21 21:06:20	0	0	0	0	0	0	9.14	2.14	0.08	398669	1	29057	278334	398669	369612	8532	358	1035	30	256869	2809516	9955
126	2017-03-21 21:16:19	0	0	0	0	0	0	9.14	2.14	0.08	398715	1	29070	278334	398715	369645	8534	358	1035	30	256869	2809594	9957
127	2017-03-21 21:26:23	0	0	0	0	0	0	9.14	2.14	0.08	398785	1	29097	278334	398785	369688	8535	358	1035	30	256869	2809662	9958
128	2017-03-21 21:36:23	0	0	0	0	0	0	9.14	2.14	0.08	398843	1	29111	278334	398843	369732	8536	358	1036	30	256869	2809732	9960
129	2017-03-21 21:46:22	0	0	0	0	0	0	9.14	2.14	0.08	398917	1	29133	278334	398917	369784	8536	358	1036	30	256869	2809810	9960
130	2017-03-21 21:56:24	0	0	0	0	0	0	9.14	2.14	0.08	398984	1	29154	278334	398984	369830	8537	358	1036	30	256869	2809880	9961
131	2017-03-21 22:06:26	0	0	0	0	0	0	9.14	2.14	0.08	399042	1	29182	278334	399042	369860	8543	358	1036	30	256869	2809964	9967
132	2017-03-21 22:16:22	0	0	0	0	0	0	9.16	2.14	0.08	399084	1	29202	279037	399084	369882	8547	358	1036	30	257467	2810052	9971
133	2017-03-21 22:26:26	0	0	0	0	0	0	9.16	2.14	0.08	399142	1	29227	279037	399142	369915	8550	360	1036	30	257467	2810142	9976
134	2017-03-21 22:36:28	0	0	0	0	0	0	9.16	2.14	0.08	399184	1	29244	279037	399184	369940	8555	360	1036	30	257467	2810208	9981
135	2017-03-21 22:46:23	0	0	0	0	0	0	9.16	2.14	0.08	399220	1	29260	279037	399220	369960	8555	360	1036	30	257467	2810268	9981
136	2017-03-21 22:56:20	0	0	0	0	0	0	9.16	2.14	0.08	399278	1	29288	279037	399278	369990	8556	360	1036	30	257467	2810322	9982
137	2017-03-21 23:06:23	0	0	0	0	0	0	9.16	2.14	0.08	399322	1	29312	279037	399322	370010	8556	360	1036	30	257467	2810371	9982
138	2017-03-21 23:16:23	0	0	0	0	0	0	9.16	2.14	0.08	399355	1	29325	279112	399355	370030	8556	360	1036	30	257467	2810421	9982
139	2017-03-21 23:26:31	0	0	0	0	0	0	9.16	2.14	0.08	399381	1	29337	279112	399381	370044	8556	360	1036	30	257467	2810472	9982
140	2017-03-21 23:36:06	0	0	0	0	0	0	9.16	2.14	0.08	399421	1	29355	279112	399421	370066	8557	360	1036	30	257467	2810522	9983
141	2017-03-21 23:45:54	0	0	0	0	0	0	9.16	2.14	0.08	399447	1	29363	279112	399447	370084	8557	360	1036	30	257467	2810554	9983
142	2017-03-21 23:55:56	0	0	0	0	0	0	9.16	2.14	0.08	399472	1	29374	279112	399472	370098	8557	360	1036	30	257467	2810595	9983
143	2017-03-22 00:30:55	0	0	0	0	0	0	9.16	2.14	0.08	399557	1	29414	279213	399557	370143	8557	358	1036	30	257553	2810723	9981
144	2017-03-22 01:30:54	0	0	0	0	0	0	9.17	2.14	0.08	399646	1	29451	279213	399646	370195	8559	358	1036	30	257553	2808062	9983
145	2017-03-22 02:30:58	0	0	0	0	0	0	9.17	2.14	0.08	399687	1	29464	279213	399687	370223	8560	358	1036	30	257553	2808133	9984
146	2017-03-22 03:30:56	0	0	0	0	0	0	9.17	2.14	0.08	399712	1	29472	279213	399712	370240	8561	358	1036	30	257553	2808164	9985
147	2017-03-22 04:30:55	0	0	0	0	0	0	9.17	2.14	0.08	399728	1	29483	279213	399728	370245	8561	358	1036	30	257553	2808186	9985
148	2017-03-22 05:30:55	0	0	0	0	0	0	9.17	2.14	0.08	399742	1	29488	279213	399742	370254	8561	358	1036	30	257553	2808215	9985
149	2017-03-22 06:31:04	0	0	0	0	0	0	9.17	2.14	0.08	399796	1	29510	279213	399796	370286	8564	358	1036	31	257553	2808293	9989
150	2017-03-22 07:06:00	0	0	0	0	0	0	9.17	2.14	0.08	399837	1	29525	279213	399837	370312	8564	358	1036	31	257553	2808342	9989
151	2017-03-22 07:15:59	0	0	0	0	0	0	9.17	2.14	0.08	399846	1	29527	279213	399846	370319	8564	358	1036	31	257553	2808363	9989
152	2017-03-22 07:26:00	0	0	0	0	0	0	9.17	2.14	0.08	399860	1	29532	279213	399860	370328	8564	358	1036	31	257553	2808382	9989
153	2017-03-22 07:36:00	0	0	0	0	0	0	9.17	2.14	0.08	399875	1	29535	279213	399875	370340	8564	358	1036	31	257553	2808416	9989
154	2017-03-22 07:46:00	0	0	0	0	0	0	9.17	2.14	0.08	399888	1	29537	279213	399888	370351	8564	358	1036	31	257553	2808448	9989
155	2017-03-22 07:56:06	0	0	0	0	0	0	9.18	2.14	0.08	399904	1	29541	279389	399904	370363	8564	358	1036	31	257703	2808471	9989
156	2017-03-22 08:06:04	0	0	0	0	0	0	9.18	2.14	0.08	399919	1	29544	279389	399919	370375	8565	358	1036	31	257703	2808491	9990
157	2017-03-22 08:16:01	0	0	0	0	0	0	9.18	2.14	0.08	399940	1	29550	279389	399940	370390	8565	358	1036	31	257703	2808515	9990
158	2017-03-22 08:26:01	0	0	0	0	0	0	9.18	2.14	0.08	399953	1	29556	279389	399953	370397	8565	358	1036	31	257703	2808546	9990
159	2017-03-22 08:36:11	0	0	0	0	0	0	9.18	2.14	0.08	399963	1	29561	279389	399963	370402	8565	358	1036	31	257703	2808569	9990
160	2017-03-22 08:46:14	0	0	0	0	0	0	9.18	2.14	0.08	399975	1	29565	279389	399975	370410	8565	358	1036	31	257703	2808597	9990
161	2017-03-22 08:56:07	0	0	0	0	0	0	9.18	2.14	0.08	399995	1	29568	279389	399995	370427	8565	358	1036	31	257703	2808626	9990
162	2017-03-22 09:06:08	0	0	0	0	0	0	9.18	2.14	0.08	400015	1	29571	279389	400015	370444	8566	358	1036	31	257703	2808662	9991
163	2017-03-22 09:16:13	0	0	0	0	0	0	9.18	2.14	0.08	400036	1	29574	279389	400036	370462	8567	358	1036	31	257703	2808699	9992
164	2017-03-22 09:26:02	0	0	0	0	0	0	9.18	2.14	0.08	400046	1	29576	279389	400046	370470	8567	358	1036	31	257703	2808737	9992
165	2017-03-22 09:36:04	0	0	0	0	0	0	9.17	2.14	0.08	400059	1	29578	279389	400059	370481	8568	358	1036	31	257703	2808793	9993
166	2017-03-22 09:46:35	0	0	0	0	0	0	9.17	2.14	0.08	400077	1	29586	279389	400077	370491	8569	358	1036	31	257703	2808830	9994
167	2017-03-22 09:56:08	0	0	0	0	0	0	9.17	2.14	0.08	400091	1	29589	279389	400091	370502	8571	358	1036	31	257703	2808874	9996
168	2017-03-22 10:06:10	0	0	0	0	0	0	9.17	2.14	0.08	400105	1	29593	279389	400105	370512	8571	358	1036	31	257703	2808912	9996
169	2017-03-22 10:16:03	0	0	0	0	0	0	9.18	2.14	0.08	400121	1	29599	279540	400121	370522	8571	358	1036	31	257831	2808947	9996
170	2017-03-22 10:26:18	0	0	0	0	0	0	9.18	2.14	0.08	400131	1	29602	279540	400131	370529	8571	358	1036	31	257831	2808989	9996
171	2017-03-22 10:36:08	0	0	0	0	0	0	9.18	2.14	0.08	400143	1	29610	279540	400143	370533	8571	358	1036	31	257831	2809029	9996
172	2017-03-22 10:46:06	0	0	0	0	0	0	9.18	2.14	0.08	400162	1	29615	279540	400162	370547	8571	358	1036	31	257831	2809073	9996
173	2017-03-22 10:56:09	0	0	0	0	0	0	9.18	2.14	0.08	400182	1	29619	279540	400182	370563	8571	358	1036	31	257831	2809130	9996
174	2017-03-22 11:06:28	0	0	0	0	0	0	9.18	2.14	0.08	400198	1	29624	279540	400198	370574	8571	358	1036	31	257831	2809177	9996
175	2017-03-22 11:16:18	0	0	0	0	0	0	9.18	2.14	0.08	400205	1	29626	279540	400205	370579	8572	358	1036	31	257831	2809222	9997
176	2017-03-22 11:26:17	0	0	0	0	0	0	9.18	2.14	0.08	400214	1	29628	279540	400214	370586	8572	358	1036	31	257831	2809265	9997
177	2017-03-22 11:36:19	0	0	0	0	0	0	9.18	2.14	0.08	400226	1	29630	279540	400226	370596	8572	358	1036	31	257831	2809314	9997
178	2017-03-22 11:46:17	0	0	0	0	0	0	9.18	2.14	0.08	400234	1	29631	279540	400234	370603	8572	358	1036	31	257831	2809364	9997
179	2017-03-22 11:56:12	0	0	0	0	0	0	9.18	2.14	0.08	400240	1	29632	279540	400240	370608	8573	358	1036	31	257831	2809399	9998
180	2017-03-22 12:06:15	0	0	0	0	0	0	9.18	2.14	0.08	400253	1	29637	279540	400253	370616	8573	358	1036	31	257831	2809455	9998
181	2017-03-22 12:16:12	0	0	0	0	0	0	9.18	2.14	0.08	400261	1	29638	279540	400261	370623	8574	358	1037	31	257831	2809484	10000
182	2017-03-22 12:26:15	0	0	0	0	0	0	9.18	2.14	0.08	400278	1	29641	279540	400278	370637	8574	358	1037	31	257831	2809520	10000
183	2017-03-22 12:36:20	0	0	0	0	0	0	9.18	2.14	0.08	400290	1	29645	279540	400290	370645	8575	358	1037	31	257831	2809553	10001
184	2017-03-22 12:46:21	0	0	0	0	0	0	9.18	2.14	0.08	400303	1	29648	279540	400303	370655	8575	358	1037	31	257831	2809596	10001
185	2017-03-22 12:56:15	0	0	0	0	0	0	9.18	2.14	0.08	400314	1	29651	279540	400314	370663	8575	358	1037	31	257831	2809653	10001
186	2017-03-22 13:06:14	0	0	0	0	0	0	9.18	2.14	0.08	400320	1	29653	279540	400320	370667	8575	358	1037	31	257831	2809704	10001
187	2017-03-22 13:16:18	0	0	0	0	0	0	9.18	2.14	0.08	400331	1	29656	279540	400331	370675	8577	358	1037	31	257831	2809760	10003
188	2017-03-22 13:26:40	0	0	0	0	0	0	9.18	2.14	0.08	400343	1	29658	279540	400343	370685	8578	358	1037	31	257831	2809819	10004
189	2017-03-22 13:36:13	0	0	0	0	0	0	9.18	2.14	0.08	400349	1	29661	279540	400349	370688	8578	358	1037	31	257831	2809870	10004
190	2017-03-22 13:46:14	0	0	0	0	0	0	9.18	2.14	0.08	400356	1	29663	279540	400356	370693	8578	358	1037	31	257831	2809950	10004
191	2017-03-22 13:56:20	0	0	0	0	0	0	9.18	2.14	0.08	400368	1	29667	279540	400368	370701	8579	358	1037	31	257831	2810003	10005
192	2017-03-22 14:06:16	0	0	0	0	0	0	9.18	2.14	0.08	400375	1	29669	279540	400375	370706	8579	358	1037	31	257831	2810062	10005
193	2017-03-22 14:16:54	0	0	0	0	0	0	9.18	2.14	0.08	400381	1	29671	279540	400381	370710	8579	358	1037	31	257831	2810115	10005
194	2017-03-22 14:26:29	0	0	0	0	0	0	9.17	2.14	0.08	400388	1	29672	279540	400388	370716	8579	358	1037	31	257831	2810162	10005
195	2017-03-22 14:36:28	0	0	0	0	0	0	9.17	2.14	0.08	400396	1	29675	279540	400396	370721	8580	358	1037	31	257831	2810213	10006
196	2017-03-22 14:46:34	0	0	0	0	0	0	9.17	2.14	0.08	400402	1	29677	279540	400402	370725	8580	358	1037	31	257831	2810274	10006
197	2017-03-22 14:56:29	0	0	0	0	0	0	9.17	2.14	0.08	400416	1	29681	279540	400416	370735	8581	358	1037	31	257831	2810341	10007
198	2017-03-22 15:07:15	0	0	0	0	0	0	9.17	2.14	0.08	400434	1	29686	279540	400434	370748	8583	358	1037	31	257831	2810417	10009
199	2017-03-22 15:16:50	0	0	0	0	0	0	9.17	2.14	0.08	400449	1	29691	279540	400449	370758	8584	358	1037	31	257831	2810470	10010
200	2017-03-22 15:26:59	0	0	0	0	0	0	9.17	2.14	0.08	400467	1	29698	279540	400467	370769	8584	358	1037	31	257831	2810537	10010
201	2017-03-22 15:36:45	0	0	0	0	0	0	9.17	2.14	0.08	400477	1	29700	279540	400477	370777	8584	358	1037	31	257831	2810594	10010
202	2017-03-22 15:46:44	0	0	0	0	0	0	9.17	2.14	0.08	400488	1	29704	279540	400488	370784	8585	358	1037	31	257831	2810634	10011
203	2017-03-22 15:57:09	0	0	0	0	0	0	9.17	2.14	0.08	400498	1	29706	279540	400498	370792	8586	358	1037	31	257831	2810670	10012
204	2017-03-22 16:07:20	0	0	0	0	0	0	9.17	2.14	0.08	400511	1	29713	279540	400511	370798	8586	358	1037	31	257831	2810728	10012
205	2017-03-22 16:17:12	0	0	0	0	0	0	9.17	2.14	0.08	400519	1	29715	279540	400519	370804	8586	358	1037	31	257831	2810766	10012
206	2017-03-22 16:27:07	0	0	0	0	0	0	9.17	2.14	0.08	400529	1	29718	279540	400529	370811	8586	358	1037	31	257831	2810816	10012
207	2017-03-22 16:37:13	0	0	0	0	0	0	9.17	2.14	0.08	400541	1	29723	279540	400541	370818	8586	358	1038	31	257831	2810869	10013
208	2017-03-22 16:47:07	0	0	0	0	0	0	9.17	2.14	0.08	400552	1	29727	279540	400552	370825	8586	358	1038	31	257831	2810922	10013
209	2017-03-22 16:57:07	0	0	0	0	0	0	9.17	2.14	0.08	400570	1	29733	279540	400570	370837	8587	358	1038	31	257831	2810991	10014
210	2017-03-22 17:07:33	0	0	0	0	0	0	9.17	2.14	0.08	400577	1	29735	279540	400577	370842	8587	358	1038	31	257831	2811051	10014
211	2017-03-22 17:18:01	0	0	0	0	0	0	9.17	2.14	0.08	400589	1	29739	279540	400589	370850	8587	358	1038	31	257831	2811098	10014
212	2017-03-22 17:28:53	0	0	0	0	0	0	9.17	2.14	0.08	400600	1	29744	279540	400600	370856	8587	358	1038	31	257831	2811148	10014
213	2017-03-22 17:38:27	0	0	0	0	0	0	9.17	2.14	0.08	400608	1	29746	279540	400608	370862	8587	358	1038	31	257831	2811194	10014
214	2017-03-22 17:48:20	0	0	0	0	0	0	9.17	2.14	0.08	400621	1	29753	279540	400621	370868	8587	358	1038	31	257831	2811255	10014
215	2017-03-22 17:58:18	0	0	0	0	0	0	9.17	2.14	0.08	400628	1	29756	279540	400628	370872	8587	358	1038	31	257831	2811315	10014
216	2017-03-22 18:08:18	0	0	0	0	0	0	9.17	2.14	0.08	400642	1	29758	279540	400642	370884	8587	358	1038	31	257831	2811365	10014
217	2017-03-22 18:18:54	0	0	0	0	0	0	9.17	2.14	0.08	400659	1	29761	279540	400659	370898	8587	358	1038	31	257831	2811407	10014
218	2017-03-22 18:29:24	0	0	0	0	0	0	9.17	2.14	0.08	400669	1	29763	279540	400669	370906	8587	358	1038	31	257831	2811462	10014
219	2017-03-22 18:39:58	0	0	0	0	0	0	9.17	2.14	0.08	400688	1	29770	279540	400688	370918	8588	358	1038	31	257831	2811532	10015
220	2017-03-22 18:51:01	0	0	0	0	0	0	9.17	2.14	0.08	400694	1	29772	279540	400694	370922	8588	358	1038	31	257831	2811583	10015
221	2017-03-22 19:00:33	0	0	0	0	0	0	9.17	2.14	0.08	400704	1	29775	279540	400704	370929	8588	358	1038	31	257831	2811642	10015
222	2017-03-22 19:10:30	0	0	0	0	0	0	9.17	2.14	0.08	400713	1	29780	279540	400713	370933	8589	358	1038	31	257831	2811681	10016
223	2017-03-22 19:20:29	0	0	0	0	0	0	9.17	2.14	0.08	400722	1	29782	279540	400722	370940	8590	358	1038	31	257831	2811729	10017
224	2017-03-22 19:30:48	0	0	0	0	0	0	9.17	2.14	0.08	400731	1	29786	279540	400731	370945	8591	358	1038	31	257831	2811778	10018
225	2017-03-22 19:40:34	0	0	0	0	0	0	9.17	2.14	0.08	400748	1	29789	279540	400748	370959	8591	358	1038	31	257831	2811825	10018
226	2017-03-22 19:51:14	0	0	0	0	0	0	9.17	2.14	0.08	400763	1	29797	279540	400763	370966	8591	358	1038	31	257831	2811874	10018
227	2017-03-22 20:01:59	0	0	0	0	0	0	9.17	2.14	0.08	400775	1	29801	279540	400775	370974	8591	358	1038	31	257831	2811911	10018
228	2017-03-22 20:12:41	0	0	0	0	0	0	9.17	2.14	0.08	400787	1	29806	279540	400787	370981	8591	358	1038	31	257831	2811957	10018
229	2017-03-22 20:30:51	0	0	0	0	0	0	9.17	2.14	0.08	400801	1	29809	279540	400801	370992	8591	358	1038	31	257831	2812066	10018
230	2017-03-22 20:41:16	0	0	0	0	0	0	9.17	2.14	0.08	400813	1	29812	279540	400813	371001	8591	358	1038	31	257831	2812117	10018
231	2017-03-22 20:51:47	0	0	0	0	0	0	9.17	2.14	0.08	400822	1	29816	279540	400822	371006	8591	358	1038	31	257831	2812172	10018
232	2017-03-22 21:02:06	0	0	0	0	0	0	9.17	2.14	0.08	400834	1	29818	279540	400834	371016	8591	358	1038	31	257831	2812222	10018
233	2017-03-22 21:14:24	0	0	0	0	0	0	9.17	2.14	0.08	400844	1	29819	279540	400844	371025	8592	358	1038	31	257831	2812278	10019
234	2017-03-22 21:27:49	0	0	0	0	0	0	9.17	2.14	0.08	400854	1	29823	279540	400854	371031	8592	358	1038	31	257831	2812350	10019
235	2017-03-22 21:38:07	0	0	0	0	0	0	9.17	2.14	0.08	400867	1	29825	279540	400867	371042	8593	358	1038	31	257831	2812416	10020
236	2017-03-22 21:49:04	0	0	0	0	0	0	9.17	2.14	0.08	400878	1	29828	279540	400878	371050	8593	358	1038	31	257831	2812473	10020
237	2017-03-22 21:59:35	0	0	0	0	0	0	9.17	2.14	0.08	400886	1	29830	279540	400886	371056	8594	358	1038	31	257831	2812516	10021
238	2017-03-22 22:10:29	0	0	0	0	0	0	9.17	2.14	0.08	400903	1	29835	279540	400903	371068	8594	358	1038	31	257831	2812584	10021
239	2017-03-22 22:21:31	0	0	0	0	0	0	9.17	2.14	0.08	400913	1	29837	279540	400913	371076	8594	358	1038	31	257831	2812648	10021
240	2017-03-22 22:31:13	0	0	0	0	0	0	9.17	2.14	0.08	400929	1	29846	279540	400929	371083	8594	358	1038	31	257831	2812706	10021
241	2017-03-22 22:40:58	0	0	0	0	0	0	9.17	2.14	0.08	400940	1	29848	279540	400940	371092	8596	358	1038	31	257831	2812756	10023
242	2017-03-22 22:51:33	0	0	0	0	0	0	9.17	2.14	0.08	400946	1	29849	279540	400946	371097	8596	358	1038	31	257831	2812817	10023
243	2017-03-22 23:01:10	0	0	0	0	0	0	9.17	2.14	0.08	400957	1	29852	279540	400957	371105	8596	358	1038	31	257831	2812863	10023
244	2017-03-22 23:11:48	0	0	0	0	0	0	9.17	2.14	0.08	400962	1	29853	279540	400962	371109	8596	358	1038	31	257831	2812913	10023
245	2017-03-22 23:22:06	0	0	0	0	0	0	9.17	2.14	0.08	400967	1	29854	279540	400967	371113	8598	358	1038	31	257831	2812962	10025
246	2017-03-22 23:32:50	0	0	0	0	0	0	9.17	2.14	0.08	400975	1	29856	279540	400975	371119	8598	358	1038	31	257831	2813012	10025
247	2017-03-22 23:43:42	0	0	0	0	0	0	9.17	2.14	0.08	400980	1	29857	279540	400980	371123	8598	358	1038	31	257831	2813054	10025
248	2017-03-22 23:53:25	0	0	0	0	0	0	9.17	2.14	0.08	400989	1	29859	279540	400989	371130	8598	358	1038	31	257831	2813089	10025
249	2017-03-23 00:03:49	0	0	0	0	0	0	9.17	2.14	0.08	400992	1	29860	279540	400992	371132	8598	358	1038	31	257831	2813128	10025
250	2017-03-23 01:04:07	0	0	0	0	0	0	9.16	2.14	0.08	401013	1	29863	279540	401013	371150	8599	358	1038	31	257831	2815013	10026
251	2017-03-23 02:04:31	0	0	0	0	0	0	9.16	2.14	0.08	401022	1	29866	279540	401022	371156	8599	358	1038	31	257831	2815035	10026
252	2017-03-23 03:06:31	0	0	0	0	0	0	9.16	2.14	0.08	401023	1	29866	279540	401023	371157	8599	358	1038	31	257831	2815049	10026
253	2017-03-23 04:06:09	0	0	0	0	0	0	9.16	2.14	0.08	401025	1	29866	279540	401025	371159	8599	358	1038	31	257831	2815061	10026
254	2017-03-23 05:05:42	0	0	0	0	0	0	9.16	2.14	0.08	401028	1	29867	279540	401028	371161	8599	358	1038	31	257831	2815059	10026
255	2017-03-23 06:06:00	0	0	0	0	0	0	9.16	2.14	0.08	401033	1	29867	279540	401033	371166	8599	358	1038	31	257831	2815062	10026
256	2017-03-23 07:06:30	0	0	0	0	0	0	9.16	2.14	0.08	401048	1	29871	279540	401048	371177	8599	358	1038	31	257831	2815097	10026
257	2017-03-23 07:15:39	0	0	0	0	0	0	9.16	2.14	0.08	401050	1	29872	279540	401050	371178	8599	358	1038	31	257831	2815104	10026
258	2017-03-23 07:25:51	0	0	0	0	0	0	9.16	2.14	0.08	401056	1	29874	279540	401056	371182	8599	358	1038	31	257831	2815110	10026
259	2017-03-23 07:36:15	0	0	0	0	0	0	9.16	2.14	0.08	401062	1	29875	279540	401062	371187	8599	358	1038	31	257831	2815136	10026
260	2017-03-23 07:46:36	0	0	0	0	0	0	9.16	2.14	0.08	401067	1	29875	279540	401067	371192	8599	358	1038	31	257831	2815145	10026
261	2017-03-23 07:58:45	0	0	0	0	0	0	9.16	2.14	0.08	401070	1	29875	279540	401070	371195	8600	358	1038	31	257831	2815166	10027
262	2017-03-23 08:07:59	0	0	0	0	0	0	9.16	2.14	0.08	401073	1	29875	279540	401073	371198	8600	358	1038	31	257831	2815185	10027
263	2017-03-23 08:19:30	0	0	0	0	0	0	9.16	2.14	0.08	401082	1	29877	279540	401082	371205	8601	358	1038	31	257831	2815212	10028
264	2017-03-23 08:28:22	0	0	0	0	0	0	9.16	2.14	0.08	401086	1	29878	279540	401086	371208	8601	358	1038	31	257831	2815228	10028
265	2017-03-23 08:44:17	0	0	0	0	0	0	9.16	2.14	0.08	401096	1	29882	279540	401096	371214	8602	358	1038	31	257831	2815271	10029
266	2017-03-23 08:54:59	0	0	0	0	0	0	9.16	2.14	0.08	401101	1	29882	279540	401101	371219	8602	358	1038	31	257831	2815294	10029
267	2017-03-23 09:03:59	0	0	0	0	0	0	9.16	2.14	0.08	401107	1	29885	279540	401107	371222	8602	358	1038	31	257831	2815319	10029
268	2017-03-23 09:14:36	0	0	0	0	0	0	9.16	2.14	0.08	401114	1	29887	279540	401114	371227	8602	360	1038	31	257831	2815344	10031
269	2017-03-23 09:26:42	0	0	0	0	0	0	9.16	2.14	0.08	401126	1	29891	279540	401126	371235	8604	360	1038	31	257896	2815372	10033
270	2017-03-23 09:37:38	0	0	0	0	0	0	9.16	2.14	0.08	401131	1	29891	279540	401131	371240	8604	360	1038	31	257896	2815393	10033
271	2017-03-23 09:49:22	0	0	0	0	0	0	9.16	2.14	0.08	401134	1	29891	279540	401134	371243	8604	360	1038	31	257896	2815431	10033
