1	2017-07-03 09:01:25		0	0	0	0	0	0	1.31	3.16	0	46626	0	223	41980	46626	46403	1474	42	122	15	41693	3186517	1653
2	2017-07-03 09:33:28		0	0	0	0	0	0	5.05	4.9	0.05	216453	0	9399	169824	216453	207054	10603	322	455	60	161079	3186555	11440
3	2017-07-03 10:04:11		0	0	0	0	0	0	7.4	5.09	0.07	348286	0	24030	255217	348286	324256	17731	504	681	87	235843	3186594	19003
4	2017-07-03 10:14:45		0	0	0	0	0	0	7.98	5.11	0.08	385956	0	29092	277990	385956	356864	19712	560	740	96	254253	3186612	21108
5	2017-07-03 10:25:35		0	0	0	0	0	0	8.57	5.11	0.09	421952	0	36615	300567	421952	387825	21565	582	804	101	273196	3186617	23052
6	2017-07-03 10:36:22		0	0	0	0	0	0	9.44	5.13	0.1	472803	0	41354	328916	472803	431449	24267	624	868	109	300794	3186631	25868
7	2017-07-03 10:47:00		0	0	0	0	0	0	10.01	5.12	0.1	504970	0	46140	349362	504970	458830	25843	648	914	112	319060	3186646	27517
8	2017-07-03 10:57:52		0	0	0	0	0	0	10.38	5.11	0.11	535301	0	51098	363875	535301	484203	27378	690	959	117	330680	3186673	29144
9	2017-07-03 11:08:47		0	0	0	0	0	0	10.78	5.1	0.11	563781	0	56023	379772	563781	507758	28750	722	996	126	343684	3186692	30594
10	2017-07-03 11:19:14		0	0	0	0	0	0	11.13	5.08	0.11	590227	0	60691	391734	590227	529536	30007	758	1038	128	354829	3186715	31931
11	2017-07-03 11:30:08		0	0	0	0	0	0	11.47	5.07	0.12	614769	0	64999	407681	614769	549770	31174	790	1082	134	365634	3186741	33180
12	2017-07-03 11:40:53		0	0	0	0	0	0	11.88	5.06	0.12	648766	0	71324	424251	648766	577442	32827	810	1115	135	378460	3186762	34887
13	2017-07-03 11:51:43		0	0	0	0	0	0	12.45	5.05	0.13	669300	0	75205	442855	669300	594095	33809	832	1146	138	396773	3186785	35925
14	2017-07-03 12:02:36		0	0	0	0	0	0	12.68	5.04	0.13	688522	0	78789	452844	688522	609733	34702	868	1172	142	404119	3186806	36884
15	2017-07-03 12:13:13		0	0	0	0	0	0	12.91	5.02	0.13	708054	0	82508	462284	708054	625546	35568	888	1213	145	411292	3186834	37814
16	2017-07-03 12:24:03		0	0	0	0	0	0	13.2	5	0.13	730064	0	86285	474508	730064	643779	36473	906	1247	147	420672	3186858	38773
17	2017-07-03 12:34:32		0	0	0	0	0	0	13.49	4.98	0.14	750617	0	89887	486463	750617	660730	37372	920	1273	152	429818	3186872	39717
18	2017-07-03 12:45:10		0	0	0	0	0	0	13.73	4.97	0.14	770575	0	93558	497421	770575	677017	38292	940	1297	153	437560	3186894	40682
19	2017-07-03 12:55:24		0	0	0	0	0	0	13.9	4.96	0.14	789201	0	97170	505052	789201	692031	39151	958	1320	153	442956	3186911	41582
20	2017-07-03 13:05:56		0	0	0	0	0	0	14.16	4.94	0.14	816104	0	102537	519173	816104	713567	40305	984	1344	156	451383	3186940	42789
21	2017-07-03 13:16:24		0	0	0	0	0	0	14.35	4.93	0.15	833432	0	106062	525998	833432	727370	41091	1016	1364	156	457443	3186959	43627
22	2017-07-03 13:27:15		0	0	0	0	0	0	14.53	4.92	0.15	850553	0	109622	533500	850553	740931	41862	1026	1377	159	462986	3186989	44424
23	2017-07-03 13:37:56		0	0	0	0	0	0	14.69	4.91	0.15	866956	0	112952	541641	866956	754004	42559	1042	1390	163	468112	3187009	45154
24	2017-07-03 13:48:33		0	0	0	0	0	0	14.89	4.9	0.15	883442	0	116405	550782	883442	767037	43275	1054	1407	164	474506	3187019	45900
25	2017-07-03 13:59:26		0	0	0	0	0	0	15.02	4.89	0.15	898951	0	119551	557324	898951	779400	43983	1070	1433	169	478834	3187046	46655
26	2017-07-03 14:10:14		0	0	0	0	0	0	15.17	4.89	0.15	913493	0	122522	562957	913493	790971	44635	1082	1442	170	483578	3187064	47329
27	2017-07-03 14:21:03		0	0	0	0	0	0	15.55	4.87	0.16	933418	0	126689	576196	933418	806729	45496	1094	1463	171	495470	3187087	48224
28	2017-07-03 14:31:31		0	0	0	0	0	0	15.73	4.87	0.16	946583	0	129374	584718	946583	817209	46136	1112	1484	171	501311	3187101	48903
29	2017-07-03 14:42:20		0	0	0	0	0	0	15.81	4.87	0.16	959041	0	131921	588802	959041	827120	46731	1126	1504	171	503757	3187121	49532
30	2017-07-03 14:52:54		0	0	0	0	0	0	16.04	4.87	0.16	971606	0	134557	596286	971606	837049	47323	1140	1523	171	511327	3187148	50157
31	2017-07-03 15:03:25		0	0	0	0	0	0	16.21	4.86	0.16	984030	0	137016	602856	984030	847014	47866	1150	1539	172	516541	3187162	50727
32	2017-07-03 15:14:15		0	0	0	0	0	0	16.46	4.86	0.16	995434	0	139348	613669	995434	856086	48421	1170	1558	173	524737	3187174	51322
33	2017-07-03 15:25:03		0	0	0	0	0	0	16.55	4.86	0.16	1006834	0	141662	616472	1006834	865172	48928	1178	1575	174	527464	3187187	51855
34	2017-07-03 15:35:13		0	0	0	0	0	0	16.71	4.85	0.16	1018282	0	144064	622792	1018282	874218	49417	1200	1594	175	532587	3187215	52386
35	2017-07-03 15:46:02		0	0	0	0	0	0	16.97	4.85	0.17	1035173	0	147783	634572	1035173	887390	50173	1214	1613	177	541008	3187243	53177
36	2017-07-03 15:56:28		0	0	0	0	0	0	17.01	4.85	0.17	1046360	0	150265	635712	1046360	896095	50730	1222	1628	178	542222	3187265	53758
37	2017-07-03 16:07:17		0	0	0	0	0	0	17.16	4.84	0.17	1056846	0	152536	644621	1056846	904310	51170	1222	1643	179	546994	3187281	54214
38	2017-07-03 16:17:57		0	0	0	0	0	0	17.29	4.84	0.17	1066177	0	154676	649821	1066177	911501	51614	1236	1657	180	551076	3187309	54687
39	2017-07-03 16:28:43		0	0	0	0	0	0	17.45	4.84	0.17	1075109	0	156787	655218	1075109	918322	52033	1252	1672	180	556099	3187329	55137
40	2017-07-03 16:39:28		0	0	0	0	0	0	17.54	4.83	0.17	1083712	0	158846	660662	1083712	924866	52385	1268	1682	182	558979	3187346	55517
41	2017-07-03 16:49:58		0	0	0	0	0	0	17.62	4.83	0.17	1092437	0	160991	665820	1092437	931446	52752	1276	1691	182	561762	3187370	55901
42	2017-07-03 17:00:54		0	0	0	0	0	0	17.77	4.82	0.17	1101147	0	163066	670316	1101147	938081	53096	1288	1708	183	566276	3187400	56275
43	2017-07-03 17:11:35		0	0	0	0	0	0	17.94	4.81	0.18	1114227	0	166083	677021	1114227	948144	53592	1304	1720	183	571898	3187434	56799
44	2017-07-03 17:22:27		0	0	0	0	0	0	18.04	4.8	0.18	1122894	0	168096	684060	1122894	954798	53917	1316	1732	183	575038	3187462	57148
45	2017-07-03 17:32:56		0	0	0	0	0	0	18.19	4.79	0.18	1131308	0	169954	687592	1131308	961354	54244	1322	1745	185	579748	3187494	57496
46	2017-07-03 17:43:51		0	0	0	0	0	0	18.28	4.79	0.18	1139693	0	171770	692242	1139693	967923	54592	1328	1752	186	582639	3187510	57858
47	2017-07-03 17:54:30		0	0	0	0	0	0	18.43	4.79	0.18	1148220	0	173518	698853	1148220	974702	54946	1348	1760	190	587343	3187520	58244
48	2017-07-03 18:05:18		0	0	0	0	0	0	18.6	4.78	0.18	1156366	0	175400	708407	1156366	980966	55305	1354	1773	191	592825	3187544	58623
49	2017-07-03 18:16:06		0	0	0	0	0	0	18.8	4.78	0.18	1168734	0	177174	717248	1168734	987265	55850	1366	1787	191	599178	3187566	59194
50	2017-07-03 18:26:32		0	0	0	0	0	0	19.05	4.77	0.18	1177520	0	179842	727181	1177520	997678	56206	1372	1794	192	607223	3187592	59564
51	2017-07-03 18:37:14		0	0	0	0	0	0	19.1	4.77	0.18	1186014	0	181584	729365	1186014	1004430	56537	1374	1806	192	608985	3187606	59909
52	2017-07-03 18:47:47		0	0	0	0	0	0	19.34	4.76	0.18	1194614	0	183269	737025	1194614	1011345	56880	1382	1817	194	616364	3187631	60273
53	2017-07-03 18:58:41		0	0	0	0	0	0	19.52	4.75	0.18	1203264	0	185068	743117	1203264	1018196	57193	1388	1821	195	622248	3187643	60597
54	2017-07-03 19:09:25		0	0	0	0	0	0	19.58	4.74	0.18	1211865	0	186665	744815	1211865	1025200	57501	1398	1832	196	624004	3187666	60927
55	2017-07-03 19:20:16		0	0	0	0	0	0	19.73	4.74	0.18	1220472	0	188268	749866	1220472	1032204	57796	1402	1849	196	628939	3187689	61243
56	2017-07-03 20:04:57		0	0	0	0	0	0	20.29	4.72	0.18	1258897	0	196188	771104	1258897	1062709	59366	1448	1909	202	646753	3187802	62925
57	2017-07-03 20:52:11		0	0	0	0	0	0	20.72	4.69	0.19	1298976	0	204591	789676	1298976	1094385	60976	1486	1942	203	660423	3187907	64607
58	2017-07-04 00:08:45		0	0	0	0	0	0	0	0	0	0	0	0	0	0	0	0	1536	0	0	0	0	0
59	2017-07-04 06:43:54		0	0	0	0	0	0	23.55	4.57	0.2	1476992	0	242641	917497	1476992	1234351	67543	1636	2179	226	750966	3188654	71584
60	2017-07-04 09:09:25		0	0	0	0	0	0	23.85	4.55	0.2	1508828	0	251145	937563	1508828	1257683	68671	1666	2215	229	760416	3188949	72781
61	2017-07-04 09:19:55		0	0	0	0	0	0	23.9	4.55	0.2	1510713	0	251809	941912	1510713	1258904	68745	1666	2218	229	762147	3188971	72858
62	2017-07-04 09:30:47		0	0	0	0	0	0	23.92	4.55	0.2	1512495	0	252428	942970	1512495	1260067	68818	1666	2219	231	762887	3189001	72934
63	2017-07-04 09:41:22		0	0	0	0	0	0	23.96	4.55	0.2	1514185	0	253049	944407	1514185	1261136	68892	1666	2220	231	764110	3189038	73009
64	2017-07-04 10:31:23		0	0	0	0	0	0	23.98	4.55	0.2	1521299	0	255599	947296	1521299	1265700	69162	1674	2226	232	764676	3189188	73294
65	2017-07-04 10:41:23		0	0	0	0	0	0	23.98	4.55	0.2	1522242	0	256042	947296	1522242	1266200	69204	1672	2226	232	764676	3189212	73334
66	2017-07-04 10:51:22		0	0	0	0	0	0	23.98	4.55	0.2	1523182	0	256488	947550	1523182	1266694	69242	1672	2227	232	764841	3189245	73373
67	2017-07-04 11:01:23		0	0	0	0	0	0	23.99	4.55	0.2	1524074	0	256907	947768	1524074	1267167	69278	1674	2227	232	764983	3189266	73411
68	2017-07-04 11:11:22		0	0	0	0	0	0	23.99	4.54	0.2	1524940	0	257307	947913	1524940	1267633	69305	1674	2228	233	764983	3189282	73440
69	2017-07-04 11:21:23		0	0	0	0	0	0	23.99	4.54	0.2	1525772	0	257698	947913	1525772	1268074	69340	1674	2228	233	764983	3189317	73475
70	2017-07-04 11:31:33		0	0	0	0	0	0	23.99	4.54	0.2	1526560	0	258080	948203	1526560	1268480	69376	1674	2228	233	764983	3189343	73511
71	2017-07-04 11:41:24		0	0	0	0	0	0	23.99	4.54	0.2	1527312	0	258463	948203	1527312	1268849	69400	1676	2230	233	764983	3189371	73539
72	2017-07-04 11:51:26		0	0	0	0	0	0	23.99	4.54	0.2	1528103	0	258829	948203	1528103	1269274	69429	1676	2231	233	764983	3189412	73569
73	2017-07-04 12:01:27		0	0	0	0	0	0	23.98	4.54	0.2	1528812	0	259128	948203	1528812	1269684	69460	1678	2236	233	764983	3189446	73607
74	2017-07-04 12:11:35		0	0	0	0	0	0	23.98	4.54	0.2	1529564	0	259490	948203	1529564	1270074	69486	1678	2237	233	764983	3189478	73634
75	2017-07-04 12:21:32		0	0	0	0	0	0	23.98	4.54	0.2	1530289	0	259812	948203	1530289	1270477	69519	1678	2238	233	764983	3189496	73668
76	2017-07-04 12:31:29		0	0	0	0	0	0	24	4.54	0.2	1531038	0	260143	949220	1531038	1270895	69546	1678	2240	233	765645	3189529	73697
77	2017-07-04 12:41:29		0	0	0	0	0	0	24	4.54	0.2	1531792	0	260459	949220	1531792	1271333	69575	1678	2241	233	765645	3189552	73727
78	2017-07-04 12:51:24		0	0	0	0	0	0	24.04	4.54	0.21	1532490	0	260753	949657	1532490	1271737	69604	1678	2241	233	766688	3189580	73756
79	2017-07-04 13:01:25		0	0	0	0	0	0	24.04	4.54	0.21	1533157	0	261065	949657	1533157	1272092	69640	1678	2241	233	766688	3189610	73792
80	2017-07-04 13:11:25		0	0	0	0	0	0	24.06	4.54	0.21	1533816	0	261374	949657	1533816	1272442	69670	1678	2241	233	767448	3189637	73822
81	2017-07-04 13:21:26		0	0	0	0	0	0	24.06	4.54	0.21	1534446	0	261661	949657	1534446	1272785	69692	1680	2241	233	767448	3189675	73846
82	2017-07-04 13:31:25		0	0	0	0	0	0	24.06	4.54	0.21	1535104	0	261929	949803	1535104	1273175	69713	1680	2241	233	767448	3189712	73867
83	2017-07-04 13:41:26		0	0	0	0	0	0	24.06	4.54	0.21	1535793	0	262184	949803	1535793	1273609	69744	1680	2242	233	767448	3189749	73899
84	2017-07-04 13:51:25		0	0	0	0	0	0	24.06	4.54	0.21	1536474	0	262463	949803	1536474	1274011	69769	1680	2242	233	767448	3189767	73924
85	2017-07-04 14:01:27		0	0	0	0	0	0	24.06	4.54	0.21	1537155	0	262744	950933	1537155	1274411	69805	1680	2242	233	767448	3189803	73960
86	2017-07-04 14:11:26		0	0	0	0	0	0	24.06	4.54	0.21	1537797	0	263004	951810	1537797	1274793	69836	1680	2242	233	767448	3189833	73991
87	2017-07-04 14:21:26		0	0	0	0	0	0	24.06	4.54	0.21	1538441	0	263276	951810	1538441	1275165	69852	1680	2244	233	767448	3189865	74009
88	2017-07-04 14:31:26		0	0	0	0	0	0	24.09	4.54	0.21	1539106	0	263561	951810	1539106	1275545	69882	1680	2244	233	768591	3189895	74039
89	2017-07-04 14:41:27		0	0	0	0	0	0	24.09	4.54	0.21	1539766	0	263870	952103	1539766	1275896	69914	1684	2245	233	768591	3189931	74076
90	2017-07-04 14:51:25		0	0	0	0	0	0	24.09	4.54	0.21	1540454	0	264172	952103	1540454	1276282	69948	1684	2245	233	768591	3189965	74110
91	2017-07-04 15:01:31		0	0	0	0	0	0	24.09	4.54	0.21	1541162	0	264486	952103	1541162	1276676	69976	1684	2247	233	768591	3189993	74140
92	2017-07-04 15:11:32		0	0	0	0	0	0	24.11	4.54	0.21	1541721	0	264732	952689	1541721	1276989	69997	1686	2247	233	768973	3190029	74163
93	2017-07-04 15:21:36		0	0	0	0	0	0	24.12	4.54	0.21	1542344	0	264993	953495	1542344	1277351	70018	1688	2247	233	769498	3190077	74186
94	2017-07-04 15:31:33		0	0	0	0	0	0	24.12	4.54	0.21	1542899	0	265242	955260	1542899	1277657	70035	1688	2247	233	769498	3190120	74203
95	2017-07-04 15:41:28		0	0	0	0	0	0	24.12	4.54	0.21	1543461	0	265484	955260	1543461	1277977	70055	1688	2247	233	769498	3190163	74223
96	2017-07-04 15:51:28		0	0	0	0	0	0	24.12	4.54	0.21	1544031	0	265726	956145	1544031	1278305	70072	1692	2247	233	769498	3190196	74244
97	2017-07-04 16:01:27		0	0	0	0	0	0	24.12	4.54	0.21	1544582	0	265936	956145	1544582	1278646	70101	1692	2247	233	769498	3190239	74273
98	2017-07-04 16:11:27		0	0	0	0	0	0	24.12	4.54	0.21	1545164	0	266161	956367	1545164	1279003	70128	1692	2247	233	769498	3190287	74300
99	2017-07-04 16:21:28		0	0	0	0	0	0	24.12	4.54	0.21	1545722	0	266388	956367	1545722	1279334	70154	1692	2247	233	769498	3190321	74326
100	2017-07-04 16:31:29		0	0	0	0	0	0	24.12	4.54	0.21	1546239	0	266609	956367	1546239	1279630	70177	1692	2247	233	769498	3190356	74349
101	2017-07-04 16:41:28		0	0	0	0	0	0	24.12	4.54	0.21	1546824	0	266840	957254	1546824	1279984	70200	1692	2247	233	769498	3190396	74372
102	2017-07-04 16:51:29		0	0	0	0	0	0	24.13	4.54	0.21	1547356	0	267065	957254	1547356	1280291	70226	1692	2249	233	769881	3190436	74400
103	2017-07-04 17:01:31		0	0	0	0	0	0	24.13	4.54	0.21	1547938	0	267333	957254	1547938	1280605	70252	1692	2250	233	769881	3190473	74427
104	2017-07-04 17:11:29		0	0	0	0	0	0	24.13	4.54	0.21	1548469	0	267539	957254	1548469	1280930	70272	1692	2251	233	769881	3190510	74448
105	2017-07-04 17:21:31		0	0	0	0	0	0	24.13	4.54	0.21	1549024	0	267765	957254	1549024	1281259	70294	1694	2251	234	769881	3190553	74473
106	2017-07-04 17:31:41		0	0	0	0	0	0	24.13	4.54	0.21	1549604	0	268005	958291	1549604	1281599	70320	1696	2251	234	769881	3190593	74501
107	2017-07-04 17:41:40		0	0	0	0	0	0	24.13	4.54	0.21	1550207	0	268261	958578	1550207	1281946	70344	1696	2252	234	769881	3190649	74526
108	2017-07-04 17:51:39		0	0	0	0	0	0	24.13	4.54	0.21	1550792	0	268511	958578	1550792	1282281	70371	1696	2252	234	769881	3190691	74553
109	2017-07-04 18:01:32		0	0	0	0	0	0	24.13	4.54	0.21	1551361	0	268745	958875	1551361	1282616	70402	1696	2252	234	769881	3190738	74584
110	2017-07-04 18:11:29		0	0	0	0	0	0	24.13	4.54	0.21	1551903	0	268963	958875	1551903	1282940	70425	1696	2252	234	769881	3190791	74607
111	2017-07-04 18:21:31		0	0	0	0	0	0	24.13	4.54	0.21	1552446	0	269187	958875	1552446	1283259	70453	1698	2252	234	769881	3190839	74637
112	2017-07-04 18:31:30		0	0	0	0	0	0	24.13	4.54	0.21	1553012	0	269429	960660	1553012	1283583	70470	1698	2252	234	769881	3190878	74654
113	2017-07-04 18:41:31		0	0	0	0	0	0	24.13	4.54	0.21	1553584	0	269657	960660	1553584	1283927	70493	1698	2252	234	769881	3190919	74677
114	2017-07-04 18:51:31		0	0	0	0	0	0	24.13	4.54	0.21	1554126	0	269868	960660	1554126	1284258	70516	1698	2253	234	769881	3190971	74701
115	2017-07-04 19:01:32		0	0	0	0	0	0	24.13	4.54	0.21	1554713	0	270083	960660	1554713	1284630	70538	1698	2255	234	769881	3191010	74725
116	2017-07-04 19:11:31		0	0	0	0	0	0	24.13	4.54	0.21	1555250	0	270276	960958	1555250	1284974	70560	1698	2256	234	769881	3191052	74748
117	2017-07-04 19:21:34		0	0	0	0	0	0	24.14	4.54	0.21	1555799	0	270468	960958	1555799	1285331	70573	1698	2256	234	770264	3191109	74761
118	2017-07-04 19:31:36		0	0	0	0	0	0	24.14	4.54	0.21	1556343	0	270700	960958	1556343	1285643	70592	1698	2256	234	770264	3191175	74780
119	2017-07-04 19:41:39		0	0	0	0	0	0	24.14	4.54	0.21	1556842	0	270876	961219	1556842	1285966	70609	1698	2256	234	770264	3191221	74797
120	2017-07-04 19:51:52		0	0	0	0	0	0	24.18	4.54	0.21	1557391	0	271076	961518	1557391	1286315	70635	1698	2256	234	771607	3191264	74823
121	2017-07-04 20:01:40		0	0	0	0	0	0	24.18	4.54	0.21	1557924	0	271288	961518	1557924	1286636	70652	1698	2256	234	771607	3191318	74840
122	2017-07-04 20:11:37		0	0	0	0	0	0	24.22	4.53	0.21	1558495	0	271481	961518	1558495	1287014	70668	1698	2256	234	772956	3191377	74856
123	2017-07-04 20:21:33		0	0	0	0	0	0	24.22	4.53	0.21	1559042	0	271669	961518	1559042	1287373	70693	1698	2256	234	772956	3191427	74881
124	2017-07-04 20:31:34		0	0	0	0	0	0	24.22	4.53	0.21	1559568	0	271868	961518	1559568	1287700	70712	1698	2256	235	772956	3191469	74901
125	2017-07-04 20:41:33		0	0	0	0	0	0	24.22	4.53	0.21	1560065	0	272052	961518	1560065	1288013	70729	1698	2256	235	772956	3191529	74918
126	2017-07-04 20:51:31		0	0	0	0	0	0	24.22	4.53	0.21	1560618	0	272248	961815	1560618	1288370	70753	1698	2257	235	772956	3191581	74943
127	2017-07-04 21:01:35		0	0	0	0	0	0	24.22	4.53	0.21	1561136	0	272428	961815	1561136	1288708	70770	1698	2257	235	772956	3191632	74960
128	2017-07-04 21:11:36		0	0	0	0	0	0	24.22	4.53	0.21	1561549	0	272601	961815	1561549	1288948	70788	1698	2258	235	772956	3191689	74979
129	2017-07-04 21:21:43		0	0	0	0	0	0	24.22	4.53	0.21	1561960	0	272772	963911	1561960	1289188	70809	1698	2259	235	772956	3191754	75001
130	2017-07-04 21:31:52		0	0	0	0	0	0	24.22	4.53	0.21	1562380	0	272957	963911	1562380	1289423	70829	1698	2259	236	772956	3191833	75022
131	2017-07-04 21:41:50		0	0	0	0	0	0	24.23	4.53	0.21	1562786	0	273117	964512	1562786	1289669	70853	1698	2261	236	773342	3191887	75048
132	2017-07-04 21:51:42		0	0	0	0	0	0	24.23	4.53	0.21	1563196	0	273302	964512	1563196	1289894	70873	1698	2261	236	773342	3191953	75068
133	2017-07-04 22:01:42		0	0	0	0	0	0	24.23	4.53	0.21	1563589	0	273467	964512	1563589	1290122	70880	1698	2261	236	773342	3192009	75075
134	2017-07-04 22:11:52		0	0	0	0	0	0	24.23	4.53	0.21	1563979	0	273626	964512	1563979	1290353	70896	1698	2261	236	773342	3192075	75091
135	2017-07-04 22:21:43		0	0	0	0	0	0	24.23	4.53	0.21	1564371	0	273792	964512	1564371	1290579	70910	1698	2261	236	773342	3192129	75105
136	2017-07-04 22:31:44		0	0	0	0	0	0	24.23	4.53	0.21	1564778	0	273973	964512	1564778	1290805	70926	1698	2261	236	773342	3192209	75121
137	2017-07-04 22:41:49		0	0	0	0	0	0	24.23	4.53	0.21	1565169	0	274135	964512	1565169	1291034	70950	1698	2262	236	773342	3192282	75146
138	2017-07-04 22:51:43		0	0	0	0	0	0	24.25	4.53	0.21	1565529	0	274271	965715	1565529	1291258	70968	1700	2262	236	774115	3192355	75166
139	2017-07-04 23:01:46		0	0	0	0	0	0	24.25	4.53	0.21	1565876	0	274419	966318	1565876	1291457	70979	1700	2264	236	774115	3192414	75179
140	2017-07-04 23:11:42		0	0	0	0	0	0	24.25	4.53	0.21	1566253	0	274562	967044	1566253	1291691	70994	1702	2265	236	774200	3192500	75197
141	2017-07-04 23:21:45		0	0	0	0	0	0	24.25	4.53	0.21	1566564	0	274678	967044	1566564	1291886	71009	1702	2265	236	774200	3192567	75212
142	2017-07-04 23:31:59		0	0	0	0	0	0	24.25	4.53	0.21	1566891	0	274795	967044	1566891	1292096	71021	1702	2265	236	774200	3192649	75224
143	2017-07-04 23:41:58		0	0	0	0	0	0	24.25	4.53	0.21	1567209	0	274933	967497	1567209	1292276	71029	1700	2265	236	774200	3192720	75230
144	2017-07-04 23:52:01		0	0	0	0	0	0	24.25	4.53	0.21	1567466	0	275044	968102	1567466	1292422	71039	1700	2265	236	774200	3192759	75240
145	2017-07-05 00:02:19		0	0	0	0	0	0	24.26	4.53	0.21	1567684	0	275148	968708	1567684	1292536	71049	1700	2265	236	774587	3192793	75250
146	2017-07-05 01:01:44		0	0	0	0	0	0	24.3	4.53	0.21	1568899	0	275649	968859	1568899	1293250	71109	1702	2266	236	776043	3193223	75313
147	2017-07-05 02:01:51		0	0	0	0	0	0	24.3	4.53	0.21	1569456	0	275876	969922	1569456	1293580	71140	1702	2266	236	776043	3193377	75344
148	2017-07-05 03:01:45		0	0	0	0	0	0	24.3	4.53	0.21	1569763	0	276007	969922	1569763	1293756	71150	1704	2266	236	776043	3193438	75356
149	2017-07-05 04:01:47		0	0	0	0	0	0	24.3	4.53	0.21	1569947	0	276100	969922	1569947	1293847	71157	1706	2266	237	776043	3193477	75366
150	2017-07-05 05:01:58		0	0	0	0	0	0	24.3	4.53	0.21	1570099	0	276163	969922	1570099	1293936	71161	1706	2266	237	776043	3193497	75370
151	2017-07-05 06:03:12		0	0	0	0	0	0	24.3	4.53	0.21	1570381	0	276288	969922	1570381	1294093	71168	1706	2266	237	776043	3193538	75377
152	2017-07-05 07:03:20		0	0	0	0	0	0	24.3	4.53	0.21	1570769	0	276465	969922	1570769	1294304	71191	1706	2267	237	776043	3193627	75401
153	2017-07-05 07:14:15		0	0	0	0	0	0	24.3	4.53	0.21	1570861	0	276499	969922	1570861	1294362	71195	1706	2268	237	776043	3193653	75406
154	2017-07-05 07:28:58		0	0	0	0	0	0	24.3	4.53	0.21	1571027	0	276576	969922	1571027	1294451	71201	1706	2268	237	776043	3193686	75412
155	2017-07-05 07:38:24		0	0	0	0	0	0	24.3	4.53	0.21	1571149	0	276635	969922	1571149	1294514	71204	1706	2268	237	776043	3193706	75415
156	2017-07-05 07:49:07		0	0	0	0	0	0	24.3	4.53	0.21	1571258	0	276682	969922	1571258	1294576	71208	1706	2268	237	776043	3193734	75419
157	2017-07-05 08:00:37		0	0	0	0	0	0	24.3	4.53	0.21	1571471	0	276773	969922	1571471	1294698	71220	1706	2269	237	776043	3193766	75432
158	2017-07-05 08:15:22		0	0	0	0	0	0	24.3	4.53	0.21	1571669	0	276858	969922	1571669	1294811	71229	1706	2269	237	776043	3193836	75441
159	2017-07-05 08:25:46		0	0	0	0	0	0	24.3	4.53	0.21	1571808	0	276909	970226	1571808	1294899	71235	1706	2269	237	776043	3193868	75447
160	2017-07-05 08:35:52		0	0	0	0	0	0	24.3	4.53	0.21	1571961	0	276972	970226	1571961	1294989	71240	1706	2269	237	776043	3193900	75452
161	2017-07-05 08:45:58		0	0	0	0	0	0	24.3	4.53	0.21	1572084	0	277024	970226	1572084	1295060	71246	1706	2269	238	776043	3193955	75459
162	2017-07-05 08:59:50		0	0	0	0	0	0	24.3	4.53	0.21	1572292	0	277115	970226	1572292	1295177	71253	1706	2269	238	776043	3194023	75466
163	2017-07-05 09:22:48		0	0	0	0	0	0	24.3	4.53	0.21	1572525	0	277219	970492	1572525	1295306	71265	1706	2269	238	776043	3194154	75478
164	2017-07-05 09:38:02		0	0	0	0	0	0	24.29	4.53	0.21	1572728	0	277289	970492	1572728	1295439	71270	1706	2270	238	776043	3194256	75484
165	2017-07-05 09:47:58		0	0	0	0	0	0	24.29	4.53	0.21	1572842	0	277329	970492	1572842	1295513	71277	1706	2270	238	776043	3194344	75491
166	2017-07-05 09:58:11		0	0	0	0	0	0	24.29	4.53	0.21	1572962	0	277370	970492	1572962	1295592	71289	1706	2270	238	776043	3194425	75503
167	2017-07-05 10:25:41		0	0	0	0	0	0	24.29	4.53	0.21	1573332	0	277501	970492	1573332	1295831	71302	1708	2270	238	776043	3194583	75518
168	2017-07-05 10:49:05		0	0	0	0	0	0	24.29	4.53	0.21	1573560	0	277582	970720	1573560	1295978	71315	1708	2271	238	776043	3194743	75532
169	2017-07-05 10:58:44		0	0	0	0	0	0	24.29	4.53	0.21	1573671	0	277626	970720	1573671	1296045	71319	1708	2271	238	776043	3194799	75536
170	2017-07-05 11:10:56		0	0	0	0	0	0	24.29	4.53	0.21	1573862	0	277710	970720	1573862	1296152	71327	1708	2271	238	776043	3194853	75544
171	2017-07-05 11:21:44		0	0	0	0	0	0	24.29	4.53	0.21	1573963	0	277744	970720	1573963	1296219	71329	1708	2271	238	776043	3194909	75546
172	2017-07-05 11:37:12		0	0	0	0	0	0	24.29	4.53	0.21	1574150	0	277830	970720	1574150	1296320	71336	1708	2271	238	776043	3194979	75553
173	2017-07-05 12:01:37		0	0	0	0	0	0	24.31	4.53	0.21	1574437	0	277936	971939	1574437	1296501	71346	1708	2272	238	776822	3195124	75564
174	2017-07-05 12:32:18		0	0	0	0	0	0	24.32	4.53	0.21	1574709	0	278044	972244	1574709	1296665	71359	1708	2273	238	777017	3195284	75578
175	2017-07-05 12:46:54		0	0	0	0	0	0	24.32	4.53	0.21	1574871	0	278116	972244	1574871	1296755	71365	1708	2273	238	777017	3195352	75584
176	2017-07-05 13:13:34		0	0	0	0	0	0	24.32	4.53	0.21	1575124	0	278210	972244	1575124	1296914	71370	1708	2273	238	777017	3195469	75589
177	2017-07-05 13:26:43		0	0	0	0	0	0	24.34	4.53	0.21	1575282	0	278268	973390	1575282	1297014	71378	1712	2273	238	777749	3195534	75601
178	2017-07-05 13:37:53		0	0	0	0	0	0	24.34	4.53	0.21	1575399	0	278306	973390	1575399	1297093	71381	1712	2273	238	777749	3195582	75604
179	2017-07-05 14:00:16		0	0	0	0	0	0	24.34	4.53	0.21	1575717	0	278395	973390	1575717	1297322	71389	1712	2273	238	777749	3195669	75612
180	2017-07-05 14:20:26		0	0	0	0	0	0	24.34	4.53	0.21	1575968	0	278475	973390	1575968	1297493	71394	1712	2273	238	777749	3195752	75617
181	2017-07-05 14:30:58		0	0	0	0	0	0	24.34	4.53	0.21	1576089	0	278500	973390	1576089	1297589	71398	1712	2273	238	777749	3195795	75621
182	2017-07-05 14:48:04		0	0	0	0	0	0	24.34	4.53	0.21	1576260	0	278554	973390	1576260	1297706	71401	1712	2273	238	777749	3195875	75624
183	2017-07-05 15:05:25		0	0	0	0	0	0	24.34	4.53	0.21	1576522	0	278620	973620	1576522	1297902	71416	1714	2274	238	777896	3195958	75642
184	2017-07-05 15:16:58		0	0	0	0	0	0	24.34	4.53	0.21	1576663	0	278665	973620	1576663	1297998	71420	1714	2274	238	777896	3196021	75646
185	2017-07-05 15:27:51		0	0	0	0	0	0	24.34	4.53	0.21	1576802	0	278700	973620	1576802	1298102	71421	1714	2274	238	777896	3196070	75647
186	2017-07-05 16:13:17		0	0	0	0	0	0	24.34	4.53	0.21	1577420	0	278872	974539	1577420	1298548	71440	1714	2274	238	777896	3196275	75666
187	2017-07-05 16:53:02		0	0	0	0	0	0	24.36	4.53	0.21	1577877	0	279009	975614	1577877	1298868	71456	1716	2275	238	778580	3196476	75685
188	2017-07-05 17:03:19		0	0	0	0	0	0	24.36	4.53	0.21	1577997	0	279043	976229	1577997	1298954	71461	1716	2275	238	778580	3196540	75690
189	2017-07-05 17:13:11		0	0	0	0	0	0	24.37	4.53	0.21	1578120	0	279074	977153	1578120	1299046	71467	1716	2275	238	779168	3196603	75696
190	2017-07-05 17:23:07		0	0	0	0	0	0	24.37	4.53	0.21	1578224	0	279096	977153	1578224	1299128	71470	1716	2275	238	779168	3196651	75699
191	2017-07-05 17:33:12		0	0	0	0	0	0	24.37	4.53	0.21	1578362	0	279135	977153	1578362	1299227	71475	1716	2275	238	779168	3196706	75704
192	2017-07-05 17:43:11		0	0	0	0	0	0	24.37	4.53	0.21	1578499	0	279164	977153	1578499	1299335	71481	1716	2275	238	779168	3196750	75710
193	2017-07-05 17:53:11		0	0	0	0	0	0	24.37	4.53	0.21	1578639	0	279187	977153	1578639	1299452	71481	1716	2275	238	779168	3196815	75710
194	2017-07-05 18:03:10		0	0	0	0	0	0	24.37	4.53	0.21	1578789	0	279231	978079	1578789	1299558	71487	1716	2275	238	779168	3196861	75716
195	2017-07-05 18:13:11		0	0	0	0	0	0	24.37	4.53	0.21	1578927	0	279260	978079	1578927	1299667	71490	1716	2275	238	779168	3196911	75719
196	2017-07-05 18:23:18		0	0	0	0	0	0	24.37	4.53	0.21	1579051	0	279292	978079	1579051	1299759	71496	1716	2275	238	779168	3196952	75725
197	2017-07-05 18:33:10		0	0	0	0	0	0	24.37	4.53	0.21	1579197	0	279323	978079	1579197	1299874	71499	1716	2275	238	779168	3196995	75728
198	2017-07-05 18:43:11		0	0	0	0	0	0	24.37	4.53	0.21	1579325	0	279351	978156	1579325	1299974	71503	1716	2275	238	779168	3197056	75732
199	2017-07-05 18:53:10		0	0	0	0	0	0	24.37	4.53	0.21	1579436	0	279384	978156	1579436	1300052	71511	1716	2275	238	779168	3197112	75740
200	2017-07-05 19:03:11		0	0	0	0	0	0	24.37	4.53	0.21	1579573	0	279416	978465	1579573	1300157	71515	1714	2275	238	779168	3197152	75742
201	2017-07-05 19:13:12		0	0	0	0	0	0	24.37	4.53	0.21	1579700	0	279442	978465	1579700	1300258	71519	1714	2276	238	779168	3197186	75747
202	2017-07-05 19:23:12		0	0	0	0	0	0	24.37	4.53	0.21	1579827	0	279474	979394	1579827	1300353	71524	1714	2276	238	779168	3197219	75752
203	2017-07-05 19:33:10		0	0	0	0	0	0	24.37	4.53	0.21	1579972	0	279498	979394	1579972	1300474	71529	1714	2276	238	779168	3197254	75757
204	2017-07-05 19:43:13		0	0	0	0	0	0	24.37	4.53	0.21	1580119	0	279526	980324	1580119	1300593	71534	1714	2277	238	779168	3197293	75763
205	2017-07-05 19:53:11		0	0	0	0	0	0	24.37	4.53	0.21	1580273	0	279556	980324	1580273	1300717	71540	1714	2277	238	779168	3197344	75769
206	2017-07-05 20:03:12		0	0	0	0	0	0	24.37	4.53	0.21	1580438	0	279594	980324	1580438	1300844	71546	1714	2277	238	779168	3197384	75775
207	2017-07-05 20:13:14		0	0	0	0	0	0	24.37	4.53	0.21	1580571	0	279619	980868	1580571	1300952	71547	1714	2277	238	779168	3197420	75776
208	2017-07-05 20:23:15		0	0	0	0	0	0	24.37	4.53	0.21	1580721	0	279660	980868	1580721	1301061	71551	1714	2277	238	779168	3197452	75780
209	2017-07-05 20:33:14		0	0	0	0	0	0	24.37	4.53	0.21	1580864	0	279688	980868	1580864	1301176	71556	1714	2277	238	779168	3197478	75785
210	2017-07-05 20:43:17		0	0	0	0	0	0	24.37	4.53	0.21	1581050	0	279722	980868	1581050	1301328	71561	1714	2277	238	779168	3197506	75790
211	2017-07-05 20:53:21		0	0	0	0	0	0	24.37	4.53	0.21	1581134	0	279739	980868	1581134	1301395	71561	1714	2277	238	779168	3197546	75790
212	2017-07-05 21:03:24		0	0	0	0	0	0	24.37	4.53	0.21	1581282	0	279770	980868	1581282	1301512	71566	1714	2277	238	779168	3197587	75795
213	2017-07-05 21:13:22		0	0	0	0	0	0	24.37	4.53	0.21	1581420	0	279793	980868	1581420	1301627	71571	1714	2278	238	779168	3197633	75801
214	2017-07-05 21:23:16		0	0	0	0	0	0	24.37	4.53	0.21	1581564	0	279824	980868	1581564	1301740	71572	1714	2278	238	779168	3197676	75802
215	2017-07-05 21:33:14		0	0	0	0	0	0	24.37	4.53	0.21	1581735	0	279854	980868	1581735	1301881	71577	1714	2279	238	779168	3197731	75808
216	2017-07-05 21:43:10		0	0	0	0	0	0	24.37	4.53	0.21	1581890	0	279882	980868	1581890	1302008	71585	1714	2280	238	779168	3197778	75817
217	2017-07-05 21:53:09		0	0	0	0	0	0	24.37	4.53	0.21	1582058	0	279911	980868	1582058	1302147	71592	1714	2280	238	779168	3197825	75824
218	2017-07-05 22:03:10		0	0	0	0	0	0	24.37	4.53	0.21	1582222	0	279942	980868	1582222	1302280	71597	1714	2280	238	779168	3197890	75829
219	2017-07-05 22:13:10		0	0	0	0	0	0	24.36	4.52	0.21	1582380	0	279974	980868	1582380	1302406	71601	1714	2280	238	779168	3197947	75833
220	2017-07-05 22:23:10		0	0	0	0	0	0	24.36	4.52	0.21	1582569	0	280007	980868	1582569	1302562	71605	1714	2280	238	779168	3198001	75837
221	2017-07-05 22:33:11		0	0	0	0	0	0	24.36	4.52	0.21	1582742	0	280041	980868	1582742	1302701	71609	1714	2280	238	779168	3198051	75841
222	2017-07-05 22:43:11		0	0	0	0	0	0	24.36	4.52	0.21	1582913	0	280078	980868	1582913	1302835	71612	1714	2280	238	779168	3198104	75844
223	2017-07-05 22:53:11		0	0	0	0	0	0	24.36	4.52	0.21	1583085	0	280125	980868	1583085	1302960	71616	1714	2280	238	779168	3198159	75848
224	2017-07-05 23:03:11		0	0	0	0	0	0	24.36	4.52	0.22	1583216	0	280158	980868	1583216	1303058	71626	1714	2281	238	779168	3198227	75859
225	2017-07-05 23:13:12		0	0	0	0	0	0	24.36	4.52	0.22	1583384	0	280201	981178	1583384	1303183	71632	1714	2281	238	779168	3198307	75865
226	2017-07-05 23:23:10		0	0	0	0	0	0	24.36	4.52	0.22	1583533	0	280246	981178	1583533	1303287	71636	1714	2281	238	779168	3198376	75869
227	2017-07-05 23:33:13		0	0	0	0	0	0	24.36	4.52	0.22	1583710	0	280274	981178	1583710	1303436	71641	1714	2281	238	779168	3198446	75874
228	2017-07-05 23:43:24		0	0	0	0	0	0	24.36	4.52	0.22	1583828	0	280310	981178	1583828	1303518	71646	1714	2281	238	779168	3198505	75879
229	2017-07-05 23:53:38		0	0	0	0	0	0	24.36	4.52	0.22	1583966	0	280344	981178	1583966	1303622	71650	1714	2282	238	779168	3198554	75884
230	2017-07-06 00:15:48		0	0	0	0	0	0	24.36	4.52	0.22	1584239	0	280394	981178	1584239	1303845	71668	1714	2282	238	779168	3198637	75902
231	2017-07-06 01:15:44		0	0	0	0	0	0	24.36	4.52	0.22	1584681	0	280470	981178	1584681	1304211	71688	1714	2282	238	779168	3198803	75922
232	2017-07-06 02:15:45		0	0	0	0	0	0	24.36	4.52	0.22	1584927	0	280510	981178	1584927	1304417	71696	1714	2282	238	779168	3198879	75930
233	2017-07-06 03:15:44		0	0	0	0	0	0	24.36	4.52	0.22	1585070	0	280543	981178	1585070	1304527	71702	1714	2282	238	779168	3198915	75936
234	2017-07-06 04:15:44		0	0	0	0	0	0	24.36	4.52	0.22	1585177	0	280575	981178	1585177	1304602	71704	1714	2282	238	779168	3198936	75938
235	2017-07-06 05:15:45		0	0	0	0	0	0	24.36	4.52	0.22	1585271	0	280605	981178	1585271	1304666	71704	1714	2282	238	779168	3198954	75938
236	2017-07-06 06:15:46		0	0	0	0	0	0	24.36	4.52	0.22	1585412	0	280639	981178	1585412	1304773	71704	1714	2282	238	779168	3198990	75938
237	2017-07-06 07:03:20		0	0	0	0	0	0	24.36	4.52	0.22	1585626	0	280684	981178	1585626	1304942	71707	1714	2282	238	779168	3199046	75941
238	2017-07-06 07:13:14		0	0	0	0	0	0	24.36	4.52	0.22	1585673	0	280693	981178	1585673	1304980	71711	1714	2282	238	779168	3199064	75945
239	2017-07-06 07:23:20		0	0	0	0	0	0	24.36	4.52	0.22	1585745	0	280707	981178	1585745	1305038	71712	1714	2282	238	779168	3199078	75946
240	2017-07-06 07:33:20		0	0	0	0	0	0	24.36	4.52	0.22	1585827	0	280722	981178	1585827	1305105	71713	1714	2282	238	779168	3199098	75947
241	2017-07-06 07:43:24		0	0	0	0	0	0	24.36	4.52	0.22	1585899	0	280739	981178	1585899	1305160	71717	1714	2282	238	779168	3199124	75951
242	2017-07-06 07:53:21		0	0	0	0	0	0	24.36	4.52	0.22	1585976	0	280750	981178	1585976	1305226	71719	1714	2282	238	779168	3199153	75953
243	2017-07-06 08:03:36		0	0	0	0	0	0	24.36	4.52	0.22	1586045	0	280758	981178	1586045	1305287	71723	1714	2283	238	779168	3199173	75958
244	2017-07-06 08:13:23		0	0	0	0	0	0	24.36	4.52	0.22	1586141	0	280774	981178	1586141	1305367	71725	1714	2283	238	779168	3199204	75960
245	2017-07-06 08:23:20		0	0	0	0	0	0	24.35	4.52	0.22	1586242	0	280788	981178	1586242	1305454	71729	1714	2283	238	779168	3199234	75964
246	2017-07-06 08:33:17		0	0	0	0	0	0	24.35	4.52	0.22	1586327	0	280804	981178	1586327	1305523	71733	1714	2283	238	779168	3199270	75968
247	2017-07-06 08:43:18		0	0	0	0	0	0	24.35	4.52	0.22	1586402	0	280821	981178	1586402	1305581	71735	1714	2283	238	779168	3199309	75970
248	2017-07-06 08:53:38		0	0	0	0	0	0	24.35	4.52	0.22	1586487	0	280838	981178	1586487	1305649	71739	1714	2283	238	779168	3199346	75974
