1	2016-07-15 13:28:07	0	0	0	0	0	0	0.39	0.34	0	8617	0	15	7576	8617	8602	29	0	0	0	7563	1959980	0
2	2016-07-15 13:38:06	0	0	0	0	0	0	0.76	0.35	0.01	17848	0	138	15050	17848	17710	63	20	1	0	14856	1959995	0
3	2016-07-15 13:48:07	0	0	0	0	0	0	1.05	0.43	0.01	25731	0	366	20875	25731	25365	110	30	1	0	20571	1960004	0
4	2016-07-15 13:58:08	0	0	0	0	0	0	1.5	0.39	0.03	40539	0	1083	30103	40539	39456	157	45	2	0	29416	1960025	0
5	2016-07-15 14:08:07	0	0	0	0	0	0	1.72	0.53	0.03	47503	0	1524	34716	47503	45979	251	59	5	2	33776	1960043	317
6	2016-07-15 14:18:07	0	0	0	0	0	0	1.9	0.55	0.04	52290	0	1853	38221	52290	50437	286	61	6	2	37197	1960054	355
7	2016-07-15 14:28:08	0	0	0	0	0	0	2.23	0.58	0.05	62443	0	2726	45488	62443	59717	361	74	9	3	43712	1960071	447
8	2016-07-15 14:38:06	0	0	0	0	0	0	2.34	0.6	0.05	67377	0	3243	48081	67377	64134	407	82	11	3	45952	1960083	503
9	2016-07-15 14:48:08	0	0	0	0	0	0	2.47	0.6	0.05	71321	0	3675	50726	71321	67646	428	86	12	3	48324	1960107	529
10	2016-07-15 14:58:08	0	0	0	0	0	0	2.65	0.62	0.06	78621	0	4518	55200	78621	74103	491	94	14	3	51914	1960115	602
11	2016-07-15 15:08:08	0	0	0	0	0	0	2.76	0.64	0.06	81629	0	4906	57867	81629	76723	523	98	15	3	54112	1960126	639
12	2016-07-15 15:18:07	0	0	0	0	0	0	2.97	0.65	0.07	88503	0	5744	62716	88503	82759	571	106	17	3	58129	1960142	697
13	2016-07-15 15:28:09	0	0	0	0	0	0	3.04	0.65	0.07	91627	0	6138	64131	91627	85489	593	110	17	4	59585	1960160	724
14	2016-07-15 15:38:08	0	0	0	0	0	0	3.09	0.65	0.07	94516	0	6534	65458	94516	87982	617	113	19	4	60624	1960174	753
15	2016-07-15 15:48:10	0	0	0	0	0	0	3.26	0.67	0.08	100318	0	7338	68923	100318	92980	672	122	20	4	63891	1960183	818
16	2016-07-15 15:58:08	0	0	0	0	0	0	3.33	0.67	0.08	103003	0	7763	70586	103003	95240	685	125	24	4	65219	1960193	838
17	2016-07-15 16:08:09	0	0	0	0	0	0	3.42	0.68	0.09	108163	0	8597	72443	108163	99566	738	132	27	4	67092	1960203	901
18	2016-07-15 16:18:08	0	0	0	0	0	0	3.46	0.69	0.09	110926	0	9015	73721	110926	101911	768	137	31	4	67787	1960217	940
19	2016-07-15 16:28:09	0	0	0	0	0	0	3.51	0.7	0.09	113207	0	9374	75090	113207	103833	788	139	31	4	68710	1960237	962
20	2016-07-15 16:38:08	0	0	0	0	0	0	3.65	0.71	0.09	118080	0	10137	78319	118080	107943	837	146	35	4	71529	1960261	1022
21	2016-07-15 16:48:08	0	0	0	0	0	0	3.69	0.71	0.1	120476	0	10513	79855	120476	109963	859	149	36	5	72397	1960280	1049
22	2016-07-15 16:58:08	0	0	0	0	0	0	3.8	0.74	0.1	124681	0	11178	82657	124681	113503	917	155	37	6	74506	1960301	1115
23	2016-07-15 17:08:09	0	0	0	0	0	0	3.86	0.74	0.1	126806	0	11586	84464	126806	115220	938	161	41	6	75615	1960313	1146
24	2016-07-15 17:18:09	0	0	0	0	0	0	3.97	0.74	0.1	130743	0	12259	87616	130743	118484	969	166	43	6	77817	1960331	1184
25	2016-07-15 17:28:09	0	0	0	0	0	0	4	0.74	0.11	132632	0	12614	88121	132632	120018	986	170	45	6	78337	1960336	1207
26	2016-07-15 17:38:28	0	0	0	0	0	0	4.04	0.74	0.11	134411	0	12904	89445	134411	121507	995	171	46	6	79223	1960357	1218
27	2016-07-15 17:48:10	0	0	0	0	0	0	4.14	0.74	0.11	137831	0	13553	92085	137831	124278	1016	174	49	6	81162	1960369	1245
28	2016-07-15 17:58:10	0	0	0	0	0	0	4.19	0.73	0.11	139623	0	13895	93311	139623	125728	1023	178	51	7	82200	1960380	1259
29	2016-07-15 18:08:10	0	0	0	0	0	0	4.26	0.73	0.11	142746	0	14493	94836	142746	128253	1047	180	51	7	83445	1960391	1285
30	2016-07-15 18:18:10	0	0	0	0	0	0	4.28	0.73	0.11	144191	0	14779	95499	144191	129412	1059	182	53	7	83979	1960406	1301
31	2016-07-15 18:28:10	0	0	0	0	0	0	4.34	0.73	0.12	147349	0	15330	96820	147349	132019	1080	182	55	9	85111	1960422	1326
32	2016-07-15 18:38:11	0	0	0	0	0	0	4.41	0.73	0.12	148824	0	15562	97420	148824	133262	1090	184	55	9	86531	1960430	1338
33	2016-07-15 18:48:12	0	0	0	0	0	0	4.47	0.73	0.12	151735	0	16022	98904	151735	135713	1113	185	56	9	87680	1960441	1363
34	2016-07-15 18:58:13	0	0	0	0	0	0	4.5	0.74	0.12	153092	0	16250	99540	153092	136842	1129	186	57	9	88179	1960454	1381
35	2016-07-15 19:08:10	0	0	0	0	0	0	4.55	0.74	0.12	156002	0	16715	101165	156002	139287	1152	188	58	9	89215	1960470	1407
36	2016-07-15 19:18:10	0	0	0	0	0	0	4.57	0.74	0.12	157479	0	17076	101360	157479	140403	1167	193	63	9	89511	1960482	1432
37	2016-07-15 19:28:10	0	0	0	0	0	0	4.63	0.74	0.13	160519	0	17887	103610	160519	142632	1190	197	68	10	90847	1960487	1465
38	2016-07-15 19:38:10	0	0	0	0	0	0	4.67	0.74	0.13	162214	0	18359	104409	162214	143855	1205	198	71	10	91494	1960499	1484
39	2016-07-15 19:48:10	0	0	0	0	0	0	4.71	0.74	0.13	165312	0	19207	105965	165312	146105	1231	201	77	11	92357	1960502	1520
40	2016-07-15 19:58:11	0	0	0	0	0	0	4.76	0.74	0.13	167076	0	19707	107066	167076	147369	1239	203	80	11	93378	1960509	1533
41	2016-07-15 20:08:11	0	0	0	0	0	0	4.86	0.75	0.14	169617	0	20417	110094	169617	149200	1266	204	85	14	95245	1960516	1569
42	2016-07-15 20:18:10	0	0	0	0	0	0	4.88	0.75	0.14	170995	0	20768	111113	170995	150227	1282	205	87	14	95645	1960525	1588
43	2016-07-15 20:28:11	0	0	0	0	0	0	4.92	0.75	0.14	173657	0	21543	112522	173657	152114	1305	206	92	15	96466	1960529	1618
44	2016-07-15 20:38:10	0	0	0	0	0	0	4.95	0.75	0.14	175053	0	21978	113365	175053	153075	1321	208	94	17	97027	1960541	1640
45	2016-07-15 20:48:11	0	0	0	0	0	0	4.99	0.76	0.15	178028	0	22912	115010	178028	155116	1353	213	104	18	97814	1960552	1688
46	2016-07-15 20:58:12	0	0	0	0	0	0	5.01	0.76	0.15	179600	0	23355	115784	179600	156245	1368	216	110	18	98146	1960563	1712
47	2016-07-15 21:08:12	0	0	0	0	0	0	5.06	0.76	0.15	182288	0	24152	117062	182288	158136	1379	218	115	18	99132	1960573	1730
48	2016-07-15 21:18:11	0	0	0	0	0	0	5.09	0.77	0.15	183671	0	24539	118071	183671	159132	1409	220	119	18	99826	1960578	1766
49	2016-07-15 21:28:12	0	0	0	0	0	0	5.15	0.76	0.15	186568	0	24898	120183	186568	161246	1425	222	121	18	101003	1960592	1786
50	2016-07-15 21:38:28	0	0	0	0	0	0	5.22	0.77	0.16	187914	0	25655	121384	187914	162259	1444	228	126	23	102384	1960607	1821
51	2016-07-15 21:48:12	0	0	0	0	0	0	5.24	0.76	0.16	189203	0	25956	121761	189203	163247	1447	231	128	25	102693	1960614	1831
52	2016-07-15 21:58:12	0	0	0	0	0	0	5.29	0.77	0.16	192199	0	26745	123158	192199	165454	1477	238	134	25	103803	1960624	1874
53	2016-07-15 22:08:12	0	0	0	0	0	0	5.32	0.77	0.16	193660	0	27124	123794	193660	166536	1487	240	136	26	104388	1960639	1889
54	2016-07-15 22:18:11	0	0	0	0	0	0	5.37	0.77	0.17	196246	0	27828	124987	196246	168418	1509	243	144	26	105210	1960648	1922
55	2016-07-15 22:28:12	0	0	0	0	0	0	5.4	0.77	0.17	197718	0	28244	126003	197718	169474	1520	244	148	27	105872	1960654	1939
56	2016-07-15 22:38:12	0	0	0	0	0	0	5.43	0.77	0.17	199146	0	28619	126774	199146	170527	1533	245	151	27	106386	1960664	1956
57	2016-07-15 22:50:00	0	0	0	0	0	0	5.5	0.77	0.17	201724	0	29264	127932	201724	172460	1557	247	151	27	107786	1960665	1982
58	2016-07-15 22:58:11	0	0	0	0	0	0	5.52	0.78	0.17	203103	0	29558	128527	203103	173545	1576	249	153	27	108299	1960673	2005
59	2016-07-15 23:08:13	0	0	0	0	0	0	5.57	0.77	0.17	204670	0	29894	129511	204670	174776	1586	251	153	27	109150	1960673	2017
60	2016-07-15 23:18:11	0	0	0	0	0	0	5.63	0.77	0.17	207679	0	30545	131002	207679	177134	1603	253	154	27	110377	1960685	2037
61	2016-07-15 23:28:12	0	0	0	0	0	0	5.7	0.77	0.17	208908	0	30824	132030	208908	178084	1614	253	154	27	111811	1960699	2048
62	2016-07-15 23:38:12	0	0	0	0	0	0	5.76	0.77	0.17	211343	0	31348	133379	211343	179995	1627	255	158	27	112978	1960714	2067
63	2016-07-15 23:48:12	0	0	0	0	0	0	5.78	0.77	0.17	212559	0	31605	133956	212559	180954	1633	257	160	27	113342	1960720	2077
64	2016-07-15 23:58:11	0	0	0	0	0	0	5.79	0.76	0.17	214813	0	31780	135868	214813	182751	1640	259	163	27	113575	1960721	2089
65	2016-07-16 00:08:12	0	0	0	0	0	0	5.88	0.77	0.18	215920	0	32290	136680	215920	183630	1655	260	164	27	115364	1960726	2106
66	2016-07-16 00:18:11	0	0	0	0	0	0	5.9	0.77	0.18	216945	0	32505	137262	216945	184440	1663	260	165	27	115717	1960734	2115
67	2016-07-16 00:28:12	0	0	0	0	0	0	5.96	0.76	0.18	218910	0	32889	138721	218910	186021	1674	262	167	27	116861	1960739	2130
68	2016-07-16 00:38:12	0	0	0	0	0	0	5.97	0.76	0.18	219708	0	33050	139157	219708	186658	1680	262	167	27	117126	1960742	2136
69	2016-07-16 00:48:12	0	0	0	0	0	0	6.01	0.76	0.18	221436	0	33375	139874	221436	188061	1693	266	169	27	117812	1960750	2155
70	2016-07-16 00:58:12	0	0	0	0	0	0	6.04	0.77	0.18	222346	0	33545	140356	222346	188801	1704	268	169	27	118479	1960753	2168
71	2016-07-16 01:08:12	0	0	0	0	0	0	6.05	0.77	0.18	223068	0	33682	140636	223068	189386	1708	268	169	27	118679	1960759	2172
72	2016-07-16 01:18:11	0	0	0	0	0	0	6.07	0.77	0.18	224434	0	33937	141212	224434	190497	1718	270	169	27	119098	1960764	2184
73	2016-07-16 01:28:13	0	0	0	0	0	0	6.08	0.76	0.18	225013	0	34039	141496	225013	190974	1721	270	169	27	119263	1960771	2187
74	2016-07-16 01:38:15	0	0	0	0	0	0	6.1	0.76	0.18	226042	0	34212	142322	226042	191830	1725	270	172	27	119660	1960770	2194
75	2016-07-16 01:48:19	0	0	0	0	0	0	6.11	0.76	0.18	226505	0	34289	142571	226505	192216	1732	270	172	27	119836	1960779	2201
76	2016-07-16 01:58:13	0	0	0	0	0	0	6.12	0.76	0.18	227444	0	34435	142834	227444	193009	1736	270	172	27	120096	1960786	2205
77	2016-07-16 02:08:12	0	0	0	0	0	0	6.13	0.76	0.18	227871	0	34526	143218	227871	193345	1741	272	173	27	120348	1962031	2213
78	2016-07-16 02:18:11	0	0	0	0	0	0	6.15	0.76	0.18	228606	0	34651	143776	228606	193955	1746	273	174	27	120648	1962038	2220
79	2016-07-16 02:28:12	0	0	0	0	0	0	6.15	0.76	0.18	228959	0	34713	143830	228959	194246	1746	273	174	27	120686	1962041	2220
80	2016-07-16 02:38:11	0	0	0	0	0	0	6.16	0.76	0.18	229654	0	34839	144017	229654	194815	1750	274	174	27	120818	1962042	2225
81	2016-07-16 02:48:12	0	0	0	0	0	0	6.16	0.76	0.18	229954	0	34902	144124	229954	195052	1750	274	174	27	120893	1962043	2225
82	2016-07-16 02:58:12	0	0	0	0	0	0	6.16	0.76	0.18	230513	0	35004	144165	230513	195509	1751	275	174	27	120893	1962045	2227
83	2016-07-16 03:08:12	0	0	0	0	0	0	6.16	0.76	0.18	230797	0	35044	144338	230797	195753	1753	275	174	27	120930	1962049	2229
84	2016-07-16 03:18:11	0	0	0	0	0	0	6.19	0.76	0.18	231280	0	35110	144844	231280	196170	1754	275	174	27	121418	1962048	2230
85	2016-07-16 03:28:12	0	0	0	0	0	0	6.19	0.76	0.18	231483	0	35149	144844	231483	196334	1757	276	175	27	121456	1962049	2235
86	2016-07-16 03:38:12	0	0	0	0	0	0	6.2	0.76	0.18	231898	0	35215	145177	231898	196683	1760	276	175	27	121690	1962053	2238
87	2016-07-16 03:48:12	0	0	0	0	0	0	6.2	0.76	0.18	232065	0	35243	145197	232065	196822	1763	276	175	27	121705	1962055	2241
88	2016-07-16 03:58:12	0	0	0	0	0	0	6.22	0.76	0.18	232397	0	35294	145634	232397	197103	1764	276	175	27	122011	1962057	2242
89	2016-07-16 04:08:12	0	0	0	0	0	0	6.22	0.76	0.18	232559	0	35322	145634	232559	197237	1767	276	175	27	122011	1962059	2245
90	2016-07-16 04:18:12	0	0	0	0	0	0	6.22	0.76	0.18	232840	0	35373	145957	232840	197467	1768	277	175	27	122103	1962060	2247
91	2016-07-16 04:28:13	0	0	0	0	0	0	6.24	0.76	0.18	232984	0	35396	146150	232984	197588	1771	277	175	27	122392	1962060	2250
92	2016-07-16 04:38:13	0	0	0	0	0	0	6.24	0.76	0.18	233268	0	35444	146288	233268	197824	1772	277	175	27	122431	1962061	2251
93	2016-07-16 04:48:13	0	0	0	0	0	0	6.25	0.76	0.18	233400	0	35462	146454	233400	197938	1773	277	175	27	122547	1962065	2252
94	2016-07-16 04:58:12	0	0	0	0	0	0	6.25	0.76	0.18	233694	0	35509	146509	233694	198185	1775	278	175	27	122586	1962064	2255
95	2016-07-16 05:08:54	0	0	0	0	0	0	6.25	0.76	0.18	233831	0	35534	146509	233831	198297	1775	280	175	27	122586	1962064	2257
96	2016-07-16 05:18:13	0	0	0	0	0	0	6.25	0.76	0.18	233971	0	35559	146509	233971	198412	1775	280	175	27	122586	1962067	2257
97	2016-07-16 05:28:32	0	0	0	0	0	0	6.25	0.76	0.18	234234	0	35602	146648	234234	198632	1776	280	175	27	122683	1962072	2258
98	2016-07-16 05:38:13	0	0	0	0	0	0	6.26	0.76	0.18	234368	0	35623	146787	234368	198745	1777	281	175	27	122917	1962074	2260
99	2016-07-16 05:48:13	0	0	0	0	0	0	6.28	0.76	0.18	234632	0	35670	147094	234632	198962	1781	281	176	27	123171	1962073	2265
100	2016-07-16 05:58:11	0	0	0	0	0	0	6.28	0.76	0.18	234753	0	35691	147094	234753	199062	1781	281	176	27	123171	1962075	2265
101	2016-07-16 06:08:13	0	0	0	0	0	0	6.29	0.76	0.18	235033	0	35736	147430	235033	199297	1784	281	177	27	123407	1962077	2269
102	2016-07-16 06:18:13	0	0	0	0	0	0	6.3	0.76	0.18	235383	0	35803	147817	235383	199580	1789	282	177	27	123678	1962077	2275
103	2016-07-16 06:28:12	0	0	0	0	0	0	6.32	0.76	0.18	235576	0	35843	147930	235576	199733	1789	282	177	27	123916	1962078	2275
104	2016-07-16 06:38:12	0	0	0	0	0	0	6.32	0.76	0.18	235839	0	35893	147930	235839	199946	1794	282	177	27	123916	1962079	2280
105	2016-07-16 06:48:13	0	0	0	0	0	0	6.32	0.76	0.18	236340	0	35978	148100	236340	200362	1797	283	177	27	123916	1962081	2284
106	2016-07-16 06:58:12	0	0	0	0	0	0	6.32	0.76	0.18	236856	0	36079	148157	236856	200777	1804	286	178	27	123955	1962080	2295
107	2016-07-16 07:08:13	0	0	0	0	0	0	6.33	0.76	0.18	237192	0	36141	148356	237192	201051	1807	288	178	27	124134	1962084	2300
108	2016-07-16 07:18:12	0	0	0	0	0	0	6.35	0.76	0.18	237843	0	36309	148855	237843	201534	1810	288	178	27	124654	1962091	2303
109	2016-07-16 07:28:13	0	0	0	0	0	0	6.36	0.76	0.18	238272	0	36397	149027	238272	201875	1818	289	178	27	124775	1962096	2312
110	2016-07-16 07:38:12	0	0	0	0	0	0	6.36	0.76	0.18	238706	0	36492	149054	238706	202214	1818	289	178	27	124795	1962100	2312
111	2016-07-16 07:48:13	0	0	0	0	0	0	6.36	0.76	0.18	239232	0	36596	149097	239232	202636	1821	289	178	27	124885	1962101	2315
112	2016-07-16 07:58:13	0	0	0	0	0	0	6.4	0.76	0.18	240272	0	36809	150167	240272	203463	1829	290	179	27	125594	1962102	2325
113	2016-07-16 08:08:15	0	0	0	0	0	0	6.41	0.76	0.18	240770	0	36906	150254	240770	203864	1833	291	179	27	125814	1962104	2330
114	2016-07-16 08:18:13	0	0	0	0	0	0	6.44	0.76	0.18	242089	0	37172	151023	242089	204917	1844	292	180	27	126352	1962108	2343
115	2016-07-16 08:28:14	0	0	0	0	0	0	6.44	0.76	0.18	242741	0	37304	151082	242741	205437	1848	292	181	27	126394	1962111	2348
116	2016-07-16 08:38:13	0	0	0	0	0	0	6.45	0.76	0.18	243466	0	37445	151229	243466	206021	1855	293	182	27	126580	1962120	2357
117	2016-07-16 08:48:13	0	0	0	0	0	0	6.49	0.76	0.18	245081	0	37773	152454	245081	207308	1866	299	183	27	127295	1962121	2375
118	2016-07-16 08:58:12	0	0	0	0	0	0	6.51	0.76	0.18	245898	0	37929	153061	245898	207969	1871	301	183	27	127744	1962126	2382
119	2016-07-16 09:08:14	0	0	0	0	0	0	6.53	0.76	0.18	246667	0	38082	153341	246667	208585	1875	301	183	27	128067	1962127	2386
120	2016-07-16 09:18:13	0	0	0	0	0	0	6.53	0.76	0.18	248109	0	38409	154197	248109	209700	1894	305	183	30	128183	1962131	2412
121	2016-07-16 09:28:15	0	0	0	0	0	0	6.58	0.76	0.18	248950	0	38591	155529	248950	210359	1904	305	183	30	129081	1962133	2422
122	2016-07-16 09:38:12	0	0	0	0	0	0	6.61	0.76	0.18	250607	0	38924	156502	250607	211683	1912	305	185	30	129697	1962144	2432
123	2016-07-16 09:48:13	0	0	0	0	0	0	6.63	0.76	0.18	251382	0	39098	157098	251382	212284	1915	306	187	30	130062	1962157	2438
124	2016-07-16 09:58:14	0	0	0	0	0	0	6.71	0.76	0.18	252185	0	39259	157900	252185	212926	1919	306	188	30	131574	1962160	2443
125	2016-07-16 10:08:14	0	0	0	0	0	0	6.73	0.76	0.19	254013	0	39671	158870	254013	214342	1936	310	188	30	132111	1962168	2464
126	2016-07-16 10:18:13	0	0	0	0	0	0	6.77	0.76	0.19	254861	0	39885	159605	254861	214976	1946	311	188	30	132778	1962175	2475
127	2016-07-16 10:28:14	0	0	0	0	0	0	6.8	0.76	0.19	255655	0	40078	160782	255655	215577	1952	312	189	30	133431	1962180	2483
128	2016-07-16 10:38:15	0	0	0	0	0	0	6.82	0.76	0.19	257101	0	40466	161731	257101	216635	1963	314	195	31	133904	1962183	2503
129	2016-07-16 10:48:15	0	0	0	0	0	0	6.84	0.76	0.19	257867	0	40659	162146	257867	217208	1969	315	197	32	134258	1962191	2513
130	2016-07-16 10:58:32	0	0	0	0	0	0	6.87	0.77	0.19	259387	0	41033	162418	259387	218354	1990	315	200	32	134725	1962195	2537
131	2016-07-16 11:08:15	0	0	0	0	0	0	6.87	0.77	0.19	260129	0	41209	162501	260129	218920	1999	317	204	32	134829	1962198	2552
132	2016-07-16 11:18:15	0	0	0	0	0	0	6.93	0.77	0.19	260812	0	41374	163130	260812	219438	2008	318	205	32	135975	1962206	2563
133	2016-07-16 11:28:16	0	0	0	0	0	0	6.95	0.77	0.19	261991	0	41721	164301	261991	220270	2015	320	208	32	136364	1962214	2575
134	2016-07-16 11:38:15	0	0	0	0	0	0	6.99	0.77	0.19	262658	0	41895	164861	262658	220763	2023	323	211	32	137180	1962225	2589
135	2016-07-16 11:48:16	0	0	0	0	0	0	7.01	0.77	0.19	263992	0	42281	165213	263992	221711	2036	328	212	33	137521	1962229	2609
136	2016-07-16 11:58:17	0	0	0	0	0	0	7.01	0.77	0.19	264695	0	42462	165425	264695	222233	2042	328	213	33	137570	1962235	2616
137	2016-07-16 12:08:16	0	0	0	0	0	0	7.03	0.77	0.19	265301	0	42622	165850	265301	222679	2049	330	213	33	137889	1962246	2625
138	2016-07-16 12:18:16	0	0	0	0	0	0	7.06	0.77	0.19	266643	0	43005	166734	266643	223638	2065	334	215	35	138549	1962251	2649
139	2016-07-16 12:28:17	0	0	0	0	0	0	7.1	0.77	0.19	267415	0	43241	167397	267415	224174	2072	337	215	41	139281	1962263	2665
140	2016-07-16 12:38:16	0	0	0	0	0	0	7.13	0.78	0.19	268592	0	43595	168197	268592	224997	2088	338	216	42	139948	1962269	2684
141	2016-07-16 12:49:06	0	0	0	0	0	0	7.14	0.78	0.19	269227	0	43791	168616	269227	225436	2090	339	216	42	140088	1962278	2687
142	2016-07-16 12:58:17	0	0	0	0	0	0	7.17	0.78	0.2	270542	0	44163	169755	270542	226379	2101	340	216	43	140721	1962284	2700
143	2016-07-16 13:08:18	0	0	0	0	0	0	7.18	0.78	0.2	271146	0	44329	170241	271146	226817	2105	340	218	43	140990	1962293	2706
144	2016-07-16 13:18:17	0	0	0	0	0	0	7.19	0.78	0.2	271745	0	44500	170719	271745	227245	2108	341	218	44	141170	1962300	2711
145	2016-07-16 13:28:20	0	0	0	0	0	0	7.23	0.78	0.2	272968	0	44826	171343	272968	228142	2124	344	222	45	141856	1962315	2735
146	2016-07-16 13:38:17	0	0	0	0	0	0	7.23	0.78	0.2	273681	0	45014	171761	273681	228667	2126	344	222	45	141856	1962321	2737
147	2016-07-16 13:48:19	0	0	0	0	0	0	7.27	0.78	0.2	274291	0	45180	172594	274291	229111	2130	344	225	45	142610	1962330	2744
148	2016-07-16 14:00:36	0	0	0	0	0	0	7.28	0.78	0.2	275475	0	45496	173130	275475	229979	2149	344	225	46	142870	1962335	2764
149	2016-07-16 14:08:19	0	0	0	0	0	0	7.29	0.78	0.2	276029	0	45618	173474	276029	230411	2156	346	226	46	143144	1962338	2774
150	2016-07-16 14:18:19	0	0	0	0	0	0	7.31	0.78	0.2	277111	0	45886	173942	277111	231225	2164	347	226	46	143463	1962353	2783
151	2016-07-16 14:28:18	0	0	0	0	0	0	7.32	0.78	0.2	277749	0	46052	174224	277749	231697	2172	348	228	46	143548	1962360	2794
152	2016-07-16 14:38:18	0	0	0	0	0	0	7.36	0.78	0.2	278643	0	46292	175049	278643	232351	2176	349	231	46	144511	1962369	2802
153	2016-07-16 14:48:19	0	0	0	0	0	0	7.37	0.78	0.2	279169	0	46444	175300	279169	232725	2179	350	233	46	144697	1962373	2808
154	2016-07-16 14:58:19	0	0	0	0	0	0	7.38	0.78	0.2	279667	0	46566	175658	279667	233101	2180	350	234	46	144887	1962376	2810
155	2016-07-16 15:08:19	0	0	0	0	0	0	7.42	0.78	0.2	280542	0	46840	176308	280542	233702	2189	354	237	46	145575	1962393	2826
156	2016-07-16 15:20:53	0	0	0	0	0	0	7.45	0.78	0.2	281490	0	47000	176862	281490	234356	2197	355	237	47	146117	1962401	2836
157	2016-07-16 15:28:19	0	0	0	0	0	0	7.45	0.78	0.2	281910	0	47244	176862	281910	234666	2203	355	240	47	146117	1962405	2845
158	2016-07-16 15:38:20	0	0	0	0	0	0	7.47	0.78	0.2	282287	0	47337	176983	282287	234950	2208	355	241	47	146505	1962411	2851
159	2016-07-16 15:48:19	0	0	0	0	0	0	7.47	0.78	0.2	282643	0	47437	177099	282643	235206	2210	355	242	47	146598	1962423	2854
160	2016-07-16 15:58:19	0	0	0	0	0	0	7.49	0.78	0.2	283439	0	47668	177279	283439	235771	2212	358	242	47	146944	1962430	2859
161	2016-07-16 16:08:20	0	0	0	0	0	0	7.5	0.78	0.2	284162	0	47874	177747	284162	236288	2216	358	242	47	147168	1962439	2863
162	2016-07-16 16:18:20	0	0	0	0	0	0	7.52	0.78	0.2	284560	0	48005	177747	284560	236555	2222	359	242	47	147561	1962450	2870
163	2016-07-16 16:28:19	0	0	0	0	0	0	7.52	0.78	0.2	284975	0	48135	177747	284975	236840	2224	359	243	47	147561	1962453	2873
164	2016-07-16 16:42:20	0	0	0	0	0	0	7.52	0.78	0.2	285745	0	48360	178113	285745	237385	2234	360	244	47	147615	1962471	2885
165	2016-07-16 16:48:17	0	0	0	0	0	0	7.54	0.78	0.2	286082	0	48450	178339	286082	237632	2235	361	244	47	147883	1962474	2887
166	2016-07-16 16:58:18	0	0	0	0	0	0	7.54	0.78	0.2	286745	0	48625	178483	286745	238120	2240	362	246	47	147996	1962480	2895
167	2016-07-16 17:08:18	0	0	0	0	0	0	7.55	0.78	0.2	287100	0	48732	178606	287100	238368	2242	362	248	47	148081	1962493	2899
168	2016-07-16 17:18:18	0	0	0	0	0	0	7.56	0.78	0.2	287811	0	48931	178884	287811	238880	2245	363	248	47	148272	1962501	2903
169	2016-07-16 17:28:21	0	0	0	0	0	0	7.56	0.78	0.21	288180	0	49028	179029	288180	239152	2249	364	248	47	148371	1962502	2908
170	2016-07-16 17:38:17	0	0	0	0	0	0	7.56	0.78	0.21	288556	0	49133	179112	288556	239423	2253	364	248	47	148428	1962512	2912
171	2016-07-16 17:48:18	0	0	0	0	0	0	7.57	0.78	0.21	289267	0	49311	179235	289267	239956	2259	364	248	47	148513	1962519	2918
172	2016-07-16 17:58:18	0	0	0	0	0	0	7.57	0.78	0.21	289592	0	49402	179318	289592	240190	2262	364	249	47	148570	1962525	2922
173	2016-07-16 18:08:19	0	0	0	0	0	0	7.58	0.78	0.21	290249	0	49582	179599	290249	240667	2268	364	250	47	148706	1962530	2929
174	2016-07-16 18:18:20	0	0	0	0	0	0	7.59	0.78	0.21	290587	0	49667	179640	290587	240920	2271	364	250	47	148906	1962543	2932
175	2016-07-16 18:28:18	0	0	0	0	0	0	7.59	0.78	0.21	290912	0	49762	179640	290912	241150	2279	365	251	47	148906	1962545	2942
176	2016-07-16 18:38:18	0	0	0	0	0	0	7.59	0.78	0.21	291600	0	49973	180142	291600	241627	2281	366	254	49	149049	1962559	2950
177	2016-07-16 18:48:18	0	0	0	0	0	0	7.6	0.78	0.21	291954	0	50074	180341	291954	241880	2283	366	255	49	149186	1962567	2953
178	2016-07-16 18:58:21	0	0	0	0	0	0	7.61	0.78	0.21	292592	0	50251	180657	292592	242341	2284	366	255	49	149373	1962573	2954
179	2016-07-16 19:08:19	0	0	0	0	0	0	7.62	0.78	0.21	292865	0	50335	180741	292865	242530	2285	367	257	49	149546	1962575	2958
180	2016-07-16 19:18:19	0	0	0	0	0	0	7.64	0.78	0.21	293476	0	50539	180741	293476	242937	2290	369	259	49	149893	1962575	2967
181	2016-07-16 19:28:19	0	0	0	0	0	0	7.65	0.78	0.21	293819	0	50647	181186	293819	243172	2293	369	261	49	150082	1962580	2972
182	2016-07-16 19:38:19	0	0	0	0	0	0	7.67	0.78	0.21	294388	0	50844	181637	294388	243544	2300	369	263	49	150542	1962586	2981
183	2016-07-16 19:48:19	0	0	0	0	0	0	7.67	0.78	0.21	294656	0	50932	181723	294656	243724	2304	369	263	49	150542	1962594	2985
184	2016-07-16 19:58:18	0	0	0	0	0	0	7.67	0.78	0.21	294968	0	51035	182107	294968	243933	2305	369	264	49	150601	1962594	2987
185	2016-07-16 20:08:19	0	0	0	0	0	0	7.7	0.78	0.21	295585	0	51253	182107	295585	244332	2307	370	264	49	151071	1962598	2990
186	2016-07-16 20:18:20	0	0	0	0	0	0	7.7	0.78	0.21	295846	0	51341	182107	295846	244505	2314	370	265	49	151189	1962606	2998
187	2016-07-16 20:28:19	0	0	0	0	0	0	7.72	0.78	0.21	296446	0	51514	182612	296446	244932	2319	370	269	49	151596	1962611	3007
188	2016-07-16 20:38:35	0	0	0	0	0	0	7.74	0.78	0.21	296722	0	51601	182693	296722	245121	2321	370	269	49	151949	1962624	3009
189	2016-07-16 20:48:20	0	0	0	0	0	0	7.74	0.78	0.21	297225	0	51796	182864	297225	245429	2321	373	270	49	151949	1962633	3013
190	2016-07-16 20:58:20	0	0	0	0	0	0	7.74	0.78	0.21	297496	0	51890	182864	297496	245606	2328	373	271	49	151949	1962639	3021
191	2016-07-16 21:08:19	0	0	0	0	0	0	7.75	0.78	0.21	298016	0	52076	183032	298016	245940	2334	373	272	50	152039	1962644	3029
192	2016-07-16 21:18:20	0	0	0	0	0	0	7.75	0.78	0.21	298312	0	52179	183118	298312	246133	2336	373	273	50	152099	1962648	3032
193	2016-07-16 21:28:20	0	0	0	0	0	0	7.76	0.78	0.21	298557	0	52265	183314	298557	246292	2338	373	273	50	152361	1962665	3034
194	2016-07-16 21:38:20	0	0	0	0	0	0	7.79	0.78	0.21	299143	0	52476	183662	299143	246667	2342	374	273	50	152842	1962670	3039
195	2016-07-16 21:48:19	0	0	0	0	0	0	7.79	0.78	0.21	299600	0	52632	183662	299600	246968	2344	374	273	50	152842	1962675	3041
196	2016-07-16 21:58:22	0	0	0	0	0	0	7.81	0.78	0.21	299888	0	52712	184383	299888	247176	2349	374	275	50	153311	1962683	3048
197	2016-07-16 22:08:21	0	0	0	0	0	0	7.82	0.78	0.21	300198	0	52814	184515	300198	247384	2350	374	275	50	153387	1962690	3049
198	2016-07-16 22:18:20	0	0	0	0	0	0	7.83	0.78	0.21	300740	0	52989	184821	300740	247751	2357	374	275	50	153720	1962693	3056
199	2016-07-16 22:28:36	0	0	0	0	0	0	7.85	0.78	0.21	301028	0	53063	185236	301028	247965	2359	374	275	50	154068	1962699	3058
200	2016-07-16 22:38:20	0	0	0	0	0	0	7.85	0.78	0.21	301537	0	53231	185236	301537	248306	2359	374	277	50	154068	1962704	3060
201	2016-07-16 22:48:19	0	0	0	0	0	0	7.85	0.78	0.21	301784	0	53317	185236	301784	248467	2362	374	278	50	154068	1962712	3064
202	2016-07-16 22:58:20	0	0	0	0	0	0	7.85	0.78	0.21	302279	0	53415	185530	302279	248794	2365	375	278	50	154095	1962710	3068
203	2016-07-16 23:08:19	0	0	0	0	0	0	7.85	0.78	0.22	302508	0	53554	185530	302508	248954	2367	375	278	50	154095	1962720	3070
204	2016-07-16 23:18:20	0	0	0	0	0	0	7.87	0.78	0.22	302734	0	53630	185975	302734	249104	2368	375	279	50	154526	1962728	3072
205	2016-07-16 23:28:21	0	0	0	0	0	0	7.88	0.78	0.22	303166	0	53772	185975	303166	249394	2372	376	283	50	154649	1962730	3081
206	2016-07-16 23:38:21	0	0	0	0	0	0	7.88	0.78	0.22	303428	0	53835	185975	303428	249593	2372	376	284	51	154649	1962740	3083
207	2016-07-16 23:48:20	0	0	0	0	0	0	7.91	0.78	0.22	303907	0	53979	186952	303907	249928	2376	378	285	51	155200	1962743	3090
208	2016-07-16 23:58:21	0	0	0	0	0	0	7.91	0.78	0.22	304160	0	54062	186952	304160	250098	2379	378	285	51	155200	1962753	3093
209	2016-07-17 00:08:20	0	0	0	0	0	0	7.94	0.78	0.22	304577	0	54190	187133	304577	250387	2383	378	287	51	155762	1962762	3099
210	2016-07-17 00:18:20	0	0	0	0	0	0	7.94	0.78	0.22	304752	0	54241	187178	304752	250511	2384	378	287	51	155793	1962772	3100
211	2016-07-17 00:28:21	0	0	0	0	0	0	7.96	0.78	0.22	305247	0	54361	187997	305247	250886	2392	379	287	51	156217	1962781	3109
212	2016-07-17 00:38:21	0	0	0	0	0	0	7.97	0.78	0.22	305471	0	54418	188271	305471	251053	2394	379	287	51	156407	1962783	3111
213	2016-07-17 00:48:20	0	0	0	0	0	0	7.97	0.78	0.22	305805	0	54489	188430	305805	251316	2399	379	287	51	156517	1962787	3116
214	2016-07-17 00:58:21	0	0	0	0	0	0	7.98	0.78	0.22	305946	0	54519	188510	305946	251427	2401	379	287	51	156572	1962794	3118
215	2016-07-17 01:08:21	0	0	0	0	0	0	7.99	0.78	0.22	306266	0	54602	188510	306266	251664	2403	380	287	51	156921	1962793	3121
216	2016-07-17 01:18:20	0	0	0	0	0	0	8	0.78	0.22	306572	0	54696	188533	306572	251876	2405	381	290	51	156937	1962794	3127
217	2016-07-17 01:28:21	0	0	0	0	0	0	8	0.78	0.22	306739	0	54734	188533	306739	252005	2406	381	290	51	156937	1962798	3128
218	2016-07-17 01:38:40	0	0	0	0	0	0	8.01	0.78	0.22	306922	0	54771	188855	306922	252119	2406	381	291	51	157160	1962807	3129
219	2016-07-17 01:48:20	0	0	0	0	0	0	8.01	0.78	0.22	306992	0	54837	188855	306992	252155	2407	381	291	51	157160	1962811	3130
220	2016-07-17 01:58:20	0	0	0	0	0	0	8.01	0.78	0.22	307054	0	54865	188855	307054	252189	2407	381	291	51	157160	1962811	3130
221	2016-07-17 02:08:20	0	0	0	0	0	0	8	0.78	0.22	307143	0	54907	188855	307143	252236	2408	381	291	51	157160	1963962	3131
222	2016-07-17 02:18:20	0	0	0	0	0	0	8	0.78	0.22	307174	0	54922	188855	307174	252252	2408	381	291	51	157160	1963963	3131
223	2016-07-17 02:28:20	0	0	0	0	0	0	8.01	0.78	0.22	307240	0	54954	189017	307240	252286	2408	382	291	51	157272	1963964	3132
224	2016-07-17 02:38:22	0	0	0	0	0	0	8.01	0.78	0.22	307278	0	54970	189017	307278	252308	2408	382	291	51	157272	1963968	3132
225	2016-07-17 02:48:20	0	0	0	0	0	0	8.01	0.78	0.22	307333	0	55003	189017	307333	252330	2409	382	291	51	157272	1963969	3133
226	2016-07-17 02:58:21	0	0	0	0	0	0	8.01	0.78	0.22	307354	0	55017	189017	307354	252337	2410	382	291	51	157272	1963970	3134
227	2016-07-17 03:08:21	0	0	0	0	0	0	8.01	0.78	0.22	307393	0	55042	189017	307393	252351	2410	382	291	51	157272	1963972	3134
228	2016-07-17 03:20:22	0	0	0	0	0	0	8.01	0.78	0.22	307427	0	55061	189017	307427	252366	2410	382	291	51	157272	1963974	3134
229	2016-07-17 03:28:19	0	0	0	0	0	0	8.01	0.78	0.22	307443	0	55070	189017	307443	252373	2410	382	291	51	157272	1963980	3134
230	2016-07-17 03:38:22	0	0	0	0	0	0	8.01	0.78	0.22	307463	0	55084	189017	307463	252379	2410	382	291	51	157272	1963983	3134
231	2016-07-17 03:48:20	0	0	0	0	0	0	8.01	0.78	0.22	307495	0	55105	189017	307495	252390	2410	382	291	51	157272	1963984	3134
232	2016-07-17 03:58:21	0	0	0	0	0	0	8.01	0.78	0.22	307505	0	55110	189017	307505	252395	2410	382	291	51	157272	1963984	3134
233	2016-07-17 04:08:21	0	0	0	0	0	0	8.01	0.78	0.22	307523	0	55124	189017	307523	252399	2410	382	291	51	157272	1963986	3134
234	2016-07-17 04:18:20	0	0	0	0	0	0	8.01	0.78	0.22	307534	0	55132	189017	307534	252402	2410	382	291	51	157272	1963985	3134
235	2016-07-17 04:28:21	0	0	0	0	0	0	8.01	0.78	0.22	307559	0	55150	189086	307559	252409	2410	382	291	51	157272	1963984	3134
236	2016-07-17 04:38:21	0	0	0	0	0	0	8.01	0.78	0.22	307567	0	55154	189086	307567	252413	2410	382	291	51	157272	1963985	3134
237	2016-07-17 04:48:21	0	0	0	0	0	0	8.01	0.78	0.22	307596	0	55170	189086	307596	252426	2410	382	291	51	157272	1963990	3134
238	2016-07-17 04:58:20	0	0	0	0	0	0	8.01	0.78	0.22	307614	0	55181	189086	307614	252433	2410	382	291	51	157272	1963989	3134
239	2016-07-17 05:08:22	0	0	0	0	0	0	8.01	0.78	0.22	307631	0	55192	189086	307631	252439	2410	382	291	51	157272	1963990	3134
240	2016-07-17 05:18:21	0	0	0	0	0	0	8.01	0.78	0.22	307644	0	55202	189086	307644	252442	2410	382	291	51	157272	1963989	3134
241	2016-07-17 05:28:21	0	0	0	0	0	0	8.01	0.78	0.22	307665	0	55221	189086	307665	252444	2410	382	291	51	157272	1963989	3134
242	2016-07-17 05:38:20	0	0	0	0	0	0	8.01	0.78	0.22	307671	0	55224	189086	307671	252447	2410	382	291	51	157272	1963989	3134
243	2016-07-17 05:48:21	0	0	0	0	0	0	8.01	0.78	0.22	307686	0	55234	189086	307686	252452	2410	382	291	51	157272	1963989	3134
244	2016-07-17 05:58:22	0	0	0	0	0	0	8.01	0.78	0.22	307692	0	55239	189086	307692	252453	2410	382	291	51	157272	1963989	3134
245	2016-07-17 06:08:22	0	0	0	0	0	0	8.01	0.78	0.22	307702	0	55246	189086	307702	252456	2410	382	291	51	157272	1963989	3134
246	2016-07-17 06:18:21	0	0	0	0	0	0	8.01	0.78	0.22	307725	0	55259	189086	307725	252466	2410	382	291	51	157272	1963986	3134
247	2016-07-17 06:28:21	0	0	0	0	0	0	8.01	0.78	0.22	307731	0	55261	189086	307731	252470	2410	382	291	51	157272	1963986	3134
248	2016-07-17 06:38:37	0	0	0	0	0	0	8.01	0.78	0.22	307766	0	55283	189086	307766	252483	2410	382	292	51	157272	1963988	3135
249	2016-07-17 06:48:21	0	0	0	0	0	0	8.01	0.78	0.22	307773	0	55287	189086	307773	252486	2410	382	293	51	157272	1963988	3136
250	2016-07-17 06:58:20	0	0	0	0	0	0	8.01	0.78	0.22	307804	0	55306	189086	307804	252498	2410	382	293	51	157272	1963988	3136
251	2016-07-17 07:08:21	0	0	0	0	0	0	8.01	0.78	0.22	307822	0	55318	189086	307822	252504	2410	382	293	51	157272	1963988	3136
252	2016-07-17 07:18:20	0	0	0	0	0	0	8.01	0.78	0.22	307856	0	55343	189086	307856	252513	2411	382	293	51	157272	1963990	3137
253	2016-07-17 07:28:24	0	0	0	0	0	0	8.01	0.78	0.22	307876	0	55360	189086	307876	252516	2411	382	293	51	157272	1963995	3137
254	2016-07-17 07:38:20	0	0	0	0	0	0	8.01	0.78	0.22	307892	0	55368	189086	307892	252524	2411	382	293	51	157272	1963998	3137
255	2016-07-17 07:48:22	0	0	0	0	0	0	8.01	0.78	0.22	307936	0	55397	189086	307936	252539	2411	382	293	51	157272	1964001	3137
256	2016-07-17 07:58:21	0	0	0	0	0	0	8.01	0.78	0.22	307963	0	55413	189086	307963	252550	2411	382	293	51	157272	1963999	3137
257	2016-07-17 08:08:21	0	0	0	0	0	0	8.01	0.78	0.22	308020	0	55451	189086	308020	252569	2414	382	293	51	157272	1964004	3140
258	2016-07-17 08:18:22	0	0	0	0	0	0	8.01	0.78	0.22	308067	0	55481	189086	308067	252586	2414	382	293	51	157272	1964011	3140
259	2016-07-17 08:28:20	0	0	0	0	0	0	8.01	0.78	0.22	308110	0	55504	189086	308110	252606	2414	382	293	51	157272	1964009	3140
260	2016-07-17 08:38:21	0	0	0	0	0	0	8.01	0.78	0.22	308190	0	55553	189352	308190	252637	2415	382	293	51	157272	1964013	3141
261	2016-07-17 08:48:21	0	0	0	0	0	0	8.01	0.78	0.22	308230	0	55575	189398	308230	252655	2415	382	294	51	157304	1964019	3142
262	2016-07-17 08:58:21	0	0	0	0	0	0	8.01	0.78	0.22	308313	0	55629	189398	308313	252684	2416	382	294	51	157304	1964026	3143
263	2016-07-17 09:08:22	0	0	0	0	0	0	8.01	0.78	0.22	308363	0	55656	189398	308363	252707	2417	382	294	51	157304	1964025	3144
264	2016-07-17 09:18:22	0	0	0	0	0	0	8.01	0.78	0.22	308455	0	55723	189584	308455	252732	2417	382	296	52	157304	1964028	3147
265	2016-07-17 09:28:23	0	0	0	0	0	0	8.01	0.78	0.22	308511	0	55760	189677	308511	252751	2418	382	296	52	157304	1964034	3148
266	2016-07-17 09:38:21	0	0	0	0	0	0	8.01	0.78	0.22	308548	0	55786	189711	308548	252762	2418	382	296	52	157304	1964040	3148
267	2016-07-17 09:48:22	0	0	0	0	0	0	8.01	0.78	0.22	308640	0	55847	189711	308640	252793	2418	382	296	52	157304	1964050	3148
268	2016-07-17 09:58:22	0	0	0	0	0	0	8.01	0.78	0.22	308677	0	55872	189711	308677	252805	2419	382	296	52	157304	1964055	3149
269	2016-07-17 10:08:22	0	0	0	0	0	0	8.01	0.78	0.22	308773	0	55938	189711	308773	252835	2420	382	296	52	157304	1964055	3150
270	2016-07-17 10:18:22	0	0	0	0	0	0	8.01	0.78	0.22	308811	0	55962	189711	308811	252849	2420	382	296	52	157304	1964053	3150
271	2016-07-17 10:28:23	0	0	0	0	0	0	8.01	0.78	0.22	308874	0	56004	189711	308874	252870	2421	382	296	52	157304	1964056	3151
272	2016-07-17 10:38:24	0	0	0	0	0	0	8.01	0.78	0.22	308901	0	56025	189711	308901	252876	2422	382	296	52	157304	1964061	3152
273	2016-07-17 10:48:22	0	0	0	0	0	0	8.01	0.78	0.22	308936	0	56043	189758	308936	252893	2423	382	296	52	157304	1964067	3153
274	2016-07-17 10:58:22	0	0	0	0	0	0	8.01	0.79	0.22	309023	0	56096	189758	309023	252927	2426	383	298	52	157304	1964076	3159
275	2016-07-17 11:08:24	0	0	0	0	0	0	8.01	0.78	0.22	309066	0	56128	189944	309066	252938	2426	384	300	52	157304	1964082	3162
276	2016-07-17 11:18:23	0	0	0	0	0	0	8.01	0.79	0.22	309140	0	56183	189944	309140	252957	2427	384	300	52	157304	1964092	3163
277	2016-07-17 11:28:23	0	0	0	0	0	0	8.01	0.78	0.22	309189	0	56225	189944	309189	252964	2427	384	300	52	157304	1964104	3163
278	2016-07-17 11:38:23	0	0	0	0	0	0	8.01	0.78	0.22	309248	0	56267	190131	309248	252981	2427	384	300	52	157304	1964111	3163
279	2016-07-17 11:48:24	0	0	0	0	0	0	8.02	0.78	0.22	309281	0	56288	190131	309281	252993	2427	384	300	52	157432	1964124	3163
280	2016-07-17 11:58:24	0	0	0	0	0	0	8.02	0.78	0.22	309329	0	56324	190271	309329	253005	2427	384	300	54	157496	1964125	3165
281	2016-07-17 12:08:24	0	0	0	0	0	0	8.02	0.79	0.22	309395	0	56371	190271	309395	253024	2430	384	300	54	157496	1964134	3168
282	2016-07-17 12:18:24	0	0	0	0	0	0	8.02	0.79	0.22	309432	0	56398	190271	309432	253034	2431	384	300	54	157496	1964146	3169
283	2016-07-17 12:28:25	0	0	0	0	0	0	8.02	0.79	0.22	309499	0	56448	190271	309499	253051	2431	384	302	56	157496	1964154	3173
284	2016-07-17 12:38:25	0	0	0	0	0	0	8.02	0.79	0.22	309521	0	56467	190271	309521	253054	2431	384	302	56	157496	1964163	3173
285	2016-07-17 12:48:25	0	0	0	0	0	0	8.02	0.79	0.22	309553	0	56494	190271	309553	253059	2431	384	302	56	157496	1964167	3173
286	2016-07-17 12:58:25	0	0	0	0	0	0	8.02	0.79	0.22	309613	0	56541	190458	309613	253072	2431	384	305	56	157496	1964172	3176
287	2016-07-17 13:08:25	0	0	0	0	0	0	8.02	0.79	0.22	309640	0	56556	190458	309640	253084	2431	384	305	56	157496	1964187	3176
288	2016-07-17 13:18:39	0	0	0	0	0	0	8.02	0.79	0.22	309695	0	56594	190458	309695	253101	2432	384	305	57	157496	1964205	3178
289	2016-07-17 13:28:27	0	0	0	0	0	0	8.02	0.79	0.22	309723	0	56612	190458	309723	253111	2432	384	305	58	157496	1964224	3179
290	2016-07-17 13:38:26	0	0	0	0	0	0	8.02	0.79	0.22	309777	0	56646	190458	309777	253131	2433	384	306	58	157496	1964241	3181
291	2016-07-17 13:48:27	0	0	0	0	0	0	8.02	0.79	0.22	309808	0	56672	190458	309808	253136	2433	384	306	58	157496	1964257	3181
292	2016-07-17 13:58:44	0	0	0	0	0	0	8.02	0.79	0.22	309872	0	56729	190458	309872	253143	2434	385	306	58	157496	1964276	3183
293	2016-07-17 14:08:26	0	0	0	0	0	0	8.02	0.79	0.22	309909	0	56763	190458	309909	253146	2435	385	307	58	157496	1964302	3185
294	2016-07-17 14:18:28	0	0	0	0	0	0	8.02	0.79	0.22	309942	0	56790	190458	309942	253152	2435	385	307	58	157496	1964324	3185
295	2016-07-17 14:28:27	0	0	0	0	0	0	8.02	0.79	0.22	309968	0	56811	190458	309968	253157	2435	385	307	58	157496	1964344	3185
296	2016-07-17 14:38:27	0	0	0	0	0	0	8.02	0.79	0.22	310032	0	56862	190458	310032	253170	2435	385	307	58	157496	1964375	3185
297	2016-07-17 14:48:27	0	0	0	0	0	0	8.02	0.79	0.22	310052	0	56877	190458	310052	253175	2436	385	307	58	157496	1964404	3186
298	2016-07-17 14:58:28	0	0	0	0	0	0	8.02	0.79	0.22	310103	0	56916	190458	310103	253187	2438	385	307	59	157496	1964435	3189
299	2016-07-17 15:08:30	0	0	0	0	0	0	8.02	0.79	0.22	310125	0	56935	190482	310125	253190	2438	385	308	59	157496	1964458	3190
300	2016-07-17 15:18:27	0	0	0	0	0	0	8.02	0.79	0.23	310177	0	56975	190482	310177	253202	2438	385	308	59	157496	1964492	3190
301	2016-07-17 15:28:27	0	0	0	0	0	0	8.02	0.79	0.23	310204	0	56997	190482	310204	253207	2440	385	308	59	157496	1964518	3192
302	2016-07-17 15:38:27	0	0	0	0	0	0	8.02	0.79	0.23	310217	0	57006	190622	310217	253211	2440	385	308	59	157592	1964546	3192
303	2016-07-17 15:48:28	0	0	0	0	0	0	8.03	0.79	0.23	310249	0	57035	190763	310249	253214	2441	385	309	59	157688	1964579	3194
304	2016-07-17 15:58:27	0	0	0	0	0	0	8.03	0.79	0.23	310273	0	57054	190763	310273	253219	2441	385	310	60	157688	1964610	3196
305	2016-07-17 16:08:28	0	0	0	0	0	0	8.03	0.79	0.23	310306	0	57083	190763	310306	253223	2442	385	310	60	157688	1964639	3197
306	2016-07-17 16:18:28	0	0	0	0	0	0	8.03	0.79	0.23	310332	0	57105	190763	310332	253227	2443	385	311	60	157688	1964673	3199
307	2016-07-17 16:28:28	0	0	0	0	0	0	8.03	0.79	0.23	310372	0	57139	190763	310372	253233	2443	385	311	60	157688	1964705	3199
308	2016-07-17 16:38:29	0	0	0	0	0	0	8.03	0.79	0.23	310395	0	57160	190763	310395	253235	2443	385	311	60	157688	1964741	3199
309	2016-07-17 16:48:28	0	0	0	0	0	0	8.03	0.79	0.23	310413	0	57176	190763	310413	253237	2443	385	311	60	157688	1964763	3199
310	2016-07-17 16:58:27	0	0	0	0	0	0	8.03	0.79	0.23	310448	0	57207	190763	310448	253241	2444	385	311	60	157688	1964789	3200
311	2016-07-17 17:08:30	0	0	0	0	0	0	8.03	0.79	0.23	310471	0	57227	190769	310471	253244	2444	385	311	60	157688	1964821	3200
312	2016-07-17 17:18:28	0	0	0	0	0	0	8.03	0.79	0.23	310501	0	57247	190769	310501	253254	2444	385	311	60	157688	1964839	3200
313	2016-07-17 17:28:28	0	0	0	0	0	0	8.03	0.79	0.23	310543	0	57281	190769	310543	253262	2446	385	311	60	157688	1964863	3202
314	2016-07-17 17:38:30	0	0	0	0	0	0	8.03	0.79	0.23	310560	0	57292	190860	310560	253268	2447	385	311	60	157751	1964893	3203
315	2016-07-17 17:48:28	0	0	0	0	0	0	8.03	0.79	0.23	310584	0	57311	190860	310584	253273	2448	385	311	60	157751	1964921	3204
316	2016-07-17 17:58:28	0	0	0	0	0	0	8.03	0.79	0.23	310621	0	57342	190860	310621	253279	2448	385	311	60	157751	1964945	3204
317	2016-07-17 18:08:29	0	0	0	0	0	0	8.03	0.79	0.23	310641	0	57356	190860	310641	253285	2448	385	311	60	157751	1964973	3204
318	2016-07-17 18:18:29	0	0	0	0	0	0	8.03	0.79	0.23	310669	0	57379	190860	310669	253290	2448	385	311	60	157751	1965003	3204
319	2016-07-17 18:28:29	0	0	0	0	0	0	8.03	0.79	0.23	310689	0	57391	190860	310689	253298	2448	385	311	60	157751	1965025	3204
320	2016-07-17 18:38:28	0	0	0	0	0	0	8.03	0.79	0.23	310707	0	57406	190860	310707	253301	2448	385	311	60	157751	1965050	3204
321	2016-07-17 18:48:28	0	0	0	0	0	0	8.03	0.79	0.23	310743	0	57434	190860	310743	253309	2449	385	311	60	157751	1965080	3205
322	2016-07-17 18:58:28	0	0	0	0	0	0	8.03	0.79	0.23	310759	0	57446	190860	310759	253313	2449	385	311	60	157751	1965097	3205
323	2016-07-17 19:08:29	0	0	0	0	0	0	8.03	0.79	0.23	310781	0	57463	190860	310781	253318	2449	385	311	60	157751	1965123	3205
324	2016-07-17 19:18:29	0	0	0	0	0	0	8.03	0.79	0.23	310811	0	57487	190860	310811	253324	2449	385	311	60	157751	1965152	3205
325	2016-07-17 19:28:29	0	0	0	0	0	0	8.03	0.79	0.23	310833	0	57504	190860	310833	253329	2449	385	312	60	157751	1965177	3206
326	2016-07-17 19:38:30	0	0	0	0	0	0	8.03	0.79	0.23	310864	0	57528	190860	310864	253336	2449	385	312	60	157751	1965213	3206
327	2016-07-17 19:48:31	0	0	0	0	0	0	8.03	0.79	0.23	310889	0	57544	190860	310889	253345	2449	385	312	60	157751	1965260	3206
328	2016-07-17 19:58:30	0	0	0	0	0	0	8.03	0.79	0.23	310914	0	57563	190860	310914	253351	2449	385	312	60	157751	1965282	3206
329	2016-07-17 20:08:31	0	0	0	0	0	0	8.03	0.79	0.23	310931	0	57573	190860	310931	253358	2449	385	312	60	157751	1965304	3206
330	2016-07-17 20:18:30	0	0	0	0	0	0	8.03	0.79	0.23	310969	0	57599	190860	310969	253370	2450	385	312	60	157751	1965330	3207
331	2016-07-17 20:28:30	0	0	0	0	0	0	8.03	0.79	0.23	310979	0	57608	190860	310979	253371	2450	385	312	60	157751	1965347	3207
332	2016-07-17 20:38:29	0	0	0	0	0	0	8.03	0.79	0.23	311004	0	57628	190860	311004	253376	2450	385	312	60	157751	1965376	3207
333	2016-07-17 20:48:30	0	0	0	0	0	0	8.03	0.79	0.23	311025	0	57646	190860	311025	253379	2450	385	312	60	157751	1965392	3207
334	2016-07-17 20:58:31	0	0	0	0	0	0	8.03	0.79	0.23	311072	0	57686	190860	311072	253386	2451	385	312	60	157751	1965426	3208
335	2016-07-17 21:08:31	0	0	0	0	0	0	8.03	0.79	0.23	311097	0	57706	190860	311097	253391	2452	386	313	60	157751	1965444	3211
336	2016-07-17 21:18:30	0	0	0	0	0	0	8.03	0.79	0.23	311126	0	57731	190860	311126	253395	2452	386	313	60	157751	1965471	3211
337	2016-07-17 21:28:31	0	0	0	0	0	0	8.03	0.79	0.23	311145	0	57745	190860	311145	253400	2453	386	313	60	157751	1965490	3212
338	2016-07-17 21:38:31	0	0	0	0	0	0	8.03	0.79	0.23	311178	0	57774	190860	311178	253404	2455	386	313	60	157751	1965526	3214
339	2016-07-17 21:48:31	0	0	0	0	0	0	8.03	0.79	0.23	311205	0	57797	190860	311205	253408	2455	387	313	60	157751	1965555	3215
340	2016-07-17 21:58:31	0	0	0	0	0	0	8.03	0.79	0.23	311227	0	57816	190860	311227	253411	2456	387	313	60	157751	1965586	3216
341	2016-07-17 22:08:32	0	0	0	0	0	0	8.03	0.79	0.23	311257	0	57842	191143	311257	253415	2456	388	313	60	157751	1965618	3217
342	2016-07-17 22:18:32	0	0	0	0	0	0	8.03	0.79	0.23	311277	0	57859	191143	311277	253418	2456	388	313	60	157751	1965651	3217
343	2016-07-17 22:28:31	0	0	0	0	0	0	8.03	0.79	0.23	311310	0	57879	191143	311310	253431	2456	389	313	60	157751	1965676	3218
344	2016-07-17 22:38:32	0	0	0	0	0	0	8.03	0.79	0.23	311320	0	57886	191143	311320	253434	2456	389	313	60	157751	1965704	3218
345	2016-07-17 22:48:31	0	0	0	0	0	0	8.03	0.79	0.23	311344	0	57903	191143	311344	253441	2456	389	314	60	157751	1965742	3219
346	2016-07-17 22:58:31	0	0	0	0	0	0	8.02	0.79	0.23	311353	0	57910	191143	311353	253443	2456	390	314	60	157751	1965783	3220
347	2016-07-17 23:08:31	0	0	0	0	0	0	8.02	0.79	0.23	311373	0	57924	191143	311373	253449	2456	390	314	60	157751	1965808	3220
348	2016-07-17 23:18:32	0	0	0	0	0	0	8.02	0.79	0.23	311385	0	57933	191143	311385	253452	2456	390	314	60	157751	1965829	3220
349	2016-07-17 23:28:31	0	0	0	0	0	0	8.02	0.79	0.23	311418	0	57957	191143	311418	253461	2457	390	314	60	157751	1965862	3221
350	2016-07-17 23:38:31	0	0	0	0	0	0	8.02	0.79	0.23	311431	0	57967	191143	311431	253464	2458	390	314	60	157751	1965879	3222
351	2016-07-17 23:48:32	0	0	0	0	0	0	8.02	0.79	0.23	311449	0	57979	191143	311449	253470	2458	390	314	60	157751	1965913	3222
352	2016-07-17 23:58:31	0	0	0	0	0	0	8.02	0.79	0.23	311457	0	57984	191143	311457	253473	2458	390	314	60	157751	1965929	3222
353	2016-07-18 00:08:31	0	0	0	0	0	0	8.02	0.79	0.23	311480	0	57998	191143	311480	253482	2459	390	314	60	157751	1965948	3223
354	2016-07-18 00:18:32	0	0	0	0	0	0	8.02	0.79	0.23	311497	0	58008	191143	311497	253489	2459	390	315	60	157751	1965962	3224
355	2016-07-18 00:28:32	0	0	0	0	0	0	8.02	0.79	0.23	311521	0	58022	191143	311521	253499	2459	390	315	60	157751	1965983	3224
356	2016-07-18 00:38:32	0	0	0	0	0	0	8.02	0.79	0.23	311529	0	58028	191143	311529	253501	2459	390	315	60	157751	1966001	3224
357	2016-07-18 00:48:31	0	0	0	0	0	0	8.02	0.79	0.23	311538	0	58032	191143	311538	253506	2459	390	315	60	157751	1966021	3224
358	2016-07-18 00:58:32	0	0	0	0	0	0	8.02	0.79	0.23	311549	0	58040	191427	311549	253509	2459	390	315	60	157751	1966032	3224
359	2016-07-18 01:08:31	0	0	0	0	0	0	8.02	0.79	0.23	311552	0	58042	191427	311552	253510	2459	390	315	60	157751	1966046	3224
360	2016-07-18 01:18:31	0	0	0	0	0	0	8.02	0.79	0.23	311561	0	58047	191427	311561	253514	2459	390	315	60	157751	1966061	3224
361	2016-07-18 01:28:32	0	0	0	0	0	0	8.02	0.79	0.23	311561	0	58047	191427	311561	253514	2459	390	315	60	157751	1966062	3224
362	2016-07-18 01:38:32	0	0	0	0	0	0	8.02	0.79	0.23	311566	0	58049	191427	311566	253517	2459	390	315	60	157751	1966076	3224
363	2016-07-18 01:48:32	0	0	0	0	0	0	8.02	0.79	0.23	311568	0	58051	191427	311568	253517	2459	390	315	60	157751	1966085	3224
364	2016-07-18 01:58:30	0	0	0	0	0	0	8.02	0.79	0.23	311572	0	58055	191427	311572	253517	2459	390	315	60	157751	1966094	3224
365	2016-07-18 02:08:32	0	0	0	0	0	0	8.02	0.79	0.23	311572	0	58055	191427	311572	253517	2459	390	315	60	157751	1966082	3224
366	2016-07-18 02:18:34	0	0	0	0	0	0	8.02	0.79	0.23	311574	0	58056	191427	311574	253518	2459	390	315	60	157751	1966082	3224
367	2016-07-18 02:28:31	0	0	0	0	0	0	8.02	0.79	0.23	311576	0	58058	191427	311576	253518	2459	390	315	60	157751	1966086	3224
368	2016-07-18 02:38:31	0	0	0	0	0	0	8.02	0.79	0.23	311583	0	58062	191427	311583	253521	2459	390	315	60	157751	1966090	3224
369	2016-07-18 02:48:31	0	0	0	0	0	0	8.02	0.79	0.23	311583	0	58062	191427	311583	253521	2459	390	315	60	157751	1966095	3224
370	2016-07-18 02:58:30	0	0	0	0	0	0	8.02	0.79	0.23	311587	0	58063	191427	311587	253524	2459	390	315	60	157751	1966095	3224
371	2016-07-18 03:08:30	0	0	0	0	0	0	8.02	0.79	0.23	311588	0	58064	191427	311588	253524	2459	390	315	60	157751	1966101	3224
372	2016-07-18 03:18:30	0	0	0	0	0	0	8.02	0.79	0.23	311590	0	58065	191427	311590	253525	2459	390	315	60	157751	1966109	3224
373	2016-07-18 03:28:31	0	0	0	0	0	0	8.02	0.79	0.23	311592	0	58066	191427	311592	253526	2459	390	315	60	157751	1966112	3224
374	2016-07-18 03:38:31	0	0	0	0	0	0	8.02	0.79	0.23	311592	0	58066	191427	311592	253526	2459	390	315	60	157751	1966114	3224
375	2016-07-18 03:48:30	0	0	0	0	0	0	8.02	0.79	0.23	311596	0	58069	191427	311596	253527	2459	390	315	60	157751	1966119	3224
376	2016-07-18 03:58:34	0	0	0	0	0	0	8.02	0.79	0.23	311597	0	58070	191427	311597	253527	2459	390	315	60	157751	1966119	3224
377	2016-07-18 04:08:30	0	0	0	0	0	0	8.02	0.79	0.23	311603	0	58076	191427	311603	253527	2459	390	315	60	157751	1966121	3224
378	2016-07-18 04:18:30	0	0	0	0	0	0	8.02	0.79	0.23	311605	0	58078	191427	311605	253527	2459	390	315	60	157751	1966122	3224
379	2016-07-18 04:28:30	0	0	0	0	0	0	8.02	0.79	0.23	311605	0	58078	191427	311605	253527	2459	390	315	60	157751	1966126	3224
380	2016-07-18 04:38:30	0	0	0	0	0	0	8.02	0.79	0.23	311605	0	58078	191427	311605	253527	2459	390	315	60	157751	1966129	3224
381	2016-07-18 04:48:30	0	0	0	0	0	0	8.02	0.79	0.23	311605	0	58078	191427	311605	253527	2459	390	315	60	157751	1966134	3224
382	2016-07-18 04:58:31	0	0	0	0	0	0	8.02	0.79	0.23	311606	0	58079	191427	311606	253527	2459	390	315	60	157751	1966134	3224
383	2016-07-18 05:08:31	0	0	0	0	0	0	8.02	0.79	0.23	311606	0	58079	191427	311606	253527	2459	390	315	60	157751	1966137	3224
384	2016-07-18 05:18:30	0	0	0	0	0	0	8.02	0.79	0.23	311606	0	58079	191427	311606	253527	2459	390	315	60	157751	1966138	3224
385	2016-07-18 05:28:30	0	0	0	0	0	0	8.02	0.79	0.23	311608	0	58080	191427	311608	253528	2459	390	315	60	157751	1966142	3224
386	2016-07-18 05:38:32	0	0	0	0	0	0	8.02	0.79	0.23	311609	0	58081	191427	311609	253528	2459	390	315	60	157751	1966144	3224
387	2016-07-18 05:48:36	0	0	0	0	0	0	8.02	0.79	0.23	311611	0	58083	191427	311611	253528	2459	390	315	60	157751	1966148	3224
388	2016-07-18 05:58:40	0	0	0	0	0	0	8.02	0.79	0.23	311612	0	58084	191427	311612	253528	2459	390	315	60	157751	1966152	3224
389	2016-07-18 06:08:40	0	0	0	0	0	0	8.02	0.79	0.23	311612	0	58084	191427	311612	253528	2459	390	315	60	157751	1966153	3224
390	2016-07-18 06:18:34	0	0	0	0	0	0	8.02	0.79	0.23	311614	0	58086	191427	311614	253528	2459	390	315	60	157751	1966156	3224
391	2016-07-18 06:28:30	0	0	0	0	0	0	8.02	0.79	0.23	311619	0	58090	191427	311619	253529	2459	390	315	60	157751	1966159	3224
392	2016-07-18 06:38:32	0	0	0	0	0	0	8.02	0.79	0.23	311621	0	58091	191427	311621	253530	2459	390	315	60	157751	1966163	3224
393	2016-07-18 06:48:31	0	0	0	0	0	0	8.02	0.79	0.23	311624	0	58094	191521	311624	253530	2459	392	315	60	157751	1966168	3226
394	2016-07-18 06:58:32	0	0	0	0	0	0	8.02	0.79	0.23	311624	0	58094	191521	311624	253530	2459	392	315	60	157751	1966173	3226
395	2016-07-18 07:08:32	0	0	0	0	0	0	8.02	0.79	0.23	311627	0	58095	191521	311627	253532	2459	392	315	60	157751	1966183	3226
396	2016-07-18 07:18:32	0	0	0	0	0	0	8.02	0.79	0.23	311629	0	58096	191521	311629	253533	2459	392	315	60	157751	1966188	3226
397	2016-07-18 07:28:31	0	0	0	0	0	0	8.02	0.79	0.23	311632	0	58098	191521	311632	253534	2459	392	315	60	157751	1966197	3226
398	2016-07-18 07:38:33	0	0	0	0	0	0	8.02	0.79	0.23	311642	0	58105	191521	311642	253537	2459	393	315	60	157751	1966202	3227
399	2016-07-18 07:48:33	0	0	0	0	0	0	8.02	0.79	0.23	311645	0	58106	191521	311645	253539	2459	393	315	60	157751	1966210	3227
400	2016-07-18 07:58:31	0	0	0	0	0	0	8.02	0.79	0.23	311660	0	58116	191521	311660	253544	2459	393	315	60	157751	1966223	3227
401	2016-07-18 08:08:33	0	0	0	0	0	0	8.02	0.79	0.23	311663	0	58119	191521	311663	253544	2459	393	315	60	157751	1966233	3227
402	2016-07-18 08:18:33	0	0	0	0	0	0	8.02	0.79	0.23	311669	0	58123	191521	311669	253546	2459	393	315	60	157751	1966249	3227
