1	2015-08-27 12:04:19	0	0	0	0	0	0	0.29	0.86	0	3942	0	1	3527	3942	3941	34	2	9	3	3527	1198886	48
2	2015-08-27 12:10:20	0	0	0	0	0	0	0.29	0.86	0	3942	0	1	3527	3942	3941	34	2	9	3	3527	1198881	48
3	2015-08-27 12:16:21	0	0	0	0	0	0	1.5	1.13	0	23263	0	102	18106	23263	23161	264	7	50	9	18018	1198883	330
4	2015-08-27 12:22:20	0	0	0	0	0	0	1.5	1.13	0	23263	0	102	18106	23263	23161	264	7	50	9	18018	1198878	330
5	2015-08-27 12:28:20	0	0	0	0	0	0	1.94	1.87	0.01	31701	0	234	20645	31701	31467	593	9	96	16	23263	1198881	714
6	2015-08-27 12:34:20	0	0	0	0	0	0	1.94	1.87	0.01	31701	0	234	20645	31701	31467	593	9	96	16	23263	1198874	714
7	2015-08-27 12:40:21	0	0	0	0	0	0	2.32	1.97	0.01	39200	0	412	28047	39200	38788	774	10	111	19	27837	1198878	914
8	2015-08-27 12:46:20	0	0	0	0	0	0	2.32	1.97	0.01	39200	0	412	28047	39200	38788	774	10	111	19	27837	1198881	914
9	2015-08-27 12:52:20	0	0	0	0	0	0	2.64	2.06	0.01	45954	0	618	31893	45954	45336	946	10	138	21	31631	1198884	1115
10	2015-08-27 12:58:21	0	0	0	0	0	0	2.64	2.06	0.01	45954	0	618	31893	45954	45336	946	10	138	21	31631	1198882	1115
11	2015-08-27 13:04:20	0	0	0	0	0	0	3	2.06	0.02	52270	0	848	36427	52270	51422	1077	11	159	23	35963	1198886	1270
12	2015-08-27 13:10:20	0	0	0	0	0	0	3	2.06	0.02	52270	0	848	36427	52270	51422	1077	11	159	23	35963	1198878	1270
13	2015-08-27 13:16:20	0	0	0	0	0	0	3.22	2.07	0.02	57482	0	1073	38963	57482	56409	1190	12	170	23	38589	1198883	1395
14	2015-08-27 13:22:20	0	0	0	0	0	0	3.22	2.07	0.02	57482	0	1073	38963	57482	56409	1190	12	170	23	38589	1198880	1395
15	2015-08-27 13:28:21	0	0	0	0	0	0	3.43	2.1	0.02	62920	0	1304	41822	62920	61616	1322	15	184	23	41179	1198880	1544
16	2015-08-27 13:34:22	0	0	0	0	0	0	3.43	2.1	0.02	62920	0	1304	41822	62920	61616	1322	15	184	23	41179	1198878	1544
17	2015-08-27 13:40:21	0	0	0	0	0	0	3.56	2.11	0.02	65633	0	1450	43478	65633	64183	1384	15	188	23	42651	1198884	1610
18	2015-08-27 13:46:22	0	0	0	0	0	0	3.56	2.11	0.02	65633	0	1450	43478	65633	64183	1384	15	188	23	42651	1198873	1610
19	2015-08-27 13:52:20	0	0	0	0	0	0	3.74	2.07	0.02	71759	0	1674	47274	71759	67671	1484	16	200	24	44883	1198873	1724
20	2015-08-27 13:58:21	0	0	0	0	0	0	3.74	2.07	0.02	71759	0	1674	47274	71759	67671	1484	16	200	24	44883	1198873	1724
21	2015-08-27 14:04:22	0	0	0	0	0	0	3.98	2.19	0.03	75431	0	2077	49019	75431	73354	1652	18	219	28	47661	1198876	1917
22	2015-08-27 14:10:23	0	0	0	0	0	0	3.98	2.19	0.03	75431	0	2077	49019	75431	73354	1652	18	219	28	47661	1198877	1917
23	2015-08-27 14:16:21	0	0	0	0	0	0	4.07	2.18	0.03	77298	0	2199	50152	77298	75099	1687	18	223	28	48743	1198880	1956
24	2015-08-27 14:22:21	0	0	0	0	0	0	4.07	2.18	0.03	77298	0	2199	50152	77298	75099	1687	18	223	28	48743	1198879	1956
25	2015-08-27 14:28:22	0	0	0	0	0	0	4.18	2.18	0.03	80712	0	2418	51904	80712	78294	1762	20	227	28	50070	1198882	2037
26	2015-08-27 14:34:24	0	0	0	0	0	0	4.18	2.18	0.03	80712	0	2418	51904	80712	78294	1762	20	227	28	50070	1198880	2037
27	2015-08-27 14:40:22	0	0	0	0	0	0	4.31	2.18	0.03	83778	0	2617	53663	83778	81161	1824	20	231	28	51643	1198884	2103
28	2015-08-27 14:46:22	0	0	0	0	0	0	4.31	2.18	0.03	83778	0	2617	53663	83778	81161	1824	20	231	28	51643	1198877	2103
29	2015-08-27 14:52:22	0	0	0	0	0	0	4.42	2.18	0.03	86438	0	2802	55258	86438	83636	1885	21	234	28	53005	1198878	2168
30	2015-08-27 14:58:21	0	0	0	0	0	0	4.42	2.18	0.03	86438	0	2802	55258	86438	83636	1885	21	234	28	53005	1198881	2168
31	2015-08-27 15:04:23	0	0	0	0	0	0	4.53	2.2	0.03	89019	0	3002	56667	89019	86017	1954	21	236	28	54250	1198886	2239
32	2015-08-27 15:10:23	0	0	0	0	0	0	4.53	2.2	0.03	89019	0	3002	56667	89019	86017	1954	21	236	28	54250	1198880	2239
33	2015-08-27 15:16:21	0	0	0	0	0	0	4.64	2.2	0.04	91419	0	3177	58005	91419	88242	2009	21	245	28	55575	1198883	2303
34	2015-08-27 15:22:22	0	0	0	0	0	0	4.64	2.2	0.04	91419	0	3177	58005	91419	88242	2009	21	245	28	55575	1198882	2303
35	2015-08-27 15:28:23	0	0	0	0	0	0	4.72	2.2	0.04	94101	0	3381	59334	94101	90720	2073	22	248	28	56612	1198883	2371
36	2015-08-27 15:34:22	0	0	0	0	0	0	4.72	2.2	0.04	94101	0	3381	59334	94101	90720	2073	22	248	28	56612	1198882	2371
37	2015-08-27 15:40:23	0	0	0	0	0	0	4.87	2.2	0.04	97125	0	3582	61145	97125	93543	2140	23	255	28	58338	1198885	2446
38	2015-08-27 15:46:22	0	0	0	0	0	0	4.87	2.2	0.04	97125	0	3582	61145	97125	93543	2140	23	255	28	58338	1198879	2446
39	2015-08-27 15:52:23	0	0	0	0	0	0	4.97	2.2	0.04	99976	0	3770	62381	99976	96206	2198	23	261	28	59540	1198881	2510
40	2015-08-27 15:58:22	0	0	0	0	0	0	4.97	2.2	0.04	99976	0	3770	62381	99976	96206	2198	23	261	28	59540	1198878	2510
41	2015-08-27 16:04:24	0	0	0	0	0	0	5.11	2.2	0.04	103020	0	3933	64277	103020	99087	2264	24	267	28	61284	1198881	2583
42	2015-08-27 16:10:23	0	0	0	0	0	0	5.11	2.2	0.04	103020	0	3933	64277	103020	99087	2264	24	267	28	61284	1198880	2583
43	2015-08-27 16:16:26	0	0	0	0	0	0	5.29	2.2	0.04	105436	0	4063	66635	105436	101373	2319	24	268	28	63364	1198883	2639
44	2015-08-27 16:22:25	0	0	0	0	0	0	5.29	2.2	0.04	105436	0	4063	66635	105436	101373	2319	24	268	28	63364	1198885	2639
45	2015-08-27 16:28:23	0	0	0	0	0	0	5.4	2.2	0.04	108056	0	4224	68121	108056	103832	2377	25	278	28	64771	1198890	2708
46	2015-08-27 16:34:24	0	0	0	0	0	0	5.4	2.2	0.04	108056	0	4224	68121	108056	103832	2377	25	278	28	64771	1198883	2708
47	2015-08-27 16:40:24	0	0	0	0	0	0	5.53	2.21	0.04	110620	0	4422	69714	110620	106198	2440	25	286	28	66281	1198887	2779
48	2015-08-27 16:46:24	0	0	0	0	0	0	5.53	2.21	0.04	110620	0	4422	69714	110620	106198	2440	25	286	28	66281	1198885	2779
49	2015-08-27 16:52:26	0	0	0	0	0	0	5.63	2.21	0.04	112507	0	4567	71213	112507	107940	2490	26	287	29	67469	1198890	2832
50	2015-08-27 16:58:24	0	0	0	0	0	0	5.63	2.21	0.04	112507	0	4567	71213	112507	107940	2490	26	287	29	67469	1198880	2832
51	2015-08-27 17:04:26	0	0	0	0	0	0	5.75	2.21	0.04	114435	0	4689	72833	114435	109746	2529	26	290	31	68970	1198879	2876
52	2015-08-27 17:10:25	0	0	0	0	0	0	5.75	2.21	0.04	114435	0	4689	72833	114435	109746	2529	26	290	31	68970	1198878	2876
53	2015-08-27 17:16:25	0	0	0	0	0	0	5.89	2.21	0.04	116235	0	4823	74460	116235	111412	2569	27	292	31	70620	1198882	2919
54	2015-08-27 17:22:25	0	0	0	0	0	0	5.89	2.21	0.04	116235	0	4823	74460	116235	111412	2569	27	292	31	70620	1198878	2919
55	2015-08-27 17:28:27	0	0	0	0	0	0	5.99	2.2	0.04	117986	0	4957	75631	117986	113029	2601	27	296	31	71806	1198881	2955
56	2015-08-27 17:34:26	0	0	0	0	0	0	5.99	2.2	0.04	117986	0	4957	75631	117986	113029	2601	27	296	31	71806	1198881	2955
57	2015-08-27 17:40:27	0	0	0	0	0	0	6.04	2.2	0.04	119726	0	5082	76247	119726	114644	2636	28	299	31	72389	1198883	2994
58	2015-08-27 17:46:30	0	0	0	0	0	0	6.04	2.2	0.04	119726	0	5082	76247	119726	114644	2636	28	299	31	72389	1198885	2994
59	2015-08-27 17:52:27	0	0	0	0	0	0	6.09	2.21	0.04	121375	0	5220	77263	121375	116155	2679	28	303	31	73020	1198891	3041
60	2015-08-27 17:58:30	0	0	0	0	0	0	6.09	2.21	0.04	121375	0	5220	77263	121375	116155	2679	28	303	31	73020	1198883	3041
61	2015-08-27 18:04:27	0	0	0	0	0	0	6.15	2.21	0.05	122826	0	5321	78013	122826	117505	2713	28	305	31	73745	1198893	3077
62	2015-08-27 18:10:28	0	0	0	0	0	0	6.15	2.21	0.05	122826	0	5321	78013	122826	117505	2713	28	305	31	73745	1198890	3077
63	2015-08-27 18:16:27	0	0	0	0	0	0	6.24	2.2	0.05	124474	0	5458	79026	124474	119016	2733	28	308	31	74831	1198894	3100
64	2015-08-27 18:22:27	0	0	0	0	0	0	6.24	2.2	0.05	124474	0	5458	79026	124474	119016	2733	28	308	31	74831	1198888	3100
65	2015-08-27 18:28:27	0	0	0	0	0	0	6.36	2.19	0.05	126083	0	5556	80018	126083	120527	2758	28	312	31	76221	1198890	3129
66	2015-08-27 18:34:27	0	0	0	0	0	0	6.36	2.19	0.05	126083	0	5556	81172	126083	120527	2758	28	312	31	76221	1198884	3129
67	2015-08-27 18:40:28	0	0	0	0	0	0	6.42	2.18	0.05	127493	0	5652	81172	127493	121841	2780	28	316	31	76927	1198889	3155
68	2015-08-27 18:46:31	0	0	0	0	0	0	6.42	2.18	0.05	127493	0	5652	81675	127493	121841	2780	28	316	31	76927	1198881	3155
69	2015-08-27 18:52:28	0	0	0	0	0	0	6.47	2.18	0.05	128836	0	5766	81675	128836	123070	2806	28	318	31	77607	1198883	3183
70	2015-08-27 18:58:28	0	0	0	0	0	0	6.47	2.18	0.05	128836	0	5766	82335	128836	123070	2806	28	318	31	77607	1198887	3183
71	2015-08-27 19:04:28	0	0	0	0	0	0	6.52	2.18	0.05	130297	0	5871	82335	130297	124426	2835	29	320	31	78171	1198889	3215
72	2015-08-27 19:10:17	0	0	0	0	0	0	6.52	2.18	0.05	130297	0	5871	83181	130297	124426	2835	29	320	31	78171	1198880	3215
73	2015-08-27 19:16:16	0	0	0	0	0	0	6.59	2.18	0.05	131610	0	6018	83181	131610	125592	2864	29	321	31	78964	1198881	3245
74	2015-08-27 19:22:17	0	0	0	0	0	0	6.59	2.18	0.05	131610	0	6018	83979	131610	125592	2864	29	321	31	78964	1198887	3245
75	2015-08-27 19:28:17	0	0	0	0	0	0	6.61	2.18	0.05	132748	0	6137	83979	132748	126611	2896	29	322	31	79300	1198893	3278
76	2015-08-27 19:34:17	0	0	0	0	0	0	6.61	2.18	0.05	132748	0	6137	84637	132748	126611	2896	29	322	31	79300	1198883	3278
77	2015-08-27 19:40:18	0	0	0	0	0	0	6.68	2.18	0.05	134094	0	6270	84637	134094	127824	2920	29	325	31	80122	1198890	3305
78	2015-08-27 19:46:20	0	0	0	0	0	0	6.68	2.18	0.05	134094	0	6270	85093	134094	127824	2920	29	325	31	80122	1198880	3305
79	2015-08-27 19:52:20	0	0	0	0	0	0	6.72	2.18	0.05	135415	0	6382	85093	135415	129033	2946	29	326	31	80538	1198882	3332
80	2015-08-27 19:58:32	0	0	0	0	0	0	6.72	2.18	0.05	135415	0	6382	85800	135415	129033	2946	29	326	31	80538	1198882	3332
81	2015-08-27 20:04:23	0	0	0	0	0	0	6.77	2.18	0.05	136769	0	6493	85800	136769	130276	2976	29	328	31	81212	1198892	3364
82	2015-08-27 20:10:22	0	0	0	0	0	0	6.77	2.18	0.05	136769	0	6493	86494	136769	130276	2976	29	328	31	81212	1198876	3364
83	2015-08-27 20:16:20	0	0	0	0	0	0	6.82	2.17	0.05	138114	0	6576	86494	138114	131538	2999	29	330	31	81772	1198883	3389
84	2015-08-27 20:22:20	0	0	0	0	0	0	6.82	2.17	0.05	138114	0	6576	87114	138114	131538	2999	29	330	31	81772	1198879	3389
85	2015-08-27 20:28:22	0	0	0	0	0	0	6.88	2.17	0.05	139685	0	6679	87114	139685	133006	3027	29	332	31	82446	1198880	3419
86	2015-08-27 20:34:23	0	0	0	0	0	0	6.88	2.17	0.05	139685	0	6679	88224	139685	133006	3027	29	332	31	82446	1198876	3419
87	2015-08-27 20:40:22	0	0	0	0	0	0	7.02	2.16	0.05	141668	0	6831	88224	141668	134837	3057	29	337	31	84163	1198880	3454
88	2015-08-27 20:46:22	0	0	0	0	0	0	7.02	2.16	0.05	141668	0	6831	89778	141668	134837	3057	29	337	31	84163	1198879	3454
89	2015-08-27 20:52:20	0	0	0	0	0	0	7.04	2.14	0.05	143184	0	6896	89778	143184	135534	3066	29	339	32	84455	1198879	3466
90	2015-08-27 20:58:18	0	0	0	0	0	0	7.04	2.14	0.05	143184	0	6896	90114	143184	135534	3066	29	339	32	84455	1198876	3466
91	2015-08-27 21:04:22	0	0	0	0	0	0	7.11	2.15	0.05	144448	0	7079	90114	144448	137369	3109	31	341	32	85242	1198886	3513
92	2015-08-27 21:10:21	0	0	0	0	0	0	7.11	2.15	0.05	144448	0	7079	90806	144448	137369	3109	31	341	32	85242	1198878	3513
93	2015-08-27 21:16:21	0	0	0	0	0	0	7.2	2.15	0.05	145726	0	7210	90806	145726	138516	3133	31	341	32	86287	1198881	3537
94	2015-08-27 21:22:24	0	0	0	0	0	0	7.2	2.15	0.05	145726	0	7210	91993	145726	138516	3133	31	341	32	86287	1198883	3537
95	2015-08-27 21:28:22	0	0	0	0	0	0	7.28	2.15	0.05	146959	0	7336	91993	146959	139623	3153	31	341	32	87227	1198893	3557
96	2015-08-27 21:34:21	0	0	0	0	0	0	7.28	2.15	0.05	146959	0	7336	93275	146959	139623	3153	31	341	32	87227	1198876	3557
97	2015-08-27 21:40:25	0	0	0	0	0	0	7.33	2.14	0.05	148097	0	7450	93275	148097	140647	3172	32	343	32	87876	1198880	3579
98	2015-08-27 21:46:23	0	0	0	0	0	0	7.33	2.14	0.05	148097	0	7450	93992	148097	140647	3172	32	343	32	87876	1198879	3579
99	2015-08-27 21:52:25	0	0	0	0	0	0	7.4	2.14	0.05	149318	0	7549	93992	149318	141769	3195	32	344	32	88725	1198884	3603
100	2015-08-27 21:58:32	0	0	0	0	0	0	7.4	2.14	0.05	149318	0	7549	95130	149318	141769	3195	32	344	32	88725	1198878	3603
101	2015-08-27 22:04:32	0	0	0	0	0	0	7.48	2.13	0.05	150625	0	7642	95130	150625	142983	3211	32	348	32	89623	1198885	3623
102	2015-08-27 22:10:34	0	0	0	0	0	0	7.48	2.13	0.05	150625	0	7642	95369	150625	142983	3211	32	348	32	89623	1198883	3623
103	2015-08-27 22:16:33	0	0	0	0	0	0	7.52	2.13	0.05	151966	0	7730	95369	151966	144236	3239	32	349	32	90182	1198887	3652
104	2015-08-27 22:22:32	0	0	0	0	0	0	7.52	2.13	0.05	151966	0	7730	96465	151966	144236	3239	32	349	32	90182	1198880	3652
105	2015-08-27 22:28:33	0	0	0	0	0	0	7.58	2.13	0.05	153162	0	7828	96465	153162	145334	3260	32	350	32	90826	1198886	3674
106	2015-08-27 22:34:33	0	0	0	0	0	0	7.58	2.13	0.05	153162	0	7828	97069	153162	145334	3260	32	350	32	90826	1198883	3674
107	2015-08-27 22:40:36	0	0	0	0	0	0	7.64	2.13	0.05	154585	0	7924	97069	154585	146661	3290	32	351	32	91610	1198887	3705
108	2015-08-27 22:46:32	0	0	0	0	0	0	7.64	2.13	0.05	154585	0	7924	97989	154585	146661	3290	32	351	32	91610	1198881	3705
109	2015-08-27 22:52:33	0	0	0	0	0	0	7.71	2.13	0.05	156064	0	8037	97989	156064	148027	3320	33	351	32	92458	1198891	3736
110	2015-08-27 22:58:34	0	0	0	0	0	0	7.71	2.13	0.05	156064	0	8037	98749	156064	148027	3320	33	351	32	92458	1198882	3736
111	2015-08-27 23:04:32	0	0	0	0	0	0	7.77	2.12	0.05	157477	0	8126	98749	157477	149351	3346	33	355	32	93111	1198888	3766
112	2015-08-27 23:10:32	0	0	0	0	0	0	7.77	2.12	0.05	157477	0	8126	99555	157477	149351	3346	33	355	32	93111	1198891	3766
113	2015-08-27 23:16:32	0	0	0	0	0	0	7.82	2.12	0.05	158888	0	8219	99555	158888	150669	3363	33	355	33	93706	1198898	3784
114	2015-08-27 23:22:32	0	0	0	0	0	0	7.82	2.12	0.05	158888	0	8219	99867	158888	150669	3363	33	355	33	93706	1198883	3784
115	2015-08-27 23:28:32	0	0	0	0	0	0	7.86	2.11	0.05	160193	0	8300	99867	160193	151893	3384	33	357	33	94203	1198889	3807
116	2015-08-27 23:34:32	0	0	0	0	0	0	7.86	2.11	0.05	160193	0	8300	100788	160193	151893	3384	33	357	33	94203	1198883	3807
117	2015-08-27 23:40:33	0	0	0	0	0	0	7.91	2.11	0.05	161541	0	8395	100788	161541	153146	3410	33	361	33	94775	1198889	3837
118	2015-08-27 23:46:34	0	0	0	0	0	0	7.91	2.11	0.05	161541	0	8395	101271	161541	153146	3410	33	361	33	94775	1198893	3837
119	2015-08-27 23:52:31	0	0	0	0	0	0	8	2.11	0.05	162868	0	8469	101271	162868	154399	3435	33	363	33	95852	1198899	3864
120	2015-08-27 23:58:32	0	0	0	0	0	0	8	2.11	0.05	162868	0	8469	102733	162868	154399	3435	33	363	33	95852	1198885	3864
121	2015-08-28 00:04:32	0	0	0	0	0	0	8.03	2.1	0.06	163947	0	8565	102733	163947	155382	3451	33	365	33	96304	1198890	3882
122	2015-08-28 00:10:32	0	0	0	0	0	0	8.03	2.1	0.06	163947	0	8565	103623	163947	155382	3451	33	365	33	96304	1198883	3882
123	2015-08-28 00:16:33	0	0	0	0	0	0	8.12	2.1	0.06	164845	0	8620	103623	164845	156225	3469	33	366	33	97335	1198884	3901
124	2015-08-28 00:22:34	0	0	0	0	0	0	8.12	2.1	0.06	164845	0	8620	104184	164845	156225	3469	33	366	33	97335	1198878	3901
125	2015-08-28 00:28:34	0	0	0	0	0	0	8.15	2.1	0.06	165894	0	8674	104184	165894	157220	3480	33	369	33	97685	1198878	3915
126	2015-08-28 00:34:35	0	0	0	0	0	0	8.15	2.1	0.06	165894	0	8674	104564	165894	157220	3480	33	369	33	97685	1198881	3915
127	2015-08-28 00:40:41	0	0	0	0	0	0	8.18	2.1	0.06	166805	0	8731	104564	166805	158074	3497	33	371	33	98099	1198882	3934
128	2015-08-28 00:46:36	0	0	0	0	0	0	8.18	2.1	0.06	166805	0	8731	104818	166805	158074	3497	33	371	33	98099	1198882	3934
129	2015-08-28 00:52:35	0	0	0	0	0	0	8.22	2.09	0.06	167443	0	8768	104818	167443	158675	3506	34	374	34	98561	1198883	3948
130	2015-08-28 00:58:35	0	0	0	0	0	0	8.22	2.09	0.06	167443	0	8768	105404	167443	158675	3506	34	374	34	98561	1198883	3948
131	2015-08-28 01:04:34	0	0	0	0	0	0	8.24	2.09	0.06	167978	0	8803	105404	167978	159175	3518	34	375	34	98792	1198886	3961
132	2015-08-28 01:10:36	0	0	0	0	0	0	8.24	2.09	0.06	167978	0	8803	105632	167978	159175	3518	34	375	34	98792	1198879	3961
133	2015-08-28 01:16:34	0	0	0	0	0	0	8.26	2.09	0.06	168522	0	8836	105632	168522	159686	3523	34	376	34	98982	1198881	3967
134	2015-08-28 01:22:35	0	0	0	0	0	0	8.26	2.09	0.06	168522	0	8836	106416	168522	159686	3523	34	376	34	98982	1198875	3967
135	2015-08-28 01:28:35	0	0	0	0	0	0	8.32	2.09	0.06	169028	0	8879	106416	169028	160149	3527	34	376	34	99771	1198879	3971
136	2015-08-28 01:34:34	0	0	0	0	0	0	8.32	2.09	0.06	169028	0	8879	106708	169028	160149	3527	34	376	34	99771	1198874	3971
137	2015-08-28 01:40:31	0	0	0	0	0	0	8.32	2.08	0.06	169449	0	8897	106708	169449	160552	3530	34	378	34	99771	1198875	3976
138	2015-08-28 01:46:34	0	0	0	0	0	0	8.32	2.08	0.06	169449	0	8897	106942	169449	160552	3530	34	378	34	99771	1198876	3976
139	2015-08-28 01:52:32	0	0	0	0	0	0	8.34	2.08	0.06	169801	0	8918	106942	169801	160883	3534	34	378	34	100028	1198877	3980
140	2015-08-28 01:58:32	0	0	0	0	0	0	8.34	2.08	0.06	169801	0	8918	107001	169801	160883	3534	34	378	34	100028	1198874	3980
141	2015-08-28 02:04:36	0	0	0	0	0	0	8.33	2.08	0.06	170111	0	8934	107001	170111	161177	3539	34	378	34	100028	1200165	3985
142	2015-08-28 02:10:37	0	0	0	0	0	0	8.33	2.08	0.06	170111	0	8934	107090	170111	161177	3539	34	378	34	100028	1200161	3985
143	2015-08-28 02:16:36	0	0	0	0	0	0	8.37	2.08	0.06	170412	0	8942	107090	170412	161470	3542	34	378	34	100507	1200160	3988
144	2015-08-28 02:22:36	0	0	0	0	0	0	8.37	2.08	0.06	170412	0	8942	107624	170412	161470	3542	34	378	34	100507	1200164	3988
145	2015-08-28 02:28:36	0	0	0	0	0	0	8.39	2.08	0.06	170640	0	8953	107624	170640	161687	3544	34	378	34	100703	1200159	3990
146	2015-08-28 02:34:35	0	0	0	0	0	0	8.39	2.08	0.06	170640	0	8953	107755	170640	161687	3544	34	378	34	100703	1200159	3990
147	2015-08-28 02:40:36	0	0	0	0	0	0	8.4	2.08	0.06	170853	0	8956	107755	170853	161897	3550	34	378	34	100791	1200158	3996
148	2015-08-28 02:46:35	0	0	0	0	0	0	8.4	2.08	0.06	170853	0	8956	107755	170853	161897	3550	34	378	34	100791	1200164	3996
149	2015-08-28 02:52:36	0	0	0	0	0	0	8.4	2.08	0.06	171040	0	8964	107755	171040	162076	3552	34	378	34	100791	1200160	3998
150	2015-08-28 02:58:36	0	0	0	0	0	0	8.4	2.08	0.06	171040	0	8964	107845	171040	162076	3552	34	378	34	100791	1200161	3998
151	2015-08-28 03:04:37	0	0	0	0	0	0	8.4	2.08	0.06	171199	0	8974	107845	171199	162225	3556	34	379	34	100870	1200159	4003
152	2015-08-28 03:10:40	0	0	0	0	0	0	8.4	2.08	0.06	171199	0	8974	107860	171199	162225	3556	34	379	34	100870	1200161	4003
153	2015-08-28 03:16:35	0	0	0	0	0	0	8.42	2.08	0.06	171349	0	8982	107860	171349	162367	3556	34	379	34	101068	1200162	4003
154	2015-08-28 03:22:35	0	0	0	0	0	0	8.42	2.08	0.06	171349	0	8982	107890	171349	162367	3556	34	379	34	101068	1200164	4003
155	2015-08-28 03:28:37	0	0	0	0	0	0	8.42	2.07	0.06	171501	0	8989	107890	171501	162512	3558	34	379	34	101094	1200160	4005
156	2015-08-28 03:34:35	0	0	0	0	0	0	8.42	2.07	0.06	171501	0	8989	107950	171501	162512	3558	34	379	34	101094	1200162	4005
157	2015-08-28 03:40:39	0	0	0	0	0	0	8.43	2.07	0.06	171621	0	8999	107950	171621	162622	3559	34	381	34	101147	1200159	4008
158	2015-08-28 03:46:36	0	0	0	0	0	0	8.43	2.07	0.06	171621	0	8999	108071	171621	162622	3559	34	381	34	101147	1200160	4008
159	2015-08-28 03:52:35	0	0	0	0	0	0	8.44	2.07	0.06	171736	0	9003	108071	171736	162733	3561	34	381	34	101253	1200157	4010
160	2015-08-28 03:58:37	0	0	0	0	0	0	8.44	2.07	0.06	171736	0	9003	108071	171736	162733	3561	34	381	34	101253	1200159	4010
161	2015-08-28 04:04:36	0	0	0	0	0	0	8.44	2.07	0.06	171835	0	9016	108071	171835	162819	3563	34	381	34	101253	1200159	4012
162	2015-08-28 04:10:35	0	0	0	0	0	0	8.44	2.07	0.06	171835	0	9016	108071	171835	162819	3563	34	381	34	101253	1200160	4012
163	2015-08-28 04:16:35	0	0	0	0	0	0	8.44	2.07	0.06	171916	0	9021	108071	171916	162895	3565	34	381	34	101253	1200159	4014
164	2015-08-28 04:22:33	0	0	0	0	0	0	8.44	2.07	0.06	171916	0	9021	108071	171916	162895	3565	34	381	34	101253	1200159	4014
165	2015-08-28 04:28:35	0	0	0	0	0	0	8.44	2.07	0.06	171989	0	9025	108071	171989	162964	3567	34	381	34	101253	1200158	4016
166	2015-08-28 04:34:34	0	0	0	0	0	0	8.44	2.07	0.06	171989	0	9025	108071	171989	162964	3567	34	381	34	101253	1200158	4016
167	2015-08-28 04:40:32	0	0	0	0	0	0	8.44	2.07	0.06	172080	0	9031	108071	172080	163049	3569	34	382	34	101253	1200149	4019
168	2015-08-28 04:46:33	0	0	0	0	0	0	8.44	2.07	0.06	172080	0	9031	108071	172080	163049	3569	34	382	34	101253	1200148	4019
169	2015-08-28 04:52:34	0	0	0	0	0	0	8.44	2.07	0.06	172155	0	9035	108071	172155	163120	3569	34	383	34	101253	1200145	4020
170	2015-08-28 04:58:36	0	0	0	0	0	0	8.44	2.07	0.06	172155	0	9035	108184	172155	163120	3569	34	383	34	101253	1200148	4020
171	2015-08-28 05:04:34	0	0	0	0	0	0	8.44	2.07	0.06	172252	0	9039	108184	172252	163213	3571	34	383	34	101352	1200150	4022
172	2015-08-28 05:10:35	0	0	0	0	0	0	8.44	2.07	0.06	172252	0	9039	108275	172252	163213	3571	34	383	34	101352	1200158	4022
173	2015-08-28 05:16:35	0	0	0	0	0	0	8.45	2.07	0.06	172334	0	9046	108275	172334	163288	3571	34	383	34	101432	1200152	4022
174	2015-08-28 05:22:33	0	0	0	0	0	0	8.45	2.07	0.06	172334	0	9046	108275	172334	163288	3571	34	383	34	101432	1200156	4022
175	2015-08-28 05:28:33	0	0	0	0	0	0	8.45	2.07	0.06	172456	0	9058	108275	172456	163398	3572	34	383	34	101432	1200156	4023
176	2015-08-28 05:34:34	0	0	0	0	0	0	8.45	2.07	0.06	172456	0	9058	108335	172456	163398	3572	34	383	34	101432	1200156	4023
177	2015-08-28 05:40:34	0	0	0	0	0	0	8.45	2.07	0.06	172588	0	9071	108335	172588	163517	3576	34	383	34	101432	1200156	4027
178	2015-08-28 05:46:33	0	0	0	0	0	0	8.45	2.07	0.06	172588	0	9071	108335	172588	163517	3576	34	383	34	101432	1200157	4027
179	2015-08-28 05:52:33	0	0	0	0	0	0	8.46	2.07	0.06	172735	0	9081	108335	172735	163654	3580	34	383	34	101538	1200150	4031
180	2015-08-28 05:58:33	0	0	0	0	0	0	8.46	2.07	0.06	172735	0	9081	108670	172735	163654	3580	34	383	34	101538	1200157	4031
181	2015-08-28 06:04:32	0	0	0	0	0	0	8.48	2.07	0.06	172883	0	9091	108670	172883	163792	3583	34	383	34	101832	1200156	4034
182	2015-08-28 06:10:36	0	0	0	0	0	0	8.48	2.07	0.06	172883	0	9091	108792	172883	163792	3583	34	383	34	101832	1200158	4034
183	2015-08-28 06:16:34	0	0	0	0	0	0	8.49	2.07	0.06	173064	0	9102	108792	173064	163962	3583	34	383	34	101886	1200156	4034
184	2015-08-28 06:22:34	0	0	0	0	0	0	8.49	2.07	0.06	173064	0	9102	109114	173064	163962	3583	34	383	34	101886	1200156	4034
185	2015-08-28 06:28:35	0	0	0	0	0	0	8.51	2.07	0.06	173292	0	9122	109114	173292	164170	3585	34	385	34	102114	1200155	4038
186	2015-08-28 06:34:32	0	0	0	0	0	0	8.51	2.07	0.06	173292	0	9122	109145	173292	164170	3585	34	385	34	102114	1200157	4038
187	2015-08-28 06:40:34	0	0	0	0	0	0	8.51	2.07	0.06	173531	0	9140	109145	173531	164391	3588	34	385	34	102141	1200154	4041
188	2015-08-28 06:46:34	0	0	0	0	0	0	8.51	2.07	0.06	173531	0	9140	109261	173531	164391	3588	34	385	34	102141	1200158	4041
189	2015-08-28 06:52:36	0	0	0	0	0	0	8.52	2.07	0.06	173759	0	9152	109261	173759	164607	3591	34	385	34	102296	1200153	4044
190	2015-08-28 06:58:36	0	0	0	0	0	0	8.52	2.07	0.06	173759	0	9152	109353	173759	164607	3591	34	385	34	102296	1200157	4044
191	2015-08-28 07:04:38	0	0	0	0	0	0	8.53	2.06	0.06	174044	0	9174	109353	174044	164870	3594	34	385	34	102344	1200155	4047
192	2015-08-28 07:10:38	0	0	0	0	0	0	8.53	2.06	0.06	174044	0	9174	109469	174044	164870	3594	34	385	34	102344	1200155	4047
193	2015-08-28 07:16:36	0	0	0	0	0	0	8.53	2.07	0.06	174373	0	9205	109469	174373	165168	3602	34	385	34	102344	1200153	4055
194	2015-08-28 07:22:37	0	0	0	0	0	0	8.53	2.07	0.06	174373	0	9205	109574	174373	165168	3602	34	385	34	102344	1200157	4055
195	2015-08-28 07:28:33	0	0	0	0	0	0	8.54	2.07	0.06	174745	0	9232	109574	174745	165513	3614	34	387	34	102449	1200154	4069
196	2015-08-28 07:34:32	0	0	0	0	0	0	8.54	2.07	0.06	174745	0	9232	109789	174745	165513	3614	34	387	34	102449	1200157	4069
197	2015-08-28 07:40:33	0	0	0	0	0	0	8.55	2.06	0.06	175065	0	9253	109789	175065	165812	3615	34	388	34	102651	1200157	4071
198	2015-08-28 07:46:35	0	0	0	0	0	0	8.55	2.06	0.06	175065	0	9253	110180	175065	165812	3615	34	388	34	102651	1200157	4071
199	2015-08-28 07:52:33	0	0	0	0	0	0	8.56	2.06	0.06	175399	0	9275	110180	175399	166124	3619	35	389	34	102773	1200157	4077
200	2015-08-28 07:58:33	0	0	0	0	0	0	8.56	2.06	0.06	175399	0	9275	110196	175399	166124	3619	35	389	34	102773	1200161	4077
201	2015-08-28 08:04:34	0	0	0	0	0	0	8.57	2.06	0.06	175823	0	9301	110196	175823	166522	3628	35	391	34	102814	1200157	4088
202	2015-08-28 08:10:35	0	0	0	0	0	0	8.57	2.06	0.06	175823	0	9301	110274	175823	166522	3628	35	391	34	102814	1200161	4088
203	2015-08-28 08:16:33	0	0	0	0	0	0	8.58	2.06	0.06	176195	0	9333	110274	176195	166862	3632	35	391	34	102951	1200157	4092
204	2015-08-28 08:22:33	0	0	0	0	0	0	8.58	2.06	0.06	176195	0	9333	110819	176195	166862	3632	35	391	34	102951	1200159	4092
205	2015-08-28 08:28:33	0	0	0	0	0	0	8.63	2.06	0.06	176535	0	9368	110819	176535	167167	3640	35	391	34	103536	1200157	4100
206	2015-08-28 08:34:34	0	0	0	0	0	0	8.63	2.06	0.06	176535	0	9368	110819	176535	167167	3640	35	391	34	103536	1200159	4100
207	2015-08-28 08:40:35	0	0	0	0	0	0	8.63	2.06	0.06	176901	0	9392	110819	176901	167509	3646	35	391	34	103564	1200157	4106
208	2015-08-28 08:46:35	0	0	0	0	0	0	8.63	2.06	0.06	176901	0	9392	110851	176901	167509	3646	35	391	34	103564	1200161	4106
209	2015-08-28 08:52:34	0	0	0	0	0	0	8.64	2.06	0.06	177282	0	9432	110851	177282	167850	3659	35	393	34	103730	1200161	4121
210	2015-08-28 08:58:36	0	0	0	0	0	0	8.64	2.06	0.06	177282	0	9432	111010	177282	167850	3659	35	393	34	103730	1200160	4121
211	2015-08-28 09:04:33	0	0	0	0	0	0	8.67	2.07	0.06	177614	0	9471	111010	177614	168143	3671	35	393	34	104027	1200155	4133
212	2015-08-28 09:10:33	0	0	0	0	0	0	8.67	2.07	0.06	177614	0	9471	111253	177614	168143	3671	35	393	34	104027	1200162	4133
213	2015-08-28 09:16:35	0	0	0	0	0	0	8.67	2.06	0.06	177935	0	9505	111253	177935	168430	3674	35	393	34	104083	1200159	4136
214	2015-08-28 09:22:34	0	0	0	0	0	0	8.67	2.06	0.06	177935	0	9505	111445	177935	168430	3674	35	393	34	104083	1200164	4136
215	2015-08-28 09:28:35	0	0	0	0	0	0	8.69	2.06	0.06	178292	0	9543	111445	178292	168749	3680	35	393	34	104307	1200160	4142
216	2015-08-28 09:34:34	0	0	0	0	0	0	8.69	2.06	0.06	178292	0	9543	111880	178292	168749	3680	35	393	34	104307	1200165	4142
217	2015-08-28 09:40:37	0	0	0	0	0	0	8.72	2.06	0.06	178608	0	9566	111880	178608	169042	3684	35	395	34	104596	1200155	4148
218	2015-08-28 09:46:36	0	0	0	0	0	0	8.72	2.06	0.06	178608	0	9566	112196	178608	169042	3684	35	395	34	104596	1200162	4148
219	2015-08-28 09:52:34	0	0	0	0	0	0	8.72	2.06	0.06	178946	0	9602	112196	178946	169344	3689	35	396	34	104653	1200158	4154
220	2015-08-28 09:58:36	0	0	0	0	0	0	8.72	2.06	0.06	178946	0	9602	112204	178946	169344	3689	35	396	34	104653	1200165	4154
221	2015-08-28 10:04:36	0	0	0	0	0	0	8.72	2.06	0.06	179319	0	9636	112204	179319	169683	3689	35	396	34	104660	1200156	4154
222	2015-08-28 10:10:41	0	0	0	0	0	0	8.72	2.06	0.06	179319	0	9636	112237	179319	169683	3689	35	396	34	104660	1200162	4154
223	2015-08-28 10:16:40	0	0	0	0	0	0	8.73	2.06	0.06	179626	0	9669	112237	179626	169957	3693	35	396	34	104759	1200159	4158
224	2015-08-28 10:22:38	0	0	0	0	0	0	8.73	2.06	0.06	179626	0	9669	112593	179626	169957	3693	35	396	34	104759	1200169	4158
225	2015-08-28 10:28:36	0	0	0	0	0	0	8.74	2.06	0.06	179942	0	9697	112593	179942	170245	3703	35	396	34	104855	1200159	4168
226	2015-08-28 10:34:37	0	0	0	0	0	0	8.74	2.06	0.06	179942	0	9697	112650	179942	170245	3703	35	396	34	104855	1200164	4168
227	2015-08-28 10:40:37	0	0	0	0	0	0	8.74	2.06	0.06	180206	0	9713	112650	180206	170493	3706	35	396	34	104855	1200160	4171
228	2015-08-28 10:46:35	0	0	0	0	0	0	8.74	2.06	0.06	180206	0	9713	112979	180206	170493	3706	35	396	34	104855	1200167	4171
229	2015-08-28 10:52:35	0	0	0	0	0	0	8.76	2.06	0.06	180580	0	9741	112979	180580	170839	3714	35	397	34	105140	1200158	4180
230	2015-08-28 10:58:39	0	0	0	0	0	0	8.76	2.06	0.06	180580	0	9741	113376	180580	170839	3714	35	397	34	105140	1200163	4180
231	2015-08-28 11:04:38	0	0	0	0	0	0	8.8	2.06	0.06	180942	0	9767	113376	180942	171175	3721	35	397	34	105584	1200156	4187
232	2015-08-28 11:10:37	0	0	0	0	0	0	8.8	2.06	0.06	180942	0	9767	113559	180942	171175	3721	35	397	34	105584	1200163	4187
233	2015-08-28 11:16:35	0	0	0	0	0	0	8.8	2.06	0.06	181300	0	9788	113559	181300	171512	3726	35	397	34	105584	1200162	4192
234	2015-08-28 11:22:35	0	0	0	0	0	0	8.8	2.06	0.06	181300	0	9788	113625	181300	171512	3726	35	397	34	105584	1200165	4192
235	2015-08-28 11:28:39	0	0	0	0	0	0	8.82	2.06	0.06	181589	0	9804	113625	181589	171785	3735	35	397	34	105873	1200156	4201
236	2015-08-28 11:34:38	0	0	0	0	0	0	8.82	2.06	0.06	181589	0	9804	113893	181589	171785	3735	35	397	34	105873	1200167	4201
237	2015-08-28 11:40:45	0	0	0	0	0	0	8.84	2.06	0.06	181923	0	9823	113893	181923	172100	3742	35	398	34	106047	1200166	4209
238	2015-08-28 11:46:43	0	0	0	0	0	0	8.84	2.06	0.06	181923	0	9823	114212	181923	172100	3742	35	398	34	106047	1200170	4209
239	2015-08-28 11:52:40	0	0	0	0	0	0	8.84	2.06	0.06	182206	0	9841	114212	182206	172365	3749	35	398	34	106149	1200163	4216
240	2015-08-28 11:58:40	0	0	0	0	0	0	8.84	2.06	0.06	182206	0	9841	114220	182206	172365	3749	35	398	34	106149	1200170	4216
241	2015-08-28 12:04:37	0	0	0	0	0	0	8.85	2.06	0.06	182572	0	9876	114220	182572	172696	3760	35	398	34	106214	1200164	4227
242	2015-08-28 12:10:39	0	0	0	0	0	0	8.85	2.06	0.06	182572	0	9876	114288	182572	172696	3760	35	398	34	106214	1200171	4227
243	2015-08-28 12:12:43	0	0	0	0	0	0	8.85	2.06	0.06	182572	0	9876	114288	182572	172696	3760	35	398	34	106214	1200171	4227
244	2015-08-28 12:18:42	0	0	0	0	0	0	8.86	2.06	0.06	182897	0	9894	114288	182897	173003	3763	35	398	34	106323	1200158	4230
245	2015-08-28 12:24:39	0	0	0	0	0	0	8.86	2.06	0.06	182897	0	9894	114363	182897	173003	3763	35	398	34	106323	1200164	4230
246	2015-08-28 12:30:40	0	0	0	0	0	0	8.87	2.06	0.06	183254	0	9915	114363	183254	173339	3767	35	400	34	106514	1200160	4236
247	2015-08-28 12:36:38	0	0	0	0	0	0	8.87	2.06	0.06	183254	0	9915	114482	183254	173339	3767	35	400	34	106514	1200172	4236
248	2015-08-28 12:42:39	0	0	0	0	0	0	8.88	2.05	0.06	183542	0	9930	114482	183542	173612	3770	35	400	34	106602	1200161	4239
249	2015-08-28 12:48:40	0	0	0	0	0	0	8.88	2.05	0.06	183542	0	9930	114787	183542	173612	3770	35	400	34	106602	1200169	4239
250	2015-08-28 12:54:40	0	0	0	0	0	0	8.88	2.06	0.06	183847	0	9956	114787	183847	173891	3783	35	401	34	106631	1200158	4253
251	2015-08-28 13:00:44	0	0	0	0	0	0	8.88	2.06	0.06	183847	0	9956	114821	183847	173891	3783	35	401	34	106631	1200163	4253
252	2015-08-28 13:06:43	0	0	0	0	0	0	8.9	2.06	0.06	184110	0	9977	114821	184110	174133	3790	35	401	34	106848	1200159	4260
253	2015-08-28 13:12:43	0	0	0	0	0	0	8.9	2.06	0.06	184110	0	9977	115176	184110	174133	3790	35	401	34	106848	1200163	4260
254	2015-08-28 13:18:39	0	0	0	0	0	0	8.94	2.06	0.06	184341	0	9986	115176	184341	174355	3794	35	401	34	107322	1200161	4264
255	2015-08-28 13:24:40	0	0	0	0	0	0	8.94	2.06	0.06	184341	0	9986	115227	184341	174355	3794	35	401	34	107322	1200168	4264
256	2015-08-28 13:30:47	0	0	0	0	0	0	8.97	2.06	0.06	184607	0	10006	115227	184607	174601	3803	35	401	34	107628	1200160	4273
257	2015-08-28 13:36:40	0	0	0	0	0	0	8.97	2.06	0.06	184607	0	10006	115649	184607	174601	3803	35	401	34	107628	1200169	4273
258	2015-08-28 13:42:40	0	0	0	0	0	0	8.98	2.06	0.06	184839	0	10021	115649	184839	174818	3806	35	401	34	107733	1200165	4276
259	2015-08-28 13:48:40	0	0	0	0	0	0	8.98	2.06	0.06	184839	0	10021	115718	184839	174818	3806	35	401	34	107733	1200166	4276
260	2015-08-28 13:54:41	0	0	0	0	0	0	8.98	2.06	0.06	185125	0	10043	115718	185125	175082	3813	35	401	34	107823	1200161	4283
261	2015-08-28 14:00:45	0	0	0	0	0	0	8.98	2.06	0.06	185125	0	10043	115753	185125	175082	3813	35	401	34	107823	1200167	4283
262	2015-08-28 14:06:42	0	0	0	0	0	0	8.98	2.06	0.06	185406	0	10064	115753	185406	175342	3820	35	401	34	107823	1200165	4290
263	2015-08-28 19:12:47	0	0	0	0	0	0	9.22	2.07	0.06	190868	0	10456	118858	190868	180412	3942	35	407	34	110686	1200157	4418
264	2015-08-28 19:18:52	0	0	0	0	0	0	9.22	2.07	0.06	190868	0	10456	118858	190868	180412	3942	35	407	34	110686	1200153	4418
265	2015-08-28 19:24:59	0	0	0	0	0	0	9.23	2.06	0.06	191018	0	10463	118995	191018	180555	3943	35	407	34	110805	1200161	4419
266	2015-08-28 19:30:52	0	0	0	0	0	0	9.23	2.06	0.06	191018	0	10463	118995	191018	180555	3943	35	407	34	110805	1200154	4419
267	2015-08-28 19:36:52	0	0	0	0	0	0	9.23	2.06	0.06	191147	0	10471	118995	191147	180676	3945	35	407	34	110805	1200160	4421
268	2015-08-28 19:42:53	0	0	0	0	0	0	9.23	2.06	0.06	191147	0	10471	118995	191147	180676	3945	35	407	34	110805	1200154	4421
269	2015-08-28 19:48:53	0	0	0	0	0	0	9.25	2.06	0.06	191314	0	10478	119270	191314	180836	3950	35	407	34	111043	1200159	4426
270	2015-08-28 19:54:50	0	0	0	0	0	0	9.25	2.06	0.06	191314	0	10478	119270	191314	180836	3950	35	407	34	111043	1200149	4426
271	2015-08-28 20:00:53	0	0	0	0	0	0	9.26	2.06	0.06	191502	0	10491	119344	191502	181011	3953	35	407	34	111107	1200154	4429
272	2015-08-28 20:06:47	0	0	0	0	0	0	9.26	2.06	0.06	191502	0	10491	119344	191502	181011	3953	35	407	34	111107	1200151	4429
273	2015-08-28 20:12:51	0	0	0	0	0	0	9.27	2.06	0.06	191658	0	10500	119454	191658	181158	3955	35	408	34	111203	1200155	4432
274	2015-08-28 20:18:47	0	0	0	0	0	0	9.27	2.06	0.06	191658	0	10500	119454	191658	181158	3955	35	408	34	111203	1200154	4432
275	2015-08-28 20:24:51	0	0	0	0	0	0	9.27	2.06	0.06	191813	0	10507	119454	191813	181306	3958	35	408	34	111203	1200157	4435
276	2015-08-28 20:30:51	0	0	0	0	0	0	9.27	2.06	0.06	191813	0	10507	119454	191813	181306	3958	35	408	34	111203	1200152	4435
277	2015-08-28 20:36:55	0	0	0	0	0	0	9.27	2.06	0.06	191978	0	10518	119454	191978	181460	3959	35	408	34	111203	1200153	4436
278	2015-08-28 20:42:49	0	0	0	0	0	0	9.27	2.06	0.06	191978	0	10518	119454	191978	181460	3959	35	408	34	111203	1200154	4436
279	2015-08-28 20:48:52	0	0	0	0	0	0	9.29	2.06	0.06	192167	0	10534	119773	192167	181633	3960	35	408	34	111479	1200159	4437
280	2015-08-28 20:54:48	0	0	0	0	0	0	9.29	2.06	0.06	192167	0	10534	119773	192167	181633	3960	35	408	34	111479	1200148	4437
281	2015-08-28 21:00:52	0	0	0	0	0	0	9.29	2.06	0.06	192320	0	10545	119847	192320	181775	3964	35	409	34	111479	1200155	4442
282	2015-08-28 21:06:53	0	0	0	0	0	0	9.29	2.06	0.06	192320	0	10545	119847	192320	181775	3964	35	409	34	111479	1200151	4442
283	2015-08-28 21:12:52	0	0	0	0	0	0	9.29	2.06	0.06	192467	0	10555	119847	192467	181912	3967	35	409	34	111479	1200164	4445
284	2015-08-28 21:18:52	0	0	0	0	0	0	9.29	2.06	0.06	192467	0	10555	119847	192467	181912	3967	35	409	34	111479	1200151	4445
285	2015-08-28 21:24:52	0	0	0	0	0	0	9.29	2.06	0.06	192590	0	10566	119847	192590	182024	3970	35	410	34	111479	1200156	4449
286	2015-08-28 21:30:56	0	0	0	0	0	0	9.29	2.06	0.06	192590	0	10566	119847	192590	182024	3970	35	410	34	111479	1200154	4449
287	2015-08-28 21:36:55	0	0	0	0	0	0	9.29	2.06	0.06	192713	0	10575	119912	192713	182138	3970	35	410	34	111535	1200162	4449
288	2015-08-28 21:42:50	0	0	0	0	0	0	9.29	2.06	0.06	192713	0	10575	119912	192713	182138	3970	35	410	34	111535	1200149	4449
289	2015-08-28 21:48:51	0	0	0	0	0	0	9.29	2.06	0.06	192872	0	10587	119912	192872	182285	3972	35	410	34	111535	1200157	4451
290	2015-08-28 21:54:50	0	0	0	0	0	0	9.29	2.06	0.06	192872	0	10587	119912	192872	182285	3972	35	410	34	111535	1200151	4451
291	2015-08-28 22:00:51	0	0	0	0	0	0	9.29	2.06	0.06	193024	0	10596	119912	193024	182428	3972	35	410	34	111535	1200156	4451
292	2015-08-28 22:06:48	0	0	0	0	0	0	9.29	2.06	0.06	193024	0	10596	119912	193024	182428	3972	35	410	34	111535	1200147	4451
293	2015-08-28 22:12:49	0	0	0	0	0	0	9.29	2.06	0.06	193177	0	10605	119912	193177	182572	3976	35	410	34	111535	1200155	4455
294	2015-08-28 22:18:48	0	0	0	0	0	0	9.29	2.06	0.06	193177	0	10605	119912	193177	182572	3976	35	410	34	111535	1200147	4455
295	2015-08-28 22:24:49	0	0	0	0	0	0	9.3	2.06	0.06	193332	0	10621	120051	193332	182711	3979	35	410	34	111656	1200152	4458
296	2015-08-28 22:30:48	0	0	0	0	0	0	9.3	2.06	0.06	193332	0	10621	120051	193332	182711	3979	35	410	34	111656	1200144	4458
297	2015-08-28 22:36:49	0	0	0	0	0	0	9.31	2.06	0.06	193448	0	10624	120088	193448	182824	3979	35	410	34	111688	1200152	4458
298	2015-08-28 22:42:49	0	0	0	0	0	0	9.31	2.06	0.06	193448	0	10624	120088	193448	182824	3979	35	410	34	111688	1200147	4458
299	2015-08-28 22:48:48	0	0	0	0	0	0	9.31	2.06	0.06	193600	0	10644	120088	193600	182956	3982	35	410	34	111688	1200159	4461
300	2015-08-28 22:54:49	0	0	0	0	0	0	9.31	2.06	0.06	193600	0	10644	120088	193600	182956	3982	35	410	34	111688	1200154	4461
301	2015-08-28 23:00:53	0	0	0	0	0	0	9.31	2.06	0.06	193744	0	10659	120088	193744	183085	3986	35	410	34	111688	1200157	4465
302	2015-08-28 23:06:50	0	0	0	0	0	0	9.31	2.06	0.06	193744	0	10659	120088	193744	183085	3986	35	410	34	111688	1200149	4465
303	2015-08-28 23:12:49	0	0	0	0	0	0	9.31	2.06	0.06	193888	0	10669	120088	193888	183219	3988	35	411	34	111688	1200160	4468
304	2015-08-28 23:18:49	0	0	0	0	0	0	9.31	2.06	0.06	193888	0	10669	120088	193888	183219	3988	35	411	34	111688	1200156	4468
305	2015-08-28 23:24:50	0	0	0	0	0	0	9.34	2.06	0.06	194022	0	10682	120088	194022	183340	3994	35	411	34	112141	1200156	4474
306	2015-08-28 23:30:49	0	0	0	0	0	0	9.34	2.06	0.06	194022	0	10682	120088	194022	183340	3994	35	411	34	112141	1200145	4474
307	2015-08-28 23:36:58	0	0	0	0	0	0	9.35	2.06	0.06	194172	0	10695	120126	194172	183477	3999	35	412	34	112173	1200156	4480
308	2015-08-28 23:43:15	0	0	0	0	0	0	9.35	2.06	0.06	194172	0	10695	120126	194172	183477	3999	35	412	34	112173	1200147	4480
309	2015-08-28 23:48:50	0	0	0	0	0	0	9.35	2.06	0.06	194305	0	10704	120191	194305	183601	4002	35	412	34	112230	1200153	4483
310	2015-08-28 23:54:50	0	0	0	0	0	0	9.35	2.06	0.06	194305	0	10704	120191	194305	183601	4002	35	412	34	112230	1200150	4483
311	2015-08-29 00:00:56	0	0	0	0	0	0	9.35	2.06	0.06	194446	0	10710	120228	194446	183736	4004	35	412	34	112263	1200155	4485
312	2015-08-29 00:06:49	0	0	0	0	0	0	9.35	2.06	0.06	194446	0	10710	120228	194446	183736	4004	35	412	34	112263	1200146	4485
313	2015-08-29 00:12:48	0	0	0	0	0	0	9.35	2.06	0.06	194569	0	10720	120228	194569	183849	4007	35	412	34	112263	1200152	4488
314	2015-08-29 00:18:48	0	0	0	0	0	0	9.35	2.06	0.06	194569	0	10720	120228	194569	183849	4007	35	412	34	112263	1200146	4488
315	2015-08-29 00:24:49	0	0	0	0	0	0	9.35	2.06	0.06	194646	0	10727	120228	194646	183919	4007	35	414	34	112263	1200153	4490
316	2015-08-29 00:30:54	0	0	0	0	0	0	9.35	2.06	0.06	194646	0	10727	120228	194646	183919	4007	35	414	34	112263	1200143	4490
317	2015-08-29 00:36:50	0	0	0	0	0	0	9.35	2.06	0.06	194692	0	10733	120228	194692	183959	4011	35	414	34	112263	1200151	4494
318	2015-08-29 00:42:48	0	0	0	0	0	0	9.35	2.06	0.06	194692	0	10733	120228	194692	183959	4011	35	414	34	112263	1200144	4494
319	2015-08-29 00:48:50	0	0	0	0	0	0	9.35	2.06	0.06	194750	0	10740	120228	194750	184010	4011	35	414	34	112263	1200147	4494
320	2015-08-29 00:54:51	0	0	0	0	0	0	9.35	2.06	0.06	194750	0	10740	120228	194750	184010	4011	35	414	34	112263	1200148	4494
321	2015-08-29 01:01:02	0	0	0	0	0	0	9.35	2.06	0.06	194781	0	10747	120228	194781	184034	4013	35	414	34	112263	1200151	4496
322	2015-08-29 01:06:52	0	0	0	0	0	0	9.35	2.06	0.06	194781	0	10747	120228	194781	184034	4013	35	414	34	112263	1200148	4496
323	2015-08-29 01:12:49	0	0	0	0	0	0	9.35	2.06	0.06	194808	0	10752	120228	194808	184056	4013	35	414	34	112263	1200150	4496
324	2015-08-29 01:18:48	0	0	0	0	0	0	9.35	2.06	0.06	194808	0	10752	120228	194808	184056	4013	35	414	34	112263	1200149	4496
325	2015-08-29 01:24:49	0	0	0	0	0	0	9.35	2.06	0.06	194821	0	10754	120228	194821	184067	4013	35	414	34	112263	1200153	4496
326	2015-08-29 01:31:02	0	0	0	0	0	0	9.35	2.06	0.06	194821	0	10754	120228	194821	184067	4013	35	414	34	112263	1200141	4496
327	2015-08-29 01:36:49	0	0	0	0	0	0	9.35	2.06	0.06	194843	0	10755	120228	194843	184088	4013	35	414	34	112263	1200145	4496
328	2015-08-29 01:42:49	0	0	0	0	0	0	9.35	2.06	0.06	194843	0	10755	120228	194843	184088	4013	35	414	34	112263	1200138	4496
329	2015-08-29 01:48:51	0	0	0	0	0	0	9.35	2.06	0.06	194857	0	10757	120228	194857	184100	4013	35	414	34	112263	1200141	4496
330	2015-08-29 01:54:49	0	0	0	0	0	0	9.35	2.06	0.06	194857	0	10757	120228	194857	184100	4013	35	414	34	112263	1200139	4496
331	2015-08-29 02:01:08	0	0	0	0	0	0	9.35	2.06	0.06	194869	0	10757	120228	194869	184112	4013	35	414	34	112263	1201067	4496
332	2015-08-29 02:06:50	0	0	0	0	0	0	9.35	2.06	0.06	194869	0	10757	120228	194869	184112	4013	35	414	34	112263	1201063	4496
333	2015-08-29 02:12:51	0	0	0	0	0	0	9.35	2.06	0.06	194881	0	10759	120228	194881	184122	4013	35	414	34	112263	1201065	4496
334	2015-08-29 02:18:50	0	0	0	0	0	0	9.35	2.06	0.06	194881	0	10759	120228	194881	184122	4013	35	414	34	112263	1201065	4496
335	2015-08-29 02:24:50	0	0	0	0	0	0	9.35	2.06	0.06	194891	0	10761	120228	194891	184130	4014	35	414	34	112263	1201066	4497
336	2015-08-29 02:30:50	0	0	0	0	0	0	9.35	2.06	0.06	194891	0	10761	120228	194891	184130	4014	35	414	34	112263	1201063	4497
337	2015-08-29 02:37:10	0	0	0	0	0	0	9.35	2.06	0.06	194899	0	10761	120228	194899	184138	4014	35	414	34	112263	1201067	4497
338	2015-08-29 02:42:49	0	0	0	0	0	0	9.35	2.06	0.06	194899	0	10761	120228	194899	184138	4014	35	414	34	112263	1201066	4497
339	2015-08-29 02:48:49	0	0	0	0	0	0	9.35	2.06	0.06	194904	0	10761	120228	194904	184143	4014	35	414	34	112263	1201066	4497
340	2015-08-29 02:54:49	0	0	0	0	0	0	9.35	2.06	0.06	194904	0	10761	120228	194904	184143	4014	35	414	34	112263	1201065	4497
341	2015-08-29 03:00:49	0	0	0	0	0	0	9.35	2.06	0.06	194907	0	10761	120228	194907	184146	4015	35	414	34	112263	1201068	4498
342	2015-08-29 03:06:48	0	0	0	0	0	0	9.35	2.06	0.06	194907	0	10761	120228	194907	184146	4015	35	414	34	112263	1201066	4498
343	2015-08-29 03:12:49	0	0	0	0	0	0	9.35	2.06	0.06	194910	0	10761	120256	194910	184149	4015	35	414	34	112287	1201067	4498
344	2015-08-29 03:18:49	0	0	0	0	0	0	9.35	2.06	0.06	194910	0	10761	120256	194910	184149	4015	35	414	34	112287	1201063	4498
345	2015-08-29 03:24:50	0	0	0	0	0	0	9.35	2.06	0.06	194913	0	10762	120256	194913	184151	4016	35	414	34	112287	1201062	4499
346	2015-08-29 03:30:49	0	0	0	0	0	0	9.35	2.06	0.06	194913	0	10762	120256	194913	184151	4016	35	414	34	112287	1201061	4499
347	2015-08-29 03:36:49	0	0	0	0	0	0	9.35	2.06	0.06	194917	0	10762	120256	194917	184155	4016	35	414	34	112287	1201066	4499
348	2015-08-29 03:42:49	0	0	0	0	0	0	9.35	2.06	0.06	194917	0	10762	120256	194917	184155	4016	35	414	34	112287	1201064	4499
349	2015-08-29 03:48:50	0	0	0	0	0	0	9.35	2.06	0.06	194923	0	10763	120256	194923	184160	4016	35	414	34	112287	1201067	4499
350	2015-08-29 03:54:48	0	0	0	0	0	0	9.35	2.06	0.06	194923	0	10763	120256	194923	184160	4016	35	414	34	112287	1201063	4499
351	2015-08-29 04:00:49	0	0	0	0	0	0	9.35	2.06	0.06	194931	0	10764	120256	194931	184167	4016	35	414	34	112287	1201066	4499
352	2015-08-29 04:06:51	0	0	0	0	0	0	9.35	2.06	0.06	194931	0	10764	120256	194931	184167	4016	35	414	34	112287	1201063	4499
353	2015-08-29 04:12:49	0	0	0	0	0	0	9.35	2.06	0.06	194931	0	10764	120256	194931	184167	4016	35	414	34	112287	1201064	4499
354	2015-08-29 04:18:49	0	0	0	0	0	0	9.35	2.06	0.06	194931	0	10764	120256	194931	184167	4016	35	414	34	112287	1201059	4499
355	2015-08-29 04:24:50	0	0	0	0	0	0	9.35	2.06	0.06	194931	0	10764	120256	194931	184167	4016	35	414	34	112287	1201060	4499
356	2015-08-29 04:30:54	0	0	0	0	0	0	9.35	2.06	0.06	194931	0	10764	120256	194931	184167	4016	35	414	34	112287	1201055	4499
357	2015-08-29 04:36:49	0	0	0	0	0	0	9.35	2.06	0.06	194934	0	10764	120256	194934	184170	4016	35	414	34	112287	1201063	4499
358	2015-08-29 04:42:49	0	0	0	0	0	0	9.35	2.06	0.06	194934	0	10764	120256	194934	184170	4016	35	414	34	112287	1201060	4499
359	2015-08-29 04:48:49	0	0	0	0	0	0	9.35	2.06	0.06	194935	0	10764	120256	194935	184171	4016	35	414	34	112287	1201063	4499
360	2015-08-29 04:54:52	0	0	0	0	0	0	9.35	2.06	0.06	194935	0	10764	120256	194935	184171	4016	35	414	34	112287	1201062	4499
361	2015-08-29 05:00:51	0	0	0	0	0	0	9.35	2.06	0.06	194938	0	10765	120256	194938	184173	4016	35	414	34	112287	1201063	4499
362	2015-08-29 05:06:48	0	0	0	0	0	0	9.35	2.06	0.06	194938	0	10765	120256	194938	184173	4016	35	414	34	112287	1201062	4499
363	2015-08-29 05:12:49	0	0	0	0	0	0	9.35	2.06	0.06	194939	0	10765	120256	194939	184174	4016	35	414	34	112287	1201063	4499
364	2015-08-29 05:18:50	0	0	0	0	0	0	9.35	2.06	0.06	194939	0	10765	120256	194939	184174	4016	35	414	34	112287	1201062	4499
365	2015-08-29 05:24:48	0	0	0	0	0	0	9.35	2.06	0.06	194939	0	10765	120256	194939	184174	4016	35	414	34	112287	1201061	4499
366	2015-08-29 05:30:56	0	0	0	0	0	0	9.35	2.06	0.06	194939	0	10765	120256	194939	184174	4016	35	414	34	112287	1201058	4499
367	2015-08-29 05:36:49	0	0	0	0	0	0	9.35	2.06	0.06	194940	0	10765	120256	194940	184175	4016	35	414	34	112287	1201063	4499
368	2015-08-29 05:42:50	0	0	0	0	0	0	9.35	2.06	0.06	194940	0	10765	120256	194940	184175	4016	35	414	34	112287	1201061	4499
369	2015-08-29 05:48:52	0	0	0	0	0	0	9.35	2.06	0.06	194942	0	10766	120256	194942	184176	4017	35	414	34	112287	1201062	4500
370	2015-08-29 05:54:50	0	0	0	0	0	0	9.35	2.06	0.06	194942	0	10766	120256	194942	184176	4017	35	414	34	112287	1201062	4500
371	2015-08-29 06:01:01	0	0	0	0	0	0	9.35	2.06	0.06	194944	0	10766	120256	194944	184178	4017	35	414	34	112287	1201063	4500
372	2015-08-29 06:06:49	0	0	0	0	0	0	9.35	2.06	0.06	194944	0	10766	120256	194944	184178	4017	35	414	34	112287	1201064	4500
373	2015-08-29 06:12:50	0	0	0	0	0	0	9.35	2.06	0.06	194946	0	10767	120256	194946	184179	4019	35	414	34	112287	1201066	4502
374	2015-08-29 06:18:51	0	0	0	0	0	0	9.35	2.06	0.06	194946	0	10767	120256	194946	184179	4019	35	414	34	112287	1201062	4502
375	2015-08-29 06:24:48	0	0	0	0	0	0	9.35	2.06	0.06	194951	0	10768	120256	194951	184183	4019	35	414	34	112287	1201063	4502
376	2015-08-29 06:30:59	0	0	0	0	0	0	9.35	2.06	0.06	194951	0	10768	120256	194951	184183	4019	35	414	34	112287	1201063	4502
377	2015-08-29 06:36:51	0	0	0	0	0	0	9.35	2.06	0.06	194954	0	10769	120256	194954	184185	4020	35	414	34	112287	1201063	4503
378	2015-08-29 06:42:48	0	0	0	0	0	0	9.35	2.06	0.06	194954	0	10769	120256	194954	184185	4020	35	414	34	112287	1201065	4503
379	2015-08-29 06:48:48	0	0	0	0	0	0	9.35	2.06	0.06	194959	0	10770	120256	194959	184189	4020	35	414	34	112287	1201065	4503
380	2015-08-29 06:54:48	0	0	0	0	0	0	9.35	2.06	0.06	194959	0	10770	120256	194959	184189	4020	35	414	34	112287	1201063	4503
381	2015-08-29 07:00:50	0	0	0	0	0	0	9.35	2.06	0.06	194966	0	10773	120256	194966	184193	4020	35	414	34	112287	1201065	4503
382	2015-08-29 07:06:48	0	0	0	0	0	0	9.35	2.06	0.06	194966	0	10773	120256	194966	184193	4020	35	414	34	112287	1201063	4503
383	2015-08-29 07:12:48	0	0	0	0	0	0	9.35	2.06	0.06	194971	0	10773	120256	194971	184198	4020	35	414	34	112287	1201064	4503
384	2015-08-29 07:18:49	0	0	0	0	0	0	9.35	2.06	0.06	194971	0	10773	120256	194971	184198	4020	35	414	34	112287	1201062	4503
385	2015-08-29 07:24:49	0	0	0	0	0	0	9.35	2.06	0.06	194978	0	10776	120256	194978	184202	4020	35	414	34	112287	1201066	4503
386	2015-08-29 07:30:53	0	0	0	0	0	0	9.35	2.06	0.06	194978	0	10776	120256	194978	184202	4020	35	414	34	112287	1201060	4503
387	2015-08-29 07:36:52	0	0	0	0	0	0	9.35	2.06	0.06	194985	0	10780	120256	194985	184205	4020	35	414	34	112287	1201064	4503
388	2015-08-29 07:42:49	0	0	0	0	0	0	9.35	2.06	0.06	194985	0	10780	120256	194985	184205	4020	35	414	34	112287	1201059	4503
389	2015-08-29 07:48:49	0	0	0	0	0	0	9.35	2.06	0.06	194995	0	10785	120256	194995	184210	4020	35	414	34	112287	1201060	4503
390	2015-08-29 07:54:49	0	0	0	0	0	0	9.35	2.06	0.06	194995	0	10785	120256	194995	184210	4020	35	414	34	112287	1201059	4503
391	2015-08-29 08:00:50	0	0	0	0	0	0	9.35	2.06	0.06	195000	0	10785	120256	195000	184215	4020	35	414	34	112287	1201062	4503
392	2015-08-29 08:06:50	0	0	0	0	0	0	9.35	2.06	0.06	195000	0	10785	120256	195000	184215	4020	35	414	34	112287	1201059	4503
393	2015-08-29 08:12:48	0	0	0	0	0	0	9.35	2.06	0.06	195009	0	10787	120256	195009	184222	4021	35	414	34	112287	1201062	4504
394	2015-08-29 08:18:51	0	0	0	0	0	0	9.35	2.06	0.06	195009	0	10787	120256	195009	184222	4021	35	414	34	112287	1201059	4504
395	2015-08-29 08:24:51	0	0	0	0	0	0	9.35	2.06	0.06	195023	0	10792	120256	195023	184231	4022	35	414	34	112287	1201064	4505
396	2015-08-29 08:30:50	0	0	0	0	0	0	9.35	2.06	0.06	195023	0	10792	120256	195023	184231	4022	35	414	34	112287	1201062	4505
397	2015-08-29 08:36:49	0	0	0	0	0	0	9.35	2.06	0.06	195041	0	10797	120256	195041	184244	4022	35	414	34	112287	1201061	4505
398	2015-08-29 08:42:48	0	0	0	0	0	0	9.35	2.06	0.06	195041	0	10797	120256	195041	184244	4022	35	414	34	112287	1201061	4505
399	2015-08-29 08:48:48	0	0	0	0	0	0	9.35	2.06	0.06	195052	0	10800	120256	195052	184252	4023	35	414	34	112287	1201064	4506
400	2015-08-29 08:54:49	0	0	0	0	0	0	9.35	2.06	0.06	195052	0	10800	120256	195052	184252	4023	35	414	34	112287	1201063	4506
401	2015-08-29 09:00:50	0	0	0	0	0	0	9.35	2.06	0.06	195060	0	10800	120256	195060	184260	4023	35	414	34	112287	1201069	4506
402	2015-08-29 09:06:51	0	0	0	0	0	0	9.35	2.06	0.06	195060	0	10800	120256	195060	184260	4023	35	414	34	112287	1201060	4506
403	2015-08-29 09:12:50	0	0	0	0	0	0	9.35	2.06	0.06	195075	0	10802	120256	195075	184273	4025	35	414	34	112287	1201068	4508
404	2015-08-29 09:18:50	0	0	0	0	0	0	9.35	2.06	0.06	195075	0	10802	120256	195075	184273	4025	35	414	34	112287	1201059	4508
405	2015-08-29 09:24:49	0	0	0	0	0	0	9.35	2.06	0.06	195084	0	10803	120284	195084	184281	4025	35	414	34	112312	1201067	4508
406	2015-08-29 09:30:57	0	0	0	0	0	0	9.35	2.06	0.06	195084	0	10803	120284	195084	184281	4025	35	414	34	112312	1201059	4508
407	2015-08-29 09:36:50	0	0	0	0	0	0	9.35	2.06	0.06	195091	0	10804	120284	195091	184287	4025	35	414	34	112312	1201064	4508
408	2015-08-29 09:42:51	0	0	0	0	0	0	9.35	2.06	0.06	195091	0	10804	120284	195091	184287	4025	35	414	34	112312	1201064	4508
409	2015-08-29 09:48:51	0	0	0	0	0	0	9.35	2.06	0.06	195102	0	10805	120284	195102	184297	4025	35	414	34	112312	1201068	4508
410	2015-08-29 09:54:51	0	0	0	0	0	0	9.35	2.06	0.06	195102	0	10805	120284	195102	184297	4025	35	414	34	112312	1201062	4508
411	2015-08-29 10:01:00	0	0	0	0	0	0	9.35	2.06	0.06	195110	0	10805	120284	195110	184305	4025	35	414	34	112312	1201069	4508
412	2015-08-29 10:06:51	0	0	0	0	0	0	9.35	2.06	0.06	195110	0	10805	120284	195110	184305	4025	35	414	34	112312	1201064	4508
413	2015-08-29 10:12:53	0	0	0	0	0	0	9.35	2.06	0.06	195116	0	10805	120284	195116	184311	4025	35	414	34	112312	1201064	4508
414	2015-08-29 10:18:51	0	0	0	0	0	0	9.35	2.06	0.06	195116	0	10805	120284	195116	184311	4025	35	414	34	112312	1201062	4508
415	2015-08-29 10:24:53	0	0	0	0	0	0	9.35	2.06	0.06	195128	0	10806	120284	195128	184322	4025	35	414	34	112312	1201068	4508
416	2015-08-29 10:30:54	0	0	0	0	0	0	9.35	2.06	0.06	195128	0	10806	120284	195128	184322	4025	35	414	34	112312	1201069	4508
417	2015-08-29 10:36:51	0	0	0	0	0	0	9.35	2.06	0.06	195140	0	10807	120284	195140	184333	4025	35	414	34	112312	1201073	4508
418	2015-08-29 10:42:50	0	0	0	0	0	0	9.35	2.06	0.06	195140	0	10807	120284	195140	184333	4025	35	414	34	112312	1201062	4508
419	2015-08-29 10:48:52	0	0	0	0	0	0	9.35	2.06	0.06	195161	0	10813	120284	195161	184348	4025	35	414	34	112312	1201069	4508
420	2015-08-29 10:54:51	0	0	0	0	0	0	9.35	2.06	0.06	195161	0	10813	120284	195161	184348	4025	35	414	34	112312	1201067	4508
421	2015-08-29 11:00:51	0	0	0	0	0	0	9.35	2.06	0.06	195168	0	10814	120284	195168	184354	4025	35	414	34	112312	1201071	4508
422	2015-08-29 11:06:50	0	0	0	0	0	0	9.35	2.06	0.06	195168	0	10814	120284	195168	184354	4025	35	414	34	112312	1201061	4508
423	2015-08-29 11:12:50	0	0	0	0	0	0	9.35	2.06	0.06	195177	0	10814	120284	195177	184363	4025	35	414	34	112312	1201069	4508
424	2015-08-29 11:18:53	0	0	0	0	0	0	9.35	2.06	0.06	195177	0	10814	120284	195177	184363	4025	35	414	34	112312	1201058	4508
425	2015-08-29 11:24:52	0	0	0	0	0	0	9.35	2.06	0.06	195185	0	10815	120284	195185	184370	4025	35	414	34	112312	1201066	4508
426	2015-08-29 11:30:55	0	0	0	0	0	0	9.35	2.06	0.06	195185	0	10815	120284	195185	184370	4025	35	414	34	112312	1201064	4508
427	2015-08-29 11:36:52	0	0	0	0	0	0	9.35	2.06	0.06	195194	0	10817	120284	195194	184377	4025	35	414	34	112312	1201068	4508
428	2015-08-29 11:42:53	0	0	0	0	0	0	9.35	2.06	0.06	195194	0	10817	120284	195194	184377	4025	35	414	34	112312	1201060	4508
429	2015-08-29 11:48:53	0	0	0	0	0	0	9.35	2.06	0.06	195204	0	10818	120303	195204	184386	4025	35	414	34	112328	1201066	4508
430	2015-08-29 11:54:51	0	0	0	0	0	0	9.35	2.06	0.06	195204	0	10818	120303	195204	184386	4025	35	414	34	112328	1201068	4508
431	2015-08-29 12:00:57	0	0	0	0	0	0	9.35	2.06	0.06	195216	0	10819	120303	195216	184397	4025	35	414	34	112328	1201071	4508
432	2015-08-29 12:07:02	0	0	0	0	0	0	9.35	2.06	0.06	195216	0	10819	120303	195216	184397	4025	35	414	34	112328	1201064	4508
433	2015-08-29 12:12:54	0	0	0	0	0	0	9.35	2.06	0.06	195223	0	10820	120303	195223	184403	4025	35	414	34	112328	1201069	4508
434	2015-08-29 12:18:54	0	0	0	0	0	0	9.35	2.06	0.06	195223	0	10820	120303	195223	184403	4025	35	414	34	112328	1201062	4508
435	2015-08-29 12:24:54	0	0	0	0	0	0	9.35	2.06	0.06	195228	0	10823	120303	195228	184405	4025	35	414	34	112328	1201066	4508
436	2015-08-29 12:30:54	0	0	0	0	0	0	9.35	2.06	0.06	195228	0	10823	120303	195228	184405	4025	35	414	34	112328	1201062	4508
437	2015-08-29 12:36:55	0	0	0	0	0	0	9.35	2.06	0.06	195236	0	10824	120303	195236	184412	4025	35	414	34	112328	1201068	4508
438	2015-08-29 12:42:56	0	0	0	0	0	0	9.35	2.06	0.06	195236	0	10824	120303	195236	184412	4025	35	414	34	112328	1201061	4508
439	2015-08-29 12:48:54	0	0	0	0	0	0	9.35	2.06	0.06	195244	0	10825	120303	195244	184419	4025	35	414	34	112328	1201067	4508
440	2015-08-29 12:54:54	0	0	0	0	0	0	9.35	2.06	0.06	195244	0	10825	120303	195244	184419	4025	35	414	34	112328	1201060	4508
441	2015-08-29 13:00:55	0	0	0	0	0	0	9.35	2.06	0.06	195248	0	10825	120303	195248	184423	4025	35	414	34	112328	1201065	4508
442	2015-08-29 13:06:53	0	0	0	0	0	0	9.35	2.06	0.06	195248	0	10825	120303	195248	184423	4025	35	414	34	112328	1201060	4508
443	2015-08-29 13:12:54	0	0	0	0	0	0	9.35	2.06	0.06	195258	0	10826	120303	195258	184432	4025	35	414	34	112328	1201074	4508
444	2015-08-29 13:18:55	0	0	0	0	0	0	9.35	2.06	0.06	195258	0	10826	120303	195258	184432	4025	35	414	34	112328	1201061	4508
445	2015-08-29 13:24:57	0	0	0	0	0	0	9.35	2.06	0.06	195263	0	10827	120303	195263	184436	4025	35	414	34	112328	1201061	4508
446	2015-08-29 13:31:02	0	0	0	0	0	0	9.35	2.06	0.06	195263	0	10827	120303	195263	184436	4025	35	414	34	112328	1201059	4508
447	2015-08-29 13:36:53	0	0	0	0	0	0	9.35	2.06	0.06	195269	0	10828	120303	195269	184441	4025	35	414	34	112328	1201060	4508
448	2015-08-29 13:42:53	0	0	0	0	0	0	9.35	2.06	0.06	195269	0	10828	120303	195269	184441	4025	35	414	34	112328	1201056	4508
449	2015-08-29 13:48:54	0	0	0	0	0	0	9.35	2.06	0.06	195278	0	10830	120303	195278	184448	4025	35	414	34	112328	1201063	4508
450	2015-08-29 13:54:59	0	0	0	0	0	0	9.35	2.06	0.06	195278	0	10830	120303	195278	184448	4025	35	414	34	112328	1201063	4508
451	2015-08-29 14:00:57	0	0	0	0	0	0	9.35	2.06	0.06	195282	0	10830	120303	195282	184452	4025	35	414	34	112328	1201068	4508
452	2015-08-29 14:06:58	0	0	0	0	0	0	9.35	2.06	0.06	195282	0	10830	120303	195282	184452	4025	35	414	34	112328	1201064	4508
453	2015-08-29 14:12:56	0	0	0	0	0	0	9.35	2.06	0.06	195289	0	10831	120303	195289	184458	4025	35	414	34	112328	1201068	4508
454	2015-08-29 14:18:54	0	0	0	0	0	0	9.35	2.06	0.06	195289	0	10831	120303	195289	184458	4025	35	414	34	112328	1201063	4508
455	2015-08-29 14:24:54	0	0	0	0	0	0	9.35	2.06	0.06	195292	0	10831	120303	195292	184461	4025	35	414	34	112328	1201063	4508
456	2015-08-29 14:30:58	0	0	0	0	0	0	9.35	2.06	0.06	195292	0	10831	120303	195292	184461	4025	35	414	34	112328	1201059	4508
457	2015-08-29 14:36:54	0	0	0	0	0	0	9.35	2.06	0.06	195299	0	10831	120303	195299	184468	4025	35	414	34	112328	1201063	4508
458	2015-08-29 14:42:54	0	0	0	0	0	0	9.35	2.06	0.06	195299	0	10831	120303	195299	184468	4025	35	414	34	112328	1201063	4508
459	2015-08-29 14:48:54	0	0	0	0	0	0	9.35	2.06	0.06	195306	0	10834	120303	195306	184472	4025	35	414	34	112328	1201065	4508
460	2015-08-29 14:54:55	0	0	0	0	0	0	9.35	2.06	0.06	195306	0	10834	120303	195306	184472	4025	35	414	34	112328	1201066	4508
461	2015-08-29 15:00:56	0	0	0	0	0	0	9.35	2.06	0.06	195311	0	10835	120303	195311	184476	4025	35	414	34	112328	1201072	4508
462	2015-08-29 15:06:59	0	0	0	0	0	0	9.35	2.06	0.06	195311	0	10835	120303	195311	184476	4025	35	414	34	112328	1201067	4508
463	2015-08-29 15:12:55	0	0	0	0	0	0	9.35	2.06	0.06	195316	0	10836	120303	195316	184480	4025	35	414	34	112328	1201071	4508
464	2015-08-29 15:18:54	0	0	0	0	0	0	9.35	2.06	0.06	195316	0	10836	120303	195316	184480	4025	35	414	34	112328	1201064	4508
465	2015-08-29 15:24:55	0	0	0	0	0	0	9.35	2.06	0.06	195322	0	10837	120303	195322	184485	4025	35	414	34	112328	1201071	4508
466	2015-08-29 15:30:58	0	0	0	0	0	0	9.35	2.06	0.06	195322	0	10837	120303	195322	184485	4025	35	414	34	112328	1201063	4508
467	2015-08-29 15:37:01	0	0	0	0	0	0	9.35	2.06	0.06	195331	0	10842	120303	195331	184489	4025	35	414	34	112328	1201069	4508
468	2015-08-29 15:42:55	0	0	0	0	0	0	9.35	2.06	0.06	195331	0	10842	120303	195331	184489	4025	35	414	34	112328	1201075	4508
469	2015-08-29 15:48:55	0	0	0	0	0	0	9.35	2.06	0.06	195337	0	10844	120303	195337	184493	4025	35	414	34	112328	1201078	4508
470	2015-08-29 15:54:56	0	0	0	0	0	0	9.35	2.06	0.06	195337	0	10844	120303	195337	184493	4025	35	414	34	112328	1201068	4508
471	2015-08-29 16:00:57	0	0	0	0	0	0	9.35	2.06	0.06	195340	0	10845	120303	195340	184495	4025	35	414	34	112328	1201070	4508
472	2015-08-29 16:06:57	0	0	0	0	0	0	9.35	2.06	0.06	195340	0	10845	120303	195340	184495	4025	35	414	34	112328	1201066	4508
473	2015-08-29 16:12:55	0	0	0	0	0	0	9.35	2.06	0.06	195356	0	10847	120303	195356	184509	4025	35	414	34	112328	1201071	4508
474	2015-08-29 16:18:56	0	0	0	0	0	0	9.35	2.06	0.06	195356	0	10847	120303	195356	184509	4025	35	414	34	112328	1201073	4508
475	2015-08-29 16:24:54	0	0	0	0	0	0	9.35	2.06	0.06	195358	0	10847	120303	195358	184511	4025	35	414	34	112328	1201072	4508
476	2015-08-29 16:30:57	0	0	0	0	0	0	9.35	2.06	0.06	195358	0	10847	120303	195358	184511	4025	35	414	34	112328	1201065	4508
477	2015-08-29 16:36:57	0	0	0	0	0	0	9.35	2.06	0.06	195370	0	10848	120303	195370	184522	4025	35	414	34	112328	1201070	4508
478	2015-08-29 16:42:56	0	0	0	0	0	0	9.35	2.06	0.06	195370	0	10848	120303	195370	184522	4025	35	414	34	112328	1201065	4508
479	2015-08-29 16:48:58	0	0	0	0	0	0	9.35	2.06	0.06	195374	0	10849	120303	195374	184525	4025	35	414	34	112328	1201070	4508
480	2015-08-29 16:54:56	0	0	0	0	0	0	9.35	2.06	0.06	195374	0	10849	120303	195374	184525	4025	35	414	34	112328	1201067	4508
481	2015-08-29 17:00:56	0	0	0	0	0	0	9.35	2.06	0.06	195380	0	10851	120303	195380	184529	4025	35	414	34	112328	1201070	4508
482	2015-08-29 17:06:55	0	0	0	0	0	0	9.35	2.06	0.06	195380	0	10851	120303	195380	184529	4025	35	414	34	112328	1201065	4508
483	2015-08-29 17:12:56	0	0	0	0	0	0	9.35	2.06	0.06	195385	0	10852	120303	195385	184533	4025	35	414	34	112328	1201069	4508
484	2015-08-29 17:18:58	0	0	0	0	0	0	9.35	2.06	0.06	195385	0	10852	120303	195385	184533	4025	35	414	34	112328	1201064	4508
485	2015-08-29 17:24:59	0	0	0	0	0	0	9.35	2.06	0.06	195390	0	10852	120303	195390	184538	4025	35	414	34	112328	1201075	4508
486	2015-08-29 17:31:08	0	0	0	0	0	0	9.35	2.06	0.06	195390	0	10852	120303	195390	184538	4025	35	414	34	112328	1201068	4508
487	2015-08-29 17:37:00	0	0	0	0	0	0	9.35	2.06	0.06	195405	0	10853	120303	195405	184552	4025	35	414	34	112328	1201073	4508
488	2015-08-29 17:42:58	0	0	0	0	0	0	9.35	2.06	0.06	195405	0	10853	120303	195405	184552	4025	35	414	34	112328	1201071	4508
489	2015-08-29 17:48:56	0	0	0	0	0	0	9.35	2.06	0.06	195415	0	10857	120303	195415	184558	4026	35	414	34	112328	1201075	4509
490	2015-08-29 17:54:56	0	0	0	0	0	0	9.35	2.06	0.06	195415	0	10857	120303	195415	184558	4026	35	414	34	112328	1201075	4509
491	2015-08-29 18:01:04	0	0	0	0	0	0	9.35	2.06	0.06	195426	0	10858	120303	195426	184568	4026	35	414	34	112328	1201081	4509
492	2015-08-29 18:06:58	0	0	0	0	0	0	9.35	2.06	0.06	195426	0	10858	120303	195426	184568	4026	35	414	34	112328	1201074	4509
493	2015-08-29 18:12:57	0	0	0	0	0	0	9.35	2.06	0.06	195430	0	10858	120303	195430	184572	4026	35	414	34	112328	1201079	4509
494	2015-08-29 18:18:59	0	0	0	0	0	0	9.35	2.06	0.06	195430	0	10858	120303	195430	184572	4026	35	414	34	112328	1201068	4509
495	2015-08-29 18:24:57	0	0	0	0	0	0	9.35	2.06	0.06	195435	0	10858	120303	195435	184577	4026	35	414	34	112328	1201071	4509
496	2015-08-29 18:31:03	0	0	0	0	0	0	9.35	2.06	0.06	195435	0	10858	120303	195435	184577	4026	35	414	34	112328	1201072	4509
497	2015-08-29 18:36:57	0	0	0	0	0	0	9.35	2.06	0.06	195438	0	10858	120303	195438	184580	4026	35	414	34	112328	1201074	4509
498	2015-08-29 18:42:58	0	0	0	0	0	0	9.35	2.06	0.06	195438	0	10858	120303	195438	184580	4026	35	414	34	112328	1201072	4509
499	2015-08-29 18:48:57	0	0	0	0	0	0	9.35	2.06	0.06	195446	0	10862	120303	195446	184584	4026	35	414	34	112328	1201078	4509
500	2015-08-29 18:54:57	0	0	0	0	0	0	9.35	2.06	0.06	195446	0	10862	120303	195446	184584	4026	35	414	34	112328	1201065	4509
501	2015-08-29 19:00:58	0	0	0	0	0	0	9.35	2.06	0.06	195452	0	10864	120303	195452	184588	4026	35	414	34	112328	1201075	4509
502	2015-08-29 19:06:58	0	0	0	0	0	0	9.35	2.06	0.06	195452	0	10864	120303	195452	184588	4026	35	414	34	112328	1201071	4509
503	2015-08-29 19:12:58	0	0	0	0	0	0	9.35	2.06	0.06	195459	0	10867	120303	195459	184592	4026	35	414	34	112328	1201072	4509
504	2015-08-29 19:18:59	0	0	0	0	0	0	9.35	2.06	0.06	195459	0	10867	120303	195459	184592	4026	35	414	34	112328	1201065	4509
505	2015-08-29 19:25:00	0	0	0	0	0	0	9.35	2.06	0.06	195462	0	10869	120303	195462	184593	4026	35	414	34	112328	1201074	4509
506	2015-08-29 19:31:08	0	0	0	0	0	0	9.35	2.06	0.06	195462	0	10869	120303	195462	184593	4026	35	414	34	112328	1201074	4509
507	2015-08-29 19:36:59	0	0	0	0	0	0	9.35	2.06	0.06	195465	0	10869	120303	195465	184596	4026	35	414	34	112328	1201074	4509
508	2015-08-29 19:42:57	0	0	0	0	0	0	9.35	2.06	0.06	195465	0	10869	120303	195465	184596	4026	35	414	34	112328	1201069	4509
509	2015-08-29 19:48:58	0	0	0	0	0	0	9.35	2.06	0.06	195471	0	10870	120303	195471	184601	4026	35	414	34	112328	1201071	4509
510	2015-08-29 19:55:00	0	0	0	0	0	0	9.35	2.06	0.06	195471	0	10870	120303	195471	184601	4026	35	414	34	112328	1201064	4509
511	2015-08-29 20:01:04	0	0	0	0	0	0	9.35	2.06	0.06	195481	0	10873	120303	195481	184608	4027	35	414	34	112328	1201075	4510
512	2015-08-29 20:06:58	0	0	0	0	0	0	9.35	2.06	0.06	195481	0	10873	120303	195481	184608	4027	35	414	34	112328	1201066	4510
513	2015-08-29 20:12:57	0	0	0	0	0	0	9.35	2.06	0.06	195487	0	10874	120303	195487	184613	4027	35	414	34	112328	1201078	4510
514	2015-08-29 20:18:59	0	0	0	0	0	0	9.35	2.06	0.06	195487	0	10874	120303	195487	184613	4027	35	414	34	112328	1201067	4510
515	2015-08-29 20:24:57	0	0	0	0	0	0	9.35	2.06	0.06	195492	0	10875	120303	195492	184617	4027	35	414	34	112328	1201078	4510
516	2015-08-29 20:31:18	0	0	0	0	0	0	9.35	2.06	0.06	195492	0	10875	120303	195492	184617	4027	35	414	34	112328	1201071	4510
517	2015-08-29 20:37:30	0	0	0	0	0	0	9.35	2.06	0.06	195497	0	10878	120303	195497	184619	4028	35	414	34	112328	1201083	4511
518	2015-08-29 20:42:57	0	0	0	0	0	0	9.35	2.06	0.06	195497	0	10878	120303	195497	184619	4028	35	414	34	112328	1201071	4511
519	2015-08-29 20:49:00	0	0	0	0	0	0	9.35	2.06	0.06	195502	0	10879	120303	195502	184623	4028	35	414	34	112328	1201076	4511
520	2015-08-29 20:54:59	0	0	0	0	0	0	9.35	2.06	0.06	195502	0	10879	120303	195502	184623	4028	35	414	34	112328	1201070	4511
521	2015-08-29 21:01:02	0	0	0	0	0	0	9.35	2.06	0.06	195509	0	10883	120303	195509	184626	4028	35	414	34	112328	1201075	4511
522	2015-08-29 21:06:58	0	0	0	0	0	0	9.35	2.06	0.06	195509	0	10883	120303	195509	184626	4028	35	414	34	112328	1201066	4511
523	2015-08-29 21:12:59	0	0	0	0	0	0	9.35	2.06	0.06	195512	0	10884	120303	195512	184628	4028	35	414	34	112328	1201076	4511
524	2015-08-29 21:18:59	0	0	0	0	0	0	9.35	2.06	0.06	195512	0	10884	120303	195512	184628	4028	35	414	34	112328	1201074	4511
525	2015-08-29 21:24:59	0	0	0	0	0	0	9.35	2.06	0.06	195516	0	10885	120303	195516	184631	4028	35	414	34	112328	1201078	4511
526	2015-08-29 21:30:59	0	0	0	0	0	0	9.35	2.06	0.06	195516	0	10885	120303	195516	184631	4028	35	414	34	112328	1201068	4511
527	2015-08-29 21:37:02	0	0	0	0	0	0	9.35	2.06	0.06	195521	0	10885	120303	195521	184636	4028	35	414	34	112328	1201069	4511
528	2015-08-29 21:43:00	0	0	0	0	0	0	9.35	2.06	0.06	195521	0	10885	120303	195521	184636	4028	35	414	34	112328	1201071	4511
529	2015-08-29 21:48:58	0	0	0	0	0	0	9.35	2.06	0.06	195522	0	10886	120303	195522	184636	4028	35	414	34	112328	1201084	4511
530	2015-08-29 21:55:00	0	0	0	0	0	0	9.35	2.06	0.06	195522	0	10886	120303	195522	184636	4028	35	414	34	112328	1201081	4511
531	2015-08-29 22:01:21	0	0	0	0	0	0	9.35	2.06	0.06	195533	0	10890	120303	195533	184643	4028	35	414	34	112328	1201085	4511
532	2015-08-29 22:07:02	0	0	0	0	0	0	9.35	2.06	0.06	195533	0	10890	120303	195533	184643	4028	35	414	34	112328	1201077	4511
533	2015-08-29 22:12:59	0	0	0	0	0	0	9.35	2.06	0.06	195537	0	10890	120303	195537	184647	4028	35	414	34	112328	1201083	4511
534	2015-08-29 22:18:58	0	0	0	0	0	0	9.35	2.06	0.06	195537	0	10890	120303	195537	184647	4028	35	414	34	112328	1201078	4511
535	2015-08-29 22:25:00	0	0	0	0	0	0	9.35	2.06	0.06	195542	0	10891	120303	195542	184651	4028	35	414	34	112328	1201079	4511
536	2015-08-29 22:31:01	0	0	0	0	0	0	9.35	2.06	0.06	195542	0	10891	120303	195542	184651	4028	35	414	34	112328	1201071	4511
537	2015-08-29 22:37:00	0	0	0	0	0	0	9.35	2.06	0.06	195551	0	10892	120303	195551	184659	4028	35	414	34	112328	1201082	4511
538	2015-08-29 22:42:59	0	0	0	0	0	0	9.35	2.06	0.06	195551	0	10892	120303	195551	184659	4028	35	414	34	112328	1201075	4511
539	2015-08-29 22:48:59	0	0	0	0	0	0	9.35	2.06	0.06	195552	0	10892	120303	195552	184660	4028	35	414	34	112328	1201081	4511
540	2015-08-29 22:55:00	0	0	0	0	0	0	9.35	2.06	0.06	195552	0	10892	120303	195552	184660	4028	35	414	34	112328	1201070	4511
541	2015-08-29 23:00:59	0	0	0	0	0	0	9.35	2.06	0.06	195556	0	10892	120303	195556	184664	4028	35	414	34	112328	1201075	4511
542	2015-08-29 23:06:58	0	0	0	0	0	0	9.35	2.06	0.06	195556	0	10892	120303	195556	184664	4028	35	414	34	112328	1201068	4511
543	2015-08-29 23:13:01	0	0	0	0	0	0	9.35	2.06	0.06	195560	0	10893	120303	195560	184667	4028	35	414	34	112328	1201080	4511
544	2015-08-29 23:19:02	0	0	0	0	0	0	9.35	2.06	0.06	195560	0	10893	120303	195560	184667	4028	35	414	34	112328	1201072	4511
545	2015-08-29 23:25:00	0	0	0	0	0	0	9.35	2.06	0.06	195567	0	10895	120303	195567	184672	4028	35	414	34	112328	1201076	4511
546	2015-08-29 23:31:06	0	0	0	0	0	0	9.35	2.06	0.06	195567	0	10895	120303	195567	184672	4028	35	414	34	112328	1201072	4511
547	2015-08-29 23:36:58	0	0	0	0	0	0	9.35	2.06	0.06	195568	0	10895	120303	195568	184673	4028	35	414	34	112328	1201082	4511
548	2015-08-29 23:43:00	0	0	0	0	0	0	9.35	2.06	0.06	195568	0	10895	120303	195568	184673	4028	35	414	34	112328	1201077	4511
549	2015-08-29 23:48:58	0	0	0	0	0	0	9.35	2.06	0.06	195572	0	10896	120303	195572	184676	4028	35	414	34	112328	1201080	4511
550	2015-08-29 23:54:59	0	0	0	0	0	0	9.35	2.06	0.06	195572	0	10896	120303	195572	184676	4028	35	414	34	112328	1201083	4511
551	2015-08-30 00:01:00	0	0	0	0	0	0	9.35	2.06	0.06	195576	0	10896	120303	195576	184680	4028	35	414	34	112328	1201085	4511
552	2015-08-30 00:07:01	0	0	0	0	0	0	9.35	2.06	0.06	195576	0	10896	120303	195576	184680	4028	35	414	34	112328	1201077	4511
553	2015-08-30 00:13:00	0	0	0	0	0	0	9.35	2.06	0.06	195576	0	10896	120303	195576	184680	4028	35	414	34	112328	1201089	4511
554	2015-08-30 00:18:59	0	0	0	0	0	0	9.35	2.06	0.06	195576	0	10896	120303	195576	184680	4028	35	414	34	112328	1201081	4511
555	2015-08-30 00:25:01	0	0	0	0	0	0	9.35	2.06	0.06	195582	0	10896	120331	195582	184686	4028	35	415	34	112328	1201084	4512
556	2015-08-30 00:31:00	0	0	0	0	0	0	9.35	2.06	0.06	195582	0	10896	120331	195582	184686	4028	35	415	34	112328	1201077	4512
557	2015-08-30 00:37:31	0	0	0	0	0	0	9.35	2.06	0.06	195587	0	10896	120331	195587	184691	4028	35	415	34	112328	1201085	4512
558	2015-08-30 00:42:57	0	0	0	0	0	0	9.35	2.06	0.06	195587	0	10896	120331	195587	184691	4028	35	415	34	112328	1201081	4512
559	2015-08-30 00:48:57	0	0	0	0	0	0	9.35	2.06	0.06	195590	0	10896	120331	195590	184694	4028	35	415	34	112328	1201088	4512
560	2015-08-30 00:55:04	0	0	0	0	0	0	9.35	2.06	0.06	195590	0	10896	120331	195590	184694	4028	35	415	34	112328	1201080	4512
561	2015-08-30 01:01:08	0	0	0	0	0	0	9.35	2.06	0.06	195593	0	10898	120331	195593	184695	4028	35	415	34	112328	1201085	4512
562	2015-08-30 01:07:00	0	0	0	0	0	0	9.35	2.06	0.06	195593	0	10898	120331	195593	184695	4028	35	415	34	112328	1201085	4512
563	2015-08-30 01:13:02	0	0	0	0	0	0	9.35	2.06	0.06	195596	0	10899	120331	195596	184697	4028	35	415	34	112328	1201089	4512
564	2015-08-30 01:19:03	0	0	0	0	0	0	9.35	2.06	0.06	195596	0	10899	120331	195596	184697	4028	35	415	34	112328	1201085	4512
565	2015-08-30 01:25:00	0	0	0	0	0	0	9.35	2.06	0.06	195598	0	10899	120331	195598	184699	4028	35	415	34	112328	1201087	4512
566	2015-08-30 01:31:08	0	0	0	0	0	0	9.35	2.06	0.06	195598	0	10899	120331	195598	184699	4028	35	415	34	112328	1201085	4512
567	2015-08-30 01:37:04	0	0	0	0	0	0	9.35	2.06	0.06	195602	0	10900	120331	195602	184702	4028	35	415	34	112328	1201089	4512
568	2015-08-30 01:42:59	0	0	0	0	0	0	9.35	2.06	0.06	195602	0	10900	120331	195602	184702	4028	35	415	34	112328	1201085	4512
569	2015-08-30 01:49:01	0	0	0	0	0	0	9.35	2.06	0.06	195603	0	10900	120331	195603	184703	4028	35	415	34	112328	1201086	4512
570	2015-08-30 01:54:59	0	0	0	0	0	0	9.35	2.06	0.06	195603	0	10900	120331	195603	184703	4028	35	415	34	112328	1201086	4512
571	2015-08-30 02:01:04	0	0	0	0	0	0	9.35	2.06	0.06	195608	0	10901	120331	195608	184707	4028	35	415	34	112328	1201795	4512
572	2015-08-30 02:07:03	0	0	0	0	0	0	9.35	2.06	0.06	195608	0	10901	120331	195608	184707	4028	35	415	34	112328	1201789	4512
573	2015-08-30 02:13:01	0	0	0	0	0	0	9.35	2.06	0.06	195610	0	10901	120331	195610	184709	4028	35	415	34	112328	1201791	4512
574	2015-08-30 02:19:06	0	0	0	0	0	0	9.35	2.06	0.06	195610	0	10901	120331	195610	184709	4028	35	415	34	112328	1201788	4512
575	2015-08-30 02:24:58	0	0	0	0	0	0	9.35	2.06	0.06	195612	0	10901	120331	195612	184711	4028	35	415	34	112328	1201792	4512
576	2015-08-30 02:31:12	0	0	0	0	0	0	9.35	2.06	0.06	195612	0	10901	120331	195612	184711	4028	35	415	34	112328	1201787	4512
577	2015-08-30 02:37:00	0	0	0	0	0	0	9.35	2.06	0.06	195613	0	10901	120331	195613	184712	4028	35	415	34	112328	1201792	4512
578	2015-08-30 02:43:00	0	0	0	0	0	0	9.35	2.06	0.06	195613	0	10901	120331	195613	184712	4028	35	415	34	112328	1201788	4512
579	2015-08-30 02:48:59	0	0	0	0	0	0	9.35	2.06	0.06	195614	0	10901	120331	195614	184713	4028	35	415	34	112328	1201790	4512
580	2015-08-30 02:54:59	0	0	0	0	0	0	9.35	2.06	0.06	195614	0	10901	120331	195614	184713	4028	35	415	34	112328	1201789	4512
581	2015-08-30 03:01:09	0	0	0	0	0	0	9.35	2.06	0.06	195615	0	10901	120331	195615	184714	4028	35	415	34	112328	1201792	4512
582	2015-08-30 03:07:00	0	0	0	0	0	0	9.35	2.06	0.06	195615	0	10901	120331	195615	184714	4028	35	415	34	112328	1201790	4512
583	2015-08-30 03:13:00	0	0	0	0	0	0	9.35	2.06	0.06	195615	0	10901	120331	195615	184714	4028	35	415	34	112328	1201791	4512
584	2015-08-30 03:18:58	0	0	0	0	0	0	9.35	2.06	0.06	195615	0	10901	120331	195615	184714	4028	35	415	34	112328	1201788	4512
585	2015-08-30 03:25:01	0	0	0	0	0	0	9.35	2.06	0.06	195615	0	10901	120331	195615	184714	4028	35	415	34	112328	1201793	4512
586	2015-08-30 03:31:00	0	0	0	0	0	0	9.35	2.06	0.06	195615	0	10901	120331	195615	184714	4028	35	415	34	112328	1201792	4512
587	2015-08-30 03:37:00	0	0	0	0	0	0	9.35	2.06	0.06	195615	0	10901	120331	195615	184714	4028	35	415	34	112328	1201792	4512
588	2015-08-30 03:42:59	0	0	0	0	0	0	9.35	2.06	0.06	195615	0	10901	120331	195615	184714	4028	35	415	34	112328	1201791	4512
589	2015-08-30 03:48:57	0	0	0	0	0	0	9.35	2.06	0.06	195615	0	10901	120331	195615	184714	4028	35	415	34	112328	1201793	4512
590	2015-08-30 03:54:57	0	0	0	0	0	0	9.35	2.06	0.06	195615	0	10901	120331	195615	184714	4028	35	415	34	112328	1201790	4512
591	2015-08-30 04:00:59	0	0	0	0	0	0	9.35	2.06	0.06	195616	0	10901	120331	195616	184715	4028	35	415	34	112328	1201790	4512
592	2015-08-30 04:07:05	0	0	0	0	0	0	9.35	2.06	0.06	195616	0	10901	120331	195616	184715	4028	35	415	34	112328	1201791	4512
593	2015-08-30 04:12:59	0	0	0	0	0	0	9.35	2.06	0.06	195617	0	10901	120331	195617	184716	4028	35	415	34	112328	1201791	4512
594	2015-08-30 04:19:00	0	0	0	0	0	0	9.35	2.06	0.06	195617	0	10901	120331	195617	184716	4028	35	415	34	112328	1201790	4512
595	2015-08-30 04:24:58	0	0	0	0	0	0	9.35	2.06	0.06	195619	0	10901	120331	195619	184718	4028	35	415	34	112328	1201791	4512
596	2015-08-30 04:31:10	0	0	0	0	0	0	9.35	2.06	0.06	195619	0	10901	120331	195619	184718	4028	35	415	34	112328	1201788	4512
597	2015-08-30 04:36:58	0	0	0	0	0	0	9.35	2.06	0.06	195620	0	10901	120331	195620	184719	4028	35	415	34	112328	1201784	4512
598	2015-08-30 04:42:57	0	0	0	0	0	0	9.35	2.06	0.06	195620	0	10901	120331	195620	184719	4028	35	415	34	112328	1201783	4512
599	2015-08-30 04:48:59	0	0	0	0	0	0	9.35	2.06	0.06	195620	0	10901	120331	195620	184719	4028	35	415	34	112328	1201787	4512
600	2015-08-30 04:54:58	0	0	0	0	0	0	9.35	2.06	0.06	195620	0	10901	120331	195620	184719	4028	35	415	34	112328	1201785	4512
601	2015-08-30 05:01:07	0	0	0	0	0	0	9.35	2.06	0.06	195620	0	10901	120331	195620	184719	4028	35	415	34	112328	1201788	4512
602	2015-08-30 05:06:59	0	0	0	0	0	0	9.35	2.06	0.06	195620	0	10901	120331	195620	184719	4028	35	415	34	112328	1201788	4512
603	2015-08-30 05:12:59	0	0	0	0	0	0	9.35	2.06	0.06	195620	0	10901	120331	195620	184719	4028	35	415	34	112328	1201791	4512
604	2015-08-30 05:18:58	0	0	0	0	0	0	9.35	2.06	0.06	195620	0	10901	120331	195620	184719	4028	35	415	34	112328	1201789	4512
605	2015-08-30 05:24:58	0	0	0	0	0	0	9.35	2.06	0.06	195621	0	10901	120331	195621	184720	4028	35	415	34	112328	1201791	4512
606	2015-08-30 05:30:59	0	0	0	0	0	0	9.35	2.06	0.06	195621	0	10901	120331	195621	184720	4028	35	415	34	112328	1201790	4512
607	2015-08-30 05:36:58	0	0	0	0	0	0	9.35	2.06	0.06	195622	0	10901	120331	195622	184721	4028	35	415	34	112328	1201789	4512
608	2015-08-30 05:42:59	0	0	0	0	0	0	9.35	2.06	0.06	195622	0	10901	120331	195622	184721	4028	35	415	34	112328	1201789	4512
609	2015-08-30 05:48:59	0	0	0	0	0	0	9.35	2.06	0.06	195623	0	10901	120331	195623	184722	4028	35	415	34	112328	1201791	4512
610	2015-08-30 05:55:00	0	0	0	0	0	0	9.35	2.06	0.06	195623	0	10901	120331	195623	184722	4028	35	415	34	112328	1201790	4512
611	2015-08-30 06:01:06	0	0	0	0	0	0	9.35	2.06	0.06	195623	0	10901	120331	195623	184722	4028	35	415	34	112328	1201790	4512
612	2015-08-30 06:06:59	0	0	0	0	0	0	9.35	2.06	0.06	195623	0	10901	120331	195623	184722	4028	35	415	34	112328	1201791	4512
613	2015-08-30 06:12:58	0	0	0	0	0	0	9.35	2.06	0.06	195623	0	10901	120331	195623	184722	4028	35	415	34	112328	1201791	4512
614	2015-08-30 06:18:58	0	0	0	0	0	0	9.35	2.06	0.06	195623	0	10901	120331	195623	184722	4028	35	415	34	112328	1201790	4512
615	2015-08-30 06:24:58	0	0	0	0	0	0	9.35	2.06	0.06	195623	0	10901	120331	195623	184722	4028	35	415	34	112328	1201790	4512
616	2015-08-30 06:31:04	0	0	0	0	0	0	9.35	2.06	0.06	195623	0	10901	120331	195623	184722	4028	35	415	34	112328	1201791	4512
617	2015-08-30 06:36:59	0	0	0	0	0	0	9.35	2.06	0.06	195625	0	10903	120331	195625	184722	4028	35	415	34	112328	1201790	4512
618	2015-08-30 06:42:59	0	0	0	0	0	0	9.35	2.06	0.06	195625	0	10903	120331	195625	184722	4028	35	415	34	112328	1201788	4512
619	2015-08-30 06:49:00	0	0	0	0	0	0	9.35	2.06	0.06	195626	0	10903	120331	195626	184723	4028	35	415	34	112328	1201789	4512
620	2015-08-30 06:55:01	0	0	0	0	0	0	9.35	2.06	0.06	195626	0	10903	120331	195626	184723	4028	35	415	34	112328	1201788	4512
621	2015-08-30 07:01:06	0	0	0	0	0	0	9.35	2.06	0.06	195626	0	10903	120331	195626	184723	4028	35	415	34	112328	1201788	4512
622	2015-08-30 07:06:58	0	0	0	0	0	0	9.35	2.06	0.06	195626	0	10903	120331	195626	184723	4028	35	415	34	112328	1201788	4512
623	2015-08-30 07:12:59	0	0	0	0	0	0	9.35	2.06	0.06	195626	0	10903	120331	195626	184723	4028	35	415	34	112328	1201789	4512
624	2015-08-30 07:18:58	0	0	0	0	0	0	9.35	2.06	0.06	195626	0	10903	120331	195626	184723	4028	35	415	34	112328	1201787	4512
625	2015-08-30 07:24:57	0	0	0	0	0	0	9.35	2.06	0.06	195626	0	10903	120331	195626	184723	4028	35	415	34	112328	1201789	4512
626	2015-08-30 07:31:03	0	0	0	0	0	0	9.35	2.06	0.06	195626	0	10903	120331	195626	184723	4028	35	415	34	112328	1201787	4512
627	2015-08-30 07:37:00	0	0	0	0	0	0	9.35	2.06	0.06	195629	0	10903	120331	195629	184726	4028	35	415	34	112328	1201790	4512
628	2015-08-30 07:42:58	0	0	0	0	0	0	9.35	2.06	0.06	195629	0	10903	120331	195629	184726	4028	35	415	34	112328	1201789	4512
629	2015-08-30 07:48:57	0	0	0	0	0	0	9.35	2.06	0.06	195629	0	10903	120331	195629	184726	4028	35	415	34	112328	1201789	4512
630	2015-08-30 07:54:58	0	0	0	0	0	0	9.35	2.06	0.06	195629	0	10903	120331	195629	184726	4028	35	415	34	112328	1201789	4512
631	2015-08-30 08:01:01	0	0	0	0	0	0	9.35	2.06	0.06	195630	0	10904	120331	195630	184726	4028	35	415	34	112328	1201789	4512
632	2015-08-30 08:07:00	0	0	0	0	0	0	9.35	2.06	0.06	195630	0	10904	120331	195630	184726	4028	35	415	34	112328	1201789	4512
633	2015-08-30 08:12:59	0	0	0	0	0	0	9.35	2.06	0.06	195631	0	10905	120331	195631	184726	4028	35	415	34	112328	1201792	4512
634	2015-08-30 08:19:00	0	0	0	0	0	0	9.35	2.06	0.06	195631	0	10905	120331	195631	184726	4028	35	415	34	112328	1201789	4512
635	2015-08-30 08:25:00	0	0	0	0	0	0	9.35	2.06	0.06	195633	0	10906	120331	195633	184727	4028	35	415	34	112328	1201790	4512
636	2015-08-30 08:31:13	0	0	0	0	0	0	9.35	2.06	0.06	195633	0	10906	120331	195633	184727	4028	35	415	34	112328	1201787	4512
637	2015-08-30 08:37:00	0	0	0	0	0	0	9.35	2.06	0.06	195636	0	10906	120331	195636	184730	4028	35	415	34	112328	1201791	4512
638	2015-08-30 08:42:58	0	0	0	0	0	0	9.35	2.06	0.06	195636	0	10906	120331	195636	184730	4028	35	415	34	112328	1201788	4512
639	2015-08-30 08:49:00	0	0	0	0	0	0	9.35	2.06	0.06	195640	0	10906	120331	195640	184734	4028	35	415	34	112328	1201791	4512
640	2015-08-30 08:54:59	0	0	0	0	0	0	9.35	2.06	0.06	195640	0	10906	120331	195640	184734	4028	35	415	34	112328	1201788	4512
641	2015-08-30 09:01:04	0	0	0	0	0	0	9.35	2.06	0.06	195640	0	10906	120331	195640	184734	4028	35	415	34	112328	1201790	4512
642	2015-08-30 09:07:03	0	0	0	0	0	0	9.35	2.06	0.06	195640	0	10906	120331	195640	184734	4028	35	415	34	112328	1201789	4512
643	2015-08-30 09:12:58	0	0	0	0	0	0	9.35	2.06	0.06	195640	0	10906	120331	195640	184734	4028	35	415	34	112328	1201789	4512
644	2015-08-30 09:18:59	0	0	0	0	0	0	9.35	2.06	0.06	195640	0	10906	120331	195640	184734	4028	35	415	34	112328	1201786	4512
645	2015-08-30 09:25:00	0	0	0	0	0	0	9.35	2.06	0.06	195642	0	10906	120331	195642	184736	4028	35	415	34	112328	1201790	4512
646	2015-08-30 09:31:02	0	0	0	0	0	0	9.35	2.06	0.06	195642	0	10906	120331	195642	184736	4028	35	415	34	112328	1201789	4512
647	2015-08-30 09:37:00	0	0	0	0	0	0	9.35	2.06	0.06	195644	0	10907	120331	195644	184737	4028	35	415	34	112328	1201793	4512
648	2015-08-30 09:43:00	0	0	0	0	0	0	9.35	2.06	0.06	195644	0	10907	120331	195644	184737	4028	35	415	34	112328	1201789	4512
649	2015-08-30 09:49:04	0	0	0	0	0	0	9.35	2.06	0.06	195647	0	10907	120331	195647	184740	4028	35	415	34	112328	1201794	4512
650	2015-08-30 09:54:57	0	0	0	0	0	0	9.35	2.06	0.06	195647	0	10907	120331	195647	184740	4028	35	415	34	112328	1201791	4512
651	2015-08-30 10:00:58	0	0	0	0	0	0	9.35	2.06	0.06	195647	0	10907	120331	195647	184740	4028	35	415	34	112328	1201795	4512
652	2015-08-30 10:06:59	0	0	0	0	0	0	9.35	2.06	0.06	195647	0	10907	120331	195647	184740	4028	35	415	34	112328	1201790	4512
653	2015-08-30 10:12:59	0	0	0	0	0	0	9.35	2.06	0.06	195650	0	10909	120331	195650	184741	4028	35	415	34	112328	1201794	4512
654	2015-08-30 10:19:01	0	0	0	0	0	0	9.35	2.06	0.06	195650	0	10909	120331	195650	184741	4028	35	415	34	112328	1201790	4512
655	2015-08-30 10:25:00	0	0	0	0	0	0	9.35	2.06	0.06	195652	0	10909	120331	195652	184743	4028	35	415	34	112328	1201792	4512
656	2015-08-30 10:31:06	0	0	0	0	0	0	9.35	2.06	0.06	195652	0	10909	120331	195652	184743	4028	35	415	34	112328	1201791	4512
657	2015-08-30 10:36:57	0	0	0	0	0	0	9.35	2.06	0.06	195656	0	10909	120331	195656	184747	4028	35	415	34	112328	1201798	4512
658	2015-08-30 10:42:59	0	0	0	0	0	0	9.35	2.06	0.06	195656	0	10909	120331	195656	184747	4028	35	415	34	112328	1201791	4512
659	2015-08-30 10:48:57	0	0	0	0	0	0	9.35	2.06	0.06	195658	0	10909	120331	195658	184749	4028	35	415	34	112328	1201793	4512
660	2015-08-30 10:55:00	0	0	0	0	0	0	9.35	2.06	0.06	195658	0	10909	120331	195658	184749	4028	35	415	34	112328	1201791	4512
661	2015-08-30 11:01:11	0	0	0	0	0	0	9.35	2.06	0.06	195661	0	10909	120340	195661	184752	4029	35	415	34	112336	1201794	4513
662	2015-08-30 11:07:04	0	0	0	0	0	0	9.35	2.06	0.06	195661	0	10909	120340	195661	184752	4029	35	415	34	112336	1201786	4513
663	2015-08-30 11:12:58	0	0	0	0	0	0	9.35	2.06	0.06	195664	0	10909	120340	195664	184755	4029	35	415	34	112336	1201797	4513
664	2015-08-30 11:19:00	0	0	0	0	0	0	9.35	2.06	0.06	195664	0	10909	120340	195664	184755	4029	35	415	34	112336	1201789	4513
665	2015-08-30 11:24:58	0	0	0	0	0	0	9.35	2.06	0.06	195667	0	10909	120340	195667	184758	4029	35	415	34	112336	1201794	4513
666	2015-08-30 11:31:00	0	0	0	0	0	0	9.35	2.06	0.06	195667	0	10909	120340	195667	184758	4029	35	415	34	112336	1201790	4513
667	2015-08-30 11:36:59	0	0	0	0	0	0	9.35	2.06	0.06	195670	0	10909	120340	195670	184761	4029	35	415	34	112336	1201795	4513
668	2015-08-30 11:43:00	0	0	0	0	0	0	9.35	2.06	0.06	195670	0	10909	120340	195670	184761	4029	35	415	34	112336	1201791	4513
669	2015-08-30 11:49:00	0	0	0	0	0	0	9.35	2.06	0.06	195672	0	10911	120340	195672	184761	4029	35	415	34	112336	1201794	4513
670	2015-08-30 11:55:00	0	0	0	0	0	0	9.35	2.06	0.06	195672	0	10911	120340	195672	184761	4029	35	415	34	112336	1201794	4513
671	2015-08-30 12:01:07	0	0	0	0	0	0	9.35	2.06	0.06	195675	0	10913	120340	195675	184762	4029	35	415	34	112336	1201798	4513
