1	2018-01-29 16:54:00		0	0	0	0	0	0	0	0	0	0	0	0	0	0	0	0	0	1	0	0	3563584	0
2	2018-01-29 17:03:40		0	0	0	0	0	0	0.05	1.29	0	1783	0	0	1753	1783	1783	23	2	23	1	1716	3563581	49
3	2018-01-29 17:07:39		0	0	0	0	0	0	0.15	3.1	0	5486	0	3	5370	5486	5483	170	4	30	1	5279	3563584	205
4	2018-01-29 17:15:31		0	0	0	0	0	0	0.26	3.99	0	10557	0	19	9546	10557	10538	421	4	42	1	9360	3563590	468
5	2018-01-29 17:16:32		0	0	0	0	0	0	0.26	3.99	0	10557	0	19	9546	10557	10538	421	5	45	1	9360	3563591	472
6	2018-01-29 17:18:47		0	0	0	0	0	0	0.26	3.99	0	10557	0	19	9546	10557	10538	421	5	46	1	9360	3563593	473
7	2018-01-29 17:19:22		0	0	0	0	0	0	0.26	3.99	0	10557	0	19	9546	10557	10538	421	5	47	1	9360	3563594	474
8	2018-01-29 17:22:47		0	0	0	0	0	0	0.33	4.33	0	13548	0	30	11903	13548	13518	587	5	48	1	11669	3563596	641
9	2018-01-29 17:23:16		0	0	0	0	0	0	0.33	4.33	0	13548	0	30	11903	13548	13518	587	5	48	2	11669	3563596	642
10	2018-01-29 17:33:45		0	0	0	0	0	0	0.38	4.53	0	16229	0	44	13792	16229	16185	735	5	58	2	13552	3563595	800
11	2018-01-29 17:44:15		0	0	0	0	0	0	0.42	4.64	0	18353	0	51	15228	18353	18302	851	6	71	3	14968	3563596	931
12	2018-01-29 17:54:46		0	0	0	0	0	0	0.45	4.74	0	20223	0	62	16283	20223	20161	959	7	76	4	15983	3563593	1046
13	2018-01-29 18:05:16		0	0	0	0	0	0	0.49	4.74	0	22005	0	79	17754	22005	21926	1044	8	79	4	17406	3563602	1135
14	2018-01-29 18:15:46		0	0	0	0	0	0	0.52	4.83	0	23693	0	90	18882	23693	23603	1144	9	83	4	18448	3563606	1240
15	2018-01-29 18:26:16		0	0	0	0	0	0	0.56	4.82	0	26236	0	107	20471	26236	26129	1265	12	89	4	20015	3563607	1370
16	2018-01-29 18:36:46		0	0	0	0	0	0	0.59	4.82	0	27732	0	121	21334	27732	27611	1338	13	92	4	20922	3563610	1447
17	2018-01-29 18:47:16		0	0	0	0	0	0	0.62	4.78	0	29096	0	134	22456	29096	28962	1392	13	94	5	21985	3563617	1504
18	2018-01-29 18:57:46		0	0	0	0	0	0	0.64	4.79	0	30412	0	148	23302	30412	30264	1456	14	97	6	22823	3563617	1573
19	2018-01-29 19:08:16		0	0	0	0	0	0	0.66	4.81	0.01	31713	0	160	24090	31713	31553	1525	14	100	6	23540	3563624	1645
20	2018-01-29 19:18:50		0	0	0	0	0	0	0.69	4.84	0.01	32892	0	169	25035	32892	32723	1591	14	103	6	24522	3563628	1714
21	2018-01-29 19:29:21		0	0	0	0	0	0	0.71	4.86	0.01	34073	0	180	25773	34073	33893	1655	14	108	7	25202	3563632	1784
22	2018-01-29 19:39:48		0	0	0	0	0	0	0.72	4.83	0.01	35026	0	183	26373	35026	34843	1693	14	111	7	25800	3563631	1825
23	2018-01-29 19:50:16		0	0	0	0	0	0	0.74	4.82	0.01	35970	0	190	27074	35970	35780	1734	14	114	7	26470	3563635	1869
24	2018-01-29 20:00:50		0	0	0	0	0	0	0.76	4.82	0.01	36807	0	192	27780	36807	36615	1774	14	115	7	27190	3563640	1910
25	2018-01-29 20:11:17		0	0	0	0	0	0	0.78	4.79	0.01	37978	0	202	28549	37978	37776	1819	14	115	7	27907	3563647	1955
26	2018-01-29 20:21:47		0	0	0	0	0	0	0.8	4.78	0.01	38790	0	206	29237	38790	38584	1855	14	118	7	28597	3563649	1994
27	2018-01-29 20:32:17		0	0	0	0	0	0	0.81	4.76	0.01	39513	0	209	29703	39513	39304	1880	14	119	7	29028	3563654	2020
28	2018-01-29 20:42:47		0	0	0	0	0	0	0.82	4.75	0.01	40220	0	215	30011	40220	40005	1912	15	121	7	29321	3563654	2055
29	2018-01-29 20:53:18		0	0	0	0	0	0	0.84	4.74	0.01	40932	0	227	30487	40932	40705	1941	15	124	7	29775	3563662	2087
30	2018-01-29 21:03:50		0	0	0	0	0	0	0.84	4.78	0.01	41460	0	231	30842	41460	41229	1982	15	125	7	30113	3563672	2129
31	2018-01-29 21:14:22		0	0	0	0	0	0	0.85	4.78	0.01	41998	0	249	31190	41998	41749	2006	16	129	7	30418	3563676	2158
32	2018-01-29 21:24:48		0	0	0	0	0	0	0.86	4.78	0.01	42533	0	258	31563	42533	42275	2032	16	131	7	30783	3563675	2186
33	2018-01-29 21:35:21		0	0	0	0	0	0	0.87	4.77	0.01	43028	0	267	31858	43028	42761	2053	16	131	7	31164	3563678	2207
34	2018-01-29 21:45:50		0	0	0	0	0	0	0.88	4.77	0.01	43449	0	270	32190	43449	43179	2073	16	133	7	31487	3563682	2229
35	2018-01-29 21:56:20		0	0	0	0	0	0	0.9	4.77	0.01	44179	0	277	32664	44179	43902	2106	16	135	7	31929	3563688	2264
36	2018-01-29 22:06:48		0	0	0	0	0	0	0.9	4.75	0.01	44658	0	283	32936	44658	44375	2123	16	136	7	32170	3563691	2282
37	2018-01-29 22:17:18		0	0	0	0	0	0	0.91	4.74	0.01	45136	0	290	33297	45136	44846	2141	16	140	7	32537	3563695	2304
38	2018-01-29 22:27:48		0	0	0	0	0	0	0.92	4.74	0.01	45588	0	295	33492	45588	45293	2162	16	142	7	32717	3563699	2327
39	2018-01-29 22:38:20		0	0	0	0	0	0	0.93	4.76	0.01	45947	0	298	33783	45947	45649	2188	16	143	7	33006	3563701	2354
40	2018-01-29 22:48:51		0	0	0	0	0	0	0.93	4.77	0.01	46263	0	300	33922	46263	45963	2205	16	143	7	33143	3563707	2371
41	2018-01-29 22:59:20		0	0	0	0	0	0	0.94	4.76	0.01	46601	0	303	34224	46601	46298	2219	16	144	7	33409	3563711	2386
42	2018-01-29 23:09:48		0	0	0	0	0	0	0.94	4.75	0.01	46913	0	305	34384	46913	46608	2230	16	148	7	33608	3563710	2401
43	2018-01-29 23:20:18		0	0	0	0	0	0	0.95	4.76	0.01	47252	0	308	34621	47252	46944	2249	16	148	7	33782	3563707	2420
44	2018-01-29 23:30:48		0	0	0	0	0	0	0.96	4.77	0.01	47522	0	311	34991	47522	47211	2265	16	149	7	34158	3563703	2437
45	2018-01-29 23:41:18		0	0	0	0	0	0	0.96	4.78	0.01	47863	0	314	35089	47863	47549	2289	16	149	7	34251	3563703	2461
46	2018-01-29 23:51:48		0	0	0	0	0	0	0.96	4.79	0.01	48103	0	317	35207	48103	47786	2302	17	150	7	34364	3563698	2476
47	2018-01-30 00:02:19		0	0	0	0	0	0	0.97	4.78	0.01	48345	0	322	35412	48345	48023	2309	17	151	7	34559	3563694	2484
48	2018-01-30 01:07:18		0	0	0	0	0	0	1	4.77	0.01	49436	0	326	36466	49436	49110	2357	17	156	7	35562	3563688	2537
49	2018-01-30 02:12:19		0	0	0	0	0	0	1.01	4.79	0.01	49963	0	328	36800	49963	49635	2391	17	157	7	35880	3563660	2572
50	2018-01-30 03:17:20		0	0	0	0	0	0	1.02	4.79	0.01	50255	0	332	37150	50255	49923	2407	18	157	7	36172	3563648	2589
51	2018-01-30 04:22:19		0	0	0	0	0	0	1.02	4.79	0.01	50492	0	333	37421	50492	50159	2419	19	157	7	36429	3563638	2602
52	2018-01-30 05:27:24		0	0	0	0	0	0	1.03	4.79	0.01	50743	0	334	37607	50743	50409	2429	19	158	7	36581	3563637	2613
53	2018-01-30 06:32:21		0	0	0	0	0	0	1.03	4.78	0.01	51195	0	339	37819	51195	50856	2445	19	159	7	36814	3563646	2630
54	2018-01-30 07:07:51		0	0	0	0	0	0	1.04	4.76	0.01	51603	0	342	38185	51603	51261	2458	19	160	7	37150	3563649	2644
55	2018-01-30 07:18:20		0	0	0	0	0	0	1.05	4.76	0.01	51742	0	343	38294	51742	51399	2463	19	160	7	37254	3563648	2649
56	2018-01-30 07:28:51		0	0	0	0	0	0	1.05	4.76	0.01	51882	0	347	38294	51882	51535	2470	19	161	7	37254	3563646	2657
57	2018-01-30 07:39:21		0	0	0	0	0	0	1.05	4.76	0.01	52042	0	350	38412	52042	51692	2476	19	161	7	37366	3563644	2663
58	2018-01-30 07:49:53		0	0	0	0	0	0	1.06	4.76	0.01	52200	0	350	38690	52200	51850	2485	19	162	7	37629	3563645	2673
59	2018-01-30 08:00:22		0	0	0	0	0	0	1.06	4.76	0.01	52423	0	351	38843	52423	52072	2496	19	163	7	37774	3563644	2685
60	2018-01-30 08:10:54		0	0	0	0	0	0	1.07	4.77	0.01	52616	0	351	39031	52616	52265	2509	19	163	7	37992	3563642	2698
61	2018-01-30 08:21:21		0	0	0	0	0	0	1.07	4.77	0.01	52847	0	353	39251	52847	52494	2523	19	164	7	38200	3563641	2713
62	2018-01-30 08:31:53		0	0	0	0	0	0	1.07	4.77	0.01	53084	0	356	39359	53084	52730	2534	19	164	7	38257	3563645	2724
63	2018-01-30 08:42:28		0	0	0	0	0	0	1.08	4.8	0.01	53401	0	357	39566	53401	53044	2561	19	164	7	38438	3563647	2751
64	2018-01-30 08:52:51		0	0	0	0	0	0	1.09	4.8	0.01	53634	0	359	39829	53634	53275	2577	20	164	7	38685	3563649	2768
65	2018-01-30 09:03:21		0	0	0	0	0	0	1.09	4.8	0.01	53864	0	360	40081	53864	53504	2586	20	164	7	38924	3563651	2777
66	2018-01-30 09:13:51		0	0	0	0	0	0	1.1	4.81	0.01	54060	0	361	40123	54060	53699	2599	20	166	7	39073	3563654	2792
67	2018-01-30 09:24:23		0	0	0	0	0	0	1.1	4.8	0.01	54286	0	362	40249	54286	53924	2606	20	166	7	39133	3563654	2799
68	2018-01-30 09:34:56		0	0	0	0	0	0	1.1	4.8	0.01	54486	0	364	40462	54486	54122	2617	20	166	7	39304	3563651	2810
69	2018-01-30 09:45:39		0	0	0	0	0	0	1.11	4.82	0.01	54658	0	365	40629	54658	54293	2632	21	166	7	39462	3563658	2826
70	2018-01-30 09:55:53		0	0	0	0	0	0	1.11	4.8	0.01	54878	0	368	40794	54878	54510	2635	21	170	7	39618	3563653	2833
71	2018-01-30 10:06:29		0	0	0	0	0	0	1.11	4.81	0.01	55065	0	370	40940	55065	54695	2649	21	171	7	39691	3563653	2848
72	2018-01-30 10:16:55		0	0	0	0	0	0	1.12	4.81	0.01	55256	0	372	41140	55256	54884	2659	21	171	7	39879	3563654	2858
73	2018-01-30 10:27:28		0	0	0	0	0	0	1.12	4.83	0.01	55483	0	378	41243	55483	55105	2678	21	171	7	39976	3563654	2877
74	2018-01-30 10:37:55		0	0	0	0	0	0	1.12	4.83	0.01	55611	0	379	41335	55611	55232	2687	22	172	7	40063	3563653	2888
75	2018-01-30 10:48:24		0	0	0	0	0	0	1.12	4.83	0.01	55716	0	380	41353	55716	55336	2691	22	173	7	40079	3563658	2893
76	2018-01-30 10:59:04		0	0	0	0	0	0	1.13	4.84	0.01	55823	0	381	41401	55823	55442	2700	22	174	7	40158	3563658	2903
77	2018-01-30 11:09:25		0	0	0	0	0	0	1.13	4.85	0.01	55892	0	381	41545	55892	55511	2708	22	174	7	40293	3563659	2911
78	2018-01-30 11:19:55		0	0	0	0	0	0	1.13	4.85	0.01	56001	0	381	41597	56001	55620	2714	22	175	7	40342	3563657	2918
79	2018-01-30 11:30:28		0	0	0	0	0	0	1.13	4.85	0.01	56102	0	383	41628	56102	55719	2721	22	177	7	40405	3563661	2927
80	2018-01-30 11:40:57		0	0	0	0	0	0	1.14	4.85	0.01	56195	0	386	41833	56195	55809	2724	22	177	7	40598	3563671	2930
81	2018-01-30 11:51:35		0	0	0	0	0	0	1.14	4.85	0.01	56301	0	386	41915	56301	55915	2729	22	178	7	40675	3563676	2936
82	2018-01-30 12:02:10		0	0	0	0	0	0	1.15	4.86	0.01	56409	0	387	42122	56409	56022	2741	22	179	7	40870	3563683	2949
83	2018-01-30 12:12:31		0	0	0	0	0	0	1.15	4.86	0.01	56543	0	387	42248	56543	56156	2748	22	179	7	40989	3563686	2956
84	2018-01-30 12:23:05		0	0	0	0	0	0	1.15	4.86	0.01	56654	0	387	42359	56654	56267	2752	22	180	7	41094	3563684	2961
85	2018-01-30 12:33:31		0	0	0	0	0	0	1.16	4.87	0.01	56740	0	389	42586	56740	56351	2764	22	181	7	41306	3563684	2974
86	2018-01-30 12:44:15		0	0	0	0	0	0	1.16	4.88	0.01	56864	0	391	42617	56864	56473	2774	22	181	7	41336	3563695	2984
87	2018-01-30 12:54:33		0	0	0	0	0	0	1.16	4.88	0.01	56959	0	392	42652	56959	56567	2778	22	181	7	41369	3563701	2988
88	2018-01-30 13:05:03		0	0	0	0	0	0	1.17	4.87	0.01	57074	0	393	43019	57074	56681	2780	22	181	7	41714	3563708	2990
89	2018-01-30 13:15:37		0	0	0	0	0	0	1.18	4.87	0.01	57266	0	398	43250	57266	56868	2787	22	181	7	41931	3563717	2997
90	2018-01-30 13:26:07		0	0	0	0	0	0	1.18	4.87	0.01	57471	0	400	43322	57471	57071	2797	23	183	7	41999	3563724	3010
91	2018-01-30 13:36:35		0	0	0	0	0	0	1.18	4.87	0.01	57609	0	404	43381	57609	57205	2804	23	183	7	42109	3563730	3017
92	2018-01-30 13:47:04		0	0	0	0	0	0	1.19	4.87	0.01	57707	0	409	43537	57707	57298	2810	23	184	7	42256	3563731	3024
93	2018-01-30 13:58:04		0	0	0	0	0	0	1.19	4.88	0.01	57885	0	411	43592	57885	57474	2823	23	184	7	42308	3563736	3037
94	2018-01-30 14:08:34		0	0	0	0	0	0	1.19	4.88	0.01	57984	0	415	43617	57984	57569	2827	24	185	7	42350	3563742	3043
95	2018-01-30 14:19:01		0	0	0	0	0	0	1.19	4.87	0.01	58118	0	418	43634	58118	57700	2828	24	186	7	42366	3563746	3045
96	2018-01-30 14:30:35		0	0	0	0	0	0	1.19	4.87	0.01	58226	0	420	43703	58226	57806	2837	24	186	7	42431	3563752	3054
97	2018-01-30 14:41:02		0	0	0	0	0	0	1.2	4.87	0.01	58344	0	423	43891	58344	57921	2842	24	186	7	42609	3563748	3059
98	2018-01-30 14:51:32		0	0	0	0	0	0	1.2	4.87	0.01	58468	0	424	44136	58468	58044	2849	25	186	7	42840	3563748	3067
99	2018-01-30 15:02:26		0	0	0	0	0	0	1.2	4.87	0.01	58590	0	425	44190	58590	58165	2852	25	188	7	42891	3563749	3072
100	2018-01-30 15:12:36		0	0	0	0	0	0	1.21	4.86	0.01	58804	0	427	44391	58804	58377	2860	25	188	7	43132	3563747	3080
101	2018-01-30 15:23:04		0	0	0	0	0	0	1.21	4.87	0.01	58937	0	429	44550	58937	58508	2870	25	188	7	43230	3563754	3090
102	2018-01-30 15:33:39		0	0	0	0	0	0	1.22	4.87	0.01	59057	0	431	44612	59057	58626	2876	25	188	7	43326	3563752	3096
103	2018-01-30 15:45:06		0	0	0	0	0	0	1.22	4.87	0.01	59178	0	434	44656	59178	58744	2882	25	188	7	43368	3563748	3102
104	2018-01-30 15:55:15		0	0	0	0	0	0	1.22	4.87	0.01	59305	0	434	44839	59305	58871	2888	25	188	7	43541	3563748	3108
105	2018-01-30 16:05:35		0	0	0	0	0	0	1.22	4.87	0.01	59428	0	435	44916	59428	58993	2896	25	188	7	43613	3563753	3116
106	2018-01-30 16:16:08		0	0	0	0	0	0	1.23	4.87	0.01	59539	0	435	44973	59539	59104	2902	25	189	7	43667	3563757	3123
107	2018-01-30 16:27:23		0	0	0	0	0	0	1.23	4.87	0.01	59673	0	437	45060	59673	59236	2907	25	190	7	43749	3563759	3129
108	2018-01-30 16:37:19		0	0	0	0	0	0	1.23	4.88	0.01	59765	0	437	45096	59765	59328	2916	25	190	7	43778	3563756	3138
109	2018-01-30 16:47:45		0	0	0	0	0	0	1.23	4.88	0.01	59957	0	437	45260	59957	59520	2927	25	190	7	43932	3563758	3149
110	2018-01-30 16:58:10		0	0	0	0	0	0	1.23	4.88	0.01	60070	0	437	45297	60070	59633	2930	25	190	7	43987	3563756	3152
111	2018-01-30 17:08:57		0	0	0	0	0	0	1.23	4.88	0.01	60175	0	439	45297	60175	59736	2936	25	191	7	43987	3563753	3159
112	2018-01-30 17:20:37		0	0	0	0	0	0	1.23	4.88	0.01	60265	0	440	45301	60265	59825	2940	25	191	7	43991	3563761	3163
113	2018-01-30 17:30:13		0	0	0	0	0	0	1.24	4.88	0.01	60354	0	440	45458	60354	59914	2945	25	191	7	44121	3563763	3168
114	2018-01-30 17:40:33		0	0	0	0	0	0	1.24	4.88	0.01	60426	0	441	45544	60426	59985	2947	25	191	7	44202	3563773	3170
115	2018-01-30 17:51:01		0	0	0	0	0	0	1.24	4.88	0.01	60490	0	441	45595	60490	60049	2952	25	192	7	44311	3563775	3176
116	2018-01-30 18:02:39		0	0	0	0	0	0	1.25	4.88	0.01	60555	0	441	45721	60555	60114	2955	25	193	7	44430	3563785	3180
117	2018-01-30 18:13:22		0	0	0	0	0	0	1.25	4.88	0.01	60657	0	444	45741	60657	60213	2959	25	193	7	44449	3563795	3184
118	2018-01-30 18:28:26		0	0	0	0	0	0	1.25	4.88	0.01	60731	0	444	45859	60731	60287	2964	25	195	7	44560	3563800	3191
119	2018-01-30 18:42:42		0	0	0	0	0	0	1.25	4.88	0.01	60807	0	446	45924	60807	60361	2967	25	195	7	44663	3563803	3194
120	2018-01-30 18:52:46		0	0	0	0	0	0	1.25	4.89	0.01	60863	0	447	45962	60863	60416	2975	25	195	7	44699	3563804	3202
121	2018-01-30 19:03:44		0	0	0	0	0	0	1.25	4.89	0.01	60946	0	448	45962	60946	60498	2978	25	195	7	44699	3563813	3205
122	2018-01-30 19:14:53		0	0	0	0	0	0	1.25	4.89	0.01	60990	0	449	45973	60990	60541	2981	25	195	7	44710	3563815	3208
123	2018-01-30 19:26:38		0	0	0	0	0	0	1.25	4.89	0.01	61041	0	449	45984	61041	60592	2984	25	195	7	44720	3563820	3211
124	2018-01-30 19:38:44		0	0	0	0	0	0	1.25	4.89	0.01	61096	0	450	45984	61096	60646	2985	25	196	7	44720	3563832	3213
125	2018-01-30 19:54:12		0	0	0	0	0	0	1.26	4.89	0.01	61160	0	451	46099	61160	60709	2989	25	196	7	44829	3563839	3217
126	2018-01-30 20:06:13		0	0	0	0	0	0	1.26	4.89	0.01	61216	0	451	46138	61216	60765	2995	25	196	7	44865	3563843	3223
127	2018-01-30 20:17:14		0	0	0	0	0	0	1.26	4.89	0.01	61239	0	451	46182	61239	60788	2997	25	196	7	44907	3563855	3225
128	2018-01-30 20:30:14		0	0	0	0	0	0	1.26	4.89	0.01	61297	0	453	46209	61297	60844	3000	25	197	7	44954	3563858	3229
129	2018-01-30 20:46:20		0	0	0	0	0	0	1.26	4.89	0.01	61344	0	453	46226	61344	60891	3001	25	197	7	44969	3563870	3230
130	2018-01-30 20:56:18		0	0	0	0	0	0	1.26	4.89	0.01	61374	0	454	46226	61374	60920	3001	25	197	7	44969	3563872	3230
131	2018-01-30 21:07:55		0	0	0	0	0	0	1.27	4.89	0.01	61418	0	457	46385	61418	60961	3003	25	197	7	45120	3563880	3232
132	2018-01-30 21:20:45		0	0	0	0	0	0	1.27	4.89	0.01	61482	0	457	46418	61482	61025	3007	25	197	7	45152	3563889	3236
133	2018-01-30 21:38:49		0	0	0	0	0	0	1.27	4.89	0.01	61517	0	459	46418	61517	61058	3008	25	197	7	45152	3563910	3237
134	2018-01-30 21:48:41		0	0	0	0	0	0	1.27	4.89	0.01	61580	0	461	46463	61580	61119	3011	25	197	7	45194	3563940	3240
135	2018-01-30 22:03:01		0	0	0	0	0	0	1.27	4.89	0.01	61620	0	461	46497	61620	61159	3012	25	197	7	45226	3563949	3241
136	2018-01-30 22:13:37		0	0	0	0	0	0	1.27	4.89	0.01	61663	0	462	46637	61663	61201	3016	25	197	7	45358	3563964	3245
137	2018-01-30 22:35:07		0	0	0	0	0	0	1.27	4.89	0.01	61723	0	463	46656	61723	61260	3021	25	198	7	45377	3563980	3251
138	2018-01-30 22:50:01		0	0	0	0	0	0	1.27	4.89	0.01	61771	0	465	46656	61771	61306	3023	25	199	7	45377	3563985	3254
139	2018-01-30 23:01:28		0	0	0	0	0	0	1.28	4.89	0.01	61804	0	466	46746	61804	61338	3025	25	199	7	45462	3563997	3256
140	2018-01-30 23:15:54		0	0	0	0	0	0	1.28	4.89	0.01	61849	0	466	46746	61849	61383	3027	25	199	7	45462	3564004	3258
141	2018-01-30 23:31:10		0	0	0	0	0	0	1.28	4.89	0.01	61889	0	466	46791	61889	61423	3029	25	199	7	45504	3564024	3260
142	2018-01-30 23:49:50		0	0	0	0	0	0	1.28	4.89	0.01	61927	0	466	46791	61927	61461	3030	25	200	7	45504	3564026	3262
143	2018-01-31 00:01:34		0	0	0	0	0	0	1.28	4.89	0.01	61953	0	466	46791	61953	61487	3031	25	200	7	45504	3564032	3263
144	2018-01-31 01:19:17		0	0	0	0	0	0	1.28	4.89	0.01	62093	0	468	46873	62093	61625	3039	25	200	7	45563	3564058	3271
145	2018-01-31 02:24:58		0	0	0	0	0	0	1.28	4.9	0.01	62129	0	470	46919	62129	61659	3042	25	200	7	45606	3564057	3274
146	2018-01-31 03:32:50		0	0	0	0	0	0	1.28	4.9	0.01	62149	0	470	46919	62149	61679	3045	25	200	7	45606	3564047	3277
147	2018-01-31 04:37:22		0	0	0	0	0	0	1.28	4.9	0.01	62164	0	471	46919	62164	61693	3046	25	200	7	45606	3564044	3278
148	2018-01-31 05:45:47		0	0	0	0	0	0	1.28	4.9	0.01	62186	0	471	46919	62186	61715	3047	25	200	7	45606	3564039	3279
149	2018-01-31 06:52:32		0	0	0	0	0	0	1.28	4.9	0.01	62230	0	471	47005	62230	61759	3048	25	200	7	45642	3564053	3280
150	2018-01-31 07:17:25		0	0	0	0	0	0	1.28	4.9	0.01	62257	0	471	47028	62257	61786	3051	25	200	7	45664	3564060	3283
151	2018-01-31 07:35:42		0	0	0	0	0	0	1.28	4.9	0.01	62275	0	471	47028	62275	61804	3051	25	200	7	45664	3564063	3283
152	2018-01-31 07:51:30		0	0	0	0	0	0	1.28	4.9	0.01	62295	0	471	47110	62295	61824	3052	25	200	7	45739	3564071	3284
153	2018-01-31 08:01:51		0	0	0	0	0	0	1.28	4.9	0.01	62306	0	471	47110	62306	61835	3053	25	200	7	45739	3564074	3285
154	2018-01-31 08:16:50		0	0	0	0	0	0	1.28	4.9	0.01	62321	0	471	47110	62321	61850	3054	25	200	7	45739	3564079	3286
155	2018-01-31 08:29:21		0	0	0	0	0	0	1.28	4.9	0.01	62345	0	472	47110	62345	61873	3055	25	200	7	45739	3564085	3287
156	2018-01-31 08:43:09		0	0	0	0	0	0	1.28	4.9	0.01	62364	0	473	47110	62364	61891	3057	25	200	7	45739	3564090	3289
157	2018-01-31 09:05:40		0	0	0	0	0	0	1.28	4.9	0.01	62396	0	474	47110	62396	61922	3060	25	200	7	45739	3564108	3292
158	2018-01-31 09:19:36		0	0	0	0	0	0	1.28	4.91	0.01	62408	0	475	47110	62408	61933	3062	25	201	7	45739	3564118	3295
159	2018-01-31 09:28:12		0	0	0	0	0	0	1.28	4.91	0.01	62421	0	475	47110	62421	61946	3062	25	201	7	45739	3564129	3295
160	2018-01-31 09:42:05		0	0	0	0	0	0	1.28	4.91	0.01	62443	0	475	47184	62443	61968	3064	25	201	7	45777	3564136	3297
161	2018-01-31 09:52:24		0	0	0	0	0	0	1.28	4.91	0.01	62453	0	476	47184	62453	61977	3064	25	201	7	45777	3564146	3297
162	2018-01-31 10:03:35		0	0	0	0	0	0	1.28	4.9	0.01	62468	0	477	47184	62468	61991	3064	25	201	7	45777	3564156	3297
163	2018-01-31 10:39:12		0	0	0	0	0	0	1.28	4.9	0.01	62498	0	477	47184	62498	62021	3064	25	201	7	45777	3564178	3297
164	2018-01-31 10:48:18		0	0	0	0	0	0	1.28	4.9	0.01	62518	0	478	47184	62518	62040	3064	25	201	7	45777	3564184	3297
165	2018-01-31 11:00:22		0	0	0	0	0	0	1.28	4.9	0.01	62534	0	478	47184	62534	62056	3064	25	201	7	45777	3564191	3297
166	2018-01-31 11:13:32		0	0	0	0	0	0	1.28	4.9	0.01	62537	0	478	47184	62537	62059	3065	25	201	7	45777	3564193	3298
167	2018-01-31 11:32:50		0	0	0	0	0	0	1.28	4.9	0.01	62549	0	478	47184	62549	62071	3065	25	201	7	45777	3564203	3298
168	2018-01-31 11:49:21		0	0	0	0	0	0	1.28	4.9	0.01	62564	0	478	47184	62564	62086	3065	25	201	7	45777	3564212	3298
169	2018-01-31 12:02:32		0	0	0	0	0	0	1.28	4.9	0.01	62574	0	478	47184	62574	62096	3065	25	201	7	45777	3564221	3298
170	2018-01-31 12:43:32		0	0	0	0	0	0	1.28	4.9	0.01	62613	0	479	47207	62613	62134	3065	25	201	7	45799	3564252	3298
171	2018-01-31 12:45:32		0	0	0	0	0	0	1.28	4.9	0.01	62613	0	479	47207	62613	62134	3065	25	201	7	45799	3564255	3298
172	2018-01-31 12:46:11		0	0	0	0	0	0	1.28	4.9	0.01	62613	0	479	47207	62613	62134	3065	25	201	7	45799	3564255	3298
173	2018-01-31 12:56:39		0	0	0	0	0	0	1.28	4.9	0.01	62628	0	479	47207	62628	62149	3067	25	201	7	45799	3564260	3300
174	2018-01-31 13:07:08		0	0	0	0	0	0	1.28	4.9	0.01	62636	0	479	47207	62636	62157	3068	25	201	7	45799	3564264	3301
175	2018-01-31 13:17:41		0	0	0	0	0	0	1.28	4.9	0.01	62646	0	479	47207	62646	62167	3069	25	201	7	45799	3564265	3302
176	2018-01-31 13:28:09		0	0	0	0	0	0	1.28	4.9	0.01	62656	0	479	47207	62656	62177	3070	25	201	7	45799	3564274	3303
177	2018-01-31 13:38:41		0	0	0	0	0	0	1.28	4.9	0.01	62663	0	479	47207	62663	62184	3070	25	201	7	45799	3564284	3303
178	2018-01-31 13:49:15		0	0	0	0	0	0	1.28	4.9	0.01	62674	0	479	47207	62674	62195	3070	25	201	7	45799	3564295	3303
179	2018-01-31 13:59:40		0	0	0	0	0	0	1.28	4.9	0.01	62681	0	479	47207	62681	62202	3071	25	201	7	45799	3564303	3304
180	2018-01-31 14:10:09		0	0	0	0	0	0	1.28	4.9	0.01	62689	0	479	47207	62689	62210	3071	25	201	7	45799	3564311	3304
181	2018-01-31 14:20:40		0	0	0	0	0	0	1.28	4.9	0.01	62697	0	479	47207	62697	62218	3071	25	201	7	45799	3564311	3304
182	2018-01-31 14:31:11		0	0	0	0	0	0	1.28	4.9	0.01	62703	0	479	47207	62703	62224	3072	25	201	7	45799	3564315	3305
183	2018-01-31 14:41:41		0	0	0	0	0	0	1.28	4.9	0.01	62709	0	479	47207	62709	62230	3072	25	202	7	45799	3564322	3306
184	2018-01-31 14:52:13		0	0	0	0	0	0	1.29	4.9	0.01	62719	0	479	47213	62719	62240	3073	25	202	7	45804	3564327	3307
185	2018-01-31 15:02:42		0	0	0	0	0	0	1.29	4.9	0.01	62730	0	479	47213	62730	62251	3075	25	202	7	45804	3564336	3309
186	2018-01-31 15:13:16		0	0	0	0	0	0	1.29	4.9	0.01	62738	0	479	47213	62738	62259	3075	25	203	7	45804	3564337	3310
187	2018-01-31 15:23:40		0	0	0	0	0	0	1.29	4.9	0.01	62749	0	479	47213	62749	62270	3075	25	203	7	45804	3564343	3310
188	2018-01-31 15:34:09		0	0	0	0	0	0	1.29	4.9	0.01	62759	0	479	47213	62759	62280	3075	25	203	7	45804	3564347	3310
189	2018-01-31 15:44:42		0	0	0	0	0	0	1.29	4.9	0.01	62774	0	479	47219	62774	62295	3076	25	203	7	45842	3564357	3311
190	2018-01-31 15:55:11		0	0	0	0	0	0	1.29	4.9	0.01	62780	0	479	47219	62780	62301	3076	25	203	7	45842	3564369	3311
191	2018-01-31 16:05:44		0	0	0	0	0	0	1.29	4.9	0.01	62784	0	479	47219	62784	62305	3077	25	203	7	45842	3564374	3312
192	2018-01-31 16:16:09		0	0	0	0	0	0	1.29	4.9	0.01	62800	0	479	47219	62800	62321	3079	25	203	7	45842	3564384	3314
193	2018-01-31 16:26:40		0	0	0	0	0	0	1.29	4.9	0.01	62805	0	479	47264	62805	62326	3080	25	204	7	45929	3564391	3316
194	2018-01-31 16:37:16		0	0	0	0	0	0	1.29	4.9	0.01	62814	0	479	47334	62814	62335	3081	25	204	7	45994	3564400	3317
195	2018-01-31 16:47:40		0	0	0	0	0	0	1.29	4.9	0.01	62818	0	479	47334	62818	62339	3081	25	204	7	45994	3564408	3317
196	2018-01-31 16:58:11		0	0	0	0	0	0	1.29	4.9	0.01	62828	0	480	47374	62828	62348	3081	25	204	7	46076	3564414	3317
197	2018-01-31 17:08:47		0	0	0	0	0	0	1.29	4.9	0.01	62838	0	480	47514	62838	62358	3081	25	204	7	46076	3564425	3317
198	2018-01-31 17:19:23		0	0	0	0	0	0	1.29	4.9	0.01	62848	0	481	47514	62848	62367	3081	25	204	7	46076	3564436	3317
199	2018-01-31 17:29:53		0	0	0	0	0	0	1.29	4.9	0.01	62859	0	481	47514	62859	62378	3081	25	204	7	46076	3564444	3317
200	2018-01-31 17:40:21		0	0	0	0	0	0	1.29	4.9	0.01	62871	0	481	47514	62871	62390	3082	25	204	7	46076	3564456	3318
201	2018-01-31 17:50:58		0	0	0	0	0	0	1.29	4.9	0.01	62886	0	481	47514	62886	62405	3083	25	204	7	46076	3564463	3319
202	2018-01-31 18:01:19		0	0	0	0	0	0	1.29	4.9	0.01	62894	0	481	47537	62894	62413	3084	25	204	7	46098	3564470	3320
203	2018-01-31 18:11:53		0	0	0	0	0	0	1.29	4.9	0.01	62905	0	481	47537	62905	62424	3084	25	204	7	46098	3564473	3320
204	2018-01-31 18:22:12		0	0	0	0	0	0	1.29	4.9	0.01	62911	0	481	47537	62911	62430	3084	25	204	7	46098	3564485	3320
205	2018-01-31 18:32:42		0	0	0	0	0	0	1.29	4.9	0.01	62920	0	481	47537	62920	62439	3084	25	205	7	46098	3564495	3321
206	2018-01-31 18:43:11		0	0	0	0	0	0	1.29	4.9	0.01	62933	0	481	47537	62933	62452	3084	25	205	7	46098	3564502	3321
207	2018-01-31 18:53:47		0	0	0	0	0	0	1.29	4.9	0.01	62938	0	481	47537	62938	62457	3084	25	205	7	46098	3564511	3321
208	2018-01-31 19:04:12		0	0	0	0	0	0	1.29	4.9	0.01	62945	0	481	47537	62945	62464	3085	25	205	7	46098	3564520	3322
209	2018-01-31 19:14:47		0	0	0	0	0	0	1.29	4.9	0.01	62953	0	481	47537	62953	62472	3086	25	205	7	46098	3564532	3323
210	2018-01-31 19:25:12		0	0	0	0	0	0	1.3	4.9	0.01	62967	0	481	47631	62967	62486	3086	25	205	7	46186	3564522	3323
211	2018-01-31 19:35:40		0	0	0	0	0	0	1.3	4.9	0.01	62976	0	482	47631	62976	62494	3086	25	205	7	46186	3564536	3323
212	2018-01-31 19:46:11		0	0	0	0	0	0	1.3	4.9	0.01	62993	0	483	47631	62993	62510	3089	25	205	7	46186	3564538	3326
213	2018-01-31 19:56:42		0	0	0	0	0	0	1.3	4.9	0.01	63002	0	483	47631	63002	62519	3089	25	205	7	46186	3564550	3326
214	2018-01-31 20:07:14		0	0	0	0	0	0	1.3	4.9	0.01	63011	0	483	47631	63011	62528	3090	25	205	7	46186	3564552	3327
215	2018-01-31 20:17:42		0	0	0	0	0	0	1.3	4.91	0.01	63012	0	483	47631	63012	62529	3091	25	205	7	46186	3564558	3328
216	2018-01-31 20:28:12		0	0	0	0	0	0	1.3	4.91	0.01	63023	0	483	47631	63023	62540	3093	25	205	7	46186	3564561	3330
217	2018-01-31 20:38:44		0	0	0	0	0	0	1.3	4.91	0.01	63033	0	483	47631	63033	62550	3093	25	205	7	46186	3564576	3330
218	2018-01-31 20:49:16		0	0	0	0	0	0	1.3	4.91	0.01	63048	0	483	47631	63048	62565	3094	25	205	7	46186	3564584	3331
219	2018-01-31 20:59:48		0	0	0	0	0	0	1.3	4.91	0.01	63064	0	483	47631	63064	62581	3097	25	205	7	46186	3564594	3334
220	2018-01-31 21:10:21		0	0	0	0	0	0	1.3	4.91	0.01	63070	0	483	47631	63070	62587	3098	25	205	7	46186	3564604	3335
221	2018-01-31 21:20:49		0	0	0	0	0	0	1.3	4.91	0.01	63079	0	483	47631	63079	62596	3098	25	205	7	46186	3564619	3335
222	2018-01-31 21:31:19		0	0	0	0	0	0	1.3	4.91	0.01	63106	0	484	47631	63106	62622	3098	25	205	7	46186	3564631	3335
223	2018-01-31 21:41:43		0	0	0	0	0	0	1.3	4.91	0.01	63118	0	484	47719	63118	62634	3099	25	205	7	46269	3564647	3336
224	2018-01-31 21:52:14		0	0	0	0	0	0	1.3	4.91	0.01	63127	0	484	47719	63127	62643	3100	25	205	7	46269	3564654	3337
225	2018-01-31 22:02:43		0	0	0	0	0	0	1.3	4.91	0.01	63135	0	484	47719	63135	62651	3100	25	205	7	46269	3564669	3337
226	2018-01-31 22:13:13		0	0	0	0	0	0	1.3	4.91	0.01	63142	0	484	47719	63142	62658	3102	25	205	7	46269	3564686	3339
227	2018-01-31 22:24:00		0	0	0	0	0	0	1.3	4.91	0.01	63161	0	484	47742	63161	62677	3103	25	205	7	46291	3564705	3340
228	2018-01-31 22:34:18		0	0	0	0	0	0	1.3	4.91	0.01	63177	0	484	47765	63177	62693	3103	25	205	7	46312	3564724	3340
229	2018-01-31 22:44:44		0	0	0	0	0	0	1.3	4.92	0.01	63188	0	484	47765	63188	62704	3106	25	205	7	46312	3564732	3343
230	2018-01-31 22:55:13		0	0	0	0	0	0	1.3	4.92	0.01	63197	0	485	47765	63197	62712	3108	25	205	7	46312	3564737	3345
231	2018-01-31 23:05:43		0	0	0	0	0	0	1.3	4.92	0.01	63205	0	485	47788	63205	62720	3109	25	205	7	46334	3564745	3346
232	2018-01-31 23:16:14		0	0	0	0	0	0	1.3	4.92	0.01	63216	0	485	47812	63216	62731	3109	25	205	7	46356	3564753	3346
233	2018-01-31 23:26:45		0	0	0	0	0	0	1.3	4.92	0.01	63225	0	485	47812	63225	62740	3109	25	205	7	46356	3564754	3346
234	2018-01-31 23:37:14		0	0	0	0	0	0	1.3	4.92	0.01	63230	0	485	47812	63230	62745	3109	25	205	7	46356	3564760	3346
235	2018-01-31 23:47:45		0	0	0	0	0	0	1.3	4.92	0.01	63241	0	485	47812	63241	62756	3109	25	205	7	46356	3564769	3346
236	2018-01-31 23:58:15		0	0	0	0	0	0	1.3	4.92	0.01	63244	0	485	47812	63244	62759	3109	25	205	7	46356	3564778	3346
237	2018-02-01 00:50:50		0	0	0	0	0	0	1.3	4.92	0.01	63278	0	485	47853	63278	62793	3113	25	205	7	46395	3564803	3350
238	2018-02-01 01:55:51		0	0	0	0	0	0	1.3	4.92	0.01	63298	0	486	47853	63298	62812	3114	25	205	7	46395	3564811	3351
239	2018-02-01 03:00:48		0	0	0	0	0	0	1.3	4.92	0.01	63309	0	486	47853	63309	62823	3115	25	205	7	46395	3564802	3352
240	2018-02-01 04:05:58		0	0	0	0	0	0	1.3	4.92	0.01	63317	0	486	47853	63317	62831	3116	25	205	7	46395	3564787	3353
241	2018-02-01 05:10:50		0	0	0	0	0	0	1.3	4.92	0.01	63321	0	486	47853	63321	62835	3116	25	205	7	46395	3564778	3353
242	2018-02-01 06:17:42		0	0	0	0	0	0	1.3	4.92	0.01	63336	0	486	47853	63336	62850	3117	25	206	7	46395	3564785	3355
243	2018-02-01 07:03:49		0	0	0	0	0	0	1.3	4.92	0.01	63360	0	487	47895	63360	62873	3117	25	206	7	46434	3564799	3355
244	2018-02-01 07:15:48		0	0	0	0	0	0	1.3	4.92	0.01	63368	0	487	47895	63368	62881	3118	25	206	7	46434	3564798	3356
245	2018-02-01 07:25:16		0	0	0	0	0	0	1.3	4.92	0.01	63373	0	487	47895	63373	62886	3118	25	206	7	46434	3564803	3356
246	2018-02-01 07:35:43		0	0	0	0	0	0	1.3	4.92	0.01	63379	0	487	47895	63379	62892	3118	25	206	7	46434	3564810	3356
247	2018-02-01 07:46:14		0	0	0	0	0	0	1.3	4.92	0.01	63380	0	487	47895	63380	62893	3118	25	206	7	46434	3564810	3356
248	2018-02-01 07:56:56		0	0	0	0	0	0	1.3	4.92	0.01	63389	0	487	47895	63389	62902	3118	25	206	7	46434	3564815	3356
249	2018-02-01 08:07:16		0	0	0	0	0	0	1.3	4.92	0.01	63394	0	487	47918	63394	62907	3118	25	206	7	46456	3564818	3356
250	2018-02-01 08:17:44		0	0	0	0	0	0	1.3	4.92	0.01	63405	0	487	47941	63405	62918	3118	25	206	7	46477	3564815	3356
251	2018-02-01 08:28:39		0	0	0	0	0	0	1.3	4.92	0.01	63411	0	487	47941	63411	62924	3118	25	206	7	46477	3564824	3356
252	2018-02-01 08:39:03		0	0	0	0	0	0	1.3	4.92	0.01	63417	0	487	47941	63417	62930	3118	25	206	7	46477	3564827	3356
253	2018-02-01 08:49:28		0	0	0	0	0	0	1.3	4.92	0.01	63420	0	487	47941	63420	62933	3118	25	206	7	46477	3564831	3356
254	2018-02-01 08:59:59		0	0	0	0	0	0	1.3	4.92	0.01	63426	0	487	47941	63426	62939	3118	25	206	7	46477	3564843	3356
255	2018-02-01 09:15:18		0	0	0	0	0	0	1.3	4.92	0.01	63438	0	487	47941	63438	62951	3119	25	206	7	46477	3564863	3357
256	2018-02-01 09:25:57		0	0	0	0	0	0	1.3	4.92	0.01	63446	0	487	47941	63446	62959	3119	25	206	7	46477	3564878	3357
257	2018-02-01 09:36:50		0	0	0	0	0	0	1.3	4.92	0.01	63454	0	487	47941	63454	62967	3120	25	206	7	46477	3564894	3358
258	2018-02-01 09:50:01		0	0	0	0	0	0	1.3	4.92	0.01	63467	0	487	47941	63467	62980	3120	25	206	7	46477	3564917	3358
259	2018-02-01 10:02:40		0	0	0	0	0	0	1.3	4.92	0.01	63476	0	487	47941	63476	62989	3120	25	206	7	46477	3564946	3358
260	2018-02-01 10:15:40		0	0	0	0	0	0	1.3	4.91	0.01	63480	0	487	47941	63480	62992	3120	25	206	7	46477	3564981	3358
261	2018-02-01 10:24:41		0	0	0	0	0	0	1.3	4.91	0.01	63493	0	487	47964	63493	63006	3120	25	206	7	46500	3564995	3358
262	2018-02-01 10:35:32		0	0	0	0	0	0	1.3	4.92	0.01	63499	0	487	47964	63499	63012	3121	25	207	7	46500	3565016	3360
263	2018-02-01 10:47:42		0	0	0	0	0	0	1.3	4.92	0.01	63509	0	487	47964	63509	63022	3122	25	207	7	46500	3565061	3361
264	2018-02-01 10:59:13		0	0	0	0	0	0	1.3	4.92	0.01	63516	0	487	47964	63516	63029	3122	25	207	7	46500	3565096	3361
265	2018-02-01 11:09:53		0	0	0	0	0	0	1.3	4.91	0.01	63525	0	487	47964	63525	63038	3122	25	207	7	46500	3565117	3361
266	2018-02-01 11:49:09		0	0	0	0	0	0	1.3	4.91	0.01	63552	0	487	47964	63552	63065	3123	25	208	7	46500	3565205	3363
267	2018-02-01 11:59:20		0	0	0	0	0	0	1.3	4.91	0.01	63564	0	487	47964	63564	63077	3123	25	208	7	46500	3565219	3363
268	2018-02-01 12:09:51		0	0	0	0	0	0	1.3	4.91	0.01	63573	0	487	47964	63573	63086	3123	25	208	7	46500	3565243	3363
269	2018-02-01 12:20:18		0	0	0	0	0	0	1.3	4.91	0.01	63580	0	487	47964	63580	63093	3123	25	208	7	46500	3565263	3363
270	2018-02-01 12:30:51		0	0	0	0	0	0	1.3	4.91	0.01	63589	0	487	47964	63589	63102	3123	25	208	7	46500	3565277	3363
271	2018-02-01 12:41:20		0	0	0	0	0	0	1.3	4.91	0.01	63598	0	487	47964	63598	63111	3123	25	209	7	46500	3565302	3364
272	2018-02-01 12:51:50		0	0	0	0	0	0	1.3	4.91	0.01	63611	0	487	47964	63611	63121	3125	25	209	7	46500	3565324	3366
273	2018-02-01 13:02:19		0	0	0	0	0	0	1.3	4.91	0.01	63614	0	487	47964	63614	63127	3126	25	209	7	46500	3565342	3367
274	2018-02-01 13:12:49		0	0	0	0	0	0	1.3	4.91	0.01	63625	0	487	47964	63625	63138	3126	25	209	7	46500	3565366	3367
275	2018-02-01 13:23:20		0	0	0	0	0	0	1.3	4.91	0.01	63630	0	487	47964	63630	63143	3126	25	209	7	46500	3565375	3367
276	2018-02-01 13:33:49		0	0	0	0	0	0	1.3	4.91	0.01	63632	0	487	47964	63632	63145	3126	25	209	7	46500	3565393	3367
277	2018-02-01 13:44:19		0	0	0	0	0	0	1.3	4.91	0.01	63638	0	487	47964	63638	63151	3126	25	209	7	46500	3565421	3367
278	2018-02-01 13:54:48		0	0	0	0	0	0	1.3	4.91	0.01	63645	0	487	47964	63645	63158	3126	25	209	7	46500	3565440	3367
279	2018-02-01 14:05:19		0	0	0	0	0	0	1.3	4.91	0.01	63654	0	487	47988	63654	63167	3126	25	209	7	46522	3565458	3367
280	2018-02-01 14:15:50		0	0	0	0	0	0	1.3	4.91	0.01	63659	0	487	47988	63659	63172	3126	25	209	7	46522	3565483	3367
281	2018-02-01 14:26:20		0	0	0	0	0	0	1.31	4.91	0.01	63669	0	487	47988	63669	63182	3126	25	209	7	46612	3565501	3367
282	2018-02-01 14:36:49		0	0	0	0	0	0	1.31	4.91	0.01	63681	0	487	47988	63681	63193	3126	25	209	7	46612	3565526	3367
283	2018-02-01 14:47:23		0	0	0	0	0	0	1.31	4.91	0.01	63686	0	487	47988	63686	63199	3126	25	209	7	46612	3565548	3367
284	2018-02-01 14:57:51		0	0	0	0	0	0	1.31	4.91	0.01	63691	0	487	47988	63691	63204	3126	25	209	7	46612	3565569	3367
285	2018-02-01 15:08:22		0	0	0	0	0	0	1.31	4.91	0.01	63701	0	487	47988	63701	63214	3126	25	209	7	46612	3565585	3367
286	2018-02-01 15:18:49		0	0	0	0	0	0	1.31	4.91	0.01	63708	0	487	47988	63708	63221	3126	25	209	7	46612	3565604	3367
287	2018-02-01 15:29:25		0	0	0	0	0	0	1.31	4.91	0.01	63717	0	487	47988	63717	63230	3126	25	209	7	46612	3565629	3367
288	2018-02-01 15:41:26		0	0	0	0	0	0	1.31	4.91	0.01	63720	0	487	47988	63720	63233	3127	25	209	7	46612	3565654	3368
289	2018-02-01 15:50:25		0	0	0	0	0	0	1.31	4.91	0.01	63725	0	487	47988	63725	63238	3127	25	209	7	46612	3565659	3368
290	2018-02-01 16:01:00		0	0	0	0	0	0	1.31	4.91	0.01	63733	0	487	47988	63733	63246	3127	25	209	7	46612	3565673	3368
291	2018-02-01 16:11:24		0	0	0	0	0	0	1.31	4.91	0.01	63743	0	487	47988	63743	63256	3127	25	209	7	46612	3565689	3368
292	2018-02-01 16:21:49		0	0	0	0	0	0	1.31	4.91	0.01	63747	0	487	47988	63747	63260	3128	25	209	7	46612	3565706	3369
293	2018-02-01 16:32:21		0	0	0	0	0	0	1.31	4.91	0.01	63754	0	487	47988	63754	63267	3128	25	209	7	46612	3565731	3369
294	2018-02-01 16:42:50		0	0	0	0	0	0	1.31	4.91	0.01	63759	0	487	47988	63759	63272	3128	25	209	7	46612	3565750	3369
