1	2018-01-17 12:30:54		0	0	0	0	0	0	0	0	0	0	0	0	0	0	0	0	0	3	0	0	3543551	0
2	2018-01-17 12:41:00		0	0	0	0	0	0	0.41	2.05	0	15770	0	10	14618	15770	15760	323	0	42	9	14420	3543554	374
3	2018-01-17 12:52:51		0	0	0	0	0	0	0.99	2.99	0	39955	0	120	35815	39955	39835	1193	0	86	20	35167	3543559	1299
4	2018-01-17 13:07:04		0	0	0	0	0	0	1.25	3.23	0	53059	0	223	45284	53059	52836	1712	0	126	24	44469	3543565	1862
5	2018-01-17 13:15:42		0	0	0	0	0	0	1.48	3.41	0.01	63943	0	420	53713	63943	63523	2180	0	146	24	52591	3543571	2350
6	2018-01-17 13:26:10		0	0	0	0	0	0	1.64	3.51	0.01	73570	0	662	59364	73570	73006	2579	0	175	29	57950	3543582	2783
7	2018-01-17 13:37:06		0	0	0	0	0	0	1.87	3.55	0.01	87423	0	848	67893	87423	86575	3102	0	194	32	66255	3543593	3328
8	2018-01-17 13:50:36		0	0	0	0	0	0	2.03	3.61	0.01	95941	0	1040	73869	95941	94901	3466	0	224	33	72074	3543603	3723
9	2018-01-17 14:03:12		0	0	0	0	0	0	2.18	3.75	0.01	103741	0	1277	79331	103741	102540	3895	0	241	33	77142	3543607	4169
10	2018-01-17 14:13:12		0	0	0	0	0	0	2.37	3.66	0.01	113906	0	1477	83425	113906	112429	4173	0	266	37	83880	3543607	4476
11	2018-01-17 14:28:52		0	0	0	0	0	0	2.56	3.69	0.02	124001	0	2151	93765	124001	121850	4571	0	288	38	90867	3543613	4897
12	2018-01-17 14:39:29		0	0	0	0	0	0	2.68	3.66	0.02	131496	0	2650	98344	131496	128846	4816	0	304	38	94873	3543619	5158
13	2018-01-17 14:49:49		0	0	0	0	0	0	2.86	3.65	0.02	139810	0	3040	105756	139810	136770	5102	0	318	39	101479	3543608	5459
14	2018-01-17 15:01:59		0	0	0	0	0	0	3	3.63	0.02	147243	0	3374	110558	147243	143869	5341	0	341	39	106255	3543617	5721
15	2018-01-17 15:13:40		0	0	0	0	0	0	3.17	3.64	0.03	156647	0	3881	116806	156647	152766	5702	0	359	40	112355	3543622	6101
16	2018-01-17 15:30:43		0	0	0	0	0	0	3.31	3.63	0.03	166290	0	4362	122094	166290	161928	6035	0	383	41	117427	3543636	6459
17	2018-01-17 15:44:56		0	0	0	0	0	0	3.51	3.64	0.03	175177	0	4851	129824	175177	170326	6375	0	402	41	124479	3543643	6818
18	2018-01-17 15:55:07		0	0	0	0	0	0	3.61	3.63	0.03	180993	0	5115	133019	180993	175878	6567	0	412	43	128089	3543652	7022
19	2018-01-17 16:09:19		0	0	0	0	0	0	3.77	3.62	0.03	190189	0	5508	139215	190189	184681	6885	0	429	44	133746	3543667	7358
20	2018-01-17 16:34:34		0	0	0	0	0	0	4.03	3.59	0.03	204801	0	6258	149134	204801	198543	7358	0	462	46	142664	3543677	7866
21	2018-01-17 16:49:01		0	0	0	0	0	0	4.22	3.57	0.03	212694	0	6769	156475	212694	205925	7593	0	475	47	149371	3543686	8115
22	2018-01-17 16:59:39		0	0	0	0	0	0	4.31	3.56	0.03	217765	0	7087	160647	217765	210678	7758	0	491	49	152793	3543685	8298
23	2018-01-17 17:10:40		0	0	0	0	0	0	4.41	3.56	0.03	222752	0	7382	164171	222752	215370	7927	0	494	49	156434	3543693	8470
24	2018-01-17 17:25:51		0	0	0	0	0	0	4.53	3.55	0.04	229983	0	7808	168403	229983	222175	8175	0	515	51	160438	3543706	8741
25	2018-01-17 17:40:41		0	0	0	0	0	0	4.68	3.54	0.04	236739	0	8268	174547	236739	228471	8382	0	526	55	165890	3543706	8963
26	2018-01-17 17:50:03		0	0	0	0	0	0	4.75	3.53	0.04	241102	0	8530	177292	241102	232572	8521	0	535	56	168496	3543718	9112
27	2018-01-17 18:01:53		0	0	0	0	0	0	4.86	3.53	0.04	247476	0	8928	181132	247476	238548	8745	0	544	57	172247	3543731	9346
28	2018-01-17 18:12:55		0	0	0	0	0	0	4.94	3.53	0.04	251691	0	9203	183867	251691	242488	8879	0	559	59	174945	3543731	9497
29	2018-01-17 19:01:15		0	0	0	0	0	0	5.27	3.49	0.04	271044	0	10792	197752	271044	260252	9454	0	603	63	186808	3543546	10120
30	2018-01-17 19:09:48		0	0	0	0	0	0	5.36	3.49	0.04	274589	0	11074	200919	274589	263515	9577	0	615	63	189958	3543476	10255
31	2018-01-17 19:20:26		0	0	0	0	0	0	5.44	3.49	0.04	278043	0	11365	203795	278043	266678	9699	0	620	64	192815	3543399	10383
32	2018-01-17 19:37:55		0	0	0	0	0	0	5.56	3.48	0.04	284769	0	11943	208521	284769	272826	9919	0	634	64	196839	3543382	10617
33	2018-01-17 19:48:04		0	0	0	0	0	0	5.6	3.48	0.04	287415	0	12178	210674	287415	275237	10013	0	638	64	198578	3543392	10715
34	2018-01-17 19:59:13		0	0	0	0	0	0	5.71	3.48	0.04	290098	0	12386	214608	290098	277712	10103	0	645	64	202234	3543395	10812
35	2018-01-17 20:14:03		0	0	0	0	0	0	5.75	3.49	0.05	293468	0	12674	216481	293468	280794	10243	0	654	64	203870	3543408	10961
36	2018-01-17 20:24:54		0	0	0	0	0	0	5.79	3.49	0.05	295541	0	12825	217936	295541	282716	10301	0	658	64	205052	3543413	11023
37	2018-01-17 20:36:37		0	0	0	0	0	0	5.83	3.49	0.05	297300	0	13012	219754	297300	284288	10372	0	664	65	206660	3543424	11101
38	2018-01-17 20:51:49		0	0	0	0	0	0	5.87	3.5	0.05	300552	0	13232	220686	300552	286500	10506	0	671	65	208090	3543429	11242
39	2018-01-17 21:02:01		0	0	0	0	0	0	5.9	3.5	0.05	302138	0	13473	222643	302138	288665	10560	0	675	65	208907	3543443	11300
40	2018-01-17 21:33:30		0	0	0	0	0	0	5.98	3.5	0.05	306721	0	13896	226578	306721	292825	10722	0	684	65	212003	3543456	11471
41	2018-01-17 21:41:44		0	0	0	0	0	0	6.01	3.49	0.05	308439	0	14039	227995	308439	294400	10765	0	688	66	213068	3543458	11519
42	2018-01-17 21:52:36		0	0	0	0	0	0	6.06	3.49	0.05	310165	0	14164	229960	310165	296001	10813	0	690	66	214722	3543454	11569
43	2018-01-17 22:19:04		0	0	0	0	0	0	6.11	3.48	0.05	314266	0	14447	232524	314266	299819	10922	0	699	68	216683	3543472	11689
44	2018-01-17 22:30:14		0	0	0	0	0	0	6.19	3.48	0.05	315933	0	14540	235111	315933	301393	10980	0	703	68	219300	3543474	11751
45	2018-01-17 22:41:46		0	0	0	0	0	0	6.22	3.47	0.05	317603	0	14631	236241	317603	302972	11023	0	709	68	220408	3543479	11800
46	2018-01-17 22:55:51		0	0	0	0	0	0	6.27	3.47	0.05	320111	0	14780	237861	320111	305331	11101	0	712	68	222008	3543488	11881
47	2018-01-17 23:13:26		0	0	0	0	0	0	6.3	3.46	0.05	323208	0	14957	239581	323208	308251	11176	0	717	68	223249	3543495	11961
48	2018-01-17 23:21:50		0	0	0	0	0	0	6.31	3.46	0.05	323876	0	15035	240437	323876	309493	11210	0	721	68	223604	3543493	11999
49	2018-01-17 23:37:18		0	0	0	0	0	0	6.36	3.45	0.05	326286	0	15147	241865	326286	311139	11269	0	725	68	225230	3543490	12062
50	2018-01-17 23:47:26		0	0	0	0	0	0	6.39	3.45	0.05	327391	0	15206	243094	327391	312185	11301	0	725	68	226296	3543492	12094
51	2018-01-17 23:59:51		0	0	0	0	0	0	6.41	3.45	0.05	328418	0	15255	243898	328418	313163	11332	0	730	68	226993	3543498	12130
52	2018-01-18 01:05:26		0	0	0	0	0	0	6.52	3.45	0.05	334137	0	15532	248537	334137	318605	11513	0	747	69	231005	3543514	12329
53	2018-01-18 02:43:34		0	0	0	0	0	0	6.64	3.44	0.05	339479	0	15698	252907	339479	323781	11669	0	758	69	235204	3543514	12496
54	2018-01-18 04:24:19		0	0	0	0	0	0	6.68	3.43	0.05	342748	0	15828	254638	342748	326920	11760	0	764	69	236592	3543516	12593
55	2018-01-18 05:30:41		0	0	0	0	0	0	6.7	3.43	0.05	344596	0	15902	255530	344596	328694	11807	0	773	69	237434	3543527	12649
56	2018-01-18 07:03:10		0	0	0	0	0	0	6.81	3.41	0.05	350500	0	16108	259550	350500	334392	11950	0	785	69	241428	3543559	12804
57	2018-01-18 07:40:10		0	0	0	0	0	0	6.95	3.4	0.05	355684	0	16308	263790	355684	339376	12093	0	796	69	246262	3543579	12958
58	2018-01-18 08:17:55		0	0	0	0	0	0	7.04	3.39	0.05	361553	0	16562	267843	361553	344991	12239	0	805	69	249619	3543605	13113
59	2018-01-18 08:39:00		0	0	0	0	0	0	7.14	3.38	0.05	366215	0	16749	271501	366215	349466	12361	0	809	69	253124	3543633	13239
60	2018-01-18 08:53:28		0	0	0	0	0	0	7.18	3.37	0.05	368123	0	16815	273027	368123	351308	12418	0	813	69	254534	3543637	13300
61	2018-01-18 09:17:57		0	0	0	0	0	0	7.31	3.37	0.05	372755	0	16974	278440	372755	355781	12560	0	831	70	258928	3543658	13461
62	2018-01-18 09:37:07		0	0	0	0	0	0	7.38	3.36	0.05	376419	0	17112	281645	376419	359307	12664	0	844	71	261521	3543673	13579
63	2018-01-18 09:47:52		0	0	0	0	0	0	7.41	3.36	0.05	378158	0	17181	282861	378158	360977	12719	0	845	71	262658	3543679	13635
64	2018-01-18 10:22:36		0	0	0	0	0	0	7.52	3.36	0.05	383654	0	17486	286055	383654	366168	12873	0	854	73	266415	3543695	13800
65	2018-01-18 10:33:07		0	0	0	0	0	0	7.52	3.36	0.05	385120	0	17592	286612	385120	367528	12932	0	860	73	266507	3543696	13865
66	2018-01-18 10:43:36		0	0	0	0	0	0	7.55	3.36	0.05	386589	0	17684	287276	386589	368905	12981	0	868	73	267450	3543705	13922
67	2018-01-18 10:54:05		0	0	0	0	0	0	7.59	3.36	0.05	388623	0	17861	288466	388623	370762	13050	0	875	74	268855	3543707	13999
68	2018-01-18 11:04:35		0	0	0	0	0	0	7.6	3.36	0.05	389989	0	17942	289207	389989	372047	13099	0	878	74	269498	3543712	14051
69	2018-01-18 11:15:12		0	0	0	0	0	0	7.64	3.35	0.05	391523	0	18036	289749	391523	373487	13133	0	883	74	270913	3543717	14090
70	2018-01-18 11:25:37		0	0	0	0	0	0	7.68	3.36	0.05	393008	0	18138	290994	393008	374870	13196	0	889	75	272002	3543719	14160
71	2018-01-18 11:36:05		0	0	0	0	0	0	7.71	3.36	0.05	394528	0	18246	291982	394528	376282	13247	0	893	75	273057	3543724	14215
72	2018-01-18 11:46:35		0	0	0	0	0	0	7.77	3.36	0.05	396253	0	18388	294559	396253	377865	13303	0	898	75	275309	3543729	14276
73	2018-01-18 11:57:07		0	0	0	0	0	0	7.78	3.36	0.05	397928	0	18515	294923	397928	379413	13360	0	905	75	275824	3543742	14340
74	2018-01-18 12:07:37		0	0	0	0	0	0	7.8	3.36	0.05	399575	0	18639	295227	399575	380936	13410	0	916	75	276287	3543748	14401
75	2018-01-18 12:18:06		0	0	0	0	0	0	7.82	3.36	0.05	401126	0	18750	296372	401126	382376	13465	0	922	75	277289	3543754	14462
76	2018-01-18 12:23:11		0	0	0	0	0	0	7.83	3.36	0.05	401908	0	18809	296642	401908	383099	13487	0	923	75	277625	3543758	14485
77	2018-01-18 12:33:40		0	0	0	0	0	0	7.86	3.36	0.05	403991	0	18986	297796	403991	385005	13560	0	927	75	278598	3543760	14562
78	2018-01-18 12:44:09		0	0	0	0	0	0	7.87	3.36	0.05	404918	0	19146	298269	404918	385772	13592	0	928	75	279012	3543781	14595
79	2018-01-18 12:54:38		0	0	0	0	0	0	7.9	3.36	0.05	405785	0	19272	298960	405785	386513	13624	0	929	76	280021	3543801	14629
80	2018-01-18 13:05:08		0	0	0	0	0	0	7.92	3.36	0.05	406516	0	19364	299597	406516	387152	13654	0	932	77	280580	3543818	14663
81	2018-01-18 13:15:40		0	0	0	0	0	0	7.92	3.36	0.05	407256	0	19446	299698	407256	387810	13683	0	933	77	280669	3543832	14693
82	2018-01-18 13:26:33		0	0	0	0	0	0	7.94	3.36	0.05	407904	0	19536	300199	407904	388368	13698	0	934	77	281421	3543849	14709
83	2018-01-18 13:36:38		0	0	0	0	0	0	7.96	3.36	0.05	408580	0	19609	301119	408580	388971	13719	0	937	77	282229	3543868	14733
84	2018-01-18 13:47:12		0	0	0	0	0	0	7.97	3.36	0.05	409306	0	19695	301456	409306	389611	13740	0	940	77	282525	3543869	14757
85	2018-01-18 15:15:14		0	0	0	0	0	0	8.03	3.36	0.05	414580	0	20470	303458	414580	394110	13938	0	951	77	284472	3543971	14966
86	2018-01-18 15:25:40		0	0	0	0	0	0	8.03	3.36	0.05	415123	0	20543	303681	415123	394580	13953	0	952	77	284616	3543982	14982
87	2018-01-18 15:36:09		0	0	0	0	0	0	8.07	3.36	0.05	415623	0	20610	305660	415623	395013	13974	0	953	77	285930	3543995	15004
88	2018-01-18 15:46:40		0	0	0	0	0	0	8.07	3.36	0.05	416137	0	20678	305660	416137	395459	13995	0	953	77	285930	3544004	15025
89	2018-01-18 15:57:09		0	0	0	0	0	0	8.07	3.36	0.05	416634	0	20737	305841	416634	395897	14010	0	953	77	286089	3544013	15040
90	2018-01-18 16:07:43		0	0	0	0	0	0	8.08	3.36	0.05	417115	0	20806	306083	417115	396309	14031	0	955	77	286300	3544025	15063
91	2018-01-18 16:18:10		0	0	0	0	0	0	8.09	3.36	0.05	417824	0	20911	306476	417824	396913	14054	0	957	77	286645	3544035	15088
92	2018-01-18 16:28:39		0	0	0	0	0	0	8.09	3.36	0.05	418289	0	20963	306659	418289	397326	14073	0	958	77	286804	3544052	15108
93	2018-01-18 16:39:10		0	0	0	0	0	0	8.1	3.36	0.05	418721	0	21013	306841	418721	397708	14085	0	958	77	286963	3544062	15120
94	2018-01-18 16:49:44		0	0	0	0	0	0	8.11	3.36	0.05	419212	0	21070	307206	419212	398142	14102	0	958	77	287283	3544076	15137
95	2018-01-18 17:00:13		0	0	0	0	0	0	8.14	3.36	0.05	419696	0	21124	308461	419696	398572	14114	0	958	77	288380	3544086	15149
96	2018-01-18 17:10:40		0	0	0	0	0	0	8.15	3.36	0.05	420183	0	21193	308738	420183	398990	14132	0	959	78	288730	3544058	15169
97	2018-01-18 17:21:10		0	0	0	0	0	0	8.15	3.36	0.05	420712	0	21263	308799	420712	399449	14153	0	960	78	288783	3544063	15191
98	2018-01-18 17:31:40		0	0	0	0	0	0	8.15	3.36	0.05	421213	0	21343	308799	421213	399870	14170	0	963	78	288783	3544075	15211
99	2018-01-18 17:42:10		0	0	0	0	0	0	8.15	3.36	0.05	421684	0	21419	308799	421684	400265	14187	0	965	78	288783	3544085	15230
100	2018-01-18 17:52:40		0	0	0	0	0	0	8.15	3.36	0.05	422206	0	21497	308892	422206	400709	14206	0	965	78	288864	3544108	15249
101	2018-01-18 18:03:13		0	0	0	0	0	0	8.16	3.37	0.05	422985	0	21614	309262	422985	401371	14243	0	965	78	289188	3544122	15286
102	2018-01-18 18:13:43		0	0	0	0	0	0	8.18	3.37	0.05	423493	0	21690	309687	423493	401803	14269	0	966	79	289777	3544132	15314
103	2018-01-18 18:24:11		0	0	0	0	0	0	8.18	3.37	0.05	423986	0	21767	309811	423986	402219	14289	0	968	79	289885	3544144	15336
104	2018-01-18 18:34:45		0	0	0	0	0	0	8.18	3.37	0.05	424516	0	21847	310028	424516	402669	14301	0	969	79	290075	3544153	15349
105	2018-01-18 18:45:13		0	0	0	0	0	0	8.21	3.37	0.05	425000	0	21914	311150	425000	403086	14319	0	970	79	291057	3544165	15368
106	2018-01-18 18:55:48		0	0	0	0	0	0	8.23	3.37	0.05	425497	0	21984	311773	425497	403513	14339	0	970	79	291602	3544175	15388
107	2018-01-18 19:06:11		0	0	0	0	0	0	8.23	3.37	0.05	425500	0	21984	311773	425500	403516	14339	0	971	80	291602	3544192	15390
108	2018-01-18 19:16:39		0	0	0	0	0	0	8.23	3.37	0.05	426477	0	22100	311773	426477	404377	14388	0	973	81	291822	3544204	15442
109	2018-01-18 19:27:15		0	0	0	0	0	0	8.23	3.37	0.05	426954	0	22171	311773	426954	404783	14398	0	975	81	291822	3544213	15454
110	2018-01-18 19:37:44		0	0	0	0	0	0	8.25	3.37	0.05	427435	0	22246	311993	427435	405189	14414	0	976	81	292235	3544225	15471
111	2018-01-18 19:48:15		0	0	0	0	0	0	8.25	3.37	0.06	428152	0	22335	312307	428152	405817	14444	0	977	81	292345	3544230	15502
112	2018-01-18 19:58:44		0	0	0	0	0	0	8.25	3.37	0.06	428610	0	22392	312307	428610	406218	14460	0	977	82	292345	3544236	15519
113	2018-01-18 20:09:16		0	0	0	0	0	0	8.25	3.38	0.06	429047	0	22453	312433	429047	406594	14484	0	979	83	292345	3544242	15546
114	2018-01-18 20:19:50		0	0	0	0	0	0	8.27	3.38	0.06	429493	0	22508	313319	429493	406985	14499	0	979	83	293120	3544244	15561
115	2018-01-18 20:30:14		0	0	0	0	0	0	8.27	3.37	0.06	429899	0	22569	313445	429899	407330	14509	0	979	83	293231	3544253	15571
116	2018-01-18 20:40:40		0	0	0	0	0	0	8.27	3.38	0.06	430285	0	22630	313445	430285	407655	14525	0	981	83	293231	3544260	15589
117	2018-01-18 20:51:10		0	0	0	0	0	0	8.29	3.38	0.06	430719	0	22691	314018	430719	408028	14546	0	981	83	293732	3544272	15610
118	2018-01-18 21:01:42		0	0	0	0	0	0	8.29	3.38	0.06	431128	0	22736	314209	431128	408392	14568	0	983	83	293899	3544287	15634
119	2018-01-18 21:12:11		0	0	0	0	0	0	8.3	3.38	0.06	431557	0	22790	314656	431557	408767	14585	0	984	83	294290	3544295	15652
120	2018-01-18 21:22:41		0	0	0	0	0	0	8.3	3.38	0.06	431981	0	22836	314656	431981	409145	14598	0	985	83	294290	3544300	15666
121	2018-01-18 21:33:12		0	0	0	0	0	0	8.32	3.38	0.06	432410	0	22893	314908	432410	409517	14620	0	986	83	294735	3544307	15689
122	2018-01-18 21:43:42		0	0	0	0	0	0	8.32	3.38	0.06	432952	0	22964	314908	432952	409988	14641	0	986	83	294735	3544321	15710
123	2018-01-18 21:54:13		0	0	0	0	0	0	8.33	3.38	0.06	433340	0	23012	315727	433340	410328	14652	0	986	84	295396	3544329	15722
124	2018-01-18 22:04:42		0	0	0	0	0	0	8.35	3.38	0.06	433705	0	23070	315789	433705	410635	14667	0	987	84	295902	3544341	15738
125	2018-01-18 22:15:11		0	0	0	0	0	0	8.35	3.38	0.06	434110	0	23125	315918	434110	410985	14692	0	987	84	296015	3544350	15763
126	2018-01-18 22:25:42		0	0	0	0	0	0	8.36	3.39	0.06	434482	0	23167	316435	434482	411315	14711	0	987	84	296469	3544364	15782
127	2018-01-18 22:36:13		0	0	0	0	0	0	8.36	3.39	0.06	434836	0	23217	316499	434836	411619	14734	0	988	84	296469	3544375	15806
128	2018-01-18 22:46:42		0	0	0	0	0	0	8.36	3.39	0.06	435184	0	23264	316499	435184	411920	14753	0	989	84	296469	3544383	15826
129	2018-01-18 22:57:12		0	0	0	0	0	0	8.37	3.39	0.06	435509	0	23322	316791	435509	412187	14767	0	989	84	296724	3544391	15840
130	2018-01-18 23:07:45		0	0	0	0	0	0	8.38	3.39	0.06	435846	0	23363	317310	435846	412483	14790	0	990	84	297180	3544395	15864
131	2018-01-18 23:18:13		0	0	0	0	0	0	8.38	3.39	0.06	436183	0	23397	317310	436183	412786	14801	0	990	84	297180	3544406	15875
132	2018-01-18 23:28:43		0	0	0	0	0	0	8.38	3.39	0.06	436657	0	23447	317310	436657	413210	14824	0	990	84	297180	3544414	15898
133	2018-01-18 23:39:18		0	0	0	0	0	0	8.39	3.4	0.06	436914	0	23479	317432	436914	413435	14843	0	990	84	297287	3544419	15917
134	2018-01-18 23:49:43		0	0	0	0	0	0	8.39	3.4	0.06	437201	0	23509	317432	437201	413692	14856	0	990	84	297287	3544430	15930
135	2018-01-19 00:00:14		0	0	0	0	0	0	8.39	3.4	0.06	437456	0	23533	317432	437456	413923	14863	0	991	84	297287	3544436	15938
136	2018-01-19 01:05:13		0	0	0	0	0	0	8.4	3.4	0.06	438441	0	23681	318068	438441	414760	14914	0	994	86	297744	3544452	15994
137	2018-01-19 02:10:14		0	0	0	0	0	0	8.4	3.4	0.06	438761	0	23752	318199	438761	415009	14933	0	994	86	297859	3544461	16013
138	2018-01-19 03:15:17		0	0	0	0	0	0	8.4	3.41	0.06	438911	0	23778	318199	438911	415133	14946	0	995	86	297859	3544462	16027
139	2018-01-19 04:20:21		0	0	0	0	0	0	8.41	3.41	0.06	439012	0	23793	318199	439012	415219	14949	0	995	86	297974	3544471	16030
140	2018-01-19 05:25:26		0	0	0	0	0	0	8.41	3.41	0.06	439128	0	23818	318460	439128	415310	14954	0	995	86	298203	3544472	16035
141	2018-01-19 06:30:19		0	0	0	0	0	0	8.41	3.4	0.06	439331	0	23850	318460	439331	415481	14958	0	996	86	298203	3544481	16040
142	2018-01-19 07:05:48		0	0	0	0	0	0	8.42	3.4	0.06	439514	0	23881	318460	439514	415633	14964	0	997	86	298318	3544487	16047
143	2018-01-19 07:16:20		0	0	0	0	0	0	8.42	3.4	0.06	439587	0	23891	318723	439587	415696	14967	0	997	86	298548	3544493	16050
144	2018-01-19 07:26:55		0	0	0	0	0	0	8.42	3.4	0.06	439663	0	23899	318788	439663	415764	14968	0	997	86	298606	3544507	16051
145	2018-01-19 07:37:19		0	0	0	0	0	0	8.43	3.4	0.06	439728	0	23908	319183	439728	415820	14970	0	997	86	298952	3544506	16053
146	2018-01-19 07:48:26		0	0	0	0	0	0	8.43	3.4	0.06	439802	0	23919	319183	439802	415883	14970	0	997	86	298952	3544513	16053
147	2018-01-19 07:58:23		0	0	0	0	0	0	8.43	3.4	0.06	439856	0	23927	319183	439856	415929	14971	0	997	86	298952	3544517	16054
148	2018-01-19 08:08:51		0	0	0	0	0	0	8.43	3.4	0.06	439931	0	23942	319183	439931	415989	14972	0	997	87	298952	3544523	16056
149	2018-01-19 08:19:32		0	0	0	0	0	0	8.43	3.41	0.06	440034	0	23961	319183	440034	416073	14984	0	997	87	298952	3544532	16068
150	2018-01-19 08:30:16		0	0	0	0	0	0	8.44	3.41	0.06	440113	0	23976	319183	440113	416137	14987	0	997	87	299038	3544545	16071
151	2018-01-19 08:40:49		0	0	0	0	0	0	8.44	3.41	0.06	440201	0	23983	319183	440201	416218	14989	0	997	87	299038	3544554	16073
152	2018-01-19 08:51:22		0	0	0	0	0	0	8.44	3.4	0.06	440281	0	23997	319183	440281	416284	14991	0	998	87	299038	3544572	16076
153	2018-01-19 09:03:30		0	0	0	0	0	0	8.44	3.4	0.06	440362	0	24014	319183	440362	416348	14994	0	998	87	299038	3544577	16079
154	2018-01-19 09:16:11		0	0	0	0	0	0	8.45	3.41	0.06	440465	0	24032	319776	440465	416433	15002	0	998	87	299559	3544592	16087
155	2018-01-19 09:26:16		0	0	0	0	0	0	8.45	3.41	0.06	440545	0	24048	319776	440545	416497	15003	0	998	87	299559	3544598	16088
156	2018-01-19 09:36:43		0	0	0	0	0	0	8.45	3.41	0.06	440620	0	24058	319776	440620	416562	15005	0	998	87	299559	3544606	16090
157	2018-01-19 09:47:38		0	0	0	0	0	0	8.45	3.41	0.06	440676	0	24069	319776	440676	416607	15008	0	998	87	299559	3544623	16093
158	2018-01-19 09:57:45		0	0	0	0	0	0	8.45	3.41	0.06	440750	0	24090	319776	440750	416660	15009	0	998	87	299559	3544629	16094
159	2018-01-19 10:08:15		0	0	0	0	0	0	8.45	3.41	0.06	440843	0	24111	319776	440843	416732	15013	0	998	87	299559	3544643	16098
160	2018-01-19 10:18:50		0	0	0	0	0	0	8.45	3.41	0.06	440912	0	24126	319776	440912	416786	15017	0	998	87	299559	3544652	16102
161	2018-01-19 10:32:41		0	0	0	0	0	0	8.45	3.41	0.06	441027	0	24147	319892	441027	416880	15020	0	998	87	299661	3544666	16105
162	2018-01-19 10:43:50		0	0	0	0	0	0	8.45	3.41	0.06	441087	0	24163	319892	441087	416924	15022	0	998	87	299661	3544675	16107
163	2018-01-19 10:53:40		0	0	0	0	0	0	8.45	3.41	0.06	441160	0	24184	319892	441160	416976	15026	0	998	87	299661	3544682	16111
164	2018-01-19 11:04:03		0	0	0	0	0	0	8.45	3.41	0.06	441221	0	24196	319892	441221	417025	15027	0	999	87	299661	3544696	16113
165	2018-01-19 11:14:30		0	0	0	0	0	0	8.45	3.41	0.06	441308	0	24216	319892	441308	417092	15028	0	999	87	299661	3544711	16114
166	2018-01-19 11:25:43		0	0	0	0	0	0	8.45	3.41	0.06	441363	0	24227	319892	441363	417136	15029	0	999	87	299661	3544718	16115
167	2018-01-19 11:37:15		0	0	0	0	0	0	8.45	3.4	0.06	441431	0	24243	319892	441431	417188	15030	0	999	87	299661	3544731	16116
168	2018-01-19 11:49:01		0	0	0	0	0	0	8.45	3.41	0.06	441488	0	24261	319892	441488	417227	15034	0	1000	87	299661	3544743	16121
169	2018-01-19 12:01:06		0	0	0	0	0	0	8.45	3.41	0.06	441591	0	24296	319892	441591	417295	15038	0	1001	87	299661	3544765	16126
170	2018-01-19 12:15:45		0	0	0	0	0	0	8.45	3.41	0.06	441670	0	24323	319892	441670	417347	15040	0	1001	87	299661	3544786	16128
171	2018-01-19 12:28:28		0	0	0	0	0	0	8.45	3.41	0.06	441722	0	24338	319892	441722	417384	15041	0	1001	87	299661	3544820	16129
172	2018-01-19 12:39:02		0	0	0	0	0	0	8.45	3.41	0.06	441772	0	24355	319892	441772	417417	15043	0	1002	87	299661	3544845	16132
173	2018-01-19 12:49:28		0	0	0	0	0	0	8.45	3.41	0.06	441848	0	24374	319892	441848	417474	15045	0	1002	87	299661	3544861	16134
174	2018-01-19 12:49:55		0	0	0	0	0	0	8.45	3.41	0.06	441848	0	24374	319892	441848	417474	15045	0	1002	87	299661	3544863	16134
175	2018-01-19 13:00:24		0	0	0	0	0	0	8.45	3.41	0.06	441905	0	24388	319892	441905	417517	15047	0	1002	87	299661	3544877	16136
176	2018-01-19 13:10:53		0	0	0	0	0	0	8.46	3.4	0.06	441963	0	24402	319892	441963	417561	15047	0	1002	87	299748	3544884	16136
177	2018-01-19 13:21:31		0	0	0	0	0	0	8.46	3.41	0.06	442012	0	24413	319892	442012	417599	15054	0	1003	87	299748	3544901	16144
178	2018-01-19 13:31:52		0	0	0	0	0	0	8.46	3.41	0.06	442050	0	24422	319892	442050	417628	15054	0	1003	87	299748	3544908	16144
179	2018-01-19 13:42:24		0	0	0	0	0	0	8.46	3.41	0.06	442114	0	24440	319892	442114	417674	15055	0	1003	87	299748	3544920	16145
180	2018-01-19 13:52:56		0	0	0	0	0	0	8.46	3.41	0.06	442168	0	24451	319892	442168	417717	15059	0	1003	87	299748	3544944	16149
181	2018-01-19 14:03:26		0	0	0	0	0	0	8.46	3.41	0.06	442228	0	24470	319892	442228	417758	15064	0	1003	87	299748	3544962	16154
182	2018-01-19 14:13:55		0	0	0	0	0	0	8.46	3.41	0.06	442296	0	24496	319892	442296	417800	15072	0	1003	87	299748	3544976	16162
183	2018-01-19 14:24:27		0	0	0	0	0	0	8.46	3.41	0.06	442381	0	24515	319892	442381	417847	15074	0	1003	87	299748	3544991	16164
184	2018-01-19 14:34:56		0	0	0	0	0	0	8.46	3.41	0.06	442452	0	24538	319892	442452	417914	15075	0	1003	87	299748	3545005	16165
185	2018-01-19 14:45:25		0	0	0	0	0	0	8.46	3.41	0.06	442503	0	24554	319892	442503	417949	15075	0	1003	87	299748	3545025	16165
186	2018-01-19 14:56:02		0	0	0	0	0	0	8.46	3.41	0.06	442579	0	24578	320090	442579	418001	15079	0	1003	87	299922	3545041	16169
187	2018-01-19 15:06:32		0	0	0	0	0	0	8.46	3.41	0.06	442647	0	24593	320214	442647	418054	15084	0	1003	87	299922	3545053	16174
188	2018-01-19 15:17:00		0	0	0	0	0	0	8.46	3.41	0.06	442703	0	24606	320214	442703	418097	15085	0	1003	87	299922	3545066	16175
189	2018-01-19 15:27:25		0	0	0	0	0	0	8.46	3.41	0.06	442768	0	24621	320214	442768	418147	15086	0	1003	87	299922	3545088	16176
190	2018-01-19 15:37:55		0	0	0	0	0	0	8.46	3.41	0.06	442845	0	24640	320214	442845	418205	15088	0	1003	87	299922	3545105	16178
191	2018-01-19 15:48:26		0	0	0	0	0	0	8.46	3.41	0.06	442914	0	24662	320214	442914	418252	15089	0	1003	87	299922	3545125	16179
192	2018-01-19 15:58:55		0	0	0	0	0	0	8.46	3.41	0.06	442987	0	24672	320214	442987	418315	15091	0	1003	87	299922	3545137	16181
193	2018-01-19 16:09:34		0	0	0	0	0	0	8.46	3.41	0.06	443094	0	24692	320214	443094	418375	15096	0	1003	87	299922	3545162	16186
194	2018-01-19 16:20:00		0	0	0	0	0	0	8.46	3.41	0.06	443172	0	24725	320314	443172	418447	15102	0	1003	87	300009	3545178	16192
195	2018-01-19 16:30:28		0	0	0	0	0	0	8.49	3.41	0.06	443252	0	24744	320712	443252	418508	15106	0	1003	87	300825	3545205	16196
196	2018-01-19 16:41:00		0	0	0	0	0	0	8.49	3.41	0.06	443323	0	24765	320712	443323	418558	15108	0	1003	87	300825	3545227	16198
197	2018-01-19 16:51:31		0	0	0	0	0	0	8.49	3.41	0.06	443392	0	24784	320712	443392	418608	15113	0	1003	87	300825	3545243	16203
198	2018-01-19 17:01:57		0	0	0	0	0	0	8.49	3.41	0.06	443460	0	24797	320712	443460	418663	15115	0	1003	87	300825	3545278	16205
199	2018-01-19 17:12:26		0	0	0	0	0	0	8.49	3.41	0.06	443534	0	24816	320712	443534	418718	15116	0	1003	87	300825	3545305	16206
200	2018-01-19 17:22:57		0	0	0	0	0	0	8.49	3.41	0.06	443606	0	24832	320712	443606	418774	15117	0	1003	87	300825	3545338	16207
201	2018-01-19 17:33:29		0	0	0	0	0	0	8.49	3.41	0.06	443662	0	24844	320712	443662	418818	15120	0	1003	87	300825	3545358	16210
202	2018-01-19 17:44:00		0	0	0	0	0	0	8.48	3.41	0.06	443722	0	24854	320712	443722	418868	15122	0	1003	87	300825	3545391	16212
203	2018-01-19 17:58:56		0	0	0	0	0	0	8.48	3.41	0.06	443818	0	24886	320712	443818	418932	15129	0	1004	87	300825	3545438	16220
204	2018-01-19 18:09:26		0	0	0	0	0	0	8.48	3.41	0.06	443874	0	24897	320712	443874	418977	15133	0	1004	87	300825	3545487	16224
205	2018-01-19 18:19:56		0	0	0	0	0	0	8.48	3.41	0.06	443955	0	24918	320712	443955	419037	15134	0	1004	87	300825	3545529	16225
206	2018-01-19 18:30:25		0	0	0	0	0	0	8.49	3.41	0.06	444028	0	24931	320745	444028	419097	15136	0	1004	87	300854	3545557	16227
207	2018-01-19 18:40:55		0	0	0	0	0	0	8.49	3.41	0.06	444093	0	24944	320745	444093	419149	15143	0	1004	87	300854	3545585	16234
208	2018-01-19 18:51:26		0	0	0	0	0	0	8.49	3.41	0.06	444145	0	24959	320745	444145	419186	15147	0	1004	87	300854	3545613	16238
209	2018-01-19 19:01:53		0	0	0	0	0	0	8.49	3.41	0.06	444210	0	24970	320745	444210	419240	15149	0	1004	87	300854	3545634	16240
210	2018-01-19 19:12:27		0	0	0	0	0	0	8.49	3.41	0.06	444269	0	24986	320745	444269	419283	15151	0	1004	87	300854	3545669	16242
211	2018-01-19 19:22:55		0	0	0	0	0	0	8.49	3.41	0.06	444333	0	25004	320745	444333	419329	15152	0	1004	87	300854	3545693	16243
212	2018-01-19 19:33:27		0	0	0	0	0	0	8.49	3.41	0.06	444387	0	25015	321144	444387	419372	15154	0	1004	87	301206	3545725	16245
213	2018-01-19 19:43:58		0	0	0	0	0	0	8.5	3.41	0.06	444456	0	25028	321277	444456	419428	15154	0	1004	87	301323	3545744	16245
214	2018-01-19 19:54:25		0	0	0	0	0	0	8.5	3.41	0.06	444516	0	25043	321277	444516	419473	15157	0	1004	87	301323	3545772	16248
215	2018-01-19 20:04:58		0	0	0	0	0	0	8.5	3.41	0.06	444605	0	25066	321277	444605	419539	15161	0	1005	87	301323	3545795	16253
216	2018-01-19 20:15:26		0	0	0	0	0	0	8.5	3.41	0.06	444675	0	25076	321277	444675	419599	15163	0	1005	87	301323	3545817	16255
217	2018-01-19 20:25:56		0	0	0	0	0	0	8.5	3.41	0.06	444738	0	25083	321277	444738	419655	15163	0	1005	87	301323	3545838	16255
218	2018-01-19 20:36:25		0	0	0	0	0	0	8.5	3.41	0.06	444810	0	25100	321277	444810	419710	15165	0	1005	87	301323	3545868	16257
219	2018-01-19 20:46:57		0	0	0	0	0	0	8.5	3.41	0.06	444866	0	25106	321277	444866	419760	15171	0	1005	87	301323	3545892	16263
220	2018-01-19 20:57:26		0	0	0	0	0	0	8.5	3.41	0.06	444934	0	25121	321342	444934	419813	15173	0	1005	87	301380	3545914	16265
221	2018-01-19 21:07:56		0	0	0	0	0	0	8.5	3.41	0.06	445003	0	25146	321342	445003	419857	15176	0	1005	87	301380	3545936	16268
222	2018-01-19 21:18:26		0	0	0	0	0	0	8.5	3.41	0.06	445089	0	25168	321409	445089	419921	15178	0	1005	87	301438	3545962	16270
223	2018-01-19 21:28:56		0	0	0	0	0	0	8.5	3.41	0.06	445178	0	25187	321409	445178	419991	15181	0	1005	87	301438	3546002	16273
224	2018-01-19 21:39:25		0	0	0	0	0	0	8.5	3.41	0.06	445254	0	25207	321409	445254	420047	15183	0	1005	87	301438	3546032	16275
225	2018-01-19 21:49:56		0	0	0	0	0	0	8.53	3.41	0.06	445347	0	25242	321409	445347	420145	15187	0	1005	87	302498	3546063	16279
226	2018-01-19 22:00:27		0	0	0	0	0	0	8.53	3.41	0.06	445475	0	25260	321542	445475	420215	15191	0	1005	87	302498	3546099	16283
227	2018-01-19 22:10:55		0	0	0	0	0	0	8.53	3.41	0.06	445563	0	25273	321609	445563	420290	15194	0	1005	87	302558	3546132	16286
228	2018-01-19 22:21:26		0	0	0	0	0	0	8.53	3.41	0.06	445644	0	25295	321676	445644	420349	15196	0	1006	87	302617	3546161	16289
229	2018-01-19 22:31:58		0	0	0	0	0	0	8.54	3.41	0.06	445720	0	25304	321743	445720	420416	15197	0	1006	87	302676	3546196	16290
230	2018-01-19 22:42:27		0	0	0	0	0	0	8.54	3.41	0.06	445806	0	25325	321743	445806	420481	15202	0	1006	87	302676	3546241	16295
231	2018-01-19 22:52:56		0	0	0	0	0	0	8.54	3.41	0.06	445888	0	25332	321743	445888	420556	15206	0	1007	87	302676	3546270	16300
232	2018-01-19 23:03:27		0	0	0	0	0	0	8.53	3.41	0.06	445978	0	25344	321743	445978	420634	15209	0	1007	87	302676	3546296	16303
233	2018-01-19 23:13:56		0	0	0	0	0	0	8.53	3.41	0.06	446056	0	25353	321743	446056	420703	15215	0	1007	87	302676	3546311	16309
234	2018-01-19 23:24:26		0	0	0	0	0	0	8.53	3.41	0.06	446141	0	25369	321743	446141	420772	15218	0	1007	87	302676	3546335	16312
235	2018-01-19 23:34:56		0	0	0	0	0	0	8.53	3.41	0.06	446205	0	25390	321743	446205	420823	15222	0	1007	87	302676	3546342	16316
236	2018-01-19 23:45:26		0	0	0	0	0	0	8.55	3.41	0.06	446302	0	25399	322279	446302	420903	15225	0	1007	87	303150	3546343	16319
237	2018-01-19 23:55:56		0	0	0	0	0	0	8.55	3.41	0.06	446352	0	25407	322279	446352	420945	15228	0	1007	87	303150	3546354	16322
238	2018-01-20 00:35:57		0	0	0	0	0	0	8.57	3.41	0.06	446582	0	25438	323084	446582	421144	15233	0	1007	87	303862	3546404	16327
239	2018-01-20 01:41:00		0	0	0	0	0	0	8.59	3.41	0.06	446817	0	25466	324132	446817	421351	15240	0	1007	87	304789	3546493	16334
240	2018-01-20 02:45:58		0	0	0	0	0	0	8.59	3.41	0.06	446955	0	25486	324132	446955	421469	15244	0	1008	87	304789	3546537	16339
241	2018-01-20 03:50:57		0	0	0	0	0	0	8.6	3.41	0.06	447063	0	25503	324268	447063	421560	15247	0	1008	87	304909	3546551	16342
242	2018-01-20 04:55:59		0	0	0	0	0	0	8.6	3.41	0.06	447130	0	25514	324268	447130	421616	15251	0	1008	87	304909	3546566	16346
243	2018-01-20 06:00:58		0	0	0	0	0	0	8.6	3.41	0.06	447205	0	25519	324268	447205	421686	15254	0	1008	87	304909	3546593	16349
244	2018-01-20 07:05:59		0	0	0	0	0	0	8.6	3.41	0.06	447355	0	25539	324268	447355	421816	15263	0	1009	87	304909	3546602	16359
245	2018-01-20 07:16:27		0	0	0	0	0	0	8.6	3.41	0.06	447390	0	25546	324268	447390	421844	15264	0	1009	87	304909	3546609	16360
246	2018-01-20 07:26:58		0	0	0	0	0	0	8.6	3.41	0.06	447433	0	25550	324268	447433	421883	15264	0	1009	87	304909	3546621	16360
247	2018-01-20 07:37:29		0	0	0	0	0	0	8.6	3.41	0.06	447481	0	25558	324268	447481	421923	15265	0	1009	87	304909	3546627	16361
248	2018-01-20 07:47:59		0	0	0	0	0	0	8.6	3.41	0.06	447525	0	25561	324268	447525	421964	15265	0	1009	87	304909	3546631	16361
249	2018-01-20 07:58:29		0	0	0	0	0	0	8.6	3.41	0.06	447576	0	25566	324268	447576	422010	15266	0	1009	87	304909	3546636	16362
250	2018-01-20 08:08:59		0	0	0	0	0	0	8.6	3.41	0.06	447629	0	25572	324744	447629	422057	15269	0	1009	87	305150	3546657	16365
251	2018-01-20 08:19:30		0	0	0	0	0	0	8.6	3.41	0.06	447681	0	25578	324744	447681	422103	15271	0	1009	87	305150	3546667	16367
252	2018-01-20 08:30:09		0	0	0	0	0	0	8.6	3.41	0.06	447737	0	25581	324744	447737	422156	15274	0	1009	87	305150	3546671	16370
253	2018-01-20 08:40:30		0	0	0	0	0	0	8.6	3.41	0.06	447793	0	25586	324744	447793	422207	15277	0	1009	87	305150	3546691	16373
254	2018-01-20 08:50:58		0	0	0	0	0	0	8.6	3.41	0.06	447877	0	25600	324744	447877	422254	15284	0	1010	87	305150	3546710	16381
255	2018-01-20 09:01:32		0	0	0	0	0	0	8.6	3.41	0.06	447927	0	25602	324744	447927	422325	15287	0	1010	87	305150	3546729	16384
256	2018-01-20 09:12:00		0	0	0	0	0	0	8.62	3.41	0.06	447995	0	25607	325555	447995	422388	15289	0	1010	87	305866	3546746	16386
257	2018-01-20 09:22:33		0	0	0	0	0	0	8.62	3.41	0.06	448049	0	25614	325555	448049	422435	15293	0	1010	87	305866	3546770	16390
258	2018-01-20 09:33:08		0	0	0	0	0	0	8.62	3.41	0.06	448113	0	25622	325555	448113	422491	15297	0	1010	87	305866	3546784	16394
259	2018-01-20 09:43:35		0	0	0	0	0	0	8.62	3.41	0.06	448176	0	25629	325555	448176	422547	15298	0	1010	87	305866	3546805	16395
260	2018-01-20 09:54:10		0	0	0	0	0	0	8.63	3.41	0.06	448232	0	25637	325658	448232	422595	15302	0	1010	87	305956	3546827	16399
261	2018-01-20 10:04:36		0	0	0	0	0	0	8.63	3.41	0.06	448291	0	25643	325658	448291	422648	15308	0	1010	87	305956	3546858	16405
262	2018-01-20 10:15:04		0	0	0	0	0	0	8.63	3.41	0.06	448350	0	25648	325658	448350	422702	15311	0	1010	87	305956	3546887	16408
263	2018-01-20 10:25:44		0	0	0	0	0	0	8.63	3.42	0.06	448404	0	25654	325658	448404	422751	15314	0	1010	87	305956	3546906	16411
264	2018-01-20 10:36:17		0	0	0	0	0	0	8.63	3.41	0.06	448476	0	25663	325658	448476	422813	15315	0	1010	87	305956	3546929	16412
265	2018-01-20 10:47:06		0	0	0	0	0	0	8.63	3.41	0.06	448538	0	25670	325658	448538	422868	15316	0	1011	87	305956	3546945	16414
266	2018-01-20 10:57:39		0	0	0	0	0	0	8.63	3.42	0.06	448580	0	25679	325658	448580	422901	15320	0	1012	87	305956	3546966	16419
267	2018-01-20 11:07:57		0	0	0	0	0	0	8.63	3.41	0.06	448630	0	25692	325658	448630	422938	15320	0	1012	87	305956	3546999	16419
268	2018-01-20 11:18:49		0	0	0	0	0	0	8.63	3.41	0.06	448671	0	25697	325658	448671	422974	15321	0	1012	87	305956	3547018	16420
269	2018-01-20 11:28:58		0	0	0	0	0	0	8.63	3.41	0.06	448724	0	25704	325658	448724	423020	15322	0	1012	87	305956	3547059	16421
270	2018-01-20 11:39:27		0	0	0	0	0	0	8.63	3.41	0.06	448780	0	25713	325658	448780	423067	15324	0	1012	87	305956	3547094	16423
271	2018-01-20 11:50:15		0	0	0	0	0	0	8.63	3.41	0.06	448838	0	25720	325658	448838	423118	15325	0	1012	87	305956	3547126	16424
272	2018-01-20 12:00:46		0	0	0	0	0	0	8.63	3.42	0.06	448884	0	25725	325658	448884	423159	15330	0	1013	87	305956	3547146	16430
273	2018-01-20 12:11:11		0	0	0	0	0	0	8.63	3.42	0.06	448954	0	25736	325658	448954	423195	15334	0	1013	87	305956	3547167	16434
274	2018-01-20 12:21:43		0	0	0	0	0	0	8.63	3.42	0.06	448993	0	25740	325658	448993	423253	15337	0	1013	87	305956	3547184	16437
