1	2016-08-09 22:52:46	0	0	0	0	0	0	11.61	3.69	0.03	373079	1	11024	248686	373079	362055	13769	218	539	52	240596	2071749	14578
2	2016-08-09 23:02:40	0	0	0	0	0	0	12.08	3.69	0.03	392114	1	11987	258993	392114	380127	14458	228	556	53	250356	2071802	15295
3	2016-08-09 23:12:40	0	0	0	0	0	0	12.39	3.69	0.03	402213	1	12482	265337	402213	389731	14844	232	563	53	256662	2071867	15692
4	2016-08-09 23:22:40	0	0	0	0	0	0	12.65	3.69	0.03	417484	1	13255	271455	417484	404229	15406	232	575	54	262093	2071924	16267
5	2016-08-09 23:32:40	0	0	0	0	0	0	12.78	3.7	0.03	424843	1	13645	274159	424843	411198	15699	232	583	57	264839	2071993	16571
6	2016-08-09 23:42:40	0	0	0	0	0	0	13.07	3.7	0.03	438384	1	14301	280670	438384	424083	16222	232	593	58	270910	2072055	17105
7	2016-08-09 23:52:41	0	0	0	0	0	0	13.18	3.7	0.03	443673	1	14585	282411	443673	429088	16416	234	601	59	273012	2072116	17310
8	2016-08-10 00:02:40	0	0	0	0	0	0	13.45	3.71	0.03	453651	1	15067	287969	453651	438584	16823	238	609	59	278604	2072164	17729
9	2016-08-10 00:12:40	0	0	0	0	0	0	13.56	3.71	0.03	459711	1	15331	290318	459711	444380	17041	244	619	59	280904	2072195	17963
10	2016-08-10 00:22:41	0	0	0	0	0	0	13.89	3.71	0.03	469918	1	15805	297494	469918	454113	17419	244	625	59	287753	2072224	18347
11	2016-08-10 00:32:42	0	0	0	0	0	0	14.05	3.67	0.03	478467	1	15987	303230	478467	462309	17569	246	632	59	291176	2072247	18506
12	2016-08-10 00:42:40	0	0	0	0	0	0	14.33	3.71	0.04	483156	1	16343	307552	483156	466813	17921	246	636	59	296925	2072282	18862
13	2016-08-10 00:52:42	0	0	0	0	0	0	14.47	3.71	0.04	487759	1	16509	310793	487759	471250	18084	248	640	59	299945	2072311	19031
14	2016-08-10 01:02:41	0	0	0	0	0	0	14.69	3.71	0.04	495654	1	16808	316156	495654	478846	18403	248	644	60	304518	2072335	19355
15	2016-08-10 01:12:40	0	0	0	0	0	0	14.81	3.71	0.04	498498	1	16922	318539	498498	481576	18493	250	648	62	306970	2072350	19453
16	2016-08-10 01:22:40	0	0	0	0	0	0	14.92	3.71	0.04	503766	1	17104	320583	503766	486662	18693	250	651	62	309115	2072373	19656
17	2016-08-10 01:32:39	0	0	0	0	0	0	15.05	3.71	0.04	506671	1	17219	323598	506671	489452	18784	250	655	63	311981	2072387	19752
18	2016-08-10 01:42:39	0	0	0	0	0	0	15.16	3.71	0.04	511340	1	17374	326000	511340	493966	18968	252	658	63	314213	2072399	19941
19	2016-08-10 01:52:39	0	0	0	0	0	0	15.26	3.71	0.04	513606	1	17474	328164	513606	496132	19054	252	661	64	316222	2072408	20031
20	2016-08-10 02:02:42	0	0	0	0	0	0	15.35	3.71	0.04	517765	1	17624	330273	517765	500141	19208	252	666	65	317919	2071594	20191
21	2016-08-10 02:12:40	0	0	0	0	0	0	15.35	3.71	0.04	519159	1	17681	330405	519159	501478	19268	254	666	65	318041	2071609	20253
22	2016-08-10 02:22:41	0	0	0	0	0	0	15.48	3.71	0.04	521650	1	17753	333053	521650	503897	19368	256	667	65	320693	2071618	20356
23	2016-08-10 02:32:40	0	0	0	0	0	0	15.6	3.71	0.04	523939	1	17822	336119	523939	506117	19459	256	669	66	323267	2071621	20450
24	2016-08-10 02:42:40	0	0	0	0	0	0	15.61	3.71	0.04	525163	1	17864	336430	525163	507299	19494	258	670	66	323419	2071631	20488
25	2016-08-10 02:52:42	0	0	0	0	0	0	15.66	3.71	0.04	527097	1	17957	337530	527097	509140	19561	258	671	66	324503	2071634	20556
26	2016-08-10 03:02:41	0	0	0	0	0	0	15.68	3.71	0.04	527971	1	17977	337898	527971	509994	19599	258	672	66	324844	2071638	20595
27	2016-08-10 03:12:40	0	0	0	0	0	0	15.77	3.71	0.04	529820	1	18053	339361	529820	511767	19671	258	673	66	326746	2071644	20668
28	2016-08-10 03:22:40	0	0	0	0	0	0	15.81	3.71	0.04	530533	1	18074	339528	530533	512459	19697	258	673	66	327455	2071646	20694
29	2016-08-10 03:32:40	0	0	0	0	0	0	15.89	3.71	0.04	531993	1	18120	341475	531993	513873	19751	258	674	66	329125	2071654	20749
30	2016-08-10 03:42:40	0	0	0	0	0	0	15.92	3.71	0.04	532612	1	18155	341852	532612	514457	19770	258	674	65	329827	2071658	20767
31	2016-08-10 03:52:40	0	0	0	0	0	0	15.98	3.71	0.04	533630	1	18183	342894	533630	515447	19797	258	674	65	331008	2071660	20794
32	2016-08-10 04:02:41	0	0	0	0	0	0	15.99	3.71	0.04	534638	1	18223	343179	534638	516415	19835	260	675	66	331273	2071663	20836
33	2016-08-10 04:12:42	0	0	0	0	0	0	15.99	3.71	0.04	535169	1	18250	343179	535169	516919	19856	260	676	66	331273	2071666	20858
34	2016-08-10 04:22:41	0	0	0	0	0	0	16.01	3.71	0.04	536270	1	18303	343712	536270	517967	19902	260	676	66	331770	2071666	20904
35	2016-08-10 04:32:41	0	0	0	0	0	0	16.01	3.71	0.04	536744	1	18328	343712	536744	518416	19916	260	677	66	331770	2071671	20919
36	2016-08-10 04:42:42	0	0	0	0	0	0	16.04	3.71	0.04	537684	1	18383	344362	537684	519301	19953	264	677	66	332376	2071675	20960
37	2016-08-10 04:52:42	0	0	0	0	0	0	16.05	3.71	0.04	538515	1	18411	345129	538515	520078	19965	268	678	66	332518	2071676	20977
38	2016-08-10 05:02:41	0	0	0	0	0	0	16.12	3.71	0.04	539011	1	18472	346084	539011	520539	19987	268	679	66	333980	2071680	21000
39	2016-08-10 05:12:42	0	0	0	0	0	0	16.12	3.71	0.04	540052	1	18535	346084	540052	521517	20015	268	679	66	333980	2071684	21028
40	2016-08-10 05:22:42	0	0	0	0	0	0	16.12	3.7	0.04	540716	1	18582	346084	540716	522134	20026	270	682	66	333980	2071687	21044
41	2016-08-10 05:32:42	0	0	0	0	0	0	16.12	3.7	0.04	541416	1	18637	346084	541416	522779	20045	270	683	66	333980	2071686	21064
42	2016-08-10 05:42:41	0	0	0	0	0	0	16.15	3.7	0.04	542794	1	18731	347015	542794	524063	20076	272	684	66	334630	2071689	21098
43	2016-08-10 05:52:41	0	0	0	0	0	0	16.2	3.7	0.04	543507	1	18774	348010	543507	524733	20096	272	686	66	335554	2071694	21120
44	2016-08-10 06:02:40	0	0	0	0	0	0	16.26	3.69	0.04	544975	1	18872	349187	544975	526103	20135	272	686	66	336795	2071695	21159
45	2016-08-10 06:12:42	0	0	0	0	0	0	16.28	3.69	0.04	545937	1	18928	349799	545937	527009	20154	272	687	66	337364	2071697	21179
46	2016-08-10 06:22:42	0	0	0	0	0	0	16.35	3.69	0.04	548005	1	19052	351366	548005	528953	20207	272	688	66	338822	2071702	21233
47	2016-08-10 06:32:46	0	0	0	0	0	0	16.37	3.69	0.04	549163	1	19113	351766	549163	530050	20251	272	688	66	339194	2071707	21277
48	2016-08-10 06:42:47	0	0	0	0	0	0	16.37	3.69	0.04	550385	1	19192	351766	550385	531193	20292	272	688	66	339194	2071712	21318
49	2016-08-10 06:52:49	0	0	0	0	0	0	16.42	3.68	0.04	553065	1	19369	353735	553065	533696	20361	272	690	66	340200	2071721	21389
50	2016-08-10 07:02:45	0	0	0	0	0	0	16.48	3.68	0.04	554376	1	19466	354890	554376	534910	20388	272	690	66	341344	2071726	21416
51	2016-08-10 07:12:43	0	0	0	0	0	0	16.51	3.67	0.04	557204	1	19661	355563	557204	537543	20475	274	691	66	341966	2071731	21506
52	2016-08-10 07:22:44	0	0	0	0	0	0	16.51	3.67	0.04	558481	1	19737	355563	558481	538744	20516	278	691	66	341966	2071737	21551
53	2016-08-10 07:32:46	0	0	0	0	0	0	16.61	3.67	0.04	561675	1	19946	358288	561675	541729	20621	278	692	66	344142	2071747	21657
54	2016-08-10 07:42:47	0	0	0	0	0	0	16.67	3.67	0.04	563187	1	20079	359537	563187	543108	20674	278	694	66	345293	2071760	21712
55	2016-08-10 13:34:27	0	0	0	0	0	0	19.27	3.77	0.04	673794	1	26977	416646	673794	646817	25430	330	796	75	399409	2072526	26631
56	2016-08-10 13:44:20	0	0	0	0	0	0	19.36	3.78	0.04	676828	1	27173	418915	676828	649655	25583	330	800	75	401285	2072541	26788
57	2016-08-10 13:54:21	0	0	0	0	0	0	19.37	3.78	0.04	678451	1	27266	419028	678451	651185	25667	332	802	75	401389	2072558	26876
58	2016-08-10 14:04:14	0	0	0	0	0	0	19.49	3.78	0.04	681875	1	27459	422026	681875	654416	25805	332	805	75	403929	2072577	27017
59	2016-08-10 14:14:18	0	0	0	0	0	0	19.54	3.79	0.04	683405	1	27532	423730	683405	655873	25868	334	807	75	404985	2072583	27084
60	2016-08-10 14:24:17	0	0	0	0	0	0	19.61	3.79	0.04	685232	1	27625	424948	685232	657607	25942	336	807	75	406524	2072604	27160
61	2016-08-10 14:34:14	0	0	0	0	0	0	19.73	3.79	0.04	688572	1	27819	427352	688572	660753	26081	338	808	75	408886	2072620	27302
62	2016-08-10 14:44:16	0	0	0	0	0	0	19.77	3.79	0.04	690252	1	27919	428298	690252	662333	26150	338	808	75	409698	2072640	27371
63	2016-08-10 14:54:17	0	0	0	0	0	0	19.81	3.79	0.04	693546	1	28092	429364	693546	665454	26268	338	812	76	410672	2072658	27494
64	2016-08-10 15:04:17	0	0	0	0	0	0	19.84	3.79	0.04	695051	1	28179	429751	695051	666872	26330	338	813	77	411136	2072678	27558
65	2016-08-10 15:14:17	0	0	0	0	0	0	20.01	3.79	0.04	698330	1	28369	432135	698330	669961	26479	338	815	77	414646	2072706	27709
66	2016-08-10 15:24:17	0	0	0	0	0	0	20.01	3.79	0.04	699704	1	28446	432558	699704	671258	26540	340	819	77	414840	2072722	27776
67	2016-08-10 15:34:18	0	0	0	0	0	0	20.06	3.8	0.04	702426	1	28635	433861	702426	673791	26672	340	819	78	415815	2072736	27909
68	2016-08-10 15:44:23	0	0	0	0	0	0	20.07	3.8	0.04	703944	1	28731	434074	703944	675213	26723	342	819	78	416011	2072746	27962
69	2016-08-10 15:54:20	0	0	0	0	0	0	20.12	3.8	0.04	707018	1	28948	435294	707018	678070	26848	342	820	79	417132	2072765	28089
70	2016-08-10 16:04:21	0	0	0	0	0	0	20.15	3.8	0.04	708711	1	29084	435968	708711	679627	26911	342	822	79	417751	2072779	28154
71	2016-08-10 16:14:20	0	0	0	0	0	0	20.15	3.79	0.04	711465	1	29283	436714	711465	682182	26969	344	822	79	417751	2072800	28214
72	2016-08-10 16:24:19	0	0	0	0	0	0	20.24	3.8	0.04	712616	1	29385	437825	712616	683231	27070	344	822	79	419456	2072809	28315
73	2016-08-10 16:34:19	0	0	0	0	0	0	20.26	3.8	0.04	713985	1	29469	438135	713985	684516	27125	346	823	79	419854	2072834	28373
74	2016-08-10 16:44:19	0	0	0	0	0	0	20.29	3.8	0.04	716631	1	29658	438877	716631	686973	27227	346	824	80	420534	2072849	28477
75	2016-08-10 16:54:26	0	0	0	0	0	0	20.3	3.8	0.04	717908	1	29756	439250	717908	688152	27282	348	827	80	420877	2072863	28537
76	2016-08-10 17:04:22	0	0	0	0	0	0	20.3	3.8	0.04	720380	1	29948	439624	720380	690432	27379	348	830	80	420877	2072880	28637
77	2016-08-10 17:14:22	0	0	0	0	0	0	20.36	3.8	0.04	721383	1	30028	440296	721383	691355	27418	350	831	80	421953	2072897	28679
78	2016-08-10 17:24:22	0	0	0	0	0	0	20.36	3.81	0.04	723419	1	30177	440429	723419	693242	27527	350	835	80	421960	2072912	28792
79	2016-08-10 17:34:27	0	0	0	0	0	0	20.38	3.8	0.04	724570	1	30253	441025	724570	694317	27569	352	835	80	422507	2072935	28836
80	2016-08-10 17:44:26	0	0	0	0	0	0	20.46	3.81	0.04	726632	1	30418	442412	726632	696214	27675	354	835	80	424186	2072952	28944
81	2016-08-10 17:54:29	0	0	0	0	0	0	20.47	3.81	0.04	727704	1	30490	443378	727704	697214	27716	354	836	80	424273	2072970	28986
82	2016-08-10 18:04:27	0	0	0	0	0	0	20.57	3.81	0.04	729684	1	30630	445739	729684	699054	27799	354	837	80	426435	2073000	29070
83	2016-08-10 18:14:24	0	0	0	0	0	0	20.57	3.81	0.04	730641	1	30690	445739	730641	699951	27836	354	837	80	426435	2073017	29107
84	2016-08-10 18:24:23	0	0	0	0	0	0	20.57	3.81	0.04	731697	1	30767	445739	731697	700930	27874	354	837	81	426435	2073042	29146
85	2016-08-10 18:34:21	0	0	0	0	0	0	20.6	3.81	0.04	733624	1	30913	445996	733624	702711	27955	354	836	81	427052	2073072	29226
86	2016-08-10 18:44:22	0	0	0	0	0	0	20.62	3.81	0.04	734620	1	30977	446503	734620	703643	27997	358	838	81	427517	2073097	29274
87	2016-08-10 18:54:22	0	0	0	0	0	0	20.62	3.81	0.04	736688	1	31116	446535	736688	705572	28073	358	839	81	427546	2073118	29351
88	2016-08-10 19:04:22	0	0	0	0	0	0	20.64	3.81	0.04	737780	1	31189	446986	737780	706591	28108	358	840	81	427960	2073140	29387
89	2016-08-10 19:14:32	0	0	0	0	0	0	20.68	3.81	0.04	739667	1	31315	447891	739667	708352	28184	358	841	81	428789	2073155	29464
90	2016-08-10 19:24:30	0	0	0	0	0	0	20.71	3.81	0.04	740629	1	31367	448573	740629	709262	28221	358	842	81	429414	2073182	29502
91	2016-08-10 19:34:27	0	0	0	0	0	0	20.72	3.81	0.04	742542	1	31478	448833	742542	711064	28292	358	843	81	429652	2073190	29574
92	2016-08-10 19:44:29	0	0	0	0	0	0	20.82	3.81	0.04	743477	1	31542	450924	743477	711935	28325	360	845	81	431569	2073214	29611
93	2016-08-10 19:54:26	0	0	0	0	0	0	20.82	3.81	0.04	745543	1	31696	450924	745543	713847	28406	360	847	81	431629	2073237	29694
94	2016-08-10 20:04:23	0	0	0	0	0	0	20.82	3.81	0.04	746565	1	31767	450924	746565	714798	28426	360	848	81	431629	2073257	29715
95	2016-08-10 20:14:24	0	0	0	0	0	0	20.88	3.81	0.04	748386	1	31887	452324	748386	716499	28503	360	849	81	432911	2073285	29793
96	2016-08-10 20:24:23	0	0	0	0	0	0	20.88	3.81	0.04	749364	1	31957	452423	749364	717407	28539	362	851	81	433002	2073302	29833
97	2016-08-10 20:34:26	0	0	0	0	0	0	20.98	3.81	0.04	751429	1	32109	454682	751429	719320	28605	364	851	81	435071	2073328	29901
98	2016-08-10 20:44:25	0	0	0	0	0	0	21	3.81	0.04	752439	1	32189	455200	752439	720250	28638	364	852	81	435422	2073349	29935
99	2016-08-10 20:54:27	0	0	0	0	0	0	21.03	3.81	0.04	754450	1	32340	456105	754450	722110	28722	364	852	81	436005	2073397	30019
100	2016-08-10 21:04:25	0	0	0	0	0	0	21.05	3.81	0.04	755346	1	32406	456644	755346	722940	28756	364	853	81	436497	2073417	30054
101	2016-08-10 21:14:31	0	0	0	0	0	0	21.13	3.81	0.04	757069	1	32527	457470	757069	724542	28817	364	853	81	438118	2073449	30115
102	2016-08-10 21:24:26	0	0	0	0	0	0	21.13	3.81	0.04	758045	1	32599	457470	758045	725446	28847	364	853	81	438118	2073497	30145
103	2016-08-10 21:34:31	0	0	0	0	0	0	21.14	3.8	0.05	759874	1	32747	457673	759874	727127	28909	366	856	81	438304	2073527	30212
104	2016-08-10 21:44:24	0	0	0	0	0	0	21.16	3.8	0.05	760797	1	32824	458350	760797	727973	28938	366	856	81	438676	2073560	30241
105	2016-08-10 21:54:26	0	0	0	0	0	0	21.16	3.81	0.05	762798	1	32991	458482	762798	729807	29026	366	856	81	438797	2073594	30329
106	2016-08-10 22:04:25	0	0	0	0	0	0	21.17	3.81	0.05	763693	1	33071	458754	763693	730622	29073	366	857	81	439046	2073621	30377
107	2016-08-10 22:14:23	0	0	0	0	0	0	21.2	3.81	0.05	765784	1	33262	459290	765784	732522	29145	366	857	81	439537	2073654	30449
108	2016-08-10 22:24:33	0	0	0	0	0	0	21.2	3.81	0.05	766637	1	33326	459494	766637	733311	29177	366	857	81	439724	2073699	30481
109	2016-08-10 22:34:26	0	0	0	0	0	0	21.27	3.8	0.05	768598	1	33484	460999	768598	735114	29235	366	858	81	441102	2073740	30540
110	2016-08-10 22:44:26	0	0	0	0	0	0	21.29	3.8	0.05	769394	1	33552	461377	769394	735842	29269	366	860	82	441448	2073791	30577
111	2016-08-10 22:54:23	0	0	0	0	0	0	21.3	3.8	0.05	771152	1	33693	462134	771152	737459	29325	370	860	82	441700	2073824	30637
112	2016-08-10 23:04:34	0	0	0	0	0	0	21.31	3.8	0.05	772094	1	33794	462410	772094	738300	29354	374	861	83	441952	2073871	30672
113	2016-08-10 23:14:24	0	0	0	0	0	0	21.35	3.8	0.05	773845	1	33966	463379	773845	739879	29405	374	862	83	442837	2073904	30724
114	2016-08-10 23:24:33	0	0	0	0	0	0	21.37	3.8	0.05	774850	1	34054	463726	774850	740796	29441	374	863	84	443154	2073933	30762
115	2016-08-10 23:34:26	0	0	0	0	0	0	21.39	3.8	0.05	776389	1	34195	464491	776389	742194	29489	374	863	84	443662	2073965	30810
116	2016-08-10 23:44:24	0	0	0	0	0	0	21.42	3.8	0.05	777068	1	34252	465050	777068	742816	29516	374	864	84	444171	2073996	30838
117	2016-08-10 23:54:23	0	0	0	0	0	0	21.44	3.8	0.05	778538	1	34373	465679	778538	744165	29565	376	865	84	444745	2074016	30890
118	2016-08-11 00:04:22	0	0	0	0	0	0	21.44	3.8	0.05	779085	1	34429	465679	779085	744656	29584	376	865	84	444777	2074055	30909
119	2016-08-11 00:14:32	0	0	0	0	0	0	21.47	3.8	0.05	780352	1	34544	466240	780352	745808	29640	376	865	84	445289	2074078	30965
120	2016-08-11 00:24:31	0	0	0	0	0	0	21.49	3.8	0.05	781363	1	34630	467084	781363	746733	29672	376	865	84	445802	2074105	30997
121	2016-08-11 00:34:27	0	0	0	0	0	0	21.49	3.8	0.05	781884	1	34679	467084	781884	747205	29690	376	865	84	445802	2074140	31015
122	2016-08-11 00:44:24	0	0	0	0	0	0	21.54	3.8	0.05	782827	1	34757	468055	782827	748070	29716	376	866	84	446686	2074166	31042
123	2016-08-11 00:54:32	0	0	0	0	0	0	21.57	3.8	0.05	783283	1	34788	468905	783283	748495	29731	376	866	84	447461	2074190	31057
124	2016-08-11 01:04:32	0	0	0	0	0	0	21.64	3.8	0.05	784081	1	34847	470473	784081	749234	29760	376	866	84	448888	2074199	31086
125	2016-08-11 01:14:32	0	0	0	0	0	0	21.65	3.8	0.05	784397	1	34864	470580	784397	749533	29775	376	866	84	448985	2074212	31101
126	2016-08-11 01:24:32	0	0	0	0	0	0	21.65	3.8	0.05	785052	1	34922	470580	785052	750130	29802	376	868	84	448985	2074230	31130
127	2016-08-11 01:34:24	0	0	0	0	0	0	21.65	3.8	0.05	785369	1	34948	470580	785369	750421	29816	376	868	84	448985	2074248	31144
128	2016-08-11 01:44:24	0	0	0	0	0	0	21.67	3.8	0.05	785871	1	34975	471063	785871	750896	29837	376	868	84	449425	2074258	31165
129	2016-08-11 01:54:23	0	0	0	0	0	0	21.68	3.8	0.05	786164	1	34999	471310	786164	751165	29847	376	868	84	449650	2074269	31175
130	2016-08-11 02:04:31	0	0	0	0	0	0	21.64	3.8	0.05	786573	1	35027	471310	786573	751546	29862	376	868	84	449650	2077411	31190
131	2016-08-11 02:14:26	0	0	0	0	0	0	21.64	3.8	0.05	786774	1	35044	471310	786774	751730	29870	378	868	84	449650	2077415	31200
132	2016-08-11 02:24:31	0	0	0	0	0	0	21.65	3.8	0.05	786971	1	35055	471346	786971	751916	29876	378	868	84	449682	2077424	31206
133	2016-08-11 02:34:25	0	0	0	0	0	0	21.65	3.8	0.05	787317	1	35086	471346	787317	752231	29887	380	868	84	449682	2077428	31219
134	2016-08-11 02:44:23	0	0	0	0	0	0	21.65	3.8	0.05	787594	1	35102	471346	787594	752492	29898	380	868	84	449682	2077432	31230
135	2016-08-11 02:54:31	0	0	0	0	0	0	21.65	3.8	0.05	787727	1	35113	471346	787727	752614	29903	380	868	84	449682	2077436	31235
136	2016-08-11 03:04:24	0	0	0	0	0	0	21.65	3.79	0.05	788022	1	35122	471346	788022	752888	29904	380	868	84	449682	2077445	31236
137	2016-08-11 03:14:26	0	0	0	0	0	0	21.65	3.8	0.05	788158	1	35144	471346	788158	753014	29911	380	868	84	449682	2077447	31243
138	2016-08-11 03:24:25	0	0	0	0	0	0	21.65	3.79	0.05	788385	1	35158	471346	788385	753227	29918	380	869	84	449682	2077449	31251
139	2016-08-11 03:34:33	0	0	0	0	0	0	21.65	3.79	0.05	788496	1	35171	471346	788496	753325	29920	380	869	84	449682	2077454	31253
140	2016-08-11 03:44:32	0	0	0	0	0	0	21.65	3.79	0.05	788692	1	35175	471346	788692	753509	29921	380	869	84	449682	2077454	31254
141	2016-08-11 03:54:32	0	0	0	0	0	0	21.65	3.79	0.05	788781	1	35193	471346	788781	753588	29930	380	869	84	449682	2077455	31263
142	2016-08-11 04:04:27	0	0	0	0	0	0	21.65	3.79	0.05	788857	1	35201	471417	788857	753656	29934	380	869	84	449748	2077454	31267
143	2016-08-11 04:14:32	0	0	0	0	0	0	21.65	3.79	0.05	788998	1	35215	471417	788998	753783	29941	380	869	84	449748	2077455	31274
144	2016-08-11 04:24:24	0	0	0	0	0	0	21.65	3.79	0.05	789127	1	35223	471417	789127	753904	29946	380	869	84	449748	2077455	31279
145	2016-08-11 04:34:23	0	0	0	0	0	0	21.65	3.79	0.05	789203	1	35228	471417	789203	753975	29948	380	869	84	449748	2077455	31281
146	2016-08-11 04:44:31	0	0	0	0	0	0	21.65	3.79	0.05	789368	1	35247	471417	789368	754121	29953	380	869	84	449748	2077458	31286
147	2016-08-11 04:54:26	0	0	0	0	0	0	21.65	3.79	0.05	789434	1	35255	471417	789434	754179	29953	380	869	84	449748	2077461	31286
148	2016-08-11 05:04:31	0	0	0	0	0	0	21.65	3.79	0.05	789573	1	35270	471417	789573	754303	29960	380	869	84	449748	2077463	31293
149	2016-08-11 05:14:26	0	0	0	0	0	0	21.65	3.79	0.05	789651	1	35277	471417	789651	754374	29960	380	869	84	449748	2077466	31293
150	2016-08-11 05:24:24	0	0	0	0	0	0	21.65	3.79	0.05	789832	1	35295	471417	789832	754537	29967	380	869	84	449748	2077470	31300
151	2016-08-11 05:34:35	0	0	0	0	0	0	21.7	3.79	0.05	789920	1	35305	472497	789920	754615	29967	380	870	84	450730	2077475	31301
152	2016-08-11 05:44:28	0	0	0	0	0	0	21.7	3.79	0.05	790172	1	35327	472497	790172	754845	29970	380	870	84	450730	2077476	31304
153	2016-08-11 05:54:28	0	0	0	0	0	0	21.7	3.79	0.05	790276	1	35330	472497	790276	754946	29972	380	870	84	450730	2077481	31306
154	2016-08-11 06:04:24	0	0	0	0	0	0	21.72	3.79	0.05	790569	1	35346	473074	790569	755223	29979	380	871	84	451255	2077486	31314
155	2016-08-11 06:14:24	0	0	0	0	0	0	21.72	3.79	0.05	790703	1	35358	473128	790703	755345	29982	380	871	84	451304	2077486	31317
156	2016-08-11 06:24:24	0	0	0	0	0	0	21.72	3.79	0.05	790985	1	35373	473128	790985	755612	29991	380	871	84	451304	2077498	31326
157	2016-08-11 06:34:24	0	0	0	0	0	0	21.72	3.79	0.05	791139	1	35384	473128	791139	755755	29995	380	871	84	451304	2077501	31330
158	2016-08-11 06:44:32	0	0	0	0	0	0	21.72	3.79	0.05	791516	1	35415	473128	791516	756101	30003	380	871	84	451304	2077510	31338
159	2016-08-11 06:54:27	0	0	0	0	0	0	21.72	3.79	0.05	791681	1	35421	473128	791681	756260	30008	380	871	84	451304	2077515	31343
160	2016-08-11 07:04:27	0	0	0	0	0	0	21.72	3.79	0.05	791905	1	35435	473128	791905	756470	30015	380	871	84	451304	2077525	31350
161	2016-08-11 07:14:27	0	0	0	0	0	0	21.72	3.79	0.05	792406	1	35471	473345	792406	756935	30035	380	871	84	451304	2077531	31370
162	2016-08-11 07:24:32	0	0	0	0	0	0	21.72	3.79	0.05	792620	1	35486	473345	792620	757134	30040	380	871	84	451304	2077548	31375
163	2016-08-11 07:34:34	0	0	0	0	0	0	21.75	3.79	0.05	793184	1	35540	473997	793184	757644	30059	380	871	84	451897	2077560	31394
164	2016-08-11 07:44:33	0	0	0	0	0	0	21.76	3.79	0.05	793506	1	35560	474288	793506	757946	30072	380	871	84	452161	2077575	31407
165	2016-08-11 07:54:30	0	0	0	0	0	0	21.78	3.79	0.05	793785	1	35575	474570	793785	758210	30075	380	871	84	452417	2077587	31410
166	2016-08-11 08:04:27	0	0	0	0	0	0	21.79	3.79	0.05	794462	1	35619	474861	794462	758843	30093	380	871	84	452682	2077598	31428
167	2016-08-11 08:14:30	0	0	0	0	0	0	21.81	3.79	0.05	794770	1	35638	475444	794770	759132	30104	380	871	84	453212	2077607	31439
168	2016-08-11 08:24:27	0	0	0	0	0	0	21.81	3.79	0.05	795460	1	35687	475444	795460	759773	30125	380	871	84	453212	2077628	31460
169	2016-08-11 08:34:34	0	0	0	0	0	0	21.82	3.79	0.05	796041	1	35734	475517	796041	760307	30145	380	871	84	453278	2077649	31480
170	2016-08-11 08:44:28	0	0	0	0	0	0	21.82	3.79	0.05	796289	1	35753	475517	796289	760536	30153	380	871	84	453278	2077665	31488
171	2016-08-11 08:54:29	0	0	0	0	0	0	21.83	3.79	0.05	796722	1	35787	475882	796722	760935	30178	380	871	84	453610	2077690	31513
172	2016-08-11 09:04:28	0	0	0	0	0	0	21.83	3.79	0.05	796911	1	35802	475882	796911	761109	30187	380	871	84	453610	2077710	31522
173	2016-08-11 09:14:28	0	0	0	0	0	0	21.85	3.79	0.05	797246	1	35832	476248	797246	761414	30200	380	871	84	453943	2077728	31535
174	2016-08-11 09:24:34	0	0	0	0	0	0	21.85	3.79	0.05	797555	1	35870	476248	797555	761685	30206	380	871	84	453943	2077749	31541
175	2016-08-11 09:34:37	0	0	0	0	0	0	21.87	3.79	0.05	797715	1	35879	476835	797715	761836	30215	380	871	84	454476	2077768	31550
176	2016-08-11 09:44:30	0	0	0	0	0	0	21.87	3.79	0.05	797876	1	35902	476835	797876	761974	30224	380	871	84	454476	2077802	31559
177	2016-08-11 09:54:30	0	0	0	0	0	0	21.87	3.79	0.05	798161	1	35949	476835	798161	762212	30245	380	872	84	454476	2077835	31581
178	2016-08-11 10:04:31	0	0	0	0	0	0	21.87	3.79	0.05	798271	1	35966	476835	798271	762305	30250	380	872	84	454476	2077857	31586
179	2016-08-11 10:14:29	0	0	0	0	0	0	21.88	3.79	0.05	798503	1	35994	476909	798503	762509	30259	380	872	84	454542	2077887	31595
180	2016-08-11 10:24:38	0	0	0	0	0	0	21.87	3.79	0.05	798615	1	36018	476909	798615	762597	30262	380	872	84	454542	2077924	31598
181	2016-08-11 10:34:40	0	0	0	0	0	0	21.87	3.79	0.05	798807	1	36056	476909	798807	762751	30267	380	872	84	454542	2077951	31603
182	2016-08-11 10:44:38	0	0	0	0	0	0	21.87	3.79	0.05	798900	1	36072	476909	798900	762828	30272	380	872	84	454542	2077975	31608
183	2016-08-11 10:54:35	0	0	0	0	0	0	21.87	3.79	0.05	799097	1	36117	476909	799097	762980	30278	380	872	84	454542	2078007	31614
184	2016-08-11 11:04:36	0	0	0	0	0	0	21.9	3.79	0.05	799166	1	36137	477460	799166	763029	30282	380	872	84	455043	2078047	31618
185	2016-08-11 11:14:30	0	0	0	0	0	0	21.9	3.79	0.05	799357	1	36181	477460	799357	763176	30288	380	872	84	455043	2078077	31624
186	2016-08-11 11:24:32	0	0	0	0	0	0	21.9	3.79	0.05	799448	1	36207	477460	799448	763241	30290	380	872	84	455043	2078117	31626
187	2016-08-11 11:34:30	0	0	0	0	0	0	21.92	3.79	0.05	799591	1	36224	478013	799591	763367	30294	380	872	85	455546	2078163	31631
188	2016-08-11 11:44:33	0	0	0	0	0	0	21.92	3.79	0.05	799653	1	36237	478013	799653	763416	30295	380	872	85	455546	2078201	31632
189	2016-08-11 11:54:31	0	0	0	0	0	0	21.92	3.79	0.05	799738	1	36258	478013	799738	763480	30299	380	872	85	455546	2078236	31636
190	2016-08-11 12:04:31	0	0	0	0	0	0	21.92	3.79	0.05	799864	1	36296	478013	799864	763568	30306	380	872	85	455546	2078261	31643
191	2016-08-11 12:14:39	0	0	0	0	0	0	21.92	3.79	0.05	799943	1	36312	478013	799943	763631	30308	380	872	85	455546	2078305	31645
192	2016-08-11 12:24:34	0	0	0	0	0	0	21.92	3.79	0.05	800075	1	36347	478013	800075	763728	30314	380	873	85	455546	2078331	31652
193	2016-08-11 12:34:32	0	0	0	0	0	0	21.92	3.79	0.05	800149	1	36362	478013	800149	763787	30316	380	873	85	455546	2078370	31654
194	2016-08-11 12:44:32	0	0	0	0	0	0	21.92	3.79	0.05	800278	1	36391	478013	800278	763887	30319	380	873	85	455546	2078409	31657
195	2016-08-11 12:54:41	0	0	0	0	0	0	21.92	3.79	0.05	800337	1	36410	478013	800337	763927	30319	380	873	85	455546	2078440	31657
196	2016-08-11 13:04:33	0	0	0	0	0	0	21.92	3.79	0.05	800426	1	36429	478603	800426	763997	30322	380	873	85	455546	2078462	31660
197	2016-08-11 13:14:43	0	0	0	0	0	0	21.92	3.79	0.05	800478	1	36447	478603	800478	764031	30324	380	873	85	455546	2078500	31662
198	2016-08-11 13:24:36	0	0	0	0	0	0	21.92	3.79	0.05	800595	1	36474	478603	800595	764121	30329	380	873	85	455546	2078526	31667
199	2016-08-11 13:34:35	0	0	0	0	0	0	21.92	3.79	0.05	800654	1	36499	478603	800654	764155	30332	380	873	85	455546	2078558	31670
200	2016-08-11 13:44:38	0	0	0	0	0	0	21.92	3.79	0.05	800763	1	36535	478603	800763	764228	30333	380	873	85	455546	2078592	31671
201	2016-08-11 13:54:39	0	0	0	0	0	0	21.92	3.79	0.05	800809	1	36556	478621	800809	764253	30335	380	873	85	455562	2078628	31673
202	2016-08-11 14:04:43	0	0	0	0	0	0	21.92	3.79	0.05	800869	1	36572	478621	800869	764297	30339	380	873	85	455562	2078667	31677
203	2016-08-11 14:14:43	0	0	0	0	0	0	21.92	3.79	0.05	800963	1	36592	478621	800963	764371	30343	380	873	85	455562	2078696	31681
204	2016-08-11 14:24:33	0	0	0	0	0	0	21.92	3.79	0.05	801005	1	36603	478621	801005	764402	30346	380	873	85	455562	2078721	31684
205	2016-08-11 14:34:35	0	0	0	0	0	0	21.92	3.79	0.05	801085	1	36626	478621	801085	764459	30349	380	873	85	455562	2078745	31687
206	2016-08-11 14:44:43	0	0	0	0	0	0	21.92	3.79	0.05	801134	1	36638	478621	801134	764496	30351	380	873	85	455562	2078765	31689
207	2016-08-11 14:54:38	0	0	0	0	0	0	21.91	3.79	0.05	801245	1	36673	478621	801245	764572	30357	380	873	85	455562	2078796	31695
208	2016-08-11 15:04:44	0	0	0	0	0	0	21.91	3.79	0.05	801300	1	36687	478621	801300	764613	30358	380	873	85	455562	2078822	31696
209	2016-08-11 15:14:36	0	0	0	0	0	0	21.91	3.79	0.05	801395	1	36710	478621	801395	764685	30358	380	873	85	455562	2078847	31696
210	2016-08-11 15:24:35	0	0	0	0	0	0	21.91	3.79	0.05	801432	1	36722	478621	801432	764710	30360	380	873	85	455562	2078875	31698
211	2016-08-11 15:35:29	0	0	0	0	0	0	21.91	3.79	0.05	801499	1	36744	478621	801499	764755	30362	380	873	85	455562	2078907	31700
212	2016-08-11 15:44:37	0	0	0	0	0	0	21.91	3.79	0.05	801553	1	36758	478769	801553	764795	30364	380	873	85	455562	2078937	31702
213	2016-08-11 15:54:37	0	0	0	0	0	0	21.91	3.79	0.05	801588	1	36767	478769	801588	764821	30365	380	873	85	455562	2078963	31703
214	2016-08-11 16:04:37	0	0	0	0	0	0	21.91	3.79	0.05	801664	1	36785	478769	801664	764879	30369	380	873	85	455562	2078988	31707
215	2016-08-11 16:14:38	0	0	0	0	0	0	21.91	3.79	0.05	801739	1	36804	478769	801739	764935	30372	380	873	85	455562	2079006	31710
216	2016-08-11 16:24:37	0	0	0	0	0	0	21.91	3.79	0.05	801782	1	36819	478769	801782	764963	30374	380	873	85	455562	2079031	31712
217	2016-08-11 16:34:40	0	0	0	0	0	0	21.91	3.79	0.05	801823	1	36831	478769	801823	764992	30376	380	873	85	455562	2079066	31714
218	2016-08-11 16:44:38	0	0	0	0	0	0	21.91	3.79	0.05	801877	1	36847	478769	801877	765030	30376	380	873	85	455562	2079103	31714
219	2016-08-11 16:54:38	0	0	0	0	0	0	21.91	3.79	0.05	801908	1	36860	478769	801908	765048	30376	380	873	85	455562	2079146	31714
220	2016-08-11 17:04:40	0	0	0	0	0	0	21.94	3.79	0.05	801955	1	36874	478769	801955	765081	30377	380	873	85	456099	2079204	31715
221	2016-08-11 17:14:38	0	0	0	0	0	0	21.94	3.79	0.05	801988	1	36884	478769	801988	765104	30378	380	873	85	456099	2079252	31716
222	2016-08-11 17:24:41	0	0	0	0	0	0	21.94	3.79	0.05	802044	1	36901	478769	802044	765143	30379	380	873	85	456099	2079286	31717
223	2016-08-11 17:34:45	0	0	0	0	0	0	21.94	3.79	0.05	802103	1	36920	478769	802103	765183	30379	380	873	85	456099	2079314	31717
224	2016-08-11 17:44:46	0	0	0	0	0	0	21.93	3.79	0.05	802139	1	36930	478769	802139	765209	30382	380	873	85	456099	2079357	31720
225	2016-08-11 17:54:43	0	0	0	0	0	0	21.93	3.79	0.05	802208	1	36961	478769	802208	765247	30386	380	873	85	456099	2079388	31724
226	2016-08-11 18:04:40	0	0	0	0	0	0	21.93	3.79	0.05	802245	1	36973	478769	802245	765272	30387	380	873	85	456099	2079439	31725
227	2016-08-11 18:14:38	0	0	0	0	0	0	21.93	3.79	0.05	802276	1	36986	478769	802276	765290	30388	380	873	85	456099	2079471	31726
228	2016-08-11 18:24:41	0	0	0	0	0	0	21.93	3.79	0.05	802337	1	37005	478769	802337	765332	30390	380	873	85	456099	2079508	31728
229	2016-08-11 18:34:42	0	0	0	0	0	0	21.93	3.79	0.05	802383	1	37015	478769	802383	765368	30392	380	873	85	456099	2079545	31730
230	2016-08-11 18:44:40	0	0	0	0	0	0	21.93	3.79	0.05	802406	1	37020	478769	802406	765386	30393	380	873	85	456099	2079570	31731
231	2016-08-11 18:54:47	0	0	0	0	0	0	21.93	3.79	0.05	802458	1	37034	478769	802458	765424	30394	380	873	85	456099	2079602	31732
232	2016-08-11 19:05:28	0	0	0	0	0	0	21.93	3.79	0.05	802496	1	37039	478769	802496	765452	30395	380	873	85	456099	2079645	31733
233	2016-08-11 19:14:44	0	0	0	0	0	0	21.93	3.79	0.05	802517	1	37049	478769	802517	765468	30395	380	873	85	456099	2079695	31733
234	2016-08-11 19:25:23	0	0	0	0	0	0	21.93	3.79	0.05	802571	1	37076	478769	802571	765495	30395	380	873	85	456099	2079748	31733
235	2016-08-11 19:35:22	0	0	0	0	0	0	21.93	3.79	0.05	802591	1	37081	478769	802591	765510	30396	380	874	85	456099	2079786	31735
236	2016-08-11 19:44:47	0	0	0	0	0	0	21.93	3.79	0.05	802649	1	37101	478769	802649	765548	30398	380	874	85	456099	2079821	31737
237	2016-08-11 19:54:42	0	0	0	0	0	0	21.93	3.79	0.05	802678	1	37106	478769	802678	765572	30399	380	874	85	456099	2079849	31738
238	2016-08-11 20:05:27	0	0	0	0	0	0	21.93	3.79	0.05	802710	1	37118	478769	802710	765592	30400	380	874	85	456099	2079887	31739
239	2016-08-11 20:14:45	0	0	0	0	0	0	21.93	3.79	0.05	802741	1	37132	478769	802741	765609	30400	380	874	85	456099	2079924	31739
240	2016-08-11 20:25:21	0	0	0	0	0	0	21.93	3.79	0.05	802788	1	37149	478769	802788	765639	30400	380	874	85	456099	2079970	31739
241	2016-08-11 20:35:29	0	0	0	0	0	0	21.93	3.79	0.05	802809	1	37153	478769	802809	765656	30401	380	874	85	456099	2080009	31740
242	2016-08-11 20:45:25	0	0	0	0	0	0	21.93	3.79	0.05	802860	1	37169	478769	802860	765691	30402	380	874	85	456099	2080035	31741
243	2016-08-11 20:54:45	0	0	0	0	0	0	21.93	3.79	0.05	802888	1	37176	478769	802888	765712	30404	380	874	85	456099	2080084	31743
244	2016-08-11 21:04:46	0	0	0	0	0	0	21.93	3.79	0.05	802928	1	37184	478769	802928	765744	30404	380	874	85	456099	2080136	31743
245	2016-08-11 21:14:45	0	0	0	0	0	0	21.93	3.79	0.05	802957	1	37191	478769	802957	765766	30405	380	874	85	456099	2080170	31744
246	2016-08-11 21:25:27	0	0	0	0	0	0	21.93	3.79	0.05	802991	1	37204	478769	802991	765787	30407	380	874	85	456099	2080210	31746
247	2016-08-11 21:35:25	0	0	0	0	0	0	21.93	3.79	0.05	803004	1	37207	478769	803004	765797	30407	380	874	85	456099	2080245	31746
248	2016-08-11 21:44:45	0	0	0	0	0	0	21.92	3.79	0.05	803054	1	37224	478769	803054	765830	30409	380	875	85	456099	2080282	31749
249	2016-08-11 21:55:30	0	0	0	0	0	0	21.92	3.79	0.05	803082	1	37233	478769	803082	765849	30411	380	875	85	456099	2080333	31751
250	2016-08-11 22:04:48	0	0	0	0	0	0	21.92	3.79	0.05	803132	1	37250	478769	803132	765882	30412	380	875	85	456099	2080374	31752
251	2016-08-11 22:15:30	0	0	0	0	0	0	21.92	3.79	0.05	803160	1	37253	478769	803160	765907	30413	380	875	85	456099	2080430	31753
252	2016-08-11 22:24:44	0	0	0	0	0	0	21.92	3.79	0.05	803218	1	37273	478769	803218	765945	30413	380	875	85	456099	2080466	31753
253	2016-08-11 22:34:44	0	0	0	0	0	0	21.92	3.79	0.05	803241	1	37279	478769	803241	765962	30414	380	875	85	456099	2080499	31754
254	2016-08-11 22:44:44	0	0	0	0	0	0	21.92	3.79	0.05	803285	1	37292	478769	803285	765993	30414	380	875	85	456099	2080552	31754
255	2016-08-11 22:54:44	0	0	0	0	0	0	21.92	3.79	0.05	803315	1	37303	478769	803315	766012	30415	380	875	85	456099	2080604	31755
256	2016-08-11 23:05:26	0	0	0	0	0	0	21.92	3.79	0.05	803370	1	37320	479066	803370	766050	30415	382	875	85	456099	2080652	31757
257	2016-08-11 23:14:53	0	0	0	0	0	0	21.92	3.79	0.05	803409	1	37326	479066	803409	766083	30416	382	876	85	456099	2080694	31759
258	2016-08-11 23:24:47	0	0	0	0	0	0	21.92	3.79	0.05	803430	1	37334	479066	803430	766096	30416	382	876	85	456099	2080729	31759
259	2016-08-11 23:34:47	0	0	0	0	0	0	21.92	3.79	0.05	803450	1	37338	479066	803450	766112	30417	382	876	85	456099	2080765	31760
260	2016-08-11 23:44:45	0	0	0	0	0	0	21.92	3.79	0.05	803506	1	37363	479066	803506	766143	30418	382	876	85	456099	2080802	31761
261	2016-08-11 23:55:28	0	0	0	0	0	0	21.92	3.79	0.05	803537	1	37370	479066	803537	766167	30419	382	876	85	456099	2080831	31762
262	2016-08-12 00:05:25	0	0	0	0	0	0	21.92	3.79	0.05	803554	1	37375	479066	803554	766179	30419	382	876	85	456099	2080871	31762
263	2016-08-12 00:14:44	0	0	0	0	0	0	21.92	3.79	0.05	803588	1	37385	479066	803588	766203	30420	382	876	85	456099	2080891	31763
264	2016-08-12 00:24:43	0	0	0	0	0	0	21.92	3.79	0.05	803603	1	37391	479066	803603	766212	30420	382	876	85	456099	2080917	31763
265	2016-08-12 00:34:50	0	0	0	0	0	0	21.92	3.79	0.05	803625	1	37399	479066	803625	766226	30420	382	876	85	456099	2080939	31763
266	2016-08-12 00:44:43	0	0	0	0	0	0	21.92	3.79	0.05	803637	1	37402	479066	803637	766235	30420	382	876	85	456099	2080960	31763
267	2016-08-12 00:54:48	0	0	0	0	0	0	21.92	3.79	0.05	803660	1	37410	479066	803660	766250	30421	382	876	85	456099	2080979	31764
268	2016-08-12 01:04:42	0	0	0	0	0	0	21.92	3.79	0.05	803670	1	37414	479066	803670	766256	30421	382	876	85	456099	2080991	31764
269	2016-08-12 01:14:43	0	0	0	0	0	0	21.92	3.79	0.05	803693	1	37420	479066	803693	766273	30422	382	876	85	456099	2081006	31765
270	2016-08-12 01:24:43	0	0	0	0	0	0	21.92	3.79	0.05	803698	1	37420	479066	803698	766278	30422	382	876	85	456099	2081014	31765
271	2016-08-12 01:34:45	0	0	0	0	0	0	21.92	3.79	0.05	803709	1	37422	479066	803709	766287	30423	382	876	85	456099	2081025	31766
272	2016-08-12 01:44:44	0	0	0	0	0	0	21.92	3.79	0.05	803718	1	37424	479066	803718	766294	30423	382	876	85	456099	2081041	31766
273	2016-08-12 01:54:46	0	0	0	0	0	0	21.92	3.79	0.05	803726	1	37425	479066	803726	766301	30423	382	876	85	456099	2081052	31766
274	2016-08-12 02:04:44	0	0	0	0	0	0	21.91	3.79	0.05	803735	1	37428	479066	803735	766307	30424	382	876	85	456099	2081978	31767
275	2016-08-12 02:14:44	0	0	0	0	0	0	21.91	3.79	0.05	803751	1	37432	479066	803751	766319	30424	382	876	85	456099	2081990	31767
276	2016-08-12 02:24:42	0	0	0	0	0	0	21.91	3.79	0.05	803754	1	37433	479066	803754	766321	30424	382	876	85	456099	2081991	31767
277	2016-08-12 02:34:46	0	0	0	0	0	0	21.91	3.79	0.05	803760	1	37433	479066	803760	766327	30426	382	876	85	456099	2081997	31769
278	2016-08-12 02:44:45	0	0	0	0	0	0	21.91	3.79	0.05	803767	1	37434	479066	803767	766333	30426	382	876	85	456099	2082003	31769
279	2016-08-12 02:54:44	0	0	0	0	0	0	21.91	3.79	0.05	803772	1	37435	479066	803772	766337	30426	382	876	85	456099	2082013	31769
280	2016-08-12 03:04:42	0	0	0	0	0	0	21.91	3.79	0.05	803776	1	37438	479066	803776	766338	30426	382	876	85	456099	2082016	31769
281	2016-08-12 03:14:45	0	0	0	0	0	0	21.91	3.79	0.05	803779	1	37438	479066	803779	766341	30426	382	876	85	456099	2082017	31769
282	2016-08-12 03:24:45	0	0	0	0	0	0	21.91	3.79	0.05	803785	1	37439	479066	803785	766346	30427	382	876	85	456099	2082019	31770
283	2016-08-12 03:34:45	0	0	0	0	0	0	21.91	3.79	0.05	803786	1	37439	479066	803786	766347	30427	382	876	85	456099	2082021	31770
284	2016-08-12 03:44:47	0	0	0	0	0	0	21.91	3.79	0.05	803786	1	37439	479066	803786	766347	30427	382	876	85	456099	2082026	31770
285	2016-08-12 03:54:44	0	0	0	0	0	0	21.91	3.79	0.05	803788	1	37439	479066	803788	766349	30427	382	876	85	456099	2082028	31770
286	2016-08-12 04:04:43	0	0	0	0	0	0	21.91	3.79	0.05	803794	1	37440	479066	803794	766354	30428	382	876	85	456099	2082033	31771
287	2016-08-12 04:14:45	0	0	0	0	0	0	21.91	3.79	0.05	803797	1	37441	479066	803797	766356	30428	382	876	85	456099	2082034	31771
288	2016-08-12 04:24:42	0	0	0	0	0	0	21.91	3.79	0.05	803802	1	37442	479066	803802	766360	30428	382	876	85	456099	2082037	31771
289	2016-08-12 04:34:44	0	0	0	0	0	0	21.91	3.79	0.05	803806	1	37443	479066	803806	766363	30429	382	876	85	456099	2082044	31772
290	2016-08-12 04:44:43	0	0	0	0	0	0	21.91	3.79	0.05	803807	1	37443	479066	803807	766364	30429	382	876	85	456099	2082052	31772
291	2016-08-12 04:54:43	0	0	0	0	0	0	21.91	3.79	0.05	803812	1	37445	479066	803812	766367	30429	382	876	85	456099	2082053	31772
292	2016-08-12 05:04:47	0	0	0	0	0	0	21.91	3.79	0.05	803819	1	37446	479066	803819	766373	30429	382	876	85	456099	2082054	31772
293	2016-08-12 05:14:44	0	0	0	0	0	0	21.91	3.79	0.05	803821	1	37446	479066	803821	766375	30429	382	876	85	456099	2082055	31772
294	2016-08-12 05:24:48	0	0	0	0	0	0	21.91	3.79	0.05	803823	1	37446	479066	803823	766377	30429	382	876	85	456099	2082058	31772
295	2016-08-12 05:35:00	0	0	0	0	0	0	21.91	3.79	0.05	803834	1	37447	479066	803834	766387	30429	382	876	85	456099	2082062	31772
296	2016-08-12 05:44:49	0	0	0	0	0	0	21.91	3.79	0.05	803841	1	37447	479066	803841	766394	30429	382	876	85	456099	2082068	31772
297	2016-08-12 05:54:46	0	0	0	0	0	0	21.91	3.79	0.05	803843	1	37447	479066	803843	766396	30429	382	876	85	456099	2082070	31772
298	2016-08-12 06:04:43	0	0	0	0	0	0	21.91	3.79	0.05	803844	1	37447	479066	803844	766397	30429	382	876	85	456099	2082073	31772
299	2016-08-12 06:14:47	0	0	0	0	0	0	21.91	3.79	0.05	803848	1	37449	479066	803848	766399	30429	382	876	85	456099	2082078	31772
300	2016-08-12 06:24:48	0	0	0	0	0	0	21.91	3.79	0.05	803857	1	37454	479066	803857	766403	30429	382	876	85	456099	2082084	31772
301	2016-08-12 06:34:53	0	0	0	0	0	0	21.91	3.79	0.05	803861	1	37456	479066	803861	766405	30429	382	876	85	456099	2082092	31772
302	2016-08-12 06:44:47	0	0	0	0	0	0	21.91	3.79	0.05	803869	1	37460	479066	803869	766409	30430	382	876	85	456099	2082100	31773
303	2016-08-12 06:54:46	0	0	0	0	0	0	21.91	3.79	0.05	803871	1	37460	479066	803871	766411	30430	382	876	85	456099	2082108	31773
304	2016-08-12 07:04:46	0	0	0	0	0	0	21.91	3.79	0.05	803874	1	37461	479066	803874	766413	30430	382	876	85	456099	2082116	31773
305	2016-08-12 07:14:48	0	0	0	0	0	0	21.91	3.79	0.05	803879	1	37461	479066	803879	766418	30430	382	876	85	456099	2082120	31773
306	2016-08-12 07:24:46	0	0	0	0	0	0	21.91	3.79	0.05	803886	1	37464	479066	803886	766422	30430	382	876	85	456099	2082132	31773
307	2016-08-12 07:34:46	0	0	0	0	0	0	21.91	3.79	0.05	803889	1	37465	479066	803889	766424	30430	382	876	85	456099	2082144	31773
308	2016-08-12 07:44:49	0	0	0	0	0	0	21.91	3.79	0.05	803897	1	37469	479066	803897	766428	30430	382	877	85	456099	2082156	31774
309	2016-08-12 07:54:48	0	0	0	0	0	0	21.9	3.79	0.05	803905	1	37473	479066	803905	766432	30430	382	877	85	456099	2082178	31774
310	2016-08-12 08:04:49	0	0	0	0	0	0	21.9	3.79	0.05	803920	1	37480	479066	803920	766440	30431	382	877	85	456099	2082195	31775
311	2016-08-12 08:14:49	0	0	0	0	0	0	21.9	3.79	0.05	803923	1	37481	479066	803923	766442	30431	382	877	85	456099	2082209	31775
312	2016-08-12 08:24:48	0	0	0	0	0	0	21.91	3.79	0.05	803931	1	37483	479098	803931	766448	30432	382	877	85	456129	2082215	31776
313	2016-08-12 08:34:52	0	0	0	0	0	0	21.91	3.79	0.05	803936	1	37484	479098	803936	766452	30432	382	877	85	456129	2082229	31776
314	2016-08-12 08:44:47	0	0	0	0	0	0	21.91	3.79	0.05	803945	1	37488	479098	803945	766457	30432	382	877	85	456129	2082242	31776
315	2016-08-12 08:54:53	0	0	0	0	0	0	21.91	3.79	0.05	803953	1	37490	479098	803953	766463	30432	382	877	85	456129	2082252	31776
316	2016-08-12 09:04:51	0	0	0	0	0	0	21.91	3.79	0.05	803965	1	37491	479098	803965	766474	30433	382	877	85	456129	2082273	31777
317	2016-08-12 09:14:55	0	0	0	0	0	0	21.91	3.79	0.05	803974	1	37496	479098	803974	766478	30433	382	877	85	456129	2082293	31777
318	2016-08-12 09:24:51	0	0	0	0	0	0	21.9	3.79	0.05	803984	1	37502	479098	803984	766482	30435	382	877	85	456129	2082308	31779
319	2016-08-12 09:51:25	0	0	0	0	0	0	21.9	3.79	0.05	804012	1	37516	479098	804012	766496	30436	382	877	85	456129	2082338	31780
320	2016-08-12 09:52:30	0	0	0	0	0	0	21.9	3.79	0.05	804012	1	37516	479098	804012	766496	30436	382	877	85	456129	2082342	31780
321	2016-08-12 09:54:52	0	0	0	0	0	0	21.9	3.79	0.05	804012	1	37516	479098	804012	766496	30436	382	877	85	456129	2082347	31780
322	2016-08-12 10:04:50	0	0	0	0	0	0	21.9	3.79	0.05	804024	1	37518	479098	804024	766506	30436	382	877	85	456129	2082366	31780
323	2016-08-12 10:14:50	0	0	0	0	0	0	21.9	3.79	0.05	804026	1	37519	479098	804026	766507	30436	382	877	85	456129	2082382	31780
324	2016-08-12 10:25:06	0	0	0	0	0	0	21.9	3.79	0.05	804038	1	37527	479098	804038	766511	30436	382	877	85	456129	2082401	31780
325	2016-08-12 10:34:51	0	0	0	0	0	0	21.9	3.79	0.05	804041	1	37528	479098	804041	766513	30436	382	877	85	456129	2082408	31780
326	2016-08-12 10:44:50	0	0	0	0	0	0	21.9	3.79	0.05	804054	1	37534	479098	804054	766520	30436	382	877	85	456129	2082424	31780
327	2016-08-12 10:54:50	0	0	0	0	0	0	21.9	3.79	0.05	804060	1	37535	479098	804060	766525	30436	382	877	85	456129	2082438	31780
328	2016-08-12 11:04:53	0	0	0	0	0	0	21.9	3.79	0.05	804066	1	37537	479098	804066	766529	30436	382	877	85	456129	2082451	31780
329	2016-08-12 11:14:54	0	0	0	0	0	0	21.9	3.79	0.05	804071	1	37538	479098	804071	766533	30436	382	877	85	456129	2082462	31780
330	2016-08-12 11:24:50	0	0	0	0	0	0	21.9	3.79	0.05	804081	1	37540	479098	804081	766541	30436	382	877	85	456129	2082483	31780
331	2016-08-12 11:34:57	0	0	0	0	0	0	21.9	3.79	0.05	804083	1	37541	479098	804083	766542	30436	382	877	85	456129	2082511	31780
332	2016-08-12 11:44:57	0	0	0	0	0	0	21.9	3.79	0.05	804088	1	37542	479098	804088	766546	30437	382	877	85	456129	2082545	31781
333	2016-08-12 11:54:58	0	0	0	0	0	0	21.9	3.79	0.05	804097	1	37545	479098	804097	766552	30437	382	877	85	456129	2082572	31781
334	2016-08-12 12:05:03	0	0	0	0	0	0	21.9	3.79	0.05	804104	1	37548	479098	804104	766556	30437	382	877	85	456129	2082596	31781
335	2016-08-12 12:15:05	0	0	0	0	0	0	21.9	3.79	0.05	804109	1	37550	479098	804109	766559	30437	382	877	85	456129	2082627	31781
336	2016-08-12 12:25:02	0	0	0	0	0	0	21.9	3.79	0.05	804120	1	37553	479098	804120	766567	30437	382	877	85	456129	2082649	31781
337	2016-08-12 12:35:01	0	0	0	0	0	0	21.9	3.79	0.05	804121	1	37553	479098	804121	766568	30437	382	877	85	456129	2082674	31781
338	2016-08-12 12:44:56	0	0	0	0	0	0	21.9	3.79	0.05	804125	1	37554	479098	804125	766571	30437	382	877	85	456129	2082712	31781
339	2016-08-12 12:54:56	0	0	0	0	0	0	21.9	3.79	0.05	804130	1	37554	479098	804130	766576	30437	382	877	85	456129	2082744	31781
340	2016-08-12 13:04:59	0	0	0	0	0	0	21.9	3.79	0.05	804140	1	37557	479098	804140	766583	30437	382	877	85	456129	2082772	31781
341	2016-08-12 13:14:59	0	0	0	0	0	0	21.9	3.79	0.05	804143	1	37557	479098	804143	766586	30437	382	877	85	456129	2082803	31781
342	2016-08-12 13:24:58	0	0	0	0	0	0	21.9	3.79	0.05	804149	1	37558	479098	804149	766591	30438	382	877	85	456129	2082837	31782
343	2016-08-12 13:34:59	0	0	0	0	0	0	21.9	3.79	0.05	804151	1	37559	479098	804151	766592	30438	382	877	85	456129	2082866	31782
344	2016-08-12 13:45:01	0	0	0	0	0	0	21.9	3.79	0.05	804157	1	37559	479098	804157	766598	30438	382	877	85	456129	2082891	31782
345	2016-08-12 13:55:03	0	0	0	0	0	0	21.9	3.79	0.05	804164	1	37561	479098	804164	766603	30438	382	877	85	456129	2082923	31782
346	2016-08-12 14:05:03	0	0	0	0	0	0	21.9	3.78	0.05	804178	1	37566	479098	804178	766612	30438	382	877	85	456129	2082956	31782
347	2016-08-12 14:14:55	0	0	0	0	0	0	21.9	3.79	0.05	804183	1	37568	479098	804183	766615	30439	382	877	85	456129	2082998	31783
348	2016-08-12 14:25:01	0	0	0	0	0	0	21.9	3.79	0.05	804188	1	37570	479098	804188	766618	30439	382	877	85	456129	2083033	31783
349	2016-08-12 14:34:57	0	0	0	0	0	0	21.9	3.79	0.05	804200	1	37578	479098	804200	766622	30439	382	877	85	456129	2083063	31783
350	2016-08-12 14:45:01	0	0	0	0	0	0	21.9	3.78	0.05	804204	1	37580	479098	804204	766624	30439	382	877	85	456129	2083117	31783
351	2016-08-12 14:55:00	0	0	0	0	0	0	21.9	3.78	0.05	804214	1	37582	479098	804214	766632	30439	382	877	85	456129	2083138	31783
352	2016-08-12 15:05:02	0	0	0	0	0	0	21.9	3.78	0.05	804216	1	37583	479098	804216	766633	30439	382	877	85	456129	2083164	31783
353	2016-08-12 15:15:00	0	0	0	0	0	0	21.9	3.78	0.05	804220	1	37583	479098	804220	766637	30439	382	877	85	456129	2083201	31783
