1	2017-04-22 12:12:00	0	0	0	0	0	0	0	0	0	0	1	0	0	0	0	1	0	1	0	0	2953693	2
2	2017-04-22 12:22:01	0	0	0	0	0	0	1.14	10.22	0	36372	1	132	33777	36372	36240	3718	66	146	28	33596	2953693	3958
3	2017-04-22 12:32:02	0	0	0	0	0	0	1.99	15.51	0.01	67134	1	914	59958	67134	66220	10413	120	268	47	58841	2953693	10848
4	2017-04-22 12:42:02	0	0	0	0	0	0	2.61	18.09	0.02	92736	1	2156	79753	92736	90580	16775	164	364	64	77216	2953693	17367
5	2017-04-22 12:52:07	0	0	0	0	0	0	3.09	19.7	0.03	114145	1	3659	94877	114145	110486	22486	188	420	73	91404	2953693	23167
6	2017-04-22 13:02:22	0	0	0	0	0	0	3.7	21.37	0.05	142231	1	6138	114447	142231	136093	30396	199	463	83	109197	2953693	31141
7	2017-04-22 13:12:08	0	0	0	0	0	0	3.95	21.65	0.05	154467	1	7207	122808	154467	147260	33441	227	497	92	116789	2953693	34257
8	2017-04-22 13:22:08	0	0	0	0	0	0	4.16	21.88	0.05	165862	1	8277	130227	165862	157585	36287	251	536	96	122910	2953693	37170
9	2017-04-22 13:32:05	0	0	0	0	0	0	4.38	22.04	0.06	177451	1	9420	138117	177451	168031	39109	266	564	98	129501	2953693	40037
10	2017-04-22 13:42:08	0	0	0	0	0	0	4.62	22.15	0.06	186830	1	10324	145247	186830	176506	41376	275	590	102	136389	2953693	42343
11	2017-04-22 13:52:08	0	0	0	0	0	0	4.89	22.21	0.06	197260	1	11244	154111	197260	186016	43821	292	611	109	144407	2953693	44833
12	2017-04-22 14:02:10	0	0	0	0	0	0	5.07	21.24	0.06	216640	1	13035	168188	216640	203605	46014	308	642	114	149803	2953693	47078
13	2017-04-22 14:12:07	0	0	0	0	0	0	5.55	22.43	0.07	225792	1	13913	175735	225792	211879	50636	323	665	119	163787	2953693	51743
14	2017-04-22 14:22:08	0	0	0	0	0	0	5.71	22.46	0.07	234069	1	14765	181420	234069	219304	52573	341	687	124	168790	2953693	53725
15	2017-04-22 14:32:09	0	0	0	0	0	0	5.88	22.48	0.07	242353	1	15675	185758	242353	226678	54481	351	709	132	173544	2953693	55673
16	2017-04-22 14:42:09	0	0	0	0	0	0	6.02	22.5	0.07	250741	1	16584	191933	250741	234157	56423	359	740	133	177736	2953693	57655
17	2017-04-22 14:52:18	0	0	0	0	0	0	6.19	22.51	0.07	259009	1	17452	197432	259009	241557	58300	371	762	137	182818	2953693	59570
18	2017-04-22 15:02:15	0	0	0	0	0	0	6.28	22.55	0.07	265617	1	18155	200457	265617	247462	59906	380	787	141	185498	2953693	61214
19	2017-04-22 15:12:16	0	0	0	0	0	0	6.45	22.6	0.08	278201	1	19560	206713	278201	258641	62880	387	808	146	190467	2953693	64221
20	2017-04-22 15:22:25	0	0	0	0	0	0	6.58	22.63	0.08	285690	1	20330	211280	285690	265360	64652	394	830	149	194264	2953693	66025
21	2017-04-22 15:32:22	0	0	0	0	0	0	6.72	22.64	0.08	293152	1	21092	216524	293152	272060	66372	400	862	151	198619	2953693	67785
22	2017-04-22 15:42:16	0	0	0	0	0	0	6.85	22.66	0.08	299547	1	21785	220799	299547	277762	67876	411	880	156	202422	2953693	69323
23	2017-04-22 15:52:21	0	0	0	0	0	0	6.95	22.67	0.08	305554	1	22486	223320	305554	283068	69270	421	901	159	205363	2953693	70751
24	2017-04-22 16:02:34	0	0	0	0	0	0	7.26	22.71	0.08	317768	1	23823	234279	317768	293945	72152	430	920	162	214373	2953693	73664
25	2017-04-22 16:12:37	0	0	0	0	0	0	7.31	22.72	0.08	322970	1	24474	236309	322970	298496	73374	439	940	166	215785	2953693	74919
26	2017-04-22 16:22:35	0	0	0	0	0	0	7.4	22.71	0.08	328297	1	25059	239737	328297	303238	74570	448	961	171	218457	2953693	76150
27	2017-04-22 16:32:36	0	0	0	0	0	0	7.55	22.74	0.08	334398	1	25767	245909	334398	308631	76028	456	981	174	222949	2953693	77639
28	2017-04-22 16:42:36	0	0	0	0	0	0	7.66	22.34	0.09	346282	1	27131	253690	346282	319151	77344	464	1004	178	226269	2953693	78990
29	2017-04-22 16:52:35	0	0	0	0	0	0	7.84	22.77	0.09	351595	1	27725	256826	351595	323870	80050	472	1025	180	231631	2953693	81727
30	2017-04-22 17:02:49	0	0	0	0	0	0	7.91	22.81	0.09	356748	1	28361	259848	356748	328387	81373	479	1051	182	233716	2953693	83085
31	2017-04-22 17:13:53	0	0	0	0	0	0	8.04	22.86	0.09	360670	1	28868	263626	360670	331802	82448	488	1068	184	237494	2953693	84188
32	2017-04-22 17:23:50	0	0	0	0	0	0	8.14	22.88	0.09	364906	1	29479	266942	364906	335427	83480	492	1076	187	240391	2953693	85235
33	2017-04-22 17:33:55	0	0	0	0	0	0	8.3	22.89	0.09	372419	1	30375	271989	372419	342044	85241	496	1091	192	245057	2953693	87020
34	2017-04-22 17:43:57	0	0	0	0	0	0	8.33	22.89	0.09	376023	1	30796	273684	376023	345227	86077	502	1102	194	246040	2953693	87875
35	2017-04-22 17:54:31	0	0	0	0	0	0	8.41	22.89	0.09	380029	1	31238	276874	380029	348791	86985	509	1117	195	248287	2953693	88806
36	2017-04-22 18:07:45	0	0	0	0	0	0	8.58	22.89	0.09	390233	1	32283	282003	390233	357950	89311	517	1133	196	253394	2953693	91157
37	2017-04-22 18:17:58	0	0	0	0	0	0	8.65	22.91	0.09	394842	1	32787	284685	394842	362055	90461	520	1146	199	255410	2953693	92326
38	2017-04-22 18:30:28	0	0	0	0	0	0	8.76	22.92	0.09	399281	1	33203	288813	399281	366078	91527	522	1158	201	258847	2953693	93408
39	2017-04-22 18:40:28	0	0	0	0	0	0	8.94	22.93	0.09	407779	1	34131	294928	407779	373648	93485	531	1169	201	263998	2953693	95386
40	2017-04-22 18:50:26	0	0	0	0	0	0	8.97	22.93	0.09	412130	1	34560	296831	412130	377570	94506	534	1179	204	265035	2953693	96423
41	2017-04-22 19:00:39	0	0	0	0	0	0	9.07	22.93	0.09	415839	1	34964	300482	415839	380875	95335	541	1194	206	267803	2953693	97276
42	2017-04-22 19:10:43	0	0	0	0	0	0	9.1	22.92	0.09	419527	1	35344	302666	419527	384183	96157	548	1204	207	268881	2953693	98116
43	2017-04-22 19:20:28	0	0	0	0	0	0	9.14	22.94	0.09	423514	1	35764	304183	423514	387750	97133	549	1214	208	269936	2953693	99104
44	2017-04-22 19:30:41	0	0	0	0	0	0	9.27	22.95	0.09	430992	1	36556	309453	430992	394436	98908	551	1223	210	273835	2953693	100892
45	2017-04-22 19:40:32	0	0	0	0	0	0	9.34	22.96	0.09	434753	1	36918	311225	434753	397835	99803	556	1235	212	275787	2953693	101806
46	2017-04-22 19:51:05	0	0	0	0	0	0	9.43	22.96	0.09	438680	1	37326	314781	438680	401354	100713	559	1249	214	278525	2953693	102735
47	2017-04-22 20:05:03	0	0	0	0	0	0	9.52	22.98	0.09	446414	1	38157	318222	446414	408257	102564	565	1272	217	281088	2953693	104618
48	2017-04-22 20:16:42	0	0	0	0	0	0	9.6	22.97	0.09	450628	1	38640	320894	450628	411988	103505	569	1287	220	283481	2953693	105581
49	2017-04-22 20:27:27	0	0	0	0	0	0	9.79	22.96	0.09	457937	1	39449	326951	457937	418488	105139	571	1299	221	289086	2953693	107230
50	2017-04-22 20:40:35	0	0	0	0	0	0	9.81	22.95	0.09	461392	1	39826	327773	461392	421566	105898	575	1310	222	289891	2953693	108005
51	2017-04-22 20:51:25	0	0	0	0	0	0	9.87	22.96	0.09	465190	1	40228	329973	465190	424962	106804	580	1319	223	291625	2953693	108926
52	2017-04-22 21:04:30	0	0	0	0	0	0	10	22.97	0.1	472242	1	40978	334206	472242	431264	108454	590	1329	226	295327	2953693	110599
53	2017-04-22 21:22:06	0	0	0	0	0	0	10.17	22.96	0.1	479556	1	41721	340657	479556	437835	110110	596	1343	227	300411	2953693	112276
54	2017-04-22 21:32:43	0	0	0	0	0	0	10.33	22.98	0.1	487089	1	42458	345850	487089	444631	111912	600	1351	229	305046	2953693	114092
55	2017-04-22 21:44:00	0	0	0	0	0	0	10.38	22.98	0.1	490755	1	42835	347949	490755	447920	112791	607	1360	230	306677	2953693	114988
56	2017-04-22 21:54:19	0	0	0	0	0	0	10.45	22.99	0.1	494227	1	43161	350310	494227	451066	113615	613	1365	233	308695	2953693	115826
57	2017-04-22 22:06:35	0	0	0	0	0	0	10.57	22.99	0.1	501655	1	43964	355188	501655	457691	115338	621	1379	238	312114	2953693	117576
58	2017-04-22 22:16:38	0	0	0	0	0	0	10.59	22.99	0.1	504963	1	44322	356189	504963	460641	116101	622	1390	240	312887	2953693	118353
59	2017-04-22 22:27:22	0	0	0	0	0	0	10.63	23	0.1	508347	1	44685	357991	508347	463662	116935	622	1407	240	314021	2953693	119204
60	2017-04-22 22:37:33	0	0	0	0	0	0	10.76	23.03	0.1	515751	1	45454	362337	515751	470297	118794	629	1414	241	317866	2953693	121078
61	2017-04-22 22:47:33	0	0	0	0	0	0	10.83	23.03	0.1	519667	1	46117	365243	519667	473550	119660	638	1423	241	319836	2953693	121962
62	2017-04-22 22:57:55	0	0	0	0	0	0	10.93	23.04	0.1	523984	1	47138	369162	523984	476846	120702	642	1436	241	322803	2953693	123021
63	2017-04-22 23:08:33	0	0	0	0	0	0	11.03	23.05	0.1	527906	1	47858	372706	527906	480048	121672	649	1444	244	325647	2953693	124009
64	2017-04-22 23:19:10	0	0	0	0	0	0	11.17	23.07	0.1	535261	1	48993	376246	535261	486268	123498	654	1452	244	329830	2953693	125848
65	2017-04-22 23:34:36	0	0	0	0	0	0	11.24	23.09	0.1	539307	1	49605	380105	539307	489702	124520	659	1472	247	331865	2953693	126898
66	2017-04-22 23:45:09	0	0	0	0	0	0	11.33	23.13	0.1	546486	1	50605	383715	546486	495881	126388	662	1487	249	334771	2953693	128786
67	2017-04-22 23:59:38	0	0	0	0	0	0	11.39	23.15	0.1	550036	1	51074	384952	550036	498962	127341	673	1497	252	336442	2953693	129763
68	2017-04-23 00:49:25	0	0	0	0	0	0	11.79	23.19	0.1	570977	1	53861	400954	570977	517116	132421	688	1551	259	348270	2953693	134919
69	2017-04-23 01:48:46	0	0	0	0	0	0	12.25	23.23	0.1	587269	1	55764	414081	587269	531505	136398	708	1593	268	361698	2953693	138967
70	2017-04-23 02:52:00	0	0	0	0	0	0	12.49	23.24	0.11	600110	1	57334	421156	600110	542776	139437	725	1625	274	369263	2957056	142061
71	2017-04-23 03:53:32	0	0	0	0	0	0	12.58	23.25	0.11	607675	1	58184	424738	607675	549491	141263	732	1640	274	372103	2957056	143909
72	2017-04-23 04:54:56	0	0	0	0	0	0	12.62	23.25	0.11	612101	1	58712	426024	612101	553389	142324	738	1644	273	373168	2957056	144979
73	2017-04-23 05:56:00	0	0	0	0	0	0	12.66	23.25	0.11	615561	1	59162	427538	615561	556399	143102	741	1650	273	374375	2957056	145766
74	2017-04-23 06:55:29	0	0	0	0	0	0	12.75	23.27	0.11	619453	1	59787	429879	619453	559666	144132	746	1655	275	376881	2957056	146808
75	2017-04-23 07:18:17	0	0	0	0	0	0	12.77	23.28	0.11	620602	1	59954	430956	620602	560648	144447	747	1659	275	377709	2957056	147128
76	2017-04-23 07:34:19	0	0	0	0	0	0	12.77	23.29	0.11	622121	1	60192	431001	622121	561929	144861	749	1662	275	377709	2957056	147547
77	2017-04-23 07:44:40	0	0	0	0	0	0	12.79	23.3	0.11	624094	1	60511	432937	624094	563583	145388	750	1666	276	378263	2957056	148080
78	2017-04-23 07:59:45	0	0	0	0	0	0	12.84	23.31	0.11	625267	1	60715	434700	625267	564552	145728	752	1668	277	379608	2957056	148425
79	2017-04-23 08:09:58	0	0	0	0	0	0	12.86	23.32	0.11	626594	1	60924	435173	626594	565670	146104	753	1670	278	380155	2957056	148805
80	2017-04-23 08:22:01	0	0	0	0	0	0	12.92	23.34	0.11	629530	1	61364	437093	629530	568166	146923	754	1676	279	381914	2957056	149632
81	2017-04-23 08:33:31	0	0	0	0	0	0	12.96	23.35	0.11	631252	1	61636	439154	631252	569616	147420	755	1684	279	383320	2957056	150138
82	2017-04-23 08:44:50	0	0	0	0	0	0	12.99	23.37	0.11	632709	1	61872	440091	632709	570837	147841	755	1690	280	384033	2957056	150566
83	2017-04-23 08:55:58	0	0	0	0	0	0	13.05	23.39	0.11	636626	1	62456	443177	636626	574170	148911	759	1696	281	385804	2957056	151647
84	2017-04-23 09:09:16	0	0	0	0	0	0	13.05	23.4	0.11	638634	1	62786	443177	638634	575848	149452	764	1701	282	385804	2957056	152199
85	2017-04-23 09:20:10	0	0	0	0	0	0	13.17	23.42	0.11	640603	1	63114	446980	640603	577489	150012	765	1708	283	389468	2957056	152768
86	2017-04-23 09:37:30	0	0	0	0	0	0	13.25	23.45	0.11	644660	1	63734	450442	644660	580926	151155	769	1715	285	391697	2957056	153924
87	2017-04-23 09:47:54	0	0	0	0	0	0	13.36	23.46	0.11	646930	1	64124	452930	646930	582806	151758	772	1719	285	395134	2957056	154534
88	2017-04-23 09:59:42	0	0	0	0	0	0	13.39	23.49	0.11	652122	1	64890	453859	652122	587232	153161	776	1731	287	395891	2957056	155955
89	2017-04-23 10:09:58	0	0	0	0	0	0	13.44	23.5	0.11	654509	1	65278	455110	654509	589231	153806	776	1737	289	397301	2957056	156608
90	2017-04-23 10:30:37	0	0	0	0	0	0	13.5	23.54	0.11	659061	1	65999	457607	659061	593062	155119	784	1758	298	399151	2957056	157959
91	2017-04-23 10:40:50	0	0	0	0	0	0	13.53	23.55	0.11	661509	1	66368	458692	661509	595141	155760	786	1767	300	399976	2957056	158613
92	2017-04-23 10:50:42	0	0	0	0	0	0	13.56	23.56	0.11	663971	1	66783	461117	663971	597188	156431	788	1775	302	400908	2957056	159296
93	2017-04-23 11:01:04	0	0	0	0	0	0	13.73	23.58	0.11	668801	1	67573	465397	668801	601228	157728	794	1781	304	406074	2957056	160607
94	2017-04-23 11:13:46	0	0	0	0	0	0	13.78	23.6	0.11	670837	1	67963	467553	670837	602874	158325	796	1785	304	407500	2957056	161210
95	2017-04-23 11:28:30	0	0	0	0	0	0	13.88	23.62	0.11	674887	1	68574	471513	674887	606313	159391	800	1796	305	410533	2957056	162292
96	2017-04-23 11:40:25	0	0	0	0	0	0	13.89	23.61	0.11	677331	1	68967	471855	677331	608364	159942	803	1804	307	410750	2957056	162856
97	2017-04-23 11:50:18	0	0	0	0	0	0	13.93	23.62	0.11	679707	1	69333	473804	679707	610374	160518	805	1809	307	412008	2957056	163439
98	2017-04-23 12:02:58	0	0	0	0	0	0	14.02	23.63	0.11	684883	1	70106	476585	684883	614777	161821	809	1818	308	414552	2957056	164756
99	2017-04-23 12:14:07	0	0	0	0	0	0	14.1	23.63	0.11	686925	1	70431	479034	686925	616494	162343	815	1826	308	416824	2957056	165292
100	2017-04-23 12:30:21	0	0	0	0	0	0	14.2	23.64	0.11	691370	1	71104	484411	691370	620266	163474	819	1838	311	420005	2957056	166442
101	2017-04-23 12:47:16	0	0	0	0	0	0	14.24	23.65	0.12	695355	1	71752	485531	695355	623603	164470	826	1848	316	421018	2957056	167460
102	2017-04-23 12:59:22	0	0	0	0	0	0	14.29	23.66	0.12	699559	1	72528	489156	699559	627031	165550	829	1852	317	422642	2957056	168548
103	2017-04-23 13:13:22	0	0	0	0	0	0	14.31	23.67	0.12	701337	1	72847	489968	701337	628490	166035	833	1857	320	423248	2957056	169045
104	2017-04-23 13:23:39	0	0	0	0	0	0	14.37	23.68	0.12	705297	1	73557	491134	705297	631740	167014	838	1866	321	424816	2957056	170039
105	2017-04-23 13:34:11	0	0	0	0	0	0	14.46	23.68	0.12	706989	1	73836	492423	706989	633153	167449	839	1871	322	427455	2957056	170481
106	2017-04-23 13:56:50	0	0	0	0	0	0	14.53	23.69	0.12	710923	1	74480	495536	710923	636443	168422	842	1884	324	429799	2957056	171472
107	2017-04-23 14:07:02	0	0	0	0	0	0	14.55	23.69	0.12	714452	1	75080	496290	714452	639372	169243	846	1885	326	430367	2957056	172300
108	2017-04-23 14:34:50	0	0	0	0	0	0	14.69	23.67	0.12	720312	1	76010	501149	720312	644302	170511	852	1897	327	434259	2957056	173587
109	2017-04-23 14:45:55	0	0	0	0	0	0	14.79	23.66	0.12	722273	1	76369	504394	722273	645904	170906	853	1902	328	437434	2957056	173989
110	2017-04-23 14:56:51	0	0	0	0	0	0	14.79	23.66	0.12	724037	1	76649	505464	724037	647388	171289	853	1907	329	437434	2957056	174378
111	2017-04-23 15:07:08	0	0	0	0	0	0	14.81	23.65	0.12	726000	1	76938	506286	726000	649062	171688	856	1909	330	438049	2957056	174783
112	2017-04-23 15:24:07	0	0	0	0	0	0	14.87	23.65	0.12	729148	1	77368	508552	729148	651780	172421	859	1913	331	439713	2957056	175524
113	2017-04-23 15:41:48	0	0	0	0	0	0	14.89	23.63	0.12	732252	1	77860	509467	732252	654392	173067	864	1917	332	440334	2957056	176180
114	2017-04-23 16:05:25	0	0	0	0	0	0	14.92	23.62	0.12	737226	1	78638	511466	737226	658588	174132	871	1932	332	441307	2957056	177267
115	2017-04-23 16:16:06	0	0	0	0	0	0	14.94	23.62	0.12	738738	1	78888	512058	738738	659850	174503	876	1935	334	441748	2957056	177648
116	2017-04-23 16:35:07	0	0	0	0	0	0	14.98	23.63	0.12	742979	1	79775	514269	742979	663204	175574	880	1941	334	442948	2957056	178729
117	2017-04-23 16:47:34	0	0	0	0	0	0	14.99	23.64	0.12	744409	1	80107	515039	744409	664302	175948	882	1945	335	443392	2957056	179110
118	2017-04-23 17:02:32	0	0	0	0	0	0	15.02	23.64	0.12	747445	1	80706	515940	747445	666739	176710	885	1950	335	444203	2957056	179880
119	2017-04-23 17:12:41	0	0	0	0	0	0	15.05	23.64	0.12	748896	1	81026	517622	748896	667870	177068	887	1951	336	445065	2957056	180242
120	2017-04-23 17:24:20	0	0	0	0	0	0	15.06	23.64	0.12	750437	1	81314	518098	750437	669123	177425	891	1955	336	445193	2957056	180607
121	2017-04-23 17:34:01	0	0	0	0	0	0	15.09	23.65	0.12	751788	1	81566	519881	751788	670222	177785	895	1956	336	446252	2957056	180972
122	2017-04-23 17:45:14	0	0	0	0	0	0	15.1	23.61	0.12	754527	1	82150	520318	754527	672377	178128	896	1958	336	446574	2957056	181318
123	2017-04-23 18:22:49	0	0	0	0	0	0	15.13	23.68	0.12	758173	1	83074	521435	758173	675099	179564	899	1960	336	447477	2957056	182759
124	2017-04-23 18:42:19	0	0	0	0	0	0	15.18	23.7	0.12	760101	1	83648	522293	760101	676453	180156	899	1962	337	449019	2957056	183354
125	2017-04-23 18:52:58	0	0	0	0	0	0	15.19	23.71	0.12	760663	1	83794	522293	760663	676869	180324	899	1963	337	449279	2957056	183523
126	2017-04-23 19:16:57	0	0	0	0	0	0	15.21	23.72	0.12	762283	1	84215	522910	762283	678068	180777	899	1966	338	449671	2957056	183980
127	2017-04-23 19:41:27	0	0	0	0	0	0	15.25	23.72	0.12	763979	1	84687	525194	763979	679292	181233	901	1968	340	450849	2957056	184442
128	2017-04-23 19:52:16	0	0	0	0	0	0	15.26	23.73	0.12	765037	1	84987	526344	765037	680050	181531	903	1969	340	451243	2957056	184743
129	2017-04-23 20:09:50	0	0	0	0	0	0	15.27	23.74	0.13	766292	1	85335	526696	766292	680957	181886	904	1972	340	451503	2957056	185102
130	2017-04-23 20:22:50	0	0	0	0	0	0	15.27	23.74	0.13	766910	1	85510	526876	766910	681400	182074	904	1974	340	451634	2957056	185292
131	2017-04-23 20:39:40	0	0	0	0	0	0	15.27	23.75	0.13	768013	1	85787	526965	768013	682226	182388	904	1976	340	451634	2957056	185608
132	2017-04-23 20:50:05	0	0	0	0	0	0	15.32	23.76	0.13	769241	1	86132	528630	769241	683109	182740	906	1979	340	452889	2957056	185965
133	2017-04-23 21:05:41	0	0	0	0	0	0	15.34	23.76	0.13	770509	1	86449	528720	770509	684060	183103	908	1980	340	453486	2957056	186331
134	2017-04-23 21:23:59	0	0	0	0	0	0	15.34	23.77	0.13	771788	1	86764	528720	771788	685024	183456	909	1982	340	453486	2957056	186687
135	2017-04-23 21:35:23	0	0	0	0	0	0	15.34	23.77	0.13	772405	1	86900	528878	772405	685505	183632	910	1984	340	453486	2957056	186866
136	2017-04-23 21:49:43	0	0	0	0	0	0	15.35	23.78	0.13	773560	1	87150	529104	773560	686410	183921	910	1987	340	454052	2957056	187158
137	2017-04-23 22:04:25	0	0	0	0	0	0	15.37	23.78	0.13	774868	1	87483	530736	774868	687385	184265	910	1989	340	454585	2957056	187504
138	2017-04-23 22:18:19	0	0	0	0	0	0	15.38	23.79	0.13	776242	1	87828	531910	776242	688414	184653	911	1990	341	454710	2957056	187895
139	2017-04-23 22:29:03	0	0	0	0	0	0	15.41	23.79	0.13	776858	1	87991	532596	776858	688867	184853	912	1990	341	455747	2957056	188096
140	2017-04-23 22:49:36	0	0	0	0	0	0	15.42	23.81	0.13	778793	1	88486	532768	778793	690307	185443	913	1992	341	455873	2957056	188689
141	2017-04-23 23:00:28	0	0	0	0	0	0	15.46	23.82	0.13	779354	1	88616	533730	779354	690738	185625	913	1992	341	457049	2957056	188871
142	2017-04-23 23:11:44	0	0	0	0	0	0	15.47	23.83	0.13	780525	1	88911	534282	780525	691614	185967	913	1995	341	457454	2957056	189216
143	2017-04-23 23:25:30	0	0	0	0	0	0	15.47	23.83	0.13	781137	1	89064	534282	781137	692073	186151	915	1996	343	457454	2957056	189405
144	2017-04-23 23:44:57	0	0	0	0	0	0	15.49	23.84	0.13	782727	1	89469	535764	782727	693258	186610	915	1999	343	458131	2957056	189867
145	2017-04-23 23:55:24	0	0	0	0	0	0	15.49	23.85	0.13	783141	1	89577	535764	783141	693564	186754	915	2002	343	458131	2957056	190014
146	2017-04-24 00:40:20	0	0	0	0	0	0	15.54	23.87	0.13	785471	1	90161	537391	785471	695310	187490	919	2008	343	459422	2957056	190760
147	2017-04-24 01:48:54	0	0	0	0	0	0	15.55	23.89	0.13	787269	1	90678	538267	787269	696591	188082	919	2013	344	459729	2957056	191358
148	2017-04-24 03:06:28	0	0	0	0	0	0	15.53	23.91	0.13	788234	1	90951	538923	788234	697283	188464	920	2017	345	459729	2960387	191746
149	2017-04-24 04:07:33	0	0	0	0	0	0	15.53	23.92	0.13	788643	1	91080	538923	788643	697563	188609	920	2017	345	459729	2960387	191891
150	2017-04-24 05:09:08	0	0	0	0	0	0	15.53	23.92	0.13	788983	1	91204	539111	788983	697779	188719	921	2019	345	459866	2960387	192004
151	2017-04-24 06:15:17	0	0	0	0	0	0	15.55	23.93	0.13	789533	1	91382	539815	789533	698151	188910	921	2022	345	460379	2960387	192198
152	2017-04-24 07:16:49	0	0	0	0	0	0	15.55	23.93	0.13	790257	1	91601	540428	790257	698656	189138	921	2023	346	460379	2960387	192428
153	2017-04-24 07:42:29	0	0	0	0	0	0	15.55	23.94	0.13	790758	1	91749	540428	790758	699009	189288	921	2024	346	460379	2960387	192579
154	2017-04-24 08:05:33	0	0	0	0	0	0	15.56	23.94	0.13	791288	1	91890	540711	791288	699398	189457	921	2025	346	460584	2960387	192749
155	2017-04-24 08:27:01	0	0	0	0	0	0	15.56	23.95	0.13	791741	1	92013	540900	791741	699728	189583	922	2026	346	460721	2960387	192877
156	2017-04-24 08:38:46	0	0	0	0	0	0	15.56	23.95	0.13	792265	1	92163	540900	792265	700102	189721	924	2026	346	460721	2960387	193017
157	2017-04-24 09:00:21	0	0	0	0	0	0	15.58	23.95	0.13	792773	1	92298	541562	792773	700475	189879	926	2026	346	461202	2960387	193177
158	2017-04-24 09:15:46	0	0	0	0	0	0	15.58	23.96	0.13	793267	1	92425	541752	793267	700842	190036	927	2028	346	461202	2960387	193337
159	2017-04-24 09:26:56	0	0	0	0	0	0	15.58	23.96	0.13	793500	1	92475	541752	793500	701025	190113	927	2029	346	461202	2960387	193415
160	2017-04-24 09:57:56	0	0	0	0	0	0	15.58	23.97	0.13	794582	1	92752	542416	794582	701830	190464	927	2031	346	461270	2960387	193768
161	2017-04-24 10:09:59	0	0	0	0	0	0	15.58	23.97	0.13	794847	1	92825	542796	794847	702022	190564	927	2032	346	461270	2960387	193869
162	2017-04-24 10:51:56	0	0	0	0	0	0	15.58	23.99	0.13	795997	1	93125	542889	795997	702872	190927	927	2033	346	461337	2960387	194233
163	2017-04-24 11:01:59	0	0	0	0	0	0	15.58	23.99	0.13	796243	1	93201	542889	796243	703042	191002	927	2033	346	461337	2960387	194308
164	2017-04-24 11:11:58	0	0	0	0	0	0	15.58	23.99	0.13	796510	1	93287	542889	796510	703223	191083	929	2034	347	461337	2960387	194393
165	2017-04-24 11:21:59	0	0	0	0	0	0	15.6	23.99	0.13	796795	1	93395	543508	796795	703400	191160	929	2034	347	461750	2960387	194470
166	2017-04-24 11:32:00	0	0	0	0	0	0	15.6	23.99	0.13	797091	1	93498	543508	797091	703593	191236	929	2034	347	461750	2960387	194546
167	2017-04-24 11:42:00	0	0	0	0	0	0	15.61	23.99	0.13	797566	1	93648	543699	797566	703918	191369	929	2034	347	462163	2960387	194679
168	2017-04-24 11:52:01	0	0	0	0	0	0	15.62	24	0.13	797771	1	93700	543890	797771	704071	191441	929	2035	347	462301	2960387	194752
169	2017-04-24 12:02:02	0	0	0	0	0	0	15.62	24	0.13	797988	1	93764	543890	797988	704224	191501	929	2035	347	462301	2960387	194812
170	2017-04-24 12:12:02	0	0	0	0	0	0	15.62	24	0.13	798201	1	93824	543890	798201	704377	191569	929	2035	347	462301	2960387	194880
171	2017-04-24 12:22:01	0	0	0	0	0	0	15.62	24	0.13	798599	1	93920	544260	798599	704679	191691	929	2035	347	462301	2960387	195002
172	2017-04-24 12:32:03	0	0	0	0	0	0	15.62	24	0.13	798771	1	93972	544260	798771	704799	191735	928	2035	347	462439	2960387	195045
173	2017-04-24 12:42:03	0	0	0	0	0	0	15.62	24.01	0.13	798941	1	94017	544260	798941	704924	191788	928	2037	347	462439	2960387	195100
174	2017-04-24 12:52:01	0	0	0	0	0	0	15.62	24.01	0.13	799180	1	94079	544260	799180	705101	191871	928	2037	347	462439	2960387	195183
175	2017-04-24 12:54:42	0	0	0	0	0	0	15.62	24.01	0.13	799180	1	94079	544260	799180	705101	191871	928	2037	348	462439	2960387	195184
176	2017-04-24 12:59:02	0	0	0	0	0	0	15.62	24.01	0.13	799413	1	94137	544260	799413	705276	191938	928	2038	348	462439	2960387	195252
177	2017-04-24 13:09:03	0	0	0	0	0	0	15.62	24.01	0.13	799608	1	94191	544260	799608	705417	191992	928	2038	348	462439	2960387	195306
178	2017-04-24 13:19:03	0	0	0	0	0	0	15.62	24.01	0.13	799795	1	94242	544260	799795	705553	192066	928	2038	348	462439	2960387	195380
179	2017-04-24 13:28:37	0	0	0	0	0	0	15.63	24.02	0.13	800162	1	94349	544835	800162	705813	192179	928	2039	348	462854	2960387	195494
180	2017-04-24 13:39:05	0	0	0	0	0	0	15.63	24.02	0.13	800319	1	94393	545123	800319	705926	192226	928	2039	348	462854	2960387	195541
181	2017-04-24 13:48:59	0	0	0	0	0	0	15.63	24.02	0.13	800470	1	94420	545123	800470	706050	192266	928	2039	348	462854	2960387	195581
182	2017-04-24 13:58:46	0	0	0	0	0	0	15.63	24.02	0.13	800689	1	94471	545123	800689	706218	192321	928	2041	351	462854	2960387	195641
183	2017-04-24 14:08:48	0	0	0	0	0	0	15.63	24.02	0.13	801052	1	94576	545123	801052	706476	192423	928	2041	351	462854	2960387	195743
184	2017-04-24 14:18:43	0	0	0	0	0	0	15.63	24.02	0.13	801233	1	94630	545123	801233	706603	192483	930	2041	351	462854	2960387	195805
185	2017-04-24 14:28:36	0	0	0	0	0	0	15.63	24.03	0.13	801400	1	94680	545699	801400	706720	192540	930	2041	351	462854	2960387	195862
186	2017-04-24 14:38:37	0	0	0	0	0	0	15.64	24.03	0.13	801610	1	94741	545892	801610	706869	192595	930	2041	351	462992	2960387	195917
187	2017-04-24 14:48:37	0	0	0	0	0	0	15.64	24.03	0.13	801791	1	94786	545892	801791	707005	192660	930	2041	351	462992	2960387	195982
188	2017-04-24 14:58:37	0	0	0	0	0	0	15.64	24.03	0.13	802020	1	94847	545892	802020	707173	192714	931	2041	351	462992	2960387	196037
189	2017-04-24 15:08:36	0	0	0	0	0	0	15.64	24.03	0.13	802419	1	94952	545892	802419	707467	192841	931	2042	351	462992	2960387	196165
190	2017-04-24 15:09:40	0	0	0	0	0	0	15.64	24.03	0.13	802419	1	94952	545892	802419	707467	192841	931	2042	351	462992	2960387	196165
191	2017-04-24 15:12:34	0	0	0	0	0	0	15.64	24.03	0.13	802419	1	94952	545892	802419	707467	192841	931	2042	351	462992	2960387	196165
192	2017-04-24 15:22:41	0	0	0	0	0	0	15.64	24.03	0.13	802563	1	94987	545892	802563	707576	192894	931	2044	351	462992	2960387	196220
193	2017-04-24 15:32:39	0	0	0	0	0	0	15.64	24.04	0.13	802786	1	95038	545892	802786	707748	192953	931	2044	351	462992	2960387	196279
194	2017-04-24 15:42:41	0	0	0	0	0	0	15.64	24.04	0.13	803159	1	95131	545892	803159	708028	193093	932	2044	351	462992	2960387	196420
195	2017-04-24 15:52:43	0	0	0	0	0	0	15.64	24.04	0.13	803378	1	95190	545892	803378	708188	193160	932	2044	351	462992	2960387	196487
196	2017-04-24 16:02:44	0	0	0	0	0	0	15.64	24.04	0.13	803580	1	95233	545892	803580	708347	193213	932	2045	351	462992	2960387	196541
197	2017-04-24 16:12:44	0	0	0	0	0	0	15.64	24.05	0.13	803733	1	95259	545892	803733	708474	193275	932	2045	351	462992	2960387	196603
198	2017-04-24 16:22:42	0	0	0	0	0	0	15.64	24.05	0.13	804031	1	95325	545976	804031	708706	193366	932	2045	351	462992	2960387	196694
199	2017-04-24 16:32:44	0	0	0	0	0	0	15.64	24.05	0.13	804204	1	95372	545976	804204	708832	193430	932	2046	351	462992	2960387	196759
200	2017-04-24 16:42:42	0	0	0	0	0	0	15.64	24.05	0.13	804414	1	95429	545976	804414	708985	193487	932	2047	352	462992	2960387	196818
201	2017-04-24 16:52:42	0	0	0	0	0	0	15.64	24.06	0.13	804618	1	95478	545976	804618	709140	193553	932	2047	352	462992	2960387	196884
202	2017-04-24 17:02:44	0	0	0	0	0	0	15.64	24.06	0.13	804847	1	95515	546337	804847	709332	193611	933	2047	352	462992	2960387	196943
203	2017-04-24 17:12:45	0	0	0	0	0	0	15.64	24.05	0.13	805113	1	95553	546348	805113	709560	193660	933	2047	352	462992	2960387	196992
204	2017-04-24 17:22:46	0	0	0	0	0	0	15.66	24.05	0.13	805747	1	95626	547121	805747	710121	193767	933	2047	352	463547	2960387	197099
205	2017-04-24 17:32:43	0	0	0	0	0	0	15.66	24.04	0.13	806283	1	95659	547217	806283	710624	193815	933	2047	352	463582	2960387	197147
206	2017-04-24 17:42:44	0	0	0	0	0	0	15.67	24.03	0.13	806792	1	95692	547895	806792	711100	193872	935	2047	352	463790	2960387	197206
207	2017-04-24 17:52:45	0	0	0	0	0	0	15.67	24.01	0.13	807721	1	95761	548477	807721	711960	193931	935	2049	352	463790	2960387	197267
208	2017-04-24 18:02:46	0	0	0	0	0	0	15.67	24.01	0.13	808031	1	95805	548477	808031	712226	194040	935	2049	352	463790	2960387	197376
209	2017-04-24 18:12:46	0	0	0	0	0	0	15.67	24.02	0.13	808269	1	95838	548477	808269	712431	194113	935	2051	352	463790	2960387	197451
210	2017-04-24 18:22:46	0	0	0	0	0	0	15.67	24.02	0.13	808494	1	95874	548477	808494	712620	194173	935	2051	353	463790	2960387	197512
211	2017-04-24 18:32:45	0	0	0	0	0	0	15.67	24.02	0.13	808917	1	95959	548477	808917	712958	194303	935	2053	353	463790	2960387	197644
212	2017-04-24 18:42:48	0	0	0	0	0	0	15.67	24.02	0.13	809085	1	95999	548477	809085	713086	194349	936	2053	353	463790	2960387	197691
213	2017-04-24 18:52:45	0	0	0	0	0	0	15.67	24.02	0.13	809319	1	96059	548672	809319	713260	194417	936	2053	353	463929	2960387	197759
214	2017-04-24 19:02:49	0	0	0	0	0	0	15.67	24.02	0.13	809653	1	96131	548672	809653	713522	194498	937	2053	353	463929	2960387	197841
215	2017-04-24 19:12:47	0	0	0	0	0	0	15.68	24.02	0.13	809848	1	96179	549061	809848	713669	194559	937	2053	353	464207	2960387	197902
216	2017-04-24 19:22:48	0	0	0	0	0	0	15.68	24.03	0.13	810017	1	96222	549256	810017	713795	194619	937	2053	353	464207	2960387	197962
217	2017-04-24 19:32:47	0	0	0	0	0	0	15.69	24.03	0.13	810219	1	96274	549548	810219	713945	194676	937	2054	353	464416	2960387	198020
218	2017-04-24 19:42:48	0	0	0	0	0	0	15.69	24.03	0.13	810490	1	96340	549548	810490	714150	194769	937	2054	353	464416	2960387	198113
219	2017-04-24 19:52:48	0	0	0	0	0	0	15.69	24.03	0.13	810646	1	96381	549548	810646	714265	194816	937	2054	353	464416	2960387	198160
220	2017-04-24 20:02:49	0	0	0	0	0	0	15.69	24.03	0.13	810789	1	96409	549548	810789	714380	194857	937	2054	353	464416	2960387	198201
221	2017-04-24 20:12:50	0	0	0	0	0	0	15.69	24.03	0.13	810936	1	96450	549548	810936	714486	194897	937	2055	353	464416	2960387	198242
222	2017-04-24 20:22:51	0	0	0	0	0	0	15.69	24.03	0.14	811134	1	96514	549841	811134	714620	194941	938	2056	354	464416	2960387	198289
223	2017-04-24 20:32:51	0	0	0	0	0	0	15.69	24.04	0.14	811455	1	96604	549841	811455	714851	195070	938	2056	354	464416	2960387	198418
224	2017-04-24 20:42:49	0	0	0	0	0	0	15.7	24.04	0.14	811591	1	96635	550281	811591	714956	195111	938	2056	354	464660	2960387	198459
225	2017-04-24 20:53:26	0	0	0	0	0	0	15.7	24.04	0.14	811751	1	96672	550281	811751	715079	195162	937	2057	354	464660	2960387	198510
226	2017-04-24 21:03:20	0	0	0	0	0	0	15.7	24.04	0.14	811908	1	96703	550281	811908	715205	195216	937	2057	354	464660	2960387	198564
227	2017-04-24 21:13:22	0	0	0	0	0	0	15.7	24.05	0.14	812227	1	96783	550281	812227	715444	195317	937	2057	354	464660	2960387	198665
228	2017-04-24 21:23:21	0	0	0	0	0	0	15.7	24.05	0.14	812344	1	96810	550281	812344	715534	195359	937	2057	354	464660	2960387	198707
229	2017-04-24 21:33:23	0	0	0	0	0	0	15.7	24.05	0.14	812494	1	96834	550281	812494	715660	195398	938	2057	356	464660	2960387	198749
230	2017-04-24 21:43:21	0	0	0	0	0	0	15.7	24.05	0.14	812668	1	96876	550281	812668	715792	195435	939	2057	357	464660	2960387	198788
231	2017-04-24 21:53:20	0	0	0	0	0	0	15.7	24.05	0.14	813129	1	97031	550648	813129	716098	195546	939	2057	357	464922	2960387	198899
232	2017-04-24 22:03:26	0	0	0	0	0	0	15.7	24.05	0.14	813292	1	97083	550648	813292	716209	195588	939	2057	357	464922	2960387	198941
233	2017-04-24 22:13:26	0	0	0	0	0	0	15.7	24.05	0.14	813410	1	97115	550648	813410	716295	195631	939	2057	357	464922	2960387	198984
234	2017-04-24 22:31:43	0	0	0	0	0	0	15.7	24.05	0.14	813777	1	97190	550648	813777	716587	195752	939	2059	357	464922	2960387	199107
235	2017-04-24 22:40:46	0	0	0	0	0	0	15.7	24.06	0.14	813956	1	97231	550648	813956	716725	195806	938	2059	357	464922	2960387	199160
236	2017-04-24 22:50:48	0	0	0	0	0	0	15.7	24.06	0.14	814307	1	97314	550648	814307	716993	195892	938	2059	357	464922	2960387	199246
237	2017-04-24 23:00:49	0	0	0	0	0	0	15.7	24.06	0.14	814512	1	97352	550648	814512	717160	195950	939	2060	357	464922	2960387	199306
238	2017-04-24 23:10:47	0	0	0	0	0	0	15.7	24.06	0.14	814672	1	97389	550831	814672	717283	196009	939	2061	357	464922	2960387	199366
239	2017-04-24 23:20:46	0	0	0	0	0	0	15.7	24.06	0.14	814843	1	97433	550831	814843	717410	196064	939	2062	357	464922	2960387	199422
240	2017-04-24 23:30:16	0	0	0	0	0	0	15.7	24.06	0.14	814990	1	97472	550831	814990	717518	196110	939	2063	357	464922	2960387	199469
241	2017-04-24 23:40:13	0	0	0	0	0	0	15.7	24.07	0.14	815249	1	97529	550831	815249	717720	196201	940	2063	357	464922	2960387	199561
242	2017-04-24 23:50:15	0	0	0	0	0	0	15.7	24.07	0.14	815438	1	97590	551224	815438	717848	196266	940	2064	357	464922	2960387	199627
243	2017-04-25 00:00:12	0	0	0	0	0	0	15.7	24.07	0.14	815557	1	97624	551224	815557	717933	196311	941	2064	357	464922	2960387	199673
244	2017-04-25 00:47:50	0	0	0	0	0	0	15.71	24.08	0.14	816271	1	97802	553218	816271	718469	196539	941	2065	357	464974	2960387	199902
245	2017-04-25 01:47:47	0	0	0	0	0	0	15.71	24.08	0.14	816812	1	97935	553218	816812	718877	196721	944	2068	357	464974	2960387	200090
246	2017-04-25 02:47:56	0	0	0	0	0	0	15.7	24.09	0.14	817116	1	98016	553614	817116	719100	196852	944	2069	357	465253	2963422	200222
247	2017-04-25 03:47:45	0	0	0	0	0	0	15.7	24.09	0.14	817269	1	98051	553614	817269	719218	196903	944	2069	357	465253	2963422	200273
248	2017-04-25 04:47:47	0	0	0	0	0	0	15.71	24.1	0.14	817381	1	98088	554208	817381	719293	196952	944	2069	357	465673	2963422	200322
249	2017-04-25 05:47:49	0	0	0	0	0	0	15.72	24.1	0.14	817518	1	98128	554258	817518	719390	197000	945	2069	357	465708	2963422	200371
250	2017-04-25 06:47:46	0	0	0	0	0	0	15.72	24.1	0.14	817685	1	98175	554258	817685	719510	197058	945	2069	357	465708	2963422	200429
251	2017-04-25 07:10:26	0	0	0	0	0	0	15.72	24.1	0.14	817825	1	98219	555252	817825	719606	197095	945	2069	357	465708	2963422	200466
252	2017-04-25 07:20:18	0	0	0	0	0	0	15.72	24.1	0.14	817875	1	98232	555252	817875	719643	197108	945	2069	357	465708	2963422	200479
253	2017-04-25 07:30:23	0	0	0	0	0	0	15.72	24.1	0.14	817947	1	98255	555252	817947	719692	197127	945	2069	357	465708	2963422	200498
254	2017-04-25 07:40:17	0	0	0	0	0	0	15.72	24.1	0.14	818019	1	98269	555252	818019	719750	197151	945	2069	357	465708	2963422	200522
255	2017-04-25 07:50:23	0	0	0	0	0	0	15.72	24.1	0.14	818073	1	98286	555252	818073	719787	197172	945	2069	357	465708	2963422	200543
256	2017-04-25 08:00:34	0	0	0	0	0	0	15.72	24.1	0.14	818205	1	98321	555252	818205	719884	197218	945	2069	357	465708	2963422	200589
257	2017-04-25 08:10:18	0	0	0	0	0	0	15.72	24.1	0.14	818284	1	98342	555252	818284	719942	197243	945	2069	357	465708	2963422	200614
258	2017-04-25 08:20:20	0	0	0	0	0	0	15.72	24.1	0.14	818376	1	98368	555252	818376	720008	197266	945	2069	357	465708	2963422	200637
259	2017-04-25 08:30:32	0	0	0	0	0	0	15.72	24.11	0.14	818458	1	98386	555488	818458	720072	197294	945	2069	357	465875	2963422	200665
260	2017-04-25 08:40:30	0	0	0	0	0	0	15.72	24.11	0.14	818536	1	98412	555488	818536	720124	197317	945	2069	357	465875	2963422	200688
261	2017-04-25 08:50:30	0	0	0	0	0	0	15.72	24.11	0.14	818599	1	98431	555488	818599	720168	197346	945	2069	357	465875	2963422	200717
262	2017-04-25 09:01:28	0	0	0	0	0	0	15.72	24.11	0.14	818781	1	98488	555488	818781	720293	197396	945	2069	357	465875	2963422	200767
263	2017-04-25 09:11:28	0	0	0	0	0	0	15.72	24.11	0.14	818868	1	98518	555488	818868	720350	197423	945	2069	357	465875	2963422	200794
264	2017-04-25 09:21:25	0	0	0	0	0	0	15.72	24.11	0.14	818960	1	98555	555488	818960	720405	197442	945	2069	357	465875	2963422	200813
265	2017-04-25 09:32:54	0	0	0	0	0	0	15.72	24.11	0.14	819042	1	98579	555488	819042	720463	197476	946	2069	357	465875	2963422	200848
266	2017-04-25 09:41:46	0	0	0	0	0	0	15.72	24.11	0.14	819132	1	98603	555488	819132	720529	197507	946	2069	357	465875	2963422	200879
267	2017-04-25 09:51:47	0	0	0	0	0	0	15.72	24.11	0.14	819335	1	98648	555488	819335	720687	197569	946	2070	357	465875	2963422	200942
268	2017-04-25 10:01:52	0	0	0	0	0	0	15.74	24.11	0.14	819430	1	98671	556187	819430	720759	197593	946	2070	357	466366	2963422	200966
269	2017-04-25 10:12:04	0	0	0	0	0	0	15.74	24.12	0.14	819537	1	98702	556187	819537	720835	197634	946	2070	357	466366	2963422	201007
270	2017-04-25 10:22:47	0	0	0	0	0	0	15.74	24.12	0.14	819626	1	98724	556987	819626	720902	197668	946	2070	357	466366	2963422	201041
271	2017-04-25 10:32:49	0	0	0	0	0	0	15.74	24.12	0.14	819690	1	98736	556987	819690	720954	197690	946	2070	357	466366	2963422	201063
272	2017-04-25 10:43:07	0	0	0	0	0	0	15.74	24.12	0.14	819833	1	98782	556987	819833	721051	197710	946	2071	357	466366	2963422	201084
273	2017-04-25 11:04:28	0	0	0	0	0	0	15.74	24.12	0.14	820001	1	98825	556987	820001	721176	197774	946	2071	357	466366	2963422	201148
274	2017-04-25 11:13:00	0	0	0	0	0	0	15.74	24.12	0.14	820080	1	98846	556987	820080	721234	197798	946	2071	357	466366	2963422	201172
275	2017-04-25 11:23:02	0	0	0	0	0	0	15.74	24.12	0.14	820152	1	98867	556987	820152	721285	197821	946	2071	357	466366	2963422	201195
276	2017-04-25 11:42:18	0	0	0	0	0	0	15.74	24.12	0.14	820307	1	98918	556987	820307	721389	197852	946	2071	357	466366	2963422	201226
277	2017-04-25 11:55:52	0	0	0	0	0	0	15.74	24.12	0.14	820441	1	98937	557188	820441	721504	197895	946	2071	357	466366	2963422	201269
278	2017-04-25 12:04:58	0	0	0	0	0	0	15.74	24.12	0.14	820525	1	98957	557188	820525	721568	197921	946	2071	357	466366	2963422	201295
