1	2015-12-26 17:07:09	0	0	0	0	0	0	0.32	1.07	0	5053	0	14	4478	5053	5039	54	4	20	0	4451	1392398	0
2	2015-12-26 17:17:08	0	0	0	0	0	0	1.14	1.06	0.02	30564	0	381	16210	30564	18772	325	16	85	2	15863	1392420	428
3	2015-12-26 17:27:08	0	0	0	0	0	0	2.05	2.52	0.05	38851	0	1904	30502	38851	36947	980	30	173	5	28513	1392439	1188
4	2015-12-26 17:37:08	0	0	0	0	0	0	2.05	2.52	0.04	38851	0	1904	39851	38851	48782	980	39	226	5	28513	1392458	1250
5	2015-12-26 17:47:08	0	0	0	0	0	0	2.84	2.75	0.08	57667	0	4301	43125	57667	53366	1587	45	247	9	39610	1392473	1888
6	2015-12-26 17:57:09	0	0	0	0	0	0	3.49	2.42	0.09	75257	0	6307	51283	75257	68046	1821	55	289	14	48662	1392482	2179
7	2015-12-26 18:07:09	0	0	0	0	0	0	3.71	3.03	0.11	81670	0	8349	57500	81670	73321	2478	59	326	16	51597	1392497	2879
8	2015-12-26 18:17:09	0	0	0	0	0	0	4.1	3.12	0.13	92382	0	10465	64467	92382	81917	2882	62	368	21	57090	1392503	3333
9	2015-12-26 18:27:09	0	0	0	0	0	0	4.1	3.12	0.13	92382	0	10465	64467	92382	81917	2882	62	368	21	57090	1392518	3333
10	2015-12-26 18:37:09	0	0	0	0	0	0	4.7	3.21	0.15	108030	0	13833	75959	108030	94197	3473	65	428	24	65483	1392528	3990
11	2015-12-26 18:47:08	0	0	0	0	0	0	4.98	3.27	0.16	117356	0	15921	80767	117356	101435	3832	71	473	26	69411	1392546	4402
12	2015-12-26 18:57:09	0	0	0	0	0	0	5.17	3.3	0.16	122459	0	17215	85214	122459	105244	4039	72	493	28	71998	1392562	4632
13	2015-12-26 19:07:10	0	0	0	0	0	0	5.4	3.36	0.18	130572	0	19479	89294	130572	111093	4385	77	529	29	75264	1392578	5020
14	2015-12-26 19:17:09	0	0	0	0	0	0	5.59	3.37	0.18	138529	0	21601	93882	138529	116928	4665	80	553	30	77901	1392594	5328
15	2015-12-26 19:27:10	0	0	0	0	0	0	5.79	3.39	0.19	142969	0	22707	97311	142969	120262	4843	85	568	30	80647	1392616	5526
16	2015-12-26 19:37:09	0	0	0	0	0	0	5.79	3.39	0.19	142969	0	22707	97311	142969	120262	4843	85	568	30	80647	1392626	5526
17	2015-12-26 19:47:09	0	0	0	0	0	0	6.19	3.43	0.2	155719	0	26230	105560	155719	129489	5339	92	621	36	86213	1392646	6088
18	2015-12-26 19:57:09	0	0	0	0	0	0	6.44	3.52	0.21	159955	0	27425	110088	159955	132530	5638	93	649	44	89640	1392659	6424
19	2015-12-26 20:07:10	0	0	0	0	0	0	6.68	3.46	0.22	171028	0	30569	114797	171028	140459	5919	96	666	45	93031	1392671	6726
20	2015-12-26 20:17:09	0	0	0	0	0	0	6.68	3.46	0.22	171028	0	30569	114797	171028	140459	5919	96	666	45	93031	1392684	6726
21	2015-12-26 20:27:10	0	0	0	0	0	0	6.82	3.48	0.22	175429	0	31765	118210	175429	143664	6102	97	679	47	94991	1392693	6925
22	2015-12-26 20:37:09	0	0	0	0	0	0	7.31	3.52	0.23	190295	0	35835	128475	190295	154460	6695	101	722	49	101773	1392705	7567
23	2015-12-26 20:47:10	0	0	0	0	0	0	7.36	3.53	0.23	193235	0	36712	129691	193235	156523	6812	104	730	49	102458	1392711	7695
24	2015-12-26 20:57:09	0	0	0	0	0	0	7.47	3.53	0.24	200417	0	38787	132461	200417	161630	7077	106	756	50	104058	1392726	7989
25	2015-12-26 21:07:10	0	0	0	0	0	0	7.65	3.54	0.24	206849	0	40458	135413	206849	166391	7322	107	779	51	106494	1392737	8259
26	2015-12-26 21:17:13	0	0	0	0	0	0	7.72	3.55	0.25	209833	0	41332	137695	209833	168501	7445	109	794	51	107537	1392750	8399
27	2015-12-26 21:27:10	0	0	0	0	0	0	7.92	3.56	0.25	216665	0	43327	141581	216665	173338	7710	111	818	51	110329	1392764	8690
28	2015-12-26 21:37:09	0	0	0	0	0	0	7.92	3.56	0.25	216665	0	43327	141581	216665	173338	7710	111	818	51	110329	1392775	8690
29	2015-12-26 21:47:11	0	0	0	0	0	0	8.24	3.58	0.25	222757	0	45104	146657	222757	177653	7978	113	852	52	114740	1392793	8995
30	2015-12-26 21:57:10	0	0	0	0	0	0	8.43	3.54	0.26	231117	0	47803	151438	231117	183314	8174	116	866	53	117432	1392809	9209
31	2015-12-26 22:07:10	0	0	0	0	0	0	8.59	3.59	0.26	234361	0	48836	154859	234361	185525	8422	116	884	53	119603	1392823	9475
32	2015-12-26 22:17:10	0	0	0	0	0	0	8.81	3.61	0.27	240004	0	50438	157455	240004	189566	8653	118	912	53	122721	1392834	9736
33	2015-12-26 22:27:10	0	0	0	0	0	0	8.81	3.61	0.27	240004	0	50438	157455	240004	189566	8653	118	912	53	122721	1392844	9736
34	2015-12-26 22:37:11	0	0	0	0	0	0	9.11	3.63	0.27	251368	0	53672	162997	251368	197696	9114	123	939	53	126835	1392863	10229
35	2015-12-27 12:07:26	0	0	0	0	0	0	13.28	3.65	0.32	387679	0	94549	252254	387679	293130	14132	180	1411	87	185144	1394113	15810
36	2015-12-27 12:37:52	0	0	0	0	0	0	13.34	3.65	0.33	392164	0	96302	254514	392164	295862	14310	182	1424	87	185923	1394156	16003
37	2015-12-27 12:43:36	0	0	0	0	0	0	13.4	3.65	0.33	394492	0	97146	256007	394492	297346	14404	184	1429	87	186831	1394165	16104
38	2015-12-27 13:42:54	0	0	0	0	0	0	13.73	3.65	0.33	403543	0	100531	264548	403543	303012	14743	188	1451	88	191470	1394261	16470
39	2015-12-27 14:22:45	0	0	0	0	0	0	13.87	3.66	0.34	410305	0	103036	268995	410305	307269	15017	192	1470	92	193350	1394360	16771
40	2015-12-27 16:37:21	0	0	0	0	0	0	14.26	3.68	0.34	427834	0	109575	276610	427834	318259	15748	194	1516	98	198889	1394589	17556
41	2015-12-27 17:39:34	0	0	0	0	0	0	14.34	3.69	0.35	433508	0	111715	279317	433508	321793	15990	195	1535	98	200059	1394682	17818
42	2015-12-27 18:32:17	0	0	0	0	0	0	14.55	3.69	0.35	438692	0	113583	281367	438692	325109	16198	197	1553	99	202900	1394760	18047
43	2015-12-27 19:11:01	0	0	0	0	0	0	14.63	3.7	0.35	442624	0	115014	282599	442624	327610	16378	199	1567	99	203996	1394815	18243
44	2015-12-27 19:21:01	0	0	0	0	0	0	14.63	3.7	0.35	443672	0	115413	282961	443672	328259	16428	199	1569	99	204131	1394837	18295
45	2015-12-27 19:30:59	0	0	0	0	0	0	14.67	3.69	0.35	444765	0	115828	284129	444765	328937	16428	200	1571	99	204589	1394851	18298
46	2015-12-27 19:41:01	0	0	0	0	0	0	14.69	3.7	0.35	445947	0	116311	284701	445947	329636	16512	201	1581	99	204940	1394859	18393
47	2015-12-27 19:51:01	0	0	0	0	0	0	14.8	3.71	0.35	447123	0	116851	286660	447123	330272	16595	202	1583	99	206440	1394867	18479
48	2015-12-27 20:01:02	0	0	0	0	0	0	14.83	3.71	0.35	447839	0	117200	287491	447839	330639	16631	202	1588	100	206850	1394881	18521
49	2015-12-27 20:11:01	0	0	0	0	0	0	14.83	3.71	0.35	447839	0	117200	287491	447839	330639	16631	202	1588	100	206850	1394899	18521
50	2015-12-27 20:21:01	0	0	0	0	0	0	14.86	3.72	0.36	449547	0	117933	288147	449547	331614	16735	202	1590	100	207356	1394942	18627
51	2015-12-27 20:31:03	0	0	0	0	0	0	14.87	3.73	0.36	450649	0	118377	288519	450649	332272	16788	202	1593	100	207382	1394971	18683
52	2015-12-27 20:41:00	0	0	0	0	0	0	14.88	3.73	0.36	451656	0	118813	289271	451656	332843	16831	203	1595	100	207632	1395001	18729
53	2015-12-27 20:51:02	0	0	0	0	0	0	14.88	3.73	0.36	452844	0	119328	289799	452844	333516	16881	203	1597	100	207632	1395021	18781
54	2015-12-27 21:01:02	0	0	0	0	0	0	14.89	3.73	0.36	453368	0	119556	289799	453368	333812	16907	203	1597	100	207730	1395047	18807
55	2015-12-27 21:11:03	0	0	0	0	0	0	14.95	3.73	0.36	454395	0	119948	290206	454395	334447	16945	203	1599	100	208555	1395068	18847
56	2015-12-27 21:21:03	0	0	0	0	0	0	14.95	3.73	0.36	454395	0	119948	290206	454395	334447	16945	203	1599	100	208555	1395087	18847
57	2015-12-27 21:31:01	0	0	0	0	0	0	15.01	3.72	0.36	456424	0	120745	291216	456424	335679	16995	204	1606	100	209423	1395098	18905
58	2015-12-27 21:41:04	0	0	0	0	0	0	15.02	3.73	0.36	456911	0	120917	291483	456911	335994	17029	205	1609	100	209533	1395119	18943
59	2015-12-27 21:51:03	0	0	0	0	0	0	15.03	3.73	0.36	457367	0	121102	291964	457367	336265	17053	205	1610	100	209639	1395142	18968
60	2015-12-27 22:01:03	0	0	0	0	0	0	15.07	3.73	0.36	458540	0	121609	291964	458540	336931	17092	206	1610	100	210294	1395166	19008
61	2015-12-27 22:11:04	0	0	0	0	0	0	15.07	3.73	0.36	459531	0	121984	292405	459531	337547	17134	206	1614	102	210294	1395184	19056
62	2015-12-27 22:21:05	0	0	0	0	0	0	15.18	3.73	0.36	460543	0	122393	294279	460543	338150	17174	207	1614	102	211746	1395213	19097
63	2015-12-27 22:31:02	0	0	0	0	0	0	15.2	3.73	0.36	461552	0	122781	295346	461552	338771	17213	207	1618	104	212065	1395227	19142
64	2015-12-27 22:41:04	0	0	0	0	0	0	15.22	3.73	0.36	462132	0	122992	295402	462132	339140	17233	207	1620	104	212385	1395246	19164
65	2015-12-27 22:51:02	0	0	0	0	0	0	15.22	3.73	0.36	462132	0	122992	295402	462132	339140	17233	207	1620	104	212385	1395277	19164
66	2015-12-27 23:01:02	0	0	0	0	0	0	15.23	3.73	0.36	463020	0	123317	295487	463020	339703	17263	208	1623	105	212560	1395293	19199
67	2015-12-27 23:11:03	0	0	0	0	0	0	15.3	3.73	0.36	464197	0	123843	296619	464197	340354	17313	210	1625	105	213440	1395314	19253
68	2015-12-27 23:21:06	0	0	0	0	0	0	15.31	3.73	0.36	465726	0	124505	297188	465726	341221	17375	211	1636	105	213646	1395337	19327
69	2015-12-27 23:31:04	0	0	0	0	0	0	15.32	3.73	0.37	466796	0	124979	297524	466796	341817	17426	213	1642	105	213701	1395359	19386
70	2015-12-27 23:41:04	0	0	0	0	0	0	15.33	3.73	0.37	467382	0	125246	297935	467382	342136	17453	213	1645	105	213913	1395383	19416
71	2015-12-27 23:51:05	0	0	0	0	0	0	15.34	3.74	0.37	468328	0	125671	298510	468328	342657	17496	213	1649	105	214091	1395406	19463
72	2015-12-28 00:01:03	0	0	0	0	0	0	15.38	3.74	0.37	469353	0	126130	298510	469353	343223	17532	215	1655	105	214565	1395423	19507
73	2015-12-28 00:11:03	0	0	0	0	0	0	15.38	3.74	0.37	469770	0	126315	298510	469770	343455	17554	215	1656	105	214625	1395436	19530
74	2015-12-28 00:21:02	0	0	0	0	0	0	15.38	3.74	0.37	469770	0	126315	298510	469770	343455	17554	215	1656	105	214625	1395446	19530
75	2015-12-28 00:31:02	0	0	0	0	0	0	15.41	3.74	0.37	471560	0	127082	299549	471560	344478	17625	215	1660	105	215042	1395460	19605
76	2015-12-28 00:41:04	0	0	0	0	0	0	15.43	3.74	0.37	472315	0	127397	299861	472315	344918	17651	215	1664	107	215252	1395467	19637
77	2015-12-28 00:51:01	0	0	0	0	0	0	15.43	3.74	0.37	472315	0	127397	299861	472315	344918	17651	215	1664	107	215252	1395470	19637
78	2015-12-28 01:01:00	0	0	0	0	0	0	15.43	3.74	0.37	473115	0	127712	300265	473115	345403	17681	215	1666	107	215341	1395480	19669
79	2015-12-28 01:11:01	0	0	0	0	0	0	15.49	3.74	0.37	473905	0	128007	300585	473905	345898	17722	215	1668	107	216123	1395483	19712
80	2015-12-28 01:21:02	0	0	0	0	0	0	15.5	3.74	0.37	474676	0	128342	300914	474676	346334	17749	215	1670	110	216293	1395490	19744
81	2015-12-28 01:31:02	0	0	0	0	0	0	15.52	3.73	0.37	475270	0	128570	301544	475270	346700	17749	215	1672	110	216618	1395493	19746
82	2015-12-28 01:41:03	0	0	0	0	0	0	15.52	3.74	0.37	475591	0	128700	301603	475591	346891	17785	215	1674	110	216649	1395507	19784
83	2015-12-28 01:51:01	0	0	0	0	0	0	15.52	3.74	0.37	475591	0	128700	301603	475591	346891	17809	215	1674	110	216649	1395522	19808
84	2015-12-28 02:01:03	0	0	0	0	0	0	15.53	3.74	0.37	476145	0	128909	301838	476145	347236	17819	215	1674	110	216770	1395540	19818
85	2015-12-28 02:11:04	0	0	0	0	0	0	15.54	3.74	0.37	476809	0	129092	302015	476809	347654	17832	215	1674	110	216861	1395557	19831
86	2015-12-28 02:21:01	0	0	0	0	0	0	15.55	3.74	0.37	477173	0	129285	302015	477173	347888	17832	216	1675	110	216983	1395565	19833
87	2015-12-28 02:31:01	0	0	0	0	0	0	15.55	3.74	0.37	477173	0	129285	302015	477173	347888	17844	216	1675	110	216983	1395577	19845
88	2015-12-28 02:41:01	0	0	0	0	0	0	15.55	3.74	0.37	477653	0	129431	302133	477653	348222	17860	216	1678	110	216983	1395590	19864
89	2015-12-28 02:51:04	0	0	0	0	0	0	15.55	3.74	0.37	477976	0	129553	302133	477976	348423	17870	216	1679	110	216983	1395599	19875
90	2015-12-28 03:01:05	0	0	0	0	0	0	15.56	3.74	0.37	478120	0	129598	302192	478120	348522	17877	216	1679	110	217013	1395000	19882
91	2015-12-28 03:11:02	0	0	0	0	0	0	15.59	3.74	0.37	478386	0	129699	303020	478386	348687	17888	216	1679	110	217440	1394996	19893
92	2015-12-28 03:21:02	0	0	0	0	0	0	15.59	3.74	0.37	478386	0	129743	303020	478386	348763	17891	216	1680	110	217440	1394998	19897
93	2015-12-28 03:31:02	0	0	0	0	0	0	15.59	3.74	0.37	478715	0	129833	303283	478715	348882	17899	216	1681	110	217499	1394999	19906
94	2015-12-28 03:41:02	0	0	0	0	0	0	15.59	3.74	0.37	478928	0	129925	303283	478928	349003	17912	216	1682	110	217499	1395000	19920
95	2015-12-28 03:51:01	0	0	0	0	0	0	15.59	3.74	0.37	478928	0	129925	303283	478928	349003	17912	216	1682	110	217499	1395000	19920
96	2015-12-28 04:01:00	0	0	0	0	0	0	15.63	3.74	0.37	479194	0	130030	304237	479194	349164	17927	216	1684	110	217989	1394998	19937
97	2015-12-28 04:11:00	0	0	0	0	0	0	15.63	3.74	0.37	479243	0	130054	304237	479243	349189	17928	216	1684	110	217989	1395002	19938
98	2015-12-28 04:21:01	0	0	0	0	0	0	15.63	3.74	0.37	479377	0	130104	304237	479377	349273	17935	216	1685	110	217989	1395006	19946
99	2015-12-28 04:31:03	0	0	0	0	0	0	15.63	3.74	0.37	479500	0	130157	304237	479500	349343	17939	216	1686	110	217989	1395005	19951
100	2015-12-28 04:41:01	0	0	0	0	0	0	15.63	3.74	0.37	479500	0	130157	304237	479500	349343	17939	216	1686	110	217989	1395006	19951
101	2015-12-28 04:51:01	0	0	0	0	0	0	15.63	3.74	0.37	479662	0	130216	304237	479662	349446	17946	216	1687	110	217989	1395003	19959
102	2015-12-28 05:01:04	0	0	0	0	0	0	15.63	3.74	0.37	479760	0	130257	304237	479760	349503	17948	216	1687	110	217989	1395005	19961
103	2015-12-28 05:11:01	0	0	0	0	0	0	15.63	3.74	0.37	479833	0	130290	304237	479833	349543	17949	216	1687	110	217989	1395008	19962
104	2015-12-28 05:21:01	0	0	0	0	0	0	15.63	3.74	0.37	479904	0	130318	304237	479904	349586	17951	216	1687	110	217989	1395010	19964
105	2015-12-28 05:31:01	0	0	0	0	0	0	15.63	3.74	0.37	479951	0	130343	304296	479951	349608	17952	216	1687	110	218081	1395012	19965
106	2015-12-28 05:41:02	0	0	0	0	0	0	15.63	3.74	0.37	479981	0	130366	304296	479981	349615	17953	216	1687	110	218081	1395014	19966
107	2015-12-28 05:51:02	0	0	0	0	0	0	15.63	3.74	0.37	480043	0	130403	304296	480043	349640	17956	216	1687	110	218081	1395013	19969
108	2015-12-28 06:01:00	0	0	0	0	0	0	15.63	3.74	0.37	480043	0	130403	304296	480043	349640	17956	216	1687	110	218081	1395012	19969
109	2015-12-28 06:11:02	0	0	0	0	0	0	15.64	3.74	0.37	480140	0	130465	304416	480140	349675	17964	216	1687	110	218142	1395013	19977
110	2015-12-28 06:21:02	0	0	0	0	0	0	15.64	3.74	0.37	480156	0	130477	304416	480156	349679	17965	216	1687	110	218142	1395016	19978
111	2015-12-28 06:31:00	0	0	0	0	0	0	15.64	3.74	0.37	480156	0	130477	304416	480156	349679	17965	216	1687	110	218142	1395017	19978
112	2015-12-28 06:41:02	0	0	0	0	0	0	15.65	3.74	0.37	480233	0	130523	304416	480233	349710	17966	216	1687	110	218265	1395018	19979
113	2015-12-28 06:51:01	0	0	0	0	0	0	15.65	3.74	0.37	480282	0	130557	304416	480282	349725	17969	216	1688	110	218265	1395018	19983
114	2015-12-28 07:01:01	0	0	0	0	0	0	15.65	3.74	0.37	480340	0	130597	304416	480340	349743	17969	216	1688	110	218265	1395024	19983
115	2015-12-28 07:11:01	0	0	0	0	0	0	15.65	3.74	0.37	480340	0	130597	304416	480340	349743	17975	216	1688	110	218265	1395026	19989
116	2015-12-28 07:21:03	0	0	0	0	0	0	15.65	3.74	0.37	480473	0	130648	304416	480473	349791	17976	216	1688	110	218265	1395028	19990
117	2015-12-28 07:31:05	0	0	0	0	0	0	15.65	3.74	0.37	480500	0	130703	304416	480500	349797	17978	216	1688	110	218265	1395030	19992
118	2015-12-28 07:41:02	0	0	0	0	0	0	15.65	3.74	0.37	480500	0	130703	304416	480500	349797	17978	216	1688	110	218265	1395033	19992
119	2015-12-28 07:51:02	0	0	0	0	0	0	15.65	3.74	0.37	480618	0	130783	304416	480618	349835	17981	216	1688	110	218265	1395033	19995
120	2015-12-28 08:01:06	0	0	0	0	0	0	15.65	3.74	0.37	480685	0	130832	304439	480685	349853	17986	216	1688	110	218265	1395037	20000
121	2015-12-28 08:11:02	0	0	0	0	0	0	15.67	3.74	0.37	480732	0	130864	304858	480732	349868	17986	216	1688	110	218604	1395041	20000
122	2015-12-28 08:21:05	0	0	0	0	0	0	15.68	3.74	0.37	480833	0	130926	305339	480833	349907	17992	216	1688	110	218728	1395043	20006
123	2015-12-28 08:31:04	0	0	0	0	0	0	15.68	3.74	0.37	480950	0	131006	305822	480950	349944	17999	216	1688	110	218728	1395044	20013
124	2015-12-28 08:41:05	0	0	0	0	0	0	15.69	3.74	0.37	481068	0	131085	306064	481068	349983	18003	216	1688	110	218852	1395047	20017
125	2015-12-28 08:51:08	0	0	0	0	0	0	15.69	3.74	0.37	481196	0	131159	306064	481196	350037	18003	216	1689	110	218852	1395049	20018
126	2015-12-28 09:01:02	0	0	0	0	0	0	15.69	3.74	0.37	481307	0	131226	306064	481307	350081	18007	216	1689	111	218852	1395055	20023
127	2015-12-28 09:11:05	0	0	0	0	0	0	15.69	3.74	0.38	481481	0	131342	306427	481481	350139	18027	216	1689	111	218852	1395055	20043
128	2015-12-28 09:21:06	0	0	0	0	0	0	15.69	3.74	0.38	481727	0	131412	306427	481727	350228	18033	216	1689	111	218852	1395064	20049
129	2015-12-28 09:31:07	0	0	0	0	0	0	15.69	3.75	0.38	481829	0	131565	306548	481829	350264	18050	216	1689	112	218852	1395067	20067
130	2015-12-28 09:41:04	0	0	0	0	0	0	15.69	3.75	0.38	481829	0	131565	306548	481829	350264	18063	216	1689	112	218852	1395079	20080
131	2015-12-28 09:51:04	0	0	0	0	0	0	15.71	3.75	0.38	482186	0	131792	307279	482186	350394	18070	216	1691	112	219224	1395084	20089
132	2015-12-28 10:01:05	0	0	0	0	0	0	15.71	3.75	0.38	482400	0	131939	307370	482400	350461	18085	216	1691	112	219224	1395092	20104
133	2015-12-28 10:11:03	0	0	0	0	0	0	15.71	3.75	0.38	482400	0	131939	307370	482400	350461	18085	216	1691	112	219224	1395099	20104
134	2015-12-28 10:21:08	0	0	0	0	0	0	15.71	3.75	0.38	482730	0	132148	307492	482730	350582	18107	216	1692	112	219224	1395111	20127
135	2015-12-28 10:31:04	0	0	0	0	0	0	15.71	3.75	0.38	482984	0	132317	307492	482984	350667	18124	216	1693	112	219224	1395124	20145
136	2015-12-28 10:41:04	0	0	0	0	0	0	15.73	3.75	0.38	483240	0	132492	307859	483240	350748	18137	216	1694	112	219410	1395136	20159
137	2015-12-28 10:51:04	0	0	0	0	0	0	15.74	3.75	0.38	483512	0	132682	308373	483512	350830	18155	216	1695	112	219643	1395144	20178
138	2015-12-28 11:01:07	0	0	0	0	0	0	15.74	3.76	0.38	483636	0	132757	308373	483636	350879	18161	216	1695	112	219643	1395157	20184
139	2015-12-28 11:11:08	0	0	0	0	0	0	15.76	3.76	0.38	483871	0	132913	308373	483871	350958	18171	216	1696	112	219893	1395169	20195
140	2015-12-28 11:21:06	0	0	0	0	0	0	15.76	3.76	0.38	483871	0	132913	308373	483871	350958	18171	216	1696	112	219893	1395184	20195
141	2015-12-28 11:31:05	0	0	0	0	0	0	15.76	3.76	0.38	484177	0	133121	308373	484177	351056	18188	216	1697	113	219893	1395193	20214
142	2015-12-28 11:41:05	0	0	0	0	0	0	15.78	3.76	0.38	484410	0	133290	308834	484410	351120	18198	216	1697	113	220128	1395206	20224
143	2015-12-28 11:51:02	0	0	0	0	0	0	15.78	3.76	0.38	484619	0	133447	309699	484619	351172	18201	217	1702	113	220128	1395222	20233
144	2015-12-28 12:01:01	0	0	0	0	0	0	15.78	3.76	0.38	484730	0	133523	309699	484730	351207	18210	217	1702	113	220128	1395235	20242
145	2015-12-28 12:11:10	0	0	0	0	0	0	15.83	3.76	0.38	484939	0	133676	310647	484939	351263	18227	217	1704	113	220858	1395249	20261
146	2015-12-28 12:21:16	0	0	0	0	0	0	15.83	3.76	0.38	485153	0	133746	310647	485153	351296	18230	217	1704	113	220858	1395266	20264
147	2015-12-28 12:31:11	0	0	0	0	0	0	15.83	3.76	0.38	485229	0	133880	310647	485229	351349	18239	217	1705	114	220858	1395281	20275
148	2015-12-28 12:41:06	0	0	0	0	0	0	15.83	3.76	0.38	485471	0	134040	310647	485471	351431	18251	217	1705	114	220858	1395286	20287
149	2015-12-28 12:51:04	0	0	0	0	0	0	15.83	3.76	0.38	485563	0	134108	310647	485563	351455	18256	217	1705	114	220858	1395294	20292
150	2015-12-28 13:01:04	0	0	0	0	0	0	15.83	3.76	0.38	485708	0	134200	310647	485708	351508	18262	217	1706	114	220858	1395297	20299
151	2015-12-28 13:11:05	0	0	0	0	0	0	15.83	3.76	0.38	485799	0	134264	310647	485799	351535	18266	217	1706	114	220858	1395308	20303
152	2015-12-28 13:21:03	0	0	0	0	0	0	15.83	3.76	0.38	485799	0	134264	310647	485799	351535	18266	217	1706	114	220858	1395321	20303
153	2015-12-28 13:31:05	0	0	0	0	0	0	15.83	3.76	0.38	485995	0	134393	310647	485995	351602	18280	217	1707	114	220858	1395331	20318
154	2015-12-28 13:41:05	0	0	0	0	0	0	15.83	3.76	0.38	486144	0	134491	310647	486144	351653	18287	217	1708	114	220858	1395339	20326
155	2015-12-28 13:51:05	0	0	0	0	0	0	15.83	3.76	0.38	486287	0	134595	310647	486287	351692	18297	217	1708	114	220858	1395349	20336
156	2015-12-28 14:01:03	0	0	0	0	0	0	15.83	3.76	0.38	486417	0	134681	310647	486417	351736	18305	217	1709	114	220858	1395361	20345
157	2015-12-28 14:11:04	0	0	0	0	0	0	15.83	3.76	0.38	486417	0	134759	310647	486417	351736	18305	217	1709	114	220858	1395367	20345
158	2015-12-28 14:21:06	0	0	0	0	0	0	15.83	3.76	0.38	486588	0	134803	310647	486588	351785	18308	217	1710	114	220858	1395376	20349
159	2015-12-28 14:31:05	0	0	0	0	0	0	15.83	3.76	0.38	486588	0	134803	310647	486588	351785	18308	217	1710	114	220858	1395379	20349
160	2015-12-28 14:41:04	0	0	0	0	0	0	15.83	3.76	0.38	486724	0	134898	310647	486724	351826	18316	217	1710	114	220858	1395389	20357
161	2015-12-28 14:51:06	0	0	0	0	0	0	15.83	3.76	0.38	486921	0	135033	310647	486921	351888	18327	217	1711	114	220858	1395394	20369
162	2015-12-28 15:01:07	0	0	0	0	0	0	15.83	3.76	0.38	486993	0	135081	310662	486993	351912	18334	217	1711	114	220858	1395404	20376
163	2015-12-28 15:11:05	0	0	0	0	0	0	15.83	3.76	0.38	486993	0	135081	310662	486993	351912	18334	217	1711	114	220858	1395408	20376
164	2015-12-28 15:21:06	0	0	0	0	0	0	15.83	3.77	0.38	487144	0	135196	310662	487144	351948	18343	217	1712	114	220858	1395410	20386
165	2015-12-28 15:31:06	0	0	0	0	0	0	15.83	3.77	0.38	487268	0	135286	310662	487268	351982	18349	217	1712	114	220858	1395422	20392
166	2015-12-28 15:41:05	0	0	0	0	0	0	15.83	3.77	0.38	487268	0	135286	310787	487268	351982	18349	217	1712	114	220858	1395432	20392
167	2015-12-28 15:51:19	0	0	0	0	0	0	15.83	3.77	0.38	487471	0	135399	310787	487471	352041	18364	217	1712	114	220858	1395443	20407
168	2015-12-28 16:01:00	0	0	0	0	0	0	15.83	3.77	0.38	487471	0	135476	310787	487471	352041	18364	217	1712	114	220858	1395449	20407
169	2015-12-28 16:11:07	0	0	0	0	0	0	15.83	3.77	0.38	487652	0	135554	310787	487652	352098	18368	217	1713	114	220858	1395455	20412
170	2015-12-28 16:21:05	0	0	0	0	0	0	15.83	3.77	0.38	487652	0	135554	310787	487652	352098	18368	217	1713	114	220858	1395461	20412
171	2015-12-28 16:31:08	0	0	0	0	0	0	15.83	3.77	0.39	487785	0	135649	311287	487785	352136	18373	217	1714	114	220858	1395466	20418
172	2015-12-28 16:41:07	0	0	0	0	0	0	15.83	3.77	0.39	487785	0	135649	311287	487785	352136	18373	217	1714	114	220858	1395471	20418
173	2015-12-28 16:51:05	0	0	0	0	0	0	15.83	3.77	0.39	487932	0	135753	311287	487932	352179	18377	217	1714	114	220858	1395471	20422
174	2015-12-28 17:01:08	0	0	0	0	0	0	15.83	3.77	0.39	488028	0	135824	311287	488028	352204	18379	217	1714	114	220858	1395478	20424
175	2015-12-28 17:11:08	0	0	0	0	0	0	15.83	3.77	0.39	488104	0	135873	311287	488104	352231	18385	217	1714	114	220858	1395482	20430
176	2015-12-28 17:21:07	0	0	0	0	0	0	15.83	3.77	0.39	488104	0	135873	311287	488104	352231	18385	217	1714	114	220858	1395489	20430
177	2015-12-28 17:31:07	0	0	0	0	0	0	15.83	3.77	0.39	488226	0	135946	311287	488226	352280	18389	217	1714	115	220858	1395493	20435
178	2015-12-28 17:41:08	0	0	0	0	0	0	15.83	3.77	0.39	488275	0	136004	311287	488275	352297	18389	217	1716	115	220858	1395498	20437
179	2015-12-28 17:51:06	0	0	0	0	0	0	15.83	3.77	0.39	488358	0	136032	311287	488358	352326	18391	217	1719	116	220858	1395505	20443
180	2015-12-28 18:01:09	0	0	0	0	0	0	15.83	3.77	0.39	488446	0	136093	311287	488446	352353	18391	217	1719	116	220858	1395509	20443
181	2015-12-28 18:11:20	0	0	0	0	0	0	15.83	3.77	0.39	488526	0	136153	311287	488526	352373	18402	217	1721	116	220858	1395513	20456
182	2015-12-28 18:21:18	0	0	0	0	0	0	15.83	3.77	0.39	488526	0	136153	311287	488526	352373	18405	217	1721	116	220858	1395520	20459
183	2015-12-28 18:31:08	0	0	0	0	0	0	15.83	3.77	0.39	488666	0	136250	311287	488666	352416	18411	217	1722	116	220858	1395526	20466
184	2015-12-28 18:41:07	0	0	0	0	0	0	15.83	3.77	0.39	488760	0	136325	311287	488760	352435	18416	217	1723	116	220858	1395531	20472
185	2015-12-28 18:51:08	0	0	0	0	0	0	15.83	3.77	0.39	488798	0	136353	311287	488798	352445	18420	217	1723	116	220858	1395540	20476
186	2015-12-28 19:01:06	0	0	0	0	0	0	15.83	3.77	0.39	488883	0	136413	311287	488883	352470	18423	217	1723	116	220858	1395547	20479
187	2015-12-28 19:11:07	0	0	0	0	0	0	15.83	3.77	0.39	488908	0	136431	311287	488908	352477	18423	217	1723	116	220858	1395552	20479
188	2015-12-28 19:21:08	0	0	0	0	0	0	15.83	3.77	0.39	488942	0	136454	311287	488942	352488	18425	217	1724	116	220858	1395552	20482
189	2015-12-28 19:31:06	0	0	0	0	0	0	15.83	3.77	0.39	489015	0	136509	311287	489015	352506	18427	217	1724	116	220858	1395558	20484
190	2015-12-28 19:41:05	0	0	0	0	0	0	15.83	3.77	0.39	489015	0	136509	311287	489015	352506	18427	217	1724	116	220858	1395564	20484
191	2015-12-28 19:51:05	0	0	0	0	0	0	15.83	3.77	0.39	489180	0	136619	311287	489180	352561	18430	217	1724	116	220984	1395564	20487
192	2015-12-28 20:01:06	0	0	0	0	0	0	15.83	3.77	0.39	489219	0	136644	311287	489219	352575	18431	217	1724	116	220984	1395569	20488
193	2015-12-28 20:11:08	0	0	0	0	0	0	15.83	3.77	0.39	489286	0	136688	311287	489286	352598	18435	217	1725	116	220984	1395580	20493
194	2015-12-28 20:21:07	0	0	0	0	0	0	15.83	3.77	0.39	489286	0	136688	311287	489286	352598	18435	217	1725	116	220984	1395581	20493
195	2015-12-28 20:31:08	0	0	0	0	0	0	15.83	3.77	0.39	489366	0	136745	311287	489366	352621	18438	217	1725	116	220984	1395585	20496
196	2015-12-28 20:41:07	0	0	0	0	0	0	15.83	3.77	0.39	489448	0	136800	311287	489448	352648	18439	217	1725	116	220984	1395590	20497
197	2015-12-28 20:51:08	0	0	0	0	0	0	15.83	3.77	0.39	489518	0	136836	311287	489518	352682	18440	217	1726	117	220984	1395600	20500
198	2015-12-28 21:01:16	0	0	0	0	0	0	15.83	3.77	0.39	489556	0	136864	311287	489556	352692	18442	217	1726	117	220984	1395602	20502
199	2015-12-28 21:11:19	0	0	0	0	0	0	15.83	3.77	0.39	489587	0	136885	311287	489587	352702	18443	217	1726	117	220984	1395611	20503
200	2015-12-28 21:21:10	0	0	0	0	0	0	15.83	3.77	0.39	489682	0	136953	311287	489682	352729	18447	217	1726	117	220984	1395612	20507
201	2015-12-28 21:31:09	0	0	0	0	0	0	15.83	3.77	0.39	489682	0	136953	311287	489682	352729	18448	217	1726	117	220984	1395617	20508
202	2015-12-28 21:41:07	0	0	0	0	0	0	15.83	3.77	0.39	489783	0	136995	311287	489783	352764	18451	217	1726	117	220984	1395624	20511
203	2015-12-28 21:51:09	0	0	0	0	0	0	15.83	3.77	0.39	489841	0	137058	311287	489841	352783	18455	217	1726	117	220984	1395625	20515
204	2015-12-28 22:01:07	0	0	0	0	0	0	15.83	3.77	0.39	489881	0	137085	311287	489881	352796	18455	217	1726	117	220984	1395634	20515
205	2015-12-28 22:11:08	0	0	0	0	0	0	15.83	3.77	0.39	489940	0	137124	311287	489940	352816	18458	217	1726	117	220984	1395642	20518
206	2015-12-28 22:21:08	0	0	0	0	0	0	15.83	3.77	0.39	489940	0	137124	311287	489940	352816	18461	217	1726	117	220984	1395644	20521
207	2015-12-28 22:31:06	0	0	0	0	0	0	15.83	3.77	0.39	490052	0	137176	311412	490052	352846	18461	217	1726	119	220984	1395652	20523
208	2015-12-28 22:41:07	0	0	0	0	0	0	15.83	3.77	0.39	490096	0	137206	311412	490096	352846	18462	217	1726	119	220984	1395655	20524
209	2015-12-28 22:51:06	0	0	0	0	0	0	15.83	3.77	0.39	490096	0	137281	311471	490096	352882	18467	218	1726	119	220984	1395662	20530
210	2015-12-28 23:01:08	0	0	0	0	0	0	15.83	3.77	0.39	490194	0	137304	311471	490194	352890	18468	218	1726	119	220984	1395669	20531
211	2015-12-28 23:11:09	0	0	0	0	0	0	15.83	3.77	0.39	490262	0	137353	311471	490262	352909	18476	218	1727	119	220984	1395677	20540
212	2015-12-28 23:21:09	0	0	0	0	0	0	15.83	3.77	0.39	490289	0	137353	311596	490289	352916	18476	218	1727	119	220984	1395684	20540
213	2015-12-28 23:31:07	0	0	0	0	0	0	15.83	3.77	0.39	490366	0	137424	311596	490366	352942	18477	218	1727	119	220984	1395686	20541
214	2015-12-28 23:41:07	0	0	0	0	0	0	15.83	3.77	0.39	490442	0	137476	311596	490442	352966	18480	218	1727	119	220984	1395689	20544
215	2015-12-28 23:51:08	0	0	0	0	0	0	15.83	3.77	0.39	490482	0	137499	311596	490482	352983	18481	218	1727	119	220984	1395701	20545
216	2015-12-29 00:01:07	0	0	0	0	0	0	15.83	3.77	0.39	490482	0	137499	311596	490482	352983	18481	218	1727	119	220984	1395707	20545
217	2015-12-29 00:11:06	0	0	0	0	0	0	15.83	3.77	0.39	490573	0	137561	311596	490573	353012	18484	218	1727	119	220984	1395723	20548
218	2015-12-29 00:21:08	0	0	0	0	0	0	15.83	3.77	0.39	490604	0	137582	311596	490604	353022	18486	218	1727	119	220984	1395723	20550
219	2015-12-29 00:31:06	0	0	0	0	0	0	15.87	3.77	0.39	490659	0	137621	312603	490659	353038	18487	218	1727	119	221490	1395726	20551
220	2015-12-29 00:41:09	0	0	0	0	0	0	15.87	3.77	0.39	490704	0	137651	312603	490704	353053	18491	218	1727	119	221490	1395733	20555
221	2015-12-29 00:51:06	0	0	0	0	0	0	15.87	3.77	0.39	490704	0	137651	312603	490704	353053	18491	218	1727	119	221490	1395738	20555
222	2015-12-29 01:01:06	0	0	0	0	0	0	15.87	3.77	0.39	490776	0	137700	312603	490776	353076	18497	218	1729	119	221490	1395744	20563
223	2015-12-29 01:11:08	0	0	0	0	0	0	15.87	3.77	0.39	490822	0	137730	312603	490822	353092	18498	218	1729	119	221490	1395748	20564
224	2015-12-29 01:21:07	0	0	0	0	0	0	15.87	3.77	0.39	490822	0	137730	312603	490822	353092	18498	218	1729	119	221490	1395751	20564
225	2015-12-29 01:31:05	0	0	0	0	0	0	15.87	3.77	0.39	490845	0	137743	312603	490845	353102	18499	218	1729	119	221490	1395756	20565
226	2015-12-29 01:41:06	0	0	0	0	0	0	15.87	3.77	0.39	490907	0	137781	312603	490907	353126	18502	218	1729	119	221490	1395756	20568
227	2015-12-29 01:51:09	0	0	0	0	0	0	15.87	3.77	0.39	490917	0	137785	312603	490917	353132	18503	218	1729	119	221490	1395758	20569
228	2015-12-29 02:01:05	0	0	0	0	0	0	15.87	3.77	0.39	490938	0	137796	312603	490938	353142	18503	218	1729	119	221490	1395758	20569
229	2015-12-29 02:11:09	0	0	0	0	0	0	15.87	3.77	0.39	490955	0	137808	312603	490955	353147	18503	218	1729	119	221490	1395762	20569
230	2015-12-29 02:21:07	0	0	0	0	0	0	15.87	3.77	0.39	490955	0	137808	312603	490955	353147	18503	218	1729	119	221490	1395764	20569
231	2015-12-29 02:31:07	0	0	0	0	0	0	15.87	3.77	0.39	490994	0	137834	312603	490994	353160	18504	218	1729	119	221490	1395766	20570
232	2015-12-29 02:41:07	0	0	0	0	0	0	15.87	3.77	0.39	490994	0	137834	312603	490994	353160	18504	218	1729	119	221490	1395770	20570
233	2015-12-29 02:51:06	0	0	0	0	0	0	15.87	3.77	0.39	490998	0	137835	312603	490998	353163	18504	218	1729	119	221490	1395773	20570
234	2015-12-29 03:01:11	0	0	0	0	0	0	15.87	3.77	0.39	491016	0	137844	312761	491016	353172	18507	218	1729	119	221490	1395904	20573
235	2015-12-29 03:11:08	0	0	0	0	0	0	15.87	3.77	0.39	491030	0	137852	312761	491030	353178	18507	218	1729	119	221490	1395906	20573
236	2015-12-29 03:21:08	0	0	0	0	0	0	15.87	3.77	0.39	491042	0	137861	312761	491042	353181	18507	218	1729	119	221490	1395908	20573
237	2015-12-29 03:31:10	0	0	0	0	0	0	15.87	3.77	0.39	491047	0	137865	312761	491047	353182	18508	218	1729	119	221490	1395908	20574
238	2015-12-29 03:41:08	0	0	0	0	0	0	15.87	3.77	0.39	491047	0	137865	312761	491047	353182	18508	218	1729	119	221490	1395909	20574
239	2015-12-29 03:51:07	0	0	0	0	0	0	15.87	3.77	0.39	491066	0	137882	312761	491066	353184	18509	218	1729	119	221490	1395910	20575
240	2015-12-29 04:01:07	0	0	0	0	0	0	15.87	3.77	0.39	491072	0	137888	312761	491072	353184	18509	218	1729	119	221490	1395911	20575
241	2015-12-29 04:11:06	0	0	0	0	0	0	15.87	3.77	0.39	491072	0	137888	312761	491072	353184	18509	218	1729	119	221490	1395910	20575
242	2015-12-29 04:21:07	0	0	0	0	0	0	15.87	3.77	0.39	491077	0	137890	312761	491077	353187	18509	218	1729	119	221490	1395911	20575
243	2015-12-29 04:31:05	0	0	0	0	0	0	15.87	3.77	0.39	491077	0	137890	312761	491077	353187	18509	218	1729	119	221490	1395913	20575
244	2015-12-29 04:41:09	0	0	0	0	0	0	15.87	3.77	0.39	491079	0	137891	312761	491079	353188	18509	218	1729	119	221490	1395919	20575
245	2015-12-29 04:51:08	0	0	0	0	0	0	15.87	3.77	0.39	491093	0	137899	312761	491093	353194	18509	218	1729	119	221490	1395919	20575
246	2015-12-29 05:01:05	0	0	0	0	0	0	15.87	3.77	0.39	491098	0	137903	312761	491098	353195	18509	218	1729	119	221490	1395917	20575
247	2015-12-29 05:11:09	0	0	0	0	0	0	15.87	3.77	0.39	491104	0	137905	312761	491104	353199	18509	218	1729	119	221490	1395917	20575
248	2015-12-29 05:21:06	0	0	0	0	0	0	15.87	3.77	0.39	491104	0	137905	312761	491104	353199	18509	218	1729	119	221490	1395917	20575
249	2015-12-29 05:31:08	0	0	0	0	0	0	15.87	3.77	0.39	491108	0	137907	313014	491108	353201	18509	218	1729	119	221490	1395918	20575
250	2015-12-29 05:41:06	0	0	0	0	0	0	15.87	3.77	0.39	491111	0	137909	313014	491111	353202	18509	218	1729	119	221490	1395917	20575
251	2015-12-29 05:51:09	0	0	0	0	0	0	15.87	3.77	0.39	491113	0	137909	313014	491113	353204	18509	218	1729	119	221490	1395918	20575
252	2015-12-29 06:01:06	0	0	0	0	0	0	15.87	3.77	0.39	491113	0	137909	313014	491113	353204	18509	218	1729	119	221490	1395921	20575
253	2015-12-29 06:11:06	0	0	0	0	0	0	15.87	3.77	0.39	491127	0	137915	313014	491127	353212	18509	218	1729	119	221490	1395923	20575
254	2015-12-29 06:21:08	0	0	0	0	0	0	15.87	3.77	0.39	491134	0	137920	313014	491134	353214	18509	218	1729	119	221490	1395925	20575
255	2015-12-29 06:31:08	0	0	0	0	0	0	15.87	3.77	0.39	491139	0	137920	313014	491139	353219	18509	218	1729	119	221490	1395927	20575
256	2015-12-29 06:41:09	0	0	0	0	0	0	15.87	3.77	0.39	491141	0	137921	313014	491141	353220	18509	218	1729	119	221490	1395927	20575
257	2015-12-29 06:51:07	0	0	0	0	0	0	15.87	3.77	0.39	491147	0	137924	313014	491147	353223	18510	218	1729	119	221490	1395929	20576
258	2015-12-29 07:01:09	0	0	0	0	0	0	15.87	3.77	0.39	491149	0	137924	313014	491149	353223	18510	218	1729	119	221490	1395929	20576
259	2015-12-29 07:11:09	0	0	0	0	0	0	15.87	3.77	0.39	491152	0	137927	313014	491152	353225	18511	218	1729	119	221490	1395924	20577
260	2015-12-29 07:21:07	0	0	0	0	0	0	15.87	3.77	0.39	491152	0	137927	313014	491152	353225	18511	218	1729	119	221490	1395924	20577
261	2015-12-29 07:31:09	0	0	0	0	0	0	15.87	3.77	0.39	491159	0	137932	313014	491159	353227	18511	218	1729	119	221490	1395923	20577
262	2015-12-29 07:41:12	0	0	0	0	0	0	15.87	3.77	0.39	491162	0	137933	313014	491162	353229	18511	218	1729	119	221490	1395922	20577
263	2015-12-29 07:51:08	0	0	0	0	0	0	15.87	3.77	0.39	491162	0	137933	313014	491162	353229	18511	218	1729	119	221490	1395924	20577
264	2015-12-29 08:01:07	0	0	0	0	0	0	15.87	3.77	0.39	491172	0	137943	313014	491172	353229	18511	218	1729	119	221490	1395922	20577
265	2015-12-29 08:11:11	0	0	0	0	0	0	15.87	3.77	0.39	491179	0	137949	313014	491179	353230	18511	218	1729	119	221490	1395921	20577
266	2015-12-29 08:21:09	0	0	0	0	0	0	15.87	3.77	0.39	491186	0	137955	313014	491186	353230	18511	218	1729	119	221490	1395924	20577
267	2015-12-29 08:31:12	0	0	0	0	0	0	15.87	3.77	0.39	491189	0	137957	313014	491189	353232	18511	218	1729	119	221490	1395926	20577
268	2015-12-29 08:41:12	0	0	0	0	0	0	15.87	3.77	0.39	491200	0	137966	313014	491200	353234	18512	218	1729	119	221490	1395928	20578
269	2015-12-29 08:51:13	0	0	0	0	0	0	15.87	3.77	0.39	491206	0	137969	313014	491206	353237	18513	218	1729	119	221490	1395927	20579
270	2015-12-29 09:01:09	0	0	0	0	0	0	15.87	3.77	0.39	491213	0	137976	313014	491213	353237	18513	218	1729	119	221490	1395927	20579
271	2015-12-29 09:11:12	0	0	0	0	0	0	15.87	3.77	0.39	491219	0	137981	313014	491219	353238	18513	218	1729	119	221490	1395929	20579
272	2015-12-29 09:21:10	0	0	0	0	0	0	15.87	3.77	0.39	491219	0	137981	313014	491219	353238	18513	218	1729	119	221490	1395928	20579
273	2015-12-29 09:31:11	0	0	0	0	0	0	15.87	3.77	0.39	491239	0	137996	313014	491239	353243	18515	218	1729	119	221490	1395931	20581
274	2015-12-29 09:41:09	0	0	0	0	0	0	15.87	3.77	0.39	491239	0	137996	313014	491239	353243	18515	218	1729	119	221490	1395931	20581
275	2015-12-29 09:51:10	0	0	0	0	0	0	15.87	3.77	0.39	491264	0	138014	313014	491264	353250	18515	218	1729	119	221490	1395935	20581
276	2015-12-29 10:01:11	0	0	0	0	0	0	15.87	3.77	0.39	491283	0	138029	313014	491283	353254	18516	218	1729	119	221490	1395938	20582
277	2015-12-29 10:11:08	0	0	0	0	0	0	15.87	3.77	0.39	491283	0	138029	313014	491283	353254	18516	218	1729	119	221490	1395943	20582
278	2015-12-29 10:21:08	0	0	0	0	0	0	15.87	3.77	0.39	491310	0	138045	313014	491310	353265	18518	218	1729	119	221490	1395945	20584
279	2015-12-29 10:31:10	0	0	0	0	0	0	15.87	3.77	0.39	491317	0	138050	313014	491317	353267	18518	218	1729	119	221490	1395948	20584
280	2015-12-29 10:41:09	0	0	0	0	0	0	15.87	3.77	0.39	491325	0	138052	313014	491325	353273	18518	218	1729	119	221490	1395957	20584
281	2015-12-29 10:51:10	0	0	0	0	0	0	15.87	3.77	0.39	491338	0	138058	313014	491338	353280	18518	218	1729	119	221490	1395961	20584
282	2015-12-29 11:01:09	0	0	0	0	0	0	15.87	3.77	0.39	491338	0	138058	313014	491338	353280	18518	218	1729	119	221490	1395962	20584
283	2015-12-29 11:11:12	0	0	0	0	0	0	15.87	3.77	0.39	491357	0	138069	313014	491357	353288	18520	218	1729	119	221490	1395965	20586
284	2015-12-29 11:21:14	0	0	0	0	0	0	15.87	3.77	0.39	491370	0	138077	313014	491370	353293	18521	218	1729	119	221490	1395966	20587
285	2015-12-29 11:31:11	0	0	0	0	0	0	15.87	3.77	0.39	491370	0	138077	313014	491370	353293	18521	218	1729	119	221490	1395972	20587
286	2015-12-29 11:41:12	0	0	0	0	0	0	15.87	3.77	0.39	491393	0	138087	313014	491393	353306	18523	218	1729	119	221490	1395974	20589
287	2015-12-29 11:51:10	0	0	0	0	0	0	15.87	3.77	0.39	491393	0	138087	313014	491393	353306	18523	218	1729	119	221490	1395977	20589
288	2015-12-29 12:01:17	0	0	0	0	0	0	15.87	3.77	0.39	491402	0	138092	313014	491402	353313	18523	218	1729	119	221490	1395978	20589
289	2015-12-29 12:11:23	0	0	0	0	0	0	15.87	3.77	0.39	491423	0	138107	313014	491423	353316	18523	218	1730	119	221490	1395987	20590
290	2015-12-29 12:21:19	0	0	0	0	0	0	15.87	3.77	0.39	491423	0	138107	313014	491423	353316	18523	218	1730	119	221490	1395985	20590
291	2015-12-29 12:31:16	0	0	0	0	0	0	15.87	3.77	0.39	491439	0	138118	313014	491439	353321	18523	218	1730	119	221490	1395984	20590
292	2015-12-29 12:41:13	0	0	0	0	0	0	15.87	3.77	0.39	491439	0	138120	313014	491439	353321	18523	218	1730	119	221490	1395984	20590
293	2015-12-29 12:51:11	0	0	0	0	0	0	15.87	3.77	0.39	491454	0	138120	313014	491454	353328	18524	218	1730	119	221490	1395987	20591
294	2015-12-29 13:01:12	0	0	0	0	0	0	15.87	3.77	0.39	491466	0	138132	313014	491466	353334	18524	218	1730	119	221490	1395995	20591
295	2015-12-29 13:11:11	0	0	0	0	0	0	15.87	3.77	0.39	491466	0	138132	313014	491466	353334	18524	218	1730	119	221490	1395995	20591
296	2015-12-29 13:21:11	0	0	0	0	0	0	15.87	3.77	0.39	491486	0	138142	313014	491486	353344	18526	218	1730	119	221490	1395992	20593
297	2015-12-29 13:31:14	0	0	0	0	0	0	15.87	3.77	0.39	491500	0	138148	313014	491500	353352	18526	218	1730	119	221490	1395993	20593
298	2015-12-29 13:41:12	0	0	0	0	0	0	15.87	3.77	0.39	491512	0	138156	313014	491512	353356	18527	218	1730	119	221490	1395998	20594
299	2015-12-29 13:51:14	0	0	0	0	0	0	15.87	3.77	0.39	491522	0	138158	313014	491522	353364	18527	218	1730	119	221490	1396002	20594
300	2015-12-29 14:01:14	0	0	0	0	0	0	15.87	3.77	0.39	491525	0	138160	313014	491525	353365	18528	218	1730	119	221490	1396005	20595
301	2015-12-29 14:11:14	0	0	0	0	0	0	15.87	3.77	0.39	491538	0	138168	313014	491538	353370	18528	218	1731	119	221490	1396014	20596
302	2015-12-29 14:21:12	0	0	0	0	0	0	15.87	3.77	0.39	491548	0	138172	313014	491548	353376	18528	218	1731	119	221490	1396015	20596
303	2015-12-29 14:31:15	0	0	0	0	0	0	15.87	3.77	0.39	491559	0	138179	313014	491559	353380	18529	218	1731	119	221490	1396016	20597
304	2015-12-29 14:41:12	0	0	0	0	0	0	15.87	3.77	0.39	491565	0	138180	313014	491565	353385	18529	218	1731	119	221490	1396019	20597
305	2015-12-29 14:51:12	0	0	0	0	0	0	15.87	3.77	0.39	491573	0	138183	313014	491573	353390	18529	218	1731	119	221490	1396022	20597
306	2015-12-29 15:01:14	0	0	0	0	0	0	15.87	3.77	0.39	491575	0	138183	313014	491575	353391	18529	218	1731	119	221490	1396026	20597
307	2015-12-29 15:11:14	0	0	0	0	0	0	15.87	3.77	0.39	491589	0	138191	313124	491589	353398	18529	218	1731	119	221490	1396030	20597
308	2015-12-29 15:21:12	0	0	0	0	0	0	15.87	3.77	0.39	491598	0	138195	313124	491598	353403	18529	218	1731	119	221490	1396034	20597
309	2015-12-29 15:31:12	0	0	0	0	0	0	15.87	3.77	0.39	491608	0	138197	313124	491608	353411	18529	218	1731	119	221490	1396038	20597
310	2015-12-29 15:41:11	0	0	0	0	0	0	15.87	3.77	0.39	491613	0	138197	313124	491613	353411	18529	218	1731	119	221490	1396044	20597
311	2015-12-29 15:51:15	0	0	0	0	0	0	15.87	3.77	0.39	491620	0	138202	313124	491620	353418	18529	218	1731	119	221490	1396052	20597
312	2015-12-29 16:01:11	0	0	0	0	0	0	15.87	3.77	0.39	491628	0	138206	313124	491628	353422	18530	218	1731	119	221490	1396056	20598
313	2015-12-29 16:11:12	0	0	0	0	0	0	15.87	3.77	0.39	491643	0	138212	313124	491643	353431	18530	218	1731	119	221490	1396064	20598
314	2015-12-29 16:21:12	0	0	0	0	0	0	15.87	3.77	0.39	491649	0	138215	313124	491649	353434	18531	218	1731	119	221490	1396063	20599
315	2015-12-29 16:31:13	0	0	0	0	0	0	15.87	3.77	0.39	491660	0	138220	313124	491660	353440	18531	218	1731	119	221490	1396065	20599
316	2015-12-29 16:41:11	0	0	0	0	0	0	15.87	3.77	0.39	491660	0	138220	313124	491660	353440	18531	218	1731	119	221490	1396068	20599
317	2015-12-29 16:51:10	0	0	0	0	0	0	15.87	3.77	0.39	491674	0	138228	313124	491674	353446	18532	218	1731	119	221490	1396078	20600
