1	2017-03-21 16:55:22	0	0	0	0	0	0	0	0	0	0	1	0	0	0	0	0	4	7	2	0	2807687	0
2	2017-03-21 17:05:20	0	0	0	0	0	0	0.53	0.92	0	17274	1	29	14843	17274	17245	159	10	37	8	14792	2807736	214
3	2017-03-21 17:15:19	0	0	0	0	0	0	0.84	1.1	0	29195	1	111	23839	29195	29084	320	16	52	13	23632	2807777	401
4	2017-03-21 17:25:20	0	0	0	0	0	0	1	1.21	0.01	35876	1	205	28325	35876	35671	434	18	64	13	28021	2807827	529
5	2017-03-21 17:35:20	0	0	0	0	0	0	1.12	1.27	0.01	41174	1	275	32118	41174	40899	524	20	74	14	31570	2807868	632
6	2017-03-21 17:45:20	0	0	0	0	0	0	1.25	1.32	0.01	45644	1	331	35610	45644	45313	604	20	85	16	35030	2807899	725
7	2017-03-21 17:55:21	0	0	0	0	0	0	1.34	1.36	0.01	49683	1	395	38092	49683	49288	676	26	101	17	37522	2807944	820
8	2017-03-21 18:05:21	0	0	0	0	0	0	1.42	1.38	0.01	53034	1	462	40566	53034	52572	732	26	107	17	39789	2807986	882
9	2017-03-21 18:15:20	0	0	0	0	0	0	1.49	1.41	0.01	56044	1	531	42427	56044	55513	788	28	112	17	41721	2808045	945
10	2017-03-21 18:25:37	0	0	0	0	0	0	1.57	1.42	0.01	59034	1	593	44764	59034	58441	838	28	117	18	43979	2808099	1001
11	2017-03-21 18:35:28	0	0	0	0	0	0	1.64	1.43	0.01	61809	1	635	46689	61809	61174	882	28	119	18	45963	2808142	1047
12	2017-03-21 18:45:29	0	0	0	0	0	0	1.7	1.44	0.01	64519	1	683	48295	64519	63836	927	30	126	18	47624	2808189	1101
13	2017-03-21 18:55:32	0	0	0	0	0	0	1.76	1.46	0.01	67114	1	715	50085	67114	66399	980	32	129	18	49392	2808257	1159
14	2017-03-21 19:05:30	0	0	0	0	0	0	1.81	1.45	0.01	69431	1	745	51556	69431	68686	1010	32	131	19	50877	2808307	1192
15	2017-03-21 19:15:29	0	0	0	0	0	0	1.85	1.46	0.01	71211	1	772	52691	71211	70439	1039	32	133	19	51872	2808377	1223
16	2017-03-21 19:25:30	0	0	0	0	0	0	1.9	1.46	0.01	73096	1	807	54032	73096	72289	1064	32	137	20	53317	2808463	1253
17	2017-03-21 19:35:30	0	0	0	0	0	0	1.94	1.45	0.01	74965	1	847	55318	74965	74118	1087	34	141	20	54541	2808560	1282
18	2017-03-21 19:45:29	0	0	0	0	0	0	1.97	1.46	0.01	76803	1	871	56121	76803	75932	1118	34	144	20	55306	2808656	1316
19	2017-03-21 19:55:31	0	0	0	0	0	0	2.02	1.47	0.01	78647	1	912	57586	78647	77735	1155	34	148	20	56877	2808753	1357
20	2017-03-21 20:05:33	0	0	0	0	0	0	2.07	1.48	0.01	80213	1	945	58711	80213	79268	1187	34	153	20	58071	2808861	1394
21	2017-03-21 20:15:30	0	0	0	0	0	0	2.1	1.5	0.01	81619	1	971	59865	81619	80648	1225	34	154	20	59090	2808965	1433
22	2017-03-21 20:25:32	0	0	0	0	0	0	2.14	1.5	0.01	83144	1	998	60817	83144	82146	1246	34	158	20	59981	2809089	1458
23	2017-03-21 20:35:32	0	0	0	0	0	0	2.17	1.51	0.01	84689	1	1026	61738	84689	83663	1282	34	160	21	60862	2809206	1497
24	2017-03-21 20:45:31	0	0	0	0	0	0	2.2	1.51	0.01	86236	1	1051	62749	86236	85185	1303	34	164	21	61844	2809313	1522
25	2017-03-21 20:55:34	0	0	0	0	0	0	2.24	1.51	0.01	87867	1	1074	63856	87867	86793	1331	34	164	21	62950	2809414	1550
26	2017-03-21 21:05:34	0	0	0	0	0	0	2.27	1.53	0.01	89117	1	1096	64565	89117	88021	1363	36	166	21	63681	2809507	1586
27	2017-03-21 21:15:30	0	0	0	0	0	0	2.29	1.53	0.01	90385	1	1120	65247	90385	89265	1385	36	169	21	64344	2809590	1611
28	2017-03-21 21:25:31	0	0	0	0	0	0	2.32	1.54	0.01	91604	1	1144	66283	91604	90460	1414	36	171	21	65263	2809659	1642
29	2017-03-21 21:35:31	0	0	0	0	0	0	2.38	1.56	0.01	92703	1	1160	67875	92703	91543	1444	36	173	21	66812	2809727	1674
30	2017-03-21 21:45:32	0	0	0	0	0	0	2.41	1.57	0.01	93836	1	1188	68685	93836	92648	1473	36	178	21	67597	2809798	1708
31	2017-03-21 21:55:34	0	0	0	0	0	0	2.43	1.58	0.01	95119	1	1204	69347	95119	93915	1500	36	178	21	68238	2809876	1735
32	2017-03-21 22:05:34	0	0	0	0	0	0	2.46	1.58	0.01	96175	1	1229	70151	96175	94946	1520	36	180	21	69016	2809959	1757
33	2017-03-21 22:15:33	0	0	0	0	0	0	2.48	1.59	0.01	97185	1	1248	70760	97185	95937	1541	38	183	21	69605	2810045	1783
34	2017-03-21 22:25:34	0	0	0	0	0	0	2.51	1.58	0.01	98433	1	1262	71904	98433	97171	1558	40	189	21	70656	2810140	1808
35	2017-03-21 22:35:34	0	0	0	0	0	0	2.53	1.57	0.01	99732	1	1287	72204	99732	98445	1569	40	192	21	71050	2810197	1822
36	2017-03-21 22:45:34	0	0	0	0	0	0	2.55	1.58	0.01	101031	1	1319	73050	101031	99712	1593	40	194	21	71777	2810264	1848
37	2017-03-21 22:55:34	0	0	0	0	0	0	2.59	1.57	0.01	102327	1	1348	74085	102327	100979	1607	40	198	21	72762	2810318	1866
38	2017-03-21 23:05:34	0	0	0	0	0	0	2.62	1.57	0.01	103466	1	1371	74975	103466	102095	1622	40	205	22	73677	2810368	1889
39	2017-03-21 23:15:34	0	0	0	0	0	0	2.65	1.57	0.01	104617	1	1394	75710	104617	103223	1646	40	209	22	74386	2810418	1917
40	2017-03-21 23:25:34	0	0	0	0	0	0	2.67	1.58	0.01	105696	1	1414	76233	105696	104282	1665	40	214	22	74920	2810464	1941
41	2017-03-21 23:35:36	0	0	0	0	0	0	2.69	1.58	0.01	106756	1	1442	76827	106756	105314	1682	42	214	22	75493	2810519	1960
42	2017-03-21 23:45:26	0	0	0	0	0	0	2.7	1.58	0.01	107724	1	1457	77239	107724	106267	1701	42	219	22	75966	2810553	1984
43	2017-03-21 23:55:27	0	0	0	0	0	0	2.72	1.58	0.01	108679	1	1478	77673	108679	107201	1719	44	221	22	76386	2810594	2006
44	2017-03-22 00:30:27	0	0	0	0	0	0	2.78	1.6	0.01	111452	1	1528	79213	111452	109924	1779	44	230	23	78001	2810721	2076
45	2017-03-22 01:30:27	0	0	0	0	0	0	2.85	1.59	0.01	114424	1	1580	81453	114424	112844	1819	46	239	23	80105	2808062	2127
46	2017-03-22 02:30:29	0	0	0	0	0	0	2.89	1.59	0.01	115873	1	1602	82588	115873	114271	1847	46	247	23	81202	2808133	2163
47	2017-03-22 03:30:27	0	0	0	0	0	0	2.9	1.59	0.01	116748	1	1614	82906	116748	115134	1860	46	250	24	81510	2808164	2180
48	2017-03-22 04:30:27	0	0	0	0	0	0	2.91	1.59	0.01	117404	1	1629	83149	117404	115775	1869	46	251	24	81745	2808185	2190
49	2017-03-22 05:30:27	0	0	0	0	0	0	2.93	1.59	0.01	118123	1	1649	83581	118123	116474	1877	46	252	24	82162	2808215	2199
50	2017-03-22 06:30:34	0	0	0	0	0	0	2.97	1.58	0.01	119676	1	1690	85066	119676	117986	1896	46	256	24	83489	2808293	2222
51	2017-03-22 07:05:30	0	0	0	0	0	0	3.01	1.59	0.01	120937	1	1715	86004	120937	119222	1925	46	260	24	84465	2808342	2255
52	2017-03-22 07:15:30	0	0	0	0	0	0	3.01	1.59	0.01	121429	1	1735	86242	121429	119694	1930	46	260	24	84618	2808364	2260
53	2017-03-22 07:25:29	0	0	0	0	0	0	3.02	1.59	0.01	121876	1	1744	86560	121876	120132	1939	46	260	24	84924	2808381	2269
54	2017-03-22 07:35:30	0	0	0	0	0	0	3.04	1.59	0.01	122329	1	1760	87054	122329	120569	1942	46	263	24	85399	2808413	2275
55	2017-03-22 07:45:30	0	0	0	0	0	0	3.04	1.59	0.01	122733	1	1776	87142	122733	120957	1955	46	266	24	85484	2808446	2291
56	2017-03-22 07:55:32	0	0	0	0	0	0	3.05	1.59	0.01	123304	1	1801	87253	123304	121503	1961	46	269	24	85591	2808471	2300
57	2017-03-22 08:05:32	0	0	0	0	0	0	3.06	1.59	0.01	123957	1	1821	87666	123957	122136	1974	46	273	24	85988	2808491	2317
58	2017-03-22 08:15:31	0	0	0	0	0	0	3.07	1.6	0.01	124510	1	1836	88017	124510	122674	1987	46	274	24	86326	2808515	2331
59	2017-03-22 08:25:31	0	0	0	0	0	0	3.08	1.6	0.02	125138	1	1855	88162	125138	123283	1996	46	276	24	86620	2808545	2342
60	2017-03-22 08:35:34	0	0	0	0	0	0	3.09	1.6	0.02	125755	1	1870	88465	125755	123885	2007	46	276	24	86912	2808566	2353
61	2017-03-22 08:45:33	0	0	0	0	0	0	3.11	1.6	0.02	126294	1	1881	88913	126294	124413	2021	46	278	24	87345	2808597	2369
62	2017-03-22 08:55:36	0	0	0	0	0	0	3.12	1.6	0.02	126876	1	1885	89112	126876	124991	2035	46	279	24	87537	2808626	2384
63	2017-03-22 09:05:34	0	0	0	0	0	0	3.13	1.61	0.02	127404	1	1896	89358	127404	125508	2045	46	279	24	87774	2808662	2394
64	2017-03-22 09:15:34	0	0	0	0	0	0	3.16	1.61	0.02	127995	1	1905	90186	127995	126090	2056	46	280	24	88695	2808698	2406
65	2017-03-22 09:25:32	0	0	0	0	0	0	3.17	1.6	0.02	128619	1	1917	90428	128619	126702	2064	46	280	25	88929	2808736	2415
66	2017-03-22 09:35:34	0	0	0	0	0	0	3.17	1.6	0.02	129121	1	1926	90571	129121	127195	2069	46	281	25	89067	2808792	2421
67	2017-03-22 09:45:59	0	0	0	0	0	0	3.18	1.6	0.02	129539	1	1941	90858	129539	127598	2074	46	282	26	89345	2808827	2428
68	2017-03-22 09:55:37	0	0	0	0	0	0	3.21	1.6	0.02	129993	1	1954	91722	129993	128039	2081	46	282	26	90080	2808871	2435
69	2017-03-22 10:05:37	0	0	0	0	0	0	3.22	1.6	0.02	130392	1	1971	92343	130392	128421	2091	46	283	26	90551	2808912	2446
70	2017-03-22 10:15:36	0	0	0	0	0	0	3.23	1.6	0.02	130789	1	1982	92409	130789	128807	2094	48	283	26	90615	2808945	2451
71	2017-03-22 10:25:46	0	0	0	0	0	0	3.25	1.6	0.02	131193	1	1994	93291	131193	129199	2102	48	284	26	91420	2808989	2460
72	2017-03-22 10:35:38	0	0	0	0	0	0	3.26	1.6	0.02	131638	1	2009	93375	131638	129629	2104	48	284	26	91501	2809028	2462
73	2017-03-22 10:45:36	0	0	0	0	0	0	3.26	1.6	0.02	132059	1	2019	93578	132059	130040	2108	48	284	26	91696	2809072	2466
74	2017-03-22 10:55:38	0	0	0	0	0	0	3.27	1.6	0.02	132461	1	2029	93641	132461	130432	2121	48	286	26	91756	2809126	2481
75	2017-03-22 11:05:47	0	0	0	0	0	0	3.27	1.6	0.02	132815	1	2033	93808	132815	130782	2129	48	287	26	91917	2809177	2490
76	2017-03-22 11:15:42	0	0	0	0	0	0	3.28	1.6	0.02	133176	1	2043	93933	133176	131133	2135	48	287	26	92037	2809217	2496
77	2017-03-22 11:25:41	0	0	0	0	0	0	3.29	1.6	0.02	133517	1	2050	94310	133517	131467	2141	48	287	26	92486	2809262	2502
78	2017-03-22 11:35:41	0	0	0	0	0	0	3.31	1.61	0.02	133818	1	2058	94783	133818	131760	2151	48	287	27	93031	2809312	2513
79	2017-03-22 11:45:43	0	0	0	0	0	0	3.31	1.61	0.02	134099	1	2074	94829	134099	132025	2158	48	287	27	93076	2809359	2520
80	2017-03-22 11:55:42	0	0	0	0	0	0	3.31	1.61	0.02	134416	1	2084	94876	134416	132332	2160	48	287	27	93120	2809399	2522
81	2017-03-22 12:05:42	0	0	0	0	0	0	3.32	1.61	0.02	134662	1	2094	94969	134662	132568	2170	48	287	28	93210	2809449	2533
82	2017-03-22 12:15:42	0	0	0	0	0	0	3.32	1.61	0.02	134934	1	2099	94992	134934	132835	2174	48	287	28	93233	2809483	2537
83	2017-03-22 12:25:42	0	0	0	0	0	0	3.33	1.61	0.02	135240	1	2111	95314	135240	133129	2177	48	287	29	93475	2809520	2541
84	2017-03-22 12:35:48	0	0	0	0	0	0	3.33	1.61	0.02	135544	1	2117	95314	135544	133427	2185	48	288	29	93475	2809552	2550
85	2017-03-22 12:45:44	0	0	0	0	0	0	3.33	1.61	0.02	135812	1	2123	95402	135812	133689	2189	50	288	29	93559	2809594	2556
86	2017-03-22 12:55:45	0	0	0	0	0	0	3.33	1.61	0.02	136139	1	2142	95543	136139	133997	2193	52	289	29	93695	2809650	2563
87	2017-03-22 13:05:45	0	0	0	0	0	0	3.34	1.61	0.02	136425	1	2172	95614	136425	134253	2199	52	289	29	93763	2809701	2569
88	2017-03-22 13:15:46	0	0	0	0	0	0	3.34	1.61	0.02	136689	1	2185	95762	136689	134504	2204	52	290	29	93906	2809756	2575
89	2017-03-22 13:26:00	0	0	0	0	0	0	3.36	1.61	0.02	137011	1	2195	96143	137011	134816	2211	52	291	29	94272	2809816	2583
90	2017-03-22 13:35:45	0	0	0	0	0	0	3.37	1.61	0.02	137387	1	2215	96635	137387	135172	2215	52	293	29	94745	2809865	2589
91	2017-03-22 13:45:46	0	0	0	0	0	0	3.38	1.61	0.02	137727	1	2227	96801	137727	135500	2221	52	293	29	94904	2809941	2595
92	2017-03-22 13:55:50	0	0	0	0	0	0	3.38	1.61	0.02	138034	1	2231	96874	138034	135803	2228	52	293	29	94974	2810002	2602
93	2017-03-22 14:05:47	0	0	0	0	0	0	3.39	1.61	0.02	138312	1	2241	97050	138312	136071	2232	52	294	29	95143	2810057	2607
94	2017-03-22 14:16:03	0	0	0	0	0	0	3.39	1.62	0.02	138596	1	2255	97172	138596	136341	2241	52	296	29	95261	2810110	2618
95	2017-03-22 14:25:58	0	0	0	0	0	0	3.4	1.61	0.02	138912	1	2270	97392	138912	136642	2243	52	296	29	95472	2810158	2620
96	2017-03-22 14:35:57	0	0	0	0	0	0	3.41	1.62	0.02	139196	1	2284	97671	139196	136912	2249	52	297	29	95767	2810211	2627
97	2017-03-22 14:46:00	0	0	0	0	0	0	3.41	1.62	0.02	139501	1	2298	97671	139501	137203	2253	52	298	29	95767	2810274	2632
98	2017-03-22 14:56:00	0	0	0	0	0	0	3.41	1.62	0.02	139802	1	2310	97892	139802	137492	2260	52	298	29	95837	2810339	2639
99	2017-03-22 15:06:18	0	0	0	0	0	0	3.42	1.62	0.02	140134	1	2318	98100	140134	137816	2269	54	298	29	96036	2810411	2650
100	2017-03-22 15:16:17	0	0	0	0	0	0	3.42	1.62	0.02	140513	1	2328	98304	140513	138185	2274	54	299	29	96232	2810467	2656
101	2017-03-22 15:26:20	0	0	0	0	0	0	3.43	1.62	0.02	140908	1	2346	98470	140908	138562	2281	54	301	29	96390	2810534	2665
102	2017-03-22 15:36:15	0	0	0	0	0	0	3.43	1.62	0.02	141272	1	2359	98620	141272	138913	2291	54	301	29	96535	2810592	2675
103	2017-03-22 15:46:15	0	0	0	0	0	0	3.44	1.62	0.02	141523	1	2373	98915	141523	139150	2295	54	301	29	96817	2810632	2679
104	2017-03-22 15:56:20	0	0	0	0	0	0	3.45	1.62	0.02	141750	1	2388	99041	141750	139362	2301	54	301	29	96938	2810666	2685
105	2017-03-22 16:06:29	0	0	0	0	0	0	3.45	1.62	0.02	141954	1	2397	99092	141954	139557	2305	54	302	29	96987	2810728	2690
106	2017-03-22 16:16:41	0	0	0	0	0	0	3.46	1.63	0.02	142133	1	2400	99416	142133	139733	2310	54	303	29	97298	2810763	2696
107	2017-03-22 16:26:36	0	0	0	0	0	0	3.48	1.63	0.02	142367	1	2411	99936	142367	139956	2315	54	303	29	97709	2810812	2701
108	2017-03-22 16:36:37	0	0	0	0	0	0	3.48	1.63	0.02	142604	1	2415	100091	142604	140189	2320	54	305	29	97857	2810866	2708
109	2017-03-22 16:46:36	0	0	0	0	0	0	3.49	1.63	0.02	142816	1	2424	100367	142816	140392	2322	54	306	29	98121	2810918	2711
110	2017-03-22 16:56:37	0	0	0	0	0	0	3.5	1.63	0.02	143066	1	2432	100680	143066	140634	2330	54	307	29	98420	2810989	2720
111	2017-03-22 17:06:43	0	0	0	0	0	0	3.51	1.63	0.02	143225	1	2438	100864	143225	140787	2334	54	308	29	98596	2811042	2725
112	2017-03-22 17:16:57	0	0	0	0	0	0	3.51	1.63	0.02	143400	1	2445	101009	143400	140955	2336	54	308	29	98734	2811091	2727
113	2017-03-22 17:28:04	0	0	0	0	0	0	3.51	1.63	0.02	143594	1	2456	101009	143594	141138	2338	54	308	29	98734	2811145	2729
114	2017-03-22 17:37:50	0	0	0	0	0	0	3.52	1.63	0.02	143749	1	2462	101267	143749	141287	2341	54	308	29	98980	2811192	2732
115	2017-03-22 17:47:48	0	0	0	0	0	0	3.52	1.63	0.02	143915	1	2465	101320	143915	141450	2345	54	309	29	99031	2811251	2737
116	2017-03-22 17:57:49	0	0	0	0	0	0	3.52	1.63	0.02	144081	1	2471	101320	144081	141610	2348	54	309	29	99056	2811313	2740
117	2017-03-22 18:07:47	0	0	0	0	0	0	3.54	1.63	0.02	144203	1	2479	101726	144203	141724	2349	54	309	29	99444	2811362	2741
118	2017-03-22 18:18:06	0	0	0	0	0	0	3.54	1.63	0.02	144302	1	2484	101726	144302	141818	2352	54	309	29	99547	2811402	2744
119	2017-03-22 18:28:23	0	0	0	0	0	0	3.54	1.63	0.02	144416	1	2490	101752	144416	141926	2355	54	309	29	99547	2811454	2747
120	2017-03-22 18:38:36	0	0	0	0	0	0	3.55	1.63	0.02	144506	1	2497	101987	144506	142009	2355	54	309	29	99797	2811527	2747
121	2017-03-22 18:49:45	0	0	0	0	0	0	3.55	1.63	0.02	144605	1	2501	101987	144605	142104	2359	54	309	29	99797	2811579	2751
122	2017-03-22 18:59:43	0	0	0	0	0	0	3.55	1.63	0.02	144705	1	2507	101987	144705	142198	2360	54	310	29	99797	2811638	2753
123	2017-03-22 19:09:35	0	0	0	0	0	0	3.55	1.63	0.02	144785	1	2514	101987	144785	142271	2360	54	310	29	99797	2811679	2753
124	2017-03-22 19:19:36	0	0	0	0	0	0	3.55	1.63	0.02	144873	1	2521	102010	144873	142352	2361	54	310	29	99797	2811722	2754
125	2017-03-22 19:29:45	0	0	0	0	0	0	3.55	1.63	0.02	144949	1	2522	102118	144949	142427	2362	54	310	29	99900	2811771	2755
126	2017-03-22 19:39:40	0	0	0	0	0	0	3.55	1.63	0.02	145034	1	2526	102118	145034	142508	2363	54	311	29	99900	2811822	2757
127	2017-03-22 19:50:08	0	0	0	0	0	0	3.55	1.63	0.02	145158	1	2535	102118	145158	142623	2364	54	311	29	99900	2811864	2758
128	2017-03-22 20:00:28	0	0	0	0	0	0	3.56	1.63	0.02	145254	1	2544	102266	145254	142710	2366	54	311	29	100042	2811907	2760
129	2017-03-22 20:10:46	0	0	0	0	0	0	3.56	1.63	0.02	145324	1	2550	102429	145324	142774	2367	54	311	29	100042	2811952	2761
130	2017-03-22 20:26:21	0	0	0	0	0	0	3.56	1.63	0.02	145422	1	2557	102429	145422	142865	2367	54	312	29	100042	2812036	2762
131	2017-03-22 20:39:37	0	0	0	0	0	0	3.56	1.63	0.02	145504	1	2564	102456	145504	142940	2368	54	312	29	100068	2812115	2763
132	2017-03-22 20:50:55	0	0	0	0	0	0	3.56	1.63	0.02	145628	1	2569	102483	145628	143059	2369	54	313	29	100094	2812167	2765
133	2017-03-22 21:01:04	0	0	0	0	0	0	3.56	1.63	0.02	145700	1	2572	102483	145700	143128	2371	54	313	29	100094	2812217	2767
134	2017-03-22 21:12:04	0	0	0	0	0	0	3.56	1.63	0.02	145800	1	2574	102483	145800	143226	2374	54	313	29	100094	2812272	2770
135	2017-03-22 21:24:41	0	0	0	0	0	0	3.56	1.63	0.02	145922	1	2578	102483	145922	143344	2375	54	314	29	100094	2812335	2772
136	2017-03-22 21:36:32	0	0	0	0	0	0	3.56	1.63	0.02	146040	1	2584	102497	146040	143456	2377	54	314	29	100106	2812407	2774
137	2017-03-22 21:48:00	0	0	0	0	0	0	3.56	1.63	0.02	146114	1	2588	102497	146114	143526	2380	54	314	29	100106	2812471	2777
138	2017-03-22 21:58:35	0	0	0	0	0	0	3.56	1.63	0.02	146182	1	2590	102497	146182	143592	2381	56	316	29	100106	2812511	2782
139	2017-03-22 22:08:57	0	0	0	0	0	0	3.56	1.63	0.02	146239	1	2594	102823	146239	143645	2381	56	316	29	100106	2812575	2782
140	2017-03-22 22:20:25	0	0	0	0	0	0	3.56	1.63	0.02	146342	1	2608	102823	146342	143734	2383	56	317	29	100106	2812640	2785
141	2017-03-22 22:30:09	0	0	0	0	0	0	3.56	1.63	0.02	146380	1	2610	102823	146380	143770	2383	56	317	29	100106	2812702	2785
142	2017-03-22 22:40:06	0	0	0	0	0	0	3.56	1.63	0.02	146445	1	2615	102823	146445	143830	2385	56	318	29	100106	2812755	2788
143	2017-03-22 22:50:11	0	0	0	0	0	0	3.56	1.63	0.02	146513	1	2620	102981	146513	143893	2387	56	318	29	100256	2812811	2790
144	2017-03-22 23:00:18	0	0	0	0	0	0	3.56	1.63	0.02	146585	1	2626	102981	146585	143959	2391	56	318	29	100256	2812859	2794
145	2017-03-22 23:10:21	0	0	0	0	0	0	3.56	1.63	0.02	146649	1	2634	102981	146649	144020	2395	56	318	29	100256	2812908	2798
146	2017-03-22 23:20:25	0	0	0	0	0	0	3.56	1.63	0.02	146713	1	2635	102981	146713	144102	2396	56	318	29	100256	2812956	2799
147	2017-03-22 23:31:34	0	0	0	0	0	0	3.56	1.63	0.02	146793	1	2643	102981	146793	144150	2397	56	318	29	100256	2813006	2800
148	2017-03-22 23:42:21	0	0	0	0	0	0	3.57	1.63	0.02	146844	1	2646	103077	146844	144198	2399	56	318	29	100347	2813044	2802
149	2017-03-22 23:52:07	0	0	0	0	0	0	3.57	1.63	0.02	146884	1	2647	103077	146884	144237	2399	56	318	29	100347	2813084	2802
150	2017-03-23 00:02:32	0	0	0	0	0	0	3.57	1.63	0.02	146923	1	2650	103077	146923	144273	2399	56	318	29	100347	2813123	2802
151	2017-03-23 01:03:32	0	0	0	0	0	0	3.57	1.63	0.02	147087	1	2657	103114	147087	144430	2404	56	320	29	100382	2815010	2809
152	2017-03-23 02:03:55	0	0	0	0	0	0	3.57	1.63	0.02	147135	1	2659	103114	147135	144476	2405	56	320	29	100382	2815035	2810
153	2017-03-23 03:05:50	0	0	0	0	0	0	3.57	1.63	0.02	147164	1	2660	103114	147164	144504	2405	56	320	29	100382	2815049	2810
154	2017-03-23 04:05:28	0	0	0	0	0	0	3.57	1.63	0.02	147186	1	2661	103114	147186	144525	2405	56	320	29	100382	2815061	2810
155	2017-03-23 05:05:03	0	0	0	0	0	0	3.57	1.63	0.02	147206	1	2663	103114	147206	144543	2405	56	320	29	100382	2815059	2810
156	2017-03-23 06:05:20	0	0	0	0	0	0	3.57	1.63	0.02	147223	1	2664	103114	147223	144559	2406	56	320	29	100382	2815062	2811
157	2017-03-23 07:05:26	0	0	0	0	0	0	3.57	1.63	0.02	147265	1	2670	103114	147265	144595	2406	56	320	29	100382	2815096	2811
158	2017-03-23 07:15:02	0	0	0	0	0	0	3.57	1.63	0.02	147276	1	2672	103114	147276	144604	2406	56	320	29	100382	2815104	2811
159	2017-03-23 07:25:09	0	0	0	0	0	0	3.57	1.63	0.02	147287	1	2674	103114	147287	144613	2406	56	320	29	100382	2815110	2811
160	2017-03-23 07:35:18	0	0	0	0	0	0	3.57	1.63	0.02	147297	1	2674	103114	147297	144623	2407	56	320	29	100382	2815133	2812
161	2017-03-23 07:45:46	0	0	0	0	0	0	3.57	1.63	0.02	147312	1	2674	103114	147312	144638	2407	56	320	29	100382	2815145	2812
162	2017-03-23 07:58:06	0	0	0	0	0	0	3.57	1.63	0.02	147326	1	2676	103114	147326	144650	2407	56	320	29	100382	2815163	2812
163	2017-03-23 08:07:00	0	0	0	0	0	0	3.57	1.63	0.02	147336	1	2677	103114	147336	144659	2407	56	320	29	100382	2815184	2812
164	2017-03-23 08:17:21	0	0	0	0	0	0	3.57	1.63	0.02	147341	1	2677	103114	147341	144664	2407	56	320	29	100382	2815206	2812
165	2017-03-23 08:27:40	0	0	0	0	0	0	3.57	1.63	0.02	147349	1	2679	103114	147349	144670	2407	56	320	29	100382	2815224	2812
166	2017-03-23 08:40:22	0	0	0	0	0	0	3.57	1.63	0.02	147356	1	2679	103114	147356	144677	2407	56	320	29	100382	2815260	2812
167	2017-03-23 08:52:41	0	0	0	0	0	0	3.57	1.63	0.02	147367	1	2679	103114	147367	144688	2407	56	320	29	100382	2815289	2812
168	2017-03-23 09:03:15	0	0	0	0	0	0	3.57	1.63	0.02	147373	1	2679	103114	147373	144694	2407	56	320	29	100382	2815315	2812
169	2017-03-23 09:13:42	0	0	0	0	0	0	3.57	1.63	0.02	147380	1	2679	103114	147380	144701	2407	56	320	29	100382	2815341	2812
170	2017-03-23 09:25:58	0	0	0	0	0	0	3.57	1.63	0.02	147386	1	2682	103114	147386	144704	2407	56	321	29	100382	2815369	2813
171	2017-03-23 09:36:30	0	0	0	0	0	0	3.57	1.63	0.02	147404	1	2683	103114	147404	144723	2410	56	321	29	100382	2815393	2816
172	2017-03-23 09:48:35	0	0	0	0	0	0	3.57	1.63	0.02	147413	1	2683	103114	147413	144730	2410	56	321	29	100382	2815427	2816
173	2017-03-23 09:58:16	0	0	0	0	0	0	3.57	1.63	0.02	147420	1	2684	103114	147420	144736	2410	56	321	29	100382	2815452	2816
174	2017-03-23 10:53:37	0	0	0	0	0	0	3.57	1.64	0.02	147464	1	2693	103114	147464	144771	2413	56	321	29	100382	2815581	2819
175	2017-03-23 11:03:36	0	0	0	0	0	0	3.57	1.64	0.02	147469	1	2694	103114	147469	144775	2413	56	321	29	100382	2815601	2819
176	2017-03-23 11:13:33	0	0	0	0	0	0	3.57	1.64	0.02	147480	1	2694	103114	147480	144786	2413	56	321	29	100382	2815618	2819
177	2017-03-23 11:23:36	0	0	0	0	0	0	3.57	1.64	0.02	147487	1	2695	103114	147487	144792	2413	56	321	29	100382	2815629	2819
178	2017-03-23 11:33:37	0	0	0	0	0	0	3.57	1.64	0.02	147492	1	2695	103114	147492	144797	2413	56	321	29	100382	2815653	2819
179	2017-03-23 11:43:35	0	0	0	0	0	0	3.57	1.64	0.02	147498	1	2695	103114	147498	144803	2413	56	321	29	100382	2815684	2819
180	2017-03-23 11:53:36	0	0	0	0	0	0	3.57	1.64	0.02	147505	1	2695	103114	147505	144810	2414	56	321	29	100382	2815707	2820
181	2017-03-23 12:03:37	0	0	0	0	0	0	3.57	1.64	0.02	147508	1	2695	103114	147508	144813	2414	56	321	29	100382	2815732	2820
182	2017-03-23 12:13:36	0	0	0	0	0	0	3.57	1.64	0.02	147521	1	2695	103114	147521	144826	2414	56	321	29	100382	2815754	2820
183	2017-03-23 12:23:37	0	0	0	0	0	0	3.56	1.64	0.02	147524	1	2695	103114	147524	144829	2414	56	321	29	100382	2815811	2820
184	2017-03-23 12:33:35	0	0	0	0	0	0	3.56	1.64	0.02	147528	1	2695	103114	147528	144833	2414	56	321	29	100382	2815921	2820
185	2017-03-23 12:43:36	0	0	0	0	0	0	3.56	1.64	0.02	147533	1	2695	103114	147533	144838	2414	56	321	29	100382	2816030	2820
186	2017-03-23 12:53:37	0	0	0	0	0	0	3.56	1.64	0.02	147538	1	2695	103114	147538	144843	2416	56	321	29	100382	2816163	2822
187	2017-03-23 13:03:38	0	0	0	0	0	0	3.56	1.64	0.02	147547	1	2695	103114	147547	144852	2416	56	321	29	100382	2816287	2822
188	2017-03-23 13:13:38	0	0	0	0	0	0	3.56	1.64	0.02	147551	1	2695	103114	147551	144856	2417	56	321	29	100382	2816399	2823
189	2017-03-23 13:23:37	0	0	0	0	0	0	3.56	1.64	0.02	147556	1	2696	103114	147556	144860	2417	56	321	29	100382	2816540	2823
190	2017-03-23 13:33:39	0	0	0	0	0	0	3.56	1.64	0.02	147562	1	2696	103114	147562	144866	2417	56	321	29	100382	2816683	2823
191	2017-03-23 13:43:41	0	0	0	0	0	0	3.56	1.64	0.02	147570	1	2697	103114	147570	144873	2418	56	321	29	100382	2816814	2824
192	2017-03-23 13:53:46	0	0	0	0	0	0	3.56	1.64	0.02	147575	1	2698	103114	147575	144877	2418	56	321	29	100382	2816933	2824
193	2017-03-23 13:55:37	0	0	0	0	0	0	3.56	1.64	0.02	147575	1	2698	103114	147575	144877	2418	56	321	29	100382	2816944	2824
194	2017-03-23 14:05:41	0	0	0	0	0	0	3.56	1.64	0.02	147581	1	2699	103114	147581	144882	2418	56	321	29	100382	2817091	2824
195	2017-03-23 14:15:39	0	0	0	0	0	0	3.56	1.64	0.02	147584	1	2699	103114	147584	144885	2418	56	321	29	100382	2817221	2824
196	2017-03-23 14:25:42	0	0	0	0	0	0	3.56	1.64	0.02	147588	1	2699	103114	147588	144889	2418	56	321	29	100382	2817367	2824
197	2017-03-23 14:35:42	0	0	0	0	0	0	3.56	1.64	0.02	147594	1	2699	103114	147594	144895	2418	56	321	29	100382	2817492	2824
198	2017-03-23 14:45:41	0	0	0	0	0	0	3.56	1.64	0.02	147597	1	2699	103114	147597	144898	2418	56	321	29	100382	2817595	2824
199	2017-03-23 14:55:43	0	0	0	0	0	0	3.56	1.64	0.02	147598	1	2699	103114	147598	144899	2418	56	321	29	100382	2817698	2824
200	2017-03-23 15:05:43	0	0	0	0	0	0	3.56	1.64	0.02	147603	1	2699	103114	147603	144904	2418	56	321	29	100382	2817830	2824
201	2017-03-23 15:15:42	0	0	0	0	0	0	3.56	1.64	0.02	147608	1	2699	103114	147608	144909	2418	56	321	29	100382	2817951	2824
202	2017-03-23 15:25:43	0	0	0	0	0	0	3.56	1.64	0.02	147615	1	2699	103114	147615	144916	2418	56	321	29	100382	2818036	2824
203	2017-03-23 15:35:42	0	0	0	0	0	0	3.56	1.64	0.02	147624	1	2702	103114	147624	144922	2419	56	321	29	100382	2818161	2825
204	2017-03-23 15:45:44	0	0	0	0	0	0	3.56	1.64	0.02	147631	1	2704	103114	147631	144927	2419	56	321	29	100382	2818268	2825
205	2017-03-23 15:55:44	0	0	0	0	0	0	3.56	1.64	0.02	147635	1	2704	103114	147635	144931	2419	56	321	29	100382	2818364	2825
206	2017-03-23 16:05:44	0	0	0	0	0	0	3.56	1.64	0.02	147638	1	2704	103114	147638	144934	2420	56	321	29	100382	2818490	2826
207	2017-03-23 16:15:52	0	0	0	0	0	0	3.56	1.64	0.02	147641	1	2704	103114	147641	144937	2420	56	321	29	100382	2818597	2826
208	2017-03-23 16:25:47	0	0	0	0	0	0	3.56	1.64	0.02	147641	1	2704	103114	147641	144937	2420	56	321	29	100382	2818695	2826
209	2017-03-23 16:35:44	0	0	0	0	0	0	3.56	1.64	0.02	147647	1	2704	103114	147647	144943	2420	56	321	29	100382	2818806	2826
210	2017-03-23 16:45:43	0	0	0	0	0	0	3.56	1.64	0.02	147655	1	2705	103114	147655	144950	2420	56	321	29	100382	2818929	2826
211	2017-03-23 16:55:55	0	0	0	0	0	0	3.56	1.64	0.02	147659	1	2705	103114	147659	144954	2420	56	321	29	100382	2819051	2826
212	2017-03-23 17:05:46	0	0	0	0	0	0	3.56	1.64	0.02	147666	1	2705	103114	147666	144961	2420	56	321	29	100382	2819170	2826
213	2017-03-23 17:15:50	0	0	0	0	0	0	3.56	1.64	0.02	147671	1	2705	103114	147671	144966	2420	56	321	29	100382	2819291	2826
214	2017-03-23 17:25:51	0	0	0	0	0	0	3.56	1.64	0.02	147673	1	2705	103114	147673	144968	2421	56	321	29	100382	2819410	2827
215	2017-03-23 17:35:52	0	0	0	0	0	0	3.56	1.64	0.02	147681	1	2706	103114	147681	144975	2421	56	321	29	100382	2819537	2827
216	2017-03-23 17:45:51	0	0	0	0	0	0	3.56	1.64	0.02	147690	1	2706	103114	147690	144984	2421	56	321	29	100382	2819666	2827
217	2017-03-23 17:55:46	0	0	0	0	0	0	3.56	1.64	0.02	147693	1	2706	103114	147693	144987	2421	56	321	29	100382	2819795	2827
218	2017-03-23 18:05:47	0	0	0	0	0	0	3.56	1.64	0.02	147697	1	2706	103114	147697	144991	2421	56	321	29	100382	2819940	2827
219	2017-03-23 18:15:47	0	0	0	0	0	0	3.56	1.64	0.02	147701	1	2706	103114	147701	144995	2421	56	321	29	100382	2820087	2827
220	2017-03-23 18:25:47	0	0	0	0	0	0	3.56	1.64	0.02	147707	1	2706	103114	147707	145001	2421	56	321	29	100382	2820235	2827
221	2017-03-23 18:36:14	0	0	0	0	0	0	3.56	1.64	0.02	147716	1	2708	103114	147716	145008	2421	56	321	29	100382	2820388	2827
222	2017-03-23 18:46:10	0	0	0	0	0	0	3.56	1.64	0.02	147720	1	2709	103114	147720	145011	2421	56	321	29	100382	2820510	2827
223	2017-03-23 18:56:11	0	0	0	0	0	0	3.56	1.64	0.02	147724	1	2709	103114	147724	145015	2422	56	321	29	100382	2820635	2828
224	2017-03-23 19:06:16	0	0	0	0	0	0	3.56	1.64	0.02	147733	1	2710	103127	147733	145023	2422	56	321	29	100382	2820786	2828
225	2017-03-23 19:16:19	0	0	0	0	0	0	3.56	1.64	0.02	147739	1	2713	103127	147739	145026	2422	56	321	29	100382	2820926	2828
226	2017-03-23 19:26:21	0	0	0	0	0	0	3.56	1.64	0.02	147745	1	2713	103127	147745	145032	2422	56	321	29	100382	2821076	2828
227	2017-03-23 19:36:27	0	0	0	0	0	0	3.56	1.64	0.02	147749	1	2713	103127	147749	145036	2422	56	321	29	100382	2821242	2828
228	2017-03-23 19:46:24	0	0	0	0	0	0	3.56	1.64	0.02	147753	1	2713	103127	147753	145040	2422	56	321	29	100382	2821376	2828
229	2017-03-23 19:56:17	0	0	0	0	0	0	3.56	1.64	0.02	147759	1	2713	103127	147759	145046	2422	56	321	29	100382	2821510	2828
230	2017-03-23 20:06:16	0	0	0	0	0	0	3.56	1.64	0.02	147763	1	2713	103127	147763	145050	2422	56	321	29	100382	2821662	2828
231	2017-03-23 20:16:13	0	0	0	0	0	0	3.56	1.64	0.02	147767	1	2714	103127	147767	145053	2422	56	321	29	100382	2821810	2828
232	2017-03-23 20:26:17	0	0	0	0	0	0	3.56	1.64	0.02	147771	1	2714	103127	147771	145057	2422	56	321	29	100382	2821969	2828
233	2017-03-23 20:36:19	0	0	0	0	0	0	3.56	1.64	0.02	147775	1	2714	103127	147775	145061	2422	56	321	29	100382	2822124	2828
234	2017-03-23 20:46:15	0	0	0	0	0	0	3.56	1.64	0.02	147783	1	2715	103127	147783	145068	2422	56	321	29	100382	2822300	2828
235	2017-03-23 20:56:18	0	0	0	0	0	0	3.56	1.64	0.02	147784	1	2716	103127	147784	145068	2422	56	321	29	100382	2822465	2828
236	2017-03-23 21:06:23	0	0	0	0	0	0	3.56	1.64	0.02	147791	1	2717	103127	147791	145074	2422	56	321	29	100382	2822605	2828
237	2017-03-23 21:16:17	0	0	0	0	0	0	3.56	1.64	0.02	147793	1	2717	103127	147793	145076	2422	56	321	29	100382	2822748	2828
238	2017-03-23 21:26:21	0	0	0	0	0	0	3.56	1.64	0.02	147797	1	2718	103127	147797	145079	2422	56	321	29	100382	2822891	2828
239	2017-03-23 21:36:18	0	0	0	0	0	0	3.56	1.64	0.02	147800	1	2718	103127	147800	145082	2422	56	321	29	100382	2823017	2828
240	2017-03-23 21:46:18	0	0	0	0	0	0	3.56	1.64	0.02	147804	1	2718	103127	147804	145086	2422	56	321	29	100382	2823173	2828
241	2017-03-23 21:56:21	0	0	0	0	0	0	3.56	1.64	0.02	147808	1	2718	103127	147808	145090	2422	56	321	29	100382	2823333	2828
242	2017-03-23 22:06:23	0	0	0	0	0	0	3.56	1.64	0.02	147812	1	2718	103127	147812	145094	2423	56	321	29	100382	2823489	2829
243	2017-03-23 22:16:20	0	0	0	0	0	0	3.56	1.64	0.02	147817	1	2719	103127	147817	145098	2423	56	321	29	100382	2823627	2829
244	2017-03-23 22:26:21	0	0	0	0	0	0	3.55	1.64	0.02	147822	1	2720	103127	147822	145102	2423	56	321	29	100382	2823733	2829
245	2017-03-23 22:36:19	0	0	0	0	0	0	3.55	1.64	0.02	147825	1	2721	103127	147825	145104	2423	56	321	29	100382	2823856	2829
246	2017-03-23 22:46:21	0	0	0	0	0	0	3.55	1.64	0.02	147829	1	2721	103127	147829	145108	2423	56	321	29	100382	2823982	2829
247	2017-03-23 22:56:21	0	0	0	0	0	0	3.55	1.64	0.02	147831	1	2721	103127	147831	145110	2423	56	321	29	100382	2824113	2829
248	2017-03-23 23:06:20	0	0	0	0	0	0	3.55	1.64	0.02	147834	1	2721	103127	147834	145113	2423	56	321	29	100382	2824230	2829
249	2017-03-23 23:16:23	0	0	0	0	0	0	3.55	1.64	0.02	147836	1	2721	103127	147836	145115	2423	56	321	29	100382	2824360	2829
250	2017-03-23 23:26:19	0	0	0	0	0	0	3.55	1.64	0.02	147840	1	2721	103127	147840	145119	2423	56	321	29	100382	2824457	2829
251	2017-03-23 23:35:58	0	0	0	0	0	0	3.55	1.64	0.02	147840	1	2721	103127	147840	145119	2423	56	321	29	100382	2824545	2829
252	2017-03-23 23:45:55	0	0	0	0	0	0	3.55	1.64	0.02	147842	1	2721	103127	147842	145121	2423	56	321	29	100382	2824644	2829
253	2017-03-23 23:55:54	0	0	0	0	0	0	3.55	1.64	0.02	147844	1	2721	103127	147844	145123	2423	56	321	29	100382	2824729	2829
254	2017-03-24 00:30:57	0	0	0	0	0	0	3.55	1.64	0.02	147851	1	2721	103127	147851	145130	2423	56	321	29	100382	2824873	2829
255	2017-03-24 01:30:56	0	0	0	0	0	0	3.57	1.64	0.02	147861	1	2721	103292	147861	145140	2423	56	322	29	100538	2819807	2830
256	2017-03-24 02:30:56	0	0	0	0	0	0	3.57	1.64	0.02	147864	1	2721	103292	147864	145143	2423	56	322	29	100538	2819864	2830
257	2017-03-24 03:31:00	0	0	0	0	0	0	3.57	1.64	0.02	147865	1	2721	103292	147865	145144	2423	56	322	29	100538	2819901	2830
258	2017-03-24 04:30:57	0	0	0	0	0	0	3.57	1.64	0.02	147865	1	2721	103292	147865	145144	2423	56	322	29	100538	2819921	2830
259	2017-03-24 05:31:01	0	0	0	0	0	0	3.57	1.64	0.02	147868	1	2721	103292	147868	145147	2423	56	322	29	100538	2819959	2830
260	2017-03-24 06:31:02	0	0	0	0	0	0	3.57	1.64	0.02	147870	1	2722	103292	147870	145148	2423	56	322	29	100538	2820060	2830
261	2017-03-24 07:05:57	0	0	0	0	0	0	3.56	1.64	0.02	147871	1	2722	103292	147871	145149	2423	56	322	29	100538	2820223	2830
262	2017-03-24 07:15:56	0	0	0	0	0	0	3.56	1.64	0.02	147872	1	2722	103292	147872	145150	2423	56	322	29	100538	2820283	2830
263	2017-03-24 07:25:57	0	0	0	0	0	0	3.56	1.64	0.02	147873	1	2722	103292	147873	145151	2423	56	322	29	100538	2820343	2830
264	2017-03-24 07:35:57	0	0	0	0	0	0	3.56	1.64	0.02	147874	1	2722	103292	147874	145152	2423	56	322	29	100538	2820408	2830
265	2017-03-24 07:46:01	0	0	0	0	0	0	3.56	1.64	0.02	147875	1	2723	103292	147875	145152	2423	56	322	29	100538	2820478	2830
266	2017-03-24 07:55:58	0	0	0	0	0	0	3.56	1.64	0.02	147881	1	2725	103306	147881	145156	2423	56	322	29	100551	2820542	2830
267	2017-03-24 08:06:01	0	0	0	0	0	0	3.56	1.64	0.02	147882	1	2725	103306	147882	145157	2423	56	322	29	100551	2820613	2830
268	2017-03-24 08:16:04	0	0	0	0	0	0	3.56	1.64	0.02	147882	1	2725	103306	147882	145157	2423	56	322	29	100551	2820681	2830
269	2017-03-24 08:26:38	0	0	0	0	0	0	3.56	1.64	0.02	147883	1	2725	103306	147883	145158	2423	56	322	29	100551	2820788	2830
270	2017-03-24 08:36:52	0	0	0	0	0	0	3.56	1.64	0.02	147883	1	2725	103306	147883	145158	2423	56	322	29	100551	2820850	2830
271	2017-03-24 08:46:00	0	0	0	0	0	0	3.56	1.64	0.02	147883	1	2725	103306	147883	145158	2423	56	322	29	100551	2820872	2830
272	2017-03-24 08:56:06	0	0	0	0	0	0	3.56	1.64	0.02	147883	1	2725	103306	147883	145158	2423	56	322	29	100551	2820885	2830
273	2017-03-24 09:06:00	0	0	0	0	0	0	3.56	1.64	0.02	147886	1	2726	103306	147886	145160	2423	56	323	29	100551	2820895	2831
274	2017-03-24 09:16:00	0	0	0	0	0	0	3.56	1.64	0.02	147890	1	2727	103306	147890	145163	2423	56	323	29	100551	2820908	2831
275	2017-03-24 09:26:04	0	0	0	0	0	0	3.56	1.64	0.02	147894	1	2727	103306	147894	145167	2423	56	323	29	100551	2820923	2831
276	2017-03-24 09:36:00	0	0	0	0	0	0	3.56	1.64	0.02	147894	1	2727	103306	147894	145167	2423	56	323	29	100551	2820943	2831
277	2017-03-24 09:46:03	0	0	0	0	0	0	3.56	1.64	0.02	147894	1	2727	103306	147894	145167	2423	56	323	29	100551	2820957	2831
278	2017-03-24 09:56:02	0	0	0	0	0	0	3.56	1.64	0.02	147894	1	2727	103306	147894	145167	2423	56	323	29	100551	2820978	2831
279	2017-03-24 10:06:04	0	0	0	0	0	0	3.56	1.64	0.02	147894	1	2727	103306	147894	145167	2423	56	323	29	100551	2821007	2831
280	2017-03-24 10:16:02	0	0	0	0	0	0	3.56	1.64	0.02	147897	1	2729	103306	147897	145168	2423	56	323	29	100551	2821033	2831
281	2017-03-24 10:26:26	0	0	0	0	0	0	3.56	1.64	0.02	147897	1	2729	103306	147897	145168	2423	56	323	29	100551	2821058	2831
282	2017-03-24 10:36:14	0	0	0	0	0	0	3.56	1.64	0.02	147900	1	2729	103306	147900	145171	2423	56	323	29	100551	2821078	2831
283	2017-03-24 10:46:22	0	0	0	0	0	0	3.56	1.64	0.02	147900	1	2729	103306	147900	145171	2423	56	323	29	100551	2821097	2831
284	2017-03-24 10:56:12	0	0	0	0	0	0	3.56	1.64	0.02	147901	1	2729	103306	147901	145172	2423	56	323	29	100551	2821117	2831
285	2017-03-24 11:06:25	0	0	0	0	0	0	3.56	1.64	0.02	147901	1	2729	103306	147901	145172	2423	56	323	29	100551	2821138	2831
286	2017-03-24 11:16:06	0	0	0	0	0	0	3.56	1.64	0.02	147902	1	2729	103306	147902	145173	2423	56	323	29	100551	2821165	2831
287	2017-03-24 11:26:05	0	0	0	0	0	0	3.56	1.64	0.02	147903	1	2729	103306	147903	145174	2423	56	323	29	100551	2821195	2831
288	2017-03-24 11:36:04	0	0	0	0	0	0	3.56	1.64	0.02	147904	1	2729	103306	147904	145175	2423	56	323	29	100551	2821211	2831
289	2017-03-24 11:46:03	0	0	0	0	0	0	3.56	1.64	0.02	147906	1	2730	103306	147906	145176	2423	56	323	29	100551	2821246	2831
290	2017-03-24 11:56:20	0	0	0	0	0	0	3.56	1.64	0.02	147906	1	2730	103306	147906	145176	2423	56	323	29	100551	2821271	2831
291	2017-03-24 12:06:06	0	0	0	0	0	0	3.56	1.64	0.02	147908	1	2730	103306	147908	145178	2423	56	323	29	100551	2821298	2831
292	2017-03-24 12:16:05	0	0	0	0	0	0	3.56	1.64	0.02	147908	1	2730	103306	147908	145178	2423	56	323	29	100551	2821312	2831
293	2017-03-24 12:26:10	0	0	0	0	0	0	3.56	1.64	0.02	147908	1	2730	103306	147908	145178	2423	56	323	29	100551	2821332	2831
294	2017-03-24 12:36:08	0	0	0	0	0	0	3.56	1.64	0.02	147909	1	2730	103306	147909	145179	2423	56	323	29	100551	2821352	2831
295	2017-03-24 12:46:07	0	0	0	0	0	0	3.56	1.64	0.02	147909	1	2730	103306	147909	145179	2423	56	323	29	100551	2821374	2831
296	2017-03-24 12:56:29	0	0	0	0	0	0	3.56	1.64	0.02	147911	1	2730	103306	147911	145181	2423	56	323	29	100551	2821391	2831
297	2017-03-24 13:06:10	0	0	0	0	0	0	3.56	1.64	0.02	147911	1	2730	103306	147911	145181	2423	56	323	29	100551	2821416	2831
298	2017-03-24 13:16:09	0	0	0	0	0	0	3.56	1.64	0.02	147913	1	2730	103306	147913	145183	2423	56	323	29	100551	2821443	2831
299	2017-03-24 13:26:40	0	0	0	0	0	0	3.57	1.64	0.02	147917	1	2730	103358	147917	145187	2423	58	323	29	100600	2821472	2833
300	2017-03-24 13:36:24	0	0	0	0	0	0	3.57	1.64	0.02	147924	1	2737	103358	147924	145187	2423	58	323	29	100600	2821479	2833
301	2017-03-24 13:46:51	0	0	0	0	0	0	3.57	1.64	0.02	147926	1	2737	103358	147926	145189	2423	58	323	29	100600	2821497	2833
302	2017-03-24 13:56:31	0	0	0	0	0	0	3.57	1.64	0.02	147928	1	2739	103358	147928	145189	2423	58	323	29	100600	2821512	2833
303	2017-03-24 14:06:15	0	0	0	0	0	0	3.57	1.64	0.02	147930	1	2741	103358	147930	145189	2423	58	323	29	100600	2821523	2833
304	2017-03-24 14:16:43	0	0	0	0	0	0	3.57	1.64	0.02	147933	1	2744	103358	147933	145189	2423	58	323	29	100600	2821533	2833
305	2017-03-24 14:26:17	0	0	0	0	0	0	3.57	1.64	0.02	147935	1	2745	103358	147935	145190	2423	58	323	29	100600	2821549	2833
306	2017-03-24 14:36:18	0	0	0	0	0	0	3.57	1.64	0.02	147939	1	2748	103358	147939	145191	2423	58	323	29	100600	2821565	2833
307	2017-03-24 14:46:20	0	0	0	0	0	0	3.57	1.64	0.02	147941	1	2748	103358	147941	145193	2423	58	323	29	100600	2821589	2833
308	2017-03-24 14:56:26	0	0	0	0	0	0	3.57	1.64	0.02	147942	1	2748	103358	147942	145194	2423	58	323	29	100600	2821612	2833
309	2017-03-24 15:06:32	0	0	0	0	0	0	3.57	1.64	0.02	147944	1	2749	103358	147944	145195	2423	58	323	29	100600	2821630	2833
310	2017-03-24 15:16:22	0	0	0	0	0	0	3.57	1.64	0.02	147944	1	2749	103358	147944	145195	2423	58	323	29	100600	2821657	2833
311	2017-03-24 15:26:20	0	0	0	0	0	0	3.57	1.64	0.02	147946	1	2750	103358	147946	145196	2423	58	323	29	100600	2821681	2833
312	2017-03-24 15:36:28	0	0	0	0	0	0	3.57	1.64	0.02	147947	1	2750	103358	147947	145197	2423	58	323	29	100600	2821706	2833
313	2017-03-24 15:46:32	0	0	0	0	0	0	3.57	1.64	0.02	147947	1	2750	103358	147947	145197	2423	58	323	29	100600	2821725	2833
314	2017-03-24 15:56:30	0	0	0	0	0	0	3.57	1.64	0.02	147949	1	2750	103358	147949	145199	2423	58	323	29	100600	2821747	2833
315	2017-03-24 16:07:02	0	0	0	0	0	0	3.57	1.64	0.02	147955	1	2752	103358	147955	145203	2423	58	323	29	100600	2821769	2833
316	2017-03-24 16:16:38	0	0	0	0	0	0	3.57	1.64	0.02	147955	1	2752	103358	147955	145203	2423	58	323	29	100600	2821770	2833
317	2017-03-24 16:26:44	0	0	0	0	0	0	3.57	1.64	0.02	147957	1	2752	103358	147957	145205	2423	58	323	29	100600	2821786	2833
318	2017-03-24 16:36:39	0	0	0	0	0	0	3.57	1.64	0.02	147957	1	2752	103358	147957	145205	2423	58	323	29	100600	2821800	2833
319	2017-03-24 16:46:43	0	0	0	0	0	0	3.57	1.64	0.02	147957	1	2752	103358	147957	145205	2423	58	323	29	100600	2821810	2833
