1	2016-11-22 17:55:03	0	0	0	0	0	0	0	0	0	0	1	0	0	0	0	0	2	12	2	0	2315843	0
2	2016-11-22 18:05:00	0	0	0	0	0	0	0.68	0.34	0	17872	1	51	15712	17872	17821	61	20	61	8	15684	2315857	150
3	2016-11-22 18:25:04	0	0	0	0	0	0	1.22	0.56	0.01	35379	1	384	28651	35379	34995	197	38	114	9	28262	2315877	358
4	2016-11-22 18:35:00	0	0	0	0	0	0	1.37	0.59	0.01	41385	1	600	32083	41385	40785	245	46	136	12	31659	2315888	439
5	2016-11-22 18:44:59	0	0	0	0	0	0	1.56	0.59	0.02	47426	1	855	36933	47426	46571	280	52	154	15	36116	2315899	501
6	2016-11-22 18:55:01	0	0	0	0	0	0	1.74	0.59	0.02	53303	1	1125	41366	53303	52178	317	56	173	15	40377	2315909	561
7	2016-11-22 19:15:02	0	0	0	0	0	0	2	0.61	0.03	62196	1	1562	47160	62196	60634	382	62	195	16	46248	2315943	655
8	2016-11-22 19:25:01	0	0	0	0	0	0	2.1	0.64	0.03	66217	1	1754	49674	66217	64463	427	68	203	18	48640	2315952	716
9	2016-11-22 19:35:01	0	0	0	0	0	0	2.2	0.65	0.03	70127	1	1990	52198	70127	68137	457	76	219	18	51047	2315966	770
10	2016-11-22 19:45:02	0	0	0	0	0	0	2.32	0.64	0.03	74024	1	2240	55241	74024	71784	477	80	225	18	53825	2315976	800
11	2016-11-22 19:55:04	0	0	0	0	0	0	2.4	0.65	0.03	77860	1	2451	57253	77860	75409	507	88	236	19	55541	2315995	850
12	2016-11-22 20:05:03	0	0	0	0	0	0	2.51	0.66	0.03	81364	1	2664	60165	81364	78700	537	88	244	20	58124	2316005	889
13	2016-11-22 20:15:02	0	0	0	0	0	0	2.59	0.66	0.04	84342	1	2857	62139	84342	81485	559	86	252	22	59953	2316027	919
14	2016-11-22 20:25:02	0	0	0	0	0	0	2.67	0.68	0.04	87405	1	3016	63966	87405	84389	592	88	260	24	61918	2316042	964
15	2016-11-22 20:35:03	0	0	0	0	0	0	2.78	0.68	0.04	90541	1	3176	66314	90541	87365	617	90	266	25	64318	2316058	998
16	2016-11-22 20:45:03	0	0	0	0	0	0	2.85	0.68	0.04	93755	1	3344	68125	93755	90411	639	100	278	26	66009	2316079	1043
17	2016-11-22 20:55:04	0	0	0	0	0	0	2.93	0.7	0.04	97085	1	3549	70003	97085	93536	679	100	285	26	67795	2316101	1090
18	2016-11-22 21:05:04	0	0	0	0	0	0	3.01	0.7	0.04	100195	1	3743	72222	100195	96452	705	106	291	26	69673	2316117	1128
19	2016-11-22 21:15:05	0	0	0	0	0	0	3.08	0.7	0.04	102933	1	3924	73772	102933	99009	722	108	297	26	71246	2316136	1153
20	2016-11-22 21:25:06	0	0	0	0	0	0	3.15	0.7	0.04	105721	1	4096	75599	105721	101625	738	108	299	27	72914	2316152	1172
21	2016-11-22 21:35:06	0	0	0	0	0	0	3.22	0.7	0.04	108240	1	4276	77504	108240	103964	760	110	304	28	74516	2316172	1202
22	2016-11-22 21:45:06	0	0	0	0	0	0	3.3	0.7	0.04	110656	1	4446	79488	110656	106210	778	110	308	28	76346	2316191	1224
23	2016-11-22 21:55:07	0	0	0	0	0	0	3.37	0.7	0.04	113168	1	4628	81378	113168	108540	791	112	312	29	78095	2316203	1244
24	2016-11-22 22:05:07	0	0	0	0	0	0	3.41	0.7	0.04	115459	1	4822	82425	115459	110637	804	112	318	30	79028	2316219	1264
25	2016-11-22 22:15:07	0	0	0	0	0	0	3.48	0.69	0.04	117550	1	4999	83886	117550	112551	811	114	327	30	80518	2316243	1282
26	2016-11-22 22:25:07	0	0	0	0	0	0	3.54	0.69	0.05	119635	1	5160	85336	119635	114475	823	114	331	31	81975	2316252	1299
27	2016-11-22 22:35:07	0	0	0	0	0	0	3.62	0.69	0.05	121833	1	5311	87157	121833	116522	840	114	334	31	83816	2316271	1319
28	2016-11-22 22:45:08	0	0	0	0	0	0	3.68	0.69	0.05	124125	1	5473	88758	124125	118652	855	114	339	31	85183	2316289	1339
29	2016-11-22 22:55:09	0	0	0	0	0	0	3.76	0.68	0.05	126433	1	5588	90555	126433	120845	866	114	345	31	86993	2316303	1356
30	2016-11-22 23:05:09	0	0	0	0	0	0	3.8	0.68	0.05	128654	1	5714	91621	128654	122940	879	114	349	31	88002	2316312	1373
31	2016-11-22 23:15:08	0	0	0	0	0	0	3.86	0.68	0.05	130789	1	5815	93140	130789	124974	891	114	355	33	89361	2316320	1393
32	2016-11-22 23:25:07	0	0	0	0	0	0	3.93	0.68	0.05	132757	1	5943	94765	132757	126814	900	114	358	34	90962	2316336	1406
33	2016-11-22 23:35:06	0	0	0	0	0	0	3.98	0.68	0.05	134697	1	6049	96030	134697	128648	912	114	366	34	92105	2316344	1426
34	2016-11-22 23:45:11	0	0	0	0	0	0	4.03	0.67	0.05	136481	1	6163	97349	136481	130318	921	114	368	34	93295	2316354	1437
35	2016-11-22 23:55:04	0	0	0	0	0	0	4.08	0.68	0.05	138107	1	6268	98591	138107	131839	934	114	370	35	94482	2316361	1453
36	2016-11-23 00:05:02	0	0	0	0	0	0	4.12	0.68	0.05	139781	1	6359	99434	139781	133422	946	116	376	35	95396	2316375	1473
37	2016-11-23 00:15:01	0	0	0	0	0	0	4.16	0.68	0.05	141435	1	6441	100428	141435	134994	955	116	380	35	96311	2316380	1486
38	2016-11-23 00:25:01	0	0	0	0	0	0	4.21	0.68	0.05	142883	1	6503	101683	142883	136380	966	116	381	35	97587	2316388	1498
39	2016-11-23 00:35:01	0	0	0	0	0	0	4.3	0.68	0.05	144150	1	6561	103780	144150	137589	975	116	381	35	99646	2316393	1507
40	2016-11-23 00:45:02	0	0	0	0	0	0	4.33	0.68	0.05	145301	1	6607	104448	145301	138694	984	116	383	36	100365	2316397	1519
41	2016-11-23 00:55:01	0	0	0	0	0	0	4.35	0.68	0.05	146319	1	6652	104804	146319	139667	990	116	387	37	100692	2316402	1530
42	2016-11-23 01:05:03	0	0	0	0	0	0	4.36	0.68	0.05	147198	1	6689	105060	147198	140509	996	116	391	37	101033	2316403	1540
43	2016-11-23 01:15:01	0	0	0	0	0	0	4.38	0.68	0.05	148049	1	6728	105414	148049	141321	1003	116	395	38	101466	2316406	1552
44	2016-11-23 01:25:01	0	0	0	0	0	0	4.39	0.68	0.05	148851	1	6775	105586	148851	142076	1010	116	396	39	101653	2316410	1561
45	2016-11-23 01:35:01	0	0	0	0	0	0	4.41	0.68	0.05	149556	1	6827	106122	149556	142729	1016	116	399	39	102149	2316414	1570
46	2016-11-23 01:45:01	0	0	0	0	0	0	4.42	0.68	0.05	150183	1	6857	106487	150183	143326	1021	116	399	39	102487	2316417	1575
47	2016-11-23 01:55:01	0	0	0	0	0	0	4.45	0.68	0.05	150757	1	6890	107072	150757	143867	1027	116	400	39	103029	2316417	1582
48	2016-11-23 02:05:02	0	0	0	0	0	0	4.47	0.68	0.05	151305	1	6919	107503	151305	144386	1029	118	401	39	103428	2316016	1587
49	2016-11-23 02:15:01	0	0	0	0	0	0	4.47	0.68	0.05	151768	1	6941	107566	151768	144827	1030	118	402	39	103487	2316019	1589
50	2016-11-23 02:25:04	0	0	0	0	0	0	4.48	0.68	0.05	152190	1	6967	107851	152190	145223	1031	118	402	39	103667	2316021	1590
51	2016-11-23 02:35:01	0	0	0	0	0	0	4.49	0.68	0.05	152566	1	6984	108092	152566	145582	1032	120	404	39	103890	2316023	1595
52	2016-11-23 02:45:03	0	0	0	0	0	0	4.5	0.68	0.05	152904	1	7002	108395	152904	145902	1034	120	404	39	104169	2316023	1597
53	2016-11-23 02:55:01	0	0	0	0	0	0	4.5	0.68	0.05	153222	1	7017	108463	153222	146205	1037	120	406	40	104232	2316021	1603
54	2016-11-23 03:05:01	0	0	0	0	0	0	4.52	0.68	0.05	153550	1	7029	108936	153550	146521	1038	120	407	40	104669	2316021	1605
55	2016-11-23 03:15:02	0	0	0	0	0	0	4.52	0.68	0.05	153834	1	7042	109026	153834	146792	1040	120	407	40	104753	2316022	1607
56	2016-11-23 03:25:01	0	0	0	0	0	0	4.53	0.68	0.05	154083	1	7051	109300	154083	147032	1042	120	407	40	104806	2316025	1609
57	2016-11-23 03:35:01	0	0	0	0	0	0	4.53	0.68	0.05	154303	1	7064	109483	154303	147239	1044	120	407	40	104974	2316024	1611
58	2016-11-23 03:45:01	0	0	0	0	0	0	4.54	0.68	0.05	154525	1	7071	109631	154525	147454	1047	122	408	40	105081	2316026	1617
59	2016-11-23 03:55:02	0	0	0	0	0	0	4.55	0.68	0.05	154760	1	7081	110036	154760	147679	1049	122	409	40	105454	2316025	1620
60	2016-11-23 04:05:02	0	0	0	0	0	0	4.56	0.68	0.05	154965	1	7090	110098	154965	147875	1050	122	409	40	105511	2316025	1621
61	2016-11-23 04:15:01	0	0	0	0	0	0	4.56	0.68	0.05	155150	1	7104	110098	155150	148046	1052	122	409	40	105511	2316025	1623
62	2016-11-23 04:25:01	0	0	0	0	0	0	4.57	0.68	0.05	155362	1	7113	110334	155362	148249	1052	122	409	40	105727	2316024	1623
63	2016-11-23 04:35:02	0	0	0	0	0	0	4.57	0.68	0.05	155563	1	7118	110428	155563	148445	1052	122	409	40	105872	2316022	1623
64	2016-11-23 04:45:01	0	0	0	0	0	0	4.57	0.68	0.05	155745	1	7125	110428	155745	148620	1053	122	410	40	105872	2316023	1625
65	2016-11-23 04:55:01	0	0	0	0	0	0	4.59	0.68	0.05	155937	1	7134	110712	155937	148803	1053	122	410	40	106191	2316022	1625
66	2016-11-23 05:05:02	0	0	0	0	0	0	4.59	0.67	0.05	156170	1	7140	110831	156170	149030	1054	122	410	40	106330	2316022	1626
67	2016-11-23 05:15:01	0	0	0	0	0	0	4.6	0.67	0.05	156388	1	7149	111277	156388	149239	1054	122	412	40	106623	2316023	1628
68	2016-11-23 05:25:02	0	0	0	0	0	0	4.61	0.68	0.05	156661	1	7166	111396	156661	149495	1059	122	412	40	106731	2316022	1633
69	2016-11-23 05:35:02	0	0	0	0	0	0	4.62	0.68	0.05	156932	1	7185	111620	156932	149747	1064	122	413	40	106938	2316023	1639
70	2016-11-23 05:45:01	0	0	0	0	0	0	4.63	0.68	0.05	157226	1	7197	111927	157226	150029	1067	122	413	40	107219	2316027	1642
71	2016-11-23 05:55:01	0	0	0	0	0	0	4.64	0.68	0.05	157613	1	7228	112211	157613	150385	1068	122	413	40	107480	2316027	1643
72	2016-11-23 06:05:04	0	0	0	0	0	0	4.67	0.68	0.05	158007	1	7249	112849	158007	150758	1069	124	415	40	108065	2316032	1648
73	2016-11-23 06:15:04	0	0	0	0	0	0	4.67	0.68	0.05	158530	1	7286	113014	158530	151244	1074	124	417	40	108155	2316036	1655
74	2016-11-23 06:25:04	0	0	0	0	0	0	4.67	0.68	0.05	159058	1	7316	113187	159058	151742	1077	126	417	40	108231	2316039	1660
75	2016-11-23 06:35:04	0	0	0	0	0	0	4.69	0.68	0.05	159658	1	7359	113719	159658	152299	1089	126	419	40	108717	2316039	1674
76	2016-11-23 06:45:03	0	0	0	0	0	0	4.72	0.68	0.05	160449	1	7407	114358	160449	153042	1098	126	422	41	109424	2316042	1687
77	2016-11-23 06:55:02	0	0	0	0	0	0	4.74	0.69	0.05	161220	1	7459	114850	161220	153761	1105	126	422	41	109875	2316049	1694
78	2016-11-23 07:05:03	0	0	0	0	0	0	4.8	0.69	0.05	162159	1	7516	115973	162159	154643	1112	128	423	41	111093	2316056	1704
79	2016-11-23 07:15:03	0	0	0	0	0	0	4.83	0.69	0.05	163106	1	7582	116470	163106	155524	1122	128	424	41	111807	2316063	1715
80	2016-11-23 07:25:03	0	0	0	0	0	0	4.85	0.69	0.05	164148	1	7641	117142	164148	156507	1133	130	428	41	112410	2316068	1732
81	2016-11-23 07:35:04	0	0	0	0	0	0	4.88	0.69	0.05	164756	1	7680	117882	164756	157076	1136	134	433	42	113091	2316076	1745
82	2016-11-23 07:45:04	0	0	0	0	0	0	4.92	0.69	0.05	165941	1	7747	118655	165941	158194	1148	134	436	42	113970	2316086	1760
83	2016-11-23 07:55:03	0	0	0	0	0	0	4.96	0.69	0.05	167473	1	7846	119848	167473	159627	1153	134	440	42	114967	2316094	1769
84	2016-11-23 08:05:04	0	0	0	0	0	0	5.01	0.69	0.05	168783	1	7954	120934	168783	160829	1172	134	443	42	116071	2316099	1791
85	2016-11-23 08:15:03	0	0	0	0	0	0	5.04	0.7	0.05	170106	1	8049	121567	170106	162057	1183	136	445	42	116725	2316109	1806
86	2016-11-23 08:25:04	0	0	0	0	0	0	5.07	0.7	0.05	171414	1	8138	122331	171414	163276	1195	138	448	42	117375	2316125	1823
87	2016-11-23 08:35:04	0	0	0	0	0	0	5.11	0.7	0.05	172764	1	8265	123531	172764	164499	1203	138	452	42	118336	2316131	1835
88	2016-11-23 08:45:03	0	0	0	0	0	0	5.13	0.7	0.05	174039	1	8376	124094	174039	165663	1213	138	453	42	118816	2316136	1846
89	2016-11-23 08:55:04	0	0	0	0	0	0	5.18	0.7	0.05	175280	1	8467	125268	175280	166813	1226	138	457	42	119884	2316146	1863
90	2016-11-23 09:05:07	0	0	0	0	0	0	5.2	0.7	0.05	176551	1	8571	125979	176551	167980	1236	142	461	43	120535	2316156	1882
91	2016-11-23 09:15:04	0	0	0	0	0	0	5.23	0.7	0.05	177864	1	8688	126628	177864	169176	1246	146	462	43	121129	2316161	1897
92	2016-11-23 09:25:06	0	0	0	0	0	0	5.26	0.7	0.05	179134	1	8783	127352	179134	170351	1257	148	464	44	121772	2316177	1913
93	2016-11-23 09:35:06	0	0	0	0	0	0	5.28	0.7	0.05	180397	1	8876	128116	180397	171521	1260	148	469	44	122407	2316190	1921
94	2016-11-23 09:45:03	0	0	0	0	0	0	5.33	0.7	0.05	181687	1	8968	129003	181687	172719	1273	148	470	44	123412	2316197	1935
95	2016-11-23 09:55:04	0	0	0	0	0	0	5.36	0.7	0.05	183052	1	9080	129927	183052	173972	1282	148	475	44	124238	2316215	1949
96	2016-11-23 10:05:05	0	0	0	0	0	0	5.38	0.7	0.05	184321	1	9175	130402	184321	175146	1292	148	477	45	124672	2316229	1962
97	2016-11-23 10:15:03	0	0	0	0	0	0	5.4	0.7	0.05	185435	1	9278	130968	185435	176157	1305	150	478	45	125190	2316234	1978
98	2016-11-23 10:25:04	0	0	0	0	0	0	5.44	0.71	0.05	186572	1	9376	131855	186572	177196	1317	150	483	45	126000	2316247	1995
99	2016-11-23 10:35:04	0	0	0	0	0	0	5.46	0.71	0.05	187725	1	9462	132447	187725	178263	1325	152	486	45	126381	2316256	2008
100	2016-11-23 10:45:08	0	0	0	0	0	0	5.49	0.71	0.05	188875	1	9528	133085	188875	179347	1333	152	487	45	127076	2316260	2017
101	2016-11-23 10:55:09	0	0	0	0	0	0	5.53	0.71	0.05	189981	1	9586	134146	189981	180395	1341	152	490	45	128127	2316269	2028
102	2016-11-23 11:05:08	0	0	0	0	0	0	5.56	0.71	0.05	190991	1	9652	134988	190991	181339	1353	152	491	45	128895	2316284	2041
103	2016-11-23 11:15:06	0	0	0	0	0	0	5.58	0.71	0.05	191930	1	9706	135389	191930	182224	1363	152	495	45	129261	2316297	2055
104	2016-11-23 11:25:06	0	0	0	0	0	0	5.61	0.71	0.05	192879	1	9775	135912	192879	183104	1371	154	494	45	129912	2316316	2064
105	2016-11-23 11:35:10	0	0	0	0	0	0	5.64	0.71	0.05	193887	1	9842	136536	193887	184045	1376	156	495	45	130569	2316325	2072
106	2016-11-23 11:45:16	0	0	0	0	0	0	5.69	0.71	0.05	194823	1	9895	137885	194823	184928	1385	156	495	45	131848	2316334	2081
107	2016-11-23 11:55:25	0	0	0	0	0	0	5.71	0.71	0.05	195624	1	9947	138354	195624	185677	1392	156	497	46	132288	2316337	2091
108	2016-11-23 12:05:11	0	0	0	0	0	0	5.74	0.71	0.05	196415	1	10011	139040	196415	186404	1404	156	499	46	132915	2316346	2105
109	2016-11-23 12:15:10	0	0	0	0	0	0	5.74	0.72	0.05	197138	1	10073	139065	197138	187065	1412	158	499	46	132938	2316355	2115
110	2016-11-23 12:25:11	0	0	0	0	0	0	5.77	0.72	0.05	197862	1	10137	139592	197862	187725	1416	158	502	46	133603	2316364	2122
111	2016-11-23 12:35:15	0	0	0	0	0	0	5.77	0.72	0.05	198577	1	10198	139894	198577	188379	1423	158	503	46	133696	2316371	2130
112	2016-11-23 12:45:09	0	0	0	0	0	0	5.77	0.72	0.05	199249	1	10258	139894	199249	188991	1431	158	507	46	133696	2316375	2142
113	2016-11-23 12:55:08	0	0	0	0	0	0	5.79	0.72	0.05	199890	1	10304	140351	199890	189586	1435	158	509	46	134206	2316375	2148
114	2016-11-23 13:05:09	0	0	0	0	0	0	5.8	0.72	0.05	200565	1	10355	140630	200565	190210	1441	158	510	46	134461	2316384	2155
115	2016-11-23 13:15:17	0	0	0	0	0	0	5.81	0.72	0.05	201157	1	10396	140796	201157	190761	1446	158	510	46	134612	2316388	2160
116	2016-11-23 13:25:07	0	0	0	0	0	0	5.83	0.72	0.05	201666	1	10435	141156	201666	191231	1450	158	511	46	134941	2316390	2165
117	2016-11-23 13:35:11	0	0	0	0	0	0	5.83	0.72	0.05	202290	1	10480	141156	202290	191810	1455	158	513	46	134941	2316391	2172
118	2016-11-23 13:45:08	0	0	0	0	0	0	5.83	0.72	0.05	202884	1	10513	141297	202884	192371	1463	158	516	46	135071	2316396	2183
119	2016-11-23 13:55:20	0	0	0	0	0	0	5.86	0.72	0.05	203544	1	10555	141926	203544	192989	1467	158	521	46	135716	2316403	2192
120	2016-11-23 14:05:09	0	0	0	0	0	0	5.89	0.72	0.05	204185	1	10602	142837	204185	193583	1474	158	522	47	136474	2316408	2201
121	2016-11-23 14:15:09	0	0	0	0	0	0	5.9	0.72	0.05	204752	1	10644	142982	204752	194108	1480	158	523	47	136607	2316411	2208
122	2016-11-23 14:25:09	0	0	0	0	0	0	5.94	0.72	0.05	205346	1	10685	144040	205346	194661	1487	158	523	48	137572	2316418	2216
123	2016-11-23 14:35:27	0	0	0	0	0	0	5.95	0.73	0.05	205941	1	10729	144376	205941	195212	1494	158	523	48	137878	2316431	2223
124	2016-11-23 14:45:09	0	0	0	0	0	0	5.97	0.73	0.06	206495	1	10775	144737	206495	195720	1498	158	525	48	138207	2316463	2229
125	2016-11-23 14:55:09	0	0	0	0	0	0	5.97	0.73	0.06	207125	1	10822	144865	207125	196303	1502	158	525	48	138324	2316475	2233
126	2016-11-23 15:05:10	0	0	0	0	0	0	6	0.73	0.06	207664	1	10859	145567	207664	196805	1507	158	525	48	138964	2316485	2238
127	2016-11-23 15:15:20	0	0	0	0	0	0	6	0.73	0.06	208147	1	10900	145642	208147	197247	1514	158	526	48	139014	2316506	2246
128	2016-11-23 15:25:12	0	0	0	0	0	0	6.01	0.73	0.06	208662	1	10936	145820	208662	197726	1521	158	528	47	139151	2316505	2254
129	2016-11-23 15:35:11	0	0	0	0	0	0	6.02	0.73	0.06	209202	1	10982	146040	209202	198220	1524	158	529	47	139351	2316514	2258
130	2016-11-23 15:45:11	0	0	0	0	0	0	6.04	0.73	0.06	209742	1	11035	146592	209742	198707	1530	158	530	47	139905	2316518	2265
131	2016-11-23 15:55:19	0	0	0	0	0	0	6.06	0.73	0.06	210264	1	11081	147093	210264	199183	1538	158	530	47	140362	2316524	2273
132	2016-11-23 16:05:16	0	0	0	0	0	0	6.06	0.73	0.06	210759	1	11125	147198	210759	199634	1540	158	532	47	140458	2316541	2277
133	2016-11-23 16:15:12	0	0	0	0	0	0	6.07	0.73	0.06	211238	1	11162	147338	211238	200076	1544	158	533	48	140560	2316552	2283
134	2016-11-23 16:25:13	0	0	0	0	0	0	6.07	0.73	0.06	211757	1	11206	147338	211757	200551	1550	160	533	48	140560	2316558	2291
135	2016-11-23 16:35:11	0	0	0	0	0	0	6.08	0.73	0.06	212270	1	11251	147640	212270	201019	1551	160	534	49	140815	2316568	2294
136	2016-11-23 16:45:15	0	0	0	0	0	0	6.1	0.73	0.06	212834	1	11302	148135	212834	201532	1555	160	535	49	141265	2316585	2299
137	2016-11-23 16:55:12	0	0	0	0	0	0	6.11	0.73	0.06	213417	1	11352	148390	213417	202065	1566	160	535	49	141497	2316610	2310
138	2016-11-23 17:05:14	0	0	0	0	0	0	6.12	0.73	0.06	213976	1	11392	148633	213976	202584	1572	160	536	49	141757	2316636	2317
139	2016-11-23 17:15:12	0	0	0	0	0	0	6.12	0.74	0.06	214477	1	11434	148747	214477	203043	1580	160	537	49	141835	2316651	2326
140	2016-11-23 17:25:20	0	0	0	0	0	0	6.13	0.74	0.06	214952	1	11464	148861	214952	203488	1582	160	537	49	141939	2316675	2328
141	2016-11-23 17:35:16	0	0	0	0	0	0	6.13	0.74	0.06	215412	1	11496	149026	215412	203916	1584	160	538	49	142088	2316697	2331
142	2016-11-23 17:45:11	0	0	0	0	0	0	6.15	0.73	0.06	215920	1	11531	149414	215920	204389	1586	162	540	49	142441	2316721	2337
143	2016-11-23 17:55:26	0	0	0	0	0	0	6.16	0.74	0.06	216485	1	11596	149819	216485	204889	1594	162	541	49	142809	2316750	2346
144	2016-11-23 18:05:33	0	0	0	0	0	0	6.17	0.74	0.06	217033	1	11649	149906	217033	205384	1597	162	542	49	142888	2316778	2350
145	2016-11-23 18:15:52	0	0	0	0	0	0	6.17	0.73	0.06	217531	1	11699	150095	217531	205832	1598	162	544	49	143060	2316795	2353
146	2016-11-23 18:25:40	0	0	0	0	0	0	6.19	0.74	0.06	217988	1	11737	150416	217988	206251	1603	162	545	49	143351	2316827	2359
147	2016-11-23 18:35:33	0	0	0	0	0	0	6.2	0.74	0.06	218399	1	11767	150819	218399	206632	1610	162	546	49	143664	2316861	2367
148	2016-11-23 18:45:28	0	0	0	0	0	0	6.2	0.74	0.06	218850	1	11808	150900	218850	207042	1612	162	547	50	143737	2316884	2371
149	2016-11-23 18:55:41	0	0	0	0	0	0	6.22	0.74	0.06	219336	1	11854	151416	219336	207482	1616	162	549	50	144206	2316909	2377
150	2016-11-23 19:05:32	0	0	0	0	0	0	6.24	0.74	0.06	219859	1	11910	151907	219859	207949	1619	162	550	50	144651	2316925	2381
151	2016-11-23 19:15:29	0	0	0	0	0	0	6.24	0.74	0.06	220279	1	11947	151996	220279	208332	1621	162	551	50	144651	2316948	2384
152	2016-11-23 19:25:28	0	0	0	0	0	0	6.26	0.73	0.06	220701	1	11985	152276	220701	208716	1621	162	553	50	145013	2316972	2386
153	2016-11-23 19:35:28	0	0	0	0	0	0	6.27	0.73	0.06	221104	1	12018	152667	221104	209086	1624	162	553	50	145347	2317001	2389
154	2016-11-23 19:45:49	0	0	0	0	0	0	6.28	0.73	0.06	221547	1	12061	152908	221547	209486	1625	162	553	52	145565	2317027	2392
155	2016-11-23 19:55:31	0	0	0	0	0	0	6.29	0.73	0.06	221961	1	12113	153150	221961	209848	1627	164	554	52	145757	2317056	2397
156	2016-11-23 20:05:33	0	0	0	0	0	0	6.29	0.73	0.06	222433	1	12155	153245	222433	210278	1630	164	556	52	145843	2317094	2402
157	2016-11-23 20:15:30	0	0	0	0	0	0	6.31	0.73	0.06	222847	1	12203	153507	222847	210644	1633	164	557	52	146170	2317121	2406
158	2016-11-23 20:25:30	0	0	0	0	0	0	6.31	0.73	0.06	223255	1	12242	153629	223255	211013	1634	164	559	52	146280	2317150	2409
159	2016-11-23 20:35:49	0	0	0	0	0	0	6.33	0.73	0.06	223711	1	12292	153950	223711	211419	1637	164	560	52	146599	2317178	2413
160	2016-11-23 20:45:37	0	0	0	0	0	0	6.35	0.73	0.06	224097	1	12346	154499	224097	211751	1638	164	561	52	147097	2317207	2415
161	2016-11-23 20:55:29	0	0	0	0	0	0	6.36	0.73	0.06	224548	1	12389	154831	224548	212159	1638	164	561	52	147398	2317234	2415
162	2016-11-23 21:05:31	0	0	0	0	0	0	6.37	0.73	0.06	224928	1	12410	155033	224928	212518	1640	164	561	52	147539	2317259	2417
163	2016-11-23 21:15:31	0	0	0	0	0	0	6.37	0.73	0.06	225312	1	12442	155281	225312	212870	1643	164	563	52	147651	2317283	2422
164	2016-11-23 21:25:41	0	0	0	0	0	0	6.37	0.73	0.06	225667	1	12482	155301	225667	213185	1645	164	564	52	147665	2317300	2425
165	2016-11-23 21:37:10	0	0	0	0	0	0	6.39	0.73	0.06	226218	1	12543	155551	226218	213675	1648	162	566	52	148004	2317321	2428
166	2016-11-23 21:45:37	0	0	0	0	0	0	6.39	0.73	0.06	226375	1	12560	155676	226375	213815	1650	162	566	52	148117	2317339	2430
167	2016-11-23 21:55:32	0	0	0	0	0	0	6.39	0.73	0.06	226735	1	12597	155707	226735	214138	1652	162	568	52	148117	2317364	2434
168	2016-11-23 22:05:36	0	0	0	0	0	0	6.4	0.73	0.06	227059	1	12638	155801	227059	214421	1654	162	569	52	148202	2317380	2437
169	2016-11-23 22:15:34	0	0	0	0	0	0	6.4	0.73	0.06	227354	1	12679	155856	227354	214675	1655	162	570	52	148252	2317394	2439
170	2016-11-23 22:25:38	0	0	0	0	0	0	6.4	0.73	0.06	227688	1	12719	155950	227688	214969	1658	162	571	52	148252	2317414	2443
171	2016-11-23 22:35:46	0	0	0	0	0	0	6.4	0.73	0.06	228026	1	12755	155950	228026	215271	1660	162	571	52	148252	2317430	2445
172	2016-11-23 22:45:32	0	0	0	0	0	0	6.4	0.73	0.06	228344	1	12786	156107	228344	215558	1660	162	571	52	148394	2317448	2445
173	2016-11-23 22:55:34	0	0	0	0	0	0	6.41	0.73	0.06	228677	1	12825	156226	228677	215852	1660	162	571	52	148501	2317462	2445
174	2016-11-23 23:05:31	0	0	0	0	0	0	6.41	0.73	0.06	228941	1	12854	156226	228941	216087	1661	162	572	52	148501	2317470	2447
175	2016-11-23 23:15:32	0	0	0	0	0	0	6.41	0.73	0.06	229223	1	12875	156297	229223	216348	1663	160	574	52	148565	2317489	2449
176	2016-11-23 23:25:33	0	0	0	0	0	0	6.42	0.73	0.06	229467	1	12898	156518	229467	216569	1665	160	574	52	148765	2317506	2451
177	2016-11-23 23:35:54	0	0	0	0	0	0	6.42	0.73	0.06	229732	1	12926	156644	229732	216806	1667	160	575	52	148879	2317526	2454
178	2016-11-23 23:45:32	0	0	0	0	0	0	6.42	0.73	0.06	229986	1	12949	156708	229986	217037	1670	160	576	52	148879	2317542	2458
179	2016-11-23 23:55:31	0	0	0	0	0	0	6.42	0.73	0.06	230217	1	12962	156708	230217	217255	1671	160	577	52	148879	2317557	2460
180	2016-11-24 00:05:31	0	0	0	0	0	0	6.43	0.73	0.06	230407	1	12975	156746	230407	217432	1673	162	578	52	148935	2317564	2465
181	2016-11-24 00:15:17	0	0	0	0	0	0	6.43	0.73	0.06	230599	1	12986	156746	230599	217613	1673	162	579	52	148935	2317566	2466
182	2016-11-24 00:25:24	0	0	0	0	0	0	6.43	0.73	0.06	230771	1	13006	156936	230771	217765	1675	162	579	52	149107	2317571	2468
183	2016-11-24 00:35:35	0	0	0	0	0	0	6.43	0.73	0.06	230910	1	13011	156936	230910	217899	1675	162	579	52	149107	2317578	2468
184	2016-11-24 00:45:23	0	0	0	0	0	0	6.44	0.73	0.06	231017	1	13017	157000	231017	218000	1677	162	580	52	149164	2317586	2471
185	2016-11-24 00:55:50	0	0	0	0	0	0	6.44	0.73	0.06	231153	1	13027	157000	231153	218126	1677	162	581	52	149164	2317584	2472
186	2016-11-24 01:05:28	0	0	0	0	0	0	6.44	0.73	0.06	231266	1	13031	157000	231266	218235	1679	162	581	52	149164	2317590	2474
187	2016-11-24 01:15:20	0	0	0	0	0	0	6.44	0.73	0.06	231383	1	13041	157000	231383	218342	1679	162	582	52	149164	2317595	2475
188	2016-11-24 01:25:21	0	0	0	0	0	0	6.44	0.73	0.06	231478	1	13053	157064	231478	218425	1679	162	582	52	149222	2317600	2475
189	2016-11-24 01:35:46	0	0	0	0	0	0	6.44	0.73	0.06	231552	1	13064	157064	231552	218488	1680	162	582	52	149222	2317601	2476
190	2016-11-24 01:45:33	0	0	0	0	0	0	6.44	0.73	0.06	231622	1	13066	157064	231622	218556	1680	162	582	52	149222	2317603	2476
191	2016-11-24 01:55:16	0	0	0	0	0	0	6.44	0.73	0.06	231669	1	13071	157064	231669	218598	1682	162	582	52	149222	2317605	2478
192	2016-11-24 02:05:21	0	0	0	0	0	0	6.44	0.73	0.06	231730	1	13076	157064	231730	218654	1683	162	582	52	149222	2317293	2479
193	2016-11-24 02:15:17	0	0	0	0	0	0	6.45	0.73	0.06	231796	1	13083	157255	231796	218713	1683	162	582	52	149395	2317293	2479
194	2016-11-24 02:25:23	0	0	0	0	0	0	6.45	0.73	0.06	231838	1	13087	157255	231838	218751	1684	162	582	52	149395	2317298	2480
195	2016-11-24 02:35:24	0	0	0	0	0	0	6.45	0.73	0.06	231875	1	13090	157255	231875	218785	1684	162	582	52	149395	2317301	2480
196	2016-11-24 02:46:53	0	0	0	0	0	0	6.45	0.73	0.06	231913	1	13096	157255	231913	218817	1684	162	582	52	149395	2317304	2480
197	2016-11-24 02:55:28	0	0	0	0	0	0	6.45	0.73	0.06	231941	1	13100	157351	231941	218841	1684	162	582	52	149395	2317305	2480
198	2016-11-24 03:05:18	0	0	0	0	0	0	6.45	0.73	0.06	231973	1	13104	157351	231973	218869	1684	162	582	52	149395	2317306	2480
199	2016-11-24 03:15:19	0	0	0	0	0	0	6.45	0.73	0.06	232005	1	13107	157351	232005	218898	1684	162	582	52	149395	2317307	2480
200	2016-11-24 03:25:17	0	0	0	0	0	0	6.45	0.73	0.06	232044	1	13114	157351	232044	218930	1684	162	582	52	149395	2317308	2480
201	2016-11-24 03:35:19	0	0	0	0	0	0	6.45	0.73	0.06	232071	1	13115	157351	232071	218956	1684	162	582	52	149395	2317308	2480
202	2016-11-24 03:45:18	0	0	0	0	0	0	6.45	0.73	0.06	232090	1	13117	157351	232090	218973	1684	162	582	52	149395	2317307	2480
203	2016-11-24 03:55:19	0	0	0	0	0	0	6.45	0.73	0.06	232111	1	13120	157351	232111	218991	1684	162	582	52	149395	2317307	2480
204	2016-11-24 04:06:45	0	0	0	0	0	0	6.45	0.73	0.06	232129	1	13122	157367	232129	219007	1684	162	582	52	149409	2317308	2480
205	2016-11-24 04:16:16	0	0	0	0	0	0	6.45	0.73	0.06	232143	1	13124	157495	232143	219019	1684	162	582	52	149409	2317308	2480
206	2016-11-24 04:28:51	0	0	0	0	0	0	6.45	0.73	0.06	232170	1	13126	157495	232170	219044	1684	162	582	52	149409	2317308	2480
207	2016-11-24 04:35:18	0	0	0	0	0	0	6.45	0.73	0.06	232184	1	13128	157495	232184	219056	1684	162	582	52	149409	2317306	2480
208	2016-11-24 04:45:17	0	0	0	0	0	0	6.45	0.73	0.06	232198	1	13130	157495	232198	219068	1685	162	582	52	149409	2317306	2481
209	2016-11-24 04:55:18	0	0	0	0	0	0	6.45	0.73	0.06	232221	1	13131	157495	232221	219090	1685	162	582	52	149409	2317306	2481
210	2016-11-24 05:05:16	0	0	0	0	0	0	6.45	0.73	0.06	232243	1	13134	157519	232243	219109	1685	162	582	52	149431	2317304	2481
211	2016-11-24 05:15:18	0	0	0	0	0	0	6.45	0.73	0.06	232278	1	13137	157519	232278	219141	1685	162	582	52	149431	2317304	2481
212	2016-11-24 05:25:19	0	0	0	0	0	0	6.45	0.73	0.06	232310	1	13139	157519	232310	219171	1685	162	582	52	149431	2317305	2481
213	2016-11-24 05:36:11	0	0	0	0	0	0	6.45	0.73	0.06	232329	1	13141	157631	232329	219188	1685	162	582	52	149532	2317305	2481
214	2016-11-24 05:45:23	0	0	0	0	0	0	6.45	0.73	0.06	232370	1	13144	157655	232370	219226	1685	162	582	52	149553	2317308	2481
215	2016-11-24 05:55:19	0	0	0	0	0	0	6.45	0.73	0.06	232417	1	13147	157655	232417	219270	1686	162	582	52	149553	2317306	2482
216	2016-11-24 06:05:20	0	0	0	0	0	0	6.45	0.73	0.06	232444	1	13149	157655	232444	219295	1687	162	582	52	149553	2317305	2483
217	2016-11-24 06:15:19	0	0	0	0	0	0	6.45	0.73	0.06	232479	1	13156	157655	232479	219323	1688	162	582	52	149553	2317308	2484
218	2016-11-24 06:25:39	0	0	0	0	0	0	6.45	0.73	0.06	232494	1	13160	157655	232494	219334	1688	162	582	52	149553	2317312	2484
219	2016-11-24 06:35:50	0	0	0	0	0	0	6.45	0.73	0.06	232525	1	13164	157655	232525	219361	1688	162	582	52	149553	2317315	2484
220	2016-11-24 06:45:21	0	0	0	0	0	0	6.45	0.73	0.06	232553	1	13167	157655	232553	219386	1688	162	582	52	149553	2317320	2484
221	2016-11-24 06:57:49	0	0	0	0	0	0	6.45	0.73	0.06	232597	1	13174	157671	232597	219423	1688	162	582	52	149568	2317330	2484
222	2016-11-24 07:05:29	0	0	0	0	0	0	6.45	0.73	0.06	232609	1	13176	157671	232609	219433	1688	162	582	52	149568	2317338	2484
223	2016-11-24 07:15:26	0	0	0	0	0	0	6.45	0.73	0.06	232639	1	13185	157671	232639	219454	1688	162	582	52	149568	2317345	2484
224	2016-11-24 07:25:20	0	0	0	0	0	0	6.45	0.73	0.06	232665	1	13192	157671	232665	219473	1688	162	582	52	149568	2317354	2484
225	2016-11-24 07:35:22	0	0	0	0	0	0	6.45	0.73	0.06	232689	1	13199	157671	232689	219490	1688	162	582	52	149568	2317356	2484
226	2016-11-24 07:45:24	0	0	0	0	0	0	6.45	0.73	0.06	232727	1	13206	157671	232727	219521	1688	162	582	52	149568	2317364	2484
227	2016-11-24 07:55:23	0	0	0	0	0	0	6.45	0.73	0.06	232766	1	13214	157671	232766	219552	1689	162	582	52	149568	2317376	2485
228	2016-11-24 08:05:23	0	0	0	0	0	0	6.45	0.73	0.06	232804	1	13224	157671	232804	219580	1689	162	582	52	149568	2317385	2485
229	2016-11-24 08:15:24	0	0	0	0	0	0	6.45	0.73	0.06	232832	1	13239	157671	232832	219593	1690	162	582	52	149568	2317400	2486
230	2016-11-24 08:25:38	0	0	0	0	0	0	6.45	0.73	0.06	232850	1	13242	157925	232850	219608	1690	162	582	52	149568	2317413	2486
231	2016-11-24 08:35:49	0	0	0	0	0	0	6.45	0.73	0.06	232864	1	13247	157925	232864	219617	1690	162	582	52	149568	2317428	2486
232	2016-11-24 08:46:07	0	0	0	0	0	0	6.45	0.73	0.06	232889	1	13254	157925	232889	219635	1690	162	582	52	149568	2317442	2486
233	2016-11-24 08:55:24	0	0	0	0	0	0	6.45	0.73	0.06	232916	1	13268	158118	232916	219648	1690	162	582	52	149568	2317457	2486
234	2016-11-24 09:05:22	0	0	0	0	0	0	6.45	0.73	0.06	232931	1	13274	158118	232931	219657	1690	162	582	52	149568	2317464	2486
235	2016-11-24 09:15:22	0	0	0	0	0	0	6.45	0.73	0.06	232958	1	13282	158118	232958	219676	1691	162	582	52	149568	2317476	2487
236	2016-11-24 09:25:22	0	0	0	0	0	0	6.45	0.73	0.06	232981	1	13292	158118	232981	219689	1691	162	582	52	149568	2317490	2487
237	2016-11-24 09:35:29	0	0	0	0	0	0	6.45	0.73	0.06	232997	1	13300	158118	232997	219697	1691	162	582	52	149568	2317500	2487
238	2016-11-24 09:45:20	0	0	0	0	0	0	6.45	0.73	0.06	233021	1	13309	158118	233021	219712	1692	162	582	52	149568	2317507	2488
239	2016-11-24 09:55:23	0	0	0	0	0	0	6.45	0.73	0.06	233039	1	13316	158118	233039	219723	1693	162	582	52	149568	2317518	2489
240	2016-11-24 10:06:21	0	0	0	0	0	0	6.45	0.73	0.06	233058	1	13320	158118	233058	219738	1693	162	582	52	149568	2317536	2489
241	2016-11-24 10:15:54	0	0	0	0	0	0	6.45	0.73	0.06	233075	1	13331	158118	233075	219744	1693	162	582	52	149568	2317549	2489
242	2016-11-24 10:26:47	0	0	0	0	0	0	6.45	0.73	0.06	233084	1	13335	158118	233084	219749	1693	162	582	52	149568	2317572	2489
243	2016-11-24 10:35:50	0	0	0	0	0	0	6.45	0.73	0.06	233100	1	13339	158118	233100	219761	1694	162	582	52	149568	2317584	2490
244	2016-11-24 10:53:17	0	0	0	0	0	0	6.45	0.73	0.06	233135	1	13349	158118	233135	219786	1694	162	582	52	149568	2317597	2490
245	2016-11-24 10:57:33	0	0	0	0	0	0	6.45	0.73	0.06	233135	1	13349	158118	233135	219786	1694	162	582	52	149568	2317604	2490
246	2016-11-24 11:05:23	0	0	0	0	0	0	6.45	0.73	0.06	233148	1	13353	158118	233148	219795	1694	162	582	52	149568	2317615	2490
247	2016-11-24 11:16:36	0	0	0	0	0	0	6.45	0.73	0.06	233167	1	13360	158118	233167	219807	1695	162	582	52	149568	2317628	2491
248	2016-11-24 11:25:30	0	0	0	0	0	0	6.45	0.73	0.06	233179	1	13362	158118	233179	219817	1695	162	582	52	149568	2317645	2491
249	2016-11-24 11:35:25	0	0	0	0	0	0	6.45	0.73	0.06	233193	1	13370	158118	233193	219823	1695	162	582	52	149568	2317657	2491
250	2016-11-24 11:45:27	0	0	0	0	0	0	6.45	0.73	0.06	233201	1	13375	158118	233201	219826	1695	162	582	52	149568	2317672	2491
251	2016-11-24 11:56:27	0	0	0	0	0	0	6.45	0.73	0.06	233211	1	13381	158118	233211	219830	1695	162	582	52	149568	2317684	2491
252	2016-11-24 12:17:50	0	0	0	0	0	0	6.45	0.73	0.06	233222	1	13385	158118	233222	219841	1695	162	582	52	149568	2317707	2491
253	2016-11-24 12:26:11	0	0	0	0	0	0	6.45	0.73	0.06	233233	1	13388	158118	233233	219845	1695	162	582	52	149568	2317712	2491
254	2016-11-24 12:40:18	0	0	0	0	0	0	6.45	0.73	0.06	233247	1	13394	158118	233247	219853	1695	162	582	52	149568	2317723	2491
255	2016-11-24 13:05:56	0	0	0	0	0	0	6.45	0.73	0.06	233265	1	13399	158118	233265	219866	1695	162	582	52	149568	2317765	2491
256	2016-11-24 13:16:42	0	0	0	0	0	0	6.45	0.73	0.06	233282	1	13406	158118	233282	219876	1695	162	582	52	149568	2317788	2491
257	2016-11-24 13:31:47	0	0	0	0	0	0	6.45	0.73	0.06	233295	1	13411	158118	233295	219884	1695	162	582	52	149568	2317813	2491
258	2016-11-24 13:38:17	0	0	0	0	0	0	6.45	0.73	0.06	233307	1	13413	158118	233307	219894	1695	162	582	52	149568	2317820	2491
259	2016-11-24 13:47:19	0	0	0	0	0	0	6.45	0.73	0.06	233315	1	13417	158118	233315	219898	1695	162	582	52	149568	2317829	2491
260	2016-11-24 14:04:42	0	0	0	0	0	0	6.45	0.73	0.06	233331	1	13421	158118	233331	219910	1695	162	582	52	149568	2317854	2491
261	2016-11-24 14:06:58	0	0	0	0	0	0	6.45	0.73	0.06	233331	1	13421	158118	233331	219910	1695	162	582	52	149568	2317855	2491
262	2016-11-24 14:16:06	0	0	0	0	0	0	6.45	0.73	0.06	233338	1	13423	158118	233338	219915	1695	162	582	52	149568	2317878	2491
263	2016-11-24 14:27:11	0	0	0	0	0	0	6.45	0.73	0.06	233346	1	13428	158118	233346	219918	1695	162	582	52	149568	2317897	2491
264	2016-11-24 14:35:37	0	0	0	0	0	0	6.45	0.73	0.06	233356	1	13430	158118	233356	219926	1696	162	582	52	149568	2317914	2492
265	2016-11-24 14:47:01	0	0	0	0	0	0	6.45	0.73	0.06	233362	1	13432	158118	233362	219930	1696	162	582	52	149568	2317928	2492
266	2016-11-24 15:10:39	0	0	0	0	0	0	6.45	0.73	0.06	233392	1	13443	158118	233392	219949	1696	162	582	52	149568	2317961	2492
267	2016-11-24 15:15:06	0	0	0	0	0	0	6.45	0.73	0.06	233392	1	13443	158118	233392	219949	1696	162	582	52	149568	2317963	2492
268	2016-11-24 15:16:41	0	0	0	0	0	0	6.45	0.73	0.06	233397	1	13443	158118	233397	219954	1696	162	582	52	149568	2317966	2492
269	2016-11-24 15:25:43	0	0	0	0	0	0	6.45	0.73	0.06	233400	1	13445	158118	233400	219955	1696	162	582	52	149568	2317976	2492
270	2016-11-24 15:36:30	0	0	0	0	0	0	6.45	0.73	0.06	233413	1	13449	158118	233413	219964	1696	162	582	52	149568	2317988	2492
271	2016-11-24 15:49:04	0	0	0	0	0	0	6.45	0.73	0.06	233429	1	13453	158118	233429	219976	1697	162	583	52	149568	2318002	2494
272	2016-11-24 15:56:05	0	0	0	0	0	0	6.45	0.73	0.06	233435	1	13458	158118	233435	219977	1697	162	583	52	149568	2318016	2494
273	2016-11-24 16:05:36	0	0	0	0	0	0	6.45	0.73	0.06	233441	1	13461	158118	233441	219980	1697	162	583	52	149568	2318037	2494
274	2016-11-24 16:16:57	0	0	0	0	0	0	6.45	0.73	0.06	233451	1	13464	158118	233451	219987	1697	162	583	52	149568	2318052	2494
275	2016-11-24 16:26:13	0	0	0	0	0	0	6.45	0.73	0.06	233458	1	13467	158118	233458	219991	1697	162	583	52	149568	2318060	2494
276	2016-11-24 16:38:11	0	0	0	0	0	0	6.45	0.73	0.06	233471	1	13473	158118	233471	220001	1697	162	583	52	149568	2318077	2494
277	2016-11-24 16:46:16	0	0	0	0	0	0	6.45	0.73	0.06	233479	1	13476	158118	233479	220003	1697	162	583	52	149568	2318091	2494
278	2016-11-24 16:56:10	0	0	0	0	0	0	6.45	0.73	0.06	233489	1	13483	158118	233489	220006	1697	162	583	52	149568	2318105	2494
279	2016-11-24 17:05:48	0	0	0	0	0	0	6.45	0.73	0.06	233500	1	13488	158118	233500	220012	1697	162	583	52	149568	2318127	2494
280	2016-11-24 17:15:46	0	0	0	0	0	0	6.45	0.73	0.06	233507	1	13492	158118	233507	220015	1697	162	583	52	149568	2318141	2494
281	2016-11-24 17:44:21	0	0	0	0	0	0	6.45	0.73	0.06	233529	1	13499	158118	233529	220030	1697	162	583	52	149568	2318177	2494
282	2016-11-24 17:48:03	0	0	0	0	0	0	6.45	0.73	0.06	233529	1	13499	158118	233529	220030	1697	162	583	52	149568	2318182	2494
283	2016-11-24 17:56:02	0	0	0	0	0	0	6.45	0.73	0.06	233534	1	13501	158118	233534	220033	1697	162	583	52	149568	2318201	2494
284	2016-11-24 18:07:41	0	0	0	0	0	0	6.45	0.73	0.06	233540	1	13503	158118	233540	220037	1697	162	583	52	149568	2318211	2494
285	2016-11-24 18:16:11	0	0	0	0	0	0	6.45	0.73	0.06	233548	1	13505	158118	233548	220043	1697	162	583	52	149568	2318222	2494
286	2016-11-24 18:29:13	0	0	0	0	0	0	6.45	0.73	0.06	233558	1	13511	158118	233558	220047	1697	162	583	52	149568	2318241	2494
287	2016-11-24 18:47:42	0	0	0	0	0	0	6.45	0.73	0.06	233575	1	13516	158118	233575	220059	1697	162	583	52	149568	2318274	2494
288	2016-11-24 18:52:58	0	0	0	0	0	0	6.45	0.73	0.06	233580	1	13519	158118	233580	220061	1697	162	583	52	149568	2318285	2494
289	2016-11-24 18:56:24	0	0	0	0	0	0	6.45	0.73	0.06	233580	1	13519	158118	233580	220061	1697	162	583	52	149568	2318300	2494
290	2016-11-24 19:10:20	0	0	0	0	0	0	6.45	0.73	0.06	233597	1	13526	158118	233597	220071	1699	162	583	52	149568	2318327	2496
291	2016-11-24 19:20:16	0	0	0	0	0	0	6.45	0.73	0.06	233608	1	13531	158118	233608	220077	1699	162	583	52	149568	2318353	2496
292	2016-11-24 19:30:20	0	0	0	0	0	0	6.45	0.73	0.06	233617	1	13535	158118	233617	220082	1699	162	583	52	149568	2318380	2496
293	2016-11-24 19:40:21	0	0	0	0	0	0	6.45	0.73	0.06	233624	1	13536	158118	233624	220088	1699	162	583	52	149568	2318399	2496
294	2016-11-24 19:50:22	0	0	0	0	0	0	6.45	0.73	0.06	233630	1	13536	158118	233630	220094	1699	162	583	52	149568	2318419	2496
295	2016-11-24 20:00:22	0	0	0	0	0	0	6.45	0.73	0.06	233636	1	13537	158118	233636	220099	1699	162	583	52	149568	2318442	2496
296	2016-11-24 20:10:22	0	0	0	0	0	0	6.45	0.73	0.06	233646	1	13544	158118	233646	220102	1699	162	583	52	149568	2318454	2496
297	2016-11-24 20:20:23	0	0	0	0	0	0	6.45	0.73	0.06	233651	1	13546	158118	233651	220105	1699	162	583	52	149568	2318481	2496
298	2016-11-24 20:30:22	0	0	0	0	0	0	6.45	0.73	0.06	233656	1	13547	158118	233656	220109	1699	162	583	52	149568	2318502	2496
299	2016-11-24 20:40:23	0	0	0	0	0	0	6.45	0.73	0.06	233663	1	13550	158118	233663	220113	1699	162	583	52	149568	2318521	2496
300	2016-11-24 20:50:22	0	0	0	0	0	0	6.45	0.73	0.06	233668	1	13553	158118	233668	220115	1699	162	583	52	149568	2318543	2496
301	2016-11-24 21:00:23	0	0	0	0	0	0	6.45	0.73	0.06	233676	1	13555	158118	233676	220121	1699	162	583	52	149568	2318569	2496
302	2016-11-24 21:10:25	0	0	0	0	0	0	6.45	0.73	0.06	233683	1	13558	158118	233683	220125	1699	162	583	52	149568	2318590	2496
303	2016-11-24 21:20:23	0	0	0	0	0	0	6.45	0.73	0.06	233688	1	13561	158118	233688	220127	1699	162	583	52	149568	2318619	2496
304	2016-11-24 21:30:24	0	0	0	0	0	0	6.45	0.73	0.06	233699	1	13565	158118	233699	220134	1699	162	583	52	149568	2318637	2496
305	2016-11-24 21:40:24	0	0	0	0	0	0	6.45	0.73	0.06	233714	1	13570	158118	233714	220144	1699	162	583	52	149568	2318660	2496
306	2016-11-24 21:50:24	0	0	0	0	0	0	6.45	0.73	0.06	233717	1	13570	158118	233717	220147	1699	162	583	52	149568	2318678	2496
307	2016-11-24 22:00:23	0	0	0	0	0	0	6.45	0.73	0.06	233723	1	13572	158134	233723	220151	1699	162	583	52	149568	2318697	2496
308	2016-11-24 22:10:24	0	0	0	0	0	0	6.45	0.73	0.06	233730	1	13575	158134	233730	220155	1699	162	583	52	149568	2318723	2496
309	2016-11-24 22:20:26	0	0	0	0	0	0	6.45	0.73	0.06	233733	1	13576	158134	233733	220157	1699	162	583	52	149568	2318746	2496
310	2016-11-24 22:30:25	0	0	0	0	0	0	6.45	0.73	0.06	233738	1	13578	158134	233738	220160	1699	162	583	52	149568	2318772	2496
311	2016-11-24 22:40:25	0	0	0	0	0	0	6.45	0.73	0.06	233748	1	13579	158134	233748	220169	1699	162	583	52	149568	2318792	2496
312	2016-11-24 22:50:25	0	0	0	0	0	0	6.45	0.73	0.06	233755	1	13582	158134	233755	220173	1699	162	583	52	149568	2318809	2496
313	2016-11-24 23:00:26	0	0	0	0	0	0	6.45	0.73	0.06	233761	1	13582	158134	233761	220179	1700	162	583	52	149568	2318829	2497
314	2016-11-24 23:10:24	0	0	0	0	0	0	6.45	0.73	0.06	233763	1	13584	158134	233763	220179	1700	162	583	52	149568	2318850	2497
315	2016-11-24 23:20:25	0	0	0	0	0	0	6.45	0.73	0.06	233766	1	13587	158134	233766	220179	1700	162	583	52	149568	2318859	2497
316	2016-11-24 23:30:24	0	0	0	0	0	0	6.45	0.73	0.06	233772	1	13588	158134	233772	220184	1700	162	583	52	149568	2318874	2497
317	2016-11-24 23:40:26	0	0	0	0	0	0	6.45	0.73	0.06	233780	1	13589	158183	233780	220191	1700	162	583	52	149568	2318890	2497
318	2016-11-24 23:50:23	0	0	0	0	0	0	6.45	0.73	0.06	233783	1	13590	158183	233783	220193	1700	162	583	52	149568	2318900	2497
319	2016-11-25 00:00:24	0	0	0	0	0	0	6.45	0.73	0.06	233790	1	13591	158183	233790	220199	1700	162	583	52	149568	2318920	2497
320	2016-11-25 00:10:03	0	0	0	0	0	0	6.45	0.73	0.06	233793	1	13591	158183	233793	220202	1700	162	583	52	149568	2318935	2497
321	2016-11-25 00:20:02	0	0	0	0	0	0	6.45	0.73	0.06	233798	1	13595	158183	233798	220203	1700	162	583	52	149568	2318943	2497
322	2016-11-25 00:30:02	0	0	0	0	0	0	6.45	0.73	0.06	233798	1	13595	158183	233798	220203	1700	162	583	52	149568	2318949	2497
323	2016-11-25 00:40:01	0	0	0	0	0	0	6.45	0.73	0.06	233800	1	13596	158183	233800	220204	1700	162	583	52	149568	2318961	2497
324	2016-11-25 00:50:02	0	0	0	0	0	0	6.45	0.73	0.06	233800	1	13596	158183	233800	220204	1700	162	583	52	149568	2318972	2497
325	2016-11-25 01:00:02	0	0	0	0	0	0	6.45	0.73	0.06	233805	1	13597	158183	233805	220208	1700	162	583	52	149568	2318983	2497
326	2016-11-25 01:10:01	0	0	0	0	0	0	6.45	0.73	0.06	233806	1	13597	158183	233806	220209	1700	162	583	52	149568	2318994	2497
327	2016-11-25 01:20:01	0	0	0	0	0	0	6.45	0.73	0.06	233806	1	13597	158183	233806	220209	1700	162	583	52	149568	2318998	2497
328	2016-11-25 01:30:02	0	0	0	0	0	0	6.45	0.73	0.06	233807	1	13598	158183	233807	220209	1700	162	583	52	149568	2319001	2497
329	2016-11-25 01:40:02	0	0	0	0	0	0	6.45	0.73	0.06	233808	1	13598	158183	233808	220210	1700	162	583	52	149568	2319011	2497
330	2016-11-25 01:50:00	0	0	0	0	0	0	6.45	0.73	0.06	233808	1	13598	158183	233808	220210	1700	162	583	52	149568	2319012	2497
331	2016-11-25 02:00:02	0	0	0	0	0	0	6.45	0.73	0.06	233810	1	13599	158183	233810	220211	1700	162	583	52	149568	2318806	2497
332	2016-11-25 02:10:02	0	0	0	0	0	0	6.45	0.73	0.06	233812	1	13599	158183	233812	220213	1700	162	583	52	149568	2318811	2497
333	2016-11-25 02:20:03	0	0	0	0	0	0	6.45	0.73	0.06	233812	1	13599	158183	233812	220213	1700	162	583	52	149568	2318813	2497
334	2016-11-25 02:30:01	0	0	0	0	0	0	6.45	0.73	0.06	233812	1	13599	158183	233812	220213	1700	162	583	52	149568	2318817	2497
335	2016-11-25 02:40:04	0	0	0	0	0	0	6.45	0.73	0.06	233812	1	13599	158183	233812	220213	1700	162	583	52	149568	2318819	2497
336	2016-11-25 02:50:01	0	0	0	0	0	0	6.45	0.73	0.06	233813	1	13599	158183	233813	220214	1700	162	583	52	149568	2318819	2497
337	2016-11-25 03:00:02	0	0	0	0	0	0	6.45	0.73	0.06	233813	1	13599	158183	233813	220214	1700	162	583	52	149568	2318820	2497
338	2016-11-25 03:10:01	0	0	0	0	0	0	6.45	0.73	0.06	233813	1	13599	158183	233813	220214	1700	162	583	52	149568	2318823	2497
339	2016-11-25 03:20:02	0	0	0	0	0	0	6.45	0.73	0.06	233813	1	13599	158183	233813	220214	1700	162	583	52	149568	2318823	2497
340	2016-11-25 03:30:01	0	0	0	0	0	0	6.45	0.73	0.06	233813	1	13599	158183	233813	220214	1700	162	583	52	149568	2318825	2497
341	2016-11-25 03:40:03	0	0	0	0	0	0	6.45	0.73	0.06	233813	1	13599	158183	233813	220214	1700	162	583	52	149568	2318825	2497
342	2016-11-25 03:50:02	0	0	0	0	0	0	6.45	0.73	0.06	233813	1	13599	158183	233813	220214	1700	162	583	52	149568	2318827	2497
343	2016-11-25 04:00:02	0	0	0	0	0	0	6.45	0.73	0.06	233813	1	13599	158183	233813	220214	1700	162	583	52	149568	2318826	2497
344	2016-11-25 04:10:02	0	0	0	0	0	0	6.45	0.73	0.06	233813	1	13599	158183	233813	220214	1700	162	583	52	149568	2318824	2497
345	2016-11-25 04:20:04	0	0	0	0	0	0	6.45	0.73	0.06	233813	1	13599	158183	233813	220214	1700	162	583	52	149568	2318824	2497
346	2016-11-25 04:30:02	0	0	0	0	0	0	6.45	0.73	0.06	233814	1	13600	158183	233814	220214	1700	162	583	52	149568	2318824	2497
347	2016-11-25 04:40:03	0	0	0	0	0	0	6.45	0.73	0.06	233814	1	13600	158183	233814	220214	1700	162	583	52	149568	2318824	2497
348	2016-11-25 04:50:00	0	0	0	0	0	0	6.45	0.73	0.06	233814	1	13600	158183	233814	220214	1700	162	583	52	149568	2318827	2497
349	2016-11-25 05:00:02	0	0	0	0	0	0	6.45	0.73	0.06	233814	1	13600	158183	233814	220214	1700	162	583	52	149568	2318827	2497
350	2016-11-25 05:10:02	0	0	0	0	0	0	6.45	0.73	0.06	233815	1	13600	158183	233815	220215	1700	162	583	52	149568	2318825	2497
351	2016-11-25 05:20:03	0	0	0	0	0	0	6.45	0.73	0.06	233815	1	13600	158183	233815	220215	1700	162	583	52	149568	2318828	2497
352	2016-11-25 05:30:02	0	0	0	0	0	0	6.45	0.73	0.06	233816	1	13600	158183	233816	220216	1700	162	583	52	149568	2318828	2497
353	2016-11-25 05:40:03	0	0	0	0	0	0	6.45	0.73	0.06	233816	1	13600	158183	233816	220216	1700	162	583	52	149568	2318830	2497
354	2016-11-25 05:50:03	0	0	0	0	0	0	6.45	0.73	0.06	233817	1	13600	158183	233817	220217	1700	162	583	52	149568	2318830	2497
355	2016-11-25 06:00:03	0	0	0	0	0	0	6.45	0.73	0.06	233819	1	13602	158183	233819	220217	1700	162	583	52	149568	2318832	2497
356	2016-11-25 06:10:02	0	0	0	0	0	0	6.45	0.73	0.06	233819	1	13602	158183	233819	220217	1700	162	583	52	149568	2318833	2497
357	2016-11-25 06:20:03	0	0	0	0	0	0	6.45	0.73	0.06	233819	1	13602	158183	233819	220217	1700	162	583	52	149568	2318837	2497
358	2016-11-25 06:30:03	0	0	0	0	0	0	6.45	0.73	0.06	233819	1	13602	158183	233819	220217	1700	162	583	52	149568	2318840	2497
359	2016-11-25 06:40:05	0	0	0	0	0	0	6.45	0.73	0.06	233822	1	13604	158183	233822	220218	1700	162	583	52	149568	2318845	2497
360	2016-11-25 06:50:03	0	0	0	0	0	0	6.45	0.73	0.06	233824	1	13606	158183	233824	220218	1700	162	583	52	149568	2318845	2497
361	2016-11-25 07:00:05	0	0	0	0	0	0	6.45	0.73	0.06	233824	1	13606	158183	233824	220218	1700	162	583	52	149568	2318850	2497
362	2016-11-25 07:10:05	0	0	0	0	0	0	6.45	0.73	0.06	233824	1	13606	158183	233824	220218	1700	162	583	52	149568	2318849	2497
363	2016-11-25 07:20:05	0	0	0	0	0	0	6.45	0.73	0.06	233824	1	13606	158183	233824	220218	1700	162	583	52	149568	2318853	2497
364	2016-11-25 07:30:05	0	0	0	0	0	0	6.45	0.73	0.06	233824	1	13606	158183	233824	220218	1700	162	583	52	149568	2318861	2497
365	2016-11-25 07:40:07	0	0	0	0	0	0	6.45	0.73	0.06	233825	1	13606	158183	233825	220219	1700	162	583	52	149568	2318868	2497
366	2016-11-25 07:50:05	0	0	0	0	0	0	6.45	0.73	0.06	233827	1	13606	158183	233827	220221	1700	162	583	52	149568	2318876	2497
367	2016-11-25 08:00:06	0	0	0	0	0	0	6.45	0.73	0.06	233827	1	13606	158183	233827	220221	1700	162	583	52	149568	2318887	2497
368	2016-11-25 08:10:06	0	0	0	0	0	0	6.45	0.73	0.06	233828	1	13606	158183	233828	220222	1700	162	583	52	149568	2318891	2497
369	2016-11-25 08:20:07	0	0	0	0	0	0	6.45	0.73	0.06	233829	1	13606	158183	233829	220223	1700	162	583	52	149568	2318897	2497
370	2016-11-25 08:30:05	0	0	0	0	0	0	6.45	0.73	0.06	233830	1	13606	158183	233830	220224	1700	162	583	52	149568	2318913	2497
371	2016-11-25 08:40:06	0	0	0	0	0	0	6.45	0.73	0.06	233832	1	13607	158183	233832	220225	1700	162	583	52	149568	2318914	2497
372	2016-11-25 08:50:04	0	0	0	0	0	0	6.45	0.73	0.06	233832	1	13607	158183	233832	220225	1700	162	583	52	149568	2318919	2497
373	2016-11-25 09:00:06	0	0	0	0	0	0	6.45	0.73	0.06	233835	1	13609	158183	233835	220226	1700	162	583	52	149568	2318920	2497
374	2016-11-25 09:10:07	0	0	0	0	0	0	6.45	0.73	0.06	233835	1	13609	158183	233835	220226	1700	162	583	52	149568	2318925	2497
375	2016-11-25 09:20:05	0	0	0	0	0	0	6.45	0.73	0.06	233836	1	13610	158183	233836	220226	1700	162	583	52	149568	2318926	2497
376	2016-11-25 09:30:07	0	0	0	0	0	0	6.45	0.73	0.06	233837	1	13610	158183	233837	220227	1700	162	583	52	149568	2318929	2497
377	2016-11-25 09:40:06	0	0	0	0	0	0	6.45	0.73	0.06	233837	1	13610	158183	233837	220227	1700	162	583	52	149568	2318934	2497
378	2016-11-25 09:50:05	0	0	0	0	0	0	6.45	0.73	0.06	233839	1	13611	158183	233839	220228	1700	162	583	52	149568	2318934	2497
379	2016-11-25 10:00:07	0	0	0	0	0	0	6.45	0.73	0.06	233841	1	13612	158183	233841	220229	1700	162	583	52	149568	2318935	2497
380	2016-11-25 10:10:06	0	0	0	0	0	0	6.45	0.73	0.06	233843	1	13612	158183	233843	220229	1700	162	583	52	149568	2318933	2497
381	2016-11-25 10:20:06	0	0	0	0	0	0	6.45	0.73	0.06	233850	1	13618	158183	233850	220229	1701	162	583	52	149568	2318930	2498
382	2016-11-25 10:30:07	0	0	0	0	0	0	6.45	0.73	0.06	233855	1	13639	158183	233855	220229	1702	162	583	52	149568	2318939	2499
383	2016-11-25 10:40:06	0	0	0	0	0	0	6.45	0.73	0.06	233871	1	13642	158183	233871	220230	1702	162	583	52	149568	2318941	2499
384	2016-11-25 10:50:05	0	0	0	0	0	0	6.45	0.73	0.06	233879	1	13648	158183	233879	220231	1702	162	583	52	149568	2318942	2499
385	2016-11-25 11:00:09	0	0	0	0	0	0	6.45	0.73	0.06	233885	1	13654	158183	233885	220231	1702	162	583	52	149568	2318946	2499
386	2016-11-25 11:10:07	0	0	0	0	0	0	6.45	0.73	0.06	233890	1	13658	158183	233890	220232	1702	162	583	52	149568	2318944	2499
387	2016-11-25 11:20:08	0	0	0	0	0	0	6.45	0.73	0.06	233893	1	13661	158183	233893	220232	1702	162	583	52	149568	2318946	2499
388	2016-11-25 11:30:08	0	0	0	0	0	0	6.45	0.73	0.06	233895	1	13662	158183	233895	220233	1702	162	583	52	149568	2318948	2499
389	2016-11-25 11:40:11	0	0	0	0	0	0	6.45	0.73	0.06	233898	1	13665	158183	233898	220233	1702	162	583	52	149568	2318959	2499
390	2016-11-25 11:50:10	0	0	0	0	0	0	6.45	0.73	0.06	233902	1	13668	158183	233902	220234	1702	164	584	52	149568	2318965	2502
391	2016-11-25 12:13:09	0	0	0	0	0	0	6.45	0.73	0.06	233914	1	13677	158183	233914	220237	1702	164	584	52	149568	2318983	2502
392	2016-11-25 12:23:10	0	0	0	0	0	0	6.45	0.73	0.06	233914	1	13677	158183	233914	220237	1702	164	584	52	149568	2318990	2502
393	2016-11-25 12:33:10	0	0	0	0	0	0	6.45	0.73	0.06	233915	1	13678	158183	233915	220237	1702	164	584	52	149568	2319005	2502
394	2016-11-25 12:43:12	0	0	0	0	0	0	6.45	0.73	0.06	233918	1	13681	158183	233918	220237	1702	164	584	52	149568	2319009	2502
395	2016-11-25 12:53:11	0	0	0	0	0	0	6.45	0.73	0.06	233918	1	13681	158183	233918	220237	1702	164	584	52	149568	2319018	2502
396	2016-11-25 13:03:11	0	0	0	0	0	0	6.45	0.73	0.06	233918	1	13681	158183	233918	220237	1702	164	584	52	149568	2319025	2502
397	2016-11-25 13:13:13	0	0	0	0	0	0	6.45	0.73	0.06	233921	1	13683	158183	233921	220238	1702	164	584	52	149568	2319031	2502
398	2016-11-25 13:23:11	0	0	0	0	0	0	6.45	0.73	0.06	233927	1	13686	158183	233927	220241	1702	164	584	52	149568	2319035	2502
399	2016-11-25 13:33:12	0	0	0	0	0	0	6.45	0.73	0.06	233930	1	13687	158183	233930	220243	1702	164	584	52	149568	2319042	2502
400	2016-11-25 13:43:13	0	0	0	0	0	0	6.45	0.73	0.06	233931	1	13688	158183	233931	220243	1702	164	584	52	149568	2319048	2502
401	2016-11-25 13:53:12	0	0	0	0	0	0	6.45	0.73	0.06	233932	1	13689	158183	233932	220243	1702	164	584	52	149568	2319058	2502
402	2016-11-25 14:03:15	0	0	0	0	0	0	6.45	0.73	0.06	233935	1	13692	158183	233935	220243	1702	164	584	52	149568	2319068	2502
403	2016-11-25 14:13:13	0	0	0	0	0	0	6.45	0.73	0.06	233939	1	13695	158183	233939	220244	1702	164	584	52	149568	2319070	2502
404	2016-11-25 14:23:13	0	0	0	0	0	0	6.45	0.73	0.06	233942	1	13695	158183	233942	220247	1702	164	584	52	149568	2319072	2502
405	2016-11-25 14:33:13	0	0	0	0	0	0	6.45	0.73	0.06	233944	1	13697	158183	233944	220247	1702	164	584	52	149568	2319079	2502
406	2016-11-25 14:38:23	0	0	0	0	0	0	6.45	0.73	0.06	233946	1	13698	158183	233946	220248	1702	164	584	52	149568	2319083	2502
407	2016-11-25 14:43:06	0	0	0	0	0	0	6.45	0.73	0.06	233946	1	13698	158183	233946	220248	1702	164	584	52	149568	2319082	2502
408	2016-11-25 14:53:13	0	0	0	0	0	0	6.45	0.73	0.06	233947	1	13698	158183	233947	220249	1702	164	584	52	149568	2319088	2502
409	2016-11-25 15:03:15	0	0	0	0	0	0	6.45	0.73	0.06	233950	1	13700	158183	233950	220250	1702	164	584	52	149568	2319094	2502
410	2016-11-25 15:13:14	0	0	0	0	0	0	6.45	0.73	0.06	233953	1	13703	158183	233953	220250	1702	164	584	52	149568	2319099	2502
411	2016-11-25 15:23:15	0	0	0	0	0	0	6.45	0.73	0.06	233955	1	13704	158183	233955	220251	1702	164	584	52	149568	2319108	2502
412	2016-11-25 15:33:14	0	0	0	0	0	0	6.45	0.73	0.06	233956	1	13705	158183	233956	220251	1702	164	584	52	149568	2319115	2502
413	2016-11-25 15:43:15	0	0	0	0	0	0	6.45	0.73	0.06	233957	1	13706	158183	233957	220251	1702	164	584	52	149568	2319122	2502
414	2016-11-25 15:53:13	0	0	0	0	0	0	6.45	0.73	0.06	233958	1	13707	158183	233958	220251	1702	164	584	52	149568	2319126	2502
415	2016-11-25 16:03:24	0	0	0	0	0	0	6.45	0.73	0.06	233961	1	13710	158183	233961	220251	1702	164	584	52	149568	2319135	2502
416	2016-11-25 16:13:18	0	0	0	0	0	0	6.45	0.73	0.06	233963	1	13712	158183	233963	220251	1702	164	584	52	149568	2319139	2502
417	2016-11-25 16:23:18	0	0	0	0	0	0	6.45	0.73	0.06	233965	1	13713	158183	233965	220252	1702	164	584	52	149568	2319145	2502
418	2016-11-25 16:33:15	0	0	0	0	0	0	6.45	0.73	0.06	233966	1	13713	158183	233966	220253	1702	164	584	52	149568	2319147	2502
419	2016-11-25 16:43:16	0	0	0	0	0	0	6.45	0.73	0.06	233968	1	13715	158183	233968	220253	1702	164	584	52	149568	2319151	2502
420	2016-11-25 16:53:16	0	0	0	0	0	0	6.45	0.73	0.06	233975	1	13719	158183	233975	220256	1702	164	584	52	149568	2319165	2502
421	2016-11-25 17:03:16	0	0	0	0	0	0	6.45	0.73	0.06	233976	1	13720	158183	233976	220256	1702	164	584	52	149568	2319176	2502
422	2016-11-25 17:13:18	0	0	0	0	0	0	6.45	0.73	0.06	233981	1	13723	158183	233981	220258	1702	164	584	52	149568	2319183	2502
423	2016-11-25 17:23:16	0	0	0	0	0	0	6.45	0.73	0.06	233981	1	13723	158183	233981	220258	1702	164	584	52	149568	2319192	2502
424	2016-11-25 17:33:17	0	0	0	0	0	0	6.45	0.73	0.06	233982	1	13724	158183	233982	220258	1702	164	584	52	149568	2319196	2502
425	2016-11-25 17:43:18	0	0	0	0	0	0	6.45	0.73	0.06	233984	1	13725	158183	233984	220259	1702	164	584	52	149568	2319202	2502
426	2016-11-25 17:53:18	0	0	0	0	0	0	6.45	0.73	0.06	233985	1	13726	158183	233985	220259	1702	164	584	52	149568	2319207	2502
