1	2018-03-08 20:23:24		0	0	0	0	0	0	0.26	27.14	0	11699	0	43	9688	11699	11699	3175	10	22	16	9430	3615971	3223
2	2018-03-08 20:33:57		0	0	0	0	0	0	0.4	28.21	0	17860	0	85	14760	17860	17860	5039	20	26	18	14338	3616035	5103
3	2018-03-08 20:44:29		0	0	0	0	0	0	0.55	28.41	0.01	25047	0	158	20680	25047	25047	7115	23	31	21	19990	3616103	7190
4	2018-03-08 20:55:00		0	0	0	0	0	0	0.62	28.37	0.01	28273	0	201	23032	28273	28273	8021	23	39	25	22324	3616155	8108
5	2018-03-08 21:05:27		0	0	0	0	0	0	0.71	28.45	0.01	32859	0	267	26917	32859	32859	9348	24	44	25	25854	3616219	9441
6	2018-03-08 21:15:57		0	0	0	0	0	0	0.76	27.15	0.01	34436	0	295	28500	34436	34436	9348	27	46	25	27406	3616281	9446
7	2018-03-08 21:26:29		0	0	0	0	0	0	0.81	27.47	0.01	37526	0	350	30759	37526	37526	10309	30	48	26	29338	3616324	10413
8	2018-03-08 21:37:00		0	0	0	0	0	0	0.84	28.86	0.01	39040	0	375	31890	39040	39040	11266	33	49	26	30534	3616372	11374
9	2018-03-08 21:47:30		0	0	0	0	0	0	0.9	28.06	0.01	41755	0	429	34117	41755	41755	11717	34	51	26	32475	3616419	11828
10	2018-03-08 21:58:02		0	0	0	0	0	0	0.92	29.09	0.01	43089	0	457	34990	43089	43089	12534	34	52	26	33281	3616470	12646
11	2018-03-08 22:08:32		0	0	0	0	0	0	0.98	29.25	0.01	45766	0	511	37502	45766	45766	13388	35	56	26	35466	3616531	13505
12	2018-03-08 22:19:01		0	0	0	0	0	0	1.04	28.51	0.01	48401	0	553	39728	48401	48401	13800	37	56	26	37655	3616583	13919
13	2018-03-08 22:29:31		0	0	0	0	0	0	1.07	29.52	0.01	49692	0	613	40684	49692	49692	14669	38	57	27	38683	3616627	14791
14	2018-03-08 22:40:03		0	0	0	0	0	0	1.12	29.03	0.01	52309	0	721	43101	52309	52309	15183	41	60	28	40596	3616664	15312
15	2018-03-08 22:50:39		0	0	0	0	0	0	1.14	29.87	0.01	53620	0	778	44006	53620	53620	16018	42	60	28	41329	3616703	16148
16	2018-03-08 23:01:02		0	0	0	0	0	0	1.18	29.28	0.02	56080	0	843	44797	56080	56080	16418	43	61	28	42824	3616760	16550
17	2018-03-08 23:11:30		0	0	0	0	0	0	1.21	29.99	0.02	57328	0	881	45552	57328	57328	17195	43	61	28	43851	3616799	17327
18	2018-03-08 23:21:59		0	0	0	0	0	0	1.25	30.04	0.02	58556	0	927	47917	58556	58556	17593	44	62	28	45030	3616850	17727
19	2018-03-08 23:32:30		0	0	0	0	0	0	1.28	30.09	0.02	60357	0	970	49158	60357	60357	18164	44	65	28	46188	3616882	18301
20	2018-03-08 23:43:01		0	0	0	0	0	0	1.31	29.84	0.02	61832	0	1006	50433	61832	61832	18448	46	66	28	47321	3616925	18588
21	2018-03-08 23:53:33		0	0	0	0	0	0	1.32	30.29	0.02	62654	0	1025	50930	62654	62654	18976	49	66	28	47681	3616955	19119
22	2018-03-09 00:21:03		0	0	0	0	0	0	1.38	30.39	0.02	65154	0	1109	53793	65154	65154	19802	54	72	28	50030	3617049	19956
23	2018-03-09 01:26:04		0	0	0	0	0	0	1.48	30.5	0.02	69298	0	1236	57708	69298	69298	21138	56	74	28	53483	3617212	21296
24	2018-03-09 02:31:08		0	0	0	0	0	0	1.51	30.63	0.02	70824	0	1284	58996	70824	70824	21694	56	75	28	54531	3617290	21853
25	2018-03-09 03:36:05		0	0	0	0	0	0	1.53	30.75	0.02	71802	0	1304	59855	71802	71802	22077	56	75	28	55277	3617337	22236
26	2018-03-09 04:41:06		0	0	0	0	0	0	1.54	30.9	0.02	72578	0	1318	60543	72578	72578	22430	56	76	27	55743	3617392	22589
27	2018-03-09 05:46:07		0	0	0	0	0	0	1.57	30.9	0.02	74009	0	1347	61441	74009	74009	22872	56	77	27	56668	3617454	23032
28	2018-03-09 06:51:08		0	0	0	0	0	0	1.63	31.1	0.02	77261	0	1433	64291	77261	77261	24029	57	78	27	58935	3617558	24191
29	2018-03-09 07:14:07		0	0	0	0	0	0	1.66	31.42	0.02	78834	0	1462	65251	78834	78834	24772	58	78	27	59880	3617636	24935
30	2018-03-09 07:24:40		0	0	0	0	0	0	1.67	31.5	0.02	79952	0	1486	65979	79952	79952	25182	58	79	27	60531	3617659	25346
31	2018-03-09 07:35:11		0	0	0	0	0	0	1.68	31.56	0.02	80601	0	1498	66442	80601	80601	25440	58	81	27	60882	3617690	25606
32	2018-03-09 07:45:42		0	0	0	0	0	0	1.7	31.66	0.02	81734	0	1518	67246	81734	81734	25877	58	82	27	61613	3617725	26044
33	2018-03-09 07:56:16		0	0	0	0	0	0	1.71	31.4	0.02	82411	0	1535	67761	82411	82411	25877	58	83	27	62024	3617770	26045
34	2018-03-09 08:06:39		0	0	0	0	0	0	1.74	31.75	0.02	83658	0	1557	68848	83658	83658	26564	60	85	27	62929	3617798	26736
35	2018-03-09 08:17:10		0	0	0	0	0	0	1.75	31.79	0.02	84345	0	1576	69164	84345	84345	26815	61	85	27	63223	3617846	26988
36	2018-03-09 08:27:40		0	0	0	0	0	0	1.77	31.87	0.02	85644	0	1614	70332	85644	85644	27296	62	86	27	63957	3617897	27471
37	2018-03-09 08:38:11		0	0	0	0	0	0	1.78	31.89	0.02	86316	0	1627	70969	86316	86316	27523	62	87	27	64462	3617948	27699
38	2018-03-09 08:48:42		0	0	0	0	0	0	1.81	31.88	0.02	87004	0	1646	71863	87004	87004	27736	62	87	27	65387	3618004	27912
39	2018-03-09 08:59:13		0	0	0	0	0	0	1.84	31.97	0.02	88275	0	1674	73169	88275	88275	28219	63	89	27	66581	3618055	28398
40	2018-03-09 09:09:42		0	0	0	0	0	0	1.87	31.99	0.02	88811	0	1686	73887	88811	88811	28410	64	90	27	67480	3618108	28591
41	2018-03-09 09:20:14		0	0	0	0	0	0	1.89	32.04	0.02	89961	0	1711	75159	89961	89961	28825	66	95	27	68564	3618166	29013
42	2018-03-09 09:30:43		0	0	0	0	0	0	1.91	32.06	0.02	90506	0	1733	75852	90506	90506	29018	66	95	27	69152	3618214	29206
43	2018-03-09 09:41:21		0	0	0	0	0	0	1.93	32.09	0.02	91618	0	1754	77026	91618	91618	29401	66	98	27	69993	3618255	29592
44	2018-03-09 09:51:48		0	0	0	0	0	0	1.94	32.1	0.02	92179	0	1768	77488	92179	92179	29587	66	99	27	70375	3618297	29779
45	2018-03-09 10:02:15		0	0	0	0	0	0	1.96	32.08	0.02	93167	0	1790	78149	93167	93167	29890	67	100	27	70953	3618348	30084
46	2018-03-09 10:12:47		0	0	0	0	0	0	1.98	31.95	0.02	94089	0	1826	79000	94089	94089	30065	67	100	28	71740	3618386	30260
47	2018-03-09 10:23:16		0	0	0	0	0	0	1.99	32.1	0.02	94584	0	1836	79323	94584	94584	30357	67	102	30	71993	3618445	30556
48	2018-03-09 10:33:46		0	0	0	0	0	0	1.99	32.09	0.02	95149	0	1855	79650	95149	95149	30534	68	103	28	72161	3618504	30733
49	2018-03-09 10:44:19		0	0	0	0	0	0	2.01	32.1	0.02	95965	0	1882	79966	95965	95965	30801	69	104	29	72555	3618552	31003
50	2018-03-09 10:54:48		0	0	0	0	0	0	2.01	32.11	0.02	96352	0	1893	80286	96352	96352	30937	72	104	29	72681	3618600	31142
51	2018-03-09 11:05:18		0	0	0	0	0	0	2.04	32.13	0.02	97248	0	1926	81191	97248	97248	31244	72	105	29	73659	3618645	31450
52	2018-03-09 11:15:49		0	0	0	0	0	0	2.05	31.99	0.02	98055	0	1949	81748	98055	98055	31372	76	105	29	74195	3618683	31582
53	2018-03-09 11:26:19		0	0	0	0	0	0	2.06	32.15	0.02	98517	0	1975	82303	98517	98517	31669	76	105	29	74588	3618719	31879
54	2018-03-09 11:36:50		0	0	0	0	0	0	2.08	32.04	0.02	99299	0	2002	83120	99299	99299	31814	76	106	30	75376	3618761	32026
55	2018-03-09 11:47:24		0	0	0	0	0	0	2.09	32.17	0.02	99671	0	2011	83263	99671	99671	32060	78	106	30	75493	3618809	32274
56	2018-03-09 11:57:55		0	0	0	0	0	0	2.11	32.16	0.02	100460	0	2034	84242	100460	100460	32306	79	106	30	76312	3618844	32521
57	2018-03-09 12:08:23		0	0	0	0	0	0	2.11	32.16	0.02	100838	0	2047	84411	100838	100838	32428	79	108	30	76451	3618887	32645
58	2018-03-09 12:18:51		0	0	0	0	0	0	2.13	32.07	0.02	101615	0	2085	85065	101615	101615	32586	79	109	30	76991	3618915	32804
59	2018-03-09 12:29:22		0	0	0	0	0	0	2.13	32.17	0.02	101953	0	2110	85131	101953	101953	32798	81	110	30	77022	3618949	33019
60	2018-03-09 12:39:53		0	0	0	0	0	0	2.16	32.07	0.02	102674	0	2142	85852	102674	102674	32923	81	111	30	78018	3618988	33145
61	2018-03-09 12:50:24		0	0	0	0	0	0	2.16	32.21	0.02	103010	0	2162	86196	103010	103010	33179	81	111	30	78334	3619021	33401
62	2018-03-09 13:00:54		0	0	0	0	0	0	2.17	32.08	0.02	103725	0	2200	86507	103725	103725	33279	83	113	31	78582	3619060	33506
63	2018-03-09 13:11:24		0	0	0	0	0	0	2.17	32.21	0.02	104115	0	2220	86613	104115	104115	33536	85	114	31	78670	3619090	33766
64	2018-03-09 13:21:56		0	0	0	0	0	0	2.19	32.21	0.02	104743	0	2253	87428	104743	104743	33738	85	114	31	79212	3619129	33968
65	2018-03-09 13:32:25		0	0	0	0	0	0	2.2	32.11	0.02	105394	0	2276	87829	105394	105394	33844	85	115	31	79607	3619173	34075
66	2018-03-09 13:42:55		0	0	0	0	0	0	2.2	32.22	0.02	105690	0	2280	87869	105690	105690	34050	85	115	31	79639	3619203	34281
67	2018-03-09 13:53:29		0	0	0	0	0	0	2.21	32.22	0.02	106060	0	2301	88165	106060	106060	34170	85	115	32	79948	3619237	34402
68	2018-03-09 14:03:56		0	0	0	0	0	0	2.22	32.14	0.02	106757	0	2340	88467	106757	106757	34307	85	115	32	80172	3619274	34539
69	2018-03-09 14:14:26		0	0	0	0	0	0	2.22	32.24	0.02	107094	0	2353	88725	107094	107094	34531	85	115	32	80425	3619309	34763
70	2018-03-09 14:24:57		0	0	0	0	0	0	2.23	32.14	0.02	107794	0	2379	89324	107794	107794	34641	86	115	32	80883	3619354	34874
71	2018-03-09 14:35:28		0	0	0	0	0	0	2.25	32.24	0.02	108130	0	2391	89913	108130	108130	34858	87	115	32	81434	3619390	35092
72	2018-03-09 14:46:02		0	0	0	0	0	0	2.27	32.25	0.02	108872	0	2415	90558	108872	108872	35115	87	115	32	82050	3619422	35349
73	2018-03-09 14:56:29		0	0	0	0	0	0	2.27	32.26	0.02	109216	0	2435	90925	109216	109216	35233	87	115	32	82261	3619462	35467
74	2018-03-09 15:07:01		0	0	0	0	0	0	2.27	32.25	0.02	109926	0	2458	91064	109926	109926	35451	87	115	32	82323	3619492	35685
75	2018-03-09 15:17:30		0	0	0	0	0	0	2.28	32.25	0.02	110173	0	2468	91395	110173	110173	35530	88	115	32	82522	3619512	35765
76	2018-03-09 15:28:03		0	0	0	0	0	0	2.3	32.17	0.02	110774	0	2486	92074	110774	110774	35635	88	115	32	83111	3619553	35870
77	2018-03-09 15:38:43		0	0	0	0	0	0	2.31	32.26	0.02	111046	0	2499	92580	111046	111046	35823	88	115	32	83614	3619597	36058
78	2018-03-09 15:49:12		0	0	0	0	0	0	2.33	32.18	0.02	111742	0	2518	93644	111742	111742	35960	89	116	32	84453	3619623	36197
79	2018-03-09 15:59:43		0	0	0	0	0	0	2.34	32.27	0.02	112049	0	2525	94128	112049	112049	36161	89	116	32	84795	3619655	36398
80	2018-03-09 16:10:09		0	0	0	0	0	0	2.36	32.2	0.02	112654	0	2540	94721	112654	112654	36270	89	116	33	85267	3619682	36508
81	2018-03-09 16:20:35		0	0	0	0	0	0	2.36	32.28	0.02	112930	0	2549	94906	112930	112930	36456	89	117	33	85569	3619718	36695
82	2018-03-09 16:31:06		0	0	0	0	0	0	2.37	32.22	0.02	113474	0	2569	95175	113474	113474	36562	92	117	33	85968	3619742	36804
83	2018-03-09 16:41:36		0	0	0	0	0	0	2.38	32.28	0.02	113803	0	2629	95398	113803	113803	36740	92	117	33	86226	3619774	36982
84	2018-03-09 16:52:07		0	0	0	0	0	0	2.39	32.21	0.02	114474	0	2800	95748	114474	114474	36871	95	119	33	86400	3619802	37118
85	2018-03-09 17:02:40		0	0	0	0	0	0	2.4	32.31	0.03	114810	0	2876	96386	114810	114810	37093	95	120	33	86919	3619836	37341
86	2018-03-09 17:13:13		0	0	0	0	0	0	2.41	32.24	0.03	115440	0	2990	96863	115440	115440	37213	95	121	34	87276	3619863	37463
87	2018-03-09 17:23:48		0	0	0	0	0	0	2.41	32.34	0.03	115692	0	3028	96941	115692	115692	37412	95	122	34	87414	3619895	37663
88	2018-03-09 17:34:18		0	0	0	0	0	0	2.43	32.24	0.03	116311	0	3122	97860	116311	116311	37500	95	123	34	87980	3619937	37752
89	2018-03-09 17:44:46		0	0	0	0	0	0	2.43	32.35	0.03	116567	0	3153	98058	116567	116567	37704	95	124	34	88141	3619966	37957
90	2018-03-09 17:55:13		0	0	0	0	0	0	2.45	32.25	0.03	117236	0	3235	98481	117236	117236	37805	95	124	34	88512	3619997	38058
91	2018-03-09 18:05:43		0	0	0	0	0	0	2.46	32.27	0.03	117823	0	3294	99089	117823	117823	38022	96	124	34	88891	3620026	38276
92	2018-03-09 18:16:14		0	0	0	0	0	0	2.46	32.36	0.03	118070	0	3324	99279	118070	118070	38202	96	125	34	89044	3620047	38457
93	2018-03-09 18:26:44		0	0	0	0	0	0	2.48	32.29	0.03	118664	0	3395	100198	118664	118664	38314	96	125	34	89729	3620067	38569
94	2018-03-09 18:37:15		0	0	0	0	0	0	2.49	32.37	0.03	118993	0	3432	100775	118993	118993	38517	96	125	34	90024	3620094	38772
95	2018-03-09 18:47:45		0	0	0	0	0	0	2.5	32.27	0.03	119643	0	3492	101101	119643	119643	38607	96	126	34	90368	3620132	38863
96	2018-03-09 18:58:21		0	0	0	0	0	0	2.51	32.39	0.03	119956	0	3527	101699	119956	119956	38857	97	127	34	90760	3620166	39115
97	2018-03-09 19:08:51		0	0	0	0	0	0	2.51	32.41	0.03	120286	0	3561	101725	120286	120286	38983	98	129	34	90781	3620192	39244
98	2018-03-09 19:19:23		0	0	0	0	0	0	2.52	32.42	0.03	120821	0	3609	102171	120821	120821	39165	99	129	34	91180	3620229	39427
99	2018-03-09 19:29:53		0	0	0	0	0	0	2.53	32.42	0.03	121216	0	3659	102625	121216	121216	39295	100	129	35	91663	3620262	39559
100	2018-03-09 19:40:25		0	0	0	0	0	0	2.55	32.44	0.03	121979	0	3723	103306	121979	121979	39576	100	130	35	92313	3620288	39841
101	2018-03-09 19:50:54		0	0	0	0	0	0	2.55	32.45	0.03	122328	0	3745	103417	122328	122328	39696	100	131	36	92446	3620346	39963
102	2018-03-09 20:01:29		0	0	0	0	0	0	2.57	32.34	0.03	123082	0	3810	104055	123082	123082	39806	101	131	36	92866	3620384	40074
103	2018-03-09 20:11:54		0	0	0	0	0	0	2.57	32.46	0.03	123426	0	3853	104165	123426	123426	40061	102	133	36	93133	3620425	40332
104	2018-03-09 20:22:24		0	0	0	0	0	0	2.58	32.38	0.03	124077	0	3911	104475	124077	124077	40171	102	133	36	93380	3620454	40442
105	2018-03-09 20:32:54		0	0	0	0	0	0	2.59	32.47	0.03	124345	0	3930	104907	124345	124345	40379	102	133	36	93839	3620476	40650
106	2018-03-09 20:43:25		0	0	0	0	0	0	2.6	32.48	0.03	124968	0	3986	105385	124968	124968	40585	104	135	36	94313	3620503	40860
107	2018-03-09 20:53:57		0	0	0	0	0	0	2.61	32.47	0.03	125318	0	4019	105564	125318	125318	40687	104	137	37	94451	3620528	40965
108	2018-03-09 21:04:27		0	0	0	0	0	0	2.62	32.39	0.03	126002	0	4087	106012	126002	126002	40812	104	137	37	94728	3620564	41090
109	2018-03-09 21:14:59		0	0	0	0	0	0	2.62	32.48	0.03	126339	0	4121	106376	126339	126339	41038	104	137	37	95019	3620589	41316
110	2018-03-09 21:25:27		0	0	0	0	0	0	2.64	32.49	0.03	126901	0	4161	106771	126901	126901	41234	104	137	37	95428	3620634	41512
111	2018-03-09 21:35:59		0	0	0	0	0	0	2.65	32.43	0.03	127460	0	4225	107185	127460	127460	41335	104	138	37	95860	3620657	41614
112	2018-03-09 21:46:28		0	0	0	0	0	0	2.65	32.51	0.03	127718	0	4248	107192	127718	127718	41523	104	138	37	95866	3620687	41802
113	2018-03-09 21:57:00		0	0	0	0	0	0	2.66	32.53	0.03	128177	0	4294	107759	128177	128177	41694	104	138	37	96151	3620728	41973
114	2018-03-09 22:07:32		0	0	0	0	0	0	2.66	32.54	0.03	128510	0	4334	107880	128510	128510	41814	104	138	37	96247	3620758	42093
115	2018-03-09 22:18:01		0	0	0	0	0	0	2.66	32.54	0.03	129015	0	4382	108173	129015	129015	41986	104	138	37	96300	3620793	42265
116	2018-03-09 22:28:31		0	0	0	0	0	0	2.66	32.54	0.03	129299	0	4396	108351	129299	129299	42074	104	138	37	96396	3620817	42353
117	2018-03-09 22:39:04		0	0	0	0	0	0	2.67	32.55	0.03	129841	0	4437	108754	129841	129841	42259	104	142	37	96649	3620845	42542
118	2018-03-09 22:49:32		0	0	0	0	0	0	2.67	32.56	0.03	130070	0	4447	108984	130070	130070	42348	104	142	37	96843	3620878	42631
119	2018-03-09 23:00:03		0	0	0	0	0	0	2.69	32.57	0.03	130562	0	4490	109454	130562	130562	42526	104	143	37	97360	3620918	42810
120	2018-03-09 23:10:29		0	0	0	0	0	0	2.69	32.57	0.03	130797	0	4509	109562	130797	130797	42603	104	144	37	97495	3620954	42888
121	2018-03-09 23:20:59		0	0	0	0	0	0	2.7	32.52	0.03	131210	0	4543	109593	131210	131210	42666	104	144	37	97618	3620973	42951
122	2018-03-09 23:31:30		0	0	0	0	0	0	2.7	32.59	0.03	131406	0	4559	109640	131406	131406	42822	104	144	37	97618	3621002	43107
123	2018-03-09 23:42:02		0	0	0	0	0	0	2.7	32.58	0.03	131807	0	4590	109793	131807	131807	42949	105	144	37	97703	3621038	43235
124	2018-03-09 23:52:35		0	0	0	0	0	0	2.7	32.54	0.03	132190	0	4620	110043	132190	132190	43011	105	145	37	97900	3621049	43298
125	2018-03-10 00:03:03		0	0	0	0	0	0	2.7	32.53	0.04	132378	0	4637	110074	132378	132378	43069	106	145	38	97925	3621065	43358
126	2018-03-10 01:08:02		0	0	0	0	0	0	2.72	32.61	0.04	133747	0	4748	110657	133747	133747	43615	108	147	39	98398	3621176	43909
127	2018-03-10 02:13:04		0	0	0	0	0	0	2.73	32.63	0.04	134469	0	4827	111533	134469	134469	43871	108	147	40	99020	3621228	44166
128	2018-03-10 03:18:05		0	0	0	0	0	0	2.74	32.66	0.04	134887	0	4862	111693	134887	134887	44053	108	147	40	99071	3621250	44348
129	2018-03-10 04:23:04		0	0	0	0	0	0	2.75	32.66	0.04	135318	0	4921	112599	135318	135318	44201	107	147	40	99581	3621277	44495
130	2018-03-10 05:28:05		0	0	0	0	0	0	2.76	32.7	0.04	135725	0	4978	112940	135725	135725	44377	107	147	40	99825	3621300	44671
131	2018-03-10 06:33:07		0	0	0	0	0	0	2.77	32.74	0.04	136471	0	5058	113354	136471	136471	44680	107	147	40	100278	3621333	44974
132	2018-03-10 07:08:36		0	0	0	0	0	0	2.78	32.73	0.04	137376	0	5131	113992	137376	137376	44967	107	148	41	100764	3621383	45263
133	2018-03-10 07:19:08		0	0	0	0	0	0	2.78	32.79	0.04	137578	0	5143	114009	137578	137578	45113	107	148	41	100777	3621402	45409
134	2018-03-10 07:29:37		0	0	0	0	0	0	2.79	32.82	0.04	137979	0	5173	114291	137979	137979	45279	109	148	41	100866	3621421	45577
135	2018-03-10 07:40:07		0	0	0	0	0	0	2.79	32.83	0.04	138199	0	5189	114672	138199	138199	45365	109	148	41	101162	3621432	45663
136	2018-03-10 07:50:39		0	0	0	0	0	0	2.8	32.78	0.04	138730	0	5226	115030	138730	138730	45470	109	148	41	101520	3621458	45768
137	2018-03-10 08:01:14		0	0	0	0	0	0	2.82	32.86	0.04	138995	0	5244	115648	138995	138995	45678	109	148	41	102002	3621489	45976
138	2018-03-10 08:11:41		0	0	0	0	0	0	2.83	32.88	0.04	139482	0	5276	116041	139482	139482	45866	109	148	41	102524	3621516	46164
139	2018-03-10 08:22:13		0	0	0	0	0	0	2.84	32.89	0.04	139845	0	5300	116346	139845	139845	46000	109	148	41	102735	3621542	46298
140	2018-03-10 08:32:43		0	0	0	0	0	0	2.85	32.91	0.04	140327	0	5342	116683	140327	140327	46183	109	148	41	103166	3621570	46481
141	2018-03-10 08:43:14		0	0	0	0	0	0	2.85	32.92	0.04	140662	0	5357	116736	140662	140662	46307	109	149	41	103207	3621597	46606
142	2018-03-10 08:53:41		0	0	0	0	0	0	2.86	32.94	0.04	141139	0	5373	117197	141139	141139	46490	109	149	41	103513	3621625	46789
143	2018-03-10 09:04:12		0	0	0	0	0	0	2.86	32.95	0.04	141327	0	5380	117499	141327	141327	46562	109	150	41	103617	3621647	46862
144	2018-03-10 09:14:43		0	0	0	0	0	0	2.87	32.97	0.04	141800	0	5412	118109	141800	141800	46747	109	150	42	103979	3621680	47048
145	2018-03-10 09:25:13		0	0	0	0	0	0	2.87	32.98	0.04	142073	0	5435	118143	142073	142073	46851	109	150	42	104061	3621721	47152
146	2018-03-10 09:35:43		0	0	0	0	0	0	2.88	32.92	0.04	142492	0	5453	118540	142492	142492	46915	109	150	42	104426	3621752	47216
147	2018-03-10 09:46:13		0	0	0	0	0	0	2.89	32.98	0.04	143023	0	5488	119004	143023	143023	47175	109	151	42	104736	3621776	47477
148	2018-03-10 09:56:46		0	0	0	0	0	0	2.9	32.98	0.04	143215	0	5506	119352	143215	143215	47238	109	151	42	105006	3621805	47540
149	2018-03-10 10:07:16		0	0	0	0	0	0	2.9	32.99	0.04	143454	0	5518	119610	143454	143454	47324	109	151	43	105206	3621830	47627
150	2018-03-10 10:17:46		0	0	0	0	0	0	2.91	32.99	0.04	143929	0	5557	119754	143929	143929	47483	109	151	43	105374	3621855	47786
151	2018-03-10 10:28:19		0	0	0	0	0	0	2.91	33	0.04	144124	0	5570	119754	144124	144124	47555	109	151	43	105489	3621884	47858
152	2018-03-10 10:38:46		0	0	0	0	0	0	2.93	33	0.04	144571	0	5588	120174	144571	144571	47703	109	151	43	105989	3621916	48006
153	2018-03-10 10:49:17		0	0	0	0	0	0	2.94	32.95	0.04	144770	0	5594	120520	144770	144770	47703	109	151	43	106375	3621943	48006
154	2018-03-10 10:59:46		0	0	0	0	0	0	2.94	32.95	0.04	145151	0	5629	120596	145151	145151	47825	109	151	43	106463	3621970	48128
155	2018-03-10 11:10:17		0	0	0	0	0	0	2.95	33	0.04	145321	0	5639	120864	145321	145321	47949	109	151	43	106672	3622003	48252
156	2018-03-10 11:20:47		0	0	0	0	0	0	2.95	33	0.04	145636	0	5655	121309	145636	145636	48065	109	151	43	106841	3622041	48368
157	2018-03-10 11:31:17		0	0	0	0	0	0	2.95	33	0.04	145807	0	5670	121309	145807	145807	48123	109	152	43	106841	3622091	48427
158	2018-03-10 11:41:51		0	0	0	0	0	0	2.95	33.01	0.04	145966	0	5678	121309	145966	146105	48180	109	152	43	106841	3622120	48484
159	2018-03-10 11:52:19		0	0	0	0	0	0	2.95	33.01	0.04	146228	0	5714	121385	146228	146228	48274	109	152	43	106900	3622161	48578
160	2018-03-10 12:02:50		0	0	0	0	0	0	2.95	32.99	0.04	146415	0	5728	121566	146415	146415	48303	110	152	43	106930	3622193	48608
161	2018-03-10 12:13:24		0	0	0	0	0	0	2.95	32.99	0.04	146515	0	5738	121566	146515	146515	48340	112	154	44	106930	3622224	48650
162	2018-03-10 12:23:53		0	0	0	0	0	0	2.95	33.02	0.04	146609	0	5743	121583	146609	146609	48403	112	154	44	106942	3622263	48713
163	2018-03-10 12:34:29		0	0	0	0	0	0	2.95	33.02	0.04	146609	0	5743	121583	146609	146609	48403	112	154	44	106942	3622299	48713
164	2018-03-10 12:44:52		0	0	0	0	0	0	2.95	33.02	0.04	146609	0	5743	121583	146609	146609	48403	113	154	44	106942	3622328	48714
165	2018-03-10 12:55:23		0	0	0	0	0	0	2.96	33	0.04	146996	0	5775	122014	146996	146996	48513	113	154	44	107313	3622357	48824
166	2018-03-10 13:05:54		0	0	0	0	0	0	2.97	33	0.04	147341	0	5800	122395	147341	147341	48616	113	154	44	107578	3622387	48927
167	2018-03-10 13:16:25		0	0	0	0	0	0	2.97	33.02	0.04	147436	0	5805	122502	147436	147436	48689	113	154	44	107608	3622410	49000
168	2018-03-10 13:26:54		0	0	0	0	0	0	2.97	33	0.04	147666	0	5830	122735	147666	147666	48727	113	154	44	107728	3622434	49038
169	2018-03-10 13:37:25		0	0	0	0	0	0	2.97	33.03	0.04	147785	0	5844	122735	147785	147785	48813	113	154	44	107728	3622472	49124
170	2018-03-10 13:48:01		0	0	0	0	0	0	2.98	33	0.04	148011	0	5861	122881	148011	148011	48845	113	154	44	107780	3622511	49156
171	2018-03-10 13:58:27		0	0	0	0	0	0	2.98	33.03	0.04	148105	0	5867	122939	148105	148105	48926	113	154	44	107825	3622543	49237
172	2018-03-10 14:09:01		0	0	0	0	0	0	2.98	33.03	0.04	148297	0	5886	122939	148297	148297	48988	114	154	44	107825	3622571	49300
173	2018-03-10 14:19:28		0	0	0	0	0	0	2.98	33.01	0.04	148479	0	5903	123174	148479	148479	49015	115	154	44	107825	3622586	49328
174	2018-03-10 14:29:57		0	0	0	0	0	0	2.98	33.04	0.04	148581	0	5918	123311	148581	148581	49087	116	154	44	108051	3622609	49401
175	2018-03-10 14:40:27		0	0	0	0	0	0	2.98	33.01	0.04	148786	0	5940	123311	148786	148786	49119	116	154	44	108051	3622623	49433
176	2018-03-10 14:50:58		0	0	0	0	0	0	2.99	33.01	0.04	148912	0	5949	123489	148912	148912	49154	116	154	44	108187	3622648	49468
177	2018-03-10 15:01:28		0	0	0	0	0	0	2.99	33.01	0.04	149150	0	5980	123665	149150	149150	49234	116	155	44	108368	3622669	49549
178	2018-03-10 15:11:58		0	0	0	0	0	0	2.99	33.03	0.04	149258	0	5992	123745	149258	149258	49297	116	155	44	108429	3622700	49612
179	2018-03-10 15:22:28		0	0	0	0	0	0	3	33.03	0.04	149386	0	6002	123834	149386	149386	49338	116	155	44	108543	3622717	49653
180	2018-03-10 15:32:59		0	0	0	0	0	0	3	33	0.04	149580	0	6029	123982	149580	149580	49364	116	155	44	108543	3622739	49679
181	2018-03-10 15:43:30		0	0	0	0	0	0	3	33.01	0.04	149701	0	6044	124221	149701	149701	49422	116	155	44	108543	3622750	49737
182	2018-03-10 15:54:01		0	0	0	0	0	0	3	32.99	0.04	149897	0	6055	124376	149897	149897	49457	116	155	44	108543	3622758	49772
183	2018-03-10 16:04:33		0	0	0	0	0	0	3	33.02	0.04	150012	0	6064	124496	150012	150012	49540	116	155	44	108634	3622769	49855
184	2018-03-10 16:15:01		0	0	0	0	0	0	3	33	0.04	150218	0	6080	124636	150218	150218	49568	116	156	44	108741	3622778	49884
185	2018-03-10 16:25:31		0	0	0	0	0	0	3	33.02	0.04	150310	0	6086	124636	150310	150310	49625	116	156	44	108741	3622791	49941
186	2018-03-10 16:36:02		0	0	0	0	0	0	3	33.02	0.04	150396	0	6096	124696	150396	150396	49655	116	156	44	108756	3622807	49971
187	2018-03-10 16:46:32		0	0	0	0	0	0	3.01	33	0.04	150615	0	6118	125195	150615	150615	49702	116	156	44	109112	3622825	50018
188	2018-03-10 16:57:03		0	0	0	0	0	0	3.01	33.03	0.04	150731	0	6137	125256	150731	150731	49780	116	156	44	109158	3622848	50096
189	2018-03-10 17:07:34		0	0	0	0	0	0	3.02	33.01	0.04	150940	0	6159	125479	150940	150940	49822	116	156	44	109390	3622862	50138
190	2018-03-10 17:18:03		0	0	0	0	0	0	3.02	33.02	0.04	151042	0	6164	125642	151042	151042	49881	116	156	44	109514	3622890	50197
191	2018-03-10 17:28:34		0	0	0	0	0	0	3.03	33.01	0.04	151249	0	6187	125841	151249	151249	49922	116	156	44	109789	3622907	50238
192	2018-03-10 17:39:05		0	0	0	0	0	0	3.03	33.03	0.04	151353	0	6194	125841	151353	151353	49989	116	156	44	109914	3622918	50305
193	2018-03-10 17:49:39		0	0	0	0	0	0	3.03	33.03	0.04	151514	0	6205	125841	151514	151514	50048	116	156	44	109914	3622941	50364
194	2018-03-10 18:00:07		0	0	0	0	0	0	3.03	33.01	0.04	151672	0	6220	125846	151672	151672	50065	116	156	44	109914	3622951	50381
195	2018-03-10 18:10:36		0	0	0	0	0	0	3.03	33.03	0.04	151753	0	6227	125846	151753	151753	50121	117	157	44	109914	3622965	50439
196	2018-03-10 18:21:06		0	0	0	0	0	0	3.04	33.01	0.04	151952	0	6246	126133	151952	151952	50153	117	159	45	110258	3622987	50474
197	2018-03-10 18:31:36		0	0	0	0	0	0	3.04	33.04	0.04	152040	0	6257	126133	152040	152040	50230	117	160	45	110258	3623002	50552
198	2018-03-10 18:42:08		0	0	0	0	0	0	3.05	33.03	0.04	152200	0	6275	126298	152200	152200	50279	117	160	45	110353	3623025	50601
199	2018-03-10 18:52:42		0	0	0	0	0	0	3.05	33.02	0.04	152290	0	6283	126303	152290	152290	50279	117	161	45	110357	3623039	50602
200	2018-03-10 19:03:11		0	0	0	0	0	0	3.05	33.01	0.04	152510	0	6297	126365	152510	152510	50348	117	161	45	110404	3623052	50671
201	2018-03-10 19:13:43		0	0	0	0	0	0	3.05	33.01	0.04	152628	0	6305	126489	152628	152628	50385	117	161	45	110498	3623067	50708
202	2018-03-10 19:24:12		0	0	0	0	0	0	3.05	33.02	0.04	152810	0	6315	126662	152810	152810	50452	117	161	45	110623	3623081	50775
203	2018-03-10 19:34:43		0	0	0	0	0	0	3.05	33.03	0.04	152896	0	6325	126662	152896	152896	50503	118	161	45	110623	3623090	50827
204	2018-03-10 19:45:17		0	0	0	0	0	0	3.05	33.03	0.04	153081	0	6346	126745	153081	153081	50567	118	161	45	110686	3623112	50891
205	2018-03-10 19:55:46		0	0	0	0	0	0	3.05	33.01	0.04	153308	0	6372	126787	153308	153308	50611	118	161	45	110686	3623113	50935
206	2018-03-10 20:06:16		0	0	0	0	0	0	3.06	33.03	0.04	153404	0	6377	126823	153404	153404	50671	118	161	45	110714	3623131	50995
207	2018-03-10 20:16:45		0	0	0	0	0	0	3.06	33.03	0.04	153506	0	6384	127031	153506	153506	50697	118	161	45	110777	3623152	51021
208	2018-03-10 20:27:16		0	0	0	0	0	0	3.06	33.02	0.04	153735	0	6401	127240	153735	153735	50763	118	161	45	110936	3623165	51087
209	2018-03-10 20:37:48		0	0	0	0	0	0	3.06	33.02	0.04	153843	0	6409	127387	153843	153843	50803	118	161	45	111000	3623183	51127
210	2018-03-10 20:48:19		0	0	0	0	0	0	3.07	32.99	0.04	154045	0	6419	127512	154045	154045	50826	118	161	45	111095	3623197	51150
211	2018-03-10 20:58:48		0	0	0	0	0	0	3.07	33.02	0.04	154149	0	6427	127639	154149	154149	50898	118	161	45	111095	3623210	51222
212	2018-03-10 21:09:20		0	0	0	0	0	0	3.07	33	0.04	154346	0	6436	127675	154346	154346	50932	118	161	45	111139	3623218	51256
213	2018-03-10 21:19:50		0	0	0	0	0	0	3.07	33.02	0.04	154437	0	6446	127718	154437	154437	50989	118	161	45	111139	3623228	51313
214	2018-03-10 21:30:26		0	0	0	0	0	0	3.07	33.01	0.04	154617	0	6461	127971	154617	154617	51044	118	162	45	111139	3623242	51369
215	2018-03-10 21:40:52		0	0	0	0	0	0	3.07	33.02	0.04	154808	0	6470	128394	154808	154808	51113	118	162	45	111395	3623255	51438
216	2018-03-10 21:51:21		0	0	0	0	0	0	3.07	33.02	0.04	154925	0	6475	128415	154925	154925	51149	118	163	45	111411	3623265	51475
217	2018-03-10 22:01:52		0	0	0	0	0	0	3.08	33.02	0.04	155069	0	6490	128736	155069	155069	51198	118	163	45	111652	3623285	51524
218	2018-03-10 22:12:21		0	0	0	0	0	0	3.08	33.02	0.04	155180	0	6495	128811	155180	155180	51243	118	163	45	111708	3623294	51569
219	2018-03-10 22:22:54		0	0	0	0	0	0	3.08	33.02	0.04	155373	0	6506	128811	155373	155373	51309	118	163	45	111708	3623306	51635
220	2018-03-10 22:33:22		0	0	0	0	0	0	3.09	33	0.04	155576	0	6517	129112	155576	155576	51342	118	163	45	111934	3623317	51668
221	2018-03-10 22:43:53		0	0	0	0	0	0	3.09	33	0.04	155688	0	6525	129112	155688	155688	51376	118	163	45	111934	3623337	51702
222	2018-03-10 22:54:23		0	0	0	0	0	0	3.09	33.01	0.04	155827	0	6537	129370	155827	155827	51445	118	163	45	111934	3623348	51771
223	2018-03-10 23:04:55		0	0	0	0	0	0	3.1	32.99	0.04	156040	0	6552	129761	156040	156040	51484	118	163	45	112227	3623360	51810
224	2018-03-10 23:15:22		0	0	0	0	0	0	3.1	33.02	0.04	156154	0	6557	130055	156154	156154	51563	118	163	45	112447	3623375	51889
225	2018-03-10 23:25:51		0	0	0	0	0	0	3.1	33.02	0.04	156390	0	6575	130140	156390	156390	51641	119	164	45	112479	3623396	51969
226	2018-03-10 23:36:22		0	0	0	0	0	0	3.11	33.02	0.04	156522	0	6588	130225	156522	156522	51685	121	164	45	112543	3623402	52015
227	2018-03-10 23:46:52		0	0	0	0	0	0	3.11	33.02	0.04	156729	0	6603	130290	156729	156729	51755	121	164	45	112592	3623408	52085
228	2018-03-10 23:57:23		0	0	0	0	0	0	3.11	33.02	0.04	156854	0	6607	130521	156854	156854	51794	121	165	45	112702	3623423	52125
229	2018-03-11 00:37:24		0	0	0	0	0	0	3.12	33.02	0.04	157404	0	6643	130974	157404	157404	51980	121	165	46	113106	3623457	52312
230	2018-03-11 01:42:24		0	0	0	0	0	0	3.13	33.03	0.04	158075	0	6683	131959	158075	158075	52206	121	165	46	113589	3623505	52538
231	2018-03-11 02:47:25		0	0	0	0	0	0	3.14	33.02	0.04	158435	0	6708	132027	158435	158435	52321	121	165	46	113689	3623526	52653
232	2018-03-11 03:52:26		0	0	0	0	0	0	3.14	33.03	0.04	158630	0	6723	132320	158630	158630	52392	121	165	46	113924	3623531	52724
233	2018-03-11 04:57:26		0	0	0	0	0	0	3.15	33.03	0.04	158804	0	6733	132564	158804	158804	52460	121	165	46	114104	3623547	52792
234	2018-03-11 06:02:25		0	0	0	0	0	0	3.15	33.04	0.04	158988	0	6752	132564	158988	158988	52531	121	166	46	114104	3623550	52864
235	2018-03-11 07:07:27		0	0	0	0	0	0	3.15	33.05	0.04	159303	0	6778	132654	159303	159303	52645	121	167	46	114197	3623569	52979
236	2018-03-11 07:17:57		0	0	0	0	0	0	3.15	33.05	0.04	159360	0	6779	132654	159360	159360	52669	121	167	46	114197	3623572	53003
237	2018-03-11 07:28:27		0	0	0	0	0	0	3.15	33.05	0.04	159458	0	6780	132791	159458	159458	52706	121	167	46	114298	3623581	53040
238	2018-03-11 07:39:00		0	0	0	0	0	0	3.15	33.05	0.04	159541	0	6787	132791	159541	159541	52736	121	167	46	114298	3623593	53070
239	2018-03-11 07:49:28		0	0	0	0	0	0	3.16	33.06	0.04	159711	0	6793	132837	159711	159711	52798	121	167	46	114467	3623594	53132
240	2018-03-11 07:59:59		0	0	0	0	0	0	3.16	33.06	0.04	159805	0	6794	132837	159805	159805	52832	121	167	46	114467	3623606	53166
241	2018-03-11 08:10:31		0	0	0	0	0	0	3.17	33.06	0.04	160052	0	6811	133111	160052	160052	52920	121	167	46	114875	3623614	53254
242	2018-03-11 08:21:02		0	0	0	0	0	0	3.17	33.06	0.04	160150	0	6821	133202	160150	160150	52948	121	167	46	114943	3623627	53282
243	2018-03-11 08:31:33		0	0	0	0	0	0	3.17	33.04	0.04	160379	0	6830	133328	160379	160379	52990	121	169	46	115037	3623645	53326
244	2018-03-11 08:42:10		0	0	0	0	0	0	3.18	33.07	0.04	160498	0	6834	133651	160498	160498	53078	121	169	46	115277	3623669	53414
245	2018-03-11 08:52:33		0	0	0	0	0	0	3.18	33.07	0.04	160742	0	6844	133697	160742	160742	53158	121	169	46	115311	3623686	53494
246	2018-03-11 09:03:02		0	0	0	0	0	0	3.19	33.05	0.04	160952	0	6854	134393	160952	160952	53191	121	169	46	115690	3623688	53527
247	2018-03-11 09:13:34		0	0	0	0	0	0	3.19	33.08	0.04	161073	0	6859	134393	161073	161073	53282	121	169	46	115690	3623704	53618
248	2018-03-11 09:24:03		0	0	0	0	0	0	3.19	33.08	0.04	161193	0	6864	134487	161193	161193	53326	121	169	46	115759	3623720	53662
249	2018-03-11 09:34:34		0	0	0	0	0	0	3.19	33.08	0.04	161433	0	6879	134487	161433	161433	53408	121	169	46	115759	3623732	53744
250	2018-03-11 09:45:03		0	0	0	0	0	0	3.2	33.06	0.04	161649	0	6888	134487	161649	161649	53448	121	169	46	115829	3623740	53784
251	2018-03-11 09:55:35		0	0	0	0	0	0	3.2	33.09	0.04	161774	0	6901	134487	161774	161774	53536	121	169	46	116107	3623758	53872
252	2018-03-11 10:06:04		0	0	0	0	0	0	3.21	33.08	0.04	161954	0	6907	134768	161954	161954	53572	121	170	46	116421	3623782	53909
253	2018-03-11 10:16:35		0	0	0	0	0	0	3.22	33.11	0.04	162072	0	6916	135050	162072	162072	53654	121	171	46	116631	3623801	53992
254	2018-03-11 10:27:08		0	0	0	0	0	0	3.23	33.09	0.04	162283	0	6925	135215	162283	162283	53697	121	171	46	116896	3623820	54035
255	2018-03-11 10:37:37		0	0	0	0	0	0	3.23	33.11	0.04	162387	0	6932	135215	162387	162387	53759	121	171	46	116896	3623841	54097
256	2018-03-11 10:48:08		0	0	0	0	0	0	3.23	33.11	0.04	162556	0	6942	135570	162556	162556	53819	123	171	46	117090	3623876	54159
257	2018-03-11 10:58:37		0	0	0	0	0	0	3.23	33.11	0.04	162656	0	6947	135737	162656	162656	53854	123	171	46	117197	3623901	54194
258	2018-03-11 11:09:08		0	0	0	0	0	0	3.23	33.09	0.04	162859	0	6964	135754	162859	162859	53887	123	171	46	117197	3623929	54227
259	2018-03-11 11:19:37		0	0	0	0	0	0	3.23	33.12	0.04	162927	0	6973	135754	162927	162927	53954	123	171	46	117197	3623941	54294
260	2018-03-11 11:30:10		0	0	0	0	0	0	3.24	33.1	0.04	163087	0	6984	135945	163087	163087	53980	123	171	46	117268	3623961	54320
261	2018-03-11 11:40:38		0	0	0	0	0	0	3.24	33.09	0.04	163175	0	6989	135945	163175	163175	53996	123	171	46	117268	3623986	54336
262	2018-03-11 11:51:10		0	0	0	0	0	0	3.24	33.09	0.04	163350	0	7000	135945	163350	163350	54057	123	171	46	117268	3624011	54397
263	2018-03-11 12:01:40		0	0	0	0	0	0	3.24	33.11	0.04	163419	0	7004	135945	163419	163419	54104	123	171	46	117268	3624033	54444
264	2018-03-11 12:12:11		0	0	0	0	0	0	3.24	33.09	0.04	163558	0	7012	135945	163558	163558	54125	123	171	48	117268	3624055	54467
265	2018-03-11 12:22:43		0	0	0	0	0	0	3.24	33.11	0.04	163647	0	7018	135945	163647	163647	54179	123	171	48	117303	3624075	54521
266	2018-03-11 12:33:13		0	0	0	0	0	0	3.24	33.11	0.04	163815	0	7032	135993	163815	163815	54232	123	171	48	117339	3624091	54574
267	2018-03-11 12:43:47		0	0	0	0	0	0	3.24	33.09	0.04	163898	0	7037	136017	163898	163898	54232	123	171	48	117356	3624108	54574
268	2018-03-11 12:54:14		0	0	0	0	0	0	3.24	33.09	0.04	164043	0	7048	136017	164043	164043	54280	123	171	48	117356	3624120	54622
269	2018-03-11 13:04:44		0	0	0	0	0	0	3.24	33.11	0.04	164107	0	7053	136059	164107	164107	54332	123	171	48	117356	3624134	54674
270	2018-03-11 13:15:13		0	0	0	0	0	0	3.24	33.09	0.04	164260	0	7057	136059	164260	164260	54356	123	171	48	117392	3624154	54698
271	2018-03-11 13:25:45		0	0	0	0	0	0	3.24	33.11	0.04	164338	0	7059	136059	164338	164338	54407	123	171	48	117392	3624176	54749
272	2018-03-11 13:36:15		0	0	0	0	0	0	3.24	33.09	0.04	164483	0	7068	136083	164483	164483	54427	123	171	48	117410	3624189	54769
273	2018-03-11 13:46:45		0	0	0	0	0	0	3.24	33.11	0.04	164554	0	7074	136430	164554	164554	54481	123	171	48	117526	3624210	54823
274	2018-03-11 13:57:14		0	0	0	0	0	0	3.25	33.09	0.04	164685	0	7086	136527	164685	164685	54502	123	171	48	117669	3624213	54844
275	2018-03-11 14:07:46		0	0	0	0	0	0	3.25	33.09	0.04	164778	0	7094	136527	164778	164778	54528	123	171	48	117669	3624235	54870
276	2018-03-11 14:18:18		0	0	0	0	0	0	3.25	33.11	0.04	164843	0	7097	136575	164843	164843	54583	123	171	48	117704	3624259	54925
277	2018-03-11 14:28:49		0	0	0	0	0	0	3.25	33.1	0.04	164978	0	7104	136623	164978	164978	54611	123	171	48	117740	3624272	54953
278	2018-03-11 14:39:21		0	0	0	0	0	0	3.25	33.1	0.04	165100	0	7112	136623	165100	165100	54651	123	171	48	117740	3624298	54993
279	2018-03-11 14:49:48		0	0	0	0	0	0	3.25	33.11	0.04	165151	0	7115	136695	165151	165151	54681	123	171	48	117794	3624330	55023
280	2018-03-11 15:00:18		0	0	0	0	0	0	3.25	33.1	0.04	165272	0	7123	136695	165272	165272	54705	123	171	48	117938	3624349	55047
281	2018-03-11 15:10:48		0	0	0	0	0	0	3.26	33.12	0.04	165346	0	7129	136840	165346	165346	54759	123	172	48	118045	3624364	55102
282	2018-03-11 15:21:20		0	0	0	0	0	0	3.26	33.12	0.04	165438	0	7132	136986	165438	165438	54793	123	172	48	118045	3624376	55136
283	2018-03-11 15:31:49		0	0	0	0	0	0	3.26	33.12	0.04	165499	0	7138	136986	165499	165499	54818	123	172	48	118045	3624396	55161
284	2018-03-11 15:42:22		0	0	0	0	0	0	3.26	33.12	0.04	165632	0	7146	137010	165632	165632	54864	123	172	48	118045	3624408	55207
285	2018-03-11 15:52:52		0	0	0	0	0	0	3.26	33.12	0.04	165670	0	7148	137107	165670	165670	54873	123	172	48	118045	3624426	55216
286	2018-03-11 16:03:23		0	0	0	0	0	0	3.26	33.13	0.04	165762	0	7155	137204	165762	165762	54911	123	172	48	118118	3624446	55254
287	2018-03-11 16:13:53		0	0	0	0	0	0	3.26	33.13	0.04	165820	0	7160	137204	165820	165820	54934	123	172	48	118118	3624456	55277
288	2018-03-11 16:24:23		0	0	0	0	0	0	3.26	33.12	0.04	165932	0	7166	137387	165932	165932	54952	123	172	48	118118	3624475	55295
289	2018-03-11 16:34:52		0	0	0	0	0	0	3.26	33.13	0.04	165980	0	7166	137423	165980	165980	54990	123	172	48	118145	3624490	55333
290	2018-03-11 16:45:23		0	0	0	0	0	0	3.26	33.13	0.04	166126	0	7174	137509	166126	166126	55031	123	172	48	118181	3624505	55374
291	2018-03-11 16:55:54		0	0	0	0	0	0	3.26	33.13	0.04	166170	0	7180	137509	166170	166170	55044	123	172	48	118181	3624534	55387
292	2018-03-11 17:06:24		0	0	0	0	0	0	3.26	33.13	0.04	166284	0	7187	137600	166284	166284	55085	123	172	48	118248	3624550	55428
293	2018-03-11 17:16:54		0	0	0	0	0	0	3.26	33.13	0.04	166341	0	7193	137698	166341	166341	55106	123	172	48	118303	3624565	55449
294	2018-03-11 17:27:26		0	0	0	0	0	0	3.26	33.12	0.04	166472	0	7206	137723	166472	166472	55132	123	172	48	118303	3624581	55475
295	2018-03-11 17:37:55		0	0	0	0	0	0	3.27	33.12	0.04	166585	0	7209	137818	166585	166585	55169	123	172	48	118373	3624599	55512
296	2018-03-11 17:48:26		0	0	0	0	0	0	3.27	33.13	0.04	166665	0	7213	137965	166665	166665	55217	123	172	48	118481	3624615	55560
297	2018-03-11 17:59:00		0	0	0	0	0	0	3.28	33.13	0.04	166732	0	7219	138357	166732	166732	55236	123	172	48	118770	3624642	55579
298	2018-03-11 18:09:30		0	0	0	0	0	0	3.28	33.13	0.04	166896	0	7233	138505	166896	166896	55291	123	172	48	118770	3624660	55634
299	2018-03-11 18:20:04		0	0	0	0	0	0	3.28	33.13	0.04	166973	0	7238	138679	166973	166973	55316	124	172	48	118770	3624688	55660
300	2018-03-11 18:30:31		0	0	0	0	0	0	3.28	33.12	0.04	167126	0	7260	138729	167126	167126	55356	124	172	48	118806	3624720	55700
301	2018-03-11 18:41:02		0	0	0	0	0	0	3.28	33.12	0.04	167188	0	7261	138729	167188	167188	55377	124	172	48	118806	3624751	55721
302	2018-03-11 18:51:33		0	0	0	0	0	0	3.28	33.11	0.04	167336	0	7270	139003	167336	167336	55406	124	172	48	119007	3624768	55750
303	2018-03-11 19:02:04		0	0	0	0	0	0	3.28	33.12	0.04	167433	0	7273	139046	167433	167433	55462	124	174	48	119039	3624794	55808
304	2018-03-11 19:12:35		0	0	0	0	0	0	3.29	33.13	0.04	167558	0	7283	139246	167558	167558	55504	124	174	48	119186	3624820	55850
305	2018-03-11 19:23:06		0	0	0	0	0	0	3.3	33.11	0.04	167683	0	7296	139800	167683	167683	55524	124	174	48	119591	3624836	55870
306	2018-03-11 19:33:35		0	0	0	0	0	0	3.3	33.13	0.04	167743	0	7300	139850	167743	167743	55572	124	174	48	119610	3624855	55918
307	2018-03-11 19:44:08		0	0	0	0	0	0	3.3	33.13	0.04	167808	0	7303	139926	167808	167808	55595	124	174	48	119665	3624879	55941
308	2018-03-11 19:54:38		0	0	0	0	0	0	3.3	33.13	0.04	167957	0	7322	140129	167957	167957	55637	124	174	48	119665	3624908	55983
309	2018-03-11 20:05:08		0	0	0	0	0	0	3.3	33.13	0.04	168031	0	7327	140281	168031	168031	55667	124	174	48	119665	3624920	56013
