1	2016-01-22 13:32:14	0	0	0	0	0	0	1	1.91	0	16293	0	20	14646	16293	16273	312	2	16	3	14596	1454940	333
2	2016-01-22 13:42:12	0	0	0	0	0	0	2.37	2.26	0	41632	0	191	34609	41632	41441	941	6	58	9	34465	1454957	1014
3	2016-01-22 13:54:17	0	0	0	0	0	0	3.97	2.64	0.01	77562	0	587	58199	77562	76975	2045	13	111	18	57802	1454969	2187
4	2016-01-22 14:04:08	0	0	0	0	0	0	3.97	2.64	0.01	77562	0	587	58199	77562	76975	2045	13	111	18	57802	1454984	2187
5	2016-01-22 14:15:46	0	0	0	0	0	0	6.29	2.73	0.01	128139	0	1583	93055	128139	126556	3496	19	180	28	91548	1454992	3723
6	2016-01-22 14:25:26	0	0	0	0	0	0	6.63	2.52	0.01	138551	0	1850	98249	138551	136701	3496	20	195	33	96462	1454998	3744
7	2016-01-22 14:34:50	0	0	0	0	0	0	6.95	2.45	0.02	155057	0	2306	98249	155057	152751	3806	20	195	33	101123	1455005	4054
8	2016-01-22 14:45:23	0	0	0	0	0	0	7.84	2.5	0.02	169423	0	2748	111323	169423	166675	4239	26	224	46	114055	1455019	4535
9	2016-01-22 14:59:21	0	0	0	0	0	0	8.47	2.73	0.02	184973	0	3228	126299	184973	181745	5045	28	231	52	123247	1455046	5356
10	2016-01-22 15:12:10	0	0	0	0	0	0	8.64	2.71	0.02	190963	0	3427	129204	190963	187536	5180	28	238	57	125777	1455076	5503
11	2016-01-22 15:32:12	0	0	0	0	0	0	9.62	2.7	0.02	214432	0	4199	144361	214432	210233	5782	30	259	61	140020	1455095	6132
12	2016-01-22 15:42:13	0	0	0	0	0	0	9.83	2.69	0.02	219364	0	4393	147517	219364	214971	5897	31	261	62	143027	1455107	6251
13	2016-01-22 15:52:13	0	0	0	0	0	0	10.19	2.66	0.02	231194	0	4782	152992	231194	226412	6141	32	268	65	148282	1455120	6506
14	2016-01-22 16:02:13	0	0	0	0	0	0	10.19	2.55	0.02	241218	0	4782	157974	241218	236060	6141	33	276	66	148282	1455127	6516
15	2016-01-22 16:12:12	0	0	0	0	0	0	10.86	2.62	0.02	249266	0	5457	163276	249266	243809	6535	33	283	66	158069	1455139	6917
16	2016-01-22 16:22:12	0	0	0	0	0	0	11.06	2.62	0.02	253796	0	5626	165877	253796	248170	6647	33	283	66	160906	1455152	7029
17	2016-01-22 16:32:58	0	0	0	0	0	0	11.42	2.61	0.02	262591	0	5936	171448	262591	256655	6858	33	292	76	166143	1455170	7259
18	2016-01-22 16:42:13	0	0	0	0	0	0	11.42	2.61	0.02	262591	0	5936	171448	262591	256655	6858	33	292	76	166143	1455179	7259
19	2016-01-22 16:52:12	0	0	0	0	0	0	11.85	2.6	0.02	273739	0	6330	177673	273739	267409	7121	36	303	82	172451	1455191	7542
20	2016-01-22 17:02:13	0	0	0	0	0	0	12.04	2.58	0.02	281270	0	6651	180145	281270	274619	7270	38	309	85	175254	1455199	7702
21	2016-01-22 17:12:14	0	0	0	0	0	0	12.04	2.56	0.02	284336	0	6741	180145	284336	277595	7270	38	309	85	175254	1455206	7702
22	2016-01-22 17:22:12	0	0	0	0	0	0	12.33	2.58	0.02	290756	0	6977	184163	290756	283779	7509	40	317	85	179386	1455222	7951
23	2016-01-22 17:32:13	0	0	0	0	0	0	12.42	2.57	0.02	294138	0	7077	185553	294138	287061	7571	40	319	85	180748	1455236	8015
24	2016-01-22 17:42:14	0	0	0	0	0	0	12.54	2.57	0.02	300107	0	7271	187474	300107	292836	7706	40	325	85	182543	1455258	8156
25	2016-01-22 17:52:22	0	0	0	0	0	0	12.84	2.56	0.03	306354	0	7503	192137	306354	298851	7847	40	330	86	186927	1455274	8303
26	2016-01-22 18:02:13	0	0	0	0	0	0	12.84	2.56	0.03	306354	0	7503	192137	306354	298851	7847	40	330	86	186927	1455294	8303
27	2016-01-22 18:12:13	0	0	0	0	0	0	13.05	2.55	0.03	313143	0	7784	195293	313143	305359	7998	40	334	88	189936	1455311	8460
28	2016-01-22 18:22:15	0	0	0	0	0	0	13.23	2.55	0.03	318155	0	7984	197902	318155	310171	8107	40	339	88	192595	1455326	8574
29	2016-01-22 18:32:13	0	0	0	0	0	0	13.23	2.55	0.03	318155	0	7984	197902	318155	310171	8107	40	339	88	192595	1455338	8574
30	2016-01-22 18:42:15	0	0	0	0	0	0	13.57	2.5	0.03	328364	0	8297	203498	328364	320067	8212	41	343	89	197537	1455347	8685
31	2016-01-22 18:52:14	0	0	0	0	0	0	14.23	2.42	0.03	344263	0	8697	213400	344263	335566	8320	41	345	89	207063	1455358	8795
32	2016-01-22 19:02:14	0	0	0	0	0	0	15.19	2.29	0.03	368669	0	9322	228895	368669	359347	8443	41	349	89	221007	1455368	8922
33	2016-01-22 19:12:14	0	0	0	0	0	0	15.19	2.29	0.03	368669	0	9322	228895	368669	359347	8443	42	352	90	221007	1455377	8927
34	2016-01-22 19:22:13	0	0	0	0	0	0	15.7	2.24	0.03	384534	0	9816	236408	384534	374718	8603	42	357	91	228541	1455392	9093
35	2016-01-22 19:32:14	0	0	0	0	0	0	16.58	2.14	0.03	407855	0	10483	249926	407855	397372	8732	44	367	93	241322	1455401	9236
36	2016-01-22 19:42:14	0	0	0	0	0	0	16.83	2.11	0.03	415085	0	10701	253392	415085	404384	8773	44	368	94	245016	1455408	9279
37	2016-01-22 19:52:12	0	0	0	0	0	0	16.83	2.11	0.03	415085	0	10701	253392	415085	404384	8773	44	368	94	245016	1455415	9279
38	2016-01-22 20:02:13	0	0	0	0	0	0	17.72	2	0.03	445737	0	11617	264543	445737	434120	8934	45	381	96	257956	1455426	9456
39	2016-01-22 20:12:14	0	0	0	0	0	0	18.09	1.96	0.03	460794	0	12080	273006	460794	448714	9021	46	383	96	263320	1455433	9546
40	2016-01-22 20:22:14	0	0	0	0	0	0	18.09	1.96	0.03	460794	0	12080	273006	460794	448714	9021	46	383	96	263320	1455442	9546
41	2016-01-22 20:32:14	0	0	0	0	0	0	19.01	1.91	0.03	478676	0	12626	281162	478676	466050	9126	46	392	96	276619	1455447	9660
42	2016-01-22 20:42:14	0	0	0	0	0	0	19.12	1.88	0.03	493140	0	13066	286648	493140	480074	9262	46	399	97	278226	1455459	9804
43	2016-01-22 20:52:13	0	0	0	0	0	0	19.12	1.88	0.03	493140	0	13066	287366	493140	480074	9262	46	399	97	278226	1455467	9804
44	2016-01-22 21:02:13	0	0	0	0	0	0	19.24	1.88	0.03	497315	0	13222	289083	497315	484093	9329	46	401	97	280050	1455472	9873
45	2016-01-22 21:12:14	0	0	0	0	0	0	19.33	1.87	0.03	503019	0	13490	289458	503019	489529	9428	47	407	97	281380	1455480	9979
46	2016-01-22 21:22:13	0	0	0	0	0	0	19.42	1.87	0.03	505081	0	13594	291395	505081	491487	9457	47	410	97	282696	1455485	10011
47	2016-01-22 21:32:14	0	0	0	0	0	0	19.52	1.87	0.03	506775	0	13669	292711	506775	494966	9485	47	411	97	284091	1455493	10040
48	2016-01-22 21:42:14	0	0	0	0	0	0	19.7	1.87	0.03	510587	0	13836	295681	510587	498623	9550	48	412	97	286794	1455505	10107
49	2016-01-22 21:52:14	0	0	0	0	0	0	19.86	1.87	0.03	514194	0	13967	297764	514194	500227	9602	48	417	97	289077	1455512	10164
50	2016-01-22 22:02:15	0	0	0	0	0	0	19.96	1.87	0.03	515793	0	14011	298424	515793	501782	9631	48	418	97	290460	1455521	10194
51	2016-01-22 22:12:15	0	0	0	0	0	0	20.07	1.87	0.03	521263	0	14193	301071	521263	507070	9729	48	425	97	292194	1455524	10299
52	2016-01-22 22:22:14	0	0	0	0	0	0	20.07	1.87	0.03	521263	0	14193	301071	521263	507070	9729	48	425	97	292194	1455532	10299
53	2016-01-22 22:32:14	0	0	0	0	0	0	20.32	1.86	0.03	526922	0	14394	304472	526922	512528	9811	48	429	98	295734	1455535	10386
54	2016-01-22 22:42:14	0	0	0	0	0	0	20.32	1.86	0.03	526922	0	14394	304472	526922	512528	9811	48	429	98	295734	1455540	10386
55	2016-01-22 22:52:14	0	0	0	0	0	0	20.56	1.86	0.03	531518	0	14561	308423	531518	516957	9893	49	433	98	299228	1455545	10473
56	2016-01-22 23:02:14	0	0	0	0	0	0	20.63	1.86	0.03	535139	0	14711	309594	535139	520428	9948	49	436	98	300302	1455554	10531
57	2016-01-22 23:12:14	0	0	0	0	0	0	20.65	1.86	0.03	538894	0	14857	309687	538894	524037	10013	49	437	98	300506	1455566	10597
58	2016-01-22 23:22:15	0	0	0	0	0	0	20.68	1.86	0.03	540667	0	14909	310192	540667	525758	10037	49	439	100	300981	1455572	10625
59	2016-01-22 23:32:15	0	0	0	0	0	0	20.81	1.86	0.03	544234	0	15025	312209	544234	529209	10097	49	442	100	302880	1455582	10688
60	2016-01-22 23:42:15	0	0	0	0	0	0	20.81	1.86	0.03	544234	0	15025	312209	544234	529209	10097	49	442	100	302880	1455592	10688
61	2016-01-22 23:52:15	0	0	0	0	0	0	20.9	1.85	0.03	547695	0	15161	313795	547695	532534	10143	49	448	100	304200	1455601	10740
62	2016-01-23 00:02:16	0	0	0	0	0	0	21.15	1.85	0.03	553291	0	15336	317096	553291	537955	10219	49	452	100	307791	1455610	10820
63	2016-01-23 00:12:15	0	0	0	0	0	0	21.15	1.85	0.03	553291	0	15336	317096	553291	537955	10219	49	452	100	307791	1455617	10820
64	2016-01-23 00:22:15	0	0	0	0	0	0	21.3	1.85	0.03	557155	0	15448	319468	557155	541707	10283	49	457	100	310025	1455632	10889
65	2016-01-23 00:32:14	0	0	0	0	0	0	21.5	1.84	0.03	562122	0	15595	322324	562122	546527	10362	49	459	101	313002	1455648	10971
66	2016-01-23 00:42:16	0	0	0	0	0	0	21.51	1.84	0.03	563775	0	15654	322459	563775	548121	10383	49	460	101	313129	1455658	10993
67	2016-01-23 00:52:15	0	0	0	0	0	0	21.57	1.84	0.03	566626	0	15761	323427	566626	550865	10431	49	462	101	314042	1455659	11043
68	2016-01-23 01:02:15	0	0	0	0	0	0	21.66	1.84	0.03	569324	0	15849	324699	569324	553475	10478	50	465	101	315241	1455669	11094
69	2016-01-23 01:12:13	0	0	0	0	0	0	21.73	1.84	0.03	570817	0	15896	325825	570817	554921	10495	50	466	102	316303	1455672	11113
70	2016-01-23 01:22:14	0	0	0	0	0	0	21.88	1.84	0.03	573792	0	15996	327056	573792	557796	10536	50	469	102	318507	1455680	11157
71	2016-01-23 01:32:15	0	0	0	0	0	0	21.94	1.84	0.03	575205	0	16054	328139	575205	559151	10568	50	470	102	319419	1455688	11190
72	2016-01-23 01:42:15	0	0	0	0	0	0	21.94	1.84	0.03	575205	0	16054	328139	575205	559151	10568	50	470	102	319419	1455701	11190
73	2016-01-23 01:52:15	0	0	0	0	0	0	22.2	1.83	0.03	579855	0	16196	331742	579855	563659	10631	50	471	102	323101	1455704	11254
74	2016-01-23 02:02:15	0	0	0	0	0	0	22.2	1.83	0.03	579855	0	16196	331742	579855	563659	10631	50	471	102	323101	1455711	11254
75	2016-01-23 02:12:15	0	0	0	0	0	0	22.28	1.83	0.03	582858	0	16281	332856	582858	566577	10663	50	477	102	324294	1455715	11292
76	2016-01-23 02:22:15	0	0	0	0	0	0	22.28	1.83	0.03	582858	0	16281	332856	582858	566577	10663	50	477	102	324294	1455721	11292
77	2016-01-23 02:32:15	0	0	0	0	0	0	22.35	1.83	0.03	586262	0	16382	333969	586262	569880	10723	50	479	102	325351	1455724	11354
78	2016-01-23 02:42:14	0	0	0	0	0	0	22.35	1.83	0.03	586262	0	16382	333969	586262	569880	10723	50	479	102	325351	1455727	11354
79	2016-01-23 02:52:16	0	0	0	0	0	0	22.38	1.83	0.03	588258	0	16435	334438	588258	571823	10761	50	482	102	325796	1455733	11395
80	2016-01-23 03:02:14	0	0	0	0	0	0	22.37	1.83	0.03	588258	0	16435	334438	588258	571823	10761	50	482	102	325796	1456356	11395
81	2016-01-23 03:12:15	0	0	0	0	0	0	22.41	1.83	0.03	589726	0	16482	335053	589726	573244	10782	50	482	102	326379	1456357	11416
82	2016-01-23 03:22:15	0	0	0	0	0	0	22.46	1.83	0.03	591031	0	16513	335844	591031	574518	10802	50	484	102	327129	1456358	11438
83	2016-01-23 03:32:15	0	0	0	0	0	0	22.54	1.83	0.03	592223	0	16548	337105	592223	575675	10823	50	488	102	328326	1456359	11463
84	2016-01-23 03:42:15	0	0	0	0	0	0	22.54	1.83	0.03	592223	0	16548	337105	592223	575675	10823	50	488	102	328326	1456358	11463
85	2016-01-23 03:52:15	0	0	0	0	0	0	22.65	1.83	0.03	593868	0	16595	338654	593868	577273	10862	50	488	102	329795	1456362	11502
86	2016-01-23 04:02:15	0	0	0	0	0	0	22.7	1.83	0.03	594674	0	16616	339545	594674	578058	10870	50	491	102	330640	1456363	11513
87	2016-01-23 04:12:15	0	0	0	0	0	0	22.71	1.83	0.03	595387	0	16628	339620	595387	578759	10882	50	491	102	330711	1456364	11525
88	2016-01-23 04:22:15	0	0	0	0	0	0	22.73	1.83	0.03	596046	0	16644	339909	596046	579402	10900	50	491	102	330985	1456364	11543
89	2016-01-23 04:32:15	0	0	0	0	0	0	22.73	1.83	0.03	596046	0	16644	339909	596046	579402	10900	50	491	102	330985	1456364	11543
90	2016-01-23 04:42:15	0	0	0	0	0	0	22.76	1.83	0.03	596981	0	16661	340413	596981	580320	10912	50	492	102	331463	1456365	11556
91	2016-01-23 04:52:15	0	0	0	0	0	0	22.76	1.83	0.03	596981	0	16661	340413	596981	580320	10912	50	492	102	331463	1456365	11556
92	2016-01-23 05:02:14	0	0	0	0	0	0	22.78	1.83	0.03	597748	0	16687	340750	597748	581061	10928	50	493	102	331783	1456367	11573
93	2016-01-23 05:12:14	0	0	0	0	0	0	22.8	1.83	0.03	598213	0	16696	341013	598213	581517	10942	50	494	102	332032	1456368	11588
94	2016-01-23 05:22:16	0	0	0	0	0	0	22.81	1.83	0.03	598213	0	16714	341013	598213	581517	10946	50	494	102	332165	1456367	11592
95	2016-01-23 05:32:15	0	0	0	0	0	0	22.81	1.83	0.03	598785	0	16718	341154	598785	582067	10951	50	495	102	332165	1456367	11598
96	2016-01-23 05:42:15	0	0	0	0	0	0	22.81	1.83	0.03	599352	0	16732	341154	599352	582620	10957	50	495	102	332165	1456368	11604
97	2016-01-23 05:52:16	0	0	0	0	0	0	22.81	1.83	0.03	599529	0	16738	341154	599529	582791	10964	50	496	102	332237	1456368	11612
98	2016-01-23 06:02:14	0	0	0	0	0	0	22.81	1.83	0.03	599529	0	16738	341154	599529	582791	10964	50	496	102	332237	1456368	11612
99	2016-01-23 06:12:14	0	0	0	0	0	0	22.82	1.83	0.03	600226	0	16752	342342	600226	583474	10977	50	497	102	332361	1456368	11626
100	2016-01-23 06:22:15	0	0	0	0	0	0	22.82	1.83	0.03	600597	0	16761	342342	600597	583836	10983	50	497	102	332361	1456367	11632
101	2016-01-23 06:32:15	0	0	0	0	0	0	22.83	1.83	0.03	600760	0	16764	342418	600760	583996	10985	50	497	102	332433	1456368	11634
102	2016-01-23 06:42:15	0	0	0	0	0	0	22.83	1.83	0.03	601187	0	16777	342418	601187	584410	10985	50	497	102	332433	1456370	11634
103	2016-01-23 06:52:15	0	0	0	0	0	0	22.85	1.83	0.03	601594	0	16794	342721	601594	584800	11004	50	497	102	332719	1456371	11653
104	2016-01-23 07:02:15	0	0	0	0	0	0	22.85	1.83	0.03	601789	0	16795	342721	601789	584994	11006	50	497	102	332719	1456371	11655
105	2016-01-23 07:12:15	0	0	0	0	0	0	22.85	1.83	0.03	602227	0	16808	342797	602227	585419	11014	50	499	102	332790	1456371	11665
106	2016-01-23 07:22:16	0	0	0	0	0	0	22.85	1.83	0.03	602750	0	16832	342797	602750	585918	11019	51	501	102	332790	1456372	11673
107	2016-01-23 07:32:17	0	0	0	0	0	0	22.88	1.83	0.03	603020	0	16839	343253	603020	586181	11025	51	501	102	333220	1456374	11679
108	2016-01-23 07:42:16	0	0	0	0	0	0	22.91	1.83	0.03	603570	0	16854	343672	603570	586716	11025	51	501	102	333615	1456375	11679
109	2016-01-23 07:52:17	0	0	0	0	0	0	22.92	1.83	0.03	604181	0	16866	343825	604181	587315	11056	51	501	102	333759	1456377	11710
110	2016-01-23 08:02:16	0	0	0	0	0	0	22.92	1.83	0.03	604181	0	16866	343825	604181	587315	11056	51	501	102	333759	1456380	11710
111	2016-01-23 08:12:16	0	0	0	0	0	0	23.02	1.83	0.03	605394	0	16920	345426	605394	588474	11083	52	502	102	335267	1456384	11739
112	2016-01-23 08:22:15	0	0	0	0	0	0	23.03	1.83	0.03	606371	0	16954	345580	606371	589417	11100	52	502	102	335413	1456383	11756
113	2016-01-23 08:32:15	0	0	0	0	0	0	23.06	1.83	0.03	607304	0	16985	346024	607304	590319	11116	52	503	102	335831	1456386	11773
114	2016-01-23 08:42:15	0	0	0	0	0	0	23.06	1.83	0.03	607304	0	16985	346024	607304	590319	11116	52	503	102	335831	1456386	11773
115	2016-01-23 08:52:15	0	0	0	0	0	0	23.07	1.83	0.03	609091	0	17067	346179	609091	592024	11152	52	504	102	335977	1456389	11810
116	2016-01-23 09:02:17	0	0	0	0	0	0	23.07	1.83	0.03	609792	0	17102	346247	609792	592690	11160	52	507	102	336041	1456391	11821
117	2016-01-23 09:12:16	0	0	0	0	0	0	23.07	1.83	0.03	609792	0	17102	346247	609792	592690	11160	52	507	102	336041	1456392	11821
118	2016-01-23 09:22:16	0	0	0	0	0	0	23.24	1.83	0.03	612873	0	17244	348757	612873	595629	11224	52	509	102	338405	1456393	11887
119	2016-01-23 09:32:16	0	0	0	0	0	0	23.24	1.83	0.03	612873	0	17244	348757	612873	595629	11224	52	509	102	338405	1456397	11887
120	2016-01-23 09:42:16	0	0	0	0	0	0	23.25	1.83	0.03	614618	0	17316	349013	614618	598176	11268	52	512	102	338645	1456403	11934
121	2016-01-23 09:52:16	0	0	0	0	0	0	23.36	1.83	0.03	616363	0	17428	351021	616363	598176	11295	52	512	102	340236	1456412	11961
122	2016-01-23 10:02:15	0	0	0	0	0	0	23.41	1.83	0.03	617976	0	17457	351459	617976	600519	11314	52	513	102	340948	1456416	11981
123	2016-01-23 10:12:16	0	0	0	0	0	0	23.45	1.83	0.03	619837	0	17555	352179	619837	602282	11355	52	513	102	341550	1456422	12022
124	2016-01-23 10:22:15	0	0	0	0	0	0	23.45	1.83	0.03	619837	0	17555	352179	619837	602282	11355	52	513	102	341550	1456425	12022
125	2016-01-23 10:32:16	0	0	0	0	0	0	23.48	1.84	0.03	622635	0	17688	352389	622635	604947	11433	52	519	102	341974	1456432	12106
126	2016-01-23 10:42:16	0	0	0	0	0	0	23.53	1.84	0.03	624596	0	17784	352831	624596	606812	11468	52	520	102	342693	1456438	12142
127	2016-01-23 10:52:15	0	0	0	0	0	0	23.53	1.84	0.03	624596	0	17784	352831	624596	606812	11468	52	520	102	342693	1456445	12142
128	2016-01-23 11:02:16	0	0	0	0	0	0	23.62	1.84	0.03	627028	0	17927	354944	627028	609101	11521	52	521	102	343950	1456451	12196
129	2016-01-23 11:12:22	0	0	0	0	0	0	23.65	1.84	0.03	628352	0	18010	354944	628352	610342	11546	52	523	102	344399	1456455	12223
130	2016-01-23 11:22:18	0	0	0	0	0	0	23.69	1.84	0.03	629789	0	18072	355995	629789	611717	11575	52	523	102	345080	1456460	12252
131	2016-01-23 11:32:17	0	0	0	0	0	0	23.69	1.84	0.03	629789	0	18072	355995	629789	611717	11575	52	524	102	345080	1456467	12253
132	2016-01-23 11:42:16	0	0	0	0	0	0	23.76	1.84	0.03	632027	0	18187	357299	632027	613840	11615	52	525	103	346074	1456474	12295
133	2016-01-23 11:52:16	0	0	0	0	0	0	23.77	1.84	0.03	632723	0	18209	357464	632723	614514	11625	52	526	103	346228	1456478	12306
134	2016-01-23 12:02:17	0	0	0	0	0	0	23.86	1.84	0.03	633999	0	18266	358499	633999	615733	11644	52	527	103	347511	1456490	12326
135	2016-01-23 12:12:18	0	0	0	0	0	0	23.87	1.84	0.03	634701	0	18295	358644	634701	616406	11656	52	527	103	347647	1456500	12338
136	2016-01-23 12:22:18	0	0	0	0	0	0	23.92	1.84	0.03	635981	0	18353	359394	635981	617628	11678	52	528	103	348351	1456505	12361
137	2016-01-23 12:32:17	0	0	0	0	0	0	23.94	1.84	0.03	637301	0	18400	359728	637301	618901	11715	52	529	103	348665	1456513	12399
138	2016-01-23 12:42:18	0	0	0	0	0	0	23.96	1.84	0.03	638094	0	18427	360062	638094	619667	11731	52	529	103	348979	1456523	12415
139	2016-01-23 12:52:17	0	0	0	0	0	0	23.99	1.84	0.03	639572	0	18480	361194	639572	621092	11765	52	531	105	349450	1456532	12453
140	2016-01-23 13:02:17	0	0	0	0	0	0	24.02	1.84	0.03	640297	0	18501	361447	640297	621796	11775	52	531	105	349844	1456539	12463
141	2016-01-23 13:12:19	0	0	0	0	0	0	24.07	1.84	0.03	640964	0	18530	362277	640964	622434	11787	52	531	106	350622	1456545	12476
142	2016-01-23 13:22:18	0	0	0	0	0	0	24.1	1.84	0.03	642981	0	18573	363228	642981	624379	11816	52	531	106	351094	1456550	12505
143	2016-01-23 13:32:17	0	0	0	0	0	0	24.16	1.84	0.03	643583	0	18614	363228	643583	624969	11844	52	531	106	351832	1456550	12533
144	2016-01-23 13:42:18	0	0	0	0	0	0	24.2	1.84	0.03	644824	0	18652	363911	644824	626172	11869	52	531	106	352473	1456553	12558
145	2016-01-23 13:52:22	0	0	0	0	0	0	24.29	1.84	0.03	646037	0	18675	365026	646037	626810	11895	52	532	106	353842	1456565	12585
146	2016-01-23 14:02:19	0	0	0	0	0	0	24.29	1.84	0.03	646709	0	18706	365026	646709	628003	11895	52	532	106	353842	1456565	12585
147	2016-01-23 14:12:19	0	0	0	0	0	0	24.33	1.84	0.03	648047	0	18757	365781	648047	629290	11936	52	534	106	354389	1456568	12628
148	2016-01-23 14:22:20	0	0	0	0	0	0	24.33	1.84	0.03	648047	0	18757	365781	648047	629290	11936	52	534	106	354389	1456574	12628
149	2016-01-23 14:32:20	0	0	0	0	0	0	24.38	1.84	0.03	649946	0	18829	366560	649946	631117	11972	52	534	106	355121	1456577	12664
150	2016-01-23 14:42:19	0	0	0	0	0	0	24.39	1.84	0.03	651048	0	18863	366593	651048	632185	11993	52	535	106	355314	1456584	12686
151	2016-01-23 14:52:20	0	0	0	0	0	0	24.48	1.84	0.03	652028	0	18891	367899	652028	633137	12014	52	536	106	356542	1456588	12708
152	2016-01-23 15:02:19	0	0	0	0	0	0	24.48	1.84	0.03	652575	0	18918	367899	652575	633657	12033	52	537	106	356542	1456588	12728
153	2016-01-23 15:12:20	0	0	0	0	0	0	24.51	1.84	0.03	653675	0	18955	368425	653675	634720	12049	52	538	106	356953	1456593	12745
154	2016-01-23 15:22:19	0	0	0	0	0	0	24.51	1.84	0.03	654085	0	18968	368425	654085	635117	12049	52	539	106	356953	1456598	12746
155	2016-01-23 15:32:21	0	0	0	0	0	0	24.54	1.84	0.03	654639	0	18984	368951	654639	635655	12065	52	540	106	357447	1456603	12763
156	2016-01-23 15:42:22	0	0	0	0	0	0	24.56	1.84	0.03	656181	0	19027	369789	656181	637124	12090	52	542	106	357736	1456615	12790
157	2016-01-23 15:52:21	0	0	0	0	0	0	24.59	1.84	0.03	656640	0	19081	369789	656640	637559	12114	52	542	106	358233	1456623	12814
158	2016-01-23 16:02:20	0	0	0	0	0	0	24.59	1.84	0.03	657226	0	19108	370054	657226	638118	12114	52	542	106	358233	1456627	12814
159	2016-01-23 16:12:21	0	0	0	0	0	0	24.63	1.84	0.03	658182	0	19138	370408	658182	639044	12143	52	542	106	358814	1456635	12843
160	2016-01-23 16:22:21	0	0	0	0	0	0	24.71	1.85	0.03	658958	0	19164	371580	658958	639794	12162	52	542	106	359914	1456640	12862
161	2016-01-23 16:32:21	0	0	0	0	0	0	24.72	1.84	0.03	659914	0	19219	371759	659914	640695	12173	52	544	106	360082	1456651	12875
162	2016-01-23 16:42:22	0	0	0	0	0	0	24.72	1.85	0.03	660370	0	19235	372183	660370	641135	12194	52	545	106	360082	1456659	12897
163	2016-01-23 16:52:20	0	0	0	0	0	0	24.81	1.84	0.03	661170	0	19269	373114	661170	641901	12194	52	550	106	361353	1456664	12902
164	2016-01-23 17:02:21	0	0	0	0	0	0	24.81	1.85	0.03	661523	0	19281	373114	661523	642242	12216	52	551	106	361353	1456675	12925
165	2016-01-23 17:12:20	0	0	0	0	0	0	24.81	1.85	0.03	661523	0	19281	373114	661523	642242	12216	52	551	106	361353	1456684	12925
166	2016-01-23 17:22:22	0	0	0	0	0	0	24.82	1.85	0.03	662965	0	19356	373336	662965	643271	12236	53	552	106	361522	1456691	12947
167	2016-01-23 17:32:20	0	0	0	0	0	0	24.92	1.85	0.03	662965	0	19356	373336	662965	644405	12265	53	552	106	363077	1456700	12976
168	2016-01-23 17:42:20	0	0	0	0	0	0	24.92	1.85	0.03	664163	0	19418	374952	664163	644405	12265	53	553	106	363077	1456704	12977
169	2016-01-23 17:52:21	0	0	0	0	0	0	24.95	1.85	0.03	664898	0	19462	375407	664898	645436	12288	53	556	106	363503	1456710	13003
170	2016-01-23 18:02:21	0	0	0	0	0	0	24.97	1.85	0.03	665728	0	19504	375612	665728	646224	12292	53	556	106	363695	1456720	13007
171	2016-01-23 18:12:22	0	0	0	0	0	0	24.97	1.85	0.03	666037	0	19523	375612	666037	646514	12307	54	557	106	363695	1456720	13024
172	2016-01-23 18:22:21	0	0	0	0	0	0	24.97	1.85	0.03	666794	0	19571	375612	666794	647223	12330	54	559	106	363695	1456726	13049
173	2016-01-23 18:32:21	0	0	0	0	0	0	25	1.85	0.03	667117	0	19588	376159	667117	647529	12335	54	560	106	364209	1456730	13055
174	2016-01-23 18:42:22	0	0	0	0	0	0	25.01	1.85	0.03	667929	0	19633	376239	667929	648296	12353	54	560	106	364284	1456739	13073
175	2016-01-23 18:52:23	0	0	0	0	0	0	25.01	1.85	0.03	668608	0	19633	376514	668608	648296	12353	54	560	106	364284	1456747	13073
176	2016-01-23 19:02:21	0	0	0	0	0	0	25.02	1.85	0.03	669007	0	19691	376514	669007	649316	12370	54	560	106	364541	1456751	13090
177	2016-01-23 19:12:21	0	0	0	0	0	0	25.06	1.85	0.03	669748	0	19725	377018	669748	650023	12387	54	561	106	365014	1456763	13108
178	2016-01-23 19:22:21	0	0	0	0	0	0	25.09	1.85	0.03	670439	0	19753	377685	670439	650686	12397	54	561	106	365488	1456769	13118
179	2016-01-23 19:32:21	0	0	0	0	0	0	25.09	1.85	0.03	670772	0	19770	377685	670772	650686	12400	54	561	106	365488	1456775	13121
180	2016-01-23 19:42:22	0	0	0	0	0	0	25.1	1.85	0.03	671506	0	19801	379165	671506	651705	12414	54	561	106	365660	1456778	13135
181	2016-01-23 19:52:22	0	0	0	0	0	0	25.1	1.85	0.03	672199	0	19829	379165	672199	652370	12427	54	561	107	365660	1456785	13149
182	2016-01-23 20:02:22	0	0	0	0	0	0	25.14	1.85	0.03	672531	0	19842	379816	672531	652689	12433	54	562	107	366266	1456793	13156
183	2016-01-23 20:12:23	0	0	0	0	0	0	25.18	1.85	0.03	673321	0	19876	380376	673321	653445	12436	54	562	107	366786	1456797	13159
184	2016-01-23 20:22:23	0	0	0	0	0	0	25.2	1.85	0.03	673997	0	19912	380657	673997	654085	12449	54	562	107	367047	1456802	13172
185	2016-01-23 20:32:21	0	0	0	0	0	0	25.2	1.85	0.03	673997	0	19912	380657	673997	654085	12449	54	562	107	367047	1456806	13172
186	2016-01-23 20:42:22	0	0	0	0	0	0	25.22	1.85	0.03	675166	0	19952	381078	675166	654788	12469	54	563	107	367439	1456810	13193
187	2016-01-23 20:52:22	0	0	0	0	0	0	25.22	1.85	0.03	675958	0	19968	381078	675958	655977	12476	54	563	107	367439	1456823	13200
188	2016-01-23 21:02:22	0	0	0	0	0	0	25.28	1.85	0.03	676761	0	20019	381918	676761	656742	12491	55	564	107	368220	1456825	13217
189	2016-01-23 21:12:23	0	0	0	0	0	0	25.28	1.85	0.03	676761	0	20019	381918	676761	656742	12495	55	564	107	368220	1456836	13221
190	2016-01-23 21:22:24	0	0	0	0	0	0	25.32	1.85	0.03	677883	0	20071	382555	677883	657812	12510	55	570	107	368812	1456843	13242
191	2016-01-23 21:32:23	0	0	0	0	0	0	25.38	1.85	0.03	678278	0	20086	383598	678278	658192	12515	55	570	107	369782	1456847	13247
192	2016-01-23 21:42:23	0	0	0	0	0	0	25.42	1.85	0.03	679020	0	20116	384169	679020	658904	12530	55	570	107	370312	1456854	13262
193	2016-01-23 21:52:23	0	0	0	0	0	0	25.42	1.85	0.03	679020	0	20116	384169	679020	658904	12530	55	570	107	370312	1456857	13262
194	2016-01-23 22:02:24	0	0	0	0	0	0	25.43	1.84	0.03	680423	0	20176	384372	680423	660247	12551	55	573	107	370501	1456861	13286
195	2016-01-23 22:12:26	0	0	0	0	0	0	25.45	1.84	0.03	681082	0	20189	385041	681082	660869	12558	55	573	107	370811	1456870	13293
196	2016-01-23 22:22:23	0	0	0	0	0	0	25.5	1.85	0.03	681082	0	20234	385041	681082	661158	12569	55	573	107	371456	1456880	13304
197	2016-01-23 22:32:25	0	0	0	0	0	0	25.51	1.85	0.03	681728	0	20266	385545	681728	661885	12581	55	574	107	371590	1456882	13317
198	2016-01-23 22:42:25	0	0	0	0	0	0	25.55	1.84	0.03	682850	0	20289	386218	682850	662561	12586	55	574	107	372215	1456886	13322
199	2016-01-23 22:52:26	0	0	0	0	0	0	25.55	1.84	0.03	683154	0	20302	386218	683154	662852	12591	55	574	107	372215	1456896	13327
200	2016-01-23 23:02:24	0	0	0	0	0	0	25.55	1.84	0.03	683154	0	20302	386218	683154	662852	12591	55	574	107	372215	1456904	13327
201	2016-01-23 23:12:24	0	0	0	0	0	0	25.55	1.84	0.03	684207	0	20332	386314	684207	663875	12611	55	574	107	372305	1456913	13347
202	2016-01-23 23:22:25	0	0	0	0	0	0	25.6	1.84	0.03	684972	0	20358	387087	684972	664614	12621	55	575	107	373022	1456918	13358
203	2016-01-23 23:32:25	0	0	0	0	0	0	25.61	1.84	0.03	685741	0	20388	387184	685741	665353	12634	55	577	107	373112	1456923	13373
204	2016-01-23 23:42:24	0	0	0	0	0	0	25.61	1.84	0.03	685741	0	20388	387184	685741	665353	12634	55	577	107	373112	1456932	13373
205	2016-01-23 23:52:24	0	0	0	0	0	0	25.64	1.84	0.03	686788	0	20433	387668	686788	666355	12651	55	578	107	373562	1456935	13391
206	2016-01-24 00:02:23	0	0	0	0	0	0	25.64	1.84	0.03	686788	0	20455	387668	686788	666715	12651	55	578	107	373562	1456937	13391
207	2016-01-24 00:12:26	0	0	0	0	0	0	25.64	1.84	0.03	687539	0	20475	387863	687539	667064	12663	55	578	107	373562	1456945	13403
208	2016-01-24 00:22:25	0	0	0	0	0	0	25.64	1.84	0.03	688085	0	20493	387863	688085	667592	12676	55	579	107	373562	1456956	13417
209	2016-01-24 00:32:25	0	0	0	0	0	0	25.66	1.84	0.03	688690	0	20519	388179	688690	668171	12684	55	580	107	373856	1456957	13426
210	2016-01-24 00:42:24	0	0	0	0	0	0	25.68	1.84	0.03	689297	0	20544	388565	689297	668753	12696	55	581	107	374214	1456961	13439
211	2016-01-24 00:52:25	0	0	0	0	0	0	25.71	1.84	0.03	690005	0	20576	389005	690005	669429	12705	55	581	107	374622	1456969	13448
212	2016-01-24 01:02:27	0	0	0	0	0	0	25.71	1.84	0.03	690274	0	20583	389005	690274	669691	12707	55	582	107	374622	1456973	13451
213	2016-01-24 01:12:25	0	0	0	0	0	0	25.71	1.84	0.03	690274	0	20583	389005	690274	669691	12707	55	582	107	374622	1456975	13451
214	2016-01-24 01:22:30	0	0	0	0	0	0	25.71	1.84	0.03	691095	0	20605	389005	691095	670490	12724	55	582	107	374622	1456978	13468
215	2016-01-24 01:32:26	0	0	0	0	0	0	25.71	1.84	0.03	691095	0	20605	389005	691095	670490	12724	55	582	107	374622	1456980	13468
216	2016-01-24 01:42:24	0	0	0	0	0	0	25.78	1.84	0.03	692019	0	20633	390022	692019	671386	12742	55	585	107	375565	1456984	13489
217	2016-01-24 01:52:25	0	0	0	0	0	0	25.78	1.84	0.03	692194	0	20636	390022	692194	671558	12747	55	585	107	375565	1456989	13494
218	2016-01-24 02:02:36	0	0	0	0	0	0	25.79	1.84	0.03	692473	0	20655	390218	692473	671818	12757	55	586	107	375747	1456997	13505
219	2016-01-24 02:12:27	0	0	0	0	0	0	25.79	1.84	0.03	692473	0	20655	390218	692473	671818	12757	55	586	107	375747	1456999	13505
220	2016-01-24 02:22:32	0	0	0	0	0	0	25.79	1.84	0.03	692755	0	20673	390218	692755	672082	12758	55	586	107	375747	1457001	13506
221	2016-01-24 02:32:24	0	0	0	0	0	0	25.79	1.84	0.03	692755	0	20673	390218	692755	672082	12758	55	586	107	375747	1457001	13506
222	2016-01-24 02:42:25	0	0	0	0	0	0	25.79	1.84	0.03	692930	0	20680	390218	692930	672250	12765	55	586	107	375747	1457002	13513
223	2016-01-24 02:52:22	0	0	0	0	0	0	25.79	1.84	0.03	692930	0	20680	390218	692930	672250	12765	55	586	107	375747	1457004	13513
224	2016-01-24 03:02:24	0	0	0	0	0	0	25.76	1.84	0.03	693042	0	20688	390218	693042	672354	12771	55	586	107	375747	1458853	13519
225	2016-01-24 03:12:25	0	0	0	0	0	0	25.76	1.84	0.03	693101	0	20692	390218	693101	672409	12771	55	586	107	375747	1458856	13519
226	2016-01-24 03:22:25	0	0	0	0	0	0	25.76	1.84	0.03	693163	0	20698	390218	693163	672465	12772	55	586	107	375747	1458859	13520
227	2016-01-24 03:32:27	0	0	0	0	0	0	25.76	1.84	0.03	693190	0	20701	390218	693190	672465	12773	55	586	107	375747	1458863	13521
228	2016-01-24 03:42:25	0	0	0	0	0	0	25.76	1.84	0.03	693190	0	20705	390218	693190	672524	12776	55	586	107	375747	1458860	13524
229	2016-01-24 03:52:25	0	0	0	0	0	0	25.76	1.84	0.03	693280	0	20705	390218	693280	672524	12776	55	586	107	375747	1458861	13524
230	2016-01-24 04:02:24	0	0	0	0	0	0	25.76	1.84	0.03	693294	0	20709	390218	693294	672585	12777	55	586	107	375747	1458860	13525
231	2016-01-24 04:12:27	0	0	0	0	0	0	25.76	1.84	0.03	693325	0	20711	390218	693325	672614	12777	55	586	107	375747	1458860	13525
232	2016-01-24 04:22:27	0	0	0	0	0	0	25.76	1.84	0.03	693353	0	20713	390218	693353	672640	12779	55	586	107	375747	1458862	13527
233	2016-01-24 04:32:24	0	0	0	0	0	0	25.76	1.84	0.03	693353	0	20713	390218	693353	672640	12779	55	586	107	375747	1458860	13527
234	2016-01-24 04:42:23	0	0	0	0	0	0	25.76	1.84	0.03	693393	0	20717	390292	693393	672676	12779	55	586	107	375815	1458862	13527
235	2016-01-24 04:52:26	0	0	0	0	0	0	25.76	1.84	0.03	693423	0	20718	390292	693423	672705	12779	55	586	107	375815	1458862	13527
236	2016-01-24 05:02:27	0	0	0	0	0	0	25.76	1.84	0.03	693433	0	20718	390292	693433	672715	12779	55	586	107	375815	1458861	13527
237	2016-01-24 05:12:29	0	0	0	0	0	0	25.76	1.84	0.03	693451	0	20722	390292	693451	672729	12779	55	586	107	375815	1458861	13527
238	2016-01-24 05:22:26	0	0	0	0	0	0	25.76	1.84	0.03	693451	0	20722	390292	693451	672729	12779	55	586	107	375815	1458859	13527
239	2016-01-24 05:32:26	0	0	0	0	0	0	25.76	1.84	0.03	693479	0	20727	390292	693479	672752	12780	55	586	107	375815	1458860	13528
240	2016-01-24 05:42:24	0	0	0	0	0	0	25.76	1.84	0.03	693493	0	20730	390292	693493	672763	12780	55	586	107	375815	1458862	13528
241	2016-01-24 05:52:25	0	0	0	0	0	0	25.76	1.84	0.03	693496	0	20730	390292	693496	672766	12780	55	586	107	375815	1458863	13528
242	2016-01-24 06:02:25	0	0	0	0	0	0	25.76	1.84	0.03	693507	0	20733	390292	693507	672774	12780	55	586	107	375815	1458864	13528
243	2016-01-24 06:12:25	0	0	0	0	0	0	25.76	1.84	0.03	693526	0	20733	390292	693526	672793	12781	55	586	107	375815	1458862	13529
244	2016-01-24 06:22:25	0	0	0	0	0	0	25.76	1.84	0.03	693526	0	20733	390292	693526	672793	12781	55	586	107	375815	1458861	13529
245	2016-01-24 06:32:26	0	0	0	0	0	0	25.76	1.84	0.03	693542	0	20734	390292	693542	672808	12781	55	586	107	375815	1458861	13529
246	2016-01-24 06:42:27	0	0	0	0	0	0	25.76	1.84	0.03	693556	0	20734	390292	693556	672822	12781	55	586	107	375815	1458863	13529
247	2016-01-24 06:52:27	0	0	0	0	0	0	25.76	1.84	0.03	693567	0	20736	390292	693567	672831	12782	55	586	107	375815	1458866	13530
248	2016-01-24 07:02:27	0	0	0	0	0	0	25.76	1.84	0.03	693578	0	20738	390292	693578	672840	12782	55	586	107	375815	1458866	13530
249	2016-01-24 07:12:27	0	0	0	0	0	0	25.76	1.84	0.03	693594	0	20743	390292	693594	672851	12782	55	586	107	375815	1458868	13530
250	2016-01-24 07:22:27	0	0	0	0	0	0	25.76	1.84	0.03	693594	0	20743	390292	693594	672851	12782	55	586	107	375815	1458869	13530
251	2016-01-24 07:32:28	0	0	0	0	0	0	25.76	1.84	0.03	693611	0	20744	390292	693611	672867	12784	55	586	107	375815	1458869	13532
252	2016-01-24 07:42:26	0	0	0	0	0	0	25.76	1.84	0.03	693628	0	20747	390292	693628	672881	12784	55	586	107	375815	1458870	13532
253	2016-01-24 07:52:25	0	0	0	0	0	0	25.76	1.84	0.03	693640	0	20748	390292	693640	672892	12785	55	586	107	375815	1458872	13533
254	2016-01-24 08:02:26	0	0	0	0	0	0	25.76	1.84	0.03	693675	0	20750	390292	693675	672925	12785	55	586	107	375815	1458873	13533
255	2016-01-24 08:12:26	0	0	0	0	0	0	25.76	1.84	0.03	693708	0	20754	390292	693708	672953	12785	55	586	107	375815	1458873	13533
256	2016-01-24 08:22:27	0	0	0	0	0	0	25.76	1.84	0.03	693721	0	20756	390292	693721	672965	12786	55	586	107	375815	1458876	13534
257	2016-01-24 08:32:24	0	0	0	0	0	0	25.76	1.84	0.03	693756	0	20760	390292	693756	672996	12786	55	586	107	375815	1458876	13534
258	2016-01-24 08:42:26	0	0	0	0	0	0	25.77	1.84	0.03	693780	0	20762	390489	693780	673018	12787	55	586	107	375998	1458878	13535
259	2016-01-24 08:52:30	0	0	0	0	0	0	25.77	1.84	0.03	693801	0	20762	390489	693801	673039	12787	55	586	107	375998	1458877	13535
260	2016-01-24 09:02:26	0	0	0	0	0	0	25.77	1.84	0.03	693801	0	20762	390489	693801	673039	12787	55	586	107	375998	1458876	13535
261	2016-01-24 09:12:28	0	0	0	0	0	0	25.77	1.84	0.03	693871	0	20769	390883	693871	673102	12790	55	586	107	375998	1458879	13538
262	2016-01-24 09:22:25	0	0	0	0	0	0	25.77	1.84	0.03	693871	0	20769	390883	693871	673102	12790	55	586	107	375998	1458882	13538
263	2016-01-24 09:32:26	0	0	0	0	0	0	25.77	1.84	0.03	693978	0	20782	390883	693978	673196	12793	55	586	107	375998	1458885	13541
264	2016-01-24 09:42:26	0	0	0	0	0	0	25.77	1.84	0.03	694009	0	20784	390883	694009	673225	12793	55	586	107	375998	1458887	13541
265	2016-01-24 09:52:27	0	0	0	0	0	0	25.77	1.84	0.03	694069	0	20789	390883	694069	673280	12793	55	586	107	375998	1458894	13541
266	2016-01-24 10:02:26	0	0	0	0	0	0	25.77	1.84	0.03	694069	0	20789	390883	694069	673280	12793	55	586	107	375998	1458892	13541
267	2016-01-24 10:12:26	0	0	0	0	0	0	25.77	1.84	0.03	694206	0	20801	390883	694206	673405	12795	55	586	108	375998	1458896	13544
268	2016-01-24 10:22:25	0	0	0	0	0	0	25.77	1.84	0.03	694275	0	20803	390883	694275	673472	12796	55	586	108	375998	1458905	13545
269	2016-01-24 10:32:28	0	0	0	0	0	0	25.77	1.84	0.03	694314	0	20804	390883	694314	673510	12796	55	586	108	375998	1458911	13545
270	2016-01-24 10:42:27	0	0	0	0	0	0	25.77	1.84	0.03	694371	0	20810	390883	694371	673510	12796	55	586	108	375998	1458914	13545
271	2016-01-24 10:52:24	0	0	0	0	0	0	25.77	1.84	0.03	694371	0	20810	390883	694371	673646	12796	55	586	108	375998	1458918	13545
272	2016-01-24 11:02:29	0	0	0	0	0	0	25.82	1.84	0.03	694497	0	20817	391668	694497	673680	12798	55	586	108	376724	1458923	13547
273	2016-01-24 11:12:26	0	0	0	0	0	0	25.82	1.84	0.03	694497	0	20817	391668	694497	673680	12798	55	586	108	376724	1458923	13547
274	2016-01-24 11:22:27	0	0	0	0	0	0	25.83	1.84	0.03	694595	0	20827	391817	694595	673768	12799	55	586	108	376862	1458927	13548
275	2016-01-24 11:32:25	0	0	0	0	0	0	25.83	1.84	0.03	694595	0	20827	391817	694595	673768	12799	55	586	108	376862	1458934	13548
276	2016-01-24 11:42:24	0	0	0	0	0	0	25.83	1.84	0.03	694666	0	20830	391817	694666	673836	12803	55	586	108	376862	1458941	13552
277	2016-01-24 11:52:31	0	0	0	0	0	0	25.83	1.84	0.03	694726	0	20834	391817	694726	673892	12803	55	586	108	376862	1458942	13552
278	2016-01-24 12:02:26	0	0	0	0	0	0	25.83	1.84	0.03	694782	0	20839	391817	694782	673943	12805	55	586	108	376862	1458947	13554
279	2016-01-24 12:12:26	0	0	0	0	0	0	25.83	1.84	0.03	694810	0	20841	391817	694810	673969	12805	55	586	108	376862	1458950	13554
280	2016-01-24 12:22:33	0	0	0	0	0	0	25.83	1.84	0.03	694856	0	20844	391817	694856	674012	12806	55	586	108	376862	1458952	13555
281	2016-01-24 12:32:28	0	0	0	0	0	0	25.83	1.84	0.03	694879	0	20848	391817	694879	674031	12806	55	586	108	376862	1458960	13555
282	2016-01-24 12:42:31	0	0	0	0	0	0	25.83	1.84	0.03	694920	0	20851	391817	694920	674069	12808	55	586	108	376862	1458962	13557
283	2016-01-24 12:52:25	0	0	0	0	0	0	25.83	1.84	0.03	694920	0	20851	391817	694920	674069	12808	55	586	108	376862	1458965	13557
284	2016-01-24 13:02:26	0	0	0	0	0	0	25.83	1.84	0.03	694991	0	20855	391817	694991	674136	12809	55	586	108	376862	1458967	13558
285	2016-01-24 13:12:28	0	0	0	0	0	0	25.83	1.84	0.03	695027	0	20860	391817	695027	674167	12810	55	586	108	376862	1458973	13559
286	2016-01-24 13:22:27	0	0	0	0	0	0	25.83	1.84	0.03	695027	0	20860	391817	695027	674167	12810	55	586	108	376862	1458974	13559
287	2016-01-24 13:32:30	0	0	0	0	0	0	25.83	1.84	0.03	695078	0	20870	391817	695078	674208	12810	55	586	108	376862	1458978	13559
288	2016-01-24 13:42:27	0	0	0	0	0	0	25.83	1.84	0.03	695108	0	20870	391817	695108	674208	12810	55	586	108	376862	1458980	13559
289	2016-01-24 13:52:26	0	0	0	0	0	0	25.83	1.84	0.03	695108	0	20876	391817	695108	674263	12810	55	586	108	376862	1458982	13559
290	2016-01-24 14:02:27	0	0	0	0	0	0	25.83	1.84	0.03	695158	0	20881	391817	695158	674277	12810	55	586	108	376862	1458987	13559
291	2016-01-24 14:12:28	0	0	0	0	0	0	25.83	1.84	0.03	695197	0	20883	391817	695197	674314	12811	55	586	108	376862	1458989	13560
292	2016-01-24 14:22:31	0	0	0	0	0	0	25.83	1.84	0.03	695229	0	20886	391817	695229	674343	12811	55	586	108	376862	1458995	13560
293	2016-01-24 14:32:28	0	0	0	0	0	0	25.83	1.84	0.03	695244	0	20886	391817	695244	674358	12812	55	586	108	376862	1459002	13561
294	2016-01-24 14:42:29	0	0	0	0	0	0	25.83	1.84	0.03	695265	0	20888	391817	695265	674377	12812	55	586	108	376862	1459004	13561
295	2016-01-24 14:52:29	0	0	0	0	0	0	25.83	1.84	0.03	695276	0	20888	391817	695276	674388	12812	55	586	108	376862	1459007	13561
296	2016-01-24 15:02:28	0	0	0	0	0	0	25.83	1.84	0.03	695276	0	20888	391817	695276	674388	12812	55	586	108	376862	1459011	13561
297	2016-01-24 15:12:33	0	0	0	0	0	0	25.83	1.84	0.03	695323	0	20890	391817	695323	674415	12812	55	586	108	376862	1459014	13561
298	2016-01-24 15:22:30	0	0	0	0	0	0	25.83	1.84	0.03	695323	0	20890	391817	695323	674415	12812	55	586	108	376862	1459019	13561
299	2016-01-24 15:32:33	0	0	0	0	0	0	25.83	1.84	0.03	695352	0	20897	391817	695352	674455	12814	55	586	108	376862	1459026	13563
300	2016-01-24 15:42:28	0	0	0	0	0	0	25.83	1.84	0.03	695352	0	20897	391817	695352	674455	12814	55	586	108	376862	1459029	13563
301	2016-01-24 15:52:29	0	0	0	0	0	0	25.83	1.84	0.03	695383	0	20902	391817	695383	674481	12814	55	586	108	376862	1459031	13563
302	2016-01-24 16:02:33	0	0	0	0	0	0	25.83	1.84	0.03	695403	0	20903	391817	695403	674500	12815	55	586	108	376862	1459038	13564
303	2016-01-24 16:12:30	0	0	0	0	0	0	25.83	1.84	0.03	695403	0	20903	391817	695403	674500	12815	55	586	108	376862	1459041	13564
304	2016-01-24 16:22:30	0	0	0	0	0	0	25.83	1.84	0.03	695435	0	20905	391817	695435	674530	12816	55	586	108	376862	1459043	13565
305	2016-01-24 16:32:33	0	0	0	0	0	0	25.83	1.84	0.03	695468	0	20908	391817	695468	674560	12816	55	586	108	376862	1459047	13565
306	2016-01-24 16:42:31	0	0	0	0	0	0	25.83	1.84	0.03	695471	0	20908	391817	695471	674563	12817	55	586	108	376862	1459055	13566
307	2016-01-24 16:52:33	0	0	0	0	0	0	25.83	1.84	0.03	695490	0	20912	391817	695490	674578	12818	55	586	108	376862	1459061	13567
308	2016-01-24 17:02:30	0	0	0	0	0	0	25.83	1.84	0.03	695500	0	20914	391817	695500	674586	12818	55	586	108	376862	1459066	13567
309	2016-01-24 17:12:30	0	0	0	0	0	0	25.83	1.84	0.03	695524	0	20917	391817	695524	674607	12818	55	586	108	376862	1459068	13567
310	2016-01-24 17:22:30	0	0	0	0	0	0	25.83	1.84	0.03	695524	0	20917	391817	695524	674607	12818	55	586	108	376862	1459074	13567
311	2016-01-24 17:32:33	0	0	0	0	0	0	25.83	1.84	0.03	695573	0	20921	391817	695573	674652	12819	55	586	108	376862	1459083	13568
312	2016-01-24 17:42:33	0	0	0	0	0	0	25.83	1.84	0.03	695573	0	20921	391817	695573	674652	12819	55	586	108	376862	1459088	13568
313	2016-01-24 17:52:30	0	0	0	0	0	0	25.83	1.84	0.03	695598	0	20925	391817	695598	674673	12819	55	586	108	376862	1459096	13568
314	2016-01-24 18:02:32	0	0	0	0	0	0	25.83	1.84	0.03	695613	0	20926	391817	695613	674687	12820	55	586	108	376862	1459100	13569
315	2016-01-24 18:12:31	0	0	0	0	0	0	25.83	1.84	0.03	695623	0	20927	391817	695623	674696	12820	55	586	108	376862	1459105	13569
316	2016-01-24 18:22:32	0	0	0	0	0	0	25.83	1.84	0.03	695646	0	20930	391817	695646	674716	12820	55	586	108	376862	1459113	13569
317	2016-01-24 18:32:35	0	0	0	0	0	0	25.83	1.84	0.03	695666	0	20933	391817	695666	674733	12820	55	586	108	376862	1459118	13569
318	2016-01-24 18:42:32	0	0	0	0	0	0	25.83	1.84	0.03	695666	0	20933	391817	695666	674733	12820	55	586	108	376862	1459120	13569
319	2016-01-24 18:52:32	0	0	0	0	0	0	25.83	1.84	0.03	695686	0	20935	391817	695686	674751	12820	55	586	108	376862	1459131	13569
320	2016-01-24 19:02:33	0	0	0	0	0	0	25.83	1.84	0.03	695701	0	20936	391817	695701	674765	12821	55	586	108	376862	1459134	13570
321	2016-01-24 19:12:32	0	0	0	0	0	0	25.83	1.84	0.03	695715	0	20936	391817	695715	674779	12821	55	586	108	376862	1459141	13570
322	2016-01-24 19:22:37	0	0	0	0	0	0	25.83	1.84	0.03	695723	0	20938	391817	695723	674785	12821	55	586	108	376862	1459150	13570
323	2016-01-24 19:32:33	0	0	0	0	0	0	25.83	1.84	0.03	695741	0	20943	391817	695741	674798	12821	55	586	108	376862	1459151	13570
324	2016-01-24 19:42:33	0	0	0	0	0	0	25.83	1.84	0.03	695755	0	20943	391817	695755	674812	12821	55	586	108	376862	1459157	13570
325	2016-01-24 19:52:32	0	0	0	0	0	0	25.83	1.84	0.03	695777	0	20947	391817	695777	674830	12821	55	586	108	376862	1459160	13570
326	2016-01-24 20:02:34	0	0	0	0	0	0	25.83	1.84	0.03	695791	0	20950	391817	695791	674841	12822	55	586	108	376862	1459164	13571
327	2016-01-24 20:12:36	0	0	0	0	0	0	25.83	1.84	0.03	695794	0	20950	391817	695794	674844	12823	55	586	108	376862	1459174	13572
328	2016-01-24 20:22:35	0	0	0	0	0	0	25.83	1.84	0.03	695815	0	20954	391817	695815	674861	12823	55	586	108	376862	1459179	13572
329	2016-01-24 20:32:33	0	0	0	0	0	0	25.83	1.84	0.03	695822	0	20954	391817	695822	674865	12823	55	586	108	376862	1459183	13572
330	2016-01-24 20:42:33	0	0	0	0	0	0	25.83	1.84	0.03	695849	0	20962	391817	695849	674887	12824	55	586	108	376862	1459189	13573
331	2016-01-24 20:52:34	0	0	0	0	0	0	25.83	1.84	0.03	695869	0	20964	391817	695869	674905	12824	55	586	108	376862	1459193	13573
332	2016-01-24 21:02:40	0	0	0	0	0	0	25.83	1.84	0.03	695883	0	20966	391817	695883	674917	12824	55	586	108	376862	1459197	13573
333	2016-01-24 21:12:34	0	0	0	0	0	0	25.83	1.84	0.03	695883	0	20966	391817	695883	674917	12824	55	586	108	376862	1459200	13573
334	2016-01-24 21:22:36	0	0	0	0	0	0	25.83	1.84	0.03	695921	0	20969	391817	695921	674952	12825	55	586	108	376862	1459204	13574
335	2016-01-24 21:32:33	0	0	0	0	0	0	25.83	1.84	0.03	695930	0	20969	391817	695930	674961	12825	55	586	108	376862	1459208	13574
336	2016-01-24 21:42:35	0	0	0	0	0	0	25.83	1.84	0.03	695942	0	20970	391817	695942	674972	12825	55	586	108	376862	1459220	13574
337	2016-01-24 21:52:37	0	0	0	0	0	0	25.83	1.84	0.03	695962	0	20973	391817	695962	674989	12825	55	586	108	376862	1459226	13574
338	2016-01-24 22:02:41	0	0	0	0	0	0	25.83	1.84	0.03	695974	0	20973	391817	695974	675001	12825	55	586	108	376862	1459232	13574
339	2016-01-24 22:12:33	0	0	0	0	0	0	25.83	1.84	0.03	695995	0	20975	391817	695995	675020	12825	55	586	108	376862	1459239	13574
340	2016-01-24 22:22:32	0	0	0	0	0	0	25.83	1.84	0.03	696016	0	20975	391817	696016	675041	12825	55	586	108	376862	1459253	13574
341	2016-01-24 22:32:32	0	0	0	0	0	0	25.83	1.84	0.03	696029	0	20976	391817	696029	675053	12825	55	586	108	376862	1459258	13574
342	2016-01-24 22:42:37	0	0	0	0	0	0	25.83	1.84	0.03	696040	0	20977	391817	696040	675063	12826	55	586	108	376862	1459272	13575
343	2016-01-24 22:52:38	0	0	0	0	0	0	25.83	1.84	0.03	696061	0	20980	391817	696061	675081	12826	55	586	108	376862	1459276	13575
344	2016-01-24 23:02:36	0	0	0	0	0	0	25.83	1.84	0.03	696071	0	20982	391817	696071	675089	12827	55	586	108	376862	1459281	13576
345	2016-01-24 23:12:36	0	0	0	0	0	0	25.83	1.84	0.03	696088	0	20982	391817	696088	675106	12827	55	586	108	376862	1459289	13576
346	2016-01-24 23:22:33	0	0	0	0	0	0	25.82	1.84	0.03	696088	0	20982	391817	696088	675106	12827	55	586	108	376862	1459298	13576
347	2016-01-24 23:32:38	0	0	0	0	0	0	25.82	1.84	0.03	696114	0	20988	391817	696114	675126	12827	55	586	108	376862	1459307	13576
348	2016-01-24 23:42:32	0	0	0	0	0	0	25.82	1.84	0.03	696127	0	20990	391817	696127	675137	12827	55	586	108	376862	1459321	13576
349	2016-01-24 23:52:39	0	0	0	0	0	0	25.82	1.84	0.03	696140	0	20991	391817	696140	675149	12827	55	586	108	376862	1459331	13576
350	2016-01-25 00:02:33	0	0	0	0	0	0	25.82	1.84	0.03	696144	0	20991	391817	696144	675153	12827	55	586	108	376862	1459343	13576
351	2016-01-25 00:12:33	0	0	0	0	0	0	25.82	1.84	0.03	696155	0	20991	391817	696155	675164	12827	55	586	108	376862	1459352	13576
352	2016-01-25 00:22:39	0	0	0	0	0	0	25.83	1.84	0.03	696172	0	20994	391916	696172	675178	12827	55	586	108	376953	1459360	13576
353	2016-01-25 00:32:38	0	0	0	0	0	0	25.83	1.84	0.03	696184	0	20994	391916	696184	675178	12827	55	586	108	376953	1459367	13576
354	2016-01-25 00:42:36	0	0	0	0	0	0	25.83	1.84	0.03	696204	0	20999	391916	696204	675205	12827	55	586	108	376953	1459371	13576
355	2016-01-25 00:52:33	0	0	0	0	0	0	25.83	1.84	0.03	696204	0	20999	391916	696204	675205	12827	55	586	108	376953	1459378	13576
356	2016-01-25 01:02:35	0	0	0	0	0	0	25.83	1.84	0.03	696225	0	21000	391916	696225	675225	12827	55	586	108	376953	1459383	13576
357	2016-01-25 01:12:36	0	0	0	0	0	0	25.83	1.84	0.03	696233	0	21001	391916	696233	675232	12828	55	586	108	376953	1459391	13577
358	2016-01-25 01:22:34	0	0	0	0	0	0	25.83	1.84	0.03	696233	0	21001	391916	696233	675232	12828	55	586	108	376953	1459401	13577
359	2016-01-25 01:32:34	0	0	0	0	0	0	25.83	1.84	0.03	696241	0	21002	391916	696241	675239	12828	55	586	108	376953	1459412	13577
360	2016-01-25 01:42:33	0	0	0	0	0	0	25.83	1.84	0.03	696245	0	21002	391916	696245	675243	12828	55	586	108	376953	1459418	13577
361	2016-01-25 01:52:33	0	0	0	0	0	0	25.83	1.84	0.03	696247	0	21002	391916	696247	675245	12828	55	586	108	376953	1459421	13577
362	2016-01-25 02:02:41	0	0	0	0	0	0	25.83	1.84	0.03	696249	0	21002	391916	696249	675247	12828	55	586	108	376953	1459424	13577
363	2016-01-25 02:12:34	0	0	0	0	0	0	25.83	1.84	0.03	696257	0	21002	391916	696257	675255	12828	55	586	108	376953	1459427	13577
364	2016-01-25 02:22:36	0	0	0	0	0	0	25.83	1.84	0.03	696260	0	21002	391916	696260	675258	12828	55	586	108	376953	1459427	13577
365	2016-01-25 02:32:36	0	0	0	0	0	0	25.83	1.84	0.03	696267	0	21004	391916	696267	675263	12828	55	586	108	376953	1459428	13577
366	2016-01-25 02:42:33	0	0	0	0	0	0	25.83	1.84	0.03	696267	0	21004	391916	696267	675263	12828	55	586	108	376953	1459429	13577
367	2016-01-25 02:52:40	0	0	0	0	0	0	25.83	1.84	0.03	696269	0	21004	391916	696269	675265	12828	55	586	108	376953	1459431	13577
368	2016-01-25 03:02:39	0	0	0	0	0	0	25.8	1.84	0.03	696269	0	21004	391916	696269	675265	12828	55	586	108	376953	1460954	13577
369	2016-01-25 03:12:34	0	0	0	0	0	0	25.8	1.84	0.03	696272	0	21004	391916	696272	675268	12828	55	586	108	376953	1460956	13577
370	2016-01-25 03:22:38	0	0	0	0	0	0	25.8	1.84	0.03	696273	0	21004	391916	696273	675269	12828	55	586	108	376953	1460957	13577
371	2016-01-25 03:32:34	0	0	0	0	0	0	25.8	1.84	0.03	696273	0	21004	391916	696273	675269	12828	55	586	108	376953	1460958	13577
372	2016-01-25 03:42:40	0	0	0	0	0	0	25.8	1.84	0.03	696275	0	21004	391916	696275	675271	12828	55	586	108	376953	1460958	13577
373	2016-01-25 03:52:35	0	0	0	0	0	0	25.8	1.84	0.03	696276	0	21004	391916	696276	675272	12828	55	586	108	376953	1460960	13577
374	2016-01-25 04:02:37	0	0	0	0	0	0	25.8	1.84	0.03	696278	0	21004	391916	696278	675274	12828	55	586	108	376953	1460959	13577
375	2016-01-25 04:12:33	0	0	0	0	0	0	25.8	1.84	0.03	696281	0	21004	391916	696281	675277	12828	55	586	108	376953	1460960	13577
376	2016-01-25 04:22:36	0	0	0	0	0	0	25.8	1.84	0.03	696281	0	21004	391916	696281	675277	12828	55	586	108	376953	1460959	13577
377	2016-01-25 04:32:37	0	0	0	0	0	0	25.8	1.84	0.03	696282	0	21004	391916	696282	675278	12828	55	586	108	376953	1460960	13577
378	2016-01-25 04:42:36	0	0	0	0	0	0	25.8	1.84	0.03	696282	0	21004	391916	696282	675278	12828	55	586	108	376953	1460960	13577
379	2016-01-25 04:52:37	0	0	0	0	0	0	25.8	1.84	0.03	696282	0	21004	391916	696282	675278	12828	55	586	108	376953	1460959	13577
380	2016-01-25 05:02:34	0	0	0	0	0	0	25.8	1.84	0.03	696282	0	21004	391916	696282	675278	12828	55	586	108	376953	1460960	13577
381	2016-01-25 05:12:35	0	0	0	0	0	0	25.8	1.84	0.03	696282	0	21004	391916	696282	675278	12828	55	586	108	376953	1460959	13577
382	2016-01-25 05:22:38	0	0	0	0	0	0	25.8	1.84	0.03	696283	0	21004	391916	696283	675279	12828	55	587	108	376953	1460962	13578
383	2016-01-25 05:32:36	0	0	0	0	0	0	25.8	1.84	0.03	696283	0	21004	391916	696283	675279	12828	55	587	108	376953	1460964	13578
384	2016-01-25 05:42:36	0	0	0	0	0	0	25.8	1.84	0.03	696284	0	21004	391916	696284	675280	12828	55	587	108	376953	1460964	13578
385	2016-01-25 05:52:33	0	0	0	0	0	0	25.8	1.84	0.03	696284	0	21004	391916	696284	675280	12828	55	587	108	376953	1460965	13578
386	2016-01-25 06:02:35	0	0	0	0	0	0	25.8	1.84	0.03	696284	0	21004	391916	696284	675280	12828	55	587	108	376953	1460968	13578
387	2016-01-25 06:12:37	0	0	0	0	0	0	25.8	1.84	0.03	696284	0	21004	391916	696284	675280	12828	55	587	108	376953	1460968	13578
388	2016-01-25 06:22:41	0	0	0	0	0	0	25.8	1.84	0.03	696285	0	21005	391916	696285	675280	12828	55	587	108	376953	1460968	13578
389	2016-01-25 06:32:41	0	0	0	0	0	0	25.8	1.84	0.03	696285	0	21005	391916	696285	675280	12828	55	587	108	376953	1460968	13578
390	2016-01-25 06:42:44	0	0	0	0	0	0	25.8	1.84	0.03	696285	0	21005	391916	696285	675280	12828	55	587	108	376953	1460969	13578
391	2016-01-25 06:52:40	0	0	0	0	0	0	25.8	1.84	0.03	696285	0	21005	391916	696285	675280	12828	55	587	108	376953	1460971	13578
392	2016-01-25 07:02:41	0	0	0	0	0	0	25.8	1.84	0.03	696285	0	21005	391916	696285	675280	12828	55	587	108	376953	1460972	13578
393	2016-01-25 07:12:33	0	0	0	0	0	0	25.8	1.84	0.03	696287	0	21006	391916	696287	675281	12828	55	587	108	376953	1460974	13578
394	2016-01-25 07:22:35	0	0	0	0	0	0	25.8	1.84	0.03	696288	0	21007	391916	696288	675281	12828	55	587	108	376953	1460975	13578
395	2016-01-25 07:32:36	0	0	0	0	0	0	25.8	1.84	0.03	696288	0	21007	391916	696288	675281	12828	55	587	108	376953	1460976	13578
396	2016-01-25 07:42:37	0	0	0	0	0	0	25.8	1.84	0.03	696290	0	21008	391916	696290	675282	12828	55	587	108	376953	1460977	13578
397	2016-01-25 07:52:40	0	0	0	0	0	0	25.8	1.84	0.03	696290	0	21008	391916	696290	675282	12828	55	587	108	376953	1460978	13578
398	2016-01-25 08:02:34	0	0	0	0	0	0	25.8	1.84	0.03	696290	0	21008	391916	696290	675282	12828	55	587	108	376953	1460980	13578
399	2016-01-25 08:12:36	0	0	0	0	0	0	25.8	1.84	0.03	696297	0	21008	391916	696297	675289	12828	55	587	108	376953	1460982	13578
400	2016-01-25 08:22:36	0	0	0	0	0	0	25.8	1.84	0.03	696300	0	21008	391916	696300	675292	12828	55	587	108	376953	1460983	13578
401	2016-01-25 08:32:36	0	0	0	0	0	0	25.8	1.84	0.03	696301	0	21008	391916	696301	675293	12828	55	587	108	376953	1460987	13578
402	2016-01-25 08:42:38	0	0	0	0	0	0	25.8	1.84	0.03	696303	0	21008	391916	696303	675295	12828	55	587	108	376953	1460988	13578
403	2016-01-25 08:52:39	0	0	0	0	0	0	25.8	1.84	0.03	696303	0	21008	391916	696303	675295	12828	55	587	108	376953	1460991	13578
404	2016-01-25 09:02:45	0	0	0	0	0	0	25.8	1.84	0.03	696305	0	21008	391916	696305	675297	12828	55	587	108	376953	1460992	13578
405	2016-01-25 09:12:38	0	0	0	0	0	0	25.8	1.84	0.03	696305	0	21008	391916	696305	675297	12828	55	587	108	376953	1460997	13578
406	2016-01-25 09:22:36	0	0	0	0	0	0	25.8	1.84	0.03	696310	0	21008	391916	696310	675302	12829	55	587	108	376953	1461000	13579
407	2016-01-25 09:32:43	0	0	0	0	0	0	25.8	1.84	0.03	696311	0	21008	391916	696311	675303	12829	55	587	108	376953	1461005	13579
408	2016-01-25 09:42:45	0	0	0	0	0	0	25.8	1.84	0.03	696317	0	21008	391916	696317	675309	12829	55	587	108	376953	1461010	13579
409	2016-01-25 09:52:42	0	0	0	0	0	0	25.8	1.84	0.03	696321	0	21009	391916	696321	675312	12829	55	587	108	376953	1461014	13579
410	2016-01-25 10:02:51	0	0	0	0	0	0	25.8	1.84	0.03	696326	0	21009	391916	696326	675317	12829	55	587	108	376953	1461020	13579
411	2016-01-25 10:12:42	0	0	0	0	0	0	25.8	1.84	0.03	696326	0	21010	391916	696326	675317	12829	55	587	108	376953	1461022	13579
412	2016-01-25 10:22:49	0	0	0	0	0	0	25.8	1.84	0.03	696341	0	21011	391916	696341	675330	12829	55	587	108	376953	1461029	13579
413	2016-01-25 10:32:50	0	0	0	0	0	0	25.8	1.84	0.03	696350	0	21012	391916	696350	675338	12829	55	587	108	376953	1461032	13579
414	2016-01-25 10:42:49	0	0	0	0	0	0	25.8	1.84	0.03	696350	0	21012	391916	696350	675338	12829	55	587	108	376953	1461037	13579
415	2016-01-25 10:52:38	0	0	0	0	0	0	25.8	1.84	0.03	696351	0	21012	391916	696351	675339	12829	55	587	108	376953	1461038	13579
416	2016-01-25 11:02:41	0	0	0	0	0	0	25.8	1.84	0.03	696351	0	21012	391916	696351	675339	12829	55	587	108	376953	1461042	13579
417	2016-01-25 11:12:44	0	0	0	0	0	0	25.8	1.84	0.03	696351	0	21012	391916	696351	675339	12829	55	587	108	376953	1461049	13579
418	2016-01-25 11:22:48	0	0	0	0	0	0	25.8	1.84	0.03	696387	0	21015	391916	696387	675353	12829	55	587	108	376953	1461055	13579
419	2016-01-25 11:32:38	0	0	0	0	0	0	25.8	1.84	0.03	696387	0	21015	391916	696387	675353	12829	55	587	108	376953	1461062	13579
420	2016-01-25 11:42:48	0	0	0	0	0	0	25.8	1.84	0.03	696396	0	21019	391916	696396	675377	12829	55	587	108	376953	1461070	13579
421	2016-01-25 11:52:45	0	0	0	0	0	0	25.8	1.84	0.03	696402	0	21019	391916	696402	675383	12829	55	587	108	376953	1461072	13579
422	2016-01-25 12:02:43	0	0	0	0	0	0	25.8	1.84	0.03	696405	0	21019	391916	696405	675386	12829	55	587	108	376953	1461076	13579
423	2016-01-25 12:12:50	0	0	0	0	0	0	25.8	1.84	0.03	696411	0	21019	391916	696411	675392	12829	55	587	108	376953	1461081	13579
424	2016-01-25 12:22:58	0	0	0	0	0	0	25.8	1.84	0.03	696413	0	21019	391916	696413	675394	12829	55	587	108	376953	1461087	13579
425	2016-01-25 12:32:47	0	0	0	0	0	0	25.8	1.84	0.03	696415	0	21020	391916	696415	675395	12829	55	587	108	376953	1461094	13579
426	2016-01-25 12:42:48	0	0	0	0	0	0	25.8	1.84	0.03	696417	0	21020	391916	696417	675397	12829	55	587	108	376953	1461098	13579
427	2016-01-25 12:52:59	0	0	0	0	0	0	25.8	1.84	0.03	696422	0	21020	391916	696422	675402	12829	55	587	108	376953	1461103	13579
428	2016-01-25 13:03:36	0	0	0	0	0	0	25.8	1.84	0.03	696427	0	21020	391916	696427	675407	12829	55	587	108	376953	1461110	13579
429	2016-01-25 13:12:46	0	0	0	0	0	0	25.8	1.84	0.03	696427	0	21020	391916	696427	675407	12829	55	587	108	376953	1461114	13579
430	2016-01-25 13:23:01	0	0	0	0	0	0	25.8	1.84	0.03	696436	0	21021	391916	696436	675415	12829	55	587	108	376953	1461119	13579
