1	2018-04-07 12:00:40		0	0	0	0	0	0	0.06	0.62	0.01	2750	0	22	2175	2750	2750	17	19	34	2	2110	3665776	72
2	2018-04-07 12:11:10		0	0	0	0	0	0	0.12	0.73	0.02	6042	0	150	4523	6042	6042	44	38	76	7	4267	3665806	165
3	2018-04-07 12:21:46		0	0	0	0	0	0	0.17	0.72	0.04	8586	0	307	6564	8586	8586	62	56	103	9	6144	3665831	230
4	2018-04-07 12:32:13		0	0	0	0	0	0	0.21	0.65	0.04	10985	0	490	7545	10985	10985	71	82	132	11	7791	3665856	296
5	2018-04-07 12:42:50		0	0	0	0	0	0	0.26	0.64	0.05	13493	0	722	9259	13493	13493	87	105	160	12	9448	3665879	364
6	2018-04-07 12:53:12		0	0	0	0	0	0	0.29	0.6	0.06	15600	0	994	11579	15600	15600	94	125	177	12	10629	3665898	408
7	2018-04-07 13:03:42		0	0	0	0	0	0	0.32	0.64	0.08	17457	0	1323	12872	17457	17457	112	143	191	13	11731	3665916	459
8	2018-04-07 13:14:14		0	0	0	0	0	0	0.35	0.73	0.09	19077	0	1677	14162	19077	19077	139	165	206	16	12704	3665945	526
9	2018-04-07 13:24:43		0	0	0	0	0	0	0.37	0.79	0.1	20696	0	2077	15556	20696	20696	163	181	225	17	13698	3665987	586
10	2018-04-07 13:35:15		0	0	0	0	0	0	0.4	0.87	0.11	22331	0	2469	16604	22331	22331	194	187	243	18	14522	3666012	642
11	2018-04-07 13:45:45		0	0	0	0	0	0	0.43	0.83	0.12	24457	0	2974	17567	24457	24457	204	197	253	19	15906	3666035	673
12	2018-04-07 13:56:16		0	0	0	0	0	0	0.46	0.87	0.13	25931	0	3361	19221	25931	25931	225	215	263	19	16728	3666055	722
13	2018-04-07 14:06:46		0	0	0	0	0	0	0.47	0.88	0.14	27462	0	3761	20250	27462	27462	241	233	276	19	17309	3666090	769
14	2018-04-07 14:17:19		0	0	0	0	0	0	0.49	0.86	0.14	29117	0	4176	21253	29117	29117	249	245	283	19	18094	3666120	796
15	2018-04-07 14:27:56		0	0	0	0	0	0	0.52	0.86	0.15	30631	0	4567	22404	30631	30631	264	263	296	19	18990	3666150	842
16	2018-04-07 14:38:24		0	0	0	0	0	0	0.54	0.84	0.16	32229	0	4997	23516	32229	32229	271	283	313	19	19843	3666169	886
17	2018-04-07 14:48:48		0	0	0	0	0	0	0.57	0.82	0.16	33833	0	5453	24702	33833	33833	277	300	326	19	20906	3666183	922
18	2018-04-07 14:59:22		0	0	0	0	0	0	0.59	0.8	0.17	35329	0	5884	25520	35329	35329	282	307	334	19	21628	3666207	942
19	2018-04-07 15:09:50		0	0	0	0	0	0	0.61	0.78	0.17	36743	0	6299	26228	36743	36743	288	317	339	21	22207	3666224	965
20	2018-04-07 15:20:20		0	0	0	0	0	0	0.62	0.78	0.18	37989	0	6721	27038	37989	37989	295	325	344	24	22732	3666241	988
21	2018-04-07 15:30:53		0	0	0	0	0	0	0.64	0.76	0.18	39768	0	7238	28212	39768	39768	304	337	352	25	23618	3666260	1018
22	2018-04-07 15:41:21		0	0	0	0	0	0	0.66	0.76	0.19	41002	0	7612	29238	41002	41002	313	354	361	26	24312	3666289	1054
23	2018-04-07 15:51:50		0	0	0	0	0	0	0.68	0.76	0.19	42189	0	7978	30144	42189	42189	320	365	371	26	24992	3666316	1082
24	2018-04-07 16:02:25		0	0	0	0	0	0	0.7	0.75	0.19	43534	0	8399	31125	43534	43534	328	379	382	26	25658	3666335	1115
25	2018-04-07 16:12:54		0	0	0	0	0	0	0.71	0.75	0.2	44702	0	8784	31669	44702	44702	335	383	384	26	26121	3666348	1128
26	2018-04-07 16:23:25		0	0	0	0	0	0	0.73	0.75	0.2	45839	0	9178	32510	45839	45839	346	390	390	26	26796	3666366	1152
27	2018-04-07 16:33:57		0	0	0	0	0	0	0.74	0.75	0.2	46916	0	9571	33400	46916	46916	352	404	394	26	27290	3666386	1176
28	2018-04-07 16:44:23		0	0	0	0	0	0	0.76	0.75	0.21	48004	0	10004	34168	48004	48004	360	411	400	26	27889	3666399	1197
29	2018-04-07 16:54:54		0	0	0	0	0	0	0.78	0.75	0.21	49165	0	10415	34974	49165	49165	367	425	407	26	28582	3666412	1225
30	2018-04-07 17:05:25		0	0	0	0	0	0	0.8	0.74	0.22	50352	0	10836	35665	50352	50352	371	430	418	27	29182	3666427	1246
31	2018-04-07 17:15:54		0	0	0	0	0	0	0.82	0.74	0.22	52151	0	11515	36988	52151	52151	386	444	428	27	30062	3666438	1285
32	2018-04-07 17:26:25		0	0	0	0	0	0	0.84	0.74	0.22	53197	0	11900	37761	53197	53197	391	451	434	27	30641	3666458	1303
33	2018-04-07 17:36:55		0	0	0	0	0	0	0.85	0.73	0.23	54338	0	12308	38672	54338	54338	396	459	446	27	31211	3666471	1328
34	2018-04-07 17:47:27		0	0	0	0	0	0	0.86	0.73	0.23	55438	0	12763	39379	55438	55438	403	471	447	27	31651	3666494	1348
35	2018-04-07 17:57:55		0	0	0	0	0	0	0.88	0.72	0.23	56458	0	13133	40139	56458	56458	407	481	454	27	32288	3666512	1369
36	2018-04-07 18:08:27		0	0	0	0	0	0	0.89	0.72	0.24	57500	0	13550	40822	57500	57500	415	490	457	27	32643	3666533	1389
37	2018-04-07 18:18:57		0	0	0	0	0	0	0.9	0.72	0.24	58457	0	13927	41258	58457	58457	418	495	465	27	32978	3666543	1405
38	2018-04-07 18:29:28		0	0	0	0	0	0	0.91	0.71	0.24	59503	0	14319	41822	59503	59503	421	504	472	27	33418	3666564	1424
39	2018-04-07 18:39:58		0	0	0	0	0	0	0.92	0.72	0.24	60429	0	14679	42293	60429	60429	435	509	478	29	33651	3666578	1451
40	2018-04-07 18:50:29		0	0	0	0	0	0	0.93	0.72	0.25	61419	0	15077	42810	61419	61419	445	524	481	29	34002	3666597	1479
41	2018-04-07 19:01:07		0	0	0	0	0	0	0.94	0.72	0.25	62941	0	15706	44073	62941	62941	452	536	492	29	34641	3666611	1509
42	2018-04-07 19:11:34		0	0	0	0	0	0	0.96	0.71	0.25	63919	0	16137	44927	63919	63919	457	545	497	29	35262	3666632	1528
43	2018-04-07 19:22:05		0	0	0	0	0	0	0.98	0.71	0.25	64844	0	16489	46005	64844	64844	460	555	505	29	35821	3666656	1549
44	2018-04-07 19:32:34		0	0	0	0	0	0	0.99	0.7	0.26	65828	0	16914	46796	65828	65828	461	563	512	30	36399	3666676	1566
45	2018-04-07 19:43:05		0	0	0	0	0	0	1.01	0.7	0.26	66801	0	17281	47929	66801	66801	465	568	515	30	36948	3666691	1578
46	2018-04-07 19:53:40		0	0	0	0	0	0	1.02	0.69	0.26	67775	0	17649	48757	67775	67775	467	574	518	31	37318	3666701	1590
47	2018-04-07 20:04:07		0	0	0	0	0	0	1.03	0.69	0.26	68617	0	17991	49373	68617	68617	473	581	518	31	37669	3666711	1603
48	2018-04-07 20:14:37		0	0	0	0	0	0	1.05	0.69	0.26	69502	0	18373	50560	69502	69502	477	589	522	31	38489	3666732	1619
49	2018-04-07 20:25:08		0	0	0	0	0	0	1.06	0.68	0.27	70330	0	18682	50964	70330	70330	480	597	528	31	38880	3666745	1636
50	2018-04-07 20:35:38		0	0	0	0	0	0	1.07	0.69	0.27	71219	0	19055	51598	71219	71219	488	606	533	31	39262	3666760	1658
51	2018-04-07 20:46:09		0	0	0	0	0	0	1.1	0.68	0.27	72562	0	19605	52673	72562	72562	496	611	538	31	40244	3666774	1676
52	2018-04-07 20:56:41		0	0	0	0	0	0	1.11	0.69	0.27	73427	0	19965	53164	73427	73427	504	624	543	32	40593	3666787	1703
53	2018-04-07 21:07:10		0	0	0	0	0	0	1.12	0.69	0.27	74292	0	20350	53922	74292	74292	510	626	548	32	40977	3666797	1716
54	2018-04-07 21:17:41		0	0	0	0	0	0	1.12	0.68	0.28	75098	0	20712	54497	75098	75098	510	633	550	32	41200	3666804	1725
55	2018-04-07 21:28:11		0	0	0	0	0	0	1.13	0.68	0.28	75965	0	21097	55104	75965	75965	515	640	553	32	41412	3666826	1740
56	2018-04-07 21:38:41		0	0	0	0	0	0	1.14	0.68	0.28	76876	0	21472	55703	76876	76876	521	648	560	32	41781	3666841	1761
57	2018-04-07 21:49:13		0	0	0	0	0	0	1.16	0.67	0.28	77741	0	21858	56266	77741	77741	523	651	570	32	42365	3666854	1776
58	2018-04-07 21:59:43		0	0	0	0	0	0	1.16	0.67	0.28	78781	0	22338	56986	78781	78781	528	661	575	32	42652	3666870	1796
59	2018-04-07 22:10:17		0	0	0	0	0	0	1.18	0.67	0.29	79770	0	22768	57692	79770	79770	531	675	581	32	43093	3666883	1819
60	2018-04-07 22:20:45		0	0	0	0	0	0	1.18	0.66	0.29	80769	0	23229	58371	80769	80769	535	681	586	34	43427	3666897	1836
61	2018-04-07 22:31:16		0	0	0	0	0	0	1.21	0.66	0.29	82280	0	23961	59685	82280	82280	540	688	594	34	44325	3666912	1856
62	2018-04-07 22:41:44		0	0	0	0	0	0	1.22	0.65	0.29	83410	0	24516	60391	83410	83410	545	696	600	34	44780	3666932	1875
63	2018-04-07 22:52:17		0	0	0	0	0	0	1.23	0.65	0.3	84458	0	25039	61062	84458	84458	553	700	600	35	45224	3666951	1888
64	2018-04-07 23:02:46		0	0	0	0	0	0	1.24	0.65	0.3	85479	0	25535	61844	85479	85479	554	709	605	35	45509	3666963	1903
65	2018-04-07 23:13:18		0	0	0	0	0	0	1.25	0.65	0.3	86353	0	25925	62588	86353	86353	558	713	608	35	45803	3666972	1914
66	2018-04-07 23:23:47		0	0	0	0	0	0	1.26	0.64	0.3	87317	0	26341	63463	87317	87317	560	719	612	35	46376	3667000	1926
67	2018-04-07 23:34:12		0	0	0	0	0	0	1.28	0.64	0.3	88104	0	26709	64347	88104	88104	560	721	615	35	47051	3667011	1931
68	2018-04-07 23:44:44		0	0	0	0	0	0	1.29	0.63	0.3	88932	0	27073	64733	88932	88932	563	722	619	35	47415	3667031	1939
69	2018-04-07 23:55:14		0	0	0	0	0	0	1.3	0.63	0.31	89708	0	27415	65356	89708	89708	567	726	621	35	47721	3667049	1949
70	2018-04-08 00:22:44		0	0	0	0	0	0	1.32	0.63	0.31	91661	0	28305	66785	91661	91661	578	739	630	35	48509	3667093	1982
71	2018-04-08 01:27:45		0	0	0	0	0	0	1.37	0.63	0.31	94865	0	29792	68923	94865	94865	596	747	642	35	50157	3667166	2020
72	2018-04-08 02:32:46		0	0	0	0	0	0	1.39	0.63	0.32	96834	0	30705	70201	96834	96834	608	755	650	35	50977	3667225	2048
73	2018-04-08 03:37:47		0	0	0	0	0	0	1.4	0.63	0.32	98053	0	31216	70924	98053	98053	613	761	656	36	51249	3667314	2066
74	2018-04-08 04:42:47		0	0	0	0	0	0	1.41	0.62	0.32	98726	0	31472	71398	98726	98726	614	763	659	36	51567	3667336	2072
75	2018-04-08 05:47:49		0	0	0	0	0	0	1.41	0.62	0.32	99268	0	31718	71636	99268	99268	614	766	663	36	51854	3667351	2079
76	2018-04-08 06:52:46		0	0	0	0	0	0	1.42	0.62	0.32	99962	0	32048	71971	99962	99962	618	771	665	36	51961	3667371	2090
77	2018-04-08 07:15:49		0	0	0	0	0	0	1.42	0.62	0.32	100187	0	32148	72038	100187	100187	621	774	665	36	51996	3667380	2096
78	2018-04-08 07:26:19		0	0	0	0	0	0	1.42	0.62	0.32	100301	0	32210	72277	100301	100301	623	775	665	36	52023	3667382	2099
79	2018-04-08 07:36:49		0	0	0	0	0	0	1.42	0.62	0.32	100518	0	32331	72409	100518	100518	623	775	666	36	52037	3667384	2100
80	2018-04-08 07:47:20		0	0	0	0	0	0	1.42	0.62	0.32	100688	0	32422	72578	100688	100688	623	776	666	36	52051	3667388	2101
81	2018-04-08 07:57:50		0	0	0	0	0	0	1.42	0.62	0.32	100876	0	32528	72660	100876	100876	624	778	668	36	52093	3667394	2106
82	2018-04-08 08:08:34		0	0	0	0	0	0	1.43	0.62	0.32	101126	0	32657	73348	101126	101126	624	781	669	36	52552	3667397	2110
83	2018-04-08 08:19:03		0	0	0	0	0	0	1.43	0.62	0.32	101430	0	32807	73697	101430	101430	629	783	670	36	52624	3667406	2118
84	2018-04-08 08:29:34		0	0	0	0	0	0	1.44	0.62	0.32	101691	0	32931	73844	101691	101691	630	785	672	36	52635	3667413	2123
85	2018-04-08 08:40:04		0	0	0	0	0	0	1.44	0.62	0.32	101993	0	33066	74141	101993	101993	631	787	673	36	52713	3667438	2127
86	2018-04-08 08:50:34		0	0	0	0	0	0	1.44	0.62	0.32	102289	0	33210	74317	102289	102289	634	790	677	36	52896	3667443	2137
87	2018-04-08 09:01:06		0	0	0	0	0	0	1.44	0.62	0.33	102595	0	33363	74481	102595	102595	634	792	679	36	52965	3667455	2141
88	2018-04-08 09:11:34		0	0	0	0	0	0	1.44	0.62	0.33	102984	0	33544	74510	102984	102984	636	795	680	37	52972	3667467	2148
89	2018-04-08 09:22:04		0	0	0	0	0	0	1.45	0.62	0.33	103660	0	33857	74856	103660	103660	641	799	684	37	53271	3667479	2161
90	2018-04-08 09:32:37		0	0	0	0	0	0	1.46	0.62	0.33	104063	0	34037	75000	104063	104063	643	803	686	37	53388	3667495	2169
91	2018-04-08 09:43:06		0	0	0	0	0	0	1.46	0.62	0.33	104531	0	34256	75127	104531	104531	645	808	687	37	53632	3667513	2177
92	2018-04-08 09:53:37		0	0	0	0	0	0	1.47	0.62	0.33	104904	0	34427	75257	104904	104904	647	808	687	37	53817	3667528	2179
93	2018-04-08 10:04:07		0	0	0	0	0	0	1.47	0.62	0.33	105369	0	34653	75389	105369	105369	649	812	689	37	54088	3667547	2187
94	2018-04-08 10:14:37		0	0	0	0	0	0	1.48	0.62	0.33	105831	0	34867	75611	105831	105831	652	816	691	37	54264	3667572	2196
95	2018-04-08 10:25:08		0	0	0	0	0	0	1.49	0.61	0.33	106327	0	35092	76052	106327	106327	653	818	693	37	54478	3667595	2201
96	2018-04-08 10:35:40		0	0	0	0	0	0	1.49	0.61	0.33	106777	0	35304	76140	106777	106777	655	823	695	37	54565	3667609	2210
97	2018-04-08 10:46:10		0	0	0	0	0	0	1.49	0.61	0.33	107221	0	35501	76410	107221	107221	659	825	699	37	54604	3667625	2220
98	2018-04-08 10:56:40		0	0	0	0	0	0	1.49	0.62	0.33	107600	0	35680	76448	107600	107600	662	830	702	37	54654	3667639	2231
99	2018-04-08 11:07:10		0	0	0	0	0	0	1.5	0.61	0.33	108287	0	36008	76808	108287	108287	665	834	702	37	54869	3667656	2238
100	2018-04-08 11:17:41		0	0	0	0	0	0	1.51	0.61	0.33	108763	0	36215	77268	108763	108763	667	834	704	37	55219	3667665	2242
101	2018-04-08 11:28:09		0	0	0	0	0	0	1.51	0.61	0.33	109189	0	36428	77757	109189	109189	669	834	704	37	55478	3667682	2244
102	2018-04-08 11:38:42		0	0	0	0	0	0	1.52	0.61	0.33	109650	0	36632	78091	109650	109650	672	837	709	37	55744	3667693	2255
103	2018-04-08 11:49:13		0	0	0	0	0	0	1.52	0.61	0.34	110152	0	36902	78558	110152	110152	676	841	713	37	55829	3667701	2267
104	2018-04-08 11:59:41		0	0	0	0	0	0	1.53	0.62	0.34	110635	0	37147	78911	110635	110635	681	844	714	37	55966	3667721	2276
105	2018-04-08 12:10:12		0	0	0	0	0	0	1.54	0.62	0.34	111031	0	37340	79578	111031	111031	685	846	714	37	56334	3667739	2282
106	2018-04-08 12:20:43		0	0	0	0	0	0	1.54	0.61	0.34	111404	0	37544	79776	111404	111404	685	849	715	37	56334	3667755	2286
107	2018-04-08 12:31:17		0	0	0	0	0	0	1.54	0.61	0.34	111713	0	37738	79784	111713	111713	686	851	715	37	56334	3667776	2289
108	2018-04-08 12:41:46		0	0	0	0	0	0	1.54	0.61	0.34	112052	0	37944	79940	112052	112052	686	854	715	37	56560	3667791	2292
109	2018-04-08 12:52:17		0	0	0	0	0	0	1.54	0.61	0.34	112497	0	38223	80047	112497	112497	686	855	716	37	56610	3667809	2294
110	2018-04-08 13:02:47		0	0	0	0	0	0	1.55	0.61	0.34	112794	0	38413	80409	112794	112794	687	857	716	37	56674	3667821	2297
111	2018-04-08 13:13:15		0	0	0	0	0	0	1.55	0.61	0.34	113061	0	38599	80592	113061	113061	688	857	716	37	56752	3667831	2298
112	2018-04-08 13:23:47		0	0	0	0	0	0	1.55	0.61	0.34	113317	0	38761	80676	113317	113317	690	860	718	37	56752	3667854	2305
113	2018-04-08 13:34:16		0	0	0	0	0	0	1.56	0.61	0.34	113558	0	38916	81099	113558	113558	691	864	720	37	57059	3667868	2312
114	2018-04-08 13:44:48		0	0	0	0	0	0	1.56	0.61	0.34	113801	0	39079	81133	113801	113801	693	864	720	38	57194	3667880	2315
115	2018-04-08 13:55:19		0	0	0	0	0	0	1.56	0.61	0.34	114073	0	39260	81593	114073	114073	694	864	720	38	57355	3667888	2316
116	2018-04-08 14:05:49		0	0	0	0	0	0	1.57	0.61	0.34	114339	0	39420	81670	114339	114339	694	866	721	38	57406	3667904	2319
117	2018-04-08 14:16:21		0	0	0	0	0	0	1.57	0.61	0.35	114546	0	39544	81704	114546	114546	694	867	721	38	57414	3667921	2320
118	2018-04-08 14:26:52		0	0	0	0	0	0	1.57	0.61	0.35	114760	0	39683	81846	114760	114760	696	867	721	38	57504	3667941	2322
119	2018-04-08 14:37:23		0	0	0	0	0	0	1.57	0.61	0.35	115038	0	39861	82011	115038	115038	698	870	721	38	57564	3667960	2327
120	2018-04-08 14:47:53		0	0	0	0	0	0	1.57	0.61	0.35	115291	0	40025	82076	115291	115291	699	873	723	38	57759	3667979	2333
121	2018-04-08 14:58:22		0	0	0	0	0	0	1.58	0.61	0.35	115541	0	40183	82192	115541	115541	700	874	725	38	57883	3667993	2337
122	2018-04-08 15:08:53		0	0	0	0	0	0	1.58	0.61	0.35	115762	0	40334	82226	115762	115762	702	875	726	38	57883	3667999	2341
123	2018-04-08 15:19:24		0	0	0	0	0	0	1.58	0.61	0.35	115978	0	40480	82261	115978	115978	703	875	726	39	57918	3668013	2343
124	2018-04-08 15:29:54		0	0	0	0	0	0	1.58	0.61	0.35	116197	0	40613	82453	116197	116197	704	880	727	39	57952	3668023	2350
125	2018-04-08 15:40:24		0	0	0	0	0	0	1.58	0.6	0.35	116432	0	40742	82523	116432	116432	704	883	728	40	57998	3668037	2355
126	2018-04-08 15:50:55		0	0	0	0	0	0	1.58	0.61	0.35	116626	0	40858	82686	116626	116626	706	884	730	40	58087	3668049	2360
127	2018-04-08 16:01:25		0	0	0	0	0	0	1.59	0.6	0.35	116833	0	40999	83117	116833	116833	706	884	730	40	58277	3668064	2360
128	2018-04-08 16:11:57		0	0	0	0	0	0	1.59	0.6	0.35	117107	0	41170	83260	117107	117107	708	887	731	40	58277	3668083	2366
129	2018-04-08 16:22:30		0	0	0	0	0	0	1.59	0.6	0.35	117285	0	41285	83331	117285	117285	709	887	732	41	58277	3668099	2369
130	2018-04-08 16:32:58		0	0	0	0	0	0	1.59	0.6	0.35	117500	0	41411	83403	117500	117500	710	890	732	41	58281	3668114	2373
131	2018-04-08 16:43:29		0	0	0	0	0	0	1.59	0.6	0.35	117687	0	41523	83590	117687	117687	711	890	732	41	58347	3668128	2374
132	2018-04-08 16:53:57		0	0	0	0	0	0	1.59	0.6	0.35	117899	0	41682	83665	117899	117899	713	894	735	41	58369	3668148	2383
133	2018-04-08 17:04:29		0	0	0	0	0	0	1.59	0.6	0.35	118107	0	41822	83806	118107	118107	714	896	735	41	58455	3668161	2386
134	2018-04-08 17:14:59		0	0	0	0	0	0	1.59	0.6	0.35	118321	0	41958	83806	118321	118321	715	899	738	41	58455	3668178	2393
135	2018-04-08 17:25:29		0	0	0	0	0	0	1.6	0.6	0.36	118528	0	42084	84225	118528	118528	715	903	739	42	58605	3668186	2399
136	2018-04-08 17:36:00		0	0	0	0	0	0	1.6	0.6	0.36	118752	0	42225	84280	118752	118752	717	903	740	42	58667	3668199	2402
137	2018-04-08 17:46:30		0	0	0	0	0	0	1.6	0.6	0.36	118945	0	42362	84280	118945	118945	719	905	741	42	58667	3668224	2407
138	2018-04-08 17:57:02		0	0	0	0	0	0	1.6	0.61	0.36	119137	0	42491	84354	119137	119137	723	906	743	42	58774	3668234	2414
139	2018-04-08 18:07:34		0	0	0	0	0	0	1.6	0.61	0.36	119493	0	42715	84677	119493	119493	723	908	744	42	58810	3668249	2417
140	2018-04-08 18:18:02		0	0	0	0	0	0	1.61	0.6	0.36	119712	0	42868	84779	119712	119712	724	908	744	42	59021	3668267	2418
141	2018-04-08 18:28:33		0	0	0	0	0	0	1.61	0.6	0.36	119929	0	43019	84779	119929	119929	724	910	745	42	59021	3668283	2421
142	2018-04-08 18:39:03		0	0	0	0	0	0	1.61	0.6	0.36	120117	0	43132	84930	120117	120117	724	911	747	43	59101	3668302	2425
143	2018-04-08 18:49:39		0	0	0	0	0	0	1.62	0.6	0.36	120341	0	43287	85211	120341	120341	724	912	747	43	59255	3668326	2426
144	2018-04-08 19:00:07		0	0	0	0	0	0	1.62	0.6	0.36	120523	0	43401	85319	120523	120523	726	913	747	43	59264	3668337	2429
145	2018-04-08 19:10:38		0	0	0	0	0	0	1.62	0.6	0.36	120702	0	43518	85361	120702	120702	727	914	748	43	59298	3668349	2432
146	2018-04-08 19:21:09		0	0	0	0	0	0	1.62	0.6	0.36	120907	0	43642	85380	120907	120907	727	914	748	43	59298	3668362	2432
147	2018-04-08 19:31:40		0	0	0	0	0	0	1.62	0.6	0.36	121079	0	43754	85444	121079	121079	727	916	749	43	59325	3668382	2435
148	2018-04-08 19:42:10		0	0	0	0	0	0	1.62	0.6	0.36	121279	0	43903	85477	121279	121279	727	916	749	43	59407	3668400	2435
149	2018-04-08 19:52:40		0	0	0	0	0	0	1.62	0.6	0.36	121569	0	44096	85626	121569	121569	728	916	749	43	59462	3668414	2436
150	2018-04-08 20:03:11		0	0	0	0	0	0	1.62	0.6	0.36	121758	0	44217	85654	121758	121758	729	916	749	43	59462	3668426	2437
151	2018-04-08 20:13:42		0	0	0	0	0	0	1.62	0.6	0.36	121960	0	44364	85654	121960	121960	729	917	750	43	59462	3668435	2439
152	2018-04-08 20:24:11		0	0	0	0	0	0	1.62	0.6	0.36	122167	0	44501	85711	122167	122167	729	917	750	43	59462	3668456	2439
153	2018-04-08 20:34:42		0	0	0	0	0	0	1.62	0.6	0.36	122405	0	44650	86049	122405	122405	731	917	750	43	59531	3668471	2441
154	2018-04-08 20:45:15		0	0	0	0	0	0	1.62	0.6	0.37	122554	0	44752	86361	122554	122554	731	917	750	43	59531	3668482	2441
155	2018-04-08 20:55:44		0	0	0	0	0	0	1.63	0.6	0.37	122751	0	44881	86649	122751	122751	731	917	752	43	59630	3668491	2443
156	2018-04-08 21:06:15		0	0	0	0	0	0	1.63	0.59	0.37	122945	0	45017	86868	122945	122945	731	919	753	43	59685	3668515	2446
157	2018-04-08 21:16:44		0	0	0	0	0	0	1.63	0.59	0.37	123142	0	45132	86868	123142	123142	731	920	753	43	59685	3668527	2447
158	2018-04-08 21:27:15		0	0	0	0	0	0	1.63	0.59	0.37	123300	0	45286	87141	123300	123300	731	920	754	43	59727	3668544	2448
159	2018-04-08 21:37:47		0	0	0	0	0	0	1.63	0.59	0.37	123561	0	45399	87407	123561	123561	732	922	754	43	59926	3668566	2451
160	2018-04-08 21:48:15		0	0	0	0	0	0	1.64	0.59	0.37	123716	0	45498	87407	123716	123716	733	922	754	43	59999	3668586	2452
161	2018-04-08 21:58:51		0	0	0	0	0	0	1.64	0.59	0.37	123881	0	45600	87407	123881	123881	735	922	754	43	59999	3668604	2454
162	2018-04-08 22:09:20		0	0	0	0	0	0	1.64	0.59	0.37	124050	0	45711	87437	124050	124050	736	925	754	43	60013	3668622	2458
163	2018-04-08 22:19:51		0	0	0	0	0	0	1.64	0.59	0.37	124212	0	45816	87437	124212	124212	737	925	754	43	60069	3668637	2459
164	2018-04-08 22:30:21		0	0	0	0	0	0	1.64	0.59	0.37	124375	0	45922	87555	124375	124375	738	925	755	43	60125	3668654	2461
165	2018-04-08 22:40:51		0	0	0	0	0	0	1.64	0.59	0.37	124534	0	46034	87724	124534	124534	738	926	755	43	60195	3668671	2462
166	2018-04-08 22:51:21		0	0	0	0	0	0	1.64	0.59	0.37	124674	0	46121	87724	124674	124674	740	927	755	43	60270	3668691	2465
167	2018-04-08 23:01:52		0	0	0	0	0	0	1.64	0.59	0.37	124813	0	46211	87724	124813	124813	741	927	756	43	60270	3668715	2467
168	2018-04-08 23:12:22		0	0	0	0	0	0	1.64	0.6	0.37	124934	0	46293	87724	124934	124934	745	929	756	43	60270	3668733	2473
169	2018-04-08 23:22:47		0	0	0	0	0	0	1.64	0.6	0.37	125147	0	46434	87744	125147	125147	745	930	757	43	60270	3668746	2475
170	2018-04-08 23:33:18		0	0	0	0	0	0	1.65	0.6	0.37	125298	0	46533	87794	125298	125298	747	933	758	43	60359	3668772	2481
171	2018-04-08 23:34:32		0	0	0	0	0	0	1.65	0.6	0.37	125298	0	46533	87794	125298	125298	747	933	758	43	60359	3668777	2481
172	2018-04-08 23:45:03		0	0	0	0	0	0	1.65	0.6	0.37	125427	0	46623	87943	125427	125427	747	935	758	43	60600	3668804	2483
173	2018-04-08 23:55:37		0	0	0	0	0	0	1.65	0.6	0.37	125538	0	46699	88011	125538	125538	748	935	759	43	60600	3668828	2485
174	2018-04-09 00:35:34		0	0	0	0	0	0	1.65	0.59	0.37	125905	0	46906	88325	125905	125905	749	937	759	43	60684	3668876	2488
175	2018-04-09 01:40:34		0	0	0	0	0	0	1.66	0.59	0.37	126224	0	47120	88653	126224	126224	751	939	759	43	60725	3668920	2492
176	2018-04-09 02:45:33		0	0	0	0	0	0	1.66	0.59	0.37	126355	0	47202	88709	126355	126355	751	939	759	43	60742	3668940	2492
177	2018-04-09 03:50:35		0	0	0	0	0	0	1.66	0.59	0.37	126455	0	47261	88791	126455	126455	751	939	759	43	60742	3668939	2492
178	2018-04-09 04:55:36		0	0	0	0	0	0	1.66	0.59	0.37	126515	0	47295	88793	126515	126515	752	940	760	43	60742	3668943	2495
179	2018-04-09 06:00:38		0	0	0	0	0	0	1.66	0.59	0.37	126611	0	47364	88803	126611	126611	753	940	760	43	60746	3668942	2496
180	2018-04-09 07:05:38		0	0	0	0	0	0	1.66	0.6	0.37	126800	0	47483	88915	126800	126800	756	942	760	43	60780	3668963	2501
181	2018-04-09 07:16:07		0	0	0	0	0	0	1.66	0.6	0.37	126828	0	47502	89038	126828	126828	757	943	760	43	60780	3668964	2503
182	2018-04-09 07:26:44		0	0	0	0	0	0	1.66	0.6	0.37	126876	0	47536	89136	126876	126876	757	943	760	43	60780	3668966	2503
183	2018-04-09 07:37:09		0	0	0	0	0	0	1.66	0.6	0.37	126906	0	47561	89136	126906	126906	758	943	760	43	60780	3668972	2504
184	2018-04-09 07:47:40		0	0	0	0	0	0	1.66	0.6	0.37	126949	0	47591	89208	126949	126949	758	943	760	43	60780	3668980	2504
185	2018-04-09 07:58:09		0	0	0	0	0	0	1.66	0.6	0.38	127012	0	47635	89249	127012	127012	758	943	760	43	60818	3668983	2504
186	2018-04-09 08:08:41		0	0	0	0	0	0	1.66	0.6	0.38	127089	0	47672	89249	127089	127089	761	943	760	43	60818	3668995	2507
187	2018-04-09 08:19:09		0	0	0	0	0	0	1.66	0.6	0.38	127136	0	47697	89249	127136	127136	762	943	760	43	60818	3669015	2508
188	2018-04-09 08:29:41		0	0	0	0	0	0	1.66	0.6	0.38	127195	0	47737	89331	127195	127195	762	943	760	43	60818	3669023	2508
189	2018-04-09 08:40:11		0	0	0	0	0	0	1.66	0.6	0.38	127253	0	47778	89331	127253	127253	762	942	760	43	60818	3669035	2507
190	2018-04-09 08:50:43		0	0	0	0	0	0	1.66	0.6	0.38	127305	0	47811	89331	127305	127305	762	942	760	43	60818	3669044	2507
191	2018-04-09 09:01:13		0	0	0	0	0	0	1.66	0.6	0.38	127379	0	47867	89372	127379	127379	763	942	760	43	60837	3669054	2508
192	2018-04-09 09:11:45		0	0	0	0	0	0	1.66	0.6	0.38	127434	0	47895	89496	127434	127434	763	944	761	43	60894	3669062	2511
193	2018-04-09 09:22:16		0	0	0	0	0	0	1.66	0.6	0.38	127488	0	47921	89496	127488	127488	763	944	761	43	60894	3669077	2511
194	2018-04-09 09:32:46		0	0	0	0	0	0	1.66	0.6	0.38	127551	0	47960	89496	127551	127551	763	944	761	43	60894	3669087	2511
195	2018-04-09 10:45:03		0	0	0	0	0	0	1.66	0.6	0.38	127995	0	48268	89946	127995	127995	764	946	762	43	61048	3669167	2515
196	2018-04-09 10:55:33		0	0	0	0	0	0	1.66	0.6	0.38	128052	0	48308	89988	128052	128052	766	946	762	43	61067	3669181	2517
197	2018-04-09 11:06:10		0	0	0	0	0	0	1.66	0.6	0.38	128109	0	48347	90019	128109	128109	766	946	762	43	61082	3669199	2517
198	2018-04-09 11:42:42		0	0	0	0	0	0	1.66	0.6	0.38	128305	0	48474	90019	128305	128305	767	948	763	43	61082	3669252	2521
199	2018-04-09 11:53:13		0	0	0	0	0	0	1.67	0.6	0.38	128357	0	48506	90029	128357	128357	767	948	763	43	61154	3669270	2521
200	2018-04-09 12:03:44		0	0	0	0	0	0	1.67	0.6	0.38	128431	0	48548	90029	128431	128431	767	949	764	43	61154	3669282	2523
201	2018-04-09 12:36:50		0	0	0	0	0	0	1.67	0.6	0.38	128614	0	48669	90113	128614	128614	768	949	764	43	61154	3669305	2524
202	2018-04-09 12:47:20		0	0	0	0	0	0	1.67	0.6	0.38	128666	0	48697	90113	128666	128666	768	949	765	43	61154	3669323	2525
203	2018-04-09 12:57:51		0	0	0	0	0	0	1.67	0.6	0.38	128717	0	48727	90113	128717	128717	768	951	765	43	61154	3669336	2527
204	2018-04-09 13:05:09		0	0	0	0	0	0	1.67	0.6	0.38	128774	0	48771	90145	128774	128774	768	951	765	43	61154	3669339	2527
205	2018-04-09 13:15:51		0	0	0	0	0	0	1.67	0.6	0.38	128822	0	48803	90313	128822	128822	768	951	765	43	61232	3669356	2527
206	2018-04-09 13:26:10		0	0	0	0	0	0	1.67	0.6	0.38	128868	0	48836	90313	128868	128868	768	951	765	43	61232	3669368	2527
207	2018-04-09 13:36:42		0	0	0	0	0	0	1.67	0.6	0.38	128940	0	48879	90331	128940	128940	769	953	765	43	61232	3669387	2530
208	2018-04-09 13:47:13		0	0	0	0	0	0	1.67	0.6	0.38	129004	0	48920	90331	129004	129004	769	953	765	43	61232	3669397	2530
209	2018-04-09 13:57:41		0	0	0	0	0	0	1.67	0.6	0.38	129058	0	48954	90331	129058	129058	769	953	765	43	61232	3669414	2530
210	2018-04-09 14:08:14		0	0	0	0	0	0	1.67	0.6	0.38	129109	0	48989	90331	129109	129109	769	953	765	43	61232	3669417	2530
211	2018-04-09 14:18:42		0	0	0	0	0	0	1.67	0.6	0.38	129166	0	49026	90331	129166	129166	771	953	765	43	61232	3669432	2532
212	2018-04-09 14:29:14		0	0	0	0	0	0	1.67	0.6	0.38	129263	0	49082	90331	129263	129263	771	953	765	43	61232	3669441	2532
213	2018-04-09 14:39:45		0	0	0	0	0	0	1.67	0.6	0.38	129323	0	49121	90543	129323	129323	772	953	765	43	61232	3669452	2533
214	2018-04-09 14:50:15		0	0	0	0	0	0	1.67	0.6	0.38	129384	0	49161	90543	129384	129384	772	953	765	43	61232	3669466	2533
215	2018-04-09 15:00:47		0	0	0	0	0	0	1.67	0.6	0.38	129441	0	49194	90543	129441	129441	772	955	765	43	61232	3669491	2535
216	2018-04-09 15:11:18		0	0	0	0	0	0	1.67	0.6	0.38	129498	0	49219	90543	129498	129498	772	955	765	43	61232	3669508	2535
217	2018-04-09 15:21:48		0	0	0	0	0	0	1.67	0.6	0.38	129551	0	49252	90585	129551	129551	773	955	766	43	61290	3669518	2537
218	2018-04-09 15:32:22		0	0	0	0	0	0	1.67	0.6	0.38	129619	0	49298	90686	129619	129619	774	956	766	43	61309	3669523	2539
219	2018-04-09 15:42:49		0	0	0	0	0	0	1.67	0.6	0.38	129683	0	49333	90718	129683	129683	774	956	766	43	61348	3669536	2539
220	2018-04-09 15:53:20		0	0	0	0	0	0	1.67	0.6	0.38	129721	0	49358	90718	129721	129721	774	958	766	43	61348	3669548	2541
221	2018-04-09 16:03:52		0	0	0	0	0	0	1.67	0.6	0.38	129817	0	49423	90718	129817	129817	774	958	766	43	61348	3669557	2541
222	2018-04-09 16:11:50		0	0	0	0	0	0	1.67	0.6	0.38	129832	0	49430	90718	129832	129832	774	958	766	43	61348	3669562	2541
223	2018-04-09 16:22:22		0	0	0	0	0	0	1.67	0.6	0.38	129889	0	49473	90803	129889	129889	774	958	766	43	61348	3669569	2541
224	2018-04-09 16:32:52		0	0	0	0	0	0	1.67	0.6	0.38	129940	0	49509	91124	129940	129940	774	959	766	43	61348	3669582	2542
225	2018-04-09 16:43:23		0	0	0	0	0	0	1.67	0.6	0.38	130007	0	49552	91167	130007	130007	776	959	766	43	61368	3669586	2544
226	2018-04-09 16:53:54		0	0	0	0	0	0	1.67	0.6	0.38	130102	0	49606	91214	130102	130102	776	959	766	43	61387	3669592	2544
227	2018-04-09 17:04:25		0	0	0	0	0	0	1.67	0.6	0.38	130152	0	49636	91214	130152	130152	776	959	766	43	61387	3669603	2544
228	2018-04-09 17:14:55		0	0	0	0	0	0	1.67	0.6	0.38	130197	0	49665	91364	130197	130197	777	959	766	43	61387	3669611	2545
229	2018-04-09 17:25:25		0	0	0	0	0	0	1.67	0.6	0.38	130245	0	49691	91364	130245	130245	777	959	766	43	61387	3669620	2545
230	2018-04-09 17:36:05		0	0	0	0	0	0	1.67	0.6	0.38	130307	0	49725	91364	130307	130307	777	959	767	43	61387	3669633	2546
231	2018-04-09 17:46:28		0	0	0	0	0	0	1.67	0.6	0.38	130371	0	49756	91383	130371	130371	777	959	767	43	61396	3669641	2546
232	2018-04-09 17:56:58		0	0	0	0	0	0	1.68	0.6	0.38	130418	0	49781	91468	130418	130418	778	959	767	43	61512	3669652	2547
233	2018-04-09 18:07:29		0	0	0	0	0	0	1.68	0.6	0.38	130477	0	49810	91468	130477	130477	778	959	767	43	61512	3669662	2547
234	2018-04-09 18:17:59		0	0	0	0	0	0	1.68	0.6	0.38	130537	0	49848	91636	130537	130537	778	959	767	43	61588	3669675	2547
235	2018-04-09 18:28:34		0	0	0	0	0	0	1.68	0.6	0.38	130600	0	49885	91669	130600	130600	779	960	767	43	61588	3669685	2549
236	2018-04-09 18:39:03		0	0	0	0	0	0	1.68	0.6	0.38	130668	0	49929	91669	130668	130668	780	960	767	43	61588	3669695	2550
237	2018-04-09 18:49:33		0	0	0	0	0	0	1.68	0.6	0.38	130711	0	49956	91669	130711	130711	780	960	767	43	61588	3669702	2550
238	2018-04-09 19:00:05		0	0	0	0	0	0	1.68	0.6	0.38	130787	0	50003	91669	130787	130787	780	961	768	43	61588	3669709	2552
239	2018-04-09 19:10:35		0	0	0	0	0	0	1.68	0.6	0.38	130856	0	50040	91669	130856	130856	780	961	768	43	61588	3669725	2552
240	2018-04-09 19:21:07		0	0	0	0	0	0	1.68	0.6	0.38	130904	0	50071	91669	130904	130904	781	961	770	43	61588	3669736	2555
241	2018-04-09 19:31:37		0	0	0	0	0	0	1.68	0.6	0.38	130975	0	50115	91709	130975	130975	781	962	770	43	61617	3669751	2556
242	2018-04-09 19:42:07		0	0	0	0	0	0	1.68	0.6	0.38	131047	0	50165	91775	131047	131047	781	962	770	43	61686	3669756	2556
243	2018-04-09 19:52:37		0	0	0	0	0	0	1.68	0.6	0.38	131092	0	50188	92036	131092	131092	781	962	770	43	61686	3669763	2556
244	2018-04-09 20:03:11		0	0	0	0	0	0	1.68	0.6	0.38	131141	0	50220	92052	131141	131141	781	962	770	43	61688	3669778	2556
245	2018-04-09 20:13:38		0	0	0	0	0	0	1.68	0.6	0.38	131202	0	50260	92052	131202	131202	781	963	770	43	61688	3669797	2557
246	2018-04-09 20:24:11		0	0	0	0	0	0	1.68	0.59	0.38	131311	0	50347	92315	131311	131311	781	963	770	43	61806	3669803	2557
247	2018-04-09 20:34:43		0	0	0	0	0	0	1.68	0.59	0.38	131390	0	50386	92337	131390	131390	781	963	770	43	61806	3669813	2557
248	2018-04-09 20:45:11		0	0	0	0	0	0	1.68	0.59	0.38	131453	0	50426	92359	131453	131453	781	965	770	43	61816	3669827	2559
249	2018-04-09 20:55:41		0	0	0	0	0	0	1.68	0.59	0.38	131513	0	50463	92491	131513	131513	781	966	771	43	61816	3669833	2561
250	2018-04-09 21:06:14		0	0	0	0	0	0	1.68	0.59	0.38	131581	0	50510	92491	131581	131581	782	966	771	43	61816	3669840	2562
251	2018-04-09 21:16:43		0	0	0	0	0	0	1.68	0.59	0.38	131641	0	50548	92491	131641	131641	783	966	771	43	61816	3669849	2563
252	2018-04-09 21:27:14		0	0	0	0	0	0	1.68	0.59	0.38	131695	0	50584	92580	131695	131695	783	966	771	43	61836	3669857	2563
253	2018-04-09 21:37:45		0	0	0	0	0	0	1.69	0.6	0.38	131760	0	50624	92802	131760	131760	784	966	771	43	62014	3669873	2564
254	2018-04-09 21:48:14		0	0	0	0	0	0	1.69	0.6	0.38	131836	0	50674	93014	131836	131836	785	966	771	43	62109	3669883	2565
255	2018-04-09 21:58:46		0	0	0	0	0	0	1.69	0.6	0.38	131887	0	50706	93014	131887	131887	785	968	771	43	62124	3669892	2567
256	2018-04-09 22:09:17		0	0	0	0	0	0	1.69	0.59	0.38	131998	0	50777	93182	131998	131998	785	968	771	43	62143	3669897	2567
257	2018-04-09 22:19:49		0	0	0	0	0	0	1.69	0.59	0.38	132054	0	50814	93182	132054	132054	785	968	771	43	62143	3669905	2567
258	2018-04-09 22:30:18		0	0	0	0	0	0	1.69	0.59	0.38	132112	0	50859	93225	132112	132112	785	969	771	43	62163	3669919	2568
259	2018-04-09 22:40:48		0	0	0	0	0	0	1.69	0.59	0.39	132158	0	50893	93225	132158	132158	786	969	771	43	62163	3669937	2569
260	2018-04-09 22:51:18		0	0	0	0	0	0	1.69	0.59	0.39	132219	0	50935	93225	132219	132219	786	969	771	43	62163	3669952	2569
261	2018-04-09 23:01:50		0	0	0	0	0	0	1.69	0.59	0.39	132282	0	50969	93225	132282	132282	786	969	771	43	62163	3669958	2569
262	2018-04-09 23:12:17		0	0	0	0	0	0	1.69	0.59	0.39	132335	0	51002	93225	132335	132335	786	969	771	43	62163	3669973	2569
263	2018-04-09 23:22:47		0	0	0	0	0	0	1.69	0.59	0.39	132382	0	51031	93304	132382	132382	786	969	771	43	62163	3669991	2569
264	2018-04-09 23:33:18		0	0	0	0	0	0	1.69	0.59	0.39	132426	0	51054	93304	132426	132426	786	969	771	43	62163	3670007	2569
265	2018-04-09 23:43:47		0	0	0	0	0	0	1.69	0.59	0.39	132464	0	51079	93304	132464	132464	787	969	771	43	62163	3670011	2570
266	2018-04-09 23:54:17		0	0	0	0	0	0	1.69	0.59	0.39	132524	0	51123	93479	132524	132524	787	969	771	43	62203	3670022	2570
267	2018-04-10 00:21:51		0	0	0	0	0	0	1.7	0.59	0.39	132608	0	51174	93546	132608	132608	787	969	771	43	62283	3670037	2570
268	2018-04-10 10:54:54		0	0	0	0	0	0	1.71	0.59	0.39	133657	0	51819	94307	133657	133657	793	973	775	44	62590	3670175	2585
269	2018-04-10 11:05:23		0	0	0	0	0	0	1.71	0.59	0.39	133686	0	51839	94307	133686	133686	794	973	775	44	62590	3670184	2586
270	2018-04-10 11:15:52		0	0	0	0	0	0	1.71	0.59	0.39	133721	0	51861	94307	133721	133721	794	973	775	44	62590	3670194	2586
271	2018-04-10 11:26:24		0	0	0	0	0	0	1.71	0.59	0.39	133753	0	51885	94307	133753	133753	794	973	775	44	62590	3670200	2586
272	2018-04-10 11:36:56		0	0	0	0	0	0	1.71	0.59	0.39	133771	0	51896	94307	133771	133771	795	973	775	44	62590	3670204	2587
273	2018-04-10 11:47:25		0	0	0	0	0	0	1.71	0.59	0.39	133809	0	51926	94468	133809	133809	795	973	775	44	62590	3670212	2587
