1	2017-06-04 21:12:40	0	0	0	0	0	0	9.28	1.44	0.42	554903	0	164403	411434	554903	390500	7970	2796	2576	223	289193	3114793	13565
2	2017-06-04 21:21:56	0	0	0	0	0	0	9.77	1.43	0.44	591629	0	181487	437094	591629	410142	8461	2920	2670	231	304432	3114840	14282
3	2017-06-04 21:32:35	0	0	0	0	0	0	10.17	1.44	0.46	626202	0	198064	457511	626202	428138	9017	3062	2806	239	316644	3114899	15124
4	2017-06-04 21:42:47	0	0	0	0	0	0	10.48	1.44	0.48	660724	0	214653	475604	660724	446071	9530	3152	2915	254	326566	3114970	15851
5	2017-06-04 21:52:46	0	0	0	0	0	0	10.96	1.44	0.5	693692	0	230363	496749	693692	463329	9991	3242	3004	259	341276	3115026	16496
6	2017-06-04 22:22:54	0	0	0	0	0	0	11.85	1.43	0.54	785846	0	275331	561714	785846	510515	11255	3666	3296	273	369221	3115247	18490
7	2017-06-04 22:32:53	0	0	0	0	0	0	12.07	1.43	0.55	814871	0	290358	576729	814871	524513	11626	3818	3403	279	375905	3115314	19126
8	2017-06-04 22:42:55	0	0	0	0	0	0	12.42	1.42	0.57	843508	0	305217	597652	843508	538291	11987	3984	3510	282	386877	3115386	19763
9	2017-06-05 00:56:29	0	0	0	0	0	0	15.41	1.38	0.66	1106545	0	440604	782716	1106545	665941	15297	5356	4296	335	480089	3116233	25284
10	2017-06-05 02:01:01	0	0	0	0	0	0	16.07	1.37	0.67	1153642	0	462090	815595	1153642	691552	15862	5544	4454	350	500853	3116360	26210
11	2017-06-05 03:09:25	0	0	0	0	0	0	16.32	1.37	0.67	1175915	0	472202	823724	1175915	703713	16084	5620	4518	352	508461	3116407	26574
12	2017-06-05 06:03:32	0	0	0	0	0	0	16.63	1.36	0.68	1212808	0	492347	845371	1212808	720461	16464	5752	4610	358	518215	3116494	27184
13	2017-06-05 07:57:57	0	0	0	0	0	0	17.11	1.33	0.72	1288250	0	538131	887657	1288250	750119	17183	6098	4748	371	533317	3116711	28400
14	2017-06-05 08:14:01	0	0	0	0	0	0	17.17	1.33	0.72	1301347	0	546092	893855	1301347	755255	17304	6174	4795	374	535102	3116760	28647
15	2017-06-05 11:55:49	0	0	0	0	0	0	18.59	1.29	0.79	1469692	0	648863	980550	1469692	820829	18939	6966	5179	397	579570	3118152	31481
16	2017-06-05 12:05:51	0	0	0	0	0	0	18.62	1.29	0.79	1475380	0	652294	985348	1475380	823086	18989	6988	5191	397	580657	3118210	31565
17	2017-06-05 12:15:50	0	0	0	0	0	0	18.65	1.29	0.79	1480897	0	655654	988927	1480897	825243	19044	7020	5204	398	581693	3118269	31666
18	2017-06-05 12:25:52	0	0	0	0	0	0	18.66	1.28	0.8	1486457	0	659030	994656	1486457	827427	19087	7054	5217	398	581908	3118330	31756
19	2017-06-05 12:35:55	0	0	0	0	0	0	18.67	1.28	0.8	1491934	0	662289	996576	1491934	829645	19143	7082	5230	398	582236	3118394	31853
20	2017-06-05 12:45:57	0	0	0	0	0	0	18.76	1.28	0.8	1497343	0	665438	998827	1497343	831905	19183	7104	5242	400	584876	3118442	31929
21	2017-06-05 12:56:04	0	0	0	0	0	0	18.8	1.28	0.8	1502485	0	668504	1001735	1502485	833981	19247	7120	5250	402	586260	3118515	32019
22	2017-06-05 13:06:03	0	0	0	0	0	0	18.85	1.28	0.8	1507364	0	671427	1005272	1507364	835937	19285	7152	5268	403	587888	3118585	32108
23	2017-06-05 13:15:55	0	0	0	0	0	0	18.91	1.28	0.8	1512254	0	674351	1007029	1512254	837903	19335	7172	5280	403	589637	3118650	32190
24	2017-06-05 13:25:55	0	0	0	0	0	0	18.95	1.28	0.81	1517115	0	677304	1010954	1517115	839811	19372	7186	5286	403	590875	3118701	32247
25	2017-06-05 13:35:54	0	0	0	0	0	0	18.98	1.28	0.81	1521988	0	680206	1012607	1521988	841782	19413	7200	5296	404	591835	3118760	32313
26	2017-06-05 13:45:56	0	0	0	0	0	0	19.01	1.27	0.81	1526654	0	682969	1015180	1526654	843685	19457	7216	5309	404	592798	3118837	32386
27	2017-06-05 13:55:54	0	0	0	0	0	0	19.07	1.27	0.81	1531326	0	685869	1019190	1531326	845457	19496	7244	5312	405	594734	3118895	32457
28	2017-06-05 14:05:59	0	0	0	0	0	0	19.08	1.27	0.81	1535866	0	688685	1021207	1535866	847181	19542	7258	5328	405	595077	3118969	32533
29	2017-06-05 14:15:55	0	0	0	0	0	0	19.08	1.27	0.81	1540298	0	691423	1021713	1540298	848875	19591	7278	5339	405	595077	3119051	32613
30	2017-06-05 14:25:54	0	0	0	0	0	0	19.14	1.27	0.82	1544729	0	694222	1022303	1544729	850507	19629	7306	5346	406	597027	3119125	32687
31	2017-06-05 14:35:55	0	0	0	0	0	0	19.23	1.27	0.82	1549019	0	696859	1023993	1549019	852160	19669	7322	5353	406	599803	3119193	32750
32	2017-06-05 14:46:12	0	0	0	0	0	0	19.26	1.27	0.82	1553400	0	699557	1027988	1553400	853843	19713	7338	5360	408	600821	3119264	32819
33	2017-06-05 14:56:06	0	0	0	0	0	0	19.28	1.27	0.82	1557743	0	702276	1029869	1557743	855467	19756	7352	5366	408	601522	3119338	32882
34	2017-06-05 15:06:05	0	0	0	0	0	0	19.34	1.27	0.82	1562073	0	704911	1033823	1562073	857162	19791	7374	5382	409	603338	3119414	32956
35	2017-06-05 15:16:01	0	0	0	0	0	0	19.34	1.27	0.82	1566041	0	707340	1036635	1566041	858701	19823	7396	5391	411	603427	3119490	33021
36	2017-06-05 15:25:58	0	0	0	0	0	0	19.38	1.26	0.83	1570049	0	709761	1038411	1570049	860288	19857	7412	5401	412	604590	3119554	33082
37	2017-06-05 15:35:58	0	0	0	0	0	0	19.39	1.26	0.83	1573921	0	712218	1039981	1573921	861703	19889	7426	5412	412	604767	3119608	33139
38	2017-06-05 15:45:58	0	0	0	0	0	0	19.39	1.26	0.83	1577687	0	714616	1043486	1577687	863071	19927	7442	5418	413	605004	3119671	33200
39	2017-06-05 15:56:01	0	0	0	0	0	0	19.4	1.26	0.83	1581689	0	717115	1043838	1581689	864574	19956	7466	5423	413	605122	3119712	33258
40	2017-06-05 16:06:05	0	0	0	0	0	0	19.42	1.26	0.83	1585505	0	719536	1045071	1585505	865969	20002	7480	5431	414	605951	3119763	33327
41	2017-06-05 16:15:59	0	0	0	0	0	0	19.44	1.26	0.83	1589245	0	721857	1051166	1589245	867388	20043	7502	5448	414	606359	3119804	33407
42	2017-06-05 16:26:00	0	0	0	0	0	0	19.46	1.26	0.83	1592942	0	724174	1051880	1592942	868768	20075	7518	5455	415	607191	3119856	33463
43	2017-06-05 16:35:59	0	0	0	0	0	0	19.47	1.26	0.83	1596343	0	726358	1055106	1596343	869985	20093	7538	5458	418	607549	3119892	33507
44	2017-06-05 16:46:01	0	0	0	0	0	0	19.47	1.26	0.84	1599835	0	728520	1056186	1599835	871315	20122	7560	5464	418	607549	3119930	33564
45	2017-06-05 16:56:05	0	0	0	0	0	0	19.5	1.26	0.84	1603258	0	730623	1058691	1603258	872635	20160	7572	5471	418	608407	3119988	33621
46	2017-06-05 17:06:14	0	0	0	0	0	0	19.54	1.26	0.84	1606655	0	732671	1059416	1606655	873984	20194	7584	5475	419	609724	3120030	33672
47	2017-06-05 17:16:18	0	0	0	0	0	0	19.55	1.26	0.84	1610014	0	734676	1060686	1610014	875338	20228	7600	5482	419	610085	3120054	33729
48	2017-06-05 17:26:07	0	0	0	0	0	0	19.57	1.26	0.84	1613122	0	736586	1062135	1613122	876536	20265	7620	5489	419	610564	3120076	33793
49	2017-06-05 17:36:04	0	0	0	0	0	0	19.57	1.26	0.84	1616282	0	738494	1062497	1616282	877788	20287	7640	5493	420	610685	3120097	33840
50	2017-06-05 17:46:03	0	0	0	0	0	0	19.58	1.25	0.84	1619446	0	740411	1064689	1619446	879035	20319	7654	5498	422	611046	3120120	33893
51	2017-06-05 17:56:02	0	0	0	0	0	0	19.6	1.25	0.84	1622684	0	742357	1064872	1622684	880327	20348	7666	5501	422	611499	3120145	33937
52	2017-06-05 18:06:01	0	0	0	0	0	0	19.6	1.25	0.84	1626065	0	744397	1064964	1626065	881668	20380	7678	5509	422	611499	3120179	33989
53	2017-06-05 18:16:02	0	0	0	0	0	0	19.62	1.25	0.85	1629299	0	746290	1065697	1629299	883009	20401	7702	5520	423	612224	3120225	34046
54	2017-06-05 18:26:02	0	0	0	0	0	0	19.67	1.25	0.85	1632597	0	748254	1067350	1632597	884343	20443	7720	5525	423	613863	3120250	34111
55	2017-06-05 18:36:03	0	0	0	0	0	0	19.74	1.25	0.85	1635877	0	750195	1070799	1635877	885682	20462	7732	5528	423	615797	3120266	34145
56	2017-06-05 18:46:03	0	0	0	0	0	0	19.79	1.25	0.85	1639153	0	752137	1074002	1639153	887016	20496	7754	5540	423	617593	3120302	34213
57	2017-06-05 18:56:04	0	0	0	0	0	0	19.82	1.25	0.85	1642410	0	754032	1076804	1642410	888378	20517	7766	5546	423	618519	3120353	34252
58	2017-06-05 19:06:04	0	0	0	0	0	0	19.85	1.25	0.85	1645623	0	755944	1078867	1645623	889679	20531	7780	5552	424	619385	3120398	34287
59	2017-06-05 19:16:04	0	0	0	0	0	0	19.91	1.25	0.85	1648709	0	757826	1080703	1648709	890883	20553	7790	5556	425	621342	3120423	34324
60	2017-06-05 19:26:03	0	0	0	0	0	0	19.91	1.25	0.85	1651826	0	759710	1081458	1651826	892116	20572	7800	5559	426	621342	3120460	34357
61	2017-06-05 19:36:03	0	0	0	0	0	0	19.95	1.25	0.85	1654837	0	761480	1082196	1654837	893357	20605	7816	5567	426	622398	3120495	34414
62	2017-06-05 19:46:05	0	0	0	0	0	0	19.98	1.24	0.85	1657837	0	763273	1083424	1657837	894564	20634	7826	5573	427	623400	3120530	34460
63	2017-06-05 19:56:06	0	0	0	0	0	0	20.01	1.24	0.85	1660634	0	765067	1084135	1660634	895567	20660	7832	5576	428	624279	3120577	34496
64	2017-06-05 20:06:05	0	0	0	0	0	0	20.02	1.24	0.86	1663139	0	766819	1085465	1663139	896320	20679	7838	5579	428	624783	3120612	34524
65	2017-06-05 20:16:05	0	0	0	0	0	0	20.02	1.24	0.86	1665687	0	768599	1088040	1665687	897088	20693	7850	5585	429	624783	3120652	34557
66	2017-06-05 20:26:06	0	0	0	0	0	0	20.02	1.24	0.86	1668217	0	770362	1088757	1668217	897855	20706	7864	5591	430	624831	3120688	34591
67	2017-06-05 20:36:06	0	0	0	0	0	0	20.02	1.24	0.86	1670749	0	772154	1089428	1670749	898595	20721	7876	5593	430	624831	3120738	34620
68	2017-06-05 20:46:09	0	0	0	0	0	0	20.02	1.24	0.86	1673146	0	773891	1090963	1673146	899255	20741	7890	5596	431	624831	3120792	34658
69	2017-06-05 20:56:14	0	0	0	0	0	0	20.03	1.24	0.86	1675388	0	775628	1092684	1675388	899760	20757	7904	5602	431	624957	3120846	34694
70	2017-06-05 21:06:12	0	0	0	0	0	0	20.04	1.24	0.86	1677562	0	777389	1092684	1677562	900173	20764	7916	5603	431	625462	3120892	34714
71	2017-06-05 21:16:13	0	0	0	0	0	0	20.04	1.24	0.87	1679621	0	779070	1095777	1679621	900551	20772	7922	5606	431	625462	3120950	34731
72	2017-06-05 21:26:08	0	0	0	0	0	0	20.04	1.24	0.87	1681616	0	780631	1096505	1681616	900985	20785	7924	5609	431	625462	3121004	34749
73	2017-06-05 21:36:09	0	0	0	0	0	0	20.04	1.24	0.87	1683589	0	782155	1096505	1683589	901434	20802	7930	5612	431	625462	3121050	34775
74	2017-06-05 21:46:08	0	0	0	0	0	0	20.04	1.23	0.87	1685532	0	783705	1098060	1685532	901827	20814	7940	5615	431	625462	3121094	34800
75	2017-06-05 21:56:08	0	0	0	0	0	0	20.04	1.23	0.87	1687449	0	785244	1099620	1687449	902205	20822	7950	5615	432	625462	3121128	34819
76	2017-06-05 22:06:12	0	0	0	0	0	0	20.04	1.23	0.87	1689444	0	786871	1100790	1689444	902573	20832	7954	5615	432	625462	3121179	34833
77	2017-06-05 22:16:15	0	0	0	0	0	0	20.04	1.23	0.87	1691281	0	788343	1101573	1691281	902938	20846	7970	5616	432	625462	3121224	34864
78	2017-06-05 22:26:17	0	0	0	0	0	0	20.04	1.23	0.87	1693100	0	789851	1101965	1693100	903249	20859	7982	5618	432	625588	3121263	34891
79	2017-06-05 22:36:08	0	0	0	0	0	0	20.04	1.23	0.88	1694852	0	791317	1101965	1694852	903535	20870	7990	5619	432	625588	3121309	34911
80	2017-06-05 22:46:09	0	0	0	0	0	0	20.04	1.23	0.88	1696579	0	792712	1102995	1696579	903867	20883	8006	5621	432	625588	3121369	34942
81	2017-06-05 22:56:09	0	0	0	0	0	0	20.06	1.23	0.88	1698183	0	794024	1102995	1698183	904159	20892	8012	5621	432	626094	3121422	34957
82	2017-06-05 23:06:13	0	0	0	0	0	0	20.06	1.23	0.88	1699691	0	795269	1103094	1699691	904422	20902	8012	5621	432	626094	3121476	34967
83	2017-06-05 23:16:18	0	0	0	0	0	0	20.08	1.23	0.88	1701050	0	796359	1104175	1701050	904691	20916	8016	5621	432	626918	3121527	34985
84	2017-06-05 23:26:24	0	0	0	0	0	0	20.08	1.23	0.88	1702419	0	797455	1104175	1702419	904964	20924	8026	5622	433	626918	3121576	35005
85	2017-06-05 23:36:21	0	0	0	0	0	0	20.08	1.23	0.88	1703757	0	798514	1104175	1703757	905243	20938	8032	5624	433	626918	3121625	35027
86	2017-06-05 23:46:10	0	0	0	0	0	0	20.08	1.23	0.88	1704953	0	799470	1104175	1704953	905483	20942	8044	5624	433	626918	3121672	35043
87	2017-06-05 23:56:15	0	0	0	0	0	0	20.08	1.23	0.88	1706091	0	800385	1104348	1706091	905706	20952	8052	5624	433	626918	3121715	35061
88	2017-06-06 00:31:11	0	0	0	0	0	0	20.08	1.23	0.89	1709005	0	802714	1107359	1709005	906291	20970	8060	5625	433	626918	3121862	35088
89	2017-06-06 01:31:14	0	0	0	0	0	0	20.08	1.23	0.89	1711755	0	804808	1107384	1711755	906947	20996	8066	5628	433	626918	3121952	35123
90	2017-06-06 02:31:12	0	0	0	0	0	0	20.08	1.23	0.89	1713089	0	805796	1107384	1713089	907293	21006	8074	5631	433	626918	3122003	35144
91	2017-06-06 03:31:19	0	0	0	0	0	0	20.1	1.23	0.89	1713913	0	806415	1109163	1713913	907498	21010	8074	5631	433	627426	3122005	35148
92	2017-06-06 04:31:14	0	0	0	0	0	0	20.1	1.23	0.89	1714472	0	806828	1109163	1714472	907644	21011	8076	5632	433	627426	3122019	35152
93	2017-06-06 05:31:30	0	0	0	0	0	0	20.1	1.23	0.89	1715261	0	807445	1109163	1715261	907816	21013	8086	5633	433	627426	3122036	35165
94	2017-06-06 06:31:13	0	0	0	0	0	0	20.1	1.22	0.89	1716670	0	808478	1109163	1716670	908192	21018	8094	5634	433	627426	3122071	35179
95	2017-06-06 07:08:14	0	0	0	0	0	0	20.1	1.22	0.89	1717949	0	809417	1109758	1717949	908532	21024	8106	5637	433	627426	3122110	35200
96	2017-06-06 07:18:07	0	0	0	0	0	0	20.1	1.22	0.89	1718388	0	809720	1110355	1718388	908668	21024	8106	5637	433	627426	3122119	35200
97	2017-06-06 07:28:09	0	0	0	0	0	0	20.1	1.22	0.89	1718869	0	810080	1110355	1718869	908789	21026	8106	5638	433	627426	3122132	35203
98	2017-06-06 07:38:32	0	0	0	0	0	0	20.1	1.22	0.89	1719394	0	810476	1110355	1719394	908918	21031	8108	5638	433	627426	3122145	35210
99	2017-06-06 07:48:41	0	0	0	0	0	0	20.1	1.22	0.89	1719942	0	810873	1110754	1719942	909069	21034	8116	5639	433	627426	3122164	35222
100	2017-06-06 07:58:42	0	0	0	0	0	0	20.1	1.22	0.89	1720426	0	811245	1110754	1720426	909181	21036	8120	5642	433	627426	3122184	35231
101	2017-06-06 08:08:39	0	0	0	0	0	0	20.1	1.22	0.89	1720925	0	811636	1110754	1720925	909289	21036	8122	5642	433	627426	3122203	35233
102	2017-06-06 08:22:38	0	0	0	0	0	0	20.1	1.22	0.89	1721649	0	812213	1111352	1721649	909436	21042	8124	5642	433	627426	3122229	35241
103	2017-06-06 08:38:42	0	0	0	0	0	0	20.1	1.22	0.89	1722392	0	812799	1113700	1722392	909593	21046	8124	5642	433	627553	3122263	35245
104	2017-06-06 08:48:35	0	0	0	0	0	0	20.1	1.22	0.89	1722882	0	813184	1115908	1722882	909698	21047	8126	5643	433	627553	3122291	35249
105	2017-06-06 08:58:38	0	0	0	0	0	0	20.1	1.22	0.89	1723388	0	813571	1115908	1723388	909817	21050	8130	5643	433	627553	3122324	35256
106	2017-06-06 09:08:54	0	0	0	0	0	0	20.1	1.22	0.89	1723895	0	813967	1115908	1723895	909928	21054	8132	5643	433	627553	3122355	35262
107	2017-06-06 09:20:14	0	0	0	0	0	0	20.1	1.22	0.89	1724644	0	814507	1116260	1724644	910137	21057	8134	5643	433	627553	3122386	35267
108	2017-06-06 09:30:05	0	0	0	0	0	0	20.1	1.22	0.9	1725136	0	814863	1116260	1725136	910273	21060	8132	5643	433	627553	3122407	35268
109	2017-06-06 09:40:19	0	0	0	0	0	0	20.11	1.22	0.9	1725545	0	815173	1116260	1725545	910372	21062	8134	5643	433	627808	3122435	35272
110	2017-06-06 09:50:10	0	0	0	0	0	0	20.11	1.22	0.9	1726049	0	815552	1116260	1726049	910497	21065	8140	5643	433	627808	3122462	35281
111	2017-06-06 10:00:24	0	0	0	0	0	0	20.11	1.22	0.9	1726460	0	815860	1116260	1726460	910600	21068	8142	5643	433	627808	3122498	35286
112	2017-06-06 10:13:45	0	0	0	0	0	0	20.11	1.22	0.9	1726939	0	816234	1116260	1726939	910705	21069	8144	5643	433	627808	3122542	35289
113	2017-06-06 10:25:12	0	0	0	0	0	0	20.11	1.22	0.9	1727587	0	816751	1116260	1727587	910836	21071	8146	5643	433	627808	3122592	35293
114	2017-06-06 10:36:48	0	0	0	0	0	0	20.11	1.22	0.9	1727973	0	817066	1116260	1727973	910907	21074	8148	5644	433	627808	3122630	35299
115	2017-06-06 10:56:38	0	0	0	0	0	0	20.1	1.22	0.9	1728809	0	817694	1116260	1728809	911115	21076	8156	5645	433	627808	3122704	35310
116	2017-06-06 11:06:45	0	0	0	0	0	0	20.1	1.22	0.9	1729190	0	817999	1116662	1729190	911191	21078	8160	5645	433	627808	3122735	35316
117	2017-06-06 11:24:09	0	0	0	0	0	0	20.1	1.22	0.9	1729743	0	818432	1116662	1729743	911311	21083	8164	5645	433	627808	3122794	35325
118	2017-06-06 11:33:34	0	0	0	0	0	0	20.1	1.22	0.9	1730122	0	818719	1118579	1730122	911403	21086	8166	5645	433	627808	3122820	35330
119	2017-06-06 11:44:42	0	0	0	0	0	0	20.1	1.22	0.9	1730497	0	819012	1118579	1730497	911485	21088	8166	5646	433	627808	3122851	35333
120	2017-06-06 11:55:31	0	0	0	0	0	0	20.1	1.22	0.9	1731133	0	819486	1119995	1731133	911647	21092	8172	5646	433	627808	3122879	35343
121	2017-06-06 12:06:20	0	0	0	0	0	0	20.1	1.22	0.9	1731505	0	819767	1119995	1731505	911738	21092	8172	5647	433	627808	3122910	35344
122	2017-06-06 12:17:34	0	0	0	0	0	0	20.1	1.22	0.9	1731836	0	820027	1119995	1731836	911809	21093	8172	5647	433	627808	3122945	35345
123	2017-06-06 12:21:56	0	0	0	0	0	0	20.1	1.22	0.9	1731836	0	820027	1119995	1731836	911809	21093	8172	5647	433	627808	3122960	35345
124	2017-06-06 12:32:07	0	0	0	0	0	0	20.1	1.22	0.9	1732383	0	820465	1120197	1732383	911918	21096	8172	5648	433	627808	3122991	35349
125	2017-06-06 12:41:33	0	0	0	0	0	0	20.1	1.22	0.9	1732711	0	820709	1120197	1732711	912002	21100	8172	5648	433	627808	3123032	35353
126	2017-06-06 12:51:32	0	0	0	0	0	0	20.11	1.22	0.9	1733010	0	820937	1120907	1733010	912073	21100	8174	5648	433	628031	3123072	35355
127	2017-06-06 13:01:40	0	0	0	0	0	0	20.11	1.22	0.9	1733322	0	821160	1121516	1733322	912162	21107	8174	5648	433	628031	3123093	35362
128	2017-06-06 13:11:48	0	0	0	0	0	0	20.11	1.22	0.9	1733651	0	821425	1121516	1733651	912226	21111	8174	5648	434	628031	3123122	35367
129	2017-06-06 13:21:45	0	0	0	0	0	0	20.11	1.22	0.9	1733976	0	821668	1121516	1733976	912308	21113	8174	5648	434	628031	3123151	35369
130	2017-06-06 13:31:47	0	0	0	0	0	0	20.11	1.22	0.9	1734302	0	821914	1121516	1734302	912388	21115	8176	5648	434	628031	3123181	35373
131	2017-06-06 13:41:40	0	0	0	0	0	0	20.11	1.22	0.9	1734604	0	822123	1121516	1734604	912481	21119	8178	5648	434	628031	3123217	35379
132	2017-06-06 13:51:34	0	0	0	0	0	0	20.11	1.22	0.9	1734929	0	822366	1121516	1734929	912563	21120	8178	5648	434	628031	3123264	35380
133	2017-06-06 14:02:24	0	0	0	0	0	0	20.11	1.22	0.9	1735280	0	822611	1121516	1735280	912669	21121	8178	5648	434	628031	3123324	35381
134	2017-06-06 14:11:34	0	0	0	0	0	0	20.11	1.22	0.9	1735609	0	822859	1121516	1735609	912750	21122	8178	5648	434	628031	3123370	35382
135	2017-06-06 14:21:35	0	0	0	0	0	0	20.11	1.22	0.9	1735927	0	823103	1121516	1735927	912824	21126	8182	5649	434	628031	3123408	35391
136	2017-06-06 14:31:31	0	0	0	0	0	0	20.11	1.22	0.9	1736263	0	823360	1121516	1736263	912903	21127	8182	5649	434	628031	3123450	35392
137	2017-06-06 14:41:32	0	0	0	0	0	0	20.11	1.22	0.9	1736656	0	823655	1123959	1736656	913001	21129	8192	5651	434	628031	3123489	35406
138	2017-06-06 14:51:34	0	0	0	0	0	0	20.11	1.22	0.9	1737020	0	823926	1123959	1737020	913094	21130	8192	5651	434	628031	3123517	35407
139	2017-06-06 15:01:34	0	0	0	0	0	0	20.11	1.22	0.9	1737398	0	824215	1123959	1737398	913183	21131	8192	5651	434	628031	3123551	35408
140	2017-06-06 15:11:35	0	0	0	0	0	0	20.11	1.22	0.9	1737761	0	824484	1123959	1737761	913277	21134	8192	5651	434	628031	3123585	35411
141	2017-06-06 15:21:35	0	0	0	0	0	0	20.11	1.22	0.9	1738118	0	824759	1124163	1738118	913359	21134	8194	5652	434	628031	3123613	35414
142	2017-06-06 15:31:34	0	0	0	0	0	0	20.11	1.22	0.9	1738459	0	825015	1124163	1738459	913444	21138	8192	5652	434	628031	3123642	35416
143	2017-06-06 15:41:34	0	0	0	0	0	0	20.11	1.22	0.9	1738787	0	825251	1124163	1738787	913536	21139	8192	5652	434	628031	3123673	35417
144	2017-06-06 15:51:35	0	0	0	0	0	0	20.11	1.22	0.9	1739093	0	825496	1124163	1739093	913597	21141	8192	5652	434	628031	3123704	35419
145	2017-06-06 16:01:38	0	0	0	0	0	0	20.11	1.22	0.9	1739386	0	825716	1124163	1739386	913670	21142	8192	5653	434	628031	3123734	35421
146	2017-06-06 16:11:35	0	0	0	0	0	0	20.1	1.22	0.9	1739686	0	825931	1124163	1739686	913755	21144	8192	5653	434	628031	3123757	35423
147	2017-06-06 16:21:35	0	0	0	0	0	0	20.1	1.22	0.9	1739946	0	826116	1124163	1739946	913830	21146	8194	5653	434	628031	3123789	35427
148	2017-06-06 16:31:34	0	0	0	0	0	0	20.11	1.22	0.9	1740249	0	826338	1125184	1740249	913911	21149	8196	5653	434	628158	3123815	35432
149	2017-06-06 16:41:35	0	0	0	0	0	0	20.11	1.22	0.9	1740557	0	826557	1125184	1740557	914000	21154	8196	5653	434	628158	3123855	35437
150	2017-06-06 16:51:49	0	0	0	0	0	0	20.11	1.22	0.9	1740887	0	826790	1125184	1740887	914097	21158	8198	5653	434	628158	3123883	35443
151	2017-06-06 17:01:49	0	0	0	0	0	0	20.11	1.22	0.9	1741225	0	827037	1125184	1741225	914188	21160	8198	5653	434	628158	3123903	35445
152	2017-06-06 17:11:53	0	0	0	0	0	0	20.11	1.22	0.9	1741552	0	827272	1125184	1741552	914280	21161	8198	5654	434	628158	3123927	35447
153	2017-06-06 17:21:47	0	0	0	0	0	0	20.11	1.21	0.9	1741879	0	827502	1125184	1741879	914377	21162	8198	5654	434	628158	3123957	35448
154	2017-06-06 17:31:37	0	0	0	0	0	0	20.11	1.21	0.91	1742286	0	827742	1125184	1742286	914544	21162	8198	5654	434	628158	3123986	35448
155	2017-06-06 17:41:36	0	0	0	0	0	0	20.11	1.21	0.91	1742655	0	827955	1125388	1742655	914700	21162	8198	5654	434	628158	3124027	35448
156	2017-06-06 17:51:38	0	0	0	0	0	0	20.11	1.21	0.91	1743085	0	828184	1125388	1743085	914901	21167	8202	5654	434	628158	3124067	35457
157	2017-06-06 18:01:37	0	0	0	0	0	0	20.11	1.21	0.91	1743443	0	828372	1125785	1743443	915071	21169	8206	5654	434	628158	3124090	35463
158	2017-06-06 18:11:37	0	0	0	0	0	0	20.11	1.21	0.91	1743870	0	828603	1125785	1743870	915267	21170	8206	5654	434	628158	3124129	35464
159	2017-06-06 18:21:37	0	0	0	0	0	0	20.11	1.21	0.91	1744265	0	828821	1125785	1744265	915444	21173	8206	5654	434	628158	3124164	35467
160	2017-06-06 18:31:38	0	0	0	0	0	0	20.11	1.21	0.91	1744645	0	829026	1125785	1744645	915619	21173	8206	5655	434	628158	3124205	35468
161	2017-06-06 18:41:40	0	0	0	0	0	0	20.11	1.21	0.91	1745028	0	829232	1126194	1745028	915796	21173	8206	5656	434	628158	3124234	35469
162	2017-06-06 18:51:40	0	0	0	0	0	0	20.11	1.21	0.91	1745407	0	829439	1126194	1745407	915968	21176	8206	5656	434	628158	3124270	35472
163	2017-06-06 19:01:50	0	0	0	0	0	0	20.11	1.21	0.91	1745783	0	829636	1126194	1745783	916147	21177	8208	5657	434	628158	3124299	35476
164	2017-06-06 19:11:40	0	0	0	0	0	0	20.11	1.21	0.91	1746114	0	829825	1126194	1746114	916289	21178	8210	5657	434	628158	3124326	35479
165	2017-06-06 19:21:39	0	0	0	0	0	0	20.11	1.21	0.91	1746447	0	830026	1126194	1746447	916421	21178	8210	5657	435	628158	3124362	35480
166	2017-06-06 19:31:40	0	0	0	0	0	0	20.1	1.21	0.91	1746809	0	830248	1126194	1746809	916561	21178	8212	5658	435	628158	3124393	35483
167	2017-06-06 19:41:39	0	0	0	0	0	0	20.1	1.21	0.91	1747175	0	830437	1126194	1747175	916738	21182	8216	5659	435	628158	3124429	35492
168	2017-06-06 19:51:43	0	0	0	0	0	0	20.1	1.21	0.91	1747552	0	830646	1126194	1747552	916906	21182	8216	5659	435	628158	3124472	35492
169	2017-06-06 20:01:40	0	0	0	0	0	0	20.1	1.21	0.91	1747903	0	830840	1126194	1747903	917063	21182	8216	5659	435	628158	3124514	35492
170	2017-06-06 20:11:42	0	0	0	0	0	0	20.1	1.21	0.91	1748269	0	831051	1126194	1748269	917218	21183	8216	5659	435	628158	3124559	35493
171	2017-06-06 20:21:41	0	0	0	0	0	0	20.1	1.21	0.91	1748608	0	831234	1128657	1748608	917374	21183	8216	5659	435	628158	3124598	35493
172	2017-06-06 20:31:39	0	0	0	0	0	0	20.1	1.21	0.91	1748960	0	831416	1128657	1748960	917544	21187	8218	5659	435	628158	3124636	35499
173	2017-06-06 20:41:41	0	0	0	0	0	0	20.1	1.21	0.91	1749339	0	831615	1130705	1749339	917724	21188	8218	5659	436	628158	3124679	35501
174	2017-06-06 20:51:41	0	0	0	0	0	0	20.1	1.21	0.91	1749684	0	831792	1130705	1749684	917892	21192	8218	5660	436	628158	3124718	35506
175	2017-06-06 21:01:45	0	0	0	0	0	0	20.1	1.21	0.91	1750037	0	831971	1130705	1750037	918066	21195	8218	5660	436	628158	3124762	35509
176	2017-06-06 21:11:42	0	0	0	0	0	0	20.1	1.21	0.91	1750361	0	832143	1130705	1750361	918218	21196	8218	5660	436	628158	3124805	35510
177	2017-06-06 21:21:41	0	0	0	0	0	0	20.1	1.21	0.91	1750715	0	832326	1130705	1750715	918389	21198	8218	5660	436	628158	3124840	35512
178	2017-06-06 21:31:44	0	0	0	0	0	0	20.1	1.21	0.91	1751071	0	832493	1130705	1751071	918578	21198	8218	5660	436	628158	3124885	35512
179	2017-06-06 21:41:43	0	0	0	0	0	0	20.1	1.21	0.91	1751427	0	832674	1130705	1751427	918753	21200	8218	5660	436	628158	3124914	35514
180	2017-06-06 21:51:43	0	0	0	0	0	0	20.1	1.21	0.91	1751765	0	832851	1131118	1751765	918914	21200	8218	5660	436	628158	3124950	35514
181	2017-06-06 22:01:44	0	0	0	0	0	0	20.1	1.21	0.91	1752110	0	833020	1131118	1752110	919090	21200	8218	5660	436	628158	3124998	35514
182	2017-06-06 22:11:46	0	0	0	0	0	0	20.1	1.21	0.91	1752279	0	833107	1131118	1752279	919172	21201	8218	5660	436	628158	3125042	35515
183	2017-06-06 22:21:44	0	0	0	0	0	0	20.1	1.21	0.91	1752757	0	833366	1132566	1752757	919391	21201	8218	5660	436	628158	3125090	35515
184	2017-06-06 22:31:43	0	0	0	0	0	0	20.1	1.21	0.91	1753054	0	833531	1133811	1753054	919523	21205	8216	5660	436	628158	3125125	35517
185	2017-06-06 22:41:42	0	0	0	0	0	0	20.1	1.21	0.91	1753310	0	833664	1133811	1753310	919646	21207	8218	5661	436	628158	3125156	35522
186	2017-06-06 22:52:25	0	0	0	0	0	0	20.1	1.21	0.91	1753589	0	833803	1133811	1753589	919786	21208	8220	5661	436	628158	3125200	35525
187	2017-06-06 23:02:27	0	0	0	0	0	0	20.1	1.21	0.91	1753900	0	833968	1134641	1753900	919932	21210	8220	5661	436	628158	3125233	35527
188	2017-06-06 23:12:49	0	0	0	0	0	0	20.1	1.21	0.91	1754208	0	834142	1134641	1754208	920066	21212	8222	5663	436	628158	3125296	35533
189	2017-06-06 23:22:40	0	0	0	0	0	0	20.1	1.21	0.91	1754518	0	834311	1134641	1754518	920207	21215	8222	5663	436	628158	3125338	35536
190	2017-06-06 23:32:43	0	0	0	0	0	0	20.1	1.21	0.91	1754812	0	834441	1134745	1754812	920371	21215	8222	5663	436	628158	3125381	35536
191	2017-06-06 23:42:34	0	0	0	0	0	0	20.1	1.21	0.91	1755131	0	834608	1135578	1755131	920523	21217	8222	5663	436	628158	3125418	35538
192	2017-06-06 23:52:28	0	0	0	0	0	0	20.1	1.21	0.91	1755370	0	834722	1135578	1755370	920648	21217	8226	5663	436	628158	3125456	35542
193	2017-06-07 00:02:24	0	0	0	0	0	0	20.1	1.21	0.91	1755595	0	834838	1135578	1755595	920757	21217	8224	5663	436	628158	3125489	35540
194	2017-06-07 01:02:28	0	0	0	0	0	0	20.1	1.21	0.91	1756422	0	835244	1135578	1756422	921178	21219	8228	5663	436	628158	3125613	35546
195	2017-06-07 02:02:34	0	0	0	0	0	0	20.1	1.21	0.91	1756801	0	835438	1135578	1756801	921363	21221	8228	5663	437	628158	3125675	35549
196	2017-06-07 03:02:30	0	0	0	0	0	0	20.1	1.21	0.91	1756978	0	835546	1136359	1756978	921432	21222	8230	5663	437	628158	3125700	35552
197	2017-06-07 04:02:29	0	0	0	0	0	0	20.1	1.21	0.91	1757127	0	835634	1136359	1757127	921493	21222	8230	5663	437	628158	3125713	35552
198	2017-06-07 05:02:29	0	0	0	0	0	0	20.1	1.21	0.91	1757249	0	835683	1136359	1757249	921566	21222	8232	5663	437	628158	3125729	35554
199	2017-06-07 06:02:28	0	0	0	0	0	0	20.1	1.21	0.91	1757482	0	835757	1136359	1757482	921725	21223	8232	5663	437	628158	3125749	35555
200	2017-06-07 07:02:46	0	0	0	0	0	0	20.1	1.21	0.91	1758048	0	835937	1136776	1758048	922111	21225	8232	5664	437	628158	3125818	35558
201	2017-06-07 07:12:33	0	0	0	0	0	0	20.1	1.21	0.91	1758166	0	835970	1136776	1758166	922196	21226	8230	5664	437	628158	3125846	35557
202	2017-06-07 07:22:32	0	0	0	0	0	0	20.1	1.21	0.91	1758301	0	836014	1136776	1758301	922287	21227	8230	5664	437	628158	3125864	35558
203	2017-06-07 07:35:29	0	0	0	0	0	0	20.1	1.21	0.91	1758429	0	836054	1136776	1758429	922375	21227	8230	5664	437	628158	3125876	35558
204	2017-06-07 07:59:37	0	0	0	0	0	0	20.1	1.21	0.91	1758767	0	836156	1136776	1758767	922611	21228	8230	5664	437	628158	3125928	35559
205	2017-06-07 08:09:54	0	0	0	0	0	0	20.09	1.21	0.91	1758919	0	836213	1136776	1758919	922706	21228	8230	5664	437	628158	3125955	35559
206	2017-06-07 08:22:26	0	0	0	0	0	0	20.09	1.21	0.91	1759130	0	836289	1136776	1759130	922841	21229	8230	5664	437	628158	3125984	35560
207	2017-06-07 08:32:25	0	0	0	0	0	0	20.09	1.21	0.91	1759281	0	836351	1136776	1759281	922930	21229	8232	5664	437	628158	3126010	35562
208	2017-06-07 08:42:48	0	0	0	0	0	0	20.09	1.21	0.91	1759401	0	836404	1136776	1759401	922997	21230	8234	5664	437	628158	3126038	35565
209	2017-06-07 08:57:48	0	0	0	0	0	0	20.09	1.21	0.91	1759637	0	836470	1136776	1759637	923167	21232	8236	5664	437	628158	3126086	35569
210	2017-06-07 09:07:22	0	0	0	0	0	0	20.09	1.21	0.91	1759793	0	836546	1136776	1759793	923247	21232	8238	5664	437	628158	3126109	35571
211	2017-06-07 09:17:12	0	0	0	0	0	0	20.09	1.21	0.91	1759962	0	836613	1136776	1759962	923349	21232	8238	5664	437	628158	3126132	35571
212	2017-06-07 09:27:39	0	0	0	0	0	0	20.09	1.21	0.91	1760136	0	836681	1136776	1760136	923455	21232	8238	5664	437	628158	3126163	35571
213	2017-06-07 09:42:03	0	0	0	0	0	0	20.09	1.21	0.91	1760410	0	836791	1136776	1760410	923619	21232	8238	5664	437	628158	3126192	35571
214	2017-06-07 09:59:37	0	0	0	0	0	0	20.09	1.21	0.91	1760661	0	836893	1136776	1760661	923768	21232	8238	5664	437	628158	3126237	35571
215	2017-06-07 10:11:47	0	0	0	0	0	0	20.09	1.21	0.91	1760892	0	836992	1136776	1760892	923900	21233	8238	5664	437	628158	3126271	35572
216	2017-06-07 10:21:41	0	0	0	0	0	0	20.09	1.21	0.91	1761048	0	837053	1136776	1761048	923995	21233	8238	5664	437	628158	3126296	35572
217	2017-06-07 10:33:31	0	0	0	0	0	0	20.09	1.21	0.91	1761153	0	837096	1136776	1761153	924057	21234	8238	5665	437	628158	3126333	35574
218	2017-06-07 10:50:46	0	0	0	0	0	0	20.09	1.21	0.91	1761376	0	837182	1136776	1761376	924194	21234	8238	5665	437	628158	3126382	35574
219	2017-06-07 11:00:19	0	0	0	0	0	0	20.09	1.21	0.91	1761534	0	837242	1136776	1761534	924292	21234	8240	5665	437	628158	3126409	35576
220	2017-06-07 11:28:54	0	0	0	0	0	0	20.09	1.21	0.91	1761976	0	837395	1137194	1761976	924581	21235	8244	5665	437	628158	3126501	35581
221	2017-06-07 11:38:18	0	0	0	0	0	0	20.09	1.21	0.91	1762102	0	837443	1137194	1762102	924659	21235	8244	5665	437	628158	3126523	35581
222	2017-06-07 11:48:05	0	0	0	0	0	0	20.09	1.2	0.91	1762245	0	837498	1137194	1762245	924747	21235	8242	5666	437	628158	3126551	35580
223	2017-06-07 12:01:33	0	0	0	0	0	0	20.09	1.2	0.91	1762475	0	837574	1137194	1762475	924901	21236	8242	5666	437	628158	3126590	35581
224	2017-06-07 12:17:56	0	0	0	0	0	0	20.09	1.2	0.91	1762704	0	837647	1138030	1762704	925057	21237	8242	5666	437	628158	3126640	35582
225	2017-06-07 12:27:30	0	0	0	0	0	0	20.09	1.2	0.91	1762830	0	837700	1138030	1762830	925130	21237	8242	5666	437	628158	3126667	35582
226	2017-06-07 12:43:39	0	0	0	0	0	0	20.09	1.2	0.91	1763075	0	837791	1138030	1763075	925284	21237	8244	5666	437	628158	3126720	35584
227	2017-06-07 12:57:35	0	0	0	0	0	0	20.09	1.2	0.91	1763341	0	837860	1138030	1763341	925481	21238	8244	5666	437	628158	3126760	35585
228	2017-06-07 13:14:35	0	0	0	0	0	0	20.09	1.2	0.91	1763631	0	837953	1138030	1763631	925678	21238	8244	5666	437	628158	3126808	35585
229	2017-06-07 13:24:35	0	0	0	0	0	0	20.09	1.2	0.91	1763792	0	838009	1138030	1763792	925783	21239	8244	5666	437	628158	3126836	35586
230	2017-06-07 13:34:32	0	0	0	0	0	0	20.09	1.2	0.91	1763926	0	838056	1138030	1763926	925870	21239	8244	5666	437	628158	3126875	35586
231	2017-06-07 13:55:19	0	0	0	0	0	0	20.09	1.2	0.91	1764179	0	838143	1138030	1764179	926036	21240	8244	5666	437	628158	3126932	35587
232	2017-06-07 14:06:18	0	0	0	0	0	0	20.09	1.2	0.91	1764327	0	838195	1138030	1764327	926132	21242	8244	5666	437	628158	3126960	35589
233	2017-06-07 14:15:22	0	0	0	0	0	0	20.09	1.2	0.91	1764453	0	838237	1138239	1764453	926216	21243	8244	5666	437	628158	3126994	35590
234	2017-06-07 14:55:01	0	0	0	0	0	0	20.09	1.2	0.9	1764983	0	838450	1140328	1764983	926533	21247	8246	5666	437	628158	3127108	35596
235	2017-06-07 15:04:39	0	0	0	0	0	0	20.09	1.2	0.9	1765106	0	838504	1140328	1765106	926602	21248	8246	5666	437	628158	3127130	35597
236	2017-06-07 15:16:29	0	0	0	0	0	0	20.09	1.2	0.9	1765205	0	838547	1140328	1765205	926658	21248	8246	5667	437	628158	3127167	35598
237	2017-06-07 15:27:17	0	0	0	0	0	0	20.09	1.2	0.9	1765410	0	838626	1140328	1765410	926784	21248	8246	5667	437	628158	3127197	35598
238	2017-06-07 15:39:24	0	0	0	0	0	0	20.09	1.2	0.9	1765518	0	838667	1140328	1765518	926851	21248	8246	5667	437	628158	3127240	35598
239	2017-06-07 16:13:24	0	0	0	0	0	0	20.09	1.2	0.9	1765959	0	838838	1140328	1765959	927121	21249	8250	5667	437	628158	3127350	35603
240	2017-06-07 16:22:48	0	0	0	0	0	0	20.09	1.2	0.9	1766090	0	838883	1140328	1766090	927207	21249	8250	5667	437	628158	3127388	35603
241	2017-06-07 16:37:31	0	0	0	0	0	0	20.09	1.2	0.9	1766326	0	838970	1140906	1766326	927356	21249	8250	5667	437	628158	3127435	35603
242	2017-06-07 16:47:42	0	0	0	0	0	0	20.09	1.2	0.9	1766444	0	839018	1140906	1766444	927426	21249	8252	5667	437	628158	3127468	35605
243	2017-06-07 17:24:30	0	0	0	0	0	0	20.08	1.2	0.9	1767123	0	839237	1141327	1767123	927886	21252	8256	5667	437	628158	3127577	35612
244	2017-06-07 17:41:34	0	0	0	0	0	0	20.08	1.2	0.9	1767458	0	839314	1141327	1767458	928144	21252	8258	5667	437	628158	3127625	35614
245	2017-06-07 17:56:26	0	0	0	0	0	0	20.08	1.2	0.9	1767760	0	839389	1141327	1767760	928371	21255	8260	5668	437	628158	3127662	35620
246	2017-06-07 18:06:57	0	0	0	0	0	0	20.08	1.2	0.9	1768060	0	839468	1141327	1768060	928592	21256	8262	5668	437	628158	3127698	35623
247	2017-06-07 18:23:40	0	0	0	0	0	0	20.08	1.2	0.9	1768326	0	839546	1141327	1768326	928780	21256	8262	5668	437	628158	3127744	35623
248	2017-06-07 18:34:26	0	0	0	0	0	0	20.08	1.2	0.9	1768532	0	839584	1141327	1768532	928948	21256	8264	5668	437	628158	3127768	35625
249	2017-06-07 18:45:55	0	0	0	0	0	0	20.08	1.2	0.9	1768719	0	839649	1141327	1768719	929070	21258	8264	5668	437	628158	3127807	35627
250	2017-06-07 19:23:35	0	0	0	0	0	0	20.08	1.2	0.9	1769347	0	839889	1141327	1769347	929458	21261	8264	5669	437	628158	3127886	35631
251	2017-06-07 19:33:36	0	0	0	0	0	0	20.08	1.2	0.9	1769504	0	839936	1141327	1769504	929568	21261	8264	5669	437	628158	3127899	35631
252	2017-06-07 19:43:38	0	0	0	0	0	0	20.08	1.2	0.9	1769657	0	839982	1141327	1769657	929675	21261	8264	5669	437	628158	3127917	35631
