1	2016-01-10 20:01:52	0	0	0	0	0	0	0	0	0	0	0	0	0	0	0	0	0	0	0	0	1422667	0
2	2016-01-10 20:11:58	0	0	0	0	0	0	1.19	1.2	0	20652	0	36	17025	20652	20616	247	0	26	14	16947	1422721	0
3	2016-01-10 20:21:52	0	0	0	0	0	0	2.1	0.68	0	36526	0	138	30142	36526	36388	247	2	47	18	29898	1422801	314
4	2016-01-10 20:31:53	0	0	0	0	0	0	3.82	1.65	0.01	70393	0	599	55053	70393	69794	1164	6	96	26	54376	1422871	1292
5	2016-01-10 20:41:57	0	0	0	0	0	0	4.29	1.7	0.01	78326	0	777	61810	78326	77549	1332	7	104	28	61006	1422926	1471
6	2016-01-10 20:51:53	0	0	0	0	0	0	5.01	1.75	0.01	93405	0	1195	72831	93405	92210	1632	8	117	29	71352	1422993	1786
7	2016-01-10 21:01:53	0	0	0	0	0	0	5.69	1.65	0.01	107215	0	1568	82470	107215	105647	1766	9	127	29	81001	1423073	1931
8	2016-01-10 21:11:53	0	0	0	0	0	0	5.69	1.83	0.01	107215	0	1568	82470	107215	105647	1962	9	127	29	81001	1423148	2127
9	2016-01-10 21:21:53	0	0	0	0	0	0	6.36	1.77	0.02	122580	0	2014	92124	122580	120566	2169	10	142	29	90564	1423224	2350
10	2016-01-10 21:31:53	0	0	0	0	0	0	6.36	1.77	0.02	122580	0	2014	96932	122580	120566	2169	10	149	29	90564	1423301	2357
11	2016-01-10 21:41:53	0	0	0	0	0	0	7.03	1.78	0.02	138091	0	2495	102188	138091	135596	2452	11	155	29	100120	1423366	2647
12	2016-01-10 21:51:53	0	0	0	0	0	0	7.22	1.78	0.02	141379	0	2622	104764	141379	138757	2513	14	161	29	102796	1423440	2717
13	2016-01-10 22:01:54	0	0	0	0	0	0	7.58	1.78	0.02	148760	0	2923	109888	148760	145837	2651	18	170	30	107902	1423503	2869
14	2016-01-10 22:11:53	0	0	0	0	0	0	7.58	1.78	0.02	148760	0	2923	109888	148760	145837	2651	18	170	30	107902	1423560	2869
15	2016-01-10 22:21:53	0	0	0	0	0	0	7.98	1.78	0.02	157875	0	3321	115727	157875	154554	2803	21	185	33	113610	1423638	3042
16	2016-01-10 22:31:53	0	0	0	0	0	0	8.23	1.77	0.02	163329	0	3627	119835	163329	159702	2895	22	193	34	117219	1423706	3144
17	2016-01-10 22:41:58	0	0	0	0	0	0	8.38	1.77	0.02	168227	0	3907	122072	168227	164320	2971	22	204	37	119322	1423771	3234
18	2016-01-10 22:51:53	0	0	0	0	0	0	8.38	1.77	0.02	168227	0	3907	122072	168227	164320	2971	22	204	37	119322	1423834	3234
19	2016-01-10 23:01:59	0	0	0	0	0	0	8.79	1.76	0.02	175616	0	4276	128042	175616	171340	3094	22	212	40	125201	1423892	3368
20	2016-01-10 23:11:58	0	0	0	0	0	0	8.79	1.76	0.02	175616	0	4276	128042	175616	171340	3094	22	212	40	125201	1423961	3368
21	2016-01-10 23:21:57	0	0	0	0	0	0	8.94	1.77	0.03	180376	0	4499	130723	180376	175877	3190	22	214	40	127301	1424028	3466
22	2016-01-10 23:31:59	0	0	0	0	0	0	9.18	1.77	0.03	187394	0	4835	134286	187394	182559	3325	22	228	43	130672	1424089	3618
23	2016-01-10 23:42:02	0	0	0	0	0	0	9.34	1.78	0.03	191417	0	5014	136563	191417	186403	3406	22	231	44	133056	1424156	3703
24	2016-01-10 23:51:53	0	0	0	0	0	0	9.34	1.78	0.03	191417	0	5014	136563	191417	186403	3406	22	231	44	133056	1424223	3703
25	2016-01-11 00:01:54	0	0	0	0	0	0	9.66	1.78	0.03	197884	0	5321	138823	197884	192563	3526	22	233	45	137527	1424283	3826
26	2016-01-11 00:11:58	0	0	0	0	0	0	9.71	1.78	0.03	199786	0	5417	142107	199786	194369	3556	22	242	48	138254	1424339	3868
27	2016-01-11 00:21:54	0	0	0	0	0	0	9.96	1.78	0.03	203464	0	5624	145977	203464	197840	3630	22	250	48	141800	1424388	3950
28	2016-01-11 00:31:54	0	0	0	0	0	0	9.95	1.78	0.03	203464	0	5624	145977	203464	197840	3630	22	250	48	141800	1424452	3950
29	2016-01-11 00:41:59	0	0	0	0	0	0	10.36	1.79	0.03	208581	0	5879	152303	208581	202702	3727	22	254	48	147634	1424504	4051
30	2016-01-11 00:51:53	0	0	0	0	0	0	10.63	1.78	0.03	211697	0	6018	156800	211697	205679	3774	22	257	48	151410	1424559	4101
31	2016-01-11 01:01:53	0	0	0	0	0	0	10.8	1.77	0.03	214488	0	6135	157569	214488	208353	3803	22	257	48	153833	1424605	4130
32	2016-01-11 01:11:53	0	0	0	0	0	0	10.8	1.76	0.03	215833	0	6135	160441	215833	209648	3803	23	263	48	153833	1424672	4137
33	2016-01-11 01:21:53	0	0	0	0	0	0	10.98	1.77	0.03	218635	0	6300	162033	218635	212335	3870	23	269	48	156460	1424761	4210
34	2016-01-11 01:31:54	0	0	0	0	0	0	11.04	1.77	0.03	220950	0	6388	162838	220950	214562	3911	23	270	48	157274	1424822	4252
35	2016-01-11 01:41:53	0	0	0	0	0	0	11.1	1.77	0.03	222164	0	6435	163613	222164	215729	3943	23	273	49	158223	1424872	4288
36	2016-01-11 01:51:54	0	0	0	0	0	0	11.18	1.77	0.03	223922	0	6489	164814	223922	217433	3968	23	277	49	159289	1424900	4317
37	2016-01-11 02:01:53	0	0	0	0	0	0	11.18	1.77	0.03	223922	0	6489	164814	223922	217433	3968	23	277	49	159289	1424936	4317
38	2016-01-11 02:11:54	0	0	0	0	0	0	11.33	1.78	0.03	227221	0	6627	167362	227221	220594	4038	25	287	49	161499	1424967	4399
39	2016-01-11 02:21:54	0	0	0	0	0	0	11.37	1.78	0.03	227949	0	6664	167943	227949	221285	4055	25	288	49	162040	1424997	4417
40	2016-01-11 02:31:53	0	0	0	0	0	0	11.43	1.77	0.03	229408	0	6733	168629	229408	222675	4055	25	290	49	162815	1425025	4419
41	2016-01-11 02:41:53	0	0	0	0	0	0	11.43	1.78	0.03	229408	0	6733	168629	229408	222675	4089	25	290	49	162815	1425054	4453
42	2016-01-11 02:51:54	0	0	0	0	0	0	11.45	1.78	0.03	231163	0	6799	168982	231163	224364	4116	26	292	49	163144	1425081	4483
43	2016-01-11 03:01:54	0	0	0	0	0	0	11.48	1.78	0.03	231163	0	6799	168982	231163	224364	4116	26	292	49	163144	1421197	4483
44	2016-01-11 03:11:54	0	0	0	0	0	0	11.53	1.78	0.03	232059	0	6824	169777	232059	225235	4134	26	294	49	163893	1421217	4503
45	2016-01-11 03:21:54	0	0	0	0	0	0	11.58	1.78	0.03	233106	0	6862	170412	233106	226244	4160	26	296	49	164582	1421241	4531
46	2016-01-11 03:31:53	0	0	0	0	0	0	11.61	1.79	0.03	233954	0	6881	170788	233954	227073	4189	26	296	50	165003	1421254	4561
47	2016-01-11 03:41:54	0	0	0	0	0	0	11.66	1.79	0.03	234622	0	6896	171488	234622	227726	4200	26	299	50	165727	1421257	4575
48	2016-01-11 03:51:54	0	0	0	0	0	0	11.68	1.79	0.03	235278	0	6916	171812	235278	228362	4216	26	301	50	166029	1421268	4593
49	2016-01-11 04:01:54	0	0	0	0	0	0	11.71	1.79	0.03	235641	0	6927	172263	235641	228714	4224	26	301	50	166451	1421274	4601
50	2016-01-11 04:11:54	0	0	0	0	0	0	11.76	1.79	0.03	236123	0	6946	172966	236123	229177	4235	26	302	50	167106	1421289	4613
51	2016-01-11 04:21:53	0	0	0	0	0	0	11.76	1.79	0.03	236123	0	6946	172966	236123	229177	4235	26	302	50	167106	1421297	4613
52	2016-01-11 04:31:54	0	0	0	0	0	0	11.8	1.79	0.03	236745	0	6958	173582	236745	229573	4249	26	302	50	167681	1421306	4627
53	2016-01-11 04:41:54	0	0	0	0	0	0	11.8	1.79	0.03	237094	0	6978	173767	237094	230116	4252	26	304	50	167717	1421310	4632
54	2016-01-11 04:51:54	0	0	0	0	0	0	11.81	1.79	0.03	237480	0	6990	173942	237480	230490	4262	26	306	50	167881	1421317	4644
55	2016-01-11 05:01:54	0	0	0	0	0	0	11.81	1.8	0.03	237830	0	7004	173942	237830	230826	4276	26	308	50	167881	1421323	4660
56	2016-01-11 05:11:54	0	0	0	0	0	0	11.84	1.8	0.03	237976	0	7006	174403	237976	230970	4281	26	308	50	168310	1421328	4665
57	2016-01-11 05:21:54	0	0	0	0	0	0	11.85	1.8	0.03	238306	0	7018	174717	238306	231288	4292	26	310	50	168382	1421333	4678
58	2016-01-11 05:31:53	0	0	0	0	0	0	11.85	1.8	0.03	238306	0	7018	174717	238306	231288	4292	26	310	50	168382	1421337	4678
59	2016-01-11 05:41:53	0	0	0	0	0	0	11.92	1.81	0.03	238812	0	7036	175725	238812	231776	4315	26	310	50	169458	1421343	4701
60	2016-01-11 05:51:54	0	0	0	0	0	0	11.94	1.81	0.03	238943	0	7041	176045	238943	231902	4316	26	310	50	169755	1421349	4702
61	2016-01-11 06:01:54	0	0	0	0	0	0	11.98	1.81	0.03	239354	0	7053	176567	239354	232301	4326	26	310	50	170241	1421358	4712
62	2016-01-11 06:11:53	0	0	0	0	0	0	11.98	1.81	0.03	239511	0	7061	176648	239511	232450	4329	26	310	50	170316	1421364	4715
63	2016-01-11 06:21:54	0	0	0	0	0	0	11.98	1.81	0.03	239694	0	7067	176648	239694	232627	4333	26	310	50	170316	1421365	4719
64	2016-01-11 06:31:54	0	0	0	0	0	0	11.98	1.81	0.03	240211	0	7096	176648	240211	233115	4340	26	310	50	170316	1421371	4726
65	2016-01-11 06:41:54	0	0	0	0	0	0	11.98	1.81	0.03	240377	0	7103	176648	240377	233274	4343	26	310	50	170316	1421384	4729
66	2016-01-11 06:51:54	0	0	0	0	0	0	11.99	1.81	0.03	240755	0	7129	176829	240755	233626	4347	26	310	50	170484	1421389	4733
67	2016-01-11 07:01:55	0	0	0	0	0	0	12.01	1.81	0.03	241131	0	7149	177087	241131	233982	4355	26	311	50	170724	1421392	4742
68	2016-01-11 07:11:53	0	0	0	0	0	0	12.04	1.81	0.03	241131	0	7149	177087	241131	233982	4355	26	311	50	171101	1421402	4742
69	2016-01-11 07:21:54	0	0	0	0	0	0	12.05	1.81	0.03	241577	0	7196	177717	241577	234619	4369	26	311	50	171234	1421416	4756
70	2016-01-11 07:31:53	0	0	0	0	0	0	12.07	1.81	0.03	242328	0	7221	178124	242328	235107	4381	26	313	52	171554	1421427	4772
71	2016-01-11 07:41:54	0	0	0	0	0	0	12.08	1.81	0.03	242866	0	7262	178391	242866	235604	4398	26	313	52	171763	1421438	4789
72	2016-01-11 07:51:53	0	0	0	0	0	0	12.12	1.81	0.03	243375	0	7299	178958	243375	236076	4406	26	314	52	172289	1421458	4798
73	2016-01-11 08:01:53	0	0	0	0	0	0	12.15	1.81	0.03	243375	0	7314	178958	243375	236076	4413	26	314	52	172731	1421473	4805
74	2016-01-11 08:11:53	0	0	0	0	0	0	12.15	1.81	0.03	243959	0	7329	179831	243959	236630	4413	26	315	52	172731	1421483	4806
75	2016-01-11 08:21:53	0	0	0	0	0	0	12.23	1.81	0.03	244995	0	7407	180491	244995	237588	4440	26	317	53	173827	1421507	4836
76	2016-01-11 08:31:54	0	0	0	0	0	0	12.23	1.81	0.03	245336	0	7429	180554	245336	237907	4446	26	318	53	173827	1421528	4843
77	2016-01-11 08:41:57	0	0	0	0	0	0	12.25	1.81	0.03	246131	0	7472	181880	246131	238659	4460	26	319	53	174120	1421552	4858
78	2016-01-11 08:51:54	0	0	0	0	0	0	12.36	1.81	0.03	247086	0	7541	182453	247086	239545	4460	26	320	53	175766	1421584	4859
79	2016-01-11 09:01:53	0	0	0	0	0	0	12.44	1.81	0.03	248002	0	7581	183570	248002	240421	4489	26	323	53	176807	1421601	4891
80	2016-01-11 09:11:53	0	0	0	0	0	0	12.44	1.82	0.03	248529	0	7606	183657	248529	240923	4519	27	325	53	176888	1421622	4924
81	2016-01-11 09:21:53	0	0	0	0	0	0	12.46	1.82	0.03	249013	0	7637	183963	249013	241376	4525	27	326	53	177171	1421651	4931
82	2016-01-11 09:31:53	0	0	0	0	0	0	12.47	1.82	0.03	250509	0	7730	184533	250509	242779	4568	28	328	53	177273	1421679	4977
83	2016-01-11 09:41:54	0	0	0	0	0	0	12.47	1.82	0.03	250509	0	7730	184841	250509	242779	4568	28	328	53	177273	1421704	4977
84	2016-01-11 09:51:55	0	0	0	0	0	0	12.52	1.82	0.03	252186	0	7822	185295	252186	243846	4589	28	329	53	177945	1421738	4999
85	2016-01-11 10:01:53	0	0	0	0	0	0	12.55	1.82	0.03	253432	0	7897	185684	253432	245535	4608	28	329	53	178427	1421775	5018
86	2016-01-11 10:11:54	0	0	0	0	0	0	12.55	1.82	0.03	254013	0	7927	185817	254013	246086	4631	28	331	53	178427	1421818	5043
87	2016-01-11 10:21:53	0	0	0	0	0	0	12.61	1.83	0.03	254013	0	7927	185817	254013	246086	4651	28	331	53	179305	1421862	5063
88	2016-01-11 10:31:54	0	0	0	0	0	0	12.62	1.82	0.03	255846	0	8033	186902	255846	247813	4664	29	331	53	179471	1421904	5077
89	2016-01-11 10:41:54	0	0	0	0	0	0	12.65	1.82	0.03	257189	0	8118	186902	257189	249071	4685	29	331	53	179915	1421948	5098
90	2016-01-11 10:51:54	0	0	0	0	0	0	12.72	1.82	0.03	258391	0	8188	188661	258391	250203	4704	29	334	53	180881	1421991	5120
91	2016-01-11 11:01:54	0	0	0	0	0	0	12.8	1.82	0.03	259523	0	8269	189840	259523	251254	4730	30	335	53	181964	1422028	5148
92	2016-01-11 11:11:55	0	0	0	0	0	0	12.8	1.82	0.03	260075	0	8304	189991	260075	251771	4738	30	335	53	182060	1422070	5156
93	2016-01-11 11:21:56	0	0	0	0	0	0	12.85	1.82	0.03	261357	0	8380	190967	261357	252977	4768	30	338	53	182697	1422110	5189
94	2016-01-11 11:31:54	0	0	0	0	0	0	12.85	1.82	0.03	261357	0	8380	190967	261357	252977	4768	30	338	53	182697	1422149	5189
95	2016-01-11 11:41:55	0	0	0	0	0	0	12.92	1.82	0.03	263271	0	8484	191958	263271	254787	4793	30	339	53	183735	1422198	5215
96	2016-01-11 11:51:56	0	0	0	0	0	0	12.96	1.83	0.03	264435	0	8533	192866	264435	255902	4832	30	340	53	184358	1422236	5255
97	2016-01-11 12:01:55	0	0	0	0	0	0	12.97	1.83	0.03	264435	0	8533	193288	264435	255902	4845	31	342	53	184402	1422266	5271
98	2016-01-11 12:11:56	0	0	0	0	0	0	13	1.83	0.03	266386	0	8659	194039	266386	257727	4866	31	342	56	184831	1422313	5295
99	2016-01-11 12:21:59	0	0	0	0	0	0	13.06	1.83	0.03	267053	0	8717	195016	267053	258336	4887	31	342	56	185718	1422348	5316
100	2016-01-11 12:31:57	0	0	0	0	0	0	13.09	1.82	0.03	268249	0	8799	195543	268249	259450	4887	31	342	56	186196	1422383	5316
101	2016-01-11 12:41:57	0	0	0	0	0	0	13.09	1.84	0.03	268249	0	8799	195543	268249	259450	4933	31	342	56	186196	1422437	5362
102	2016-01-11 12:51:57	0	0	0	0	0	0	13.21	1.83	0.03	269917	0	8894	197161	269917	261023	4947	31	342	56	187845	1422481	5376
103	2016-01-11 13:01:56	0	0	0	0	0	0	13.26	1.83	0.03	271103	0	8975	197994	271103	262128	4972	31	342	56	188600	1422514	5401
104	2016-01-11 13:11:57	0	0	0	0	0	0	13.34	1.83	0.03	272036	0	9024	197994	272036	263012	4972	31	344	56	189811	1422555	5403
105	2016-01-11 13:22:02	0	0	0	0	0	0	13.38	1.84	0.03	273143	0	9078	199713	273143	264065	5017	31	344	56	190324	1422597	5448
106	2016-01-11 13:31:56	0	0	0	0	0	0	13.38	1.84	0.03	273143	0	9078	200087	273143	264065	5017	31	344	56	190324	1422640	5448
107	2016-01-11 13:41:56	0	0	0	0	0	0	13.41	1.84	0.03	274548	0	9160	200242	274548	265388	5053	32	346	56	190735	1422680	5487
108	2016-01-11 13:51:59	0	0	0	0	0	0	13.47	1.84	0.03	275449	0	9207	201284	275449	266242	5079	32	346	56	191596	1422720	5513
109	2016-01-11 14:01:59	0	0	0	0	0	0	13.49	1.85	0.03	275875	0	9225	201651	275875	266650	5090	32	347	56	191929	1422763	5525
110	2016-01-11 14:11:58	0	0	0	0	0	0	13.5	1.85	0.03	276819	0	9284	202204	276819	267535	5108	32	347	56	192143	1422804	5543
111	2016-01-11 14:22:00	0	0	0	0	0	0	13.55	1.85	0.03	277721	0	9329	202933	277721	268392	5129	32	347	56	192801	1422835	5564
112	2016-01-11 14:32:00	0	0	0	0	0	0	13.59	1.85	0.03	278604	0	9380	203226	278604	269224	5146	32	350	56	193307	1422874	5584
113	2016-01-11 14:41:58	0	0	0	0	0	0	13.59	1.85	0.03	278604	0	9380	203226	278604	269224	5146	32	350	56	193307	1422906	5584
114	2016-01-11 14:51:58	0	0	0	0	0	0	13.66	1.85	0.04	279956	0	9470	204568	279956	270486	5175	32	351	56	194436	1422950	5614
115	2016-01-11 15:02:02	0	0	0	0	0	0	13.67	1.85	0.04	280869	0	9513	204826	280869	271356	5199	34	352	56	194570	1423003	5641
116	2016-01-11 15:12:03	0	0	0	0	0	0	13.76	1.85	0.04	281845	0	9582	205840	281845	272263	5214	34	352	56	195782	1423056	5656
117	2016-01-11 15:22:04	0	0	0	0	0	0	13.77	1.85	0.04	282420	0	9615	206004	282420	272805	5222	34	352	56	195931	1423101	5664
118	2016-01-11 15:31:59	0	0	0	0	0	0	13.77	1.85	0.04	282420	0	9615	206004	282420	272805	5222	34	352	56	195931	1423141	5664
119	2016-01-11 15:42:01	0	0	0	0	0	0	13.89	1.85	0.04	285000	0	9715	207871	285000	275285	5277	35	353	56	197682	1423180	5721
120	2016-01-11 15:51:58	0	0	0	0	0	0	13.94	1.84	0.04	286403	0	9765	208795	286403	276638	5284	35	354	57	198365	1423232	5730
121	2016-01-11 16:01:59	0	0	0	0	0	0	13.99	1.85	0.04	287234	0	9795	209764	287234	277439	5314	35	354	58	199140	1423272	5761
122	2016-01-11 16:12:01	0	0	0	0	0	0	13.99	1.85	0.04	287833	0	9814	209821	287833	278019	5327	35	356	58	199191	1423326	5776
123	2016-01-11 16:22:01	0	0	0	0	0	0	14.03	1.85	0.04	289909	0	9894	210284	289909	280015	5354	35	359	58	199699	1423374	5806
124	2016-01-11 16:31:59	0	0	0	0	0	0	14.03	1.85	0.04	289909	0	9894	210284	289909	280015	5354	35	359	58	199699	1423420	5806
125	2016-01-11 16:42:00	0	0	0	0	0	0	14.12	1.85	0.04	291832	0	9993	211650	291832	281839	5401	35	361	58	200930	1423458	5855
126	2016-01-11 16:52:01	0	0	0	0	0	0	14.15	1.85	0.04	292495	0	10012	212254	292495	282483	5417	35	362	59	201395	1423506	5873
127	2016-01-11 17:01:59	0	0	0	0	0	0	14.21	1.85	0.04	294040	0	10078	213321	294040	283962	5441	35	362	59	202356	1423568	5897
128	2016-01-11 17:11:58	0	0	0	0	0	0	14.25	1.84	0.04	295335	0	10131	214173	295335	285204	5441	35	365	60	202923	1423647	5901
129	2016-01-11 17:21:59	0	0	0	0	0	0	14.25	1.85	0.04	295335	0	10131	214173	295335	285204	5464	35	365	60	202923	1423701	5924
130	2016-01-11 17:31:59	0	0	0	0	0	0	14.31	1.85	0.04	297460	0	10216	215511	297460	287244	5506	35	367	61	203801	1423755	5969
131	2016-01-11 17:41:59	0	0	0	0	0	0	14.38	1.85	0.04	298186	0	10239	216627	298186	287947	5516	35	368	61	204799	1423808	5980
132	2016-01-11 17:51:59	0	0	0	0	0	0	14.42	1.85	0.04	299608	0	10312	217227	299608	289296	5549	35	372	61	205281	1423866	6017
133	2016-01-11 18:01:58	0	0	0	0	0	0	14.47	1.85	0.04	300285	0	10340	217624	300285	289945	5564	35	374	61	206046	1423923	6034
134	2016-01-11 18:11:59	0	0	0	0	0	0	14.51	1.86	0.04	301513	0	10388	218084	301513	291125	5596	35	374	61	206623	1423984	6066
135	2016-01-11 18:21:59	0	0	0	0	0	0	14.63	1.85	0.04	302612	0	10425	219678	302612	292187	5612	35	375	61	208333	1424033	6083
136	2016-01-11 18:32:00	0	0	0	0	0	0	14.63	1.85	0.04	302612	0	10425	219678	302612	292187	5612	35	375	61	208333	1424072	6083
137	2016-01-11 18:42:02	0	0	0	0	0	0	14.7	1.86	0.04	304681	0	10490	220850	304681	294191	5653	35	376	61	209387	1424134	6125
138	2016-01-11 18:52:02	0	0	0	0	0	0	14.72	1.86	0.04	305275	0	10510	221166	305275	294765	5668	35	376	61	209671	1424174	6140
139	2016-01-11 19:02:00	0	0	0	0	0	0	14.72	1.86	0.04	305275	0	10510	221166	305275	294765	5668	35	376	61	209671	1424205	6140
140	2016-01-11 19:12:02	0	0	0	0	0	0	14.81	1.86	0.04	306764	0	10563	222129	306764	296201	5700	35	376	61	210895	1424242	6172
141	2016-01-11 19:22:00	0	0	0	0	0	0	14.81	1.86	0.04	306764	0	10563	222129	306764	296201	5700	35	376	61	210895	1424273	6172
142	2016-01-11 19:32:02	0	0	0	0	0	0	14.88	1.85	0.04	308747	0	10626	223355	308747	298121	5725	35	379	61	212000	1424318	6200
143	2016-01-11 19:42:22	0	0	0	0	0	0	14.9	1.85	0.04	309689	0	10650	223870	309689	299039	5741	35	379	61	212289	1424357	6216
144	2016-01-11 19:52:00	0	0	0	0	0	0	14.92	1.85	0.04	310236	0	10665	224040	310236	299571	5752	35	380	61	212500	1424395	6228
145	2016-01-11 20:02:04	0	0	0	0	0	0	14.93	1.85	0.04	311388	0	10694	224404	311388	300694	5767	35	381	61	212623	1424434	6244
146	2016-01-11 20:12:01	0	0	0	0	0	0	14.93	1.85	0.04	312048	0	10716	224624	312048	301332	5780	35	382	61	212645	1424472	6258
147	2016-01-11 20:22:02	0	0	0	0	0	0	14.96	1.85	0.04	313090	0	10747	225163	313090	302343	5795	35	382	61	213128	1424512	6273
148	2016-01-11 20:32:00	0	0	0	0	0	0	15.02	1.85	0.04	313684	0	10764	225870	313684	302920	5806	35	382	61	213997	1424546	6284
149	2016-01-11 20:42:00	0	0	0	0	0	0	15.04	1.85	0.04	314833	0	10801	226100	314833	304032	5820	35	382	61	214204	1424595	6298
150	2016-01-11 20:51:59	0	0	0	0	0	0	15.04	1.85	0.04	314833	0	10801	226100	314833	304032	5820	35	382	61	214204	1424638	6298
151	2016-01-11 21:02:00	0	0	0	0	0	0	15.07	1.85	0.04	316258	0	10848	226522	316258	305410	5850	35	385	61	214672	1424690	6331
152	2016-01-11 21:12:01	0	0	0	0	0	0	15.11	1.85	0.04	317242	0	10884	227154	317242	306358	5868	35	387	61	215239	1424743	6351
153	2016-01-11 21:22:00	0	0	0	0	0	0	15.12	1.85	0.04	317242	0	10912	227154	317242	306358	5877	35	387	61	215475	1424797	6360
154	2016-01-11 21:32:00	0	0	0	0	0	0	15.13	1.85	0.04	318450	0	10929	227517	318450	307521	5886	35	388	61	215565	1424846	6370
155	2016-01-11 21:42:00	0	0	0	0	0	0	15.13	1.84	0.04	319286	0	10929	228777	319286	308313	5886	35	388	61	215565	1424877	6370
156	2016-01-11 21:52:03	0	0	0	0	0	0	15.22	1.85	0.04	320107	0	11007	229179	320107	309100	5910	35	389	61	216936	1424931	6395
157	2016-01-11 22:02:00	0	0	0	0	0	0	15.22	1.85	0.04	320107	0	11007	229179	320107	309100	5910	35	389	61	216936	1424972	6395
158	2016-01-11 22:12:01	0	0	0	0	0	0	15.28	1.85	0.04	321316	0	11063	229966	321316	310253	5942	35	390	61	217767	1425033	6428
159	2016-01-11 22:22:00	0	0	0	0	0	0	15.29	1.85	0.04	321764	0	11083	230035	321764	310681	5948	36	391	61	217829	1425080	6436
160	2016-01-11 22:32:00	0	0	0	0	0	0	15.3	1.85	0.04	322587	0	11130	230304	322587	311457	5963	36	392	61	218070	1425146	6452
161	2016-01-11 22:42:02	0	0	0	0	0	0	15.32	1.85	0.04	323319	0	11168	230682	323319	312151	5972	36	392	61	218409	1425196	6461
162	2016-01-11 22:52:00	0	0	0	0	0	0	15.32	1.85	0.04	324090	0	11168	231492	324090	312888	5982	36	392	61	218409	1425236	6471
163	2016-01-11 23:02:02	0	0	0	0	0	0	15.39	1.84	0.04	324552	0	11226	231647	324552	313326	5987	37	395	61	219398	1425281	6480
164	2016-01-11 23:12:01	0	0	0	0	0	0	15.39	1.84	0.04	324552	0	11226	231647	324552	313326	5987	37	395	61	219398	1425337	6480
165	2016-01-11 23:22:01	0	0	0	0	0	0	15.46	1.85	0.04	326040	0	11305	232709	326040	314735	6018	37	397	61	220351	1425386	6513
166	2016-01-11 23:32:04	0	0	0	0	0	0	15.48	1.85	0.04	326442	0	11329	232832	326442	315113	6026	37	397	62	220586	1425431	6522
167	2016-01-11 23:42:01	0	0	0	0	0	0	15.47	1.85	0.04	326442	0	11329	232832	326442	315113	6026	37	397	62	220586	1425486	6522
168	2016-01-11 23:52:02	0	0	0	0	0	0	15.51	1.85	0.04	327570	0	11402	233534	327570	316168	6046	37	397	62	221153	1425522	6542
169	2016-01-12 00:02:01	0	0	0	0	0	0	15.55	1.85	0.04	328324	0	11445	234205	328324	316879	6066	38	397	62	221707	1425561	6563
170	2016-01-12 00:12:00	0	0	0	0	0	0	15.56	1.85	0.04	328923	0	11481	234205	328923	317442	6075	38	398	62	221866	1425599	6573
171	2016-01-12 00:22:01	0	0	0	0	0	0	15.57	1.85	0.04	329223	0	11500	234383	329223	317723	6077	38	398	62	221930	1425644	6575
172	2016-01-12 00:32:01	0	0	0	0	0	0	15.57	1.85	0.04	329223	0	11500	234578	329223	317723	6077	38	398	62	221930	1425692	6575
173	2016-01-12 00:42:01	0	0	0	0	0	0	15.61	1.85	0.04	330318	0	11578	234969	330318	318740	6099	39	402	62	222576	1425721	6602
174	2016-01-12 00:52:02	0	0	0	0	0	0	15.62	1.85	0.04	330720	0	11590	235148	330720	319130	6107	39	402	62	222736	1425755	6610
175	2016-01-12 01:02:31	0	0	0	0	0	0	15.63	1.85	0.04	330919	0	11598	235327	330919	319321	6114	39	402	62	222897	1425781	6617
176	2016-01-12 01:12:08	0	0	0	0	0	0	15.63	1.85	0.04	330919	0	11598	235327	330919	319321	6114	39	402	62	222897	1425803	6617
177	2016-01-12 01:22:01	0	0	0	0	0	0	15.69	1.85	0.04	331793	0	11635	235963	331793	320158	6130	39	402	62	223726	1425833	6633
178	2016-01-12 01:32:01	0	0	0	0	0	0	15.7	1.85	0.04	332121	0	11635	236017	332121	320474	6130	39	402	62	223823	1425860	6633
179	2016-01-12 01:42:00	0	0	0	0	0	0	15.7	1.85	0.04	332121	0	11653	236044	332121	320474	6138	39	402	62	223823	1425892	6641
180	2016-01-12 01:52:01	0	0	0	0	0	0	15.71	1.85	0.04	332599	0	11668	236260	332599	320931	6148	39	404	63	224042	1425916	6654
181	2016-01-12 02:02:02	0	0	0	0	0	0	15.71	1.85	0.04	332872	0	11679	236260	332872	321193	6152	39	406	63	224042	1425929	6660
182	2016-01-12 02:12:01	0	0	0	0	0	0	15.71	1.85	0.04	332872	0	11679	236278	332872	321193	6152	39	406	63	224042	1425948	6660
183	2016-01-12 02:22:01	0	0	0	0	0	0	15.71	1.85	0.04	333214	0	11698	236278	333214	321516	6159	39	407	63	224058	1425969	6668
184	2016-01-12 02:32:01	0	0	0	0	0	0	15.72	1.85	0.04	333410	0	11708	236351	333410	321702	6163	39	407	63	224123	1425988	6672
185	2016-01-12 02:42:01	0	0	0	0	0	0	15.72	1.85	0.04	333503	0	11721	236351	333503	321782	6163	39	408	63	224123	1426000	6673
186	2016-01-12 02:52:32	0	0	0	0	0	0	15.72	1.85	0.04	333656	0	11737	236351	333656	321919	6165	39	409	63	224123	1426013	6676
187	2016-01-12 03:02:01	0	0	0	0	0	0	15.72	1.85	0.04	333656	0	11737	236351	333656	321919	6165	39	409	63	224123	1426073	6676
188	2016-01-12 03:12:01	0	0	0	0	0	0	15.72	1.85	0.04	333835	0	11746	236351	333835	322089	6170	39	409	63	224123	1426076	6681
189	2016-01-12 03:22:01	0	0	0	0	0	0	15.72	1.85	0.04	333950	0	11749	236369	333950	322201	6170	39	409	63	224139	1426085	6681
190	2016-01-12 03:32:00	0	0	0	0	0	0	15.72	1.85	0.04	333950	0	11749	236369	333950	322201	6170	39	409	63	224139	1426096	6681
191	2016-01-12 03:42:01	0	0	0	0	0	0	15.72	1.85	0.04	334109	0	11752	236369	334109	322357	6174	39	409	63	224139	1426098	6685
192	2016-01-12 03:52:00	0	0	0	0	0	0	15.72	1.85	0.04	334109	0	11752	236369	334109	322357	6174	39	409	63	224139	1426109	6685
193	2016-01-12 04:02:01	0	0	0	0	0	0	15.72	1.85	0.04	334216	0	11762	236369	334216	322454	6179	39	409	63	224139	1426111	6690
194	2016-01-12 04:12:00	0	0	0	0	0	0	15.72	1.85	0.04	334216	0	11762	236369	334216	322454	6179	39	409	63	224139	1426112	6690
195	2016-01-12 04:22:02	0	0	0	0	0	0	15.72	1.85	0.04	334339	0	11765	236369	334339	322574	6183	39	409	63	224139	1426117	6694
196	2016-01-12 04:32:01	0	0	0	0	0	0	15.72	1.85	0.04	334339	0	11765	236369	334339	322574	6183	39	409	63	224139	1426120	6694
197	2016-01-12 04:42:02	0	0	0	0	0	0	15.72	1.85	0.04	334459	0	11773	236369	334459	322686	6188	39	410	63	224139	1426124	6700
198	2016-01-12 04:52:01	0	0	0	0	0	0	15.72	1.85	0.04	334488	0	11776	236369	334488	322712	6190	39	410	63	224139	1426128	6702
199	2016-01-12 05:02:01	0	0	0	0	0	0	15.72	1.85	0.04	334533	0	11778	236369	334533	322755	6191	39	410	63	224139	1426132	6703
200	2016-01-12 05:12:01	0	0	0	0	0	0	15.72	1.85	0.04	334584	0	11780	236369	334584	322804	6192	39	410	63	224139	1426136	6704
201	2016-01-12 05:22:02	0	0	0	0	0	0	15.72	1.85	0.04	334640	0	11782	236369	334640	322858	6194	39	410	63	224139	1426142	6706
202	2016-01-12 05:32:01	0	0	0	0	0	0	15.72	1.85	0.04	334671	0	11783	236369	334671	322888	6194	39	410	63	224139	1426149	6706
203	2016-01-12 05:42:02	0	0	0	0	0	0	15.72	1.85	0.04	334717	0	11784	236369	334717	322933	6194	39	410	63	224139	1426155	6706
204	2016-01-12 05:52:00	0	0	0	0	0	0	15.72	1.85	0.04	334717	0	11784	236369	334717	322933	6194	39	410	63	224139	1426155	6706
205	2016-01-12 06:02:01	0	0	0	0	0	0	15.72	1.85	0.04	334760	0	11786	236369	334760	322974	6195	39	410	63	224139	1426161	6707
206	2016-01-12 06:12:00	0	0	0	0	0	0	15.72	1.85	0.04	334804	0	11791	236369	334804	323013	6198	39	410	63	224139	1426161	6710
207	2016-01-12 06:22:01	0	0	0	0	0	0	15.72	1.85	0.04	334864	0	11791	236477	334864	323073	6200	39	410	63	224236	1426164	6712
208	2016-01-12 06:32:02	0	0	0	0	0	0	15.72	1.85	0.04	334921	0	11792	236477	334921	323129	6201	39	410	63	224236	1426166	6713
209	2016-01-12 06:42:02	0	0	0	0	0	0	15.72	1.85	0.04	334948	0	11792	236477	334948	323156	6201	39	410	63	224236	1426165	6713
210	2016-01-12 06:52:01	0	0	0	0	0	0	15.72	1.85	0.04	335016	0	11795	236766	335016	323221	6202	39	410	63	224236	1426170	6714
211	2016-01-12 07:02:02	0	0	0	0	0	0	15.72	1.85	0.04	335052	0	11797	236766	335052	323255	6203	39	410	63	224236	1426170	6715
212	2016-01-12 07:12:01	0	0	0	0	0	0	15.72	1.85	0.04	335127	0	11800	236766	335127	323327	6203	39	410	63	224236	1426183	6715
213	2016-01-12 07:22:01	0	0	0	0	0	0	15.72	1.85	0.04	335306	0	11805	236766	335306	323422	6206	39	410	63	224236	1426186	6718
214	2016-01-12 07:32:01	0	0	0	0	0	0	15.72	1.85	0.04	335358	0	11813	236766	335358	323545	6207	39	410	63	224236	1426193	6719
215	2016-01-12 07:42:02	0	0	0	0	0	0	15.72	1.85	0.04	335493	0	11819	236766	335493	323674	6210	39	410	63	224236	1426205	6722
216	2016-01-12 07:52:01	0	0	0	0	0	0	15.72	1.85	0.04	335538	0	11821	236766	335538	323717	6210	39	410	63	224236	1426224	6722
217	2016-01-12 08:02:02	0	0	0	0	0	0	15.72	1.85	0.04	335683	0	11826	236766	335683	323857	6216	39	410	63	224236	1426224	6728
218	2016-01-12 08:12:02	0	0	0	0	0	0	15.72	1.85	0.04	335833	0	11834	236766	335833	323999	6220	39	410	63	224236	1426230	6732
219	2016-01-12 08:22:01	0	0	0	0	0	0	15.75	1.85	0.04	335886	0	11839	237274	335886	324047	6224	39	410	63	224692	1426242	6736
220	2016-01-12 08:32:02	0	0	0	0	0	0	15.77	1.85	0.04	335972	0	11849	237274	335972	324123	6227	40	411	63	224888	1426259	6741
221	2016-01-12 08:42:01	0	0	0	0	0	0	15.77	1.85	0.04	336051	0	11862	237274	336051	324189	6227	40	411	63	224888	1426265	6741
222	2016-01-12 08:52:02	0	0	0	0	0	0	15.77	1.85	0.04	336051	0	11862	237274	336051	324189	6227	40	411	63	224888	1426283	6741
223	2016-01-12 09:02:02	0	0	0	0	0	0	15.79	1.85	0.04	336147	0	11873	237566	336147	324275	6227	40	411	63	225149	1426294	6741
224	2016-01-12 09:12:05	0	0	0	0	0	0	15.79	1.85	0.04	336224	0	11880	237584	336224	324344	6228	40	411	63	225166	1426310	6742
225	2016-01-12 09:22:02	0	0	0	0	0	0	15.79	1.85	0.04	336224	0	11880	237584	336224	324344	6228	40	411	63	225166	1426327	6742
226	2016-01-12 09:32:03	0	0	0	0	0	0	15.79	1.85	0.04	336359	0	11900	237584	336359	324459	6231	40	411	63	225166	1426343	6745
227	2016-01-12 09:42:01	0	0	0	0	0	0	15.79	1.85	0.04	336440	0	11910	237584	336440	324530	6231	40	411	63	225166	1426367	6745
228	2016-01-12 09:52:02	0	0	0	0	0	0	15.79	1.85	0.04	336520	0	11922	237584	336520	324598	6233	40	411	63	225166	1426382	6747
229	2016-01-12 10:02:03	0	0	0	0	0	0	15.79	1.85	0.04	336520	0	11922	237584	336520	324598	6233	40	411	63	225166	1426397	6747
230	2016-01-12 10:12:03	0	0	0	0	0	0	15.79	1.85	0.04	336628	0	11947	237730	336628	324681	6234	40	411	63	225297	1426423	6748
231	2016-01-12 10:22:03	0	0	0	0	0	0	15.8	1.85	0.04	336675	0	11959	237876	336675	324716	6234	40	411	63	225428	1426440	6748
232	2016-01-12 10:32:04	0	0	0	0	0	0	15.81	1.85	0.04	336707	0	11962	238022	336707	324745	6234	40	411	63	225559	1426463	6748
233	2016-01-12 10:42:02	0	0	0	0	0	0	15.81	1.85	0.04	336780	0	11976	238022	336780	324804	6236	40	411	63	225559	1426484	6750
234	2016-01-12 10:52:04	0	0	0	0	0	0	15.81	1.85	0.04	336838	0	11984	238050	336838	324854	6238	40	411	63	225584	1426506	6752
235	2016-01-12 11:02:03	0	0	0	0	0	0	15.81	1.85	0.04	336838	0	11993	238050	336838	324854	6238	40	411	63	225584	1426530	6752
236	2016-01-12 11:12:02	0	0	0	0	0	0	15.81	1.85	0.04	336915	0	11994	238269	336915	324921	6238	40	411	63	225584	1426563	6752
237	2016-01-12 11:22:03	0	0	0	0	0	0	15.81	1.85	0.04	336988	0	12010	238710	336988	324978	6240	40	411	63	225584	1426582	6754
238	2016-01-12 11:32:03	0	0	0	0	0	0	15.81	1.85	0.04	337051	0	12018	238710	337051	325033	6240	40	411	63	225584	1426601	6754
239	2016-01-12 11:42:03	0	0	0	0	0	0	15.81	1.85	0.04	337103	0	12023	238710	337103	325080	6242	40	411	63	225584	1426628	6756
240	2016-01-12 11:52:03	0	0	0	0	0	0	15.81	1.85	0.04	337103	0	12023	238710	337103	325080	6242	40	411	63	225584	1426665	6756
241	2016-01-12 12:02:03	0	0	0	0	0	0	15.81	1.85	0.04	337182	0	12039	238710	337182	325143	6243	40	411	63	225584	1426699	6757
242	2016-01-12 12:12:03	0	0	0	0	0	0	15.81	1.85	0.04	337182	0	12039	238710	337182	325143	6243	40	411	63	225584	1426729	6757
243	2016-01-12 12:22:04	0	0	0	0	0	0	15.85	1.85	0.04	337249	0	12044	239375	337249	325205	6245	40	411	63	226177	1426757	6759
244	2016-01-12 12:32:04	0	0	0	0	0	0	15.85	1.85	0.04	337309	0	12054	239375	337309	325255	6245	40	411	63	226177	1426780	6759
245	2016-01-12 12:42:06	0	0	0	0	0	0	15.85	1.85	0.04	337359	0	12069	239375	337359	325290	6246	40	411	63	226177	1426817	6760
246	2016-01-12 12:52:05	0	0	0	0	0	0	15.85	1.85	0.04	337382	0	12074	239375	337382	325308	6246	40	411	63	226177	1426843	6760
247	2016-01-12 13:02:04	0	0	0	0	0	0	15.86	1.85	0.04	337429	0	12087	239541	337429	325342	6248	41	411	63	226326	1426872	6763
248	2016-01-12 13:12:08	0	0	0	0	0	0	15.86	1.85	0.04	337482	0	12100	239541	337482	325382	6248	41	411	63	226326	1426897	6763
249	2016-01-12 13:22:05	0	0	0	0	0	0	15.86	1.85	0.04	337482	0	12100	239541	337482	325382	6248	41	411	63	226326	1426924	6763
250	2016-01-12 13:32:07	0	0	0	0	0	0	15.88	1.85	0.04	337520	0	12108	239838	337520	325412	6249	41	411	63	226591	1426966	6764
251	2016-01-12 13:42:04	0	0	0	0	0	0	15.89	1.85	0.04	337575	0	12119	239987	337575	325456	6250	41	412	63	226724	1427007	6766
252	2016-01-12 13:52:04	0	0	0	0	0	0	15.89	1.85	0.04	337594	0	12122	239987	337594	325472	6250	41	412	63	226724	1427051	6766
253	2016-01-12 14:02:07	0	0	0	0	0	0	15.89	1.85	0.04	337618	0	12122	239987	337618	325472	6250	41	412	63	226724	1427080	6766
254	2016-01-12 14:12:07	0	0	0	0	0	0	15.89	1.85	0.04	337665	0	12137	239987	337665	325528	6250	41	412	63	226724	1427107	6766
255	2016-01-12 14:22:09	0	0	0	0	0	0	15.89	1.85	0.04	337710	0	12149	239987	337710	325561	6251	41	412	63	226724	1427139	6767
256	2016-01-12 14:32:07	0	0	0	0	0	0	15.89	1.85	0.04	337710	0	12149	239987	337710	325561	6251	41	412	63	226724	1427180	6767
257	2016-01-12 14:42:06	0	0	0	0	0	0	15.89	1.85	0.04	337759	0	12162	239987	337759	325597	6251	41	412	63	226724	1427220	6767
258	2016-01-12 14:52:06	0	0	0	0	0	0	15.89	1.85	0.04	337759	0	12162	239987	337759	325597	6251	41	412	63	226857	1427245	6767
259	2016-01-12 15:02:07	0	0	0	0	0	0	15.89	1.85	0.04	337813	0	12175	240136	337813	325638	6252	41	412	63	226857	1427283	6768
260	2016-01-12 15:12:07	0	0	0	0	0	0	15.89	1.85	0.04	337860	0	12183	240136	337860	325677	6254	41	413	63	226857	1427319	6771
261	2016-01-12 15:22:10	0	0	0	0	0	0	15.89	1.85	0.04	337901	0	12194	240136	337901	325707	6254	41	413	63	226857	1427352	6771
262	2016-01-12 15:32:04	0	0	0	0	0	0	15.89	1.85	0.04	337901	0	12194	240136	337901	325707	6254	41	413	63	226857	1427372	6771
263	2016-01-12 15:42:17	0	0	0	0	0	0	15.89	1.85	0.04	337975	0	12210	240136	337975	325765	6255	41	413	63	226857	1427393	6772
264	2016-01-12 15:52:08	0	0	0	0	0	0	15.89	1.85	0.04	338020	0	12221	240136	338020	325799	6255	41	413	63	226857	1427428	6772
265	2016-01-12 16:02:08	0	0	0	0	0	0	15.89	1.85	0.04	338043	0	12228	240136	338043	325815	6256	41	413	63	226857	1427463	6773
266	2016-01-12 16:12:07	0	0	0	0	0	0	15.89	1.85	0.04	338086	0	12241	240206	338086	325845	6257	41	413	63	226857	1427496	6774
267	2016-01-12 16:22:07	0	0	0	0	0	0	15.89	1.85	0.04	338086	0	12241	240206	338086	325845	6257	41	413	63	226857	1427538	6774
268	2016-01-12 16:32:09	0	0	0	0	0	0	15.89	1.85	0.04	338160	0	12264	240206	338160	325896	6258	41	413	63	226857	1427574	6775
269	2016-01-12 16:42:09	0	0	0	0	0	0	15.9	1.85	0.04	338160	0	12264	240206	338160	325896	6259	41	413	63	226957	1427610	6776
270	2016-01-12 16:52:13	0	0	0	0	0	0	15.9	1.85	0.04	338207	0	12271	240317	338207	325953	6259	41	413	63	226957	1427639	6776
271	2016-01-12 17:02:17	0	0	0	0	0	0	15.9	1.85	0.04	338249	0	12279	240317	338249	325970	6259	41	413	63	226957	1427672	6776
272	2016-01-12 17:12:21	0	0	0	0	0	0	15.9	1.85	0.04	338289	0	12292	240317	338289	325997	6259	41	413	63	226957	1427723	6776
273	2016-01-12 17:22:24	0	0	0	0	0	0	15.9	1.85	0.04	338311	0	12296	240317	338311	326015	6259	41	413	63	226957	1427760	6776
274	2016-01-12 17:32:27	0	0	0	0	0	0	15.9	1.85	0.04	338346	0	12301	240317	338346	326045	6259	41	413	63	226957	1427807	6776
275	2016-01-12 17:42:17	0	0	0	0	0	0	15.9	1.85	0.04	338394	0	12312	240317	338394	326082	6259	41	413	63	226957	1427845	6776
276	2016-01-12 17:52:12	0	0	0	0	0	0	15.89	1.85	0.04	338394	0	12312	240317	338394	326082	6259	41	413	63	226957	1427885	6776
277	2016-01-12 18:02:13	0	0	0	0	0	0	15.91	1.85	0.04	338442	0	12322	240541	338442	326120	6261	41	413	63	227156	1427923	6778
278	2016-01-12 18:12:13	0	0	0	0	0	0	15.91	1.85	0.04	338476	0	12327	240541	338476	326149	6261	41	413	63	227156	1427951	6778
279	2016-01-12 18:22:12	0	0	0	0	0	0	15.91	1.85	0.04	338476	0	12327	240541	338476	326149	6261	41	413	63	227156	1427987	6778
280	2016-01-12 18:32:12	0	0	0	0	0	0	15.91	1.85	0.04	338540	0	12333	240541	338540	326207	6262	41	413	63	227156	1428035	6779
281	2016-01-12 18:42:12	0	0	0	0	0	0	15.91	1.85	0.04	338540	0	12333	240541	338540	326207	6262	41	413	63	227156	1428074	6779
282	2016-01-12 18:52:13	0	0	0	0	0	0	15.91	1.85	0.04	338603	0	12339	240541	338603	326262	6262	41	413	63	227156	1428116	6779
283	2016-01-12 19:02:18	0	0	0	0	0	0	15.91	1.85	0.04	338621	0	12345	240541	338621	326276	6262	41	413	63	227156	1428153	6779
284	2016-01-12 19:12:12	0	0	0	0	0	0	15.91	1.85	0.04	338655	0	12354	240541	338655	326301	6262	41	413	63	227156	1428202	6779
285	2016-01-12 19:22:13	0	0	0	0	0	0	15.9	1.85	0.04	338655	0	12354	240541	338655	326301	6262	41	413	63	227156	1428237	6779
286	2016-01-12 19:32:11	0	0	0	0	0	0	15.9	1.85	0.04	338697	0	12360	240541	338697	326337	6263	41	413	63	227156	1428274	6780
287	2016-01-12 19:42:08	0	0	0	0	0	0	15.9	1.85	0.04	338725	0	12367	240541	338725	326358	6265	41	413	63	227156	1428296	6782
288	2016-01-12 19:52:08	0	0	0	0	0	0	15.9	1.85	0.04	338725	0	12367	240541	338725	326358	6265	41	413	63	227156	1428348	6782
289	2016-01-12 20:02:10	0	0	0	0	0	0	15.93	1.85	0.04	338772	0	12374	240916	338772	326398	6266	41	413	63	227490	1428382	6783
290	2016-01-12 20:12:07	0	0	0	0	0	0	15.93	1.85	0.04	338772	0	12374	240916	338772	326398	6266	41	413	63	227490	1428422	6783
291	2016-01-12 20:22:09	0	0	0	0	0	0	15.93	1.85	0.04	338818	0	12380	240916	338818	326438	6266	41	413	63	227490	1428473	6783
292	2016-01-12 20:32:09	0	0	0	0	0	0	15.93	1.85	0.04	338851	0	12385	240916	338851	326466	6266	41	413	63	227490	1428501	6783
293	2016-01-12 20:42:11	0	0	0	0	0	0	15.92	1.85	0.04	338864	0	12388	240916	338864	326476	6267	41	414	63	227490	1428545	6785
294	2016-01-12 20:52:10	0	0	0	0	0	0	15.92	1.85	0.04	338864	0	12388	240916	338864	326506	6267	41	414	63	227490	1428570	6785
295	2016-01-12 21:02:11	0	0	0	0	0	0	15.92	1.85	0.04	338922	0	12393	240916	338922	326529	6267	41	415	63	227490	1428612	6786
296	2016-01-12 21:12:09	0	0	0	0	0	0	15.92	1.85	0.04	338922	0	12393	240916	338922	326529	6267	41	415	63	227490	1428649	6786
297	2016-01-12 21:22:09	0	0	0	0	0	0	15.92	1.85	0.04	338985	0	12411	240916	338985	326574	6268	41	415	63	227490	1428685	6787
298	2016-01-12 21:32:09	0	0	0	0	0	0	15.92	1.85	0.04	339004	0	12412	240916	339004	326592	6268	41	415	63	227490	1428721	6787
299	2016-01-12 21:42:09	0	0	0	0	0	0	15.92	1.85	0.04	339031	0	12417	240916	339031	326614	6268	41	415	63	227490	1428751	6787
300	2016-01-12 21:52:09	0	0	0	0	0	0	15.92	1.85	0.04	339060	0	12422	240916	339060	326638	6268	41	415	63	227490	1428781	6787
301	2016-01-12 22:02:08	0	0	0	0	0	0	15.92	1.85	0.04	339060	0	12422	240916	339060	326638	6268	41	415	63	227490	1428814	6787
302	2016-01-12 22:12:09	0	0	0	0	0	0	15.92	1.85	0.04	339106	0	12429	240916	339106	326677	6269	41	415	63	227490	1428841	6788
303	2016-01-12 22:22:09	0	0	0	0	0	0	15.93	1.85	0.04	339146	0	12434	240991	339146	326712	6270	41	415	63	227557	1428881	6789
304	2016-01-12 22:32:10	0	0	0	0	0	0	15.93	1.85	0.04	339182	0	12438	240991	339182	326744	6270	41	415	63	227557	1428926	6789
305	2016-01-12 22:42:08	0	0	0	0	0	0	15.92	1.85	0.04	339218	0	12442	240991	339218	326776	6271	41	416	63	227557	1428970	6791
306	2016-01-12 22:52:08	0	0	0	0	0	0	15.92	1.85	0.04	339241	0	12447	240991	339241	326794	6271	41	416	63	227557	1429011	6791
307	2016-01-12 23:02:09	0	0	0	0	0	0	15.92	1.85	0.04	339281	0	12460	240991	339281	326821	6271	41	416	63	227557	1429060	6791
308	2016-01-12 23:12:09	0	0	0	0	0	0	15.92	1.85	0.04	339281	0	12460	240991	339281	326821	6271	41	416	63	227557	1429108	6791
309	2016-01-12 23:22:08	0	0	0	0	0	0	15.92	1.85	0.04	339323	0	12465	240991	339323	326858	6273	41	416	63	227557	1429145	6793
310	2016-01-12 23:32:08	0	0	0	0	0	0	15.95	1.85	0.04	339358	0	12469	241517	339358	326889	6273	41	416	63	228026	1429202	6793
311	2016-01-12 23:42:08	0	0	0	0	0	0	15.95	1.85	0.04	339381	0	12471	241517	339381	326910	6274	41	416	63	228026	1429251	6794
312	2016-01-12 23:52:08	0	0	0	0	0	0	15.95	1.85	0.04	339416	0	12479	241517	339416	326937	6274	41	416	63	228026	1429291	6794
313	2016-01-13 00:02:10	0	0	0	0	0	0	15.95	1.85	0.04	339429	0	12480	241517	339429	326949	6275	41	416	63	228026	1429327	6795
314	2016-01-13 00:12:07	0	0	0	0	0	0	15.95	1.85	0.04	339445	0	12481	241517	339445	326964	6275	41	416	63	228026	1429363	6795
315	2016-01-13 00:22:08	0	0	0	0	0	0	15.95	1.85	0.04	339476	0	12483	241517	339476	326993	6275	41	416	63	228026	1429387	6795
316	2016-01-13 00:32:09	0	0	0	0	0	0	15.95	1.85	0.04	339499	0	12486	241517	339499	327013	6275	41	416	63	228026	1429420	6795
317	2016-01-13 00:42:08	0	0	0	0	0	0	15.95	1.85	0.04	339499	0	12486	241517	339499	327013	6275	41	416	63	228026	1429451	6795
318	2016-01-13 00:52:09	0	0	0	0	0	0	15.95	1.85	0.04	339536	0	12491	241517	339536	327045	6276	41	416	63	228026	1429469	6796
319	2016-01-13 01:02:08	0	0	0	0	0	0	15.95	1.85	0.04	339556	0	12492	241517	339556	327064	6279	41	416	63	228026	1429486	6799
320	2016-01-13 01:12:10	0	0	0	0	0	0	15.95	1.85	0.04	339572	0	12493	241517	339572	327079	6279	41	416	63	228026	1429504	6799
321	2016-01-13 01:22:08	0	0	0	0	0	0	15.95	1.85	0.04	339572	0	12493	241517	339572	327079	6279	41	416	63	228026	1429520	6799
322	2016-01-13 01:32:09	0	0	0	0	0	0	15.95	1.85	0.04	339591	0	12493	241517	339591	327098	6279	41	416	63	228026	1429543	6799
323	2016-01-13 01:42:08	0	0	0	0	0	0	15.96	1.85	0.04	339597	0	12493	241743	339597	327104	6279	41	416	63	228228	1429559	6799
324	2016-01-13 01:52:08	0	0	0	0	0	0	15.96	1.85	0.04	339603	0	12494	241743	339603	327109	6279	41	416	63	228228	1429570	6799
325	2016-01-13 02:02:08	0	0	0	0	0	0	15.96	1.85	0.04	339614	0	12495	241743	339614	327119	6279	41	416	63	228228	1429588	6799
326	2016-01-13 02:12:08	0	0	0	0	0	0	15.96	1.85	0.04	339626	0	12497	241743	339626	327129	6279	41	416	63	228228	1429609	6799
327	2016-01-13 02:22:08	0	0	0	0	0	0	15.96	1.85	0.04	339626	0	12497	241743	339626	327129	6279	41	416	63	228228	1429619	6799
328	2016-01-13 02:32:07	0	0	0	0	0	0	15.96	1.85	0.04	339630	0	12497	241743	339630	327133	6279	41	416	63	228228	1429633	6799
329	2016-01-13 02:42:09	0	0	0	0	0	0	15.96	1.85	0.04	339636	0	12497	241743	339636	327139	6279	41	416	63	228228	1429635	6799
330	2016-01-13 02:52:07	0	0	0	0	0	0	15.96	1.85	0.04	339643	0	12497	241743	339643	327146	6279	41	416	63	228228	1429646	6799
331	2016-01-13 03:02:09	0	0	0	0	0	0	15.98	1.85	0.04	339644	0	12498	241743	339644	327146	6279	41	416	63	228228	1428188	6799
332	2016-01-13 03:12:08	0	0	0	0	0	0	15.98	1.85	0.04	339647	0	12498	241743	339647	327149	6279	41	416	63	228228	1428181	6799
333	2016-01-13 03:22:09	0	0	0	0	0	0	15.98	1.85	0.04	339651	0	12498	241743	339651	327153	6279	41	416	63	228228	1428185	6799
334	2016-01-13 03:32:07	0	0	0	0	0	0	15.98	1.85	0.04	339652	0	12499	241743	339652	327153	6279	41	416	63	228228	1428188	6799
335	2016-01-13 03:42:08	0	0	0	0	0	0	15.98	1.85	0.04	339654	0	12500	241743	339654	327154	6279	41	416	63	228228	1428190	6799
336	2016-01-13 03:52:08	0	0	0	0	0	0	15.98	1.85	0.04	339656	0	12501	241743	339656	327155	6279	41	416	63	228228	1428194	6799
337	2016-01-13 04:02:07	0	0	0	0	0	0	15.98	1.85	0.04	339657	0	12501	241743	339657	327156	6279	41	416	63	228228	1428199	6799
338	2016-01-13 04:12:08	0	0	0	0	0	0	15.98	1.85	0.04	339658	0	12502	241743	339658	327156	6279	41	416	63	228228	1428199	6799
339	2016-01-13 04:22:08	0	0	0	0	0	0	15.98	1.85	0.04	339659	0	12502	241743	339659	327157	6279	41	416	63	228228	1428204	6799
340	2016-01-13 04:32:08	0	0	0	0	0	0	15.98	1.85	0.04	339659	0	12502	241743	339659	327157	6279	41	416	63	228228	1428209	6799
341	2016-01-13 04:42:08	0	0	0	0	0	0	15.98	1.85	0.04	339661	0	12502	241743	339661	327159	6279	41	416	63	228228	1428209	6799
342	2016-01-13 04:52:08	0	0	0	0	0	0	15.98	1.85	0.04	339662	0	12502	241743	339662	327160	6279	41	416	63	228228	1428212	6799
343	2016-01-13 05:02:07	0	0	0	0	0	0	15.98	1.85	0.04	339662	0	12502	241743	339662	327160	6279	41	416	63	228228	1428216	6799
344	2016-01-13 05:12:07	0	0	0	0	0	0	15.98	1.85	0.04	339663	0	12502	241743	339663	327161	6279	41	416	63	228228	1428216	6799
345	2016-01-13 05:22:08	0	0	0	0	0	0	15.98	1.85	0.04	339668	0	12503	241743	339668	327165	6279	41	416	63	228228	1428221	6799
346	2016-01-13 05:32:08	0	0	0	0	0	0	15.98	1.85	0.04	339668	0	12503	241743	339668	327165	6279	41	416	63	228228	1428221	6799
347	2016-01-13 05:42:09	0	0	0	0	0	0	15.98	1.85	0.04	339669	0	12503	241743	339669	327166	6279	41	416	63	228228	1428223	6799
348	2016-01-13 05:52:08	0	0	0	0	0	0	15.98	1.85	0.04	339669	0	12503	241743	339669	327166	6279	41	416	63	228228	1428227	6799
349	2016-01-13 06:02:09	0	0	0	0	0	0	15.98	1.85	0.04	339673	0	12503	241743	339673	327170	6279	41	416	63	228228	1428227	6799
350	2016-01-13 06:12:08	0	0	0	0	0	0	15.98	1.85	0.04	339676	0	12503	241743	339676	327173	6279	41	416	63	228228	1428227	6799
351	2016-01-13 06:22:08	0	0	0	0	0	0	15.98	1.85	0.04	339676	0	12503	241743	339676	327173	6279	41	416	63	228228	1428227	6799
352	2016-01-13 06:32:12	0	0	0	0	0	0	15.98	1.85	0.04	339676	0	12503	241743	339676	327173	6279	41	416	63	228228	1428229	6799
353	2016-01-13 06:42:12	0	0	0	0	0	0	15.98	1.85	0.04	339678	0	12504	241743	339678	327174	6280	41	416	63	228228	1428234	6800
354	2016-01-13 06:52:14	0	0	0	0	0	0	15.98	1.85	0.04	339679	0	12504	241743	339679	327175	6281	41	416	63	228228	1428239	6801
355	2016-01-13 07:02:10	0	0	0	0	0	0	15.98	1.85	0.04	339679	0	12504	241743	339679	327175	6281	41	416	63	228228	1428248	6801
356	2016-01-13 07:12:08	0	0	0	0	0	0	15.98	1.85	0.04	339684	0	12505	241743	339684	327179	6281	41	416	63	228228	1428254	6801
357	2016-01-13 07:22:09	0	0	0	0	0	0	15.98	1.85	0.04	339687	0	12505	241743	339687	327182	6281	41	416	63	228228	1428259	6801
358	2016-01-13 07:32:10	0	0	0	0	0	0	15.98	1.85	0.04	339688	0	12505	241743	339688	327183	6281	41	416	63	228228	1428266	6801
359	2016-01-13 07:42:09	0	0	0	0	0	0	15.98	1.85	0.04	339688	0	12505	241743	339688	327183	6281	41	416	63	228228	1428274	6801
360	2016-01-13 07:52:08	0	0	0	0	0	0	15.98	1.85	0.04	339691	0	12505	241743	339691	327186	6281	41	416	63	228228	1428285	6801
361	2016-01-13 08:02:10	0	0	0	0	0	0	15.98	1.85	0.04	339695	0	12507	241743	339695	327188	6281	41	416	63	228228	1428291	6801
362	2016-01-13 08:12:10	0	0	0	0	0	0	15.98	1.85	0.04	339698	0	12507	241743	339698	327191	6281	41	416	63	228228	1428303	6801
363	2016-01-13 08:22:09	0	0	0	0	0	0	15.98	1.85	0.04	339698	0	12507	241743	339698	327191	6281	41	416	63	228228	1428311	6801
364	2016-01-13 08:32:09	0	0	0	0	0	0	15.98	1.85	0.04	339706	0	12508	241743	339706	327198	6281	41	416	63	228228	1428329	6801
365	2016-01-13 08:42:09	0	0	0	0	0	0	15.98	1.85	0.04	339711	0	12508	241743	339711	327203	6281	41	416	63	228228	1428338	6801
366	2016-01-13 08:52:09	0	0	0	0	0	0	15.98	1.85	0.04	339718	0	12508	241743	339718	327210	6281	41	416	63	228228	1428351	6801
367	2016-01-13 09:02:08	0	0	0	0	0	0	15.98	1.85	0.04	339721	0	12508	241743	339721	327213	6281	41	416	63	228228	1428361	6801
368	2016-01-13 09:12:08	0	0	0	0	0	0	15.98	1.85	0.04	339722	0	12509	241743	339722	327213	6281	41	416	63	228228	1428371	6801
369	2016-01-13 09:22:06	0	0	0	0	0	0	15.98	1.85	0.04	339722	0	12509	241743	339722	327213	6281	41	416	63	228228	1428382	6801
370	2016-01-13 09:32:08	0	0	0	0	0	0	15.98	1.85	0.04	339735	0	12512	241743	339735	327223	6281	41	416	63	228228	1428394	6801
371	2016-01-13 09:42:09	0	0	0	0	0	0	15.98	1.85	0.04	339738	0	12513	241743	339738	327225	6281	41	416	63	228228	1428415	6801
372	2016-01-13 09:52:09	0	0	0	0	0	0	15.98	1.85	0.04	339744	0	12516	241743	339744	327228	6281	41	416	63	228228	1428427	6801
373	2016-01-13 10:02:11	0	0	0	0	0	0	15.98	1.85	0.04	339758	0	12519	241743	339758	327239	6281	41	416	63	228228	1428444	6801
374	2016-01-13 10:12:10	0	0	0	0	0	0	15.98	1.85	0.04	339758	0	12519	241743	339758	327239	6281	41	416	63	228228	1428473	6801
375	2016-01-13 10:22:10	0	0	0	0	0	0	15.98	1.85	0.04	339768	0	12520	241743	339768	327248	6281	41	416	63	228228	1428487	6801
376	2016-01-13 10:32:08	0	0	0	0	0	0	15.98	1.85	0.04	339768	0	12520	241743	339768	327248	6281	41	416	63	228228	1428497	6801
377	2016-01-13 10:42:08	0	0	0	0	0	0	15.98	1.85	0.04	339786	0	12521	241743	339786	327265	6281	41	416	63	228228	1428517	6801
378	2016-01-13 10:52:11	0	0	0	0	0	0	15.98	1.85	0.04	339790	0	12521	241743	339790	327269	6281	41	416	63	228228	1428538	6801
379	2016-01-13 11:02:10	0	0	0	0	0	0	15.98	1.85	0.04	339795	0	12521	241743	339795	327274	6281	41	416	63	228228	1428551	6801
380	2016-01-13 11:12:10	0	0	0	0	0	0	15.98	1.85	0.04	339805	0	12522	241743	339805	327283	6281	41	416	63	228228	1428573	6801
381	2016-01-13 11:22:11	0	0	0	0	0	0	15.98	1.85	0.04	339812	0	12524	241743	339812	327288	6281	41	416	63	228228	1428595	6801
382	2016-01-13 11:32:13	0	0	0	0	0	0	15.98	1.85	0.04	339814	0	12525	241743	339814	327289	6281	41	416	63	228228	1428621	6801
383	2016-01-13 11:42:10	0	0	0	0	0	0	15.98	1.85	0.04	339832	0	12526	241743	339832	327306	6281	41	416	63	228228	1428649	6801
384	2016-01-13 11:52:11	0	0	0	0	0	0	15.97	1.85	0.04	339842	0	12527	241743	339842	327315	6281	41	416	63	228228	1428680	6801
385	2016-01-13 12:02:11	0	0	0	0	0	0	15.97	1.85	0.04	339842	0	12527	241743	339842	327315	6281	41	416	63	228228	1428705	6801
386	2016-01-13 12:12:12	0	0	0	0	0	0	15.98	1.85	0.04	339853	0	12529	241876	339853	327324	6281	41	416	63	228346	1428731	6801
387	2016-01-13 12:22:13	0	0	0	0	0	0	15.98	1.85	0.04	339862	0	12530	241876	339862	327332	6281	41	416	63	228346	1428747	6801
388	2016-01-13 12:32:13	0	0	0	0	0	0	15.98	1.85	0.04	339864	0	12530	241876	339864	327334	6281	41	416	63	228346	1428773	6801
389	2016-01-13 12:42:17	0	0	0	0	0	0	15.98	1.85	0.04	339876	0	12532	241876	339876	327344	6281	41	416	63	228346	1428792	6801
390	2016-01-13 12:52:18	0	0	0	0	0	0	15.98	1.85	0.04	339879	0	12532	241876	339879	327347	6281	42	417	63	228346	1428820	6803
391	2016-01-13 13:02:19	0	0	0	0	0	0	15.98	1.85	0.04	339884	0	12533	241876	339884	327351	6281	42	417	63	228346	1428844	6803
392	2016-01-13 13:12:13	0	0	0	0	0	0	15.98	1.85	0.04	339893	0	12533	241876	339893	327360	6281	42	417	63	228346	1428863	6803
393	2016-01-13 13:22:17	0	0	0	0	0	0	15.98	1.85	0.04	339897	0	12533	241876	339897	327364	6281	42	417	63	228346	1428886	6803
394	2016-01-13 13:32:10	0	0	0	0	0	0	15.98	1.85	0.04	339897	0	12533	241876	339897	327364	6281	42	417	63	228346	1428916	6803
395	2016-01-13 13:42:13	0	0	0	0	0	0	15.98	1.85	0.04	339920	0	12538	241876	339920	327382	6281	42	417	63	228346	1428952	6803
396	2016-01-13 13:52:12	0	0	0	0	0	0	15.98	1.85	0.04	339920	0	12538	241876	339920	327382	6281	42	417	63	228346	1428994	6803
397	2016-01-13 14:02:12	0	0	0	0	0	0	15.98	1.85	0.04	339928	0	12538	241876	339928	327390	6281	42	417	63	228346	1429032	6803
398	2016-01-13 14:12:13	0	0	0	0	0	0	15.98	1.85	0.04	339932	0	12538	241876	339932	327394	6281	42	417	63	228346	1429080	6803
399	2016-01-13 14:22:14	0	0	0	0	0	0	15.98	1.85	0.04	339936	0	12538	241876	339936	327398	6281	42	417	63	228346	1429108	6803
400	2016-01-13 14:32:12	0	0	0	0	0	0	15.98	1.85	0.04	339946	0	12541	241876	339946	327405	6281	42	417	63	228346	1429144	6803
401	2016-01-13 14:42:14	0	0	0	0	0	0	15.99	1.85	0.04	339956	0	12543	242027	339956	327413	6281	42	417	63	228481	1429179	6803
402	2016-01-13 14:52:15	0	0	0	0	0	0	15.99	1.85	0.04	339959	0	12543	242027	339959	327416	6281	42	417	63	228481	1429218	6803
403	2016-01-13 15:02:17	0	0	0	0	0	0	15.99	1.85	0.04	339968	0	12543	242027	339968	327425	6281	42	417	63	228481	1429259	6803
404	2016-01-13 15:12:26	0	0	0	0	0	0	15.99	1.85	0.04	339977	0	12543	242027	339977	327434	6281	42	417	63	228481	1429283	6803
405	2016-01-13 15:22:22	0	0	0	0	0	0	15.99	1.85	0.04	339977	0	12543	242027	339977	327434	6281	42	417	63	228481	1429322	6803
406	2016-01-13 15:32:15	0	0	0	0	0	0	15.98	1.85	0.04	339989	0	12543	242027	339989	327446	6281	42	417	63	228481	1429358	6803
407	2016-01-13 15:42:17	0	0	0	0	0	0	15.98	1.85	0.04	339999	0	12544	242027	339999	327455	6281	42	417	63	228481	1429399	6803
408	2016-01-13 15:52:15	0	0	0	0	0	0	15.98	1.85	0.04	339999	0	12544	242027	339999	327455	6281	42	417	63	228481	1429432	6803
409	2016-01-13 16:02:14	0	0	0	0	0	0	15.98	1.85	0.04	340010	0	12546	242027	340010	327464	6281	42	417	63	228481	1429473	6803
410	2016-01-13 16:12:16	0	0	0	0	0	0	15.99	1.85	0.04	340018	0	12546	242159	340018	327472	6281	42	417	63	228599	1429502	6803
411	2016-01-13 16:22:17	0	0	0	0	0	0	15.99	1.85	0.04	340026	0	12546	242159	340026	327480	6281	42	417	63	228599	1429539	6803
412	2016-01-13 16:32:16	0	0	0	0	0	0	15.99	1.85	0.04	340030	0	12547	242159	340030	327483	6281	42	417	63	228599	1429572	6803
413	2016-01-13 16:42:17	0	0	0	0	0	0	15.99	1.85	0.04	340038	0	12549	242159	340038	327489	6281	42	417	63	228599	1429611	6803
414	2016-01-13 16:52:17	0	0	0	0	0	0	15.99	1.85	0.04	340045	0	12549	242159	340045	327496	6281	42	417	63	228599	1429637	6803
415	2016-01-13 17:02:13	0	0	0	0	0	0	15.99	1.85	0.04	340045	0	12549	242159	340045	327496	6281	42	417	63	228599	1429666	6803
416	2016-01-13 17:12:15	0	0	0	0	0	0	15.99	1.85	0.04	340055	0	12550	242197	340055	327505	6281	42	417	63	228632	1429696	6803
417	2016-01-13 17:22:15	0	0	0	0	0	0	15.99	1.85	0.04	340065	0	12550	242197	340065	327515	6281	42	417	63	228632	1429721	6803
418	2016-01-13 17:32:15	0	0	0	0	0	0	15.99	1.85	0.04	340065	0	12550	242197	340065	327515	6281	42	417	63	228632	1429756	6803
419	2016-01-13 18:05:50	0	0	0	0	0	0	15.99	1.85	0.04	340094	0	12553	242197	340094	327541	6281	42	417	63	228632	1429866	6803
420	2016-01-13 18:30:40	0	0	0	0	0	0	15.99	1.85	0.04	340114	0	12553	242197	340114	327561	6281	42	417	63	228632	1429947	6803
421	2016-01-13 18:40:29	0	0	0	0	0	0	15.99	1.85	0.04	340114	0	12553	242197	340114	327561	6281	42	417	63	228632	1429974	6803
422	2016-01-13 18:50:26	0	0	0	0	0	0	15.99	1.85	0.04	340133	0	12553	242425	340133	327578	6281	42	417	63	228632	1430007	6803
423	2016-01-13 19:00:13	0	0	0	0	0	0	0	0	0	0	0	0	0	0	0	0	0	0	0	0	0	0
424	2016-01-13 19:20:27	0	0	0	0	0	0	16	1.85	0.04	340159	0	12556	242691	340159	327603	6281	42	417	63	228869	1430210	6803
425	2016-01-13 19:30:24	0	0	0	0	0	0	16	1.85	0.04	340170	0	12557	242691	340170	327613	6281	42	417	63	228869	1430314	6803
426	2016-01-13 19:40:25	0	0	0	0	0	0	16	1.85	0.04	340185	0	12557	242691	340185	327628	6281	42	417	63	228869	1430401	6803
427	2016-01-13 19:50:21	0	0	0	0	0	0	16	1.85	0.04	340185	0	12557	242691	340185	327628	6281	42	417	63	228869	1430496	6803
428	2016-01-13 20:00:25	0	0	0	0	0	0	16	1.85	0.04	340199	0	12557	242691	340199	327642	6281	42	417	63	228869	1430588	6803
