1	2018-03-12 09:54:25		0	0	0	0	0	0	0	0	0	4	0	0	4	4	4	0	0	0	0	3	3625940	0
2	2018-03-12 10:04:55		0	0	0	0	0	0	0.07	5.79	0	3298	0	11	2464	3298	3298	191	3	25	2	2414	3625944	221
3	2018-03-12 10:15:27		0	0	0	0	0	0	0.13	6.72	0	6565	0	26	3660	6565	6565	441	5	53	2	4714	3625958	501
4	2018-03-12 10:26:02		0	0	0	0	0	0	0.19	6.52	0.01	9651	0	54	7163	9651	9651	629	6	59	3	6919	3625972	697
5	2018-03-12 10:36:27		0	0	0	0	0	0	0.23	6.49	0.01	11974	0	73	8762	11974	11974	777	6	68	3	8428	3625985	854
6	2018-03-12 10:46:58		0	0	0	0	0	0	0.27	6.55	0.01	13976	0	91	9985	13976	13976	915	6	76	3	9618	3626021	1000
7	2018-03-12 10:57:30		0	0	0	0	0	0	0.29	6.49	0.01	15739	0	114	11087	15739	15739	1021	10	83	4	10637	3626047	1118
8	2018-03-12 11:08:03		0	0	0	0	0	0	0.32	6.52	0.01	17053	0	148	12006	17053	17053	1112	11	87	4	11533	3626062	1214
9	2018-03-12 11:18:33		0	0	0	0	0	0	0.34	6.58	0.01	18147	0	173	12909	18147	18147	1194	11	93	4	12414	3626072	1302
10	2018-03-12 11:29:02		0	0	0	0	0	0	0.37	6.55	0.01	19173	0	204	13762	19173	19173	1256	11	98	4	13476	3626100	1369
11	2018-03-12 11:39:36		0	0	0	0	0	0	0.38	6.59	0.01	20354	0	216	14402	20354	20354	1342	11	102	4	13821	3626119	1459
12	2018-03-12 11:50:02		0	0	0	0	0	0	0.4	6.62	0.01	21097	0	237	14705	21097	21097	1396	11	107	4	14327	3626135	1518
13	2018-03-12 12:00:33		0	0	0	0	0	0	0.41	6.63	0.01	21810	0	258	15447	21810	21810	1445	11	114	5	14702	3626148	1575
14	2018-03-12 12:11:03		0	0	0	0	0	0	0.41	6.61	0.01	22486	0	266	15764	22486	22486	1486	12	117	5	15022	3626172	1620
15	2018-03-12 12:21:34		0	0	0	0	0	0	0.43	6.55	0.01	23165	0	280	16216	23165	23165	1517	12	122	5	15485	3626194	1656
16	2018-03-12 12:32:07		0	0	0	0	0	0	0.44	6.49	0.01	23841	0	294	16721	23841	23841	1548	13	125	5	15927	3626214	1691
17	2018-03-12 12:42:34		0	0	0	0	0	0	0.45	6.44	0.01	24457	0	308	17264	24457	24457	1575	14	127	5	16400	3626231	1721
18	2018-03-12 12:53:08		0	0	0	0	0	0	0.46	6.45	0.01	25023	0	317	17648	25023	25023	1613	14	131	5	16752	3626239	1763
19	2018-03-12 13:03:36		0	0	0	0	0	0	0.47	6.41	0.01	25711	0	332	18071	25711	25711	1647	14	131	5	17135	3626259	1797
20	2018-03-12 13:14:07		0	0	0	0	0	0	0.48	6.38	0.01	26313	0	355	18587	26313	26313	1679	14	137	5	17529	3626274	1835
21	2018-03-12 13:24:37		0	0	0	0	0	0	0.5	6.36	0.01	27181	0	370	18985	27181	27181	1729	15	142	5	17999	3626295	1891
22	2018-03-12 13:35:08		0	0	0	0	0	0	0.51	6.35	0.01	27775	0	380	19403	27775	27775	1765	15	146	5	18472	3626309	1931
23	2018-03-12 13:45:38		0	0	0	0	0	0	0.52	6.35	0.01	28402	0	392	20071	28402	28402	1803	16	152	5	18849	3626316	1976
24	2018-03-12 13:56:12		0	0	0	0	0	0	0.53	6.32	0.01	29001	0	403	20420	29001	29001	1833	16	155	5	19352	3626338	2009
25	2018-03-12 14:06:39		0	0	0	0	0	0	0.54	6.31	0.01	29531	0	410	20991	29531	29531	1862	16	158	5	19649	3626359	2041
26	2018-03-12 14:17:11		0	0	0	0	0	0	0.55	6.26	0.01	30018	0	416	21121	30018	30018	1879	16	160	5	19889	3626363	2060
27	2018-03-12 14:27:40		0	0	0	0	0	0	0.56	6.22	0.01	30502	0	427	21600	30502	30502	1896	17	164	5	20190	3626387	2082
28	2018-03-12 14:38:12		0	0	0	0	0	0	0.56	6.2	0.01	31009	0	441	21897	31009	31009	1922	17	165	5	20399	3626402	2109
29	2018-03-12 14:48:42		0	0	0	0	0	0	0.57	6.19	0.01	31500	0	457	22227	31500	31500	1949	17	168	5	20806	3626414	2139
30	2018-03-12 14:59:12		0	0	0	0	0	0	0.59	6.18	0.01	32164	0	478	22817	32164	32164	1989	17	172	5	21327	3626436	2183
31	2018-03-12 15:09:43		0	0	0	0	0	0	0.59	6.17	0.02	32559	0	489	23013	32559	32559	2009	17	174	5	21506	3626450	2205
32	2018-03-12 15:20:13		0	0	0	0	0	0	0.6	6.17	0.02	32915	0	495	23170	32915	32915	2031	17	175	5	21633	3626462	2228
33	2018-03-12 15:30:44		0	0	0	0	0	0	0.6	6.15	0.01	33427	0	501	23426	33427	33427	2057	17	179	5	21881	3626479	2258
34	2018-03-12 15:41:21		0	0	0	0	0	0	0.61	6.13	0.02	33701	0	512	23606	33701	33701	2067	17	182	5	22020	3626502	2271
35	2018-03-12 15:51:47		0	0	0	0	0	0	0.62	6.1	0.02	34136	0	530	23996	34136	34136	2081	18	184	5	22350	3626519	2288
36	2018-03-12 16:02:25		0	0	0	0	0	0	0.63	6.08	0.02	34748	0	547	24448	34748	34748	2113	18	186	5	22729	3626529	2322
37	2018-03-12 16:12:56		0	0	0	0	0	0	0.64	6.07	0.02	35076	0	560	24821	35076	35076	2129	18	188	5	23059	3626542	2340
38	2018-03-12 16:23:29		0	0	0	0	0	0	0.64	6.04	0.02	35425	0	568	24862	35425	35425	2140	18	188	5	23177	3626556	2351
39	2018-03-12 16:33:52		0	0	0	0	0	0	0.65	6.02	0.02	35757	0	580	25282	35757	35757	2154	18	191	5	23461	3626562	2368
40	2018-03-12 16:44:22		0	0	0	0	0	0	0.65	5.99	0.02	36068	0	585	25454	36068	36068	2162	18	192	5	23639	3626580	2377
41	2018-03-12 16:54:53		0	0	0	0	0	0	0.66	5.97	0.02	36393	0	594	25792	36393	36393	2172	18	192	5	23963	3626597	2387
42	2018-03-12 17:05:36		0	0	0	0	0	0	0.67	5.96	0.02	36657	0	599	26177	36657	36657	2184	18	192	5	24381	3626615	2399
43	2018-03-12 17:15:55		0	0	0	0	0	0	0.68	5.95	0.02	36953	0	608	26326	36953	36953	2198	18	193	5	24494	3626630	2414
44	2018-03-12 17:26:25		0	0	0	0	0	0	0.68	5.93	0.02	37257	0	615	26651	37257	37257	2211	18	194	5	24834	3626646	2428
45	2018-03-12 17:37:00		0	0	0	0	0	0	0.69	5.96	0.02	37521	0	630	26739	37521	37521	2236	18	197	5	24911	3626658	2456
46	2018-03-12 17:47:29		0	0	0	0	0	0	0.69	5.93	0.02	37977	0	645	27038	37977	37977	2251	18	199	5	25150	3626669	2473
47	2018-03-12 17:58:00		0	0	0	0	0	0	0.7	5.9	0.02	38278	0	653	27275	38278	38278	2260	20	200	6	25362	3626682	2486
48	2018-03-12 18:08:32		0	0	0	0	0	0	0.7	5.93	0.02	38571	0	662	27371	38571	38571	2289	21	202	6	25417	3626696	2518
49	2018-03-12 18:19:04		0	0	0	0	0	0	0.71	5.91	0.02	38909	0	672	27658	38909	38909	2300	21	203	6	25698	3626710	2530
50	2018-03-12 18:29:31		0	0	0	0	0	0	0.71	5.92	0.02	39242	0	680	27831	39242	39242	2322	21	203	6	25917	3626729	2552
51	2018-03-12 18:40:03		0	0	0	0	0	0	0.72	5.91	0.02	39536	0	687	28028	39536	39536	2336	21	205	6	26066	3626744	2568
52	2018-03-12 18:50:35		0	0	0	0	0	0	0.73	5.89	0.02	39848	0	696	28468	39848	39848	2348	21	206	6	26489	3626757	2581
53	2018-03-12 19:01:03		0	0	0	0	0	0	0.74	5.9	0.02	40212	0	704	28697	40212	40212	2372	21	206	6	26666	3626780	2605
54	2018-03-12 19:11:35		0	0	0	0	0	0	0.74	5.89	0.02	40538	0	718	28880	40538	40538	2386	21	208	6	26825	3626801	2621
55	2018-03-12 19:22:04		0	0	0	0	0	0	0.75	5.9	0.02	40920	0	737	29259	40920	40920	2415	21	209	6	27107	3626821	2651
56	2018-03-12 19:32:38		0	0	0	0	0	0	0.76	5.85	0.02	41473	0	746	29500	41473	41473	2428	21	211	6	27384	3626841	2666
57	2018-03-12 19:43:05		0	0	0	0	0	0	0.77	5.84	0.02	41858	0	755	30060	41858	41858	2446	21	212	6	27866	3626854	2685
58	2018-03-12 19:53:36		0	0	0	0	0	0	0.77	5.82	0.02	42237	0	767	30255	42237	42237	2460	21	214	6	28035	3626874	2701
59	2018-03-12 20:04:09		0	0	0	0	0	0	0.78	5.8	0.02	42605	0	781	30534	42605	42605	2473	21	214	6	28366	3626897	2714
60	2018-03-12 20:14:36		0	0	0	0	0	0	0.79	5.8	0.02	42972	0	793	30650	42972	42972	2494	21	215	6	28483	3626910	2736
61	2018-03-12 20:25:07		0	0	0	0	0	0	0.8	5.8	0.02	43333	0	800	31042	43333	43333	2513	21	215	7	28846	3626934	2756
62	2018-03-12 20:35:37		0	0	0	0	0	0	0.8	5.78	0.02	43677	0	813	31285	43677	43677	2526	21	218	7	29057	3626959	2772
63	2018-03-12 20:46:10		0	0	0	0	0	0	0.81	5.77	0.02	44000	0	821	31588	44000	44000	2539	21	218	7	29458	3626984	2785
64	2018-03-12 20:56:40		0	0	0	0	0	0	0.82	5.77	0.02	44334	0	836	31920	44334	44334	2556	21	220	7	29737	3627007	2804
65	2018-03-12 21:07:11		0	0	0	0	0	0	0.83	5.76	0.02	44649	0	849	32264	44649	44649	2571	21	221	7	30031	3627022	2820
66	2018-03-12 21:17:39		0	0	0	0	0	0	0.84	5.72	0.02	45139	0	857	32650	45139	45139	2584	21	223	7	30384	3627050	2835
67	2018-03-12 21:28:11		0	0	0	0	0	0	0.84	5.73	0.02	45403	0	868	32842	45403	45403	2600	22	226	7	30539	3627079	2855
68	2018-03-12 21:38:42		0	0	0	0	0	0	0.85	5.71	0.02	45755	0	901	33075	45755	45755	2613	23	229	7	30689	3627112	2872
69	2018-03-12 21:49:12		0	0	0	0	0	0	0.85	5.71	0.02	46076	0	927	33409	46076	46076	2630	23	230	7	30959	3627148	2890
70	2018-03-12 21:59:44		0	0	0	0	0	0	0.86	5.7	0.02	46412	0	947	33676	46412	46412	2646	23	231	7	31183	3627166	2907
71	2018-03-12 22:10:14		0	0	0	0	0	0	0.87	5.68	0.02	46729	0	966	34019	46729	46729	2652	23	234	7	31457	3627187	2916
72	2018-03-12 22:20:43		0	0	0	0	0	0	0.87	5.66	0.02	47011	0	978	34146	47011	47011	2663	23	235	7	31566	3627208	2928
73	2018-03-12 22:31:14		0	0	0	0	0	0	0.87	5.66	0.02	47318	0	999	34300	47318	47318	2680	23	237	7	31666	3627225	2947
74	2018-03-12 22:41:44		0	0	0	0	0	0	0.88	5.65	0.02	47605	0	1011	34431	47605	47605	2690	23	240	8	31762	3627239	2961
75	2018-03-12 22:52:11		0	0	0	0	0	0	0.88	5.65	0.02	47906	0	1029	34718	47906	47906	2705	24	241	8	32006	3627245	2978
76	2018-03-12 23:02:42		0	0	0	0	0	0	0.89	5.64	0.02	48304	0	1035	34963	48304	48304	2725	24	243	8	32188	3627269	3000
77	2018-03-12 23:13:11		0	0	0	0	0	0	0.89	5.64	0.02	48535	0	1047	35162	48535	48535	2735	24	245	8	32356	3627280	3012
78	2018-03-12 23:23:44		0	0	0	0	0	0	0.9	5.64	0.02	48751	0	1051	35290	48751	48751	2749	24	246	8	32475	3627303	3027
79	2018-03-12 23:34:14		0	0	0	0	0	0	0.9	5.63	0.02	48941	0	1060	35444	48941	48941	2757	24	247	8	32617	3627318	3036
80	2018-03-12 23:44:45		0	0	0	0	0	0	0.9	5.61	0.02	49190	0	1087	35545	49190	49190	2762	24	247	8	32672	3627332	3041
81	2018-03-12 23:55:15		0	0	0	0	0	0	0.9	5.61	0.02	49345	0	1092	35681	49345	49345	2767	24	248	8	32742	3627345	3047
82	2018-03-13 00:22:44		0	0	0	0	0	0	0.91	5.58	0.02	49913	0	1105	35994	49913	49913	2787	24	250	8	33065	3627366	3069
83	2018-03-13 01:27:44		0	0	0	0	0	0	0.92	5.58	0.02	50727	0	1132	36508	50727	50727	2833	24	251	9	33449	3627406	3117
84	2018-03-13 02:32:47		0	0	0	0	0	0	0.93	5.57	0.02	51187	0	1139	36677	51187	51187	2852	24	252	9	33603	3627414	3137
85	2018-03-13 03:37:47		0	0	0	0	0	0	0.93	5.56	0.02	51406	0	1147	36882	51406	51406	2860	24	252	9	33642	3627432	3145
86	2018-03-13 04:42:48		0	0	0	0	0	0	0.93	5.55	0.02	51609	0	1152	37042	51609	51609	2864	24	253	9	33776	3627442	3150
87	2018-03-13 05:47:48		0	0	0	0	0	0	0.94	5.57	0.02	51849	0	1155	37266	51849	51849	2887	24	254	9	33968	3627462	3174
88	2018-03-13 06:52:51		0	0	0	0	0	0	0.95	5.57	0.02	52425	0	1175	37769	52425	52425	2919	25	257	9	34343	3627482	3210
89	2018-03-13 07:15:49		0	0	0	0	0	0	0.95	5.56	0.02	52812	0	1186	38054	52812	52812	2937	25	258	9	34517	3627489	3229
90	2018-03-13 07:26:19		0	0	0	0	0	0	0.95	5.56	0.02	52956	0	1189	38099	52956	52956	2944	25	258	9	34542	3627497	3236
91	2018-03-13 07:36:50		0	0	0	0	0	0	0.95	5.56	0.02	53119	0	1192	38190	53119	53119	2953	25	259	9	34639	3627507	3246
92	2018-03-13 07:47:21		0	0	0	0	0	0	0.96	5.56	0.02	53286	0	1198	38257	53286	53286	2964	25	259	9	34695	3627513	3257
93	2018-03-13 07:57:53		0	0	0	0	0	0	0.96	5.57	0.02	53456	0	1202	38380	53456	53456	2980	26	260	9	34820	3627521	3275
94	2018-03-13 08:08:21		0	0	0	0	0	0	0.97	5.58	0.02	53791	0	1205	38644	53791	53791	3001	26	260	10	35016	3627530	3297
95	2018-03-13 08:18:56		0	0	0	0	0	0	0.97	5.58	0.02	54002	0	1214	38894	54002	54002	3012	27	260	10	35337	3627539	3309
96	2018-03-13 08:29:24		0	0	0	0	0	0	0.98	5.57	0.02	54239	0	1220	39043	54239	54239	3023	27	264	10	35476	3627545	3324
97	2018-03-13 08:39:55		0	0	0	0	0	0	0.98	5.58	0.02	54487	0	1227	39133	54487	54487	3040	27	264	10	35551	3627547	3341
98	2018-03-13 08:50:25		0	0	0	0	0	0	0.98	5.58	0.02	54697	0	1241	39248	54697	54697	3054	27	264	10	35626	3627556	3355
99	2018-03-13 09:00:56		0	0	0	0	0	0	0.98	5.58	0.02	54934	0	1249	39368	54934	54934	3066	27	264	10	35722	3627569	3367
100	2018-03-13 09:11:26		0	0	0	0	0	0	0.99	5.58	0.02	55102	0	1255	39495	55102	55102	3077	27	264	10	35799	3627584	3378
101	2018-03-13 09:21:55		0	0	0	0	0	0	0.99	5.58	0.02	55290	0	1258	39584	55290	55290	3086	27	264	10	35872	3627589	3387
102	2018-03-13 09:32:25		0	0	0	0	0	0	0.99	5.59	0.02	55489	0	1262	39745	55489	55489	3101	27	264	10	35965	3627610	3402
103	2018-03-13 09:42:57		0	0	0	0	0	0	0.99	5.59	0.02	55677	0	1270	39778	55677	55677	3114	27	265	10	35992	3627619	3416
104	2018-03-13 09:53:31		0	0	0	0	0	0	0.99	5.59	0.02	55947	0	1272	39878	55947	55947	3127	27	266	10	36067	3627634	3430
105	2018-03-13 10:04:01		0	0	0	0	0	0	0.99	5.59	0.02	56085	0	1277	39878	56085	56085	3134	27	266	10	36067	3627641	3437
106	2018-03-13 10:14:28		0	0	0	0	0	0	1	5.59	0.02	56209	0	1280	39925	56209	56209	3141	27	266	10	36126	3627664	3444
107	2018-03-13 10:25:01		0	0	0	0	0	0	1	5.59	0.02	56317	0	1285	39985	56317	56317	3147	27	267	10	36175	3627680	3451
108	2018-03-13 10:35:31		0	0	0	0	0	0	1	5.59	0.02	56431	0	1288	40139	56431	56431	3152	27	267	10	36301	3627693	3456
109	2018-03-13 10:46:03		0	0	0	0	0	0	1	5.58	0.02	56529	0	1292	40269	56529	56529	3155	27	267	10	36434	3627707	3459
110	2018-03-13 10:56:33		0	0	0	0	0	0	1	5.58	0.02	56615	0	1300	40269	56615	56615	3160	27	267	10	36434	3627727	3464
111	2018-03-13 11:07:00		0	0	0	0	0	0	1	5.58	0.02	56687	0	1300	40286	56687	56687	3163	27	269	10	36448	3627741	3469
112	2018-03-13 11:17:32		0	0	0	0	0	0	1.01	5.58	0.02	56766	0	1305	40378	56766	56766	3167	27	269	10	36523	3627763	3473
113	2018-03-13 11:28:03		0	0	0	0	0	0	1.01	5.58	0.02	56867	0	1312	40420	56867	56867	3175	27	269	10	36579	3627772	3481
114	2018-03-13 11:38:32		0	0	0	0	0	0	1.01	5.58	0.02	56982	0	1320	40475	56982	56982	3179	27	269	10	36624	3627784	3485
115	2018-03-13 11:49:04		0	0	0	0	0	0	1.01	5.58	0.02	57058	0	1327	40558	57058	57058	3181	27	269	10	36719	3627798	3487
116	2018-03-13 11:59:33		0	0	0	0	0	0	1.01	5.58	0.02	57123	0	1335	40587	57123	57123	3185	27	270	10	36814	3627817	3492
117	2018-03-13 12:10:15		0	0	0	0	0	0	1.02	5.58	0.02	57200	0	1343	40629	57200	57200	3192	27	270	10	36848	3627833	3499
118	2018-03-13 12:20:35		0	0	0	0	0	0	1.02	5.58	0.02	57261	0	1347	40668	57261	57261	3193	27	270	10	36880	3627841	3500
119	2018-03-13 12:31:07		0	0	0	0	0	0	1.02	5.58	0.02	57324	0	1348	40926	57324	57324	3197	27	270	10	37007	3627837	3504
120	2018-03-13 12:41:37		0	0	0	0	0	0	1.02	5.58	0.02	57384	0	1352	40957	57384	57384	3200	27	270	10	37032	3627848	3507
121	2018-03-13 12:52:18		0	0	0	0	0	0	1.03	5.57	0.02	57451	0	1356	41143	57451	57451	3202	27	270	10	37205	3627862	3509
122	2018-03-13 13:02:38		0	0	0	0	0	0	1.03	5.57	0.02	57508	0	1359	41248	57508	57508	3205	27	270	10	37291	3627866	3512
123	2018-03-13 13:13:10		0	0	0	0	0	0	1.03	5.58	0.02	57563	0	1362	41267	57563	57563	3211	27	270	10	37307	3627873	3518
124	2018-03-13 13:23:40		0	0	0	0	0	0	1.03	5.58	0.02	57624	0	1362	41359	57624	57624	3213	27	272	10	37325	3627879	3522
125	2018-03-13 13:34:10		0	0	0	0	0	0	1.03	5.57	0.02	57683	0	1368	41377	57683	57683	3213	27	272	10	37339	3627891	3522
126	2018-03-13 13:44:43		0	0	0	0	0	0	1.03	5.57	0.02	57721	0	1368	41430	57721	57721	3214	27	272	10	37382	3627905	3523
127	2018-03-13 13:55:12		0	0	0	0	0	0	1.03	5.57	0.02	57771	0	1371	41501	57771	57771	3216	28	272	10	37440	3627912	3526
128	2018-03-13 14:05:42		0	0	0	0	0	0	1.03	5.56	0.02	57828	0	1392	41508	57828	57828	3217	28	273	10	37446	3627927	3528
129	2018-03-13 14:16:12		0	0	0	0	0	0	1.03	5.56	0.02	57882	0	1408	41508	57882	57882	3221	28	273	10	37446	3627937	3532
130	2018-03-13 14:26:43		0	0	0	0	0	0	1.03	5.56	0.02	57944	0	1416	41561	57944	57944	3224	28	274	10	37489	3627940	3536
131	2018-03-13 14:37:14		0	0	0	0	0	0	1.03	5.56	0.02	58006	0	1423	41579	58006	58006	3227	28	274	10	37504	3627946	3539
132	2018-03-13 14:47:44		0	0	0	0	0	0	1.03	5.56	0.02	58059	0	1428	41579	58059	58059	3229	28	274	10	37533	3627962	3541
133	2018-03-13 14:58:17		0	0	0	0	0	0	1.04	5.55	0.02	58158	0	1432	41606	58158	58128	3229	28	274	10	37555	3627967	3541
134	2018-03-13 15:08:50		0	0	0	0	0	0	1.04	5.55	0.02	58207	0	1438	41749	58207	58207	3232	28	274	10	37694	3627988	3544
135	2018-03-13 15:19:15		0	0	0	0	0	0	1.04	5.55	0.02	58228	0	1442	41858	58228	58228	3232	28	274	10	37782	3628009	3544
136	2018-03-13 15:29:45		0	0	0	0	0	0	1.04	5.54	0.02	58305	0	1447	41858	58305	58305	3232	28	275	10	37782	3628028	3545
137	2018-03-13 15:40:16		0	0	0	0	0	0	1.04	5.54	0.02	58363	0	1449	41867	58363	58363	3235	28	275	10	37789	3628042	3548
138	2018-03-13 15:50:49		0	0	0	0	0	0	1.04	5.54	0.02	58416	0	1452	41921	58416	58416	3236	28	275	10	37863	3628061	3549
139	2018-03-13 16:01:22		0	0	0	0	0	0	1.04	5.54	0.02	58472	0	1455	41976	58472	58472	3238	28	275	10	37908	3628079	3551
140	2018-03-13 16:11:48		0	0	0	0	0	0	1.04	5.54	0.02	58534	0	1460	42031	58534	58534	3241	28	275	10	37908	3628101	3554
141	2018-03-13 16:22:19		0	0	0	0	0	0	1.05	5.54	0.02	58591	0	1463	42039	58591	58591	3244	28	275	10	37914	3628112	3557
142	2018-03-13 16:32:54		0	0	0	0	0	0	1.04	5.54	0.03	58639	0	1471	42039	58639	58639	3248	28	275	10	37914	3628137	3561
143	2018-03-13 16:43:19		0	0	0	0	0	0	1.05	5.54	0.03	58690	0	1475	42065	58690	58690	3251	28	275	10	37928	3628148	3564
144	2018-03-13 16:53:51		0	0	0	0	0	0	1.05	5.53	0.03	58762	0	1479	42212	58762	58762	3252	28	275	10	38048	3628153	3565
145	2018-03-13 17:04:20		0	0	0	0	0	0	1.05	5.53	0.03	58803	0	1482	42212	58803	58803	3253	28	275	10	38048	3628172	3566
146	2018-03-13 17:15:04		0	0	0	0	0	0	1.05	5.53	0.03	58868	0	1484	42318	58868	58868	3255	28	275	10	38164	3628196	3568
147	2018-03-13 17:25:32		0	0	0	0	0	0	1.05	5.52	0.03	58919	0	1489	42355	58919	58919	3255	28	275	10	38194	3628215	3568
148	2018-03-13 17:35:58		0	0	0	0	0	0	1.05	5.52	0.03	58971	0	1490	42364	58971	58971	3256	28	275	10	38202	3628250	3569
149	2018-03-13 17:46:30		0	0	0	0	0	0	1.05	5.52	0.03	59010	0	1494	42399	59010	59010	3257	28	275	10	38230	3628285	3570
150	2018-03-13 17:57:03		0	0	0	0	0	0	1.05	5.52	0.03	59043	0	1495	42399	59043	59043	3259	28	275	10	38230	3628310	3572
151	2018-03-13 18:07:31		0	0	0	0	0	0	1.06	5.52	0.03	59081	0	1498	42408	59081	59081	3259	28	275	10	38283	3628340	3572
152	2018-03-13 18:18:06		0	0	0	0	0	0	1.06	5.52	0.03	59110	0	1499	42408	59110	59110	3260	28	275	10	38340	3628375	3573
153	2018-03-13 18:28:36		0	0	0	0	0	0	1.06	5.51	0.03	59162	0	1503	42413	59162	59162	3262	28	275	10	38343	3628406	3575
154	2018-03-13 18:39:04		0	0	0	0	0	0	1.06	5.51	0.03	59204	0	1509	42422	59204	59204	3262	28	275	10	38343	3628444	3575
155	2018-03-13 18:49:33		0	0	0	0	0	0	1.06	5.51	0.03	59255	0	1513	42422	59255	59255	3265	28	275	10	38343	3628476	3578
156	2018-03-13 19:00:04		0	0	0	0	0	0	1.06	5.51	0.03	59310	0	1518	42441	59310	59310	3268	28	275	10	38404	3628493	3581
157	2018-03-13 19:10:37		0	0	0	0	0	0	1.06	5.51	0.03	59326	0	1518	42441	59326	59326	3268	28	275	10	38404	3628516	3581
158	2018-03-13 19:21:06		0	0	0	0	0	0	1.06	5.5	0.03	59370	0	1522	42497	59370	59370	3268	28	275	10	38450	3628537	3581
159	2018-03-13 19:31:39		0	0	0	0	0	0	1.06	5.5	0.03	59409	0	1525	42497	59409	59409	3269	28	275	10	38450	3628545	3582
160	2018-03-13 19:42:08		0	0	0	0	0	0	1.06	5.5	0.03	59442	0	1527	42497	59442	59442	3270	28	275	10	38450	3628564	3583
161	2018-03-13 19:52:37		0	0	0	0	0	0	1.06	5.5	0.03	59487	0	1529	42500	59487	59487	3271	28	275	11	38453	3628585	3585
162	2018-03-13 20:03:11		0	0	0	0	0	0	1.06	5.5	0.03	59536	0	1534	42500	59536	59536	3274	28	275	11	38453	3628605	3588
163	2018-03-13 20:13:39		0	0	0	0	0	0	1.06	5.5	0.03	59605	0	1538	42523	59605	59605	3279	28	275	11	38472	3628626	3593
164	2018-03-13 20:24:09		0	0	0	0	0	0	1.06	5.5	0.03	59648	0	1540	42602	59648	59648	3283	28	276	11	38506	3628647	3598
165	2018-03-13 20:34:39		0	0	0	0	0	0	1.06	5.5	0.03	59694	0	1541	42618	59694	59694	3285	28	277	11	38519	3628670	3601
166	2018-03-13 20:45:09		0	0	0	0	0	0	1.06	5.5	0.03	59733	0	1543	42637	59733	59733	3286	28	277	11	38534	3628694	3602
167	2018-03-13 20:55:45		0	0	0	0	0	0	1.06	5.5	0.03	59773	0	1546	42708	59773	59773	3287	28	277	11	38580	3628722	3603
168	2018-03-13 21:06:16		0	0	0	0	0	0	1.06	5.5	0.03	59824	0	1551	42731	59824	59824	3291	28	277	11	38600	3628743	3607
169	2018-03-13 21:16:47		0	0	0	0	0	0	1.07	5.5	0.03	59863	0	1554	42821	59863	59863	3294	28	277	11	38688	3628763	3610
170	2018-03-13 21:27:18		0	0	0	0	0	0	1.07	5.5	0.03	59899	0	1559	42821	59899	59899	3295	28	277	11	38688	3628793	3611
171	2018-03-13 21:37:49		0	0	0	0	0	0	1.07	5.5	0.03	59949	0	1562	42821	59949	59949	3295	28	278	11	38688	3628830	3612
172	2018-03-13 21:48:20		0	0	0	0	0	0	1.07	5.49	0.03	60010	0	1572	42854	60010	60010	3297	28	278	12	38715	3628864	3615
173	2018-03-13 21:58:50		0	0	0	0	0	0	1.07	5.49	0.03	60097	0	1578	42892	60097	60097	3299	28	279	12	38762	3628881	3618
174	2018-03-13 22:09:20		0	0	0	0	0	0	1.07	5.49	0.03	60143	0	1584	42930	60143	60143	3300	28	279	12	38793	3628912	3619
175	2018-03-13 22:19:51		0	0	0	0	0	0	1.07	5.49	0.03	60197	0	1585	42986	60197	60197	3303	28	279	12	38897	3628945	3622
176	2018-03-13 22:30:22		0	0	0	0	0	0	1.07	5.48	0.03	60267	0	1589	42986	60267	60267	3303	28	279	12	38897	3628973	3622
177	2018-03-13 22:40:48		0	0	0	0	0	0	1.07	5.48	0.03	60325	0	1592	43001	60325	60325	3306	28	279	12	38909	3629000	3625
178	2018-03-13 22:51:20		0	0	0	0	0	0	1.07	5.48	0.03	60385	0	1597	43010	60385	60385	3310	28	279	12	38917	3629015	3629
179	2018-03-13 23:01:49		0	0	0	0	0	0	1.07	5.48	0.03	60425	0	1603	43010	60425	60425	3314	28	279	12	38917	3629029	3633
180	2018-03-13 23:12:19		0	0	0	0	0	0	1.08	5.49	0.03	60468	0	1610	43144	60468	60468	3318	28	279	12	39027	3629047	3637
181	2018-03-13 23:22:49		0	0	0	0	0	0	1.08	5.48	0.03	60521	0	1613	43193	60521	60521	3319	28	279	12	39058	3629067	3638
182	2018-03-13 23:33:19		0	0	0	0	0	0	1.08	5.48	0.03	60565	0	1621	43193	60565	60565	3321	28	279	12	39058	3629079	3640
183	2018-03-13 23:43:51		0	0	0	0	0	0	1.08	5.48	0.03	60608	0	1624	43231	60608	60608	3321	28	279	12	39090	3629074	3640
184	2018-03-13 23:54:20		0	0	0	0	0	0	1.08	5.48	0.03	60647	0	1627	43231	60647	60647	3322	28	280	12	39090	3629072	3642
185	2018-03-14 00:21:54		0	0	0	0	0	0	1.08	5.47	0.03	60719	0	1631	43347	60719	60719	3322	28	281	12	39155	3629096	3643
186	2018-03-14 01:26:53		0	0	0	0	0	0	1.08	5.46	0.03	60851	0	1646	43377	60851	60851	3324	28	281	12	39274	3629158	3645
187	2018-03-14 02:31:51		0	0	0	0	0	0	1.08	5.46	0.03	60916	0	1650	43447	60916	60916	3325	28	282	12	39308	3629195	3647
188	2018-03-14 03:36:52		0	0	0	0	0	0	1.08	5.46	0.03	60948	0	1650	43452	60948	60948	3326	28	282	12	39376	3629200	3648
189	2018-03-14 04:41:54		0	0	0	0	0	0	1.09	5.46	0.03	60965	0	1652	43467	60965	60965	3327	28	282	12	39388	3629202	3649
190	2018-03-14 05:46:56		0	0	0	0	0	0	1.09	5.46	0.03	60992	0	1654	43467	60992	60992	3328	28	282	12	39388	3629227	3650
191	2018-03-14 06:51:56		0	0	0	0	0	0	1.09	5.46	0.03	61074	0	1664	43486	61074	61074	3332	28	283	12	39388	3629259	3655
192	2018-03-14 07:14:55		0	0	0	0	0	0	1.09	5.46	0.03	61109	0	1667	43486	61109	61109	3335	28	283	12	39388	3629283	3658
193	2018-03-14 07:25:27		0	0	0	0	0	0	1.09	5.46	0.03	61135	0	1667	43491	61135	61135	3338	28	283	12	39424	3629295	3661
194	2018-03-14 07:35:58		0	0	0	0	0	0	1.09	5.46	0.03	61164	0	1671	43501	61164	61164	3338	28	284	12	39432	3629312	3662
195	2018-03-14 07:46:27		0	0	0	0	0	0	1.09	5.46	0.03	61189	0	1671	43530	61189	61189	3340	28	284	12	39553	3629325	3664
196	2018-03-14 07:57:04		0	0	0	0	0	0	1.09	5.46	0.03	61208	0	1672	43559	61208	61208	3342	28	284	12	39577	3629344	3666
197	2018-03-14 08:07:28		0	0	0	0	0	0	1.09	5.46	0.03	61235	0	1672	43658	61235	61235	3342	28	284	12	39659	3629356	3666
198	2018-03-14 08:17:59		0	0	0	0	0	0	1.09	5.46	0.03	61256	0	1673	43658	61256	61256	3342	28	284	12	39659	3629369	3666
199	2018-03-14 08:28:30		0	0	0	0	0	0	1.09	5.46	0.03	61283	0	1676	43658	61283	61283	3344	28	284	12	39659	3629388	3668
200	2018-03-14 08:39:00		0	0	0	0	0	0	1.09	5.45	0.03	61305	0	1676	43697	61305	61305	3344	28	284	12	39691	3629403	3668
201	2018-03-14 08:49:31		0	0	0	0	0	0	1.09	5.45	0.03	61334	0	1678	43697	61334	61334	3345	28	284	12	39691	3629414	3669
202	2018-03-14 09:00:00		0	0	0	0	0	0	1.09	5.45	0.03	61371	0	1679	43737	61371	61371	3346	28	284	12	39724	3629427	3670
203	2018-03-14 09:10:34		0	0	0	0	0	0	1.09	5.45	0.03	61391	0	1681	43737	61391	61391	3347	28	284	12	39724	3629438	3671
204	2018-03-14 09:21:02		0	0	0	0	0	0	1.09	5.45	0.03	61421	0	1682	43747	61421	61421	3348	28	284	12	39724	3629448	3672
205	2018-03-14 09:31:32		0	0	0	0	0	0	1.09	5.45	0.03	61444	0	1682	43747	61444	61444	3348	28	284	12	39724	3629459	3672
206	2018-03-14 09:42:03		0	0	0	0	0	0	1.09	5.45	0.03	61463	0	1683	43747	61463	61463	3348	28	284	12	39724	3629468	3672
207	2018-03-14 09:52:36		0	0	0	0	0	0	1.09	5.45	0.03	61490	0	1686	43747	61490	61490	3350	28	284	12	39724	3629478	3674
208	2018-03-14 10:03:04		0	0	0	0	0	0	1.09	5.45	0.03	61510	0	1688	43756	61510	61510	3351	28	284	12	39732	3629490	3675
209	2018-03-14 10:13:34		0	0	0	0	0	0	1.1	5.45	0.03	61522	0	1689	43801	61522	61522	3354	28	285	12	39769	3629506	3679
210	2018-03-14 10:24:05		0	0	0	0	0	0	1.1	5.45	0.03	61544	0	1689	43870	61544	61544	3356	28	285	12	39826	3629521	3681
211	2018-03-14 10:34:41		0	0	0	0	0	0	1.1	5.45	0.03	61578	0	1689	43875	61578	61578	3356	28	285	12	39830	3629541	3681
212	2018-03-14 10:45:07		0	0	0	0	0	0	1.1	5.45	0.03	61595	0	1692	43875	61595	61595	3356	28	285	12	39830	3629551	3681
213	2018-03-14 10:55:38		0	0	0	0	0	0	1.1	5.45	0.03	61623	0	1693	43875	61623	61623	3357	28	285	12	39830	3629563	3682
214	2018-03-14 11:06:07		0	0	0	0	0	0	1.1	5.45	0.03	61648	0	1695	43875	61648	61648	3359	28	285	12	39830	3629586	3684
215	2018-03-14 11:16:37		0	0	0	0	0	0	1.1	5.45	0.03	61654	0	1696	43875	61654	61654	3359	28	285	12	39830	3629602	3684
216	2018-03-14 11:27:08		0	0	0	0	0	0	1.1	5.45	0.03	61672	0	1697	43900	61672	61672	3360	28	285	12	39842	3629618	3685
217	2018-03-14 11:37:38		0	0	0	0	0	0	1.1	5.45	0.03	61701	0	1697	43920	61701	61701	3360	28	285	12	39859	3629638	3685
218	2018-03-14 11:48:09		0	0	0	0	0	0	1.1	5.44	0.03	61732	0	1697	43920	61732	61732	3361	28	286	12	39859	3629668	3687
219	2018-03-14 11:58:39		0	0	0	0	0	0	1.1	5.45	0.03	61743	0	1698	43920	61743	61743	3362	28	286	12	39859	3629688	3688
220	2018-03-14 12:09:12		0	0	0	0	0	0	1.1	5.44	0.03	61751	0	1698	43920	61751	61751	3362	28	286	12	39859	3629697	3688
221	2018-03-14 12:19:39		0	0	0	0	0	0	1.1	5.44	0.03	61781	0	1699	43920	61781	61781	3363	28	286	12	39859	3629717	3689
222	2018-03-14 12:30:11		0	0	0	0	0	0	1.1	5.44	0.03	61792	0	1699	43920	61792	61792	3363	28	286	12	39859	3629742	3689
223	2018-03-14 12:40:43		0	0	0	0	0	0	1.1	5.44	0.03	61814	0	1699	43920	61814	61814	3364	28	286	12	39875	3629757	3690
224	2018-03-14 12:51:16		0	0	0	0	0	0	1.1	5.44	0.03	61834	0	1699	43920	61834	61834	3366	28	286	12	39875	3629770	3692
225	2018-03-14 13:01:43		0	0	0	0	0	0	1.1	5.44	0.03	61849	0	1699	43920	61849	61849	3366	28	286	12	39875	3629795	3692
226	2018-03-14 13:12:22		0	0	0	0	0	0	1.1	5.44	0.03	61856	0	1700	43920	61856	61856	3366	28	286	12	39883	3629812	3692
227	2018-03-14 13:22:44		0	0	0	0	0	0	1.1	5.44	0.03	61876	0	1701	43920	61876	61876	3366	28	286	12	39883	3629831	3692
228	2018-03-14 13:33:14		0	0	0	0	0	0	1.1	5.44	0.03	61903	0	1702	43920	61903	61903	3366	28	286	12	39883	3629851	3692
229	2018-03-14 13:43:45		0	0	0	0	0	0	1.1	5.44	0.03	61922	0	1702	43920	61922	61922	3367	28	286	12	39883	3629868	3693
230	2018-03-14 13:54:16		0	0	0	0	0	0	1.1	5.44	0.03	61933	0	1703	43920	61933	61933	3367	28	286	12	39883	3629878	3693
231	2018-03-14 14:04:46		0	0	0	0	0	0	1.1	5.44	0.03	61950	0	1703	44020	61950	61950	3368	28	286	12	39941	3629895	3694
232	2018-03-14 14:15:17		0	0	0	0	0	0	1.1	5.43	0.03	61988	0	1703	44020	61988	61988	3369	28	286	12	39957	3629910	3695
233	2018-03-14 14:25:47		0	0	0	0	0	0	1.1	5.43	0.03	62007	0	1705	44060	62007	62007	3370	28	286	12	39990	3629931	3696
234	2018-03-14 14:36:17		0	0	0	0	0	0	1.1	5.43	0.03	62021	0	1705	44060	62021	62021	3370	28	286	12	39990	3629939	3696
235	2018-03-14 14:46:48		0	0	0	0	0	0	1.1	5.43	0.03	62035	0	1705	44110	62035	62035	3370	28	286	12	40032	3629969	3696
236	2018-03-14 14:57:18		0	0	0	0	0	0	1.1	5.43	0.03	62056	0	1706	44110	62056	62056	3370	28	286	12	40032	3629992	3696
237	2018-03-14 15:07:49		0	0	0	0	0	0	1.1	5.43	0.03	62075	0	1706	44110	62075	62075	3371	28	286	12	40032	3630009	3697
238	2018-03-14 15:18:19		0	0	0	0	0	0	1.1	5.43	0.03	62101	0	1706	44170	62101	62101	3373	28	286	12	40081	3630021	3699
239	2018-03-14 15:28:49		0	0	0	0	0	0	1.1	5.43	0.03	62119	0	1706	44170	62119	62119	3373	28	286	12	40081	3630037	3699
240	2018-03-14 15:39:20		0	0	0	0	0	0	1.1	5.43	0.03	62132	0	1706	44170	62132	62132	3375	28	286	12	40081	3630049	3701
241	2018-03-14 15:49:52		0	0	0	0	0	0	1.11	5.43	0.03	62155	0	1706	44276	62155	62155	3375	28	286	12	40139	3630066	3701
242	2018-03-14 16:00:22		0	0	0	0	0	0	1.11	5.43	0.03	62177	0	1706	44276	62177	62177	3376	28	286	12	40139	3630077	3702
243	2018-03-14 16:10:54		0	0	0	0	0	0	1.11	5.43	0.03	62200	0	1707	44276	62200	62200	3378	28	286	12	40139	3630089	3704
244	2018-03-14 16:21:23		0	0	0	0	0	0	1.11	5.43	0.03	62213	0	1707	44276	62213	62213	3378	28	286	12	40139	3630100	3704
245	2018-03-14 16:31:55		0	0	0	0	0	0	1.11	5.43	0.03	62237	0	1711	44276	62237	62237	3382	28	286	12	40139	3630121	3708
246	2018-03-14 16:42:22		0	0	0	0	0	0	1.11	5.43	0.03	62258	0	1711	44276	62258	62258	3383	28	286	12	40139	3630141	3709
247	2018-03-14 16:52:56		0	0	0	0	0	0	1.11	5.43	0.03	62280	0	1713	44293	62280	62280	3383	28	286	12	40153	3630148	3709
248	2018-03-14 17:03:25		0	0	0	0	0	0	1.11	5.43	0.03	62292	0	1713	44334	62292	62292	3383	28	286	12	40187	3630175	3709
249	2018-03-14 17:13:56		0	0	0	0	0	0	1.11	5.43	0.03	62310	0	1713	44334	62310	62310	3383	28	286	12	40187	3630186	3709
250	2018-03-14 17:24:34		0	0	0	0	0	0	1.11	5.43	0.03	62338	0	1714	44334	62338	62338	3384	28	286	12	40187	3630194	3710
251	2018-03-14 17:35:03		0	0	0	0	0	0	1.11	5.43	0.03	62370	0	1715	44344	62370	62370	3384	28	286	12	40187	3630218	3710
252	2018-03-14 17:45:29		0	0	0	0	0	0	1.11	5.43	0.03	62387	0	1717	44344	62387	62387	3385	28	286	12	40187	3630235	3711
253	2018-03-14 17:56:17		0	0	0	0	0	0	1.11	5.42	0.03	62402	0	1718	44344	62402	62402	3385	28	286	12	40187	3630249	3711
254	2018-03-14 18:06:29		0	0	0	0	0	0	1.11	5.42	0.03	62413	0	1718	44344	62413	62413	3385	28	286	12	40187	3630262	3711
255	2018-03-14 18:16:59		0	0	0	0	0	0	1.11	5.42	0.03	62422	0	1719	44359	62422	62422	3385	28	286	12	40199	3630270	3711
256	2018-03-14 18:27:29		0	0	0	0	0	0	1.11	5.42	0.03	62430	0	1720	44400	62430	62430	3385	28	286	12	40233	3630284	3711
257	2018-03-14 18:38:04		0	0	0	0	0	0	1.11	5.42	0.03	62450	0	1720	44400	62450	62450	3385	28	286	12	40300	3630302	3711
258	2018-03-14 18:48:35		0	0	0	0	0	0	1.11	5.42	0.03	62468	0	1722	44400	62468	62468	3385	28	286	12	40300	3630309	3711
259	2018-03-14 18:59:04		0	0	0	0	0	0	1.11	5.42	0.03	62486	0	1724	44400	62486	62486	3386	28	286	12	40300	3630315	3712
260	2018-03-14 19:09:31		0	0	0	0	0	0	1.11	5.42	0.03	62502	0	1724	44512	62502	62502	3387	28	286	12	40392	3630321	3713
261	2018-03-14 19:20:03		0	0	0	0	0	0	1.11	5.42	0.03	62525	0	1726	44537	62525	62525	3387	28	286	12	40409	3630331	3713
262	2018-03-14 19:30:36		0	0	0	0	0	0	1.11	5.42	0.03	62545	0	1726	44537	62545	62545	3388	28	286	12	40409	3630338	3714
263	2018-03-14 19:41:07		0	0	0	0	0	0	1.11	5.42	0.03	62563	0	1727	44537	62563	62563	3391	28	287	12	40409	3630344	3718
264	2018-03-14 19:51:37		0	0	0	0	0	0	1.11	5.42	0.03	62583	0	1727	44537	62583	62583	3392	28	287	12	40409	3630349	3719
265	2018-03-14 20:02:11		0	0	0	0	0	0	1.11	5.42	0.03	62604	0	1728	44537	62604	62604	3395	28	287	12	40409	3630359	3722
266	2018-03-14 20:12:45		0	0	0	0	0	0	1.11	5.42	0.03	62620	0	1729	44572	62620	62620	3396	28	287	12	40438	3630362	3723
267	2018-03-14 20:23:09		0	0	0	0	0	0	1.11	5.42	0.03	62653	0	1731	44572	62653	62653	3398	28	287	12	40438	3630383	3725
268	2018-03-14 20:33:40		0	0	0	0	0	0	1.11	5.42	0.03	62679	0	1735	44583	62679	62679	3398	28	287	12	40447	3630391	3725
269	2018-03-14 20:44:11		0	0	0	0	0	0	1.11	5.42	0.03	62705	0	1737	44583	62705	62705	3399	28	287	12	40447	3630405	3726
270	2018-03-14 20:54:44		0	0	0	0	0	0	1.11	5.42	0.03	62733	0	1737	44583	62733	62733	3402	28	287	12	40455	3630420	3729
271	2018-03-14 21:05:11		0	0	0	0	0	0	1.11	5.42	0.03	62770	0	1737	44583	62770	62770	3402	28	287	12	40455	3630430	3729
272	2018-03-14 21:15:42		0	0	0	0	0	0	1.12	5.42	0.03	62799	0	1737	44643	62799	62799	3403	28	287	12	40501	3630439	3730
273	2018-03-14 21:26:12		0	0	0	0	0	0	1.12	5.42	0.03	62812	0	1737	44643	62812	62812	3403	28	287	12	40501	3630454	3730
274	2018-03-14 21:36:42		0	0	0	0	0	0	1.12	5.42	0.03	62838	0	1737	44643	62838	62838	3406	28	287	12	40501	3630463	3733
275	2018-03-14 21:47:13		0	0	0	0	0	0	1.12	5.42	0.03	62860	0	1739	44643	62860	62860	3406	28	287	12	40501	3630467	3733
276	2018-03-14 21:57:44		0	0	0	0	0	0	1.12	5.42	0.03	62882	0	1739	44664	62882	62882	3407	28	287	12	40518	3630472	3734
277	2018-03-14 22:08:14		0	0	0	0	0	0	1.12	5.42	0.03	62915	0	1739	44664	62915	62915	3408	28	287	12	40518	3630479	3735
278	2018-03-14 22:18:44		0	0	0	0	0	0	1.12	5.41	0.03	62937	0	1741	44664	62937	62937	3408	28	287	12	40518	3630491	3735
279	2018-03-14 22:29:15		0	0	0	0	0	0	1.12	5.41	0.03	62953	0	1741	44664	62953	62953	3408	28	287	12	40518	3630500	3735
280	2018-03-14 22:39:46		0	0	0	0	0	0	1.12	5.41	0.03	62976	0	1742	44664	62976	62976	3410	28	287	12	40518	3630513	3737
281	2018-03-14 22:50:12		0	0	0	0	0	0	1.12	5.42	0.03	63012	0	1744	44664	63012	63012	3413	28	287	12	40518	3630519	3740
282	2018-03-14 23:00:42		0	0	0	0	0	0	1.12	5.42	0.03	63038	0	1746	44684	63038	63038	3417	28	287	12	40535	3630532	3744
283	2018-03-14 23:11:13		0	0	0	0	0	0	1.12	5.42	0.03	63050	0	1746	44684	63050	63050	3417	28	287	12	40535	3630544	3744
284	2018-03-14 23:21:44		0	0	0	0	0	0	1.12	5.42	0.03	63061	0	1746	44684	63061	63061	3417	28	287	12	40535	3630544	3744
285	2018-03-14 23:32:15		0	0	0	0	0	0	1.12	5.42	0.03	63078	0	1747	44772	63078	63078	3417	28	287	12	40607	3630555	3744
286	2018-03-14 23:42:45		0	0	0	0	0	0	1.12	5.42	0.03	63087	0	1748	44772	63087	63087	3417	28	287	12	40607	3630559	3744
287	2018-03-14 23:53:15		0	0	0	0	0	0	1.12	5.42	0.03	63100	0	1749	44772	63100	63100	3417	28	287	12	40607	3630565	3744
288	2018-03-15 00:20:46		0	0	0	0	0	0	1.12	5.41	0.03	63139	0	1750	44772	63139	63139	3418	28	287	12	40607	3630573	3745
289	2018-03-15 01:25:45		0	0	0	0	0	0	1.12	5.41	0.03	63189	0	1751	44819	63189	63189	3418	28	287	12	40645	3630586	3745
290	2018-03-15 02:30:46		0	0	0	0	0	0	1.12	5.41	0.03	63215	0	1752	44839	63215	63215	3419	28	287	12	40662	3630585	3746
291	2018-03-15 03:35:46		0	0	0	0	0	0	1.12	5.41	0.03	63231	0	1754	44839	63231	63231	3419	28	287	12	40662	3630579	3746
292	2018-03-15 04:40:49		0	0	0	0	0	0	1.12	5.41	0.03	63242	0	1755	44839	63242	63242	3421	28	287	12	40662	3630582	3748
293	2018-03-15 05:45:56		0	0	0	0	0	0	1.12	5.41	0.03	63256	0	1755	44839	63256	63256	3422	28	287	12	40662	3630577	3749
294	2018-03-15 06:50:51		0	0	0	0	0	0	1.12	5.41	0.03	63281	0	1758	44839	63281	63281	3423	28	287	12	40662	3630588	3750
295	2018-03-15 07:13:53		0	0	0	0	0	0	1.12	5.41	0.03	63298	0	1759	44839	63298	63298	3424	28	287	12	40662	3630594	3751
296	2018-03-15 07:24:26		0	0	0	0	0	0	1.12	5.41	0.03	63303	0	1759	44839	63303	63303	3426	28	287	12	40662	3630597	3753
297	2018-03-15 07:34:55		0	0	0	0	0	0	1.12	5.41	0.03	63316	0	1759	44839	63316	63316	3426	28	287	12	40662	3630606	3753
298	2018-03-15 07:45:26		0	0	0	0	0	0	1.12	5.41	0.03	63330	0	1759	44839	63330	63330	3426	28	287	12	40662	3630609	3753
299	2018-03-15 07:55:53		0	0	0	0	0	0	1.12	5.41	0.03	63342	0	1761	44839	63342	63342	3426	28	287	12	40662	3630617	3753
300	2018-03-15 08:06:23		0	0	0	0	0	0	1.12	5.41	0.03	63347	0	1761	44839	63347	63347	3426	28	287	12	40662	3630618	3753
301	2018-03-15 08:16:55		0	0	0	0	0	0	1.12	5.41	0.03	63358	0	1761	44881	63358	63358	3427	28	287	12	40696	3630616	3754
302	2018-03-15 08:27:31		0	0	0	0	0	0	1.12	5.41	0.03	63364	0	1761	44881	63364	63364	3427	28	287	12	40696	3630624	3754
303	2018-03-15 08:37:56		0	0	0	0	0	0	1.12	5.41	0.03	63378	0	1761	44881	63378	63378	3427	28	287	12	40696	3630637	3754
304	2018-03-15 08:48:25		0	0	0	0	0	0	1.12	5.41	0.03	63391	0	1761	44912	63391	63391	3427	28	287	12	40722	3630648	3754
305	2018-03-15 08:58:56		0	0	0	0	0	0	1.12	5.4	0.03	63406	0	1762	44914	63406	63406	3427	28	287	12	40724	3630654	3754
306	2018-03-15 09:09:26		0	0	0	0	0	0	1.12	5.4	0.03	63415	0	1762	44914	63415	63415	3427	28	287	12	40724	3630660	3754
307	2018-03-15 09:19:57		0	0	0	0	0	0	1.12	5.41	0.03	63422	0	1762	44954	63422	63422	3428	28	287	12	40756	3630665	3755
308	2018-03-15 09:30:38		0	0	0	0	0	0	1.12	5.4	0.03	63433	0	1762	44954	63433	63433	3428	28	287	12	40756	3630670	3755
309	2018-03-15 09:41:00		0	0	0	0	0	0	1.12	5.4	0.03	63448	0	1762	44974	63448	63448	3429	28	287	12	40773	3630670	3756
310	2018-03-15 09:51:30		0	0	0	0	0	0	1.12	5.4	0.03	63458	0	1763	44974	63458	63458	3429	28	287	12	40773	3630671	3756
