1	2015-12-24 14:47:09	0	0	0	0	0	0	3.19	0.2	0.04	52207	0	2073	45576	52207	50134	103	150	726	27	44360	1388880	1006
2	2015-12-24 14:57:09	0	0	0	0	0	0	4.74	0.26	0.08	84645	0	6082	69353	84645	78563	219	281	1261	50	65776	1388894	1811
3	2015-12-24 15:07:09	0	0	0	0	0	0	4.74	0.26	0.08	84645	0	6082	69353	84645	78563	219	281	1261	50	65776	1388908	1811
4	2015-12-24 15:17:10	0	0	0	0	0	0	7.29	0.19	0.18	174726	0	26154	99534	174726	148572	339	542	2250	108	101248	1388919	3239
5	2015-12-24 15:27:09	0	0	0	0	0	0	7.29	0.28	0.18	174726	0	26154	143194	174726	148572	497	542	2250	108	101248	1388926	3397
6	2015-12-24 15:37:09	0	0	0	0	0	0	9.89	0.22	0.24	224288	0	43222	143194	224288	181066	497	781	3373	173	137351	1388940	4824
7	2015-12-24 15:47:09	0	0	0	0	0	0	10.33	0.27	0.26	238574	0	48748	177770	238574	189826	634	820	3611	180	143423	1388948	5245
8	2015-12-24 15:57:10	0	0	0	0	0	0	10.64	0.27	0.27	253634	0	54619	184603	253634	199015	684	864	3832	199	147829	1388959	5579
9	2015-12-24 16:07:10	0	0	0	0	0	0	11.17	0.27	0.3	277399	0	64143	201096	277399	213256	757	946	4205	216	155204	1388962	6124
10	2015-12-24 16:17:10	0	0	0	0	0	0	11.71	0.28	0.33	303311	0	75079	215379	303311	228232	847	1024	4573	229	162626	1388974	6673
11	2015-12-24 16:27:10	0	0	0	0	0	0	12.22	0.28	0.35	323813	0	83837	228207	323813	239976	902	1082	4847	251	169706	1388983	7082
12	2015-12-24 16:37:11	0	0	0	0	0	0	12.59	0.28	0.37	344777	0	93054	238321	344777	251723	969	1157	5097	259	174896	1388995	7482
13	2015-12-24 16:47:10	0	0	0	0	0	0	12.59	0.28	0.36	344777	0	93054	238321	344777	257157	969	1157	5097	259	174896	1389001	7482
14	2015-12-24 16:57:10	0	0	0	0	0	0	13.3	0.28	0.4	373652	0	106175	254338	373652	267477	1063	1252	5437	275	184699	1389010	8027
15	2015-12-24 17:07:10	0	0	0	0	0	0	13.57	0.28	0.41	383260	0	110794	263347	383260	272466	1091	1279	5564	280	188475	1389015	8214
16	2015-12-24 17:17:11	0	0	0	0	0	0	14.16	0.28	0.43	410792	0	124405	279005	410792	286387	1170	1361	5936	297	196617	1389023	8764
17	2015-12-24 17:27:10	0	0	0	0	0	0	14.15	0.28	0.43	410792	0	124405	279005	410792	286387	1170	1361	5936	297	196617	1389037	8764
18	2015-12-24 17:37:10	0	0	0	0	0	0	14.71	0.29	0.46	433547	0	135810	288044	433547	297737	1243	1396	6146	308	204369	1389046	9093
19	2015-12-24 17:47:10	0	0	0	0	0	0	15.24	0.29	0.47	450220	0	144066	302160	450220	306154	1286	1446	6450	321	211698	1389054	9503
20	2015-12-24 17:57:10	0	0	0	0	0	0	15.42	0.28	0.48	459052	0	148284	308069	459052	310768	1303	1466	6549	324	214163	1389063	9642
21	2015-12-24 18:07:10	0	0	0	0	0	0	15.72	0.28	0.49	476677	0	157143	320851	476677	319534	1328	1498	6667	327	218408	1389078	9820
22	2015-12-24 18:17:11	0	0	0	0	0	0	16.12	0.28	0.5	485423	0	161842	327475	485423	323581	1376	1559	6876	340	223874	1389081	10151
23	2015-12-24 18:27:11	0	0	0	0	0	0	16.6	0.28	0.51	502598	0	170826	339680	502598	331772	1429	1600	7096	350	230520	1389086	10475
24	2015-12-24 18:37:11	0	0	0	0	0	0	16.9	0.28	0.52	510324	0	174878	344440	510324	335446	1453	1623	7191	357	234758	1389095	10624
25	2015-12-24 18:47:11	0	0	0	0	0	0	17.15	0.28	0.54	526277	0	183515	350692	526277	342762	1497	1670	7358	372	238235	1389104	10897
26	2015-12-24 18:57:11	0	0	0	0	0	0	17.39	0.28	0.55	538666	0	190196	350692	538666	348470	1513	1694	7447	379	241571	1389111	11033
27	2015-12-24 19:07:11	0	0	0	0	0	0	17.6	0.28	0.55	545939	0	194096	362904	545939	351843	1539	1725	7621	390	244485	1389124	11275
28	2015-12-24 19:17:11	0	0	0	0	0	0	17.6	0.28	0.55	545939	0	194096	362904	545939	351843	1539	1725	7621	390	244485	1389135	11275
29	2015-12-24 19:27:11	0	0	0	0	0	0	17.9	0.28	0.56	559068	0	201331	370559	559068	357737	1564	1753	7771	394	248686	1389146	11482
30	2015-12-24 19:37:11	0	0	0	0	0	0	18.24	0.28	0.58	576571	0	211088	383368	576571	365483	1618	1799	8003	403	253413	1389156	11823
31	2015-12-24 19:47:12	0	0	0	0	0	0	18.27	0.28	0.58	582204	0	214174	386069	582204	368030	1640	1813	8076	407	253766	1389166	11936
32	2015-12-24 19:57:11	0	0	0	0	0	0	18.45	0.28	0.59	588482	0	217674	391710	588482	370808	1659	1826	8147	410	256281	1389176	12042
33	2015-12-24 20:07:11	0	0	0	0	0	0	18.69	0.28	0.6	605121	0	224419	400741	605121	376191	1698	1867	8344	421	259704	1389180	12330
34	2015-12-24 20:17:11	0	0	0	0	0	0	18.82	0.28	0.6	610122	0	229754	405875	610122	380368	1725	1879	8408	423	261387	1389188	12435
35	2015-12-24 20:27:12	0	0	0	0	0	0	19.05	0.28	0.61	620991	0	235897	411130	620991	385094	1748	1901	8529	427	264660	1389199	12605
36	2015-12-24 20:37:12	0	0	0	0	0	0	19.25	0.29	0.62	620991	0	241252	416459	620991	389765	1777	1922	8672	437	267458	1389207	12808
37	2015-12-24 20:47:13	0	0	0	0	0	0	19.39	0.28	0.62	636305	0	244099	420260	636305	392206	1788	1936	8737	441	269330	1389214	12902
38	2015-12-24 20:57:12	0	0	0	0	0	0	19.39	0.28	0.62	636305	0	244099	420260	636305	392206	1788	1936	8737	441	269330	1389221	12902
39	2015-12-24 21:07:12	0	0	0	0	0	0	19.86	0.28	0.63	652477	0	252974	433305	652477	399503	1832	1978	8926	454	275846	1389234	13190
40	2015-12-24 21:17:12	0	0	0	0	0	0	19.98	0.28	0.64	662155	0	258221	439198	662155	403934	1862	2000	9053	461	277543	1389235	13376
41	2015-12-24 21:27:12	0	0	0	0	0	0	20.13	0.28	0.65	671740	0	263506	444398	671740	408234	1883	2017	9165	466	279712	1389242	13531
42	2015-12-24 21:37:12	0	0	0	0	0	0	20.17	0.28	0.65	676841	0	266212	446738	676841	410629	1897	2034	9223	469	280275	1389249	13623
43	2015-12-24 21:47:12	0	0	0	0	0	0	20.31	0.28	0.65	684803	0	270570	450492	684803	414233	1915	2048	9320	475	282197	1389255	13758
44	2015-12-24 21:57:13	0	0	0	0	0	0	20.48	0.28	0.66	694555	0	275787	453993	694555	418768	1943	2073	9430	482	284499	1389267	13928
45	2015-12-24 22:07:13	0	0	0	0	0	0	20.48	0.28	0.66	699973	0	275787	456150	699973	418768	1943	2088	9430	487	284499	1389273	13948
46	2015-12-24 22:17:13	0	0	0	0	0	0	20.73	0.28	0.66	708190	0	282647	460778	708190	425543	1975	2107	9594	497	288050	1389282	14173
47	2015-12-24 22:27:13	0	0	0	0	0	0	20.73	0.28	0.66	708190	0	282647	460778	708190	425543	1975	2107	9594	497	288050	1389291	14173
48	2015-12-24 22:37:13	0	0	0	0	0	0	21.18	0.28	0.67	724819	0	291383	472434	724819	433436	2022	2152	9794	504	294250	1389297	14472
49	2015-12-24 22:47:13	0	0	0	0	0	0	21.18	0.28	0.67	724819	0	291383	472434	724819	433436	2022	2152	9794	504	294250	1389312	14472
50	2015-12-24 22:57:13	0	0	0	0	0	0	21.36	0.28	0.68	737128	0	297815	479712	737128	439313	2054	2179	9922	516	296731	1389314	14671
51	2015-12-24 23:07:13	0	0	0	0	0	0	21.52	0.28	0.68	744437	0	301580	483148	744437	442857	2080	2194	10007	523	298965	1389324	14804
52	2015-12-24 23:17:13	0	0	0	0	0	0	21.59	0.28	0.68	752255	0	303467	489604	752255	444623	2094	2212	10091	533	299928	1389325	14930
53	2015-12-24 23:27:14	0	0	0	0	0	0	21.76	0.28	0.69	755784	0	307660	490612	755784	448124	2123	2217	10125	534	302315	1389329	14999
54	2015-12-24 23:37:13	0	0	0	0	0	0	21.88	0.28	0.69	763477	0	311810	493663	763477	451667	2143	2237	10217	541	304037	1389331	15138
55	2015-12-24 23:47:13	0	0	0	0	0	0	21.88	0.28	0.69	763477	0	311810	493663	763477	451667	2143	2237	10217	541	304037	1389335	15138
56	2015-12-24 23:57:13	0	0	0	0	0	0	22.06	0.28	0.7	774380	0	317521	498335	774380	456859	2174	2256	10340	546	306534	1389341	15316
57	2015-12-25 00:07:13	0	0	0	0	0	0	22.22	0.28	0.7	780828	0	320897	503642	780828	459931	2189	2276	10391	549	308687	1389351	15405
58	2015-12-25 00:17:13	0	0	0	0	0	0	22.22	0.28	0.7	780828	0	320897	503642	780828	459931	2189	2276	10391	549	308687	1389350	15405
59	2015-12-25 00:27:13	0	0	0	0	0	0	22.41	0.28	0.7	793768	0	327576	509212	793768	466192	2220	2304	10520	566	311388	1389357	15610
60	2015-12-25 00:37:13	0	0	0	0	0	0	22.5	0.28	0.7	797062	0	329334	510303	797062	467728	2230	2311	10559	573	312583	1389361	15673
61	2015-12-25 00:47:14	0	0	0	0	0	0	22.65	0.28	0.71	804178	0	333135	514602	804178	471043	2250	2325	10618	579	314637	1389367	15772
62	2015-12-25 00:57:13	0	0	0	0	0	0	22.65	0.28	0.71	804178	0	333135	514602	804178	471043	2250	2325	10618	579	314637	1389367	15772
63	2015-12-25 01:07:13	0	0	0	0	0	0	22.88	0.28	0.71	814476	0	338402	521152	814476	476074	2265	2337	10709	580	317953	1389371	15891
64	2015-12-25 01:17:13	0	0	0	0	0	0	22.88	0.28	0.71	814476	0	338402	521152	814476	476074	2265	2337	10709	580	317953	1389374	15891
65	2015-12-25 01:27:13	0	0	0	0	0	0	23.02	0.28	0.71	821494	0	342039	525972	821494	479455	2299	2346	10774	581	319864	1389378	16000
66	2015-12-25 01:37:13	0	0	0	0	0	0	23.22	0.28	0.72	827383	0	345049	531114	827383	482334	2299	2351	10818	582	322614	1389389	16050
67	2015-12-25 01:47:13	0	0	0	0	0	0	23.49	0.28	0.72	837326	0	350165	536963	837326	487161	2331	2371	10905	586	326406	1389398	16193
68	2015-12-25 01:57:14	0	0	0	0	0	0	23.56	0.28	0.72	841180	0	352192	542015	841180	488988	2341	2379	10943	587	327320	1389406	16250
69	2015-12-25 02:07:13	0	0	0	0	0	0	23.56	0.28	0.72	841180	0	352192	542015	841180	488988	2341	2379	10943	587	327320	1389414	16250
70	2015-12-25 02:17:13	0	0	0	0	0	0	23.7	0.28	0.72	851201	0	357464	547593	851201	493737	2367	2397	11056	590	329322	1389423	16410
71	2015-12-25 02:27:13	0	0	0	0	0	0	23.9	0.28	0.73	858175	0	361067	550067	858175	497108	2387	2408	11139	591	332059	1389432	16525
72	2015-12-25 02:37:13	0	0	0	0	0	0	24.09	0.28	0.73	864086	0	364206	556906	864086	499880	2398	2416	11185	592	334729	1389443	16591
73	2015-12-25 02:47:13	0	0	0	0	0	0	24.09	0.28	0.73	864086	0	364206	556906	864086	499880	2398	2416	11185	592	334729	1389447	16591
74	2015-12-25 02:57:13	0	0	0	0	0	0	24.27	0.28	0.73	873630	0	369160	562087	873630	504470	2416	2432	11275	598	337217	1389455	16721
75	2015-12-25 03:07:13	0	0	0	0	0	0	24.31	0.28	0.73	879071	0	371996	563564	879071	507075	2434	2445	11342	606	337951	1390148	16827
76	2015-12-25 03:17:13	0	0	0	0	0	0	24.36	0.28	0.74	884547	0	374875	568387	884547	509672	2443	2456	11392	606	338579	1390153	16897
77	2015-12-25 03:27:13	0	0	0	0	0	0	24.36	0.28	0.74	887092	0	376268	568805	887092	510824	2443	2459	11415	607	338579	1390156	16924
78	2015-12-25 03:37:13	0	0	0	0	0	0	24.43	0.28	0.74	892167	0	379016	570794	892167	513151	2463	2468	11465	608	339571	1390158	17004
79	2015-12-25 03:47:13	0	0	0	0	0	0	24.51	0.28	0.74	895031	0	380565	572734	895031	514466	2469	2475	11507	608	340673	1390165	17059
80	2015-12-25 03:57:13	0	0	0	0	0	0	24.53	0.28	0.74	897669	0	381953	573689	897669	515716	2475	2480	11535	613	341030	1390172	17103
81	2015-12-25 04:07:13	0	0	0	0	0	0	24.71	0.27	0.74	904434	0	385701	578188	904434	518733	2486	2494	11597	614	343508	1390175	17191
82	2015-12-25 04:17:13	0	0	0	0	0	0	24.71	0.27	0.74	906563	0	386888	578404	906563	519675	2491	2495	11610	615	343508	1390181	17211
83	2015-12-25 04:27:13	0	0	0	0	0	0	24.71	0.27	0.74	906563	0	386888	578404	906563	519675	2491	2495	11610	615	343508	1390184	17211
84	2015-12-25 04:37:13	0	0	0	0	0	0	24.75	0.27	0.75	913128	0	390522	582112	913128	522606	2508	2509	11679	618	344060	1390186	17314
85	2015-12-25 04:47:13	0	0	0	0	0	0	24.75	0.27	0.75	913128	0	390522	582112	913128	522606	2508	2509	11679	618	344060	1390191	17314
86	2015-12-25 04:57:13	0	0	0	0	0	0	24.8	0.27	0.75	918221	0	392424	585054	918221	524192	2512	2516	11727	620	344788	1390192	17375
87	2015-12-25 05:07:13	0	0	0	0	0	0	24.86	0.27	0.75	920978	0	394860	585580	920978	526118	2520	2518	11733	620	345558	1390194	17391
88	2015-12-25 05:17:13	0	0	0	0	0	0	24.86	0.27	0.75	920978	0	394860	585580	920978	526118	2520	2521	11733	621	345558	1390199	17395
89	2015-12-25 05:27:13	0	0	0	0	0	0	24.9	0.27	0.75	924513	0	396834	586773	924513	527679	2531	2522	11785	622	346137	1390200	17460
90	2015-12-25 05:37:13	0	0	0	0	0	0	24.91	0.27	0.75	925546	0	397408	587162	925546	528138	2539	2522	11788	622	346292	1390199	17471
91	2015-12-25 05:47:13	0	0	0	0	0	0	24.91	0.27	0.75	925546	0	397408	587162	925546	528138	2544	2522	11788	622	346292	1390201	17476
92	2015-12-25 05:57:13	0	0	0	0	0	0	24.91	0.27	0.75	927506	0	398502	588949	927506	529004	2549	2524	11811	624	346292	1390204	17508
93	2015-12-25 06:07:13	0	0	0	0	0	0	24.97	0.27	0.75	930201	0	399980	591113	930201	530221	2552	2532	11831	626	347195	1390205	17541
94	2015-12-25 06:17:13	0	0	0	0	0	0	24.98	0.27	0.76	931781	0	400874	591283	931781	530907	2554	2533	11850	626	347273	1390208	17563
95	2015-12-25 06:27:13	0	0	0	0	0	0	24.98	0.27	0.76	932405	0	401246	591283	932405	531159	2555	2533	11859	627	347273	1390210	17574
96	2015-12-25 06:37:13	0	0	0	0	0	0	24.98	0.27	0.76	932405	0	401246	591283	932405	531159	2555	2533	11859	627	347273	1390210	17574
97	2015-12-25 06:47:13	0	0	0	0	0	0	25.01	0.27	0.76	934359	0	402361	592400	934359	531998	2560	2534	11872	627	347741	1390212	17593
98	2015-12-25 06:57:13	0	0	0	0	0	0	25.01	0.27	0.76	935459	0	402997	592797	935459	532462	2566	2536	11879	627	347741	1390214	17608
99	2015-12-25 07:07:13	0	0	0	0	0	0	25.04	0.27	0.76	935983	0	403308	592797	935983	532675	2567	2537	11886	627	348053	1390215	17617
100	2015-12-25 07:17:14	0	0	0	0	0	0	25.07	0.27	0.76	937331	0	404106	593208	937331	533225	2571	2539	11900	627	348582	1390216	17637
101	2015-12-25 07:27:13	0	0	0	0	0	0	25.07	0.27	0.76	937331	0	404106	593208	937331	533225	2571	2539	11900	627	348582	1390217	17637
102	2015-12-25 07:37:13	0	0	0	0	0	0	25.07	0.27	0.76	938765	0	404978	593891	938765	533787	2578	2541	11911	628	348582	1390218	17658
103	2015-12-25 07:47:13	0	0	0	0	0	0	25.07	0.27	0.76	939731	0	404978	594119	939731	533787	2579	2544	11916	629	348582	1390219	17668
104	2015-12-25 07:57:13	0	0	0	0	0	0	25.07	0.27	0.76	940235	0	405857	594461	940235	534378	2580	2544	11932	630	348582	1390217	17686
105	2015-12-25 08:07:13	0	0	0	0	0	0	25.07	0.27	0.76	941301	0	406501	595834	941301	534800	2586	2546	11939	630	348582	1390215	17701
106	2015-12-25 08:17:14	0	0	0	0	0	0	25.12	0.27	0.76	941887	0	406878	597184	941887	535009	2588	2548	11950	630	349211	1390217	17716
107	2015-12-25 08:27:13	0	0	0	0	0	0	25.12	0.28	0.76	943092	0	407600	598136	943092	535492	2594	2551	11960	633	349211	1390216	17738
108	2015-12-25 08:37:13	0	0	0	0	0	0	25.14	0.27	0.76	944370	0	408341	599468	944370	536029	2597	2552	11972	634	349527	1390214	17755
109	2015-12-25 08:47:14	0	0	0	0	0	0	25.16	0.27	0.76	945175	0	408814	600165	945175	536361	2599	2556	11981	634	349764	1390216	17770
110	2015-12-25 08:57:13	0	0	0	0	0	0	25.22	0.27	0.76	947341	0	409663	601469	947341	537203	2602	2557	11994	635	350553	1390215	17788
111	2015-12-25 09:07:14	0	0	0	0	0	0	25.22	0.28	0.76	948269	0	410716	601820	948269	537553	2608	2563	12005	636	350553	1390215	17812
112	2015-12-25 09:17:14	0	0	0	0	0	0	25.26	0.28	0.77	950070	0	411835	602992	950070	538235	2614	2567	12019	636	351209	1390223	17836
113	2015-12-25 09:27:13	0	0	0	0	0	0	25.26	0.28	0.77	950070	0	411835	602992	950070	538235	2624	2567	12019	636	351209	1390227	17846
114	2015-12-25 09:37:14	0	0	0	0	0	0	25.38	0.28	0.77	953365	0	413827	604552	953365	539538	2626	2572	12057	639	352810	1390231	17894
115	2015-12-25 09:47:14	0	0	0	0	0	0	25.42	0.28	0.77	956070	0	415418	605424	956070	540652	2633	2577	12073	643	353414	1390232	17926
116	2015-12-25 09:57:14	0	0	0	0	0	0	25.42	0.28	0.77	956070	0	415418	605424	956070	540652	2634	2577	12073	643	353414	1390233	17927
117	2015-12-25 10:07:14	0	0	0	0	0	0	25.47	0.27	0.77	960186	0	417832	610437	960186	542354	2634	2590	12117	648	354142	1390236	17989
118	2015-12-25 10:17:13	0	0	0	0	0	0	25.49	0.28	0.77	961936	0	418812	611484	961936	543124	2650	2593	12142	649	354375	1390240	18034
119	2015-12-25 10:27:14	0	0	0	0	0	0	25.53	0.28	0.77	965574	0	420850	613361	965574	544724	2664	2598	12187	651	354903	1390243	18100
120	2015-12-25 10:37:14	0	0	0	0	0	0	25.54	0.28	0.77	969099	0	422789	614030	969099	546310	2674	2600	12213	656	355127	1390247	18143
121	2015-12-25 10:47:15	0	0	0	0	0	0	25.58	0.28	0.77	971178	0	423944	614701	971178	547234	2693	2610	12266	658	355596	1390254	18227
122	2015-12-25 10:57:14	0	0	0	0	0	0	25.58	0.28	0.77	971178	0	423944	614701	971178	547234	2693	2610	12266	658	355596	1390256	18227
123	2015-12-25 11:07:14	0	0	0	0	0	0	25.79	0.28	0.78	976760	0	427054	620739	976760	549706	2706	2623	12343	662	358560	1390257	18334
124	2015-12-25 11:17:15	0	0	0	0	0	0	25.82	0.28	0.78	981262	0	429526	622760	981262	551736	2733	2628	12391	668	358909	1390265	18420
125	2015-12-25 11:27:15	0	0	0	0	0	0	25.82	0.28	0.78	981262	0	429526	626010	981262	551736	2733	2628	12391	668	358909	1390275	18420
126	2015-12-25 11:37:15	0	0	0	0	0	0	26.02	0.28	0.78	987031	0	432862	628616	987031	554169	2750	2641	12451	672	361781	1390278	18514
127	2015-12-25 11:47:15	0	0	0	0	0	0	26.04	0.28	0.78	991584	0	435511	630728	991584	556073	2771	2647	12503	678	362035	1390284	18599
128	2015-12-25 11:57:15	0	0	0	0	0	0	26.11	0.28	0.79	996455	0	438330	634022	996455	558125	2779	2659	12564	682	362979	1390287	18684
129	2015-12-25 12:07:16	0	0	0	0	0	0	26.11	0.28	0.79	996455	0	438330	634022	996455	558125	2779	2659	12564	682	362979	1390288	18684
130	2015-12-25 12:17:16	0	0	0	0	0	0	26.26	0.28	0.79	1002932	0	442074	634639	1002932	560858	2802	2665	12637	683	365162	1390302	18787
131	2015-12-25 12:27:15	0	0	0	0	0	0	26.29	0.28	0.79	1005314	0	443503	637383	1005314	561811	2811	2669	12663	685	365486	1390311	18828
132	2015-12-25 12:37:15	0	0	0	0	0	0	26.29	0.28	0.79	1009942	0	446340	638162	1009942	563602	2828	2679	12722	688	365569	1390312	18917
133	2015-12-25 12:47:16	0	0	0	0	0	0	26.33	0.28	0.79	1011879	0	447485	641268	1011879	564394	2835	2681	12742	688	366023	1390322	18946
134	2015-12-25 12:57:16	0	0	0	0	0	0	26.41	0.28	0.8	1017657	0	450934	644137	1017657	566723	2856	2693	12803	693	367239	1390322	19045
135	2015-12-25 13:07:16	0	0	0	0	0	0	26.44	0.28	0.8	1019483	0	452042	644137	1019483	567441	2860	2694	12830	697	367587	1390329	19081
136	2015-12-25 13:17:16	0	0	0	0	0	0	26.49	0.28	0.8	1023391	0	454445	644874	1023391	568946	2871	2699	12874	699	368331	1390337	19143
137	2015-12-25 13:27:16	0	0	0	0	0	0	26.51	0.28	0.8	1027076	0	455556	646423	1027076	570360	2873	2704	12898	701	368616	1390348	19176
138	2015-12-25 13:37:16	0	0	0	0	0	0	26.54	0.28	0.8	1030846	0	458986	648551	1030846	571860	2884	2715	12960	708	369044	1390358	19267
139	2015-12-25 13:47:16	0	0	0	0	0	0	26.56	0.28	0.8	1032797	0	460189	648551	1032797	572608	2886	2718	12979	710	369220	1390359	19293
140	2015-12-25 13:57:16	0	0	0	0	0	0	26.57	0.28	0.81	1037195	0	462920	649827	1037195	574275	2896	2724	13033	715	369391	1390369	19368
141	2015-12-25 14:07:16	0	0	0	0	0	0	26.64	0.28	0.81	1040598	0	464976	650339	1040598	575622	2910	2729	13072	717	370440	1390384	19428
142	2015-12-25 14:17:16	0	0	0	0	0	0	26.77	0.28	0.81	1042168	0	465915	654255	1042168	576253	2917	2730	13072	718	372266	1390397	19437
143	2015-12-25 14:27:17	0	0	0	0	0	0	26.83	0.28	0.81	1046118	0	468238	654255	1046118	577880	2931	2739	13132	723	373029	1390412	19525
144	2015-12-25 14:37:17	0	0	0	0	0	0	26.88	0.28	0.81	1048217	0	469518	657267	1048217	578699	2940	2743	13152	723	373772	1390431	19558
145	2015-12-25 14:47:17	0	0	0	0	0	0	27.05	0.28	0.81	1051720	0	471621	659226	1051720	580099	2950	2754	13195	725	376179	1390442	19624
146	2015-12-25 14:57:17	0	0	0	0	0	0	27.1	0.28	0.81	1051720	0	473838	660122	1051720	581626	2950	2763	13234	726	376820	1390452	19673
147	2015-12-25 15:07:17	0	0	0	0	0	0	27.19	0.28	0.82	1059061	0	476014	663873	1059061	583047	2970	2770	13272	730	378016	1390468	19742
148	2015-12-25 15:17:18	0	0	0	0	0	0	27.21	0.28	0.82	1060584	0	476950	666006	1060584	583634	2974	2774	13290	731	378382	1390479	19769
149	2015-12-25 15:27:18	0	0	0	0	0	0	27.21	0.28	0.82	1060584	0	476950	666006	1060584	583634	2974	2774	13290	731	378382	1390489	19769
150	2015-12-25 15:37:17	0	0	0	0	0	0	27.29	0.28	0.82	1067140	0	481111	667365	1067140	586029	2997	2789	13357	733	379402	1390506	19876
151	2015-12-25 15:47:18	0	0	0	0	0	0	27.28	0.28	0.82	1068511	0	482012	667365	1068511	586499	3000	2797	13374	733	379402	1390516	19904
152	2015-12-25 15:57:18	0	0	0	0	0	0	27.3	0.28	0.82	1071474	0	483905	668193	1071474	587569	3014	2800	13404	737	379588	1390525	19955
153	2015-12-25 16:07:17	0	0	0	0	0	0	27.36	0.28	0.83	1074303	0	485720	671381	1074303	588583	3021	2806	13440	739	380486	1390529	20006
154	2015-12-25 16:17:18	0	0	0	0	0	0	27.36	0.28	0.83	1075812	0	486698	671381	1075812	589114	3023	2809	13455	740	380486	1390535	20027
155	2015-12-25 16:27:18	0	0	0	0	0	0	27.46	0.28	0.83	1078735	0	488612	673425	1078735	590123	3030	2820	13490	740	381847	1390543	20080
156	2015-12-25 16:37:19	0	0	0	0	0	0	27.46	0.28	0.83	1078735	0	490483	673425	1078735	591017	3037	2825	13490	740	381847	1390550	20092
157	2015-12-25 16:47:18	0	0	0	0	0	0	27.51	0.28	0.83	1082765	0	491366	676663	1082765	591399	3047	2826	13526	747	382567	1390563	20146
158	2015-12-25 16:57:18	0	0	0	0	0	0	27.61	0.28	0.83	1085150	0	492994	680212	1085150	592156	3060	2831	13552	754	383889	1390571	20197
159	2015-12-25 17:07:18	0	0	0	0	0	0	27.61	0.28	0.83	1087653	0	494732	681372	1087653	592921	3064	2837	13576	758	383984	1390579	20235
160	2015-12-25 17:17:20	0	0	0	0	0	0	27.61	0.28	0.84	1088601	0	495384	681372	1088601	593217	3067	2840	13581	758	383984	1390578	20246
161	2015-12-25 17:27:20	0	0	0	0	0	0	27.66	0.28	0.84	1090929	0	496947	683101	1090929	593982	3077	2843	13603	758	384604	1390587	20281
162	2015-12-25 17:37:20	0	0	0	0	0	0	27.7	0.28	0.84	1093107	0	498356	684157	1093107	594751	3083	2847	13629	762	385178	1390597	20321
163	2015-12-25 17:47:20	0	0	0	0	0	0	27.75	0.28	0.84	1095334	0	499822	685615	1095334	595512	3084	2849	13641	762	385958	1390604	20336
164	2015-12-25 17:57:20	0	0	0	0	0	0	27.77	0.28	0.84	1096395	0	500501	686223	1096395	595894	3087	2850	13653	762	386199	1390612	20352
165	2015-12-25 18:07:20	0	0	0	0	0	0	27.8	0.28	0.84	1098628	0	501969	688072	1098628	596659	3096	2851	13677	764	386536	1390620	20388
166	2015-12-25 18:17:20	0	0	0	0	0	0	27.8	0.28	0.84	1099678	0	502658	688072	1099678	597020	3097	2851	13690	766	386536	1390629	20404
167	2015-12-25 18:27:19	0	0	0	0	0	0	27.8	0.28	0.84	1099678	0	502658	688072	1099678	597020	3097	2851	13690	766	386536	1390639	20404
168	2015-12-25 18:37:19	0	0	0	0	0	0	27.86	0.28	0.84	1104072	0	505536	689835	1104072	598536	3105	2869	13750	774	387492	1390648	20498
169	2015-12-25 18:47:19	0	0	0	0	0	0	27.87	0.28	0.85	1105048	0	506234	690450	1105048	598814	3107	2871	13760	774	387516	1390657	20512
170	2015-12-25 18:57:20	0	0	0	0	0	0	27.87	0.28	0.85	1106985	0	507600	691221	1106985	599385	3113	2878	13785	775	387516	1390661	20551
171	2015-12-25 19:07:18	0	0	0	0	0	0	27.87	0.28	0.85	1106985	0	507600	691221	1106985	599385	3113	2878	13785	775	387516	1390669	20551
172	2015-12-25 19:17:20	0	0	0	0	0	0	27.92	0.28	0.85	1111205	0	510507	691916	1111205	600698	3131	2888	13828	777	388318	1390668	20624
173	2015-12-25 19:27:20	0	0	0	0	0	0	27.92	0.28	0.85	1112165	0	511130	691916	1112165	601035	3133	2890	13838	779	388318	1390680	20640
174	2015-12-25 19:37:19	0	0	0	0	0	0	27.92	0.28	0.85	1114492	0	512696	692148	1114492	601796	3148	2893	13867	780	388318	1390692	20688
175	2015-12-25 19:47:20	0	0	0	0	0	0	27.95	0.28	0.85	1115551	0	513381	692303	1115551	602170	3155	2893	13877	780	388659	1390701	20705
176	2015-12-25 19:57:20	0	0	0	0	0	0	28.02	0.28	0.85	1117372	0	514551	693233	1117372	602821	3162	2901	13899	781	389637	1390715	20743
177	2015-12-25 20:07:20	0	0	0	0	0	0	28.03	0.28	0.85	1119481	0	515914	693388	1119481	603567	3166	2903	13930	783	389883	1390726	20782
178	2015-12-25 20:17:21	0	0	0	0	0	0	28.03	0.28	0.86	1120561	0	516590	694321	1120561	603971	3171	2905	13938	786	389883	1390732	20800
179	2015-12-25 20:27:19	0	0	0	0	0	0	28.06	0.28	0.86	1120561	0	516590	694321	1120561	603971	3182	2905	13938	786	390276	1390737	20811
180	2015-12-25 20:37:20	0	0	0	0	0	0	28.06	0.28	0.86	1124770	0	519422	695569	1124770	605348	3190	2913	13993	789	390276	1390741	20885
181	2015-12-25 20:47:20	0	0	0	0	0	0	28.06	0.28	0.86	1125974	0	520211	698078	1125974	605763	3192	2914	14012	790	390276	1390749	20908
182	2015-12-25 20:57:20	0	0	0	0	0	0	28.07	0.28	0.86	1128163	0	521623	698393	1128163	606540	3197	2915	14037	792	390374	1390755	20941
183	2015-12-25 21:07:20	0	0	0	0	0	0	28.11	0.28	0.86	1130397	0	522337	700585	1130397	606915	3197	2916	14049	794	390966	1390764	20956
184	2015-12-25 21:17:21	0	0	0	0	0	0	28.12	0.28	0.86	1131524	0	523857	701140	1131524	607667	3206	2926	14084	794	391064	1390779	21010
185	2015-12-25 21:27:21	0	0	0	0	0	0	28.19	0.28	0.86	1133711	0	525342	702801	1133711	608369	3216	2931	14112	795	392052	1390791	21054
186	2015-12-25 21:37:20	0	0	0	0	0	0	28.19	0.28	0.86	1134729	0	526024	702801	1134729	608705	3220	2934	14130	801	392052	1390802	21085
187	2015-12-25 21:47:20	0	0	0	0	0	0	28.22	0.28	0.87	1137023	0	527557	703280	1137023	609466	3224	2942	14159	806	392449	1390809	21131
188	2015-12-25 21:57:19	0	0	0	0	0	0	28.24	0.28	0.87	1138200	0	528354	704881	1138200	609846	3228	2947	14173	807	392748	1390817	21155
189	2015-12-25 22:07:21	0	0	0	0	0	0	28.28	0.28	0.87	1140142	0	529658	706711	1140142	610484	3233	2950	14197	810	393365	1390825	21190
190	2015-12-25 22:17:22	0	0	0	0	0	0	28.34	0.28	0.87	1142167	0	530406	706771	1142167	610799	3238	2951	14213	810	394160	1390834	21212
191	2015-12-25 22:27:21	0	0	0	0	0	0	28.34	0.28	0.87	1142167	0	531912	706771	1142167	611391	3243	2955	14232	811	394160	1390846	21241
192	2015-12-25 22:37:19	0	0	0	0	0	0	28.34	0.28	0.87	1145374	0	531912	706771	1145374	611391	3243	2955	14232	811	394160	1390860	21241
193	2015-12-25 22:47:20	0	0	0	0	0	0	28.41	0.28	0.87	1147437	0	534705	710328	1147437	612732	3257	2963	14276	814	395163	1390868	21310
194	2015-12-25 22:57:21	0	0	0	0	0	0	28.41	0.28	0.87	1147437	0	534705	710328	1147437	612732	3257	2963	14276	814	395163	1390877	21310
195	2015-12-25 23:07:21	0	0	0	0	0	0	28.44	0.28	0.87	1150228	0	536571	711369	1150228	613657	3265	2968	14300	817	395637	1390886	21350
196	2015-12-25 23:17:22	0	0	0	0	0	0	28.47	0.28	0.88	1151948	0	537687	712858	1151948	614261	3268	2970	14318	818	395965	1390894	21374
197	2015-12-25 23:27:22	0	0	0	0	0	0	28.47	0.28	0.88	1153004	0	538360	714091	1153004	614644	3274	2970	14331	820	395965	1390910	21395
198	2015-12-25 23:37:21	0	0	0	0	0	0	28.47	0.28	0.88	1154038	0	539011	714750	1154038	615027	3276	2971	14341	822	395965	1390916	21410
199	2015-12-25 23:47:21	0	0	0	0	0	0	28.49	0.28	0.88	1155894	0	540235	715370	1155894	615659	3285	2977	14361	826	396333	1390925	21449
200	2015-12-25 23:57:22	0	0	0	0	0	0	28.51	0.28	0.88	1157448	0	541285	715525	1157448	616163	3289	2981	14381	826	396536	1390930	21477
201	2015-12-26 00:07:21	0	0	0	0	0	0	28.51	0.28	0.88	1157448	0	541285	715525	1157448	616163	3289	2981	14381	826	396536	1390936	21477
202	2015-12-26 00:17:21	0	0	0	0	0	0	28.52	0.28	0.88	1159868	0	542905	715855	1159868	616963	3302	2985	14399	827	396638	1390941	21513
203	2015-12-26 00:27:22	0	0	0	0	0	0	28.52	0.28	0.88	1161300	0	543843	718341	1161300	617457	3304	2987	14418	827	396638	1390944	21536
204	2015-12-26 00:37:21	0	0	0	0	0	0	28.52	0.28	0.88	1161300	0	543843	718341	1161300	617457	3304	2987	14418	827	396638	1390950	21536
205	2015-12-26 00:47:22	0	0	0	0	0	0	28.52	0.28	0.88	1163243	0	545119	719824	1163243	618124	3312	2991	14447	828	396688	1390951	21578
206	2015-12-26 00:57:20	0	0	0	0	0	0	28.58	0.29	0.88	1164654	0	546062	721417	1164654	618592	3324	2991	14467	828	397580	1390957	21610
207	2015-12-26 01:07:21	0	0	0	0	0	0	28.59	0.29	0.88	1165225	0	546450	721669	1165225	618775	3327	2992	14473	828	397656	1390970	21620
208	2015-12-26 01:17:20	0	0	0	0	0	0	28.59	0.29	0.88	1166838	0	547570	722300	1166838	619268	3331	2996	14498	830	397656	1390983	21655
209	2015-12-26 01:27:21	0	0	0	0	0	0	28.59	0.29	0.88	1167357	0	547919	722342	1167357	619438	3332	2997	14504	830	397656	1390987	21663
210	2015-12-26 01:37:21	0	0	0	0	0	0	28.59	0.29	0.89	1168277	0	548516	722511	1168277	619761	3335	3001	14513	830	397656	1390996	21679
211	2015-12-26 01:47:21	0	0	0	0	0	0	28.59	0.29	0.89	1168718	0	548798	722511	1168718	619920	3337	3001	14519	830	397656	1391005	21687
212	2015-12-26 01:57:21	0	0	0	0	0	0	28.59	0.29	0.89	1169620	0	549384	722511	1169620	620236	3339	3003	14534	830	397656	1391016	21706
213	2015-12-26 02:07:22	0	0	0	0	0	0	28.59	0.29	0.89	1170444	0	549907	724116	1170444	620537	3340	3004	14545	831	397656	1391029	21720
214	2015-12-26 02:17:22	0	0	0	0	0	0	28.59	0.29	0.89	1170444	0	549907	724116	1170444	620537	3340	3004	14545	831	397656	1391036	21720
215	2015-12-26 02:27:21	0	0	0	0	0	0	28.59	0.29	0.89	1171092	0	550337	724116	1171092	620755	3343	3006	14548	831	397656	1391045	21728
216	2015-12-26 02:37:21	0	0	0	0	0	0	28.59	0.29	0.89	1171835	0	550861	724625	1171835	620974	3344	3009	14560	831	397656	1391055	21744
217	2015-12-26 02:47:21	0	0	0	0	0	0	28.62	0.29	0.89	1172258	0	551135	724625	1172258	621123	3348	3009	14564	831	398065	1391056	21752
218	2015-12-26 02:57:20	0	0	0	0	0	0	28.62	0.29	0.89	1172509	0	551299	724625	1172509	621210	3348	3009	14570	831	398065	1391059	21758
219	2015-12-26 03:07:21	0	0	0	0	0	0	28.6	0.29	0.89	1172924	0	551612	724625	1172924	621312	3350	3011	14584	831	398091	1391875	21776
220	2015-12-26 03:17:22	0	0	0	0	0	0	28.6	0.29	0.89	1173102	0	551751	724625	1173102	621351	3350	3011	14589	831	398091	1391880	21781
221	2015-12-26 03:27:22	0	0	0	0	0	0	28.6	0.29	0.89	1173102	0	551751	724625	1173102	621351	3350	3011	14589	831	398091	1391886	21781
222	2015-12-26 03:37:22	0	0	0	0	0	0	28.6	0.29	0.89	1173637	0	552193	724625	1173637	621444	3355	3014	14597	832	398091	1391889	21798
223	2015-12-26 03:47:21	0	0	0	0	0	0	28.6	0.29	0.89	1173736	0	552275	724625	1173736	621461	3355	3014	14600	834	398091	1391890	21803
224	2015-12-26 03:57:22	0	0	0	0	0	0	28.6	0.29	0.89	1173736	0	552275	724625	1173736	621461	3355	3014	14600	834	398091	1391893	21803
225	2015-12-26 04:07:21	0	0	0	0	0	0	28.6	0.29	0.89	1174020	0	552520	724773	1174020	621500	3358	3014	14604	834	398091	1391894	21810
226	2015-12-26 04:17:21	0	0	0	0	0	0	28.6	0.29	0.89	1174178	0	552661	724773	1174178	621517	3358	3015	14605	834	398091	1391896	21812
227	2015-12-26 04:27:22	0	0	0	0	0	0	28.6	0.29	0.89	1174348	0	552805	724773	1174348	621543	3358	3016	14609	834	398091	1391901	21817
228	2015-12-26 04:37:23	0	0	0	0	0	0	28.6	0.29	0.89	1174485	0	552919	725028	1174485	621566	3358	3016	14610	834	398091	1391903	21818
229	2015-12-26 04:47:21	0	0	0	0	0	0	28.63	0.29	0.89	1174568	0	552989	725028	1174568	621579	3359	3016	14611	834	398501	1391903	21820
230	2015-12-26 04:57:21	0	0	0	0	0	0	28.63	0.29	0.89	1174690	0	553099	725028	1174690	621591	3359	3016	14612	834	398501	1391904	21821
231	2015-12-26 05:07:22	0	0	0	0	0	0	28.63	0.29	0.89	1174794	0	553187	725028	1174794	621607	3359	3016	14615	834	398501	1391903	21824
232	2015-12-26 05:17:20	0	0	0	0	0	0	28.63	0.29	0.89	1174794	0	553187	725028	1174794	621607	3359	3016	14616	834	398501	1391904	21825
233	2015-12-26 05:27:21	0	0	0	0	0	0	28.63	0.29	0.89	1174939	0	553317	725028	1174939	621622	3359	3016	14616	834	398501	1391908	21825
234	2015-12-26 05:37:22	0	0	0	0	0	0	28.63	0.29	0.89	1174994	0	553366	725028	1174994	621628	3359	3016	14617	835	398501	1391908	21827
235	2015-12-26 05:47:21	0	0	0	0	0	0	28.63	0.29	0.89	1175035	0	553403	725028	1175035	621632	3360	3016	14617	835	398501	1391909	21828
236	2015-12-26 05:57:21	0	0	0	0	0	0	28.63	0.29	0.89	1175137	0	553494	725028	1175137	621643	3360	3016	14618	835	398501	1391910	21829
237	2015-12-26 06:07:21	0	0	0	0	0	0	28.63	0.29	0.89	1175230	0	553572	725028	1175230	621658	3360	3016	14618	835	398501	1391912	21829
238	2015-12-26 06:17:20	0	0	0	0	0	0	28.63	0.29	0.89	1175230	0	553572	725028	1175230	621658	3360	3016	14618	835	398501	1391910	21829
239	2015-12-26 06:27:22	0	0	0	0	0	0	28.63	0.29	0.89	1175388	0	553707	725028	1175388	621681	3360	3016	14621	835	398501	1391906	21832
240	2015-12-26 06:37:21	0	0	0	0	0	0	28.63	0.29	0.89	1175474	0	553783	725028	1175474	621691	3360	3017	14624	835	398501	1391907	21836
241	2015-12-26 06:47:22	0	0	0	0	0	0	28.63	0.29	0.89	1175565	0	553868	725028	1175565	621697	3360	3017	14625	836	398501	1391908	21838
242	2015-12-26 06:57:23	0	0	0	0	0	0	28.63	0.29	0.89	1175662	0	553956	725028	1175662	621706	3360	3017	14625	836	398501	1391908	21838
243	2015-12-26 07:07:21	0	0	0	0	0	0	28.63	0.29	0.89	1175662	0	553956	725028	1175662	621706	3360	3017	14625	836	398501	1391910	21838
244	2015-12-26 07:17:21	0	0	0	0	0	0	28.63	0.29	0.89	1175840	0	554111	725028	1175840	621729	3361	3017	14629	836	398501	1391909	21843
245	2015-12-26 07:27:21	0	0	0	0	0	0	28.63	0.29	0.89	1175988	0	554244	725028	1175988	621744	3361	3017	14629	836	398501	1391907	21843
246	2015-12-26 07:37:22	0	0	0	0	0	0	28.63	0.29	0.89	1176112	0	554350	725028	1176112	621762	3361	3017	14632	836	398501	1391908	21846
247	2015-12-26 07:47:21	0	0	0	0	0	0	28.63	0.29	0.89	1176112	0	554350	725028	1176112	621762	3361	3017	14632	836	398501	1391907	21846
248	2015-12-26 07:57:23	0	0	0	0	0	0	28.63	0.29	0.89	1176320	0	554534	725028	1176320	621786	3363	3018	14634	836	398501	1391906	21851
249	2015-12-26 08:07:22	0	0	0	0	0	0	28.63	0.29	0.89	1176320	0	554534	725028	1176320	621786	3363	3018	14634	836	398501	1391905	21851
250	2015-12-26 08:17:21	0	0	0	0	0	0	28.63	0.29	0.89	1176688	0	554856	725112	1176688	621832	3366	3019	14647	836	398501	1391907	21868
251	2015-12-26 08:27:22	0	0	0	0	0	0	28.63	0.29	0.89	1176892	0	555036	725112	1176892	621856	3366	3019	14647	836	398501	1391909	21868
252	2015-12-26 08:37:21	0	0	0	0	0	0	28.63	0.29	0.89	1176892	0	555036	725112	1176892	621856	3366	3019	14647	836	398501	1391913	21868
253	2015-12-26 08:47:24	0	0	0	0	0	0	28.63	0.29	0.89	1177173	0	555273	725112	1177173	621900	3370	3021	14651	836	398501	1391916	21878
254	2015-12-26 08:57:21	0	0	0	0	0	0	28.63	0.29	0.89	1177450	0	555513	725112	1177450	621937	3370	3022	14662	837	398501	1391920	21891
255	2015-12-26 09:07:23	0	0	0	0	0	0	28.63	0.29	0.89	1177734	0	555762	725112	1177734	621972	3374	3022	14665	837	398501	1391928	21898
256	2015-12-26 09:17:22	0	0	0	0	0	0	28.63	0.29	0.89	1177734	0	555762	725112	1177734	621972	3374	3022	14665	837	398501	1391932	21898
257	2015-12-26 09:27:22	0	0	0	0	0	0	28.63	0.29	0.89	1178414	0	556373	725112	1178414	622041	3376	3023	14676	837	398501	1391932	21912
258	2015-12-26 09:37:21	0	0	0	0	0	0	28.63	0.29	0.89	1178627	0	556553	725112	1178627	622074	3376	3023	14678	837	398501	1391939	21914
259	2015-12-26 09:47:23	0	0	0	0	0	0	28.63	0.29	0.9	1178964	0	556851	725282	1178964	622113	3377	3023	14681	838	398501	1391943	21919
260	2015-12-26 09:57:22	0	0	0	0	0	0	28.63	0.29	0.9	1179194	0	557054	725282	1179194	622140	3378	3023	14682	838	398501	1391946	21921
261	2015-12-26 10:07:23	0	0	0	0	0	0	28.69	0.29	0.9	1179763	0	557546	728857	1179763	622217	3382	3027	14689	839	399320	1391947	21937
262	2015-12-26 10:17:22	0	0	0	0	0	0	28.69	0.29	0.9	1179763	0	557546	728857	1179763	622217	3382	3027	14689	839	399320	1391955	21937
263	2015-12-26 10:27:22	0	0	0	0	0	0	28.69	0.29	0.9	1180233	0	557961	729458	1180233	622272	3383	3029	14698	839	399320	1391962	21949
264	2015-12-26 10:37:22	0	0	0	0	0	0	28.69	0.29	0.9	1180748	0	558420	729458	1180748	622328	3385	3030	14704	839	399320	1391967	21958
265	2015-12-26 10:47:23	0	0	0	0	0	0	28.69	0.29	0.9	1181188	0	558820	729458	1181188	622368	3386	3030	14712	839	399320	1391968	21967
266	2015-12-26 10:57:22	0	0	0	0	0	0	28.69	0.29	0.9	1181188	0	558820	729458	1181188	622368	3386	3030	14712	839	399320	1391972	21967
267	2015-12-26 11:07:22	0	0	0	0	0	0	28.69	0.29	0.9	1182037	0	559572	729630	1182037	622465	3388	3032	14723	839	399320	1391984	21982
268	2015-12-26 11:17:21	0	0	0	0	0	0	28.69	0.29	0.9	1182477	0	559968	729630	1182477	622509	3391	3032	14729	839	399320	1391993	21991
269	2015-12-26 11:27:22	0	0	0	0	0	0	28.69	0.29	0.9	1182477	0	559968	729630	1182477	622509	3391	3032	14729	839	399320	1391995	21991
270	2015-12-26 11:37:21	0	0	0	0	0	0	28.69	0.29	0.9	1183120	0	560535	730641	1183120	622585	3393	3032	14739	839	399320	1391993	22003
271	2015-12-26 11:47:21	0	0	0	0	0	0	28.69	0.29	0.9	1183522	0	560883	730965	1183522	622639	3393	3034	14744	839	399320	1391993	22010
272	2015-12-26 11:57:21	0	0	0	0	0	0	28.69	0.29	0.9	1183522	0	560883	730965	1183522	622639	3393	3034	14744	839	399320	1392001	22010
273	2015-12-26 12:07:23	0	0	0	0	0	0	28.69	0.29	0.9	1184157	0	561454	730965	1184157	622703	3395	3035	14749	841	399320	1392000	22020
274	2015-12-26 12:17:21	0	0	0	0	0	0	28.69	0.29	0.9	1184554	0	561804	730965	1184554	622750	3395	3038	14760	842	399320	1392010	22035
275	2015-12-26 12:27:22	0	0	0	0	0	0	28.69	0.29	0.9	1184762	0	561993	730965	1184762	622769	3395	3038	14763	842	399320	1392014	22038
276	2015-12-26 12:37:21	0	0	0	0	0	0	28.69	0.29	0.9	1184762	0	562321	730965	1184762	622769	3396	3038	14763	842	399320	1392018	22039
277	2015-12-26 12:47:22	0	0	0	0	0	0	28.69	0.29	0.9	1185463	0	562621	731656	1185463	622842	3397	3038	14772	843	399320	1392020	22050
278	2015-12-26 12:57:22	0	0	0	0	0	0	28.69	0.29	0.9	1185637	0	562773	731656	1185637	622864	3397	3038	14772	843	399320	1392027	22050
279	2015-12-26 13:07:23	0	0	0	0	0	0	28.69	0.29	0.9	1185944	0	563034	731656	1185944	622910	3398	3038	14776	843	399320	1392025	22055
280	2015-12-26 13:17:22	0	0	0	0	0	0	28.69	0.29	0.9	1185944	0	563034	731656	1185944	622910	3398	3038	14776	843	399320	1392027	22055
281	2015-12-26 13:27:23	0	0	0	0	0	0	28.69	0.29	0.9	1186412	0	563445	732998	1186412	622967	3399	3039	14784	844	399320	1392039	22066
282	2015-12-26 13:37:24	0	0	0	0	0	0	28.69	0.29	0.9	1186804	0	563794	732998	1186804	623010	3400	3039	14788	844	399320	1392056	22071
283	2015-12-26 13:47:23	0	0	0	0	0	0	28.69	0.29	0.9	1186804	0	563794	732998	1186804	623010	3400	3039	14788	844	399320	1392074	22071
284	2015-12-26 13:57:24	0	0	0	0	0	0	28.68	0.29	0.91	1187282	0	564223	732998	1187282	623059	3401	3039	14795	844	399320	1392088	22079
285	2015-12-26 14:07:24	0	0	0	0	0	0	28.68	0.29	0.91	1187485	0	564399	732998	1187485	623086	3402	3039	14797	844	399320	1392107	22082
286	2015-12-26 14:17:23	0	0	0	0	0	0	28.68	0.29	0.91	1187797	0	564664	732998	1187797	623133	3402	3039	14797	844	399320	1392134	22082
287	2015-12-26 14:27:24	0	0	0	0	0	0	28.68	0.29	0.91	1188117	0	564937	734041	1188117	623180	3404	3040	14804	845	399320	1392159	22093
288	2015-12-26 14:37:23	0	0	0	0	0	0	28.68	0.29	0.91	1188382	0	565167	734041	1188382	623215	3405	3040	14804	845	399320	1392177	22094
289	2015-12-26 14:47:23	0	0	0	0	0	0	28.68	0.29	0.91	1188655	0	565411	734041	1188655	623244	3405	3040	14808	845	399320	1392191	22098
290	2015-12-26 14:57:26	0	0	0	0	0	0	28.68	0.29	0.91	1188787	0	565527	734215	1188787	623260	3407	3040	14812	847	399320	1392213	22106
291	2015-12-26 15:07:24	0	0	0	0	0	0	28.68	0.29	0.91	1189040	0	565752	734215	1189040	623288	3408	3042	14814	847	399320	1392233	22111
292	2015-12-26 15:17:26	0	0	0	0	0	0	28.68	0.29	0.91	1189257	0	565941	734215	1189257	623316	3409	3042	14817	847	399320	1392243	22115
293	2015-12-26 15:27:24	0	0	0	0	0	0	28.68	0.29	0.91	1189257	0	565941	734215	1189257	623316	3409	3042	14817	847	399320	1392253	22115
294	2015-12-26 15:37:24	0	0	0	0	0	0	28.68	0.29	0.91	1189573	0	566222	734215	1189573	623351	3411	3043	14823	849	399320	1392263	22126
295	2015-12-26 15:47:24	0	0	0	0	0	0	28.68	0.29	0.91	1189573	0	566222	734215	1189573	623351	3411	3043	14823	849	399320	1392276	22126
296	2015-12-26 15:57:23	0	0	0	0	0	0	28.7	0.29	0.91	1189932	0	566535	734215	1189932	623397	3413	3044	14828	851	399526	1392289	22136
297	2015-12-26 16:07:25	0	0	0	0	0	0	28.7	0.29	0.91	1190150	0	566723	734345	1190150	623427	3414	3044	14831	851	399526	1392303	22140
298	2015-12-26 16:17:28	0	0	0	0	0	0	28.7	0.29	0.91	1190409	0	566948	734345	1190409	623461	3415	3044	14833	852	399526	1392317	22144
299	2015-12-26 16:27:25	0	0	0	0	0	0	28.69	0.29	0.91	1190409	0	566948	734345	1190409	623461	3415	3044	14833	852	399526	1392332	22144
300	2015-12-26 16:37:24	0	0	0	0	0	0	28.69	0.29	0.91	1190742	0	567245	734345	1190742	623497	3416	3044	14834	852	399526	1392344	22146
301	2015-12-26 16:47:26	0	0	0	0	0	0	28.69	0.29	0.91	1190933	0	567415	734345	1190933	623518	3416	3045	14838	852	399526	1392362	22151
302	2015-12-26 16:57:24	0	0	0	0	0	0	28.69	0.29	0.91	1191146	0	567610	734345	1191146	623536	3416	3045	14840	852	399526	1392378	22153
303	2015-12-26 17:07:27	0	0	0	0	0	0	28.69	0.29	0.91	1191283	0	567736	735392	1191283	623547	3416	3046	14842	853	399526	1392398	22157
304	2015-12-26 17:17:26	0	0	0	0	0	0	28.69	0.29	0.91	1191283	0	567736	735392	1191283	623547	3416	3046	14842	853	399526	1392420	22157
305	2015-12-26 17:27:25	0	0	0	0	0	0	28.7	0.29	0.91	1191585	0	568003	735741	1191585	623582	3418	3046	14846	853	399629	1392441	22163
306	2015-12-26 17:37:24	0	0	0	0	0	0	28.7	0.29	0.91	1191585	0	568003	735741	1191585	623582	3418	3046	14846	853	399629	1392458	22163
307	2015-12-26 17:47:25	0	0	0	0	0	0	28.7	0.29	0.91	1191832	0	568231	735741	1191832	623601	3418	3046	14849	853	399629	1392473	22166
308	2015-12-26 17:57:27	0	0	0	0	0	0	28.7	0.29	0.91	1192112	0	568464	735741	1192112	623648	3419	3046	14852	853	399629	1392483	22170
309	2015-12-26 18:07:26	0	0	0	0	0	0	28.7	0.29	0.91	1192216	0	568553	735741	1192216	623663	3419	3046	14852	853	399629	1392497	22170
310	2015-12-26 18:17:26	0	0	0	0	0	0	28.7	0.29	0.91	1192375	0	568690	736003	1192375	623685	3421	3046	14853	853	399629	1392503	22173
311	2015-12-26 18:27:27	0	0	0	0	0	0	28.7	0.29	0.91	1192464	0	568833	736003	1192464	623696	3421	3046	14854	853	399629	1392518	22174
312	2015-12-26 18:37:26	0	0	0	0	0	0	28.7	0.29	0.91	1192656	0	568833	736660	1192656	623716	3421	3046	14854	853	399629	1392528	22174
313	2015-12-26 18:47:25	0	0	0	0	0	0	28.7	0.29	0.91	1192656	0	568940	736660	1192656	623716	3421	3046	14854	853	399629	1392546	22174
314	2015-12-26 18:57:26	0	0	0	0	0	0	28.7	0.29	0.91	1192962	0	569214	736660	1192962	623748	3421	3046	14855	853	399629	1392562	22175
315	2015-12-26 19:07:28	0	0	0	0	0	0	28.7	0.29	0.91	1193186	0	569415	736660	1193186	623771	3421	3048	14859	853	399629	1392578	22181
316	2015-12-26 19:17:25	0	0	0	0	0	0	28.7	0.29	0.91	1193381	0	569586	736660	1193381	623795	3421	3049	14860	853	399629	1392596	22183
317	2015-12-26 19:27:27	0	0	0	0	0	0	28.7	0.29	0.91	1193483	0	569676	736660	1193483	623807	3421	3049	14862	853	399629	1392616	22185
318	2015-12-26 19:37:26	0	0	0	0	0	0	28.7	0.29	0.91	1193483	0	569676	736660	1193483	623807	3421	3049	14862	853	399629	1392627	22185
319	2015-12-26 19:47:27	0	0	0	0	0	0	28.7	0.29	0.91	1193753	0	569921	736660	1193753	623832	3421	3049	14865	853	399629	1392647	22188
320	2015-12-26 19:57:26	0	0	0	0	0	0	28.7	0.29	0.91	1193857	0	570011	736660	1193857	623846	3421	3049	14867	853	399629	1392659	22190
321	2015-12-26 20:07:29	0	0	0	0	0	0	28.7	0.29	0.91	1194162	0	570278	736660	1194162	623884	3421	3050	14874	854	399629	1392671	22199
322	2015-12-26 20:17:27	0	0	0	0	0	0	28.69	0.29	0.91	1194162	0	570278	736660	1194162	623884	3421	3050	14874	854	399629	1392686	22199
323	2015-12-26 20:27:28	0	0	0	0	0	0	28.69	0.29	0.91	1194439	0	570522	737977	1194439	623917	3422	3051	14878	855	399629	1392694	22206
324	2015-12-26 20:37:27	0	0	0	0	0	0	28.69	0.29	0.91	1194439	0	570522	737977	1194439	623917	3422	3051	14878	855	399629	1392705	22206
325	2015-12-26 20:47:28	0	0	0	0	0	0	28.69	0.29	0.91	1194752	0	570803	737977	1194752	623949	3422	3052	14881	855	399629	1392711	22210
326	2015-12-26 20:57:27	0	0	0	0	0	0	28.69	0.29	0.92	1194999	0	571021	737977	1194999	623978	3422	3053	14884	855	399629	1392728	22214
327	2015-12-26 21:07:28	0	0	0	0	0	0	28.7	0.29	0.92	1195182	0	571185	738857	1195182	623997	3422	3054	14887	855	399732	1392737	22218
328	2015-12-26 21:17:30	0	0	0	0	0	0	28.7	0.29	0.92	1195257	0	571250	738857	1195257	624007	3422	3054	14888	855	399732	1392749	22219
329	2015-12-26 21:27:28	0	0	0	0	0	0	28.7	0.29	0.92	1195257	0	571250	738857	1195257	624007	3422	3054	14888	855	399732	1392763	22219
330	2015-12-26 21:37:26	0	0	0	0	0	0	28.7	0.29	0.92	1195690	0	571635	738857	1195690	624055	3424	3057	14894	856	399732	1392775	22231
331	2015-12-26 21:47:29	0	0	0	0	0	0	28.7	0.29	0.92	1195755	0	571693	738857	1195755	624062	3424	3057	14895	856	399732	1392793	22232
332	2015-12-26 21:57:27	0	0	0	0	0	0	28.7	0.29	0.92	1195755	0	571693	738857	1195755	624062	3424	3057	14895	856	399732	1392810	22232
333	2015-12-26 22:07:27	0	0	0	0	0	0	28.7	0.29	0.92	1196034	0	571934	739387	1196034	624100	3424	3057	14898	856	399732	1392823	22235
334	2015-12-26 22:17:28	0	0	0	0	0	0	28.7	0.29	0.92	1196195	0	572081	740072	1196195	624114	3424	3057	14899	856	399732	1392835	22236
335	2015-12-26 22:27:29	0	0	0	0	0	0	28.7	0.29	0.92	1196352	0	572221	740072	1196352	624131	3425	3057	14902	857	399732	1392845	22241
336	2015-12-26 22:37:27	0	0	0	0	0	0	28.7	0.29	0.92	1196503	0	572363	740072	1196503	624140	3426	3058	14903	857	399732	1392863	22244
337	2015-12-27 12:07:50	0	0	0	0	0	0	28.67	0.29	0.92	1200203	0	575591	740514	1200203	624612	3441	3069	14980	865	399732	1394113	22355
338	2015-12-27 12:38:09	0	0	0	0	0	0	28.67	0.29	0.92	1200324	0	575692	741220	1200324	624632	3441	3072	14981	865	399732	1394157	22359
339	2015-12-27 12:43:51	0	0	0	0	0	0	28.67	0.29	0.92	1200324	0	575692	741220	1200324	624632	3441	3072	14981	865	399732	1394165	22359
340	2015-12-27 13:43:12	0	0	0	0	0	0	28.67	0.29	0.92	1200584	0	575893	741220	1200584	624671	3441	3075	14990	868	399732	1394261	22374
341	2015-12-27 14:23:06	0	0	0	0	0	0	28.67	0.29	0.92	1200771	0	576065	741220	1200771	624706	3441	3075	14996	869	399732	1394360	22381
