1	2015-07-28 13:33:38	0	0	0	0	0	0	0.24	0.24	0	2954	0	1	2746	2954	2953	7	3	30	0	2743	1160082	0
2	2015-07-28 13:39:39	0	0	0	0	0	0	1.22	0.47	0.01	17389	0	255	14408	17389	17134	81	36	264	7	14128	1160093	388
3	2015-07-28 13:45:39	0	0	0	0	0	0	1.86	0.49	0.03	29212	0	831	22280	29212	28381	143	67	475	19	21592	1160081	704
4	2015-07-28 13:51:40	0	0	0	0	0	0	2.24	0.54	0.04	36376	0	1408	27168	36376	34968	195	86	608	25	26000	1160092	914
5	2015-07-28 13:57:40	0	0	0	0	0	0	2.71	0.51	0.06	45998	0	2545	33440	45998	43453	234	106	801	31	31440	1160097	1172
6	2015-07-28 14:03:40	0	0	0	0	0	0	2.87	0.5	0.07	50264	0	3139	35840	50264	47125	251	121	908	33	33344	1160090	1313
7	2015-07-28 14:08:19	0	0	0	0	0	0	2.87	0.5	0.07	50264	0	3139	35840	50264	47125	251	121	908	33	33344	1160099	1313
8	2015-07-28 14:14:18	0	0	0	0	0	0	3.13	0.5	0.08	56382	0	4228	39472	56382	52154	282	144	1034	36	36256	1160077	1496
9	2015-07-28 14:20:19	0	0	0	0	0	0	3.24	0.51	0.09	59293	0	4770	41264	59293	54523	305	152	1110	37	37584	1160095	1604
10	2015-07-28 14:26:18	0	0	0	0	0	0	3.37	0.51	0.09	62001	0	5309	42944	62001	56692	317	159	1173	39	39072	1160106	1688
11	2015-07-28 14:32:19	0	0	0	0	0	0	3.46	0.5	0.1	64755	0	5905	44496	64755	58850	322	163	1226	40	40128	1160089	1751
12	2015-07-28 14:38:18	0	0	0	0	0	0	3.62	0.5	0.11	68977	0	6865	46960	68977	62112	343	174	1326	43	42032	1160099	1886
13	2015-07-28 14:44:18	0	0	0	0	0	0	3.71	0.5	0.12	71074	0	7373	48192	71074	63701	355	179	1368	43	43056	1160078	1945
14	2015-07-28 14:50:19	0	0	0	0	0	0	3.78	0.5	0.12	73164	0	7905	49264	73164	65259	364	184	1400	45	43840	1160094	1993
15	2015-07-28 14:56:20	0	0	0	0	0	0	3.86	0.49	0.12	75093	0	8342	50432	75093	66751	368	189	1438	47	44736	1160103	2042
16	2015-07-28 15:02:20	0	0	0	0	0	0	3.96	0.49	0.13	78141	0	9030	51936	78141	69111	383	199	1493	47	45888	1160075	2122
17	2015-07-28 15:08:20	0	0	0	0	0	0	4.03	0.49	0.13	80039	0	9486	53136	80039	70553	394	208	1538	48	46800	1160090	2188
18	2015-07-28 15:14:18	0	0	0	0	0	0	4.1	0.5	0.14	81917	0	9942	54208	81917	71975	406	214	1577	53	47584	1160080	2250
19	2015-07-28 15:20:18	0	0	0	0	0	0	4.12	0.49	0.14	83640	0	10316	54944	83640	73324	414	220	1604	53	47776	1160095	2291
20	2015-07-28 15:26:20	0	0	0	0	0	0	4.19	0.49	0.14	86146	0	10896	56224	86146	75250	426	228	1649	58	48640	1160106	2361
21	2015-07-28 15:32:19	0	0	0	0	0	0	4.3	0.49	0.15	88615	0	11487	57824	88615	77128	438	231	1701	63	49888	1160086	2433
22	2015-07-28 15:38:19	0	0	0	0	0	0	4.36	0.49	0.15	90643	0	11952	58912	90643	78691	448	237	1738	64	50592	1160098	2487
23	2015-07-28 15:44:18	0	0	0	0	0	0	4.42	0.5	0.15	92396	0	12356	59808	92396	80040	461	239	1761	67	51296	1160086	2528
24	2015-07-28 15:50:19	0	0	0	0	0	0	4.49	0.5	0.16	94028	0	12785	60896	94028	81243	470	240	1788	67	52064	1160099	2565
25	2015-07-28 15:56:19	0	0	0	0	0	0	4.55	0.5	0.16	95550	0	13158	61760	95550	82392	478	243	1812	67	52768	1160107	2600
26	2015-07-28 16:02:20	0	0	0	0	0	0	4.62	0.5	0.16	98049	0	13803	63040	98049	84246	490	244	1839	69	53632	1160090	2642
27	2015-07-28 16:08:20	0	0	0	0	0	0	4.66	0.5	0.17	99176	0	14102	63904	99176	85074	496	246	1858	70	54112	1160104	2670
28	2015-07-28 16:14:18	0	0	0	0	0	0	4.71	0.5	0.17	100655	0	14502	64800	100655	86153	500	251	1887	70	54688	1160079	2708
29	2015-07-28 16:20:19	0	0	0	0	0	0	4.78	0.5	0.17	101906	0	14838	65760	101906	87068	505	253	1904	72	55424	1160090	2734
30	2015-07-28 16:26:20	0	0	0	0	0	0	4.84	0.5	0.17	103660	0	15347	66688	103660	88313	514	262	1931	73	56128	1160090	2780
31	2015-07-28 16:32:20	0	0	0	0	0	0	4.89	0.5	0.18	104913	0	15723	67584	104913	89190	520	263	1956	73	56736	1160083	2812
32	2015-07-28 16:38:20	0	0	0	0	0	0	4.95	0.49	0.18	106189	0	16118	68448	106189	90071	523	264	1968	75	57376	1160095	2830
33	2015-07-28 16:44:19	0	0	0	0	0	0	4.98	0.49	0.18	107254	0	16407	69056	107254	90847	530	266	1975	75	57728	1160076	2846
34	2015-07-28 16:50:20	0	0	0	0	0	0	5.02	0.49	0.18	108204	0	16684	69696	108204	91520	535	266	1989	75	58272	1160091	2865
35	2015-07-28 16:56:21	0	0	0	0	0	0	5.05	0.5	0.18	109196	0	16969	70304	109196	92227	542	268	1997	75	58528	1160094	2882
36	2015-07-28 17:02:22	0	0	0	0	0	0	5.08	0.5	0.19	110969	0	17471	71168	110969	93498	551	275	2024	76	58976	1160070	2926
37	2015-07-28 17:08:20	0	0	0	0	0	0	5.14	0.5	0.19	112072	0	17795	72000	112072	94277	555	277	2041	76	59616	1160087	2949
38	2015-07-28 17:14:19	0	0	0	0	0	0	5.15	0.5	0.19	113039	0	18075	72160	113039	94964	562	279	2054	77	59744	1160093	2972
39	2015-07-28 17:20:21	0	0	0	0	0	0	5.21	0.5	0.19	114318	0	18453	73216	114318	95865	571	280	2074	77	60416	1160085	3002
40	2015-07-28 17:26:21	0	0	0	0	0	0	5.23	0.5	0.19	115348	0	18742	73600	115348	96606	573	283	2097	77	60704	1160092	3030
41	2015-07-28 17:32:21	0	0	0	0	0	0	5.28	0.5	0.2	116443	0	19062	74272	116443	97381	579	287	2120	78	61216	1160103	3064
42	2015-07-28 17:38:21	0	0	0	0	0	0	5.29	0.5	0.2	116589	0	19103	74464	116589	97486	579	291	2129	79	61408	1160084	3078
43	2015-07-28 17:44:22	0	0	0	0	0	0	5.35	0.49	0.2	118426	0	19750	75648	118426	98676	584	293	2145	79	62048	1160092	3101
44	2015-07-28 17:50:22	0	0	0	0	0	0	5.4	0.49	0.2	119561	0	20174	76416	119561	99387	587	295	2160	80	62656	1160081	3122
45	2015-07-28 17:56:22	0	0	0	0	0	0	5.44	0.49	0.2	120432	0	20462	77024	120432	99970	589	297	2172	80	63072	1160083	3138
46	2015-07-28 18:02:21	0	0	0	0	0	0	5.47	0.49	0.21	121272	0	20740	77536	121272	100532	593	298	2181	80	63424	1160092	3152
47	2015-07-28 18:08:21	0	0	0	0	0	0	5.49	0.49	0.21	121998	0	20988	77856	121998	101010	594	301	2195	80	63712	1160076	3170
48	2015-07-28 18:14:23	0	0	0	0	0	0	5.51	0.48	0.21	123149	0	21406	78368	123149	101743	597	304	2217	81	63968	1160086	3199
49	2015-07-28 18:20:23	0	0	0	0	0	0	5.54	0.48	0.21	124071	0	21708	78848	124071	102363	601	305	2232	81	64288	1160097	3219
50	2015-07-28 18:26:21	0	0	0	0	0	0	5.57	0.48	0.21	124891	0	21955	79424	124891	102936	605	308	2244	81	64640	1160090	3238
51	2015-07-28 18:32:22	0	0	0	0	0	0	5.61	0.49	0.21	125646	0	22204	80096	125646	103442	610	309	2254	81	65088	1160097	3254
52	2015-07-28 18:38:24	0	0	0	0	0	0	5.62	0.49	0.22	126271	0	22392	80416	126271	103879	615	311	2272	81	65152	1160091	3279
53	2015-07-28 18:44:24	0	0	0	0	0	0	5.66	0.49	0.22	127508	0	22778	81056	127508	104730	619	311	2280	82	65632	1160097	3292
54	2015-07-28 18:50:22	0	0	0	0	0	0	5.69	0.49	0.22	128238	0	23002	81472	128238	105236	622	312	2290	82	65952	1160105	3306
55	2015-07-28 18:56:22	0	0	0	0	0	0	5.71	0.49	0.22	128972	0	23219	81952	128972	105753	627	314	2298	82	66208	1160093	3321
56	2015-07-28 19:02:24	0	0	0	0	0	0	5.72	0.49	0.22	129709	0	23432	82112	129709	106277	634	318	2320	84	66336	1160104	3356
57	2015-07-28 19:08:24	0	0	0	0	0	0	5.73	0.49	0.22	130439	0	23663	82624	130439	106776	636	319	2327	84	66528	1160081	3366
58	2015-07-28 19:14:25	0	0	0	0	0	0	5.75	0.49	0.22	131073	0	23873	82944	131073	107200	640	321	2337	84	66752	1160098	3382
59	2015-07-28 19:20:21	0	0	0	0	0	0	5.79	0.48	0.22	132337	0	24292	83744	132337	108045	641	326	2351	84	67168	1160109	3402
60	2015-07-28 19:26:24	0	0	0	0	0	0	5.82	0.48	0.23	133328	0	24619	84448	133328	108709	645	328	2368	85	67520	1160094	3426
61	2015-07-28 19:32:24	0	0	0	0	0	0	5.85	0.49	0.23	134126	0	24878	84896	134126	109248	652	330	2374	87	67872	1160103	3443
62	2015-07-28 19:38:24	0	0	0	0	0	0	5.89	0.49	0.23	134957	0	25093	85536	134957	109864	660	331	2390	87	68320	1160108	3468
63	2015-07-28 19:44:23	0	0	0	0	0	0	5.92	0.49	0.23	135850	0	25371	86080	135850	110479	663	334	2404	88	68640	1160094	3489
64	2015-07-28 19:50:22	0	0	0	0	0	0	5.94	0.49	0.23	136556	0	25566	86528	136556	110990	665	335	2410	90	68960	1160104	3500
65	2015-07-28 19:56:23	0	0	0	0	0	0	5.96	0.49	0.23	137245	0	25766	86784	137245	111479	666	337	2421	91	69120	1160097	3515
66	2015-07-28 20:08:24	0	0	0	0	0	0	6.01	0.48	0.23	139188	0	26326	87680	139188	112862	675	344	2456	91	69728	1160121	3566
67	2015-07-28 20:14:26	0	0	0	0	0	0	6.04	0.48	0.23	139923	0	26568	88224	139923	113355	677	345	2460	91	70080	1160098	3573
68	2015-07-28 20:20:22	0	0	0	0	0	0	6.07	0.48	0.24	140619	0	26816	88672	140619	113803	679	348	2471	93	70400	1160109	3591
69	2015-07-28 20:26:23	0	0	0	0	0	0	6.1	0.48	0.24	141340	0	27053	89056	141340	114287	680	349	2479	93	70720	1160089	3601
70	2015-07-28 20:32:24	0	0	0	0	0	0	6.13	0.48	0.24	142502	0	27401	89888	142502	115101	684	353	2496	94	71104	1160098	3627
71	2015-07-28 20:38:24	0	0	0	0	0	0	6.18	0.48	0.24	143280	0	27617	90496	143280	115663	686	354	2501	96	71648	1160114	3637
72	2015-07-28 20:44:26	0	0	0	0	0	0	6.22	0.48	0.24	144352	0	27925	91168	144352	116427	690	361	2517	96	72160	1160105	3664
73	2015-07-29 16:19:26	0	0	0	0	0	0	8.85	0.45	0.3	212813	0	49192	133248	212813	163621	957	488	3381	123	102784	1161100	4949
74	2015-07-29 16:25:20	0	0	0	0	0	0	8.86	0.45	0.3	212914	0	49236	133376	212914	163678	958	488	3382	123	102912	1161093	4951
75	2015-07-29 16:31:26	0	0	0	0	0	0	8.86	0.45	0.3	213053	0	49299	133376	213053	163754	959	488	3386	123	102912	1161100	4956
76	2015-07-29 16:37:25	0	0	0	0	0	0	8.86	0.45	0.3	213178	0	49352	133440	213178	163826	959	488	3386	123	102912	1161102	4956
77	2015-07-29 16:43:25	0	0	0	0	0	0	8.87	0.45	0.3	213307	0	49404	133504	213307	163903	959	488	3387	123	102976	1161112	4957
78	2015-07-29 16:49:25	0	0	0	0	0	0	8.87	0.45	0.3	213454	0	49477	133632	213454	163977	960	488	3389	123	103040	1161117	4960
79	2015-07-29 16:55:20	0	0	0	0	0	0	8.89	0.45	0.3	213562	0	49531	133760	213562	164031	962	489	3390	123	103168	1161092	4964
80	2015-07-29 17:01:23	0	0	0	0	0	0	8.89	0.45	0.3	213650	0	49565	133888	213650	164085	963	490	3394	123	103168	1161106	4970
81	2015-07-29 17:07:21	0	0	0	0	0	0	8.89	0.45	0.3	213773	0	49627	133888	213773	164146	964	491	3396	123	103168	1161085	4974
82	2015-07-29 17:13:27	0	0	0	0	0	0	8.89	0.45	0.3	213940	0	49719	134144	213940	164221	966	492	3400	124	103232	1161089	4982
83	2015-07-29 17:19:48	0	0	0	0	0	0	8.9	0.45	0.3	214069	0	49785	134272	214069	164284	966	492	3400	124	103296	1161096	4982
84	2015-07-29 17:25:20	0	0	0	0	0	0	8.9	0.45	0.3	214173	0	49835	134400	214173	164338	966	492	3401	124	103360	1161086	4983
85	2015-07-29 17:31:27	0	0	0	0	0	0	8.91	0.45	0.3	214297	0	49893	134464	214297	164404	967	492	3401	124	103424	1161091	4984
86	2015-07-29 17:37:28	0	0	0	0	0	0	8.91	0.45	0.3	214437	0	49949	134528	214437	164488	969	492	3402	124	103424	1161076	4987
87	2015-07-29 17:43:27	0	0	0	0	0	0	8.91	0.45	0.3	214557	0	50012	134592	214557	164545	970	492	3402	124	103488	1161078	4988
88	2015-07-29 17:49:28	0	0	0	0	0	0	8.91	0.45	0.3	214690	0	50083	134656	214690	164607	972	492	3404	124	103488	1161086	4992
89	2015-07-29 17:55:25	0	0	0	0	0	0	8.92	0.45	0.3	214816	0	50133	134720	214816	164683	974	492	3407	124	103552	1161081	4997
90	2015-07-29 18:01:29	0	0	0	0	0	0	8.92	0.45	0.3	214942	0	50190	134784	214942	164752	975	492	3408	124	103616	1161084	4999
91	2015-07-29 18:07:29	0	0	0	0	0	0	8.92	0.45	0.3	215070	0	50249	134784	215070	164821	976	492	3408	124	103616	1161070	5000
92	2015-07-29 18:13:26	0	0	0	0	0	0	8.93	0.45	0.31	215219	0	50328	134848	215219	164891	976	493	3411	124	103680	1161069	5004
93	2015-07-29 18:19:26	0	0	0	0	0	0	8.93	0.45	0.31	215348	0	50393	134848	215348	164955	976	493	3412	124	103680	1161076	5005
94	2015-07-29 18:25:20	0	0	0	0	0	0	8.94	0.45	0.31	215477	0	50454	135104	215477	165023	977	494	3414	124	103808	1161071	5009
95	2015-07-29 18:31:21	0	0	0	0	0	0	8.94	0.45	0.31	215567	0	50495	135104	215567	165072	977	494	3414	124	103808	1161076	5009
96	2015-07-29 18:37:28	0	0	0	0	0	0	8.94	0.45	0.31	215717	0	50580	135104	215717	165137	978	495	3414	124	103808	1161065	5011
97	2015-07-29 18:43:26	0	0	0	0	0	0	8.94	0.45	0.31	215831	0	50638	135104	215831	165193	978	495	3417	124	103808	1161072	5014
98	2015-07-29 18:49:27	0	0	0	0	0	0	8.95	0.45	0.31	215948	0	50698	135168	215948	165250	980	495	3420	124	103872	1161077	5019
99	2015-07-29 18:55:21	0	0	0	0	0	0	8.95	0.45	0.31	216074	0	50759	135232	216074	165315	981	495	3423	124	103936	1161075	5023
100	2015-07-29 19:01:28	0	0	0	0	0	0	8.96	0.45	0.31	216216	0	50832	135296	216216	165384	981	495	3423	124	104000	1161080	5023
101	2015-07-29 19:07:29	0	0	0	0	0	0	8.96	0.45	0.31	216342	0	50895	135360	216342	165447	981	496	3426	124	104064	1161068	5027
