1	2017-11-15 18:57:21		0	0	0	0	0	0	0	0	0	0	0	0	0	0	0	0	4	29	1	0	3457222	0
2	2017-11-15 19:07:53		0	0	0	0	0	0	0.77	2.41	0	30582	0	26	26817	30582	30556	736	9	118	9	26666	3457224	872
3	2017-11-15 19:21:08		0	0	0	0	0	0	1.46	3.18	0	59370	0	119	51000	59370	59251	1885	16	162	12	50601	3457220	2075
4	2017-11-15 19:29:37		0	0	0	0	0	0	1.79	3.38	0	75373	0	208	62659	75373	75165	2550	17	185	14	61893	3457220	2766
5	2017-11-15 19:39:38		0	0	0	0	0	0	2.08	3.43	0	89729	0	293	73126	89729	89436	3079	22	208	15	72048	3457219	3324
6	2017-11-15 19:50:53		0	0	0	0	0	0	2.35	3.48	0	103471	0	405	82337	103471	103066	3604	30	240	16	81126	3457215	3890
7	2017-11-15 20:01:11		0	0	0	0	0	0	2.59	3.53	0	116213	0	527	91369	116213	115686	4104	37	254	16	89710	3457216	4411
8	2017-11-15 20:13:33		0	0	0	0	0	0	2.88	3.56	0.01	128147	0	673	101903	128147	127474	4556	44	283	16	99536	3457214	4899
9	2017-11-15 20:22:56		0	0	0	0	0	0	3.08	3.55	0.01	140288	0	828	109019	140288	139460	4980	47	309	17	106445	3457214	5353
10	2017-11-15 20:32:52		0	0	0	0	0	0	3.35	3.57	0.01	151314	0	955	118474	151314	150359	5409	49	329	17	115686	3457215	5804
11	2017-11-15 20:43:37		0	0	0	0	0	0	3.63	3.59	0.01	166879	0	1180	129142	166879	165699	5993	55	345	18	125403	3457213	6411
12	2017-11-15 20:54:01		0	0	0	0	0	0	3.82	3.61	0.01	177301	0	1362	136332	177301	175939	6393	60	375	19	132070	3457214	6847
13	2017-11-15 21:04:28		0	0	0	0	0	0	3.97	3.61	0.01	187256	0	1532	141820	187256	185724	6753	65	400	20	137207	3457215	7238
14	2017-11-15 21:15:28		0	0	0	0	0	0	4.16	3.6	0.01	197274	0	1694	149161	197274	195580	7097	67	419	20	143987	3457216	7603
15	2017-11-15 21:18:44		0	0	0	0	0	0	4.25	3.6	0.01	202253	0	1826	152134	202253	200427	7284	68	420	20	146894	3457217	7792
16	2017-11-15 21:20:05		0	0	0	0	0	0	4.25	3.6	0.01	202253	0	1826	152134	202253	200427	7284	68	424	20	146894	3457217	7796
17	2017-11-15 21:26:01		0	0	0	0	0	0	4.32	3.6	0.01	207243	0	1964	154991	207243	205279	7456	68	440	20	149228	3457213	7984
18	2017-11-15 21:36:10		0	0	0	0	0	0	4.5	3.6	0.01	216854	0	2237	160807	216854	214617	7811	70	456	21	155517	3457212	8358
19	2017-11-15 21:47:45		0	0	0	0	0	0	4.71	3.61	0.01	225856	0	2487	168357	225856	223369	8158	71	476	21	162760	3457212	8726
20	2017-11-15 21:58:38		0	0	0	0	0	0	4.96	3.63	0.01	238922	0	2838	178388	238922	236084	8678	75	492	21	171644	3457214	9266
21	2017-11-15 22:09:07		0	0	0	0	0	0	5.15	3.63	0.01	247438	0	3104	185140	247438	244334	8988	78	509	21	178214	3457212	9596
22	2017-11-15 22:19:50		0	0	0	0	0	0	5.24	3.63	0.01	255461	0	3327	188092	255461	252134	9262	79	521	21	181234	3457225	9883
23	2017-11-15 22:30:24		0	0	0	0	0	0	5.41	3.63	0.01	263081	0	3512	194361	263081	259569	9542	79	533	22	187114	3457233	10176
24	2017-11-15 22:45:50		0	0	0	0	0	0	5.53	3.63	0.01	269765	0	3661	199125	269765	266104	9786	80	543	24	191336	3457236	10433
25	2017-11-15 22:55:09		0	0	0	0	0	0	5.75	3.64	0.01	281068	0	3940	206919	281068	277128	10223	85	554	24	198649	3457241	10886
26	2017-11-15 23:04:37		0	0	0	0	0	0	5.91	3.64	0.01	287844	0	4105	212787	287844	283739	10483	87	565	24	204240	3457242	11159
27	2017-11-15 23:15:12		0	0	0	0	0	0	6.02	3.64	0.01	293950	0	4249	217167	293950	289701	10709	89	580	24	208174	3457249	11402
28	2017-11-15 23:27:15		0	0	0	0	0	0	6.17	3.64	0.01	299636	0	4403	221898	299636	295233	10898	91	592	24	213278	3457249	11605
29	2017-11-15 23:36:38		0	0	0	0	0	0	6.27	3.64	0.02	304842	0	4538	225430	304842	300304	11083	94	604	24	216721	3457255	11805
30	2017-11-15 23:47:03		0	0	0	0	0	0	6.37	3.65	0.02	309738	0	4660	229779	309738	305078	11316	95	615	26	220079	3457259	12052
31	2017-11-15 23:57:34		0	0	0	0	0	0	6.46	3.66	0.02	314538	0	4776	233470	314538	309762	11501	98	627	27	223430	3457259	12253
32	2017-11-16 00:54:48		0	0	0	0	0	0	6.88	3.7	0.02	335049	0	5418	248501	335049	329631	12390	107	667	30	237791	3457263	13194
33	2017-11-16 01:56:00		0	0	0	0	0	0	7.14	3.71	0.02	347437	0	5837	257392	347437	341600	12898	113	699	31	246925	3457258	13741
34	2017-11-16 03:01:40		0	0	0	0	0	0	7.23	3.72	0.02	354070	0	6013	261644	354070	348057	13172	114	707	31	250066	3457260	14024
35	2017-11-16 04:13:22		0	0	0	0	0	0	7.33	3.73	0.02	358582	0	6144	265386	358582	352438	13376	119	710	31	253564	3457250	14236
36	2017-11-16 05:15:26		0	0	0	0	0	0	7.43	3.73	0.02	362942	0	6313	268783	362942	356629	13531	120	715	32	256749	3457254	14398
37	2017-11-16 06:20:49		0	0	0	0	0	0	7.59	3.73	0.02	371607	0	6667	275215	371607	364940	13853	121	730	33	262262	3457252	14737
38	2017-11-16 07:12:57		0	0	0	0	0	0	7.93	3.74	0.02	383125	0	7165	288577	383125	375960	14314	126	769	33	274271	3457262	15242
39	2017-11-16 07:27:28		0	0	0	0	0	0	8.06	3.75	0.02	387612	0	7379	293098	387612	380233	14525	128	775	33	278702	3457265	15461
40	2017-11-16 07:37:59		0	0	0	0	0	0	8.12	3.75	0.02	390724	0	7522	295169	390724	383202	14667	132	787	34	280574	3457267	15620
41	2017-11-16 07:57:22		0	0	0	0	0	0	8.28	3.76	0.02	397182	0	7833	300892	397182	389349	14939	137	808	34	286427	3457268	15918
42	2017-11-16 08:20:45		0	0	0	0	0	0	8.36	3.78	0.02	404029	0	8196	303770	404029	395833	15275	139	829	35	289034	3457281	16278
43	2017-11-16 08:29:14		0	0	0	0	0	0	8.43	3.79	0.02	407512	0	8337	306616	407512	399175	15451	145	840	35	291610	3457286	16471
44	2017-11-16 08:50:47		0	0	0	0	0	0	8.58	3.81	0.02	416776	0	8794	311338	416776	407982	15864	152	864	36	296615	3457291	16916
45	2017-11-16 09:13:12		0	0	0	0	0	0	8.69	3.82	0.02	424127	0	9217	316035	424127	414910	16189	159	879	36	300565	3457304	17263
46	2017-11-16 09:21:35		0	0	0	0	0	0	8.74	3.82	0.02	427765	0	9454	317654	427765	418311	16352	163	884	36	302154	3457312	17435
47	2017-11-16 09:36:42		0	0	0	0	0	0	8.85	3.84	0.02	433341	0	9757	320797	433341	423584	16619	169	902	37	305961	3457317	17727
48	2017-11-16 09:56:30		0	0	0	0	0	0	8.94	3.85	0.02	440807	0	10157	324151	440807	430650	16985	171	934	37	309165	3457336	18127
49	2017-11-16 10:07:50		0	0	0	0	0	0	8.98	3.87	0.02	444178	0	10350	325467	444178	433828	17174	174	947	37	310611	3457343	18332
50	2017-11-16 10:44:52	6090647057476	0	0	0	0	0	0	9.18	3.89	0.02	455365	0	11038	332006	455365	444327	17736	181	995	38	317279	3457356	18950
51	2017-11-16 10:57:53	6090647057476	0	0	0	0	0	0	9.23	3.9	0.03	459985	0	11263	333845	459985	448722	17937	182	1000	39	318958	3457368	19158
52	2017-11-16 11:33:13	6090647057476	0	0	0	0	0	0	9.27	3.91	0.03	464259	0	11528	335325	464259	452731	18156	188	1014	40	320441	3457371	19398
53	2017-11-16 12:31:54	6090647057476	2.89	475	0.006084	6.09	6.08	6.084	9.66	3.97	0.03	495744	7795	13254	353360	489344	476090	19916	212	1104	43	333912	3457374	21275
54	2017-11-16 12:42:25	6090647057476	6.37	1436	0.004436	8.92	4.44	4.436	9.77	3.95	0.03	506343	16104	13491	361259	492098	478607	20870	220	1139	44	337846	3457375	22273
55	2017-11-16 12:52:59	6090647057476	10.06	2545	0.003953	10.31	3.95	3.953	9.91	3.92	0.03	517973	24675	13832	372419	495248	481416	21936	237	1171	48	342508	3457368	23392
56	2017-11-16 13:03:31	6090647057476	12.79	3196	0.004002	10.22	4	4.002	10.06	3.96	0.03	529047	31266	14303	385096	498708	484405	22967	249	1196	52	347891	3457375	24464
57	2017-11-16 13:14:07	6090647057476	13.81	3567	0.003872	10.54	3.87	3.872	10.13	3.96	0.03	535541	33856	14827	392401	502205	487378	23474	262	1221	53	350213	3457369	25010
58	2017-11-16 13:24:37	6090647057476	14.51	3724	0.003896	10.48	3.9	3.896	10.22	3.98	0.03	540958	35546	15303	395850	506070	490767	23856	266	1238	54	353279	3457370	25414
59	2017-11-16 13:29:20	6090647057476	14.78	3724	0.003969	10.27	3.97	3.969	10.22	3.98	0.03	540958	36272	15303	395850	506070	490767	23856	267	1242	55	353279	3457372	25420
60	2017-11-16 13:39:49	6090647057476	15.57	4046	0.003848	10.51	3.85	3.848	10.4	4.01	0.03	552332	38483	16270	405516	513653	497383	24624	273	1251	55	359658	3457374	26203
61	2017-11-16 13:50:19	6090647057476	16.54	4350	0.003802	10.56	3.8	3.802	10.49	4	0.03	558850	41184	16808	411833	517449	500641	25047	277	1274	56	362750	3457383	26654
62	2017-11-16 14:00:49	6090647057476	17.74	4617	0.003842	10.38	3.84	3.842	10.55	4.02	0.03	565894	44459	17306	415348	521273	503967	25550	285	1296	60	364828	3457375	27191
63	2017-11-16 14:11:20	6090647057476	18.82	4997	0.003766	10.52	3.77	3.766	10.65	4.01	0.04	572516	47486	17826	420961	524956	507130	26047	294	1315	61	368127	3457372	27717
64	2017-11-16 14:21:50	6090647057476	20.12	5383	0.003738	10.49	3.74	3.738	10.77	4.01	0.04	579549	51292	18364	426451	528901	510537	26583	300	1334	64	372274	3457382	28281
65	2017-11-16 14:32:23	6090647057476	21.34	5660	0.00377	10.35	3.77	3.77	10.84	4.03	0.04	587099	54703	18879	430325	533088	514209	27143	309	1355	65	374683	3457383	28872
66	2017-11-16 14:42:50	6090647057476	23.03	6170	0.003733	10.41	3.73	3.733	10.97	4.02	0.04	595649	59267	19557	438088	537553	517996	27774	324	1392	65	379180	3457384	29555
67	2017-11-16 14:53:20	6090647057476	25.67	6617	0.003879	10.08	3.88	3.879	11.07	4.06	0.04	606047	65646	20275	446430	542156	521881	28603	334	1418	71	382733	3457390	30426
68	2017-11-16 15:03:48	6090647057476	29.01	7483	0.003877	10.21	3.88	3.877	11.16	4.03	0.04	617885	73282	20969	456508	546917	525948	29543	347	1448	77	385782	3457376	31415
69	2017-11-16 15:14:19	6090647057476	33.79	8642	0.00391	10.4	3.91	3.91	11.23	4	0.04	631255	83112	21717	463910	551510	529793	30683	366	1486	84	388249	3457383	32619
70	2017-11-16 15:24:51	6090647057476	42.1	9802	0.004295	9.96	4.29	4.295	11.38	4.03	0.04	648104	98430	22506	478665	556016	533510	32226	385	1543	92	393370	3457399	34246
71	2017-11-16 15:35:32	6090647057476	57.36	12336	0.00465	9.86	4.65	4.65	11.5	4.17	0.04	687254	125099	23878	504989	563141	539263	35845	424	1609	98	397524	3457421	37976
72	2017-11-16 15:45:55	6090647057476	70.49	15109	0.004665	10.17	4.67	4.665	11.62	4.09	0.05	715368	148512	25095	528939	568438	543343	38377	455	1679	101	401797	3457443	40612
73	2017-11-16 15:56:23	6090647057476	83.32	16927	0.004922	9.82	4.92	4.922	11.76	4.2	0.05	743839	172387	26422	557212	573604	547182	41018	478	1754	104	406570	3457462	43354
74	2017-11-16 16:06:51	6090647057476	95.65	19590	0.004883	10	4.88	4.883	12.08	4.12	0.05	772099	195919	28027	583806	578954	550927	43442	502	1815	111	417725	3457477	45870
75	2017-11-16 16:17:21	6090647057476	107.28	21267	0.005044	9.75	5.04	5.044	12.2	4.2	0.05	799980	218205	29682	610929	584516	554834	45843	528	1872	116	421862	3457490	48359
76	2017-11-16 16:27:50	6090647057476	120.29	23938	0.005025	9.88	5.03	5.025	12.4	4.13	0.06	828493	242410	31479	637427	590184	558705	48328	561	1930	123	428722	3457498	50942
77	2017-11-16 16:38:20	6090647057476	134.35	26794	0.005014	10.01	5.01	5.014	12.53	4.08	0.06	859682	267636	33478	664723	596105	562627	51093	578	1985	140	433158	3457511	53796
78	2017-11-16 16:48:52	6090647057476	150.74	28645	0.005262	9.65	5.26	5.262	12.72	4.17	0.06	889709	296733	35413	684542	602028	566615	53732	600	2035	141	439897	3457536	56508
79	2017-11-16 16:59:21	6090647057476	163.06	31163	0.005232	9.77	5.23	5.232	12.9	4.11	0.07	918047	318985	37303	712753	608022	570719	56168	621	2089	146	446012	3457557	59024
80	2017-11-16 17:09:50	6090647057476	174.25	32636	0.005339	9.62	5.34	5.339	13.03	4.19	0.07	943871	339354	39323	732241	613485	574162	58321	647	2142	153	450505	3457562	61263
81	2017-11-16 17:20:22	6090647057476	185.92	34770	0.005347	9.63	5.35	5.347	13.26	4.3	0.07	983323	360924	42282	763364	621599	579317	61471	659	2194	159	458630	3457577	64483
82	2017-11-16 17:30:50	6090647057476	199.03	37111	0.005363	9.65	5.36	5.363	13.41	4.25	0.08	1012050	384420	44242	798478	627039	582797	63770	681	2252	163	463808	3457589	66866
83	2017-11-16 17:41:22	6090647057476	212.96	38796	0.005489	9.48	5.49	5.489	13.5	4.32	0.08	1041269	409070	46142	828766	632153	586011	66135	704	2309	165	466815	3457617	69313
84	2017-11-16 17:51:52	6090647057476	226.91	41250	0.005501	9.52	5.5	5.501	13.59	4.27	0.08	1070320	433389	48036	852592	637534	589498	68461	720	2357	170	469892	3457635	71708
85	2017-11-16 18:02:23	6090647057476	244.35	43732	0.005587	9.46	5.59	5.587	13.75	4.21	0.08	1099411	462089	50112	889674	643184	593072	70827	745	2404	172	475454	3457650	74148
86	2017-11-16 18:12:54	6090647057476	259.67	45409	0.005718	9.33	5.72	5.718	13.92	4.28	0.09	1129272	486709	52213	914334	648660	596447	73187	765	2454	173	481207	3457670	76579
87	2017-11-16 18:23:33	6090647057476	273.53	47694	0.005735	9.37	5.73	5.735	14.01	4.23	0.09	1157088	508847	54340	941301	654052	599712	75362	784	2506	177	484325	3457688	78829
88	2017-11-16 18:34:02	6090647057476	287.29	49228	0.005836	9.27	5.84	5.836	14.06	4.3	0.09	1184269	530832	56554	958880	659673	603119	77561	800	2553	181	486055	3457708	81095
89	2017-11-16 18:44:27	6090647057476	300.78	51489	0.005842	9.32	5.84	5.842	14.17	4.24	0.1	1210843	552417	58773	985033	665222	606449	79709	829	2601	185	489817	3457725	83324
90	2017-11-16 18:54:54	6090647057476	314.8	53861	0.005845	9.36	5.85	5.845	14.26	4.19	0.1	1239303	575393	61384	1009033	671306	609922	81969	847	2664	188	493160	3457750	85668
91	2017-11-16 19:05:30	6090647057476	328.72	55438	0.00593	9.26	5.93	5.93	14.4	4.4	0.11	1281609	598374	65181	1055422	680011	614830	85342	863	2711	194	497783	3457777	89110
92	2017-11-16 19:15:53	6090647057476	343.77	57681	0.00596	9.26	5.96	5.96	14.46	4.35	0.11	1307513	623195	67565	1068897	685425	617860	87474	877	2753	198	500024	3457799	91302
93	2017-11-16 19:26:23	6090647057476	356.06	59035	0.006031	9.18	6.03	6.031	14.52	4.4	0.11	1332229	643314	70063	1083781	690750	620687	89440	893	2797	202	502107	3457824	93332
94	2017-11-16 19:36:52	6090647057476	368.6	61230	0.00602	9.23	6.02	6.02	14.56	4.36	0.12	1356745	663095	72360	1104857	695634	623274	91565	911	2843	205	503618	3457836	95524
95	2017-11-16 19:47:25		0	0	0	0	0	0	14.6	6.78	0.12	1374086	674006	74622	1125004	700080	625458	93125	927	2870	211	504788	3457856	97133
96	2017-11-16 19:57:54		0	0	0	0	0	0	14.65	6.79	0.12	1383793	679547	76866	1132048	704246	627380	93964	939	2892	213	506439	3457872	98008
97	2017-11-16 20:08:25		0	0	0	0	0	0	14.68	6.8	0.13	1392482	684129	79015	1137454	708353	629338	94662	947	2912	214	507487	3457877	98735
98	2017-11-16 20:18:54		0	0	0	0	0	0	14.71	6.8	0.13	1400815	688260	81186	1142148	712555	631369	95295	954	2932	214	508570	3457888	99395
99	2017-11-16 20:29:24		0	0	0	0	0	0	14.82	6.81	0.13	1408291	691795	83182	1150904	716496	633314	95878	964	2952	215	512400	3457919	100009
100	2017-11-16 20:40:05		0	0	0	0	0	0	14.86	6.81	0.13	1415733	695264	85174	1158643	720469	635295	96455	971	2970	216	513781	3457944	100612
101	2017-11-16 20:50:35		0	0	0	0	0	0	14.92	6.82	0.14	1426153	699890	88104	1173060	726263	638159	97227	979	2989	217	515965	3457956	101412
102	2017-11-16 21:01:00		0	0	0	0	0	0	14.95	6.82	0.14	1433032	702899	90045	1176570	730133	640088	97734	984	2997	217	516826	3457975	101932
103	2017-11-16 21:11:28		0	0	0	0	0	0	15.03	6.82	0.14	1439377	705482	91902	1181452	733895	641993	98209	988	3010	218	519601	3458001	102425
104	2017-11-16 21:21:56		0	0	0	0	0	0	15.03	6.83	0.15	1445936	708151	93745	1186290	737785	644040	98689	994	3025	218	519857	3458017	102926
105	2017-11-16 21:32:29		0	0	0	0	0	0	15.05	6.83	0.15	1452058	710470	95508	1191221	741588	646080	99158	997	3032	218	520338	3458023	103405
106	2017-11-16 21:42:56		0	0	0	0	0	0	15.09	6.83	0.15	1457923	712701	97192	1194251	745222	648030	99631	1001	3042	218	521958	3458039	103892
107	2017-11-16 21:53:33		0	0	0	0	0	0	15.1	6.84	0.15	1463552	714798	98749	1198179	748754	650005	100039	1004	3049	218	522134	3458055	104310
108	2017-11-16 22:03:59		0	0	0	0	0	0	15.11	6.84	0.15	1468808	716658	100333	1199564	752150	651817	100413	1006	3056	218	522485	3458069	104693
109	2017-11-16 22:14:30		0	0	0	0	0	0	15.14	6.84	0.16	1473979	718460	101859	1201834	755519	653660	100816	1008	3060	218	523722	3458080	105102
110	2017-11-16 22:25:02		0	0	0	0	0	0	15.16	6.84	0.16	1478771	720094	103315	1204405	758677	655362	101161	1013	3068	218	524343	3458100	105460
111	2017-11-16 22:35:33		0	0	0	0	0	0	15.24	6.84	0.16	1485916	722364	105520	1210438	763552	658032	101678	1022	3074	219	527043	3458114	105993
112	2017-11-16 22:45:59		0	0	0	0	0	0	15.26	6.84	0.16	1490445	723728	107020	1218656	766717	659697	102000	1026	3086	220	527672	3458135	106332
113	2017-11-16 22:56:34		0	0	0	0	0	0	15.26	6.85	0.16	1494565	724802	108423	1218656	769763	661340	102332	1030	3101	221	527672	3458137	106684
114	2017-11-16 23:07:04		0	0	0	0	0	0	15.27	6.85	0.17	1498413	725867	109708	1221322	772546	662838	102628	1037	3109	222	528030	3458140	106996
115	2017-11-16 23:17:37		0	0	0	0	0	0	15.29	6.85	0.17	1501987	726754	110950	1222166	775233	664283	102876	1041	3119	222	528740	3458154	107258
116	2017-11-16 23:28:07		0	0	0	0	0	0	15.29	6.85	0.17	1505120	727560	112008	1224885	777560	665552	103068	1042	3123	222	528819	3458172	107455
117	2017-11-16 23:39:54		0	0	0	0	0	0	15.33	6.85	0.17	1507917	728228	112999	1224885	779689	666690	103270	1043	3128	222	530087	3458179	107663
118	2017-11-16 23:49:22		0	0	0	0	0	0	15.34	6.85	0.17	1510477	728782	113962	1228774	781695	667733	103455	1045	3132	222	530632	3458192	107854
119	2017-11-16 23:59:50		0	0	0	0	0	0	15.37	6.85	0.17	1512735	729191	114755	1228774	783544	668789	103623	1045	3135	222	531634	3458206	108025
120	2017-11-17 00:52:25		0	0	0	0	0	0	15.41	6.85	0.18	1521302	730343	118006	1235085	790959	672953	104241	1050	3154	222	532961	3458220	108667
121	2017-11-17 01:57:44		0	0	0	0	0	0	15.43	6.85	0.18	1526080	730481	119893	1236564	795599	675706	104552	1052	3158	222	533604	3458229	108984
122	2017-11-17 03:02:49		0	0	0	0	0	0	15.44	6.85	0.18	1528524	730481	120835	1238760	798043	677208	104734	1053	3160	222	533966	3458241	109169
123	2017-11-17 04:07:49		0	0	0	0	0	0	15.47	6.85	0.18	1530163	730481	121511	1242239	799682	678171	104828	1052	3162	222	535073	3458250	109264
124	2017-11-17 05:12:49		0	0	0	0	0	0	15.48	6.85	0.18	1531907	730481	122229	1242239	801426	679197	104909	1052	3163	222	535443	3458261	109346
125	2017-11-17 06:17:54		0	0	0	0	0	0	15.5	6.84	0.18	1535072	730481	123515	1243579	804591	681076	105058	1054	3168	222	536162	3458274	109502
126	2017-11-17 07:05:45		0	0	0	0	0	0	15.52	6.84	0.18	1538623	730481	125101	1249035	808142	683041	105290	1056	3174	222	536813	3458309	109742
127	2017-11-17 07:16:47		0	0	0	0	0	0	15.53	6.84	0.18	1539958	730481	125759	1253063	809477	683718	105404	1057	3175	222	537092	3458320	109858
128	2017-11-17 07:46:39		0	0	0	0	0	0	15.56	6.85	0.19	1542348	730481	126938	1255095	811867	684929	105603	1059	3178	223	538212	3458349	110063
129	2017-11-17 07:54:49		0	0	0	0	0	0	15.56	6.85	0.19	1543277	730481	127381	1255095	812796	685415	105666	1060	3180	223	538212	3458361	110129
130	2017-11-17 08:05:26		0	0	0	0	0	0	15.58	6.85	0.19	1544203	730481	127824	1257133	813722	685898	105744	1061	3180	223	538774	3458366	110208
131	2017-11-17 08:20:52		0	0	0	0	0	0	15.58	6.85	0.19	1545684	730481	128562	1257133	815203	686641	105861	1063	3184	223	538774	3458388	110331
132	2017-11-17 08:31:45		0	0	0	0	0	0	15.58	6.85	0.19	1547175	730481	129313	1257133	816694	687381	105989	1063	3186	223	538915	3458400	110461
133	2017-11-17 08:42:15		0	0	0	0	0	0	15.58	6.85	0.19	1548130	730481	129822	1257133	817649	687827	106048	1064	3187	223	538915	3458411	110522
134	2017-11-17 08:52:58		0	0	0	0	0	0	15.59	6.85	0.19	1549016	730481	130265	1258123	818535	688270	106111	1064	3191	223	539285	3458431	110589
135	2017-11-17 09:06:22		0	0	0	0	0	0	15.61	6.85	0.19	1549920	730481	130724	1260107	819439	688715	106185	1066	3191	223	539849	3458446	110665
136	2017-11-17 09:16:44		0	0	0	0	0	0	15.62	6.85	0.19	1551385	730481	131469	1260107	820904	689435	106286	1068	3195	223	540225	3458463	110772
137	2017-11-17 09:30:15		0	0	0	0	0	0	15.62	6.85	0.19	1552257	730481	131920	1260363	821776	689856	106345	1068	3199	223	540225	3458487	110835
138	2017-11-17 09:42:28		0	0	0	0	0	0	15.62	6.85	0.19	1553168	730481	132422	1260748	822687	690265	106409	1068	3201	223	540390	3458505	110901
139	2017-11-17 09:53:03		0	0	0	0	0	0	15.66	6.85	0.19	1554501	730481	133096	1263384	824020	690924	106513	1069	3203	223	541525	3458517	111008
140	2017-11-17 10:03:36		0	0	0	0	0	0	15.66	6.85	0.19	1555375	730481	133599	1263384	824894	691295	106581	1070	3204	223	541525	3458531	111078
141	2017-11-17 10:14:08		0	0	0	0	0	0	15.66	6.85	0.19	1556250	730481	134039	1263384	825769	691730	106637	1070	3205	223	541525	3458563	111135
142	2017-11-17 10:24:38		0	0	0	0	0	0	15.66	6.85	0.19	1557049	730481	134477	1265304	826568	692091	106691	1070	3208	223	541711	3458587	111192
143	2017-11-17 10:35:11		0	0	0	0	0	0	15.66	6.85	0.19	1557790	730481	134894	1265304	827309	692415	106739	1070	3210	223	541711	3458595	111242
144	2017-11-17 10:36:44		0	0	0	0	0	0	15.66	6.85	0.19	1557790	730481	134894	1265304	827309	692415	106739	1070	3210	223	541711	3458597	111242
145	2017-11-17 10:47:11		0	0	0	0	0	0	15.66	6.85	0.2	1558921	730481	135535	1265304	828440	692905	106823	1070	3210	223	541711	3458608	111326
146	2017-11-17 10:57:42		0	0	0	0	0	0	15.67	6.85	0.2	1559678	730481	135974	1265304	829197	693223	106874	1070	3212	223	541901	3458621	111379
147	2017-11-17 11:08:13		0	0	0	0	0	0	15.67	6.85	0.2	1560498	730481	136462	1268414	830017	693555	106928	1070	3213	223	541901	3458639	111434
148	2017-11-17 11:18:42		0	0	0	0	0	0	15.67	6.85	0.2	1561245	730481	136893	1268414	830764	693871	107001	1070	3215	224	541901	3458656	111510
149	2017-11-17 11:29:13		0	0	0	0	0	0	15.69	6.85	0.2	1562012	730481	137338	1272977	831531	694193	107047	1070	3215	224	542637	3458666	111556
150	2017-11-17 11:39:54		0	0	0	0	0	0	15.69	6.85	0.2	1562722	730481	137756	1272977	832241	694485	107096	1070	3216	224	542637	3458676	111606
151	2017-11-17 11:50:15		0	0	0	0	0	0	15.7	6.85	0.2	1563491	730481	138148	1274287	833010	694862	107155	1071	3217	224	542994	3458693	111667
152	2017-11-17 12:00:43		0	0	0	0	0	0	15.7	6.85	0.2	1564217	730481	138516	1274287	833736	695220	107208	1072	3217	224	542994	3458704	111721
153	2017-11-17 12:11:13		0	0	0	0	0	0	15.7	6.85	0.2	1564947	730481	138874	1276388	834466	695592	107253	1072	3217	224	542994	3458722	111766
154	2017-11-17 12:21:42		0	0	0	0	0	0	15.7	6.85	0.2	1565993	730481	139401	1278496	835512	696111	107323	1072	3217	224	542994	3458740	111836
155	2017-11-17 12:32:14		0	0	0	0	0	0	15.7	6.85	0.2	1566647	730481	139730	1278496	836166	696436	107375	1072	3219	224	542994	3458769	111890
156	2017-11-17 12:42:48		0	0	0	0	0	0	15.7	6.85	0.2	1567018	730481	139921	1279008	836537	696616	107403	1073	3219	224	542994	3458818	111919
157	2017-11-17 12:53:13		0	0	0	0	0	0	15.7	6.85	0.2	1568148	730481	140538	1279008	837667	697129	107467	1074	3221	224	542994	3458851	111986
158	2017-11-17 13:03:45		0	0	0	0	0	0	15.7	6.85	0.2	1568830	730481	140899	1279008	838349	697450	107515	1074	3221	224	542994	3458882	112034
159	2017-11-17 13:14:12		0	0	0	0	0	0	15.7	6.85	0.2	1569532	730481	141278	1279933	839051	697773	107569	1075	3221	224	543160	3458906	112089
160	2017-11-17 13:24:43		0	0	0	0	0	0	15.7	6.85	0.2	1570177	730481	141592	1279933	839696	698104	107601	1075	3221	224	543160	3458928	112121
161	2017-11-17 13:35:14		0	0	0	0	0	0	15.72	6.85	0.2	1570865	730481	141952	1279933	840384	698432	107650	1075	3221	224	543733	3458946	112170
162	2017-11-17 13:45:43		0	0	0	0	0	0	15.72	6.85	0.2	1571590	730481	142299	1279933	841109	698810	107700	1075	3223	224	543733	3458975	112222
163	2017-11-17 13:56:14		0	0	0	0	0	0	15.72	6.85	0.2	1572315	730481	142649	1279966	841834	699185	107768	1077	3225	224	543733	3459002	112294
164	2017-11-17 14:06:47		0	0	0	0	0	0	15.72	6.85	0.2	1573463	730481	143215	1281025	842982	699767	107830	1078	3225	224	543733	3459027	112357
165	2017-11-17 14:17:15		0	0	0	0	0	0	15.72	6.85	0.21	1574227	730481	143580	1281025	843746	700166	107882	1078	3226	224	543733	3459047	112410
166	2017-11-17 14:27:45		0	0	0	0	0	0	15.72	6.85	0.21	1574935	730481	143925	1281025	844454	700529	107922	1078	3229	224	543733	3459074	112453
167	2017-11-17 14:38:15		0	0	0	0	0	0	15.72	6.85	0.21	1575638	730481	144284	1282352	845157	700873	107974	1078	3230	224	543733	3459100	112506
168	2017-11-17 14:48:47		0	0	0	0	0	0	15.72	6.85	0.21	1576388	730481	144659	1283348	845907	701248	108022	1078	3231	224	543733	3459122	112555
169	2017-11-17 14:59:14		0	0	0	0	0	0	15.73	6.85	0.21	1577111	730481	145009	1283348	846630	701621	108078	1078	3232	224	544115	3459144	112612
170	2017-11-17 15:09:45		0	0	0	0	0	0	15.73	6.85	0.21	1577827	730481	145354	1283614	847346	701992	108128	1078	3233	224	544115	3459164	112663
171	2017-11-17 15:20:17		0	0	0	0	0	0	15.73	6.85	0.21	1578529	730481	145687	1284346	848048	702361	108182	1079	3234	224	544115	3459191	112719
172	2017-11-17 15:30:53		0	0	0	0	0	0	15.73	6.85	0.21	1579224	730481	145998	1284346	848743	702745	108235	1079	3234	224	544115	3459215	112772
173	2017-11-17 15:41:21		0	0	0	0	0	0	15.73	6.85	0.21	1579776	730481	146295	1284346	849295	703000	108276	1079	3235	224	544115	3459227	112814
174	2017-11-17 15:51:50		0	0	0	0	0	0	15.75	6.86	0.21	1580609	730481	146785	1284346	850128	703343	108351	1079	3236	224	544689	3459250	112890
175	2017-11-17 16:02:19		0	0	0	0	0	0	15.75	6.85	0.21	1581182	730481	147107	1285413	850701	703594	108389	1080	3236	224	544689	3459278	112929
176	2017-11-17 16:12:55		0	0	0	0	0	0	15.75	6.86	0.21	1581683	730481	147405	1285679	851202	703797	108433	1080	3236	224	544689	3459304	112973
177	2017-11-17 16:23:20		0	0	0	0	0	0	15.75	6.86	0.21	1582191	730481	147722	1285679	851710	703988	108475	1080	3237	224	544833	3459326	113016
178	2017-11-17 16:34:01		0	0	0	0	0	0	15.75	6.86	0.21	1582747	730481	148032	1285679	852266	704234	108512	1080	3237	224	544833	3459347	113053
179	2017-11-17 16:44:20		0	0	0	0	0	0	15.75	6.86	0.21	1583227	730481	148297	1285679	852746	704449	108557	1081	3237	224	544833	3459374	113099
180	2017-11-17 16:54:51		0	0	0	0	0	0	15.75	6.86	0.21	1583784	730481	148600	1286214	853303	704703	108611	1082	3238	224	544833	3459388	113155
181	2017-11-17 17:05:21		0	0	0	0	0	0	15.75	6.86	0.21	1584306	730481	148890	1287283	853825	704935	108651	1083	3238	224	545025	3459406	113196
182	2017-11-17 17:15:52		0	0	0	0	0	0	15.77	6.86	0.21	1584756	730481	149155	1287283	854275	705120	108699	1084	3238	224	545409	3459431	113245
183	2017-11-17 17:26:29		0	0	0	0	0	0	15.77	6.86	0.21	1585193	730481	149420	1287283	854712	705292	108738	1084	3242	224	545409	3459457	113288
184	2017-11-17 17:36:51		0	0	0	0	0	0	15.77	6.86	0.21	1585665	730481	149695	1287283	855184	705589	108790	1085	3242	224	545409	3459474	113341
185	2017-11-17 17:47:22		0	0	0	0	0	0	15.77	6.86	0.21	1586367	730481	150117	1287283	855886	705769	108833	1085	3243	224	545409	3459498	113385
186	2017-11-17 17:57:53		0	0	0	0	0	0	15.8	6.86	0.21	1586829	730481	150363	1291040	856348	705985	108872	1086	3244	224	546467	3459522	113426
187	2017-11-17 18:08:24		0	0	0	0	0	0	15.8	6.86	0.21	1587279	730481	150643	1291814	856798	706155	108914	1086	3245	224	546467	3459542	113469
188	2017-11-17 18:18:52		0	0	0	0	0	0	15.8	6.86	0.21	1587758	730481	150926	1292320	857277	706351	108951	1088	3246	224	546654	3459570	113509
189	2017-11-17 18:29:24		0	0	0	0	0	0	15.8	6.86	0.21	1588242	730481	151241	1292860	857761	706520	108981	1088	3247	224	546654	3459591	113540
190	2017-11-17 18:39:53		0	0	0	0	0	0	15.8	6.86	0.21	1588774	730481	151561	1292860	858293	706732	109014	1089	3248	224	546654	3459624	113575
191	2017-11-17 18:50:27		0	0	0	0	0	0	15.82	6.86	0.21	1589304	730481	151886	1297125	858823	706937	109058	1090	3249	224	547415	3459652	113621
192	2017-11-17 19:01:10		0	0	0	0	0	0	15.83	6.86	0.22	1589909	730481	152192	1297940	859428	707236	109098	1090	3251	224	547561	3459667	113663
193	2017-11-17 19:11:25		0	0	0	0	0	0	15.83	6.86	0.22	1590594	730481	152478	1297940	860113	707635	109143	1091	3251	224	547561	3459678	113709
194	2017-11-17 19:22:12		0	0	0	0	0	0	15.83	6.86	0.22	1591677	730481	152915	1298212	861196	708281	109198	1091	3251	224	547706	3459699	113764
195	2017-11-17 19:32:41		0	0	0	0	0	0	15.83	6.86	0.22	1592382	730481	153196	1298417	861901	708705	109232	1091	3253	225	547706	3459716	113801
196	2017-11-17 19:43:14		0	0	0	0	0	0	15.83	6.86	0.22	1593084	730481	153486	1298417	862603	709117	109265	1091	3256	225	547706	3459751	113837
197	2017-11-17 19:53:48		0	0	0	0	0	0	15.83	6.86	0.22	1593811	730481	153785	1299234	863330	709545	109296	1091	3257	225	547706	3459765	113869
198	2017-11-17 20:04:29		0	0	0	0	0	0	15.83	6.86	0.22	1594535	730481	154059	1299234	864054	709995	109323	1091	3258	225	547706	3459783	113897
199	2017-11-17 20:14:57		0	0	0	0	0	0	15.83	6.85	0.22	1595275	730481	154374	1299234	864794	710420	109353	1092	3259	225	547706	3459802	113929
200	2017-11-17 20:25:36		0	0	0	0	0	0	15.83	6.85	0.22	1595976	730481	154662	1300325	865495	710833	109384	1092	3262	225	547706	3459829	113963
201	2017-11-17 20:36:05		0	0	0	0	0	0	15.84	6.85	0.22	1596731	730481	154983	1300325	866250	711267	109426	1093	3264	225	548094	3459858	114008
202	2017-11-17 20:46:29		0	0	0	0	0	0	15.84	6.85	0.22	1597429	730481	155251	1300325	866948	711697	109466	1094	3266	225	548094	3459869	114051
203	2017-11-17 20:56:57		0	0	0	0	0	0	15.86	6.85	0.22	1598196	730481	155573	1300325	867715	712142	109514	1094	3267	226	548677	3459894	114101
204	2017-11-17 21:07:34		0	0	0	0	0	0	15.86	6.85	0.22	1599339	730481	156056	1302239	868858	712802	109542	1094	3267	226	548677	3459914	114129
205	2017-11-17 21:18:18		0	0	0	0	0	0	15.86	6.85	0.22	1600052	730481	156329	1302239	869571	713242	109580	1094	3268	226	548677	3459936	114168
206	2017-11-17 21:28:48		0	0	0	0	0	0	15.86	6.85	0.22	1600762	730481	156592	1302239	870281	713689	109608	1095	3269	226	548677	3459959	114198
207	2017-11-17 21:40:18		0	0	0	0	0	0	15.86	6.85	0.22	1601445	730481	156870	1303335	870964	714094	109624	1095	3270	226	548871	3459983	114215
208	2017-11-17 21:50:37		0	0	0	0	0	0	15.86	6.84	0.22	1602140	730481	157142	1303335	871659	714517	109651	1095	3271	226	548871	3460015	114243
209	2017-11-17 22:01:00		0	0	0	0	0	0	15.86	6.84	0.22	1602839	730481	157399	1303335	872358	714959	109677	1096	3271	226	548871	3460034	114270
210	2017-11-17 22:12:38		0	0	0	0	0	0	15.86	6.84	0.22	1603501	730481	157661	1303335	873020	715359	109729	1096	3274	226	548871	3460054	114325
211	2017-11-17 22:22:04		0	0	0	0	0	0	15.86	6.84	0.22	1604191	730481	157925	1303335	873710	715785	109749	1096	3275	226	548871	3460076	114346
212	2017-11-17 22:32:32		0	0	0	0	0	0	15.86	6.84	0.22	1605168	730481	158319	1303884	874687	716368	109796	1095	3275	226	548871	3460105	114392
213	2017-11-17 22:43:12		0	0	0	0	0	0	15.86	6.84	0.22	1605752	730481	158541	1303884	875271	716730	109823	1095	3276	226	548871	3460131	114420
214	2017-11-17 22:54:11		0	0	0	0	0	0	15.86	6.84	0.22	1606340	730481	158781	1303884	875859	717078	109849	1095	3276	226	548871	3460154	114446
215	2017-11-17 23:04:25		0	0	0	0	0	0	15.86	6.84	0.22	1606922	730481	159007	1303884	876441	717434	109877	1095	3277	226	548871	3460176	114475
216	2017-11-17 23:15:23		0	0	0	0	0	0	15.88	6.84	0.22	1607482	730481	159250	1304296	877001	717751	109911	1096	3279	226	549553	3460199	114512
217	2017-11-17 23:25:58		0	0	0	0	0	0	15.88	6.84	0.22	1608009	730481	159463	1305396	877528	718065	109938	1096	3279	226	549553	3460210	114539
218	2017-11-17 23:36:31		0	0	0	0	0	0	15.88	6.84	0.22	1608519	730481	159675	1305947	878038	718363	109965	1096	3280	226	549650	3460220	114567
219	2017-11-17 23:46:59		0	0	0	0	0	0	15.88	6.84	0.22	1608994	730481	159870	1305947	878513	718643	109988	1096	3281	226	549650	3460235	114591
220	2017-11-17 23:57:52		0	0	0	0	0	0	15.88	6.83	0.22	1609678	730481	160123	1305947	879197	719074	110018	1096	3281	226	549650	3460238	114621
221	2017-11-18 00:41:40		0	0	0	0	0	0	15.9	6.83	0.22	1611091	730481	160672	1308706	880610	719938	110077	1096	3283	226	550139	3460282	114682
222	2017-11-18 01:44:59		0	0	0	0	0	0	15.9	6.83	0.22	1612569	730481	161309	1308706	882088	720779	110128	1096	3284	226	550139	3460323	114734
223	2017-11-18 02:51:02		0	0	0	0	0	0	15.9	6.83	0.22	1613379	730481	161636	1308706	882898	721262	110161	1096	3286	226	550139	3460356	114769
224	2017-11-18 03:55:33		0	0	0	0	0	0	15.9	6.83	0.22	1613941	730481	161872	1308706	883460	721588	110181	1096	3286	226	550139	3460368	114789
225	2017-11-18 05:04:54		0	0	0	0	0	0	15.9	6.83	0.22	1614419	730481	162028	1309537	883938	721910	110195	1096	3286	226	550285	3460377	114803
226	2017-11-18 06:11:30		0	0	0	0	0	0	15.91	6.82	0.22	1614973	730481	162206	1310091	884492	722286	110219	1097	3287	226	550481	3460395	114829
227	2017-11-18 07:15:07		0	0	0	0	0	0	15.91	6.82	0.22	1615845	730481	162465	1310645	885364	722899	110260	1097	3290	226	550579	3460446	114873
228	2017-11-18 07:32:17		0	0	0	0	0	0	15.91	6.82	0.22	1616130	730481	162548	1310645	885649	723101	110272	1097	3290	226	550579	3460463	114885
229	2017-11-18 08:12:34		0	0	0	0	0	0	15.92	6.82	0.22	1616651	730481	162707	1310645	886170	723463	110295	1097	3290	226	550971	3460516	114908
230	2017-11-18 08:25:51		0	0	0	0	0	0	15.92	6.82	0.23	1617380	730481	162929	1311478	886899	723970	110336	1097	3290	226	550971	3460545	114949
231	2017-11-18 08:34:40		0	0	0	0	0	0	15.92	6.82	0.23	1617635	730481	163012	1311478	887154	724142	110347	1097	3290	226	550971	3460565	114960
232	2017-11-18 08:45:29		0	0	0	0	0	0	15.92	6.82	0.23	1617889	730481	163089	1311478	887408	724319	110360	1097	3290	226	550971	3460581	114973
233	2017-11-18 08:57:37		0	0	0	0	0	0	15.92	6.82	0.23	1618137	730481	163160	1311478	887656	724496	110370	1097	3290	226	550971	3460598	114983
234	2017-11-18 09:09:12		0	0	0	0	0	0	15.92	6.82	0.23	1618505	730481	163271	1311478	888024	724753	110394	1097	3290	226	550971	3460619	115007
235	2017-11-18 09:43:38		0	0	0	0	0	0	15.93	6.82	0.23	1619279	730481	163468	1313147	888798	725330	110424	1097	3290	226	551118	3460675	115037
236	2017-11-18 09:48:49		0	0	0	0	0	0	15.93	6.82	0.23	1619511	730481	163517	1313147	889030	725513	110438	1097	3290	226	551118	3460686	115051
237	2017-11-18 10:24:53		0	0	0	0	0	0	15.93	6.82	0.23	1620364	730481	163730	1314261	889883	726153	110481	1096	3292	226	551314	3460744	115095
238	2017-11-18 10:41:28		0	0	0	0	0	0	15.93	6.82	0.23	1620768	730481	163825	1314261	890287	726462	110496	1096	3292	226	551314	3460766	115110
239	2017-11-18 10:54:09		0	0	0	0	0	0	15.93	6.82	0.23	1621177	730481	163894	1315378	890696	726802	110507	1096	3293	226	551314	3460795	115122
240	2017-11-18 11:10:19		0	0	0	0	0	0	15.93	6.82	0.23	1621589	730481	163981	1315378	891108	727127	110531	1097	3294	226	551314	3460802	115148
241	2017-11-18 11:23:37		0	0	0	0	0	0	15.93	6.82	0.23	1621876	730481	164043	1315378	891395	727352	110541	1097	3294	226	551314	3460823	115158
242	2017-11-18 11:36:39		0	0	0	0	0	0	15.93	6.81	0.23	1622294	730481	164124	1315378	891813	727689	110553	1097	3294	226	551314	3460839	115170
243	2017-11-18 11:51:58		0	0	0	0	0	0	15.93	6.81	0.23	1622702	730481	164214	1315378	892221	728007	110570	1097	3294	226	551314	3460861	115187
244	2017-11-18 12:02:41		0	0	0	0	0	0	15.93	6.81	0.23	1622942	730481	164254	1315378	892461	728207	110576	1096	3294	226	551314	3460874	115192
245	2017-11-18 12:17:42		0	0	0	0	0	0	15.93	6.81	0.23	1623298	730481	164312	1315378	892817	728505	110597	1096	3294	226	551314	3460888	115213
246	2017-11-18 12:26:02		0	0	0	0	0	0	15.93	6.81	0.23	1623552	730481	164357	1315378	893071	728714	110603	1096	3294	226	551314	3460895	115219
247	2017-11-18 12:45:54		0	0	0	0	0	0	15.93	6.81	0.23	1624051	730481	164462	1315378	893570	729108	110624	1096	3294	226	551314	3460916	115240
248	2017-11-18 12:54:10		0	0	0	0	0	0	15.93	6.81	0.23	1624266	730481	164496	1315378	893785	729289	110629	1096	3294	226	551314	3460925	115245
249	2017-11-18 13:16:59		0	0	0	0	0	0	15.93	6.81	0.23	1624767	730481	164610	1315378	894286	729676	110645	1096	3295	226	551314	3460943	115262
250	2017-11-18 13:25:48		0	0	0	0	0	0	15.93	6.81	0.23	1624990	730481	164646	1315378	894509	729863	110659	1096	3295	226	551314	3460953	115276
251	2017-11-18 13:45:05		0	0	0	0	0	0	15.93	6.81	0.23	1625417	730481	164747	1315378	894936	730189	110674	1096	3295	226	551314	3460970	115291
252	2017-11-18 13:58:34		0	0	0	0	0	0	15.94	6.81	0.23	1625605	730481	164793	1315937	895124	730331	110697	1096	3297	226	551609	3460983	115316
253	2017-11-18 14:17:31		0	0	0	0	0	0	15.94	6.81	0.23	1625993	730481	164897	1315937	895512	730615	110710	1096	3298	226	551609	3460993	115330
254	2017-11-18 14:36:36		0	0	0	0	0	0	15.94	6.81	0.23	1626438	730481	164966	1315937	895957	730991	110725	1096	3299	226	551609	3461003	115346
255	2017-11-18 14:49:10		0	0	0	0	0	0	15.94	6.81	0.23	1626801	730481	165039	1315937	896320	731281	110729	1096	3299	226	551609	3461012	115350
256	2017-11-18 15:08:16		0	0	0	0	0	0	15.94	6.81	0.23	1627146	730481	165102	1315937	896665	731563	110746	1096	3299	226	551609	3461021	115367
257	2017-11-18 15:51:14		0	0	0	0	0	0	15.94	6.8	0.23	1628223	730481	165341	1317897	897742	732401	110788	1096	3299	226	551609	3461053	115409
258	2017-11-18 16:13:46		0	0	0	0	0	0	15.94	6.8	0.23	1628745	730481	165455	1320004	898264	732809	110806	1096	3301	226	551609	3461062	115429
259	2017-11-18 16:36:46		0	0	0	0	0	0	15.95	6.8	0.23	1629377	730481	165598	1320567	898896	733298	110831	1096	3301	226	552002	3461074	115454
260	2017-11-18 16:45:11		0	0	0	0	0	0	15.97	6.8	0.23	1629616	730481	165646	1320567	899135	733489	110839	1096	3301	226	552692	3461075	115462
261	2017-11-18 16:55:42		0	0	0	0	0	0	15.97	6.8	0.23	1629872	730481	165701	1320567	899391	733690	110852	1096	3303	226	552692	3461078	115477
262	2017-11-18 17:06:45		0	0	0	0	0	0	15.97	6.8	0.23	1630123	730481	165749	1320567	899642	733893	110859	1096	3303	226	552692	3461084	115484
263	2017-11-18 17:36:36		0	0	0	0	0	0	15.97	6.8	0.23	1630936	730481	165915	1320567	900455	734540	110893	1096	3305	226	552692	3461096	115520
264	2017-11-18 17:47:02		0	0	0	0	0	0	15.97	6.8	0.23	1631232	730481	165987	1320567	900751	734764	110900	1097	3306	226	552889	3461103	115529
265	2017-11-18 17:57:07		0	0	0	0	0	0	15.97	6.8	0.23	1631550	730481	166082	1320567	901069	734987	110915	1097	3306	226	552889	3461115	115544
266	2017-11-18 18:17:54		0	0	0	0	0	0	15.97	6.8	0.23	1632171	730481	166240	1320567	901690	735450	110935	1097	3306	226	552889	3461120	115564
267	2017-11-18 18:37:19		0	0	0	0	0	0	15.97	6.8	0.23	1632822	730481	166387	1320567	902341	735954	110957	1097	3307	226	552889	3461132	115587
268	2017-11-18 18:55:00		0	0	0	0	0	0	15.97	6.79	0.23	1633352	730481	166504	1320567	902871	736367	110974	1097	3308	226	552889	3461149	115605
