1	2016-12-02 16:58:45	0	0	0	0	0	0	1.03	0.57	0.01	26281	1	158	24084	26281	26123	151	74	203	12	23987	2328849	440
2	2016-12-02 17:08:53	0	0	0	0	0	0	2.37	1.01	0.04	67953	1	2518	57904	67953	65435	683	184	488	23	55102	2328895	1378
3	2016-12-02 17:18:44	0	0	0	0	0	0	3.09	1.2	0.06	96352	1	5511	76866	96352	90841	1157	268	710	33	72058	2328937	2168
4	2016-12-02 17:28:44	0	0	0	0	0	0	3.68	1.27	0.08	119346	1	8672	93243	119346	110674	1513	322	894	37	85795	2328975	2766
5	2016-12-02 17:38:44	0	0	0	0	0	0	4.05	1.33	0.09	135178	1	11133	103752	135178	124045	1803	370	1016	41	94271	2329021	3230
6	2016-12-02 17:48:44	0	0	0	0	0	0	4.4	1.38	0.1	149328	1	13569	114293	149328	135759	2065	438	1127	42	102490	2329054	3672
7	2016-12-02 17:58:45	0	0	0	0	0	0	4.67	1.43	0.11	163427	1	16298	122573	163427	147129	2345	486	1225	44	108808	2329100	4100
8	2016-12-02 18:08:47	0	0	0	0	0	0	4.95	1.45	0.12	175097	1	18658	130519	175097	156439	2544	506	1320	45	115224	2329141	4415
9	2016-12-02 18:18:46	0	0	0	0	0	0	5.16	1.47	0.13	185877	1	20743	136837	185877	165134	2739	548	1386	47	120197	2329184	4720
10	2016-12-02 18:28:45	0	0	0	0	0	0	5.34	1.49	0.13	196182	1	22712	143076	196182	173470	2919	594	1462	50	124413	2329230	5025
11	2016-12-02 18:38:52	0	0	0	0	0	0	5.52	1.5	0.14	205926	1	24632	148115	205926	181294	3092	610	1542	53	128617	2329294	5297
12	2016-12-02 18:48:47	0	0	0	0	0	0	5.71	1.52	0.14	215557	1	26531	154029	215557	189026	3267	644	1614	53	133085	2329337	5578
13	2016-12-02 18:58:54	0	0	0	0	0	0	5.93	1.52	0.15	225231	1	28618	160251	225231	196613	3427	672	1682	56	138168	2329380	5837
14	2016-12-02 19:08:49	0	0	0	0	0	0	6.07	1.53	0.15	234723	1	30728	166089	234723	203995	3585	704	1750	56	141502	2329490	6095
15	2016-12-02 19:18:47	0	0	0	0	0	0	6.31	1.53	0.16	244251	1	32865	173125	244251	211386	3730	736	1816	58	147092	2329684	6340
16	2016-12-02 19:28:49	0	0	0	0	0	0	6.54	1.53	0.16	253641	1	34925	181000	253641	218716	3883	752	1868	60	152351	2329866	6563
17	2016-12-02 19:38:47	0	0	0	0	0	0	6.68	1.53	0.16	262982	1	37005	185698	262982	225977	4031	774	1922	63	155665	2330020	6790
18	2016-12-02 19:48:48	0	0	0	0	0	0	6.9	1.54	0.17	272154	1	39072	192390	272154	233082	4178	808	1979	66	160840	2330129	7031
19	2016-12-02 19:58:49	0	0	0	0	0	0	7.05	1.53	0.17	281305	1	41086	197983	281305	240219	4312	838	2031	67	164290	2330232	7248
20	2016-12-02 20:08:49	0	0	0	0	0	0	7.23	1.54	0.17	289807	1	43028	203537	289807	246779	4454	866	2100	69	168521	2330340	7489
21	2016-12-02 20:18:48	0	0	0	0	0	0	7.42	1.54	0.18	298517	1	45006	208231	298517	253511	4587	904	2146	69	172884	2330439	7706
22	2016-12-02 20:28:49	0	0	0	0	0	0	7.65	1.54	0.18	307572	1	47086	214528	307572	260486	4729	932	2216	70	178214	2330529	7947
23	2016-12-02 20:38:49	0	0	0	0	0	0	7.87	1.54	0.18	316653	1	49287	219944	316653	267366	4861	968	2284	74	183410	2330642	8187
24	2016-12-02 20:48:49	0	0	0	0	0	0	8.13	1.54	0.19	325864	1	51472	226279	325864	274392	5013	1004	2348	76	189472	2330729	8441
25	2016-12-02 20:58:50	0	0	0	0	0	0	8.3	1.54	0.19	334874	1	53639	230890	334874	281235	5159	1022	2400	78	193443	2330814	8659
26	2016-12-02 21:08:50	0	0	0	0	0	0	8.48	1.54	0.19	343377	1	55809	235060	343377	287568	5289	1040	2435	78	197627	2330910	8842
27	2016-12-02 21:18:50	0	0	0	0	0	0	8.69	1.54	0.2	351510	1	57836	240024	351510	293674	5411	1056	2501	80	202679	2331007	9048
28	2016-12-02 21:28:50	0	0	0	0	0	0	8.89	1.54	0.2	359637	1	59933	246834	359637	299704	5522	1088	2554	84	207323	2331088	9248
29	2016-12-02 21:38:50	0	0	0	0	0	0	9.04	1.53	0.2	368531	1	62100	251608	368531	306431	5646	1120	2603	86	210688	2331190	9455
30	2016-12-02 21:48:50	0	0	0	0	0	0	9.13	1.52	0.21	377665	1	64363	254943	377665	313302	5757	1132	2651	90	212914	2331270	9630
31	2016-12-02 21:58:52	0	0	0	0	0	0	9.33	1.52	0.21	386211	1	66467	259912	386211	319744	5875	1154	2705	92	217592	2331365	9826
32	2016-12-02 22:08:52	0	0	0	0	0	0	9.48	1.52	0.21	394525	1	68512	263198	394525	326013	6009	1172	2752	95	221119	2331445	10028
33	2016-12-02 22:18:51	0	0	0	0	0	0	9.66	1.53	0.21	403073	1	70677	269917	403073	332396	6159	1206	2809	96	225194	2331552	10270
34	2016-12-02 22:28:52	0	0	0	0	0	0	9.89	1.52	0.22	411629	1	72861	274433	411629	338768	6273	1242	2869	96	230678	2331646	10480
35	2016-12-02 22:38:51	0	0	0	0	0	0	10.02	1.52	0.22	419920	1	74926	279089	419920	344994	6380	1254	2922	97	233575	2331717	10653
36	2016-12-02 22:48:51	0	0	0	0	0	0	10.24	1.52	0.22	427866	1	77016	287029	427866	350850	6503	1286	2970	98	238753	2331792	10857
37	2016-12-02 22:58:51	0	0	0	0	0	0	10.46	1.52	0.22	435888	1	79163	294480	435888	356725	6615	1318	3015	99	243849	2331861	11047
38	2016-12-02 23:08:51	0	0	0	0	0	0	10.68	1.52	0.22	443827	1	81271	300894	443827	362556	6728	1350	3069	100	249039	2331939	11247
39	2016-12-02 23:18:48	0	0	0	0	0	0	10.88	1.52	0.23	451473	1	83279	307712	451473	368194	6842	1360	3108	101	253613	2331987	11411
40	2016-12-02 23:28:50	0	0	0	0	0	0	11.03	1.52	0.23	458826	1	85155	313392	458826	373671	6953	1386	3147	102	257245	2332031	11588
41	2016-12-02 23:38:48	0	0	0	0	0	0	11.12	1.52	0.23	465727	1	86830	317778	465727	378897	7063	1406	3194	103	259340	2332078	11766
42	2016-12-02 23:48:48	0	0	0	0	0	0	11.31	1.52	0.23	472332	1	88498	323402	472332	383834	7176	1416	3231	103	263657	2332126	11926
43	2016-12-02 23:58:47	0	0	0	0	0	0	11.46	1.52	0.23	478726	1	90093	328376	478726	388633	7255	1438	3258	104	267201	2332168	12055
44	2016-12-03 00:08:47	0	0	0	0	0	0	11.53	1.51	0.23	485159	1	91647	330929	485159	393512	7350	1452	3293	104	268912	2332203	12199
45	2016-12-03 00:18:46	0	0	0	0	0	0	11.62	1.52	0.23	490968	1	92989	333792	490968	397979	7441	1466	3320	104	270942	2332228	12331
46	2016-12-03 00:28:47	0	0	0	0	0	0	11.69	1.51	0.23	496284	1	94268	337549	496284	402016	7517	1484	3354	104	272702	2332256	12459
47	2016-12-03 00:38:46	0	0	0	0	0	0	11.82	1.51	0.24	501318	1	95438	342799	501318	405880	7587	1506	3382	105	275774	2332297	12580
48	2016-12-03 00:48:48	0	0	0	0	0	0	11.92	1.51	0.24	506121	1	96511	346987	506121	409610	7664	1526	3416	105	277903	2332322	12711
49	2016-12-03 00:58:48	0	0	0	0	0	0	12.12	1.51	0.24	510407	1	97501	352766	510407	412906	7728	1536	3436	105	282735	2332350	12805
50	2016-12-03 01:08:47	0	0	0	0	0	0	12.27	1.51	0.24	514320	1	98350	355786	514320	415970	7791	1550	3452	107	286145	2332366	12900
51	2016-12-03 01:18:48	0	0	0	0	0	0	12.34	1.51	0.24	517856	1	99154	358359	517856	418702	7843	1554	3466	107	287754	2332395	12970
52	2016-12-03 01:28:48	0	0	0	0	0	0	12.38	1.51	0.24	521092	1	99837	360516	521092	421255	7884	1570	3478	107	288713	2332415	13039
53	2016-12-03 01:38:46	0	0	0	0	0	0	12.44	1.52	0.24	524114	1	100515	363083	524114	423599	7942	1580	3492	109	290180	2332436	13123
54	2016-12-03 01:48:47	0	0	0	0	0	0	12.46	1.52	0.24	526829	1	101123	363721	526829	425706	7986	1592	3503	110	290561	2332458	13191
55	2016-12-03 01:58:47	0	0	0	0	0	0	12.5	1.52	0.24	529294	1	101677	364229	529294	427617	8031	1602	3519	110	291638	2332471	13262
56	2016-12-03 02:08:47	0	0	0	0	0	0	12.59	1.52	0.24	531572	1	102221	366379	531572	429351	8073	1604	3527	110	293292	2328961	13314
57	2016-12-03 02:18:48	0	0	0	0	0	0	12.62	1.52	0.24	533687	1	102675	366981	533687	431012	8107	1608	3537	110	294013	2328973	13362
58	2016-12-03 02:28:47	0	0	0	0	0	0	12.7	1.52	0.24	535744	1	103120	368192	535744	432624	8142	1614	3549	110	295803	2328980	13415
59	2016-12-03 02:38:47	0	0	0	0	0	0	12.72	1.52	0.24	537599	1	103568	368876	537599	434031	8168	1614	3560	110	296157	2328990	13452
60	2016-12-03 02:48:47	0	0	0	0	0	0	12.76	1.52	0.24	539315	1	103955	370327	539315	435360	8197	1620	3567	110	297234	2328997	13494
61	2016-12-03 02:58:47	0	0	0	0	0	0	12.81	1.52	0.24	540860	1	104312	370948	540860	436548	8228	1622	3571	110	298408	2329006	13531
62	2016-12-03 03:08:48	0	0	0	0	0	0	12.82	1.52	0.24	542202	1	104613	371895	542202	437589	8245	1628	3577	110	298631	2329010	13560
63	2016-12-03 03:18:46	0	0	0	0	0	0	12.84	1.52	0.24	543457	1	104906	373015	543457	438551	8260	1630	3582	110	299050	2329021	13582
64	2016-12-03 03:28:46	0	0	0	0	0	0	12.85	1.52	0.24	544642	1	105187	373997	544642	439455	8283	1634	3588	110	299279	2329025	13615
65	2016-12-03 03:38:47	0	0	0	0	0	0	12.9	1.52	0.24	545682	1	105445	375267	545682	440237	8302	1636	3591	110	300499	2329032	13639
66	2016-12-03 03:48:46	0	0	0	0	0	0	12.91	1.52	0.24	546672	1	105683	375631	546672	440989	8311	1640	3595	110	300732	2329040	13656
67	2016-12-03 03:58:47	0	0	0	0	0	0	12.94	1.52	0.24	547664	1	105908	376344	547664	441756	8330	1644	3604	110	301494	2329048	13688
68	2016-12-03 04:08:47	0	0	0	0	0	0	12.95	1.52	0.24	548571	1	106140	376710	548571	442431	8344	1648	3606	110	301523	2329053	13708
69	2016-12-03 04:18:47	0	0	0	0	0	0	12.95	1.52	0.24	549407	1	106361	376986	549407	443046	8352	1648	3608	110	301699	2329057	13718
70	2016-12-03 04:28:47	0	0	0	0	0	0	12.97	1.52	0.24	550251	1	106593	377353	550251	443658	8366	1648	3610	110	302053	2329061	13734
71	2016-12-03 04:38:46	0	0	0	0	0	0	12.98	1.52	0.24	551063	1	106805	377664	551063	444258	8377	1648	3610	111	302370	2329065	13746
72	2016-12-03 04:48:47	0	0	0	0	0	0	13.02	1.52	0.24	551756	1	106995	379138	551756	444761	8394	1648	3611	111	303314	2329071	13764
73	2016-12-03 04:58:47	0	0	0	0	0	0	13.02	1.52	0.24	552509	1	107219	379277	552509	445290	8408	1654	3615	111	303314	2329081	13788
74	2016-12-03 05:08:47	0	0	0	0	0	0	13.03	1.52	0.24	553336	1	107457	379463	553336	445879	8416	1656	3622	111	303433	2329086	13805
75	2016-12-03 05:18:47	0	0	0	0	0	0	13.03	1.52	0.24	553722	1	107699	379649	553722	446141	8424	1658	3626	111	303552	2329091	13819
76	2016-12-03 05:28:45	0	0	0	0	0	0	13.03	1.52	0.24	554517	1	107965	379649	554517	446684	8436	1660	3630	111	303552	2329103	13837
77	2016-12-03 05:48:45	0	0	0	0	0	0	13.04	1.52	0.24	556828	1	108416	379999	556828	447935	8471	1664	3635	112	303790	2329117	13882
78	2016-12-03 05:58:46	0	0	0	0	0	0	13.1	1.52	0.24	557308	1	108731	380981	557308	448577	8494	1670	3637	112	305197	2329128	13913
79	2016-12-03 06:08:44	0	0	0	0	0	0	13.11	1.52	0.24	558410	1	109076	381544	558410	449334	8507	1672	3641	112	305453	2329138	13932
80	2016-12-03 06:18:46	0	0	0	0	0	0	13.16	1.52	0.24	559667	1	109507	382723	559667	450160	8528	1676	3646	112	306572	2329152	13962
81	2016-12-03 06:28:46	0	0	0	0	0	0	13.17	1.53	0.24	561050	1	109955	383173	561050	451095	8568	1678	3649	112	306861	2329172	14007
82	2016-12-03 06:38:46	0	0	0	0	0	0	13.21	1.53	0.24	562495	1	110410	384136	562495	452085	8593	1680	3654	112	307593	2329186	14039
83	2016-12-03 06:48:46	0	0	0	0	0	0	13.25	1.53	0.24	564074	1	110944	385379	564074	453130	8614	1692	3658	112	308635	2329203	14076
84	2016-12-03 06:58:46	0	0	0	0	0	0	13.26	1.53	0.25	565996	1	111499	385760	565996	454497	8663	1696	3671	112	308756	2329215	14142
85	2016-12-03 07:08:46	0	0	0	0	0	0	13.31	1.53	0.25	568185	1	112207	387159	568185	455978	8690	1716	3683	112	309993	2329237	14201
86	2016-12-03 07:18:46	0	0	0	0	0	0	13.38	1.53	0.25	570766	1	112986	388836	570766	457780	8731	1724	3695	112	311646	2329260	14262
87	2016-12-03 07:28:46	0	0	0	0	0	0	13.44	1.53	0.25	573552	1	113874	389735	573552	459678	8781	1728	3705	112	313104	2329276	14326
88	2016-12-03 07:38:48	0	0	0	0	0	0	13.53	1.53	0.25	576599	1	114833	392841	576599	461766	8843	1734	3715	113	315141	2329311	14405
89	2016-12-03 07:48:46	0	0	0	0	0	0	13.7	1.54	0.25	580014	1	115839	397633	580014	464175	8910	1740	3727	113	319087	2329333	14490
90	2016-12-03 07:58:46	0	0	0	0	0	0	13.75	1.54	0.25	583521	1	116939	399461	583521	466582	8986	1754	3741	113	320362	2329365	14594
91	2016-12-03 08:08:48	0	0	0	0	0	0	13.87	1.54	0.25	587230	1	118091	404167	587230	469139	9050	1764	3756	113	322977	2329390	14683
92	2016-12-03 08:18:47	0	0	0	0	0	0	13.93	1.54	0.25	591034	1	119297	405847	591034	471737	9116	1780	3780	113	324423	2329417	14789
93	2016-12-03 08:28:46	0	0	0	0	0	0	14.01	1.54	0.25	594840	1	120540	406834	594840	474300	9182	1794	3804	113	326320	2329446	14893
94	2016-12-03 08:38:46	0	0	0	0	0	0	14.1	1.55	0.26	598691	1	121816	409307	598691	476875	9252	1806	3830	113	328554	2329479	15001
95	2016-12-03 08:48:46	0	0	0	0	0	0	14.22	1.55	0.26	602731	1	123146	412175	602731	479585	9317	1820	3847	113	331247	2329502	15097
96	2016-12-03 08:58:46	0	0	0	0	0	0	14.31	1.55	0.26	606723	1	124424	415013	606723	482299	9396	1828	3861	113	333364	2329523	15198
97	2016-12-03 09:08:47	0	0	0	0	0	0	14.43	1.55	0.26	610744	1	125781	417679	610744	484963	9475	1836	3880	114	336201	2329556	15305
98	2016-12-03 09:18:49	0	0	0	0	0	0	14.48	1.55	0.26	614750	1	127071	420230	614750	487679	9528	1854	3899	114	337337	2329578	15395
99	2016-12-03 09:28:48	0	0	0	0	0	0	14.55	1.55	0.26	618607	1	128412	425489	618607	490195	9596	1854	3910	114	338862	2329599	15474
100	2016-12-03 09:38:50	0	0	0	0	0	0	14.62	1.55	0.26	622427	1	129647	427604	622427	492780	9676	1866	3933	114	340502	2329631	15589
101	2016-12-03 09:48:48	0	0	0	0	0	0	14.69	1.56	0.26	626112	1	130792	429994	626112	495320	9738	1870	3954	114	342327	2329653	15676
102	2016-12-03 09:58:50	0	0	0	0	0	0	14.75	1.56	0.27	629719	1	131992	432245	629719	497727	9797	1880	3974	114	343581	2329688	15765
103	2016-12-03 10:08:51	0	0	0	0	0	0	14.82	1.56	0.27	633004	1	133177	434594	633004	499827	9856	1888	3990	116	345180	2329708	15850
104	2016-12-03 10:18:50	0	0	0	0	0	0	14.86	1.56	0.27	636452	1	134423	438312	636452	502029	9922	1892	4001	116	346191	2329754	15931
105	2016-12-03 10:28:49	0	0	0	0	0	0	14.95	1.56	0.27	639986	1	135617	441107	639986	504369	9988	1904	4027	116	348245	2329782	16035
106	2016-12-03 10:38:50	0	0	0	0	0	0	14.96	1.56	0.27	643412	1	136738	443190	643412	506674	10045	1908	4040	118	348558	2329809	16111
107	2016-12-03 10:48:51	0	0	0	0	0	0	15.04	1.56	0.27	646541	1	137734	446353	646541	508807	10080	1918	4059	118	350392	2329838	16175
108	2016-12-03 10:58:51	0	0	0	0	0	0	15.11	1.56	0.27	649647	1	138803	449854	649647	510844	10140	1934	4079	118	352146	2329871	16271
109	2016-12-03 11:08:49	0	0	0	0	0	0	15.15	1.56	0.27	652817	1	139896	452947	652817	512921	10184	1938	4095	118	352888	2329892	16335
110	2016-12-03 11:18:47	0	0	0	0	0	0	15.2	1.56	0.27	656010	1	141000	454610	656010	515010	10249	1948	4120	118	354099	2329939	16435
111	2016-12-03 11:28:48	0	0	0	0	0	0	15.34	1.56	0.27	659248	1	142092	458074	659248	517156	10308	1962	4135	118	357430	2329983	16523
112	2016-12-03 11:38:49	0	0	0	0	0	0	15.37	1.56	0.28	662186	1	143122	459638	662186	519064	10360	1968	4152	118	358092	2330020	16598
113	2016-12-03 11:48:50	0	0	0	0	0	0	15.41	1.56	0.28	665038	1	144125	461935	665038	520913	10401	1980	4165	118	359151	2330057	16664
114	2016-12-03 11:58:50	0	0	0	0	0	0	15.44	1.56	0.28	667876	1	145122	462142	667876	522754	10451	1992	4179	119	359693	2330091	16741
115	2016-12-03 12:08:50	0	0	0	0	0	0	15.44	1.56	0.28	670578	1	146095	463041	670578	524483	10493	2012	4187	119	359861	2330133	16811
116	2016-12-03 12:18:51	0	0	0	0	0	0	15.48	1.57	0.28	673250	1	147061	465232	673250	526189	10539	2018	4201	121	360762	2330174	16879
117	2016-12-03 12:28:53	0	0	0	0	0	0	15.5	1.56	0.28	676018	1	148065	466354	676018	527953	10577	2026	4222	122	361141	2330208	16947
118	2016-12-03 12:38:52	0	0	0	0	0	0	15.58	1.56	0.28	678572	1	148995	469074	678572	529577	10615	2028	4236	122	363025	2330251	17001
119	2016-12-03 12:48:51	0	0	0	0	0	0	15.58	1.57	0.28	681067	1	149932	470499	681067	531135	10672	2032	4248	122	363110	2330285	17074
120	2016-12-03 12:58:51	0	0	0	0	0	0	15.59	1.57	0.28	683649	1	150876	471036	683649	532773	10709	2036	4256	122	363195	2330316	17123
121	2016-12-03 13:08:53	0	0	0	0	0	0	15.65	1.57	0.28	686081	1	151682	473521	686081	534399	10747	2046	4271	122	364757	2330347	17186
122	2016-12-03 13:18:52	0	0	0	0	0	0	15.71	1.57	0.28	688419	1	152519	474501	688419	535900	10782	2062	4284	122	366029	2330371	17250
123	2016-12-03 13:28:53	0	0	0	0	0	0	15.71	1.57	0.29	690844	1	153330	474774	690844	537514	10822	2070	4291	122	366116	2330411	17305
124	2016-12-03 13:38:52	0	0	0	0	0	0	15.72	1.57	0.29	693047	1	154176	475356	693047	538871	10859	2074	4305	122	366461	2330440	17360
125	2016-12-03 13:48:52	0	0	0	0	0	0	15.76	1.57	0.29	695340	1	155035	477979	695340	540305	10909	2086	4322	122	367244	2330476	17439
126	2016-12-03 13:58:52	0	0	0	0	0	0	15.85	1.57	0.29	697667	1	155890	479729	697667	541777	10944	2098	4336	122	369380	2330503	17500
127	2016-12-03 14:08:55	0	0	0	0	0	0	15.88	1.57	0.29	699968	1	156713	480734	699968	543255	10978	2102	4350	123	369975	2330544	17553
128	2016-12-03 14:18:54	0	0	0	0	0	0	15.92	1.57	0.29	702152	1	157561	481772	702152	544591	11025	2110	4363	123	370945	2330580	17621
129	2016-12-03 14:28:54	0	0	0	0	0	0	15.94	1.57	0.29	704362	1	158372	482953	704362	545990	11074	2112	4372	123	371578	2330608	17681
130	2016-12-03 14:38:54	0	0	0	0	0	0	15.98	1.57	0.29	706683	1	159164	484426	706683	547519	11119	2122	4384	123	372360	2330646	17748
131	2016-12-03 14:48:54	0	0	0	0	0	0	15.99	1.58	0.29	709043	1	159978	485167	709043	549065	11174	2138	4396	123	372707	2330679	17831
132	2016-12-03 14:58:54	0	0	0	0	0	0	16.01	1.58	0.29	711351	1	160774	485833	711351	550577	11214	2144	4409	123	373145	2330714	17890
133	2016-12-03 15:08:59	0	0	0	0	0	0	16.02	1.58	0.29	713582	1	161616	486252	713582	551966	11257	2150	4416	123	373438	2330740	17946
134	2016-12-03 15:18:54	0	0	0	0	0	0	16.09	1.58	0.29	715769	1	162424	488747	715769	553345	11295	2156	4429	123	374998	2330773	18003
135	2016-12-03 15:28:54	0	0	0	0	0	0	16.09	1.58	0.29	718020	1	163234	489133	718020	554786	11324	2160	4438	123	375089	2330797	18045
136	2016-12-03 15:38:53	0	0	0	0	0	0	16.18	1.58	0.29	720169	1	163960	491128	720169	556209	11358	2166	4447	125	377098	2330833	18096
137	2016-12-03 15:48:55	0	0	0	0	0	0	16.19	1.58	0.3	722421	1	164793	491518	722421	557628	11395	2180	4457	126	377419	2330882	18158
138	2016-12-03 15:58:56	0	0	0	0	0	0	16.23	1.58	0.3	724692	1	165611	492613	724692	559081	11440	2182	4466	126	378249	2330917	18214
139	2016-12-03 16:09:05	0	0	0	0	0	0	16.27	1.58	0.3	726818	1	166351	494185	726818	560467	11475	2186	4473	126	379315	2330946	18260
140	2016-12-03 16:19:07	0	0	0	0	0	0	16.31	1.58	0.3	728960	1	167151	494382	728960	561809	11506	2188	4485	126	380177	2330991	18305
141	2016-12-03 16:29:04	0	0	0	0	0	0	16.32	1.58	0.3	730988	1	167896	495233	730988	563092	11537	2192	4494	127	380504	2331022	18350
142	2016-12-03 16:39:00	0	0	0	0	0	0	16.33	1.58	0.3	732946	1	168629	495470	732946	564317	11566	2204	4509	127	380773	2331052	18406
143	2016-12-03 16:48:57	0	0	0	0	0	0	16.35	1.58	0.3	735055	1	169425	496025	735055	565630	11611	2208	4522	127	381195	2331098	18468
144	2016-12-03 16:58:57	0	0	0	0	0	0	16.4	1.58	0.3	737098	1	170236	496981	737098	566862	11650	2214	4539	127	382230	2331131	18530
145	2016-12-03 17:09:07	0	0	0	0	0	0	16.45	1.58	0.3	739130	1	170995	499546	739130	568135	11683	2218	4547	127	383366	2331169	18575
146	2016-12-03 17:18:58	0	0	0	0	0	0	16.44	1.58	0.3	741193	1	171852	499708	741193	569341	11715	2226	4561	127	383366	2331209	18629
147	2016-12-03 17:28:58	0	0	0	0	0	0	16.49	1.58	0.3	743297	1	172693	502556	743297	570604	11741	2228	4567	127	384335	2331248	18663
148	2016-12-03 17:38:59	0	0	0	0	0	0	16.53	1.58	0.3	745268	1	173526	504470	745268	571742	11785	2242	4579	127	385388	2331291	18733
149	2016-12-03 17:48:57	0	0	0	0	0	0	16.56	1.58	0.3	747324	1	174364	505872	747324	572960	11817	2250	4586	127	386012	2331325	18780
150	2016-12-03 17:58:59	0	0	0	0	0	0	16.6	1.58	0.31	749414	1	175207	506655	749414	574207	11848	2258	4594	128	386976	2331366	18828
151	2016-12-03 18:09:05	0	0	0	0	0	0	16.6	1.58	0.31	751298	1	175989	508152	751298	575309	11878	2268	4603	128	387048	2331410	18877
152	2016-12-03 18:19:01	0	0	0	0	0	0	16.6	1.58	0.31	753151	1	176800	508987	753151	576351	11904	2276	4615	129	387048	2331452	18924
153	2016-12-03 18:29:00	0	0	0	0	0	0	16.64	1.58	0.31	755094	1	177622	511046	755094	577472	11930	2280	4623	129	387897	2331503	18962
154	2016-12-03 18:39:01	0	0	0	0	0	0	16.65	1.58	0.31	756958	1	178418	511711	756958	578540	11954	2294	4635	129	388134	2331541	19012
155	2016-12-03 18:49:00	0	0	0	0	0	0	16.7	1.58	0.31	758948	1	179270	513450	758948	579678	11980	2296	4642	129	389354	2331577	19047
156	2016-12-03 18:59:00	0	0	0	0	0	0	16.71	1.58	0.31	760807	1	179992	514720	760807	580815	12013	2298	4654	129	389697	2331627	19094
157	2016-12-03 19:09:01	0	0	0	0	0	0	16.75	1.58	0.31	762730	1	180788	515727	762730	581942	12046	2302	4661	129	390668	2331668	19138
158	2016-12-03 19:19:12	0	0	0	0	0	0	16.83	1.58	0.31	764564	1	181589	517364	764564	582975	12067	2314	4667	129	392500	2331701	19177
159	2016-12-03 19:29:04	0	0	0	0	0	0	16.83	1.58	0.31	766383	1	182365	518274	766383	584018	12095	2314	4677	129	392525	2331745	19215
160	2016-12-03 19:39:05	0	0	0	0	0	0	16.86	1.58	0.31	768122	1	183086	518274	768122	585036	12134	2330	4681	129	393123	2331777	19274
161	2016-12-03 19:49:03	0	0	0	0	0	0	16.89	1.58	0.31	769922	1	183891	519859	769922	586031	12168	2340	4687	129	393809	2331818	19324
162	2016-12-03 19:59:03	0	0	0	0	0	0	16.89	1.58	0.31	771687	1	184665	521874	771687	587022	12195	2350	4696	129	393859	2331855	19370
163	2016-12-03 20:09:06	0	0	0	0	0	0	16.9	1.58	0.32	773703	1	185540	522844	773703	588163	12222	2352	4710	129	394010	2331891	19413
164	2016-12-03 20:19:11	0	0	0	0	0	0	16.94	1.58	0.32	775617	1	186335	524393	775617	589282	12255	2356	4718	130	394965	2331939	19459
165	2016-12-03 20:29:09	0	0	0	0	0	0	16.96	1.58	0.32	777391	1	187049	525640	777391	590342	12283	2368	4726	130	395444	2331976	19507
166	2016-12-03 20:39:05	0	0	0	0	0	0	16.99	1.58	0.32	779115	1	187773	526623	779115	591342	12314	2372	4732	130	396152	2332024	19548
167	2016-12-03 20:49:07	0	0	0	0	0	0	16.99	1.58	0.32	780776	1	188536	527655	780776	592240	12342	2376	4736	130	396152	2332062	19584
168	2016-12-03 20:59:05	0	0	0	0	0	0	17.02	1.58	0.32	782456	1	189272	528420	782456	593184	12363	2380	4742	130	396888	2332102	19615
169	2016-12-03 21:09:06	0	0	0	0	0	0	17.03	1.58	0.32	784112	1	190024	528962	784112	594088	12391	2382	4745	130	397092	2332143	19648
170	2016-12-03 21:19:07	0	0	0	0	0	0	17.04	1.58	0.32	785598	1	190685	529550	785598	594913	12415	2390	4755	130	397296	2332171	19690
171	2016-12-03 21:29:16	0	0	0	0	0	0	17.07	1.58	0.32	787128	1	191344	531003	787128	595784	12442	2398	4761	130	398062	2332211	19731
172	2016-12-03 21:39:07	0	0	0	0	0	0	17.07	1.58	0.32	788689	1	192008	532690	788689	596681	12470	2402	4766	130	398188	2332234	19768
173	2016-12-03 21:49:05	0	0	0	0	0	0	17.1	1.58	0.32	790292	1	192706	534806	790292	597586	12495	2406	4772	130	398752	2332274	19803
174	2016-12-03 21:59:05	0	0	0	0	0	0	17.1	1.58	0.32	791842	1	193393	535257	791842	598449	12523	2410	4780	131	398906	2332303	19844
175	2016-12-03 22:09:06	0	0	0	0	0	0	17.13	1.58	0.32	793300	1	194048	535257	793300	599252	12555	2410	4789	131	399524	2332338	19885
176	2016-12-03 22:19:06	0	0	0	0	0	0	17.13	1.58	0.32	794852	1	194746	535257	794852	600106	12578	2412	4793	131	399524	2332371	19914
177	2016-12-03 22:29:05	0	0	0	0	0	0	17.13	1.58	0.33	796374	1	195429	535975	796374	600945	12595	2416	4804	131	399627	2332394	19946
178	2016-12-03 22:39:12	0	0	0	0	0	0	17.17	1.58	0.33	797795	1	196055	538960	797795	601740	12623	2416	4812	131	400454	2332427	19982
179	2016-12-03 22:49:04	0	0	0	0	0	0	17.2	1.58	0.33	799212	1	196665	539336	799212	602547	12645	2420	4814	131	401076	2332461	20010
180	2016-12-03 22:59:08	0	0	0	0	0	0	17.21	1.58	0.33	800553	1	197257	540902	800553	603296	12668	2422	4820	131	401466	2332480	20041
181	2016-12-03 23:09:07	0	0	0	0	0	0	17.22	1.58	0.33	801924	1	197853	541186	801924	604071	12692	2432	4827	132	401727	2332500	20083
182	2016-12-03 23:19:06	0	0	0	0	0	0	17.22	1.58	0.33	803291	1	198431	543108	803291	604860	12717	2434	4834	132	401727	2332516	20117
183	2016-12-03 23:29:05	0	0	0	0	0	0	17.26	1.58	0.33	804637	1	199003	543489	804637	605634	12740	2444	4839	132	402563	2332536	20155
184	2016-12-03 23:39:01	0	0	0	0	0	0	17.26	1.58	0.33	805862	1	199533	544254	805862	606329	12751	2450	4846	132	402563	2332550	20179
185	2016-12-03 23:49:02	0	0	0	0	0	0	17.27	1.58	0.33	807081	1	200117	544589	807081	606964	12772	2454	4850	132	402720	2332562	20208
186	2016-12-03 23:59:06	0	0	0	0	0	0	17.27	1.58	0.33	808185	1	200578	544972	808185	607607	12793	2462	4855	132	402929	2332572	20242
187	2016-12-04 00:09:02	0	0	0	0	0	0	17.27	1.58	0.33	809264	1	201066	544972	809264	608198	12814	2464	4858	133	402929	2332584	20269
188	2016-12-04 00:19:01	0	0	0	0	0	0	17.29	1.58	0.33	810317	1	201490	545164	810317	608827	12837	2464	4859	133	403244	2332599	20293
189	2016-12-04 00:29:01	0	0	0	0	0	0	17.3	1.58	0.33	811286	1	201879	545825	811286	609407	12843	2466	4860	133	403606	2332618	20302
190	2016-12-04 00:39:01	0	0	0	0	0	0	17.3	1.58	0.33	812239	1	202249	546162	812239	609990	12859	2468	4862	133	403606	2332637	20322
191	2016-12-04 00:49:02	0	0	0	0	0	0	17.35	1.58	0.33	813037	1	202570	546692	813037	610467	12870	2470	4863	133	404634	2332659	20336
192	2016-12-04 00:59:01	0	0	0	0	0	0	17.35	1.58	0.33	813842	1	202868	547175	813842	610974	12883	2474	4866	133	404819	2332669	20356
193	2016-12-04 01:08:57	0	0	0	0	0	0	17.37	1.58	0.33	814648	1	203211	547756	814648	611437	12895	2480	4868	133	405137	2332686	20376
194	2016-12-04 01:19:07	0	0	0	0	0	0	17.41	1.58	0.33	815411	1	203530	549774	815411	611881	12904	2480	4870	133	406027	2332698	20387
195	2016-12-04 01:28:58	0	0	0	0	0	0	17.41	1.58	0.33	816094	1	203794	549872	816094	612300	12916	2480	4872	135	406027	2332703	20403
196	2016-12-04 01:38:57	0	0	0	0	0	0	17.41	1.58	0.33	816709	1	204005	549872	816709	612704	12931	2484	4878	135	406027	2332711	20428
197	2016-12-04 01:48:57	0	0	0	0	0	0	17.41	1.58	0.33	817299	1	204247	549872	817299	613052	12940	2486	4880	135	406027	2332723	20441
198	2016-12-04 01:58:57	0	0	0	0	0	0	17.41	1.58	0.33	817822	1	204440	549872	817822	613382	12948	2486	4882	135	406027	2332727	20451
199	2016-12-04 02:08:59	0	0	0	0	0	0	17.42	1.58	0.33	818321	1	204635	550214	818321	613686	12952	2490	4883	135	406107	2330611	20460
200	2016-12-04 02:18:57	0	0	0	0	0	0	17.42	1.58	0.33	818723	1	204793	550214	818723	613930	12959	2490	4884	135	406107	2330614	20468
201	2016-12-04 02:28:55	0	0	0	0	0	0	17.43	1.58	0.33	819116	1	204947	551365	819116	614169	12967	2490	4885	135	406267	2330617	20477
202	2016-12-04 02:38:56	0	0	0	0	0	0	17.43	1.58	0.33	819559	1	205109	551758	819559	614450	12975	2494	4886	135	406267	2330625	20490
203	2016-12-04 02:49:33	0	0	0	0	0	0	17.45	1.58	0.33	819906	1	205230	552546	819906	614676	12983	2494	4887	135	406693	2330629	20499
204	2016-12-04 02:59:16	0	0	0	0	0	0	17.47	1.58	0.33	820226	1	205355	552743	820226	614871	12990	2496	4889	135	407228	2330638	20510
205	2016-12-04 03:10:21	0	0	0	0	0	0	17.47	1.58	0.33	820539	1	205483	552743	820539	615056	12995	2496	4890	135	407228	2330643	20516
206	2016-12-04 03:19:18	0	0	0	0	0	0	17.47	1.58	0.33	820785	1	205593	552743	820785	615192	12997	2498	4892	135	407228	2330646	20522
207	2016-12-04 03:30:46	0	0	0	0	0	0	17.47	1.58	0.33	821017	1	205737	552743	821017	615333	12999	2498	4895	135	407228	2330651	20527
208	2016-12-04 03:39:02	0	0	0	0	0	0	17.47	1.58	0.33	821289	1	205780	552743	821289	615509	13000	2498	4895	135	407228	2330659	20528
209	2016-12-04 03:48:58	0	0	0	0	0	0	17.47	1.58	0.33	821541	1	205883	552743	821541	615658	13004	2498	4897	135	407228	2330662	20534
210	2016-12-04 03:58:57	0	0	0	0	0	0	17.47	1.58	0.33	821745	1	205967	552743	821745	615778	13008	2498	4897	135	407228	2330667	20538
211	2016-12-04 04:08:57	0	0	0	0	0	0	17.47	1.58	0.33	821912	1	206031	552743	821912	615881	13010	2498	4897	135	407228	2330668	20540
212	2016-12-04 04:18:56	0	0	0	0	0	0	17.47	1.58	0.33	822105	1	206105	552743	822105	616000	13014	2500	4897	135	407228	2330670	20546
213	2016-12-04 04:28:58	0	0	0	0	0	0	17.47	1.58	0.33	822298	1	206187	553138	822298	616111	13020	2502	4897	135	407228	2330673	20554
214	2016-12-04 04:38:58	0	0	0	0	0	0	17.47	1.58	0.33	822495	1	206264	553138	822495	616231	13022	2502	4898	135	407228	2330677	20557
215	2016-12-04 04:48:58	0	0	0	0	0	0	17.47	1.58	0.33	822683	1	206350	553138	822683	616333	13026	2502	4898	135	407228	2330681	20561
216	2016-12-04 04:59:32	0	0	0	0	0	0	17.47	1.58	0.33	822884	1	206450	553138	822884	616434	13029	2502	4899	135	407228	2330680	20565
217	2016-12-04 05:10:47	0	0	0	0	0	0	17.47	1.58	0.34	822989	1	206522	553138	822989	616467	13032	2502	4900	135	407228	2330681	20569
218	2016-12-04 05:19:19	0	0	0	0	0	0	17.47	1.58	0.34	823091	1	206602	553138	823091	616489	13035	2502	4900	135	407228	2330684	20572
219	2016-12-04 05:29:00	0	0	0	0	0	0	17.47	1.58	0.34	823192	1	206683	553138	823192	616509	13036	2502	4900	135	407228	2330683	20573
220	2016-12-04 05:39:31	0	0	0	0	0	0	17.47	1.58	0.34	823296	1	206764	553138	823296	616532	13041	2502	4900	135	407228	2330689	20578
221	2016-12-04 05:51:02	0	0	0	0	0	0	17.47	1.58	0.34	823445	1	206896	553138	823445	616549	13042	2502	4900	135	407228	2330689	20579
222	2016-12-04 05:59:09	0	0	0	0	0	0	17.47	1.58	0.34	823497	1	206943	553138	823497	616554	13043	2504	4900	135	407228	2330690	20582
223	2016-12-04 06:09:07	0	0	0	0	0	0	17.47	1.58	0.34	823598	1	207034	553138	823598	616564	13045	2504	4900	135	407228	2330694	20584
224	2016-12-04 06:19:50	0	0	0	0	0	0	17.47	1.58	0.34	823715	1	207141	553138	823715	616574	13048	2504	4900	135	407228	2330694	20587
225	2016-12-04 06:29:10	0	0	0	0	0	0	17.47	1.58	0.34	823865	1	207274	553138	823865	616591	13052	2504	4900	135	407228	2330698	20591
226	2016-12-04 06:38:59	0	0	0	0	0	0	17.47	1.58	0.34	824012	1	207399	553138	824012	616613	13053	2504	4901	135	407228	2330704	20593
227	2016-12-04 06:48:58	0	0	0	0	0	0	17.47	1.58	0.34	824195	1	207550	553731	824195	616645	13057	2504	4902	135	407228	2330710	20598
228	2016-12-04 06:59:00	0	0	0	0	0	0	17.47	1.58	0.34	824372	1	207704	553731	824372	616668	13059	2504	4902	135	407228	2330715	20600
229	2016-12-04 07:08:59	0	0	0	0	0	0	17.5	1.58	0.34	824539	1	207851	554401	824539	616688	13065	2504	4902	135	407980	2330719	20606
230	2016-12-04 07:18:58	0	0	0	0	0	0	17.5	1.58	0.34	824756	1	208036	554401	824756	616720	13067	2504	4902	135	407980	2330723	20608
231	2016-12-04 07:29:00	0	0	0	0	0	0	17.5	1.58	0.34	824946	1	208197	554848	824946	616749	13070	2506	4903	135	407980	2330730	20614
232	2016-12-04 07:39:01	0	0	0	0	0	0	17.5	1.58	0.34	825216	1	208435	555221	825216	616781	13073	2506	4903	135	407980	2330735	20617
233	2016-12-04 07:48:59	0	0	0	0	0	0	17.5	1.58	0.34	825482	1	208668	555520	825482	616814	13078	2506	4904	135	407980	2330746	20623
234	2016-12-04 07:59:26	0	0	0	0	0	0	17.5	1.58	0.34	825777	1	208925	556318	825777	616852	13085	2508	4905	135	407980	2330757	20633
235	2016-12-04 08:10:59	0	0	0	0	0	0	17.5	1.59	0.34	826114	1	209215	556318	826114	616899	13095	2508	4905	135	407980	2330766	20643
236	2016-12-04 08:19:19	0	0	0	0	0	0	17.5	1.58	0.34	826430	1	209482	556318	826430	616948	13097	2508	4905	135	407980	2330782	20645
237	2016-12-04 08:29:08	0	0	0	0	0	0	17.5	1.58	0.34	826761	1	209769	556918	826761	616992	13103	2508	4907	135	407980	2330790	20653
238	2016-12-04 08:39:52	0	0	0	0	0	0	17.5	1.59	0.34	827087	1	210043	557495	827087	617044	13112	2508	4908	135	407980	2330801	20663
239	2016-12-04 08:49:09	0	0	0	0	0	0	17.5	1.59	0.34	827418	1	210334	557495	827418	617084	13119	2510	4911	135	407980	2330817	20675
240	2016-12-04 08:59:23	0	0	0	0	0	0	17.5	1.59	0.34	827800	1	210652	557495	827800	617148	13128	2510	4911	135	407980	2330834	20684
241	2016-12-04 09:09:45	0	0	0	0	0	0	17.5	1.59	0.34	828177	1	210989	557545	828177	617188	13133	2518	4914	135	407980	2330845	20700
242	2016-12-04 09:19:24	0	0	0	0	0	0	17.5	1.59	0.34	828495	1	211266	557545	828495	617229	13134	2518	4915	135	407980	2330861	20702
243	2016-12-04 09:29:21	0	0	0	0	0	0	17.5	1.59	0.34	828785	1	211512	557545	828785	617273	13142	2518	4915	135	407980	2330870	20710
244	2016-12-04 09:39:17	0	0	0	0	0	0	17.5	1.59	0.34	829091	1	211770	557545	829091	617321	13145	2520	4917	135	407980	2330877	20717
245	2016-12-04 09:49:05	0	0	0	0	0	0	17.5	1.59	0.34	829411	1	212046	557545	829411	617365	13153	2522	4918	135	407980	2330892	20728
246	2016-12-04 10:00:26	0	0	0	0	0	0	17.5	1.59	0.34	829764	1	212357	557545	829764	617407	13163	2522	4918	135	407980	2330908	20738
247	2016-12-04 10:09:27	0	0	0	0	0	0	17.5	1.59	0.34	830055	1	212601	557545	830055	617454	13166	2520	4919	135	407980	2330914	20740
248	2016-12-04 10:19:17	0	0	0	0	0	0	17.5	1.59	0.34	830330	1	212832	557545	830330	617498	13173	2522	4919	135	407980	2330930	20749
249	2016-12-04 10:29:10	0	0	0	0	0	0	17.5	1.59	0.35	830644	1	213104	557545	830644	617540	13180	2522	4919	135	407980	2330942	20756
250	2016-12-04 10:39:42	0	0	0	0	0	0	17.5	1.59	0.35	830905	1	213325	557545	830905	617580	13184	2524	4919	135	407980	2330951	20762
251	2016-12-04 10:49:05	0	0	0	0	0	0	17.5	1.59	0.35	831191	1	213573	557545	831191	617618	13187	2524	4919	135	407980	2330960	20765
252	2016-12-04 10:59:46	0	0	0	0	0	0	17.5	1.59	0.35	831472	1	213819	557545	831472	617653	13198	2526	4919	135	407980	2330985	20778
253	2016-12-04 11:10:02	0	0	0	0	0	0	17.5	1.59	0.35	831811	1	214119	557545	831811	617692	13205	2528	4920	135	407980	2331004	20788
254	2016-12-04 11:19:40	0	0	0	0	0	0	17.51	1.59	0.35	832078	1	214347	557746	832078	617731	13212	2530	4921	135	408087	2331016	20798
255	2016-12-04 11:29:11	0	0	0	0	0	0	17.51	1.59	0.35	832345	1	214573	557746	832345	617772	13215	2534	4921	135	408087	2331023	20805
256	2016-12-04 11:39:32	0	0	0	0	0	0	17.51	1.59	0.35	832569	1	214764	557746	832569	617805	13222	2534	4923	135	408087	2331038	20814
257	2016-12-04 11:49:13	0	0	0	0	0	0	17.51	1.59	0.35	832805	1	214972	557746	832805	617833	13229	2536	4923	135	408087	2331052	20823
258	2016-12-04 11:59:45	0	0	0	0	0	0	17.51	1.59	0.35	833045	1	215178	557746	833045	617867	13236	2540	4927	135	408087	2331065	20838
259	2016-12-04 12:09:22	0	0	0	0	0	0	17.51	1.59	0.35	833287	1	215386	557947	833287	617901	13238	2540	4927	135	408087	2331077	20840
260	2016-12-04 12:22:03	0	0	0	0	0	0	17.51	1.59	0.35	833613	1	215682	559358	833613	617931	13248	2542	4927	135	408087	2331098	20852
261	2016-12-04 12:29:12	0	0	0	0	0	0	17.51	1.59	0.35	833720	1	215774	559358	833720	617946	13249	2544	4927	135	408087	2331113	20855
262	2016-12-04 12:39:48	0	0	0	0	0	0	17.51	1.59	0.35	833901	1	215928	559712	833901	617973	13257	2542	4927	135	408087	2331125	20861
263	2016-12-04 12:49:15	0	0	0	0	0	0	17.51	1.59	0.35	834099	1	216102	559712	834099	617997	13263	2542	4927	135	408087	2331153	20867
264	2016-12-04 13:02:16	0	0	0	0	0	0	17.51	1.59	0.35	834366	1	216340	559712	834366	618026	13268	2544	4927	135	408087	2331178	20874
265	2016-12-04 13:09:13	0	0	0	0	0	0	17.51	1.59	0.35	834453	1	216418	560320	834453	618035	13270	2544	4927	135	408087	2331187	20876
266	2016-12-04 13:19:12	0	0	0	0	0	0	17.51	1.59	0.35	834626	1	216562	561075	834626	618064	13276	2544	4927	135	408087	2331207	20882
267	2016-12-04 13:29:30	0	0	0	0	0	0	17.51	1.59	0.35	834783	1	216702	561075	834783	618081	13276	2544	4927	135	408087	2331220	20882
268	2016-12-04 13:40:25	0	0	0	0	0	0	17.51	1.59	0.35	834926	1	216829	561075	834926	618097	13280	2546	4928	135	408087	2331239	20889
269	2016-12-04 13:49:29	0	0	0	0	0	0	17.51	1.59	0.35	835079	1	216965	561482	835079	618114	13282	2546	4928	135	408087	2331244	20891
270	2016-12-04 14:00:20	0	0	0	0	0	0	17.5	1.59	0.35	835241	1	217112	561482	835241	618129	13284	2546	4928	135	408087	2331261	20893
271	2016-12-04 14:09:30	0	0	0	0	0	0	17.5	1.59	0.35	835397	1	217256	561482	835397	618141	13286	2548	4928	135	408087	2331280	20897
272	2016-12-04 14:20:35	0	0	0	0	0	0	17.5	1.59	0.35	835535	1	217377	561482	835535	618158	13290	2548	4928	135	408087	2331298	20901
273	2016-12-04 14:29:31	0	0	0	0	0	0	17.5	1.59	0.35	835670	1	217494	561482	835670	618176	13290	2548	4930	135	408087	2331308	20903
274	2016-12-04 14:39:21	0	0	0	0	0	0	17.5	1.59	0.35	835818	1	217634	561482	835818	618184	13292	2550	4930	135	408087	2331321	20907
275	2016-12-04 15:23:13	0	0	0	0	0	0	17.5	1.59	0.35	836514	1	218251	563474	836514	618263	13310	2554	4934	135	408087	2331377	20933
276	2016-12-04 15:33:06	0	0	0	0	0	0	17.5	1.59	0.35	836642	1	218371	563474	836642	618271	13314	2554	4934	135	408087	2331390	20937
277	2016-12-04 15:43:06	0	0	0	0	0	0	17.5	1.59	0.35	836775	1	218488	563474	836775	618287	13314	2558	4934	135	408087	2331403	20941
278	2016-12-04 15:53:07	0	0	0	0	0	0	17.5	1.59	0.35	836922	1	218622	563474	836922	618300	13317	2558	4934	135	408087	2331419	20944
279	2016-12-04 16:03:07	0	0	0	0	0	0	17.5	1.59	0.35	837067	1	218748	563474	837067	618319	13321	2558	4934	135	408087	2331432	20948
280	2016-12-04 16:13:08	0	0	0	0	0	0	17.5	1.59	0.35	837203	1	218869	563474	837203	618334	13321	2560	4934	135	408087	2331439	20950
281	2016-12-04 16:23:08	0	0	0	0	0	0	17.5	1.59	0.35	837344	1	218994	563782	837344	618350	13324	2560	4934	135	408087	2331456	20953
282	2016-12-04 16:33:08	0	0	0	0	0	0	17.5	1.59	0.35	837506	1	219132	563834	837506	618374	13327	2560	4934	135	408087	2331472	20956
283	2016-12-04 16:43:07	0	0	0	0	0	0	17.5	1.59	0.35	837623	1	219232	563834	837623	618391	13331	2562	4934	135	408087	2331489	20962
284	2016-12-04 16:53:08	0	0	0	0	0	0	17.5	1.59	0.35	837747	1	219338	563834	837747	618409	13332	2562	4934	135	408087	2331509	20963
285	2016-12-04 17:03:09	0	0	0	0	0	0	17.5	1.59	0.35	837862	1	219439	563834	837862	618423	13334	2560	4934	135	408087	2331521	20963
286	2016-12-04 17:13:08	0	0	0	0	0	0	17.5	1.59	0.36	837984	1	219546	563834	837984	618438	13336	2562	4935	135	408087	2331541	20968
287	2016-12-04 17:23:08	0	0	0	0	0	0	17.5	1.59	0.36	838098	1	219651	564013	838098	618447	13336	2562	4935	135	408087	2331561	20968
288	2016-12-04 17:33:09	0	0	0	0	0	0	17.5	1.59	0.36	838204	1	219748	564785	838204	618456	13338	2562	4935	135	408087	2331574	20970
289	2016-12-04 17:43:07	0	0	0	0	0	0	17.5	1.59	0.36	838331	1	219859	564785	838331	618472	13341	2562	4936	135	408087	2331587	20974
290	2016-12-04 17:53:09	0	0	0	0	0	0	17.5	1.59	0.36	838433	1	219951	564785	838433	618482	13342	2562	4936	135	408087	2331598	20975
291	2016-12-04 18:03:37	0	0	0	0	0	0	17.5	1.59	0.36	838570	1	220069	564785	838570	618501	13343	2562	4936	135	408087	2331613	20976
292	2016-12-04 18:13:31	0	0	0	0	0	0	17.5	1.59	0.36	838677	1	220166	564785	838677	618511	13346	2564	4937	135	408087	2331629	20982
293	2016-12-04 18:23:31	0	0	0	0	0	0	17.5	1.59	0.36	838817	1	220289	564785	838817	618528	13347	2566	4937	135	408087	2331646	20985
294	2016-12-04 18:33:32	0	0	0	0	0	0	17.5	1.59	0.36	838928	1	220392	564785	838928	618536	13351	2568	4937	135	408087	2331656	20991
295	2016-12-04 18:43:31	0	0	0	0	0	0	17.5	1.59	0.36	839046	1	220498	564785	839046	618548	13354	2570	4937	135	408087	2331667	20996
296	2016-12-04 18:53:33	0	0	0	0	0	0	17.5	1.59	0.36	839183	1	220619	564785	839183	618564	13355	2570	4937	135	408087	2331691	20997
297	2016-12-04 19:03:35	0	0	0	0	0	0	17.5	1.59	0.36	839324	1	220749	564785	839324	618575	13359	2570	4937	135	408087	2331708	21001
298	2016-12-04 19:13:31	0	0	0	0	0	0	17.5	1.59	0.36	839459	1	220867	564785	839459	618592	13360	2570	4937	135	408087	2331733	21002
299	2016-12-04 19:23:30	0	0	0	0	0	0	17.5	1.59	0.36	839584	1	220976	564785	839584	618608	13363	2570	4937	135	408087	2331746	21005
300	2016-12-04 19:33:32	0	0	0	0	0	0	17.5	1.59	0.36	839706	1	221084	564785	839706	618622	13365	2570	4938	135	408087	2331763	21008
301	2016-12-04 19:43:33	0	0	0	0	0	0	17.5	1.59	0.36	839836	1	221199	564785	839836	618637	13367	2570	4938	135	408087	2331776	21010
302	2016-12-04 19:53:34	0	0	0	0	0	0	17.5	1.59	0.36	839951	1	221300	564991	839951	618651	13370	2574	4938	135	408087	2331796	21017
303	2016-12-04 20:03:33	0	0	0	0	0	0	17.5	1.59	0.36	840076	1	221415	564991	840076	618661	13373	2576	4938	135	408087	2331807	21022
304	2016-12-04 20:13:34	0	0	0	0	0	0	17.5	1.59	0.36	840203	1	221531	564991	840203	618672	13374	2576	4938	135	408087	2331825	21023
305	2016-12-04 20:23:34	0	0	0	0	0	0	17.5	1.59	0.36	840333	1	221647	564991	840333	618686	13378	2576	4938	135	408087	2331837	21027
306	2016-12-04 20:33:32	0	0	0	0	0	0	17.5	1.59	0.36	840474	1	221779	564991	840474	618695	13380	2574	4938	135	408087	2331854	21027
307	2016-12-04 20:43:37	0	0	0	0	0	0	17.5	1.59	0.36	840598	1	221885	565197	840598	618713	13383	2574	4938	135	408087	2331867	21030
308	2016-12-04 20:53:34	0	0	0	0	0	0	17.5	1.59	0.36	840740	1	222008	565197	840740	618732	13388	2574	4939	135	408087	2331890	21036
309	2016-12-04 21:03:34	0	0	0	0	0	0	17.5	1.59	0.36	840862	1	222119	565197	840862	618743	13393	2574	4939	135	408087	2331917	21041
310	2016-12-04 21:13:36	0	0	0	0	0	0	17.5	1.59	0.36	840983	1	222223	565197	840983	618760	13396	2574	4939	135	408087	2331925	21044
311	2016-12-04 21:23:35	0	0	0	0	0	0	17.5	1.59	0.36	841092	1	222314	565197	841092	618778	13396	2574	4939	135	408087	2331941	21044
312	2016-12-04 21:33:34	0	0	0	0	0	0	17.5	1.59	0.36	841214	1	222413	565197	841214	618801	13397	2574	4939	135	408087	2331964	21045
313	2016-12-04 21:43:35	0	0	0	0	0	0	17.5	1.59	0.36	841314	1	222500	565197	841314	618814	13399	2574	4939	135	408087	2331979	21047
314	2016-12-04 21:53:37	0	0	0	0	0	0	17.5	1.59	0.36	841412	1	222583	565197	841412	618829	13400	2574	4940	135	408087	2332003	21049
315	2016-12-04 22:03:37	0	0	0	0	0	0	17.5	1.59	0.36	841509	1	222669	565197	841509	618840	13402	2574	4940	135	408087	2332012	21051
316	2016-12-04 22:13:37	0	0	0	0	0	0	17.5	1.59	0.36	841599	1	222745	565197	841599	618854	13402	2576	4940	135	408087	2332026	21053
317	2016-12-04 22:23:35	0	0	0	0	0	0	17.5	1.59	0.36	841697	1	222825	565197	841697	618872	13403	2578	4941	135	408087	2332049	21057
318	2016-12-04 22:33:37	0	0	0	0	0	0	17.5	1.59	0.36	841791	1	222909	565197	841791	618882	13403	2578	4942	135	408087	2332066	21058
319	2016-12-04 22:43:34	0	0	0	0	0	0	17.5	1.59	0.36	841896	1	222997	565507	841896	618899	13404	2580	4942	135	408087	2332080	21061
320	2016-12-04 22:53:38	0	0	0	0	0	0	17.5	1.59	0.36	841998	1	223084	565507	841998	618914	13407	2580	4943	135	408087	2332097	21065
321	2016-12-04 23:03:36	0	0	0	0	0	0	17.5	1.59	0.36	842083	1	223154	565507	842083	618929	13408	2582	4943	135	408087	2332104	21068
322	2016-12-04 23:13:34	0	0	0	0	0	0	17.5	1.59	0.36	842170	1	223230	565507	842170	618940	13408	2582	4943	135	408087	2332108	21068
323	2016-12-04 23:23:32	0	0	0	0	0	0	17.5	1.59	0.36	842248	1	223300	565714	842248	618948	13411	2582	4943	135	408087	2332116	21071
324	2016-12-04 23:33:32	0	0	0	0	0	0	17.5	1.59	0.36	842304	1	223351	565714	842304	618953	13412	2582	4943	135	408087	2332118	21072
325	2016-12-04 23:43:33	0	0	0	0	0	0	17.5	1.59	0.36	842368	1	223404	565714	842368	618964	13413	2582	4943	135	408087	2332122	21073
326	2016-12-04 23:53:32	0	0	0	0	0	0	17.5	1.59	0.36	842421	1	223456	565714	842421	618965	13413	2582	4943	135	408087	2332118	21073
327	2016-12-05 00:03:34	0	0	0	0	0	0	17.5	1.59	0.36	842474	1	223503	565714	842474	618971	13415	2582	4943	135	408087	2332124	21075
328	2016-12-05 00:13:33	0	0	0	0	0	0	17.5	1.59	0.36	842522	1	223542	565714	842522	618980	13416	2580	4943	135	408087	2332129	21074
329	2016-12-05 00:23:11	0	0	0	0	0	0	17.5	1.59	0.36	842557	1	223570	565714	842557	618987	13416	2580	4944	135	408087	2332130	21075
330	2016-12-05 00:33:11	0	0	0	0	0	0	17.5	1.59	0.36	842587	1	223597	565714	842587	618990	13416	2578	4944	135	408087	2332126	21073
331	2016-12-05 00:43:10	0	0	0	0	0	0	17.5	1.59	0.36	842617	1	223620	565714	842617	618997	13417	2578	4944	135	408087	2332127	21074
332	2016-12-05 00:53:11	0	0	0	0	0	0	17.5	1.59	0.36	842650	1	223645	565714	842650	619005	13417	2580	4944	135	408087	2332133	21076
333	2016-12-05 01:03:10	0	0	0	0	0	0	17.5	1.59	0.36	842683	1	223672	565714	842683	619011	13418	2580	4944	135	408087	2332136	21077
334	2016-12-05 01:13:10	0	0	0	0	0	0	17.5	1.59	0.36	842716	1	223704	565714	842716	619012	13419	2580	4944	135	408087	2332135	21078
335	2016-12-05 01:23:12	0	0	0	0	0	0	17.5	1.59	0.36	842745	1	223732	565714	842745	619013	13419	2580	4944	135	408087	2332135	21078
336	2016-12-05 01:33:09	0	0	0	0	0	0	17.5	1.59	0.36	842776	1	223760	565714	842776	619016	13420	2582	4944	135	408087	2332138	21081
337	2016-12-05 01:43:18	0	0	0	0	0	0	17.5	1.59	0.36	842796	1	223780	565714	842796	619016	13420	2582	4944	135	408087	2332139	21081
338	2016-12-05 01:53:11	0	0	0	0	0	0	17.5	1.59	0.36	842813	1	223795	565714	842813	619018	13421	2582	4944	135	408087	2332143	21082
339	2016-12-05 02:03:49	0	0	0	0	0	0	17.5	1.59	0.36	842827	1	223807	565714	842827	619020	13421	2582	4944	135	408087	2332570	21082
340	2016-12-05 02:13:11	0	0	0	0	0	0	17.5	1.59	0.36	842842	1	223821	565714	842842	619021	13421	2582	4944	135	408087	2332565	21082
341	2016-12-05 02:23:18	0	0	0	0	0	0	17.5	1.59	0.36	842851	1	223830	565920	842851	619021	13421	2582	4944	135	408087	2332564	21082
342	2016-12-05 02:33:10	0	0	0	0	0	0	17.5	1.59	0.36	842862	1	223839	565920	842862	619023	13425	2582	4944	135	408087	2332567	21086
343	2016-12-05 02:43:09	0	0	0	0	0	0	17.5	1.59	0.36	842878	1	223854	565920	842878	619024	13427	2582	4944	135	408087	2332568	21088
344	2016-12-05 02:53:11	0	0	0	0	0	0	17.5	1.59	0.36	842886	1	223861	565920	842886	619025	13427	2582	4944	135	408087	2332569	21088
345	2016-12-05 03:03:11	0	0	0	0	0	0	17.5	1.59	0.36	842892	1	223865	565920	842892	619027	13427	2582	4944	135	408087	2332568	21088
346	2016-12-05 03:13:11	0	0	0	0	0	0	17.5	1.59	0.36	842903	1	223875	565920	842903	619028	13427	2582	4944	135	408087	2332571	21088
347	2016-12-05 03:23:10	0	0	0	0	0	0	17.5	1.59	0.36	842909	1	223881	565920	842909	619028	13427	2582	4944	135	408087	2332573	21088
348	2016-12-05 03:33:18	0	0	0	0	0	0	17.5	1.59	0.36	842916	1	223888	565920	842916	619028	13428	2582	4944	135	408087	2332573	21089
349	2016-12-05 03:43:10	0	0	0	0	0	0	17.5	1.59	0.36	842927	1	223897	565920	842927	619030	13428	2582	4944	135	408087	2332575	21089
350	2016-12-05 03:53:10	0	0	0	0	0	0	17.5	1.59	0.36	842933	1	223902	565920	842933	619031	13430	2582	4944	135	408087	2332573	21091
351	2016-12-05 04:03:11	0	0	0	0	0	0	17.5	1.59	0.36	842941	1	223908	565920	842941	619033	13430	2582	4944	135	408087	2332575	21091
352	2016-12-05 04:13:11	0	0	0	0	0	0	17.5	1.59	0.36	842947	1	223913	565920	842947	619034	13430	2582	4944	135	408087	2332575	21091
353	2016-12-05 04:23:11	0	0	0	0	0	0	17.5	1.59	0.36	842955	1	223915	565920	842955	619036	13430	2582	4944	135	408087	2332573	21091
354	2016-12-05 04:33:12	0	0	0	0	0	0	17.5	1.59	0.36	842957	1	223921	565920	842957	619036	13430	2582	4944	135	408087	2332573	21091
355	2016-12-05 04:43:10	0	0	0	0	0	0	17.5	1.59	0.36	842968	1	223925	565920	842968	619036	13431	2582	4944	135	408087	2332575	21092
356	2016-12-05 04:53:10	0	0	0	0	0	0	17.5	1.59	0.36	842975	1	223934	565920	842975	619037	13431	2582	4944	135	408087	2332574	21092
357	2016-12-05 05:03:10	0	0	0	0	0	0	17.5	1.59	0.36	842992	1	223948	565920	842992	619039	13432	2582	4944	135	408087	2332575	21093
358	2016-12-05 05:13:11	0	0	0	0	0	0	17.5	1.59	0.36	843005	1	223964	565920	843005	619041	13432	2582	4944	135	408087	2332576	21093
359	2016-12-05 05:23:12	0	0	0	0	0	0	17.5	1.59	0.36	843020	1	223978	565920	843020	619042	13432	2582	4944	135	408087	2332578	21093
360	2016-12-05 05:33:11	0	0	0	0	0	0	17.5	1.59	0.36	843034	1	223992	565920	843034	619042	13432	2582	4944	135	408087	2332578	21093
361	2016-12-05 05:43:11	0	0	0	0	0	0	17.5	1.59	0.36	843051	1	223999	565920	843051	619043	13432	2582	4944	135	408087	2332580	21093
362	2016-12-05 05:53:11	0	0	0	0	0	0	17.5	1.59	0.36	843056	1	224013	565920	843056	619043	13432	2582	4944	135	408087	2332581	21093
363	2016-12-05 06:03:12	0	0	0	0	0	0	17.5	1.59	0.36	843076	1	224033	565920	843076	619043	13432	2582	4944	135	408087	2332582	21093
364	2016-12-05 06:13:13	0	0	0	0	0	0	17.5	1.59	0.36	843100	1	224057	565920	843100	619043	13432	2582	4944	135	408087	2332585	21093
365	2016-12-05 06:23:11	0	0	0	0	0	0	17.5	1.59	0.36	843118	1	224074	565920	843118	619044	13432	2582	4944	135	408087	2332588	21093
366	2016-12-05 06:33:15	0	0	0	0	0	0	17.5	1.59	0.36	843139	1	224086	565920	843139	619045	13433	2582	4944	135	408087	2332588	21094
367	2016-12-05 06:43:13	0	0	0	0	0	0	17.5	1.59	0.36	843148	1	224103	565920	843148	619045	13435	2582	4944	135	408087	2332590	21096
368	2016-12-05 06:53:16	0	0	0	0	0	0	17.5	1.59	0.36	843180	1	224133	565920	843180	619048	13436	2582	4944	135	408087	2332589	21097
369	2016-12-05 07:03:21	0	0	0	0	0	0	17.5	1.59	0.36	843241	1	224170	565920	843241	619049	13436	2582	4944	135	408087	2332587	21097
370	2016-12-05 07:13:22	0	0	0	0	0	0	17.5	1.59	0.36	843264	1	224198	565920	843264	619054	13437	2582	4944	135	408087	2332589	21098
371	2016-12-05 07:23:17	0	0	0	0	0	0	17.5	1.59	0.36	843279	1	224223	565920	843279	619057	13437	2582	4944	135	408087	2332591	21098
372	2016-12-05 07:33:15	0	0	0	0	0	0	17.49	1.59	0.36	843321	1	224253	565920	843321	619058	13438	2582	4944	135	408087	2332594	21099
373	2016-12-05 07:43:14	0	0	0	0	0	0	17.49	1.59	0.36	843334	1	224273	565920	843334	619063	13439	2582	4944	135	408087	2332596	21100
374	2016-12-05 07:53:15	0	0	0	0	0	0	17.49	1.59	0.36	843367	1	224303	565920	843367	619064	13440	2582	4944	135	408087	2332597	21101
375	2016-12-05 08:03:15	0	0	0	0	0	0	17.49	1.59	0.36	843401	1	224332	565920	843401	619070	13442	2582	4944	135	408087	2332597	21103
376	2016-12-05 08:13:15	0	0	0	0	0	0	17.49	1.59	0.36	843449	1	224377	565920	843449	619073	13443	2582	4944	135	408087	2332601	21104
377	2016-12-05 08:23:16	0	0	0	0	0	0	17.49	1.59	0.36	843480	1	224405	565920	843480	619075	13444	2582	4944	135	408087	2332607	21105
378	2016-12-05 08:33:15	0	0	0	0	0	0	17.49	1.59	0.36	843527	1	224443	565920	843527	619087	13444	2584	4944	135	408087	2332609	21107
379	2016-12-05 08:43:14	0	0	0	0	0	0	17.49	1.59	0.36	843564	1	224476	565920	843564	619089	13445	2584	4944	135	408087	2332613	21108
380	2016-12-05 08:53:15	0	0	0	0	0	0	17.49	1.59	0.36	843604	1	224509	565920	843604	619097	13445	2584	4944	135	408087	2332611	21108
381	2016-12-05 09:03:15	0	0	0	0	0	0	17.49	1.59	0.36	843636	1	224538	565920	843636	619098	13446	2584	4944	135	408087	2332617	21109
382	2016-12-05 09:13:15	0	0	0	0	0	0	17.49	1.59	0.36	843669	1	224566	565920	843669	619103	13447	2584	4944	135	408087	2332622	21110
383	2016-12-05 09:23:17	0	0	0	0	0	0	17.49	1.59	0.36	843701	1	224594	565920	843701	619108	13449	2584	4944	135	408087	2332632	21112
384	2016-12-05 09:33:15	0	0	0	0	0	0	17.49	1.59	0.36	843736	1	224626	565920	843736	619112	13450	2584	4944	135	408087	2332637	21113
385	2016-12-05 09:43:14	0	0	0	0	0	0	17.49	1.59	0.36	843771	1	224658	565920	843771	619113	13453	2584	4944	135	408087	2332640	21116
386	2016-12-05 09:53:16	0	0	0	0	0	0	17.49	1.59	0.36	843816	1	224695	565920	843816	619121	13453	2584	4944	135	408087	2332641	21116
387	2016-12-05 10:03:16	0	0	0	0	0	0	17.49	1.59	0.36	843851	1	224717	565920	843851	619134	13453	2584	4944	135	408087	2332640	21116
388	2016-12-05 10:13:16	0	0	0	0	0	0	17.49	1.59	0.36	843883	1	224742	565920	843883	619141	13453	2586	4944	135	408087	2332643	21118
389	2016-12-05 10:23:14	0	0	0	0	0	0	17.49	1.59	0.36	843917	1	224768	565920	843917	619149	13454	2586	4944	135	408087	2332645	21119
390	2016-12-05 10:33:16	0	0	0	0	0	0	17.49	1.59	0.36	843962	1	224807	565920	843962	619155	13455	2586	4944	135	408087	2332647	21120
391	2016-12-05 10:43:16	0	0	0	0	0	0	17.49	1.59	0.36	844003	1	224844	565920	844003	619159	13455	2586	4944	135	408087	2332652	21120
392	2016-12-05 10:53:18	0	0	0	0	0	0	17.49	1.59	0.36	844034	1	224868	565920	844034	619166	13456	2586	4944	135	408087	2332659	21121
393	2016-12-05 12:33:19	0	0	0	0	0	0	17.49	1.59	0.36	844342	1	225128	565920	844342	619214	13460	2586	4946	135	408087	2332754	21127
394	2016-12-05 12:43:19	0	0	0	0	0	0	17.49	1.59	0.36	844366	1	225148	566075	844366	619218	13460	2586	4946	135	408087	2332770	21127
395	2016-12-05 12:53:18	0	0	0	0	0	0	17.49	1.59	0.36	844394	1	225174	566075	844394	619220	13460	2586	4946	135	408087	2332782	21127
396	2016-12-05 13:03:20	0	0	0	0	0	0	17.49	1.59	0.36	844423	1	225200	566075	844423	619223	13460	2586	4946	135	408087	2332794	21127
397	2016-12-05 13:13:19	0	0	0	0	0	0	17.49	1.59	0.36	844446	1	225221	566075	844446	619225	13460	2586	4946	135	408087	2332803	21127
398	2016-12-05 13:23:20	0	0	0	0	0	0	17.49	1.59	0.36	844467	1	225238	566075	844467	619229	13460	2586	4946	135	408087	2332819	21127
399	2016-12-05 13:33:22	0	0	0	0	0	0	17.49	1.59	0.36	844498	1	225265	566075	844498	619233	13460	2586	4946	135	408087	2332835	21127
400	2016-12-05 13:43:20	0	0	0	0	0	0	17.49	1.59	0.36	844518	1	225283	566075	844518	619235	13460	2586	4946	135	408087	2332840	21127
401	2016-12-05 13:53:20	0	0	0	0	0	0	17.49	1.59	0.36	844540	1	225301	566075	844540	619239	13460	2586	4946	135	408087	2332857	21127
402	2016-12-05 14:03:22	0	0	0	0	0	0	17.49	1.59	0.36	844561	1	225316	566075	844561	619245	13461	2586	4946	135	408087	2332870	21128
403	2016-12-05 14:13:22	0	0	0	0	0	0	17.49	1.59	0.36	844584	1	225332	566075	844584	619252	13461	2586	4946	135	408087	2332894	21128
404	2016-12-05 14:23:21	0	0	0	0	0	0	17.49	1.59	0.36	844607	1	225350	566075	844607	619257	13461	2586	4946	135	408087	2332916	21128
405	2016-12-05 14:33:22	0	0	0	0	0	0	17.49	1.59	0.36	844623	1	225366	566075	844623	619257	13461	2586	4946	135	408087	2332943	21128
406	2016-12-05 14:43:22	0	0	0	0	0	0	17.49	1.59	0.36	844644	1	225386	566075	844644	619258	13462	2586	4946	135	408087	2332963	21129
407	2016-12-05 14:53:22	0	0	0	0	0	0	17.49	1.59	0.36	844666	1	225403	566075	844666	619263	13462	2586	4947	135	408087	2332979	21130
408	2016-12-05 15:03:24	0	0	0	0	0	0	17.49	1.59	0.36	844688	1	225422	566075	844688	619266	13462	2586	4947	135	408087	2333004	21130
409	2016-12-05 15:13:22	0	0	0	0	0	0	17.49	1.59	0.36	844705	1	225435	566075	844705	619270	13462	2586	4947	135	408087	2333019	21130
410	2016-12-05 15:23:22	0	0	0	0	0	0	17.49	1.59	0.36	844719	1	225448	566075	844719	619271	13462	2586	4947	135	408087	2333038	21130
411	2016-12-05 15:33:23	0	0	0	0	0	0	17.49	1.59	0.36	844741	1	225468	566075	844741	619273	13463	2586	4947	135	408087	2333067	21131
412	2016-12-05 15:43:23	0	0	0	0	0	0	17.49	1.59	0.36	844767	1	225489	566075	844767	619278	13464	2586	4947	135	408087	2333094	21132
413	2016-12-05 15:53:23	0	0	0	0	0	0	17.49	1.59	0.36	844790	1	225510	566075	844790	619280	13464	2586	4947	135	408087	2333108	21132
414	2016-12-05 16:03:25	0	0	0	0	0	0	17.49	1.59	0.36	844811	1	225529	566075	844811	619282	13465	2586	4947	135	408087	2333137	21133
415	2016-12-05 16:13:25	0	0	0	0	0	0	17.49	1.59	0.36	844833	1	225547	566075	844833	619286	13465	2586	4947	135	408087	2333157	21133
416	2016-12-05 16:23:23	0	0	0	0	0	0	17.49	1.59	0.36	844858	1	225570	566075	844858	619288	13465	2586	4947	135	408087	2333165	21133
417	2016-12-05 16:33:24	0	0	0	0	0	0	17.49	1.59	0.36	844875	1	225587	566075	844875	619288	13465	2588	4948	135	408087	2333186	21136
418	2016-12-05 16:43:23	0	0	0	0	0	0	17.49	1.59	0.36	844897	1	225605	566075	844897	619292	13465	2588	4948	135	408087	2333207	21136
419	2016-12-05 16:53:24	0	0	0	0	0	0	17.49	1.59	0.36	844904	1	225612	566075	844904	619292	13465	2588	4948	135	408087	2333228	21136
