1	2016-01-21 18:02:13	0	0	0	0	0	0	0.48	0.31	0.01	31423	0	457	26761	31423	30966	98	45	336	30	7034	1454134	509
2	2016-01-21 18:12:12	0	0	0	0	0	0	1.82	0.19	0.04	52458	0	1832	42370	52458	50626	98	45	336	30	26445	1454146	509
3	2016-01-21 18:22:16	0	0	0	0	0	0	4.04	0.47	0.07	83773	0	5501	63143	83773	78272	393	161	1080	63	58820	1454162	1697
4	2016-01-21 18:32:13	0	0	0	0	0	0	4.04	0.47	0.07	83773	0	5501	63143	83773	78272	393	161	1080	63	58820	1454171	1697
5	2016-01-21 18:52:13	0	0	0	0	0	0	6.23	0.51	0.12	141530	0	15506	101708	141530	126024	723	266	1807	92	90669	1454221	2888
6	2016-01-21 19:02:21	0	0	0	0	0	0	6.74	0.52	0.13	151862	0	17593	110557	151862	134269	797	279	1920	99	97996	1454236	3095
7	2016-01-21 19:12:19	0	0	0	0	0	0	6.74	0.53	0.14	161428	0	19622	116463	161428	141806	853	312	2159	105	97996	1454253	3429
8	2016-01-21 19:22:15	0	0	0	0	0	0	7.7	0.54	0.16	184571	0	25002	129852	184571	159569	1001	312	2159	117	111986	1454270	3589
9	2016-01-21 19:32:12	0	0	0	0	0	0	7.7	0.54	0.16	184571	0	25002	129852	184571	159569	1001	348	2399	117	111986	1454285	3865
10	2016-01-21 19:42:12	0	0	0	0	0	0	8.02	0.55	0.17	197318	0	28256	136331	197318	169062	1095	348	2486	123	116674	1454308	4052
11	2016-01-21 19:52:12	0	0	0	0	0	0	8.4	0.57	0.18	209039	0	31234	144832	209039	177805	1182	378	2622	134	122198	1454328	4316
12	2016-01-21 20:02:27	0	0	0	0	0	0	8.8	0.57	0.18	222206	0	34487	152359	222206	187719	1268	397	2786	137	127999	1454347	4588
13	2016-01-21 20:12:18	0	0	0	0	0	0	8.8	0.57	0.18	222206	0	34487	161661	222206	187719	1268	397	2786	137	127999	1454361	4588
14	2016-01-21 20:22:26	0	0	0	0	0	0	9.48	0.58	0.19	235029	0	37696	165332	235029	197333	1353	418	2930	140	137841	1454374	4841
15	2016-01-21 20:32:23	0	0	0	0	0	0	9.71	0.57	0.2	245858	0	40604	165332	245858	205254	1410	434	3064	145	141272	1454390	5053
16	2016-01-21 20:42:19	0	0	0	0	0	0	10.12	0.58	0.21	260193	0	44682	178790	260193	215511	1514	455	3230	147	147165	1454410	5346
17	2016-01-21 20:52:15	0	0	0	0	0	0	10.12	0.58	0.21	260193	0	44682	178790	260193	215511	1514	455	3230	147	147165	1454423	5346
18	2016-01-21 21:02:16	0	0	0	0	0	0	10.44	0.59	0.22	273384	0	48703	184501	273384	224681	1622	473	3361	154	151772	1454447	5610
19	2016-01-21 21:12:14	0	0	0	0	0	0	10.68	0.6	0.22	282168	0	51310	190033	282168	230858	1693	480	3410	158	155287	1454467	5741
20	2016-01-21 21:22:18	0	0	0	0	0	0	10.81	0.6	0.22	286775	0	52664	192706	286775	234111	1727	490	3507	165	157278	1454496	5889
21	2016-01-21 21:32:14	0	0	0	0	0	0	10.87	0.6	0.22	286775	0	52664	192706	286775	234111	1727	490	3507	165	158161	1454520	5889
22	2016-01-21 21:42:15	0	0	0	0	0	0	11.15	0.61	0.23	303029	0	57497	200523	303029	245532	1850	520	3680	171	162204	1454546	6221
23	2016-01-21 21:52:15	0	0	0	0	0	0	11.33	0.61	0.24	307453	0	58886	204913	307453	248567	1877	527	3728	173	164824	1454574	6305
24	2016-01-21 22:02:14	0	0	0	0	0	0	11.33	0.61	0.24	307453	0	58886	204913	307453	248567	1877	527	3728	173	164824	1454590	6305
25	2016-01-21 22:12:14	0	0	0	0	0	0	11.83	0.61	0.24	323140	0	63548	212903	323140	259592	1965	546	3879	180	172127	1454616	6570
26	2016-01-21 22:22:14	0	0	0	0	0	0	11.83	0.64	0.24	323140	0	63548	215676	323140	259592	2076	546	3879	180	172127	1454634	6681
27	2016-01-21 22:32:15	0	0	0	0	0	0	12.26	0.63	0.25	335110	0	67073	221099	335110	268037	2115	563	4014	186	178272	1454670	6878
28	2016-01-21 22:42:14	0	0	0	0	0	0	12.25	0.63	0.25	335110	0	67073	221099	335110	268037	2115	563	4014	186	178272	1454693	6878
29	2016-01-21 22:52:15	0	0	0	0	0	0	12.56	0.63	0.26	350345	0	70474	231861	350345	275928	2198	582	4180	191	182706	1454723	7151
30	2016-01-21 23:02:15	0	0	0	0	0	0	12.83	0.63	0.26	354125	0	72854	234902	354125	281271	2243	585	4207	193	186639	1454748	7228
31	2016-01-21 23:12:15	0	0	0	0	0	0	12.96	0.63	0.26	357218	0	73837	237581	357218	283381	2265	597	4275	195	188467	1454779	7332
32	2016-01-21 23:22:18	0	0	0	0	0	0	13.12	0.64	0.26	364274	0	76150	241034	364274	288124	2317	601	4337	201	190798	1454805	7456
33	2016-01-21 23:32:15	0	0	0	0	0	0	13.25	0.64	0.27	370497	0	78120	244415	370497	292377	2374	601	4337	201	192730	1454832	7513
34	2016-01-21 23:42:15	0	0	0	0	0	0	13.47	0.64	0.27	377266	0	80285	250619	377266	296981	2429	615	4441	204	195952	1454866	7689
35	2016-01-21 23:52:16	0	0	0	0	0	0	13.71	0.64	0.27	383128	0	82164	254554	383128	300964	2470	620	4489	205	199531	1454888	7784
36	2016-01-22 00:02:15	0	0	0	0	0	0	13.71	0.64	0.27	383128	0	82164	254554	383128	300964	2470	620	4489	205	199531	1454914	7784
37	2016-01-22 00:12:16	0	0	0	0	0	0	14.04	0.65	0.28	393582	0	85375	260601	393582	308207	2543	638	4612	209	204314	1454941	8002
38	2016-01-22 00:22:15	0	0	0	0	0	0	14.04	0.64	0.28	396941	0	85375	263137	396941	308207	2560	645	4612	210	204314	1454957	8027
39	2016-01-22 00:32:17	0	0	0	0	0	0	14.41	0.65	0.28	403633	0	88505	268368	403633	315128	2605	653	4726	213	209590	1454971	8197
40	2016-01-22 00:42:15	0	0	0	0	0	0	14.58	0.64	0.28	409390	0	90234	272783	409390	319156	2640	659	4789	217	212106	1454986	8305
41	2016-01-22 00:52:15	0	0	0	0	0	0	14.63	0.65	0.28	412253	0	91134	274683	412253	321119	2664	667	4820	218	212828	1455004	8369
42	2016-01-22 01:02:16	0	0	0	0	0	0	14.75	0.65	0.29	417462	0	92635	277897	417462	324827	2696	671	4871	218	214592	1455020	8456
43	2016-01-22 01:12:16	0	0	0	0	0	0	14.84	0.64	0.29	421789	0	93887	280198	421789	327902	2719	675	4911	219	215977	1455027	8524
44	2016-01-22 01:22:15	0	0	0	0	0	0	14.84	0.64	0.29	421789	0	93887	280198	421789	327902	2719	675	4911	219	215977	1455034	8524
45	2016-01-22 01:32:16	0	0	0	0	0	0	15.02	0.65	0.29	427825	0	95630	282847	427825	332195	2773	677	4977	222	218530	1455053	8649
46	2016-01-22 01:42:15	0	0	0	0	0	0	15.14	0.65	0.29	431319	0	96571	285132	431319	334748	2803	681	5015	223	220300	1455067	8722
47	2016-01-22 01:52:16	0	0	0	0	0	0	15.17	0.65	0.29	433035	0	97032	285553	433035	336003	2813	686	5027	223	220740	1455072	8749
48	2016-01-22 02:02:15	0	0	0	0	0	0	15.17	0.65	0.29	433035	0	97032	285553	433035	336003	2813	686	5027	223	220740	1455083	8749
49	2016-01-22 02:12:15	0	0	0	0	0	0	15.27	0.65	0.29	437284	0	98194	287980	437284	339090	2846	691	5069	225	222227	1455092	8831
50	2016-01-22 02:22:14	0	0	0	0	0	0	15.27	0.65	0.29	439643	0	98839	289718	439643	340804	2858	693	5095	225	222227	1455097	8871
51	2016-01-22 02:32:16	0	0	0	0	0	0	15.49	0.65	0.29	441669	0	99387	290207	441669	342282	2879	701	5112	225	225439	1455105	8917
52	2016-01-22 02:42:15	0	0	0	0	0	0	15.49	0.65	0.29	441669	0	99387	290207	441669	342282	2879	701	5112	225	225439	1455116	8917
53	2016-01-22 02:52:15	0	0	0	0	0	0	15.56	0.65	0.29	443966	0	99999	291889	443966	343967	2895	705	5134	225	226387	1455123	8959
54	2016-01-22 03:02:16	0	0	0	0	0	0	15.58	0.65	0.29	445637	0	100504	292289	445637	345133	2912	708	5154	225	226561	1454498	8999
55	2016-01-22 03:12:15	0	0	0	0	0	0	15.58	0.65	0.29	445637	0	100504	292289	445637	345133	2912	708	5154	225	226561	1454506	8999
56	2016-01-22 03:22:15	0	0	0	0	0	0	15.59	0.65	0.29	447027	0	100915	292510	447027	346112	2920	708	5165	225	226694	1454506	9018
57	2016-01-22 03:32:15	0	0	0	0	0	0	15.62	0.65	0.29	448087	0	101225	293800	448087	346862	2928	709	5174	225	227234	1454511	9036
58	2016-01-22 03:42:15	0	0	0	0	0	0	15.62	0.65	0.29	448087	0	101225	293800	448087	346862	2928	709	5174	225	227234	1454511	9036
59	2016-01-22 03:52:15	0	0	0	0	0	0	15.64	0.65	0.29	449864	0	101727	294170	449864	348137	2943	711	5194	225	227547	1454514	9073
60	2016-01-22 04:02:14	0	0	0	0	0	0	15.64	0.65	0.29	449864	0	101727	294170	449864	348137	2943	711	5194	225	227547	1454515	9073
61	2016-01-22 04:12:15	0	0	0	0	0	0	15.74	0.65	0.29	451119	0	102156	295313	451119	348963	2948	711	5204	226	228889	1454517	9089
62	2016-01-22 04:22:17	0	0	0	0	0	0	15.79	0.65	0.29	451548	0	102284	295765	451548	349264	2951	714	5214	226	229602	1454518	9105
63	2016-01-22 04:32:16	0	0	0	0	0	0	15.79	0.65	0.29	451548	0	102284	295765	451548	349264	2951	714	5214	226	229602	1454523	9105
64	2016-01-22 04:42:16	0	0	0	0	0	0	15.8	0.65	0.29	452579	0	102578	296161	452579	350001	2957	715	5218	226	229823	1454520	9116
65	2016-01-22 04:52:17	0	0	0	0	0	0	15.81	0.65	0.29	453115	0	102710	296473	453115	350405	2958	715	5221	226	230011	1454521	9120
66	2016-01-22 05:02:15	0	0	0	0	0	0	15.81	0.65	0.29	453638	0	102865	296601	453638	350405	2958	715	5225	226	230011	1454522	9124
67	2016-01-22 05:12:16	0	0	0	0	0	0	15.82	0.65	0.29	454162	0	103032	296828	454162	351130	2962	715	5227	226	230079	1454522	9130
68	2016-01-22 05:22:15	0	0	0	0	0	0	15.82	0.65	0.29	454162	0	103032	296828	454162	351130	2962	715	5231	226	230079	1454523	9134
69	2016-01-22 05:32:16	0	0	0	0	0	0	15.84	0.65	0.29	454866	0	103269	297291	454866	351597	2963	715	5236	226	230358	1454524	9140
70	2016-01-22 05:42:15	0	0	0	0	0	0	15.84	0.65	0.29	454866	0	103269	297291	454866	351597	2963	715	5236	226	230358	1454525	9140
71	2016-01-22 05:52:16	0	0	0	0	0	0	15.85	0.65	0.29	455589	0	103491	298035	455589	352098	2968	716	5240	226	230563	1454522	9150
72	2016-01-22 06:02:16	0	0	0	0	0	0	15.93	0.65	0.29	456139	0	103687	299636	456139	352452	2970	717	5249	226	231728	1454525	9162
73	2016-01-22 06:12:15	0	0	0	0	0	0	15.93	0.65	0.29	456139	0	103687	299636	456139	352452	2970	717	5249	226	231728	1454527	9162
74	2016-01-22 06:22:15	0	0	0	0	0	0	15.94	0.65	0.29	456940	0	103982	299868	456940	352958	2973	718	5256	226	231867	1454527	9173
75	2016-01-22 06:32:15	0	0	0	0	0	0	15.96	0.65	0.3	457594	0	104223	300271	457594	353171	2979	719	5264	226	232075	1454528	9188
76	2016-01-22 06:42:18	0	0	0	0	0	0	15.96	0.65	0.3	457963	0	104358	300301	457963	353605	2981	719	5265	226	232163	1454529	9191
77	2016-01-22 06:52:19	0	0	0	0	0	0	15.96	0.65	0.3	458742	0	104659	300519	458742	354083	2987	720	5273	227	232163	1454529	9207
78	2016-01-22 07:02:14	0	0	0	0	0	0	15.98	0.65	0.3	458742	0	104927	300519	458742	354540	2997	720	5273	227	232441	1454533	9217
79	2016-01-22 07:12:15	0	0	0	0	0	0	15.98	0.65	0.3	459898	0	105089	300840	459898	354809	3000	721	5282	227	232441	1454534	9230
80	2016-01-22 07:22:21	0	0	0	0	0	0	15.99	0.65	0.3	460409	0	105275	301016	460409	355134	3003	721	5284	227	232651	1454536	9235
81	2016-01-22 07:32:17	0	0	0	0	0	0	16.04	0.65	0.3	461903	0	105835	301543	461903	356068	3014	724	5294	227	233247	1454537	9259
82	2016-01-22 07:42:19	0	0	0	0	0	0	16.05	0.65	0.3	463090	0	106075	302187	463090	356446	3018	725	5297	227	233526	1454540	9267
83	2016-01-22 07:52:18	0	0	0	0	0	0	16.05	0.65	0.3	463708	0	106075	302305	463708	356446	3030	726	5308	227	233526	1454542	9291
84	2016-01-22 08:02:16	0	0	0	0	0	0	16.05	0.65	0.3	463708	0	107048	302305	463708	357983	3030	726	5308	228	233526	1454543	9292
85	2016-01-22 08:12:16	0	0	0	0	0	0	16.07	0.65	0.3	465835	0	107350	302660	465835	358485	3042	728	5327	229	233808	1454546	9326
86	2016-01-22 08:22:22	0	0	0	0	0	0	16.12	0.65	0.3	467979	0	108156	303134	467979	359823	3061	730	5350	232	234446	1454555	9373
87	2016-01-22 08:32:16	0	0	0	0	0	0	16.12	0.65	0.3	467979	0	108156	304565	467979	359823	3061	730	5350	232	234446	1454557	9373
88	2016-01-22 08:42:19	0	0	0	0	0	0	16.15	0.66	0.3	469925	0	108929	305753	469925	361637	3079	732	5362	232	234917	1454558	9405
89	2016-01-22 08:52:15	0	0	0	0	0	0	16.2	0.66	0.3	472142	0	109735	306996	472142	361637	3099	735	5384	233	235668	1454568	9451
90	2016-01-22 09:02:16	0	0	0	0	0	0	16.26	0.66	0.3	472142	0	110538	306996	472142	363736	3112	735	5384	233	236451	1454579	9464
91	2016-01-22 09:12:18	0	0	0	0	0	0	16.27	0.66	0.31	476470	0	111361	309884	476470	365109	3128	739	5415	235	236704	1454583	9517
92	2016-01-22 09:22:20	0	0	0	0	0	0	16.27	0.65	0.31	477747	0	111881	310615	477747	365866	3128	740	5422	236	236704	1454591	9526
93	2016-01-22 09:32:22	0	0	0	0	0	0	16.33	0.66	0.31	480039	0	112803	310739	480039	367236	3161	742	5437	237	237566	1454603	9577
94	2016-01-22 09:42:18	0	0	0	0	0	0	16.33	0.66	0.31	482455	0	113759	314368	482455	368696	3161	744	5454	238	237566	1454614	9597
95	2016-01-22 09:52:17	0	0	0	0	0	0	16.47	0.66	0.31	482455	0	113759	314368	482455	368696	3189	744	5454	238	239578	1454622	9625
96	2016-01-22 10:02:17	0	0	0	0	0	0	16.51	0.66	0.31	486101	0	115129	315728	486101	370972	3219	750	5497	243	240108	1454636	9709
97	2016-01-22 10:12:19	0	0	0	0	0	0	16.54	0.66	0.31	488809	0	116160	317151	488809	372649	3228	752	5516	243	240574	1454646	9739
98	2016-01-22 10:22:17	0	0	0	0	0	0	16.57	0.66	0.31	490081	0	116160	318497	490081	373413	3250	758	5538	243	240995	1454650	9789
99	2016-01-22 10:32:18	0	0	0	0	0	0	16.61	0.66	0.31	492490	0	117685	320653	492490	374805	3267	761	5564	243	241559	1454661	9835
100	2016-01-22 10:42:18	0	0	0	0	0	0	16.67	0.66	0.32	494687	0	118533	322144	494687	376154	3282	762	5575	243	242448	1454675	9862
101	2016-01-22 10:52:16	0	0	0	0	0	0	16.67	0.66	0.32	494687	0	118533	322144	494687	376154	3282	762	5575	243	242448	1454691	9862
102	2016-01-22 11:02:20	0	0	0	0	0	0	16.73	0.67	0.32	498412	0	119926	323203	498412	378486	3321	765	5609	245	243392	1454708	9940
103	2016-01-22 11:12:17	0	0	0	0	0	0	16.81	0.67	0.32	501049	0	120950	325685	501049	380099	3342	769	5635	247	244506	1454723	9993
104	2016-01-22 11:22:18	0	0	0	0	0	0	16.88	0.67	0.32	503296	0	121778	327458	503296	381518	3364	772	5658	247	245583	1454737	10041
105	2016-01-22 11:32:19	0	0	0	0	0	0	16.94	0.67	0.32	504413	0	122228	328500	504413	382185	3371	773	5670	249	246482	1454751	10063
106	2016-01-22 11:42:18	0	0	0	0	0	0	17.03	0.67	0.32	506961	0	123157	329427	506961	383804	3390	777	5700	252	247714	1454769	10119
107	2016-01-22 11:52:27	0	0	0	0	0	0	17.04	0.67	0.32	509274	0	124074	330041	509274	385200	3410	784	5726	253	247913	1454782	10173
108	2016-01-22 12:02:21	0	0	0	0	0	0	17.04	0.67	0.32	509274	0	124074	330041	509274	385200	3410	784	5726	253	247913	1454804	10173
109	2016-01-22 12:12:18	0	0	0	0	0	0	17.1	0.67	0.32	511605	0	125011	330870	511605	386594	3425	786	5748	258	248840	1454812	10217
110	2016-01-22 12:22:17	0	0	0	0	0	0	17.14	0.67	0.32	514017	0	125984	332201	514017	388033	3444	791	5776	259	249392	1454828	10270
111	2016-01-22 12:32:17	0	0	0	0	0	0	17.14	0.67	0.32	514017	0	125984	332201	514017	388033	3444	791	5776	259	249392	1454847	10270
112	2016-01-22 12:42:25	0	0	0	0	0	0	17.19	0.67	0.33	517571	0	127473	334241	517571	390098	3482	797	5817	261	250074	1454863	10357
113	2016-01-22 12:52:21	0	0	0	0	0	0	17.27	0.67	0.33	519988	0	128482	335941	519988	391506	3499	803	5844	263	251279	1454873	10409
114	2016-01-22 13:02:21	0	0	0	0	0	0	17.27	0.67	0.33	519988	0	128482	335941	519988	391506	3499	803	5862	263	251279	1454895	10427
115	2016-01-22 13:12:21	0	0	0	0	0	0	17.37	0.67	0.33	522838	0	129745	338160	522838	393093	3527	811	5880	265	252684	1454909	10483
116	2016-01-22 13:22:19	0	0	0	0	0	0	17.37	0.68	0.33	524271	0	130396	338382	524271	393875	3541	818	5902	266	252725	1454929	10527
117	2016-01-22 13:32:36	0	0	0	0	0	0	17.41	0.68	0.33	526639	0	131513	339607	526639	395126	3573	825	5939	269	253252	1454942	10606
118	2016-01-22 13:42:25	0	0	0	0	0	0	17.41	0.68	0.33	526639	0	131513	339607	526639	395126	3573	825	5939	269	253252	1454957	10606
119	2016-01-22 13:56:17	0	0	0	0	0	0	17.45	0.68	0.34	529707	0	132945	341392	529707	396762	3595	827	5977	269	253884	1454969	10668
120	2016-01-22 14:07:10	0	0	0	0	0	0	17.48	0.68	0.34	531402	0	133741	342109	531402	397661	3616	828	5989	269	254364	1454982	10702
121	2016-01-22 14:17:18	0	0	0	0	0	0	17.54	0.68	0.34	533163	0	134556	344096	533163	398607	3630	831	6002	269	255186	1454994	10732
122	2016-01-22 14:27:10	0	0	0	0	0	0	17.54	0.68	0.34	533163	0	134556	344096	533163	398607	3630	831	6002	269	255186	1454999	10732
123	2016-01-22 14:47:32	0	0	0	0	0	0	17.59	0.68	0.34	537448	0	136557	345543	537448	400891	3667	836	6064	273	255919	1455020	10840
124	2016-01-22 15:02:26	0	0	0	0	0	0	17.71	0.68	0.34	539588	0	137578	346587	539588	402010	3684	840	6093	273	257709	1455050	10890
125	2016-01-22 15:14:26	0	0	0	0	0	0	17.71	0.68	0.34	541183	0	138398	347638	541183	402785	3701	841	6106	274	257709	1455077	10922
126	2016-01-22 15:32:19	0	0	0	0	0	0	17.74	0.69	0.35	543529	0	139569	349127	543529	403960	3725	845	6139	278	258160	1455095	10987
127	2016-01-22 15:42:19	0	0	0	0	0	0	17.77	0.69	0.35	545134	0	140364	349324	545134	404770	3739	847	6167	280	258505	1455107	11033
128	2016-01-22 15:52:21	0	0	0	0	0	0	17.79	0.69	0.35	546011	0	140798	350034	546011	405213	3745	848	6179	280	258893	1455120	11052
129	2016-01-22 16:02:19	0	0	0	0	0	0	17.79	0.69	0.35	546011	0	140798	350034	546011	405213	3745	848	6179	280	258893	1455127	11052
130	2016-01-22 16:12:19	0	0	0	0	0	0	17.85	0.69	0.35	549102	0	142312	351435	549102	406790	3774	853	6212	282	259746	1455139	11121
131	2016-01-22 16:22:18	0	0	0	0	0	0	17.85	0.69	0.35	549882	0	142671	351714	549882	407211	3785	855	6218	282	259746	1455152	11140
132	2016-01-22 16:33:54	0	0	0	0	0	0	17.86	0.69	0.35	550693	0	143051	352074	550693	407642	3785	855	6226	282	259877	1455170	11148
133	2016-01-22 16:42:19	0	0	0	0	0	0	17.88	0.69	0.35	552228	0	143787	352315	552228	408441	3805	856	6239	282	260182	1455179	11182
134	2016-01-22 16:52:21	0	0	0	0	0	0	17.9	0.69	0.35	553852	0	144526	353320	553852	409326	3827	862	6256	284	260533	1455192	11229
135	2016-01-22 17:02:20	0	0	0	0	0	0	17.9	0.69	0.35	553852	0	144526	353320	553852	409326	3843	862	6256	284	260533	1455199	11245
136	2016-01-22 17:12:21	0	0	0	0	0	0	17.94	0.69	0.35	556339	0	145699	354346	556339	410640	3846	864	6274	284	261060	1455206	11268
137	2016-01-22 17:22:17	0	0	0	0	0	0	17.96	0.69	0.36	557938	0	146470	354749	557938	411468	3868	866	6291	286	261323	1455222	11311
138	2016-01-22 17:32:20	0	0	0	0	0	0	17.98	0.69	0.36	558768	0	146863	354749	558768	411905	3876	869	6300	286	261720	1455236	11331
139	2016-01-22 17:42:20	0	0	0	0	0	0	17.98	0.69	0.36	559432	0	147167	354830	559432	412265	3881	869	6307	286	261720	1455258	11343
140	2016-01-22 17:52:34	0	0	0	0	0	0	17.99	0.69	0.36	561571	0	148193	355482	561571	413378	3902	875	6330	288	261853	1455277	11395
141	2016-01-22 18:02:19	0	0	0	0	0	0	17.99	0.69	0.36	561571	0	148193	355482	561571	413378	3902	875	6330	288	261853	1455294	11395
142	2016-01-22 18:12:19	0	0	0	0	0	0	18.04	0.7	0.36	562833	0	148766	355482	562833	414067	3920	877	6352	289	262564	1455311	11438
143	2016-01-22 18:22:22	0	0	0	0	0	0	18.04	0.7	0.36	564734	0	149634	356136	564734	415100	3927	878	6358	289	262564	1455326	11452
144	2016-01-22 18:32:21	0	0	0	0	0	0	18.04	0.69	0.36	567346	0	149634	356648	567346	416508	3940	878	6368	289	262564	1455338	11475
145	2016-01-22 18:42:21	0	0	0	0	0	0	18.24	0.69	0.36	569290	0	151683	360279	569290	417607	3946	879	6372	289	265434	1455347	11486
146	2016-01-22 18:52:20	0	0	0	0	0	0	18.41	0.69	0.37	573924	0	153707	364547	573924	420217	3961	882	6385	289	267859	1455358	11517
147	2016-01-22 19:02:20	0	0	0	0	0	0	18.47	0.69	0.37	577886	0	155481	367642	577886	422405	3968	884	6389	289	268874	1455368	11530
148	2016-01-22 19:12:21	0	0	0	0	0	0	18.53	0.69	0.37	579780	0	156353	369220	579780	423427	3979	886	6401	289	269623	1455377	11555
149	2016-01-22 19:22:19	0	0	0	0	0	0	18.53	0.69	0.37	579780	0	156353	369220	579780	423427	3979	886	6401	289	269623	1455393	11555
150	2016-01-22 19:32:20	0	0	0	0	0	0	18.68	0.68	0.37	586285	0	159280	372971	586285	427005	3989	889	6425	289	271917	1455401	11592
151	2016-01-22 19:42:20	0	0	0	0	0	0	18.95	0.68	0.38	590241	0	161056	378696	590241	429185	3999	890	6431	289	275731	1455408	11609
152	2016-01-22 19:52:18	0	0	0	0	0	0	19.04	0.68	0.38	594012	0	162726	380465	594012	431286	4013	893	6442	289	277063	1455415	11637
153	2016-01-22 20:02:20	0	0	0	0	0	0	19.2	0.67	0.38	598255	0	164613	382061	598255	433642	4029	894	6449	289	279438	1455426	11661
154	2016-01-22 20:12:20	0	0	0	0	0	0	19.29	0.67	0.38	600242	0	165519	383447	600242	434723	4034	895	6458	289	280730	1455433	11676
155	2016-01-22 20:22:19	0	0	0	0	0	0	19.38	0.67	0.38	604725	0	167593	386366	604725	437132	4045	901	6472	291	282060	1455442	11709
156	2016-01-22 20:32:20	0	0	0	0	0	0	19.44	0.67	0.38	609400	0	167593	387733	609400	437132	4055	906	6472	291	282891	1455447	11724
157	2016-01-22 20:42:20	0	0	0	0	0	0	19.44	0.67	0.39	610892	0	170605	388780	610892	440004	4064	913	6497	294	282995	1455459	11768
158	2016-01-22 20:52:18	0	0	0	0	0	0	19.44	0.67	0.39	611546	0	170908	388780	611546	440638	4067	914	6512	294	282995	1455467	11787
159	2016-01-22 21:02:19	0	0	0	0	0	0	19.46	0.67	0.39	612632	0	171469	389366	612632	441163	4078	916	6522	294	283202	1455472	11810
160	2016-01-22 21:12:20	0	0	0	0	0	0	19.46	0.67	0.39	613819	0	171800	389366	613819	441475	4089	919	6533	295	283202	1455480	11836
161	2016-01-22 21:22:18	0	0	0	0	0	0	19.47	0.67	0.39	614466	0	172425	390342	614466	442041	4089	924	6550	298	283409	1455485	11861
162	2016-01-22 21:32:20	0	0	0	0	0	0	19.49	0.67	0.39	615664	0	173056	390884	615664	442608	4108	927	6560	298	283669	1455493	11893
163	2016-01-22 21:42:19	0	0	0	0	0	0	19.49	0.67	0.39	615664	0	173056	390884	615664	442608	4108	927	6560	298	283669	1455505	11893
164	2016-01-22 21:52:19	0	0	0	0	0	0	19.49	0.67	0.39	617498	0	173731	391948	617498	443465	4127	931	6576	298	283682	1455512	11932
165	2016-01-22 22:02:21	0	0	0	0	0	0	19.57	0.67	0.39	618553	0	174601	393442	618553	443952	4139	932	6589	299	284778	1455521	11959
166	2016-01-22 22:12:21	0	0	0	0	0	0	19.57	0.67	0.39	619841	0	175277	393642	619841	444564	4154	938	6606	300	284830	1455524	11998
167	2016-01-22 22:22:20	0	0	0	0	0	0	19.57	0.67	0.39	619841	0	175277	393642	619841	444564	4154	938	6606	300	284830	1455532	11998
168	2016-01-22 22:32:20	0	0	0	0	0	0	19.59	0.67	0.4	621012	0	175867	394620	621012	445145	4172	939	6624	301	285138	1455535	12036
169	2016-01-22 22:42:20	0	0	0	0	0	0	19.63	0.67	0.4	622778	0	176756	395322	622778	446022	4193	941	6636	302	285715	1455540	12072
170	2016-01-22 22:52:20	0	0	0	0	0	0	19.65	0.67	0.4	623236	0	177007	395524	623236	446229	4196	943	6639	302	286032	1455546	12080
171	2016-01-22 23:02:22	0	0	0	0	0	0	19.67	0.67	0.4	624454	0	177709	397591	624454	446745	4212	944	6652	302	286242	1455554	12110
172	2016-01-22 23:12:20	0	0	0	0	0	0	19.72	0.68	0.4	625685	0	178366	399953	625685	447319	4228	946	6666	303	287038	1455565	12143
173	2016-01-22 23:22:20	0	0	0	0	0	0	19.72	0.68	0.4	626178	0	178654	399953	626178	447524	4233	946	6671	304	287038	1455572	12154
174	2016-01-22 23:32:20	0	0	0	0	0	0	19.72	0.68	0.4	626738	0	178953	400251	626738	447785	4237	947	6674	305	287038	1455582	12163
175	2016-01-22 23:42:22	0	0	0	0	0	0	19.75	0.68	0.4	627844	0	179570	400769	627844	448274	4249	953	6686	305	287518	1455592	12193
176	2016-01-22 23:52:21	0	0	0	0	0	0	19.75	0.68	0.4	628781	0	180100	400769	628781	448681	4260	957	6696	306	287518	1455601	12219
177	2016-01-23 00:02:22	0	0	0	0	0	0	19.81	0.68	0.4	629737	0	180633	400872	629737	449104	4268	960	6708	307	288321	1455610	12243
178	2016-01-23 00:12:25	0	0	0	0	0	0	19.83	0.68	0.4	630292	0	180904	401496	630292	449388	4273	961	6716	307	288643	1455617	12257
179	2016-01-23 00:22:21	0	0	0	0	0	0	19.83	0.68	0.4	631098	0	181342	401809	631098	449756	4283	961	6723	307	288643	1455632	12274
180	2016-01-23 00:32:21	0	0	0	0	0	0	19.83	0.68	0.4	632027	0	181843	402226	632027	450184	4299	962	6733	308	288643	1455648	12302
181	2016-01-23 00:42:22	0	0	0	0	0	0	19.83	0.68	0.4	632517	0	182094	402226	632517	450423	4306	963	6740	309	288643	1455658	12318
182	2016-01-23 00:52:20	0	0	0	0	0	0	19.83	0.68	0.4	632517	0	182094	402226	632517	450423	4306	963	6740	309	288643	1455659	12318
183	2016-01-23 01:02:21	0	0	0	0	0	0	19.84	0.68	0.41	633815	0	182765	404037	633815	451050	4317	965	6755	309	288751	1455669	12346
184	2016-01-23 01:12:21	0	0	0	0	0	0	19.87	0.68	0.41	634765	0	183241	404037	634765	451524	4326	969	6773	309	289264	1455672	12377
185	2016-01-23 01:22:20	0	0	0	0	0	0	19.87	0.68	0.41	635170	0	183460	404037	635170	451710	4337	971	6781	309	289264	1455680	12398
186	2016-01-23 01:32:21	0	0	0	0	0	0	19.88	0.68	0.41	635533	0	183681	404354	635533	451852	4342	972	6785	310	289426	1455688	12409
187	2016-01-23 01:42:21	0	0	0	0	0	0	19.88	0.68	0.41	635533	0	183681	404354	635533	451852	4342	972	6785	310	289426	1455701	12409
188	2016-01-23 01:52:21	0	0	0	0	0	0	19.88	0.68	0.41	636104	0	183977	404354	636104	452127	4347	973	6794	310	289426	1455704	12424
189	2016-01-23 02:02:22	0	0	0	0	0	0	19.88	0.68	0.41	636981	0	184417	404459	636981	452564	4356	973	6813	310	289426	1455711	12452
190	2016-01-23 02:12:22	0	0	0	0	0	0	19.88	0.68	0.41	637410	0	184632	404459	637410	452778	4356	973	6815	311	289426	1455715	12455
191	2016-01-23 02:22:21	0	0	0	0	0	0	19.88	0.68	0.41	637844	0	184864	404459	637844	452980	4361	973	6821	311	289426	1455721	12466
192	2016-01-23 02:32:21	0	0	0	0	0	0	19.88	0.68	0.41	637844	0	184864	404459	637844	452980	4361	973	6821	311	289426	1455724	12466
193	2016-01-23 02:42:20	0	0	0	0	0	0	19.9	0.68	0.41	638353	0	185135	405094	638353	453218	4368	975	6826	311	289751	1455727	12480
194	2016-01-23 02:52:22	0	0	0	0	0	0	19.9	0.68	0.41	638662	0	185288	405094	638662	453374	4372	975	6829	311	289751	1455733	12487
195	2016-01-23 03:02:20	0	0	0	0	0	0	19.9	0.68	0.41	638662	0	185288	405094	638662	453374	4372	975	6829	311	289751	1456356	12487
196	2016-01-23 03:12:21	0	0	0	0	0	0	19.91	0.68	0.41	639162	0	185543	405413	639162	453619	4377	976	6836	311	289914	1456357	12500
197	2016-01-23 03:22:21	0	0	0	0	0	0	19.91	0.68	0.41	639370	0	185652	405413	639370	453718	4378	976	6840	311	289914	1456358	12505
198	2016-01-23 03:32:21	0	0	0	0	0	0	19.91	0.68	0.41	639475	0	185705	405413	639475	453770	4378	976	6842	311	289914	1456359	12507
199	2016-01-23 03:42:21	0	0	0	0	0	0	19.91	0.68	0.41	639475	0	185705	405413	639475	453770	4378	976	6842	311	289914	1456358	12507
200	2016-01-23 03:52:22	0	0	0	0	0	0	19.91	0.69	0.41	639819	0	185929	405413	639819	453938	4384	977	6848	312	289914	1456362	12521
201	2016-01-23 04:02:21	0	0	0	0	0	0	19.91	0.69	0.41	639968	0	185929	405413	639968	454006	4385	977	6848	312	289914	1456363	12522
202	2016-01-23 04:12:21	0	0	0	0	0	0	19.91	0.69	0.41	640139	0	186043	405413	640139	454096	4385	977	6849	312	289914	1456364	12523
203	2016-01-23 04:22:21	0	0	0	0	0	0	19.91	0.69	0.41	640291	0	186113	405413	640291	454178	4387	977	6850	312	289914	1456364	12526
204	2016-01-23 04:32:21	0	0	0	0	0	0	19.91	0.69	0.41	640358	0	186147	405413	640358	454211	4387	978	6850	312	289914	1456364	12527
205	2016-01-23 04:42:21	0	0	0	0	0	0	19.91	0.69	0.41	640492	0	186208	405413	640492	454284	4389	978	6851	312	289914	1456365	12530
206	2016-01-23 04:52:21	0	0	0	0	0	0	19.91	0.69	0.41	640619	0	186275	405413	640619	454344	4390	978	6852	312	289914	1456365	12532
207	2016-01-23 05:02:20	0	0	0	0	0	0	19.91	0.69	0.41	640619	0	186306	405413	640619	454372	4390	978	6852	312	289914	1456367	12532
208	2016-01-23 05:12:20	0	0	0	0	0	0	19.91	0.69	0.41	640783	0	186365	405413	640783	454418	4391	978	6854	312	289914	1456368	12535
209	2016-01-23 05:22:23	0	0	0	0	0	0	19.91	0.69	0.41	640853	0	186397	405413	640853	454456	4391	978	6857	312	289914	1456367	12538
210	2016-01-23 05:32:21	0	0	0	0	0	0	19.91	0.69	0.41	640958	0	186446	405413	640958	454512	4391	978	6857	312	289914	1456367	12538
211	2016-01-23 05:42:21	0	0	0	0	0	0	19.91	0.69	0.41	641039	0	186446	405413	641039	454512	4392	978	6857	312	289914	1456368	12539
212	2016-01-23 05:52:21	0	0	0	0	0	0	19.91	0.69	0.41	641080	0	186511	405413	641080	454569	4394	979	6858	312	289914	1456368	12543
213	2016-01-23 06:02:21	0	0	0	0	0	0	19.91	0.69	0.41	641124	0	186536	405413	641124	454588	4394	979	6858	312	289914	1456368	12543
214	2016-01-23 06:12:21	0	0	0	0	0	0	19.91	0.69	0.41	641249	0	186606	405413	641249	454643	4394	979	6862	312	289914	1456368	12547
215	2016-01-23 06:22:20	0	0	0	0	0	0	19.91	0.69	0.41	641249	0	186606	405413	641249	454667	4394	979	6862	312	289914	1456367	12547
216	2016-01-23 06:32:21	0	0	0	0	0	0	19.91	0.69	0.41	641362	0	186687	405625	641362	454675	4395	979	6865	312	289914	1456368	12551
217	2016-01-23 06:42:20	0	0	0	0	0	0	19.91	0.69	0.41	641392	0	186706	405838	641392	454686	4395	979	6865	312	289914	1456370	12551
218	2016-01-23 06:52:21	0	0	0	0	0	0	19.91	0.69	0.41	641511	0	186802	405838	641511	454709	4396	979	6865	312	289914	1456371	12552
219	2016-01-23 07:02:21	0	0	0	0	0	0	19.91	0.69	0.41	641543	0	186829	405838	641543	454714	4396	979	6865	312	289914	1456371	12552
220	2016-01-23 07:12:21	0	0	0	0	0	0	19.91	0.69	0.41	641640	0	186898	405838	641640	454742	4398	979	6865	312	289914	1456371	12554
221	2016-01-23 07:22:24	0	0	0	0	0	0	19.91	0.69	0.41	641729	0	186970	405838	641729	454759	4400	979	6867	313	289914	1456372	12559
222	2016-01-23 07:32:23	0	0	0	0	0	0	19.91	0.69	0.41	641729	0	186970	405838	641729	454759	4400	979	6867	313	289914	1456374	12559
223	2016-01-23 07:42:22	0	0	0	0	0	0	19.91	0.69	0.41	641896	0	187105	405838	641896	454791	4403	979	6867	313	289914	1456375	12562
224	2016-01-23 07:52:24	0	0	0	0	0	0	19.91	0.69	0.41	642027	0	187207	405838	642027	454820	4404	979	6867	313	289914	1456377	12563
225	2016-01-23 08:02:22	0	0	0	0	0	0	19.91	0.69	0.41	642027	0	187207	405838	642027	454820	4404	979	6867	313	289914	1456380	12563
226	2016-01-23 08:12:23	0	0	0	0	0	0	19.91	0.69	0.41	642219	0	187363	405838	642219	454856	4405	980	6868	313	289914	1456384	12566
227	2016-01-23 08:22:21	0	0	0	0	0	0	19.91	0.69	0.41	642288	0	187418	405838	642288	454870	4405	980	6869	313	289914	1456383	12567
228	2016-01-23 08:32:21	0	0	0	0	0	0	19.91	0.69	0.41	642531	0	187614	405891	642531	454917	4411	980	6873	313	289914	1456386	12577
229	2016-01-23 08:42:21	0	0	0	0	0	0	19.91	0.69	0.41	642613	0	187678	405891	642613	454935	4413	980	6873	313	289914	1456386	12579
230	2016-01-23 08:52:22	0	0	0	0	0	0	19.91	0.69	0.41	642846	0	187868	405891	642846	454978	4418	980	6874	313	289914	1456389	12585
231	2016-01-23 09:02:23	0	0	0	0	0	0	19.91	0.69	0.41	642959	0	187955	405891	642959	455004	4420	980	6875	313	289914	1456391	12588
232	2016-01-23 09:12:22	0	0	0	0	0	0	19.91	0.69	0.41	643190	0	188136	405891	643190	455054	4424	980	6878	313	289914	1456392	12595
233	2016-01-23 09:22:23	0	0	0	0	0	0	19.91	0.69	0.41	643476	0	188372	405891	643476	455104	4426	980	6879	313	289914	1456393	12598
234	2016-01-23 09:32:23	0	0	0	0	0	0	19.91	0.69	0.41	643476	0	188372	405891	643476	455104	4426	980	6879	313	289914	1456398	12598
235	2016-01-23 09:42:22	0	0	0	0	0	0	19.91	0.69	0.41	643877	0	188709	406637	643877	455168	4433	981	6882	313	289914	1456403	12609
236	2016-01-23 09:52:23	0	0	0	0	0	0	19.91	0.69	0.41	644120	0	188895	406637	644120	455225	4434	981	6885	313	289914	1456412	12613
237	2016-01-23 10:02:22	0	0	0	0	0	0	19.91	0.69	0.41	644120	0	188895	406637	644120	455225	4435	981	6885	313	289914	1456416	12614
238	2016-01-23 10:12:22	0	0	0	0	0	0	19.91	0.69	0.42	644553	0	189259	406637	644553	455294	4439	982	6890	314	289914	1456422	12625
239	2016-01-23 10:22:21	0	0	0	0	0	0	19.91	0.69	0.42	644804	0	189470	407279	644804	455334	4441	982	6892	317	289914	1456425	12632
240	2016-01-23 10:32:22	0	0	0	0	0	0	19.91	0.69	0.42	644804	0	189470	407279	644804	455334	4441	982	6892	317	289914	1456432	12632
241	2016-01-23 10:42:22	0	0	0	0	0	0	19.91	0.69	0.42	645082	0	189696	407279	645082	455386	4444	983	6896	317	289914	1456438	12640
242	2016-01-23 10:52:22	0	0	0	0	0	0	19.91	0.69	0.42	645340	0	190007	407279	645340	455440	4447	984	6898	317	289914	1456445	12646
243	2016-01-23 11:02:22	0	0	0	0	0	0	19.91	0.69	0.42	645592	0	190007	407279	645592	455495	4450	984	6898	317	289914	1456451	12649
244	2016-01-23 11:12:29	0	0	0	0	0	0	19.91	0.69	0.42	645730	0	190214	407279	645730	455516	4450	984	6900	317	289914	1456455	12651
245	2016-01-23 11:22:25	0	0	0	0	0	0	19.92	0.69	0.42	646043	0	190480	407359	646043	455563	4456	984	6903	317	290131	1456460	12660
246	2016-01-23 11:32:23	0	0	0	0	0	0	19.92	0.69	0.42	646170	0	190587	407359	646170	455583	4458	984	6903	317	290131	1456467	12662
247	2016-01-23 11:42:22	0	0	0	0	0	0	19.92	0.69	0.42	646170	0	190768	407413	646170	455624	4461	984	6905	317	290131	1456474	12667
248	2016-01-23 11:52:22	0	0	0	0	0	0	19.92	0.69	0.42	646493	0	190856	407413	646493	455637	4463	984	6908	317	290131	1456478	12672
249	2016-01-23 12:02:24	0	0	0	0	0	0	19.92	0.69	0.42	646681	0	191013	407413	646681	455668	4466	984	6909	317	290131	1456490	12676
250	2016-01-23 12:12:25	0	0	0	0	0	0	19.92	0.69	0.42	646908	0	191207	407413	646908	455701	4468	985	6911	317	290131	1456500	12681
251	2016-01-23 12:22:24	0	0	0	0	0	0	19.92	0.69	0.42	646908	0	191207	407413	646908	455701	4470	985	6911	317	290131	1456505	12683
252	2016-01-23 12:32:24	0	0	0	0	0	0	19.92	0.69	0.42	647191	0	191444	407520	647191	455747	4473	985	6912	317	290131	1456513	12687
253	2016-01-23 12:42:24	0	0	0	0	0	0	19.92	0.69	0.42	647295	0	191530	407520	647295	455765	4474	985	6912	317	290131	1456523	12688
254	2016-01-23 12:52:23	0	0	0	0	0	0	19.92	0.69	0.42	647295	0	191530	407520	647295	455765	4474	985	6912	317	290131	1456532	12688
255	2016-01-23 13:02:25	0	0	0	0	0	0	19.92	0.69	0.42	647573	0	191764	407735	647573	455809	4476	985	6916	317	290131	1456539	12694
256	2016-01-23 13:12:26	0	0	0	0	0	0	19.92	0.69	0.42	647763	0	191916	407735	647763	455847	4477	985	6916	317	290131	1456545	12695
257	2016-01-23 13:22:24	0	0	0	0	0	0	19.92	0.69	0.42	647763	0	191916	407735	647763	455847	4477	985	6916	317	290131	1456550	12695
258	2016-01-23 13:32:23	0	0	0	0	0	0	19.92	0.69	0.42	647947	0	192068	408111	647947	455879	4481	985	6917	317	290131	1456550	12700
259	2016-01-23 13:42:24	0	0	0	0	0	0	19.92	0.69	0.42	648182	0	192253	408111	648182	455929	4483	986	6917	317	290185	1456553	12703
260	2016-01-23 13:52:29	0	0	0	0	0	0	19.92	0.69	0.42	648310	0	192359	408111	648310	455951	4486	986	6920	317	290185	1456565	12709
261	2016-01-23 14:02:25	0	0	0	0	0	0	19.92	0.69	0.42	648391	0	192359	408542	648391	455965	4486	986	6921	317	290185	1456565	12710
262	2016-01-23 14:12:25	0	0	0	0	0	0	19.92	0.69	0.42	648553	0	192503	408542	648553	455999	4489	987	6921	317	290185	1456568	12714
263	2016-01-23 14:22:27	0	0	0	0	0	0	19.92	0.69	0.42	648637	0	192624	408542	648637	456013	4494	987	6922	317	290185	1456574	12720
264	2016-01-23 14:32:26	0	0	0	0	0	0	19.92	0.69	0.42	648796	0	192756	408542	648796	456026	4498	987	6922	317	290185	1456577	12724
265	2016-01-23 14:42:25	0	0	0	0	0	0	19.98	0.69	0.42	648868	0	192820	409298	648868	456048	4498	987	6922	317	291004	1456584	12724
266	2016-01-23 14:52:26	0	0	0	0	0	0	19.98	0.69	0.42	649116	0	193014	409298	649116	456102	4500	988	6923	317	291004	1456588	12728
267	2016-01-23 15:02:26	0	0	0	0	0	0	19.98	0.69	0.42	649183	0	193071	409298	649183	456112	4502	988	6923	317	291004	1456588	12730
268	2016-01-23 15:12:26	0	0	0	0	0	0	19.98	0.69	0.42	649183	0	193213	409298	649183	456143	4502	988	6923	317	291004	1456593	12730
269	2016-01-23 15:22:26	0	0	0	0	0	0	19.99	0.69	0.42	649411	0	193259	409623	649411	456152	4503	988	6924	318	291168	1456598	12733
270	2016-01-23 15:32:30	0	0	0	0	0	0	19.99	0.69	0.42	649539	0	193376	409623	649539	456163	4506	988	6924	318	291168	1456603	12736
271	2016-01-23 15:42:31	0	0	0	0	0	0	19.99	0.69	0.42	649706	0	193520	409623	649706	456186	4510	988	6925	318	291168	1456615	12741
272	2016-01-23 15:52:27	0	0	0	0	0	0	19.99	0.69	0.42	649706	0	193520	409623	649706	456186	4510	988	6925	318	291168	1456623	12741
273	2016-01-23 16:02:26	0	0	0	0	0	0	19.99	0.69	0.42	649949	0	193713	409623	649949	456236	4514	988	6927	318	291168	1456627	12747
274	2016-01-23 16:12:27	0	0	0	0	0	0	19.99	0.69	0.42	650035	0	193785	409724	650035	456250	4515	988	6927	318	291168	1456635	12748
275	2016-01-23 16:22:27	0	0	0	0	0	0	19.99	0.69	0.42	650138	0	193876	409724	650138	456262	4517	988	6929	318	291168	1456640	12752
276	2016-01-23 16:32:27	0	0	0	0	0	0	19.99	0.69	0.42	650138	0	193876	409724	650138	456262	4517	988	6929	318	291168	1456651	12752
277	2016-01-23 16:42:29	0	0	0	0	0	0	19.99	0.7	0.43	650322	0	194033	409724	650322	456289	4521	988	6932	318	291168	1456659	12759
278	2016-01-23 16:52:26	0	0	0	0	0	0	19.99	0.7	0.43	650322	0	194033	409724	650322	456289	4521	988	6932	318	291168	1456665	12759
279	2016-01-23 17:02:28	0	0	0	0	0	0	19.99	0.7	0.43	650493	0	194180	409724	650493	456313	4525	988	6932	318	291168	1456675	12763
280	2016-01-23 17:12:27	0	0	0	0	0	0	19.99	0.7	0.43	650493	0	194180	409724	650493	456313	4525	988	6932	318	291168	1456684	12763
281	2016-01-23 17:22:28	0	0	0	0	0	0	19.99	0.7	0.43	650667	0	194327	409724	650667	456340	4528	988	6933	318	291168	1456692	12767
282	2016-01-23 17:32:26	0	0	0	0	0	0	19.99	0.7	0.43	650667	0	194327	409724	650667	456340	4530	988	6933	318	291168	1456700	12769
283	2016-01-23 17:42:26	0	0	0	0	0	0	19.99	0.7	0.43	650822	0	194455	409724	650822	456367	4530	988	6934	319	291168	1456704	12771
284	2016-01-23 17:52:28	0	0	0	0	0	0	19.99	0.7	0.43	650922	0	194537	409724	650922	456385	4532	988	6934	319	291168	1456710	12773
285	2016-01-23 18:02:29	0	0	0	0	0	0	19.99	0.7	0.43	651044	0	194636	409724	651044	456408	4532	989	6934	319	291168	1456720	12774
286	2016-01-23 18:12:28	0	0	0	0	0	0	19.99	0.7	0.43	651101	0	194681	409724	651101	456420	4532	989	6937	319	291168	1456720	12777
287	2016-01-23 18:22:27	0	0	0	0	0	0	19.99	0.7	0.43	651202	0	194762	409724	651202	456440	4532	989	6939	319	291168	1456726	12779
288	2016-01-23 18:32:27	0	0	0	0	0	0	19.99	0.7	0.43	651202	0	194762	409724	651202	456440	4532	989	6939	319	291168	1456730	12779
289	2016-01-23 18:42:28	0	0	0	0	0	0	19.99	0.7	0.43	651292	0	194833	409724	651292	456459	4533	989	6942	319	291168	1456739	12783
290	2016-01-23 18:52:29	0	0	0	0	0	0	19.99	0.7	0.43	651447	0	194967	409724	651447	456480	4534	990	6943	319	291168	1456747	12786
291	2016-01-23 19:02:27	0	0	0	0	0	0	19.99	0.7	0.43	651567	0	195071	409724	651567	456496	4535	991	6945	319	291168	1456751	12790
292	2016-01-23 19:12:28	0	0	0	0	0	0	19.99	0.7	0.43	651604	0	195106	409724	651604	456498	4535	991	6947	319	291168	1456763	12792
293	2016-01-23 19:22:27	0	0	0	0	0	0	19.99	0.7	0.43	651604	0	195106	409724	651604	456498	4535	991	6947	319	291168	1456770	12792
294	2016-01-23 19:32:27	0	0	0	0	0	0	19.99	0.7	0.43	651783	0	195248	409724	651783	456535	4536	992	6947	319	291168	1456776	12794
295	2016-01-23 19:42:28	0	0	0	0	0	0	19.99	0.7	0.43	651914	0	195358	409724	651914	456556	4537	993	6950	319	291168	1456778	12799
296	2016-01-23 19:52:28	0	0	0	0	0	0	19.99	0.7	0.43	651966	0	195400	409724	651966	456566	4537	993	6950	319	291168	1456785	12799
297	2016-01-23 20:02:29	0	0	0	0	0	0	19.99	0.7	0.43	652058	0	195480	409724	652058	456578	4538	993	6950	319	291168	1456793	12800
298	2016-01-23 20:12:31	0	0	0	0	0	0	19.99	0.7	0.43	652174	0	195577	409914	652174	456597	4538	993	6951	319	291168	1456797	12801
299	2016-01-23 20:22:29	0	0	0	0	0	0	19.99	0.7	0.43	652216	0	195613	409914	652216	456603	4540	993	6951	319	291168	1456802	12803
300	2016-01-23 20:32:27	0	0	0	0	0	0	19.99	0.7	0.43	652364	0	195738	409914	652364	456626	4542	993	6951	319	291168	1456806	12805
301	2016-01-23 20:42:28	0	0	0	0	0	0	19.99	0.7	0.43	652418	0	195784	409914	652418	456634	4546	993	6952	319	291168	1456811	12810
302	2016-01-23 20:52:29	0	0	0	0	0	0	20	0.7	0.43	652554	0	195891	409914	652554	456663	4549	993	6955	319	291387	1456823	12816
303	2016-01-23 21:02:30	0	0	0	0	0	0	20	0.7	0.43	652554	0	195891	410077	652554	456663	4549	993	6955	319	291387	1456825	12816
304	2016-01-23 21:12:31	0	0	0	0	0	0	20.01	0.7	0.43	652726	0	196037	410077	652726	456689	4550	993	6956	319	291469	1456836	12818
305	2016-01-23 21:22:30	0	0	0	0	0	0	20.01	0.7	0.43	652837	0	196132	410077	652837	456705	4553	993	6956	319	291469	1456843	12821
306	2016-01-23 21:32:29	0	0	0	0	0	0	20.01	0.7	0.43	652934	0	196218	410077	652934	456716	4553	993	6956	319	291469	1456847	12821
307	2016-01-23 21:42:31	0	0	0	0	0	0	20.01	0.7	0.43	652991	0	196267	410077	652991	456724	4553	993	6956	319	291469	1456854	12821
308	2016-01-23 21:52:31	0	0	0	0	0	0	20.01	0.7	0.43	653115	0	196371	410295	653115	456744	4556	993	6959	319	291469	1456857	12827
309	2016-01-23 22:02:30	0	0	0	0	0	0	20.01	0.7	0.43	653115	0	196371	410295	653115	456744	4556	993	6959	319	291469	1456861	12827
310	2016-01-23 22:12:33	0	0	0	0	0	0	20.01	0.7	0.43	653314	0	196546	410349	653314	456768	4558	993	6960	319	291469	1456871	12830
311	2016-01-23 22:22:29	0	0	0	0	0	0	20.01	0.7	0.43	653354	0	196581	410349	653354	456773	4558	993	6961	319	291469	1456880	12831
312	2016-01-23 22:32:31	0	0	0	0	0	0	20.01	0.7	0.43	653458	0	196664	410376	653458	456794	4559	993	6961	320	291469	1456882	12833
313	2016-01-23 22:42:35	0	0	0	0	0	0	20.01	0.7	0.43	653572	0	196760	410376	653572	456812	4560	993	6961	320	291469	1456886	12834
314	2016-01-23 22:52:32	0	0	0	0	0	0	20.01	0.7	0.43	653615	0	196795	410376	653615	456820	4560	993	6962	320	291469	1456895	12835
315	2016-01-23 23:02:30	0	0	0	0	0	0	20.02	0.7	0.43	653720	0	196882	410376	653720	456838	4562	993	6962	320	291689	1456904	12837
316	2016-01-23 23:12:30	0	0	0	0	0	0	20.02	0.7	0.43	653772	0	196927	410376	653772	456845	4563	993	6962	320	291689	1456913	12838
317	2016-01-23 23:22:31	0	0	0	0	0	0	20.02	0.7	0.43	653884	0	197007	410376	653884	456877	4564	993	6962	320	291689	1456918	12839
318	2016-01-23 23:32:34	0	0	0	0	0	0	20.02	0.7	0.43	653984	0	197088	410376	653984	456896	4564	993	6962	320	291689	1456923	12839
319	2016-01-23 23:42:30	0	0	0	0	0	0	20.02	0.7	0.43	654044	0	197135	410376	654044	456909	4565	993	6962	320	291689	1456932	12840
320	2016-01-23 23:52:30	0	0	0	0	0	0	20.02	0.7	0.43	654090	0	197174	410376	654090	456916	4565	993	6962	320	291689	1456935	12840
321	2016-01-24 00:02:30	0	0	0	0	0	0	20.02	0.7	0.43	654179	0	197250	410376	654179	456929	4566	993	6963	320	291689	1456937	12842
322	2016-01-24 00:12:34	0	0	0	0	0	0	20.02	0.7	0.43	654179	0	197250	410376	654179	456929	4566	993	6963	320	291689	1456945	12842
323	2016-01-24 00:22:33	0	0	0	0	0	0	20.02	0.7	0.43	654330	0	197367	410376	654330	456963	4567	993	6963	320	291689	1456956	12843
324	2016-01-24 00:32:31	0	0	0	0	0	0	20.02	0.7	0.43	654356	0	197390	410376	654356	456966	4567	993	6963	320	291689	1456957	12843
325	2016-01-24 00:42:30	0	0	0	0	0	0	20.02	0.7	0.43	654356	0	197390	410376	654356	456966	4567	993	6963	320	291689	1456961	12843
326	2016-01-24 00:52:31	0	0	0	0	0	0	20.02	0.7	0.43	654413	0	197439	410376	654413	456974	4567	993	6963	320	291689	1456969	12843
327	2016-01-24 01:02:33	0	0	0	0	0	0	20.02	0.7	0.43	654505	0	197508	410376	654505	456997	4571	993	6963	320	291689	1456973	12847
328	2016-01-24 01:12:38	0	0	0	0	0	0	20.02	0.7	0.43	654557	0	197549	410376	654557	457008	4572	993	6964	320	291689	1456977	12849
329	2016-01-24 01:22:36	0	0	0	0	0	0	20.02	0.7	0.43	654557	0	197549	410376	654557	457008	4572	993	6964	320	291689	1456978	12849
330	2016-01-24 01:32:32	0	0	0	0	0	0	20.02	0.7	0.43	654633	0	197615	410376	654633	457018	4575	993	6966	320	291689	1456980	12854
331	2016-01-24 01:42:30	0	0	0	0	0	0	20.02	0.7	0.43	654663	0	197639	410376	654663	457024	4577	994	6968	320	291689	1456984	12859
332	2016-01-24 01:52:32	0	0	0	0	0	0	20.02	0.7	0.43	654709	0	197678	410376	654709	457031	4578	994	6969	320	291689	1456989	12861
333	2016-01-24 02:02:47	0	0	0	0	0	0	20.02	0.7	0.43	654737	0	197699	410376	654737	457038	4578	994	6969	320	291689	1456998	12861
334	2016-01-24 02:12:35	0	0	0	0	0	0	20.02	0.7	0.43	654766	0	197725	410376	654766	457041	4579	994	6969	320	291689	1456999	12862
335	2016-01-24 02:22:39	0	0	0	0	0	0	20.02	0.7	0.43	654822	0	197769	410376	654822	457053	4579	994	6969	320	291689	1457001	12862
336	2016-01-24 02:32:30	0	0	0	0	0	0	20.02	0.7	0.43	654822	0	197769	410376	654822	457053	4579	994	6969	320	291689	1457001	12862
337	2016-01-24 02:42:33	0	0	0	0	0	0	20.02	0.7	0.43	654872	0	197812	410376	654872	457060	4580	994	6969	320	291689	1457002	12863
338	2016-01-24 02:52:28	0	0	0	0	0	0	20.02	0.7	0.43	654894	0	197828	410376	654894	457066	4580	994	6969	320	291689	1457003	12863
339	2016-01-24 03:02:31	0	0	0	0	0	0	19.99	0.7	0.43	654907	0	197840	410376	654907	457067	4581	994	6969	320	291689	1458853	12864
340	2016-01-24 03:12:32	0	0	0	0	0	0	19.99	0.7	0.43	654907	0	197840	410376	654907	457067	4581	994	6969	320	291689	1458856	12864
341	2016-01-24 03:22:33	0	0	0	0	0	0	19.99	0.7	0.43	654943	0	197869	410376	654943	457074	4582	994	6970	320	291689	1458859	12866
342	2016-01-24 03:32:34	0	0	0	0	0	0	19.99	0.7	0.43	654951	0	197876	410376	654951	457075	4582	994	6970	320	291689	1458863	12866
343	2016-01-24 03:42:36	0	0	0	0	0	0	19.99	0.7	0.43	654960	0	197884	410376	654960	457076	4582	994	6970	320	291689	1458860	12866
344	2016-01-24 03:52:31	0	0	0	0	0	0	19.99	0.7	0.43	654979	0	197901	410376	654979	457078	4582	994	6970	320	291689	1458861	12866
345	2016-01-24 04:02:31	0	0	0	0	0	0	19.99	0.7	0.43	654989	0	197907	410376	654989	457082	4582	994	6970	320	291689	1458860	12866
346	2016-01-24 04:12:34	0	0	0	0	0	0	19.99	0.7	0.43	655004	0	197919	410594	655004	457085	4582	994	6971	320	291689	1458860	12867
347	2016-01-24 04:22:33	0	0	0	0	0	0	19.99	0.7	0.43	655020	0	197932	410594	655020	457085	4582	994	6971	320	291689	1458862	12867
348	2016-01-24 04:32:31	0	0	0	0	0	0	19.99	0.7	0.43	655020	0	197932	410594	655020	457091	4582	994	6971	320	291689	1458860	12867
349	2016-01-24 04:42:30	0	0	0	0	0	0	19.99	0.7	0.43	655037	0	197943	410594	655037	457091	4582	994	6971	320	291689	1458862	12867
350	2016-01-24 04:52:32	0	0	0	0	0	0	19.99	0.7	0.43	655045	0	197950	410594	655045	457095	4582	994	6971	320	291689	1458862	12867
351	2016-01-24 05:02:34	0	0	0	0	0	0	19.99	0.7	0.43	655050	0	197954	410594	655050	457096	4582	994	6971	320	291689	1458860	12867
352	2016-01-24 05:12:35	0	0	0	0	0	0	19.99	0.7	0.43	655059	0	197960	410594	655059	457099	4582	994	6971	320	291689	1458861	12867
353	2016-01-24 05:22:35	0	0	0	0	0	0	19.99	0.7	0.43	655059	0	197960	410594	655059	457099	4582	994	6971	320	291689	1458859	12867
354	2016-01-24 05:32:33	0	0	0	0	0	0	19.99	0.7	0.43	655073	0	197971	410594	655073	457102	4582	994	6971	320	291689	1458860	12867
355	2016-01-24 05:42:31	0	0	0	0	0	0	19.99	0.7	0.43	655073	0	197974	410594	655073	457102	4582	994	6971	320	291689	1458862	12867
356	2016-01-24 05:52:31	0	0	0	0	0	0	19.99	0.7	0.43	655083	0	197979	410594	655083	457104	4582	995	6971	320	291689	1458863	12868
357	2016-01-24 06:02:31	0	0	0	0	0	0	19.99	0.7	0.43	655086	0	197981	410594	655086	457105	4582	995	6971	320	291689	1458864	12868
358	2016-01-24 06:12:34	0	0	0	0	0	0	19.99	0.7	0.43	655096	0	197989	410594	655096	457107	4582	995	6971	320	291689	1458862	12868
359	2016-01-24 06:22:32	0	0	0	0	0	0	19.99	0.7	0.43	655098	0	197991	410594	655098	457107	4582	995	6971	320	291689	1458861	12868
360	2016-01-24 06:32:34	0	0	0	0	0	0	19.99	0.7	0.43	655104	0	197995	410594	655104	457109	4582	995	6971	320	291689	1458861	12868
361	2016-01-24 06:42:34	0	0	0	0	0	0	19.99	0.7	0.43	655109	0	198000	410594	655109	457109	4582	995	6971	320	291689	1458863	12868
362	2016-01-24 06:52:34	0	0	0	0	0	0	19.99	0.7	0.43	655116	0	198005	410594	655116	457111	4582	995	6971	320	291689	1458866	12868
363	2016-01-24 07:02:36	0	0	0	0	0	0	19.99	0.7	0.43	655119	0	198008	410594	655119	457111	4582	995	6971	320	291689	1458866	12868
364	2016-01-24 07:12:34	0	0	0	0	0	0	19.99	0.7	0.43	655125	0	198013	410594	655125	457112	4582	995	6971	320	291689	1458868	12868
365	2016-01-24 07:22:35	0	0	0	0	0	0	19.99	0.7	0.43	655137	0	198025	410594	655137	457112	4582	995	6971	320	291689	1458869	12868
366	2016-01-24 07:32:37	0	0	0	0	0	0	19.99	0.7	0.43	655140	0	198026	410594	655140	457114	4582	995	6971	320	291689	1458869	12868
367	2016-01-24 07:42:33	0	0	0	0	0	0	19.99	0.7	0.43	655140	0	198026	410594	655140	457114	4582	995	6971	320	291689	1458870	12868
368	2016-01-24 07:52:39	0	0	0	0	0	0	19.99	0.7	0.43	655150	0	198035	410594	655150	457115	4583	995	6971	320	291689	1458872	12869
369	2016-01-24 08:02:34	0	0	0	0	0	0	19.99	0.7	0.43	655150	0	198035	410594	655150	457115	4583	995	6971	320	291689	1458873	12869
370	2016-01-24 08:12:32	0	0	0	0	0	0	19.99	0.7	0.43	655176	0	198059	410594	655176	457117	4583	995	6971	320	291689	1458873	12869
371	2016-01-24 08:22:35	0	0	0	0	0	0	19.99	0.7	0.43	655180	0	198063	410594	655180	457117	4583	995	6971	320	291689	1458876	12869
372	2016-01-24 08:32:32	0	0	0	0	0	0	19.99	0.7	0.43	655180	0	198063	410594	655180	457117	4583	995	6971	320	291689	1458876	12869
373	2016-01-24 08:42:35	0	0	0	0	0	0	19.99	0.7	0.43	655206	0	198086	410594	655206	457120	4583	995	6971	320	291689	1458877	12869
374	2016-01-24 08:52:36	0	0	0	0	0	0	19.99	0.7	0.43	655213	0	198089	410594	655213	457124	4583	995	6971	320	291689	1458877	12869
375	2016-01-24 09:02:33	0	0	0	0	0	0	19.99	0.7	0.43	655230	0	198103	410594	655230	457127	4583	995	6971	320	291689	1458876	12869
376	2016-01-24 09:12:34	0	0	0	0	0	0	19.99	0.7	0.43	655247	0	198118	410594	655247	457129	4583	995	6971	320	291689	1458879	12869
377	2016-01-24 09:22:31	0	0	0	0	0	0	19.99	0.7	0.43	655271	0	198138	410594	655271	457133	4583	995	6971	320	291689	1458882	12869
378	2016-01-24 09:32:35	0	0	0	0	0	0	19.99	0.7	0.43	655286	0	198153	410594	655286	457133	4585	995	6973	320	291689	1458885	12873
379	2016-01-24 09:42:34	0	0	0	0	0	0	19.99	0.7	0.43	655306	0	198169	410594	655306	457137	4585	995	6973	320	291689	1458887	12873
380	2016-01-24 09:52:34	0	0	0	0	0	0	19.99	0.7	0.43	655327	0	198186	410594	655327	457141	4585	995	6973	320	291689	1458894	12873
381	2016-01-24 10:02:35	0	0	0	0	0	0	19.99	0.7	0.43	655358	0	198211	410594	655358	457147	4587	995	6973	320	291689	1458892	12875
382	2016-01-24 10:12:32	0	0	0	0	0	0	19.99	0.7	0.43	655379	0	198225	410594	655379	457154	4587	995	6973	320	291689	1458896	12875
383	2016-01-24 10:22:32	0	0	0	0	0	0	19.99	0.7	0.43	655379	0	198225	410594	655379	457154	4587	995	6973	320	291689	1458906	12875
384	2016-01-24 10:32:36	0	0	0	0	0	0	19.99	0.7	0.43	655424	0	198264	410594	655424	457160	4587	995	6973	320	291689	1458911	12875
385	2016-01-24 10:42:34	0	0	0	0	0	0	19.99	0.7	0.43	655424	0	198288	410594	655424	457165	4588	995	6973	320	291689	1458914	12876
386	2016-01-24 10:52:32	0	0	0	0	0	0	19.99	0.7	0.43	655482	0	198310	410594	655482	457172	4588	995	6974	320	291689	1458918	12877
387	2016-01-24 11:02:36	0	0	0	0	0	0	19.99	0.7	0.43	655500	0	198321	410594	655500	457179	4588	995	6974	320	291689	1458923	12877
388	2016-01-24 11:12:36	0	0	0	0	0	0	19.99	0.7	0.43	655523	0	198340	410594	655523	457183	4588	995	6974	320	291689	1458924	12877
389	2016-01-24 11:22:33	0	0	0	0	0	0	19.99	0.7	0.43	655523	0	198340	410594	655523	457183	4588	995	6974	320	291689	1458927	12877
390	2016-01-24 11:32:31	0	0	0	0	0	0	19.99	0.7	0.43	655554	0	198363	410594	655554	457191	4588	995	6975	320	291689	1458934	12878
391	2016-01-24 11:42:31	0	0	0	0	0	0	19.99	0.7	0.43	655554	0	198363	410594	655554	457191	4588	995	6975	320	291689	1458941	12878
392	2016-01-24 11:52:37	0	0	0	0	0	0	19.99	0.7	0.43	655609	0	198402	410594	655609	457207	4588	995	6975	320	291689	1458942	12878
393	2016-01-24 12:02:35	0	0	0	0	0	0	19.99	0.7	0.43	655638	0	198425	410594	655638	457213	4588	995	6976	320	291689	1458947	12879
394	2016-01-24 12:12:32	0	0	0	0	0	0	19.99	0.7	0.43	655653	0	198433	410594	655653	457220	4588	995	6976	320	291689	1458950	12879
395	2016-01-24 12:22:39	0	0	0	0	0	0	19.99	0.7	0.43	655683	0	198456	410594	655683	457227	4590	995	6976	320	291689	1458952	12881
396	2016-01-24 12:32:34	0	0	0	0	0	0	19.99	0.7	0.43	655694	0	198463	410594	655694	457227	4590	995	6976	320	291689	1458960	12881
397	2016-01-24 12:42:37	0	0	0	0	0	0	19.99	0.7	0.43	655722	0	198482	410594	655722	457240	4590	995	6976	320	291689	1458962	12881
398	2016-01-24 12:52:31	0	0	0	0	0	0	19.99	0.7	0.43	655722	0	198482	410594	655722	457240	4590	995	6976	320	291689	1458965	12881
399	2016-01-24 13:02:34	0	0	0	0	0	0	19.99	0.7	0.43	655768	0	198517	410594	655768	457251	4590	995	6976	320	291689	1458967	12881
400	2016-01-24 13:12:36	0	0	0	0	0	0	19.99	0.7	0.43	655786	0	198532	410594	655786	457254	4590	995	6976	320	291689	1458973	12881
401	2016-01-24 13:22:33	0	0	0	0	0	0	19.99	0.7	0.43	655786	0	198532	410594	655786	457254	4590	995	6976	320	291689	1458974	12881
402	2016-01-24 13:32:37	0	0	0	0	0	0	19.99	0.7	0.43	655806	0	198548	410594	655806	457258	4590	995	6976	320	291689	1458978	12881
403	2016-01-24 13:42:35	0	0	0	0	0	0	19.99	0.7	0.43	655820	0	198558	410594	655820	457262	4590	995	6977	320	291689	1458980	12882
404	2016-01-24 13:52:34	0	0	0	0	0	0	19.99	0.7	0.43	655841	0	198572	410594	655841	457269	4590	995	6978	320	291689	1458983	12883
405	2016-01-24 14:02:36	0	0	0	0	0	0	19.99	0.7	0.43	655849	0	198577	410594	655849	457272	4590	995	6978	320	291689	1458988	12883
406	2016-01-24 14:12:35	0	0	0	0	0	0	19.99	0.7	0.43	655871	0	198593	410594	655871	457278	4590	995	6978	320	291689	1458989	12883
407	2016-01-24 14:22:39	0	0	0	0	0	0	19.99	0.7	0.43	655890	0	198609	410594	655890	457281	4590	995	6978	320	291689	1458995	12883
408	2016-01-24 14:32:38	0	0	0	0	0	0	19.99	0.7	0.43	655890	0	198609	410594	655890	457281	4590	995	6978	320	291689	1459003	12883
409	2016-01-24 14:42:37	0	0	0	0	0	0	19.99	0.7	0.43	655933	0	198641	410594	655933	457292	4590	995	6978	320	291689	1459004	12883
410	2016-01-24 14:52:35	0	0	0	0	0	0	19.99	0.7	0.43	655945	0	198649	410594	655945	457296	4590	995	6978	320	291689	1459007	12883
411	2016-01-24 15:02:35	0	0	0	0	0	0	19.99	0.7	0.43	655964	0	198665	410594	655964	457299	4590	995	6978	320	291689	1459011	12883
412	2016-01-24 15:12:41	0	0	0	0	0	0	19.99	0.7	0.43	655982	0	198678	410594	655982	457304	4590	995	6978	320	291689	1459014	12883
413	2016-01-24 15:22:40	0	0	0	0	0	0	19.99	0.7	0.43	655982	0	198678	410594	655982	457304	4590	995	6978	320	291689	1459020	12883
414	2016-01-24 15:32:39	0	0	0	0	0	0	19.99	0.7	0.43	656022	0	198705	410594	656022	457317	4590	995	6978	320	291689	1459026	12883
415	2016-01-24 15:42:34	0	0	0	0	0	0	19.99	0.7	0.43	656030	0	198710	410594	656030	457320	4590	995	6978	320	291689	1459029	12883
416	2016-01-24 15:52:37	0	0	0	0	0	0	19.99	0.7	0.43	656049	0	198725	410594	656049	457324	4590	996	6978	320	291689	1459031	12884
417	2016-01-24 16:02:39	0	0	0	0	0	0	19.99	0.7	0.43	656067	0	198736	410594	656067	457331	4590	996	6978	320	291689	1459039	12884
418	2016-01-24 16:12:38	0	0	0	0	0	0	19.99	0.7	0.43	656067	0	198750	410594	656067	457339	4591	996	6978	320	291689	1459041	12885
419	2016-01-24 16:22:37	0	0	0	0	0	0	19.99	0.7	0.43	656104	0	198762	410594	656104	457342	4591	996	6978	320	291689	1459042	12885
420	2016-01-24 16:32:40	0	0	0	0	0	0	19.99	0.7	0.43	656127	0	198778	410594	656127	457349	4591	996	6978	320	291689	1459047	12885
421	2016-01-24 16:42:37	0	0	0	0	0	0	19.99	0.7	0.43	656133	0	198783	410594	656133	457350	4591	996	6978	320	291689	1459055	12885
422	2016-01-24 16:52:40	0	0	0	0	0	0	19.99	0.7	0.43	656145	0	198793	410594	656145	457352	4591	996	6979	320	291689	1459061	12886
423	2016-01-24 17:02:39	0	0	0	0	0	0	19.99	0.7	0.43	656173	0	198813	410594	656173	457360	4591	996	6979	320	291689	1459066	12886
424	2016-01-24 17:12:37	0	0	0	0	0	0	19.99	0.7	0.43	656184	0	198824	410594	656184	457360	4591	996	6979	320	291689	1459068	12886
425	2016-01-24 17:22:36	0	0	0	0	0	0	19.99	0.7	0.43	656184	0	198824	410594	656184	457360	4591	996	6979	320	291689	1459074	12886
426	2016-01-24 17:32:39	0	0	0	0	0	0	19.99	0.7	0.43	656238	0	198859	410594	656238	457379	4592	996	6979	320	291689	1459083	12887
427	2016-01-24 17:42:39	0	0	0	0	0	0	19.99	0.7	0.43	656247	0	198864	410594	656247	457383	4592	996	6979	320	291689	1459088	12887
428	2016-01-24 17:52:39	0	0	0	0	0	0	19.99	0.7	0.43	656268	0	198883	410594	656268	457385	4592	996	6979	320	291689	1459096	12887
