1	2016-11-15 19:00:26	0	0	0	0	0	0	1.11	0.35	0.01	29330	1	176	25703	29330	29154	104	128	270	16	25568	2302449	518
2	2016-11-15 19:10:26	0	0	0	0	0	0	2.89	0.63	0.04	84074	1	2881	51581	84074	81193	526	310	558	28	66542	2302477	1422
3	2016-11-15 19:20:26	0	0	0	0	0	0	3.89	0.72	0.06	117639	1	6809	94737	117639	110830	849	438	764	41	89588	2302502	2092
4	2016-11-15 19:30:26	0	0	0	0	0	0	4.45	0.77	0.08	143757	1	10969	110642	143757	132788	1111	524	922	42	102368	2302527	2599
5	2016-11-15 19:40:26	0	0	0	0	0	0	4.85	0.82	0.1	164338	1	14863	117180	164338	149475	1352	610	1049	47	111567	2302550	3058
6	2016-11-15 19:50:25	0	0	0	0	0	0	5.25	0.84	0.11	182666	1	18460	134915	182666	164206	1543	712	1181	51	120922	2302590	3487
7	2016-11-15 20:00:27	0	0	0	0	0	0	5.68	0.86	0.12	200306	1	22155	147111	200306	178151	1728	820	1298	52	130811	2302617	3898
8	2016-11-15 20:10:26	0	0	0	0	0	0	5.95	0.88	0.14	216678	1	25953	156095	216678	190725	1910	896	1403	53	136989	2302638	4262
9	2016-11-15 20:20:32	0	0	0	0	0	0	6.06	0.87	0.15	232072	1	29792	160624	232072	202280	2008	974	1510	54	139644	2302663	4546
10	2016-11-15 20:30:27	0	0	0	0	0	0	6.44	0.9	0.16	246408	1	33574	174176	246408	212834	2212	1040	1593	59	148383	2302693	4904
11	2016-11-15 20:40:26	0	0	0	0	0	0	6.64	0.9	0.17	260122	1	37286	182236	260122	222836	2349	1114	1667	59	153000	2302728	5189
12	2016-11-15 20:50:27	0	0	0	0	0	0	6.87	0.91	0.18	273560	1	41057	190585	273560	232503	2495	1200	1743	60	158126	2302750	5498
13	2016-11-15 21:00:29	0	0	0	0	0	0	7.09	0.91	0.19	288430	1	45181	200242	288430	243249	2619	1272	1835	61	163319	2302778	5787
14	2016-11-15 21:10:28	0	0	0	0	0	0	7.32	0.92	0.19	302859	1	49417	209088	302859	253442	2799	1354	1908	61	168640	2302794	6122
15	2016-11-15 21:20:30	0	0	0	0	0	0	7.55	0.93	0.2	315630	1	53306	216510	315630	262324	2942	1420	1996	61	173823	2302811	6419
16	2016-11-15 21:30:28	0	0	0	0	0	0	7.84	0.94	0.21	328403	1	57162	225272	328403	271241	3095	1484	2060	61	180481	2302835	6700
17	2016-11-15 21:40:27	0	0	0	0	0	0	8.11	0.95	0.22	340714	1	60989	234465	340714	279725	3224	1540	2121	62	186875	2302858	6947
18	2016-11-15 21:50:28	0	0	0	0	0	0	8.43	0.95	0.23	353293	1	64932	244021	353293	288361	3358	1600	2187	66	194045	2302869	7211
19	2016-11-15 22:00:29	0	0	0	0	0	0	8.68	0.95	0.23	365459	1	68724	251960	365459	296735	3469	1664	2240	67	199790	2302888	7440
20	2016-11-15 22:10:28	0	0	0	0	0	0	8.95	0.95	0.24	378825	1	72922	263630	378825	305903	3596	1732	2319	69	206214	2302904	7716
21	2016-11-15 22:20:32	0	0	0	0	0	0	9.13	0.95	0.24	391261	1	76859	270033	391261	314402	3715	1784	2374	71	210225	2302925	7944
22	2016-11-15 22:30:28	0	0	0	0	0	0	9.37	0.95	0.25	403287	1	80877	277849	403287	322410	3838	1844	2438	72	215780	2302951	8192
23	2016-11-15 22:40:27	0	0	0	0	0	0	9.61	0.96	0.26	414553	1	84827	287280	414553	329726	3963	1892	2504	72	221204	2302970	8431
24	2016-11-15 22:50:29	0	0	0	0	0	0	9.9	0.96	0.26	425057	1	88270	297953	425057	336787	4088	1936	2549	75	228107	2302990	8648
25	2016-11-15 23:00:28	0	0	0	0	0	0	10.05	0.96	0.27	435081	1	91633	304373	435081	343448	4198	1986	2596	78	231455	2303007	8858
26	2016-11-15 23:10:30	0	0	0	0	0	0	10.24	0.97	0.27	444491	1	94682	311672	444491	349809	4302	2040	2638	79	235922	2303022	9059
27	2016-11-15 23:20:29	0	0	0	0	0	0	10.46	0.97	0.27	453378	1	97575	319896	453378	355803	4392	2076	2685	80	240900	2303038	9233
28	2016-11-15 23:30:30	0	0	0	0	0	0	10.62	0.97	0.28	461708	1	100320	325050	461708	361388	4480	2124	2721	83	244591	2303046	9408
29	2016-11-15 23:40:28	0	0	0	0	0	0	10.82	0.97	0.28	469402	1	102893	330416	469402	366509	4560	2156	2754	83	249236	2303065	9553
30	2016-11-15 23:50:28	0	0	0	0	0	0	10.98	0.98	0.28	476517	1	105201	333753	476517	371316	4648	2194	2795	84	252899	2303080	9721
31	2016-11-16 00:00:28	0	0	0	0	0	0	11.13	0.98	0.29	482944	1	107154	339080	482944	375790	4720	2218	2837	84	256274	2303089	9859
32	2016-11-16 00:10:28	0	0	0	0	0	0	11.26	0.98	0.29	488962	1	108978	344167	488962	379984	4777	2240	2860	84	259343	2303100	9961
33	2016-11-16 00:20:27	0	0	0	0	0	0	11.4	0.98	0.29	494179	1	110558	347796	494179	383621	4828	2258	2887	84	262443	2303109	10057
34	2016-11-16 00:40:31	0	0	0	0	0	0	11.54	0.98	0.29	502786	1	113157	353857	502786	389629	4915	2300	2935	85	265822	2303126	10235
35	2016-11-16 00:50:35	0	0	0	0	0	0	11.58	0.98	0.29	506356	1	114211	355646	506356	392145	4955	2320	2958	86	266807	2303131	10319
36	2016-11-16 01:10:30	0	0	0	0	0	0	11.66	0.98	0.29	512700	1	115939	358818	512700	396761	5040	2340	2984	86	268636	2303141	10450
37	2016-11-16 01:20:28	0	0	0	0	0	0	11.73	0.98	0.29	515202	1	116654	361151	515202	398548	5067	2346	2991	87	270083	2303145	10491
38	2016-11-16 01:30:28	0	0	0	0	0	0	11.74	0.98	0.29	517417	1	117216	361847	517417	400201	5092	2354	3004	87	270319	2303150	10537
39	2016-11-16 01:40:28	0	0	0	0	0	0	11.77	0.98	0.29	519364	1	117745	363886	519364	401619	5108	2364	3011	87	271098	2303151	10570
40	2016-11-16 01:50:28	0	0	0	0	0	0	11.8	0.98	0.29	521265	1	118219	364829	521265	403046	5127	2378	3023	87	271741	2303154	10615
41	2016-11-16 02:10:31	0	0	0	0	0	0	11.85	0.98	0.29	524478	1	119011	366186	524478	405467	5156	2406	3039	87	272925	2303812	10688
42	2016-11-16 02:20:34	0	0	0	0	0	0	11.88	0.98	0.29	525859	1	119377	367184	525859	406482	5174	2420	3046	87	273769	2303816	10727
43	2016-11-16 02:30:28	0	0	0	0	0	0	11.9	0.98	0.29	527080	1	119710	367598	527080	407370	5187	2428	3053	88	274242	2303815	10756
44	2016-11-16 02:40:28	0	0	0	0	0	0	11.91	0.98	0.29	528173	1	119996	367680	528173	408177	5200	2428	3056	88	274288	2303815	10772
45	2016-11-16 02:50:29	0	0	0	0	0	0	11.92	0.98	0.29	529156	1	120252	368380	529156	408904	5210	2430	3058	88	274580	2303816	10786
46	2016-11-16 03:00:28	0	0	0	0	0	0	11.92	0.98	0.29	530012	1	120458	368621	530012	409554	5218	2436	3067	89	274714	2303815	10810
47	2016-11-16 03:10:28	0	0	0	0	0	0	11.97	0.98	0.29	530812	1	120660	368797	530812	410152	5225	2444	3071	90	275741	2303818	10830
48	2016-11-16 03:20:28	0	0	0	0	0	0	12	0.98	0.29	531544	1	120898	369325	531544	410646	5230	2446	3071	90	276529	2303818	10837
49	2016-11-16 03:40:32	0	0	0	0	0	0	12	0.98	0.29	532862	1	121320	369457	532862	411542	5244	2452	3073	90	276529	2303818	10859
50	2016-11-16 03:50:33	0	0	0	0	0	0	12	0.98	0.29	533503	1	121492	369976	533503	412011	5249	2454	3076	90	276529	2303819	10869
51	2016-11-16 04:00:27	0	0	0	0	0	0	12	0.99	0.3	534148	1	121690	369976	534148	412458	5262	2456	3079	90	276529	2303820	10887
52	2016-11-16 04:10:27	0	0	0	0	0	0	12.01	0.99	0.3	534785	1	121872	370153	534785	412913	5268	2456	3084	90	276628	2303824	10898
53	2016-11-16 04:20:27	0	0	0	0	0	0	12.02	0.99	0.3	535403	1	122077	370418	535403	413326	5275	2460	3089	90	276974	2303824	10914
54	2016-11-16 04:30:27	0	0	0	0	0	0	12.03	0.99	0.3	536039	1	122294	370596	536039	413745	5280	2460	3089	90	277074	2303824	10919
55	2016-11-16 04:40:28	0	0	0	0	0	0	12.03	0.98	0.3	536678	1	122511	370951	536678	414167	5284	2460	3091	90	277074	2303824	10925
56	2016-11-16 04:50:30	0	0	0	0	0	0	12.05	0.98	0.3	537326	1	122724	371351	537326	414602	5292	2460	3094	90	277695	2303827	10936
57	2016-11-16 05:00:35	0	0	0	0	0	0	12.07	0.98	0.3	538048	1	122997	371887	538048	415051	5299	2464	3098	90	278094	2303828	10951
58	2016-11-16 05:10:29	0	0	0	0	0	0	12.1	0.98	0.3	538904	1	123319	371887	538904	415585	5302	2466	3099	90	278695	2303829	10957
59	2016-11-16 05:20:29	0	0	0	0	0	0	12.1	0.98	0.3	539898	1	123712	372647	539898	416186	5316	2474	3102	90	278795	2303828	10982
60	2016-11-16 05:30:28	0	0	0	0	0	0	12.12	0.98	0.3	540984	1	124176	373276	540984	416808	5327	2476	3104	90	279147	2303833	10997
61	2016-11-16 05:40:28	0	0	0	0	0	0	12.12	0.98	0.3	542249	1	124664	373975	542249	417585	5334	2480	3110	90	279185	2303835	11014
62	2016-11-16 05:50:31	0	0	0	0	0	0	12.15	0.98	0.3	543650	1	125224	375108	543650	418426	5354	2486	3119	90	279967	2303838	11049
63	2016-11-16 06:00:29	0	0	0	0	0	0	12.17	0.99	0.3	545255	1	125834	375108	545255	419421	5374	2494	3124	90	280462	2303842	11082
64	2016-11-16 06:10:29	0	0	0	0	0	0	12.24	0.98	0.3	547154	1	126592	378292	547154	420562	5389	2506	3130	90	282083	2303847	11115
65	2016-11-16 06:20:29	0	0	0	0	0	0	12.27	0.99	0.3	549238	1	127455	378812	549238	421783	5412	2516	3136	90	282753	2303849	11154
66	2016-11-16 06:30:34	0	0	0	0	0	0	12.31	0.99	0.3	551537	1	128380	380313	551537	423157	5437	2528	3141	90	283705	2303855	11196
67	2016-11-16 06:40:33	0	0	0	0	0	0	12.47	0.99	0.3	553953	1	129320	385408	553953	424633	5467	2544	3152	90	287275	2303857	11253
68	2016-11-16 06:50:30	0	0	0	0	0	0	12.54	0.99	0.31	556599	1	130422	386177	556599	426177	5519	2562	3163	91	288984	2303867	11335
69	2016-11-16 07:00:29	0	0	0	0	0	0	12.62	0.99	0.31	559657	1	131713	387130	559657	427944	5549	2570	3173	91	290769	2303874	11383
70	2016-11-16 07:10:28	0	0	0	0	0	0	12.66	0.99	0.31	562946	1	133121	390112	562946	429825	5583	2576	3188	91	291752	2303882	11438
71	2016-11-16 07:20:29	0	0	0	0	0	0	12.71	0.99	0.31	566425	1	134531	392448	566425	431894	5628	2588	3202	91	292738	2303885	11509
72	2016-11-16 07:30:30	0	0	0	0	0	0	12.74	0.99	0.31	569962	1	135920	394743	569962	434042	5671	2604	3209	91	293431	2303889	11575
73	2016-11-16 07:40:30	0	0	0	0	0	0	12.77	0.99	0.31	573567	1	137389	395834	573567	436178	5704	2628	3221	92	294278	2303890	11645
74	2016-11-16 07:50:41	0	0	0	0	0	0	12.82	0.99	0.32	577251	1	138957	397180	577251	438294	5740	2646	3241	92	295359	2303899	11719
75	2016-11-16 08:00:46	0	0	0	0	0	0	12.9	0.99	0.32	581334	1	140617	400668	581334	440717	5779	2660	3266	93	297131	2303903	11798
76	2016-11-16 08:10:49	0	0	0	0	0	0	12.98	1	0.32	585546	1	142318	402400	585546	443228	5834	2682	3283	94	299162	2303912	11893
77	2016-11-16 08:21:33	0	0	0	0	0	0	13.05	1	0.32	589807	1	143985	405881	589807	445822	5880	2698	3298	94	300643	2303917	11970
78	2016-11-16 08:30:33	0	0	0	0	0	0	13.08	1	0.32	594074	1	145714	409136	594074	448360	5929	2726	3320	94	301433	2303923	12069
79	2016-11-16 08:40:55	0	0	0	0	0	0	13.19	1	0.33	598392	1	147387	412426	598392	451005	5987	2748	3339	94	303978	2303936	12168
80	2016-11-16 08:50:45	0	0	0	0	0	0	13.26	1	0.33	602858	1	149156	413045	602858	453702	6034	2782	3360	94	305576	2303944	12270
81	2016-11-16 09:01:11	0	0	0	0	0	0	13.32	1	0.33	607323	1	150868	415344	607323	456455	6083	2800	3376	94	306863	2303961	12353
82	2016-11-16 09:10:32	0	0	0	0	0	0	13.39	1	0.33	611705	1	152593	418204	611705	459112	6142	2816	3388	97	308437	2303966	12443
83	2016-11-16 09:20:34	0	0	0	0	0	0	13.46	1	0.33	616066	1	154294	421821	616066	461772	6190	2834	3405	97	310027	2303976	12526
84	2016-11-16 09:30:37	0	0	0	0	0	0	13.57	1.01	0.34	620239	1	155959	426146	620239	464280	6242	2856	3417	97	312736	2303984	12612
85	2016-11-16 09:40:34	0	0	0	0	0	0	13.69	1.01	0.34	624406	1	157621	429889	624406	466785	6301	2870	3428	97	315363	2303996	12696
86	2016-11-16 09:50:33	0	0	0	0	0	0	13.75	1.01	0.34	628440	1	159243	432652	628440	469197	6360	2888	3448	97	316880	2304005	12793
87	2016-11-16 10:00:35	0	0	0	0	0	0	13.8	1.01	0.34	632387	1	160857	434069	632387	471530	6414	2898	3457	98	317840	2304016	12867
88	2016-11-16 10:10:32	0	0	0	0	0	0	13.81	1.02	0.34	635939	1	162409	435688	635939	473530	6457	2922	3472	98	318109	2304025	12949
89	2016-11-16 10:20:48	0	0	0	0	0	0	13.86	1.01	0.34	639396	1	163906	437655	639396	475490	6489	2936	3483	98	319387	2304031	13006
90	2016-11-16 10:30:36	0	0	0	0	0	0	13.9	1.02	0.35	642846	1	165402	439487	642846	477444	6533	2948	3502	98	320362	2304035	13081
91	2016-11-16 10:40:54	0	0	0	0	0	0	13.97	1.02	0.35	646129	1	166816	440298	646129	479313	6565	2978	3513	98	321960	2304059	13154
92	2016-11-16 10:50:32	0	0	0	0	0	0	13.99	1.02	0.35	649345	1	168194	441314	649345	481151	6599	2988	3522	98	322245	2304073	13207
93	2016-11-16 11:00:40	0	0	0	0	0	0	14.02	1.02	0.35	652392	1	169432	442684	652392	482960	6637	3010	3538	98	323008	2304095	13283
94	2016-11-16 11:10:33	0	0	0	0	0	0	14.06	1.02	0.35	655327	1	170756	444551	655327	484571	6675	3022	3545	98	323866	2304103	13340
95	2016-11-16 11:20:33	0	0	0	0	0	0	14.1	1.02	0.35	658225	1	171970	447442	658225	486255	6702	3044	3556	98	324885	2304116	13400
96	2016-11-16 11:30:37	0	0	0	0	0	0	14.12	1.02	0.36	661054	1	173234	449349	661054	487820	6741	3056	3570	98	325414	2304121	13465
97	2016-11-16 11:40:42	0	0	0	0	0	0	14.16	1.02	0.36	663963	1	174495	451279	663963	489468	6773	3076	3578	99	326150	2304132	13526
98	2016-11-16 11:50:39	0	0	0	0	0	0	14.19	1.02	0.36	666951	1	175807	452466	666951	491144	6799	3098	3592	99	326977	2304140	13588
99	2016-11-16 12:00:41	0	0	0	0	0	0	14.23	1.02	0.36	669736	1	177043	454275	669736	492693	6827	3104	3601	100	327877	2304148	13632
100	2016-11-16 12:10:41	0	0	0	0	0	0	14.27	1.02	0.36	672362	1	178281	457396	672362	494081	6858	3120	3619	100	328835	2304159	13697
101	2016-11-16 12:20:57	0	0	0	0	0	0	14.29	1.02	0.36	674842	1	179431	458989	674842	495411	6881	3134	3626	100	329307	2304164	13741
102	2016-11-16 12:30:50	0	0	0	0	0	0	14.36	1.02	0.36	677245	1	180599	461241	677245	496646	6908	3144	3633	101	330817	2304172	13786
103	2016-11-16 12:40:41	0	0	0	0	0	0	14.41	1.02	0.36	679563	1	181703	463606	679563	497860	6936	3154	3639	101	332032	2304185	13830
104	2016-11-16 12:50:42	0	0	0	0	0	0	14.42	1.02	0.37	681986	1	182880	465169	681986	499106	6957	3160	3650	101	332309	2304192	13868
105	2016-11-16 13:00:51	0	0	0	0	0	0	14.44	1.02	0.37	684219	1	183971	465974	684219	500248	6976	3176	3662	102	332648	2304201	13916
106	2016-11-16 13:10:44	0	0	0	0	0	0	14.45	1.02	0.37	686309	1	185047	468477	686309	501262	6998	3182	3670	103	332862	2304214	13953
107	2016-11-16 13:20:40	0	0	0	0	0	0	14.49	1.02	0.37	688402	1	186132	470908	688402	502270	7017	3186	3678	103	333971	2304232	13984
108	2016-11-16 13:30:59	0	0	0	0	0	0	14.51	1.02	0.37	690486	1	187201	471455	690486	503285	7044	3204	3684	103	334250	2304245	14035
109	2016-11-16 13:40:40	0	0	0	0	0	0	14.53	1.02	0.37	692482	1	188274	472751	692482	504208	7065	3210	3689	103	334901	2304262	14067
110	2016-11-16 13:50:48	0	0	0	0	0	0	14.56	1.02	0.37	694464	1	189294	472886	694464	505170	7084	3214	3693	103	335404	2304273	14094
111	2016-11-16 14:01:15	0	0	0	0	0	0	14.59	1.02	0.38	696380	1	190267	474172	696380	506113	7094	3218	3701	103	336269	2304302	14116
112	2016-11-16 14:11:01	0	0	0	0	0	0	14.59	1.02	0.38	698113	1	191160	475318	698113	506953	7111	3226	3708	103	336269	2304312	14148
113	2016-11-16 14:20:45	0	0	0	0	0	0	14.65	1.02	0.38	699983	1	192155	478768	699983	507828	7127	3246	3711	103	337624	2304320	14187
114	2016-11-16 14:32:07	0	0	0	0	0	0	14.67	1.02	0.38	701785	1	193055	479806	701785	508730	7145	3262	3719	103	338140	2304338	14229
115	2016-11-16 14:40:58	0	0	0	0	0	0	14.67	1.02	0.38	703621	1	194013	479992	703621	509608	7163	3276	3721	104	338140	2304356	14264
116	2016-11-16 14:50:59	0	0	0	0	0	0	14.72	1.02	0.38	705608	1	195001	481991	705608	510607	7180	3286	3725	104	339242	2304368	14295
117	2016-11-16 15:00:45	0	0	0	0	0	0	14.73	1.02	0.38	707479	1	195969	481991	707479	511510	7188	3298	3731	104	339354	2304383	14321
118	2016-11-16 15:10:40	0	0	0	0	0	0	14.73	1.02	0.38	709249	1	196942	482141	709249	512307	7203	3306	3735	104	339428	2304405	14348
119	2016-11-16 15:20:42	0	0	0	0	0	0	14.75	1.02	0.39	710990	1	197876	483921	710990	513114	7218	3318	3739	104	339987	2304419	14379
120	2016-11-16 15:30:44	0	0	0	0	0	0	14.78	1.02	0.39	712842	1	198828	485287	712842	514014	7247	3324	3745	104	340548	2304432	14420
121	2016-11-16 15:40:41	0	0	0	0	0	0	14.79	1.02	0.39	714718	1	199791	486324	714718	514927	7265	3336	3749	104	340852	2304451	14454
122	2016-11-16 15:50:44	0	0	0	0	0	0	14.8	1.02	0.39	716543	1	200755	487127	716543	515788	7283	3344	3753	104	340983	2304468	14484
123	2016-11-16 16:00:44	0	0	0	0	0	0	14.83	1.02	0.39	718284	1	201686	487127	718284	516598	7294	3350	3758	104	341812	2304478	14506
124	2016-11-16 16:10:43	0	0	0	0	0	0	14.84	1.02	0.39	719878	1	202549	488511	719878	517329	7310	3354	3760	104	341963	2304493	14528
125	2016-11-16 16:20:42	0	0	0	0	0	0	14.86	1.01	0.39	721385	1	203356	489283	721385	518029	7322	3356	3764	104	342378	2304517	14546
126	2016-11-16 16:31:09	0	0	0	0	0	0	14.88	1.02	0.39	722975	1	204208	489592	722975	518767	7341	3368	3768	104	342833	2304525	14581
127	2016-11-16 16:41:00	0	0	0	0	0	0	14.92	1.02	0.39	724573	1	205088	492238	724573	519485	7360	3374	3774	104	343861	2304548	14612
128	2016-11-16 16:51:01	0	0	0	0	0	0	14.96	1.02	0.4	726171	1	205897	493258	726171	520274	7371	3382	3777	104	344800	2304559	14634
129	2016-11-16 17:01:40	0	0	0	0	0	0	14.96	1.01	0.4	727690	1	206712	493336	727690	520978	7384	3386	3781	104	344838	2304575	14655
130	2016-11-16 17:11:06	0	0	0	0	0	0	14.97	1.01	0.4	729111	1	207469	493572	729111	521642	7398	3396	3786	104	345107	2304590	14684
131	2016-11-16 17:22:41	0	0	0	0	0	0	14.98	1.01	0.4	730616	1	208247	494368	730616	522369	7411	3404	3791	104	345184	2304616	14710
132	2016-11-16 17:30:54	0	0	0	0	0	0	14.98	1.01	0.4	732061	1	208979	495000	732061	523082	7429	3404	3793	104	345184	2304629	14730
133	2016-11-16 17:40:47	0	0	0	0	0	0	14.98	1.01	0.4	732786	1	209336	495000	732786	523450	7436	3404	3797	104	345184	2304647	14741
134	2016-11-16 17:50:55	0	0	0	0	0	0	15	1.01	0.4	735030	1	210460	497021	735030	524570	7452	3414	3799	104	345666	2304657	14769
135	2016-11-16 18:00:44	0	0	0	0	0	0	15.02	1.01	0.4	735736	1	210828	497620	735736	524908	7455	3418	3803	104	346265	2304679	14780
136	2016-11-16 18:10:46	0	0	0	0	0	0	15.04	1.01	0.4	737743	1	211884	498863	737743	525859	7476	3422	3807	104	346575	2304687	14809
137	2016-11-16 18:20:48	0	0	0	0	0	0	15.06	1.01	0.4	739098	1	212583	499024	739098	526515	7488	3424	3809	104	347041	2304701	14825
138	2016-11-16 18:30:57	0	0	0	0	0	0	15.06	1.01	0.4	740481	1	213275	499890	740481	527206	7506	3430	3814	104	347041	2304716	14854
139	2016-11-16 18:40:50	0	0	0	0	0	0	15.06	1.01	0.41	741897	1	213966	500617	741897	527931	7516	3432	3817	106	347041	2304734	14871
140	2016-11-16 18:50:58	0	0	0	0	0	0	15.07	1.01	0.41	743399	1	214681	501590	743399	528718	7527	3436	3821	106	347352	2304745	14890
141	2016-11-16 19:01:46	0	0	0	0	0	0	15.07	1.01	0.41	744911	1	215368	501997	744911	529543	7545	3450	3824	106	347391	2304761	14925
142	2016-11-16 19:11:08	0	0	0	0	0	0	15.07	1.01	0.41	746327	1	216124	502078	746327	530203	7558	3456	3827	106	347391	2304772	14947
143	2016-11-16 19:22:27	0	0	0	0	0	0	15.08	1.01	0.41	747761	1	216879	502236	747761	530882	7572	3468	3830	106	347467	2304784	14976
144	2016-11-16 19:31:02	0	0	0	0	0	0	15.11	1.01	0.41	749094	1	217622	502889	749094	531472	7587	3476	3834	106	348249	2304796	15003
145	2016-11-16 19:41:03	0	0	0	0	0	0	15.13	1.01	0.41	750436	1	218390	505021	750436	532046	7601	3484	3839	106	348719	2304802	15030
146	2016-11-16 19:51:11	0	0	0	0	0	0	15.14	1.01	0.41	751693	1	219088	505392	751693	532605	7609	3496	3844	106	348857	2304817	15055
147	2016-11-16 20:01:11	0	0	0	0	0	0	15.14	1.01	0.41	753016	1	219839	505702	753016	533177	7627	3498	3848	106	348857	2304830	15079
148	2016-11-16 20:12:01	0	0	0	0	0	0	15.15	1.01	0.41	754220	1	220558	506198	754220	533662	7650	3506	3851	106	349171	2304846	15113
149	2016-11-16 20:21:33	0	0	0	0	0	0	15.17	1.01	0.41	755473	1	221298	508484	755473	534175	7659	3518	3855	106	349566	2304857	15138
150	2016-11-16 20:31:33	0	0	0	0	0	0	15.18	1.01	0.42	756801	1	222073	510349	756801	534728	7678	3522	3857	106	349882	2304868	15163
151	2016-11-16 20:41:31	0	0	0	0	0	0	15.18	1.01	0.42	758022	1	222770	510580	758022	535252	7688	3526	3860	106	349951	2304886	15180
152	2016-11-16 20:50:57	0	0	0	0	0	0	15.22	1.01	0.42	759260	1	223490	511677	759260	535770	7703	3534	3863	106	350744	2304901	15206
153	2016-11-16 21:00:56	0	0	0	0	0	0	15.22	1.02	0.42	760486	1	224182	511677	760486	536304	7721	3536	3867	106	350744	2304904	15230
154	2016-11-16 21:10:48	0	0	0	0	0	0	15.24	1.02	0.42	761588	1	224844	512312	761588	536744	7731	3542	3871	106	351281	2304918	15250
155	2016-11-16 21:20:48	0	0	0	0	0	0	15.25	1.01	0.42	762697	1	225499	512566	762697	537198	7738	3550	3877	106	351560	2304928	15271
156	2016-11-16 21:30:48	0	0	0	0	0	0	15.26	1.01	0.42	763789	1	226170	513501	763789	537619	7744	3558	3879	106	351840	2304942	15287
157	2016-11-16 21:40:47	0	0	0	0	0	0	15.26	1.01	0.42	764935	1	226875	513672	764935	538060	7756	3562	3883	106	351840	2304957	15307
158	2016-11-16 21:50:47	0	0	0	0	0	0	15.26	1.01	0.42	766025	1	227502	513672	766025	538523	7766	3566	3888	106	351840	2304972	15326
159	2016-11-16 22:00:50	0	0	0	0	0	0	15.27	1.01	0.42	767061	1	228113	515200	767061	538948	7782	3572	3890	106	351915	2304981	15350
160	2016-11-16 22:10:53	0	0	0	0	0	0	15.29	1.01	0.42	768178	1	228811	515876	768178	539367	7791	3582	3895	106	352375	2304997	15374
161	2016-11-16 22:21:13	0	0	0	0	0	0	15.29	1.01	0.43	769297	1	229468	515876	769297	539829	7802	3584	3898	106	352375	2305005	15390
162	2016-11-16 22:31:14	0	0	0	0	0	0	15.29	1.01	0.43	770288	1	230073	515876	770288	540215	7818	3584	3900	106	352375	2305020	15408
163	2016-11-16 22:41:00	0	0	0	0	0	0	15.29	1.01	0.43	771219	1	230633	515876	771219	540586	7826	3588	3901	106	352375	2305035	15421
164	2016-11-16 22:51:33	0	0	0	0	0	0	15.29	1.01	0.43	772118	1	231158	516650	772118	540960	7834	3588	3904	106	352455	2305052	15432
165	2016-11-16 23:00:53	0	0	0	0	0	0	15.3	1.02	0.43	773026	1	231700	517168	773026	541326	7848	3594	3909	106	352696	2305064	15457
166	2016-11-16 23:11:04	0	0	0	0	0	0	15.3	1.02	0.43	773840	1	232209	517514	773840	541631	7862	3596	3911	106	352696	2305075	15475
167	2016-11-16 23:20:52	0	0	0	0	0	0	15.3	1.02	0.43	774559	1	232612	517514	774559	541947	7866	3598	3912	106	352696	2305083	15482
168	2016-11-16 23:36:59	0	0	0	0	0	0	15.3	1.02	0.43	775594	1	233195	518554	775594	542399	7878	3604	3919	106	352696	2305097	15507
169	2016-11-16 23:41:10	0	0	0	0	0	0	15.3	1.02	0.43	775594	1	233195	518554	775594	542399	7878	3610	3919	106	352696	2305099	15513
170	2016-11-16 23:50:55	0	0	0	0	0	0	15.31	1.02	0.43	776542	1	233740	519075	776542	542802	7886	3612	3919	106	352938	2305109	15523
171	2016-11-17 00:01:11	0	0	0	0	0	0	15.32	1.02	0.43	777099	1	234037	519097	777099	543062	7895	3614	3922	106	353088	2305116	15537
172	2016-11-17 00:11:29	0	0	0	0	0	0	15.33	1.02	0.43	777547	1	234286	519620	777547	543261	7902	3614	3925	106	353330	2305120	15547
173	2016-11-17 00:22:15	0	0	0	0	0	0	15.35	1.02	0.43	778056	1	234607	519653	778056	543449	7904	3614	3925	106	353815	2305125	15549
174	2016-11-17 00:31:19	0	0	0	0	0	0	15.35	1.02	0.43	778412	1	234815	519958	778412	543597	7908	3618	3925	106	353815	2305134	15557
175	2016-11-17 00:41:23	0	0	0	0	0	0	15.35	1.02	0.43	778761	1	234998	519958	778761	543763	7910	3620	3926	106	353815	2305144	15562
176	2016-11-17 00:50:59	0	0	0	0	0	0	15.36	1.02	0.43	779078	1	235159	519958	779078	543919	7910	3622	3927	107	354138	2305149	15566
177	2016-11-17 01:01:45	0	0	0	0	0	0	15.37	1.02	0.43	779376	1	235309	520133	779376	544067	7914	3624	3929	107	354301	2305152	15574
178	2016-11-17 01:10:50	0	0	0	0	0	0	15.37	1.02	0.43	779654	1	235455	520133	779654	544199	7917	3628	3931	107	354301	2305152	15583
179	2016-11-17 01:20:49	0	0	0	0	0	0	15.39	1.02	0.43	779915	1	235602	521359	779915	544313	7918	3630	3931	107	354869	2305153	15586
180	2016-11-17 01:30:52	0	0	0	0	0	0	15.39	1.02	0.43	780100	1	235703	521359	780100	544397	7923	3632	3931	107	354869	2305155	15593
181	2016-11-17 01:40:55	0	0	0	0	0	0	15.39	1.02	0.43	780282	1	235798	521359	780282	544484	7927	3632	3933	107	354869	2305156	15599
182	2016-11-17 01:50:48	0	0	0	0	0	0	15.39	1.02	0.43	780420	1	235876	521359	780420	544544	7927	3632	3933	107	354869	2305159	15599
183	2016-11-17 02:00:48	0	0	0	0	0	0	15.39	1.02	0.43	780589	1	235966	521491	780589	544623	7927	3632	3934	107	354930	2306385	15600
184	2016-11-17 02:10:51	0	0	0	0	0	0	15.39	1.02	0.43	780750	1	236055	521491	780750	544695	7928	3634	3935	107	354930	2306385	15604
185	2016-11-17 02:20:49	0	0	0	0	0	0	15.39	1.02	0.43	780889	1	236130	521666	780889	544759	7929	3634	3935	108	355011	2306389	15606
186	2016-11-17 02:30:50	0	0	0	0	0	0	15.39	1.02	0.43	780989	1	236195	521666	780989	544794	7932	3634	3935	108	355011	2306391	15609
187	2016-11-17 02:41:15	0	0	0	0	0	0	15.39	1.02	0.43	781103	1	236251	521666	781103	544852	7932	3634	3936	108	355011	2306394	15610
188	2016-11-17 02:50:58	0	0	0	0	0	0	15.39	1.02	0.43	781187	1	236302	521666	781187	544885	7933	3634	3936	108	355011	2306394	15611
189	2016-11-17 03:01:28	0	0	0	0	0	0	15.39	1.02	0.43	781293	1	236361	521666	781293	544932	7933	3638	3936	108	355011	2306399	15615
190	2016-11-17 03:10:53	0	0	0	0	0	0	15.39	1.02	0.43	781366	1	236400	521666	781366	544966	7934	3638	3936	108	355011	2306400	15616
191	2016-11-17 03:22:28	0	0	0	0	0	0	15.39	1.02	0.43	781447	1	236439	521666	781447	545008	7935	3638	3936	108	355011	2306403	15617
192	2016-11-17 03:30:54	0	0	0	0	0	0	15.41	1.02	0.43	781522	1	236476	522326	781522	545046	7935	3638	3936	108	355317	2306401	15617
193	2016-11-17 03:41:07	0	0	0	0	0	0	15.41	1.02	0.43	781603	1	236513	522326	781603	545090	7936	3638	3937	108	355317	2306402	15619
194	2016-11-17 03:51:00	0	0	0	0	0	0	15.41	1.02	0.43	781667	1	236543	522326	781667	545124	7936	3638	3937	108	355317	2306404	15619
195	2016-11-17 04:00:52	0	0	0	0	0	0	15.41	1.02	0.43	781726	1	236569	522326	781726	545157	7936	3638	3937	108	355317	2306403	15619
196	2016-11-17 04:11:02	0	0	0	0	0	0	15.41	1.02	0.43	781789	1	236607	522326	781789	545182	7937	3638	3937	108	355317	2306406	15620
197	2016-11-17 04:23:05	0	0	0	0	0	0	15.41	1.02	0.43	781847	1	236647	522326	781847	545200	7937	3638	3937	108	355317	2306406	15620
198	2016-11-17 04:32:59	0	0	0	0	0	0	15.41	1.02	0.43	781911	1	236689	522326	781911	545222	7937	3640	3937	108	355317	2306404	15622
199	2016-11-17 04:40:58	0	0	0	0	0	0	15.41	1.01	0.43	781983	1	236728	522326	781983	545255	7937	3640	3937	108	355317	2306406	15622
200	2016-11-17 04:51:01	0	0	0	0	0	0	15.41	1.01	0.43	782052	1	236765	522326	782052	545287	7937	3640	3938	108	355317	2306406	15623
201	2016-11-17 05:00:56	0	0	0	0	0	0	15.41	1.01	0.43	782146	1	236822	522326	782146	545324	7938	3644	3938	108	355317	2306408	15628
202	2016-11-17 05:11:10	0	0	0	0	0	0	15.41	1.01	0.43	782232	1	236875	522326	782232	545357	7939	3644	3939	108	355317	2306408	15630
203	2016-11-17 05:20:53	0	0	0	0	0	0	15.41	1.01	0.43	782330	1	236921	522326	782330	545409	7940	3648	3941	108	355317	2306408	15637
204	2016-11-17 05:32:59	0	0	0	0	0	0	15.41	1.01	0.43	782458	1	236994	522326	782458	545464	7940	3648	3942	108	355317	2306410	15638
205	2016-11-17 05:47:14	0	0	0	0	0	0	15.41	1.01	0.43	782681	1	237105	522326	782681	545576	7940	3648	3942	108	355317	2306411	15638
206	2016-11-17 05:50:53	0	0	0	0	0	0	15.41	1.01	0.43	782681	1	237105	522326	782681	545576	7940	3650	3942	108	355317	2306414	15640
207	2016-11-17 06:01:05	0	0	0	0	0	0	15.41	1.01	0.43	782956	1	237255	522326	782956	545701	7943	3650	3942	108	355317	2306418	15643
208	2016-11-17 06:11:01	0	0	0	0	0	0	15.42	1.01	0.43	783154	1	237382	522326	783154	545772	7946	3650	3942	108	355562	2306422	15646
209	2016-11-17 06:20:58	0	0	0	0	0	0	15.42	1.01	0.44	783375	1	237510	522326	783375	545865	7947	3650	3943	108	355562	2306423	15648
210	2016-11-17 06:31:21	0	0	0	0	0	0	15.42	1.01	0.44	783607	1	237645	522855	783607	545962	7949	3650	3943	108	355562	2306423	15650
211	2016-11-17 06:41:30	0	0	0	0	0	0	15.42	1.01	0.44	783833	1	237782	523386	783833	546051	7954	3652	3946	108	355562	2306429	15660
212	2016-11-17 06:50:54	0	0	0	0	0	0	15.43	1.01	0.44	784096	1	237931	523386	784096	546165	7955	3654	3946	108	355971	2306432	15663
213	2016-11-17 07:00:50	0	0	0	0	0	0	15.43	1.01	0.44	784359	1	238092	523386	784359	546267	7957	3658	3947	108	355971	2306441	15670
214	2016-11-17 07:10:50	0	0	0	0	0	0	15.43	1.01	0.44	784635	1	238310	523386	784635	546325	7962	3660	3947	108	355971	2306444	15677
215	2016-11-17 07:20:50	0	0	0	0	0	0	15.43	1.01	0.44	784871	1	238420	523386	784871	546372	7966	3662	3947	108	355971	2306450	15683
216	2016-11-17 07:30:51	0	0	0	0	0	0	15.43	1.02	0.44	785117	1	238694	523518	785117	546423	7974	3662	3947	108	355971	2306456	15691
217	2016-11-17 07:40:51	0	0	0	0	0	0	15.43	1.02	0.44	785349	1	238879	523518	785349	546470	7976	3662	3948	108	355971	2306460	15694
218	2016-11-17 07:50:50	0	0	0	0	0	0	15.43	1.02	0.44	785588	1	239069	523518	785588	546519	7981	3664	3949	108	355971	2306465	15702
219	2016-11-17 08:00:50	0	0	0	0	0	0	15.43	1.02	0.44	785843	1	239280	523518	785843	546563	7981	3666	3949	108	355971	2306471	15704
220	2016-11-17 08:10:51	0	0	0	0	0	0	15.43	1.02	0.44	786079	1	239373	523518	786079	546595	7988	3666	3950	108	355971	2306479	15712
221	2016-11-17 08:20:51	0	0	0	0	0	0	15.43	1.02	0.44	786203	1	239591	523518	786203	546626	7990	3666	3952	108	355971	2306479	15716
222	2016-11-17 08:31:29	0	0	0	0	0	0	15.43	1.02	0.44	786585	1	239923	523651	786585	546662	7995	3670	3953	108	355971	2306489	15726
223	2016-11-17 08:41:37	0	0	0	0	0	0	15.43	1.02	0.44	786833	1	240145	523651	786833	546688	7997	3670	3953	108	355971	2306493	15728
224	2016-11-17 08:50:55	0	0	0	0	0	0	15.43	1.02	0.44	787054	1	240259	523651	787054	546719	7997	3672	3953	108	355971	2306502	15730
225	2016-11-17 09:01:16	0	0	0	0	0	0	15.43	1.02	0.44	787266	1	240519	524183	787266	546747	7999	3672	3954	108	355971	2306511	15733
226	2016-11-17 09:11:13	0	0	0	0	0	0	15.43	1.02	0.44	787469	1	240695	524538	787469	546774	7999	3674	3954	108	355971	2306527	15735
227	2016-11-17 09:22:19	0	0	0	0	0	0	15.45	1.02	0.44	787681	1	240865	525161	787681	546816	7999	3674	3954	108	356257	2306535	15735
228	2016-11-17 09:31:06	0	0	0	0	0	0	15.45	1.02	0.44	787865	1	241021	525161	787865	546844	8000	3676	3954	108	356257	2306537	15738
229	2016-11-17 09:41:03	0	0	0	0	0	0	15.45	1.02	0.44	788084	1	241202	525161	788084	546882	8002	3682	3954	108	356257	2306547	15746
230	2016-11-17 09:52:47	0	0	0	0	0	0	15.45	1.02	0.44	788273	1	241376	525161	788273	546897	8002	3684	3954	109	356257	2306561	15749
231	2016-11-17 10:02:46	0	0	0	0	0	0	15.45	1.02	0.44	788476	1	241552	525161	788476	546924	8005	3686	3954	109	356257	2306568	15754
232	2016-11-17 11:36:04	0	0	0	0	0	0	15.47	1.01	0.44	789880	1	242776	526769	789880	547104	8011	3702	3957	109	356750	2306647	15779
233	2016-11-17 11:45:38	0	0	0	0	0	0	15.47	1.01	0.44	789948	1	242836	526769	789948	547112	8012	3702	3957	109	356750	2306656	15780
234	2016-11-17 11:55:35	0	0	0	0	0	0	15.47	1.01	0.44	790063	1	242937	526769	790063	547126	8015	3702	3957	109	356750	2306671	15783
235	2016-11-17 12:05:41	0	0	0	0	0	0	15.47	1.01	0.44	790196	1	243054	526769	790196	547142	8018	3704	3957	109	356750	2306682	15788
236	2016-11-17 12:15:34	0	0	0	0	0	0	15.47	1.01	0.44	790330	1	243173	526769	790330	547157	8018	3704	3957	109	356750	2306700	15788
237	2016-11-17 12:25:32	0	0	0	0	0	0	15.47	1.01	0.44	790448	1	243277	526769	790448	547171	8018	3704	3957	109	356750	2306705	15788
238	2016-11-17 12:35:35	0	0	0	0	0	0	15.47	1.01	0.44	790576	1	243386	526769	790576	547190	8019	3704	3957	109	356750	2306711	15789
239	2016-11-17 12:45:33	0	0	0	0	0	0	15.47	1.01	0.44	790694	1	243491	526769	790694	547203	8020	3704	3957	109	356750	2306724	15790
240	2016-11-17 12:55:34	0	0	0	0	0	0	15.47	1.01	0.45	790820	1	243606	526769	790820	547214	8021	3706	3957	109	356750	2306734	15793
241	2016-11-17 13:05:35	0	0	0	0	0	0	15.47	1.01	0.45	790928	1	243712	526769	790928	547216	8022	3708	3958	109	356750	2306777	15797
242	2016-11-17 13:15:34	0	0	0	0	0	0	15.46	1.01	0.45	791052	1	243821	526769	791052	547231	8022	3708	3960	109	356750	2306860	15799
243	2016-11-17 13:25:34	0	0	0	0	0	0	15.46	1.01	0.45	791165	1	243916	526769	791165	547249	8022	3708	3960	109	356750	2306966	15799
244	2016-11-17 13:35:42	0	0	0	0	0	0	15.46	1.01	0.45	791280	1	244019	526769	791280	547261	8022	3708	3960	109	356750	2307068	15799
245	2016-11-17 13:45:40	0	0	0	0	0	0	15.46	1.01	0.45	791396	1	244126	526769	791396	547270	8022	3710	3960	109	356750	2307157	15801
246	2016-11-17 13:55:58	0	0	0	0	0	0	15.46	1.01	0.45	791522	1	244237	526769	791522	547291	8022	3710	3960	109	356750	2307238	15801
247	2016-11-17 14:05:43	0	0	0	0	0	0	15.46	1.01	0.45	791624	1	244326	526769	791624	547298	8022	3710	3961	109	356750	2307315	15802
248	2016-11-17 14:15:36	0	0	0	0	0	0	15.46	1.01	0.45	791741	1	244425	527397	791741	547316	8025	3710	3961	109	356750	2307383	15805
249	2016-11-17 14:25:48	0	0	0	0	0	0	15.46	1.01	0.45	791862	1	244534	527751	791862	547328	8025	3714	3961	109	356750	2307447	15809
250	2016-11-17 14:35:58	0	0	0	0	0	0	15.46	1.01	0.45	791968	1	244627	527751	791968	547341	8025	3714	3961	109	356750	2307506	15809
251	2016-11-17 14:45:54	0	0	0	0	0	0	15.46	1.01	0.45	792082	1	244727	527751	792082	547355	8025	3716	3961	109	356750	2307563	15811
252	2016-11-17 14:56:11	0	0	0	0	0	0	15.46	1.01	0.45	792303	1	244863	527751	792303	547376	8027	3720	3961	109	356750	2307617	15817
253	2016-11-17 15:05:56	0	0	0	0	0	0	15.46	1.01	0.45	792383	1	245002	527751	792383	547384	8028	3722	3961	109	356750	2307660	15820
254	2016-11-17 15:16:00	0	0	0	0	0	0	15.46	1.01	0.45	792516	1	245123	527751	792516	547393	8030	3722	3961	109	356750	2307704	15822
255	2016-11-17 15:26:01	0	0	0	0	0	0	15.46	1.01	0.45	792652	1	245247	527751	792652	547405	8030	3724	3961	109	356750	2307755	15824
256	2016-11-17 15:35:49	0	0	0	0	0	0	15.46	1.01	0.45	792770	1	245350	527751	792770	547420	8032	3726	3961	109	356750	2307804	15828
257	2016-11-17 15:45:53	0	0	0	0	0	0	15.46	1.01	0.45	792877	1	245444	527751	792877	547433	8033	3728	3961	109	356750	2307852	15831
258	2016-11-17 15:55:59	0	0	0	0	0	0	15.46	1.01	0.45	793003	1	245556	527751	793003	547447	8035	3728	3961	109	356750	2307896	15833
259	2016-11-17 16:05:54	0	0	0	0	0	0	15.46	1.01	0.45	793100	1	245647	527751	793100	547453	8038	3728	3961	109	356750	2307929	15836
260	2016-11-17 16:15:51	0	0	0	0	0	0	15.46	1.01	0.45	793215	1	245750	527751	793215	547465	8038	3728	3961	109	356750	2307973	15836
261	2016-11-17 16:25:58	0	0	0	0	0	0	15.46	1.01	0.45	793334	1	245858	527751	793334	547476	8040	3728	3961	109	356750	2308007	15838
262	2016-11-17 16:35:56	0	0	0	0	0	0	15.46	1.01	0.45	793434	1	245944	527751	793434	547490	8040	3730	3961	109	356750	2308035	15840
263	2016-11-17 16:45:45	0	0	0	0	0	0	15.46	1.01	0.45	793551	1	246055	527751	793551	547496	8041	3730	3961	109	356750	2308058	15841
264	2016-11-17 16:55:41	0	0	0	0	0	0	15.46	1.01	0.45	793675	1	246166	527751	793675	547509	8046	3730	3961	109	356750	2308084	15846
265	2016-11-17 17:05:44	0	0	0	0	0	0	15.46	1.01	0.45	793777	1	246257	527751	793777	547520	8047	3730	3961	109	356750	2308105	15847
266	2016-11-17 17:15:47	0	0	0	0	0	0	15.46	1.01	0.45	793878	1	246350	527751	793878	547528	8048	3730	3961	109	356750	2308125	15848
267	2016-11-17 17:25:47	0	0	0	0	0	0	15.46	1.01	0.45	793968	1	246433	527931	793968	547535	8050	3730	3961	109	356750	2308146	15850
268	2016-11-17 17:35:55	0	0	0	0	0	0	15.46	1.01	0.45	794068	1	246521	528280	794068	547547	8050	3730	3961	109	356750	2308152	15850
269	2016-11-17 17:45:56	0	0	0	0	0	0	15.46	1.01	0.45	794207	1	246646	528280	794207	547561	8051	3730	3961	110	356750	2308170	15852
270	2016-11-17 17:55:59	0	0	0	0	0	0	15.46	1.01	0.45	794303	1	246733	528280	794303	547570	8054	3730	3961	110	356750	2308192	15855
271	2016-11-17 18:06:00	0	0	0	0	0	0	15.46	1.01	0.45	794391	1	246809	528280	794391	547582	8056	3732	3961	110	356750	2308216	15859
272	2016-11-17 18:16:03	0	0	0	0	0	0	15.46	1.01	0.45	794497	1	246904	528280	794497	547593	8057	3732	3961	111	356750	2308241	15861
273	2016-11-17 18:25:55	0	0	0	0	0	0	15.46	1.01	0.45	794593	1	246991	528280	794593	547602	8057	3732	3961	111	356750	2308260	15861
274	2016-11-17 18:35:54	0	0	0	0	0	0	15.46	1.01	0.45	794694	1	247074	528280	794694	547620	8057	3732	3961	111	356750	2308278	15861
275	2016-11-17 18:45:52	0	0	0	0	0	0	15.46	1.01	0.45	794767	1	247141	528461	794767	547626	8058	3732	3962	111	356750	2308299	15863
276	2016-11-17 18:55:50	0	0	0	0	0	0	15.46	1.01	0.45	794862	1	247227	528461	794862	547635	8058	3734	3962	111	356750	2308314	15865
277	2016-11-17 19:05:47	0	0	0	0	0	0	15.45	1.01	0.45	794954	1	247307	528461	794954	547647	8059	3734	3962	111	356750	2308339	15866
278	2016-11-17 19:15:49	0	0	0	0	0	0	15.45	1.01	0.45	795045	1	247387	528641	795045	547658	8059	3736	3962	111	356750	2308369	15868
279	2016-11-17 19:25:50	0	0	0	0	0	0	15.45	1.01	0.45	795139	1	247468	528641	795139	547671	8059	3736	3962	111	356750	2308396	15868
280	2016-11-17 19:35:53	0	0	0	0	0	0	15.45	1.01	0.45	795228	1	247546	528641	795228	547682	8061	3736	3962	111	356750	2308433	15870
281	2016-11-17 19:46:03	0	0	0	0	0	0	15.45	1.01	0.45	795337	1	247647	528641	795337	547690	8063	3736	3962	111	356750	2308469	15872
282	2016-11-17 19:55:52	0	0	0	0	0	0	15.45	1.01	0.45	795429	1	247723	528664	795429	547706	8063	3736	3962	111	356750	2308498	15872
283	2016-11-17 20:05:52	0	0	0	0	0	0	15.45	1.01	0.45	795516	1	247799	528664	795516	547717	8063	3736	3962	111	356750	2308529	15872
284	2016-11-17 20:15:53	0	0	0	0	0	0	15.45	1.01	0.45	795591	1	247863	528664	795591	547728	8063	3736	3962	111	356750	2308558	15872
285	2016-11-17 20:26:03	0	0	0	0	0	0	15.45	1.01	0.45	795662	1	247924	528664	795662	547738	8064	3736	3962	111	356750	2308579	15873
286	2016-11-17 20:35:55	0	0	0	0	0	0	15.45	1.01	0.45	795757	1	248003	528664	795757	547754	8064	3736	3962	111	356750	2308596	15873
287	2016-11-17 20:46:17	0	0	0	0	0	0	15.45	1.01	0.45	795837	1	248073	528686	795837	547764	8064	3736	3962	111	356750	2308625	15873
288	2016-11-17 20:56:05	0	0	0	0	0	0	15.45	1.01	0.45	795913	1	248134	529772	795913	547779	8065	3736	3962	111	356750	2308649	15874
289	2016-11-17 21:06:06	0	0	0	0	0	0	15.45	1.01	0.45	795982	1	248195	529772	795982	547787	8065	3736	3962	111	356750	2308670	15874
290	2016-11-17 21:16:03	0	0	0	0	0	0	15.45	1.01	0.45	796056	1	248259	529772	796056	547797	8065	3736	3962	111	356750	2308697	15874
291	2016-11-17 21:26:07	0	0	0	0	0	0	15.45	1.01	0.45	796142	1	248333	529772	796142	547809	8067	3736	3962	111	356750	2308718	15876
292	2016-11-17 21:36:05	0	0	0	0	0	0	15.45	1.01	0.45	796227	1	248409	529772	796227	547818	8067	3738	3962	111	356750	2308757	15878
293	2016-11-17 21:46:07	0	0	0	0	0	0	15.45	1.01	0.45	796311	1	248479	529772	796311	547832	8067	3738	3962	111	356750	2308774	15878
294	2016-11-17 21:56:08	0	0	0	0	0	0	15.45	1.01	0.45	796393	1	248543	529953	796393	547850	8068	3738	3962	111	356750	2308795	15879
295	2016-11-17 22:06:06	0	0	0	0	0	0	15.45	1.01	0.45	796469	1	248609	529953	796469	547860	8069	3738	3962	111	356750	2308818	15880
296	2016-11-17 22:16:07	0	0	0	0	0	0	15.45	1.01	0.45	796532	1	248665	529953	796532	547867	8070	3738	3962	111	356750	2308852	15881
297	2016-11-17 22:26:06	0	0	0	0	0	0	15.45	1.01	0.45	796602	1	248728	529953	796602	547874	8070	3738	3962	111	356750	2308889	15881
298	2016-11-17 22:36:06	0	0	0	0	0	0	15.45	1.01	0.45	796677	1	248793	529953	796677	547884	8070	3738	3962	111	356750	2308911	15881
299	2016-11-17 22:46:10	0	0	0	0	0	0	15.45	1.01	0.45	796731	1	248844	529953	796731	547887	8071	3740	3962	111	356750	2308935	15884
300	2016-11-17 22:56:06	0	0	0	0	0	0	15.45	1.01	0.45	796803	1	248905	529953	796803	547898	8073	3742	3962	111	356750	2308953	15888
301	2016-11-17 23:06:06	0	0	0	0	0	0	15.45	1.01	0.45	796865	1	248954	529953	796865	547911	8073	3742	3962	111	356750	2308976	15888
302	2016-11-17 23:16:05	0	0	0	0	0	0	15.45	1.01	0.45	796919	1	249001	529953	796919	547918	8074	3744	3962	111	356750	2309003	15891
303	2016-11-17 23:26:06	0	0	0	0	0	0	15.45	1.01	0.45	796976	1	249047	529953	796976	547929	8074	3744	3962	111	356750	2309022	15891
304	2016-11-17 23:36:04	0	0	0	0	0	0	15.45	1.01	0.45	797023	1	249086	529953	797023	547937	8074	3744	3963	111	356750	2309040	15892
305	2016-11-17 23:46:06	0	0	0	0	0	0	15.45	1.01	0.45	797082	1	249140	529953	797082	547942	8075	3744	3963	111	356750	2309061	15893
306	2016-11-17 23:56:03	0	0	0	0	0	0	15.45	1.01	0.45	797118	1	249169	529953	797118	547949	8076	3744	3963	111	356750	2309074	15894
307	2016-11-18 00:05:46	0	0	0	0	0	0	15.45	1.01	0.45	797159	1	249206	529953	797159	547953	8076	3746	3963	111	356750	2309083	15896
308	2016-11-18 00:15:42	0	0	0	0	0	0	15.45	1.01	0.45	797191	1	249237	529953	797191	547954	8078	3746	3963	111	356750	2309095	15898
309	2016-11-18 00:25:44	0	0	0	0	0	0	15.45	1.01	0.45	797230	1	249272	529953	797230	547958	8079	3746	3963	111	356750	2309099	15899
310	2016-11-18 00:35:43	0	0	0	0	0	0	15.45	1.01	0.45	797251	1	249289	529953	797251	547962	8079	3746	3964	111	356750	2309104	15900
311	2016-11-18 00:45:43	0	0	0	0	0	0	15.45	1.01	0.45	797270	1	249308	529953	797270	547962	8079	3746	3964	111	356750	2309108	15900
312	2016-11-18 00:55:44	0	0	0	0	0	0	15.45	1.01	0.45	797283	1	249320	529953	797283	547965	8079	3746	3964	111	356750	2309115	15900
313	2016-11-18 01:05:45	0	0	0	0	0	0	15.45	1.01	0.46	797317	1	249350	529953	797317	547967	8079	3746	3964	111	356750	2309120	15900
314	2016-11-18 01:15:43	0	0	0	0	0	0	15.45	1.01	0.46	797329	1	249360	529953	797329	547969	8079	3746	3964	111	356750	2309122	15900
315	2016-11-18 01:25:45	0	0	0	0	0	0	15.45	1.01	0.46	797347	1	249372	529953	797347	547975	8079	3744	3964	111	356750	2309126	15898
316	2016-11-18 01:35:43	0	0	0	0	0	0	15.45	1.01	0.46	797356	1	249381	529953	797356	547976	8079	3744	3964	111	356750	2309127	15898
317	2016-11-18 01:45:43	0	0	0	0	0	0	15.45	1.01	0.46	797371	1	249390	529953	797371	547977	8079	3744	3964	111	356750	2309132	15898
318	2016-11-18 01:55:43	0	0	0	0	0	0	15.45	1.01	0.46	797386	1	249407	529953	797386	547979	8079	3744	3964	111	356750	2309136	15898
319	2016-11-18 02:05:46	0	0	0	0	0	0	15.46	1.01	0.46	797398	1	249418	529953	797398	547980	8079	3744	3964	111	356750	2307802	15898
320	2016-11-18 02:15:43	0	0	0	0	0	0	15.46	1.01	0.46	797405	1	249425	529953	797405	547980	8079	3744	3964	111	356750	2307800	15898
321	2016-11-18 02:25:44	0	0	0	0	0	0	15.46	1.01	0.46	797408	1	249428	529953	797408	547982	8079	3744	3964	111	356750	2307803	15898
322	2016-11-18 02:35:44	0	0	0	0	0	0	15.46	1.01	0.46	797417	1	249435	529953	797417	547982	8079	3744	3964	111	356750	2307808	15898
323	2016-11-18 02:45:44	0	0	0	0	0	0	15.46	1.01	0.46	797420	1	249437	529953	797420	547983	8079	3746	3964	111	356750	2307810	15900
324	2016-11-18 02:55:44	0	0	0	0	0	0	15.46	1.01	0.46	797427	1	249440	529953	797427	547985	8079	3746	3964	111	356750	2307811	15900
325	2016-11-18 03:05:44	0	0	0	0	0	0	15.46	1.01	0.46	797431	1	249445	529953	797431	547986	8079	3746	3964	111	356750	2307810	15900
326	2016-11-18 03:15:42	0	0	0	0	0	0	15.46	1.01	0.46	797433	1	249447	529953	797433	547986	8079	3746	3964	111	356750	2307810	15900
327	2016-11-18 03:25:44	0	0	0	0	0	0	15.46	1.01	0.46	797435	1	249449	529953	797435	547987	8079	3746	3964	111	356750	2307809	15900
328	2016-11-18 03:35:44	0	0	0	0	0	0	15.46	1.01	0.46	797438	1	249451	529953	797438	547987	8079	3746	3964	111	356750	2307812	15900
329	2016-11-18 03:45:42	0	0	0	0	0	0	15.46	1.01	0.46	797446	1	249457	529953	797446	547989	8079	3746	3964	111	356750	2307812	15900
330	2016-11-18 03:55:44	0	0	0	0	0	0	15.46	1.01	0.46	797453	1	249464	529953	797453	547989	8079	3746	3964	111	356750	2307812	15900
331	2016-11-18 04:05:45	0	0	0	0	0	0	15.46	1.01	0.46	797454	1	249465	529953	797454	547989	8079	3746	3964	111	356750	2307812	15900
332	2016-11-18 04:15:43	0	0	0	0	0	0	15.46	1.01	0.46	797459	1	249469	529953	797459	547990	8079	3746	3964	111	356750	2307813	15900
333	2016-11-18 04:25:43	0	0	0	0	0	0	15.46	1.01	0.46	797462	1	249471	529953	797462	547991	8079	3746	3964	111	356750	2307814	15900
334	2016-11-18 04:35:44	0	0	0	0	0	0	15.46	1.01	0.46	797464	1	249473	529953	797464	547991	8079	3746	3964	111	356750	2307815	15900
335	2016-11-18 04:45:43	0	0	0	0	0	0	15.46	1.01	0.46	797466	1	249474	529953	797466	547992	8079	3746	3964	111	356750	2307817	15900
336	2016-11-18 04:55:45	0	0	0	0	0	0	15.46	1.01	0.46	797470	1	249477	529953	797470	547993	8079	3746	3964	111	356750	2307818	15900
337	2016-11-18 05:05:45	0	0	0	0	0	0	15.46	1.01	0.46	797475	1	249482	529953	797475	547993	8079	3746	3964	111	356750	2307819	15900
338	2016-11-18 05:15:44	0	0	0	0	0	0	15.46	1.01	0.46	797481	1	249488	529953	797481	547993	8079	3746	3964	111	356750	2307822	15900
339	2016-11-18 05:25:43	0	0	0	0	0	0	15.46	1.01	0.46	797487	1	249493	529953	797487	547994	8079	3746	3964	111	356750	2307827	15900
340	2016-11-18 05:35:44	0	0	0	0	0	0	15.46	1.01	0.46	797492	1	249498	529953	797492	547994	8079	3746	3964	111	356750	2307829	15900
341	2016-11-18 05:45:44	0	0	0	0	0	0	15.46	1.01	0.46	797499	1	249504	529953	797499	547995	8079	3746	3964	111	356750	2307831	15900
342	2016-11-18 05:55:43	0	0	0	0	0	0	15.46	1.01	0.46	797514	1	249517	529953	797514	547997	8079	3746	3964	111	356750	2307834	15900
343	2016-11-18 06:05:48	0	0	0	0	0	0	15.46	1.01	0.46	797523	1	249525	529953	797523	547998	8079	3746	3964	111	356750	2307836	15900
344	2016-11-18 06:15:46	0	0	0	0	0	0	15.46	1.01	0.46	797534	1	249535	529953	797534	547999	8079	3746	3964	111	356750	2307844	15900
345	2016-11-18 06:25:51	0	0	0	0	0	0	15.46	1.01	0.46	797548	1	249548	529953	797548	548000	8079	3748	3964	111	356750	2307844	15902
346	2016-11-18 06:35:55	0	0	0	0	0	0	15.46	1.01	0.46	797565	1	249565	529953	797565	548000	8079	3750	3964	111	356750	2307849	15904
347	2016-11-18 06:45:48	0	0	0	0	0	0	15.46	1.01	0.46	797576	1	249575	529953	797576	548001	8080	3750	3964	111	356750	2307848	15905
348	2016-11-18 06:55:43	0	0	0	0	0	0	15.46	1.01	0.46	797597	1	249595	529953	797597	548002	8080	3750	3965	111	356750	2307853	15906
349	2016-11-18 07:05:44	0	0	0	0	0	0	15.46	1.01	0.46	797615	1	249610	529953	797615	548005	8081	3748	3965	111	356750	2307854	15905
350	2016-11-18 07:15:47	0	0	0	0	0	0	15.46	1.01	0.46	797635	1	249627	529953	797635	548008	8081	3748	3965	111	356750	2307859	15905
351	2016-11-18 07:25:46	0	0	0	0	0	0	15.46	1.01	0.46	797654	1	249644	529953	797654	548010	8081	3748	3965	111	356750	2307861	15905
352	2016-11-18 07:35:48	0	0	0	0	0	0	15.46	1.01	0.46	797685	1	249669	529953	797685	548016	8081	3748	3965	111	356750	2307865	15905
353	2016-11-18 07:45:49	0	0	0	0	0	0	15.46	1.01	0.46	797717	1	249698	529953	797717	548019	8081	3748	3965	111	356750	2307870	15905
354	2016-11-18 07:55:49	0	0	0	0	0	0	15.46	1.01	0.46	797739	1	249715	529953	797739	548024	8082	3748	3965	111	356750	2307871	15906
355	2016-11-18 08:05:47	0	0	0	0	0	0	15.46	1.01	0.46	797762	1	249733	530135	797762	548029	8082	3748	3965	111	356750	2307877	15906
356	2016-11-18 08:15:50	0	0	0	0	0	0	15.46	1.01	0.46	797783	1	249752	530135	797783	548031	8082	3748	3965	111	356750	2307887	15906
357	2016-11-18 08:25:46	0	0	0	0	0	0	15.46	1.01	0.46	797804	1	249769	530135	797804	548035	8083	3748	3965	111	356750	2307889	15907
358	2016-11-18 08:35:47	0	0	0	0	0	0	15.46	1.01	0.46	797826	1	249790	530135	797826	548036	8083	3748	3965	111	356750	2307900	15907
359	2016-11-18 08:45:48	0	0	0	0	0	0	15.46	1.01	0.46	797858	1	249816	530407	797858	548042	8083	3748	3965	111	356750	2307903	15907
360	2016-11-18 08:55:49	0	0	0	0	0	0	15.46	1.01	0.46	797877	1	249829	530407	797877	548048	8083	3748	3965	111	356750	2307904	15907
361	2016-11-18 09:05:47	0	0	0	0	0	0	15.46	1.01	0.46	797900	1	249848	530407	797900	548052	8083	3748	3965	111	356750	2307913	15907
362	2016-11-18 09:15:46	0	0	0	0	0	0	15.46	1.01	0.46	797916	1	249862	530407	797916	548054	8084	3748	3965	111	356750	2307923	15908
363	2016-11-18 09:25:47	0	0	0	0	0	0	15.46	1.01	0.46	797938	1	249884	530407	797938	548054	8084	3748	3965	111	356750	2307935	15908
364	2016-11-18 09:35:48	0	0	0	0	0	0	15.46	1.01	0.46	797954	1	249897	530407	797954	548057	8084	3748	3965	111	356750	2307941	15908
365	2016-11-18 09:45:49	0	0	0	0	0	0	15.46	1.01	0.46	797971	1	249912	530407	797971	548059	8084	3748	3965	111	356750	2307951	15908
366	2016-11-18 09:55:46	0	0	0	0	0	0	15.46	1.01	0.46	797987	1	249924	530407	797987	548063	8084	3748	3965	111	356750	2307958	15908
367	2016-11-18 10:05:47	0	0	0	0	0	0	15.46	1.01	0.46	798010	1	249942	530407	798010	548068	8084	3748	3965	111	356750	2307967	15908
368	2016-11-18 10:15:53	0	0	0	0	0	0	15.46	1.01	0.46	798020	1	249950	530407	798020	548070	8084	3748	3965	111	356750	2307975	15908
369	2016-11-18 10:25:49	0	0	0	0	0	0	15.46	1.01	0.46	798036	1	249961	530407	798036	548075	8085	3748	3965	111	356750	2307986	15909
370	2016-11-18 10:35:49	0	0	0	0	0	0	15.46	1.01	0.46	798056	1	249977	530407	798056	548079	8085	3748	3965	111	356750	2307993	15909
371	2016-11-18 10:45:49	0	0	0	0	0	0	15.46	1.01	0.46	798070	1	249986	530407	798070	548084	8085	3750	3965	111	356750	2308008	15911
372	2016-11-18 10:55:51	0	0	0	0	0	0	15.46	1.01	0.46	798081	1	249994	530407	798081	548087	8086	3750	3965	111	356750	2308016	15912
373	2016-11-18 11:05:54	0	0	0	0	0	0	15.46	1.01	0.46	798101	1	250012	530407	798101	548089	8087	3750	3965	111	356750	2308027	15913
374	2016-11-18 11:15:55	0	0	0	0	0	0	15.46	1.01	0.46	798119	1	250027	530407	798119	548092	8087	3750	3965	111	356750	2308030	15913
375	2016-11-18 11:25:52	0	0	0	0	0	0	15.46	1.01	0.46	798132	1	250037	530407	798132	548095	8087	3750	3965	111	356750	2308041	15913
376	2016-11-18 11:35:51	0	0	0	0	0	0	15.46	1.01	0.46	798144	1	250049	530407	798144	548095	8087	3750	3965	111	356750	2308049	15913
377	2016-11-18 11:45:51	0	0	0	0	0	0	15.46	1.01	0.46	798156	1	250059	530407	798156	548097	8088	3750	3965	111	356750	2308061	15914
378	2016-11-18 11:55:57	0	0	0	0	0	0	15.46	1.01	0.46	798170	1	250072	530407	798170	548098	8088	3750	3965	111	356750	2308067	15914
379	2016-11-18 12:06:01	0	0	0	0	0	0	15.46	1.01	0.46	798180	1	250080	530407	798180	548100	8088	3750	3965	111	356750	2308076	15914
380	2016-11-18 12:16:00	0	0	0	0	0	0	15.46	1.01	0.46	798203	1	250095	530407	798203	548108	8088	3750	3965	111	356750	2308084	15914
381	2016-11-18 12:26:00	0	0	0	0	0	0	15.46	1.01	0.46	798217	1	250106	530407	798217	548111	8088	3750	3965	111	356750	2308103	15914
382	2016-11-18 12:35:53	0	0	0	0	0	0	15.46	1.01	0.46	798231	1	250117	530407	798231	548114	8088	3750	3965	111	356750	2308113	15914
383	2016-11-18 12:45:53	0	0	0	0	0	0	15.46	1.01	0.46	798247	1	250131	530407	798247	548116	8088	3750	3965	111	356750	2308130	15914
384	2016-11-18 12:55:58	0	0	0	0	0	0	15.46	1.01	0.46	798262	1	250144	530407	798262	548118	8089	3750	3965	111	356750	2308134	15915
385	2016-11-18 13:05:53	0	0	0	0	0	0	15.46	1.01	0.46	798269	1	250150	530407	798269	548119	8089	3750	3965	111	356750	2308145	15915
386	2016-11-18 13:15:53	0	0	0	0	0	0	15.46	1.01	0.46	798287	1	250164	530407	798287	548123	8089	3750	3965	111	356750	2308157	15915
387	2016-11-18 13:25:55	0	0	0	0	0	0	15.46	1.01	0.46	798303	1	250174	530407	798303	548129	8089	3750	3965	111	356750	2308169	15915
388	2016-11-18 13:35:53	0	0	0	0	0	0	15.46	1.01	0.46	798318	1	250185	530407	798318	548133	8089	3750	3965	111	356750	2308180	15915
389	2016-11-18 13:45:54	0	0	0	0	0	0	15.46	1.01	0.46	798325	1	250189	530407	798325	548136	8089	3750	3965	111	356750	2308201	15915
390	2016-11-18 13:55:58	0	0	0	0	0	0	15.46	1.01	0.46	798341	1	250200	530407	798341	548141	8089	3748	3965	111	356750	2308221	15913
391	2016-11-18 14:05:59	0	0	0	0	0	0	15.46	1.01	0.46	798350	1	250209	530407	798350	548141	8089	3748	3965	111	356750	2308237	15913
392	2016-11-18 14:15:56	0	0	0	0	0	0	15.46	1.01	0.46	798367	1	250221	530407	798367	548146	8089	3748	3965	111	356750	2308247	15913
393	2016-11-18 14:25:57	0	0	0	0	0	0	15.46	1.01	0.46	798379	1	250233	530407	798379	548146	8089	3748	3965	111	356750	2308256	15913
394	2016-11-18 14:35:54	0	0	0	0	0	0	15.46	1.01	0.46	798384	1	250237	530407	798384	548147	8089	3748	3965	111	356750	2308269	15913
395	2016-11-18 14:45:55	0	0	0	0	0	0	15.46	1.01	0.46	798396	1	250247	530407	798396	548149	8089	3748	3965	111	356750	2308283	15913
396	2016-11-18 14:56:06	0	0	0	0	0	0	15.46	1.01	0.46	798409	1	250256	530407	798409	548153	8089	3748	3965	111	356750	2308296	15913
397	2016-11-18 15:05:59	0	0	0	0	0	0	15.46	1.01	0.46	798420	1	250264	530407	798420	548156	8089	3748	3965	111	356750	2308311	15913
398	2016-11-18 15:15:58	0	0	0	0	0	0	15.45	1.01	0.46	798432	1	250273	530407	798432	548159	8089	3748	3965	111	356750	2308325	15913
399	2016-11-18 15:25:58	0	0	0	0	0	0	15.45	1.01	0.46	798442	1	250282	530407	798442	548160	8089	3748	3965	111	356750	2308331	15913
400	2016-11-18 15:35:56	0	0	0	0	0	0	15.45	1.01	0.46	798453	1	250290	530407	798453	548163	8090	3748	3965	111	356750	2308344	15914
401	2016-11-18 15:45:57	0	0	0	0	0	0	15.45	1.01	0.46	798465	1	250300	530407	798465	548165	8090	3748	3965	111	356750	2308354	15914
402	2016-11-18 15:56:09	0	0	0	0	0	0	15.45	1.01	0.46	798482	1	250317	530771	798482	548165	8090	3748	3965	111	356750	2308366	15914
403	2016-11-18 16:06:01	0	0	0	0	0	0	15.45	1.01	0.46	798501	1	250330	530771	798501	548171	8090	3748	3965	111	356750	2308383	15914
404	2016-11-18 16:16:01	0	0	0	0	0	0	15.45	1.01	0.46	798513	1	250341	530771	798513	548172	8091	3748	3965	111	356750	2308402	15915
405	2016-11-18 16:26:00	0	0	0	0	0	0	15.45	1.01	0.46	798531	1	250353	530771	798531	548178	8091	3748	3965	111	356750	2308416	15915
406	2016-11-18 16:35:58	0	0	0	0	0	0	15.45	1.01	0.46	798543	1	250362	530771	798543	548181	8091	3748	3965	111	356750	2308424	15915
407	2016-11-18 16:45:59	0	0	0	0	0	0	15.45	1.01	0.46	798553	1	250370	530771	798553	548183	8092	3748	3965	111	356750	2308432	15916
408	2016-11-18 16:56:06	0	0	0	0	0	0	15.45	1.01	0.46	798567	1	250381	530771	798567	548186	8092	3748	3965	111	356750	2308447	15916
409	2016-11-18 17:06:02	0	0	0	0	0	0	15.45	1.01	0.46	798582	1	250394	530771	798582	548188	8092	3748	3965	111	356750	2308461	15916
410	2016-11-18 17:16:00	0	0	0	0	0	0	15.45	1.01	0.46	798601	1	250408	530771	798601	548193	8093	3748	3965	111	356750	2308477	15917
411	2016-11-18 17:26:04	0	0	0	0	0	0	15.45	1.01	0.46	798610	1	250414	530771	798610	548196	8093	3748	3965	111	356750	2308485	15917
412	2016-11-18 17:36:09	0	0	0	0	0	0	15.45	1.01	0.46	798619	1	250422	530771	798619	548197	8093	3748	3965	111	356750	2308489	15917
413	2016-11-18 17:46:10	0	0	0	0	0	0	15.45	1.01	0.46	798630	1	250432	530771	798630	548198	8093	3748	3965	111	356750	2308503	15917
414	2016-11-18 17:56:20	0	0	0	0	0	0	15.45	1.01	0.46	798642	1	250441	530771	798642	548201	8093	3748	3965	111	356750	2308515	15917
415	2016-11-18 18:06:04	0	0	0	0	0	0	15.45	1.01	0.46	798654	1	250451	530771	798654	548203	8093	3748	3965	111	356750	2308527	15917
416	2016-11-18 18:16:34	0	0	0	0	0	0	15.45	1.01	0.46	798664	1	250460	530771	798664	548204	8093	3748	3965	111	356750	2308538	15917
417	2016-11-18 18:26:30	0	0	0	0	0	0	15.45	1.01	0.46	798671	1	250466	530771	798671	548205	8093	3748	3965	111	356750	2308557	15917
418	2016-11-18 18:36:33	0	0	0	0	0	0	15.45	1.01	0.46	798683	1	250478	530771	798683	548205	8093	3748	3965	111	356750	2308568	15917
419	2016-11-18 18:46:32	0	0	0	0	0	0	15.45	1.01	0.46	798699	1	250491	530771	798699	548208	8093	3748	3965	111	356750	2308579	15917
