1	2017-09-23 14:58:57		0	0	0	0	0	0	0.22	0.69	0	7851	0	3	7547	7851	7848	54	29	736	37	7522	3389645	856
2	2017-09-23 15:09:55		0	0	0	0	0	0	2.73	2.97	0.01	107538	0	1584	94198	107538	105954	3199	125	2248	114	92579	3389715	5686
3	2017-09-23 15:20:55		0	0	0	0	0	0	4.91	3.76	0.04	220259	0	8246	172638	220259	212013	8284	188	3295	171	166349	3389783	11938
4	2017-09-23 15:31:55		0	0	0	0	0	0	5.97	3.91	0.05	276665	0	14116	210710	276665	262549	10821	233	4087	221	202266	3389855	15362
5	2017-09-23 15:42:55		0	0	0	0	0	0	6.64	3.98	0.07	323786	0	20548	236753	323786	303238	12900	259	4786	243	224987	3389906	18188
6	2017-09-23 15:53:55		0	0	0	0	0	0	7.35	4.02	0.08	364960	0	26638	263263	364960	338322	14677	288	5331	266	249216	3389977	20562
7	2017-09-23 16:04:55		0	0	0	0	0	0	7.89	4.07	0.09	403057	0	32949	288267	403057	370108	16387	308	5785	285	267534	3390057	22765
8	2017-09-23 16:15:55		0	0	0	0	0	0	8.55	4.09	0.1	453997	0	42654	317321	453997	411343	18555	324	6182	297	290003	3390142	25358
9	2017-09-23 16:26:59		0	0	0	0	0	0	8.99	4.1	0.11	482900	0	49056	334477	482900	433844	19788	347	6570	314	304880	3390210	27019
10	2017-09-23 16:37:56		0	0	0	0	0	0	9.26	4.12	0.12	509528	0	55671	350484	509528	453857	20970	372	6928	327	313898	3390293	28597
11	2017-09-23 16:48:56		0	0	0	0	0	0	9.61	4.13	0.13	533843	0	62400	367555	533843	471443	22063	387	7306	336	325715	3390361	30092
12	2017-09-23 16:59:55		0	0	0	0	0	0	9.83	4.14	0.14	556876	0	68933	377571	556876	487943	23030	402	7609	342	333125	3390431	31383
13	2017-09-23 17:10:56		0	0	0	0	0	0	10.27	4.13	0.15	587921	0	78009	393608	587921	509912	24295	417	7854	342	348109	3390504	32908
14	2017-09-23 17:21:55		0	0	0	0	0	0	10.58	4.14	0.16	607130	0	83663	405430	607130	523467	25165	434	8102	347	358757	3390573	34048
15	2017-09-23 17:32:56		0	0	0	0	0	0	10.85	4.15	0.17	624629	0	88969	418986	624629	535660	25921	452	8370	357	367959	3390648	35100
16	2017-09-23 17:43:56		0	0	0	0	0	0	11	4.16	0.17	641271	0	94020	427759	641271	547251	26645	464	8612	366	372962	3390735	36087
17	2017-09-23 17:54:56		0	0	0	0	0	0	11.13	4.16	0.18	657109	0	99141	434398	657109	557968	27368	479	8824	372	377492	3390803	37043
18	2017-09-23 18:05:56		0	0	0	0	0	0	11.36	4.18	0.19	678050	0	106465	447671	678050	571585	28312	495	9018	380	385120	3390868	38205
19	2017-09-23 18:16:57		0	0	0	0	0	0	11.51	4.18	0.19	691113	0	111081	455056	691113	580032	28914	509	9205	389	390241	3390946	39017
20	2017-09-23 18:27:56		0	0	0	0	0	0	11.68	4.18	0.2	704201	0	115857	462888	704201	588344	29435	518	9374	391	395980	3391009	39718
21	2017-09-23 18:38:57		0	0	0	0	0	0	11.78	4.18	0.2	716793	0	120637	470950	716793	596156	29971	528	9536	396	399634	3391078	40431
22	2017-09-23 18:49:57		0	0	0	0	0	0	11.92	4.18	0.21	728722	0	125373	479124	728722	603349	30487	538	9693	397	404357	3391147	41115
23	2017-09-23 19:00:57		0	0	0	0	0	0	12.13	4.19	0.22	746345	0	132555	489888	746345	613790	31238	546	9844	404	411231	3391209	42032
24	2017-09-23 19:11:57		0	0	0	0	0	0	12.26	4.19	0.22	757703	0	137158	498280	757703	620545	31720	550	9998	407	415811	3391266	42675
25	2017-09-23 19:22:57		0	0	0	0	0	0	12.33	4.19	0.23	769025	0	141697	502383	769025	627328	32185	555	10112	409	418226	3391343	43261
26	2017-09-23 19:33:58		0	0	0	0	0	0	12.49	4.18	0.23	779793	0	146013	511214	779793	633780	32617	560	10267	412	423653	3391402	43856
27	2017-09-23 19:44:57		0	0	0	0	0	0	12.6	4.18	0.24	790436	0	150480	517104	790436	639956	33059	564	10411	418	427366	3391459	44452
28	2017-09-23 19:55:57		0	0	0	0	0	0	12.74	4.18	0.24	806246	0	157094	524100	806246	649152	33667	573	10547	423	432107	3391524	45210
29	2017-09-23 20:06:58		0	0	0	0	0	0	12.83	4.17	0.25	817002	0	161731	528545	817002	655271	34071	583	10690	425	435051	3391603	45769
30	2017-09-23 20:18:00		0	0	0	0	0	0	12.92	4.17	0.25	827287	0	166064	532190	827287	661223	34476	591	10826	428	438230	3391684	46321
31	2017-09-23 20:29:01		0	0	0	0	0	0	13.06	4.17	0.26	837355	0	170337	539005	837355	667018	34878	602	10965	435	442872	3391740	46880
32	2017-09-23 20:39:59		0	0	0	0	0	0	13.2	4.16	0.26	847695	0	174824	546503	847695	672871	35237	611	11098	439	447671	3391821	47385
33	2017-09-23 20:50:58		0	0	0	0	0	0	13.3	4.15	0.27	862979	0	181343	553389	862979	681636	35852	617	11242	447	450996	3391901	48158
34	2017-09-23 21:01:58		0	0	0	0	0	0	13.39	4.15	0.27	873850	0	185636	560437	873850	688214	36259	628	11395	449	454205	3391987	48731
35	2017-09-23 21:12:58		0	0	0	0	0	0	13.54	4.15	0.27	884231	0	189837	568215	884231	694394	36683	645	11553	452	459147	3392078	49333
36	2017-09-23 21:23:59		0	0	0	0	0	0	13.59	4.14	0.28	894410	0	193993	574965	894410	700417	37066	654	11704	456	461145	3392148	49880
37	2017-09-23 21:34:58		0	0	0	0	0	0	13.68	4.14	0.28	904465	0	198176	580952	904465	706289	37459	659	11847	459	464082	3392218	50424
38	2017-09-23 21:45:58		0	0	0	0	0	0	13.8	4.14	0.29	919378	0	204372	585404	919378	715006	38026	667	11988	464	468218	3392307	51145
39	2017-09-23 21:56:59		0	0	0	0	0	0	13.91	4.14	0.29	928662	0	208300	589693	928662	720362	38420	678	12105	467	472037	3392395	51670
40	2017-09-23 22:08:00		0	0	0	0	0	0	14.07	4.13	0.29	937208	0	212253	596200	937208	724955	38739	685	12217	469	477290	3392471	52110
41	2017-09-23 22:19:02		0	0	0	0	0	0	14.12	4.13	0.3	945484	0	216126	599142	945484	729358	39070	694	12322	469	479155	3392553	52555
42	2017-09-23 22:30:02		0	0	0	0	0	0	14.32	4.13	0.3	953748	0	219949	602054	953748	733799	39355	705	12436	472	485732	3392623	52968
43	2017-09-23 22:40:59		0	0	0	0	0	0	14.39	4.12	0.3	966033	0	225488	604693	966033	740545	39813	708	12551	475	488144	3392688	53547
44	2017-09-23 22:52:00		0	0	0	0	0	0	14.48	4.12	0.31	973855	0	228986	608479	973855	744869	40109	716	12651	476	491387	3392783	53952
45	2017-09-23 23:02:59		0	0	0	0	0	0	14.62	4.11	0.31	981548	0	232321	617358	981548	749227	40375	722	12757	476	495877	3392855	54330
46	2017-09-23 23:14:00		0	0	0	0	0	0	14.67	4.11	0.31	989093	0	235703	620684	989093	753390	40655	728	12877	480	497751	3392947	54740
47	2017-09-23 23:24:59		0	0	0	0	0	0	14.74	4.11	0.32	996507	0	238850	622900	996507	757657	40943	731	12948	481	500062	3393027	55103
48	2017-09-23 23:36:00		0	0	0	0	0	0	14.87	4.11	0.32	1006881	0	243276	630037	1006881	763605	41353	735	13051	482	504441	3393085	55621
49	2017-09-23 23:47:00		0	0	0	0	0	0	15	4.1	0.32	1013642	0	246195	636021	1013642	767447	41606	737	13145	484	509042	3393145	55972
50	2017-09-23 23:58:01		0	0	0	0	0	0	15.05	4.1	0.32	1020143	0	248986	636937	1020143	771157	41862	745	13247	486	510806	3393200	56340
51	2017-09-24 00:42:01		0	0	0	0	0	0	15.37	4.09	0.33	1045809	0	259346	651469	1045809	786463	42818	759	13573	491	521413	3393363	57641
52	2017-09-24 01:42:03		0	0	0	0	0	0	15.64	4.09	0.34	1068769	0	268685	668559	1068769	800084	43704	781	13846	503	530884	3393567	58834
53	2017-09-24 02:42:02		0	0	0	0	0	0	15.85	4.09	0.34	1081711	0	274000	675808	1081711	807711	44206	796	14030	507	537968	3393697	59539
54	2017-09-24 03:42:06		0	0	0	0	0	0	15.98	4.08	0.34	1089323	0	277166	681863	1089323	812157	44488	802	14129	510	542272	3393757	59929
55	2017-09-24 04:42:05		0	0	0	0	0	0	16	4.08	0.34	1093941	0	279185	683878	1093941	814756	44664	805	14168	511	543176	3393808	60148
56	2017-09-24 05:42:06		0	0	0	0	0	0	16.06	4.08	0.34	1097652	0	280855	688861	1097652	816797	44781	806	14208	512	544897	3393836	60307
57	2017-09-24 06:42:06		0	0	0	0	0	0	16.13	4.08	0.35	1101657	0	282870	688861	1101657	818787	44897	808	14256	512	547595	3393867	60473
58	2017-09-24 07:09:09		0	0	0	0	0	0	16.21	4.08	0.35	1103742	0	283930	691456	1103742	819812	44978	811	14277	512	550308	3393892	60578
59	2017-09-24 07:20:02		0	0	0	0	0	0	16.23	4.07	0.35	1104831	0	284504	692694	1104831	820327	45012	813	14288	512	550895	3393897	60625
60	2017-09-24 07:31:15		0	0	0	0	0	0	16.24	4.07	0.35	1106012	0	285113	693353	1106012	820899	45052	814	14304	512	551042	3393910	60682
61	2017-09-24 07:42:07		0	0	0	0	0	0	16.25	4.07	0.35	1108111	0	286154	694578	1108111	821957	45103	818	14318	512	551472	3393925	60751
62	2017-09-24 07:53:16		0	0	0	0	0	0	16.27	4.07	0.35	1109744	0	286969	694578	1109744	822775	45142	819	14332	512	552259	3393937	60805
63	2017-09-24 08:04:08		0	0	0	0	0	0	16.34	4.07	0.35	1111523	0	287874	699205	1111523	823649	45211	821	14349	513	554583	3393953	60894
64	2017-09-24 08:15:07		0	0	0	0	0	0	16.34	4.07	0.35	1113476	0	288906	699600	1113476	824570	45292	822	14367	515	554682	3393979	60996
65	2017-09-24 08:26:05		0	0	0	0	0	0	16.35	4.07	0.35	1115728	0	290104	700312	1115728	825624	45358	824	14389	515	554782	3394013	61086
66	2017-09-24 08:37:30		0	0	0	0	0	0	16.42	4.06	0.35	1119313	0	291981	704535	1119313	827332	45489	827	14414	517	557328	3394033	61247
67	2017-09-24 08:48:10		0	0	0	0	0	0	16.47	4.06	0.35	1122055	0	293399	707432	1122055	828656	45591	827	14443	518	559039	3394046	61379
68	2017-09-24 08:59:11		0	0	0	0	0	0	16.52	4.06	0.36	1124923	0	294898	708930	1124923	830025	45675	827	14468	519	560709	3394063	61489
69	2017-09-24 09:10:20		0	0	0	0	0	0	16.54	4.06	0.36	1127852	0	296456	710231	1127852	831396	45771	830	14510	520	561523	3394079	61631
70	2017-09-24 09:22:04		0	0	0	0	0	0	16.67	4.06	0.36	1132340	0	298857	713906	1132340	833483	45943	832	14546	520	565878	3394108	61841
71	2017-09-24 09:33:05		0	0	0	0	0	0	16.69	4.06	0.36	1135310	0	300410	715762	1135310	834900	46050	833	14577	520	566629	3394132	61980
72	2017-09-24 09:44:02		0	0	0	0	0	0	16.7	4.05	0.36	1138292	0	302024	716756	1138292	836268	46141	837	14608	520	566836	3394152	62106
73	2017-09-24 09:55:56		0	0	0	0	0	0	16.77	4.05	0.36	1141359	0	303640	721432	1141359	837719	46250	841	14641	521	569233	3394184	62253
74	2017-09-24 10:06:38		0	0	0	0	0	0	16.78	4.05	0.36	1144444	0	305260	722105	1144444	839184	46344	842	14673	523	569652	3394202	62382
75	2017-09-24 10:17:39		0	0	0	0	0	0	16.8	4.05	0.37	1149179	0	307786	724616	1149179	841393	46512	845	14715	524	570386	3394218	62596
76	2017-09-24 10:30:06		0	0	0	0	0	0	16.88	4.05	0.37	1152204	0	309465	728838	1152204	842739	46628	849	14752	524	572893	3394246	62753
77	2017-09-24 10:40:49		0	0	0	0	0	0	16.93	4.04	0.37	1155180	0	311082	731334	1155180	844098	46718	852	14776	525	574807	3394282	62871
78	2017-09-24 10:51:47		0	0	0	0	0	0	16.96	4.04	0.37	1158114	0	312669	732502	1158114	845445	46808	855	14815	525	575528	3394314	63003
79	2017-09-24 11:03:37		0	0	0	0	0	0	16.97	4.04	0.37	1162572	0	315124	733347	1162572	847448	46947	856	14849	526	575943	3394340	63178
80	2017-09-24 11:20:29		0	0	0	0	0	0	16.99	4.04	0.37	1165275	0	316646	733869	1165275	848629	47031	858	14894	528	576560	3394373	63311
81	2017-09-24 11:27:44		0	0	0	0	0	0	17.07	4.03	0.37	1169347	0	318859	737886	1169347	850488	47166	862	14932	528	579255	3394397	63488
82	2017-09-24 11:38:45		0	0	0	0	0	0	17.1	4.03	0.38	1172146	0	320464	738940	1172146	851682	47251	863	14955	528	580556	3394427	63597
83	2017-09-24 11:51:10		0	0	0	0	0	0	17.12	4.03	0.38	1174860	0	322008	739337	1174860	852852	47351	864	14982	528	581292	3394453	63725
84	2017-09-24 12:10:42		0	0	0	0	0	0	17.13	4.03	0.38	1180060	0	324933	740752	1180060	855127	47515	867	15037	530	581510	3394504	63949
85	2017-09-24 12:20:46		0	0	0	0	0	0	17.16	4.02	0.38	1182615	0	326341	742250	1182615	856274	47599	867	15061	531	582598	3394522	64058
86	2017-09-24 12:31:43		0	0	0	0	0	0	17.17	4.02	0.38	1185097	0	327746	743676	1185097	857351	47689	867	15092	532	582817	3394538	64180
87	2017-09-24 12:44:43		0	0	0	0	0	0	17.2	4.02	0.38	1188753	0	329790	747897	1188753	858963	47807	870	15125	532	584026	3394578	64334
88	2017-09-24 12:54:52		0	0	0	0	0	0	17.22	4.02	0.39	1191172	0	331143	749754	1191172	860029	47897	874	15153	533	584660	3394599	64457
89	2017-09-24 13:11:20		0	0	0	0	0	0	17.25	4.02	0.39	1194766	0	333115	754366	1194766	861651	48003	879	15184	533	585655	3394640	64599
90	2017-09-24 13:22:10		0	0	0	0	0	0	17.27	4.02	0.39	1197274	0	334484	755102	1197274	863357	48130	880	15210	533	586099	3394659	64753
91	2017-09-24 13:33:15		0	0	0	0	0	0	17.28	4.01	0.39	1200891	0	336403	755562	1200891	864488	48211	884	15234	533	586765	3394680	64862
92	2017-09-24 13:50:13		0	0	0	0	0	0	17.32	4.01	0.39	1203301	0	337695	756763	1203301	865606	48289	889	15266	534	588089	3394718	64978
93	2017-09-24 14:10:08		0	0	0	0	0	0	17.36	4.01	0.39	1208992	0	340771	758710	1208992	868221	48488	891	15324	536	589320	3394756	65239
94	2017-09-24 14:34:13		0	0	0	0	0	0	17.36	4.01	0.39	1212372	0	342574	758989	1212372	869798	48598	893	15373	536	589432	3394796	65400
95	2017-09-24 14:48:56		0	0	0	0	0	0	17.42	4.01	0.4	1216701	0	344901	761554	1216701	871800	48747	895	15398	536	591317	3394831	65576
96	2017-09-24 15:07:35		0	0	0	0	0	0	17.45	4.01	0.4	1220976	0	347198	764421	1220976	873778	48903	895	15448	536	592278	3394861	65782
97	2017-09-24 15:15:40		0	0	0	0	0	0	17.45	4	0.4	1222809	0	348224	764592	1222809	874585	48966	895	15464	536	592278	3394883	65861
98	2017-09-24 15:29:44		0	0	0	0	0	0	17.46	4	0.4	1225520	0	349770	765159	1225520	875750	49065	897	15491	537	592902	3394903	65990
99	2017-09-24 16:01:44		0	0	0	0	0	0	17.52	4	0.4	1230832	0	352852	767150	1230832	877980	49214	898	15547	537	594953	3394950	66196
100	2017-09-24 16:17:59		0	0	0	0	0	0	17.54	4	0.4	1233085	0	354205	767720	1233085	878880	49297	899	15569	537	595525	3394971	66302
101	2017-09-24 16:31:41		0	0	0	0	0	0	17.54	4	0.4	1235277	0	355647	768864	1235277	879630	49374	899	15578	537	595525	3394990	66388
102	2017-09-24 16:40:48		0	0	0	0	0	0	17.54	4	0.41	1236760	0	356595	768864	1236760	880165	49417	900	15591	537	595525	3395008	66445
103	2017-09-24 17:37:34		0	0	0	0	0	0	17.56	3.99	0.41	1239745	0	358417	770826	1239745	881328	49527	900	15618	537	596012	3395085	66582
104	2017-09-24 17:49:13		0	0	0	0	0	0	17.68	3.99	0.41	1246171	0	362556	776693	1246171	883615	49746	901	15674	537	600113	3395114	66858
105	2017-09-24 18:03:34		0	0	0	0	0	0	17.68	3.99	0.41	1248089	0	363777	778059	1248089	884312	49810	902	15691	538	600113	3395133	66941
106	2017-09-24 18:16:53		0	0	0	0	0	0	17.68	3.99	0.41	1249294	0	364586	778255	1249294	884708	49849	903	15703	538	600113	3395152	66993
107	2017-09-24 18:32:42		0	0	0	0	0	0	17.68	3.99	0.41	1251344	0	365558	778255	1251344	885346	49911	904	15715	538	600113	3395164	67068
108	2017-09-24 18:50:38		0	0	0	0	0	0	17.71	3.99	0.41	1253323	0	367335	779621	1253323	885988	49980	906	15731	539	601216	3395200	67156
109	2017-09-24 19:11:32		0	0	0	0	0	0	17.72	3.99	0.42	1256643	0	369593	780013	1256643	887050	50087	907	15756	540	601683	3395223	67290
110	2017-09-24 19:22:12		0	0	0	0	0	0	17.78	3.99	0.42	1257830	0	370374	780013	1257830	887456	50130	908	15769	540	603531	3395237	67347
111	2017-09-24 20:08:25		0	0	0	0	0	0	17.82	3.98	0.42	1263336	0	374076	781959	1263336	889260	50303	909	15798	542	605167	3395329	67552
112	2017-09-24 20:18:58		0	0	0	0	0	0	17.82	3.98	0.42	1265133	0	375278	783367	1265133	889855	50367	910	15810	542	605167	3395360	67629
113	2017-09-24 20:44:57		0	0	0	0	0	0	17.82	3.98	0.42	1268248	0	377387	783413	1268248	890861	50459	913	15834	543	605167	3395423	67749
114	2017-09-24 20:55:49		0	0	0	0	0	0	17.82	3.98	0.42	1269415	0	378192	783413	1269415	891223	50495	913	15846	543	605167	3395452	67797
115	2017-09-24 21:14:48		0	0	0	0	0	0	17.82	3.98	0.43	1271739	0	379761	783413	1271739	891978	50573	913	15858	543	605167	3395496	67887
116	2017-09-24 21:28:42		0	0	0	0	0	0	17.86	3.97	0.43	1273520	0	380967	784803	1273520	892553	50618	914	15868	544	606590	3395533	67944
117	2017-09-24 21:41:09		0	0	0	0	0	0	17.86	3.97	0.43	1274632	0	381701	784803	1274632	892931	50662	914	15883	545	606590	3395574	68004
118	2017-09-24 22:29:44		0	0	0	0	0	0	17.86	3.97	0.43	1279766	0	385195	785699	1279766	894571	50832	916	15923	545	606590	3395715	68216
119	2017-09-24 22:33:14		0	0	0	0	0	0	17.86	3.97	0.43	1279766	0	385195	785699	1279766	894571	50832	916	15926	545	606590	3395729	68219
120	2017-09-24 22:44:27		0	0	0	0	0	0	17.86	3.97	0.43	1281155	0	386155	786897	1281155	895000	50875	918	15938	545	606590	3395766	68276
121	2017-09-24 23:04:37		0	0	0	0	0	0	17.86	3.97	0.43	1282448	0	387042	787598	1282448	895549	50936	919	15952	545	606590	3395826	68352
122	2017-09-24 23:16:51		0	0	0	0	0	0	17.86	3.97	0.43	1283624	0	387820	787598	1283624	895804	50964	919	15962	545	606590	3395861	68390
123	2017-09-24 23:52:34		0	0	0	0	0	0	17.86	3.97	0.43	1286130	0	389532	788400	1286130	896598	51065	920	15982	545	606590	3395951	68512
124	2017-09-25 00:43:39		0	0	0	0	0	0	17.86	3.97	0.44	1288326	0	391015	788601	1288326	897311	51146	920	16002	545	606679	3396018	68613
125	2017-09-25 01:49:10		0	0	0	0	0	0	17.87	3.97	0.44	1290634	0	392521	789342	1290634	898113	51216	921	16025	545	606887	3396083	68707
126	2017-09-25 03:11:56		0	0	0	0	0	0	17.87	3.97	0.44	1291519	0	393090	789342	1291519	898429	51249	923	16035	545	606887	3396118	68752
127	2017-09-25 04:21:30		0	0	0	0	0	0	17.87	3.97	0.44	1291895	0	393348	789543	1291895	898547	51258	923	16041	545	607006	3396123	68767
128	2017-09-25 05:35:57		0	0	0	0	0	0	17.91	3.97	0.44	1292323	0	393641	789921	1292323	898682	51270	923	16043	545	608183	3396148	68781
129	2017-09-25 09:48:55		0	0	0	0	0	0	17.98	3.96	0.44	1297515	0	396909	797602	1297515	900606	51433	926	16083	547	610703	3396311	68989
130	2017-09-25 09:59:51		0	0	0	0	0	0	17.98	3.96	0.44	1297932	0	397190	797602	1297932	900742	51441	926	16087	547	610703	3396321	69001
131	2017-09-25 10:10:53		0	0	0	0	0	0	17.98	3.96	0.44	1298210	0	397371	797602	1298210	900839	51446	926	16087	547	610703	3396324	69006
132	2017-09-25 10:21:53		0	0	0	0	0	0	17.98	3.96	0.44	1298481	0	397539	797602	1298481	900942	51452	926	16088	547	610703	3396336	69013
133	2017-09-25 10:32:56		0	0	0	0	0	0	17.98	3.96	0.44	1298746	0	397723	797602	1298746	901023	51458	926	16090	547	610703	3396346	69021
134	2017-09-25 10:43:54		0	0	0	0	0	0	17.98	3.96	0.44	1299014	0	397889	797602	1299014	901125	51467	927	16091	547	610703	3396355	69032
135	2017-09-25 10:54:53		0	0	0	0	0	0	17.98	3.96	0.44	1299377	0	398126	797602	1299377	901251	51481	928	16094	547	610703	3396361	69050
136	2017-09-25 11:05:53		0	0	0	0	0	0	17.98	3.96	0.44	1299628	0	398278	797602	1299628	901350	51491	928	16095	547	610703	3396369	69061
137	2017-09-25 11:16:53		0	0	0	0	0	0	17.98	3.96	0.44	1299846	0	398420	797602	1299846	901426	51499	928	16099	547	610703	3396379	69073
138	2017-09-25 11:27:53		0	0	0	0	0	0	17.98	3.96	0.44	1300074	0	398569	797602	1300074	901505	51511	928	16103	547	610703	3396389	69089
139	2017-09-25 11:38:53		0	0	0	0	0	0	17.98	3.96	0.44	1300341	0	398747	797602	1300341	901594	51523	928	16104	547	610703	3396404	69102
140	2017-09-25 11:49:52		0	0	0	0	0	0	17.98	3.96	0.44	1300730	0	399005	797602	1300730	901725	51529	928	16107	547	610703	3396416	69111
141	2017-09-25 12:00:53		0	0	0	0	0	0	17.98	3.96	0.44	1300964	0	399154	797602	1300964	901810	51532	929	16108	547	610703	3396420	69116
142	2017-09-25 12:11:55		0	0	0	0	0	0	17.98	3.96	0.44	1301203	0	399306	797602	1301203	901897	51536	929	16111	547	610703	3396427	69123
143	2017-09-25 12:22:54		0	0	0	0	0	0	17.98	3.96	0.44	1301434	0	399452	798419	1301434	901982	51545	929	16113	547	610703	3396441	69134
144	2017-09-25 12:33:55		0	0	0	0	0	0	17.98	3.96	0.44	1301665	0	399599	798419	1301665	902066	51555	929	16113	547	610703	3396447	69144
145	2017-09-25 12:44:53		0	0	0	0	0	0	17.98	3.96	0.44	1301985	0	399802	798419	1301985	902183	51565	929	16113	547	610703	3396454	69154
146	2017-09-25 12:55:53		0	0	0	0	0	0	17.98	3.96	0.44	1302200	0	399941	798419	1302200	902259	51569	929	16114	547	610703	3396453	69159
147	2017-09-25 13:06:54		0	0	0	0	0	0	17.98	3.96	0.44	1302430	0	400085	798419	1302430	902345	51573	929	16114	547	610703	3396458	69163
148	2017-09-25 13:17:53		0	0	0	0	0	0	17.98	3.96	0.44	1302638	0	400219	798419	1302638	902419	51575	929	16116	546	610703	3396464	69166
149	2017-09-25 13:28:54		0	0	0	0	0	0	17.98	3.96	0.44	1302860	0	400345	798419	1302860	902515	51578	929	16116	546	610703	3396463	69169
150	2017-09-25 13:39:53		0	0	0	0	0	0	17.98	3.96	0.44	1303168	0	400554	798419	1303168	902614	51589	929	16117	546	610703	3396469	69181
151	2017-09-25 13:50:55		0	0	0	0	0	0	17.98	3.96	0.44	1303398	0	400698	798419	1303398	902700	51593	930	16118	546	610703	3396472	69187
152	2017-09-25 14:01:54		0	0	0	0	0	0	17.98	3.96	0.44	1303641	0	400855	798419	1303641	902786	51600	930	16119	546	610703	3396471	69195
153	2017-09-25 14:12:54		0	0	0	0	0	0	17.98	3.96	0.44	1303866	0	400992	798419	1303866	902874	51609	930	16121	546	610703	3396477	69206
154	2017-09-25 14:23:54		0	0	0	0	0	0	17.98	3.96	0.44	1304078	0	401121	798419	1304078	902957	51616	930	16123	546	610703	3396483	69215
155	2017-09-25 14:34:54		0	0	0	0	0	0	17.98	3.96	0.44	1304370	0	401272	798419	1304370	903098	51625	930	16126	546	610703	3396481	69227
156	2017-09-25 14:45:54		0	0	0	0	0	0	17.98	3.96	0.44	1304609	0	401420	798419	1304609	903189	51630	930	16130	546	610703	3396491	69236
157	2017-09-25 14:56:56		0	0	0	0	0	0	17.98	3.96	0.44	1304855	0	401567	798419	1304855	903288	51634	930	16130	546	610703	3396494	69240
158	2017-09-25 15:07:55		0	0	0	0	0	0	17.98	3.96	0.44	1305062	0	401689	798419	1305062	903373	51648	930	16134	546	610703	3396506	69258
159	2017-09-25 15:18:56		0	0	0	0	0	0	17.98	3.96	0.44	1305278	0	401817	798419	1305278	903461	51654	930	16135	546	610703	3396513	69265
160	2017-09-25 15:29:56		0	0	0	0	0	0	17.98	3.96	0.44	1305586	0	401990	798419	1305586	903596	51665	930	16137	546	610703	3396526	69278
161	2017-09-25 15:40:54		0	0	0	0	0	0	17.98	3.96	0.44	1305808	0	402119	798419	1305808	903689	51672	930	16139	546	610703	3396534	69287
162	2017-09-25 15:51:54		0	0	0	0	0	0	17.99	3.96	0.45	1306035	0	402252	799243	1306035	903783	51679	930	16143	546	611185	3396539	69298
163	2017-09-25 16:02:54		0	0	0	0	0	0	17.99	3.96	0.45	1306242	0	402379	799243	1306242	903863	51683	930	16144	546	611185	3396544	69303
164	2017-09-25 16:13:56		0	0	0	0	0	0	17.99	3.96	0.45	1306414	0	402490	799862	1306414	903924	51689	931	16145	546	611185	3396547	69311
165	2017-09-25 16:24:55		0	0	0	0	0	0	17.99	3.96	0.45	1306671	0	402643	799862	1306671	904028	51696	931	16145	546	611185	3396559	69318
166	2017-09-25 16:35:57		0	0	0	0	0	0	17.99	3.96	0.45	1306868	0	402766	799862	1306868	904102	51706	931	16146	546	611185	3396566	69329
167	2017-09-25 16:46:56		0	0	0	0	0	0	17.99	3.96	0.45	1307062	0	402900	799862	1307062	904162	51710	931	16147	546	611185	3396573	69334
168	2017-09-25 16:57:58		0	0	0	0	0	0	17.99	3.96	0.45	1307235	0	403009	799862	1307235	904226	51717	931	16147	546	611185	3396585	69341
169	2017-09-25 17:08:56		0	0	0	0	0	0	17.99	3.96	0.45	1307421	0	403129	800276	1307421	904292	51721	931	16149	546	611185	3396595	69347
170	2017-09-25 17:19:57		0	0	0	0	0	0	17.99	3.96	0.45	1307688	0	403297	800276	1307688	904391	51723	931	16151	546	611185	3396601	69351
171	2017-09-25 17:30:57		0	0	0	0	0	0	17.99	3.96	0.45	1307870	0	403411	800276	1307870	904459	51733	932	16152	546	611185	3396616	69363
172	2017-09-25 17:33:31		0	0	0	0	0	0	17.99	3.96	0.45	1307870	0	403411	800276	1307870	904459	51733	932	16152	546	611185	3396615	69363
173	2017-09-25 17:37:31		0	0	0	0	0	0	17.99	3.96	0.45	1307948	0	403459	800276	1307948	904489	51735	932	16152	546	611185	3396619	69365
174	2017-09-25 17:38:51		0	0	0	0	0	0	17.99	3.96	0.45	1307948	0	403459	800276	1307948	904489	51735	932	16152	546	611185	3396620	69365
175	2017-09-25 17:39:35		0	0	0	0	0	0	17.99	3.96	0.45	1307948	0	403459	800276	1307948	904489	51735	932	16153	546	611185	3396620	69366
176	2017-09-25 17:50:34		0	0	0	0	0	0	17.99	3.96	0.45	1308094	0	403552	801519	1308094	904542	51741	932	16154	546	611185	3396636	69373
177	2017-09-25 18:01:34		0	0	0	0	0	0	17.99	3.96	0.45	1308328	0	403706	801519	1308328	904622	51754	932	16155	546	611185	3396641	69387
178	2017-09-25 18:12:35		0	0	0	0	0	0	17.99	3.96	0.45	1308610	0	403890	801519	1308610	904720	51762	932	16156	546	611185	3396650	69396
179	2017-09-25 18:23:35		0	0	0	0	0	0	18.01	3.96	0.45	1308775	0	403988	802350	1308775	904787	51769	932	16156	546	611668	3396659	69403
180	2017-09-25 18:34:34		0	0	0	0	0	0	18.01	3.96	0.45	1308950	0	404082	802558	1308950	904868	51772	932	16159	546	611668	3396671	69409
181	2017-09-25 18:45:35		0	0	0	0	0	0	18.01	3.95	0.45	1309134	0	404207	802610	1309134	904927	51776	933	16164	546	611668	3396674	69419
182	2017-09-25 18:56:34		0	0	0	0	0	0	18.01	3.95	0.45	1309332	0	404332	803026	1309332	905000	51783	934	16167	546	611668	3396676	69430
183	2017-09-25 19:07:35		0	0	0	0	0	0	18.01	3.95	0.45	1309628	0	404531	803026	1309628	905097	51786	934	16167	546	611668	3396681	69433
184	2017-09-25 19:18:35		0	0	0	0	0	0	18.01	3.95	0.45	1309831	0	404674	803756	1309831	905157	51795	934	16170	546	611668	3396691	69445
185	2017-09-25 19:29:35		0	0	0	0	0	0	18.01	3.95	0.45	1310048	0	404811	803756	1310048	905237	51799	934	16172	546	611668	3396701	69451
186	2017-09-25 19:40:37		0	0	0	0	0	0	18.01	3.95	0.45	1310235	0	404928	803756	1310235	905307	51803	934	16173	546	611668	3396707	69456
187	2017-09-25 19:51:36		0	0	0	0	0	0	18.01	3.95	0.45	1310421	0	405057	803756	1310421	905364	51808	934	16175	546	611668	3396709	69463
188	2017-09-25 20:02:34		0	0	0	0	0	0	18.01	3.95	0.45	1310693	0	405223	803756	1310693	905470	51812	934	16176	546	611668	3396722	69468
189	2017-09-25 20:13:36		0	0	0	0	0	0	18.01	3.95	0.45	1310940	0	405393	803756	1310940	905547	51815	935	16176	546	611668	3396731	69472
190	2017-09-25 20:24:36		0	0	0	0	0	0	18.01	3.95	0.45	1311206	0	405605	803756	1311206	905601	51822	935	16178	546	611668	3396741	69481
191	2017-09-25 20:35:37		0	0	0	0	0	0	18.01	3.95	0.45	1311458	0	405789	804121	1311458	905669	51826	935	16181	546	611668	3396753	69488
192	2017-09-25 20:46:36		0	0	0	0	0	0	18.01	3.95	0.45	1311716	0	405980	804121	1311716	905736	51836	935	16183	546	611668	3396759	69500
193	2017-09-25 20:57:36		0	0	0	0	0	0	18.01	3.95	0.45	1312060	0	406230	804121	1312060	905830	51845	935	16184	546	611668	3396774	69510
194	2017-09-25 21:08:36		0	0	0	0	0	0	18.03	3.95	0.45	1312283	0	406382	804330	1312283	905901	51851	935	16185	546	612272	3396783	69517
195	2017-09-25 21:19:36		0	0	0	0	0	0	18.02	3.95	0.45	1312504	0	406548	805166	1312504	905956	51859	935	16186	546	612272	3396796	69526
196	2017-09-25 21:30:36		0	0	0	0	0	0	18.02	3.95	0.45	1312730	0	406704	805166	1312730	906026	51867	935	16188	546	612272	3396807	69536
197	2017-09-25 21:41:35		0	0	0	0	0	0	18.02	3.95	0.45	1312962	0	406866	805166	1312962	906096	51876	935	16191	546	612272	3396817	69548
198	2017-09-25 21:52:34		0	0	0	0	0	0	18.02	3.95	0.45	1313327	0	407105	805166	1313327	906222	51885	935	16192	546	612272	3396836	69558
199	2017-09-25 22:03:36		0	0	0	0	0	0	18.02	3.95	0.45	1313567	0	407267	805166	1313567	906300	51895	935	16193	546	612272	3396845	69569
200	2017-09-25 22:14:34		0	0	0	0	0	0	18.02	3.95	0.45	1313785	0	407422	805166	1313785	906363	51903	935	16195	547	612272	3396856	69580
201	2017-09-25 22:25:35		0	0	0	0	0	0	18.02	3.95	0.45	1314003	0	407558	805166	1314003	906445	51908	935	16198	547	612272	3396877	69588
202	2017-09-25 22:36:35		0	0	0	0	0	0	18.03	3.95	0.45	1314206	0	407689	805166	1314206	906517	51915	935	16201	547	612515	3396889	69598
203	2017-09-25 22:47:36		0	0	0	0	0	0	18.03	3.95	0.45	1314386	0	407816	805166	1314386	906570	51920	935	16202	547	612515	3396899	69604
204	2017-09-25 22:58:36		0	0	0	0	0	0	18.03	3.95	0.45	1314697	0	408023	805585	1314697	906674	51926	935	16204	547	612515	3396913	69612
205	2017-09-25 23:09:38		0	0	0	0	0	0	18.03	3.95	0.45	1314863	0	408128	805585	1314863	906735	51931	935	16207	547	612515	3396918	69620
206	2017-09-25 23:20:36		0	0	0	0	0	0	18.03	3.95	0.45	1315034	0	408236	805585	1315034	906798	51937	934	16207	547	612515	3396943	69625
207	2017-09-25 23:31:37		0	0	0	0	0	0	18.03	3.95	0.45	1315166	0	408320	805585	1315166	906846	51942	934	16210	547	612515	3396954	69633
208	2017-09-25 23:42:35		0	0	0	0	0	0	18.03	3.95	0.45	1315331	0	408436	806215	1315331	906895	51947	934	16211	547	612515	3396968	69639
209	2017-09-25 23:53:37		0	0	0	0	0	0	18.03	3.95	0.45	1315550	0	408568	806215	1315550	906982	51949	934	16211	547	612515	3396973	69641
210	2017-09-26 00:21:37		0	0	0	0	0	0	18.03	3.95	0.45	1315826	0	408734	806215	1315826	907092	51964	934	16212	547	612515	3397000	69657
211	2017-09-26 01:21:39		0	0	0	0	0	0	18.03	3.95	0.45	1316285	0	409018	806215	1316285	907267	51984	935	16215	547	612515	3397017	69681
212	2017-09-26 02:21:40		0	0	0	0	0	0	18.03	3.95	0.45	1316554	0	409195	806215	1316554	907359	51989	934	16217	547	612515	3397021	69687
213	2017-09-26 03:21:41		0	0	0	0	0	0	18.03	3.95	0.45	1316699	0	409285	806215	1316699	907414	51993	934	16217	547	612515	3397022	69691
214	2017-09-26 04:21:38		0	0	0	0	0	0	18.03	3.95	0.45	1316787	0	409341	806215	1316787	907446	51997	934	16217	547	612515	3397014	69695
215	2017-09-26 05:21:42		0	0	0	0	0	0	18.03	3.95	0.45	1316897	0	409412	806215	1316897	907485	51998	934	16217	547	612515	3397011	69696
216	2017-09-26 06:21:41		0	0	0	0	0	0	18.03	3.95	0.45	1317025	0	409492	806215	1317025	907533	52002	934	16217	547	612515	3397021	69700
217	2017-09-26 07:04:38		0	0	0	0	0	0	18.03	3.95	0.45	1317192	0	409588	806215	1317192	907604	52007	934	16217	547	612515	3397036	69705
218	2017-09-26 07:15:42		0	0	0	0	0	0	18.03	3.95	0.45	1317244	0	409622	806215	1317244	907622	52007	934	16217	547	612515	3397038	69705
219	2017-09-26 07:26:40		0	0	0	0	0	0	18.03	3.95	0.45	1317295	0	409647	806215	1317295	907648	52011	934	16219	547	612515	3397038	69711
220	2017-09-26 07:37:43		0	0	0	0	0	0	18.03	3.95	0.45	1317352	0	409681	806215	1317352	907671	52011	934	16219	547	612515	3397038	69711
221	2017-09-26 07:48:39		0	0	0	0	0	0	18.03	3.95	0.45	1317420	0	409718	806215	1317420	907702	52014	934	16219	547	612515	3397047	69714
222	2017-09-26 07:59:41		0	0	0	0	0	0	18.03	3.95	0.45	1317505	0	409770	806215	1317505	907735	52014	934	16220	547	612515	3397050	69715
223	2017-09-26 08:10:40		0	0	0	0	0	0	18.03	3.95	0.45	1317585	0	409809	806215	1317585	907776	52017	934	16220	547	612515	3397057	69718
224	2017-09-26 08:21:42		0	0	0	0	0	0	18.03	3.95	0.45	1317656	0	409855	806635	1317656	907801	52019	934	16221	547	612515	3397060	69721
225	2017-09-26 08:32:41		0	0	0	0	0	0	18.03	3.95	0.45	1317717	0	409885	806635	1317717	907832	52019	934	16222	547	612515	3397067	69722
226	2017-09-26 08:43:57		0	0	0	0	0	0	18.03	3.95	0.45	1317802	0	409928	806635	1317802	907887	52025	934	16222	547	612515	3397073	69728
227	2017-09-26 08:54:48		0	0	0	0	0	0	18.03	3.95	0.45	1317936	0	410013	806635	1317936	907923	52029	934	16223	547	612515	3397076	69733
228	2017-09-26 09:05:48		0	0	0	0	0	0	18.03	3.95	0.45	1318011	0	410046	807003	1318011	907965	52030	934	16224	547	612515	3397083	69735
229	2017-09-26 09:16:47		0	0	0	0	0	0	18.03	3.95	0.45	1318113	0	410097	807003	1318113	908016	52036	934	16224	547	612515	3397091	69741
230	2017-09-26 09:27:46		0	0	0	0	0	0	18.03	3.95	0.45	1318208	0	410152	807003	1318208	908056	52041	934	16225	547	612515	3397094	69747
231	2017-09-26 09:38:52		0	0	0	0	0	0	18.03	3.95	0.45	1318338	0	410220	807003	1318338	908118	52048	934	16225	547	612515	3397102	69754
232	2017-09-26 09:49:50		0	0	0	0	0	0	18.03	3.95	0.45	1318433	0	410274	807003	1318433	908159	52051	934	16225	547	612515	3397110	69757
233	2017-09-26 10:00:53		0	0	0	0	0	0	18.03	3.95	0.45	1318509	0	410317	807003	1318509	908192	52052	934	16225	547	612515	3397120	69758
234	2017-09-26 10:13:18		0	0	0	0	0	0	18.03	3.95	0.45	1318632	0	410374	807003	1318632	908258	52055	934	16226	547	612515	3397125	69762
235	2017-09-26 10:22:54		0	0	0	0	0	0	18.03	3.95	0.45	1318780	0	410429	807003	1318780	908351	52060	934	16230	547	612515	3397129	69771
236	2017-09-26 10:39:59		0	0	0	0	0	0	18.03	3.95	0.45	1318972	0	410524	807003	1318972	908448	52065	934	16230	547	612515	3397132	69776
237	2017-09-26 10:51:00		0	0	0	0	0	0	18.03	3.95	0.45	1319070	0	410567	807003	1319070	908503	52067	934	16232	547	612515	3397135	69780
238	2017-09-26 11:47:14		0	0	0	0	0	0	18.04	3.95	0.45	1319776	0	410873	807423	1319776	908903	52086	934	16233	547	612757	3397193	69800
239	2017-09-26 11:58:17		0	0	0	0	0	0	18.04	3.95	0.45	1319903	0	410922	807423	1319903	908981	52087	934	16233	547	612757	3397194	69801
240	2017-09-26 12:09:19		0	0	0	0	0	0	18.04	3.95	0.45	1320069	0	410997	807423	1320069	909072	52089	934	16233	547	612757	3397205	69803
241	2017-09-26 12:20:21		0	0	0	0	0	0	18.04	3.95	0.45	1320172	0	411054	807423	1320172	909118	52093	934	16233	547	612757	3397172	69807
242	2017-09-26 12:31:21		0	0	0	0	0	0	18.04	3.95	0.45	1320281	0	411108	807423	1320281	909173	52093	934	16235	547	612757	3397095	69809
243	2017-09-26 12:42:22		0	0	0	0	0	0	18.04	3.95	0.45	1320403	0	411175	807423	1320403	909228	52093	934	16235	547	612757	3397061	69809
244	2017-09-26 12:53:21		0	0	0	0	0	0	18.04	3.95	0.45	1320516	0	411228	807423	1320516	909288	52096	934	16235	547	612757	3397024	69812
245	2017-09-26 13:04:20		0	0	0	0	0	0	18.04	3.94	0.45	1320655	0	411290	807792	1320655	909365	52098	934	16235	547	612969	3396987	69814
246	2017-09-26 13:15:21		0	0	0	0	0	0	18.04	3.94	0.45	1320750	0	411333	807792	1320750	909417	52100	934	16236	548	612969	3396974	69818
247	2017-09-26 13:26:21		0	0	0	0	0	0	18.04	3.94	0.45	1320867	0	411402	807792	1320867	909465	52103	934	16236	548	612969	3396954	69821
248	2017-09-26 13:37:21		0	0	0	0	0	0	18.04	3.94	0.45	1320977	0	411453	807792	1320977	909524	52107	934	16237	548	612969	3396936	69826
249	2017-09-26 13:48:21		0	0	0	0	0	0	18.04	3.94	0.45	1321081	0	411507	807792	1321081	909574	52107	934	16238	548	612969	3396915	69827
250	2017-09-26 13:59:21		0	0	0	0	0	0	18.05	3.94	0.45	1321222	0	411580	807792	1321222	909642	52111	934	16239	548	612969	3396886	69832
251	2017-09-26 14:10:21		0	0	0	0	0	0	18.05	3.94	0.45	1321329	0	411628	807792	1321329	909701	52114	934	16242	548	612969	3396844	69838
252	2017-09-26 14:21:20		0	0	0	0	0	0	18.05	3.94	0.45	1321424	0	411684	807792	1321424	909740	52114	934	16242	548	612969	3396743	69838
253	2017-09-26 14:32:23		0	0	0	0	0	0	18.05	3.94	0.45	1321515	0	411735	807792	1321515	909780	52115	934	16242	548	612969	3396667	69839
254	2017-09-26 14:43:21		0	0	0	0	0	0	18.05	3.94	0.45	1321619	0	411794	807792	1321619	909825	52119	934	16242	548	612969	3396594	69843
