1	2017-07-02 11:09:00		0	0	0	0	0	0	0.1	0.09	0	3415	0	0	3274	3415	3415	3	0	7	0	3269	3184866	10
2	2017-07-02 11:38:58		0	0	0	0	0	0	0.67	0.88	0.01	27159	0	167	21610	27159	26992	240	16	69	8	21358	3184892	333
3	2017-07-02 12:00:59		0	0	0	0	0	0	0.84	1.05	0.01	35143	0	319	26913	35143	34824	370	22	82	12	26615	3184941	486
4	2017-07-02 12:10:42		0	0	0	0	0	0	0.9	1.12	0.01	38318	0	380	29143	38318	37938	431	22	88	12	28728	3184963	553
5	2017-07-02 12:31:21		0	0	0	0	0	0	1.03	1.24	0.01	44022	0	539	33545	44022	43483	548	34	104	13	32863	3185019	699
6	2017-07-02 12:41:35		0	0	0	0	0	0	1.06	1.28	0.01	46415	0	620	34565	46415	45795	594	34	109	14	33746	3185045	751
7	2017-07-02 13:09:41		0	0	0	0	0	0	1.18	1.3	0.02	52182	0	797	38402	52182	51385	679	42	117	14	37499	3185101	852
8	2017-07-02 13:21:06		0	0	0	0	0	0	1.22	1.29	0.02	53712	0	848	39663	53712	52864	694	42	118	14	38709	3185123	868
9	2017-07-02 13:55:40		0	0	0	0	0	0	1.32	1.3	0.02	58863	0	1022	43304	58863	57841	766	48	129	14	42024	3185193	957
10	2017-07-02 14:05:56		0	0	0	0	0	0	1.34	1.31	0.02	60332	0	1076	44057	60332	59256	791	48	134	14	42573	3185218	987
11	2017-07-02 14:18:32		0	0	0	0	0	0	1.36	1.31	0.02	61599	0	1116	45019	61599	60483	807	48	137	15	43471	3185244	1007
12	2017-07-02 15:35:08		0	0	0	0	0	0	1.54	1.26	0.02	70340	0	1380	50961	70340	68960	888	52	148	16	49132	3185371	1104
13	2017-07-02 15:47:29		0	0	0	0	0	0	1.56	1.25	0.02	71368	0	1409	51606	71368	69959	893	52	150	16	49808	3185402	1111
14	2017-07-02 16:12:45		0	0	0	0	0	0	1.61	1.25	0.02	74009	0	1480	53048	74009	72529	928	54	154	16	51281	3185446	1152
15	2017-07-02 16:42:52		0	0	0	0	0	0	1.66	1.25	0.02	76962	0	1544	54721	76962	75418	959	56	159	16	52817	3185506	1190
16	2017-07-02 16:53:13		0	0	0	0	0	0	1.7	1.24	0.02	78022	0	1565	56288	78022	76457	969	56	160	16	54229	3185515	1201
17	2017-07-02 17:14:21		0	0	0	0	0	0	1.76	1.23	0.02	80535	0	1614	58060	80535	78921	992	58	162	16	55933	3185533	1228
18	2017-07-02 17:26:57		0	0	0	0	0	0	1.78	1.23	0.02	81485	0	1638	58836	81485	79847	999	60	162	16	56769	3185536	1237
19	2017-07-02 17:37:09		0	0	0	0	0	0	1.8	1.22	0.02	82497	0	1669	59361	82497	80828	1010	60	164	16	57271	3185547	1250
20	2017-07-02 18:12:04		0	0	0	0	0	0	1.85	1.2	0.02	86093	0	1759	61182	86093	84334	1034	60	169	16	58946	3185585	1279
21	2017-07-02 18:26:00		0	0	0	0	0	0	1.88	1.2	0.02	87672	0	1783	62358	87672	85889	1050	62	170	16	59990	3185605	1298
22	2017-07-02 18:35:56		0	0	0	0	0	0	1.9	1.19	0.02	88727	0	1802	62876	88727	86925	1060	62	171	16	60469	3185629	1309
23	2017-07-02 19:07:24		0	0	0	0	0	0	1.95	1.19	0.02	91617	0	1858	64451	91617	89759	1090	64	172	16	62069	3185753	1342
24	2017-07-02 19:17:43		0	0	0	0	0	0	1.96	1.19	0.02	92529	0	1879	64984	92529	90650	1097	66	174	16	62562	3185806	1353
25	2017-07-02 19:55:34		0	0	0	0	0	0	2.04	1.17	0.02	96087	0	1940	67406	96087	94147	1121	66	176	16	64843	3185884	1379
26	2017-07-02 20:15:10		0	0	0	0	0	0	2.08	1.16	0.02	97711	0	1982	68727	97711	95729	1137	66	178	16	66223	3185918	1397
27	2017-07-02 20:52:18		0	0	0	0	0	0	2.13	1.15	0.02	100659	0	2031	70509	100659	98628	1161	66	180	16	67882	3185987	1423
28	2017-07-02 21:07:25		0	0	0	0	0	0	2.15	1.15	0.02	101911	0	2053	71230	101911	99858	1168	66	180	16	68646	3186010	1430
29	2017-07-02 21:09:52		0	0	0	0	0	0	2.16	1.14	0.02	102355	0	2058	71282	102355	100297	1171	66	180	16	68695	3186013	1433
30	2017-07-02 21:32:20		0	0	0	0	0	0	2.19	1.13	0.02	104184	0	2091	72513	104184	102093	1180	66	186	16	69831	3186069	1448
31	2017-07-02 21:36:19		0	0	0	0	0	0	2.2	1.13	0.02	104713	0	2098	72884	104713	102615	1184	66	186	17	70156	3186080	1453
32	2017-07-02 21:42:56		0	0	0	0	0	0	2.2	1.13	0.02	105189	0	2105	72980	105189	103084	1192	66	186	17	70245	3186092	1461
33	2017-07-02 21:50:47		0	0	0	0	0	0	2.22	1.13	0.02	106202	0	2122	73489	106202	104080	1198	66	186	17	70716	3186105	1467
34	2017-07-02 21:53:58		0	0	0	0	0	0	2.22	1.13	0.02	106202	0	2122	73489	106202	104080	1200	66	186	17	70716	3186110	1469
35	2017-07-02 22:04:55		0	0	0	0	0	0	2.26	1.12	0.02	107589	0	2137	74882	107589	105452	1207	66	187	17	71966	3186133	1477
36	2017-07-02 22:15:38		0	0	0	0	0	0	2.28	1.12	0.02	108628	0	2152	75627	108628	106476	1214	66	189	17	72653	3186154	1486
37	2017-07-02 22:26:28		0	0	0	0	0	0	2.31	1.12	0.02	109573	0	2162	76603	109573	107411	1223	66	191	17	73581	3186165	1497
38	2017-07-02 22:26:34		0	0	0	0	0	0	2.31	1.12	0.02	109573	0	2162	76603	109573	107411	1223	66	191	17	73581	3186165	1497
39	2017-07-02 22:36:44		0	0	0	0	0	0	2.33	1.12	0.02	110557	0	2178	77228	110557	108379	1233	66	191	18	74154	3186176	1508
40	2017-07-02 22:37:00		0	0	0	0	0	0	2.33	1.12	0.02	110557	0	2178	77228	110557	108379	1233	66	191	18	74154	3186176	1508
41	2017-07-02 22:53:24		0	0	0	0	0	0	2.36	1.12	0.02	112030	0	2208	78288	112030	109822	1253	66	193	18	75040	3186201	1530
42	2017-07-02 23:45:49		0	0	0	0	0	0	2.43	1.12	0.02	116929	0	2337	80915	116929	114592	1307	68	197	18	77396	3186264	1590
43	2017-07-02 23:55:55		0	0	0	0	0	0	2.45	1.12	0.02	117697	0	2347	81496	117697	115350	1318	68	199	18	78053	3186274	1603
44	2017-07-03 01:09:14		0	0	0	0	0	0	2.52	1.11	0.02	121215	0	2406	83995	121215	118809	1342	70	203	18	80426	3186353	1633
45	2017-07-03 01:13:41		0	0	0	0	0	0	2.52	1.11	0.02	121388	0	2408	84023	121388	118980	1343	70	204	18	80451	3186354	1635
46	2017-07-03 02:14:03		0	0	0	0	0	0	2.57	1.11	0.02	122974	0	2427	85370	122974	120547	1363	70	205	18	81806	3186380	1656
47	2017-07-03 02:16:38		0	0	0	0	0	0	2.57	1.11	0.02	123062	0	2428	85408	123062	120634	1364	70	206	18	81841	3186380	1658
48	2017-07-03 03:14:37		0	0	0	0	0	0	2.58	1.11	0.02	123859	0	2443	85879	123859	121417	1373	70	206	18	82274	3186388	1667
49	2017-07-03 03:35:46		0	0	0	0	0	0	2.59	1.11	0.02	124086	0	2443	86075	124086	121643	1374	70	206	18	82453	3186390	1668
50	2017-07-03 04:15:49		0	0	0	0	0	0	2.6	1.11	0.02	124410	0	2445	86467	124410	121965	1377	70	206	18	82848	3186393	1671
51	2017-07-03 04:38:18		0	0	0	0	0	0	2.6	1.11	0.02	124574	0	2447	86486	124574	122127	1378	70	206	18	82866	3186394	1672
52	2017-07-03 05:16:30		0	0	0	0	0	0	2.61	1.11	0.02	124933	0	2456	86641	124933	122477	1381	70	206	18	83008	3186402	1675
53	2017-07-03 06:13:52		0	0	0	0	0	0	2.62	1.1	0.02	125599	0	2468	87049	125599	123131	1386	70	206	18	83420	3186405	1680
54	2017-07-03 06:17:37		0	0	0	0	0	0	2.62	1.1	0.02	125676	0	2470	87049	125676	123206	1386	70	206	18	83420	3186408	1680
55	2017-07-03 07:05:30		0	0	0	0	0	0	2.65	1.1	0.02	126917	0	2489	88054	126917	124428	1392	70	208	18	84526	3186431	1688
56	2017-07-03 07:16:10		0	0	0	0	0	0	2.66	1.1	0.02	127247	0	2499	88142	127247	124748	1395	70	208	18	84644	3186441	1691
57	2017-07-03 07:20:01		0	0	0	0	0	0	2.66	1.1	0.02	127247	0	2499	88142	127247	124748	1395	70	208	18	84644	3186440	1691
58	2017-07-03 07:26:59		0	0	0	0	0	0	2.66	1.1	0.02	127568	0	2501	88363	127568	125067	1400	70	209	18	84848	3186446	1697
59	2017-07-03 07:34:05		0	0	0	0	0	0	2.67	1.1	0.02	127745	0	2507	88621	127745	125238	1401	70	209	18	85086	3186449	1698
60	2017-07-03 07:37:19		0	0	0	0	0	0	2.67	1.1	0.02	127957	0	2510	88662	127957	125447	1402	72	209	18	85124	3186452	1701
61	2017-07-03 07:44:20		0	0	0	0	0	0	2.67	1.09	0.02	128167	0	2514	88784	128167	125653	1403	72	209	18	85236	3186454	1702
62	2017-07-03 07:47:31		0	0	0	0	0	0	2.68	1.09	0.02	128362	0	2518	88863	128362	125844	1404	72	209	18	85309	3186456	1703
63	2017-07-03 08:01:43		0	0	0	0	0	0	2.71	1.09	0.02	129013	0	2533	89843	129013	126480	1410	72	210	18	86211	3186469	1710
64	2017-07-03 08:11:54		0	0	0	0	0	0	2.71	1.09	0.02	129469	0	2545	89967	129469	126924	1413	72	210	18	86326	3186472	1713
65	2017-07-03 08:21:53		0	0	0	0	0	0	2.72	1.09	0.02	129941	0	2556	90445	129941	127385	1417	72	210	18	86766	3186482	1717
66	2017-07-03 08:31:53		0	0	0	0	0	0	2.73	1.09	0.02	130427	0	2566	90741	130427	127861	1426	72	210	18	87038	3186495	1726
67	2017-07-03 08:51:44		0	0	0	0	0	0	2.75	1.09	0.02	131482	0	2584	91386	131482	128898	1439	72	213	18	87632	3186503	1742
68	2017-07-03 09:01:38		0	0	0	0	0	0	2.76	1.1	0.02	131952	0	2597	91624	131952	129355	1447	72	213	18	87851	3186518	1750
69	2017-07-03 09:33:38		0	0	0	0	0	0	2.78	1.1	0.02	133222	0	2624	92287	133222	130598	1462	72	214	18	88460	3186555	1766
70	2017-07-03 10:04:23		0	0	0	0	0	0	2.79	1.09	0.02	134407	0	2653	92634	134407	131754	1467	72	215	18	88820	3186594	1772
71	2017-07-03 10:14:56		0	0	0	0	0	0	2.79	1.09	0.02	134712	0	2657	92768	134712	132055	1469	72	216	18	88860	3186613	1775
72	2017-07-03 10:25:47		0	0	0	0	0	0	2.8	1.09	0.02	135218	0	2668	92914	135218	132550	1476	72	216	18	89076	3186617	1782
73	2017-07-03 10:36:31		0	0	0	0	0	0	2.8	1.09	0.02	135547	0	2674	93148	135547	132873	1483	72	218	18	89292	3186631	1791
74	2017-07-03 10:47:10		0	0	0	0	0	0	2.81	1.09	0.02	135905	0	2685	93644	135905	133220	1486	72	218	19	89623	3186648	1795
75	2017-07-03 10:58:02		0	0	0	0	0	0	2.82	1.09	0.02	136260	0	2698	93963	136260	133562	1490	72	218	19	89914	3186673	1799
76	2017-07-03 11:08:56		0	0	0	0	0	0	2.82	1.09	0.02	136563	0	2705	94054	136563	133858	1492	72	218	20	89998	3186692	1802
77	2017-07-03 11:19:24		0	0	0	0	0	0	2.83	1.09	0.02	136834	0	2713	94191	136834	134121	1494	72	218	20	90166	3186715	1804
78	2017-07-03 11:30:18		0	0	0	0	0	0	2.83	1.09	0.02	137100	0	2722	94338	137100	134378	1497	72	219	21	90300	3186741	1809
79	2017-07-03 11:41:03		0	0	0	0	0	0	2.84	1.09	0.02	137463	0	2730	94418	137463	134733	1504	72	219	21	90374	3186762	1816
80	2017-07-03 11:51:53		0	0	0	0	0	0	2.84	1.09	0.02	137622	0	2738	94464	137622	134884	1506	72	219	21	90416	3186785	1818
81	2017-07-03 12:02:45		0	0	0	0	0	0	2.84	1.09	0.02	137733	0	2747	94626	137733	134986	1506	72	219	21	90479	3186807	1818
82	2017-07-03 12:13:23		0	0	0	0	0	0	2.84	1.09	0.02	137813	0	2754	94626	137813	135059	1507	72	219	21	90479	3186836	1819
83	2017-07-03 12:24:16		0	0	0	0	0	0	2.84	1.09	0.02	137900	0	2760	94637	137900	135140	1508	72	219	21	90490	3186858	1820
84	2017-07-03 12:34:43		0	0	0	0	0	0	2.84	1.09	0.02	137973	0	2764	94777	137973	135209	1509	72	219	21	90617	3186874	1821
85	2017-07-03 12:45:24		0	0	0	0	0	0	2.85	1.1	0.02	138052	0	2769	94916	138052	135283	1512	72	220	21	90744	3186895	1825
86	2017-07-03 12:55:36		0	0	0	0	0	0	2.85	1.1	0.02	138155	0	2772	94933	138155	135385	1513	72	220	21	90760	3186912	1826
87	2017-07-03 13:06:07		0	0	0	0	0	0	2.85	1.1	0.02	138297	0	2774	95068	138297	135523	1516	72	220	21	90883	3186941	1829
88	2017-07-03 13:16:34		0	0	0	0	0	0	2.85	1.1	0.02	138387	0	2778	95068	138387	135609	1517	72	220	21	90883	3186959	1830
89	2017-07-03 13:27:24		0	0	0	0	0	0	2.85	1.1	0.02	138477	0	2782	95068	138477	135695	1518	72	220	21	90883	3186990	1831
90	2017-07-03 13:38:05		0	0	0	0	0	0	2.85	1.1	0.02	138549	0	2786	95068	138549	135763	1519	72	220	21	90883	3187009	1832
91	2017-07-03 13:48:43		0	0	0	0	0	0	2.85	1.1	0.02	138637	0	2789	95068	138637	135848	1519	72	220	21	90883	3187018	1832
92	2017-07-03 13:59:36		0	0	0	0	0	0	2.85	1.1	0.02	138719	0	2796	95068	138719	135923	1519	74	220	21	90883	3187046	1834
93	2017-07-03 14:10:23		0	0	0	0	0	0	2.85	1.09	0.02	138824	0	2801	95068	138824	136023	1520	74	221	21	90883	3187065	1836
94	2017-07-03 14:21:13		0	0	0	0	0	0	2.85	1.09	0.02	138960	0	2810	95091	138960	136150	1521	74	221	21	90883	3187087	1837
95	2017-07-03 14:31:40		0	0	0	0	0	0	2.85	1.09	0.02	139044	0	2816	95091	139044	136228	1522	74	221	21	90883	3187101	1838
96	2017-07-03 14:42:29		0	0	0	0	0	0	2.85	1.09	0.02	139116	0	2820	95135	139116	136296	1522	74	221	21	90923	3187121	1838
97	2017-07-03 14:53:04		0	0	0	0	0	0	2.85	1.09	0.02	139203	0	2828	95135	139203	136375	1522	74	222	21	90923	3187148	1839
98	2017-07-03 15:03:36		0	0	0	0	0	0	2.85	1.09	0.02	139287	0	2834	95205	139287	136453	1524	74	222	21	90987	3187163	1841
99	2017-07-03 15:14:26		0	0	0	0	0	0	2.86	1.09	0.02	139346	0	2842	95293	139346	136504	1524	74	222	21	91067	3187174	1841
100	2017-07-03 15:25:13		0	0	0	0	0	0	2.86	1.09	0.02	139428	0	2852	95340	139428	136576	1525	74	222	21	91110	3187188	1842
101	2017-07-03 15:35:22		0	0	0	0	0	0	2.86	1.09	0.02	139512	0	2853	95340	139512	136659	1527	74	222	21	91110	3187215	1844
102	2017-07-03 15:46:12		0	0	0	0	0	0	2.86	1.09	0.02	139607	0	2860	95340	139607	136747	1527	74	222	21	91110	3187244	1844
103	2017-07-03 15:56:37		0	0	0	0	0	0	2.86	1.09	0.02	139677	0	2865	95340	139677	136812	1527	74	222	21	91110	3187265	1844
104	2017-07-03 16:07:26		0	0	0	0	0	0	2.86	1.09	0.02	139750	0	2876	95340	139750	136874	1528	74	222	21	91110	3187282	1845
105	2017-07-03 16:18:07		0	0	0	0	0	0	2.86	1.09	0.02	139809	0	2879	95434	139809	136930	1529	74	223	21	91196	3187309	1847
106	2017-07-03 16:28:52		0	0	0	0	0	0	2.86	1.09	0.02	139877	0	2881	95454	139877	136996	1530	74	223	21	91215	3187330	1848
107	2017-07-03 16:39:37		0	0	0	0	0	0	2.86	1.09	0.02	139929	0	2883	95472	139929	137046	1530	74	223	21	91231	3187345	1848
108	2017-07-03 16:50:07		0	0	0	0	0	0	2.86	1.09	0.02	140013	0	2886	95560	140013	137127	1531	74	223	21	91312	3187371	1849
109	2017-07-03 17:01:04		0	0	0	0	0	0	2.87	1.09	0.02	140116	0	2889	95608	140116	137227	1531	74	223	21	91355	3187399	1849
110	2017-07-03 17:11:44		0	0	0	0	0	0	2.87	1.09	0.02	140177	0	2891	95608	140177	137286	1531	74	223	21	91355	3187434	1849
111	2017-07-03 17:22:36		0	0	0	0	0	0	2.87	1.09	0.02	140237	0	2895	95608	140237	137342	1531	74	223	21	91355	3187462	1849
112	2017-07-03 17:33:05		0	0	0	0	0	0	2.87	1.09	0.02	140284	0	2895	95608	140284	137389	1532	74	223	21	91355	3187495	1850
113	2017-07-03 17:44:00		0	0	0	0	0	0	2.87	1.09	0.02	140339	0	2900	95608	140339	137439	1532	74	223	21	91355	3187510	1850
114	2017-07-03 17:54:40		0	0	0	0	0	0	2.87	1.09	0.02	140392	0	2902	95608	140392	137490	1533	74	223	21	91355	3187520	1851
115	2017-07-03 18:05:28		0	0	0	0	0	0	2.87	1.09	0.02	140425	0	2902	95608	140425	137523	1533	74	223	21	91355	3187545	1851
116	2017-07-03 18:16:16		0	0	0	0	0	0	2.87	1.09	0.02	140505	0	2908	95608	140505	137597	1533	74	223	21	91355	3187568	1851
117	2017-07-03 18:26:41		0	0	0	0	0	0	2.87	1.09	0.02	140566	0	2910	95608	140566	137656	1534	74	223	21	91355	3187592	1852
118	2017-07-03 18:37:23		0	0	0	0	0	0	2.87	1.09	0.02	140614	0	2913	95643	140614	137701	1534	74	224	21	91387	3187606	1853
119	2017-07-03 18:47:56		0	0	0	0	0	0	2.87	1.09	0.02	140659	0	2916	95827	140659	137743	1534	74	224	21	91555	3187631	1853
120	2017-07-03 18:58:50		0	0	0	0	0	0	2.88	1.09	0.02	140717	0	2918	95945	140717	137799	1534	74	224	21	91663	3187643	1853
121	2017-07-03 19:09:35		0	0	0	0	0	0	2.88	1.09	0.02	140763	0	2921	95945	140763	137842	1535	74	224	21	91663	3187666	1854
122	2017-07-03 19:20:28		0	0	0	0	0	0	2.88	1.09	0.02	140816	0	2923	95945	140816	137893	1536	74	224	21	91663	3187690	1855
123	2017-07-03 20:05:08		0	0	0	0	0	0	2.88	1.09	0.02	141050	0	2934	96041	141050	138116	1539	74	225	21	91750	3187802	1859
124	2017-07-03 20:52:21		0	0	0	0	0	0	2.88	1.09	0.02	141246	0	2941	96064	141246	138305	1541	74	226	21	91772	3187907	1862
125	2017-07-04 00:08:50		0	0	0	0	0	0	0	0	0	0	0	0	0	0	0	0	74	0	0	0	0	0
126	2017-07-04 06:44:03		0	0	0	0	0	0	2.88	1.09	0.02	142136	0	2981	96166	142136	139155	1552	74	226	21	91826	3188654	1873
127	2017-07-04 09:09:36		0	0	0	0	0	0	2.88	1.09	0.02	142282	0	2991	96202	142282	139291	1556	74	226	21	91859	3188950	1877
128	2017-07-04 09:20:07		0	0	0	0	0	0	2.88	1.09	0.02	142290	0	2993	96202	142290	139297	1556	74	226	21	91859	3188970	1877
129	2017-07-04 09:30:58		0	0	0	0	0	0	2.88	1.09	0.02	142309	0	2995	96202	142309	139314	1556	74	226	21	91859	3189000	1877
130	2017-07-04 09:41:33		0	0	0	0	0	0	2.88	1.09	0.02	142319	0	2995	96202	142319	139324	1556	74	226	21	91859	3189038	1877
131	2017-07-04 10:31:31		0	0	0	0	0	0	2.88	1.09	0.02	142356	0	2996	96202	142356	139360	1556	74	226	21	91859	3189189	1877
132	2017-07-04 10:41:33		0	0	0	0	0	0	2.88	1.09	0.02	142365	0	2996	96250	142365	139369	1556	74	226	21	91903	3189212	1877
133	2017-07-04 10:51:31		0	0	0	0	0	0	2.88	1.09	0.02	142375	0	2996	96250	142375	139379	1556	74	226	21	91903	3189246	1877
134	2017-07-04 11:01:32		0	0	0	0	0	0	2.88	1.09	0.02	142388	0	2996	96250	142388	139392	1556	74	226	21	91903	3189266	1877
135	2017-07-04 11:11:30		0	0	0	0	0	0	2.88	1.09	0.02	142393	0	2997	96250	142393	139396	1556	74	226	21	91903	3189282	1877
136	2017-07-04 11:21:32		0	0	0	0	0	0	2.88	1.09	0.02	142406	0	2997	96250	142406	139409	1557	74	226	21	91903	3189317	1878
137	2017-07-04 11:31:42		0	0	0	0	0	0	2.88	1.09	0.02	142411	0	2998	96250	142411	139413	1557	74	226	21	91903	3189342	1878
138	2017-07-04 11:41:32		0	0	0	0	0	0	2.88	1.09	0.02	142428	0	2998	96250	142428	139430	1557	74	226	21	91903	3189372	1878
139	2017-07-04 11:51:36		0	0	0	0	0	0	2.88	1.09	0.02	142438	0	2998	96250	142438	139440	1557	74	226	21	91903	3189412	1878
140	2017-07-04 12:01:37		0	0	0	0	0	0	2.88	1.09	0.02	142453	0	2998	96250	142453	139455	1558	74	226	21	91903	3189446	1879
141	2017-07-04 12:11:47		0	0	0	0	0	0	2.88	1.09	0.02	142459	0	2998	96250	142459	139461	1559	74	226	21	91903	3189478	1880
142	2017-07-04 12:21:44		0	0	0	0	0	0	2.88	1.09	0.02	142465	0	2999	96250	142465	139466	1559	74	226	21	91903	3189496	1880
143	2017-07-04 12:31:41		0	0	0	0	0	0	2.88	1.09	0.02	142477	0	2999	96250	142477	139478	1559	74	226	21	91903	3189529	1880
144	2017-07-04 12:41:38		0	0	0	0	0	0	2.88	1.09	0.02	142484	0	2999	96250	142484	139485	1559	74	226	21	91903	3189553	1880
145	2017-07-04 12:51:34		0	0	0	0	0	0	2.88	1.09	0.02	142492	0	2999	96250	142492	139493	1559	74	226	21	91903	3189580	1880
146	2017-07-04 13:01:34		0	0	0	0	0	0	2.88	1.09	0.02	142502	0	2999	96250	142502	139503	1559	74	226	21	91903	3189609	1880
147	2017-07-04 13:11:34		0	0	0	0	0	0	2.88	1.09	0.02	142511	0	2999	96250	142511	139512	1559	74	226	21	91903	3189637	1880
148	2017-07-04 13:21:34		0	0	0	0	0	0	2.88	1.09	0.02	142522	0	2999	96250	142522	139523	1559	74	226	21	91903	3189676	1880
149	2017-07-04 13:31:34		0	0	0	0	0	0	2.88	1.09	0.02	142533	0	3002	96250	142533	139531	1559	74	226	21	91903	3189712	1880
150	2017-07-04 13:41:35		0	0	0	0	0	0	2.88	1.09	0.02	142544	0	3002	96250	142544	139542	1559	74	226	21	91903	3189749	1880
151	2017-07-04 13:51:35		0	0	0	0	0	0	2.88	1.09	0.02	142555	0	3002	96250	142555	139553	1559	74	226	21	91903	3189767	1880
152	2017-07-04 14:01:36		0	0	0	0	0	0	2.88	1.09	0.02	142562	0	3002	96250	142562	139560	1560	74	226	21	91903	3189804	1881
153	2017-07-04 14:11:35		0	0	0	0	0	0	2.88	1.09	0.02	142582	0	3002	96250	142582	139580	1560	74	226	21	91903	3189834	1881
154	2017-07-04 14:21:35		0	0	0	0	0	0	2.88	1.09	0.02	142591	0	3002	96250	142591	139589	1560	74	226	21	91903	3189867	1881
155	2017-07-04 14:31:34		0	0	0	0	0	0	2.88	1.09	0.02	142604	0	3003	96250	142604	139601	1560	74	226	21	91903	3189896	1881
156	2017-07-04 14:41:36		0	0	0	0	0	0	2.88	1.09	0.02	142616	0	3004	96250	142616	139612	1560	74	226	21	91903	3189931	1881
157	2017-07-04 14:51:34		0	0	0	0	0	0	2.88	1.09	0.02	142632	0	3005	96250	142632	139627	1560	74	226	21	91903	3189965	1881
158	2017-07-04 15:01:40		0	0	0	0	0	0	2.88	1.1	0.02	142648	0	3005	96250	142648	139643	1562	74	226	21	91903	3189993	1883
159	2017-07-04 15:11:43		0	0	0	0	0	0	2.88	1.09	0.02	142653	0	3005	96250	142653	139648	1562	74	226	21	91903	3190029	1883
160	2017-07-04 15:21:48		0	0	0	0	0	0	2.88	1.09	0.02	142663	0	3007	96297	142663	139656	1562	74	226	21	91903	3190077	1883
161	2017-07-04 15:31:43		0	0	0	0	0	0	2.88	1.09	0.02	142667	0	3007	96297	142667	139660	1562	74	226	21	91903	3190120	1883
162	2017-07-04 15:41:39		0	0	0	0	0	0	2.88	1.09	0.02	142677	0	3007	96297	142677	139670	1562	74	226	21	91903	3190164	1883
163	2017-07-04 15:51:39		0	0	0	0	0	0	2.88	1.09	0.02	142682	0	3007	96297	142682	139675	1562	74	226	21	91903	3190197	1883
164	2017-07-04 16:01:36		0	0	0	0	0	0	2.88	1.09	0.02	142690	0	3007	96345	142690	139683	1562	74	226	21	91903	3190240	1883
165	2017-07-04 16:11:36		0	0	0	0	0	0	2.88	1.09	0.02	142700	0	3007	96345	142700	139693	1562	74	226	21	91903	3190288	1883
166	2017-07-04 16:21:37		0	0	0	0	0	0	2.88	1.09	0.02	142715	0	3008	96345	142715	139707	1562	74	226	21	91903	3190321	1883
167	2017-07-04 16:31:38		0	0	0	0	0	0	2.88	1.09	0.02	142725	0	3009	96345	142725	139716	1562	74	226	21	91903	3190356	1883
168	2017-07-04 16:41:38		0	0	0	0	0	0	2.88	1.09	0.02	142735	0	3010	96345	142735	139725	1562	74	226	21	91903	3190397	1883
169	2017-07-04 16:51:37		0	0	0	0	0	0	2.88	1.09	0.02	142744	0	3011	96345	142744	139733	1562	74	226	21	91903	3190436	1883
170	2017-07-04 17:01:40		0	0	0	0	0	0	2.88	1.09	0.02	142756	0	3012	96345	142756	139744	1562	74	226	21	91903	3190473	1883
171	2017-07-04 17:11:39		0	0	0	0	0	0	2.88	1.09	0.02	142771	0	3012	96345	142771	139759	1562	74	226	21	91903	3190511	1883
172	2017-07-04 17:21:41		0	0	0	0	0	0	2.88	1.09	0.02	142780	0	3012	96345	142780	139768	1562	74	226	21	91903	3190553	1883
173	2017-07-04 17:31:53		0	0	0	0	0	0	2.88	1.09	0.02	142790	0	3012	96490	142790	139778	1562	74	226	21	92034	3190596	1883
174	2017-07-04 17:41:54		0	0	0	0	0	0	2.89	1.09	0.02	142805	0	3012	96526	142805	139793	1562	74	226	21	92067	3190650	1883
175	2017-07-04 17:51:49		0	0	0	0	0	0	2.89	1.09	0.02	142817	0	3012	96526	142817	139805	1562	74	226	21	92067	3190691	1883
176	2017-07-04 18:01:42		0	0	0	0	0	0	2.89	1.09	0.02	142831	0	3012	96526	142831	139819	1562	74	226	21	92067	3190739	1883
177	2017-07-04 18:11:38		0	0	0	0	0	0	2.89	1.09	0.02	142850	0	3012	96526	142850	139838	1562	74	226	21	92067	3190792	1883
178	2017-07-04 18:21:40		0	0	0	0	0	0	2.89	1.09	0.02	142854	0	3013	96526	142854	139841	1562	74	226	21	92067	3190839	1883
179	2017-07-04 18:31:41		0	0	0	0	0	0	2.89	1.09	0.02	142867	0	3013	96526	142867	139854	1562	74	226	21	92067	3190879	1883
180	2017-07-04 18:41:41		0	0	0	0	0	0	2.89	1.09	0.02	142881	0	3013	96526	142881	139868	1562	74	226	21	92067	3190919	1883
181	2017-07-04 18:51:42		0	0	0	0	0	0	2.89	1.09	0.02	142896	0	3013	96526	142896	139883	1562	74	226	21	92067	3190971	1883
182	2017-07-04 19:01:42		0	0	0	0	0	0	2.89	1.09	0.02	142902	0	3013	96526	142902	139889	1562	74	226	21	92067	3191011	1883
183	2017-07-04 19:11:40		0	0	0	0	0	0	2.89	1.09	0.02	142912	0	3013	96526	142912	139899	1563	74	226	21	92067	3191052	1884
184	2017-07-04 19:21:43		0	0	0	0	0	0	2.89	1.09	0.02	142925	0	3013	96526	142925	139912	1563	74	227	21	92067	3191110	1885
185	2017-07-04 19:31:49		0	0	0	0	0	0	2.89	1.09	0.02	142937	0	3013	96526	142937	139924	1563	74	227	21	92067	3191174	1885
186	2017-07-04 19:41:52		0	0	0	0	0	0	2.89	1.09	0.02	142944	0	3013	96526	142944	139931	1563	74	227	21	92067	3191221	1885
187	2017-07-04 19:52:03		0	0	0	0	0	0	2.88	1.09	0.02	142950	0	3013	96526	142950	139937	1563	74	227	21	92067	3191265	1885
188	2017-07-04 20:01:52		0	0	0	0	0	0	2.88	1.09	0.02	142958	0	3013	96526	142958	139945	1563	74	227	21	92067	3191318	1885
189	2017-07-04 20:11:47		0	0	0	0	0	0	2.88	1.09	0.02	142969	0	3014	96526	142969	139955	1563	74	227	21	92067	3191377	1885
190	2017-07-04 20:21:43		0	0	0	0	0	0	2.88	1.09	0.02	142981	0	3014	96526	142981	139967	1563	74	227	21	92067	3191429	1885
191	2017-07-04 20:31:43		0	0	0	0	0	0	2.88	1.09	0.02	142997	0	3014	96526	142997	139983	1563	74	227	21	92067	3191471	1885
192	2017-07-04 20:41:42		0	0	0	0	0	0	2.88	1.09	0.02	143005	0	3014	96526	143005	139991	1563	74	227	21	92067	3191530	1885
193	2017-07-04 20:51:40		0	0	0	0	0	0	2.88	1.09	0.02	143019	0	3014	96526	143019	140005	1563	74	227	21	92067	3191581	1885
194	2017-07-04 21:01:44		0	0	0	0	0	0	2.88	1.09	0.02	143033	0	3014	96526	143033	140019	1563	74	227	21	92067	3191634	1885
195	2017-07-04 21:11:46		0	0	0	0	0	0	2.88	1.09	0.02	143038	0	3014	96526	143038	140024	1563	74	227	21	92067	3191690	1885
196	2017-07-04 21:21:57		0	0	0	0	0	0	2.88	1.09	0.02	143048	0	3014	96526	143048	140034	1563	74	227	21	92067	3191755	1885
197	2017-07-04 21:32:05		0	0	0	0	0	0	2.88	1.09	0.02	143059	0	3014	96526	143059	140045	1563	74	227	21	92067	3191835	1885
198	2017-07-04 21:42:15		0	0	0	0	0	0	2.89	1.09	0.02	143076	0	3016	96622	143076	140060	1563	74	227	21	92154	3191890	1885
199	2017-07-04 21:51:52		0	0	0	0	0	0	2.89	1.09	0.02	143096	0	3017	96622	143096	140079	1563	74	227	21	92154	3191953	1885
200	2017-07-04 22:01:51		0	0	0	0	0	0	2.89	1.09	0.02	143107	0	3017	96622	143107	140090	1564	74	227	21	92154	3192010	1886
201	2017-07-04 22:12:01		0	0	0	0	0	0	2.89	1.09	0.02	143113	0	3017	96622	143113	140096	1564	74	227	21	92154	3192077	1886
202	2017-07-04 22:21:53		0	0	0	0	0	0	2.89	1.09	0.02	143125	0	3017	96622	143125	140108	1564	74	227	21	92154	3192129	1886
203	2017-07-04 22:31:53		0	0	0	0	0	0	2.89	1.09	0.02	143131	0	3018	96622	143131	140113	1564	74	227	21	92154	3192208	1886
204	2017-07-04 22:41:59		0	0	0	0	0	0	2.89	1.09	0.02	143143	0	3018	96622	143143	140125	1564	74	227	21	92154	3192284	1886
205	2017-07-04 22:51:52		0	0	0	0	0	0	2.89	1.09	0.02	143150	0	3018	96622	143150	140132	1564	74	227	21	92154	3192355	1886
206	2017-07-04 23:02:06		0	0	0	0	0	0	2.89	1.09	0.02	143164	0	3018	96815	143164	140146	1565	74	227	21	92330	3192417	1887
207	2017-07-04 23:11:51		0	0	0	0	0	0	2.89	1.09	0.02	143175	0	3019	96815	143175	140156	1565	74	227	21	92330	3192502	1887
208	2017-07-04 23:21:54		0	0	0	0	0	0	2.89	1.09	0.02	143181	0	3019	96815	143181	140162	1565	74	227	21	92330	3192568	1887
209	2017-07-04 23:32:12		0	0	0	0	0	0	2.89	1.09	0.02	143191	0	3019	96815	143191	140172	1565	74	227	21	92330	3192649	1887
210	2017-07-04 23:42:13		0	0	0	0	0	0	2.89	1.09	0.02	143197	0	3020	96815	143197	140177	1565	74	227	21	92330	3192720	1887
211	2017-07-04 23:52:12		0	0	0	0	0	0	2.89	1.09	0.02	143205	0	3020	96815	143205	140185	1565	74	227	21	92330	3192759	1887
212	2017-07-05 00:02:33		0	0	0	0	0	0	2.89	1.09	0.02	143211	0	3020	96858	143211	140191	1565	74	227	21	92369	3192793	1887
213	2017-07-05 01:01:54		0	0	0	0	0	0	2.89	1.09	0.02	143237	0	3021	96858	143237	140216	1566	74	228	21	92369	3193223	1889
214	2017-07-05 02:02:01		0	0	0	0	0	0	2.89	1.09	0.02	143257	0	3025	96858	143257	140232	1567	74	228	21	92369	3193377	1890
215	2017-07-05 03:01:54		0	0	0	0	0	0	2.89	1.09	0.02	143261	0	3025	96858	143261	140236	1567	74	228	21	92369	3193438	1890
216	2017-07-05 04:01:56		0	0	0	0	0	0	2.89	1.09	0.02	143268	0	3026	96858	143268	140242	1567	74	228	21	92369	3193477	1890
217	2017-07-05 05:02:12		0	0	0	0	0	0	2.89	1.09	0.02	143268	0	3026	96858	143268	140242	1567	74	228	21	92369	3193497	1890
218	2017-07-05 06:03:22		0	0	0	0	0	0	2.89	1.09	0.02	143274	0	3026	96858	143274	140248	1567	74	228	21	92369	3193538	1890
219	2017-07-05 07:03:34		0	0	0	0	0	0	2.89	1.09	0.02	143286	0	3027	96858	143286	140259	1567	74	228	21	92369	3193627	1890
220	2017-07-05 07:16:13		0	0	0	0	0	0	2.89	1.09	0.02	143289	0	3027	96858	143289	140262	1567	74	228	21	92369	3193655	1890
221	2017-07-05 07:29:12		0	0	0	0	0	0	2.89	1.09	0.02	143293	0	3027	96858	143293	140266	1567	74	228	21	92369	3193685	1890
222	2017-07-05 07:38:33		0	0	0	0	0	0	2.89	1.09	0.02	143296	0	3027	96858	143296	140269	1567	74	228	21	92369	3193705	1890
223	2017-07-05 07:49:23		0	0	0	0	0	0	2.89	1.09	0.02	143303	0	3028	96858	143303	140275	1567	74	228	21	92369	3193735	1890
224	2017-07-05 08:01:10		0	0	0	0	0	0	2.89	1.09	0.02	143303	0	3028	96858	143303	140275	1567	74	228	21	92369	3193770	1890
225	2017-07-05 08:15:43		0	0	0	0	0	0	2.89	1.09	0.02	143306	0	3029	96858	143306	140277	1567	74	228	21	92369	3193837	1890
226	2017-07-05 08:25:57		0	0	0	0	0	0	2.89	1.09	0.02	143312	0	3029	96858	143312	140283	1567	74	228	21	92369	3193868	1890
227	2017-07-05 08:36:09		0	0	0	0	0	0	2.89	1.09	0.02	143318	0	3029	96955	143318	140289	1567	74	228	21	92457	3193901	1890
228	2017-07-05 08:46:10		0	0	0	0	0	0	2.89	1.09	0.02	143324	0	3029	96955	143324	140295	1567	74	228	21	92457	3193957	1890
229	2017-07-05 09:00:25		0	0	0	0	0	0	2.89	1.09	0.02	143329	0	3029	96955	143329	140300	1567	74	228	21	92457	3194028	1890
230	2017-07-05 09:23:54		0	0	0	0	0	0	2.89	1.09	0.02	143340	0	3029	96955	143340	140311	1567	74	228	21	92457	3194162	1890
231	2017-07-05 09:38:19		0	0	0	0	0	0	2.89	1.09	0.02	143350	0	3029	96955	143350	140321	1567	74	228	21	92457	3194257	1890
232	2017-07-05 09:48:12		0	0	0	0	0	0	2.9	1.09	0.02	143357	0	3029	97003	143357	140328	1567	74	228	21	92501	3194344	1890
233	2017-07-05 09:58:21		0	0	0	0	0	0	2.9	1.09	0.02	143362	0	3029	97003	143362	140333	1567	74	229	21	92501	3194425	1891
234	2017-07-05 10:25:57		0	0	0	0	0	0	2.9	1.09	0.02	143387	0	3030	97028	143387	140357	1567	74	229	21	92523	3194583	1891
235	2017-07-05 10:49:16		0	0	0	0	0	0	2.9	1.09	0.02	143401	0	3032	97028	143401	140369	1567	74	229	21	92523	3194744	1891
236	2017-07-05 10:58:55		0	0	0	0	0	0	2.9	1.09	0.02	143407	0	3032	97028	143407	140375	1567	74	229	21	92523	3194800	1891
