1	2017-11-24 16:53:20		0	0	0	0	0	0	0	0	0	0	0	0	0	0	0	0	0	0	0	0	3466900	0
2	2017-11-24 17:03:45		0	0	0	0	0	0	0.27	0.29	0.01	10421	0	61	9607	10421	10360	30	18	48	6	9462	3466901	102
3	2017-11-24 17:14:15		0	0	0	0	0	0	0.55	0.55	0.01	21611	0	267	19331	21611	21344	118	34	71	9	18989	3466913	232
4	2017-11-24 17:24:45		0	0	0	0	0	0	0.76	0.47	0.02	32027	0	669	27082	32027	31358	152	50	94	10	26281	3466918	306
5	2017-11-24 17:35:18		0	0	0	0	0	0	0.84	0.48	0.03	37285	0	945	30076	37285	36340	178	58	107	12	29132	3466923	355
6	2017-11-24 17:45:48		0	0	0	0	0	0	0.92	0.5	0.03	41616	0	1207	32939	41616	40409	208	69	115	14	31962	3466926	406
7	2017-11-24 17:56:15		0	0	0	0	0	0	1.01	0.51	0.03	45809	0	1547	36403	45809	44262	234	75	122	14	35018	3466941	445
8	2017-11-24 18:06:47		0	0	0	0	0	0	1.09	0.54	0.04	49383	0	1809	39731	49383	47574	267	81	132	14	37942	3466947	494
9	2017-11-24 18:17:14		0	0	0	0	0	0	1.17	0.55	0.04	52550	0	2054	42282	52550	50496	290	83	144	15	40439	3466964	532
10	2017-11-24 18:28:10		0	0	0	0	0	0	1.23	0.58	0.04	55689	0	2295	44238	55689	53394	322	86	155	15	42553	3466973	578
11	2017-11-24 18:38:17		0	0	0	0	0	0	1.28	0.59	0.04	58654	0	2506	46182	58654	56148	348	89	163	15	44264	3466985	615
12	2017-11-24 18:48:51		0	0	0	0	0	0	1.33	0.6	0.05	61592	0	2730	48247	61592	58862	371	97	169	15	46097	3466988	652
13	2017-11-24 18:59:17		0	0	0	0	0	0	1.38	0.61	0.05	64430	0	2932	50439	64430	61498	395	99	177	15	47944	3466995	686
14	2017-11-24 19:09:49		0	0	0	0	0	0	1.45	0.62	0.05	67939	0	3336	52587	67939	64603	424	105	181	15	50117	3467004	725
15	2017-11-24 19:20:26		0	0	0	0	0	0	1.48	0.64	0.05	70000	0	3522	53832	70000	66478	447	106	185	15	51152	3467010	753
16	2017-11-24 19:31:27		0	0	0	0	0	0	1.51	0.64	0.05	72224	0	3749	55103	72224	68475	462	109	190	15	52258	3467026	776
17	2017-11-24 19:41:21		0	0	0	0	0	0	1.53	0.65	0.06	74290	0	3975	56018	74290	70315	484	112	194	16	53175	3467045	806
18	2017-11-24 19:52:31		0	0	0	0	0	0	1.57	0.66	0.06	76337	0	4216	57479	76337	72121	503	114	196	16	54277	3467059	829
19	2017-11-24 20:02:45		0	0	0	0	0	0	1.61	0.66	0.06	78308	0	4460	59043	78308	73848	518	115	198	16	55669	3467078	847
20	2017-11-24 20:13:08		0	0	0	0	0	0	1.63	0.66	0.06	79940	0	4652	59909	79940	75288	526	115	202	16	56418	3467097	859
21	2017-11-24 20:23:54		0	0	0	0	0	0	1.66	0.66	0.06	81501	0	4845	61029	81501	76656	539	118	211	18	57597	3467117	886
22	2017-11-24 20:34:24		0	0	0	0	0	0	1.7	0.66	0.06	83058	0	5037	62484	83058	78021	551	119	218	18	58843	3467131	906
23	2017-11-24 20:45:27		0	0	0	0	0	0	1.73	0.67	0.07	85458	0	5316	63662	85458	80142	572	120	223	18	59938	3467136	933
24	2017-11-24 20:55:52		0	0	0	0	0	0	1.77	0.66	0.07	87480	0	5526	65115	87480	81954	580	123	230	18	61234	3467147	951
25	2017-11-24 21:06:17		0	0	0	0	0	0	1.82	0.66	0.07	89785	0	5729	67179	89785	84056	590	126	237	18	62968	3467163	971
26	2017-11-24 21:17:09		0	0	0	0	0	0	1.86	0.65	0.07	91955	0	5900	68970	91955	86055	602	131	246	18	64368	3467184	997
27	2017-11-24 21:28:04		0	0	0	0	0	0	1.91	0.65	0.07	94142	0	6109	71078	94142	88033	610	133	256	18	66104	3467203	1017
28	2017-11-24 21:38:28		0	0	0	0	0	0	1.94	0.65	0.07	96144	0	6242	72212	96144	89902	625	133	258	18	67200	3467232	1034
29	2017-11-24 21:48:47		0	0	0	0	0	0	2	0.64	0.07	98103	0	6396	74468	98103	91707	629	138	261	18	69491	3467253	1046
30	2017-11-24 21:59:22		0	0	0	0	0	0	2.06	0.64	0.07	100226	0	6651	77030	100226	93575	639	143	263	19	71407	3467267	1064
31	2017-11-24 22:11:25		0	0	0	0	0	0	2.12	0.64	0.07	103031	0	7032	79411	103031	95999	656	144	268	19	73373	3467276	1087
32	2017-11-24 22:22:42		0	0	0	0	0	0	2.17	0.64	0.07	104999	0	7270	81190	104999	97729	668	148	272	19	75088	3467294	1107
33	2017-11-24 22:33:49		0	0	0	0	0	0	2.2	0.64	0.08	106788	0	7466	82459	106788	99322	681	150	274	19	76225	3467303	1124
34	2017-11-24 22:45:02		0	0	0	0	0	0	2.23	0.64	0.08	108488	0	7745	83701	108488	100821	692	153	281	21	77197	3467320	1147
35	2017-11-24 22:55:50		0	0	0	0	0	0	2.29	0.64	0.08	111111	0	7924	86149	111111	103187	706	155	286	21	79371	3467339	1168
36	2017-11-24 23:08:15		0	0	0	0	0	0	2.32	0.63	0.08	112804	0	8104	87558	112804	104700	714	156	291	22	80608	3467355	1183
37	2017-11-24 23:17:03		0	0	0	0	0	0	2.35	0.64	0.08	114380	0	8234	88727	114380	106146	727	157	298	22	81517	3467352	1204
38	2017-11-24 23:33:29		0	0	0	0	0	0	2.4	0.63	0.08	116689	0	8426	90540	116689	108263	735	158	307	23	83053	3467380	1223
39	2017-11-24 23:47:02		0	0	0	0	0	0	2.43	0.63	0.08	119023	0	8618	91879	119023	110405	745	162	308	23	84142	3467394	1238
40	2017-11-25 00:54:52		0	0	0	0	0	0	2.57	0.62	0.08	126227	0	9304	97142	126227	116923	783	169	322	23	89003	3467451	1297
41	2017-11-25 02:04:00		0	0	0	0	0	0	2.64	0.61	0.08	130223	0	9687	99775	130223	120536	796	174	330	24	91633	3467495	1324
42	2017-11-25 03:14:16		0	0	0	0	0	0	2.69	0.61	0.08	132227	0	9899	101785	132227	122328	805	174	334	24	93308	3467509	1337
43	2017-11-25 04:13:43		0	0	0	0	0	0	2.72	0.61	0.08	133612	0	10036	102757	133612	123576	814	176	336	24	94308	3467527	1350
44	2017-11-25 05:21:49		0	0	0	0	0	0	2.73	0.61	0.08	134869	0	10154	103240	134869	124715	823	177	338	24	94761	3467529	1362
45	2017-11-25 06:29:19		0	0	0	0	0	0	2.78	0.61	0.08	136743	0	10327	104547	136743	126416	834	179	342	24	96375	3467542	1379
46	2017-11-25 07:20:11		0	0	0	0	0	0	2.82	0.61	0.08	139290	0	10599	106008	139290	128691	844	184	346	25	97664	3467560	1399
47	2017-11-25 07:32:17		0	0	0	0	0	0	2.85	0.61	0.08	140378	0	10731	107364	140378	129647	854	185	347	25	98763	3467567	1411
48	2017-11-25 07:42:25		0	0	0	0	0	0	2.87	0.61	0.08	141266	0	10828	108094	141266	130438	859	188	353	25	99483	3467577	1425
49	2017-11-25 07:56:27		0	0	0	0	0	0	2.9	0.61	0.08	142785	0	10977	109462	142785	131808	869	193	356	25	100575	3467597	1443
50	2017-11-25 08:09:43		0	0	0	0	0	0	2.92	0.61	0.08	143853	0	11099	110178	143853	132754	876	197	360	25	101216	3467618	1458
51	2017-11-25 08:26:20		0	0	0	0	0	0	2.93	0.62	0.08	144953	0	11263	110733	144953	133742	897	197	361	25	101574	3467638	1480
52	2017-11-25 08:36:50		0	0	0	0	0	0	3	0.61	0.08	147217	0	11413	113136	147217	135804	905	200	366	25	104067	3467648	1496
53	2017-11-25 08:54:21		0	0	0	0	0	0	3.05	0.62	0.08	149022	0	11600	114693	149022	137422	917	205	371	25	105627	3467662	1518
54	2017-11-25 09:15:29		0	0	0	0	0	0	3.09	0.62	0.09	151584	0	11906	116554	151584	139678	933	208	377	25	107087	3467666	1543
55	2017-11-25 09:37:25		0	0	0	0	0	0	3.16	0.62	0.09	154576	0	12235	119143	154576	142341	952	209	381	25	109531	3467670	1567
56	2017-11-25 10:02:10		0	0	0	0	0	0	3.19	0.61	0.09	156998	0	12479	120323	156998	144519	961	211	385	25	110733	3467674	1582
57	2017-11-25 10:08:36		0	0	0	0	0	0	3.21	0.61	0.09	158142	0	12624	120875	158142	145518	968	213	391	25	111168	3467683	1597
58	2017-11-25 10:39:11		0	0	0	0	0	0	3.27	0.61	0.09	161416	0	12997	123222	161416	148419	989	217	401	26	113283	3467690	1633
59	2017-11-25 10:51:12		0	0	0	0	0	0	3.29	0.61	0.09	163074	0	13215	124159	163074	149366	998	219	403	26	114108	3467703	1646
60	2017-11-25 11:09:12		0	0	0	0	0	0	3.31	0.62	0.09	164504	0	13428	124850	164504	151076	1013	222	410	26	114653	3467719	1671
61	2017-11-25 11:25:08		0	0	0	0	0	0	3.34	0.62	0.09	166175	0	13625	126338	166175	152550	1027	225	415	27	115993	3467725	1694
62	2017-11-25 11:34:05		0	0	0	0	0	0	3.37	0.62	0.09	167173	0	13765	127356	167173	153408	1035	227	417	27	116728	3467727	1706
63	2017-11-25 12:02:38		0	0	0	0	0	0	3.44	0.62	0.09	170363	0	14220	130430	170363	156143	1059	233	424	28	119305	3467741	1744
64	2017-11-25 12:11:38		0	0	0	0	0	0	3.44	0.62	0.09	170893	0	14368	130650	170893	156588	1064	233	427	28	119342	3467744	1752
65	2017-11-25 12:29:27		0	0	0	0	0	0	3.49	0.62	0.09	172942	0	14608	132774	172942	158334	1075	238	432	28	121178	3467755	1773
66	2017-11-25 12:56:31		0	0	0	0	0	0	3.52	0.62	0.09	174955	0	14912	133948	174955	160043	1085	241	437	28	122068	3467764	1791
67	2017-11-25 13:05:05		0	0	0	0	0	0	3.55	0.62	0.09	176426	0	15141	134851	176426	161285	1092	242	442	28	123013	3467759	1804
68	2017-11-25 13:31:40		0	0	0	0	0	0	3.57	0.62	0.1	179088	0	15547	136100	179088	163541	1110	245	450	29	123759	3467777	1834
69	2017-11-25 14:21:53		0	0	0	0	0	0	3.66	0.62	0.1	183014	0	16175	139774	183014	166839	1137	252	462	29	126977	3467800	1880
70	2017-11-25 14:33:01		0	0	0	0	0	0	3.69	0.62	0.1	184318	0	16359	140765	184318	167959	1145	252	463	29	127958	3467807	1889
71	2017-11-25 14:48:24		0	0	0	0	0	0	3.72	0.62	0.1	185686	0	16534	141979	185686	169152	1156	254	469	29	128853	3467811	1908
72	2017-11-25 15:26:33		0	0	0	0	0	0	3.76	0.62	0.1	188560	0	17013	143630	188560	171547	1177	257	477	29	130486	3467825	1940
73	2017-11-25 15:45:27		0	0	0	0	0	0	3.77	0.62	0.1	190493	0	17267	144179	190493	173226	1186	260	483	29	130883	3467837	1958
74	2017-11-25 16:03:14		0	0	0	0	0	0	3.8	0.62	0.1	191582	0	17424	145009	191582	174158	1194	262	485	29	131656	3467844	1970
75	2017-11-25 16:42:43		0	0	0	0	0	0	3.82	0.62	0.1	193495	0	17677	145918	193495	175818	1207	262	491	29	132496	3467852	1989
76	2017-11-25 16:56:48		0	0	0	0	0	0	3.9	0.62	0.1	197859	0	18319	148541	197859	179540	1233	270	499	30	135373	3467878	2032
77	2017-11-25 17:06:01		0	0	0	0	0	0	3.93	0.62	0.1	198901	0	18476	150723	198901	180425	1242	271	501	30	136122	3467871	2044
78	2017-11-25 17:40:23		0	0	0	0	0	0	3.97	0.62	0.1	201261	0	18883	152248	201261	182378	1256	273	509	30	137682	3467887	2068
79	2017-11-25 17:50:02		0	0	0	0	0	0	3.98	0.62	0.1	201881	0	19012	152548	201881	182869	1258	276	510	30	138124	3467888	2074
80	2017-11-25 19:12:21		0	0	0	0	0	0	4.05	0.62	0.11	206086	0	20027	155587	206086	186059	1283	280	521	31	140375	3467932	2115
81	2017-11-25 19:25:57		0	0	0	0	0	0	4.06	0.62	0.11	206798	0	20196	156620	206798	186602	1288	284	522	31	140798	3467937	2125
82	2017-11-25 20:10:13		0	0	0	0	0	0	4.08	0.62	0.11	208789	0	20702	158002	208789	188087	1303	287	528	32	141616	3467958	2150
83	2017-11-25 20:19:02		0	0	0	0	0	0	4.08	0.63	0.11	209211	0	20811	158463	209211	188400	1309	288	529	32	141655	3467967	2158
84	2017-11-25 21:32:45		0	0	0	0	0	0	4.12	0.63	0.11	212406	0	21737	160604	212406	190669	1330	293	533	33	143009	3467998	2189
85	2017-11-25 21:43:09		0	0	0	0	0	0	4.13	0.63	0.11	212789	0	21816	160725	212789	190973	1334	294	536	33	143105	3468005	2197
86	2017-11-25 21:57:32		0	0	0	0	0	0	4.13	0.63	0.11	213227	0	21934	160725	213227	191293	1337	296	537	33	143105	3468003	2203
87	2017-11-25 22:27:39		0	0	0	0	0	0	4.14	0.63	0.12	214604	0	22338	161446	214604	192266	1351	298	540	33	143423	3468008	2222
88	2017-11-25 22:38:11		0	0	0	0	0	0	4.14	0.63	0.12	214982	0	22450	161648	214982	192532	1352	298	541	34	143582	3468021	2225
89	2017-11-25 22:50:25		0	0	0	0	0	0	4.14	0.63	0.12	215308	0	22529	161817	215308	192779	1354	298	542	34	143716	3468030	2228
90	2017-11-25 23:42:55		0	0	0	0	0	0	4.15	0.63	0.12	217029	0	22986	162356	217029	194043	1372	299	545	34	144033	3468068	2250
91	2017-11-26 00:00:35		0	0	0	0	0	0	4.17	0.63	0.12	217420	0	23093	162924	217420	194327	1374	299	546	35	144480	3468069	2254
92	2017-11-26 00:49:36		0	0	0	0	0	0	4.19	0.63	0.12	218514	0	23372	164052	218514	195142	1381	300	550	35	145353	3468092	2266
93	2017-11-26 01:54:46		0	0	0	0	0	0	4.21	0.64	0.12	219378	0	23608	164838	219378	195770	1394	301	556	35	145998	3468132	2286
94	2017-11-26 03:21:32		0	0	0	0	0	0	4.21	0.64	0.12	220056	0	23803	165171	220056	196253	1398	303	557	35	146011	3468149	2293
95	2017-11-26 04:33:36		0	0	0	0	0	0	4.22	0.64	0.12	220358	0	23896	165293	220358	196462	1401	304	560	35	146216	3468149	2300
96	2017-11-26 05:39:44		0	0	0	0	0	0	4.22	0.64	0.12	220563	0	23974	165324	220563	196589	1405	304	561	35	146241	3468146	2305
97	2017-11-26 06:44:49		0	0	0	0	0	0	4.22	0.64	0.12	220760	0	24057	165456	220760	196703	1408	304	562	35	146241	3468156	2309
98	2017-11-26 07:21:33		0	0	0	0	0	0	4.22	0.64	0.12	220916	0	24131	165456	220916	196785	1409	304	564	35	146241	3468163	2312
99	2017-11-26 07:33:40		0	0	0	0	0	0	4.22	0.64	0.12	221013	0	24171	165456	221013	196842	1411	304	564	35	146241	3468164	2314
100	2017-11-26 07:49:33		0	0	0	0	0	0	4.22	0.64	0.12	221115	0	24203	165491	221115	196912	1411	304	564	35	146268	3468167	2314
101	2017-11-26 08:05:26		0	0	0	0	0	0	4.22	0.64	0.12	221246	0	24246	165509	221246	197000	1412	304	564	35	146282	3468169	2315
102	2017-11-26 08:22:03		0	0	0	0	0	0	4.22	0.64	0.12	221375	0	24292	165509	221375	197083	1414	304	565	35	146282	3468173	2318
103	2017-11-26 17:03:12		0	0	0	0	0	0	4.25	0.64	0.13	225054	0	25809	167542	225054	199245	1451	306	580	35	147424	3468346	2372
104	2017-11-26 17:13:39		0	0	0	0	0	0	4.25	0.64	0.13	225133	0	25844	167542	225133	199289	1451	306	580	35	147424	3468352	2372
105	2017-11-26 17:14:01		0	0	0	0	0	0	4.25	0.64	0.13	225133	0	25844	167542	225133	199289	1451	306	580	35	147424	3468353	2372
106	2017-11-26 17:24:27		0	0	0	0	0	0	4.25	0.65	0.13	225183	0	25861	167651	225183	199322	1453	306	580	35	147508	3468358	2374
107	2017-11-26 17:34:57		0	0	0	0	0	0	4.25	0.65	0.13	225241	0	25882	167651	225241	199359	1453	306	580	35	147508	3468364	2374
108	2017-11-26 17:45:26		0	0	0	0	0	0	4.25	0.64	0.13	225302	0	25900	167651	225302	199402	1453	306	580	35	147508	3468360	2374
109	2017-11-26 17:56:03		0	0	0	0	0	0	4.25	0.64	0.13	225373	0	25925	167651	225373	199448	1453	306	581	35	147508	3468363	2375
110	2017-11-26 18:06:27		0	0	0	0	0	0	4.25	0.64	0.13	225442	0	25954	167651	225442	199488	1453	306	581	35	147508	3468370	2375
111	2017-11-26 18:16:57		0	0	0	0	0	0	4.25	0.64	0.13	225508	0	25987	167651	225508	199521	1453	306	581	35	147508	3468382	2375
112	2017-11-26 18:27:27		0	0	0	0	0	0	4.25	0.64	0.13	225587	0	26016	167651	225587	199571	1454	306	581	35	147508	3468393	2376
113	2017-11-26 18:37:59		0	0	0	0	0	0	4.25	0.65	0.13	225682	0	26043	167651	225682	199639	1456	306	581	35	147508	3468399	2378
114	2017-11-26 18:48:32		0	0	0	0	0	0	4.25	0.64	0.13	225744	0	26062	167651	225744	199682	1456	306	582	35	147508	3468405	2379
115	2017-11-26 18:58:57		0	0	0	0	0	0	4.25	0.64	0.13	225822	0	26095	167651	225822	199727	1456	306	582	35	147508	3468417	2379
116	2017-11-26 19:09:28		0	0	0	0	0	0	4.25	0.64	0.13	225903	0	26128	167651	225903	199775	1457	306	582	35	147508	3468420	2380
117	2017-11-26 19:19:58		0	0	0	0	0	0	4.25	0.65	0.13	225974	0	26145	167651	225974	199829	1458	306	582	35	147508	3468434	2381
118	2017-11-26 19:30:32		0	0	0	0	0	0	4.25	0.64	0.13	226057	0	26171	167651	226057	199886	1458	306	582	35	147522	3468449	2381
119	2017-11-26 19:41:04		0	0	0	0	0	0	4.25	0.64	0.13	226130	0	26202	167687	226130	199928	1458	306	582	35	147551	3468463	2381
120	2017-11-26 19:51:32		0	0	0	0	0	0	4.25	0.64	0.13	226205	0	26222	167687	226205	199983	1458	306	582	35	147551	3468474	2381
121	2017-11-26 20:02:01		0	0	0	0	0	0	4.25	0.64	0.13	226269	0	26247	167687	226269	200022	1458	306	582	35	147551	3468489	2381
122	2017-11-26 20:12:32		0	0	0	0	0	0	4.26	0.64	0.13	226345	0	26274	167741	226345	200071	1458	306	582	35	147593	3468499	2381
123	2017-11-26 20:23:01		0	0	0	0	0	0	4.26	0.64	0.13	226430	0	26302	167741	226430	200128	1458	306	582	35	147593	3468511	2381
124	2017-11-26 20:33:31		0	0	0	0	0	0	4.26	0.64	0.13	226519	0	26327	167741	226519	200192	1459	307	582	35	147593	3468523	2383
125	2017-11-26 20:44:02		0	0	0	0	0	0	4.26	0.64	0.13	226603	0	26361	167741	226603	200242	1460	307	583	35	147593	3468529	2385
126	2017-11-26 20:54:32		0	0	0	0	0	0	4.26	0.64	0.13	226689	0	26388	167741	226689	200301	1461	307	583	35	147593	3468537	2386
127	2017-11-26 21:05:02		0	0	0	0	0	0	4.26	0.64	0.13	226792	0	26424	167741	226792	200368	1461	307	583	35	147593	3468545	2386
128	2017-11-26 21:15:40		0	0	0	0	0	0	4.26	0.64	0.13	226876	0	26454	167814	226876	200422	1462	307	583	36	147649	3468547	2388
129	2017-11-26 21:26:02		0	0	0	0	0	0	4.26	0.64	0.13	226945	0	26477	167960	226945	200468	1462	307	583	36	147762	3468546	2388
130	2017-11-26 21:36:31		0	0	0	0	0	0	4.26	0.64	0.13	227001	0	26489	167960	227001	200512	1462	307	584	36	147762	3468550	2389
131	2017-11-26 21:47:01		0	0	0	0	0	0	4.26	0.64	0.13	227086	0	26520	167960	227086	200566	1462	307	584	36	147762	3468566	2389
132	2017-11-26 21:57:32		0	0	0	0	0	0	4.26	0.64	0.13	227169	0	26543	167960	227169	200626	1465	307	584	36	147762	3468577	2392
133	2017-11-26 22:08:01		0	0	0	0	0	0	4.27	0.64	0.13	227319	0	26568	168252	227319	200722	1465	308	584	36	148101	3468588	2393
134	2017-11-26 22:18:29		0	0	0	0	0	0	4.27	0.64	0.13	227428	0	26641	168325	227428	200787	1465	308	584	36	148101	3468606	2393
135	2017-11-26 22:29:01		0	0	0	0	0	0	4.27	0.64	0.13	227540	0	26684	168343	227540	200856	1465	308	584	36	148101	3468612	2393
136	2017-11-26 22:39:31		0	0	0	0	0	0	4.27	0.64	0.13	227629	0	26720	168343	227629	200909	1465	308	584	36	148101	3468632	2393
137	2017-11-26 22:50:04		0	0	0	0	0	0	4.27	0.64	0.13	227709	0	26749	168398	227709	200960	1465	308	584	36	148144	3468634	2393
138	2017-11-26 23:00:29		0	0	0	0	0	0	4.27	0.64	0.13	227788	0	26781	168469	227788	201007	1466	308	584	36	148199	3468649	2394
139	2017-11-26 23:11:00		0	0	0	0	0	0	4.27	0.64	0.13	227850	0	26799	168469	227850	201051	1467	308	584	36	148199	3468651	2395
140	2017-11-26 23:21:30		0	0	0	0	0	0	4.27	0.64	0.13	227919	0	26824	168469	227919	201095	1468	308	584	36	148199	3468662	2396
141	2017-11-26 23:32:01		0	0	0	0	0	0	4.27	0.64	0.13	227981	0	26845	168469	227981	201136	1468	308	585	36	148199	3468659	2397
142	2017-11-26 23:42:30		0	0	0	0	0	0	4.27	0.64	0.13	228050	0	26870	168469	228050	201180	1468	308	586	36	148199	3468668	2398
143	2017-11-26 23:53:00		0	0	0	0	0	0	4.28	0.64	0.13	228114	0	26889	168984	228114	201230	1468	308	586	36	148597	3468669	2398
144	2017-11-27 00:20:34		0	0	0	0	0	0	4.3	0.64	0.13	228254	0	26930	168984	228254	201324	1471	308	586	36	148997	3468677	2401
145	2017-11-27 01:25:32		0	0	0	0	0	0	4.3	0.64	0.13	228468	0	26998	169201	228468	201470	1472	310	586	36	149166	3468714	2404
146	2017-11-27 02:30:33		0	0	0	0	0	0	4.3	0.64	0.13	228554	0	27029	169201	228554	201525	1474	310	586	36	149166	3468728	2406
147	2017-11-27 03:35:37		0	0	0	0	0	0	4.3	0.64	0.13	228613	0	27042	169201	228613	201571	1474	311	586	36	149166	3468718	2407
148	2017-11-27 04:40:34		0	0	0	0	0	0	4.3	0.65	0.13	228662	0	27067	169201	228662	201595	1475	311	586	36	149166	3468719	2408
149	2017-11-27 05:45:34		0	0	0	0	0	0	4.3	0.64	0.13	228712	0	27091	169201	228712	201621	1475	311	586	36	149166	3468711	2408
150	2017-11-27 06:50:37		0	0	0	0	0	0	4.3	0.65	0.13	228797	0	27121	169201	228797	201676	1477	311	586	36	149166	3468711	2410
151	2017-11-27 07:13:42		0	0	0	0	0	0	4.3	0.65	0.13	228837	0	27138	169312	228837	201705	1477	311	586	36	149166	3468714	2410
152	2017-11-27 07:24:06		0	0	0	0	0	0	4.3	0.65	0.13	228879	0	27149	169312	228879	201730	1477	311	586	36	149166	3468712	2410
153	2017-11-27 07:34:39		0	0	0	0	0	0	4.3	0.65	0.13	228903	0	27158	169312	228903	201745	1477	311	586	36	149166	3468712	2410
154	2017-11-27 07:45:06		0	0	0	0	0	0	4.3	0.65	0.13	228936	0	27174	169312	228936	201762	1477	311	586	36	149166	3468717	2410
155	2017-11-27 07:55:37		0	0	0	0	0	0	4.3	0.65	0.13	228970	0	27185	169312	228970	201785	1477	311	586	36	149166	3468716	2410
156	2017-11-27 08:06:08		0	0	0	0	0	0	4.3	0.64	0.13	228993	0	27193	169312	228993	201800	1477	311	586	36	149166	3468716	2410
157	2017-11-27 08:16:42		0	0	0	0	0	0	4.3	0.64	0.13	229012	0	27200	169312	229012	201812	1477	311	586	36	149166	3468722	2410
158	2017-11-27 08:27:08		0	0	0	0	0	0	4.3	0.64	0.13	229044	0	27207	169349	229044	201837	1477	311	586	36	149166	3468724	2410
159	2017-11-27 08:38:55		0	0	0	0	0	0	4.3	0.65	0.13	229080	0	27214	169349	229080	201866	1478	311	586	36	149166	3468725	2411
160	2017-11-27 08:49:05		0	0	0	0	0	0	4.3	0.65	0.13	229121	0	27222	169423	229121	201899	1479	311	586	36	149166	3468727	2412
161	2017-11-27 08:59:34		0	0	0	0	0	0	4.3	0.65	0.13	229156	0	27231	169423	229156	201925	1479	311	586	36	149166	3468724	2412
162	2017-11-27 09:11:03		0	0	0	0	0	0	4.3	0.65	0.13	229178	0	27232	169423	229178	201946	1479	311	586	36	149166	3468728	2412
163	2017-11-27 09:20:35		0	0	0	0	0	0	4.3	0.65	0.13	229201	0	27235	169423	229201	201966	1479	311	586	36	149166	3468728	2412
164	2017-11-27 09:32:30		0	0	0	0	0	0	4.3	0.65	0.13	229231	0	27248	169423	229231	201983	1480	311	586	36	149166	3468726	2413
165	2017-11-27 09:41:57		0	0	0	0	0	0	4.3	0.65	0.13	229254	0	27256	169423	229254	201998	1480	311	586	36	149166	3468726	2413
166	2017-11-27 09:52:26		0	0	0	0	0	0	4.3	0.65	0.13	229283	0	27264	169423	229283	202019	1481	311	586	36	149166	3468728	2414
167	2017-11-27 10:03:02		0	0	0	0	0	0	4.3	0.65	0.13	229310	0	27272	169423	229310	202038	1481	311	586	36	149166	3468730	2414
168	2017-11-27 10:13:26		0	0	0	0	0	0	4.3	0.65	0.14	229334	0	27284	169423	229334	202050	1481	312	586	36	149166	3468732	2415
169	2017-11-27 10:24:17		0	0	0	0	0	0	4.3	0.65	0.14	229425	0	27351	169758	229425	202074	1481	312	586	36	149223	3468739	2415
170	2017-11-27 10:38:27		0	0	0	0	0	0	4.3	0.65	0.14	229474	0	27381	169758	229474	202093	1482	312	586	36	149223	3468747	2416
171	2017-11-27 10:47:27		0	0	0	0	0	0	4.3	0.65	0.14	229516	0	27406	169758	229516	202110	1483	312	586	36	149223	3468758	2417
172	2017-11-27 10:57:54		0	0	0	0	0	0	4.31	0.65	0.14	229557	0	27435	170055	229557	202122	1483	312	586	36	149339	3468769	2417
173	2017-11-27 11:08:37		0	0	0	0	0	0	4.31	0.65	0.14	229588	0	27447	170055	229588	202141	1483	314	586	36	149339	3468776	2419
174	2017-11-27 11:19:07		0	0	0	0	0	0	4.31	0.65	0.14	229642	0	27481	170055	229642	202161	1484	314	586	36	149569	3468788	2420
175	2017-11-27 11:29:47		0	0	0	0	0	0	4.31	0.65	0.14	229680	0	27502	170055	229680	202178	1484	314	587	36	149569	3468801	2421
176	2017-11-27 11:46:15		0	0	0	0	0	0	4.31	0.65	0.14	229737	0	27540	170055	229737	202197	1484	315	587	36	149569	3468828	2422
177	2017-11-27 11:54:35		0	0	0	0	0	0	4.31	0.65	0.14	229782	0	27567	170195	229782	202215	1484	315	587	36	149678	3468834	2422
178	2017-11-27 12:11:40		0	0	0	0	0	0	4.31	0.65	0.14	229821	0	27591	170195	229821	202230	1485	315	587	36	149678	3468853	2423
179	2017-11-27 12:22:41		0	0	0	0	0	0	4.31	0.65	0.14	229869	0	27615	170476	229869	202254	1485	315	587	36	149678	3468870	2423
180	2017-11-27 12:33:02		0	0	0	0	0	0	4.31	0.65	0.14	229904	0	27631	170476	229904	202273	1485	315	587	36	149678	3468887	2423
181	2017-11-27 12:43:37		0	0	0	0	0	0	4.31	0.65	0.14	229929	0	27646	170476	229929	202283	1485	315	587	36	149678	3468902	2423
182	2017-11-27 12:54:20		0	0	0	0	0	0	4.31	0.65	0.14	229975	0	27671	170476	229975	202304	1485	315	587	36	149678	3468916	2423
183	2017-11-27 13:10:32		0	0	0	0	0	0	4.31	0.65	0.14	230002	0	27688	170551	230002	202314	1486	315	587	36	149678	3468933	2424
184	2017-11-27 13:19:56		0	0	0	0	0	0	4.31	0.65	0.14	230052	0	27716	170551	230052	202336	1486	315	587	36	149678	3468944	2424
185	2017-11-27 13:30:57		0	0	0	0	0	0	4.31	0.65	0.14	230083	0	27726	170551	230083	202357	1486	315	587	36	149678	3468956	2424
186	2017-11-27 13:41:17		0	0	0	0	0	0	4.31	0.65	0.14	230102	0	27734	170551	230102	202368	1486	315	587	36	149678	3468979	2424
187	2017-11-27 13:52:31		0	0	0	0	0	0	4.31	0.65	0.14	230125	0	27745	170551	230125	202380	1487	315	587	36	149678	3469002	2425
188	2017-11-27 14:15:57		0	0	0	0	0	0	4.31	0.65	0.14	230189	0	27766	170551	230189	202423	1488	315	587	36	149678	3469061	2426
189	2017-11-27 14:31:49		0	0	0	0	0	0	4.31	0.65	0.14	230243	0	27784	170843	230243	202459	1489	315	588	36	149678	3469104	2428
190	2017-11-27 14:42:13		0	0	0	0	0	0	4.31	0.65	0.14	230276	0	27799	170853	230276	202477	1490	315	588	36	149685	3469136	2429
191	2017-11-27 15:00:32		0	0	0	0	0	0	4.31	0.65	0.14	230328	0	27821	170853	230328	202507	1490	315	588	36	149685	3469169	2429
192	2017-11-27 15:13:56		0	0	0	0	0	0	4.31	0.65	0.14	230354	0	27826	170853	230354	202528	1490	315	588	36	149685	3469200	2429
193	2017-11-27 15:31:50		0	0	0	0	0	0	4.31	0.65	0.14	230409	0	27850	170853	230409	202559	1490	315	588	36	149685	3469251	2429
194	2017-11-27 15:49:49		0	0	0	0	0	0	4.31	0.65	0.14	230471	0	27876	170871	230471	202595	1490	315	588	36	149685	3469308	2429
195	2017-11-27 16:00:39		0	0	0	0	0	0	4.31	0.65	0.14	230498	0	27884	170871	230498	202614	1490	315	588	36	149685	3469337	2429
196	2017-11-27 16:14:27		0	0	0	0	0	0	4.31	0.65	0.14	230525	0	27891	170871	230525	202634	1490	315	588	36	149685	3469371	2429
197	2017-11-27 16:24:34		0	0	0	0	0	0	4.31	0.65	0.14	230548	0	27900	170871	230548	202651	1490	315	588	36	149685	3469387	2429
198	2017-11-27 16:40:09		0	0	0	0	0	0	4.32	0.65	0.14	230596	0	27909	170871	230596	202687	1490	315	588	36	149772	3469415	2429
199	2017-11-27 16:51:08		0	0	0	0	0	0	4.32	0.65	0.14	230618	0	27916	170871	230618	202702	1492	315	588	36	149772	3469435	2431
