1	2017-11-07 15:55:29		0	0	0	0	0	0	0.07	0.22	0	2721	0	0	2549	2721	2721	6	1	5	0	2518	3455144	12
2	2017-11-07 16:06:30		0	0	0	0	0	0	0.34	0.86	0	13362	0	62	12013	13362	13300	115	4	16	7	11803	3455151	142
3	2017-11-07 16:17:29		0	0	0	0	0	0	0.44	0.96	0.01	17894	0	111	13910	17894	17783	171	7	21	7	15367	3455158	206
4	2017-11-07 16:28:30		0	0	0	0	0	0	0.52	0.97	0.01	21467	0	168	18307	21467	21299	209	7	26	8	17865	3455160	250
5	2017-11-07 16:39:29		0	0	0	0	0	0	0.58	1.05	0.01	24324	0	203	20578	24324	24121	255	7	29	8	20159	3455168	299
6	2017-11-07 16:50:29		0	0	0	0	0	0	0.65	1.07	0.01	27758	0	255	22971	27758	27503	296	7	35	8	22535	3455188	346
7	2017-11-07 17:01:30		0	0	0	0	0	0	0.69	1.07	0.01	29610	0	285	24192	29610	29325	317	7	36	9	23719	3455195	369
8	2017-11-07 17:12:29		0	0	0	0	0	0	0.71	1.06	0.01	31098	0	314	25131	31098	30784	330	7	38	10	24611	3455195	385
9	2017-11-07 17:23:29		0	0	0	0	0	0	0.74	1.07	0.01	32573	0	347	26110	32573	32226	350	8	40	10	25529	3455196	408
10	2017-11-07 17:34:29		0	0	0	0	0	0	0.77	1.07	0.01	34067	0	373	27161	34067	33694	364	8	43	11	26544	3455196	426
11	2017-11-07 17:45:30		0	0	0	0	0	0	0.8	1.05	0.01	35975	0	416	28440	35975	35559	377	8	43	11	27781	3455208	439
12	2017-11-07 17:56:29		0	0	0	0	0	0	0.83	1.05	0.01	37186	0	440	29335	37186	36746	391	8	46	12	28598	3455210	457
13	2017-11-07 18:07:30		0	0	0	0	0	0	0.84	1.07	0.01	38191	0	458	29773	38191	37733	408	8	47	12	29083	3455209	475
14	2017-11-07 18:18:29		0	0	0	0	0	0	0.87	1.07	0.01	39288	0	478	30754	39288	38810	419	8	48	12	30040	3455208	487
15	2017-11-07 18:29:30		0	0	0	0	0	0	0.9	1.08	0.01	40309	0	493	31571	40309	39816	436	8	50	12	30927	3455204	506
16	2017-11-07 18:40:29		0	0	0	0	0	0	0.93	1.11	0.01	41889	0	520	32733	41889	41369	465	8	52	12	31999	3455204	537
17	2017-11-07 18:51:30		0	0	0	0	0	0	0.94	1.13	0.01	42903	0	538	33201	42903	42365	484	8	53	12	32446	3455207	557
18	2017-11-07 19:02:31		0	0	0	0	0	0	0.95	1.13	0.01	43929	0	555	33671	43929	43374	498	9	53	12	32901	3455214	572
19	2017-11-07 19:13:31		0	0	0	0	0	0	0.96	1.14	0.01	44644	0	596	33985	44644	44048	509	9	55	12	33191	3455224	585
20	2017-11-07 19:24:30		0	0	0	0	0	0	0.97	1.14	0.01	45329	0	628	34312	45329	44701	516	10	57	12	33503	3455228	595
21	2017-11-07 19:35:34		0	0	0	0	0	0	1	1.14	0.01	46454	0	675	35284	46454	45779	530	10	60	12	34410	3455240	612
22	2017-11-07 19:46:32		0	0	0	0	0	0	1.01	1.14	0.02	47274	0	700	35855	47274	46574	540	10	62	12	34954	3455266	624
23	2017-11-07 19:57:32		0	0	0	0	0	0	1.03	1.14	0.02	48011	0	719	36473	48011	47292	546	10	63	12	35508	3455287	631
24	2017-11-07 20:08:32		0	0	0	0	0	0	1.04	1.13	0.02	48721	0	731	37017	48721	47990	552	10	63	12	36024	3455306	637
25	2017-11-07 20:19:31		0	0	0	0	0	0	1.06	1.12	0.02	49465	0	769	37535	49465	48696	556	11	63	12	36486	3455319	642
26	2017-11-07 20:30:31		0	0	0	0	0	0	1.08	1.12	0.02	50602	0	804	38541	50602	49798	567	11	64	12	37327	3455334	654
27	2017-11-07 20:41:30		0	0	0	0	0	0	1.09	1.13	0.02	51286	0	815	39001	51286	50471	578	11	65	12	37774	3455342	666
28	2017-11-07 20:52:31		0	0	0	0	0	0	1.1	1.12	0.02	52025	0	832	39413	52025	51193	585	11	66	12	38164	3455361	674
29	2017-11-07 21:03:32		0	0	0	0	0	0	1.11	1.12	0.02	52668	0	846	39769	52668	51822	589	11	69	12	38521	3455367	681
30	2017-11-07 21:14:32		0	0	0	0	0	0	1.12	1.12	0.02	53250	0	866	40165	53250	52384	595	11	69	12	38721	3455378	687
31	2017-11-07 21:25:31		0	0	0	0	0	0	1.14	1.11	0.02	54210	0	889	40977	54210	53321	603	11	69	12	39536	3455386	695
32	2017-11-07 21:36:32		0	0	0	0	0	0	1.16	1.11	0.02	54847	0	894	41436	54847	53953	607	11	69	12	39979	3455398	699
33	2017-11-07 21:47:32		0	0	0	0	0	0	1.17	1.11	0.02	55554	0	906	41741	55554	54648	616	11	69	12	40297	3455401	708
34	2017-11-07 21:58:32		0	0	0	0	0	0	1.18	1.11	0.02	56167	0	915	42162	56167	55252	623	11	70	12	40689	3455412	716
35	2017-11-07 22:09:32		0	0	0	0	0	0	1.19	1.1	0.02	56728	0	923	42781	56728	55805	625	11	70	12	41283	3455419	718
36	2017-11-07 22:20:32		0	0	0	0	0	0	1.21	1.1	0.02	57609	0	927	43034	57609	56682	631	11	71	12	41661	3455425	725
37	2017-11-07 22:31:32		0	0	0	0	0	0	1.22	1.09	0.02	58181	0	933	43531	58181	57248	636	11	71	12	42127	3455433	730
38	2017-11-07 22:42:32		0	0	0	0	0	0	1.23	1.09	0.02	58713	0	939	43897	58713	57774	640	11	71	12	42488	3455435	734
39	2017-11-07 22:53:32		0	0	0	0	0	0	1.24	1.09	0.02	59248	0	952	44317	59248	58296	643	11	71	12	42863	3455457	737
40	2017-11-07 23:04:37		0	0	0	0	0	0	1.25	1.08	0.02	59808	0	962	44618	59808	58846	645	12	72	13	43144	3455469	742
41	2017-11-07 23:15:32		0	0	0	0	0	0	1.27	1.07	0.02	60673	0	968	45332	60673	59705	651	12	72	13	43870	3455474	748
42	2017-11-07 23:26:32		0	0	0	0	0	0	1.28	1.08	0.02	61202	0	976	45538	61202	60226	659	12	73	13	44064	3455477	757
43	2017-11-07 23:37:33		0	0	0	0	0	0	1.28	1.07	0.02	61665	0	979	45763	61665	60686	661	12	74	13	44274	3455481	760
44	2017-11-07 23:48:33		0	0	0	0	0	0	1.28	1.07	0.02	62094	0	985	45855	62094	61109	662	12	74	13	44361	3455487	761
45	2017-11-07 23:59:34		0	0	0	0	0	0	1.29	1.07	0.02	62511	0	992	46257	62511	61519	667	12	74	13	44732	3455498	766
46	2017-11-08 00:43:35		0	0	0	0	0	0	1.32	1.07	0.02	63976	0	1013	47310	63976	62963	682	12	76	13	45678	3455521	783
47	2017-11-08 01:43:35		0	0	0	0	0	0	1.34	1.07	0.02	65045	0	1024	47883	65045	64021	694	12	77	13	46345	3455525	796
48	2017-11-08 02:43:38		0	0	0	0	0	0	1.35	1.06	0.02	65617	0	1029	48360	65617	64588	698	12	78	13	46814	3455524	801
49	2017-11-08 03:43:37		0	0	0	0	0	0	1.36	1.06	0.02	65966	0	1034	48614	65966	64932	701	12	78	13	47052	3455519	804
50	2017-11-08 04:43:36		0	0	0	0	0	0	1.37	1.07	0.02	66279	0	1036	48893	66279	65243	706	12	79	13	47313	3455518	810
51	2017-11-08 05:43:36		0	0	0	0	0	0	1.38	1.06	0.02	66796	0	1040	49201	66796	65756	711	12	79	13	47602	3455512	815
52	2017-11-08 06:43:36		0	0	0	0	0	0	1.4	1.06	0.02	67902	0	1054	49946	67902	66848	723	12	80	13	48264	3455525	828
53	2017-11-08 07:10:36		0	0	0	0	0	0	1.42	1.07	0.02	68715	0	1065	50642	68715	67650	732	12	80	13	48938	3455536	837
54	2017-11-08 07:21:35		0	0	0	0	0	0	1.43	1.06	0.02	69229	0	1069	50958	69229	68160	736	12	82	13	49283	3455540	843
55	2017-11-08 07:33:31		0	0	0	0	0	0	1.43	1.06	0.02	69572	0	1072	51185	69572	68500	740	12	82	13	49546	3455544	847
56	2017-11-08 07:43:44		0	0	0	0	0	0	1.45	1.06	0.02	70000	0	1079	51752	70000	68921	743	12	83	14	50116	3455547	852
57	2017-11-08 07:54:59		0	0	0	0	0	0	1.47	1.06	0.02	70393	0	1086	52317	70393	69307	744	12	83	14	50659	3455553	853
58	2017-11-08 08:05:54		0	0	0	0	0	0	1.47	1.06	0.02	70779	0	1092	52498	70779	69689	747	12	83	14	50829	3455565	856
59	2017-11-08 08:16:48		0	0	0	0	0	0	1.48	1.05	0.02	71366	0	1093	52881	71366	70273	749	12	83	14	51187	3455569	858
60	2017-11-08 08:27:50		0	0	0	0	0	0	1.49	1.05	0.02	71759	0	1097	53179	71759	70662	753	12	83	14	51467	3455576	862
61	2017-11-08 08:38:50		0	0	0	0	0	0	1.49	1.05	0.02	72109	0	1101	53309	72109	71008	756	12	83	14	51589	3455581	865
62	2017-11-08 08:50:17		0	0	0	0	0	0	1.5	1.04	0.02	72542	0	1106	53676	72542	71436	757	12	83	14	51988	3455579	866
63	2017-11-08 09:00:50		0	0	0	0	0	0	1.52	1.05	0.02	72927	0	1109	54206	72927	71818	766	12	83	14	52485	3455591	875
64	2017-11-08 09:11:47		0	0	0	0	0	0	1.53	1.05	0.02	73415	0	1110	54600	73415	72305	771	13	84	14	52743	3455593	882
65	2017-11-08 09:23:12		0	0	0	0	0	0	1.53	1.05	0.02	73727	0	1113	54906	73727	72614	775	13	84	14	53028	3455610	886
66	2017-11-08 09:33:58		0	0	0	0	0	0	1.54	1.05	0.02	73998	0	1113	55011	73998	72885	779	13	85	14	53127	3455614	891
67	2017-11-08 09:45:12		0	0	0	0	0	0	1.54	1.06	0.02	74265	0	1116	55176	74265	73149	784	13	85	14	53280	3455618	896
68	2017-11-08 09:57:05		0	0	0	0	0	0	1.55	1.05	0.02	74705	0	1121	55449	74705	73584	788	13	86	14	53534	3455624	901
69	2017-11-08 10:08:02		0	0	0	0	0	0	1.55	1.05	0.02	75007	0	1123	55663	75007	73884	789	13	86	14	53723	3455619	902
70	2017-11-08 10:19:06		0	0	0	0	0	0	1.55	1.05	0.02	75198	0	1126	55673	75198	74072	789	13	86	14	53732	3455632	902
71	2017-11-08 10:30:25		0	0	0	0	0	0	1.56	1.05	0.02	75417	0	1127	55857	75417	74290	790	13	86	14	53904	3455635	903
72	2017-11-08 10:41:43		0	0	0	0	0	0	1.56	1.05	0.02	75699	0	1131	55958	75699	74568	794	13	86	14	53971	3455642	907
73	2017-11-08 10:52:43		0	0	0	0	0	0	1.57	1.05	0.02	75870	0	1137	56121	75870	74733	796	13	86	14	54123	3455648	909
74	2017-11-08 11:10:28		0	0	0	0	0	0	1.57	1.05	0.02	76094	0	1141	56387	76094	74953	797	13	86	14	54370	3455657	910
75	2017-11-08 11:20:42		0	0	0	0	0	0	1.58	1.05	0.02	76254	0	1144	56476	76254	75110	798	13	86	14	54453	3455661	911
76	2017-11-08 11:31:40		0	0	0	0	0	0	1.58	1.05	0.02	76478	0	1146	56668	76478	75332	802	13	86	14	54739	3455662	915
77	2017-11-08 11:44:11		0	0	0	0	0	0	1.59	1.05	0.02	76661	0	1152	56713	76661	75509	803	13	86	14	54875	3455671	916
78	2017-11-08 11:56:02		0	0	0	0	0	0	1.59	1.05	0.02	76836	0	1152	56763	76836	75684	805	13	86	14	54922	3455689	918
79	2017-11-08 12:07:00		0	0	0	0	0	0	1.6	1.05	0.02	77085	0	1156	56997	77085	75929	807	13	86	14	55141	3455697	920
80	2017-11-08 12:18:43		0	0	0	0	0	0	1.6	1.05	0.02	77262	0	1157	57052	77262	76105	808	13	86	14	55200	3455712	921
81	2017-11-08 12:35:07		0	0	0	0	0	0	1.61	1.04	0.02	77535	0	1168	57369	77535	76367	809	13	86	14	55497	3455729	922
82	2017-11-08 12:47:10		0	0	0	0	0	0	1.61	1.05	0.02	77847	0	1172	57450	77847	76675	817	13	87	14	55560	3455737	931
83	2017-11-08 13:06:37		0	0	0	0	0	0	1.61	1.05	0.02	78026	0	1172	57569	78026	76854	817	13	89	14	55672	3455756	933
84	2017-11-08 13:23:41		0	0	0	0	0	0	1.62	1.05	0.02	78448	0	1182	57754	78448	77266	821	13	91	14	55913	3455768	939
85	2017-11-08 13:35:34		0	0	0	0	0	0	1.63	1.05	0.02	78603	0	1185	58024	78603	77418	823	13	91	14	56179	3455775	941
86	2017-11-08 13:51:40		0	0	0	0	0	0	1.63	1.05	0.02	78972	0	1192	58208	78972	77780	827	13	91	14	56351	3455786	945
87	2017-11-08 14:09:13		0	0	0	0	0	0	1.64	1.05	0.02	79200	0	1193	58441	79200	78007	830	13	91	15	56586	3455798	949
88	2017-11-08 14:21:00		0	0	0	0	0	0	1.64	1.05	0.02	79340	0	1196	58467	79340	78144	831	13	91	15	56677	3455804	950
89	2017-11-08 14:38:35		0	0	0	0	0	0	1.65	1.04	0.02	79628	0	1201	58903	79628	78427	832	13	92	15	57086	3455816	952
90	2017-11-08 14:52:36		0	0	0	0	0	0	1.65	1.05	0.02	79804	0	1203	58921	79804	78601	836	13	93	15	57103	3455821	957
91	2017-11-08 15:02:49		0	0	0	0	0	0	1.65	1.05	0.02	80013	0	1211	58964	80013	78802	837	13	93	15	57144	3455825	958
92	2017-11-08 15:22:26		0	0	0	0	0	0	1.65	1.05	0.02	80171	0	1218	58964	80171	78953	838	13	93	16	57144	3455838	960
93	2017-11-08 15:33:04		0	0	0	0	0	0	1.66	1.05	0.02	80344	0	1224	59109	80344	79120	842	13	94	16	57279	3455849	965
94	2017-11-08 15:56:40		0	0	0	0	0	0	1.66	1.05	0.02	80616	0	1229	59296	80616	79387	843	13	94	16	57456	3455866	966
95	2017-11-08 16:08:06		0	0	0	0	0	0	1.67	1.05	0.02	80778	0	1234	59405	80778	79544	846	13	94	16	57558	3455873	969
96	2017-11-08 16:26:00		0	0	0	0	0	0	1.67	1.05	0.02	80918	0	1239	59442	80918	79679	846	13	95	16	57592	3455885	970
97	2017-11-08 16:40:57		0	0	0	0	0	0	1.67	1.04	0.02	81037	0	1242	59442	81037	79795	846	13	95	16	57592	3455884	970
98	2017-11-08 16:53:10		0	0	0	0	0	0	1.67	1.05	0.02	81140	0	1246	59561	81140	79894	848	13	95	16	57704	3455883	972
99	2017-11-08 17:05:32		0	0	0	0	0	0	1.67	1.04	0.02	81192	0	1249	59597	81192	79943	848	13	95	16	57756	3455894	972
100	2017-11-08 17:30:53		0	0	0	0	0	0	1.67	1.04	0.02	81377	0	1263	59632	81377	80114	850	13	96	17	57788	3455920	976
101	2017-11-08 17:40:45		0	0	0	0	0	0	1.67	1.04	0.02	81441	0	1266	59632	81441	80175	851	13	97	17	57788	3455923	978
102	2017-11-08 17:56:16		0	0	0	0	0	0	1.67	1.04	0.02	81553	0	1275	59678	81553	80278	852	13	97	17	57831	3455933	979
103	2017-11-08 18:21:26		0	0	0	0	0	0	1.68	1.04	0.02	81695	0	1286	59756	81695	80409	852	13	97	17	57905	3455938	979
104	2017-11-08 18:35:30		0	0	0	0	0	0	1.68	1.04	0.02	81785	0	1286	59765	81785	80499	852	13	97	17	57913	3455950	979
105	2017-11-08 18:49:03		0	0	0	0	0	0	1.68	1.04	0.02	81866	0	1292	59765	81866	80574	852	13	97	17	57913	3455952	979
106	2017-11-08 19:16:47		0	0	0	0	0	0	1.68	1.04	0.02	82017	0	1300	59801	82017	80717	852	13	97	17	57947	3455961	979
107	2017-11-08 19:32:35		0	0	0	0	0	0	1.68	1.04	0.02	82119	0	1306	59945	82119	80813	852	13	97	17	58082	3455964	979
108	2017-11-08 19:42:46		0	0	0	0	0	0	1.68	1.04	0.02	82159	0	1307	60000	82159	80852	852	13	97	17	58204	3455971	979
109	2017-11-08 19:57:25		0	0	0	0	0	0	1.69	1.04	0.02	82245	0	1316	60056	82245	80929	854	13	97	17	58256	3455985	981
110	2017-11-08 20:08:11		0	0	0	0	0	0	1.69	1.04	0.02	82290	0	1318	60074	82290	80972	854	13	97	17	58256	3455999	981
111	2017-11-08 20:26:27		0	0	0	0	0	0	1.69	1.04	0.02	82367	0	1323	60215	82367	81044	856	13	97	17	58388	3456010	983
112	2017-11-08 20:53:35		0	0	0	0	0	0	1.69	1.04	0.02	82528	0	1329	60261	82528	81199	858	13	98	17	58450	3456038	986
113	2017-11-08 20:59:28		0	0	0	0	0	0	1.69	1.04	0.02	82554	0	1329	60261	82554	81225	858	13	98	17	58450	3456040	986
114	2017-11-08 21:10:44		0	0	0	0	0	0	1.69	1.04	0.02	82604	0	1331	60299	82604	81273	858	13	98	17	58485	3456048	986
115	2017-11-08 21:27:09		0	0	0	0	0	0	1.69	1.04	0.02	82683	0	1340	60332	82683	81347	858	14	99	17	58516	3456058	988
116	2017-11-08 21:53:40		0	0	0	0	0	0	1.69	1.04	0.02	82849	0	1352	60334	82849	81497	860	14	99	17	58519	3456079	990
117	2017-11-08 22:04:06		0	0	0	0	0	0	1.7	1.04	0.02	82888	0	1355	60391	82888	81533	861	14	99	17	58607	3456088	991
118	2017-11-08 22:26:36		0	0	0	0	0	0	1.7	1.04	0.02	82993	0	1363	60462	82993	81630	864	14	99	17	58674	3456099	994
119	2017-11-08 22:36:54		0	0	0	0	0	0	1.7	1.04	0.02	83049	0	1367	60462	83049	81683	866	14	99	17	58674	3456113	996
120	2017-11-08 23:01:19		0	0	0	0	0	0	1.7	1.04	0.02	83166	0	1370	60618	83166	81796	868	14	99	17	58758	3456121	998
121	2017-11-08 23:25:02		0	0	0	0	0	0	1.7	1.04	0.02	83283	0	1381	60618	83283	81902	869	14	99	17	58758	3456132	999
122	2017-11-08 23:42:30		0	0	0	0	0	0	1.7	1.04	0.02	83354	0	1387	60641	83354	81967	871	14	99	17	58781	3456131	1001
123	2017-11-08 23:52:15		0	0	0	0	0	0	1.7	1.04	0.02	83370	0	1390	60641	83370	81981	871	14	99	17	58781	3456131	1001
124	2017-11-09 00:03:27		0	0	0	0	0	0	1.7	1.04	0.02	83418	0	1393	60641	83418	82025	871	14	99	17	58781	3456132	1001
125	2017-11-09 01:12:41		0	0	0	0	0	0	1.7	1.04	0.02	83545	0	1401	60641	83545	82144	873	14	100	17	58781	3456152	1004
126	2017-11-09 02:24:52		0	0	0	0	0	0	1.7	1.04	0.02	83586	0	1405	60641	83586	82181	873	14	100	17	58781	3456154	1004
127	2017-11-09 03:41:07		0	0	0	0	0	0	1.7	1.04	0.02	83611	0	1407	60641	83611	82204	873	14	100	17	58781	3456146	1004
128	2017-11-09 04:56:21		0	0	0	0	0	0	1.7	1.04	0.02	83634	0	1408	60699	83634	82226	873	14	100	17	58834	3456147	1004
129	2017-11-09 06:21:53		0	0	0	0	0	0	1.7	1.04	0.02	83669	0	1408	60737	83669	82261	873	14	100	17	58870	3456151	1004
130	2017-11-09 07:59:35		0	0	0	0	0	0	1.7	1.04	0.02	83733	0	1410	60832	83733	82323	874	14	100	17	58897	3456161	1005
131	2017-11-09 08:19:49		0	0	0	0	0	0	1.7	1.04	0.02	83814	0	1411	60860	83814	82403	875	14	100	17	58923	3456163	1006
132	2017-11-09 08:35:25		0	0	0	0	0	0	1.7	1.04	0.02	83841	0	1414	60860	83841	82427	875	14	100	17	58923	3456172	1006
133	2017-11-09 09:18:06		0	0	0	0	0	0	1.71	1.04	0.02	83903	0	1421	60934	83903	82482	876	14	100	17	58992	3456173	1007
134	2017-11-09 09:51:57		0	0	0	0	0	0	1.71	1.04	0.02	83948	0	1425	60934	83948	82523	876	14	100	17	58992	3456190	1007
135	2017-11-09 10:02:57		0	0	0	0	0	0	1.71	1.04	0.02	83972	0	1428	60934	83972	82544	876	14	100	17	58992	3456191	1007
136	2017-11-09 10:13:58		0	0	0	0	0	0	1.71	1.04	0.02	83984	0	1431	60934	83984	82553	876	14	100	17	58992	3456191	1007
137	2017-11-09 10:24:58		0	0	0	0	0	0	1.71	1.04	0.02	84002	0	1431	60934	84002	82571	876	14	100	17	58992	3456195	1007
138	2017-11-09 10:35:58		0	0	0	0	0	0	1.71	1.04	0.02	84010	0	1432	60934	84010	82578	876	14	100	17	58992	3456208	1007
139	2017-11-09 10:46:58		0	0	0	0	0	0	1.71	1.04	0.02	84021	0	1434	60934	84021	82587	876	14	100	17	58992	3456207	1007
140	2017-11-09 10:57:58		0	0	0	0	0	0	1.71	1.04	0.02	84038	0	1434	60963	84038	82604	876	14	100	17	59019	3456208	1007
141	2017-11-09 11:08:57		0	0	0	0	0	0	1.71	1.04	0.02	84045	0	1435	60963	84045	82610	876	14	100	17	59019	3456216	1007
142	2017-11-09 11:19:57		0	0	0	0	0	0	1.71	1.04	0.02	84053	0	1435	60963	84053	82618	877	14	100	17	59019	3456218	1008
143	2017-11-09 11:31:03		0	0	0	0	0	0	1.71	1.04	0.02	84066	0	1435	60963	84066	82631	877	14	100	17	59019	3456227	1008
144	2017-11-09 11:41:57		0	0	0	0	0	0	1.71	1.04	0.02	84076	0	1435	60963	84076	82641	877	14	100	17	59019	3456239	1008
145	2017-11-09 11:52:57		0	0	0	0	0	0	1.71	1.04	0.02	84079	0	1435	60963	84079	82644	877	14	100	17	59019	3456252	1008
146	2017-11-09 12:03:57		0	0	0	0	0	0	1.71	1.04	0.02	84086	0	1436	60963	84086	82650	877	14	100	17	59019	3456259	1008
147	2017-11-09 12:37:49		0	0	0	0	0	0	1.71	1.04	0.02	84109	0	1438	60963	84109	82671	877	14	100	17	59019	3456292	1008
148	2017-11-09 12:48:49		0	0	0	0	0	0	1.71	1.04	0.02	84125	0	1438	60963	84125	82687	877	14	100	17	59019	3456299	1008
149	2017-11-09 13:02:24		0	0	0	0	0	0	1.71	1.04	0.02	84139	0	1439	60963	84139	82700	879	14	100	17	59019	3456294	1010
150	2017-11-09 13:13:26		0	0	0	0	0	0	1.71	1.05	0.02	84151	0	1439	60963	84151	82712	880	14	100	17	59019	3456297	1011
151	2017-11-09 13:24:26		0	0	0	0	0	0	1.71	1.05	0.02	84165	0	1440	60963	84165	82725	880	14	100	17	59019	3456298	1011
152	2017-11-09 13:35:30		0	0	0	0	0	0	1.71	1.05	0.02	84177	0	1440	60963	84177	82737	880	14	100	17	59019	3456311	1011
153	2017-11-09 13:46:24		0	0	0	0	0	0	1.71	1.05	0.02	84185	0	1444	60963	84185	82741	880	14	100	17	59019	3456316	1011
154	2017-11-09 13:57:26		0	0	0	0	0	0	1.71	1.05	0.02	84193	0	1444	60963	84193	82749	880	14	100	17	59019	3456328	1011
155	2017-11-09 14:08:26		0	0	0	0	0	0	1.71	1.05	0.02	84208	0	1446	60963	84208	82762	880	14	100	17	59019	3456337	1011
156	2017-11-09 14:19:25		0	0	0	0	0	0	1.71	1.04	0.02	84218	0	1446	60982	84218	82772	880	14	100	17	59037	3456347	1011
157	2017-11-09 14:30:25		0	0	0	0	0	0	1.71	1.04	0.02	84231	0	1447	60982	84231	82784	880	14	100	17	59037	3456354	1011
158	2017-11-09 14:41:29		0	0	0	0	0	0	1.71	1.04	0.02	84243	0	1447	60982	84243	82796	880	14	100	17	59037	3456371	1011
159	2017-11-09 14:52:26		0	0	0	0	0	0	1.71	1.04	0.02	84252	0	1449	60982	84252	82803	880	14	100	17	59037	3456380	1011
160	2017-11-09 15:03:24		0	0	0	0	0	0	1.71	1.04	0.02	84271	0	1457	60982	84271	82814	880	14	100	17	59037	3456384	1011
161	2017-11-09 15:14:30		0	0	0	0	0	0	1.71	1.04	0.02	84286	0	1461	60982	84286	82825	880	14	100	17	59037	3456393	1011
162	2017-11-09 15:25:31		0	0	0	0	0	0	1.71	1.04	0.02	84300	0	1465	60982	84300	82835	880	14	100	17	59037	3456390	1011
163	2017-11-09 15:36:25		0	0	0	0	0	0	1.71	1.04	0.02	84315	0	1466	60982	84315	82849	880	14	100	17	59037	3456403	1011
164	2017-11-09 15:47:24		0	0	0	0	0	0	1.71	1.04	0.02	84328	0	1467	60982	84328	82861	880	14	101	17	59037	3456407	1012
165	2017-11-09 15:58:24		0	0	0	0	0	0	1.71	1.04	0.02	84342	0	1467	60982	84342	82875	880	14	101	17	59037	3456419	1012
166	2017-11-09 16:09:24		0	0	0	0	0	0	1.71	1.04	0.02	84362	0	1471	60982	84362	82891	880	14	101	17	59037	3456428	1012
167	2017-11-09 16:20:23		0	0	0	0	0	0	1.71	1.04	0.02	84370	0	1474	60982	84370	82896	880	14	101	17	59037	3456434	1012
168	2017-11-09 16:31:24		0	0	0	0	0	0	1.71	1.04	0.02	84375	0	1475	60982	84375	82900	880	14	101	17	59037	3456439	1012
169	2017-11-09 16:42:23		0	0	0	0	0	0	1.71	1.04	0.02	84386	0	1475	60991	84386	82911	880	14	101	17	59046	3456447	1012
170	2017-11-09 16:53:23		0	0	0	0	0	0	1.71	1.04	0.02	84396	0	1475	61049	84396	82921	880	14	101	17	59100	3456452	1012
171	2017-11-09 17:04:31		0	0	0	0	0	0	1.71	1.04	0.02	84404	0	1477	61049	84404	82927	880	14	101	17	59100	3456451	1012
172	2017-11-09 17:15:25		0	0	0	0	0	0	1.71	1.04	0.02	84415	0	1479	61049	84415	82936	880	14	101	17	59100	3456452	1012
173	2017-11-09 17:26:23		0	0	0	0	0	0	1.71	1.04	0.02	84426	0	1483	61049	84426	82943	880	14	101	17	59100	3456460	1012
174	2017-11-09 17:37:24		0	0	0	0	0	0	1.71	1.04	0.02	84438	0	1484	61049	84438	82954	880	14	101	17	59100	3456459	1012
175	2017-11-09 17:48:24		0	0	0	0	0	0	1.71	1.04	0.02	84451	0	1485	61049	84451	82966	880	14	101	17	59100	3456455	1012
176	2017-11-09 17:59:24		0	0	0	0	0	0	1.71	1.04	0.02	84457	0	1486	61049	84457	82971	880	14	101	17	59100	3456459	1012
177	2017-11-09 18:10:23		0	0	0	0	0	0	1.71	1.04	0.02	84463	0	1486	61049	84463	82977	880	14	101	17	59100	3456455	1012
178	2017-11-09 18:21:24		0	0	0	0	0	0	1.71	1.04	0.02	84469	0	1487	61049	84469	82982	880	14	101	17	59100	3456460	1012
179	2017-11-09 18:32:26		0	0	0	0	0	0	1.71	1.04	0.02	84478	0	1490	61049	84478	82988	880	14	101	17	59100	3456462	1012
180	2017-11-09 18:43:25		0	0	0	0	0	0	1.71	1.04	0.02	84488	0	1491	61049	84488	82997	880	14	101	17	59100	3456459	1012
181	2017-11-09 18:54:24		0	0	0	0	0	0	1.71	1.04	0.02	84496	0	1491	61049	84496	83005	880	14	101	17	59100	3456462	1012
182	2017-11-09 19:05:25		0	0	0	0	0	0	1.71	1.04	0.02	84506	0	1494	61049	84506	83012	880	14	101	17	59100	3456463	1012
183	2017-11-09 19:16:27		0	0	0	0	0	0	1.71	1.04	0.02	84518	0	1494	61049	84518	83024	880	14	101	17	59100	3456467	1012
184	2017-11-09 19:27:25		0	0	0	0	0	0	1.71	1.04	0.02	84540	0	1497	61049	84540	83043	882	14	101	17	59100	3456464	1014
185	2017-11-09 19:38:25		0	0	0	0	0	0	1.71	1.04	0.02	84550	0	1498	61049	84550	83052	882	14	101	17	59100	3456466	1014
186	2017-11-09 19:49:25		0	0	0	0	0	0	1.71	1.04	0.02	84569	0	1503	61049	84569	83066	882	14	101	17	59100	3456466	1014
187	2017-11-09 20:00:25		0	0	0	0	0	0	1.71	1.04	0.02	84581	0	1504	61049	84581	83077	882	14	101	17	59100	3456467	1014
188	2017-11-09 20:11:27		0	0	0	0	0	0	1.71	1.04	0.02	84590	0	1505	61049	84590	83085	882	14	101	17	59100	3456468	1014
189	2017-11-09 20:22:25		0	0	0	0	0	0	1.71	1.04	0.02	84604	0	1505	61068	84604	83099	882	14	101	17	59119	3456476	1014
190	2017-11-09 20:33:24		0	0	0	0	0	0	1.71	1.04	0.02	84609	0	1505	61068	84609	83104	882	14	101	17	59119	3456482	1014
191	2017-11-09 20:44:27		0	0	0	0	0	0	1.71	1.04	0.02	84623	0	1507	61068	84623	83116	882	14	101	17	59119	3456481	1014
192	2017-11-09 20:55:27		0	0	0	0	0	0	1.71	1.04	0.02	84633	0	1507	61068	84633	83126	882	14	101	17	59119	3456482	1014
193	2017-11-09 21:06:27		0	0	0	0	0	0	1.71	1.04	0.02	84641	0	1509	61068	84641	83132	882	14	101	17	59119	3456478	1014
194	2017-11-09 21:17:28		0	0	0	0	0	0	1.71	1.04	0.02	84655	0	1510	61126	84655	83145	882	14	101	17	59119	3456485	1014
195	2017-11-09 21:28:26		0	0	0	0	0	0	1.71	1.04	0.02	84664	0	1511	61126	84664	83153	882	14	101	17	59119	3456487	1014
196	2017-11-09 21:39:26		0	0	0	0	0	0	1.71	1.04	0.02	84671	0	1511	61126	84671	83160	882	14	101	17	59119	3456486	1014
197	2017-11-09 21:50:28		0	0	0	0	0	0	1.71	1.04	0.02	84681	0	1511	61126	84681	83170	882	14	101	17	59119	3456485	1014
198	2017-11-09 22:01:27		0	0	0	0	0	0	1.71	1.04	0.02	84688	0	1511	61126	84688	83177	882	14	101	17	59119	3456483	1014
199	2017-11-09 22:12:35		0	0	0	0	0	0	1.71	1.04	0.02	84694	0	1512	61126	84694	83182	882	14	101	17	59119	3456491	1014
200	2017-11-09 22:23:33		0	0	0	0	0	0	1.71	1.04	0.02	84713	0	1514	61126	84713	83199	883	14	101	17	59119	3456492	1015
201	2017-11-09 22:34:33		0	0	0	0	0	0	1.71	1.04	0.02	84722	0	1514	61126	84722	83208	883	14	101	17	59119	3456496	1015
202	2017-11-09 22:45:38		0	0	0	0	0	0	1.71	1.04	0.02	84733	0	1514	61126	84733	83219	883	14	101	17	59119	3456491	1015
203	2017-11-09 22:56:39		0	0	0	0	0	0	1.71	1.04	0.02	84742	0	1515	61126	84742	83227	883	14	101	17	59119	3456495	1015
204	2017-11-09 23:07:45		0	0	0	0	0	0	1.71	1.04	0.02	84759	0	1515	61126	84759	83244	883	14	101	17	59119	3456497	1015
205	2017-11-09 23:18:37		0	0	0	0	0	0	1.71	1.04	0.02	84770	0	1515	61126	84770	83255	883	14	101	17	59119	3456496	1015
206	2017-11-09 23:29:35		0	0	0	0	0	0	1.71	1.04	0.02	84782	0	1515	61126	84782	83267	883	14	101	17	59119	3456498	1015
207	2017-11-09 23:40:34		0	0	0	0	0	0	1.71	1.04	0.02	84789	0	1516	61126	84789	83273	883	14	101	17	59119	3456502	1015
208	2017-11-09 23:51:36		0	0	0	0	0	0	1.71	1.04	0.02	84799	0	1516	61126	84799	83283	883	14	101	17	59119	3456505	1015
209	2017-11-10 00:20:16		0	0	0	0	0	0	1.71	1.04	0.02	84837	0	1517	61126	84837	83320	883	14	101	17	59119	3456510	1015
210	2017-11-10 01:20:19		0	0	0	0	0	0	1.71	1.04	0.02	84861	0	1518	61126	84861	83343	883	14	101	17	59119	3456508	1015
211	2017-11-10 02:20:20		0	0	0	0	0	0	1.71	1.04	0.02	84874	0	1518	61126	84874	83356	883	14	101	17	59119	3456507	1015
212	2017-11-10 03:20:22		0	0	0	0	0	0	1.71	1.04	0.02	84883	0	1518	61126	84883	83365	883	14	101	17	59119	3456506	1015
213	2017-11-10 04:20:22		0	0	0	0	0	0	1.71	1.04	0.02	84890	0	1518	61126	84890	83372	883	14	101	17	59119	3456507	1015
214	2017-11-10 05:20:20		0	0	0	0	0	0	1.71	1.04	0.02	84898	0	1518	61126	84898	83380	883	14	101	17	59119	3456509	1015
215	2017-11-10 06:20:16		0	0	0	0	0	0	1.71	1.04	0.02	84905	0	1518	61126	84905	83387	883	14	101	17	59119	3456512	1015
216	2017-11-10 07:03:23		0	0	0	0	0	0	1.71	1.04	0.02	84918	0	1518	61126	84918	83400	883	14	101	17	59119	3456510	1015
217	2017-11-10 07:15:20		0	0	0	0	0	0	1.71	1.04	0.02	84920	0	1518	61126	84920	83402	883	14	101	17	59119	3456510	1015
218	2017-11-10 07:25:33		0	0	0	0	0	0	1.71	1.04	0.02	84927	0	1519	61126	84927	83408	883	14	101	17	59119	3456509	1015
219	2017-11-10 07:36:34		0	0	0	0	0	0	1.71	1.04	0.02	84932	0	1519	61126	84932	83413	883	14	101	17	59119	3456514	1015
220	2017-11-10 07:52:23		0	0	0	0	0	0	1.71	1.04	0.02	84936	0	1519	61126	84936	83417	883	14	101	17	59119	3456509	1015
221	2017-11-10 08:01:23		0	0	0	0	0	0	1.71	1.04	0.02	84942	0	1520	61126	84942	83422	884	14	101	17	59119	3456513	1016
222	2017-11-10 08:11:51		0	0	0	0	0	0	1.71	1.04	0.02	84945	0	1520	61126	84945	83425	884	14	101	17	59119	3456519	1016
223	2017-11-10 08:23:44		0	0	0	0	0	0	1.71	1.04	0.02	84953	0	1521	61126	84953	83432	884	14	101	17	59119	3456523	1016
224	2017-11-10 08:41:13		0	0	0	0	0	0	1.71	1.04	0.02	84964	0	1522	61126	84964	83442	885	14	101	17	59119	3456522	1017
225	2017-11-10 08:49:30		0	0	0	0	0	0	1.71	1.04	0.02	84967	0	1522	61126	84967	83445	885	14	101	17	59119	3456524	1017
226	2017-11-10 09:00:15		0	0	0	0	0	0	1.71	1.04	0.02	84972	0	1522	61126	84972	83450	885	14	101	17	59119	3456528	1017
227	2017-11-10 09:11:23		0	0	0	0	0	0	1.71	1.04	0.02	84978	0	1522	61126	84978	83456	885	14	101	17	59119	3456528	1017
228	2017-11-10 09:28:52		0	0	0	0	0	0	1.71	1.04	0.02	84986	0	1522	61126	84986	83464	885	14	101	17	59119	3456533	1017
229	2017-11-10 09:48:13		0	0	0	0	0	0	1.71	1.04	0.02	84993	0	1522	61126	84993	83471	885	14	101	17	59119	3456536	1017
230	2017-11-10 09:59:11		0	0	0	0	0	0	1.71	1.04	0.02	84998	0	1524	61126	84998	83474	885	14	101	17	59119	3456547	1017
231	2017-11-10 10:11:01		0	0	0	0	0	0	1.71	1.04	0.02	85000	0	1524	61126	85000	83476	885	14	101	17	59119	3456551	1017
232	2017-11-10 10:27:46		0	0	0	0	0	0	1.71	1.04	0.02	85005	0	1526	61126	85005	83479	885	14	101	17	59119	3456560	1017
233	2017-11-10 10:36:15		0	0	0	0	0	0	1.71	1.04	0.02	85010	0	1528	61126	85010	83482	885	14	101	17	59119	3456563	1017
234	2017-11-10 10:47:36		0	0	0	0	0	0	1.71	1.04	0.02	85014	0	1528	61126	85014	83486	885	14	101	17	59119	3456559	1017
235	2017-11-10 10:59:53		0	0	0	0	0	0	1.71	1.04	0.02	85022	0	1528	61126	85022	83494	885	14	101	17	59119	3456562	1017
236	2017-11-10 11:10:49		0	0	0	0	0	0	1.71	1.04	0.02	85024	0	1528	61126	85024	83496	885	14	101	17	59119	3456564	1017
237	2017-11-10 11:45:34		0	0	0	0	0	0	1.71	1.04	0.02	85031	0	1530	61126	85031	83501	885	14	101	17	59119	3456575	1017
238	2017-11-10 11:52:24		0	0	0	0	0	0	1.71	1.04	0.02	85038	0	1530	61126	85038	83508	885	14	101	17	59119	3456573	1017
239	2017-11-10 12:04:18		0	0	0	0	0	0	1.71	1.04	0.02	85044	0	1530	61126	85044	83514	886	14	101	17	59119	3456574	1018
240	2017-11-10 12:15:33		0	0	0	0	0	0	1.71	1.04	0.02	85048	0	1530	61126	85048	83518	886	14	101	17	59119	3456585	1018
241	2017-11-10 12:27:46		0	0	0	0	0	0	1.71	1.04	0.02	85049	0	1530	61126	85049	83519	886	14	101	17	59119	3456592	1018
242	2017-11-10 12:44:46		0	0	0	0	0	0	1.71	1.04	0.02	85056	0	1530	61126	85056	83526	886	14	101	17	59119	3456598	1018
243	2017-11-10 12:56:34		0	0	0	0	0	0	1.71	1.04	0.02	85059	0	1530	61126	85059	83529	886	14	101	17	59119	3456598	1018
244	2017-11-10 13:10:06		0	0	0	0	0	0	1.71	1.04	0.02	85064	0	1530	61126	85064	83534	886	14	101	17	59119	3456607	1018
245	2017-11-10 13:32:05		0	0	0	0	0	0	1.71	1.04	0.02	85075	0	1531	61126	85075	83544	886	14	101	17	59119	3456610	1018
246	2017-11-10 13:40:56		0	0	0	0	0	0	1.71	1.04	0.02	85081	0	1531	61126	85081	83550	886	14	101	17	59119	3456613	1018
247	2017-11-10 14:03:56		0	0	0	0	0	0	1.71	1.04	0.02	85088	0	1533	61126	85088	83555	886	14	101	17	59119	3456617	1018
248	2017-11-10 14:14:51		0	0	0	0	0	0	1.71	1.04	0.02	85093	0	1533	61126	85093	83560	886	14	101	17	59119	3456626	1018
249	2017-11-10 14:47:27		0	0	0	0	0	0	1.71	1.04	0.02	85105	0	1533	61126	85105	83572	886	14	101	17	59119	3456641	1018
250	2017-11-10 14:54:55		0	0	0	0	0	0	1.71	1.04	0.02	85109	0	1533	61126	85109	83576	886	14	101	17	59119	3456642	1018
251	2017-11-10 15:12:16		0	0	0	0	0	0	1.71	1.04	0.02	85115	0	1535	61165	85115	83580	886	14	101	17	59119	3456651	1018
252	2017-11-10 15:28:58		0	0	0	0	0	0	1.71	1.04	0.02	85119	0	1535	61165	85119	83584	887	14	101	17	59119	3456652	1019
253	2017-11-10 15:32:17		0	0	0	0	0	0	1.71	1.04	0.02	85120	0	1535	61165	85120	83585	887	14	101	17	59119	3456654	1019
254	2017-11-10 15:46:56		0	0	0	0	0	0	1.71	1.04	0.02	85130	0	1536	61165	85130	83594	887	14	101	17	59119	3456667	1019
