1	2015-11-13 20:01:21	0	0	0	0	0	0	0	0	0	0	0	0	0	0	0	0	0	0	0	0	1286632	0
2	2015-11-13 20:11:21	0	0	0	0	0	0	0.9	0.88	0	14273	0	30	11631	14273	14243	125	3	33	5	11544	1286647	166
3	2015-11-13 20:21:21	0	0	0	0	0	0	1.3	0.99	0	21715	0	94	16903	21715	21621	215	9	50	8	16756	1286663	282
4	2015-11-13 20:31:20	0	0	0	0	0	0	1.3	0.99	0	21715	0	94	16903	21715	21621	215	9	50	8	16756	1286681	282
5	2015-11-13 20:41:20	0	0	0	0	0	0	2.17	1.08	0.01	39344	0	306	28525	39344	39038	423	14	74	9	27971	1286700	520
6	2015-11-13 20:51:20	0	0	0	0	0	0	2.17	1.08	0.01	39344	0	306	28525	39344	39038	423	14	74	9	27971	1286722	520
7	2015-11-13 21:01:21	0	0	0	0	0	0	2.95	1.11	0.01	54868	0	645	38757	54868	54223	609	17	103	11	37986	1286728	740
8	2015-11-13 21:11:21	0	0	0	0	0	0	3.05	1.11	0.01	57402	0	706	40140	57402	56696	640	18	108	11	39301	1286744	777
9	2015-11-13 21:21:20	0	0	0	0	0	0	3.05	1.11	0.01	57402	0	706	40140	57402	56696	640	18	108	11	39301	1286763	777
10	2015-11-13 21:31:21	0	0	0	0	0	0	3.47	1.13	0.01	65955	0	924	45800	65955	65031	746	21	116	12	44652	1286779	895
11	2015-11-13 21:41:23	0	0	0	0	0	0	3.57	1.13	0.01	68341	0	994	47260	68341	67347	775	21	117	12	45973	1286792	925
12	2015-11-13 21:51:23	0	0	0	0	0	0	3.57	1.13	0.01	68341	0	994	47260	68341	67347	775	21	117	12	45973	1286807	925
13	2015-11-13 22:01:23	0	0	0	0	0	0	3.96	1.14	0.02	76028	0	1227	52238	76028	74801	863	24	140	14	50942	1286815	1041
14	2015-11-13 22:11:22	0	0	0	0	0	0	3.96	1.14	0.02	76028	0	1227	52238	76028	74801	863	24	140	14	50942	1286829	1041
15	2015-11-13 22:21:22	0	0	0	0	0	0	4.19	1.14	0.02	80826	0	1367	55121	80826	79459	919	26	146	14	53919	1286843	1105
16	2015-11-13 22:31:22	0	0	0	0	0	0	4.32	1.14	0.02	84008	0	1472	56959	84008	82536	961	27	152	15	55653	1286864	1155
17	2015-11-13 22:41:21	0	0	0	0	0	0	4.32	1.14	0.02	84008	0	1472	56959	84008	82536	961	27	152	15	55653	1286885	1155
18	2015-11-13 22:51:22	0	0	0	0	0	0	4.54	1.14	0.02	88542	0	1601	59840	88542	86941	1011	27	156	15	58479	1286904	1209
19	2015-11-13 23:01:22	0	0	0	0	0	0	4.54	1.14	0.02	88542	0	1601	59840	88542	86941	1011	27	156	15	58479	1286928	1209
20	2015-11-13 23:11:22	0	0	0	0	0	0	4.78	1.14	0.02	92927	0	1753	62861	92927	91174	1055	28	165	15	61471	1286959	1263
21	2015-11-13 23:21:22	0	0	0	0	0	0	4.93	1.13	0.02	96003	0	1883	65164	96003	94120	1086	31	171	15	63475	1287000	1303
22	2015-11-13 23:31:22	0	0	0	0	0	0	4.93	1.13	0.02	96003	0	1883	65164	96003	94120	1086	31	171	15	63475	1287017	1303
23	2015-11-13 23:41:22	0	0	0	0	0	0	5.08	1.13	0.02	100120	0	2026	67068	100120	98094	1132	31	180	15	65435	1287033	1358
24	2015-11-13 23:51:22	0	0	0	0	0	0	5.21	1.13	0.02	102676	0	2101	68943	102676	100575	1164	31	183	15	67117	1287062	1393
25	2015-11-14 00:01:22	0	0	0	0	0	0	5.28	1.13	0.02	104094	0	2139	69811	104094	101955	1175	33	188	15	67897	1287087	1411
26	2015-11-14 00:11:26	0	0	0	0	0	0	5.37	1.13	0.02	106278	0	2210	71220	106278	104068	1202	34	191	15	69128	1287105	1442
27	2015-11-14 00:21:25	0	0	0	0	0	0	5.37	1.13	0.02	106278	0	2210	71220	106278	104068	1202	34	191	15	69128	1287127	1442
28	2015-11-14 00:31:22	0	0	0	0	0	0	5.48	1.14	0.02	109689	0	2320	72934	109689	107369	1246	34	198	15	70595	1287137	1493
29	2015-11-14 00:41:22	0	0	0	0	0	0	5.59	1.14	0.02	111945	0	2392	74332	111945	109553	1273	35	203	15	71903	1287152	1526
30	2015-11-14 00:51:22	0	0	0	0	0	0	5.62	1.15	0.02	113066	0	2440	74839	113066	110626	1299	35	205	15	72377	1287165	1554
31	2015-11-14 01:01:22	0	0	0	0	0	0	5.62	1.15	0.02	113066	0	2440	74839	113066	110626	1299	35	205	15	72377	1287185	1554
32	2015-11-14 01:11:22	0	0	0	0	0	0	5.79	1.14	0.02	117465	0	2567	77333	117465	114898	1338	35	215	17	74557	1287192	1605
33	2015-11-14 01:21:22	0	0	0	0	0	0	5.79	1.14	0.02	117465	0	2567	77333	117465	114898	1338	35	215	17	74557	1287213	1605
34	2015-11-14 01:31:22	0	0	0	0	0	0	5.94	1.14	0.02	120416	0	2636	79368	120416	117780	1367	36	223	17	76507	1287246	1643
35	2015-11-14 01:41:22	0	0	0	0	0	0	5.94	1.14	0.02	120416	0	2636	79368	120416	117780	1367	36	223	17	76507	1287270	1643
36	2015-11-14 01:51:22	0	0	0	0	0	0	6.12	1.13	0.02	123005	0	2697	81761	123005	120308	1384	36	227	17	78742	1287287	1664
37	2015-11-14 02:01:23	0	0	0	0	0	0	6.2	1.12	0.02	124282	0	2726	82793	124282	121556	1390	36	231	17	79830	1287303	1674
38	2015-11-14 02:11:24	0	0	0	0	0	0	6.21	1.11	0.02	124930	0	2747	82845	124930	122183	1391	36	233	17	79878	1287312	1677
39	2015-11-14 02:21:25	0	0	0	0	0	0	6.3	1.11	0.02	126183	0	2776	84018	126183	123407	1405	36	237	17	81070	1287322	1695
40	2015-11-14 02:31:21	0	0	0	0	0	0	6.3	1.11	0.02	126183	0	2776	84018	126183	123407	1405	36	237	17	81070	1287327	1695
41	2015-11-14 02:41:22	0	0	0	0	0	0	6.34	1.11	0.02	127655	0	2807	84634	127655	124848	1421	36	238	17	81557	1287332	1712
42	2015-11-14 02:51:22	0	0	0	0	0	0	6.4	1.12	0.02	128542	0	2825	85514	128542	125717	1436	36	240	17	82374	1287335	1729
43	2015-11-14 03:01:22	0	0	0	0	0	0	6.4	1.12	0.02	128542	0	2825	85514	128542	125717	1436	36	240	17	82374	1287767	1729
44	2015-11-14 03:11:21	0	0	0	0	0	0	6.47	1.12	0.02	129809	0	2852	86522	129809	126957	1451	36	242	17	83274	1287773	1746
45	2015-11-14 03:21:22	0	0	0	0	0	0	6.51	1.12	0.02	130427	0	2864	87079	130427	127563	1457	36	246	17	83862	1287776	1756
46	2015-11-14 03:31:22	0	0	0	0	0	0	6.53	1.12	0.02	130791	0	2870	87330	130791	127921	1460	36	246	17	84040	1287782	1759
47	2015-11-14 03:41:21	0	0	0	0	0	0	6.53	1.12	0.02	130791	0	2870	87330	130791	127921	1460	36	246	17	84040	1287787	1759
48	2015-11-14 03:51:22	0	0	0	0	0	0	6.56	1.11	0.02	131922	0	2891	88174	131922	129031	1470	36	248	17	84499	1287789	1771
49	2015-11-14 04:01:21	0	0	0	0	0	0	6.56	1.11	0.02	131922	0	2891	88174	131922	129031	1470	36	248	17	84499	1287789	1771
50	2015-11-14 04:11:22	0	0	0	0	0	0	6.62	1.12	0.02	132626	0	2908	88738	132626	129718	1481	36	250	17	85269	1287791	1784
51	2015-11-14 04:21:21	0	0	0	0	0	0	6.62	1.12	0.02	132626	0	2908	88738	132626	129718	1481	36	250	17	85269	1287791	1784
52	2015-11-14 04:31:22	0	0	0	0	0	0	6.63	1.12	0.02	133176	0	2923	88837	133176	130253	1487	36	252	17	85360	1287795	1792
53	2015-11-14 04:41:21	0	0	0	0	0	0	6.63	1.12	0.02	133176	0	2923	88837	133176	130253	1487	36	252	17	85360	1287794	1792
54	2015-11-14 04:51:22	0	0	0	0	0	0	6.66	1.12	0.02	133650	0	2937	89213	133650	130713	1493	36	252	17	85708	1287796	1798
55	2015-11-14 05:01:22	0	0	0	0	0	0	6.66	1.12	0.02	133949	0	2940	89315	133949	131009	1495	36	252	17	85802	1287799	1800
56	2015-11-14 05:11:21	0	0	0	0	0	0	6.66	1.12	0.02	133949	0	2940	89315	133949	131009	1495	36	252	17	85802	1287799	1800
57	2015-11-14 05:21:21	0	0	0	0	0	0	6.68	1.12	0.02	134354	0	2946	89501	134354	131408	1499	36	252	17	85973	1287801	1804
58	2015-11-14 05:31:22	0	0	0	0	0	0	6.68	1.12	0.02	134564	0	2953	89583	134564	131611	1502	36	252	17	86050	1287803	1807
59	2015-11-14 05:41:21	0	0	0	0	0	0	6.68	1.12	0.02	134564	0	2953	89583	134564	131611	1502	36	252	17	86050	1287802	1807
60	2015-11-14 05:51:22	0	0	0	0	0	0	6.72	1.12	0.02	134988	0	2964	90104	134988	132024	1506	36	252	17	86529	1287804	1811
61	2015-11-14 06:01:21	0	0	0	0	0	0	6.72	1.12	0.02	134988	0	2964	90104	134988	132024	1506	36	252	17	86529	1287806	1811
62	2015-11-14 06:11:21	0	0	0	0	0	0	6.72	1.12	0.02	135361	0	2983	90119	135361	132378	1512	36	253	17	86583	1287808	1818
63	2015-11-14 06:21:21	0	0	0	0	0	0	6.72	1.12	0.02	135361	0	2983	90119	135361	132378	1512	36	253	17	86583	1287812	1818
64	2015-11-14 06:31:22	0	0	0	0	0	0	6.75	1.12	0.02	135906	0	2998	90499	135906	132908	1516	36	253	17	86933	1287814	1822
65	2015-11-14 06:41:22	0	0	0	0	0	0	6.75	1.12	0.02	135906	0	2998	90499	135906	132908	1516	36	253	17	86933	1287819	1822
66	2015-11-14 06:51:22	0	0	0	0	0	0	6.77	1.12	0.02	136372	0	3018	90668	136372	133354	1525	36	253	17	87168	1287821	1831
67	2015-11-14 07:01:21	0	0	0	0	0	0	6.77	1.12	0.02	136372	0	3018	90668	136372	133354	1525	36	253	17	87168	1287823	1831
68	2015-11-14 07:11:21	0	0	0	0	0	0	6.8	1.12	0.02	136883	0	3034	91090	136883	133849	1531	36	253	17	87557	1287824	1837
69	2015-11-14 07:21:22	0	0	0	0	0	0	6.81	1.12	0.02	137306	0	3047	91245	137306	134259	1536	38	253	17	87701	1287823	1844
70	2015-11-14 07:31:21	0	0	0	0	0	0	6.81	1.12	0.02	137306	0	3047	91245	137306	134259	1536	38	253	17	87701	1287827	1844
71	2015-11-14 07:41:21	0	0	0	0	0	0	6.83	1.12	0.02	137890	0	3088	91524	137890	134802	1543	38	254	17	88019	1287829	1852
72	2015-11-14 07:51:21	0	0	0	0	0	0	6.83	1.12	0.02	137890	0	3088	91524	137890	134802	1543	38	254	17	88019	1287832	1852
73	2015-11-14 08:01:22	0	0	0	0	0	0	6.86	1.12	0.02	138738	0	3140	91875	138738	135598	1555	38	255	17	88342	1287836	1865
74	2015-11-14 08:11:21	0	0	0	0	0	0	6.86	1.12	0.02	138738	0	3140	91875	138738	135598	1555	38	255	17	88342	1287839	1865
75	2015-11-14 08:21:21	0	0	0	0	0	0	6.88	1.12	0.02	140093	0	3205	92434	140093	136888	1567	38	255	17	88656	1287846	1877
76	2015-11-14 08:31:21	0	0	0	0	0	0	6.92	1.13	0.02	140517	0	3219	92739	140517	137298	1581	38	262	17	89080	1287849	1898
77	2015-11-14 08:41:22	0	0	0	0	0	0	7	1.13	0.02	141414	0	3267	93882	141414	138147	1592	38	266	17	90134	1287859	1913
78	2015-11-14 08:51:21	0	0	0	0	0	0	7	1.13	0.02	141414	0	3267	93882	141414	138147	1592	38	266	17	90134	1287869	1913
79	2015-11-14 09:01:22	0	0	0	0	0	0	7.1	1.13	0.02	142874	0	3336	95387	142874	139538	1621	38	269	17	91477	1287884	1945
80	2015-11-14 09:11:21	0	0	0	0	0	0	7.1	1.13	0.02	142874	0	3336	95387	142874	139538	1621	38	269	17	91477	1287887	1945
81	2015-11-14 09:21:21	0	0	0	0	0	0	7.21	1.14	0.02	144991	0	3428	97178	144991	141563	1658	38	271	17	92864	1287898	1984
82	2015-11-14 09:31:23	0	0	0	0	0	0	7.25	1.14	0.02	145563	0	3455	97577	145563	142108	1666	38	274	17	93317	1287906	1995
83	2015-11-14 09:41:21	0	0	0	0	0	0	7.25	1.14	0.02	145563	0	3455	97577	145563	142108	1666	38	274	17	93317	1287909	1995
84	2015-11-14 09:51:22	0	0	0	0	0	0	7.41	1.15	0.02	148181	0	3586	99714	148181	144595	1709	38	280	17	95435	1287920	2044
85	2015-11-14 10:01:22	0	0	0	0	0	0	7.41	1.15	0.02	148181	0	3586	99714	148181	144595	1709	38	280	17	95435	1287930	2044
86	2015-11-14 10:11:22	0	0	0	0	0	0	7.45	1.16	0.03	150260	0	3685	100536	150260	146575	1743	38	287	18	95997	1287953	2086
87	2015-11-14 10:21:21	0	0	0	0	0	0	7.45	1.16	0.03	150260	0	3685	100536	150260	146575	1743	38	287	18	95997	1287973	2086
88	2015-11-14 10:31:22	0	0	0	0	0	0	7.53	1.16	0.03	152332	0	3787	101778	152332	148545	1773	38	296	18	97010	1287992	2125
89	2015-11-14 10:41:22	0	0	0	0	0	0	7.53	1.16	0.03	152332	0	3787	101778	152332	148545	1773	38	296	18	97010	1288006	2125
90	2015-11-14 10:51:22	0	0	0	0	0	0	7.65	1.16	0.03	154180	0	3865	103182	154180	150315	1791	38	301	18	98472	1288010	2148
91	2015-11-14 11:01:23	0	0	0	0	0	0	7.7	1.17	0.03	155612	0	3929	104068	155612	151683	1819	38	304	18	99151	1288018	2179
92	2015-11-14 11:11:25	0	0	0	0	0	0	7.76	1.17	0.03	156203	0	3953	104864	156203	152250	1827	38	306	18	100015	1288039	2189
93	2015-11-14 11:21:24	0	0	0	0	0	0	7.76	1.17	0.03	156203	0	3953	104864	156203	152250	1827	38	306	18	100015	1288050	2189
94	2015-11-14 11:31:25	0	0	0	0	0	0	7.84	1.16	0.03	158664	0	4037	106192	158664	154004	1848	38	310	18	101011	1288065	2214
95	2015-11-14 11:41:23	0	0	0	0	0	0	7.84	1.16	0.03	158664	0	4037	106192	158664	154004	1848	38	310	18	101011	1288079	2214
96	2015-11-14 11:51:24	0	0	0	0	0	0	7.96	1.17	0.03	160238	0	4154	107999	160238	156084	1876	39	312	18	102475	1288102	2245
97	2015-11-14 12:01:24	0	0	0	0	0	0	8.01	1.17	0.03	161222	0	4196	108551	161222	157026	1889	39	314	18	103144	1288127	2260
98	2015-11-14 12:11:24	0	0	0	0	0	0	8.03	1.17	0.03	161746	0	4220	108918	161746	157526	1897	39	315	18	103475	1288140	2269
99	2015-11-14 12:21:24	0	0	0	0	0	0	8.1	1.18	0.03	162753	0	4268	109826	162753	158485	1916	39	316	18	104294	1288155	2289
100	2015-11-14 12:31:27	0	0	0	0	0	0	8.12	1.18	0.03	163187	0	4284	110135	163187	158903	1919	39	316	18	104558	1288167	2292
101	2015-11-14 12:41:26	0	0	0	0	0	0	8.12	1.18	0.03	163187	0	4284	110135	163187	158903	1919	39	316	18	104558	1288177	2292
102	2015-11-14 12:51:25	0	0	0	0	0	0	8.18	1.18	0.03	164526	0	4345	110900	164526	160181	1936	39	319	18	105409	1288199	2312
103	2015-11-14 13:01:25	0	0	0	0	0	0	8.26	1.18	0.03	165331	0	4395	111976	165331	160936	1945	39	320	18	106381	1288214	2322
104	2015-11-14 13:11:26	0	0	0	0	0	0	8.27	1.18	0.03	166028	0	4432	112196	166028	161596	1952	39	321	18	106579	1288239	2330
105	2015-11-14 13:21:24	0	0	0	0	0	0	8.27	1.18	0.03	166028	0	4432	112196	166028	161596	1952	39	321	18	106579	1288254	2330
106	2015-11-14 13:31:26	0	0	0	0	0	0	8.36	1.18	0.03	167482	0	4511	113518	167482	162971	1972	39	322	18	107651	1288279	2351
107	2015-11-14 13:41:25	0	0	0	0	0	0	8.36	1.18	0.03	167482	0	4511	113518	167482	162971	1972	39	322	18	107651	1288292	2351
108	2015-11-14 13:51:27	0	0	0	0	0	0	8.43	1.18	0.03	168470	0	4565	114627	168470	163905	1992	39	326	18	108631	1288311	2375
109	2015-11-14 14:01:25	0	0	0	0	0	0	8.43	1.18	0.03	168470	0	4565	114627	168470	163905	1992	39	326	18	108631	1288328	2375
110	2015-11-14 14:11:29	0	0	0	0	0	0	8.48	1.18	0.03	169523	0	4618	115328	169523	164905	2007	39	326	19	109245	1288344	2391
111	2015-11-14 14:21:25	0	0	0	0	0	0	8.48	1.18	0.03	169523	0	4618	115328	169523	164905	2007	39	326	19	109245	1288363	2391
112	2015-11-14 14:31:28	0	0	0	0	0	0	8.51	1.19	0.03	170686	0	4668	115595	170686	166018	2024	39	328	19	109608	1288383	2410
113	2015-11-14 14:41:25	0	0	0	0	0	0	8.51	1.19	0.03	170686	0	4668	115595	170686	166018	2024	39	328	19	109608	1288396	2410
114	2015-11-14 14:51:25	0	0	0	0	0	0	8.53	1.19	0.03	171586	0	4696	115941	171586	166890	2034	39	329	19	109919	1288426	2421
115	2015-11-14 15:01:26	0	0	0	0	0	0	8.57	1.18	0.03	172277	0	4722	116363	172277	167555	2038	39	331	19	110401	1288447	2427
116	2015-11-14 15:11:28	0	0	0	0	0	0	8.57	1.18	0.03	172534	0	4734	116363	172534	167800	2044	39	331	19	110401	1288463	2433
117	2015-11-14 15:21:25	0	0	0	0	0	0	8.57	1.18	0.03	172534	0	4734	116363	172534	167800	2044	39	331	19	110401	1288477	2433
118	2015-11-14 15:31:27	0	0	0	0	0	0	8.66	1.19	0.03	173656	0	4785	117498	173656	168871	2063	39	331	19	111567	1288487	2452
119	2015-11-14 15:41:26	0	0	0	0	0	0	8.66	1.19	0.03	173656	0	4785	117498	173656	168871	2063	39	331	19	111567	1288506	2452
120	2015-11-14 15:51:26	0	0	0	0	0	0	8.68	1.19	0.03	174528	0	4830	118052	174528	169698	2077	39	333	21	111815	1288524	2470
121	2015-11-14 16:01:26	0	0	0	0	0	0	8.69	1.19	0.03	175189	0	4843	118248	175189	170002	2084	39	333	21	111991	1288533	2477
122	2015-11-14 16:11:25	0	0	0	0	0	0	8.69	1.19	0.03	175189	0	4843	118248	175189	170002	2084	39	333	21	111991	1288548	2477
123	2015-11-14 16:21:26	0	0	0	0	0	0	8.72	1.19	0.03	176078	0	4902	118801	176078	171176	2104	39	336	21	112308	1288562	2500
124	2015-11-14 16:31:25	0	0	0	0	0	0	8.72	1.19	0.03	176078	0	4902	118801	176078	171176	2104	39	336	21	112308	1288582	2500
125	2015-11-14 16:41:27	0	0	0	0	0	0	8.77	1.2	0.03	176990	0	4948	119567	176990	172042	2117	39	338	21	113041	1288592	2515
126	2015-11-14 16:51:26	0	0	0	0	0	0	8.77	1.2	0.03	176990	0	4948	119567	176990	172042	2117	39	338	21	113041	1288607	2515
127	2015-11-14 17:01:26	0	0	0	0	0	0	8.8	1.2	0.03	177935	0	5035	120001	177935	172900	2129	41	342	21	113429	1288624	2533
128	2015-11-14 17:11:29	0	0	0	0	0	0	8.83	1.2	0.03	178449	0	5077	120402	178449	173372	2137	41	343	21	113787	1288636	2542
129	2015-11-14 17:21:26	0	0	0	0	0	0	8.83	1.2	0.03	178449	0	5077	120402	178449	173372	2137	41	343	21	113787	1288658	2542
130	2015-11-14 17:31:27	0	0	0	0	0	0	8.9	1.2	0.03	179342	0	5145	121689	179342	174197	2145	41	344	21	114698	1288659	2551
131	2015-11-14 17:41:26	0	0	0	0	0	0	8.9	1.2	0.03	179342	0	5145	121689	179342	174197	2145	41	344	21	114698	1288668	2551
132	2015-11-14 17:51:27	0	0	0	0	0	0	8.93	1.2	0.03	180110	0	5198	121957	180110	174912	2156	41	345	21	115030	1288683	2563
133	2015-11-14 18:01:27	0	0	0	0	0	0	8.93	1.2	0.03	180577	0	5223	122052	180577	175354	2161	41	346	21	115114	1288697	2569
134	2015-11-14 18:11:26	0	0	0	0	0	0	8.93	1.2	0.03	180577	0	5223	122052	180577	175354	2161	41	346	21	115114	1288708	2569
135	2015-11-14 18:21:27	0	0	0	0	0	0	8.94	1.2	0.03	181242	0	5259	122187	181242	175983	2168	41	347	21	115234	1288722	2577
136	2015-11-14 18:31:28	0	0	0	0	0	0	8.97	1.2	0.03	181641	0	5284	122535	181641	176357	2172	41	349	21	115544	1288736	2583
137	2015-11-14 18:41:27	0	0	0	0	0	0	8.97	1.2	0.03	181641	0	5284	122535	181641	176357	2172	41	349	21	115544	1288742	2583
138	2015-11-14 18:51:28	0	0	0	0	0	0	8.97	1.2	0.03	182227	0	5325	122535	182227	176902	2182	41	350	21	115544	1288762	2594
139	2015-11-14 19:01:29	0	0	0	0	0	0	8.99	1.2	0.03	182720	0	5352	123027	182720	177368	2189	41	351	21	115842	1288776	2602
140	2015-11-14 19:11:28	0	0	0	0	0	0	8.99	1.2	0.03	182720	0	5352	123027	182720	177368	2189	41	351	21	115842	1288784	2602
141	2015-11-14 19:21:28	0	0	0	0	0	0	9	1.2	0.03	183667	0	5385	123223	183667	178274	2201	41	352	21	116016	1288789	2615
142	2015-11-14 19:31:27	0	0	0	0	0	0	9	1.2	0.03	183667	0	5385	123223	183667	178274	2201	41	352	21	116016	1288802	2615
143	2015-11-14 19:41:29	0	0	0	0	0	0	9.02	1.2	0.03	184416	0	5427	123270	184416	178989	2216	41	352	21	116249	1288817	2630
144	2015-11-14 19:51:29	0	0	0	0	0	0	9.02	1.2	0.03	184416	0	5427	123270	184416	178989	2216	41	352	21	116249	1288824	2630
145	2015-11-14 20:01:28	0	0	0	0	0	0	9.04	1.2	0.03	185282	0	5488	123506	185282	179794	2231	42	353	22	116494	1288831	2648
146	2015-11-14 20:11:29	0	0	0	0	0	0	9.04	1.2	0.03	185826	0	5514	123708	185826	180312	2239	42	354	22	116568	1288850	2657
147	2015-11-14 20:21:29	0	0	0	0	0	0	9.06	1.2	0.03	186364	0	5543	124159	186364	180821	2242	42	356	22	116722	1288867	2662
148	2015-11-14 20:31:29	0	0	0	0	0	0	9.06	1.2	0.03	186364	0	5543	124159	186364	180821	2242	42	356	22	116722	1288878	2662
149	2015-11-14 20:41:28	0	0	0	0	0	0	9.06	1.2	0.03	187187	0	5591	124284	187187	181596	2249	42	356	22	116832	1288889	2669
150	2015-11-14 20:51:28	0	0	0	0	0	0	9.1	1.2	0.03	187751	0	5623	124800	187751	182128	2257	42	356	22	117288	1288902	2677
151	2015-11-14 21:01:29	0	0	0	0	0	0	9.1	1.2	0.03	188304	0	5644	124966	188304	182660	2262	42	356	22	117292	1288912	2682
152	2015-11-14 21:11:29	0	0	0	0	0	0	9.1	1.2	0.03	188304	0	5644	124966	188304	182660	2262	42	356	22	117292	1288925	2682
153	2015-11-14 21:21:29	0	0	0	0	0	0	9.12	1.2	0.03	189016	0	5687	125401	189016	183329	2268	42	358	22	117586	1288942	2690
154	2015-11-14 21:31:30	0	0	0	0	0	0	9.13	1.2	0.03	189435	0	5710	125482	189435	183725	2277	42	358	22	117658	1288959	2699
155	2015-11-14 21:41:30	0	0	0	0	0	0	9.13	1.2	0.03	189651	0	5720	125482	189651	183931	2280	42	358	22	117658	1288969	2702
156	2015-11-14 21:51:29	0	0	0	0	0	0	9.13	1.2	0.03	189651	0	5720	125482	189651	183931	2280	42	358	22	117658	1288979	2702
157	2015-11-14 22:01:31	0	0	0	0	0	0	9.14	1.2	0.03	190517	0	5766	125660	190517	184751	2293	42	359	22	117814	1288995	2716
158	2015-11-14 22:11:29	0	0	0	0	0	0	9.14	1.2	0.03	190517	0	5766	125660	190517	184751	2293	42	359	22	117814	1289009	2716
159	2015-11-14 22:21:30	0	0	0	0	0	0	9.15	1.21	0.03	191049	0	5789	125783	191049	185260	2303	42	359	22	117922	1289023	2726
160	2015-11-14 22:31:29	0	0	0	0	0	0	9.15	1.21	0.03	191049	0	5789	125783	191049	185260	2303	42	359	22	117922	1289035	2726
161	2015-11-14 22:41:31	0	0	0	0	0	0	9.18	1.21	0.03	191670	0	5828	126106	191670	185842	2311	43	360	22	118278	1289050	2736
162	2015-11-14 22:51:29	0	0	0	0	0	0	9.18	1.21	0.03	191670	0	5828	126106	191670	185842	2311	43	360	22	118278	1289065	2736
163	2015-11-14 23:01:32	0	0	0	0	0	0	9.21	1.21	0.03	192278	0	5885	126549	192278	186393	2319	43	362	22	118777	1289084	2746
164	2015-11-14 23:11:30	0	0	0	0	0	0	9.21	1.21	0.03	192278	0	5885	126549	192278	186393	2319	43	362	22	118777	1289102	2746
165	2015-11-14 23:21:30	0	0	0	0	0	0	9.25	1.21	0.03	193064	0	5965	127047	193064	187099	2328	43	363	22	119216	1289111	2756
166	2015-11-14 23:31:29	0	0	0	0	0	0	9.25	1.21	0.03	193064	0	5965	127047	193064	187099	2328	43	363	22	119216	1289120	2756
167	2015-11-14 23:41:30	0	0	0	0	0	0	9.26	1.21	0.03	193765	0	6008	127225	193765	187757	2335	43	363	22	119372	1289140	2763
168	2015-11-14 23:51:31	0	0	0	0	0	0	9.29	1.21	0.03	193970	0	6020	127610	193970	187950	2342	43	364	22	119712	1289153	2771
169	2015-11-15 00:01:29	0	0	0	0	0	0	9.29	1.21	0.03	193970	0	6020	127610	193970	187950	2342	43	364	22	119712	1289167	2771
170	2015-11-15 00:11:30	0	0	0	0	0	0	9.29	1.21	0.03	194494	0	6058	127695	194494	188436	2345	44	365	22	119786	1289189	2776
171	2015-11-15 00:21:30	0	0	0	0	0	0	9.31	1.21	0.03	194855	0	6084	127811	194855	188771	2350	44	366	22	120036	1289204	2782
172	2015-11-15 00:31:29	0	0	0	0	0	0	9.31	1.21	0.03	194855	0	6084	127811	194855	188771	2350	44	366	22	120036	1289229	2782
173	2015-11-15 00:41:30	0	0	0	0	0	0	9.33	1.2	0.03	195572	0	6137	128093	195572	189435	2354	44	368	22	120249	1289249	2788
174	2015-11-15 00:51:30	0	0	0	0	0	0	9.33	1.2	0.03	195572	0	6137	128093	195572	189435	2354	44	368	22	120249	1289262	2788
175	2015-11-15 01:01:30	0	0	0	0	0	0	9.33	1.2	0.03	196039	0	6161	128093	196039	189878	2361	44	368	22	120249	1289279	2795
176	2015-11-15 01:11:29	0	0	0	0	0	0	9.33	1.2	0.03	196039	0	6161	128093	196039	189878	2361	44	368	22	120249	1289292	2795
177	2015-11-15 01:21:30	0	0	0	0	0	0	9.36	1.21	0.03	196610	0	6207	128537	196610	190403	2372	44	372	22	120640	1289307	2810
178	2015-11-15 01:31:29	0	0	0	0	0	0	9.36	1.21	0.03	196610	0	6207	128537	196610	190403	2372	44	372	22	120640	1289323	2810
179	2015-11-15 01:41:31	0	0	0	0	0	0	9.38	1.21	0.03	197049	0	6231	128794	197049	190818	2379	44	372	22	120941	1289334	2817
180	2015-11-15 01:51:29	0	0	0	0	0	0	9.38	1.21	0.03	197049	0	6231	128794	197049	190818	2379	44	372	22	120941	1289341	2817
181	2015-11-15 02:01:31	0	0	0	0	0	0	9.4	1.21	0.03	197416	0	6248	129149	197416	191168	2386	44	372	22	121140	1289352	2824
182	2015-11-15 02:11:30	0	0	0	0	0	0	9.4	1.21	0.03	197416	0	6248	129149	197416	191168	2386	44	372	22	121140	1289359	2824
183	2015-11-15 02:21:30	0	0	0	0	0	0	9.41	1.21	0.03	197722	0	6263	129343	197722	191459	2390	44	373	22	121311	1289366	2829
184	2015-11-15 02:31:29	0	0	0	0	0	0	9.41	1.21	0.03	197722	0	6263	129343	197722	191459	2390	44	373	22	121311	1289372	2829
185	2015-11-15 02:41:30	0	0	0	0	0	0	9.41	1.21	0.03	198101	0	6279	129343	198101	191724	2394	44	375	22	121311	1289385	2835
186	2015-11-15 02:51:29	0	0	0	0	0	0	9.41	1.21	0.03	198101	0	6279	129343	198101	191724	2394	44	375	22	121311	1289392	2835
187	2015-11-15 03:01:31	0	0	0	0	0	0	9.42	1.21	0.03	198291	0	6293	129493	198291	191998	2396	44	377	22	121443	1289842	2839
188	2015-11-15 03:11:29	0	0	0	0	0	0	9.42	1.21	0.03	198291	0	6293	129493	198291	191998	2396	44	377	22	121443	1289851	2839
189	2015-11-15 03:21:30	0	0	0	0	0	0	9.42	1.21	0.03	198580	0	6318	129493	198580	192262	2402	44	378	22	121443	1289853	2846
190	2015-11-15 03:31:29	0	0	0	0	0	0	9.42	1.21	0.03	198580	0	6318	129493	198580	192262	2402	44	378	22	121443	1289854	2846
191	2015-11-15 03:41:29	0	0	0	0	0	0	9.42	1.21	0.03	198763	0	6329	129558	198763	192434	2403	44	379	22	121500	1289856	2848
192	2015-11-15 03:51:30	0	0	0	0	0	0	9.42	1.21	0.03	198818	0	6332	129558	198818	192486	2403	44	379	22	121500	1289861	2848
193	2015-11-15 04:01:30	0	0	0	0	0	0	9.42	1.21	0.03	198917	0	6339	129595	198917	192578	2403	44	380	22	121529	1289864	2849
194	2015-11-15 04:11:29	0	0	0	0	0	0	9.42	1.21	0.03	198917	0	6339	129595	198917	192578	2403	44	380	22	121529	1289865	2849
195	2015-11-15 04:21:30	0	0	0	0	0	0	9.42	1.21	0.03	199050	0	6349	129595	199050	192701	2405	44	380	22	121529	1289868	2851
196	2015-11-15 04:31:29	0	0	0	0	0	0	9.42	1.21	0.03	199050	0	6349	129595	199050	192701	2405	44	380	22	121529	1289871	2851
197	2015-11-15 04:41:29	0	0	0	0	0	0	9.42	1.21	0.03	199162	0	6364	129595	199162	192798	2408	44	381	22	121529	1289872	2855
198	2015-11-15 04:51:31	0	0	0	0	0	0	9.42	1.21	0.03	199234	0	6373	129595	199234	192861	2409	44	381	22	121529	1289873	2856
199	2015-11-15 05:01:30	0	0	0	0	0	0	9.42	1.21	0.03	199234	0	6373	129595	199234	192861	2409	44	381	22	121529	1289874	2856
200	2015-11-15 05:11:30	0	0	0	0	0	0	9.42	1.21	0.03	199310	0	6382	129616	199310	192928	2411	44	381	22	121547	1289877	2858
201	2015-11-15 05:21:30	0	0	0	0	0	0	9.42	1.21	0.03	199359	0	6388	129616	199359	192971	2411	44	381	22	121547	1289879	2858
202	2015-11-15 05:31:30	0	0	0	0	0	0	9.43	1.21	0.03	199412	0	6391	129659	199412	193021	2411	44	381	22	121585	1289885	2858
203	2015-11-15 05:41:29	0	0	0	0	0	0	9.43	1.21	0.03	199412	0	6391	129659	199412	193021	2411	44	381	22	121585	1289882	2858
204	2015-11-15 05:51:29	0	0	0	0	0	0	9.43	1.21	0.03	199468	0	6395	129659	199468	193073	2411	44	381	22	121585	1289881	2858
205	2015-11-15 06:01:29	0	0	0	0	0	0	9.43	1.21	0.03	199468	0	6395	129659	199468	193073	2411	44	381	22	121585	1289882	2858
206	2015-11-15 06:11:29	0	0	0	0	0	0	9.43	1.21	0.03	199551	0	6402	129659	199551	193149	2413	44	381	22	121585	1289879	2860
207	2015-11-15 06:21:29	0	0	0	0	0	0	9.43	1.21	0.03	199566	0	6404	129659	199566	193162	2413	44	381	22	121585	1289877	2860
208	2015-11-15 06:31:29	0	0	0	0	0	0	9.43	1.21	0.03	199566	0	6404	129659	199566	193162	2413	44	381	22	121585	1289879	2860
209	2015-11-15 06:41:30	0	0	0	0	0	0	9.45	1.21	0.03	199670	0	6413	130007	199670	193257	2415	44	382	22	121892	1289879	2863
210	2015-11-15 06:51:29	0	0	0	0	0	0	9.45	1.21	0.03	199670	0	6413	130007	199670	193257	2415	44	382	22	121892	1289880	2863
211	2015-11-15 07:01:32	0	0	0	0	0	0	9.45	1.21	0.03	199757	0	6424	130029	199757	193333	2416	44	382	22	121911	1289881	2864
212	2015-11-15 07:11:29	0	0	0	0	0	0	9.45	1.21	0.03	199757	0	6424	130029	199757	193333	2416	44	382	22	121911	1289879	2864
213	2015-11-15 07:21:30	0	0	0	0	0	0	9.46	1.21	0.03	199856	0	6435	130160	199856	193421	2416	44	382	22	122026	1289882	2864
214	2015-11-15 07:31:30	0	0	0	0	0	0	9.46	1.21	0.03	199913	0	6437	130160	199913	193473	2416	44	382	22	122026	1289884	2864
215	2015-11-15 07:41:32	0	0	0	0	0	0	9.48	1.21	0.03	199939	0	6441	130424	199939	193498	2419	44	382	22	122258	1289887	2867
216	2015-11-15 07:51:29	0	0	0	0	0	0	9.48	1.21	0.03	199939	0	6441	130424	199939	193498	2419	44	382	22	122258	1289891	2867
217	2015-11-15 08:01:30	0	0	0	0	0	0	9.5	1.21	0.03	200066	0	6451	130732	200066	193615	2422	44	383	22	122528	1289894	2871
218	2015-11-15 08:11:30	0	0	0	0	0	0	9.5	1.21	0.03	200066	0	6451	130732	200066	193615	2422	44	383	22	122528	1289895	2871
219	2015-11-15 08:21:30	0	0	0	0	0	0	9.5	1.21	0.03	200156	0	6464	130865	200156	193692	2423	45	383	22	122567	1289894	2873
220	2015-11-15 08:31:30	0	0	0	0	0	0	9.5	1.21	0.03	200219	0	6477	130865	200219	193742	2429	45	383	22	122567	1289896	2879
221	2015-11-15 08:41:30	0	0	0	0	0	0	9.5	1.21	0.03	200219	0	6477	130865	200219	193742	2429	45	383	22	122567	1289902	2879
222	2015-11-15 08:51:36	0	0	0	0	0	0	9.5	1.21	0.03	200311	0	6493	130865	200311	193818	2431	45	383	22	122567	1289907	2881
223	2015-11-15 09:01:30	0	0	0	0	0	0	9.5	1.21	0.03	200311	0	6493	130865	200311	193818	2431	45	383	22	122567	1289916	2881
224	2015-11-15 09:11:32	0	0	0	0	0	0	9.5	1.21	0.03	200398	0	6512	130865	200398	193886	2432	45	384	22	122606	1289924	2883
225	2015-11-15 09:21:34	0	0	0	0	0	0	9.5	1.21	0.03	200481	0	6538	130865	200481	193943	2434	45	384	22	122606	1289930	2885
226	2015-11-15 09:31:30	0	0	0	0	0	0	9.5	1.21	0.03	200481	0	6538	130865	200481	193943	2434	45	384	22	122606	1289936	2885
227	2015-11-15 09:41:31	0	0	0	0	0	0	9.5	1.21	0.03	200585	0	6555	130865	200585	194030	2436	45	384	22	122606	1289943	2887
228	2015-11-15 09:51:31	0	0	0	0	0	0	9.52	1.22	0.03	200666	0	6569	131131	200666	194097	2441	45	384	22	122840	1289948	2892
229	2015-11-15 10:01:32	0	0	0	0	0	0	9.52	1.22	0.03	200701	0	6580	131131	200701	194121	2443	45	384	22	122840	1289955	2894
230	2015-11-15 10:11:30	0	0	0	0	0	0	9.52	1.22	0.03	200701	0	6580	131131	200701	194121	2443	45	384	22	122840	1289968	2894
231	2015-11-15 10:21:31	0	0	0	0	0	0	9.52	1.22	0.03	200889	0	6649	131131	200889	194240	2451	45	384	22	122840	1289980	2902
232	2015-11-15 10:31:30	0	0	0	0	0	0	9.52	1.22	0.03	200889	0	6649	131131	200889	194240	2451	45	384	22	122840	1289992	2902
233	2015-11-15 10:41:31	0	0	0	0	0	0	9.52	1.22	0.03	200994	0	6672	131131	200994	194322	2452	45	384	22	122840	1290008	2903
234	2015-11-15 10:51:30	0	0	0	0	0	0	9.52	1.22	0.03	200994	0	6672	131131	200994	194322	2452	45	384	22	122840	1290023	2903
235	2015-11-15 11:02:46	0	0	0	0	0	0	9.52	1.22	0.03	201133	0	6707	131131	201133	194426	2456	45	384	22	122840	1290037	2907
236	2015-11-15 11:11:31	0	0	0	0	0	0	9.52	1.22	0.03	201133	0	6707	131131	201133	194426	2456	45	384	22	122840	1290052	2907
237	2015-11-15 11:21:31	0	0	0	0	0	0	9.52	1.22	0.03	201230	0	6734	131131	201230	194496	2458	45	384	22	122840	1290064	2909
238	2015-11-15 11:31:30	0	0	0	0	0	0	9.52	1.22	0.03	201230	0	6734	131131	201230	194496	2458	45	384	22	122840	1290083	2909
239	2015-11-15 11:41:31	0	0	0	0	0	0	9.52	1.22	0.03	201325	0	6758	131131	201325	194567	2459	45	384	22	122840	1290096	2910
240	2015-11-15 11:51:32	0	0	0	0	0	0	9.52	1.22	0.03	201366	0	6766	131131	201366	194600	2461	45	384	22	122840	1290110	2912
241	2015-11-15 12:01:31	0	0	0	0	0	0	9.52	1.22	0.03	201366	0	6766	131131	201366	194600	2461	45	384	22	122840	1290124	2912
242	2015-11-15 12:11:32	0	0	0	0	0	0	9.52	1.22	0.03	201440	0	6784	131169	201440	194656	2462	45	384	22	122840	1290145	2913
243	2015-11-15 12:21:31	0	0	0	0	0	0	9.52	1.22	0.03	201440	0	6784	131169	201440	194656	2462	45	384	22	122840	1290157	2913
244	2015-11-15 12:31:32	0	0	0	0	0	0	9.53	1.22	0.03	201557	0	6813	131257	201557	194744	2464	46	385	22	122916	1290168	2917
245	2015-11-15 12:41:31	0	0	0	0	0	0	9.53	1.22	0.03	201557	0	6813	131257	201557	194744	2464	46	385	22	122916	1290181	2917
246	2015-11-15 12:51:32	0	0	0	0	0	0	9.53	1.22	0.04	201613	0	6829	131257	201613	194784	2464	46	385	22	122995	1290198	2917
247	2015-11-15 13:01:31	0	0	0	0	0	0	9.53	1.22	0.04	201613	0	6829	131257	201613	194784	2464	46	385	22	122995	1290209	2917
248	2015-11-15 13:11:32	0	0	0	0	0	0	9.53	1.22	0.04	201676	0	6833	131257	201676	194843	2464	46	385	22	122995	1290224	2917
249	2015-11-15 13:21:32	0	0	0	0	0	0	9.53	1.22	0.04	201676	0	6833	131257	201676	194843	2464	46	385	22	122995	1290236	2917
250	2015-11-15 13:31:34	0	0	0	0	0	0	9.53	1.22	0.04	201739	0	6844	131257	201739	194895	2466	46	385	22	122995	1290249	2919
251	2015-11-15 13:41:33	0	0	0	0	0	0	9.53	1.22	0.04	201739	0	6844	131257	201739	194895	2466	46	385	22	122995	1290263	2919
252	2015-11-15 13:51:34	0	0	0	0	0	0	9.53	1.22	0.04	201813	0	6857	131257	201813	194956	2468	46	385	22	122995	1290278	2921
253	2015-11-15 14:01:34	0	0	0	0	0	0	9.53	1.22	0.04	201813	0	6857	131257	201813	194956	2468	46	385	22	122995	1290292	2921
254	2015-11-15 14:11:32	0	0	0	0	0	0	9.53	1.22	0.04	201869	0	6874	131290	201869	194995	2469	46	385	22	123024	1290300	2922
255	2015-11-15 14:21:33	0	0	0	0	0	0	9.53	1.22	0.04	201888	0	6878	131290	201888	195010	2470	46	385	22	123024	1290315	2923
256	2015-11-15 14:31:34	0	0	0	0	0	0	9.53	1.22	0.04	201916	0	6889	131290	201916	195027	2472	46	385	22	123024	1290330	2925
257	2015-11-15 14:41:34	0	0	0	0	0	0	9.53	1.22	0.04	201916	0	6889	131290	201916	195027	2472	46	385	22	123024	1290344	2925
258	2015-11-15 14:51:33	0	0	0	0	0	0	9.54	1.22	0.04	201968	0	6901	131380	201968	195067	2472	46	385	22	123102	1290364	2925
259	2015-11-15 15:01:35	0	0	0	0	0	0	9.54	1.22	0.04	201989	0	6908	131380	201989	195081	2472	46	385	22	123102	1290378	2925
260	2015-11-15 15:11:34	0	0	0	0	0	0	9.54	1.22	0.04	201989	0	6908	131380	201989	195081	2472	46	385	22	123102	1290396	2925
261	2015-11-15 15:21:34	0	0	0	0	0	0	9.54	1.22	0.04	202027	0	6916	131463	202027	195111	2472	46	385	22	123102	1290415	2925
262	2015-11-15 15:31:35	0	0	0	0	0	0	9.54	1.22	0.04	202045	0	6917	131463	202045	195128	2472	46	385	22	123102	1290424	2925
263	2015-11-15 15:41:33	0	0	0	0	0	0	9.54	1.22	0.04	202045	0	6917	131463	202045	195128	2472	46	385	22	123102	1290432	2925
264	2015-11-15 15:51:34	0	0	0	0	0	0	9.54	1.22	0.04	202082	0	6922	131486	202082	195160	2472	46	385	22	123122	1290450	2925
265	2015-11-15 16:01:35	0	0	0	0	0	0	9.54	1.22	0.04	202100	0	6923	131486	202100	195177	2472	46	385	22	123122	1290463	2925
266	2015-11-15 16:11:33	0	0	0	0	0	0	9.54	1.22	0.04	202100	0	6923	131486	202100	195177	2472	46	385	22	123122	1290479	2925
267	2015-11-15 16:21:35	0	0	0	0	0	0	9.54	1.22	0.04	202136	0	6931	131486	202136	195205	2474	46	385	22	123122	1290495	2927
268	2015-11-15 16:31:34	0	0	0	0	0	0	9.54	1.22	0.04	202136	0	6931	131486	202136	195205	2474	46	385	22	123122	1290512	2927
269	2015-11-15 16:41:34	0	0	0	0	0	0	9.54	1.22	0.04	202173	0	6938	131486	202173	195235	2475	46	385	22	123122	1290529	2928
270	2015-11-15 16:51:35	0	0	0	0	0	0	9.54	1.22	0.04	202189	0	6939	131486	202189	195250	2475	46	385	22	123122	1290535	2928
271	2015-11-15 17:01:35	0	0	0	0	0	0	9.54	1.22	0.04	202206	0	6948	131486	202206	195258	2476	46	385	22	123122	1290554	2929
272	2015-11-15 17:11:34	0	0	0	0	0	0	9.54	1.22	0.04	202206	0	6948	131486	202206	195258	2476	46	385	22	123122	1290564	2929
273	2015-11-15 17:21:36	0	0	0	0	0	0	9.54	1.22	0.04	202224	0	6953	131486	202224	195271	2476	46	385	22	123122	1290575	2929
274	2015-11-15 17:31:35	0	0	0	0	0	0	9.54	1.22	0.04	202224	0	6953	131486	202224	195271	2476	46	385	22	123122	1290584	2929
275	2015-11-15 17:41:35	0	0	0	0	0	0	9.54	1.22	0.04	202273	0	6961	131486	202273	195312	2476	46	385	22	123122	1290590	2929
276	2015-11-15 17:51:35	0	0	0	0	0	0	9.54	1.22	0.04	202279	0	6965	131486	202279	195314	2476	46	385	22	123122	1290596	2929
277	2015-11-15 18:01:35	0	0	0	0	0	0	9.54	1.22	0.04	202298	0	6970	131665	202298	195328	2476	46	385	22	123122	1290604	2929
278	2015-11-15 18:11:34	0	0	0	0	0	0	9.54	1.22	0.04	202298	0	6970	131665	202298	195328	2476	46	385	22	123122	1290615	2929
279	2015-11-15 18:21:35	0	0	0	0	0	0	9.54	1.22	0.04	202332	0	6976	131665	202332	195356	2476	46	385	22	123122	1290621	2929
280	2015-11-15 18:31:34	0	0	0	0	0	0	9.54	1.22	0.04	202332	0	6976	131665	202332	195356	2476	46	385	22	123122	1290628	2929
281	2015-11-15 18:41:35	0	0	0	0	0	0	9.55	1.22	0.04	202364	0	6981	131844	202364	195383	2477	46	385	22	123279	1290639	2930
282	2015-11-15 18:51:34	0	0	0	0	0	0	9.55	1.22	0.04	202364	0	6981	131844	202364	195383	2477	46	385	22	123279	1290650	2930
283	2015-11-15 19:01:36	0	0	0	0	0	0	9.55	1.22	0.04	202405	0	6997	132013	202405	195408	2477	46	386	22	123279	1290662	2931
284	2015-11-15 19:11:34	0	0	0	0	0	0	9.55	1.22	0.04	202405	0	6997	132013	202405	195408	2477	46	386	22	123279	1290667	2931
285	2015-11-15 19:21:35	0	0	0	0	0	0	9.55	1.22	0.04	202433	0	7008	132013	202433	195425	2477	46	386	22	123279	1290680	2931
286	2015-11-15 19:31:35	0	0	0	0	0	0	9.55	1.22	0.04	202433	0	7008	132013	202433	195425	2477	46	386	22	123279	1290691	2931
287	2015-11-15 19:41:35	0	0	0	0	0	0	9.55	1.22	0.04	202463	0	7018	132035	202463	195445	2477	46	386	22	123279	1290708	2931
288	2015-11-15 19:51:36	0	0	0	0	0	0	9.55	1.22	0.04	202483	0	7020	132035	202483	195463	2477	46	387	22	123279	1290719	2932
289	2015-11-15 20:01:36	0	0	0	0	0	0	9.55	1.22	0.04	202501	0	7026	132035	202501	195475	2477	46	387	22	123279	1290733	2932
290	2015-11-15 20:11:36	0	0	0	0	0	0	9.55	1.22	0.04	202501	0	7026	132035	202501	195475	2477	46	387	22	123279	1290745	2932
291	2015-11-15 20:21:35	0	0	0	0	0	0	9.55	1.22	0.04	202530	0	7033	132035	202530	195497	2477	46	387	22	123279	1290753	2932
292	2015-11-15 20:31:36	0	0	0	0	0	0	9.55	1.22	0.04	202551	0	7043	132080	202551	195508	2477	46	387	22	123318	1290768	2932
293	2015-11-15 20:41:37	0	0	0	0	0	0	9.55	1.22	0.04	202560	0	7045	132080	202560	195515	2477	46	387	22	123318	1290784	2932
294	2015-11-15 20:51:36	0	0	0	0	0	0	9.55	1.22	0.04	202560	0	7045	132080	202560	195515	2477	46	387	22	123318	1290806	2932
295	2015-11-15 21:01:37	0	0	0	0	0	0	9.55	1.22	0.04	202577	0	7048	132080	202577	195529	2477	46	387	22	123318	1290814	2932
296	2015-11-15 21:11:36	0	0	0	0	0	0	9.55	1.22	0.04	202577	0	7048	132080	202577	195529	2477	46	387	22	123318	1290838	2932
297	2015-11-15 21:21:36	0	0	0	0	0	0	9.55	1.22	0.04	202610	0	7055	132080	202610	195555	2477	46	387	22	123318	1290843	2932
298	2015-11-15 21:31:36	0	0	0	0	0	0	9.55	1.22	0.04	202610	0	7055	132080	202610	195555	2477	46	387	22	123318	1290852	2932
299	2015-11-15 21:41:36	0	0	0	0	0	0	9.55	1.22	0.04	202640	0	7064	132080	202640	195576	2477	46	387	22	123318	1290872	2932
300	2015-11-15 21:51:37	0	0	0	0	0	0	9.55	1.22	0.04	202657	0	7064	132080	202657	195593	2477	46	387	22	123318	1290888	2932
301	2015-11-15 22:01:37	0	0	0	0	0	0	9.55	1.22	0.04	202657	0	7064	132080	202657	195593	2477	46	387	22	123318	1290903	2932
302	2015-11-15 22:11:36	0	0	0	0	0	0	9.55	1.22	0.04	202680	0	7071	132080	202680	195609	2478	46	387	22	123318	1290923	2933
303	2015-11-15 22:21:37	0	0	0	0	0	0	9.55	1.22	0.04	202692	0	7072	132080	202692	195620	2478	46	387	22	123318	1290938	2933
304	2015-11-15 22:31:37	0	0	0	0	0	0	9.55	1.22	0.04	202718	0	7081	132080	202718	195637	2478	46	387	22	123318	1290951	2933
305	2015-11-15 22:41:37	0	0	0	0	0	0	9.55	1.22	0.04	202735	0	7082	132080	202735	195653	2478	46	387	22	123318	1290974	2933
306	2015-11-15 22:51:37	0	0	0	0	0	0	9.55	1.22	0.04	202735	0	7082	132080	202735	195653	2478	46	387	22	123318	1290996	2933
307	2015-11-15 23:01:39	0	0	0	0	0	0	9.55	1.22	0.04	202764	0	7092	132215	202764	195672	2478	46	387	22	123318	1291015	2933
308	2015-11-15 23:11:38	0	0	0	0	0	0	9.55	1.22	0.04	202764	0	7092	132215	202764	195672	2478	46	387	22	123318	1291039	2933
309	2015-11-15 23:21:38	0	0	0	0	0	0	9.55	1.22	0.04	202791	0	7096	132215	202791	195695	2478	46	387	22	123318	1291063	2933
310	2015-11-15 23:31:39	0	0	0	0	0	0	9.55	1.22	0.04	202800	0	7097	132215	202800	195703	2478	46	387	22	123318	1291093	2933
311	2015-11-15 23:41:36	0	0	0	0	0	0	9.55	1.22	0.04	202800	0	7097	132215	202800	195703	2478	46	387	22	123318	1291112	2933
312	2015-11-15 23:51:38	0	0	0	0	0	0	9.55	1.22	0.04	202834	0	7104	132215	202834	195730	2478	46	387	22	123318	1291138	2933
313	2015-11-16 00:01:38	0	0	0	0	0	0	9.55	1.22	0.04	202853	0	7112	132215	202853	195741	2478	46	387	22	123318	1291155	2933
314	2015-11-16 00:11:36	0	0	0	0	0	0	9.55	1.22	0.04	202853	0	7112	132215	202853	195741	2478	46	387	22	123318	1291187	2933
315	2015-11-16 00:21:37	0	0	0	0	0	0	9.55	1.22	0.04	202883	0	7122	132215	202883	195761	2478	46	387	22	123318	1291212	2933
316	2015-11-16 00:31:38	0	0	0	0	0	0	9.55	1.22	0.04	202890	0	7123	132215	202890	195767	2478	47	388	22	123318	1291236	2935
317	2015-11-16 00:41:36	0	0	0	0	0	0	9.55	1.22	0.04	202890	0	7123	132215	202890	195767	2478	47	388	22	123318	1291253	2935
318	2015-11-16 00:51:38	0	0	0	0	0	0	9.55	1.22	0.04	202916	0	7140	132215	202916	195776	2479	47	388	22	123318	1291271	2936
319	2015-11-16 01:01:36	0	0	0	0	0	0	9.55	1.22	0.04	202916	0	7140	132215	202916	195776	2479	47	388	22	123318	1291290	2936
320	2015-11-16 01:11:37	0	0	0	0	0	0	9.55	1.22	0.04	202945	0	7151	132215	202945	195794	2479	47	388	22	123318	1291302	2936
321	2015-11-16 01:21:37	0	0	0	0	0	0	9.55	1.22	0.04	202963	0	7161	132215	202963	195802	2479	47	388	22	123318	1291317	2936
322	2015-11-16 01:31:37	0	0	0	0	0	0	9.55	1.22	0.04	202963	0	7161	132215	202963	195802	2479	47	388	22	123318	1291334	2936
323	2015-11-16 01:41:37	0	0	0	0	0	0	9.55	1.22	0.04	202976	0	7167	132215	202976	195809	2479	47	388	22	123318	1291347	2936
324	2015-11-16 01:51:37	0	0	0	0	0	0	9.55	1.22	0.04	202985	0	7172	132215	202985	195813	2479	47	389	22	123318	1291359	2937
325	2015-11-16 02:01:37	0	0	0	0	0	0	9.55	1.22	0.04	202985	0	7172	132215	202985	195813	2479	47	389	22	123318	1291372	2937
326	2015-11-16 02:11:39	0	0	0	0	0	0	9.55	1.22	0.04	203000	0	7181	132215	203000	195819	2479	47	389	22	123318	1291385	2937
327	2015-11-16 02:21:36	0	0	0	0	0	0	9.55	1.22	0.04	203000	0	7181	132215	203000	195819	2479	47	389	22	123318	1291392	2937
328	2015-11-16 02:31:37	0	0	0	0	0	0	9.55	1.22	0.04	203014	0	7188	132215	203014	195826	2479	47	389	22	123318	1291399	2937
329	2015-11-16 02:41:37	0	0	0	0	0	0	9.55	1.22	0.04	203014	0	7188	132215	203014	195826	2479	47	389	22	123318	1291406	2937
330	2015-11-16 02:51:40	0	0	0	0	0	0	9.55	1.22	0.04	203026	0	7191	132327	203026	195835	2479	47	389	22	123337	1291420	2937
331	2015-11-16 03:01:37	0	0	0	0	0	0	9.55	1.22	0.04	203026	0	7191	132327	203026	195835	2479	47	389	22	123337	1291752	2937
332	2015-11-16 03:11:38	0	0	0	0	0	0	9.55	1.22	0.04	203033	0	7193	132327	203033	195840	2479	47	389	22	123337	1291756	2937
333	2015-11-16 03:21:38	0	0	0	0	0	0	9.55	1.22	0.04	203033	0	7193	132327	203033	195840	2479	47	389	22	123337	1291756	2937
334	2015-11-16 03:31:38	0	0	0	0	0	0	9.55	1.22	0.04	203036	0	7193	132327	203036	195843	2479	47	389	22	123337	1291760	2937
335	2015-11-16 03:41:36	0	0	0	0	0	0	9.55	1.22	0.04	203036	0	7193	132327	203036	195843	2479	47	389	22	123337	1291764	2937
336	2015-11-16 03:51:37	0	0	0	0	0	0	9.55	1.22	0.04	203041	0	7193	132327	203041	195848	2479	47	389	22	123337	1291766	2937
337	2015-11-16 04:01:37	0	0	0	0	0	0	9.55	1.22	0.04	203041	0	7193	132327	203041	195848	2479	47	389	22	123337	1291769	2937
338	2015-11-16 04:11:36	0	0	0	0	0	0	9.55	1.22	0.04	203042	0	7194	132327	203042	195848	2479	47	389	22	123337	1291773	2937
339	2015-11-16 04:21:37	0	0	0	0	0	0	9.55	1.22	0.04	203044	0	7194	132327	203044	195850	2479	47	389	22	123337	1291775	2937
340	2015-11-16 04:31:37	0	0	0	0	0	0	9.55	1.22	0.04	203044	0	7194	132327	203044	195850	2479	47	389	22	123337	1291780	2937
341	2015-11-16 04:41:36	0	0	0	0	0	0	9.55	1.22	0.04	203048	0	7196	132327	203048	195852	2479	47	389	22	123337	1291780	2937
342	2015-11-16 04:51:37	0	0	0	0	0	0	9.55	1.22	0.04	203049	0	7196	132327	203049	195853	2479	47	389	22	123337	1291780	2937
343	2015-11-16 05:01:36	0	0	0	0	0	0	9.55	1.22	0.04	203049	0	7196	132327	203049	195853	2479	47	389	22	123337	1291782	2937
344	2015-11-16 05:11:37	0	0	0	0	0	0	9.55	1.22	0.04	203052	0	7198	132327	203052	195854	2479	47	389	22	123337	1291780	2937
345	2015-11-16 05:21:37	0	0	0	0	0	0	9.55	1.22	0.04	203053	0	7198	132327	203053	195855	2479	47	389	22	123337	1291783	2937
346	2015-11-16 05:31:36	0	0	0	0	0	0	9.55	1.22	0.04	203053	0	7198	132327	203053	195855	2479	47	389	22	123337	1291784	2937
347	2015-11-16 05:41:37	0	0	0	0	0	0	9.55	1.22	0.04	203054	0	7198	132327	203054	195856	2479	47	389	22	123337	1291785	2937
348	2015-11-16 05:51:36	0	0	0	0	0	0	9.55	1.22	0.04	203054	0	7198	132327	203054	195856	2479	47	389	22	123337	1291786	2937
349	2015-11-16 06:01:39	0	0	0	0	0	0	9.55	1.22	0.04	203055	0	7198	132327	203055	195857	2479	47	389	22	123337	1291788	2937
350	2015-11-16 06:11:43	0	0	0	0	0	0	9.55	1.22	0.04	203057	0	7199	132327	203057	195858	2479	47	389	22	123337	1291790	2937
351	2015-11-16 06:21:38	0	0	0	0	0	0	9.55	1.22	0.04	203057	0	7199	132327	203057	195858	2479	47	389	22	123337	1291790	2937
352	2015-11-16 06:31:37	0	0	0	0	0	0	9.55	1.22	0.04	203058	0	7199	132327	203058	195859	2479	47	389	22	123337	1291790	2937
353	2015-11-16 06:41:42	0	0	0	0	0	0	9.55	1.22	0.04	203058	0	7199	132327	203058	195859	2479	47	389	22	123337	1291792	2937
354	2015-11-16 06:51:46	0	0	0	0	0	0	9.55	1.22	0.04	203059	0	7200	132327	203059	195859	2479	47	389	22	123337	1291793	2937
355	2015-11-16 07:01:45	0	0	0	0	0	0	9.55	1.22	0.04	203059	0	7200	132327	203059	195859	2479	47	389	22	123337	1291797	2937
356	2015-11-16 07:11:40	0	0	0	0	0	0	9.55	1.22	0.04	203059	0	7200	132327	203059	195859	2479	47	389	22	123337	1291801	2937
357	2015-11-16 07:21:37	0	0	0	0	0	0	9.55	1.22	0.04	203059	0	7200	132327	203059	195859	2479	47	389	22	123337	1291805	2937
358	2015-11-16 07:31:38	0	0	0	0	0	0	9.55	1.22	0.04	203061	0	7201	132327	203061	195860	2479	47	389	22	123337	1291807	2937
359	2015-11-16 07:41:36	0	0	0	0	0	0	9.55	1.22	0.04	203061	0	7201	132327	203061	195860	2479	47	389	22	123337	1291806	2937
360	2015-11-16 07:51:37	0	0	0	0	0	0	9.55	1.22	0.04	203062	0	7201	132327	203062	195861	2479	47	389	22	123337	1291808	2937
361	2015-11-16 08:01:39	0	0	0	0	0	0	9.55	1.22	0.04	203063	0	7202	132327	203063	195861	2479	47	389	22	123337	1291808	2937
362	2015-11-16 08:11:37	0	0	0	0	0	0	9.55	1.22	0.04	203063	0	7202	132327	203063	195861	2479	47	389	22	123337	1291810	2937
363	2015-11-16 08:21:38	0	0	0	0	0	0	9.55	1.22	0.04	203067	0	7205	132327	203067	195862	2479	47	389	22	123337	1291814	2937
364	2015-11-16 08:31:37	0	0	0	0	0	0	9.55	1.22	0.04	203067	0	7205	132327	203067	195862	2479	47	389	22	123337	1291816	2937
365	2015-11-16 08:41:38	0	0	0	0	0	0	9.55	1.22	0.04	203069	0	7206	132327	203069	195863	2479	47	389	22	123337	1291821	2937
366	2015-11-16 08:51:38	0	0	0	0	0	0	9.55	1.22	0.04	203074	0	7207	132327	203074	195867	2479	47	389	22	123337	1291827	2937
367	2015-11-16 09:01:36	0	0	0	0	0	0	9.55	1.22	0.04	203074	0	7207	132327	203074	195867	2479	47	389	22	123337	1291832	2937
368	2015-11-16 09:11:38	0	0	0	0	0	0	9.55	1.22	0.04	203076	0	7207	132327	203076	195869	2479	47	389	22	123337	1291833	2937
369	2015-11-16 09:21:38	0	0	0	0	0	0	9.55	1.22	0.04	203080	0	7209	132327	203080	195871	2479	47	389	22	123337	1291838	2937
370	2015-11-16 09:31:38	0	0	0	0	0	0	9.55	1.22	0.04	203080	0	7209	132327	203080	195871	2479	47	389	22	123337	1291844	2937
371	2015-11-16 09:41:37	0	0	0	0	0	0	9.55	1.22	0.04	203093	0	7220	132327	203093	195873	2479	47	389	22	123337	1291851	2937
372	2015-11-16 09:51:38	0	0	0	0	0	0	9.55	1.22	0.04	203097	0	7221	132327	203097	195876	2479	47	389	22	123337	1291857	2937
373	2015-11-16 10:01:37	0	0	0	0	0	0	9.55	1.22	0.04	203097	0	7221	132327	203097	195876	2479	47	389	22	123337	1291872	2937
374	2015-11-16 10:11:38	0	0	0	0	0	0	9.55	1.22	0.04	203109	0	7227	132327	203109	195882	2480	47	389	22	123337	1291887	2938
375	2015-11-16 10:21:37	0	0	0	0	0	0	9.55	1.22	0.04	203109	0	7227	132327	203109	195882	2480	47	389	22	123337	1291891	2938
376	2015-11-16 10:31:38	0	0	0	0	0	0	9.55	1.22	0.04	203119	0	7230	132327	203119	195889	2480	47	389	22	123337	1291908	2938
377	2015-11-16 10:41:37	0	0	0	0	0	0	9.55	1.22	0.04	203119	0	7230	132327	203119	195889	2480	47	389	22	123337	1291930	2938
378	2015-11-16 10:51:39	0	0	0	0	0	0	9.56	1.22	0.04	203137	0	7237	132486	203137	195900	2480	47	389	22	123475	1291982	2938
379	2015-11-16 11:01:37	0	0	0	0	0	0	9.56	1.22	0.04	203137	0	7237	132486	203137	195900	2480	47	389	22	123475	1292064	2938
380	2015-11-16 11:11:39	0	0	0	0	0	0	9.56	1.22	0.04	203161	0	7241	132576	203161	195920	2480	47	389	22	123475	1292178	2938
381	2015-11-16 11:21:37	0	0	0	0	0	0	9.55	1.22	0.04	203161	0	7241	132576	203161	195920	2480	47	389	22	123475	1292275	2938
382	2015-11-16 11:31:39	0	0	0	0	0	0	9.57	1.22	0.04	203176	0	7244	132746	203176	195932	2481	47	389	22	123623	1292378	2939
383	2015-11-16 11:41:36	0	0	0	0	0	0	9.56	1.22	0.04	203176	0	7244	132746	203176	195932	2481	47	389	22	123623	1292478	2939
384	2015-11-16 11:51:39	0	0	0	0	0	0	9.56	1.22	0.04	203204	0	7251	132746	203204	195953	2482	47	389	22	123623	1292583	2940
385	2015-11-16 12:01:38	0	0	0	0	0	0	9.56	1.22	0.04	203204	0	7251	132746	203204	195953	2482	47	389	22	123623	1292666	2940
386	2015-11-16 12:11:40	0	0	0	0	0	0	9.56	1.22	0.04	203225	0	7256	132746	203225	195969	2482	47	389	22	123623	1292735	2940
387	2015-11-16 12:21:37	0	0	0	0	0	0	9.56	1.22	0.04	203225	0	7256	132746	203225	195969	2482	47	389	22	123623	1292803	2940
388	2015-11-16 12:31:40	0	0	0	0	0	0	9.56	1.22	0.04	203244	0	7258	132746	203244	195986	2482	47	389	22	123623	1292892	2940
389	2015-11-16 12:41:44	0	0	0	0	0	0	9.56	1.22	0.04	203254	0	7260	132746	203254	195994	2482	47	389	22	123623	1292960	2940
390	2015-11-16 12:51:49	0	0	0	0	0	0	9.56	1.22	0.04	203259	0	7261	132746	203259	195998	2482	47	389	22	123623	1293037	2940
391	2015-11-16 13:01:43	0	0	0	0	0	0	9.56	1.22	0.04	203259	0	7261	132746	203259	195998	2482	47	389	22	123623	1293098	2940
392	2015-11-16 13:11:40	0	0	0	0	0	0	9.56	1.22	0.04	203273	0	7264	132860	203273	196009	2482	47	389	22	123663	1293163	2940
393	2015-11-16 13:21:03	0	0	0	0	0	0	9.56	1.22	0.04	203273	0	7264	132860	203273	196009	2482	47	389	22	123663	1293217	2940
394	2015-11-16 13:31:05	0	0	0	0	0	0	9.56	1.22	0.04	203294	0	7271	132883	203294	196023	2482	47	389	22	123682	1293271	2940
395	2015-11-16 13:41:03	0	0	0	0	0	0	9.56	1.22	0.04	203294	0	7271	132883	203294	196023	2482	47	389	22	123682	1293341	2940
396	2015-11-16 13:51:06	0	0	0	0	0	0	9.56	1.22	0.04	203316	0	7275	132883	203316	196041	2482	47	389	22	123682	1293393	2940
397	2015-11-16 14:01:05	0	0	0	0	0	0	9.56	1.22	0.04	203316	0	7275	132883	203316	196041	2482	47	389	22	123682	1293440	2940
398	2015-11-16 14:11:06	0	0	0	0	0	0	9.56	1.22	0.04	203327	0	7277	132883	203327	196050	2482	47	389	22	123682	1293507	2940
399	2015-11-16 14:21:04	0	0	0	0	0	0	9.56	1.22	0.04	203327	0	7277	132883	203327	196050	2482	47	389	22	123682	1293578	2940
400	2015-11-16 14:31:06	0	0	0	0	0	0	9.56	1.22	0.04	203343	0	7281	132883	203343	196062	2482	47	389	22	123682	1293632	2940
401	2015-11-16 14:41:05	0	0	0	0	0	0	9.56	1.22	0.04	203343	0	7281	132883	203343	196062	2482	47	389	22	123682	1293687	2940
402	2015-11-16 14:51:05	0	0	0	0	0	0	9.56	1.22	0.04	203358	0	7287	132883	203358	196071	2482	47	389	22	123682	1293747	2940
403	2015-11-16 15:01:06	0	0	0	0	0	0	9.56	1.22	0.04	203367	0	7288	132883	203367	196079	2482	47	389	22	123682	1293807	2940
404	2015-11-16 15:11:05	0	0	0	0	0	0	9.56	1.22	0.04	203367	0	7288	132883	203367	196079	2482	47	389	22	123682	1293854	2940
405	2015-11-16 15:21:09	0	0	0	0	0	0	9.56	1.22	0.04	203379	0	7289	132883	203379	196090	2482	47	389	22	123682	1293914	2940
406	2015-11-16 15:31:11	0	0	0	0	0	0	9.56	1.22	0.04	203384	0	7291	132883	203384	196093	2482	47	389	22	123682	1293963	2940
407	2015-11-16 15:41:14	0	0	0	0	0	0	9.56	1.22	0.04	203389	0	7291	132883	203389	196098	2482	47	389	22	123682	1294000	2940
408	2015-11-16 15:51:20	0	0	0	0	0	0	9.56	1.22	0.04	203398	0	7292	132883	203398	196106	2482	47	389	22	123682	1294031	2940
409	2015-11-16 16:01:05	0	0	0	0	0	0	9.56	1.22	0.04	203398	0	7292	132883	203398	196106	2482	47	389	22	123682	1294082	2940
410	2015-11-16 16:11:09	0	0	0	0	0	0	9.56	1.22	0.04	203408	0	7294	132883	203408	196114	2482	47	389	22	123682	1294107	2940
411	2015-11-16 16:21:05	0	0	0	0	0	0	9.56	1.22	0.04	203408	0	7294	132883	203408	196114	2482	47	389	22	123682	1294151	2940
412	2015-11-16 16:31:07	0	0	0	0	0	0	9.56	1.22	0.04	203415	0	7295	132883	203415	196120	2482	47	389	22	123682	1294193	2940
413	2015-11-16 16:41:08	0	0	0	0	0	0	9.56	1.22	0.04	203418	0	7295	132883	203418	196123	2482	47	389	22	123682	1294227	2940
414	2015-11-16 16:51:06	0	0	0	0	0	0	9.56	1.22	0.04	203418	0	7295	132883	203418	196123	2482	47	389	22	123682	1294258	2940
415	2015-11-16 17:01:08	0	0	0	0	0	0	9.56	1.22	0.04	203427	0	7296	132883	203427	196131	2482	47	389	22	123682	1294293	2940
416	2015-11-16 17:11:06	0	0	0	0	0	0	9.56	1.22	0.04	203427	0	7296	132883	203427	196131	2482	47	389	22	123682	1294321	2940
417	2015-11-16 17:21:07	0	0	0	0	0	0	9.56	1.22	0.04	203437	0	7296	132883	203437	196141	2482	47	389	22	123682	1294357	2940
418	2015-11-16 17:31:07	0	0	0	0	0	0	9.56	1.22	0.04	203445	0	7297	132883	203445	196148	2482	47	389	22	123682	1294387	2940
419	2015-11-16 17:41:05	0	0	0	0	0	0	9.55	1.22	0.04	203445	0	7297	132883	203445	196148	2482	47	389	22	123682	1294427	2940
420	2015-11-16 17:51:08	0	0	0	0	0	0	9.55	1.22	0.04	203465	0	7302	132883	203465	196163	2482	47	389	22	123682	1294455	2940
421	2015-11-16 18:01:08	0	0	0	0	0	0	9.55	1.22	0.04	203465	0	7302	132883	203465	196163	2482	47	389	22	123682	1294490	2940
422	2015-11-16 18:11:06	0	0	0	0	0	0	9.55	1.22	0.04	203479	0	7304	132883	203479	196175	2482	47	389	22	123682	1294520	2940
423	2015-11-16 18:21:09	0	0	0	0	0	0	9.55	1.22	0.04	203485	0	7305	132883	203485	196180	2482	47	389	22	123682	1294547	2940
424	2015-11-16 18:31:14	0	0	0	0	0	0	9.55	1.22	0.04	203488	0	7305	132883	203488	196183	2482	47	389	22	123682	1294569	2940
425	2015-11-16 18:41:26	0	0	0	0	0	0	9.55	1.22	0.04	203493	0	7306	132883	203493	196187	2482	47	389	22	123682	1294594	2940
426	2015-11-16 18:51:11	0	0	0	0	0	0	9.55	1.22	0.04	203493	0	7306	132883	203493	196187	2482	47	389	22	123682	1294613	2940
427	2015-11-16 19:01:07	0	0	0	0	0	0	9.55	1.22	0.04	203504	0	7308	132883	203504	196196	2482	47	389	22	123682	1294634	2940
428	2015-11-16 19:11:06	0	0	0	0	0	0	9.55	1.22	0.04	203504	0	7308	132883	203504	196196	2482	47	389	22	123682	1294661	2940
429	2015-11-16 19:21:07	0	0	0	0	0	0	9.55	1.22	0.04	203514	0	7309	132883	203514	196205	2482	47	389	22	123682	1294686	2940
430	2015-11-16 19:31:06	0	0	0	0	0	0	9.55	1.22	0.04	203514	0	7309	132883	203514	196205	2482	47	389	22	123682	1294714	2940
431	2015-11-16 19:41:07	0	0	0	0	0	0	9.55	1.22	0.04	203523	0	7312	132906	203523	196211	2482	47	389	22	123682	1294735	2940
432	2015-11-16 19:51:05	0	0	0	0	0	0	9.55	1.22	0.04	203523	0	7312	132906	203523	196211	2482	47	389	22	123682	1294764	2940
