1	2016-05-27 18:59:59	0	0	0	0	0	0	0.67	0.81	0	13899	0	38	12282	13899	13861	112	6	0	0	12246	1833307	0
2	2016-05-27 19:09:58	0	0	0	0	0	0	1.25	1.05	0.01	26408	0	142	23016	26408	26266	276	16	1	0	22864	1833314	0
3	2016-05-27 19:19:57	0	0	0	0	0	0	2.05	1.24	0.01	47242	0	535	37903	47242	46707	584	25	2	1	37548	1833322	612
4	2016-05-27 19:29:56	0	0	0	0	0	0	2.26	1.26	0.01	53191	0	685	41927	53191	52506	670	26	2	1	41393	1833331	699
5	2016-05-27 19:39:58	0	0	0	0	0	0	2.64	1.34	0.02	63961	0	1023	49015	63961	62938	858	31	3	1	48332	1833337	893
6	2016-05-27 19:49:59	0	0	0	0	0	0	2.81	1.39	0.02	69793	0	1188	52265	69793	68605	972	33	4	1	51435	1833348	1010
7	2016-05-27 20:00:06	0	0	0	0	0	0	3.04	1.4	0.02	78028	0	1424	56860	78028	76604	1093	34	4	2	55795	1833358	1133
8	2016-05-27 20:10:01	0	0	0	0	0	0	3.25	1.37	0.02	85869	0	1673	60781	85869	84196	1179	34	4	3	59549	1833369	1220
9	2016-05-27 20:20:00	0	0	0	0	0	0	3.35	1.43	0.02	89718	0	1774	62747	89718	87944	1287	34	4	3	61455	1833373	1328
10	2016-05-27 20:30:05	0	0	0	0	0	0	3.45	1.44	0.02	93372	0	1883	64607	93372	91489	1340	34	6	3	63206	1833382	1383
11	2016-05-27 20:40:06	0	0	0	0	0	0	3.72	1.44	0.02	100657	0	2107	69993	100657	98550	1451	35	7	3	68244	1833390	1496
12	2016-05-27 20:50:02	0	0	0	0	0	0	3.93	1.44	0.02	106224	0	2262	74158	106224	103962	1530	35	8	3	72036	1833402	1576
13	2016-05-27 21:00:07	0	0	0	0	0	0	3.99	1.43	0.02	108786	0	2336	75296	108786	106450	1560	36	8	3	73165	1833413	1607
14	2016-05-27 21:10:05	0	0	0	0	0	0	4.17	1.43	0.02	113699	0	2508	78842	113699	111191	1627	37	8	3	76488	1833422	1675
15	2016-05-27 21:20:06	0	0	0	0	0	0	4.25	1.44	0.02	116268	0	2602	80424	116268	113666	1672	37	8	3	77883	1833434	1720
16	2016-05-27 21:30:01	0	0	0	0	0	0	4.44	1.44	0.02	120925	0	2768	84172	120925	118157	1740	37	8	3	81436	1833436	1788
17	2016-05-27 21:40:03	0	0	0	0	0	0	4.52	1.44	0.02	123073	0	2850	85504	123073	120223	1773	37	8	3	82941	1833439	1821
18	2016-05-27 21:50:01	0	0	0	0	0	0	4.59	1.45	0.02	125114	0	2903	86799	125114	122211	1809	37	8	3	84086	1833441	1857
19	2016-05-27 22:00:04	0	0	0	0	0	0	4.79	1.46	0.02	129914	0	3073	90477	129914	126841	1895	39	9	3	87871	1833449	1946
20	2016-05-27 22:10:02	0	0	0	0	0	0	4.86	1.46	0.02	132325	0	3165	91730	132325	129160	1936	40	9	3	89155	1833457	1988
21	2016-05-27 22:20:04	0	0	0	0	0	0	5.03	1.47	0.03	137113	0	3364	94833	137113	133749	2013	41	9	3	92193	1833460	2066
22	2016-05-27 22:30:03	0	0	0	0	0	0	5.09	1.47	0.03	139601	0	3449	95887	139601	136152	2050	41	9	3	93323	1833463	2103
23	2016-05-27 22:40:04	0	0	0	0	0	0	5.2	1.46	0.03	144046	0	3588	97889	144046	140458	2107	43	9	3	95311	1833462	2162
24	2016-05-27 22:50:02	0	0	0	0	0	0	5.22	1.47	0.03	145908	0	3645	98349	145908	142263	2138	43	9	3	95677	1833473	2193
25	2016-05-27 23:00:02	0	0	0	0	0	0	5.37	1.47	0.03	150553	0	3791	101250	150553	146762	2210	45	9	3	98426	1833483	2267
26	2016-05-27 23:10:02	0	0	0	0	0	0	5.44	1.46	0.03	152759	0	3874	102533	152759	148885	2234	46	10	3	99792	1833491	2293
27	2016-05-27 23:20:02	0	0	0	0	0	0	5.53	1.46	0.03	156294	0	4005	104035	156294	152289	2275	46	11	4	101347	1833498	2336
28	2016-05-27 23:30:04	0	0	0	0	0	0	5.59	1.45	0.03	157935	0	4060	105059	157935	153875	2290	46	12	4	102467	1833509	2352
29	2016-05-27 23:40:03	0	0	0	0	0	0	5.66	1.45	0.03	160869	0	4160	106482	160869	156709	2338	46	12	4	103821	1833518	2400
30	2016-05-27 23:50:02	0	0	0	0	0	0	5.72	1.45	0.03	162296	0	4221	107892	162296	158075	2350	47	12	4	104876	1833520	2413
31	2016-05-28 00:00:04	0	0	0	0	0	0	5.78	1.45	0.03	164993	0	4339	109152	164993	160654	2386	47	13	4	105906	1833530	2450
32	2016-05-28 00:10:05	0	0	0	0	0	0	5.82	1.44	0.03	166451	0	4399	110032	166451	162052	2395	47	13	4	106734	1833540	2459
33	2016-05-28 00:20:02	0	0	0	0	0	0	5.91	1.44	0.03	169126	0	4495	111741	169126	164631	2428	47	14	4	108448	1833545	2493
34	2016-05-28 00:30:02	0	0	0	0	0	0	5.95	1.43	0.03	170524	0	4574	112505	170524	165950	2443	48	14	4	109136	1833545	2509
35	2016-05-28 00:40:05	0	0	0	0	0	0	6.06	1.42	0.03	172901	0	4671	114227	172901	168230	2459	48	14	4	111058	1833548	2525
36	2016-05-28 00:50:05	0	0	0	0	0	0	6.07	1.43	0.03	173894	0	4716	114710	173894	169178	2491	48	15	5	111322	1833553	2559
37	2016-05-28 01:00:04	0	0	0	0	0	0	6.16	1.43	0.03	175891	0	4776	116450	175891	171115	2515	48	15	5	112960	1833554	2583
38	2016-05-28 01:10:02	0	0	0	0	0	0	6.21	1.43	0.03	176891	0	4798	117259	176891	172093	2524	48	15	5	113788	1833559	2592
39	2016-05-28 01:20:01	0	0	0	0	0	0	6.26	1.42	0.03	178580	0	4836	118120	178580	173744	2542	48	15	5	114701	1833569	2610
40	2016-05-28 01:29:59	0	0	0	0	0	0	6.3	1.42	0.03	180010	0	4873	119143	180010	175137	2553	48	15	5	115561	1833575	2621
41	2016-05-28 01:39:57	0	0	0	0	0	0	6.34	1.42	0.03	180702	0	4894	119863	180702	175808	2568	48	15	5	116238	1833582	2636
42	2016-05-28 01:49:58	0	0	0	0	0	0	6.36	1.42	0.03	181975	0	4918	120289	181975	177057	2586	48	15	5	116639	1833581	2654
43	2016-05-28 01:59:58	0	0	0	0	0	0	6.38	1.42	0.03	182542	0	4928	120551	182542	177614	2593	48	15	5	116956	1833583	2661
44	2016-05-28 02:09:57	0	0	0	0	0	0	6.45	1.42	0.03	183945	0	4959	121918	183945	178986	2611	48	15	5	118242	1833898	2679
45	2016-05-28 02:20:00	0	0	0	0	0	0	6.49	1.42	0.03	184583	0	4977	122676	184583	179606	2621	48	15	5	119028	1833900	2689
46	2016-05-28 02:29:58	0	0	0	0	0	0	6.52	1.42	0.03	185580	0	5001	123414	185580	180579	2632	48	15	5	119594	1833900	2700
47	2016-05-28 02:39:58	0	0	0	0	0	0	6.55	1.42	0.03	186374	0	5024	123952	186374	181350	2640	48	15	5	120098	1833901	2708
48	2016-05-28 02:49:57	0	0	0	0	0	0	6.58	1.41	0.03	186793	0	5035	124500	186793	181758	2641	48	15	5	120613	1833904	2709
49	2016-05-28 02:59:57	0	0	0	0	0	0	6.6	1.42	0.03	187523	0	5049	125078	187523	182474	2656	48	15	5	121113	1833905	2724
50	2016-05-28 03:09:57	0	0	0	0	0	0	6.63	1.41	0.03	188169	0	5069	125605	188169	183100	2661	48	15	5	121645	1833906	2729
51	2016-05-28 03:19:57	0	0	0	0	0	0	6.64	1.42	0.03	188544	0	5072	125835	188544	183472	2671	48	15	5	121861	1833908	2739
52	2016-05-28 03:29:59	0	0	0	0	0	0	6.67	1.42	0.03	188853	0	5076	126287	188853	183777	2679	48	15	5	122284	1833910	2747
53	2016-05-28 03:39:58	0	0	0	0	0	0	6.67	1.42	0.03	189396	0	5087	126287	189396	184309	2692	48	15	5	122284	1833911	2760
54	2016-05-28 03:49:58	0	0	0	0	0	0	6.69	1.42	0.03	189920	0	5107	126720	189920	184813	2697	48	15	5	122691	1833910	2765
55	2016-05-28 03:59:58	0	0	0	0	0	0	6.7	1.42	0.03	190143	0	5113	126991	190143	185030	2701	48	15	5	122944	1833910	2769
56	2016-05-28 04:09:58	0	0	0	0	0	0	6.72	1.42	0.03	190425	0	5119	127346	190425	185306	2706	48	15	5	123277	1833912	2774
57	2016-05-28 04:19:58	0	0	0	0	0	0	6.73	1.42	0.03	190844	0	5135	127577	190844	185709	2709	48	15	5	123414	1833912	2777
58	2016-05-28 04:29:57	0	0	0	0	0	0	6.74	1.42	0.03	191208	0	5145	127703	191208	186063	2713	48	15	5	123533	1833912	2781
59	2016-05-28 04:39:58	0	0	0	0	0	0	6.74	1.42	0.03	191370	0	5153	127703	191370	186217	2715	48	15	5	123533	1833913	2783
60	2016-05-28 04:49:57	0	0	0	0	0	0	6.77	1.42	0.03	191723	0	5166	128221	191723	186557	2721	48	15	5	124177	1833913	2789
61	2016-05-28 04:59:58	0	0	0	0	0	0	6.77	1.42	0.03	191930	0	5174	128221	191930	186756	2723	48	15	5	124177	1833913	2791
62	2016-05-28 05:09:57	0	0	0	0	0	0	6.79	1.42	0.03	192234	0	5181	128519	192234	187053	2727	48	15	5	124456	1833914	2795
63	2016-05-28 05:19:58	0	0	0	0	0	0	6.79	1.42	0.03	192528	0	5193	128519	192528	187335	2731	48	15	5	124456	1833916	2799
64	2016-05-28 05:29:58	0	0	0	0	0	0	6.79	1.42	0.03	192719	0	5197	128679	192719	187522	2733	48	15	5	124606	1833917	2801
65	2016-05-28 05:39:58	0	0	0	0	0	0	6.79	1.42	0.03	192915	0	5200	128679	192915	187715	2736	48	15	5	124606	1833917	2804
66	2016-05-28 05:49:57	0	0	0	0	0	0	6.81	1.42	0.03	193290	0	5217	128883	193290	188073	2738	48	15	5	124888	1833916	2806
67	2016-05-28 05:59:57	0	0	0	0	0	0	6.82	1.42	0.03	193649	0	5229	129092	193649	188420	2745	48	15	5	125085	1833917	2813
68	2016-05-28 06:09:57	0	0	0	0	0	0	6.82	1.42	0.03	193858	0	5237	129114	193858	188621	2748	48	15	5	125105	1833918	2816
69	2016-05-28 06:19:57	0	0	0	0	0	0	6.84	1.42	0.03	194321	0	5253	129403	194321	189068	2751	48	15	5	125376	1833920	2819
70	2016-05-28 06:29:57	0	0	0	0	0	0	6.84	1.41	0.03	194544	0	5265	129543	194544	189279	2752	49	15	5	125437	1833924	2821
71	2016-05-28 06:39:57	0	0	0	0	0	0	6.86	1.42	0.03	195141	0	5283	130006	195141	189858	2763	50	15	5	125870	1833928	2833
72	2016-05-28 06:49:57	0	0	0	0	0	0	6.87	1.42	0.03	195459	0	5295	130203	195459	190164	2766	50	15	5	125993	1833931	2836
73	2016-05-28 06:59:59	0	0	0	0	0	0	6.89	1.42	0.03	196147	0	5319	130532	196147	190828	2781	52	15	5	126302	1833935	2853
74	2016-05-28 07:09:57	0	0	0	0	0	0	6.89	1.42	0.03	196540	0	5342	130576	196540	191198	2786	52	15	5	126343	1833939	2858
75	2016-05-28 07:19:58	0	0	0	0	0	0	6.9	1.42	0.03	197430	0	5371	130852	197430	192059	2796	52	15	6	126601	1833936	2869
76	2016-05-28 07:29:57	0	0	0	0	0	0	6.91	1.42	0.03	197991	0	5394	130918	197991	192597	2802	52	15	6	126663	1833943	2875
77	2016-05-28 07:39:58	0	0	0	0	0	0	6.93	1.42	0.03	199077	0	5436	131385	199077	193641	2817	52	15	6	127100	1833947	2890
78	2016-05-28 07:49:58	0	0	0	0	0	0	6.95	1.41	0.03	199748	0	5465	131731	199748	194283	2826	52	15	6	127424	1833955	2899
79	2016-05-28 07:59:57	0	0	0	0	0	0	6.97	1.41	0.03	200502	0	5499	132156	200502	195003	2832	52	15	6	127811	1833963	2905
80	2016-05-28 08:09:57	0	0	0	0	0	0	7.04	1.41	0.03	202010	0	5539	133396	202010	196471	2846	52	15	6	129100	1833968	2919
81	2016-05-28 08:19:58	0	0	0	0	0	0	7.09	1.41	0.03	202631	0	5562	134378	202631	197069	2858	52	15	6	130019	1833979	2931
82	2016-05-28 08:29:57	0	0	0	0	0	0	7.2	1.41	0.03	204138	0	5614	136518	204138	198524	2872	52	15	6	132021	1833981	2945
83	2016-05-28 08:40:00	0	0	0	0	0	0	7.24	1.41	0.03	204932	0	5633	137289	204932	199299	2880	52	15	6	132743	1833984	2953
84	2016-05-28 08:49:58	0	0	0	0	0	0	7.29	1.4	0.03	206554	0	5678	138139	206554	200876	2894	52	16	6	133629	1833983	2968
85	2016-05-28 08:59:58	0	0	0	0	0	0	7.3	1.4	0.03	207476	0	5708	138535	207476	201768	2903	53	16	6	133953	1833994	2978
86	2016-05-28 09:09:58	0	0	0	0	0	0	7.34	1.4	0.03	209184	0	5756	139218	209184	203428	2929	54	16	6	134592	1834000	3005
87	2016-05-28 09:19:58	0	0	0	0	0	0	7.39	1.4	0.03	210174	0	5796	139923	210174	204378	2939	54	16	6	135535	1834004	3015
88	2016-05-28 09:29:59	0	0	0	0	0	0	7.43	1.4	0.03	211722	0	5857	140614	211722	205865	2963	54	16	6	136183	1834016	3039
89	2016-05-28 09:39:59	0	0	0	0	0	0	7.45	1.39	0.03	213342	0	5909	141210	213342	207433	2973	54	16	6	136646	1834023	3049
90	2016-05-28 09:49:59	0	0	0	0	0	0	7.5	1.4	0.03	214230	0	5952	142137	214230	208278	3008	55	16	6	137513	1834031	3085
91	2016-05-28 09:59:59	0	0	0	0	0	0	7.52	1.4	0.03	215177	0	5987	142371	215177	209190	3014	56	16	6	137830	1834040	3092
92	2016-05-28 10:10:00	0	0	0	0	0	0	7.6	1.4	0.03	216828	0	6062	144006	216828	210766	3040	56	16	6	139438	1834048	3118
93	2016-05-28 10:20:00	0	0	0	0	0	0	7.65	1.4	0.03	217693	0	6097	144761	217693	211596	3052	56	16	6	140348	1834055	3130
94	2016-05-28 10:30:00	0	0	0	0	0	0	7.68	1.4	0.03	219070	0	6134	145409	219070	212936	3066	57	16	6	140934	1834057	3145
95	2016-05-28 10:40:00	0	0	0	0	0	0	7.71	1.4	0.03	219878	0	6165	146164	219878	213713	3074	57	16	6	141332	1834065	3153
96	2016-05-28 10:49:58	0	0	0	0	0	0	7.8	1.4	0.03	221603	0	6225	147916	221603	215378	3097	57	16	6	142969	1834069	3176
97	2016-05-28 11:00:00	0	0	0	0	0	0	7.8	1.39	0.03	222483	0	6282	148015	222483	216201	3101	59	16	6	143062	1834074	3182
98	2016-05-28 11:10:01	0	0	0	0	0	0	7.87	1.39	0.03	224029	0	6380	149368	224029	217649	3121	59	16	6	144326	1834079	3202
99	2016-05-28 11:20:00	0	0	0	0	0	0	7.88	1.39	0.03	224596	0	6411	149570	224596	218185	3128	59	16	6	144514	1834085	3209
100	2016-05-28 11:30:00	0	0	0	0	0	0	7.93	1.39	0.03	226037	0	6473	150762	226037	219564	3149	59	16	6	145517	1834092	3230
101	2016-05-28 11:40:02	0	0	0	0	0	0	7.96	1.39	0.03	226758	0	6513	151152	226758	220245	3159	59	16	6	145991	1834102	3240
102	2016-05-28 11:50:00	0	0	0	0	0	0	8	1.4	0.03	228243	0	6574	152005	228243	221669	3184	59	16	6	146703	1834108	3265
103	2016-05-28 12:00:02	0	0	0	0	0	0	8	1.4	0.03	228877	0	6597	152117	228877	222280	3196	59	16	6	146807	1834114	3277
104	2016-05-28 12:10:00	0	0	0	0	0	0	8.06	1.4	0.03	230293	0	6660	153156	230293	223633	3216	59	16	6	147774	1834118	3297
105	2016-05-28 12:20:00	0	0	0	0	0	0	8.08	1.4	0.03	230978	0	6695	153410	230978	224283	3228	59	16	6	148124	1834126	3309
106	2016-05-28 12:30:01	0	0	0	0	0	0	8.12	1.4	0.03	231736	0	6729	154220	231736	225007	3240	59	17	6	148994	1834131	3322
107	2016-05-28 12:40:02	0	0	0	0	0	0	8.18	1.4	0.03	233005	0	6786	155209	233005	226219	3265	59	17	6	150033	1834136	3347
108	2016-05-28 12:50:02	0	0	0	0	0	0	8.18	1.4	0.03	233723	0	6810	155334	233723	226913	3277	60	17	6	150091	1834143	3360
109	2016-05-28 13:00:02	0	0	0	0	0	0	8.23	1.4	0.03	235035	0	6859	156346	235035	228176	3297	60	17	6	150948	1834144	3380
110	2016-05-28 13:10:01	0	0	0	0	0	0	8.26	1.4	0.03	235704	0	6891	156740	235704	228813	3306	60	17	6	151433	1834145	3389
111	2016-05-28 13:20:02	0	0	0	0	0	0	8.27	1.4	0.03	236761	0	6933	157089	236761	229828	3319	60	17	6	151760	1834148	3402
112	2016-05-28 13:30:02	0	0	0	0	0	0	8.3	1.4	0.03	237467	0	6971	157441	237467	230496	3330	60	17	6	152207	1834154	3413
113	2016-05-28 13:40:02	0	0	0	0	0	0	8.36	1.41	0.03	238704	0	7029	158822	238704	231675	3358	60	17	6	153376	1834156	3441
114	2016-05-28 13:50:03	0	0	0	0	0	0	8.39	1.41	0.03	239371	0	7059	159279	239371	232312	3369	60	18	6	153802	1834159	3453
115	2016-05-28 14:00:05	0	0	0	0	0	0	8.39	1.41	0.03	240439	0	7106	159443	240439	233333	3386	60	18	6	153955	1834167	3470
116	2016-05-28 14:10:03	0	0	0	0	0	0	8.42	1.41	0.03	240960	0	7129	159888	240960	233831	3390	60	18	6	154370	1834172	3474
117	2016-05-28 14:20:04	0	0	0	0	0	0	8.45	1.41	0.03	241801	0	7154	160518	241801	234647	3400	60	18	6	154957	1834175	3484
118	2016-05-28 14:30:04	0	0	0	0	0	0	8.46	1.41	0.03	242315	0	7178	160760	242315	235137	3405	60	18	6	155182	1834181	3489
119	2016-05-28 14:40:04	0	0	0	0	0	0	8.49	1.41	0.03	243332	0	7208	161396	243332	236124	3422	61	19	6	155776	1834184	3508
120	2016-05-28 14:50:07	0	0	0	0	0	0	8.52	1.41	0.03	244460	0	7265	161793	244460	237195	3450	61	19	6	156239	1834187	3536
121	2016-05-28 15:00:07	0	0	0	0	0	0	8.53	1.41	0.03	245528	0	7321	162063	245528	238207	3459	61	20	6	156524	1834193	3546
122	2016-05-28 15:10:07	0	0	0	0	0	0	8.54	1.41	0.03	246047	0	7345	162097	246047	238702	3467	61	20	6	156619	1834200	3554
123	2016-05-28 15:20:07	0	0	0	0	0	0	8.57	1.41	0.03	247117	0	7393	162492	247117	239724	3487	61	20	7	157115	1834206	3575
124	2016-05-28 15:30:06	0	0	0	0	0	0	8.58	1.41	0.03	247591	0	7418	162680	247591	240173	3493	61	20	7	157291	1834209	3581
125	2016-05-28 15:40:09	0	0	0	0	0	0	8.6	1.41	0.03	248501	0	7462	163218	248501	241039	3503	61	20	7	157794	1834218	3591
126	2016-05-28 15:50:09	0	0	0	0	0	0	8.62	1.41	0.03	248986	0	7487	163520	248986	241499	3513	62	20	7	158076	1834224	3602
127	2016-05-28 16:00:09	0	0	0	0	0	0	8.62	1.41	0.03	249971	0	7537	163589	249971	242434	3524	62	20	7	158140	1834237	3613
128	2016-05-28 16:10:07	0	0	0	0	0	0	8.63	1.41	0.03	250397	0	7569	163719	250397	242828	3533	62	20	7	158262	1834242	3622
129	2016-05-28 16:20:07	0	0	0	0	0	0	8.64	1.41	0.03	251242	0	7632	163978	251242	243610	3548	62	20	7	158504	1834249	3637
130	2016-05-28 16:30:07	0	0	0	0	0	0	8.64	1.41	0.03	251637	0	7660	164011	251637	243977	3549	62	20	7	158535	1834259	3638
131	2016-05-28 16:40:08	0	0	0	0	0	0	8.68	1.41	0.03	252524	0	7704	164797	252524	244820	3564	62	20	7	159162	1834263	3653
132	2016-05-28 16:50:07	0	0	0	0	0	0	8.68	1.41	0.03	252964	0	7729	164797	252964	245235	3571	63	20	7	159162	1834264	3661
133	2016-05-28 17:00:09	0	0	0	0	0	0	8.7	1.41	0.03	253835	0	7772	165230	253835	246063	3588	63	20	7	159554	1834272	3678
134	2016-05-28 17:10:08	0	0	0	0	0	0	8.7	1.41	0.03	254177	0	7791	165265	254177	246386	3591	63	21	7	159587	1834275	3682
135	2016-05-28 17:20:10	0	0	0	0	0	0	8.73	1.41	0.03	254961	0	7827	165803	254961	247134	3601	64	21	7	160056	1834282	3693
136	2016-05-28 17:30:09	0	0	0	0	0	0	8.75	1.41	0.03	255285	0	7847	166364	255285	247438	3608	64	21	7	160578	1834287	3700
137	2016-05-28 17:40:08	0	0	0	0	0	0	8.78	1.41	0.03	256217	0	7885	166839	256217	248332	3625	65	21	7	161020	1834290	3718
138	2016-05-28 17:50:10	0	0	0	0	0	0	8.8	1.42	0.03	256590	0	7903	167262	256590	248687	3631	65	21	7	161415	1834295	3724
139	2016-05-28 18:00:09	0	0	0	0	0	0	8.82	1.42	0.03	257384	0	7945	167752	257384	249439	3646	65	21	7	161870	1834299	3739
140	2016-05-28 18:10:08	0	0	0	0	0	0	8.82	1.42	0.03	257731	0	7961	167752	257731	249770	3650	65	21	7	161870	1834301	3743
141	2016-05-28 18:20:09	0	0	0	0	0	0	8.87	1.42	0.03	258477	0	8003	168491	258477	250474	3662	65	21	7	162661	1834303	3755
142	2016-05-28 18:30:10	0	0	0	0	0	0	8.87	1.42	0.03	258797	0	8019	168491	258797	250778	3671	65	21	7	162661	1834305	3764
143	2016-05-28 18:40:10	0	0	0	0	0	0	8.92	1.42	0.03	259507	0	8063	169205	259507	251444	3685	65	21	7	163602	1834309	3778
144	2016-05-28 18:50:09	0	0	0	0	0	0	8.93	1.42	0.03	259866	0	8081	169343	259866	251785	3690	65	22	7	163732	1834314	3784
145	2016-05-28 19:00:08	0	0	0	0	0	0	8.95	1.42	0.03	260665	0	8115	169792	260665	252550	3706	65	22	7	164099	1834319	3800
146	2016-05-28 19:10:09	0	0	0	0	0	0	8.96	1.42	0.03	261010	0	8130	170090	261010	252880	3714	65	22	7	164378	1834321	3808
147	2016-05-28 19:20:11	0	0	0	0	0	0	8.98	1.42	0.03	261690	0	8180	170408	261690	253510	3722	65	22	7	164675	1834329	3816
148	2016-05-28 19:30:11	0	0	0	0	0	0	8.99	1.42	0.03	262292	0	8215	170408	262292	254077	3732	65	22	7	164815	1834333	3826
149	2016-05-28 19:40:13	0	0	0	0	0	0	9.01	1.42	0.03	262596	0	8232	170765	262596	254364	3738	65	22	7	165255	1834332	3832
150	2016-05-28 19:50:11	0	0	0	0	0	0	9.01	1.42	0.03	263245	0	8269	170798	263245	254976	3747	65	22	7	165285	1834339	3841
151	2016-05-28 20:00:11	0	0	0	0	0	0	9.02	1.42	0.03	263579	0	8288	170949	263579	255291	3753	66	22	7	165426	1834342	3848
152	2016-05-28 20:10:10	0	0	0	0	0	0	9.03	1.42	0.03	264084	0	8326	171365	264084	255758	3761	66	22	7	165674	1834343	3856
153	2016-05-28 20:20:10	0	0	0	0	0	0	9.04	1.42	0.03	264287	0	8339	171450	264287	255948	3764	66	22	7	165754	1834352	3859
154	2016-05-28 20:30:27	0	0	0	0	0	0	9.04	1.42	0.03	264818	0	8372	171583	264818	256446	3771	66	22	7	165878	1834357	3866
155	2016-05-28 20:40:27	0	0	0	0	0	0	9.04	1.42	0.03	265072	0	8387	171583	265072	256685	3771	66	22	7	165878	1834367	3866
156	2016-05-28 20:50:27	0	0	0	0	0	0	9.07	1.42	0.03	265596	0	8412	172022	265596	257184	3779	66	22	7	166288	1834378	3874
157	2016-05-28 21:00:27	0	0	0	0	0	0	9.07	1.42	0.03	265865	0	8421	172022	265865	257444	3785	66	22	7	166288	1834376	3880
158	2016-05-28 21:10:30	0	0	0	0	0	0	9.07	1.42	0.03	266422	0	8455	172059	266422	257967	3789	66	22	7	166323	1834384	3884
159	2016-05-28 21:20:27	0	0	0	0	0	0	9.08	1.42	0.03	266684	0	8474	172377	266684	258210	3795	66	23	7	166551	1834390	3891
160	2016-05-28 21:30:29	0	0	0	0	0	0	9.08	1.42	0.03	267207	0	8503	172483	267207	258704	3802	66	23	7	166650	1834389	3898
161	2016-05-28 21:40:28	0	0	0	0	0	0	9.09	1.42	0.03	267507	0	8531	172615	267507	258976	3807	66	23	7	166773	1834393	3903
162	2016-05-28 21:50:27	0	0	0	0	0	0	9.11	1.42	0.03	267976	0	8562	172982	267976	259414	3812	66	23	7	167115	1834398	3908
163	2016-05-28 22:00:28	0	0	0	0	0	0	9.11	1.42	0.03	268242	0	8575	172982	268242	259667	3817	66	23	7	167115	1834411	3913
164	2016-05-28 22:10:31	0	0	0	0	0	0	9.11	1.42	0.03	268489	0	8586	173059	268489	259903	3819	66	23	7	167187	1834415	3915
165	2016-05-28 22:20:30	0	0	0	0	0	0	9.11	1.42	0.03	268977	0	8605	173078	268977	260372	3829	66	23	7	167205	1834415	3925
166	2016-05-28 22:30:28	0	0	0	0	0	0	9.13	1.42	0.03	269245	0	8621	173311	269245	260624	3830	66	23	7	167422	1834419	3926
167	2016-05-28 22:40:29	0	0	0	0	0	0	9.15	1.42	0.03	269658	0	8648	173622	269658	261010	3833	67	23	7	167858	1834430	3930
168	2016-05-28 22:50:31	0	0	0	0	0	0	9.16	1.42	0.03	270020	0	8669	173895	270020	261351	3843	67	24	7	168113	1834434	3941
169	2016-05-28 23:00:28	0	0	0	0	0	0	9.17	1.42	0.03	270254	0	8680	173973	270254	261574	3847	67	24	7	168186	1834441	3945
170	2016-05-28 23:10:29	0	0	0	0	0	0	9.17	1.42	0.03	270659	0	8706	174051	270659	261953	3851	68	24	7	168204	1834444	3950
171	2016-05-28 23:20:29	0	0	0	0	0	0	9.17	1.42	0.03	270868	0	8721	174051	270868	262147	3853	68	24	7	168204	1834444	3952
172	2016-05-28 23:30:29	0	0	0	0	0	0	9.17	1.42	0.03	271236	0	8738	174051	271236	262498	3855	68	24	7	168204	1834442	3954
173	2016-05-28 23:40:31	0	0	0	0	0	0	9.17	1.42	0.03	271465	0	8753	174051	271465	262712	3857	68	24	7	168204	1834446	3956
174	2016-05-28 23:50:30	0	0	0	0	0	0	9.18	1.42	0.03	271846	0	8771	174205	271846	263075	3865	68	24	7	168348	1834449	3964
175	2016-05-29 00:00:27	0	0	0	0	0	0	9.18	1.42	0.03	272034	0	8778	174244	272034	263256	3870	68	24	7	168385	1834450	3969
176	2016-05-29 00:10:28	0	0	0	0	0	0	9.18	1.42	0.03	272371	0	8795	174362	272371	263576	3875	68	24	7	168494	1834450	3974
177	2016-05-29 00:20:29	0	0	0	0	0	0	9.22	1.42	0.03	272562	0	8810	174953	272562	263752	3877	68	24	7	169046	1834459	3976
178	2016-05-29 00:30:29	0	0	0	0	0	0	9.22	1.42	0.03	272901	0	8831	174953	272901	264070	3881	68	24	7	169046	1834462	3980
179	2016-05-29 00:40:31	0	0	0	0	0	0	9.22	1.42	0.03	273212	0	8845	174953	273212	264367	3888	68	24	7	169046	1834459	3987
180	2016-05-29 00:50:28	0	0	0	0	0	0	9.23	1.42	0.03	273356	0	8851	175171	273356	264505	3892	68	24	7	169398	1834464	3991
181	2016-05-29 01:00:30	0	0	0	0	0	0	9.24	1.43	0.03	273648	0	8873	175369	273648	264775	3901	68	24	7	169583	1834466	4000
182	2016-05-29 01:10:28	0	0	0	0	0	0	9.25	1.43	0.03	273767	0	8881	175568	273767	264886	3902	68	24	7	169769	1834469	4001
183	2016-05-29 01:20:28	0	0	0	0	0	0	9.25	1.43	0.03	274067	0	8894	175568	274067	265173	3906	68	24	7	169769	1834470	4005
184	2016-05-29 01:30:28	0	0	0	0	0	0	9.25	1.42	0.03	274206	0	8900	175568	274206	265306	3907	68	24	7	169769	1834474	4006
185	2016-05-29 01:40:29	0	0	0	0	0	0	9.25	1.43	0.03	274401	0	8912	175568	274401	265489	3912	68	24	7	169769	1834477	4011
186	2016-05-29 01:50:11	0	0	0	0	0	0	9.25	1.42	0.03	274535	0	8935	175568	274535	265600	3912	69	24	7	169769	1834481	4012
187	2016-05-29 02:00:10	0	0	0	0	0	0	9.25	1.42	0.03	274729	0	8957	175568	274729	265772	3914	69	24	7	169769	1835098	4014
188	2016-05-29 02:10:10	0	0	0	0	0	0	9.25	1.43	0.03	274916	0	8977	175568	274916	265939	3918	69	24	7	169769	1835104	4018
189	2016-05-29 02:20:10	0	0	0	0	0	0	9.25	1.43	0.03	275008	0	8980	175568	275008	266028	3919	69	24	7	169769	1835105	4019
190	2016-05-29 02:30:10	0	0	0	0	0	0	9.25	1.43	0.03	275166	0	8995	175568	275166	266171	3925	69	24	7	169769	1835106	4025
191	2016-05-29 02:40:11	0	0	0	0	0	0	9.26	1.43	0.03	275227	0	8998	175807	275227	266229	3926	69	24	7	169993	1835109	4026
192	2016-05-29 02:50:12	0	0	0	0	0	0	9.26	1.43	0.03	275343	0	9008	175807	275343	266335	3929	70	24	7	169993	1835110	4030
193	2016-05-29 03:00:11	0	0	0	0	0	0	9.26	1.43	0.03	275416	0	9013	175807	275416	266403	3931	70	24	7	169993	1835111	4032
194	2016-05-29 03:10:11	0	0	0	0	0	0	9.26	1.43	0.03	275518	0	9022	175807	275518	266496	3931	70	24	7	169993	1835113	4032
195	2016-05-29 03:20:11	0	0	0	0	0	0	9.26	1.43	0.03	275576	0	9024	175807	275576	266552	3932	70	24	7	169993	1835113	4033
196	2016-05-29 03:30:09	0	0	0	0	0	0	9.26	1.43	0.03	275695	0	9036	175807	275695	266659	3932	70	24	7	169993	1835113	4033
197	2016-05-29 03:40:12	0	0	0	0	0	0	9.26	1.43	0.03	275725	0	9041	175807	275725	266684	3934	70	24	7	169993	1835114	4035
198	2016-05-29 03:50:10	0	0	0	0	0	0	9.27	1.43	0.03	275814	0	9047	175887	275814	266767	3935	70	24	7	170068	1835115	4036
199	2016-05-29 04:00:12	0	0	0	0	0	0	9.27	1.43	0.03	275856	0	9053	175887	275856	266803	3935	70	24	7	170068	1835116	4036
200	2016-05-29 04:10:12	0	0	0	0	0	0	9.27	1.43	0.03	275934	0	9058	175887	275934	266876	3937	70	25	7	170068	1835116	4039
201	2016-05-29 04:20:11	0	0	0	0	0	0	9.27	1.43	0.03	275979	0	9062	175887	275979	266917	3937	70	25	7	170068	1835116	4039
202	2016-05-29 04:30:10	0	0	0	0	0	0	9.27	1.43	0.03	276060	0	9066	175887	276060	266994	3937	70	25	7	170068	1835117	4039
203	2016-05-29 04:40:10	0	0	0	0	0	0	9.27	1.43	0.03	276084	0	9068	175887	276084	267016	3937	70	25	7	170068	1835116	4039
204	2016-05-29 04:50:12	0	0	0	0	0	0	9.27	1.43	0.03	276156	0	9072	176007	276156	267084	3938	70	25	7	170180	1835117	4040
205	2016-05-29 05:00:12	0	0	0	0	0	0	9.27	1.43	0.03	276174	0	9075	176017	276174	267099	3938	70	25	7	170189	1835119	4040
206	2016-05-29 05:10:10	0	0	0	0	0	0	9.27	1.43	0.03	276235	0	9081	176017	276235	267154	3938	70	25	7	170189	1835120	4040
207	2016-05-29 05:20:10	0	0	0	0	0	0	9.27	1.43	0.03	276266	0	9083	176017	276266	267183	3938	70	25	7	170189	1835121	4040
208	2016-05-29 05:30:10	0	0	0	0	0	0	9.27	1.43	0.03	276296	0	9084	176017	276296	267212	3939	70	25	7	170189	1835122	4041
209	2016-05-29 05:40:10	0	0	0	0	0	0	9.27	1.43	0.03	276372	0	9090	176017	276372	267282	3939	70	25	7	170189	1835122	4041
210	2016-05-29 05:50:11	0	0	0	0	0	0	9.29	1.43	0.03	276401	0	9095	176258	276401	267306	3939	70	25	7	170414	1835123	4041
211	2016-05-29 06:00:10	0	0	0	0	0	0	9.29	1.43	0.03	276466	0	9101	176258	276466	267365	3941	70	25	7	170414	1835124	4043
212	2016-05-29 06:10:12	0	0	0	0	0	0	9.29	1.43	0.03	276543	0	9106	176258	276543	267437	3941	70	25	7	170414	1835124	4043
213	2016-05-29 06:20:10	0	0	0	0	0	0	9.29	1.43	0.03	276588	0	9109	176258	276588	267479	3943	70	25	7	170414	1835126	4045
214	2016-05-29 06:30:09	0	0	0	0	0	0	9.29	1.43	0.03	276667	0	9115	176258	276667	267552	3945	70	25	7	170414	1835125	4047
215	2016-05-29 06:40:13	0	0	0	0	0	0	9.29	1.43	0.03	276718	0	9117	176258	276718	267601	3946	70	25	7	170414	1835129	4048
216	2016-05-29 06:50:11	0	0	0	0	0	0	9.29	1.43	0.03	276820	0	9125	176258	276820	267695	3948	70	25	7	170414	1835130	4050
217	2016-05-29 07:00:09	0	0	0	0	0	0	9.29	1.43	0.03	276919	0	9132	176338	276919	267787	3950	70	25	7	170489	1835133	4052
218	2016-05-29 07:10:09	0	0	0	0	0	0	9.29	1.43	0.03	276961	0	9138	176418	276961	267823	3950	70	25	7	170489	1835132	4052
219	2016-05-29 07:20:10	0	0	0	0	0	0	9.29	1.43	0.03	277018	0	9145	176418	277018	267873	3954	70	25	7	170489	1835133	4056
220	2016-05-29 07:30:10	0	0	0	0	0	0	9.29	1.43	0.03	277053	0	9151	176418	277053	267902	3954	70	25	7	170489	1835135	4056
221	2016-05-29 07:40:12	0	0	0	0	0	0	9.29	1.43	0.03	277125	0	9162	176418	277125	267963	3955	70	26	7	170489	1835137	4058
222	2016-05-29 07:50:10	0	0	0	0	0	0	9.3	1.43	0.03	277161	0	9169	176579	277161	267992	3955	70	26	7	170640	1835139	4058
223	2016-05-29 08:00:12	0	0	0	0	0	0	9.31	1.43	0.03	277194	0	9174	176730	277194	268020	3958	70	26	7	170781	1835140	4061
224	2016-05-29 08:10:13	0	0	0	0	0	0	9.32	1.43	0.03	277271	0	9190	176973	277271	268081	3961	70	26	7	171007	1835142	4064
225	2016-05-29 08:20:11	0	0	0	0	0	0	9.32	1.43	0.03	277344	0	9205	176973	277344	268139	3961	70	26	7	171007	1835143	4064
226	2016-05-29 08:30:11	0	0	0	0	0	0	9.32	1.43	0.03	277383	0	9212	176973	277383	268171	3963	70	26	7	171007	1835144	4066
227	2016-05-29 08:40:11	0	0	0	0	0	0	9.32	1.43	0.03	277457	0	9224	176973	277457	268233	3965	70	26	7	171007	1835146	4068
228	2016-05-29 08:50:10	0	0	0	0	0	0	9.32	1.43	0.03	277507	0	9236	176973	277507	268271	3968	70	26	7	171007	1835149	4071
229	2016-05-29 09:00:11	0	0	0	0	0	0	9.32	1.43	0.03	277592	0	9245	176993	277592	268347	3973	70	26	7	171026	1835149	4076
230	2016-05-29 09:10:10	0	0	0	0	0	0	9.32	1.43	0.03	277676	0	9258	176993	277676	268418	3980	70	26	7	171026	1835155	4083
231	2016-05-29 09:20:12	0	0	0	0	0	0	9.32	1.43	0.03	277725	0	9268	176993	277725	268457	3981	70	26	7	171026	1835164	4084
232	2016-05-29 09:30:11	0	0	0	0	0	0	9.32	1.43	0.03	277768	0	9279	176993	277768	268489	3981	70	26	7	171026	1835164	4084
233	2016-05-29 09:40:11	0	0	0	0	0	0	9.32	1.43	0.03	277882	0	9299	176993	277882	268583	3982	70	26	7	171026	1835167	4085
234	2016-05-29 09:50:11	0	0	0	0	0	0	9.32	1.43	0.03	277921	0	9306	176993	277921	268615	3982	70	26	7	171026	1835165	4085
235	2016-05-29 10:00:11	0	0	0	0	0	0	9.33	1.43	0.03	278017	0	9333	177236	278017	268684	3984	70	26	7	171253	1835168	4087
236	2016-05-29 10:10:13	0	0	0	0	0	0	9.33	1.43	0.03	278051	0	9342	177236	278051	268709	3984	70	26	7	171253	1835170	4087
237	2016-05-29 10:20:13	0	0	0	0	0	0	9.33	1.43	0.03	278120	0	9353	177236	278120	268767	3987	70	26	7	171253	1835175	4090
238	2016-05-29 10:30:12	0	0	0	0	0	0	9.33	1.43	0.03	278167	0	9359	177236	278167	268808	3988	70	26	7	171253	1835175	4091
239	2016-05-29 10:40:13	0	0	0	0	0	0	9.35	1.43	0.03	278227	0	9369	177541	278227	268858	3991	70	26	7	171538	1835176	4094
240	2016-05-29 10:50:11	0	0	0	0	0	0	9.35	1.43	0.03	278265	0	9378	177541	278265	268887	3992	70	26	7	171538	1835176	4095
241	2016-05-29 11:00:13	0	0	0	0	0	0	9.35	1.44	0.03	278330	0	9394	177541	278330	268936	3997	70	26	7	171538	1835178	4100
242	2016-05-29 11:10:11	0	0	0	0	0	0	9.35	1.44	0.03	278392	0	9406	177541	278392	268986	3999	70	26	7	171538	1835180	4102
243	2016-05-29 11:20:12	0	0	0	0	0	0	9.35	1.44	0.04	278423	0	9416	177541	278423	269007	3999	70	26	7	171538	1835185	4102
244	2016-05-29 11:30:11	0	0	0	0	0	0	9.35	1.44	0.04	278451	0	9425	177541	278451	269026	3999	70	26	7	171538	1835185	4102
245	2016-05-29 11:40:11	0	0	0	0	0	0	9.35	1.44	0.04	278513	0	9431	177541	278513	269082	4001	70	26	7	171538	1835189	4104
246	2016-05-29 11:50:11	0	0	0	0	0	0	9.35	1.44	0.04	278531	0	9435	177541	278531	269096	4001	70	26	7	171538	1835190	4104
247	2016-05-29 12:00:13	0	0	0	0	0	0	9.35	1.44	0.04	278580	0	9447	177541	278580	269133	4004	70	26	7	171538	1835192	4107
248	2016-05-29 12:10:14	0	0	0	0	0	0	9.35	1.44	0.04	278610	0	9452	177541	278610	269158	4004	70	26	7	171538	1835196	4107
249	2016-05-29 12:20:12	0	0	0	0	0	0	9.35	1.44	0.04	278660	0	9462	177541	278660	269198	4007	70	26	7	171538	1835203	4110
250	2016-05-29 12:30:15	0	0	0	0	0	0	9.35	1.44	0.04	278679	0	9466	177623	278679	269213	4008	70	26	7	171538	1835204	4111
251	2016-05-29 12:40:14	0	0	0	0	0	0	9.35	1.44	0.04	278728	0	9475	177623	278728	269253	4009	70	26	7	171538	1835208	4112
252	2016-05-29 12:50:12	0	0	0	0	0	0	9.35	1.44	0.04	278755	0	9482	177623	278755	269273	4009	70	26	7	171538	1835215	4112
253	2016-05-29 13:00:15	0	0	0	0	0	0	9.35	1.44	0.04	278794	0	9491	177623	278794	269303	4012	70	26	7	171538	1835217	4115
254	2016-05-29 13:10:14	0	0	0	0	0	0	9.35	1.44	0.04	278812	0	9493	177623	278812	269319	4013	70	26	7	171538	1835226	4116
255	2016-05-29 13:20:15	0	0	0	0	0	0	9.35	1.44	0.04	278846	0	9506	177623	278846	269340	4015	70	26	7	171538	1835232	4118
256	2016-05-29 13:30:18	0	0	0	0	0	0	9.35	1.44	0.04	278863	0	9508	177623	278863	269355	4016	70	26	7	171538	1835241	4119
257	2016-05-29 13:40:14	0	0	0	0	0	0	9.35	1.44	0.04	278898	0	9518	177638	278898	269380	4016	70	26	7	171552	1835247	4119
258	2016-05-29 13:50:14	0	0	0	0	0	0	9.35	1.44	0.04	278916	0	9524	177638	278916	269392	4016	70	26	7	171552	1835253	4119
259	2016-05-29 14:00:17	0	0	0	0	0	0	9.35	1.44	0.04	278951	0	9529	177638	278951	269422	4016	70	26	7	171552	1835256	4119
260	2016-05-29 14:10:15	0	0	0	0	0	0	9.35	1.44	0.04	278968	0	9537	177638	278968	269431	4016	70	26	7	171552	1835258	4119
261	2016-05-29 14:20:16	0	0	0	0	0	0	9.35	1.44	0.04	278998	0	9546	177638	278998	269452	4018	70	26	7	171552	1835259	4121
262	2016-05-29 14:30:17	0	0	0	0	0	0	9.35	1.44	0.04	279008	0	9549	177699	279008	269459	4019	70	26	7	171552	1835265	4122
263	2016-05-29 14:40:15	0	0	0	0	0	0	9.35	1.44	0.04	279039	0	9559	177699	279039	269480	4019	70	26	7	171552	1835269	4122
264	2016-05-29 14:50:17	0	0	0	0	0	0	9.35	1.44	0.04	279048	0	9561	177699	279048	269487	4021	70	27	7	171552	1835280	4125
265	2016-05-29 15:00:15	0	0	0	0	0	0	9.35	1.44	0.04	279073	0	9571	177699	279073	269502	4022	70	27	7	171552	1835283	4126
266	2016-05-29 15:10:15	0	0	0	0	0	0	9.35	1.44	0.04	279088	0	9577	177699	279088	269511	4022	70	27	7	171552	1835291	4126
267	2016-05-29 15:20:18	0	0	0	0	0	0	9.35	1.44	0.04	279107	0	9583	177699	279107	269524	4022	70	27	7	171552	1835297	4126
268	2016-05-29 15:30:18	0	0	0	0	0	0	9.35	1.44	0.04	279128	0	9593	177699	279128	269535	4023	70	28	7	171552	1835308	4128
269	2016-05-29 15:40:18	0	0	0	0	0	0	9.35	1.44	0.04	279152	0	9607	177781	279152	269545	4023	70	28	7	171552	1835312	4128
270	2016-05-29 15:50:18	0	0	0	0	0	0	9.35	1.44	0.04	279161	0	9611	177781	279161	269550	4023	70	28	7	171552	1835319	4128
271	2016-05-29 16:00:16	0	0	0	0	0	0	9.35	1.44	0.04	279185	0	9619	177781	279185	269566	4023	70	28	7	171552	1835326	4128
272	2016-05-29 16:10:18	0	0	0	0	0	0	9.35	1.44	0.04	279189	0	9620	177781	279189	269569	4023	70	28	7	171552	1835334	4128
273	2016-05-29 16:20:18	0	0	0	0	0	0	9.35	1.44	0.04	279218	0	9631	177781	279218	269587	4023	70	28	7	171552	1835339	4128
274	2016-05-29 16:30:17	0	0	0	0	0	0	9.35	1.44	0.04	279237	0	9639	177781	279237	269598	4024	70	28	7	171552	1835347	4129
275	2016-05-29 16:40:18	0	0	0	0	0	0	9.35	1.44	0.04	279265	0	9649	177781	279265	269616	4027	70	28	7	171552	1835361	4132
276	2016-05-29 16:50:18	0	0	0	0	0	0	9.35	1.44	0.04	279276	0	9651	177781	279276	269625	4028	70	28	7	171552	1835374	4133
277	2016-05-29 17:00:16	0	0	0	0	0	0	9.35	1.44	0.04	279304	0	9657	177781	279304	269641	4028	70	28	7	171552	1835388	4133
278	2016-05-29 17:10:18	0	0	0	0	0	0	9.35	1.44	0.04	279318	0	9664	177781	279318	269654	4029	70	28	7	171552	1835398	4134
279	2016-05-29 17:20:17	0	0	0	0	0	0	9.35	1.44	0.04	279330	0	9670	177781	279330	269660	4029	70	28	7	171552	1835415	4134
280	2016-05-29 17:30:19	0	0	0	0	0	0	9.35	1.44	0.04	279352	0	9676	177781	279352	269676	4029	70	28	7	171552	1835429	4134
281	2016-05-29 17:40:17	0	0	0	0	0	0	9.35	1.44	0.04	279362	0	9679	177781	279362	269683	4029	70	28	7	171552	1835434	4134
282	2016-05-29 17:50:18	0	0	0	0	0	0	9.35	1.44	0.04	279371	0	9681	177781	279371	269690	4029	70	28	7	171552	1835438	4134
283	2016-05-29 18:00:19	0	0	0	0	0	0	9.35	1.44	0.04	279379	0	9682	177781	279379	269697	4029	70	28	7	171552	1835453	4134
284	2016-05-29 18:10:20	0	0	0	0	0	0	9.35	1.44	0.04	279392	0	9683	177781	279392	269709	4029	70	28	7	171552	1835458	4134
285	2016-05-29 18:20:21	0	0	0	0	0	0	9.35	1.44	0.04	279403	0	9689	177781	279403	269714	4029	70	28	7	171552	1835462	4134
286	2016-05-29 18:30:19	0	0	0	0	0	0	9.35	1.44	0.04	279428	0	9698	177781	279428	269730	4029	70	28	7	171552	1835473	4134
287	2016-05-29 18:40:19	0	0	0	0	0	0	9.35	1.44	0.04	279435	0	9700	177781	279435	269735	4029	70	28	7	171552	1835484	4134
288	2016-05-29 18:50:20	0	0	0	0	0	0	9.35	1.44	0.04	279449	0	9703	177781	279449	269746	4029	70	28	7	171552	1835491	4134
289	2016-05-29 19:00:17	0	0	0	0	0	0	9.35	1.44	0.04	279452	0	9703	177781	279452	269749	4029	70	28	7	171552	1835508	4134
290	2016-05-29 19:10:19	0	0	0	0	0	0	9.35	1.44	0.04	279476	0	9711	177781	279476	269765	4030	70	28	7	171552	1835516	4135
291	2016-05-29 19:20:18	0	0	0	0	0	0	9.35	1.44	0.04	279484	0	9712	177781	279484	269772	4030	70	28	7	171552	1835525	4135
292	2016-05-29 19:30:20	0	0	0	0	0	0	9.35	1.44	0.04	279500	0	9716	177781	279500	269784	4030	70	28	7	171552	1835536	4135
293	2016-05-29 19:40:33	0	0	0	0	0	0	9.35	1.44	0.04	279505	0	9716	177781	279505	269789	4030	70	28	7	171552	1835551	4135
294	2016-05-29 19:50:44	0	0	0	0	0	0	9.35	1.44	0.04	279522	0	9721	177781	279522	269801	4031	70	28	7	171552	1835563	4136
295	2016-05-29 20:00:46	0	0	0	0	0	0	9.35	1.44	0.04	279538	0	9725	177781	279538	269813	4031	70	28	7	171552	1835566	4136
296	2016-05-29 20:10:47	0	0	0	0	0	0	9.35	1.44	0.04	279546	0	9727	177781	279546	269819	4032	70	28	7	171552	1835577	4137
297	2016-05-29 20:20:46	0	0	0	0	0	0	9.35	1.44	0.04	279560	0	9729	177781	279560	269831	4032	70	28	7	171552	1835593	4137
298	2016-05-29 20:30:46	0	0	0	0	0	0	9.35	1.44	0.04	279572	0	9732	177781	279572	269840	4032	70	28	7	171552	1835612	4137
299	2016-05-29 20:40:48	0	0	0	0	0	0	9.35	1.44	0.04	279588	0	9736	177781	279588	269852	4032	70	28	7	171552	1835618	4137
300	2016-05-29 20:50:44	0	0	0	0	0	0	9.35	1.44	0.04	279592	0	9739	177781	279592	269853	4032	70	28	7	171552	1835628	4137
301	2016-05-29 21:00:45	0	0	0	0	0	0	9.35	1.44	0.04	279604	0	9744	177781	279604	269860	4032	70	28	7	171552	1835647	4137
302	2016-05-29 21:10:46	0	0	0	0	0	0	9.35	1.44	0.04	279606	0	9744	177781	279606	269862	4032	70	28	7	171552	1835664	4137
303	2016-05-29 21:20:50	0	0	0	0	0	0	9.35	1.44	0.04	279624	0	9750	177781	279624	269874	4032	70	28	7	171552	1835675	4137
304	2016-05-29 21:30:47	0	0	0	0	0	0	9.35	1.44	0.04	279630	0	9752	177781	279630	269878	4032	70	28	7	171552	1835692	4137
305	2016-05-29 21:40:46	0	0	0	0	0	0	9.35	1.44	0.04	279640	0	9754	177781	279640	269886	4033	70	28	7	171552	1835707	4138
306	2016-05-29 21:50:50	0	0	0	0	0	0	9.35	1.44	0.04	279654	0	9755	177781	279654	269899	4033	70	28	7	171552	1835727	4138
307	2016-05-29 22:00:57	0	0	0	0	0	0	9.35	1.44	0.04	279668	0	9759	177781	279668	269909	4033	70	28	7	171552	1835738	4138
308	2016-05-29 22:10:55	0	0	0	0	0	0	9.35	1.44	0.04	279683	0	9765	177781	279683	269918	4033	70	28	7	171552	1835755	4138
309	2016-05-29 22:20:53	0	0	0	0	0	0	9.34	1.44	0.04	279689	0	9767	177781	279689	269922	4033	70	28	7	171552	1835774	4138
310	2016-05-29 22:30:53	0	0	0	0	0	0	9.34	1.44	0.04	279706	0	9774	177781	279706	269932	4033	70	28	7	171552	1835797	4138
311	2016-05-29 22:40:52	0	0	0	0	0	0	9.34	1.44	0.04	279716	0	9776	177781	279716	269940	4033	70	28	7	171552	1835811	4138
312	2016-05-29 22:50:53	0	0	0	0	0	0	9.34	1.44	0.04	279735	0	9783	177781	279735	269952	4033	70	29	7	171552	1835828	4139
313	2016-05-29 23:00:57	0	0	0	0	0	0	9.34	1.44	0.04	279746	0	9791	177781	279746	269955	4033	70	29	7	171552	1835861	4139
314	2016-05-29 23:10:52	0	0	0	0	0	0	9.34	1.44	0.04	279757	0	9795	177781	279757	269962	4033	70	29	7	171552	1835872	4139
315	2016-05-29 23:20:54	0	0	0	0	0	0	9.34	1.44	0.04	279770	0	9802	177781	279770	269968	4033	70	29	7	171552	1835885	4139
316	2016-05-29 23:30:52	0	0	0	0	0	0	9.34	1.44	0.04	279794	0	9809	177781	279794	269985	4033	70	29	7	171552	1835899	4139
317	2016-05-29 23:40:54	0	0	0	0	0	0	9.34	1.44	0.04	279800	0	9811	177781	279800	269989	4033	70	29	7	171552	1835902	4139
318	2016-05-29 23:51:04	0	0	0	0	0	0	9.34	1.44	0.04	279809	0	9814	177781	279809	269995	4033	70	29	7	171552	1835908	4139
319	2016-05-30 00:00:55	0	0	0	0	0	0	9.34	1.44	0.04	279821	0	9816	177781	279821	270005	4033	70	29	7	171552	1835916	4139
320	2016-05-30 00:10:54	0	0	0	0	0	0	9.34	1.44	0.04	279827	0	9817	177781	279827	270010	4033	70	29	7	171552	1835935	4139
321	2016-05-30 00:20:53	0	0	0	0	0	0	9.34	1.44	0.04	279834	0	9821	177781	279834	270013	4033	70	29	7	171552	1835960	4139
322	2016-05-30 00:30:56	0	0	0	0	0	0	9.34	1.44	0.04	279845	0	9823	177781	279845	270022	4034	70	29	7	171552	1835974	4140
323	2016-05-30 00:40:53	0	0	0	0	0	0	9.34	1.44	0.04	279852	0	9825	177781	279852	270027	4034	70	29	7	171552	1835988	4140
324	2016-05-30 00:50:54	0	0	0	0	0	0	9.34	1.44	0.04	279858	0	9827	177781	279858	270031	4034	70	29	7	171552	1835997	4140
325	2016-05-30 01:00:52	0	0	0	0	0	0	9.34	1.44	0.04	279862	0	9830	177781	279862	270032	4034	70	29	7	171552	1836014	4140
326	2016-05-30 01:10:53	0	0	0	0	0	0	9.34	1.44	0.04	279865	0	9832	177781	279865	270033	4034	70	29	7	171552	1836022	4140
327	2016-05-30 01:20:22	0	0	0	0	0	0	9.34	1.44	0.04	279866	0	9832	177781	279866	270034	4034	70	29	7	171552	1836029	4140
328	2016-05-30 01:30:24	0	0	0	0	0	0	9.34	1.44	0.04	279869	0	9833	177781	279869	270036	4034	70	29	7	171552	1836034	4140
329	2016-05-30 01:40:21	0	0	0	0	0	0	9.34	1.44	0.04	279872	0	9834	177781	279872	270038	4034	70	29	7	171552	1836040	4140
330	2016-05-30 01:50:21	0	0	0	0	0	0	9.34	1.44	0.04	279878	0	9838	177781	279878	270040	4034	70	29	7	171552	1836049	4140
331	2016-05-30 02:00:23	0	0	0	0	0	0	9.34	1.44	0.04	279880	0	9838	177781	279880	270042	4034	70	29	7	171552	1835896	4140
332	2016-05-30 02:10:21	0	0	0	0	0	0	9.34	1.44	0.04	279881	0	9838	177781	279881	270043	4034	70	29	7	171552	1835903	4140
333	2016-05-30 02:20:21	0	0	0	0	0	0	9.34	1.44	0.04	279883	0	9839	177781	279883	270044	4034	70	29	7	171552	1835903	4140
334	2016-05-30 02:30:22	0	0	0	0	0	0	9.34	1.44	0.04	279886	0	9842	177781	279886	270044	4035	70	29	7	171552	1835909	4141
335	2016-05-30 02:40:21	0	0	0	0	0	0	9.34	1.44	0.04	279888	0	9842	177781	279888	270046	4035	70	29	7	171552	1835909	4141
336	2016-05-30 02:50:20	0	0	0	0	0	0	9.34	1.44	0.04	279890	0	9843	177781	279890	270047	4035	70	29	7	171552	1835908	4141
337	2016-05-30 03:00:24	0	0	0	0	0	0	9.34	1.44	0.04	279890	0	9843	177781	279890	270047	4035	70	29	7	171552	1835915	4141
338	2016-05-30 03:10:20	0	0	0	0	0	0	9.34	1.44	0.04	279890	0	9843	177781	279890	270047	4035	70	29	7	171552	1835916	4141
339	2016-05-30 03:20:23	0	0	0	0	0	0	9.34	1.44	0.04	279891	0	9844	177781	279891	270047	4035	70	29	7	171552	1835915	4141
340	2016-05-30 03:30:22	0	0	0	0	0	0	9.34	1.44	0.04	279891	0	9844	177781	279891	270047	4035	70	29	7	171552	1835916	4141
341	2016-05-30 03:40:21	0	0	0	0	0	0	9.34	1.44	0.04	279892	0	9845	177781	279892	270047	4035	70	29	7	171552	1835918	4141
342	2016-05-30 03:50:24	0	0	0	0	0	0	9.34	1.44	0.04	279895	0	9846	177781	279895	270049	4035	70	29	7	171552	1835918	4141
343	2016-05-30 04:00:21	0	0	0	0	0	0	9.34	1.44	0.04	279896	0	9847	177781	279896	270049	4035	70	30	7	171552	1835918	4142
344	2016-05-30 04:10:24	0	0	0	0	0	0	9.34	1.44	0.04	279897	0	9847	177781	279897	270050	4035	70	30	7	171552	1835922	4142
345	2016-05-30 04:20:23	0	0	0	0	0	0	9.34	1.44	0.04	279897	0	9847	177781	279897	270050	4035	70	30	7	171552	1835921	4142
346	2016-05-30 04:30:20	0	0	0	0	0	0	9.34	1.44	0.04	279898	0	9847	177781	279898	270051	4035	70	30	7	171552	1835921	4142
347	2016-05-30 04:40:23	0	0	0	0	0	0	9.34	1.44	0.04	279899	0	9848	177781	279899	270051	4035	70	30	7	171552	1835922	4142
348	2016-05-30 04:50:24	0	0	0	0	0	0	9.34	1.44	0.04	279899	0	9848	177781	279899	270051	4035	70	30	7	171552	1835922	4142
349	2016-05-30 05:00:22	0	0	0	0	0	0	9.34	1.44	0.04	279902	0	9849	177781	279902	270053	4035	70	30	7	171552	1835923	4142
350	2016-05-30 05:10:22	0	0	0	0	0	0	9.34	1.44	0.04	279905	0	9849	177781	279905	270056	4035	70	30	7	171552	1835923	4142
351	2016-05-30 05:20:21	0	0	0	0	0	0	9.34	1.44	0.04	279905	0	9849	177781	279905	270056	4035	70	30	7	171552	1835925	4142
352	2016-05-30 05:30:25	0	0	0	0	0	0	9.34	1.44	0.04	279905	0	9849	177781	279905	270056	4035	70	30	7	171552	1835926	4142
353	2016-05-30 05:40:21	0	0	0	0	0	0	9.35	1.44	0.04	279906	0	9849	177842	279906	270057	4035	70	30	7	171609	1835928	4142
354	2016-05-30 05:50:21	0	0	0	0	0	0	9.35	1.44	0.04	279910	0	9849	177842	279910	270061	4035	70	30	7	171609	1835931	4142
355	2016-05-30 06:00:22	0	0	0	0	0	0	9.35	1.44	0.04	279910	0	9849	177842	279910	270061	4035	70	30	7	171609	1835931	4142
356	2016-05-30 06:10:21	0	0	0	0	0	0	9.35	1.44	0.04	279910	0	9849	177842	279910	270061	4035	70	30	7	171609	1835932	4142
357	2016-05-30 06:20:19	0	0	0	0	0	0	9.35	1.44	0.04	279912	0	9849	177842	279912	270063	4035	70	30	7	171609	1835935	4142
358	2016-05-30 06:30:24	0	0	0	0	0	0	9.35	1.44	0.04	279912	0	9849	177842	279912	270063	4035	70	30	7	171609	1835937	4142
359	2016-05-30 06:40:23	0	0	0	0	0	0	9.35	1.44	0.04	279913	0	9849	177842	279913	270064	4035	70	30	7	171609	1835944	4142
360	2016-05-30 06:50:23	0	0	0	0	0	0	9.35	1.44	0.04	279913	0	9849	177842	279913	270064	4035	70	30	7	171609	1835946	4142
361	2016-05-30 07:00:23	0	0	0	0	0	0	9.35	1.44	0.04	279915	0	9849	177842	279915	270066	4035	70	30	7	171609	1835948	4142
362	2016-05-30 07:10:23	0	0	0	0	0	0	9.35	1.44	0.04	279916	0	9850	177842	279916	270066	4035	70	30	7	171609	1835951	4142
363	2016-05-30 07:20:24	0	0	0	0	0	0	9.35	1.44	0.04	279919	0	9852	177842	279919	270067	4035	70	30	7	171609	1835951	4142
364	2016-05-30 07:30:26	0	0	0	0	0	0	9.35	1.44	0.04	279922	0	9852	177842	279922	270070	4035	70	30	7	171609	1835956	4142
365	2016-05-30 07:40:24	0	0	0	0	0	0	9.35	1.44	0.04	279925	0	9852	177842	279925	270073	4035	70	30	7	171609	1835962	4142
366	2016-05-30 07:50:25	0	0	0	0	0	0	9.35	1.44	0.04	279928	0	9853	177842	279928	270075	4036	70	30	7	171609	1835970	4143
367	2016-05-30 08:00:28	0	0	0	0	0	0	9.35	1.44	0.04	279930	0	9854	177842	279930	270076	4036	70	30	7	171609	1835975	4143
368	2016-05-30 08:10:25	0	0	0	0	0	0	9.35	1.44	0.04	279934	0	9856	177842	279934	270078	4036	70	30	7	171609	1835983	4143
369	2016-05-30 08:20:26	0	0	0	0	0	0	9.36	1.44	0.04	279939	0	9858	178006	279939	270081	4036	70	30	7	171761	1835992	4143
370	2016-05-30 08:30:30	0	0	0	0	0	0	9.36	1.44	0.04	279940	0	9859	178006	279940	270081	4037	70	30	7	171761	1835997	4144
371	2016-05-30 08:40:24	0	0	0	0	0	0	9.36	1.44	0.04	279948	0	9860	178006	279948	270088	4037	70	30	7	171761	1836008	4144
372	2016-05-30 08:50:29	0	0	0	0	0	0	9.36	1.44	0.04	279953	0	9861	178006	279953	270092	4037	70	30	7	171761	1836016	4144
373	2016-05-30 09:00:27	0	0	0	0	0	0	9.36	1.44	0.04	279959	0	9861	178006	279959	270098	4037	70	30	7	171761	1836027	4144
374	2016-05-30 09:10:27	0	0	0	0	0	0	9.35	1.44	0.04	279962	0	9864	178006	279962	270098	4037	70	30	7	171761	1836036	4144
375	2016-05-30 09:20:28	0	0	0	0	0	0	9.35	1.44	0.04	279964	0	9864	178006	279964	270100	4037	70	30	7	171761	1836049	4144
376	2016-05-30 09:30:28	0	0	0	0	0	0	9.35	1.44	0.04	279969	0	9866	178006	279969	270103	4037	70	30	7	171761	1836052	4144
377	2016-05-30 09:40:24	0	0	0	0	0	0	9.35	1.44	0.04	279972	0	9867	178006	279972	270105	4037	70	30	7	171761	1836064	4144
378	2016-05-30 09:50:30	0	0	0	0	0	0	9.35	1.44	0.04	279975	0	9867	178006	279975	270108	4037	70	30	7	171761	1836075	4144
379	2016-05-30 10:00:30	0	0	0	0	0	0	9.35	1.44	0.04	279976	0	9868	178006	279976	270108	4037	70	30	7	171761	1836083	4144
380	2016-05-30 10:10:35	0	0	0	0	0	0	9.35	1.44	0.04	279982	0	9869	178006	279982	270113	4037	70	30	7	171761	1836091	4144
381	2016-05-30 10:20:32	0	0	0	0	0	0	9.35	1.44	0.04	279984	0	9870	178006	279984	270114	4037	70	30	7	171761	1836097	4144
382	2016-05-30 10:23:05	0	0	0	0	0	0	9.35	1.44	0.04	279984	0	9870	178006	279984	270114	4037	70	30	7	171761	1836101	4144
383	2016-05-30 10:33:09	0	0	0	0	0	0	9.35	1.44	0.04	279985	0	9871	178006	279985	270114	4037	70	30	7	171761	1836112	4144
384	2016-05-30 10:43:01	0	0	0	0	0	0	9.35	1.44	0.04	279991	0	9873	178006	279991	270118	4037	70	30	7	171761	1836124	4144
385	2016-05-30 10:52:59	0	0	0	0	0	0	9.35	1.44	0.04	279997	0	9875	178006	279997	270122	4037	70	30	7	171761	1836134	4144
386	2016-05-30 11:02:58	0	0	0	0	0	0	9.35	1.44	0.04	280002	0	9876	178006	280002	270126	4037	70	30	7	171761	1836146	4144
387	2016-05-30 11:12:59	0	0	0	0	0	0	9.35	1.44	0.04	280006	0	9878	178006	280006	270128	4037	70	30	7	171761	1836162	4144
388	2016-05-30 11:22:58	0	0	0	0	0	0	9.35	1.44	0.04	280006	0	9878	178006	280006	270128	4037	70	30	7	171761	1836169	4144
389	2016-05-30 11:33:04	0	0	0	0	0	0	9.35	1.44	0.04	280015	0	9879	178006	280015	270136	4037	70	30	7	171761	1836182	4144
390	2016-05-30 11:43:02	0	0	0	0	0	0	9.36	1.44	0.04	280017	0	9879	178159	280017	270138	4037	70	30	7	171904	1836192	4144
391	2016-05-30 11:53:05	0	0	0	0	0	0	9.36	1.44	0.04	280022	0	9880	178159	280022	270142	4037	70	30	7	171904	1836200	4144
392	2016-05-30 12:03:01	0	0	0	0	0	0	9.36	1.44	0.04	280024	0	9880	178159	280024	270144	4037	70	30	7	171904	1836203	4144
393	2016-05-30 12:13:03	0	0	0	0	0	0	9.36	1.44	0.04	280026	0	9880	178159	280026	270146	4037	70	30	7	171904	1836220	4144
394	2016-05-30 12:23:01	0	0	0	0	0	0	9.36	1.44	0.04	280029	0	9880	178159	280029	270149	4037	70	30	7	171904	1836231	4144
395	2016-05-30 12:33:02	0	0	0	0	0	0	9.36	1.44	0.04	280029	0	9880	178159	280029	270149	4037	70	30	7	171904	1836236	4144
396	2016-05-30 12:43:01	0	0	0	0	0	0	9.36	1.44	0.04	280033	0	9883	178159	280033	270150	4037	70	30	7	171904	1836241	4144
397	2016-05-30 12:53:01	0	0	0	0	0	0	9.36	1.44	0.04	280038	0	9885	178159	280038	270153	4037	70	30	7	171904	1836247	4144
398	2016-05-30 13:03:02	0	0	0	0	0	0	9.36	1.44	0.04	280038	0	9885	178159	280038	270153	4037	70	30	7	171904	1836254	4144
399	2016-05-30 13:13:08	0	0	0	0	0	0	9.36	1.44	0.04	280040	0	9887	178159	280040	270153	4037	70	30	7	171904	1836265	4144
400	2016-05-30 13:23:03	0	0	0	0	0	0	9.36	1.44	0.04	280043	0	9888	178159	280043	270155	4037	70	30	7	171904	1836276	4144
401	2016-05-30 13:33:04	0	0	0	0	0	0	9.36	1.44	0.04	280049	0	9891	178159	280049	270158	4037	70	30	7	171904	1836291	4144
402	2016-05-30 13:43:03	0	0	0	0	0	0	9.36	1.44	0.04	280051	0	9891	178159	280051	270160	4037	70	30	7	171904	1836298	4144
403	2016-05-30 13:53:02	0	0	0	0	0	0	9.36	1.44	0.04	280055	0	9892	178159	280055	270163	4037	70	30	7	171904	1836312	4144
