1	2017-05-07 11:02:19	0	0	0	0	0	0	1.63	2.96	0.01	54639	1	534	50029	54639	54105	1617	96	132	16	49427	3023196	1861
2	2017-05-07 11:12:20	0	0	0	0	0	0	3.16	4.12	0.02	112876	1	2653	97650	112876	110223	4647	192	257	22	95584	3023196	5118
3	2017-05-07 11:22:19	0	0	0	0	0	0	4.44	4.67	0.04	165378	1	5836	137983	165378	159542	7731	270	377	28	134224	3023196	8406
4	2017-05-07 11:32:21	0	0	0	0	0	0	5.57	5.01	0.05	214932	1	10862	176555	214932	204070	10761	352	479	43	168316	3023196	11635
5	2017-05-07 11:42:19	0	0	0	0	0	0	6.5	5.16	0.07	262338	1	16236	207603	262338	246102	13546	428	574	49	196462	3023196	14597
6	2017-05-07 11:52:19	0	0	0	0	0	0	7.41	5.32	0.08	305014	1	21718	239763	305014	283296	16216	504	656	62	223979	3023196	17438
7	2017-05-07 12:02:21	0	0	0	0	0	0	8.25	5.41	0.09	345200	1	27222	256504	345200	317978	18681	546	732	71	249493	3023196	20030
8	2017-05-07 12:12:20	0	0	0	0	0	0	8.91	5.49	0.09	382462	1	32593	293173	382462	349869	20991	608	805	75	269450	3023196	22479
9	2017-05-07 12:22:20	0	0	0	0	0	0	9.55	5.28	0.1	418491	1	37823	305935	418491	380668	22102	670	868	78	288566	3023196	23718
10	2017-05-07 12:32:20	0	0	0	0	0	0	10	5.57	0.11	452082	1	43235	335698	452082	408847	25179	736	930	78	302421	3023196	26923
11	2017-05-07 12:42:20	0	0	0	0	0	0	10.59	5.57	0.11	484283	1	48720	359482	484283	435563	26978	802	984	79	320114	3023196	28843
12	2017-05-07 12:52:21	0	0	0	0	0	0	11.23	5.58	0.12	515379	1	54256	382258	515379	461123	28765	850	1040	79	339356	3023196	30734
13	2017-05-07 13:02:21	0	0	0	0	0	0	11.78	5.59	0.12	545235	1	59666	402768	545235	485569	30486	892	1092	80	356016	3023196	32550
14	2017-05-07 13:12:21	0	0	0	0	0	0	12.12	5.58	0.13	572904	1	64647	415595	572904	508257	31992	924	1139	84	366348	3023196	34139
15	2017-05-07 13:22:21	0	0	0	0	0	0	12.57	5.58	0.13	598866	1	69647	435038	598866	529219	33430	958	1188	86	380161	3023196	35662
16	2017-05-07 13:32:22	0	0	0	0	0	0	13.05	5.59	0.14	624183	1	74423	452258	624183	549760	34862	1010	1227	87	394435	3023196	37186
17	2017-05-07 13:42:22	0	0	0	0	0	0	13.41	5.6	0.14	648824	1	79265	466900	648824	569559	36323	1064	1270	91	405342	3023196	38748
18	2017-05-07 13:52:22	0	0	0	0	0	0	13.89	5.59	0.14	672373	1	83904	482041	672373	588469	37602	1096	1304	93	419842	3023196	40095
19	2017-05-07 14:02:24	0	0	0	0	0	0	14.14	5.59	0.15	695573	1	88629	495917	695573	606944	38876	1120	1341	97	427617	3023196	41434
20	2017-05-07 14:12:23	0	0	0	0	0	0	14.42	5.58	0.15	718620	1	93464	508915	718620	625156	40134	1164	1392	97	435901	3023196	42787
21	2017-05-07 14:22:25	0	0	0	0	0	0	14.81	5.57	0.15	742652	1	98628	524386	742652	644024	41380	1188	1435	98	447678	3023196	44101
22	2017-05-07 14:32:26	0	0	0	0	0	0	15.15	5.57	0.16	765491	1	103434	535229	765491	662057	42636	1214	1471	99	458000	3023196	45420
23	2017-05-07 14:42:26	0	0	0	0	0	0	15.61	5.57	0.16	787511	1	108058	548597	787511	679453	43846	1250	1514	99	471796	3023196	46709
24	2017-05-07 14:52:24	0	0	0	0	0	0	15.85	5.56	0.16	809417	1	112820	558429	809417	696597	44986	1284	1542	99	479263	3023196	47911
25	2017-05-07 15:02:25	0	0	0	0	0	0	16.3	5.55	0.16	830366	1	117222	572982	830366	713144	46081	1306	1565	103	492719	3023196	49055
26	2017-05-07 15:12:24	0	0	0	0	0	0	16.65	5.54	0.17	850737	1	121487	585572	850737	729250	47163	1316	1595	103	503495	3023196	50177
27	2017-05-07 15:22:24	0	0	0	0	0	0	16.94	5.53	0.17	870305	1	125719	596571	870305	744586	48163	1336	1621	104	512198	3023196	51224
28	2017-05-07 15:32:24	0	0	0	0	0	0	17.21	5.53	0.17	888777	1	129608	609549	888777	759169	49150	1356	1651	106	520158	3023196	52263
29	2017-05-07 15:42:24	0	0	0	0	0	0	17.45	5.52	0.17	907173	1	133506	618450	907173	773667	50119	1374	1679	107	527635	3023196	53279
30	2017-05-07 15:52:24	0	0	0	0	0	0	17.78	5.51	0.17	925061	1	137293	631038	925061	787768	50980	1384	1705	109	537586	3023196	54178
31	2017-05-07 16:02:26	0	0	0	0	0	0	18.06	5.5	0.18	942037	1	140784	641464	942037	801253	51850	1412	1726	109	546026	3023196	55097
32	2017-05-07 16:12:25	0	0	0	0	0	0	18.24	5.5	0.18	959373	1	144608	648501	959373	814765	52750	1428	1748	110	551497	3023196	56036
33	2017-05-07 16:22:25	0	0	0	0	0	0	18.37	5.49	0.18	976261	1	148080	653548	976261	828181	53600	1438	1764	111	555218	3023196	56913
34	2017-05-07 16:32:25	0	0	0	0	0	0	18.62	5.48	0.18	992741	1	151582	659814	992741	841159	54403	1458	1787	111	562782	3023196	57759
35	2017-05-07 16:42:25	0	0	0	0	0	0	18.95	5.47	0.18	1008563	1	155009	675560	1008563	853554	55191	1480	1813	115	572902	3023196	58599
36	2017-05-07 16:52:27	0	0	0	0	0	0	19.19	5.46	0.18	1024230	1	158372	683151	1024230	865858	55967	1502	1832	116	580005	3023196	59417
37	2017-05-07 17:02:28	0	0	0	0	0	0	19.32	5.46	0.18	1039375	1	161679	688583	1039375	877696	56760	1514	1853	117	584046	3023196	60244
38	2017-05-07 17:12:35	0	0	0	0	0	0	19.47	5.46	0.19	1054229	1	164984	696169	1054229	889245	57528	1538	1871	117	588493	3023196	61054
39	2017-05-07 17:22:28	0	0	0	0	0	0	19.58	5.45	0.19	1069062	1	168328	700795	1069062	900734	58275	1582	1888	117	591909	3023196	61862
40	2017-05-07 17:32:26	0	0	0	0	0	0	19.75	5.44	0.19	1083623	1	171557	709383	1083623	912066	58983	1604	1905	118	596986	3023196	62610
41	2017-05-07 17:42:26	0	0	0	0	0	0	20.1	5.44	0.19	1098217	1	174717	718467	1098217	923500	59721	1616	1929	120	607669	3023196	63386
42	2017-05-07 17:52:27	0	0	0	0	0	0	20.32	5.43	0.19	1112547	1	177899	726878	1112547	934648	60449	1640	1943	120	614224	3023196	64152
43	2017-05-07 18:02:28	0	0	0	0	0	0	20.58	5.43	0.19	1126799	1	181234	735555	1126799	945565	61145	1666	1954	120	622028	3023196	64885
44	2017-05-07 18:12:28	0	0	0	0	0	0	20.73	5.42	0.19	1140577	1	184359	743659	1140577	956218	61832	1678	1970	120	626766	3023196	65600
45	2017-05-07 18:22:28	0	0	0	0	0	0	20.83	5.41	0.19	1153754	1	187395	748084	1153754	966359	62468	1698	1987	121	629793	3023196	66274
46	2017-05-07 18:32:32	0	0	0	0	0	0	21.05	5.41	0.2	1166690	1	190407	757978	1166690	976283	63080	1710	2012	121	636334	3023196	66923
47	2017-05-07 18:42:38	0	0	0	0	0	0	21.29	5.4	0.2	1179432	1	193333	769409	1179432	986099	63672	1722	2026	121	643700	3023196	67541
48	2017-05-07 18:52:37	0	0	0	0	0	0	21.51	5.39	0.2	1191680	1	196344	778701	1191680	995336	64240	1738	2043	123	650175	3023196	68144
49	2017-05-07 19:02:35	0	0	0	0	0	0	21.81	5.38	0.2	1204048	1	199311	790581	1204048	1004737	64792	1756	2062	123	659277	3023196	68733
50	2017-05-07 19:12:36	0	0	0	0	0	0	21.98	5.37	0.2	1215914	1	202290	799106	1215914	1013624	65303	1772	2081	123	664409	3023196	69279
51	2017-05-07 19:22:35	0	0	0	0	0	0	22.12	5.36	0.2	1227509	1	205148	805498	1227509	1022361	65764	1790	2103	123	668678	3023196	69780
52	2017-05-07 19:32:36	0	0	0	0	0	0	22.31	5.35	0.2	1239109	1	208018	811522	1239109	1031091	66275	1800	2118	124	674367	3023196	70317
53	2017-05-07 19:42:36	0	0	0	0	0	0	22.41	5.34	0.2	1250502	1	210764	815798	1250502	1039738	66737	1814	2129	124	677614	3023196	70804
54	2017-05-07 19:52:37	0	0	0	0	0	0	22.57	5.33	0.2	1261582	1	213406	822516	1261582	1048176	67242	1834	2139	124	682468	3023196	71339
55	2017-05-07 20:02:42	0	0	0	0	0	0	22.63	5.32	0.2	1272359	1	215898	825820	1272359	1056461	67732	1840	2149	125	684155	3023196	71846
56	2017-05-07 20:12:45	0	0	0	0	0	0	22.71	5.32	0.21	1283218	1	218492	830778	1283218	1064726	68217	1842	2175	125	686563	3023196	72359
57	2017-05-07 20:22:44	0	0	0	0	0	0	22.94	5.31	0.21	1294031	1	221067	839176	1294031	1072964	68689	1850	2189	125	693378	3023196	72853
58	2017-05-07 20:33:18	0	0	0	0	0	0	23.05	5.3	0.21	1304534	1	223591	845705	1304534	1080943	69112	1858	2197	126	696730	3023196	73293
59	2017-05-07 20:43:13	0	0	0	0	0	0	23.11	5.29	0.21	1314885	1	225943	850452	1314885	1088942	69569	1860	2204	126	698765	3023196	73759
60	2017-05-07 20:53:31	0	0	0	0	0	0	23.33	5.28	0.21	1325105	1	228359	857206	1325105	1096746	69984	1876	2212	126	705260	3023196	74198
61	2017-05-07 21:03:37	0	0	0	0	0	0	23.4	5.27	0.21	1335613	1	230854	861402	1335613	1104759	70412	1888	2221	126	707410	3023196	74647
62	2017-05-07 21:13:43	0	0	0	0	0	0	23.5	5.26	0.21	1345488	1	233237	866267	1345488	1112251	70835	1900	2230	126	710525	3023196	75091
63	2017-05-07 21:23:44	0	0	0	0	0	0	23.65	5.26	0.21	1355588	1	235787	872215	1355588	1119801	71256	1908	2241	126	714852	3023196	75531
64	2017-05-07 21:33:48	0	0	0	0	0	0	23.73	5.25	0.21	1365427	1	238202	875699	1365427	1127225	71681	1924	2250	126	717377	3023196	75981
65	2017-05-07 21:44:03	0	0	0	0	0	0	23.82	5.24	0.21	1375342	1	240605	880368	1375342	1134737	72084	1936	2259	126	720214	3023196	76405
66	2017-05-07 21:54:13	0	0	0	0	0	0	23.9	5.23	0.21	1384799	1	242812	883886	1384799	1141987	72493	1942	2270	126	722567	3023196	76831
67	2017-05-07 22:04:28	0	0	0	0	0	0	24.1	5.23	0.21	1394885	1	245180	889472	1394885	1149705	72884	1958	2284	126	728453	3023196	77252
68	2017-05-07 22:14:32	0	0	0	0	0	0	24.2	5.22	0.21	1404571	1	247478	891858	1404571	1157093	73261	1970	2293	127	731756	3023196	77651
69	2017-05-07 22:24:39	0	0	0	0	0	0	24.26	5.21	0.21	1414017	1	249736	894935	1414017	1164281	73679	1992	2307	127	733305	3023196	78105
70	2017-05-07 22:34:48	0	0	0	0	0	0	24.48	5.21	0.22	1423453	1	252045	903998	1423453	1171408	74093	1994	2315	127	740086	3023196	78529
71	2017-05-07 22:45:08	0	0	0	0	0	0	24.71	5.2	0.22	1432630	1	254270	908974	1432630	1178360	74475	2010	2328	129	747005	3023196	78942
72	2017-05-07 22:55:00	0	0	0	0	0	0	24.88	5.19	0.22	1441755	1	256400	915145	1441755	1185355	74858	2032	2342	129	752262	3023196	79361
73	2017-05-07 23:05:05	0	0	0	0	0	0	24.99	5.18	0.22	1450782	1	258602	920484	1450782	1192180	75220	2040	2353	130	755613	3023196	79743
74	2017-05-07 23:15:31	0	0	0	0	0	0	25.07	5.18	0.22	1459379	1	260684	923573	1459379	1198695	75594	2040	2362	130	757971	3023196	80126
75	2017-05-07 23:25:36	0	0	0	0	0	0	25.13	5.17	0.22	1468067	1	262568	926752	1468067	1205499	75951	2046	2373	130	759738	3023196	80500
76	2017-05-07 23:35:51	0	0	0	0	0	0	25.19	5.17	0.22	1475997	1	264343	928315	1475997	1211654	76279	2054	2377	130	761583	3023196	80840
77	2017-05-07 23:45:54	0	0	0	0	0	0	25.23	5.16	0.22	1483497	1	265917	929709	1483497	1217580	76600	2068	2387	131	762709	3023196	81186
78	2017-05-07 23:55:41	0	0	0	0	0	0	25.36	5.16	0.22	1490867	1	267592	938230	1490867	1223275	76904	2076	2397	132	766817	3023196	81509
79	2017-05-08 00:30:54	0	0	0	0	0	0	25.63	5.15	0.22	1511401	1	272179	952023	1511401	1239222	77789	2100	2424	135	774768	3023196	82448
80	2017-05-08 01:31:13	0	0	0	0	0	0	25.76	5.14	0.22	1532712	1	276545	959765	1532712	1256167	78713	2134	2458	137	778662	3023196	83442
81	2017-05-08 02:31:12	0	0	0	0	0	0	25.91	5.13	0.22	1543940	1	278721	972983	1543940	1265219	79162	2142	2475	137	784348	3026676	83916
82	2017-05-08 03:31:18	0	0	0	0	0	0	26.05	5.12	0.22	1550257	1	279984	977283	1550257	1270273	79426	2148	2482	138	788342	3026676	84194
83	2017-05-08 04:31:31	0	0	0	0	0	0	26.05	5.12	0.22	1554690	1	280911	977437	1554690	1273779	79560	2152	2488	138	788442	3026676	84338
84	2017-05-08 05:31:51	0	0	0	0	0	0	26.12	5.11	0.22	1559511	1	282194	980765	1559511	1277317	79698	2156	2496	138	790606	3026676	84488
85	2017-05-08 06:31:44	0	0	0	0	0	0	26.27	5.1	0.22	1568099	1	284576	986546	1568099	1283523	79928	2162	2506	138	794971	3026676	84734
86	2017-05-08 07:06:59	0	0	0	0	0	0	26.34	5.09	0.22	1575748	1	286582	991522	1575748	1289166	80164	2170	2512	139	797376	3026676	84985
87	2017-05-08 07:16:57	0	0	0	0	0	0	26.35	5.08	0.22	1578532	1	287322	991820	1578532	1291210	80251	2170	2515	140	797569	3026676	85076
88	2017-05-08 07:28:01	0	0	0	0	0	0	26.38	5.08	0.22	1581657	1	288119	993092	1581657	1293538	80344	2174	2521	140	798391	3026676	85179
89	2017-05-08 07:38:06	0	0	0	0	0	0	26.41	5.08	0.22	1584892	1	288923	996127	1584892	1295969	80453	2174	2524	140	799216	3026676	85291
90	2017-05-08 07:48:24	0	0	0	0	0	0	26.43	5.07	0.22	1588395	1	289869	997732	1588395	1298526	80579	2192	2529	140	799835	3026676	85440
91	2017-05-08 07:59:10	0	0	0	0	0	0	26.5	5.07	0.22	1593825	1	291315	1000796	1593825	1302510	80784	2192	2535	140	802114	3026676	85651
92	2017-05-08 08:08:46	0	0	0	0	0	0	26.5	5.07	0.22	1595615	1	291802	1000796	1595615	1303813	80863	2194	2538	140	802114	3026676	85735
93	2017-05-08 08:18:26	0	0	0	0	0	0	26.52	0	0.22	1599320	0	292816	1001443	1599320	1306504	80998	2198	2542	140	802530	3026676	85878
94	2017-05-08 08:28:42	0	0	0	0	0	0	26.54	0	0.22	1603085	0	293849	1002659	1603085	1309236	81119	2200	2545	140	803363	3026676	86004
95	2017-05-08 08:38:49	0.12	0	0	0	0	0	26.6	5.07	0.22	1606932	836	294868	1003309	1606263	1312064	81362	2206	2545	140	805034	3026676	86253
96	2017-05-08 08:49:06	5.31	746	0.007118	5.39	7.12	7.118	26.66	5.08	0.23	1625406	13838	296331	1019591	1612494	1316163	82640	2218	2559	140	807014	3026676	87557
97	2017-05-08 08:59:33	9.21	1765	0.005218	7.45	5.22	5.218	26.69	5.07	0.23	1639319	23679	297566	1030695	1616401	1318835	83735	2230	2576	144	807823	3026676	88685
98	2017-05-08 09:09:44	11.77	2828	0.004162	8.21	4.16	4.162	26.74	5.07	0.23	1655938	34447	298893	1047343	1620390	1321497	84982	2248	2598	146	809248	3026676	89974
99	2017-05-08 09:20:25	18.85	4848	0.003888	7.48	3.89	3.888	26.76	5.06	0.23	1682831	64854	300455	1070393	1624564	1324109	86991	2280	2623	147	810042	3026676	92041
100	2017-05-08 09:30:36	31.84	7798	0.004083	7.5	4.08	4.083	26.9	5.11	0.23	1732710	104025	302348	1111953	1629159	1326811	90998	2320	2688	148	814045	3026676	96154
101	2017-05-08 09:40:45	53.63	13290	0.004035	8.11	4.04	4.035	27.14	5.06	0.23	1792267	163895	304725	1154909	1634259	1329534	95981	2388	2750	155	821401	3026676	101274
102	2017-05-08 09:50:53	73.04	16949	0.004309	7.78	4.31	4.309	27.4	5.11	0.23	1847880	217893	307750	1213665	1640316	1332566	100760	2442	2815	164	829457	3026676	106181
103	2017-05-08 10:01:06	86.15	21399	0.004026	8.32	4.03	4.026	27.63	5.06	0.23	1894738	257269	310832	1249492	1646434	1335602	104660	2486	2870	169	836233	3026676	110185
104	2017-05-08 10:12:24	97.19	25304	0.003841	8.6	3.84	3.841	27.77	5.01	0.23	1939401	294077	314063	1292759	1652675	1338612	108106	2540	2916	181	840603	3026676	113743
105	2017-05-08 10:22:29	113.85	28334	0.004018	8.28	4.02	4.018	27.91	5.05	0.24	1989649	342005	317663	1331968	1659526	1341863	112111	2588	2968	189	844890	3026676	117856
106	2017-05-08 10:32:46	127.53	32510	0.003923	8.47	3.92	3.923	28.18	5.01	0.24	2039126	383732	321876	1383712	1666915	1345039	116091	2650	3008	196	852860	3026676	121945
107	2017-05-08 10:43:22	141.09	35299	0.003997	8.31	4	3.997	28.38	5.04	0.24	2085470	424723	326596	1421877	1674860	1348264	119687	2688	3056	205	858953	3026676	125636
108	2017-05-08 10:53:39	149.41	38860	0.003845	8.55	3.84	3.845	28.43	5	0.25	2127424	454623	331278	1460348	1682745	1351467	123034	2726	3089	208	860355	3026676	129057
109	2017-05-08 11:04:05	158.59	40947	0.003873	8.36	3.87	3.873	28.52	5.03	0.25	2165694	489910	335673	1486730	1690391	1354718	125969	2758	3122	212	863113	3026676	132061
110	2017-05-08 11:14:21	163.59	43586	0.003753	8.51	3.75	3.753	28.7	5.06	0.25	2215677	512439	342352	1519523	1701807	1359455	129656	2778	3156	214	868621	3026676	135804
111	2017-05-08 11:25:19	169.43	46085	0.003676	8.56	3.68	3.676	28.77	5.03	0.25	2246726	538492	346434	1553131	1708840	1362406	132124	2816	3192	216	870820	3026676	138348
112	2017-05-08 11:36:33	175.94	48706	0.003612	8.56	3.61	3.612	28.92	5.01	0.26	2277757	568765	350242	1561490	1715285	1365043	134558	2842	3216	219	875189	3026676	140835
113	2017-05-08 11:46:54	181.5	50387	0.003602	8.5	3.6	3.602	28.94	5.03	0.26	2307699	592541	354124	1591436	1721645	1367521	136956	2870	3242	222	876040	3026676	143290
114	2017-05-08 11:56:56	185.08	52666	0.003514	8.62	3.51	3.514	29.02	5.01	0.26	2334975	610678	357782	1610526	1727693	1369911	139182	2888	3261	225	878386	3026676	145556
115	2017-05-08 12:06:56	189.61	54065	0.003507	8.58	3.51	3.507	29.05	5.03	0.26	2359860	629946	361446	1618418	1733707	1372261	141263	2896	3280	227	879259	3026676	147666
116	2017-05-08 12:17:16	194.31	56327	0.00345	8.68	3.45	3.45	29.14	5	0.27	2383404	648708	364688	1642007	1739180	1374492	143320	2910	3300	232	882014	3026676	149762
117	2017-05-08 12:27:47	199.25	57780	0.003448	8.65	3.45	3.448	29.14	5.02	0.27	2406303	667874	367681	1675149	1744418	1376737	145415	2928	3322	236	882014	3026676	151901
118	2017-05-08 12:37:51	203.81	60149	0.003388	8.81	3.39	3.388	29.15	5.01	0.27	2430105	682646	370861	1689661	1749861	1379000	147740	2946	3328	237	882139	3026676	154251
119	2017-05-08 12:48:00	209.44	61621	0.003399	8.79	3.4	3.399	29.2	5.02	0.27	2451624	700687	373869	1709219	1755086	1381217	149783	2970	3348	239	883902	3026676	156340
120	2017-05-08 12:58:28	214.25	63523	0.003373	8.87	3.37	3.373	29.2	5	0.27	2471572	716446	376917	1723850	1760186	1383269	151591	2982	3359	240	883902	3026676	158172
121	2017-05-08 13:08:34	219.03	64775	0.003381	8.85	3.38	3.381	29.34	5.02	0.27	2490913	731868	379847	1739512	1765115	1385268	153307	2988	3370	240	887990	3026676	159905
122	2017-05-08 13:19:25	0	0	0	0	0	0	29.34	6.18	0.28	2509064	1	382763	1751999	1770050	1387287	154944	3002	3390	240	887990	3026676	161576
123	2017-05-08 13:29:28	0	0	0	0	0	0	29.34	6.18	0.28	2509064	1	382763	1751999	1770050	1387287	154944	3006	3393	240	887990	3026676	161583
124	2017-05-08 13:40:12	0	0	0	0	0	0	29.34	6.18	0.28	2509064	1	382763	1751999	1770050	1387287	154944	3006	3395	240	887990	3026676	161585
125	2017-05-08 13:50:28	0	0	0	0	0	0	29.37	6.18	0.28	2515990	1	385435	1755943	1774579	1389144	155601	3014	3396	240	889009	3026676	162251
126	2017-05-08 14:00:50	0	0	0	0	0	0	29.44	6.18	0.28	2532571	1	393606	1762910	1789312	1395706	156578	3016	3399	240	891184	3026676	163233
127	2017-05-08 14:04:17	0	0	0	0	0	0	29.44	6.18	0.28	2532571	1	393606	1762910	1789312	1395706	156578	3016	3399	240	891184	3026676	163233
128	2017-05-08 14:14:23	0	0	0	0	0	0	29.44	6.18	0.28	2536722	1	395667	1764919	1793118	1397451	156808	3016	3400	240	891184	3026676	163464
129	2017-05-08 14:24:24	0	0	0	0	0	0	29.46	6.18	0.28	2540680	1	397573	1765674	1796729	1399156	157030	3018	3403	241	891633	3026676	163692
130	2017-05-08 14:34:26	0	0	0	0	0	0	29.59	6.18	0.29	2544739	1	399490	1773195	1800469	1400979	157230	3028	3404	241	895599	3026676	163903
131	2017-05-08 14:44:26	0	0	0	0	0	0	29.59	6.18	0.29	2548680	1	401339	1773195	1804138	1402799	157438	3032	3411	241	895599	3026676	164122
132	2017-05-08 14:54:27	0	0	0	0	0	0	29.62	6.17	0.29	2552495	1	403221	1773957	1807687	1404466	157610	3032	3412	241	896377	3026676	164295
133	2017-05-08 15:04:24	0	0	0	0	0	0	29.68	6.17	0.29	2556357	1	405054	1775737	1811315	1406261	157784	3032	3414	241	898457	3026676	164471
134	2017-05-08 15:14:28	0	0	0	0	0	0	29.72	6.17	0.29	2559833	1	406643	1778031	1814588	1407945	157978	3036	3415	241	899501	3026676	164670
135	2017-05-08 15:24:25	0	0	0	0	0	0	29.72	6.17	0.29	2563248	1	408243	1778031	1817818	1409575	158165	3042	3417	241	899632	3026676	164865
136	2017-05-08 15:34:23	0	0	0	0	0	0	29.74	6.17	0.29	2566721	1	409828	1783922	1821117	1411289	158315	3042	3417	241	900155	3026676	165015
137	2017-05-08 15:44:25	0	0	0	0	0	0	29.74	6.17	0.29	2569970	1	411255	1785980	1824205	1412950	158473	3046	3419	241	900155	3026676	165179
138	2017-05-08 15:54:22	0	0	0	0	0	0	29.74	6.17	0.29	2573331	1	412782	1787784	1827427	1414645	158649	3048	3420	241	900155	3026676	165358
139	2017-05-08 16:04:24	0	0	0	0	0	0	29.76	6.16	0.29	2576535	1	414266	1790627	1830516	1416250	158774	3050	3422	241	900679	3026676	165487
140	2017-05-08 16:14:28	0	0	0	0	0	0	29.76	6.16	0.29	2579560	1	415666	1790886	1833440	1417774	158899	3054	3422	242	900679	3026676	165617
141	2017-05-08 16:24:20	0	0	0	0	0	0	29.77	6.16	0.29	2582510	1	417022	1794909	1836304	1419282	159019	3056	3425	242	901170	3026676	165742
142	2017-05-08 16:34:18	0	0	0	0	0	0	29.78	6.16	0.29	2585326	1	418340	1795950	1839031	1420691	159149	3056	3426	242	901433	3026676	165873
143	2017-05-08 16:44:18	0	0	0	0	0	0	29.78	6.15	0.3	2588152	1	419677	1795950	1841779	1422102	159267	3056	3426	242	901433	3026676	165991
144	2017-05-08 16:54:21	0	0	0	0	0	0	29.8	6.15	0.3	2590890	1	420888	1795950	1844462	1423574	159376	3058	3429	242	902089	3026676	166105
145	2017-05-08 17:04:21	0	0	0	0	0	0	29.84	6.15	0.3	2593185	1	422152	1799604	1846701	1424549	159490	3064	3430	242	903142	3026676	166226
146	2017-05-08 17:14:20	0	0	0	0	0	0	29.84	6.15	0.3	2595266	1	423306	1799604	1848732	1425426	159569	3072	3430	242	903142	3026676	166313
147	2017-05-08 17:24:21	0	0	0	0	0	0	29.84	6.15	0.3	2597375	1	424555	1800650	1850797	1426242	159675	3074	3432	242	903142	3026676	166423
148	2017-05-08 17:34:19	0	0	0	0	0	0	29.87	6.15	0.3	2599500	1	425781	1802485	1852886	1427105	159781	3072	3434	242	904131	3026676	166529
149	2017-05-08 17:44:21	0	0	0	0	0	0	29.87	6.15	0.3	2601425	1	426911	1802485	1854781	1427870	159879	3076	3434	242	904131	3026676	166631
150	2017-05-08 17:54:21	0	0	0	0	0	0	29.87	6.14	0.3	2603500	1	428125	1802485	1856834	1428709	159981	3080	3435	242	904131	3026676	166738
151	2017-05-08 18:04:20	0	0	0	0	0	0	29.87	6.14	0.3	2605443	1	429265	1803502	1858756	1429491	160075	3078	3435	242	904131	3026676	166830
152	2017-05-08 18:14:20	0	0	0	0	0	0	29.87	6.14	0.3	2607338	1	430372	1803502	1860631	1430259	160173	3086	3437	242	904131	3026676	166938
153	2017-05-08 18:24:20	0	0	0	0	0	0	29.87	6.14	0.3	2609217	1	431472	1806593	1862498	1431026	160278	3086	3438	242	904131	3026676	167044
154	2017-05-08 18:34:20	0	0	0	0	0	0	29.87	6.14	0.3	2611078	1	432561	1806593	1864350	1431789	160378	3088	3440	242	904131	3026676	167148
155	2017-05-08 18:44:22	0	0	0	0	0	0	29.92	6.14	0.3	2612834	1	433514	1806593	1866098	1432584	160470	3092	3441	242	905717	3026676	167245
156	2017-05-08 18:54:21	0	0	0	0	0	0	29.92	6.14	0.3	2614548	1	434495	1806593	1867805	1433310	160545	3090	3441	242	905717	3026676	167318
157	2017-05-08 18:58:58	0	0	0	0	0	0	29.92	6.14	0.3	2615400	1	434495	1806593	1868657	1433310	160545	3090	3441	242	905717	3026676	167318
158	2017-05-08 19:08:59	0	0	0	0	0	0	29.96	6.14	0.3	2617029	1	435915	1808175	1870280	1434365	160659	3096	3441	242	906778	3026676	167438
159	2017-05-08 19:18:59	0	0	0	0	0	0	29.96	6.14	0.3	2618684	1	436870	1808175	1871935	1435065	160721	3102	3441	243	906778	3026676	167507
160	2017-05-08 19:29:00	0	0	0	0	0	0	29.96	6.14	0.31	2620416	1	437915	1809232	1873667	1435752	160800	3104	3443	243	906778	3026676	167590
161	2017-05-08 19:39:03	0	0	0	0	0	0	29.96	6.14	0.31	2622098	1	438899	1811216	1875349	1436450	160884	3108	3444	243	906778	3026676	167679
162	2017-05-08 19:49:00	0	0	0	0	0	0	29.97	6.13	0.31	2623791	1	439865	1812144	1877042	1437177	160965	3112	3444	243	907044	3026676	167764
163	2017-05-08 19:59:02	0	0	0	0	0	0	29.97	6.13	0.31	2625382	1	440808	1812674	1878633	1437825	161045	3112	3446	243	907044	3026676	167846
164	2017-05-08 20:09:07	0	0	0	0	0	0	30	6.13	0.31	2626991	1	441729	1812674	1880242	1438513	161135	3114	3446	243	908108	3026676	167938
165	2017-05-08 20:19:13	0	0	0	0	0	0	30	6.13	0.31	2628487	1	442681	1812674	1881738	1439057	161206	3116	3446	243	908108	3026676	168011
166	2017-05-08 20:29:21	0	0	0	0	0	0	30	6.13	0.31	2629827	1	443535	1814267	1883078	1439543	161282	3118	3446	243	908108	3026676	168089
167	2017-05-08 20:39:17	0	0	0	0	0	0	30	6.13	0.31	2631203	1	444418	1815331	1884454	1440036	161345	3118	3446	243	908108	3026676	168152
168	2017-05-08 20:48:59	0	0	0	0	0	0	30.02	6.13	0.31	2632450	1	445213	1819465	1885701	1440488	161397	3118	3447	243	908641	3026676	168205
169	2017-05-08 20:59:02	0	0	0	0	0	0	30.02	6.13	0.31	2633564	1	445936	1819465	1886815	1440879	161458	3118	3448	243	908641	3026676	168267
170	2017-05-08 21:09:05	0	0	0	0	0	0	30.02	6.13	0.31	2634847	1	446728	1819465	1888098	1441370	161527	3116	3448	243	908641	3026676	168334
171	2017-05-08 21:19:04	0	0	0	0	0	0	30.02	6.13	0.31	2636089	1	447541	1819732	1889340	1441799	161585	3120	3448	243	908641	3026676	168396
172	2017-05-08 21:29:04	0	0	0	0	0	0	30.02	6.13	0.31	2637368	1	448389	1822946	1890619	1442230	161637	3120	3448	243	908641	3026676	168448
173	2017-05-08 21:39:05	0	0	0	0	0	0	30.05	6.13	0.31	2638656	1	449216	1822946	1891907	1442691	161694	3120	3449	243	909442	3026676	168506
174	2017-05-08 21:49:07	0	0	0	0	0	0	30.05	6.13	0.31	2639977	1	450053	1822946	1893228	1443175	161743	3120	3450	243	909442	3026676	168556
175	2017-05-08 21:59:11	0	0	0	0	0	0	30.05	6.13	0.31	2641306	1	450882	1823080	1894557	1443675	161803	3122	3451	244	909442	3026676	168620
176	2017-05-08 22:09:04	0	0	0	0	0	0	30.05	6.12	0.31	2642641	1	451684	1823080	1895892	1444208	161859	3122	3452	244	909442	3026676	168677
177	2017-05-08 22:19:06	0	0	0	0	0	0	30.05	6.12	0.31	2644032	1	452551	1823349	1897283	1444732	161922	3126	3452	244	909442	3026676	168744
178	2017-05-08 22:29:06	0	0	0	0	0	0	30.05	6.12	0.31	2645312	1	453359	1823349	1898563	1445204	161985	3126	3452	244	909442	3026676	168807
179	2017-05-08 22:39:07	0	0	0	0	0	0	30.05	6.12	0.31	2646510	1	454109	1823349	1899761	1445652	162031	3126	3452	244	909442	3026676	168853
180	2017-05-08 22:49:07	0	0	0	0	0	0	30.05	6.12	0.31	2647826	1	454922	1823349	1901077	1446155	162072	3126	3454	244	909442	3026676	168896
181	2017-05-08 22:59:04	0	0	0	0	0	0	30.06	6.12	0.31	2648954	1	455612	1824826	1902205	1446593	162116	3130	3454	245	909943	3026676	168945
182	2017-05-08 23:09:04	0	0	0	0	0	0	30.06	6.12	0.32	2649921	1	456293	1825364	1903172	1446879	162162	3130	3454	245	909943	3026676	168991
183	2017-05-08 23:19:04	0	0	0	0	0	0	30.07	6.12	0.32	2650869	1	456929	1825902	1904120	1447191	162209	3130	3454	245	910077	3026676	169038
184	2017-05-08 23:29:04	0	0	0	0	0	0	30.07	6.12	0.32	2651796	1	457582	1825902	1905047	1447465	162249	3130	3454	245	910077	3026676	169078
185	2017-05-08 23:39:03	0	0	0	0	0	0	30.07	6.12	0.32	2652591	1	458137	1825902	1905842	1447705	162297	3130	3454	245	910077	3026676	169126
186	2017-05-08 23:49:14	0	0	0	0	0	0	30.07	6.12	0.32	2653319	1	458652	1825902	1906570	1447918	162315	3130	3454	245	910077	3026676	169144
187	2017-05-08 23:59:16	0	0	0	0	0	0	30.07	6.12	0.32	2654057	1	459167	1825902	1907308	1448141	162350	3132	3454	245	910077	3026676	169181
188	2017-05-09 00:46:32	0	0	0	0	0	0	30.07	6.11	0.32	2656733	1	461029	1825965	1909984	1448955	162454	3132	3457	245	910077	3026676	169288
189	2017-05-09 01:46:35	0	0	0	0	0	0	30.07	6.11	0.32	2658433	1	462191	1825965	1911684	1449493	162519	3132	3458	245	910077	3026676	169354
190	2017-05-09 02:46:34	0	0	0	0	0	0	30.06	6.11	0.32	2659295	1	462807	1826100	1912546	1449739	162551	3136	3458	245	910578	3029368	169390
191	2017-05-09 03:46:33	0	0	0	0	0	0	30.06	6.11	0.32	2659850	1	463206	1827177	1913101	1449895	162572	3136	3458	245	910578	3029368	169411
192	2017-05-09 04:46:35	0	0	0	0	0	0	30.09	6.11	0.32	2660276	1	463528	1827177	1913527	1449999	162580	3136	3458	245	911651	3029368	169419
193	2017-05-09 05:46:43	0	0	0	0	0	0	30.09	6.11	0.32	2660890	1	463980	1828256	1914141	1450161	162600	3136	3458	245	911651	3029368	169439
194	2017-05-09 06:46:37	0	0	0	0	0	0	30.09	6.11	0.32	2661721	1	464579	1828256	1914972	1450393	162624	3136	3458	245	911651	3029368	169463
195	2017-05-09 07:09:04	0	0	0	0	0	0	30.09	6.11	0.32	2662256	1	464955	1828256	1915507	1450552	162639	3136	3458	245	911651	3029368	169478
196	2017-05-09 07:19:05	0	0	0	0	0	0	30.09	6.11	0.32	2662495	1	465113	1828256	1915746	1450633	162645	3136	3458	245	911651	3029368	169484
197	2017-05-09 07:29:04	0	0	0	0	0	0	30.09	6.11	0.32	2662754	1	465298	1828256	1916005	1450707	162654	3136	3458	245	911651	3029368	169493
198	2017-05-09 07:39:03	0	0	0	0	0	0	30.09	6.11	0.32	2663016	1	465480	1828256	1916267	1450787	162669	3136	3458	245	911651	3029368	169508
199	2017-05-09 07:49:05	0	0	0	0	0	0	30.09	6.11	0.32	2663321	1	465688	1828256	1916572	1450884	162684	3136	3458	245	911651	3029368	169523
200	2017-05-09 07:59:05	0	0	0	0	0	0	30.09	6.11	0.32	2663601	1	465893	1828256	1916852	1450959	162691	3140	3458	245	911651	3029368	169534
201	2017-05-09 08:09:09	0	0	0	0	0	0	30.09	6.11	0.32	2663897	1	466108	1828256	1917148	1451040	162704	3140	3458	245	911651	3029368	169547
202	2017-05-09 08:19:12	0	0	0	0	0	0	30.09	6.11	0.32	2664180	1	466315	1828256	1917431	1451116	162717	3140	3458	245	911651	3029368	169560
203	2017-05-09 08:29:14	0	0	0	0	0	0	30.09	6.11	0.32	2664461	1	466516	1828256	1917712	1451196	162734	3140	3458	245	911651	3029368	169577
204	2017-05-09 08:39:11	0	0	0	0	0	0	30.09	6.11	0.32	2664754	1	466715	1828256	1918005	1451290	162746	3140	3460	245	911651	3029368	169591
205	2017-05-09 08:49:06	0	0	0	0	0	0	30.13	6.11	0.32	2665035	1	466917	1830350	1918286	1451369	162756	3140	3460	245	912709	3029368	169601
206	2017-05-09 08:59:09	0	0	0	0	0	0	30.13	6.11	0.32	2665324	1	467120	1830350	1918575	1451455	162763	3140	3460	245	912709	3029368	169608
207	2017-05-09 09:09:08	0	0	0	0	0	0	30.13	6.11	0.32	2665617	1	467317	1830350	1918868	1451551	162773	3140	3462	245	912709	3029368	169620
208	2017-05-09 09:19:09	0	0	0	0	0	0	30.13	6.11	0.32	2665900	1	467506	1830891	1919151	1451645	162782	3140	3462	245	912709	3029368	169629
209	2017-05-09 09:29:16	0	0	0	0	0	0	30.13	6.11	0.32	2666174	1	467681	1830891	1919425	1451744	162790	3140	3462	245	912709	3029368	169637
210	2017-05-09 09:39:21	0	0	0	0	0	0	30.15	6.11	0.32	2666440	1	467861	1830891	1919691	1451830	162801	3140	3462	245	913247	3029368	169648
211	2017-05-09 09:49:23	0	0	0	0	0	0	30.15	6.11	0.32	2666662	1	468024	1830891	1919913	1451889	162810	3140	3462	245	913247	3029368	169657
212	2017-05-09 09:59:07	0	0	0	0	0	0	30.15	6.11	0.32	2666888	1	468178	1830891	1920139	1451961	162816	3140	3462	245	913247	3029368	169663
213	2017-05-09 10:09:09	0	0	0	0	0	0	30.15	6.1	0.32	2667129	1	468352	1831958	1920380	1452028	162823	3140	3462	245	913247	3029368	169670
214	2017-05-09 10:19:01	0	0	0	0	0	0	30.15	6.1	0.32	2667248	1	468436	1831958	1920499	1452063	162827	3140	3462	245	913247	3029368	169674
215	2017-05-09 10:29:04	0	0	0	0	0	0	30.15	6.1	0.32	2667485	1	468606	1832500	1920736	1452130	162847	3140	3462	245	913247	3029368	169694
216	2017-05-09 10:30:31	0	0	0	0	0	0	30.15	6.1	0.32	2667607	1	468694	1832500	1920858	1452164	162851	3140	3462	245	913247	3029368	169698
217	2017-05-09 10:40:32	0	0	0	0	0	0	30.15	6.1	0.32	2667801	1	468834	1832500	1921052	1452218	162860	3140	3462	245	913247	3029368	169707
218	2017-05-09 10:50:38	0	0	0	0	0	0	30.15	6.1	0.32	2667990	1	468971	1832500	1921241	1452270	162866	3140	3462	245	913247	3029368	169713
219	2017-05-09 11:00:38	0	0	0	0	0	0	30.15	6.1	0.32	2668218	1	469115	1832500	1921469	1452354	162873	3142	3462	245	913247	3029368	169722
220	2017-05-09 11:10:29	0	0	0	0	0	0	30.15	6.1	0.32	2668417	1	469249	1832500	1921668	1452419	162880	3142	3462	245	913247	3029368	169729
221	2017-05-09 11:20:28	0	0	0	0	0	0	30.15	6.1	0.32	2668643	1	469404	1833042	1921894	1452490	162891	3142	3462	245	913247	3029368	169740
222	2017-05-09 11:30:27	0	0	0	0	0	0	30.15	6.1	0.32	2668849	1	469546	1833042	1922100	1452554	162901	3142	3462	245	913247	3029368	169750
223	2017-05-09 11:40:29	0	0	0	0	0	0	30.15	6.1	0.32	2669074	1	469708	1833042	1922325	1452617	162907	3142	3462	245	913247	3029368	169756
224	2017-05-09 11:50:28	0	0	0	0	0	0	30.15	6.1	0.32	2669271	1	469845	1833042	1922522	1452677	162917	3142	3462	245	913247	3029368	169766
225	2017-05-09 12:00:28	0	0	0	0	0	0	30.15	6.1	0.32	2669472	1	469978	1833042	1922723	1452745	162925	3144	3463	245	913247	3029368	169777
226	2017-05-09 12:10:29	0	0	0	0	0	0	30.15	6.1	0.32	2669643	1	470092	1833042	1922894	1452802	162937	3144	3463	245	913247	3029368	169789
227	2017-05-09 12:20:29	0	0	0	0	0	0	30.15	6.1	0.32	2669823	1	470211	1833042	1923074	1452863	162954	3144	3463	245	913247	3029368	169806
228	2017-05-09 12:30:29	0	0	0	0	0	0	30.15	6.1	0.32	2670005	1	470323	1833042	1923256	1452933	162959	3144	3463	245	913247	3029368	169811
229	2017-05-09 12:40:30	0	0	0	0	0	0	30.15	6.1	0.32	2670197	1	470451	1833042	1923448	1452997	162966	3144	3463	245	913247	3029368	169818
230	2017-05-09 12:50:34	0	0	0	0	0	0	30.15	6.1	0.32	2670394	1	470597	1833042	1923645	1453048	162970	3144	3463	245	913247	3029368	169822
231	2017-05-09 13:00:59	0	0	0	0	0	0	30.15	6.1	0.32	2670572	1	470718	1833042	1923823	1453105	162977	3144	3464	245	913247	3029368	169830
232	2017-05-09 13:10:42	0	0	0	0	0	0	30.15	6.1	0.32	2670772	1	470835	1833042	1924023	1453188	162983	3144	3464	245	913247	3029368	169836
233	2017-05-09 13:20:37	0	0	0	0	0	0	30.15	6.1	0.32	2670950	1	470938	1833042	1924201	1453263	162989	3144	3464	245	913247	3029368	169842
234	2017-05-09 13:30:33	0	0	0	0	0	0	30.15	6.1	0.32	2671131	1	471065	1833042	1924382	1453317	162994	3144	3464	245	913247	3029368	169847
235	2017-05-09 13:40:35	0	0	0	0	0	0	30.15	6.1	0.32	2671308	1	471189	1833042	1924559	1453370	163003	3144	3464	245	913247	3029368	169856
236	2017-05-09 13:50:32	0	0	0	0	0	0	30.15	6.1	0.32	2671472	1	471295	1833042	1924723	1453428	163009	3144	3464	245	913247	3029368	169862
237	2017-05-09 14:00:36	0	0	0	0	0	0	30.15	6.1	0.32	2671647	1	471410	1833042	1924898	1453488	163019	3146	3464	245	913247	3029368	169874
238	2017-05-09 14:10:35	0	0	0	0	0	0	30.15	6.1	0.32	2671830	1	471523	1833042	1925081	1453558	163025	3146	3464	245	913247	3029368	169880
239	2017-05-09 14:20:34	0	0	0	0	0	0	30.15	6.1	0.32	2671994	1	471628	1833042	1925245	1453617	163037	3146	3464	245	913247	3029368	169892
240	2017-05-09 14:30:35	0	0	0	0	0	0	30.15	6.1	0.32	2672152	1	471723	1833042	1925403	1453680	163042	3146	3464	245	913247	3029368	169897
241	2017-05-09 14:40:36	0	0	0	0	0	0	30.15	6.1	0.32	2672152	1	471723	1833042	1925403	1453680	163042	3146	3464	245	913247	3029368	169897
242	2017-05-09 14:50:35	0	0	0	0	0	0	30.15	6.1	0.32	2672152	1	471723	1833042	1925403	1453680	163042	3146	3464	245	913247	3029368	169897
243	2017-05-09 15:00:37	0	0	0	0	0	0	30.15	6.1	0.32	2672152	1	471723	1833042	1925403	1453680	163042	3146	3464	245	913247	3029368	169897
244	2017-05-09 15:10:36	0	0	0	0	0	0	30.15	6.1	0.32	2672989	1	472264	1833042	1926240	1453976	163059	3146	3464	245	913247	3029368	169914
245	2017-05-09 15:20:35	0	0	0	0	0	0	30.15	6.1	0.32	2673186	1	472393	1833042	1926437	1454044	163063	3146	3464	245	913247	3029368	169918
246	2017-05-09 15:30:35	0	0	0	0	0	0	30.15	6.1	0.32	2673385	1	472527	1833042	1926636	1454109	163070	3146	3465	245	913247	3029368	169926
247	2017-05-09 15:40:37	0	0	0	0	0	0	30.15	6.1	0.33	2673528	1	472615	1833042	1926779	1454164	163076	3146	3465	245	913247	3029368	169932
248	2017-05-09 15:50:37	0	0	0	0	0	0	30.15	6.1	0.33	2673698	1	472734	1833042	1926949	1454215	163081	3146	3465	245	913247	3029368	169937
249	2017-05-09 16:00:38	0	0	0	0	0	0	30.15	6.1	0.33	2673862	1	472838	1833042	1927113	1454275	163090	3144	3465	245	913247	3029368	169944
250	2017-05-09 16:10:38	0	0	0	0	0	0	30.15	6.1	0.33	2674032	1	472937	1833585	1927283	1454346	163097	3146	3465	245	913382	3029368	169953
251	2017-05-09 16:20:43	0	0	0	0	0	0	30.15	6.1	0.33	2674224	1	473073	1833585	1927475	1454402	163108	3146	3465	245	913382	3029368	169964
252	2017-05-09 16:30:51	0	0	0	0	0	0	30.15	6.1	0.33	2674386	1	473177	1833585	1927637	1454460	163117	3146	3465	245	913382	3029368	169973
253	2017-05-09 16:40:51	0	0	0	0	0	0	30.15	6.1	0.33	2674560	1	473296	1833585	1927811	1454515	163121	3146	3465	245	913382	3029368	169977
254	2017-05-09 16:50:50	0	0	0	0	0	0	30.15	6.1	0.33	2674754	1	473427	1833585	1928005	1454578	163129	3146	3465	245	913382	3029368	169985
255	2017-05-09 17:00:55	0	0	0	0	0	0	30.15	6.1	0.33	2674928	1	473536	1833585	1928179	1454643	163136	3146	3465	245	913382	3029368	169992
256	2017-05-09 17:10:51	0	0	0	0	0	0	30.15	6.1	0.33	2675122	1	473657	1833585	1928373	1454716	163145	3148	3465	245	913382	3029368	170003
257	2017-05-09 17:20:50	0	0	0	0	0	0	30.15	6.1	0.33	2675282	1	473759	1833585	1928533	1454774	163154	3148	3465	245	913382	3029368	170012
258	2017-05-09 17:30:50	0	0	0	0	0	0	30.15	6.1	0.33	2675468	1	473875	1833585	1928719	1454844	163158	3148	3465	245	913382	3029368	170016
259	2017-05-09 17:40:50	0	0	0	0	0	0	30.15	6.1	0.33	2675621	1	473971	1833585	1928872	1454901	163165	3148	3465	245	913382	3029368	170023
260	2017-05-09 17:50:50	0	0	0	0	0	0	30.15	6.1	0.33	2675791	1	474079	1833585	1929042	1454963	163169	3148	3465	245	913382	3029368	170027
261	2017-05-09 18:00:51	0	0	0	0	0	0	30.15	6.1	0.33	2675944	1	474171	1833585	1929195	1455024	163175	3148	3465	245	913382	3029368	170033
262	2017-05-09 18:10:53	0	0	0	0	0	0	30.15	6.1	0.33	2676096	1	474269	1833585	1929347	1455078	163182	3148	3465	245	913382	3029368	170040
263	2017-05-09 18:21:23	0	0	0	0	0	0	30.15	6.1	0.33	2676273	1	474389	1833585	1929524	1455135	163189	3148	3465	245	913382	3029368	170047
264	2017-05-09 18:30:43	0	0	0	0	0	0	30.15	6.1	0.33	2676453	1	474495	1833585	1929704	1455209	163193	3148	3465	245	913382	3029368	170051
265	2017-05-09 18:40:40	0	0	0	0	0	0	30.15	6.1	0.33	2676610	1	474581	1833585	1929861	1455280	163197	3148	3465	245	913382	3029368	170055
266	2017-05-09 18:50:39	0	0	0	0	0	0	30.15	6.1	0.33	2676769	1	474684	1833585	1930020	1455336	163204	3146	3465	245	913382	3029368	170060
267	2017-05-09 19:00:40	0	0	0	0	0	0	30.15	6.1	0.33	2676938	1	474785	1833585	1930189	1455404	163209	3146	3465	245	913382	3029368	170065
268	2017-05-09 19:10:43	0	0	0	0	0	0	30.15	6.1	0.33	2677117	1	474902	1833585	1930368	1455466	163219	3146	3465	245	913382	3029368	170075
269	2017-05-09 19:20:43	0	0	0	0	0	0	30.16	6.1	0.33	2677295	1	475005	1833585	1930546	1455541	163224	3146	3465	245	913786	3029368	170080
270	2017-05-09 19:30:43	0	0	0	0	0	0	30.16	6.1	0.33	2677449	1	475101	1833585	1930700	1455599	163228	3146	3465	245	913786	3029368	170084
271	2017-05-09 19:40:43	0	0	0	0	0	0	30.16	6.1	0.33	2677619	1	475201	1833585	1930870	1455669	163229	3146	3465	245	913786	3029368	170085
272	2017-05-09 19:50:44	0	0	0	0	0	0	30.16	6.1	0.33	2677797	1	475306	1833585	1931048	1455742	163238	3146	3465	245	913786	3029368	170094
273	2017-05-09 20:00:59	0	0	0	0	0	0	30.16	6.1	0.33	2677962	1	475411	1834128	1931213	1455802	163245	3146	3465	245	913786	3029368	170101
274	2017-05-09 20:10:47	0	0	0	0	0	0	30.18	6.1	0.33	2678129	1	475513	1834128	1931380	1455867	163249	3146	3465	245	914259	3029368	170105
275	2017-05-09 20:20:48	0	0	0	0	0	0	30.18	6.1	0.33	2678283	1	475605	1834128	1931534	1455929	163259	3146	3465	245	914259	3029368	170115
276	2017-05-09 20:30:47	0	0	0	0	0	0	30.18	6.1	0.33	2678458	1	475713	1834128	1931709	1455996	163266	3146	3465	245	914259	3029368	170122
277	2017-05-09 20:40:53	0	0	0	0	0	0	30.18	6.1	0.33	2678651	1	475840	1834128	1931902	1456062	163274	3146	3465	245	914259	3029368	170130
278	2017-05-09 20:50:46	0	0	0	0	0	0	30.19	6.1	0.33	2678843	1	475965	1834128	1932094	1456129	163279	3146	3465	245	914664	3029368	170135
279	2017-05-09 21:00:52	0	0	0	0	0	0	30.19	6.09	0.33	2679027	1	476074	1834128	1932278	1456204	163281	3146	3465	245	914664	3029368	170137
280	2017-05-09 21:10:49	0	0	0	0	0	0	30.19	6.09	0.33	2679185	1	476150	1834128	1932436	1456286	163286	3146	3465	245	914664	3029368	170142
281	2017-05-09 21:20:50	0	0	0	0	0	0	30.19	6.09	0.33	2679346	1	476246	1834128	1932597	1456351	163289	3146	3465	245	914664	3029368	170145
282	2017-05-09 21:30:48	0	0	0	0	0	0	30.19	6.09	0.33	2679543	1	476378	1834128	1932794	1456416	163300	3146	3465	245	914664	3029368	170156
283	2017-05-09 21:40:52	0	0	0	0	0	0	30.19	6.09	0.33	2679715	1	476485	1834128	1932966	1456481	163307	3146	3465	245	914664	3029368	170163
284	2017-05-09 21:50:51	0	0	0	0	0	0	30.19	6.09	0.33	2679861	1	476569	1834128	1933112	1456543	163318	3146	3465	245	914664	3029368	170174
285	2017-05-09 22:00:49	0	0	0	0	0	0	30.21	6.09	0.33	2680034	1	476671	1834128	1933285	1456614	163329	3146	3465	245	915137	3029368	170185
286	2017-05-09 22:10:54	0	0	0	0	0	0	30.21	6.09	0.33	2680196	1	476758	1834128	1933447	1456689	163339	3146	3465	245	915137	3029368	170195
287	2017-05-09 22:20:48	0	0	0	0	0	0	30.21	6.09	0.33	2680371	1	476861	1834128	1933622	1456761	163344	3146	3465	245	915137	3029368	170200
288	2017-05-09 22:30:56	0	0	0	0	0	0	30.21	6.09	0.33	2680555	1	476951	1834128	1933806	1456855	163350	3146	3465	245	915137	3029368	170206
289	2017-05-09 22:40:57	0	0	0	0	0	0	30.21	6.09	0.33	2680715	1	477035	1834128	1933966	1456931	163358	3146	3465	245	915137	3029368	170214
290	2017-05-09 22:51:03	0	0	0	0	0	0	30.21	6.09	0.33	2680872	1	477124	1834128	1934123	1456999	163360	3146	3465	245	915137	3029368	170216
291	2017-05-09 23:01:43	0	0	0	0	0	0	30.21	6.09	0.33	2681028	1	477212	1834128	1934279	1457067	163365	3146	3465	245	915137	3029368	170221
292	2017-05-09 23:11:36	0	0	0	0	0	0	30.21	6.09	0.33	2681185	1	477305	1834128	1934436	1457131	163369	3146	3465	245	915137	3029368	170225
293	2017-05-09 23:21:05	0	0	0	0	0	0	30.21	6.09	0.33	2681341	1	477392	1834128	1934592	1457200	163376	3146	3465	245	915137	3029368	170232
294	2017-05-09 23:30:57	0	0	0	0	0	0	30.21	6.09	0.33	2681482	1	477467	1834128	1934733	1457266	163382	3146	3465	245	915137	3029368	170238
295	2017-05-09 23:41:46	0	0	0	0	0	0	30.21	6.09	0.33	2681615	1	477542	1834128	1934866	1457324	163385	3146	3465	245	915137	3029368	170241
296	2017-05-09 23:50:56	0	0	0	0	0	0	30.21	6.09	0.33	2681731	1	477613	1834128	1934982	1457369	163390	3146	3465	245	915137	3029368	170246
297	2017-05-10 00:01:28	0	0	0	0	0	0	30.21	6.09	0.33	2681828	1	477662	1834128	1935079	1457417	163395	3146	3465	245	915137	3029368	170251
298	2017-05-10 01:01:28	0	0	0	0	0	0	30.22	6.09	0.33	2682300	1	477921	1835215	1935551	1457630	163412	3146	3465	245	915407	3029368	170268
299	2017-05-10 02:01:07	0	0	0	0	0	0	30.18	6.09	0.33	2682529	1	478034	1835215	1935780	1457746	163422	3146	3465	245	915407	3033317	170278
300	2017-05-10 03:01:15	0	0	0	0	0	0	30.18	6.09	0.33	2682648	1	478100	1835215	1935899	1457799	163429	3146	3465	245	915407	3033317	170285
301	2017-05-10 04:01:08	0	0	0	0	0	0	30.18	6.09	0.33	2682716	1	478140	1835215	1935967	1457827	163431	3146	3465	245	915407	3033317	170287
302	2017-05-10 05:01:15	0	0	0	0	0	0	30.18	6.09	0.33	2682781	1	478173	1835215	1936032	1457859	163431	3146	3465	245	915407	3033317	170287
303	2017-05-10 06:01:09	0	0	0	0	0	0	30.18	6.09	0.33	2682871	1	478209	1835215	1936122	1457913	163436	3146	3465	245	915407	3033317	170292
304	2017-05-10 07:08:42	0	0	0	0	0	0	30.18	6.09	0.33	2683088	1	478313	1835215	1936339	1458026	163437	3146	3465	245	915407	3033317	170293
305	2017-05-10 07:17:32	0	0	0	0	0	0	30.18	6.09	0.33	2683131	1	478329	1835215	1936382	1458053	163437	3146	3465	245	915407	3033317	170293
306	2017-05-10 07:27:35	0	0	0	0	0	0	30.18	6.09	0.33	2683181	1	478353	1835215	1936432	1458079	163439	3146	3465	245	915407	3033317	170295
307	2017-05-10 07:37:50	0	0	0	0	0	0	30.18	6.09	0.33	2683234	1	478378	1835215	1936485	1458107	163439	3146	3465	245	915407	3033317	170295
308	2017-05-10 07:48:03	0	0	0	0	0	0	30.18	6.09	0.33	2683284	1	478398	1835215	1936535	1458137	163441	3146	3465	245	915407	3033317	170297
309	2017-05-10 08:01:02	0	0	0	0	0	0	30.18	6.09	0.33	2683359	1	478440	1835215	1936610	1458170	163443	3146	3465	245	915407	3033317	170299
310	2017-05-10 08:11:08	0	0	0	0	0	0	30.18	6.09	0.33	2683396	1	478461	1835215	1936647	1458186	163444	3146	3465	245	915407	3033317	170300
311	2017-05-10 08:28:02	0	0	0	0	0	0	30.18	6.09	0.33	2683486	1	478505	1835215	1936737	1458232	163444	3146	3465	245	915407	3033317	170300
312	2017-05-10 08:37:41	0	0	0	0	0	0	30.18	6.09	0.33	2683525	1	478520	1835215	1936776	1458256	163446	3146	3465	245	915407	3033317	170302
313	2017-05-10 08:48:57	0	0	0	0	0	0	30.18	6.09	0.33	2683578	1	478537	1835215	1936829	1458292	163446	3146	3465	245	915407	3033317	170302
314	2017-05-10 08:59:08	0	0	0	0	0	0	30.18	6.09	0.33	2683639	1	478559	1835215	1936890	1458331	163450	3146	3465	245	915407	3033317	170306
315	2017-05-10 09:10:54	0	0	0	0	0	0	30.18	6.09	0.33	2683714	1	478593	1835215	1936965	1458372	163451	3146	3465	245	915407	3033317	170307
316	2017-05-10 09:20:22	0	0	0	0	0	0	30.18	6.09	0.33	2683779	1	478619	1835215	1937030	1458411	163453	3146	3465	245	915407	3033317	170309
317	2017-05-10 09:32:20	0	0	0	0	0	0	30.18	6.09	0.33	2683839	1	478646	1835215	1937090	1458444	163453	3146	3465	245	915407	3033317	170309
318	2017-05-10 09:42:51	0	0	0	0	0	0	30.18	6.09	0.33	2683902	1	478676	1835215	1937153	1458477	163454	3146	3465	245	915407	3033317	170310
319	2017-05-10 09:52:16	0	0	0	0	0	0	30.18	6.09	0.33	2683970	1	478702	1835215	1937221	1458519	163455	3146	3465	245	915407	3033317	170311
320	2017-05-10 10:02:16	0	0	0	0	0	0	30.18	6.09	0.33	2684021	1	478721	1835215	1937272	1458551	163460	3146	3465	245	915407	3033317	170316
321	2017-05-10 10:12:12	0	0	0	0	0	0	30.18	6.09	0.33	2684083	1	478751	1835215	1937334	1458583	163462	3146	3465	245	915407	3033317	170318
322	2017-05-10 10:22:15	0	0	0	0	0	0	30.18	6.09	0.33	2684125	1	478772	1835215	1937376	1458604	163464	3146	3465	245	915407	3033317	170320
323	2017-05-10 10:32:13	0	0	0	0	0	0	30.18	6.09	0.33	2684173	1	478788	1835215	1937424	1458636	163467	3146	3465	245	915407	3033317	170323
324	2017-05-10 10:42:14	0	0	0	0	0	0	30.18	6.09	0.33	2684223	1	478812	1835215	1937474	1458662	163467	3146	3465	245	915407	3033317	170323
325	2017-05-10 10:52:22	0	0	0	0	0	0	30.18	6.09	0.33	2684274	1	478838	1835215	1937525	1458687	163471	3146	3465	245	915407	3033317	170327
