1	2017-04-30 22:41:06	0	0	0	0	0	0	0.54	0.65	0	17171	1	5	16269	17171	17166	112	32	38	1	16194	2995293	183
2	2017-04-30 22:44:06	0	0	0	0	0	0	0.54	0.65	0	17171	1	5	16269	17171	17166	112	107	115	3	16194	2995293	337
3	2017-04-30 22:51:09	0	0	0	0	0	0	2.53	8.19	0.01	84569	1	993	76438	84569	83576	6928	270	302	8	75728	2995293	7508
4	2017-04-30 23:11:13	0	0	0	0	0	0	5.71	13.74	0.05	216131	1	9953	177885	216131	206178	29686	510	584	18	171002	2995293	30798
5	2017-04-30 23:21:16	0	0	0	0	0	0	6.24	14.37	0.06	243132	1	12893	196098	243132	230239	34947	595	695	22	187056	2995293	36259
6	2017-04-30 23:31:19	0	0	0	0	0	0	6.84	14.88	0.06	274325	1	16542	217503	274325	257783	40816	659	788	22	204829	2995293	42285
7	2017-04-30 23:41:21	0	0	0	0	0	0	7.39	15.27	0.07	300135	1	19750	235938	300135	280385	45838	706	852	24	221238	2995293	47420
8	2017-04-30 23:51:23	0	0	0	0	0	0	7.76	15.51	0.07	320501	1	22350	248820	320501	298151	49717	771	923	26	232553	2995293	51437
9	2017-05-01 00:01:25	0	0	0	0	0	0	8.14	15.72	0.08	339766	1	24926	262985	339766	314840	53427	811	978	27	243915	2995293	55243
10	2017-05-01 01:01:33	0	0	0	0	0	0	10.23	16.4	0.1	459965	1	41357	334240	459965	418608	75427	1027	1195	39	306397	2995293	77688
11	2017-05-01 02:01:33	0	0	0	0	0	0	11.33	16.67	0.1	523225	1	49475	372014	523225	473750	87228	1129	1317	43	339384	2995981	89717
12	2017-05-01 03:01:42	0	0	0	0	0	0	11.85	16.8	0.11	550594	1	53226	386967	550594	497368	92478	1176	1379	46	354972	2995981	95079
13	2017-05-01 03:45:44	0	0	0	0	0	0	12.04	16.85	0.11	564009	1	55147	395090	564009	508862	95033	1201	1401	46	360857	2995981	97681
14	2017-05-01 04:01:40	0	0	0	0	0	0	12.09	16.86	0.11	567497	1	55724	397123	567497	511773	95679	1208	1410	46	362203	2995981	98343
15	2017-05-01 05:23:13	0	0	0	0	0	0	12.48	16.91	0.11	582467	1	58526	411881	582467	523941	98490	1251	1437	47	373965	2995981	101225
16	2017-05-01 05:31:16	0	0	0	0	0	0	12.48	16.91	0.11	584037	1	58869	412183	584037	525168	98757	1254	1442	47	374010	2995981	101500
17	2017-05-01 06:31:16	0	0	0	0	0	0	12.67	16.9	0.12	599007	1	62239	417948	599007	536768	101211	1294	1487	47	379726	2995981	104039
18	2017-05-01 07:06:20	0	0	0	0	0	0	12.88	17.03	0.12	610218	1	64776	427188	610218	545442	103939	1320	1521	48	385901	2995981	106828
19	2017-05-01 07:16:22	0	0	0	0	0	0	12.96	17.05	0.12	613825	1	65627	429395	613825	548198	104677	1329	1537	48	388139	2995981	107591
20	2017-05-01 07:26:26	0	0	0	0	0	0	12.99	17.08	0.12	617498	1	66486	430348	617498	551012	105444	1346	1548	49	389065	2995981	108387
21	2017-05-01 07:29:25	0	0	0	0	0	0	12.99	17.08	0.12	617498	1	66486	430348	617498	551012	105444	1354	1552	49	389065	2995981	108399
22	2017-05-01 07:36:30	0	0	0	0	0	0	13.02	17.1	0.12	622449	1	67581	433390	622449	554868	106422	1363	1568	49	390192	2995981	109402
23	2017-05-01 07:46:30	0	0	0	0	0	0	13.08	17.14	0.12	627977	1	68831	436566	627977	559146	107622	1381	1591	49	391820	2995981	110643
24	2017-05-01 07:56:30	0	0	0	0	0	0	13.19	17.17	0.12	633794	1	70253	440154	633794	563541	108828	1395	1609	49	395196	2995981	111881
25	2017-05-01 08:00:17	0	0	0	0	0	0	13.3	17.22	0.13	640376	1	71837	444131	640376	568539	110276	1400	1615	49	398604	2995981	113340
26	2017-05-01 08:06:34	0	0	0	0	0	0	13.43	17.27	0.13	647214	1	73582	449189	647214	573632	111747	1415	1630	49	402255	2995981	114841
27	2017-05-01 08:16:37	0	0	0	0	0	0	13.53	17.32	0.13	654648	1	75470	451836	654648	579178	113358	1444	1647	50	405488	2995981	116499
28	2017-05-01 08:26:38	0	0	0	0	0	0	13.7	17.35	0.13	662075	1	77315	460367	662075	584760	114901	1468	1674	50	410501	2995981	118093
29	2017-05-01 08:33:35	0	0	0	0	0	0	13.88	17.35	0.13	671453	1	79680	469201	671453	591773	116528	1481	1691	50	415982	2995981	119750
30	2017-05-01 08:36:42	0	0	0	0	0	0	13.88	17.35	0.13	671453	1	79680	469201	671453	591773	116528	1484	1699	50	415982	2995981	119761
31	2017-05-01 08:46:46	0	0	0	0	0	0	14.01	17.37	0.14	679860	1	81804	474418	679860	598056	118070	1508	1717	50	419799	2995981	121345
32	2017-05-01 08:56:48	0	0	0	0	0	0	14.28	17.48	0.14	690359	1	84457	483238	690359	605902	120670	1546	1754	50	427700	2995981	124020
33	2017-05-01 09:06:54	0	0	0	0	0	0	14.36	17.51	0.14	702613	1	87589	486068	702613	615024	123025	1574	1777	51	430282	2995981	126427
34	2017-05-01 09:16:56	0	0	0	0	0	0	14.59	17.57	0.15	714715	1	90579	494352	714715	624136	125566	1597	1802	54	436977	2995981	129019
35	2017-05-01 09:27:06	0	0	0	0	0	0	14.79	17.58	0.15	726501	1	93543	502526	726501	632958	127686	1633	1832	54	443002	2995981	131205
36	2017-05-01 09:32:47	0	0	0	0	0	0	14.98	17.62	0.15	739488	1	96860	510964	739488	642628	130277	1646	1844	54	448797	2995981	133821
37	2017-05-01 09:37:03	0	0	0	0	0	0	14.98	17.62	0.15	739488	1	96860	510964	739488	642628	130277	1660	1854	54	448797	2995981	133845
38	2017-05-01 09:47:04	0	0	0	0	0	0	15.24	17.67	0.15	753132	1	100420	520485	753132	652712	133064	1690	1880	55	456537	2995981	136689
39	2017-05-01 09:57:07	0	0	0	0	0	0	15.39	17.71	0.16	766618	1	104175	526957	766618	662443	135743	1713	1901	56	461114	2995981	139413
40	2017-05-01 10:07:10	0	0	0	0	0	0	15.69	17.73	0.16	780618	1	108074	537240	780618	672544	138428	1738	1923	59	470212	2995981	142148
41	2017-05-01 10:17:10	0	0	0	0	0	0	15.81	17.78	0.16	793839	1	111807	543577	793839	682032	141126	1757	1953	60	473696	2995981	144896
42	2017-05-01 10:26:57	0	0	0	0	0	0	15.96	17.8	0.17	806390	1	115276	551817	806390	691114	143559	1779	1980	62	478200	2995981	147380
43	2017-05-01 10:27:16	0	0	0	0	0	0	15.96	17.8	0.17	806390	1	115276	551817	806390	691114	143559	1779	1982	62	478200	2995981	147382
44	2017-05-01 10:37:15	0	0	0	0	0	0	16.21	17.81	0.17	819171	1	118897	561812	819171	700274	145880	1800	2010	62	485776	2995981	149752
45	2017-05-01 10:47:18	0	0	0	0	0	0	16.46	17.83	0.17	831237	1	122225	570580	831237	709012	148241	1825	2045	62	493101	2995981	152173
46	2017-05-01 10:57:18	0	0	0	0	0	0	16.56	17.85	0.17	841790	1	125024	575296	841790	716766	150272	1854	2075	65	496062	2995981	154266
47	2017-05-01 11:02:16	0	0	0	0	0	0	16.64	17.87	0.18	852987	1	127988	579501	852987	724999	152405	1869	2081	65	498463	2995981	156420
48	2017-05-01 11:07:21	0	0	0	0	0	0	16.64	17.87	0.18	852987	1	127988	579501	852987	724999	152405	1880	2096	66	498463	2995981	156447
49	2017-05-01 11:17:23	0	0	0	0	0	0	16.73	17.66	0.18	874604	1	133839	582578	874604	740765	154492	1894	2129	68	501244	2995981	158583
50	2017-05-01 11:37:55	0	0	0	0	0	0	17.14	17.92	0.18	894814	1	139426	600198	894814	755388	160351	1936	2177	71	513655	2995981	164535
51	2017-05-01 11:47:59	0	0	0	0	0	0	17.25	17.93	0.19	905148	1	142272	603503	905148	762876	162277	1954	2203	72	516935	2995981	166506
52	2017-05-01 11:58:04	0	0	0	0	0	0	17.37	17.73	0.19	915466	1	145271	608824	915466	770195	162277	1975	2220	73	520520	2995981	166545
53	2017-05-01 12:08:05	0	0	0	0	0	0	17.54	17.93	0.19	923776	1	147614	617413	923776	776162	165678	1991	2239	73	525622	2995981	169981
54	2017-05-01 12:18:07	0	0	0	0	0	0	17.63	17.94	0.19	931685	1	149933	623282	931685	781752	167177	2009	2248	74	528154	2995981	171508
55	2017-05-01 12:28:12	0	0	0	0	0	0	17.76	17.95	0.19	940758	1	152499	631674	940758	788259	168865	2033	2264	75	532079	2995981	173237
56	2017-05-01 12:38:14	0	0	0	0	0	0	17.9	17.94	0.2	948672	1	154817	637002	948672	793855	170222	2049	2278	75	536319	2995981	174624
57	2017-05-01 12:48:15	0	0	0	0	0	0	18.1	17.95	0.2	957500	1	157288	645434	957500	800212	171847	2071	2295	75	542188	2995981	176288
58	2017-05-01 12:58:22	0	0	0	0	0	0	18.29	17.94	0.2	966232	1	159603	651186	966232	806629	173337	2092	2318	75	547885	2995981	177822
59	2017-05-01 13:08:50	0	0	0	0	0	0	18.51	17.94	0.2	982036	1	164071	660314	982036	817965	176218	2109	2336	76	554605	2995981	180739
60	2017-05-01 13:18:50	0	0	0	0	0	0	18.6	17.94	0.2	988855	1	165990	663498	988855	822865	177420	2122	2350	76	557125	2995981	181968
61	2017-05-01 13:28:50	0	0	0	0	0	0	18.71	17.94	0.2	995840	1	167915	669537	995840	827925	178663	2139	2366	78	560618	2995981	183246
62	2017-05-01 13:38:53	0	0	0	0	0	0	18.82	17.94	0.2	1003966	1	170339	673917	1003966	833627	180106	2151	2379	78	563955	2995981	184714
63	2017-05-01 13:48:55	0	0	0	0	0	0	18.95	17.94	0.21	1017191	1	174110	679351	1017191	843081	182518	2169	2394	78	567703	2995981	187159
64	2017-05-01 13:57:01	0	0	0	0	0	0	18.95	17.94	0.21	1017191	1	174110	679351	1017191	843081	182518	2181	2410	78	567703	2995981	187187
65	2017-05-01 13:59:00	0	0	0	0	0	0	19.25	17.94	0.21	1024473	1	176199	689132	1024473	848274	183809	2184	2416	78	576845	2995981	188487
66	2017-05-01 14:09:03	0	0	0	0	0	0	19.39	17.94	0.21	1030674	1	178071	695393	1030674	852603	184939	2200	2430	78	580929	2995981	189647
67	2017-05-01 14:19:05	0	0	0	0	0	0	19.45	17.95	0.21	1036708	1	179914	699398	1036708	856794	186115	2213	2441	78	582650	2995981	190847
68	2017-05-01 14:29:08	0	0	0	0	0	0	19.47	17.96	0.21	1041540	1	181363	700327	1041540	860177	187026	2227	2453	78	583295	2995981	191784
69	2017-05-01 14:29:51	0	0	0	0	0	0	19.47	17.96	0.21	1041540	1	181363	700327	1041540	860177	187026	2227	2454	78	583295	2995981	191785
70	2017-05-01 14:39:09	0	0	0	0	0	0	19.54	17.96	0.21	1046931	1	183057	702891	1046931	863874	188043	2234	2460	78	585460	2995981	192815
71	2017-05-01 14:49:13	0	0	0	0	0	0	19.59	17.96	0.21	1052415	1	184682	705001	1052415	867733	189056	2244	2467	78	587034	2995981	193845
72	2017-05-01 14:50:59	0	0	0	0	0	0	19.62	17.96	0.21	1057060	1	186136	708470	1057060	870924	189885	2246	2470	78	587926	2995981	194679
73	2017-05-01 15:12:22	0	0	0	0	0	0	19.72	17.97	0.22	1066598	1	188967	713756	1066598	877631	191653	2278	2489	78	590885	2995981	196498
74	2017-05-01 15:24:11	0	0	0	0	0	0	19.78	17.97	0.22	1071265	1	190377	715446	1071265	880888	192488	2291	2501	78	592525	2995981	197358
75	2017-05-01 15:26:18	0	0	0	0	0	0	19.78	17.97	0.22	1071265	1	190377	715446	1071265	880888	192488	2293	2505	78	592525	2995981	197364
76	2017-05-01 15:36:16	0	0	0	0	0	0	19.9	17.97	0.22	1080570	1	193048	722352	1080570	887522	194131	2304	2528	78	596082	2995981	199041
77	2017-05-01 15:46:15	0	0	0	0	0	0	19.95	17.92	0.22	1085488	1	194482	729060	1085488	891006	194560	2313	2535	79	597628	2995981	199487
78	2017-05-01 15:56:17	0	0	0	0	0	0	20.05	17.93	0.22	1090136	1	195844	732683	1090136	894292	195492	2321	2544	79	600817	2995981	200436
79	2017-05-01 16:06:17	0	0	0	0	0	0	20.13	17.96	0.22	1094200	1	197072	734508	1094200	897128	196568	2334	2555	80	602982	2995981	201537
80	2017-05-01 16:19:51	0	0	0	0	0	0	20.16	17.98	0.22	1101921	1	199378	737745	1101921	902543	198176	2344	2566	80	603982	2995981	203166
81	2017-05-01 16:46:09	0	0	0	0	0	0	20.31	17.99	0.22	1114646	1	203128	745359	1114646	911518	200474	2375	2593	82	608544	2995981	205524
82	2017-05-01 17:21:28	0	0	0	0	0	0	20.54	18	0.23	1129806	1	207658	753677	1129806	922148	203343	2407	2621	82	615313	2995981	208453
83	2017-05-01 17:56:04	0	0	0	0	0	0	20.77	18.01	0.23	1145074	1	212192	765278	1145074	932882	206279	2433	2652	83	622259	2995981	211447
84	2017-05-01 17:56:44	0	0	0	0	0	0	20.77	18.01	0.23	1145074	1	212192	765278	1145074	932882	206279	2433	2653	83	622259	2995981	211448
85	2017-05-01 18:06:48	0	0	0	0	0	0	20.79	18.02	0.23	1148231	1	213173	767552	1148231	935058	206875	2448	2660	85	622759	2995981	212068
86	2017-05-01 18:16:45	0	0	0	0	0	0	20.83	18.02	0.23	1151478	1	214138	768791	1151478	937340	207548	2453	2667	85	624140	2995981	212753
87	2017-05-01 18:26:47	0	0	0	0	0	0	20.96	18.03	0.23	1158099	1	216160	774469	1158099	941939	208773	2469	2674	86	628101	2995981	214002
88	2017-05-01 18:36:47	0	0	0	0	0	0	21	18.04	0.23	1161272	1	217108	778314	1161272	944164	209457	2478	2682	87	629122	2995981	214704
89	2017-05-01 18:46:47	0	0	0	0	0	0	21.04	18.04	0.23	1164556	1	218039	780866	1164556	946517	210105	2487	2690	87	630338	2995981	215369
90	2017-05-01 18:56:47	0	0	0	0	0	0	21.06	18.04	0.23	1167533	1	218940	781901	1167533	948593	210681	2496	2697	87	630852	2995981	215961
91	2017-05-01 19:06:54	0	0	0	0	0	0	21.15	18.05	0.23	1174410	1	221072	786369	1174410	953338	211945	2501	2706	87	633757	2995981	217239
92	2017-05-01 19:17:12	0	0	0	0	0	0	21.19	18.05	0.23	1177806	1	222115	788070	1177806	955691	212594	2509	2714	87	634862	2995981	217904
93	2017-05-01 19:27:09	0	0	0	0	0	0	21.24	18.05	0.23	1181494	1	223247	788271	1181494	958247	213266	2520	2723	87	636428	2995981	218596
94	2017-05-01 19:37:05	0	0	0	0	0	0	21.28	18.05	0.23	1185033	1	224286	790384	1185033	960747	213926	2527	2730	87	637542	2995981	219270
95	2017-05-01 19:47:09	0	0	0	0	0	0	21.32	18.06	0.23	1188942	1	225449	792305	1188942	963493	214664	2545	2743	87	638594	2995981	220039
96	2017-05-01 19:57:08	0	0	0	0	0	0	21.4	18.05	0.23	1195633	1	227442	795869	1195633	968191	215865	2549	2747	87	641073	2995981	221248
97	2017-05-01 20:07:05	0	0	0	0	0	0	21.48	18.06	0.24	1199606	1	228568	798795	1199606	971038	216600	2560	2758	87	643454	2995981	222005
98	2017-05-01 20:17:04	0	0	0	0	0	0	21.58	18.06	0.24	1203617	1	229700	803902	1203617	973917	217322	2576	2770	87	646494	2995981	222755
99	2017-05-01 20:27:05	0	0	0	0	0	0	21.62	18.06	0.24	1207709	1	230889	805673	1207709	976820	218061	2584	2775	87	647639	2995981	223507
100	2017-05-01 20:37:03	0	0	0	0	0	0	21.66	18.05	0.24	1214916	1	232888	808197	1214916	982028	219340	2595	2787	88	648928	2995981	224810
101	2017-05-01 20:47:04	0	0	0	0	0	0	21.73	18.06	0.24	1219154	1	234025	810179	1219154	985129	220120	2605	2797	88	651026	2995981	225610
102	2017-05-01 20:57:06	0	0	0	0	0	0	21.75	18.06	0.24	1223027	1	235105	810603	1223027	987922	220867	2613	2811	89	651574	2995981	226380
103	2017-05-01 21:07:06	0	0	0	0	0	0	21.75	18.06	0.24	1227201	1	236309	812465	1227201	990892	221599	2626	2825	89	651694	2995981	227139
104	2017-05-01 21:17:06	0	0	0	0	0	0	21.78	18.07	0.24	1233834	1	238275	813853	1233834	995559	222895	2634	2836	91	652587	2995981	228456
105	2017-05-01 21:27:07	0	0	0	0	0	0	21.82	18.07	0.24	1237828	1	239490	815406	1237828	998338	223651	2637	2847	91	653586	2995981	229226
106	2017-05-01 21:37:10	0	0	0	0	0	0	21.96	18.07	0.24	1241899	1	240701	818505	1241899	1001198	224404	2646	2849	92	657873	2995981	229991
107	2017-05-01 21:47:08	0	0	0	0	0	0	21.98	18.07	0.24	1245131	1	241693	819805	1245131	1003438	225046	2659	2854	92	658573	2995981	230651
108	2017-05-01 21:57:24	0	0	0	0	0	0	22.09	18.07	0.24	1251841	1	243711	826314	1251841	1008130	226215	2672	2863	92	661943	2995981	231842
109	2017-05-01 22:07:16	0	0	0	0	0	0	22.21	18.07	0.24	1255629	1	244862	829232	1255629	1010767	226907	2684	2873	92	665527	2995981	232556
110	2017-05-01 22:17:11	0	0	0	0	0	0	22.22	18.07	0.24	1259863	1	246238	829455	1259863	1013625	227664	2699	2883	92	665813	2995981	233338
111	2017-05-01 22:27:13	0	0	0	0	0	0	22.24	18.07	0.24	1263559	1	247401	829455	1263559	1016158	228335	2711	2893	92	666243	2995981	234031
112	2017-05-01 22:37:13	0	0	0	0	0	0	22.49	18.08	0.24	1271643	1	249926	838680	1271643	1021717	229854	2723	2905	92	673937	2995981	235574
113	2017-05-01 22:47:12	0	0	0	0	0	0	22.53	18.08	0.25	1275740	1	251237	839931	1275740	1024503	230640	2735	2915	93	674892	2995981	236383
114	2017-05-01 22:57:11	0	0	0	0	0	0	22.56	18.08	0.25	1279060	1	252250	841243	1279060	1026810	231309	2742	2919	93	675813	2995981	237063
115	2017-05-01 23:07:08	0	0	0	0	0	0	22.68	18.09	0.25	1282623	1	253311	845984	1282623	1029312	231971	2748	2929	94	679521	2995981	237742
116	2017-05-01 23:17:09	0	0	0	0	0	0	22.7	18.09	0.25	1285629	1	254298	846562	1285629	1031331	232608	2752	2936	94	680192	2995981	238390
117	2017-05-01 23:26:55	0	0	0	0	0	0	22.75	18.11	0.25	1291407	1	256158	848767	1291407	1035249	233874	2759	2939	95	681690	2995981	239667
118	2017-05-01 23:36:52	0	0	0	0	0	0	22.77	18.11	0.25	1293765	1	256908	849116	1293765	1036857	234342	2770	2946	95	682216	2995981	240153
119	2017-05-01 23:46:51	0	0	0	0	0	0	22.78	18.12	0.25	1296278	1	257766	850749	1296278	1038512	234844	2781	2950	95	682516	2995981	240670
120	2017-05-01 23:56:52	0	0	0	0	0	0	22.83	18.12	0.25	1298488	1	258511	853681	1298488	1039977	235270	2787	2953	96	683949	2995981	241106
121	2017-05-02 00:31:52	0	0	0	0	0	0	23.1	18.13	0.25	1308047	1	261516	864014	1308047	1046531	237214	2798	2966	96	692051	2995981	243074
122	2017-05-02 01:31:57	0	0	0	0	0	0	23.18	18.16	0.25	1316853	1	264292	867023	1316853	1052561	239134	2817	2981	96	694456	2995981	245028
123	2017-05-02 02:31:53	0	0	0	0	0	0	23.3	18.17	0.25	1321230	1	265585	873489	1321230	1055645	240059	2823	2989	96	698441	2997288	245967
124	2017-05-02 03:31:55	0	0	0	0	0	0	23.31	18.17	0.25	1323755	1	266318	873736	1323755	1057437	240574	2825	2998	96	698599	2997288	246493
125	2017-05-02 04:31:53	0	0	0	0	0	0	23.32	18.18	0.25	1325376	1	266933	874229	1325376	1058443	240888	2826	3000	96	698914	2997288	246810
126	2017-05-02 05:31:53	0	0	0	0	0	0	23.32	18.18	0.25	1327180	1	267646	876890	1327180	1059534	241232	2829	3003	96	698914	2997288	247160
127	2017-05-02 06:31:58	0	0	0	0	0	0	23.33	18.18	0.25	1330524	1	269011	878441	1330524	1061513	241875	2835	3005	97	699151	2997288	247812
128	2017-05-02 07:06:54	0	0	0	0	0	0	23.35	18.18	0.25	1334395	1	270516	878691	1334395	1063879	242590	2838	3010	97	699783	2997288	248535
129	2017-05-02 07:16:54	0	0	0	0	0	0	23.35	18.18	0.25	1335291	1	270870	878691	1335291	1064421	242756	2840	3011	97	699783	2997288	248704
130	2017-05-02 07:26:54	0	0	0	0	0	0	23.35	18.18	0.25	1336379	1	271307	878691	1336379	1065072	242959	2845	3013	97	699783	2997288	248914
131	2017-05-02 07:36:54	0	0	0	0	0	0	23.35	18.18	0.25	1337297	1	271668	878691	1337297	1065629	243135	2848	3014	97	699783	2997288	249094
132	2017-05-02 07:46:56	0	0	0	0	0	0	23.35	18.18	0.26	1338415	1	272079	879533	1338415	1066336	243351	2852	3014	97	700000	2997288	249314
133	2017-05-02 07:56:53	0	0	0	0	0	0	23.39	18.19	0.26	1340523	1	272947	880408	1340523	1067576	243783	2854	3016	97	701110	2997288	249750
134	2017-05-02 08:06:55	0	0	0	0	0	0	23.4	18.19	0.26	1341423	1	273360	881160	1341423	1068063	243960	2858	3019	97	701428	2997288	249934
135	2017-05-02 08:16:56	0	0	0	0	0	0	23.4	18.19	0.26	1342294	1	273732	881411	1342294	1068562	244125	2863	3022	97	701428	2997288	250107
136	2017-05-02 08:26:59	0	0	0	0	0	0	23.41	18.19	0.26	1343355	1	274172	883297	1343355	1069183	244351	2865	3024	98	701745	2997288	250338
137	2017-05-02 08:37:00	0	0	0	0	0	0	23.41	18.19	0.26	1344551	1	274680	883297	1344551	1069871	244592	2868	3024	98	701745	2997288	250582
138	2017-05-02 08:47:06	0	0	0	0	0	0	23.43	18.19	0.26	1346792	1	275651	885317	1346792	1071141	245027	2872	3027	98	702382	2997288	251024
139	2017-05-02 08:57:02	0	0	0	0	0	0	23.43	18.19	0.26	1347865	1	276076	885317	1347865	1071789	245242	2874	3027	98	702382	2997288	251241
140	2017-05-02 09:06:58	0	0	0	0	0	0	23.47	18.2	0.26	1348869	1	276505	886077	1348869	1072364	245436	2880	3035	98	703499	2997288	251449
141	2017-05-02 09:16:56	0	0	0	0	0	0	23.5	18.2	0.26	1349843	1	276871	886585	1349843	1072972	245618	2884	3038	98	704460	2997288	251638
142	2017-05-02 09:26:58	0	0	0	0	0	0	23.52	18.2	0.26	1352197	1	277829	886585	1352197	1074368	246073	2886	3040	98	704941	2997288	252097
143	2017-05-02 09:36:58	0	0	0	0	0	0	23.53	18.2	0.26	1353439	1	278378	886966	1353439	1075061	246331	2889	3043	98	705182	2997288	252361
144	2017-05-02 09:46:58	0	0	0	0	0	0	23.54	18.2	0.26	1354648	1	278889	887474	1354648	1075759	246542	2895	3046	98	705503	2997288	252581
145	2017-05-02 09:56:57	0	0	0	0	0	0	23.54	18.2	0.26	1355715	1	279328	888170	1355715	1076387	246742	2898	3047	98	705664	2997288	252785
146	2017-05-02 10:06:57	0	0	0	0	0	0	23.58	18.2	0.26	1356721	1	279759	890341	1356721	1076962	246925	2904	3048	98	706882	2997288	252975
147	2017-05-02 10:17:00	0	0	0	0	0	0	23.6	18.2	0.26	1358818	1	280720	891110	1358818	1078098	247344	2905	3051	98	707447	2997288	253398
148	2017-05-02 10:26:59	0	0	0	0	0	0	23.6	18.2	0.26	1359832	1	281186	891110	1359832	1078646	247544	2913	3054	98	707447	2997288	253609
149	2017-05-02 10:36:59	0	0	0	0	0	0	23.67	18.21	0.26	1360945	1	281698	892394	1360945	1079247	247790	2914	3055	98	709392	2997288	253857
150	2017-05-02 10:47:01	0	0	0	0	0	0	23.7	18.21	0.26	1361740	1	282081	893811	1361740	1079659	247997	2914	3055	98	710287	2997288	254064
151	2017-05-02 10:57:00	0	0	0	0	0	0	23.7	18.21	0.26	1362436	1	282423	893811	1362436	1080013	248161	2920	3056	98	710287	2997288	254235
152	2017-05-02 11:06:59	0	0	0	0	0	0	23.7	18.22	0.26	1363192	1	282807	893811	1363192	1080385	248320	2921	3059	98	710287	2997288	254398
153	2017-05-02 11:17:00	0	0	0	0	0	0	23.7	18.22	0.26	1364530	1	283531	894844	1364530	1080999	248614	2922	3063	98	710287	2997288	254697
154	2017-05-02 11:26:59	0	0	0	0	0	0	23.71	18.22	0.26	1365139	1	283861	895361	1365139	1081278	248734	2925	3064	98	710613	2997288	254821
155	2017-05-02 11:37:00	0	0	0	0	0	0	23.71	18.22	0.26	1365753	1	284176	895361	1365753	1081577	248864	2925	3065	98	710613	2997288	254952
156	2017-05-02 11:47:00	0	0	0	0	0	0	23.71	18.22	0.26	1366358	1	284502	895361	1366358	1081856	249005	2928	3065	98	710613	2997288	255096
157	2017-05-02 11:57:02	0	0	0	0	0	0	23.72	18.23	0.26	1367684	1	285212	895459	1367684	1082472	249301	2928	3065	98	710919	2997288	255392
158	2017-05-02 12:07:00	0	0	0	0	0	0	23.74	18.23	0.26	1368277	1	285530	896625	1368277	1082747	249409	2932	3066	98	711573	2997288	255505
159	2017-05-02 12:17:03	0	0	0	0	0	0	23.74	18.23	0.26	1368917	1	285890	897860	1368917	1083027	249548	2937	3066	98	711696	2997288	255649
160	2017-05-02 12:27:03	0	0	0	0	0	0	23.74	18.23	0.26	1369459	1	286184	897860	1369459	1083275	249668	2938	3066	98	711696	2997288	255770
161	2017-05-02 12:37:02	0	0	0	0	0	0	23.75	18.23	0.26	1369970	1	286474	899164	1369970	1083496	249786	2939	3066	98	711859	2997288	255889
162	2017-05-02 12:47:06	0	0	0	0	0	0	23.78	18.24	0.26	1370965	1	287033	902539	1370965	1083932	250006	2939	3067	98	712678	2997288	256110
163	2017-05-02 12:57:05	0	0	0	0	0	0	23.78	18.24	0.26	1371417	1	287277	902539	1371417	1084140	250109	2941	3069	98	712678	2997288	256217
164	2017-05-02 13:07:04	0	0	0	0	0	0	23.78	18.24	0.27	1371911	1	287542	902539	1371911	1084369	250204	2941	3069	98	712678	2997288	256312
165	2017-05-02 13:17:11	0	0	0	0	0	0	23.78	18.24	0.27	1372763	1	288003	902539	1372763	1084760	250404	2941	3069	98	712678	2997288	256512
166	2017-05-02 13:27:14	0	0	0	0	0	0	23.78	18.24	0.27	1373234	1	288295	902539	1373234	1084939	250497	2943	3069	98	712678	2997288	256607
167	2017-05-02 13:37:09	0	0	0	0	0	0	23.78	18.24	0.27	1373673	1	288518	903065	1373673	1085155	250604	2944	3069	98	712678	2997288	256715
168	2017-05-02 13:47:11	0	0	0	0	0	0	23.78	18.24	0.27	1374179	1	288805	905045	1374179	1085374	250703	2945	3069	98	712678	2997288	256815
169	2017-05-02 13:57:16	0	0	0	0	0	0	23.78	18.25	0.27	1375082	1	289304	905508	1375082	1085778	250921	2945	3069	98	712678	2997288	257033
170	2017-05-02 14:07:08	0	0	0	0	0	0	23.78	18.25	0.27	1375522	1	289559	905508	1375522	1085963	251019	2948	3070	98	712678	2997288	257135
171	2017-05-02 14:17:09	0	0	0	0	0	0	23.8	18.25	0.27	1375969	1	289828	906568	1375969	1086141	251101	2948	3070	98	713335	2997288	257217
172	2017-05-02 14:27:24	0	0	0	0	0	0	23.83	18.25	0.27	1376372	1	290058	906568	1376372	1086314	251184	2948	3070	98	714323	2997288	257300
173	2017-05-02 14:37:15	0	0	0	0	0	0	23.83	18.25	0.27	1376825	1	290309	906568	1376825	1086516	251289	2949	3071	98	714323	2997288	257407
174	2017-05-02 14:47:12	0	0	0	0	0	0	23.83	18.25	0.27	1377285	1	290565	906568	1377285	1086720	251377	2950	3071	98	714323	2997288	257496
175	2017-05-02 14:57:10	0	0	0	0	0	0	23.83	18.25	0.27	1378182	1	291091	906568	1378182	1087091	251571	2950	3071	98	714323	2997288	257690
176	2017-05-02 15:07:29	0	0	0	0	0	0	23.83	18.25	0.27	1378633	1	291344	906568	1378633	1087289	251666	2953	3074	98	714323	2997288	257791
177	2017-05-02 15:17:23	0	0	0	0	0	0	23.83	18.26	0.27	1379082	1	291593	906568	1379082	1087489	251760	2954	3076	98	714323	2997288	257888
178	2017-05-02 15:27:23	0	0	0	0	0	0	23.84	18.26	0.27	1379467	1	291822	906568	1379467	1087645	251860	2956	3078	98	714652	2997288	257992
179	2017-05-02 15:37:23	0	0	0	0	0	0	23.84	18.26	0.27	1379860	1	292033	906568	1379860	1087827	251946	2956	3078	98	714652	2997288	258078
180	2017-05-02 15:47:34	0	0	0	0	0	0	23.84	18.26	0.27	1380759	1	292538	906568	1380759	1088221	252143	2958	3079	98	714652	2997288	258278
181	2017-05-02 16:00:09	0	0	0	0	0	0	23.85	18.26	0.27	1381136	1	292754	907100	1381136	1088382	252216	2959	3080	98	714982	2997288	258353
182	2017-05-02 16:10:18	0	0	0	0	0	0	23.85	18.26	0.27	1381846	1	293149	907100	1381846	1088697	252394	2960	3081	98	714982	2997288	258533
183	2017-05-02 16:20:20	0	0	0	0	0	0	23.85	18.27	0.27	1382189	1	293339	907898	1382189	1088850	252473	2960	3081	98	714982	2997288	258612
184	2017-05-02 16:30:13	0	0	0	0	0	0	23.85	18.27	0.27	1382525	1	293533	907898	1382525	1088992	252545	2961	3081	98	714982	2997288	258685
185	2017-05-02 16:40:27	0	0	0	0	0	0	23.85	18.27	0.27	1382925	1	293758	907898	1382925	1089167	252630	2962	3081	98	714982	2997288	258771
186	2017-05-02 16:52:36	0	0	0	0	0	0	23.87	18.27	0.27	1383627	1	294164	907898	1383627	1089463	252783	2965	3082	98	715313	2997288	258928
187	2017-05-02 17:03:41	0	0	0	0	0	0	23.87	18.27	0.27	1384368	1	294562	907898	1384368	1089806	252953	2965	3082	98	715313	2997288	259098
188	2017-05-02 17:22:50	0	0	0	0	0	0	23.87	18.27	0.27	1385089	1	294965	908430	1385089	1090124	253115	2969	3083	98	715313	2997288	259265
189	2017-05-02 17:32:36	0	0	0	0	0	0	23.87	18.28	0.27	1385437	1	295165	908430	1385437	1090272	253201	2972	3084	98	715313	2997288	259355
190	2017-05-02 17:42:40	0	0	0	0	0	0	23.87	18.28	0.27	1386191	1	295604	908530	1386191	1090587	253365	2972	3085	98	715375	2997288	259520
191	2017-05-02 17:52:39	0	0	0	0	0	0	23.87	18.28	0.27	1386575	1	295813	908530	1386575	1090762	253469	2974	3086	98	715375	2997288	259627
192	2017-05-02 18:03:46	0	0	0	0	0	0	23.87	18.28	0.27	1386912	1	295995	908530	1386912	1090917	253546	2976	3086	98	715375	2997288	259706
193	2017-05-02 18:13:45	0	0	0	0	0	0	23.87	18.28	0.27	1387262	1	296183	908797	1387262	1091079	253631	2980	3088	98	715375	2997288	259797
194	2017-05-02 18:27:03	0	0	0	0	0	0	23.88	18.28	0.27	1387948	1	296545	909598	1387948	1091403	253781	2980	3090	98	715871	2997288	259949
195	2017-05-02 18:38:33	0	0	0	0	0	0	23.88	18.29	0.27	1388544	1	296892	909598	1388544	1091652	253925	2982	3090	98	715871	2997288	260095
196	2017-05-02 18:49:29	0	0	0	0	0	0	23.88	18.29	0.27	1388847	1	297061	909598	1388847	1091786	254001	2984	3090	98	715871	2997288	260173
197	2017-05-02 18:59:13	0	0	0	0	0	0	23.96	18.29	0.27	1389444	1	297378	909865	1389444	1092066	254112	2985	3091	98	718195	2997288	260286
198	2017-05-02 19:09:53	0	0	0	0	0	0	23.96	18.29	0.27	1389710	1	297515	909865	1389710	1092195	254179	2986	3092	99	718195	2997288	260356
199	2017-05-02 19:19:38	0	0	0	0	0	0	23.98	18.29	0.27	1390307	1	297836	910668	1390307	1092471	254316	2988	3093	99	718696	2997288	260496
200	2017-05-02 19:30:04	0	0	0	0	0	0	23.98	18.29	0.27	1390587	1	297989	910668	1390587	1092598	254397	2989	3093	99	718696	2997288	260578
201	2017-05-02 19:41:34	0	0	0	0	0	0	23.98	18.3	0.27	1391279	1	298380	910668	1391279	1092899	254562	2990	3094	99	718696	2997288	260745
202	2017-05-02 19:53:46	0	0	0	0	0	0	23.98	18.3	0.27	1391595	1	298554	910902	1391595	1093041	254649	2992	3094	99	718696	2997288	260834
203	2017-05-02 20:04:21	0	0	0	0	0	0	23.98	18.3	0.27	1391939	1	298754	910902	1391939	1093185	254724	2993	3095	99	718696	2997288	260911
204	2017-05-02 20:24:59	0	0	0	0	0	0	23.98	18.31	0.27	1392999	1	299366	911304	1392999	1093633	254999	2996	3096	99	718696	2997288	261190
205	2017-05-02 20:34:57	0	0	0	0	0	0	23.98	18.31	0.27	1393345	1	299575	911304	1393345	1093770	255078	2997	3096	99	718696	2997288	261270
206	2017-05-02 20:53:22	0	0	0	0	0	0	23.98	18.31	0.27	1394124	1	300021	911304	1394124	1094103	255254	3000	3097	99	718696	2997288	261450
207	2017-05-02 21:05:32	0	0	0	0	0	0	23.98	18.31	0.27	1394889	1	300468	911304	1394889	1094421	255428	3002	3098	99	718696	2997288	261627
208	2017-05-02 21:15:19	0	0	0	0	0	0	23.98	18.31	0.27	1395256	1	300682	911573	1395256	1094574	255505	3005	3100	99	718862	2997288	261709
209	2017-05-02 21:25:15	0	0	0	0	0	0	23.98	18.31	0.27	1395680	1	300926	911573	1395680	1094754	255597	3007	3101	99	718862	2997288	261804
210	2017-05-02 21:41:51	0	0	0	0	0	0	23.98	18.32	0.28	1396877	1	301620	913438	1396877	1095257	255870	3007	3101	99	718862	2997288	262077
211	2017-05-02 21:52:21	0	0	0	0	0	0	23.98	18.32	0.28	1397295	1	301851	913438	1397295	1095444	255943	3010	3103	100	718862	2997288	262156
212	2017-05-02 22:15:29	0	0	0	0	0	0	24	18.32	0.28	1398388	1	302471	914247	1398388	1095917	256183	3011	3104	100	719363	2997288	262398
213	2017-05-02 22:25:44	0	0	0	0	0	0	24	18.32	0.28	1398685	1	302640	914247	1398685	1096045	256256	3011	3104	100	719363	2997288	262471
214	2017-05-02 22:37:09	0	0	0	0	0	0	24	18.32	0.28	1399315	1	302980	914247	1399315	1096335	256412	3012	3105	100	719363	2997288	262629
215	2017-05-02 22:51:31	0	0	0	0	0	0	24	18.33	0.28	1399948	1	303314	915058	1399948	1096634	256563	3014	3108	100	719363	2997288	262785
216	2017-05-02 23:07:57	0	0	0	0	0	0	24	18.33	0.28	1400582	1	303670	915058	1400582	1096912	256716	3015	3110	100	719363	2997288	262941
217	2017-05-02 23:17:36	0	0	0	0	0	0	24	18.33	0.28	1400849	1	303806	915058	1400849	1097043	256772	3016	3111	100	719363	2997288	262999
218	2017-05-02 23:31:27	0	0	0	0	0	0	24	18.33	0.28	1401396	1	304092	915261	1401396	1097304	256899	3016	3111	100	719489	2997288	263126
219	2017-05-02 23:45:30	0	0	0	0	0	0	24	18.33	0.28	1401868	1	304366	915261	1401868	1097502	257020	3016	3112	100	719489	2997288	263248
220	2017-05-02 23:55:43	0	0	0	0	0	0	24	18.34	0.28	1402135	1	304505	915261	1402135	1097630	257087	3017	3112	100	719489	2997288	263316
221	2017-05-03 00:35:33	0	0	0	0	0	0	24	18.34	0.28	1403128	1	304968	915261	1403128	1098160	257358	3022	3115	100	719489	2997288	263595
222	2017-05-03 01:38:07	0	0	0	0	0	0	24	18.35	0.28	1404023	1	305376	915261	1404023	1098647	257603	3022	3115	100	719489	2997288	263840
223	2017-05-03 02:57:08	0	0	0	0	0	0	23.99	18.35	0.28	1404638	1	305637	915261	1404638	1099001	257760	3022	3115	100	719489	2999476	263997
224	2017-05-03 03:48:01	0	0	0	0	0	0	23.99	18.35	0.28	1404874	1	305744	915261	1404874	1099130	257838	3023	3115	100	719489	2999476	264076
225	2017-05-03 04:52:17	0	0	0	0	0	0	23.99	18.35	0.28	1405133	1	305876	915261	1405133	1099257	257882	3023	3115	100	719489	2999476	264120
226	2017-05-03 05:53:03	0	0	0	0	0	0	23.99	18.35	0.28	1405492	1	306074	915396	1405492	1099418	257938	3023	3115	100	719489	2999476	264176
227	2017-05-03 06:53:28	0	0	0	0	0	0	23.99	18.35	0.28	1406027	1	306340	915396	1406027	1099687	258071	3023	3116	100	719489	2999476	264310
228	2017-05-03 07:24:04	0	0	0	0	0	0	24	18.36	0.28	1406479	1	306591	916209	1406479	1099888	258165	3023	3116	100	719991	2999476	264404
229	2017-05-03 07:41:54	0	0	0	0	0	0	24	18.36	0.28	1406699	1	306718	916751	1406699	1099981	258210	3023	3116	100	719991	2999476	264449
230	2017-05-03 07:59:24	0	0	0	0	0	0	24	18.36	0.28	1407058	1	306889	916751	1407058	1100169	258287	3023	3116	100	719991	2999476	264526
231	2017-05-03 08:14:15	0	0	0	0	0	0	24	18.36	0.28	1407292	1	306997	916751	1407292	1100295	258341	3023	3116	100	719991	2999476	264580
232	2017-05-03 08:53:31	0	0	0	0	0	0	24	18.36	0.28	1408079	1	307370	916751	1408079	1100709	258518	3028	3117	100	719991	2999476	264763
233	2017-05-03 09:26:47	0	0	0	0	0	0	24	18.36	0.28	1408588	1	307619	916751	1408588	1100969	258636	3030	3119	100	719991	2999476	264885
234	2017-05-03 09:42:07	0	0	0	0	0	0	24	18.36	0.28	1408987	1	307814	916751	1408987	1101173	258735	3032	3120	100	719991	2999476	264987
235	2017-05-03 09:51:19	0	0	0	0	0	0	24	18.36	0.28	1409140	1	307895	916751	1409140	1101245	258762	3032	3120	100	719991	2999476	265014
236	2017-05-03 10:06:34	0	0	0	0	0	0	24	18.36	0.28	1409494	1	308049	916751	1409494	1101445	258839	3032	3120	100	719991	2999476	265091
237	2017-05-03 10:15:22	0	0	0	0	0	0	24	18.36	0.28	1409665	1	308129	916751	1409665	1101536	258870	3032	3121	100	719991	2999476	265123
238	2017-05-03 10:34:37	0	0	0	0	0	0	24	18.36	0.28	1409973	1	308266	917294	1409973	1101707	258939	3032	3121	100	719991	2999476	265192
239	2017-05-03 10:52:07	0	0	0	0	0	0	24	18.37	0.28	1410355	1	308437	917294	1410355	1101918	259036	3032	3121	100	719991	2999476	265289
240	2017-05-03 11:02:21	0	0	0	0	0	0	24	18.37	0.28	1410493	1	308502	917294	1410493	1101991	259074	3032	3122	100	719991	2999476	265328
241	2017-05-03 11:12:24	0	0	0	0	0	0	24	18.37	0.28	1410619	1	308558	917294	1410619	1102061	259113	3035	3122	100	719991	2999476	265370
242	2017-05-03 11:28:37	0	0	0	0	0	0	24	18.37	0.28	1410881	1	308665	917294	1410881	1102216	259174	3035	3122	100	719991	2999476	265431
243	2017-05-03 11:42:38	0	0	0	0	0	0	24	18.37	0.28	1411140	1	308775	917294	1411140	1102365	259239	3037	3123	100	719991	2999476	265499
244	2017-05-03 11:55:54	0	0	0	0	0	0	24	18.37	0.28	1411281	1	308836	917294	1411281	1102445	259266	3038	3123	100	719991	2999476	265527
245	2017-05-03 12:24:38	0	0	0	0	0	0	24	18.37	0.28	1411756	1	309030	917702	1411756	1102726	259384	3038	3124	100	719991	2999476	265646
246	2017-05-03 12:52:15	0	0	0	0	0	0	24	18.37	0.28	1412203	1	309205	917702	1412203	1102998	259481	3040	3124	100	719991	2999476	265745
247	2017-05-03 13:02:18	0	0	0	0	0	0	24	18.38	0.28	1412335	1	309263	917702	1412335	1103072	259519	3040	3124	100	719991	2999476	265783
248	2017-05-03 13:12:20	0	0	0	0	0	0	24	18.38	0.28	1412466	1	309310	917702	1412466	1103156	259545	3042	3124	100	719991	2999476	265811
249	2017-05-03 13:22:19	0	0	0	0	0	0	24	18.38	0.28	1412740	1	309425	918246	1412740	1103315	259617	3042	3125	100	719991	2999476	265884
250	2017-05-03 13:33:30	0	0	0	0	0	0	24	18.38	0.28	1412875	1	309471	918246	1412875	1103404	259642	3042	3125	100	719991	2999476	265909
251	2017-05-03 13:43:34	0	0	0	0	0	0	24	18.38	0.28	1413011	1	309526	918246	1413011	1103485	259672	3042	3125	100	719991	2999476	265939
252	2017-05-03 13:53:31	0	0	0	0	0	0	24	18.38	0.28	1413157	1	309567	918246	1413157	1103590	259694	3044	3125	100	719991	2999476	265963
253	2017-05-03 14:03:35	0	0	0	0	0	0	24.04	18.37	0.28	1413346	1	309644	920157	1413346	1103702	259694	3044	3125	100	721165	2999476	265963
254	2017-05-03 14:13:34	0	0	0	0	0	0	24.04	18.37	0.28	1413459	1	309679	920191	1413459	1103780	259694	3044	3125	100	721165	2999476	265963
255	2017-05-03 14:23:34	0	0	0	0	0	0	24.04	18.37	0.28	1413661	1	309764	920191	1413661	1103897	259694	3045	3126	100	721165	2999476	265965
256	2017-05-03 14:33:38	0	0	0	0	0	0	24.04	18.37	0.28	1413739	1	309791	920191	1413739	1103948	259706	3046	3126	100	721165	2999476	265978
257	2017-05-03 14:43:41	0	0	0	0	0	0	24.04	18.37	0.28	1413854	1	309840	920191	1413854	1104014	259740	3046	3126	100	721165	2999476	266012
258	2017-05-03 14:53:38	0	0	0	0	0	0	24.04	18.37	0.28	1414099	1	309929	920464	1414099	1104170	259815	3046	3126	100	721165	2999476	266087
259	2017-05-03 15:03:41	0	0	0	0	0	0	24.04	18.37	0.28	1414220	1	309973	920464	1414220	1104247	259850	3046	3126	100	721165	2999476	266122
260	2017-05-03 15:13:39	0	0	0	0	0	0	24.04	18.37	0.28	1414365	1	310030	920464	1414365	1104335	259883	3047	3126	100	721165	2999476	266156
261	2017-05-03 15:23:39	0	0	0	0	0	0	24.05	18.38	0.28	1414495	1	310071	920601	1414495	1104424	259915	3048	3127	100	721249	2999476	266190
262	2017-05-03 15:33:39	0	0	0	0	0	0	24.05	18.38	0.28	1414609	1	310113	920601	1414609	1104496	259945	3049	3127	100	721249	2999476	266221
263	2017-05-03 15:43:40	0	0	0	0	0	0	24.05	18.38	0.28	1414751	1	310167	920601	1414751	1104584	259974	3050	3127	100	721249	2999476	266251
264	2017-05-03 15:53:43	0	0	0	0	0	0	24.05	18.38	0.28	1415028	1	310294	920601	1415028	1104734	260071	3050	3127	100	721249	2999476	266348
265	2017-05-03 16:03:50	0	0	0	0	0	0	24.05	18.38	0.28	1415197	1	310361	920601	1415197	1104836	260116	3050	3128	100	721249	2999476	266394
266	2017-05-03 16:13:48	0	0	0	0	0	0	24.05	18.38	0.28	1415336	1	310410	920601	1415336	1104926	260158	3050	3128	100	721249	2999476	266436
267	2017-05-03 16:23:53	0	0	0	0	0	0	24.05	18.38	0.28	1415481	1	310472	920601	1415481	1105009	260202	3050	3128	100	721249	2999476	266480
268	2017-05-03 16:34:00	0	0	0	0	0	0	24.05	18.38	0.28	1415612	1	310517	920601	1415612	1105095	260245	3050	3128	100	721249	2999476	266523
269	2017-05-03 16:43:42	0	0	0	0	0	0	24.05	18.38	0.28	1415735	1	310573	920601	1415735	1105162	260279	3053	3129	100	721249	2999476	266561
270	2017-05-03 16:53:39	0	0	0	0	0	0	24.05	18.39	0.28	1416032	1	310692	920601	1416032	1105340	260376	3055	3130	100	721249	2999476	266661
271	2017-05-03 17:03:39	0	0	0	0	0	0	24.05	18.39	0.28	1416182	1	310773	920601	1416182	1105409	260420	3056	3130	100	721249	2999476	266706
272	2017-05-03 17:13:39	0	0	0	0	0	0	24.05	18.39	0.28	1416304	1	310822	920601	1416304	1105482	260440	3056	3130	100	721249	2999476	266726
273	2017-05-03 17:23:38	0	0	0	0	0	0	24.06	18.39	0.28	1416422	1	310869	920875	1416422	1105553	260484	3058	3130	100	721753	2999476	266772
274	2017-05-03 17:33:39	0	0	0	0	0	0	24.06	18.39	0.28	1416694	1	310992	921286	1416694	1105702	260551	3059	3131	100	721753	2999476	266841
275	2017-05-03 17:43:39	0	0	0	0	0	0	24.06	18.39	0.28	1416843	1	311049	921286	1416843	1105794	260584	3059	3132	100	721753	2999476	266875
276	2017-05-03 17:53:38	0	0	0	0	0	0	24.06	18.39	0.28	1416981	1	311102	921286	1416981	1105879	260613	3059	3132	100	721753	2999476	266904
277	2017-05-03 18:03:39	0	0	0	0	0	0	24.06	18.39	0.28	1417239	1	311213	921286	1417239	1106026	260668	3059	3132	100	721753	2999476	266959
278	2017-05-03 18:13:40	0	0	0	0	0	0	24.06	18.39	0.28	1417362	1	311258	921286	1417362	1106104	260702	3060	3133	100	721753	2999476	266995
279	2017-05-03 18:23:44	0	0	0	0	0	0	24.06	18.39	0.28	1417478	1	311305	921286	1417478	1106173	260732	3060	3133	100	721753	2999476	267025
280	2017-05-03 18:33:53	0	0	0	0	0	0	24.06	18.39	0.28	1417594	1	311355	921286	1417594	1106239	260763	3060	3133	100	721753	2999476	267056
281	2017-05-03 18:43:53	0	0	0	0	0	0	24.06	18.4	0.28	1417709	1	311396	921286	1417709	1106313	260791	3061	3133	100	721753	2999476	267085
282	2017-05-03 18:53:45	0	0	0	0	0	0	24.06	18.4	0.28	1417830	1	311441	921286	1417830	1106389	260831	3061	3133	100	721753	2999476	267125
283	2017-05-03 19:03:41	0	0	0	0	0	0	24.06	18.4	0.28	1418071	1	311537	921286	1418071	1106534	260888	3061	3134	100	721753	2999476	267183
284	2017-05-03 19:14:09	0	0	0	0	0	0	24.06	18.4	0.28	1418196	1	311578	921286	1418196	1106618	260914	3061	3134	100	721753	2999476	267209
285	2017-05-03 19:24:14	0	0	0	0	0	0	24.06	18.4	0.28	1418294	1	311613	921286	1418294	1106681	260942	3062	3135	100	721753	2999476	267239
286	2017-05-03 19:34:15	0	0	0	0	0	0	24.06	18.4	0.28	1418530	1	311697	921286	1418530	1106833	261013	3062	3135	100	721753	2999476	267310
287	2017-05-03 19:44:17	0	0	0	0	0	0	24.06	18.4	0.28	1418667	1	311739	921286	1418667	1106928	261044	3062	3135	100	721753	2999476	267341
288	2017-05-03 19:54:15	0	0	0	0	0	0	24.06	18.4	0.28	1418780	1	311784	921286	1418780	1106996	261075	3062	3135	100	721753	2999476	267372
289	2017-05-03 20:04:20	0	0	0	0	0	0	24.06	18.4	0.28	1418909	1	311835	921286	1418909	1107074	261098	3062	3135	100	721753	2999476	267395
290	2017-05-03 20:14:18	0	0	0	0	0	0	24.06	18.4	0.28	1418991	1	311864	921492	1418991	1107127	261133	3062	3135	100	721753	2999476	267430
291	2017-05-03 20:24:17	0	0	0	0	0	0	24.06	18.4	0.28	1419104	1	311905	921492	1419104	1107199	261154	3062	3135	100	721753	2999476	267451
292	2017-05-03 20:34:18	0	0	0	0	0	0	24.06	18.4	0.28	1419336	1	311972	922040	1419336	1107364	261226	3062	3135	100	721753	2999476	267523
293	2017-05-03 20:44:19	0	0	0	0	0	0	24.06	18.41	0.28	1419450	1	312012	922040	1419450	1107438	261254	3062	3137	100	721753	2999476	267553
294	2017-05-03 20:54:18	0	0	0	0	0	0	24.06	18.41	0.28	1419545	1	312046	922040	1419545	1107499	261276	3063	3137	100	721753	2999476	267576
295	2017-05-03 21:04:20	0	0	0	0	0	0	24.06	18.41	0.28	1419766	1	312145	922040	1419766	1107621	261334	3065	3137	100	721753	2999476	267636
296	2017-05-03 21:14:22	0	0	0	0	0	0	24.07	18.41	0.28	1419885	1	312191	922693	1419885	1107694	261363	3065	3137	100	721900	2999476	267665
297	2017-05-03 21:24:20	0	0	0	0	0	0	24.07	18.41	0.28	1420118	1	312273	922693	1420118	1107845	261425	3065	3137	100	721900	2999476	267727
298	2017-05-03 21:34:21	0	0	0	0	0	0	24.07	18.41	0.28	1420278	1	312337	922934	1420278	1107941	261456	3065	3139	100	721900	2999476	267760
299	2017-05-03 21:44:21	0	0	0	0	0	0	24.07	18.41	0.28	1420454	1	312403	922934	1420454	1108051	261506	3068	3139	100	721900	2999476	267813
300	2017-05-03 21:54:24	0	0	0	0	0	0	24.07	18.41	0.28	1420611	1	312446	924294	1420611	1108165	261544	3069	3139	100	721900	2999476	267852
301	2017-05-03 22:04:25	0	0	0	0	0	0	24.07	18.41	0.28	1420755	1	312492	924294	1420755	1108263	261586	3069	3141	100	721900	2999476	267896
302	2017-05-03 22:14:27	0	0	0	0	0	0	24.07	18.41	0.28	1420908	1	312540	924294	1420908	1108368	261624	3069	3142	100	721900	2999476	267935
303	2017-05-03 22:24:26	0	0	0	0	0	0	24.07	18.41	0.28	1421190	1	312644	924294	1421190	1108546	261695	3069	3142	100	721900	2999476	268006
304	2017-05-03 22:34:25	0	0	0	0	0	0	24.07	18.41	0.28	1421348	1	312698	924294	1421348	1108650	261738	3070	3142	100	721900	2999476	268050
