1	2017-12-23 14:56:43		0	0	0	0	0	0	0.04	0	0	1283	0	0	1282	1283	1283	0	0	7	2	1280	3494853	0
2	2017-12-23 15:17:38		0	0	0	0	0	0	0.59	0.3	0	23419	0	81	20930	23419	23338	70	0	61	5	20636	3494853	136
3	2017-12-23 15:26:22		0	0	0	0	0	0	0.71	0.35	0	28680	0	141	25343	28680	28539	100	0	76	5	24972	3494855	181
4	2017-12-23 15:38:02		0	0	0	0	0	0	0.81	0.36	0.01	33056	0	194	28822	33056	32862	118	0	89	6	28381	3494852	213
5	2017-12-23 15:48:48		0	0	0	0	0	0	0.88	0.36	0.01	36745	0	235	31249	36745	36510	132	0	97	6	30702	3494851	235
6	2017-12-23 15:59:17		0	0	0	0	0	0	0.94	0.36	0.01	40048	0	307	33513	40048	39741	145	0	102	8	32995	3494853	255
7	2017-12-23 16:15:23		0	0	0	0	0	0	1.08	0.38	0.01	46203	0	428	38343	46203	45775	174	0	109	8	37624	3494852	291
8	2017-12-23 16:28:35		0	0	0	0	0	0	1.11	0.37	0.01	48740	0	519	39942	48740	48221	182	0	115	8	38964	3494849	305
9	2017-12-23 16:38:53		0	0	0	0	0	0	1.16	0.39	0.01	51138	0	598	41392	51138	50540	201	0	121	8	40371	3494849	330
10	2017-12-23 16:49:56		0	0	0	0	0	0	1.22	0.39	0.01	54600	0	705	43669	54600	53895	213	0	124	8	42725	3494849	345
11	2017-12-23 17:08:53		0	0	0	0	0	0	1.27	0.4	0.01	57688	0	790	45406	57688	56898	232	0	134	8	44271	3494852	374
12	2017-12-23 17:18:48		0	0	0	0	0	0	1.29	0.42	0.01	59650	0	860	46400	59650	58790	248	0	138	8	45153	3494854	394
13	2017-12-23 17:35:26		0	0	0	0	0	0	1.36	0.43	0.02	63189	0	965	48962	63189	62224	270	0	143	8	47681	3494851	421
14	2017-12-23 17:45:42		0	0	0	0	0	0	1.39	0.43	0.02	64875	0	1022	49959	64875	63853	281	0	148	8	48614	3494856	437
15	2017-12-23 18:02:21		0	0	0	0	0	0	1.44	0.44	0.02	67432	0	1105	51930	67432	66327	300	0	150	9	50421	3494860	459
16	2017-12-23 18:12:49		0	0	0	0	0	0	1.47	0.45	0.02	68764	0	1163	53114	68764	67601	307	0	153	9	51526	3494859	469
17	2017-12-23 18:24:26		0	0	0	0	0	0	1.49	0.44	0.02	70167	0	1216	53672	70167	68951	312	0	155	10	52107	3494861	477
18	2017-12-23 18:33:47		0	0	0	0	0	0	1.52	0.45	0.02	71504	0	1275	54618	71504	70229	321	0	159	10	52999	3494872	490
19	2017-12-23 18:48:49		0	0	0	0	0	0	1.54	0.44	0.02	73439	0	1362	55686	73439	72077	324	0	162	10	53876	3494878	496
20	2017-12-23 19:20:12		0	0	0	0	0	0	1.63	0.44	0.02	78106	0	1553	58780	78106	76553	347	0	165	10	56875	3494891	522
21	2017-12-23 19:33:39		0	0	0	0	0	0	1.65	0.44	0.02	79344	0	1598	59329	79344	77746	348	0	166	10	57526	3494905	524
22	2017-12-23 19:44:21		0	0	0	0	0	0	1.67	0.44	0.02	80668	0	1631	60094	80668	79037	352	0	170	10	58245	3494911	532
23	2017-12-23 19:59:13		0	0	0	0	0	0	1.7	0.43	0.02	82486	0	1692	61129	82486	80794	357	0	173	10	59467	3494916	540
24	2017-12-23 20:10:40		0	0	0	0	0	0	1.81	0.42	0.02	86373	0	1762	64929	86373	84611	366	0	177	10	63263	3494921	553
25	2017-12-23 20:26:07		0	0	0	0	0	0	1.89	0.42	0.02	89886	0	1814	67975	89886	88072	377	0	182	10	66174	3494929	569
26	2017-12-23 20:37:10		0	0	0	0	0	0	1.95	0.42	0.02	92129	0	1849	69756	92129	90280	383	0	184	11	68087	3494928	578
27	2017-12-23 20:48:56		0	0	0	0	0	0	1.99	0.42	0.02	94344	0	1880	71487	94344	92464	396	0	189	11	69710	3494937	596
28	2017-12-23 21:17:00		0	0	0	0	0	0	2.12	0.41	0.02	100859	0	2003	76120	100859	98856	411	0	197	12	74009	3494948	620
29	2017-12-23 21:26:55		0	0	0	0	0	0	2.16	0.4	0.02	102841	0	2037	77686	102841	100804	412	0	199	13	75349	3494956	624
30	2017-12-23 21:37:25		0	0	0	0	0	0	2.2	0.4	0.02	104649	0	2081	79294	104649	102568	416	0	200	13	76892	3494979	629
31	2017-12-23 21:48:12		0	0	0	0	0	0	2.25	0.39	0.02	106605	0	2117	81240	106605	104488	419	0	204	14	78774	3495003	637
32	2017-12-23 22:02:53		0	0	0	0	0	0	2.33	0.39	0.02	109550	0	2165	83882	109550	107385	430	0	209	14	81340	3495014	653
33	2017-12-23 22:15:57		0	0	0	0	0	0	2.42	0.4	0.02	112590	0	2223	86771	112590	110367	450	0	215	14	84499	3495024	679
34	2017-12-23 22:47:18		0	0	0	0	0	0	2.54	0.4	0.02	118751	0	2337	91388	118751	116414	477	0	229	16	88933	3495056	722
35	2017-12-23 22:56:19		0	0	0	0	0	0	2.59	0.4	0.02	120924	0	2385	92967	120924	118539	486	0	230	16	90427	3495060	732
36	2017-12-23 23:24:09		0	0	0	0	0	0	2.69	0.39	0.02	125843	0	2474	96726	125843	123369	492	0	242	16	94105	3495086	750
37	2017-12-23 23:34:43		0	0	0	0	0	0	2.73	0.39	0.02	127754	0	2514	97895	127754	125240	497	0	244	16	95306	3495092	757
38	2017-12-24 00:23:36		0	0	0	0	0	0	2.89	0.39	0.02	135937	0	2647	103722	135937	133290	525	0	264	16	101109	3495128	805
39	2017-12-24 02:25:27		0	0	0	0	0	0	3.12	0.38	0.02	146552	0	2867	112851	146552	143685	552	0	280	19	109015	3495212	851
40	2017-12-24 04:18:37		0	0	0	0	0	0	3.2	0.38	0.02	150553	0	2914	116305	150553	147639	565	0	287	20	111854	3495229	872
41	2017-12-24 05:53:20		0	0	0	0	0	0	3.25	0.38	0.02	152551	0	2942	117913	152551	149609	574	0	292	20	113573	3495232	886
42	2017-12-24 06:55:52		0	0	0	0	0	0	3.3	0.38	0.02	154402	0	2980	119940	154402	151422	581	0	297	20	115453	3495240	898
43	2017-12-24 07:34:55		0	0	0	0	0	0	3.32	0.37	0.02	155742	0	3005	120618	155742	152737	582	0	299	20	116080	3495249	901
44	2017-12-24 08:08:08		0	0	0	0	0	0	3.38	0.37	0.02	158431	0	3062	122575	158431	155369	593	0	301	20	118144	3495261	914
45	2017-12-24 08:35:20		0	0	0	0	0	0	3.43	0.37	0.02	160791	0	3107	124557	160791	157684	600	0	306	21	119984	3495270	927
46	2017-12-24 08:45:01		0	0	0	0	0	0	3.45	0.37	0.02	161817	0	3124	125156	161817	158693	606	0	307	21	120540	3495280	934
47	2017-12-24 09:00:34		0	0	0	0	0	0	3.5	0.37	0.02	163385	0	3147	126811	163385	160238	609	0	310	21	122229	3495295	940
48	2017-12-24 09:26:10		0	0	0	0	0	0	3.55	0.37	0.02	166747	0	3194	129074	166747	163553	623	0	316	22	124249	3495324	961
49	2017-12-24 09:40:51		0	0	0	0	0	0	3.57	0.37	0.02	167831	0	3218	129744	167831	164613	626	0	321	22	124831	3495333	969
50	2017-12-24 10:11:17		0	0	0	0	0	0	3.65	0.37	0.02	171113	0	3299	132391	171113	167829	637	0	325	23	127551	3495355	985
51	2017-12-24 10:29:14		0	0	0	0	0	0	3.68	0.37	0.02	172712	0	3316	133554	172712	169396	638	0	330	24	128630	3495367	992
52	2017-12-24 11:16:31		0	0	0	0	0	0	3.82	0.37	0.02	178343	0	3467	138813	178343	174876	658	0	338	26	133525	3495401	1022
53	2017-12-24 12:14:55		0	0	0	0	0	0	3.91	0.37	0.02	181648	0	3598	142395	181648	178050	671	0	343	26	136618	3495439	1040
54	2017-12-24 12:35:32		0	0	0	0	0	0	3.92	0.37	0.02	182432	0	3644	142877	182432	178788	674	0	344	26	137062	3495446	1044
55	2017-12-24 15:21:07		0	0	0	0	0	0	4.06	0.37	0.02	190204	0	4039	147668	190204	186165	696	0	361	27	141932	3495538	1084
56	2017-12-24 15:34:00		0	0	0	0	0	0	4.06	0.37	0.02	190438	0	4069	147851	190438	186369	697	0	361	27	141945	3495537	1085
57	2017-12-24 15:49:22		0	0	0	0	0	0	4.07	0.37	0.02	190714	0	4110	148233	190714	186604	700	0	362	27	142297	3495540	1089
58	2017-12-24 16:56:56		0	0	0	0	0	0	4.12	0.37	0.02	191940	0	4271	149728	191940	187669	706	0	367	28	144048	3495563	1101
59	2017-12-24 17:07:46		0	0	0	0	0	0	4.12	0.37	0.02	192180	0	4300	149728	192180	187880	706	0	367	28	144048	3495558	1101
60	2017-12-24 17:19:25		0	0	0	0	0	0	4.13	0.37	0.02	192314	0	4310	149945	192314	188004	707	0	367	28	144249	3495557	1102
61	2017-12-24 18:31:56		0	0	0	0	0	0	4.14	0.37	0.02	193373	0	4428	150342	193373	188945	710	0	368	28	144571	3495576	1106
62	2017-12-24 18:45:00		0	0	0	0	0	0	4.14	0.37	0.02	193624	0	4450	150576	193624	189174	710	0	369	28	144787	3495587	1107
63	2017-12-24 18:54:34		0	0	0	0	0	0	4.14	0.37	0.02	193754	0	4462	150576	193754	189292	710	0	369	28	144787	3495594	1107
64	2017-12-24 19:59:53		0	0	0	0	0	0	4.17	0.37	0.02	194673	0	4529	151668	194673	190144	713	0	373	28	145796	3495615	1114
65	2017-12-25 00:01:20		0	0	0	0	0	0	4.2	0.37	0.02	197116	0	4704	152971	197116	192414	724	0	374	29	146833	3495684	1127
66	2017-12-25 01:06:15		0	0	0	0	0	0	4.2	0.37	0.02	197722	0	4752	153092	197722	192972	728	0	374	29	146945	3495726	1131
67	2017-12-25 02:11:15		0	0	0	0	0	0	4.22	0.37	0.02	198306	0	4804	153687	198306	193502	730	0	374	29	147380	3495776	1133
68	2017-12-25 03:16:15		0	0	0	0	0	0	4.23	0.37	0.02	198755	0	4833	154123	198755	193922	731	0	375	29	147781	3495804	1135
69	2017-12-25 04:21:15		0	0	0	0	0	0	4.24	0.37	0.02	199007	0	4853	154431	199007	194154	732	0	376	29	148064	3495819	1137
70	2017-12-25 05:26:16		0	0	0	0	0	0	4.24	0.37	0.03	199138	0	4864	154431	199138	194274	732	0	376	29	148064	3495821	1137
71	2017-12-25 06:31:15		0	0	0	0	0	0	4.24	0.37	0.03	199200	0	4867	154431	199200	194333	732	0	376	29	148064	3495817	1137
72	2017-12-25 07:06:47		0	0	0	0	0	0	4.26	0.37	0.03	199236	0	4869	154801	199236	194368	732	0	376	29	148861	3495818	1137
73	2017-12-25 07:17:16		0	0	0	0	0	0	4.26	0.37	0.03	199251	0	4869	154801	199251	194382	732	0	376	29	148861	3495817	1137
74	2017-12-25 07:27:46		0	0	0	0	0	0	4.26	0.37	0.03	199262	0	4869	154801	199262	194393	732	0	376	29	148861	3495819	1137
75	2017-12-25 07:38:16		0	0	0	0	0	0	4.26	0.37	0.03	199271	0	4870	154801	199271	194401	732	0	376	29	148861	3495820	1137
76	2017-12-25 07:48:46		0	0	0	0	0	0	4.26	0.37	0.03	199289	0	4872	154801	199289	194417	732	0	376	29	148861	3495818	1137
77	2017-12-25 07:59:15		0	0	0	0	0	0	4.26	0.37	0.03	199308	0	4873	154801	199308	194435	732	0	376	29	148861	3495818	1137
78	2017-12-25 08:09:46		0	0	0	0	0	0	4.26	0.37	0.03	199341	0	4876	154801	199341	194465	732	0	376	29	148861	3495820	1137
79	2017-12-25 08:20:16		0	0	0	0	0	0	4.26	0.37	0.03	199358	0	4878	154801	199358	194480	732	0	376	29	148861	3495819	1137
80	2017-12-25 08:30:47		0	0	0	0	0	0	4.26	0.37	0.03	199384	0	4881	154801	199384	194503	732	0	376	29	148861	3495817	1137
81	2017-12-25 08:41:17		0	0	0	0	0	0	4.26	0.37	0.03	199408	0	4883	154801	199408	194525	732	0	376	29	148861	3495812	1137
82	2017-12-25 08:51:48		0	0	0	0	0	0	4.26	0.37	0.03	199427	0	4883	154801	199427	194544	732	0	376	29	148861	3495807	1137
83	2017-12-25 09:02:17		0	0	0	0	0	0	4.26	0.37	0.03	199479	0	4889	154801	199479	194590	733	0	376	29	148861	3495803	1138
84	2017-12-25 09:12:47		0	0	0	0	0	0	4.26	0.37	0.03	199509	0	4892	154801	199509	194617	733	0	376	29	148861	3495804	1138
85	2017-12-25 09:23:18		0	0	0	0	0	0	4.26	0.37	0.03	199544	0	4894	154801	199544	194650	733	0	376	29	148861	3495805	1138
86	2017-12-25 09:33:48		0	0	0	0	0	0	4.26	0.37	0.03	199584	0	4895	154801	199584	194689	734	0	376	29	148918	3495799	1139
87	2017-12-25 09:44:18		0	0	0	0	0	0	4.26	0.37	0.03	199620	0	4902	154801	199620	194718	734	0	376	29	148918	3495801	1139
88	2017-12-25 09:54:47		0	0	0	0	0	0	4.26	0.37	0.03	199656	0	4909	154894	199656	194747	734	0	376	29	149004	3495804	1139
89	2017-12-25 10:05:17		0	0	0	0	0	0	4.26	0.37	0.03	199692	0	4912	154894	199692	194780	734	0	376	29	149004	3495804	1139
90	2017-12-25 10:15:48		0	0	0	0	0	0	4.26	0.37	0.03	199729	0	4917	154987	199729	194812	734	0	376	29	149090	3495802	1139
91	2017-12-25 10:26:18		0	0	0	0	0	0	4.26	0.37	0.03	199771	0	4920	154987	199771	194851	734	0	376	29	149090	3495802	1139
92	2017-12-25 10:36:47		0	0	0	0	0	0	4.26	0.37	0.03	199815	0	4921	154987	199815	194894	734	0	376	29	149090	3495800	1139
93	2017-12-25 10:47:18		0	0	0	0	0	0	4.26	0.37	0.03	199850	0	4926	154987	199850	194940	735	0	376	29	149090	3495807	1140
94	2017-12-25 10:57:51		0	0	0	0	0	0	4.26	0.37	0.03	199913	0	4932	154987	199913	194981	735	0	376	29	149090	3495809	1140
95	2017-12-25 11:08:20		0	0	0	0	0	0	4.26	0.37	0.03	199957	0	4937	154987	199957	195020	735	0	376	29	149090	3495808	1140
96	2017-12-25 11:18:48		0	0	0	0	0	0	4.26	0.37	0.03	199995	0	4942	154987	199995	195053	735	0	377	29	149090	3495810	1141
97	2017-12-25 11:29:19		0	0	0	0	0	0	4.26	0.37	0.03	200041	0	4945	154987	200041	195096	735	0	377	29	149090	3495813	1141
98	2017-12-25 11:39:48		0	0	0	0	0	0	4.27	0.37	0.03	200074	0	4947	155236	200074	195127	735	0	377	29	149320	3495816	1141
99	2017-12-25 11:50:18		0	0	0	0	0	0	4.27	0.37	0.03	200118	0	4952	155236	200118	195166	735	0	377	29	149320	3495813	1141
100	2017-12-25 12:00:49		0	0	0	0	0	0	4.27	0.37	0.03	200172	0	4957	155236	200172	195215	735	0	377	29	149320	3495817	1141
101	2017-12-25 12:11:19		0	0	0	0	0	0	4.28	0.37	0.03	200214	0	4961	155423	200214	195253	735	0	377	29	149493	3495821	1141
102	2017-12-25 12:21:50		0	0	0	0	0	0	4.28	0.37	0.03	200251	0	4963	155423	200251	195288	735	0	377	29	149493	3495824	1141
103	2017-12-25 12:32:19		0	0	0	0	0	0	4.28	0.37	0.03	200302	0	4967	155423	200302	195335	735	0	377	29	149493	3495826	1141
104	2017-12-25 12:42:51		0	0	0	0	0	0	4.28	0.37	0.03	200346	0	4971	155423	200346	195375	735	0	377	29	149493	3495831	1141
105	2017-12-25 12:53:21		0	0	0	0	0	0	4.28	0.37	0.03	200382	0	4973	155423	200382	195409	735	0	377	29	149493	3495835	1141
106	2017-12-25 13:03:53		0	0	0	0	0	0	4.28	0.37	0.03	200424	0	4979	155423	200424	195445	735	0	378	29	149493	3495831	1142
107	2017-12-25 13:14:21		0	0	0	0	0	0	4.28	0.37	0.03	200466	0	4983	155423	200466	195483	736	0	379	29	149493	3495830	1144
108	2017-12-25 13:24:51		0	0	0	0	0	0	4.28	0.37	0.03	200505	0	4986	155423	200505	195519	736	0	379	29	149493	3495832	1144
109	2017-12-25 13:35:21		0	0	0	0	0	0	4.28	0.37	0.03	200531	0	4986	155423	200531	195545	736	0	379	29	149493	3495841	1144
110	2017-12-25 13:45:53		0	0	0	0	0	0	4.28	0.37	0.03	200563	0	4989	155423	200563	195574	736	0	379	29	149493	3495843	1144
111	2017-12-25 13:56:21		0	0	0	0	0	0	4.28	0.37	0.03	200605	0	4994	155485	200605	195611	737	0	379	29	149551	3495852	1145
112	2017-12-25 14:06:51		0	0	0	0	0	0	4.28	0.37	0.03	200635	0	5000	155485	200635	195635	737	0	379	29	149551	3495856	1145
113	2017-12-25 14:17:21		0	0	0	0	0	0	4.28	0.37	0.03	200671	0	5001	155485	200671	195670	738	0	379	29	149551	3495853	1146
114	2017-12-25 14:27:53		0	0	0	0	0	0	4.28	0.37	0.03	200701	0	5003	155485	200701	195698	738	0	379	29	149551	3495861	1146
115	2017-12-25 14:38:23		0	0	0	0	0	0	4.28	0.37	0.03	200731	0	5005	155485	200731	195726	738	0	379	29	149551	3495864	1146
116	2017-12-25 14:48:53		0	0	0	0	0	0	4.28	0.37	0.03	200761	0	5007	155485	200761	195754	738	0	379	29	149551	3495865	1146
117	2017-12-25 14:59:22		0	0	0	0	0	0	4.28	0.37	0.03	200805	0	5009	155485	200805	195796	738	0	379	29	149551	3495873	1146
118	2017-12-25 15:09:55		0	0	0	0	0	0	4.28	0.37	0.03	200846	0	5012	155485	200846	195834	738	0	379	29	149551	3495886	1146
119	2017-12-25 15:20:22		0	0	0	0	0	0	4.28	0.37	0.03	200879	0	5014	155485	200879	195865	738	0	379	29	149551	3495894	1146
120	2017-12-25 15:30:53		0	0	0	0	0	0	4.28	0.37	0.03	200916	0	5016	155532	200916	195900	738	0	379	29	149594	3495903	1146
121	2017-12-25 15:41:23		0	0	0	0	0	0	4.28	0.37	0.03	200939	0	5017	155532	200939	195922	738	0	379	29	149594	3495908	1146
122	2017-12-25 15:51:58		0	0	0	0	0	0	4.28	0.37	0.03	200975	0	5018	155532	200975	195957	738	0	379	29	149594	3495908	1146
123	2017-12-25 16:02:27		0	0	0	0	0	0	4.28	0.37	0.03	201009	0	5021	155532	201009	195988	738	0	379	29	149594	3495907	1146
124	2017-12-25 16:12:57		0	0	0	0	0	0	4.28	0.37	0.03	201047	0	5023	155563	201047	196024	738	0	379	29	149623	3495914	1146
125	2017-12-25 16:23:29		0	0	0	0	0	0	4.28	0.37	0.03	201080	0	5030	155563	201080	196050	738	0	379	29	149623	3495913	1146
126	2017-12-25 16:33:56		0	0	0	0	0	0	4.28	0.37	0.03	201109	0	5032	155563	201109	196077	738	0	379	29	149623	3495922	1146
127	2017-12-25 16:44:28		0	0	0	0	0	0	4.28	0.37	0.03	201138	0	5033	155563	201138	196105	738	0	379	29	149623	3495929	1146
128	2017-12-25 16:54:57		0	0	0	0	0	0	4.28	0.37	0.03	201163	0	5033	155563	201163	196130	738	0	379	29	149623	3495931	1146
129	2017-12-25 17:05:34		0	0	0	0	0	0	4.28	0.37	0.03	201195	0	5035	155563	201195	196160	738	0	379	29	149623	3495933	1146
130	2017-12-25 17:15:57		0	0	0	0	0	0	4.28	0.37	0.03	201223	0	5036	155563	201223	196187	738	0	379	29	149623	3495946	1146
131	2017-12-25 17:26:25		0	0	0	0	0	0	4.28	0.37	0.03	201252	0	5037	155563	201252	196215	738	0	379	29	149623	3495946	1146
132	2017-12-25 17:37:01		0	0	0	0	0	0	4.28	0.37	0.03	201277	0	5039	155563	201277	196238	738	0	379	29	149623	3495954	1146
133	2017-12-25 17:47:30		0	0	0	0	0	0	4.28	0.37	0.03	201315	0	5040	155563	201315	196275	738	0	379	29	149623	3495963	1146
134	2017-12-25 17:58:06		0	0	0	0	0	0	4.28	0.37	0.03	201371	0	5044	155563	201371	196327	738	0	379	29	149623	3495966	1146
135	2017-12-25 18:08:43		0	0	0	0	0	0	4.28	0.37	0.03	201402	0	5047	155563	201402	196355	738	0	379	29	149623	3495970	1146
136	2017-12-25 18:19:00		0	0	0	0	0	0	4.28	0.37	0.03	201439	0	5051	155563	201439	196388	738	0	379	29	149623	3495975	1146
137	2017-12-25 18:29:30		0	0	0	0	0	0	4.28	0.37	0.03	201475	0	5053	155689	201475	196422	740	0	379	29	149739	3495976	1148
138	2017-12-25 18:40:27		0	0	0	0	0	0	4.28	0.37	0.03	201525	0	5054	155689	201525	196471	740	0	379	29	149739	3495982	1148
139	2017-12-25 18:50:44		0	0	0	0	0	0	4.28	0.37	0.03	201556	0	5055	155783	201556	196501	741	0	379	29	149739	3495991	1149
140	2017-12-25 19:01:09		0	0	0	0	0	0	4.28	0.37	0.03	201595	0	5060	155783	201595	196535	741	0	379	29	149739	3495999	1149
141	2017-12-25 19:12:03		0	0	0	0	0	0	4.28	0.37	0.03	201635	0	5063	155783	201635	196572	741	0	379	29	149739	3495999	1149
142	2017-12-25 19:22:12		0	0	0	0	0	0	4.28	0.37	0.03	201668	0	5064	155814	201668	196604	741	0	379	29	149768	3496011	1149
143	2017-12-25 19:32:42		0	0	0	0	0	0	4.28	0.37	0.03	201716	0	5070	155814	201716	196646	741	0	380	29	149768	3496020	1150
144	2017-12-25 19:43:24		0	0	0	0	0	0	4.28	0.37	0.03	201773	0	5075	155814	201773	196698	741	0	380	29	149768	3496028	1150
145	2017-12-25 19:53:52		0	0	0	0	0	0	4.29	0.37	0.03	201817	0	5078	155939	201817	196739	741	0	380	29	149884	3496032	1150
146	2017-12-25 20:04:18		0	0	0	0	0	0	4.29	0.37	0.03	201851	0	5081	155939	201851	196770	742	0	381	29	149884	3496041	1152
147	2017-12-25 20:14:45		0	0	0	0	0	0	4.29	0.37	0.03	201888	0	5086	155939	201888	196802	743	0	382	29	149884	3496055	1154
148	2017-12-25 20:25:16		0	0	0	0	0	0	4.29	0.37	0.03	201923	0	5088	155939	201923	196835	743	0	382	29	149884	3496065	1154
149	2017-12-25 20:35:57		0	0	0	0	0	0	4.29	0.37	0.03	201967	0	5096	155939	201967	196871	743	0	382	29	149884	3496062	1154
150	2017-12-25 20:46:20		0	0	0	0	0	0	4.29	0.37	0.03	202018	0	5103	155939	202018	196915	743	0	382	29	149884	3496064	1154
151	2017-12-25 20:56:48		0	0	0	0	0	0	4.29	0.37	0.03	202054	0	5108	156065	202054	196946	743	0	382	29	150000	3496076	1154
152	2017-12-25 21:07:20		0	0	0	0	0	0	4.29	0.37	0.03	202092	0	5111	156065	202092	196981	744	0	382	29	150000	3496086	1155
153	2017-12-25 21:18:41		0	0	0	0	0	0	4.29	0.37	0.03	202146	0	5114	156065	202146	197032	744	0	382	29	150000	3496091	1155
154	2017-12-25 21:31:26		0	0	0	0	0	0	4.29	0.37	0.03	202186	0	5119	156065	202186	197067	744	0	382	29	150000	3496104	1155
155	2017-12-25 21:40:04		0	0	0	0	0	0	4.29	0.37	0.03	202222	0	5122	156065	202222	197100	744	0	382	29	150000	3496114	1155
156	2017-12-25 21:50:19		0	0	0	0	0	0	4.3	0.37	0.03	202256	0	5125	156317	202256	197131	744	0	382	29	150233	3496118	1155
157	2017-12-25 22:00:48		0	0	0	0	0	0	4.3	0.37	0.03	202304	0	5136	156317	202304	197168	744	0	383	29	150233	3496131	1156
158	2017-12-25 22:11:17		0	0	0	0	0	0	4.3	0.37	0.03	202352	0	5140	156317	202352	197212	744	0	384	29	150233	3496134	1157
159	2017-12-25 22:24:07		0	0	0	0	0	0	4.3	0.37	0.03	202416	0	5147	156317	202416	197269	746	0	384	29	150233	3496156	1159
160	2017-12-25 22:33:50		0	0	0	0	0	0	4.3	0.37	0.03	202457	0	5151	156317	202457	197306	747	0	384	29	150233	3496172	1160
161	2017-12-25 22:44:22		0	0	0	0	0	0	4.3	0.37	0.03	202501	0	5160	156349	202501	197341	747	0	384	29	150262	3496183	1160
162	2017-12-25 22:54:51		0	0	0	0	0	0	4.3	0.37	0.03	202531	0	5163	156349	202531	197368	747	0	384	29	150262	3496194	1160
163	2017-12-25 23:05:21		0	0	0	0	0	0	4.3	0.37	0.03	202576	0	5168	156373	202576	197408	747	0	384	29	150284	3496203	1160
164	2017-12-25 23:16:16		0	0	0	0	0	0	4.3	0.37	0.03	202608	0	5173	156373	202608	197435	747	0	384	29	150284	3496220	1160
165	2017-12-25 23:28:49		0	0	0	0	0	0	4.3	0.37	0.03	202658	0	5178	156373	202658	197480	747	0	384	29	150284	3496233	1160
166	2017-12-25 23:39:55		0	0	0	0	0	0	4.3	0.37	0.03	202683	0	5178	156373	202683	197505	747	0	384	29	150284	3496250	1160
167	2017-12-25 23:49:36		0	0	0	0	0	0	4.3	0.37	0.03	202720	0	5180	156373	202720	197540	747	0	384	29	150284	3496260	1160
168	2017-12-26 00:00:08		0	0	0	0	0	0	4.3	0.37	0.03	202755	0	5185	156373	202755	197570	747	0	384	29	150284	3496270	1160
169	2017-12-26 00:53:04		0	0	0	0	0	0	4.3	0.37	0.03	202884	0	5197	156373	202884	197687	747	0	384	29	150284	3496313	1160
170	2017-12-26 01:57:49		0	0	0	0	0	0	4.3	0.37	0.03	202969	0	5201	156373	202969	197768	748	0	384	29	150284	3496330	1161
171	2017-12-26 03:02:41		0	0	0	0	0	0	4.3	0.37	0.03	203031	0	5207	156373	203031	197824	748	0	384	29	150284	3496348	1161
172	2017-12-26 04:08:22		0	0	0	0	0	0	4.3	0.37	0.03	203070	0	5212	156373	203070	197858	750	0	384	29	150284	3496348	1163
173	2017-12-26 05:12:46		0	0	0	0	0	0	4.3	0.37	0.03	203092	0	5215	156373	203092	197877	750	0	384	29	150284	3496342	1163
174	2017-12-26 06:18:05		0	0	0	0	0	0	4.3	0.37	0.03	203120	0	5216	156373	203120	197904	750	0	384	29	150284	3496339	1163
175	2017-12-26 07:05:51		0	0	0	0	0	0	4.3	0.37	0.03	203152	0	5218	156373	203152	197934	750	0	384	29	150284	3496341	1163
176	2017-12-26 07:16:17		0	0	0	0	0	0	4.3	0.37	0.03	203162	0	5218	156373	203162	197944	750	0	384	29	150284	3496341	1163
177	2017-12-26 07:26:48		0	0	0	0	0	0	4.3	0.37	0.03	203173	0	5218	156373	203173	197955	750	0	384	29	150284	3496342	1163
178	2017-12-26 07:38:16		0	0	0	0	0	0	4.3	0.37	0.03	203194	0	5218	156373	203194	197976	750	0	384	29	150284	3496342	1163
179	2017-12-26 07:48:04		0	0	0	0	0	0	4.3	0.37	0.03	203210	0	5218	156373	203210	197992	750	0	384	29	150284	3496347	1163
180	2017-12-26 07:59:47		0	0	0	0	0	0	4.3	0.37	0.03	203225	0	5218	156373	203225	198007	750	0	384	29	150284	3496351	1163
181	2017-12-26 08:10:38		0	0	0	0	0	0	4.3	0.37	0.03	203254	0	5218	156373	203254	198036	750	0	384	29	150284	3496353	1163
182	2017-12-26 08:22:49		0	0	0	0	0	0	4.3	0.37	0.03	203270	0	5218	156373	203270	198052	750	0	384	29	150284	3496360	1163
183	2017-12-26 08:31:49		0	0	0	0	0	0	4.3	0.37	0.03	203283	0	5219	156373	203283	198064	750	0	384	29	150284	3496360	1163
184	2017-12-26 08:43:02		0	0	0	0	0	0	4.3	0.37	0.03	203302	0	5222	156373	203302	198080	750	0	384	29	150284	3496355	1163
185	2017-12-26 08:54:03		0	0	0	0	0	0	4.3	0.37	0.03	203317	0	5222	156373	203317	198095	750	0	384	29	150284	3496350	1163
186	2017-12-26 09:08:44		0	0	0	0	0	0	4.3	0.37	0.03	203345	0	5226	156373	203345	198119	750	0	385	29	150284	3496352	1164
187	2017-12-26 09:18:25		0	0	0	0	0	0	4.3	0.37	0.03	203369	0	5228	156373	203369	198141	750	0	385	29	150284	3496354	1164
188	2017-12-26 09:34:16		0	0	0	0	0	0	4.3	0.37	0.03	203401	0	5229	156432	203401	198172	750	0	385	29	150339	3496362	1164
189	2017-12-26 09:44:09		0	0	0	0	0	0	4.3	0.37	0.03	203424	0	5232	156432	203424	198204	750	0	385	29	150339	3496357	1164
190	2017-12-26 09:55:04		0	0	0	0	0	0	4.3	0.37	0.03	203460	0	5234	156432	203460	198226	750	0	385	29	150339	3496356	1164
191	2017-12-26 10:05:07		0	0	0	0	0	0	4.3	0.37	0.03	203482	0	5237	156432	203482	198245	750	0	385	29	150339	3496353	1164
192	2017-12-26 10:16:56		0	0	0	0	0	0	4.3	0.37	0.03	203500	0	5238	156432	203500	198262	750	0	385	29	150339	3496354	1164
193	2017-12-26 10:26:56		0	0	0	0	0	0	4.3	0.37	0.03	203525	0	5239	156432	203525	198286	750	0	385	29	150339	3496347	1164
194	2017-12-26 10:37:20		0	0	0	0	0	0	4.3	0.37	0.03	203551	0	5239	156432	203551	198312	751	0	385	29	150339	3496345	1165
195	2017-12-26 10:49:03		0	0	0	0	0	0	4.3	0.37	0.03	203582	0	5244	156432	203582	198338	751	0	385	29	150339	3496343	1165
196	2017-12-26 11:01:29		0	0	0	0	0	0	4.3	0.37	0.03	203607	0	5245	156432	203607	198362	751	0	385	29	150339	3496343	1165
197	2017-12-26 11:14:36		0	0	0	0	0	0	4.3	0.37	0.03	203625	0	5247	156432	203625	198378	751	0	386	29	150339	3496341	1166
198	2017-12-26 11:28:36		0	0	0	0	0	0	4.3	0.37	0.03	203654	0	5248	156432	203654	198406	752	0	386	29	150339	3496336	1167
199	2017-12-26 11:39:17		0	0	0	0	0	0	4.3	0.37	0.03	203673	0	5250	156432	203673	198424	752	0	386	29	150339	3496335	1167
200	2017-12-26 11:51:13		0	0	0	0	0	0	4.3	0.37	0.03	203698	0	5251	156432	203698	198447	752	0	386	29	150339	3496334	1167
201	2017-12-26 12:02:09		0	0	0	0	0	0	4.3	0.37	0.03	203725	0	5251	156432	203725	198474	752	0	386	29	150339	3496327	1167
202	2017-12-26 12:20:24		0	0	0	0	0	0	4.3	0.37	0.03	203767	0	5255	156432	203767	198512	752	0	386	29	150339	3496323	1167
203	2017-12-26 12:33:33		0	0	0	0	0	0	4.3	0.37	0.03	203780	0	5256	156432	203780	198524	752	0	386	29	150339	3496319	1167
204	2017-12-26 12:44:54		0	0	0	0	0	0	4.3	0.37	0.03	203803	0	5260	156432	203803	198543	752	0	386	29	150339	3496315	1167
205	2017-12-26 13:03:16		0	0	0	0	0	0	4.3	0.37	0.03	203833	0	5261	156432	203833	198572	752	0	386	29	150339	3496321	1167
206	2017-12-26 13:12:50		0	0	0	0	0	0	4.3	0.37	0.03	203845	0	5263	156432	203845	198582	752	0	386	29	150339	3496325	1167
207	2017-12-26 13:26:17		0	0	0	0	0	0	4.3	0.37	0.03	203862	0	5264	156432	203862	198598	752	0	386	29	150339	3496322	1167
208	2017-12-26 13:45:44		0	0	0	0	0	0	4.3	0.37	0.03	203907	0	5269	156432	203907	198638	752	0	386	29	150339	3496318	1167
209	2017-12-26 13:56:35		0	0	0	0	0	0	4.3	0.37	0.03	203929	0	5273	156432	203929	198656	752	0	386	29	150339	3496319	1167
210	2017-12-26 14:08:38		0	0	0	0	0	0	4.3	0.37	0.03	203945	0	5275	156432	203945	198670	753	0	387	29	150339	3496318	1169
211	2017-12-26 14:18:38		0	0	0	0	0	0	4.3	0.37	0.03	203955	0	5276	156432	203955	198679	753	0	387	29	150339	3496316	1169
212	2017-12-26 14:34:28		0	0	0	0	0	0	4.3	0.37	0.03	203967	0	5276	156432	203967	198691	753	0	387	29	150339	3496310	1169
213	2017-12-26 14:50:28		0	0	0	0	0	0	4.3	0.37	0.03	204003	0	5279	156432	204003	198724	753	0	387	29	150339	3496317	1169
