1	2016-04-20 19:00:15	0	0	0	0	0	0	0.03	0	0	543	0	0	527	543	543	0	0	0	0	526	1761688	0
2	2016-04-20 19:10:08	0	0	0	0	0	0	1.33	0.34	0.01	28020	0	361	23787	28020	27659	94	20	203	11	23483	1761716	328
3	2016-04-20 19:20:06	0	0	0	0	0	0	1.64	0.39	0.02	35661	0	632	29342	35661	35029	139	27	279	16	28829	1761725	461
4	2016-04-20 19:30:15	0	0	0	0	0	0	2.06	0.42	0.03	45861	0	1144	37380	45861	44717	192	36	372	21	36299	1761750	621
5	2016-04-20 19:40:09	0	0	0	0	0	0	2.23	0.4	0.03	49917	0	1344	40664	49917	48573	201	37	407	24	39214	1761760	669
6	2016-04-20 19:50:07	0	0	0	0	0	0	2.45	0.42	0.03	56402	0	1743	44658	56402	54659	238	42	454	26	43163	1761779	760
7	2016-04-20 20:00:16	0	0	0	0	0	0	2.57	0.43	0.03	59928	0	1977	47039	59928	57951	255	43	484	29	45352	1761799	811
8	2016-04-20 20:10:07	0	0	0	0	0	0	2.77	0.43	0.04	65231	0	2350	50803	65231	62881	279	46	528	30	48806	1761816	883
9	2016-04-20 20:20:16	0	0	0	0	0	0	2.83	0.43	0.04	67437	0	2509	52020	67437	64928	289	47	536	30	49890	1761831	902
10	2016-04-20 20:30:18	0	0	0	0	0	0	2.98	0.45	0.04	72454	0	2855	54805	72454	69599	324	50	580	34	52536	1761849	988
11	2016-04-20 20:40:07	0	0	0	0	0	0	3.1	0.45	0.04	76299	0	3123	57125	76299	73176	340	51	600	34	54578	1761866	1025
12	2016-04-20 20:50:16	0	0	0	0	0	0	3.16	0.46	0.04	78124	0	3253	58278	78124	74871	358	52	612	35	55726	1761909	1057
13	2016-04-20 21:00:16	0	0	0	0	0	0	3.29	0.46	0.04	82316	0	3536	60701	82316	78780	379	55	638	35	57952	1761945	1107
14	2016-04-20 21:10:18	0	0	0	0	0	0	3.33	0.46	0.05	84109	0	3664	61380	84109	80445	387	56	649	36	58642	1761968	1128
15	2016-04-20 21:20:18	0	0	0	0	0	0	3.46	0.46	0.05	87855	0	3906	64012	87855	83949	404	56	667	40	60944	1761996	1167
16	2016-04-20 21:30:16	0	0	0	0	0	0	3.55	0.46	0.05	89570	0	4039	65950	89570	85531	414	56	673	41	62587	1762028	1184
17	2016-04-20 21:40:07	0	0	0	0	0	0	3.61	0.45	0.05	91460	0	4136	67072	91460	87324	415	56	689	44	63608	1762065	1204
18	2016-04-20 21:50:08	0	0	0	0	0	0	3.74	0.46	0.05	95484	0	4434	69862	95484	91050	437	57	717	45	65934	1762099	1256
19	2016-04-20 22:00:17	0	0	0	0	0	0	3.8	0.46	0.05	97535	0	4563	70917	97535	92972	447	57	726	51	66941	1762118	1281
20	2016-04-20 22:10:08	0	0	0	0	0	0	3.94	0.46	0.05	101000	0	4837	73902	101000	96163	463	59	748	52	69447	1762151	1322
21	2016-04-20 22:20:08	0	0	0	0	0	0	3.99	0.45	0.05	102428	0	4941	74599	102428	97487	465	61	756	53	70368	1762186	1335
22	2016-04-20 22:30:08	0	0	0	0	0	0	4.1	0.45	0.05	105633	0	5168	76678	105633	100465	471	61	778	53	72167	1762230	1363
23	2016-04-20 22:40:08	0	0	0	0	0	0	4.19	0.44	0.05	108436	0	5358	78336	108436	103078	480	61	806	54	73856	1762253	1401
24	2016-04-20 22:50:08	0	0	0	0	0	0	4.26	0.44	0.05	110084	0	5489	79695	110084	104595	483	61	812	54	75080	1762277	1410
25	2016-04-20 23:00:16	0	0	0	0	0	0	4.32	0.44	0.05	111740	0	5602	80683	111740	106138	489	61	825	55	76054	1762309	1430
26	2016-04-20 23:10:08	0	0	0	0	0	0	4.43	0.44	0.05	114619	0	5795	82488	114619	108824	500	61	844	55	78047	1762333	1460
27	2016-04-20 23:20:16	0	0	0	0	0	0	4.52	0.43	0.05	117064	0	5941	83830	117064	111123	509	61	865	55	79589	1762369	1490
28	2016-04-20 23:30:08	0	0	0	0	0	0	4.57	0.43	0.05	118319	0	6007	84813	118319	112312	513	62	877	55	80508	1762399	1507
29	2016-04-20 23:40:16	0	0	0	0	0	0	4.69	0.43	0.05	120864	0	6176	86978	120864	114688	521	63	894	55	82659	1762426	1533
30	2016-04-20 23:50:17	0	0	0	0	0	0	4.72	0.43	0.05	121912	0	6236	87653	121912	115676	524	63	900	55	83268	1762453	1542
31	2016-04-21 00:00:08	0	0	0	0	0	0	4.81	0.43	0.05	124001	0	6364	89249	124001	117637	533	63	913	55	84699	1762476	1564
32	2016-04-21 00:10:17	0	0	0	0	0	0	4.85	0.43	0.05	125063	0	6443	90072	125063	118620	534	64	922	55	85567	1762499	1575
33	2016-04-21 00:20:08	0	0	0	0	0	0	4.89	0.43	0.05	126797	0	6539	90793	126797	120258	539	64	932	55	86160	1762508	1590
34	2016-04-21 00:30:17	0	0	0	0	0	0	4.92	0.42	0.05	128323	0	6621	91488	128323	121702	543	64	944	57	86727	1762519	1608
35	2016-04-21 00:40:08	0	0	0	0	0	0	4.95	0.42	0.05	129009	0	6663	92081	129009	122346	544	66	951	57	87191	1762530	1618
36	2016-04-21 00:50:08	0	0	0	0	0	0	4.98	0.42	0.05	130373	0	6740	92715	130373	123633	545	67	960	58	87722	1762547	1630
37	2016-04-21 01:00:08	0	0	0	0	0	0	5	0.42	0.05	130860	0	6770	93195	130860	124090	547	67	961	58	88152	1762556	1633
38	2016-04-21 01:10:16	0	0	0	0	0	0	5.03	0.42	0.05	132003	0	6835	93607	132003	125168	553	67	968	58	88662	1762566	1646
39	2016-04-21 01:20:07	0	0	0	0	0	0	5.05	0.42	0.05	132875	0	6882	93970	132875	125993	555	67	971	58	89008	1762571	1651
40	2016-04-21 01:30:08	0	0	0	0	0	0	5.07	0.42	0.05	133387	0	6920	94319	133387	126467	558	67	985	59	89321	1762577	1669
41	2016-04-21 01:40:16	0	0	0	0	0	0	5.09	0.42	0.05	133795	0	6944	94740	133795	126851	560	67	986	59	89709	1762585	1672
42	2016-04-21 01:50:16	0	0	0	0	0	0	5.14	0.42	0.05	134468	0	6985	95634	134468	127483	562	67	988	59	90542	1762592	1676
43	2016-04-21 02:00:09	0	0	0	0	0	0	5.15	0.42	0.05	135108	0	7000	95895	135108	128096	563	67	991	59	90690	1761590	1680
44	2016-04-21 02:10:08	0	0	0	0	0	0	5.16	0.42	0.05	135381	0	7030	96014	135381	128351	567	67	994	59	90914	1761584	1687
45	2016-04-21 02:20:08	0	0	0	0	0	0	5.18	0.42	0.05	135865	0	7049	96366	135865	128816	570	67	997	59	91230	1761581	1693
46	2016-04-21 02:30:08	0	0	0	0	0	0	5.18	0.42	0.05	136031	0	7053	96366	136031	128978	570	67	997	59	91230	1761581	1693
47	2016-04-21 02:40:08	0	0	0	0	0	0	5.18	0.42	0.05	136432	0	7078	96384	136432	129354	572	67	1002	59	91246	1761586	1700
48	2016-04-21 02:50:07	0	0	0	0	0	0	5.18	0.42	0.05	136612	0	7086	96384	136612	129526	573	67	1004	59	91246	1761588	1703
49	2016-04-21 03:00:07	0	0	0	0	0	0	5.18	0.42	0.05	136904	0	7099	96432	136904	129805	573	68	1006	59	91289	1761591	1706
50	2016-04-21 03:10:07	0	0	0	0	0	0	5.18	0.42	0.05	137071	0	7105	96432	137071	129966	573	68	1007	59	91289	1761594	1707
51	2016-04-21 03:20:07	0	0	0	0	0	0	5.19	0.42	0.05	137327	0	7124	96673	137327	130203	574	68	1008	59	91505	1761597	1709
52	2016-04-21 03:30:08	0	0	0	0	0	0	5.2	0.42	0.05	137459	0	7131	96843	137459	130328	574	68	1009	59	91657	1761596	1710
53	2016-04-21 03:40:16	0	0	0	0	0	0	5.22	0.42	0.05	137675	0	7148	96928	137675	130527	575	68	1009	59	91874	1761598	1711
54	2016-04-21 03:50:16	0	0	0	0	0	0	5.22	0.42	0.05	137765	0	7149	96973	137765	130616	576	68	1009	59	91915	1761599	1712
55	2016-04-21 04:00:07	0	0	0	0	0	0	5.22	0.42	0.05	137978	0	7162	96973	137978	130816	576	68	1009	59	91915	1761599	1712
56	2016-04-21 04:10:16	0	0	0	0	0	0	5.23	0.42	0.05	138090	0	7168	97022	138090	130922	576	68	1011	59	92046	1761603	1714
57	2016-04-21 04:20:08	0	0	0	0	0	0	5.23	0.42	0.05	138283	0	7177	97022	138283	131106	576	68	1012	59	92046	1761606	1715
58	2016-04-21 04:30:07	0	0	0	0	0	0	5.23	0.42	0.05	138358	0	7180	97022	138358	131178	576	68	1013	59	92046	1761607	1716
59	2016-04-21 04:40:08	0	0	0	0	0	0	5.23	0.42	0.05	138509	0	7192	97040	138509	131317	576	68	1014	59	92063	1761607	1717
60	2016-04-21 04:50:07	0	0	0	0	0	0	5.23	0.42	0.05	138597	0	7199	97089	138597	131398	576	68	1014	59	92107	1761614	1717
61	2016-04-21 05:00:08	0	0	0	0	0	0	5.23	0.42	0.05	138748	0	7208	97186	138748	131540	578	68	1017	59	92194	1761617	1722
62	2016-04-21 05:10:16	0	0	0	0	0	0	5.24	0.42	0.05	138928	0	7226	97284	138928	131702	578	68	1019	59	92282	1761624	1724
63	2016-04-21 05:20:07	0	0	0	0	0	0	5.24	0.42	0.05	139029	0	7234	97333	139029	131795	580	68	1020	59	92370	1761627	1727
64	2016-04-21 05:30:09	0	0	0	0	0	0	5.25	0.42	0.05	139260	0	7259	97400	139260	132001	582	68	1021	59	92431	1761630	1730
65	2016-04-21 05:40:09	0	0	0	0	0	0	5.26	0.42	0.06	139389	0	7267	97652	139389	132122	582	68	1022	59	92658	1761637	1731
66	2016-04-21 05:50:11	0	0	0	0	0	0	5.26	0.42	0.06	139630	0	7287	97751	139630	132343	583	68	1022	59	92747	1761641	1732
67	2016-04-21 06:00:10	0	0	0	0	0	0	5.27	0.42	0.06	139791	0	7298	97800	139791	132493	585	68	1022	59	92769	1761648	1734
68	2016-04-21 06:10:09	0	0	0	0	0	0	5.28	0.42	0.06	140115	0	7327	98059	140115	132788	585	68	1023	59	92981	1761659	1735
69	2016-04-21 06:20:16	0	0	0	0	0	0	5.28	0.42	0.06	140317	0	7356	98133	140317	132961	586	68	1024	59	93003	1761667	1737
70	2016-04-21 06:37:23	0	0	0	0	0	0	0	0	0	0	0	0	0	0	0	0	0	0	0	0	1761673	0
71	2016-04-21 06:40:09	0	0	0	0	0	0	5.3	0.42	0.06	141154	0	7419	98531	141154	133735	586	68	1028	59	93360	1761675	1741
72	2016-04-21 06:50:22	0	0	0	0	0	0	5.31	0.42	0.06	141366	0	7436	98650	141366	133930	587	68	1028	60	93467	1761686	1743
73	2016-04-21 07:00:19	0	0	0	0	0	0	5.32	0.41	0.06	141906	0	7478	98972	141906	134428	588	68	1029	60	93677	1761691	1745
74	2016-04-21 07:10:09	0	0	0	0	0	0	5.32	0.42	0.06	142188	0	7508	99047	142188	134680	593	68	1030	60	93743	1761706	1751
75	2016-04-21 07:20:08	0	0	0	0	0	0	5.34	0.42	0.06	142890	0	7571	99289	142890	135319	595	68	1033	60	94051	1761714	1756
76	2016-04-21 07:30:24	0	0	0	0	0	0	5.37	0.42	0.06	143568	0	7628	99852	143568	135940	602	68	1039	60	94649	1761727	1769
77	2016-04-21 07:40:09	0	0	0	0	0	0	5.39	0.42	0.06	143994	0	7663	100182	143994	136331	603	68	1041	60	94945	1761738	1772
78	2016-04-21 07:50:19	0	0	0	0	0	0	5.41	0.42	0.06	144753	0	7724	100636	144753	137029	607	68	1047	61	95353	1761747	1783
79	2016-04-21 08:00:09	0	0	0	0	0	0	5.42	0.42	0.06	145240	0	7765	100865	145240	137475	609	70	1052	61	95559	1761762	1792
80	2016-04-21 08:10:10	0	0	0	0	0	0	5.47	0.42	0.06	146236	0	7851	101488	146236	138385	614	71	1061	61	96381	1761773	1807
81	2016-04-21 08:20:10	0	0	0	0	0	0	5.49	0.42	0.06	146802	0	7906	101808	146802	138896	615	72	1065	61	96669	1761788	1813
82	2016-04-21 08:30:11	0	0	0	0	0	0	5.51	0.42	0.06	147372	0	7950	102210	147372	139422	617	72	1066	61	97045	1761802	1816
83	2016-04-21 08:40:11	0	0	0	0	0	0	5.54	0.42	0.06	148330	0	8037	102930	148330	140293	623	72	1071	61	97540	1761815	1827
84	2016-04-21 08:50:10	0	0	0	0	0	0	5.56	0.42	0.06	149448	0	8130	103408	149448	141318	630	73	1076	61	97969	1761832	1840
85	2016-04-21 09:00:21	0	0	0	0	0	0	5.56	0.42	0.06	149870	0	8167	103420	149870	141703	633	73	1082	61	97980	1761851	1849
86	2016-04-21 09:10:24	0	0	0	0	0	0	5.57	0.43	0.06	150802	0	8268	103617	150802	142534	642	73	1089	61	98120	1761875	1865
87	2016-04-21 09:20:25	0	0	0	0	0	0	5.59	0.43	0.06	151832	0	8354	103777	151832	143478	649	73	1094	61	98478	1761895	1877
88	2016-04-21 09:30:26	0	0	0	0	0	0	5.62	0.43	0.06	152394	0	8396	104624	152394	143998	658	73	1104	63	99022	1761918	1898
89	2016-04-21 09:40:12	0	0	0	0	0	0	5.66	0.43	0.06	153391	0	8482	105515	153391	144909	667	73	1114	63	99730	1761945	1917
90	2016-04-21 09:50:26	0	0	0	0	0	0	5.67	0.44	0.06	153952	0	8527	105692	153952	145425	672	73	1118	63	99888	1761962	1926
91	2016-04-21 10:00:28	0	0	0	0	0	0	5.72	0.44	0.06	154982	0	8617	106082	154982	146365	675	73	1122	63	100758	1761980	1933
92	2016-04-21 10:10:26	0	0	0	0	0	0	5.76	0.44	0.06	155851	0	8685	106818	155851	147166	679	73	1128	63	101521	1762002	1943
93	2016-04-21 10:20:30	0	0	0	0	0	0	5.78	0.44	0.06	156395	0	8727	107247	156395	147668	682	73	1129	63	101909	1762028	1947
94	2016-04-21 10:30:30	0	0	0	0	0	0	5.82	0.43	0.06	157304	0	8793	107919	157304	148511	683	73	1133	63	102490	1762046	1952
95	2016-04-21 10:40:29	0	0	0	0	0	0	5.82	0.43	0.06	157858	0	8832	107964	157858	149026	684	73	1135	63	102531	1762065	1955
96	2016-04-21 10:50:20	0	0	0	0	0	0	5.84	0.43	0.06	158833	0	8880	108388	158833	149953	690	73	1140	64	102913	1762092	1967
97	2016-04-21 11:00:33	0	0	0	0	0	0	5.85	0.43	0.06	159295	0	8908	108513	159295	150387	690	73	1144	64	103026	1762106	1971
98	2016-04-21 11:10:15	0	0	0	0	0	0	5.87	0.43	0.06	160180	0	8962	109048	160180	151218	690	73	1151	64	103480	1762120	1978
99	2016-04-21 11:20:12	0	0	0	0	0	0	5.88	0.43	0.06	160626	0	9000	109109	160626	151626	695	73	1151	64	103536	1762144	1983
100	2016-04-21 11:30:29	0	0	0	0	0	0	5.89	0.43	0.06	161472	0	9051	109399	161472	152421	698	73	1155	64	103740	1762169	1990
101	2016-04-21 11:40:12	0	0	0	0	0	0	5.89	0.43	0.06	161920	0	9083	109522	161920	152837	699	73	1156	64	103740	1762193	1992
102	2016-04-21 11:50:28	0	0	0	0	0	0	5.91	0.43	0.06	162658	0	9154	110459	162658	153504	701	73	1158	64	104158	1762220	1996
103	2016-04-21 12:00:12	0	0	0	0	0	0	5.95	0.43	0.06	163042	0	9190	110890	163042	153852	707	74	1162	64	104853	1762261	2007
104	2016-04-21 12:10:41	0	0	0	0	0	0	5.95	0.44	0.06	163376	0	9220	110906	163376	154156	712	74	1162	64	104853	1762301	2012
105	2016-04-21 12:20:22	0	0	0	0	0	0	5.96	0.44	0.06	163937	0	9259	111113	163937	154678	714	74	1165	64	105038	1762316	2017
106	2016-04-21 12:30:24	0	0	0	0	0	0	6	0.43	0.06	164534	0	9307	111822	164534	155227	715	74	1167	64	105657	1762358	2020
107	2016-04-21 12:40:13	0	0	0	0	0	0	6	0.43	0.06	164808	0	9326	111944	164808	155482	715	74	1171	64	105765	1762390	2024
108	2016-04-21 12:50:12	0	0	0	0	0	0	6.02	0.43	0.06	165323	0	9372	112370	165323	155951	717	74	1173	64	106146	1762412	2028
109	2016-04-21 13:00:37	0	0	0	0	0	0	6.03	0.43	0.06	165635	0	9397	112370	165635	156238	719	75	1175	64	106204	1762451	2033
110	2016-04-21 13:10:40	0	0	0	0	0	0	6.04	0.43	0.06	166153	0	9445	112591	166153	156708	719	75	1176	64	106379	1762484	2034
111	2016-04-21 13:20:24	0	0	0	0	0	0	6.04	0.43	0.06	166380	0	9473	112769	166380	156907	719	75	1177	64	106539	1762518	2035
112	2016-04-21 13:30:27	0	0	0	0	0	0	6.06	0.43	0.06	166920	0	9522	113031	166920	157398	720	75	1180	64	106772	1762549	2039
113	2016-04-21 13:40:14	0	0	0	0	0	0	6.06	0.43	0.06	167363	0	9539	113097	167363	157807	723	75	1182	65	106831	1762589	2045
114	2016-04-21 13:50:15	0	0	0	0	0	0	6.06	0.43	0.06	167623	0	9583	113097	167623	158040	724	75	1187	65	106831	1762637	2051
115	2016-04-21 14:02:22	0	0	0	0	0	0	6.08	0.43	0.06	168138	0	9629	113561	168138	158509	726	75	1189	65	107245	1762669	2055
116	2016-04-21 14:10:18	0	0	0	0	0	0	6.08	0.43	0.06	168356	0	9648	113607	168356	158708	727	75	1189	65	107260	1762697	2056
117	2016-04-21 14:20:15	0	0	0	0	0	0	6.09	0.43	0.06	168834	0	9676	113657	168834	159158	731	75	1191	66	107305	1762736	2063
118	2016-04-21 14:30:16	0	0	0	0	0	0	6.09	0.43	0.06	169045	0	9684	113657	169045	159361	731	75	1194	66	107305	1762772	2066
119	2016-04-21 14:40:37	0	0	0	0	0	0	6.1	0.43	0.06	169598	0	9722	113872	169598	159876	732	75	1200	66	107497	1762792	2073
120	2016-04-21 14:50:30	0	0	0	0	0	0	6.11	0.43	0.06	169872	0	9746	113973	169872	160126	734	75	1204	66	107706	1762819	2079
121	2016-04-21 15:00:45	0	0	0	0	0	0	6.11	0.43	0.06	170352	0	9783	113973	170352	160569	736	75	1209	66	107706	1762852	2086
122	2016-04-21 15:10:17	0	0	0	0	0	0	6.11	0.43	0.06	170621	0	9824	113998	170621	160797	737	75	1213	66	107729	1762885	2091
123	2016-04-21 15:20:36	0	0	0	0	0	0	6.12	0.43	0.06	171057	0	9864	114267	171057	161193	738	75	1217	66	107969	1762918	2096
124	2016-04-21 15:30:15	0	0	0	0	0	0	6.12	0.43	0.06	171284	0	9890	114267	171284	161394	739	75	1219	67	107969	1762949	2100
125	2016-04-21 15:40:29	0	0	0	0	0	0	6.13	0.43	0.06	171512	0	9907	114335	171512	161605	741	75	1223	67	108090	1762970	2106
126	2016-04-21 15:50:42	0	0	0	0	0	0	6.14	0.43	0.06	171997	0	9957	114604	171997	162040	743	77	1228	67	108330	1762995	2115
127	2016-04-21 16:00:19	0	0	0	0	0	0	6.15	0.43	0.06	172194	0	9975	114731	172194	162219	746	77	1230	67	108444	1763015	2120
128	2016-04-21 16:10:22	0	0	0	0	0	0	6.19	0.43	0.06	172631	0	10011	115499	172631	162620	747	78	1231	67	109130	1763038	2123
129	2016-04-21 16:20:16	0	0	0	0	0	0	6.19	0.43	0.06	172827	0	10033	115499	172827	162794	747	78	1232	67	109130	1763056	2124
130	2016-04-21 16:30:22	0	0	0	0	0	0	6.2	0.43	0.06	173172	0	10075	115845	173172	163097	751	78	1236	67	109376	1763093	2132
131	2016-04-21 16:40:23	0	0	0	0	0	0	6.21	0.43	0.06	173367	0	10086	115949	173367	163281	753	78	1237	67	109531	1763121	2135
132	2016-04-21 16:50:16	0	0	0	0	0	0	6.23	0.43	0.06	173764	0	10124	116235	173764	163640	753	78	1240	67	109786	1763139	2138
133	2016-04-21 17:00:16	0	0	0	0	0	0	6.24	0.43	0.06	173946	0	10137	116480	173946	163809	753	78	1240	67	110005	1763155	2138
134	2016-04-21 17:10:17	0	0	0	0	0	0	6.24	0.43	0.06	174276	0	10166	116550	174276	164110	753	78	1245	68	110067	1763186	2144
135	2016-04-21 17:20:20	0	0	0	0	0	0	6.25	0.43	0.06	174436	0	10189	116620	174436	164247	753	78	1245	68	110255	1763215	2144
136	2016-04-21 17:30:17	0	0	0	0	0	0	6.26	0.43	0.06	174803	0	10227	116726	174803	164576	755	78	1246	69	110349	1763250	2148
137	2016-04-21 17:40:18	0	0	0	0	0	0	6.26	0.43	0.06	174989	0	10244	116726	174989	164745	756	78	1247	69	110349	1763266	2150
138	2016-04-21 17:50:16	0	0	0	0	0	0	6.28	0.43	0.06	175347	0	10274	117184	175347	165073	757	79	1250	69	110697	1763293	2155
139	2016-04-21 18:00:24	0	0	0	0	0	0	6.28	0.43	0.06	175489	0	10292	117184	175489	165197	759	79	1252	69	110697	1763315	2159
140	2016-04-21 18:10:22	0	0	0	0	0	0	6.29	0.43	0.06	175836	0	10332	117398	175836	165504	763	79	1257	70	110888	1763334	2169
141	2016-04-21 18:21:16	0	0	0	0	0	0	6.3	0.43	0.06	176010	0	10351	117684	176010	165659	763	79	1257	70	111079	1763345	2169
142	2016-04-21 18:30:25	0	0	0	0	0	0	6.31	0.43	0.06	176379	0	10386	117899	176379	165993	763	79	1259	70	111270	1763365	2171
143	2016-04-21 18:40:30	0	0	0	0	0	0	6.32	0.43	0.06	176493	0	10400	118007	176493	166093	764	79	1259	70	111366	1763385	2172
144	2016-04-21 18:50:54	0	0	0	0	0	0	6.33	0.43	0.06	176838	0	10441	118007	176838	166397	765	79	1259	70	111559	1763415	2173
145	2016-04-21 19:00:27	0	0	0	0	0	0	6.33	0.43	0.06	176959	0	10451	118151	176959	166508	766	79	1259	70	111688	1763436	2174
146	2016-04-21 19:11:00	0	0	0	0	0	0	6.33	0.43	0.06	177267	0	10481	118151	177267	166786	769	79	1261	70	111688	1763465	2179
147	2016-04-21 19:20:23	0	0	0	0	0	0	6.34	0.43	0.06	177551	0	10502	118309	177551	167049	771	79	1262	71	111801	1763493	2183
148	2016-04-21 19:30:44	0	0	0	0	0	0	6.35	0.43	0.06	177703	0	10520	118443	177703	167183	773	79	1263	71	111921	1763518	2186
149	2016-04-21 19:40:19	0	0	0	0	0	0	6.36	0.43	0.06	178030	0	10555	118616	178030	167475	774	79	1266	71	112140	1763533	2190
150	2016-04-21 19:50:36	0	0	0	0	0	0	6.36	0.44	0.06	178180	0	10568	118616	178180	167612	776	79	1266	71	112140	1763565	2192
151	2016-04-21 20:00:19	0	0	0	0	0	0	6.37	0.44	0.06	178424	0	10596	118652	178424	167828	777	79	1266	71	112270	1763585	2193
152	2016-04-21 20:10:23	0	0	0	0	0	0	6.37	0.44	0.06	178558	0	10617	118688	178558	167941	777	79	1266	71	112302	1763612	2193
153	2016-04-21 20:20:39	0	0	0	0	0	0	6.37	0.44	0.06	178859	0	10639	118816	178859	168220	780	79	1266	71	112368	1763643	2196
154	2016-04-21 20:30:38	0	0	0	0	0	0	6.37	0.44	0.06	178978	0	10654	118834	178978	168324	780	79	1267	71	112417	1763674	2197
155	2016-04-21 20:40:22	0	0	0	0	0	0	6.39	0.44	0.06	179199	0	10676	119098	179199	168523	782	79	1268	71	112620	1763699	2200
156	2016-04-21 20:50:26	0	0	0	0	0	0	6.39	0.44	0.06	179333	0	10685	119231	179333	168648	782	79	1270	71	112706	1763723	2202
157	2016-04-21 21:00:18	0	0	0	0	0	0	6.39	0.44	0.06	179554	0	10705	119259	179554	168849	782	79	1271	71	112731	1763743	2203
158	2016-04-21 21:10:19	0	0	0	0	0	0	6.41	0.44	0.06	179647	0	10718	119544	179647	168929	782	79	1273	71	112986	1763778	2205
159	2016-04-21 21:20:40	0	0	0	0	0	0	6.41	0.44	0.06	179903	0	10754	119980	179903	169149	784	79	1274	71	113043	1763802	2208
160	2016-04-21 21:30:42	0	0	0	0	0	0	6.41	0.44	0.06	180023	0	10773	119998	180023	169250	784	79	1274	71	113060	1763832	2208
161	2016-04-21 21:40:18	0	0	0	0	0	0	6.41	0.44	0.06	180239	0	10790	119998	180239	169449	786	79	1275	71	113060	1763865	2211
162	2016-04-21 21:50:18	0	0	0	0	0	0	6.41	0.44	0.06	180350	0	10808	120073	180350	169542	786	79	1276	71	113093	1763893	2212
163	2016-04-21 22:01:04	0	0	0	0	0	0	6.41	0.44	0.06	180596	0	10838	120073	180596	169758	788	79	1277	71	113093	1763916	2215
164	2016-04-21 22:11:09	0	0	0	0	0	0	6.42	0.44	0.06	180717	0	10849	120185	180717	169868	788	79	1278	71	113192	1763931	2216
165	2016-04-21 22:20:25	0	0	0	0	0	0	6.43	0.44	0.06	180937	0	10871	120428	180937	170066	788	80	1279	71	113408	1763946	2218
166	2016-04-21 22:30:18	0	0	0	0	0	0	6.45	0.44	0.06	181029	0	10881	120804	181029	170148	789	80	1280	71	113741	1763965	2220
167	2016-04-21 22:40:26	0	0	0	0	0	0	6.45	0.44	0.06	181199	0	10899	120804	181199	170300	791	80	1280	71	113741	1763996	2222
168	2016-04-21 22:50:27	0	0	0	0	0	0	6.45	0.44	0.06	181373	0	10914	120804	181373	170459	792	80	1280	71	113741	1764028	2223
169	2016-04-21 23:00:42	0	0	0	0	0	0	6.45	0.44	0.06	181450	0	10924	120804	181450	170526	792	80	1280	71	113741	1764040	2223
170	2016-04-21 23:11:12	0	0	0	0	0	0	6.46	0.44	0.06	181611	0	10947	121002	181611	170664	795	80	1283	71	113934	1764066	2229
171	2016-04-21 23:20:20	0	0	0	0	0	0	6.46	0.44	0.06	181680	0	10955	121059	181680	170725	795	80	1283	71	113934	1764083	2229
172	2016-04-21 23:30:19	0	0	0	0	0	0	6.47	0.44	0.06	181860	0	10980	121228	181860	170880	796	80	1288	71	114084	1764106	2235
173	2016-04-21 23:40:19	0	0	0	0	0	0	6.47	0.44	0.06	181928	0	10988	121228	181928	170940	797	80	1291	71	114084	1764124	2239
174	2016-04-21 23:50:30	0	0	0	0	0	0	6.47	0.44	0.06	182045	0	11005	121456	182045	171040	797	80	1292	71	114084	1764141	2240
175	2016-04-22 00:00:25	0	0	0	0	0	0	6.47	0.44	0.06	182120	0	11013	121475	182120	171107	798	80	1293	71	114100	1764161	2242
176	2016-04-22 00:10:29	0	0	0	0	0	0	6.47	0.44	0.06	182231	0	11021	121475	182231	171210	798	80	1294	71	114100	1764169	2243
177	2016-04-22 00:20:19	0	0	0	0	0	0	6.47	0.44	0.06	182354	0	11038	121609	182354	171316	798	80	1294	72	114218	1764186	2244
178	2016-04-22 00:30:20	0	0	0	0	0	0	6.47	0.44	0.06	182400	0	11042	121609	182400	171358	799	80	1295	73	114218	1764207	2247
179	2016-04-22 00:41:16	0	0	0	0	0	0	6.47	0.44	0.06	182473	0	11049	121609	182473	171424	799	80	1296	73	114218	1764211	2248
180	2016-04-22 00:50:26	0	0	0	0	0	0	6.47	0.44	0.06	182519	0	11057	121609	182519	171462	799	80	1296	73	114218	1764224	2248
181	2016-04-22 01:00:26	0	0	0	0	0	0	6.47	0.44	0.06	182599	0	11064	121609	182599	171535	799	80	1297	73	114218	1764236	2249
182	2016-04-22 01:11:16	0	0	0	0	0	0	6.47	0.44	0.06	182635	0	11065	121609	182635	171570	799	80	1297	73	114218	1764250	2249
183	2016-04-22 01:20:26	0	0	0	0	0	0	6.49	0.44	0.06	182695	0	11073	121911	182695	171622	799	80	1299	73	114484	1764254	2251
184	2016-04-22 01:30:18	0	0	0	0	0	0	6.49	0.44	0.06	182724	0	11079	121911	182724	171645	799	80	1299	73	114484	1764266	2251
185	2016-04-22 01:40:25	0	0	0	0	0	0	6.49	0.44	0.06	182790	0	11081	121987	182790	171709	799	80	1299	73	114552	1764275	2251
186	2016-04-22 01:50:26	0	0	0	0	0	0	6.49	0.44	0.06	182816	0	11083	121987	182816	171733	799	80	1299	73	114552	1764280	2251
187	2016-04-22 02:00:28	0	0	0	0	0	0	6.5	0.44	0.06	182852	0	11084	121997	182852	171768	799	80	1299	73	114561	1763582	2251
188	2016-04-22 02:10:21	0	0	0	0	0	0	6.5	0.44	0.06	182874	0	11087	121997	182874	171787	800	80	1299	73	114561	1763585	2252
189	2016-04-22 02:21:24	0	0	0	0	0	0	6.5	0.44	0.06	182903	0	11090	121997	182903	171813	800	80	1299	73	114561	1763585	2252
190	2016-04-22 02:30:51	0	0	0	0	0	0	6.5	0.44	0.06	182926	0	11092	121997	182926	171834	800	80	1299	73	114561	1763585	2252
191	2016-04-22 02:40:27	0	0	0	0	0	0	6.5	0.44	0.06	182945	0	11094	121997	182945	171851	800	80	1299	73	114561	1763586	2252
192	2016-04-22 02:50:48	0	0	0	0	0	0	6.5	0.44	0.06	182965	0	11095	121997	182965	171870	800	80	1299	73	114561	1763586	2252
193	2016-04-22 03:00:19	0	0	0	0	0	0	6.5	0.44	0.06	182973	0	11096	121997	182973	171877	800	80	1300	73	114561	1763586	2253
194	2016-04-22 03:10:20	0	0	0	0	0	0	6.5	0.44	0.06	183004	0	11099	121997	183004	171905	800	80	1301	73	114561	1763588	2254
195	2016-04-22 03:20:51	0	0	0	0	0	0	6.5	0.44	0.06	183015	0	11100	121997	183015	171915	800	80	1302	73	114561	1763591	2255
196	2016-04-22 03:30:19	0	0	0	0	0	0	6.5	0.44	0.06	183022	0	11101	121997	183022	171921	801	80	1302	73	114561	1763594	2256
197	2016-04-22 03:40:18	0	0	0	0	0	0	6.5	0.44	0.06	183034	0	11101	122132	183034	171933	801	80	1302	73	114679	1763596	2256
198	2016-04-22 03:50:18	0	0	0	0	0	0	6.5	0.44	0.06	183051	0	11102	122132	183051	171949	801	80	1302	73	114679	1763599	2256
199	2016-04-22 04:01:30	0	0	0	0	0	0	6.5	0.44	0.06	183059	0	11102	122132	183059	171957	801	80	1302	73	114679	1763599	2256
200	2016-04-22 04:10:26	0	0	0	0	0	0	6.5	0.44	0.06	183076	0	11102	122132	183076	171974	801	80	1302	73	114679	1763601	2256
201	2016-04-22 04:20:18	0	0	0	0	0	0	6.5	0.44	0.06	183083	0	11103	122132	183083	171980	801	80	1302	73	114679	1763602	2256
202	2016-04-22 04:30:54	0	0	0	0	0	0	6.5	0.44	0.06	183100	0	11105	122132	183100	171995	801	80	1302	73	114679	1763603	2256
203	2016-04-22 04:40:27	0	0	0	0	0	0	6.5	0.44	0.06	183107	0	11106	122132	183107	172001	801	80	1303	73	114679	1763606	2257
204	2016-04-22 04:50:28	0	0	0	0	0	0	6.5	0.44	0.06	183120	0	11107	122132	183120	172013	802	80	1303	73	114679	1763607	2258
205	2016-04-22 05:00:26	0	0	0	0	0	0	6.5	0.44	0.06	183129	0	11108	122132	183129	172021	803	80	1303	73	114679	1763614	2259
206	2016-04-22 05:11:36	0	0	0	0	0	0	6.5	0.44	0.06	183141	0	11109	122132	183141	172032	803	80	1303	73	114679	1763615	2259
207	2016-04-22 05:20:26	0	0	0	0	0	0	6.5	0.44	0.06	183144	0	11109	122132	183144	172035	803	80	1303	73	114679	1763619	2259
208	2016-04-22 05:31:38	0	0	0	0	0	0	6.51	0.44	0.06	183169	0	11111	122281	183169	172058	803	80	1303	73	114811	1763621	2259
209	2016-04-22 05:40:19	0	0	0	0	0	0	6.51	0.44	0.06	183193	0	11114	122281	183193	172079	803	80	1303	73	114811	1763624	2259
210	2016-04-22 05:50:30	0	0	0	0	0	0	6.51	0.44	0.06	183210	0	11116	122281	183210	172094	803	81	1303	73	114811	1763629	2260
211	2016-04-22 06:00:32	0	0	0	0	0	0	6.51	0.44	0.06	183234	0	11120	122359	183234	172114	803	81	1303	73	114879	1763631	2260
212	2016-04-22 06:11:22	0	0	0	0	0	0	6.51	0.44	0.06	183249	0	11120	122359	183249	172129	803	81	1303	73	114879	1763633	2260
213	2016-04-22 06:22:14	0	0	0	0	0	0	6.51	0.44	0.06	183291	0	11125	122359	183291	172166	804	81	1304	74	114879	1763638	2263
214	2016-04-22 06:30:33	0	0	0	0	0	0	6.51	0.44	0.06	183323	0	11128	122359	183323	172195	804	81	1304	74	114879	1763644	2263
215	2016-04-22 06:40:29	0	0	0	0	0	0	6.51	0.44	0.06	183370	0	11131	122359	183370	172239	804	81	1305	74	114879	1763649	2264
216	2016-04-22 06:50:29	0	0	0	0	0	0	6.51	0.44	0.06	183403	0	11132	122359	183403	172271	804	81	1305	74	114879	1763657	2264
217	2016-04-22 07:01:05	0	0	0	0	0	0	6.51	0.44	0.06	183447	0	11138	122359	183447	172309	804	81	1305	74	114879	1763664	2264
218	2016-04-22 07:10:31	0	0	0	0	0	0	6.52	0.44	0.06	183476	0	11143	122504	183476	172333	804	81	1305	74	115007	1763668	2264
219	2016-04-22 07:20:19	0	0	0	0	0	0	6.52	0.44	0.06	183488	0	11144	122504	183488	172344	804	81	1305	74	115007	1763679	2264
220	2016-04-22 07:30:21	0	0	0	0	0	0	6.52	0.44	0.06	183525	0	11152	122542	183525	172373	804	81	1306	74	115041	1763684	2265
221	2016-04-22 07:41:11	0	0	0	0	0	0	6.52	0.44	0.06	183543	0	11154	122542	183543	172389	804	81	1307	74	115041	1763702	2266
222	2016-04-22 07:50:27	0	0	0	0	0	0	6.52	0.44	0.06	183571	0	11161	122542	183571	172410	804	81	1307	74	115041	1763714	2266
223	2016-04-22 08:00:21	0	0	0	0	0	0	6.52	0.44	0.06	183590	0	11164	122542	183590	172426	804	81	1307	74	115041	1763724	2266
224	2016-04-22 08:10:29	0	0	0	0	0	0	6.52	0.44	0.06	183619	0	11173	122581	183619	172446	804	81	1307	74	115075	1763740	2266
225	2016-04-22 08:20:30	0	0	0	0	0	0	6.53	0.44	0.06	183645	0	11185	122600	183645	172460	804	81	1307	74	115092	1763751	2266
226	2016-04-22 08:32:02	0	0	0	0	0	0	6.53	0.44	0.06	183656	0	11189	122600	183656	172467	804	81	1307	74	115092	1763765	2266
227	2016-04-22 08:42:06	0	0	0	0	0	0	6.53	0.44	0.06	183676	0	11196	122600	183676	172480	804	81	1307	74	115092	1763782	2266
228	2016-04-22 08:50:21	0	0	0	0	0	0	6.53	0.44	0.06	183690	0	11201	122649	183690	172489	804	81	1307	74	115109	1763793	2266
229	2016-04-22 09:00:32	0	0	0	0	0	0	6.53	0.44	0.06	183718	0	11208	122649	183718	172510	804	81	1307	74	115109	1763814	2266
230	2016-04-22 09:10:22	0	0	0	0	0	0	6.53	0.44	0.06	183729	0	11212	122649	183729	172517	804	81	1308	74	115109	1763831	2267
231	2016-04-22 09:20:30	0	0	0	0	0	0	6.53	0.44	0.07	183751	0	11217	122649	183751	172534	804	81	1308	74	115109	1763848	2267
232	2016-04-22 09:30:24	0	0	0	0	0	0	6.53	0.44	0.07	183758	0	11218	122649	183758	172540	805	81	1308	74	115109	1763863	2268
233	2016-04-22 09:40:22	0	0	0	0	0	0	6.53	0.44	0.07	183784	0	11224	122649	183784	172550	805	81	1308	74	115109	1763879	2268
234	2016-04-22 09:50:31	0	0	0	0	0	0	6.53	0.44	0.07	183790	0	11226	122649	183790	172564	805	81	1308	74	115109	1763895	2268
235	2016-04-22 10:00:27	0	0	0	0	0	0	6.53	0.44	0.07	183805	0	11227	122649	183805	172578	805	81	1308	74	115109	1763907	2268
236	2016-04-22 10:12:35	0	0	0	0	0	0	6.53	0.44	0.07	183818	0	11227	122649	183818	172591	805	81	1308	74	115109	1763936	2268
237	2016-04-22 10:20:27	0	0	0	0	0	0	6.53	0.44	0.07	183825	0	11230	122678	183825	172595	805	81	1308	74	115135	1763962	2268
238	2016-04-22 10:31:38	0	0	0	0	0	0	6.53	0.44	0.07	183840	0	11233	122678	183840	172607	805	81	1308	74	115135	1763980	2268
239	2016-04-22 10:33:34	0	0	0	0	0	0	6.53	0.44	0.07	183840	0	11233	122678	183840	172607	805	81	1308	74	115135	1763981	2268
240	2016-04-22 10:43:31	0	0	0	0	0	0	6.53	0.44	0.07	183867	0	11236	122678	183867	172631	805	81	1308	74	115135	1764007	2268
241	2016-04-22 10:53:29	0	0	0	0	0	0	6.53	0.44	0.07	183882	0	11240	122678	183882	172642	805	81	1308	74	115135	1764029	2268
242	2016-04-22 11:03:31	0	0	0	0	0	0	6.53	0.44	0.07	183890	0	11243	122678	183890	172647	805	81	1308	74	115135	1764049	2268
243	2016-04-22 11:13:37	0	0	0	0	0	0	6.53	0.44	0.07	183904	0	11249	122678	183904	172655	805	81	1308	74	115135	1764071	2268
244	2016-04-22 11:23:43	0	0	0	0	0	0	6.53	0.44	0.07	183912	0	11251	122678	183912	172661	805	81	1308	74	115135	1764085	2268
245	2016-04-22 11:33:35	0	0	0	0	0	0	6.53	0.44	0.07	183921	0	11255	122678	183921	172666	805	81	1308	74	115135	1764102	2268
246	2016-04-22 11:43:47	0	0	0	0	0	0	6.53	0.44	0.07	183936	0	11259	122678	183936	172677	805	81	1308	74	115135	1764117	2268
247	2016-04-22 11:53:57	0	0	0	0	0	0	6.53	0.44	0.07	183940	0	11260	122707	183940	172680	805	81	1308	74	115135	1764130	2268
248	2016-04-22 12:03:49	0	0	0	0	0	0	6.53	0.44	0.07	183962	0	11270	122707	183962	172692	805	81	1308	74	115135	1764143	2268
249	2016-04-22 12:14:03	0	0	0	0	0	0	6.53	0.44	0.07	183970	0	11272	122707	183970	172698	805	81	1308	74	115135	1764171	2268
250	2016-04-22 12:23:34	0	0	0	0	0	0	6.53	0.44	0.07	183992	0	11282	122707	183992	172710	805	81	1308	74	115135	1764189	2268
251	2016-04-22 12:33:38	0	0	0	0	0	0	6.53	0.44	0.07	184005	0	11289	122707	184005	172716	806	81	1308	74	115135	1764219	2269
252	2016-04-22 12:43:51	0	0	0	0	0	0	6.53	0.44	0.07	184025	0	11293	122707	184025	172732	806	81	1308	74	115135	1764268	2269
253	2016-04-22 12:53:31	0	0	0	0	0	0	6.53	0.44	0.07	184046	0	11298	122824	184046	172748	806	81	1308	74	115238	1764331	2269
254	2016-04-22 13:03:30	0	0	0	0	0	0	6.53	0.44	0.07	184052	0	11301	122824	184052	172751	806	81	1308	74	115238	1764399	2269
255	2016-04-22 13:13:40	0	0	0	0	0	0	6.53	0.44	0.07	184072	0	11304	122824	184072	172768	806	81	1308	74	115238	1764474	2269
256	2016-04-22 13:23:41	0	0	0	0	0	0	6.53	0.44	0.07	184078	0	11305	122824	184078	172773	806	82	1308	74	115238	1764552	2270
257	2016-04-22 13:33:29	0	0	0	0	0	0	6.53	0.44	0.07	184104	0	11316	122824	184104	172788	806	82	1308	74	115238	1764613	2270
258	2016-04-22 13:43:40	0	0	0	0	0	0	6.53	0.44	0.07	184113	0	11318	122824	184113	172795	806	82	1308	74	115238	1764682	2270
259	2016-04-22 13:53:44	0	0	0	0	0	0	6.53	0.44	0.07	184119	0	11319	122824	184119	172800	806	82	1308	74	115238	1764754	2270
260	2016-04-22 14:03:31	0	0	0	0	0	0	6.53	0.44	0.07	184138	0	11323	122824	184138	172815	806	82	1308	74	115238	1764831	2270
261	2016-04-22 14:13:31	0	0	0	0	0	0	6.53	0.44	0.07	184144	0	11325	122824	184144	172819	806	82	1308	74	115238	1764913	2270
262	2016-04-22 14:23:52	0	0	0	0	0	0	6.53	0.44	0.07	184162	0	11329	122824	184162	172833	806	82	1309	74	115238	1764983	2271
263	2016-04-22 14:33:49	0	0	0	0	0	0	6.53	0.44	0.07	184170	0	11331	122824	184170	172839	806	82	1309	74	115238	1765045	2271
264	2016-04-22 14:43:47	0	0	0	0	0	0	6.53	0.44	0.07	184184	0	11335	122824	184184	172849	806	82	1309	74	115238	1765114	2271
265	2016-04-22 14:53:51	0	0	0	0	0	0	6.53	0.44	0.07	184191	0	11336	122824	184191	172855	806	82	1309	74	115238	1765185	2271
266	2016-04-22 15:03:32	0	0	0	0	0	0	6.53	0.44	0.07	184195	0	11338	122824	184195	172857	806	82	1309	74	115238	1765235	2271
267	2016-04-22 15:13:53	0	0	0	0	0	0	6.53	0.44	0.07	184200	0	11338	122824	184200	172862	806	82	1309	74	115238	1765308	2271
268	2016-04-22 15:23:48	0	0	0	0	0	0	6.53	0.44	0.07	184217	0	11341	122824	184217	172876	806	82	1309	74	115238	1765370	2271
269	2016-04-22 15:33:53	0	0	0	0	0	0	6.53	0.44	0.07	184228	0	11344	122824	184228	172884	806	82	1309	74	115238	1765435	2271
270	2016-04-22 15:43:53	0	0	0	0	0	0	6.53	0.44	0.07	184241	0	11351	122824	184241	172890	806	82	1309	74	115238	1765500	2271
271	2016-04-22 15:53:33	0	0	0	0	0	0	6.53	0.44	0.07	184248	0	11354	122824	184248	172894	806	82	1309	74	115238	1765553	2271
272	2016-04-22 16:03:36	0	0	0	0	0	0	6.53	0.44	0.07	184267	0	11358	122824	184267	172909	806	82	1309	74	115238	1765606	2271
273	2016-04-22 16:13:49	0	0	0	0	0	0	6.53	0.44	0.07	184274	0	11358	122824	184274	172916	806	82	1309	74	115238	1765653	2271
274	2016-04-22 16:23:36	0	0	0	0	0	0	6.53	0.44	0.07	184282	0	11358	122824	184282	172924	806	82	1309	74	115238	1765707	2271
275	2016-04-22 16:33:50	0	0	0	0	0	0	6.53	0.44	0.07	184288	0	11358	122824	184288	172930	806	82	1309	74	115238	1765762	2271
276	2016-04-22 16:43:38	0	0	0	0	0	0	6.53	0.44	0.07	184302	0	11359	122824	184302	172943	806	82	1309	74	115238	1765814	2271
277	2016-04-22 16:53:33	0	0	0	0	0	0	6.53	0.44	0.07	184308	0	11360	122824	184308	172948	806	82	1309	74	115238	1765864	2271
278	2016-04-22 17:03:33	0	0	0	0	0	0	6.53	0.44	0.07	184315	0	11362	122824	184315	172953	806	82	1309	74	115238	1765914	2271
279	2016-04-22 17:13:32	0	0	0	0	0	0	6.53	0.44	0.07	184323	0	11364	122824	184323	172959	806	82	1309	74	115238	1765975	2271
280	2016-04-22 17:23:40	0	0	0	0	0	0	6.53	0.44	0.07	184333	0	11370	122824	184333	172963	806	82	1310	74	115238	1766018	2272
281	2016-04-22 17:34:02	0	0	0	0	0	0	6.53	0.44	0.07	184343	0	11374	122843	184343	172969	806	82	1310	74	115238	1766057	2272
282	2016-04-22 17:44:07	0	0	0	0	0	0	6.52	0.44	0.07	184360	0	11378	122843	184360	172982	806	82	1310	74	115238	1766114	2272
283	2016-04-22 17:54:33	0	0	0	0	0	0	6.52	0.44	0.07	184368	0	11380	122843	184368	172988	806	82	1310	74	115238	1766148	2272
284	2016-04-22 18:04:11	0	0	0	0	0	0	6.52	0.44	0.07	184373	0	11380	122843	184373	172993	806	82	1310	74	115238	1766187	2272
285	2016-04-22 18:13:35	0	0	0	0	0	0	6.52	0.44	0.07	184381	0	11385	122843	184381	172996	806	82	1310	74	115238	1766221	2272
286	2016-04-22 18:23:32	0	0	0	0	0	0	6.52	0.44	0.07	184406	0	11389	122843	184406	173017	806	82	1310	74	115238	1766256	2272
287	2016-04-22 18:33:51	0	0	0	0	0	0	6.52	0.44	0.07	184413	0	11389	122843	184413	173024	807	82	1310	74	115238	1766312	2273
288	2016-04-22 18:43:32	0	0	0	0	0	0	6.52	0.44	0.07	184431	0	11393	122843	184431	173038	808	82	1311	74	115238	1766359	2275
289	2016-04-22 18:53:52	0	0	0	0	0	0	6.52	0.44	0.07	184436	0	11395	122843	184436	173041	808	82	1311	74	115238	1766406	2275
290	2016-04-22 19:03:33	0	0	0	0	0	0	6.52	0.44	0.07	184449	0	11400	122843	184449	173049	809	82	1311	74	115238	1766448	2276
291	2016-04-22 19:13:55	0	0	0	0	0	0	6.52	0.44	0.07	184451	0	11400	122843	184451	173051	809	82	1311	74	115238	1766492	2276
292	2016-04-22 19:23:32	0	0	0	0	0	0	6.52	0.44	0.07	184463	0	11404	122843	184463	173059	809	82	1311	74	115238	1766532	2276
293	2016-04-22 19:33:33	0	0	0	0	0	0	6.52	0.44	0.07	184474	0	11406	122843	184474	173068	809	82	1311	74	115238	1766558	2276
294	2016-04-22 19:43:55	0	0	0	0	0	0	6.52	0.44	0.07	184490	0	11411	122843	184490	173079	809	82	1311	74	115238	1766610	2276
295	2016-04-22 19:53:32	0	0	0	0	0	0	6.52	0.44	0.07	184500	0	11413	122843	184500	173087	809	82	1311	74	115238	1766643	2276
296	2016-04-22 20:03:33	0	0	0	0	0	0	6.52	0.44	0.07	184512	0	11417	122843	184512	173095	809	82	1311	74	115238	1766677	2276
297	2016-04-22 20:13:32	0	0	0	0	0	0	6.52	0.44	0.07	184520	0	11421	122843	184520	173099	809	82	1311	74	115238	1766704	2276
298	2016-04-22 20:23:32	0	0	0	0	0	0	6.52	0.44	0.07	184534	0	11424	122961	184534	173110	809	82	1311	74	115238	1766746	2276
299	2016-04-22 20:33:32	0	0	0	0	0	0	6.52	0.44	0.07	184548	0	11428	122961	184548	173120	809	82	1311	74	115238	1766786	2276
300	2016-04-22 20:43:58	0	0	0	0	0	0	6.52	0.44	0.07	184561	0	11430	122961	184561	173131	809	82	1311	74	115238	1766836	2276
301	2016-04-22 20:54:01	0	0	0	0	0	0	6.52	0.44	0.07	184571	0	11434	122961	184571	173137	809	82	1311	74	115238	1766888	2276
302	2016-04-22 21:03:32	0	0	0	0	0	0	6.52	0.44	0.07	184578	0	11438	122961	184578	173140	809	82	1311	74	115238	1766925	2276
303	2016-04-22 21:13:33	0	0	0	0	0	0	6.52	0.44	0.07	184582	0	11438	122961	184582	173144	809	82	1311	74	115238	1766956	2276
304	2016-04-22 21:24:02	0	0	0	0	0	0	6.52	0.44	0.07	184589	0	11438	122961	184589	173151	809	82	1311	74	115238	1766998	2276
305	2016-04-22 21:33:35	0	0	0	0	0	0	6.52	0.44	0.07	184598	0	11440	122961	184598	173158	809	82	1311	74	115238	1767045	2276
306	2016-04-22 21:43:33	0	0	0	0	0	0	6.52	0.44	0.07	184605	0	11442	122961	184605	173163	809	82	1311	74	115238	1767076	2276
307	2016-04-22 21:53:34	0	0	0	0	0	0	6.52	0.44	0.07	184621	0	11449	122961	184621	173172	809	82	1312	75	115238	1767106	2278
308	2016-04-22 22:03:34	0	0	0	0	0	0	6.52	0.44	0.07	184628	0	11452	122961	184628	173176	809	82	1312	75	115238	1767152	2278
309	2016-04-22 22:13:34	0	0	0	0	0	0	6.52	0.44	0.07	184644	0	11459	122961	184644	173185	809	82	1313	75	115238	1767186	2279
310	2016-04-22 22:23:33	0	0	0	0	0	0	6.52	0.44	0.07	184654	0	11464	123078	184654	173190	809	82	1313	75	115238	1767223	2279
311	2016-04-22 22:34:04	0	0	0	0	0	0	6.52	0.44	0.07	184667	0	11468	123078	184667	173199	809	82	1313	75	115238	1767263	2279
312	2016-04-22 22:43:34	0	0	0	0	0	0	6.52	0.44	0.07	184674	0	11469	123078	184674	173205	809	82	1313	75	115238	1767300	2279
313	2016-04-22 22:53:34	0	0	0	0	0	0	6.52	0.44	0.07	184679	0	11469	123078	184679	173210	809	82	1313	75	115238	1767339	2279
314	2016-04-22 23:03:34	0	0	0	0	0	0	6.52	0.44	0.07	184687	0	11473	123078	184687	173214	809	82	1313	75	115238	1767390	2279
315	2016-04-22 23:13:33	0	0	0	0	0	0	6.52	0.44	0.07	184692	0	11475	123078	184692	173217	809	82	1313	75	115238	1767440	2279
316	2016-04-22 23:23:33	0	0	0	0	0	0	6.52	0.44	0.07	184711	0	11479	123078	184711	173232	809	82	1315	75	115238	1767479	2281
317	2016-04-22 23:34:06	0	0	0	0	0	0	6.52	0.44	0.07	184714	0	11479	123078	184714	173235	809	82	1315	75	115238	1767509	2281
318	2016-04-22 23:43:36	0	0	0	0	0	0	6.52	0.44	0.07	184726	0	11484	123078	184726	173242	809	82	1315	75	115238	1767546	2281
319	2016-04-22 23:53:33	0	0	0	0	0	0	6.52	0.44	0.07	184732	0	11487	123078	184732	173245	809	82	1315	75	115238	1767577	2281
320	2016-04-23 00:04:07	0	0	0	0	0	0	6.52	0.44	0.07	184747	0	11493	123117	184747	173254	809	82	1315	75	115272	1767599	2281
321	2016-04-23 00:13:35	0	0	0	0	0	0	6.52	0.44	0.07	184754	0	11494	123117	184754	173260	809	82	1315	75	115272	1767633	2281
322	2016-04-23 00:23:35	0	0	0	0	0	0	6.52	0.44	0.07	184757	0	11494	123117	184757	173263	809	82	1315	75	115272	1767660	2281
323	2016-04-23 00:33:35	0	0	0	0	0	0	6.52	0.44	0.07	184761	0	11494	123117	184761	173267	809	82	1315	75	115272	1767697	2281
324	2016-04-23 00:44:08	0	0	0	0	0	0	6.52	0.44	0.07	184763	0	11494	123117	184763	173269	810	82	1315	75	115272	1767723	2282
325	2016-04-23 00:53:34	0	0	0	0	0	0	6.52	0.44	0.07	184765	0	11494	123117	184765	173271	810	82	1315	75	115272	1767748	2282
326	2016-04-23 01:03:34	0	0	0	0	0	0	6.52	0.44	0.07	184772	0	11496	123117	184772	173276	810	82	1315	75	115272	1767768	2282
327	2016-04-23 01:13:34	0	0	0	0	0	0	6.52	0.44	0.07	184774	0	11497	123117	184774	173277	810	82	1315	75	115272	1767790	2282
328	2016-04-23 01:23:34	0	0	0	0	0	0	6.52	0.44	0.07	184778	0	11497	123117	184778	173281	810	82	1315	75	115272	1767808	2282
329	2016-04-23 01:34:09	0	0	0	0	0	0	6.52	0.44	0.07	184780	0	11497	123117	184780	173283	810	82	1315	75	115272	1767827	2282
330	2016-04-23 01:44:12	0	0	0	0	0	0	6.52	0.44	0.07	184786	0	11497	123117	184786	173289	810	82	1315	75	115272	1767835	2282
331	2016-04-23 01:53:33	0	0	0	0	0	0	6.52	0.44	0.07	184790	0	11498	123117	184790	173292	810	82	1315	75	115272	1767842	2282
332	2016-04-23 02:04:14	0	0	0	0	0	0	6.53	0.44	0.07	184791	0	11499	123117	184791	173292	811	82	1315	75	115272	1764832	2283
333	2016-04-23 02:13:35	0	0	0	0	0	0	6.53	0.44	0.07	184794	0	11500	123117	184794	173294	811	82	1315	75	115272	1764845	2283
334	2016-04-23 02:23:35	0	0	0	0	0	0	6.53	0.44	0.07	184795	0	11500	123117	184795	173295	811	82	1315	75	115272	1764849	2283
335	2016-04-23 02:34:17	0	0	0	0	0	0	6.53	0.44	0.07	184798	0	11500	123117	184798	173298	811	82	1315	75	115272	1764860	2283
336	2016-04-23 02:43:36	0	0	0	0	0	0	6.53	0.44	0.07	184798	0	11500	123117	184798	173298	811	82	1315	75	115272	1764865	2283
337	2016-04-23 02:53:34	0	0	0	0	0	0	6.53	0.44	0.07	184798	0	11500	123117	184798	173298	811	82	1315	75	115272	1764873	2283
338	2016-04-23 03:03:35	0	0	0	0	0	0	6.53	0.44	0.07	184800	0	11500	123117	184800	173300	811	82	1315	75	115272	1764880	2283
339	2016-04-23 03:13:34	0	0	0	0	0	0	6.53	0.44	0.07	184801	0	11500	123117	184801	173301	811	82	1315	75	115272	1764887	2283
340	2016-04-23 03:23:36	0	0	0	0	0	0	6.53	0.44	0.07	184801	0	11500	123117	184801	173301	811	82	1315	75	115272	1764891	2283
341	2016-04-23 03:33:33	0	0	0	0	0	0	6.53	0.44	0.07	184802	0	11500	123117	184802	173302	811	82	1315	75	115272	1764892	2283
342	2016-04-23 03:44:18	0	0	0	0	0	0	6.53	0.44	0.07	184804	0	11501	123117	184804	173303	811	82	1315	75	115272	1764892	2283
343	2016-04-23 03:53:35	0	0	0	0	0	0	6.53	0.44	0.07	184804	0	11501	123117	184804	173303	811	82	1315	75	115272	1764896	2283
344	2016-04-23 04:04:20	0	0	0	0	0	0	6.53	0.44	0.07	184806	0	11502	123117	184806	173304	811	82	1315	75	115272	1764902	2283
345	2016-04-23 04:13:35	0	0	0	0	0	0	6.53	0.44	0.07	184806	0	11502	123117	184806	173304	811	82	1315	75	115272	1764903	2283
346	2016-04-23 04:23:34	0	0	0	0	0	0	6.53	0.44	0.07	184806	0	11502	123117	184806	173304	811	82	1315	75	115272	1764907	2283
347	2016-04-23 04:33:34	0	0	0	0	0	0	6.53	0.44	0.07	184806	0	11502	123117	184806	173304	811	82	1315	75	115272	1764912	2283
348	2016-04-23 04:43:34	0	0	0	0	0	0	6.53	0.44	0.07	184807	0	11503	123117	184807	173304	811	82	1315	75	115272	1764916	2283
349	2016-04-23 04:53:33	0	0	0	0	0	0	6.53	0.44	0.07	184807	0	11503	123117	184807	173304	811	82	1315	75	115272	1764921	2283
350	2016-04-23 05:03:35	0	0	0	0	0	0	6.53	0.44	0.07	184808	0	11503	123117	184808	173305	811	82	1315	75	115272	1764925	2283
351	2016-04-23 05:13:34	0	0	0	0	0	0	6.53	0.44	0.07	184808	0	11503	123117	184808	173305	811	82	1315	75	115272	1764927	2283
352	2016-04-23 05:23:36	0	0	0	0	0	0	6.53	0.44	0.07	184809	0	11503	123117	184809	173306	811	82	1315	75	115272	1764926	2283
353	2016-04-23 05:33:33	0	0	0	0	0	0	6.53	0.44	0.07	184809	0	11503	123117	184809	173306	811	82	1315	75	115272	1764927	2283
354	2016-04-23 05:43:35	0	0	0	0	0	0	6.53	0.44	0.07	184809	0	11503	123117	184809	173306	811	82	1315	75	115272	1764927	2283
355	2016-04-23 05:54:28	0	0	0	0	0	0	6.53	0.44	0.07	184810	0	11503	123117	184810	173307	811	82	1315	75	115272	1764932	2283
356	2016-04-23 06:03:35	0	0	0	0	0	0	6.53	0.44	0.07	184811	0	11504	123117	184811	173307	811	82	1315	75	115272	1764935	2283
357	2016-04-23 06:13:35	0	0	0	0	0	0	6.53	0.44	0.07	184811	0	11504	123117	184811	173307	811	82	1315	75	115272	1764936	2283
358	2016-04-23 06:23:36	0	0	0	0	0	0	6.53	0.44	0.07	184814	0	11505	123117	184814	173309	811	82	1315	75	115272	1764940	2283
359	2016-04-23 06:33:35	0	0	0	0	0	0	6.53	0.44	0.07	184814	0	11505	123117	184814	173309	811	82	1315	75	115272	1764951	2283
360	2016-04-23 06:44:33	0	0	0	0	0	0	6.53	0.44	0.07	184814	0	11505	123117	184814	173309	811	82	1315	75	115272	1764959	2283
361	2016-04-23 06:53:35	0	0	0	0	0	0	6.53	0.44	0.07	184815	0	11505	123117	184815	173310	811	82	1315	75	115272	1764965	2283
362	2016-04-23 07:04:34	0	0	0	0	0	0	6.53	0.44	0.07	184818	0	11508	123117	184818	173310	811	82	1315	75	115272	1764980	2283
363	2016-04-23 07:13:36	0	0	0	0	0	0	6.53	0.44	0.07	184818	0	11508	123117	184818	173310	811	82	1315	75	115272	1764987	2283
364	2016-04-23 07:24:38	0	0	0	0	0	0	6.53	0.44	0.07	184818	0	11508	123117	184818	173310	811	82	1315	75	115272	1764996	2283
365	2016-04-23 07:33:36	0	0	0	0	0	0	6.53	0.44	0.07	184818	0	11508	123117	184818	173310	811	82	1315	75	115272	1765006	2283
366	2016-04-23 07:44:38	0	0	0	0	0	0	6.53	0.44	0.07	184821	0	11510	123117	184821	173311	811	82	1315	75	115272	1765026	2283
367	2016-04-23 07:53:35	0	0	0	0	0	0	6.53	0.44	0.07	184824	0	11510	123117	184824	173314	811	82	1315	75	115272	1765039	2283
368	2016-04-23 08:03:36	0	0	0	0	0	0	6.53	0.44	0.07	184825	0	11511	123117	184825	173314	811	82	1315	75	115272	1765057	2283
369	2016-04-23 08:14:39	0	0	0	0	0	0	6.53	0.44	0.07	184830	0	11512	123117	184830	173318	811	82	1315	75	115272	1765079	2283
370	2016-04-23 08:23:37	0	0	0	0	0	0	6.53	0.44	0.07	184833	0	11514	123117	184833	173319	811	82	1315	75	115272	1765095	2283
371	2016-04-23 08:33:37	0	0	0	0	0	0	6.53	0.44	0.07	184837	0	11518	123117	184837	173319	811	82	1315	75	115272	1765119	2283
372	2016-04-23 08:44:41	0	0	0	0	0	0	6.53	0.44	0.07	184838	0	11518	123117	184838	173320	811	82	1315	75	115272	1765153	2283
373	2016-04-23 08:53:36	0	0	0	0	0	0	6.53	0.44	0.07	184841	0	11518	123117	184841	173323	811	82	1315	75	115272	1765186	2283
374	2016-04-23 09:03:36	0	0	0	0	0	0	6.53	0.44	0.07	184841	0	11518	123117	184841	173323	811	82	1315	75	115272	1765208	2283
375	2016-04-23 09:13:36	0	0	0	0	0	0	6.53	0.44	0.07	184848	0	11521	123117	184848	173327	811	82	1315	75	115272	1765239	2283
376	2016-04-23 09:23:37	0	0	0	0	0	0	6.53	0.44	0.07	184849	0	11521	123117	184849	173328	811	82	1315	75	115272	1765262	2283
377	2016-04-23 09:33:37	0	0	0	0	0	0	6.53	0.44	0.07	184853	0	11522	123117	184853	173331	811	82	1315	75	115272	1765281	2283
378	2016-04-23 09:43:37	0	0	0	0	0	0	6.53	0.44	0.07	184861	0	11526	123117	184861	173335	811	82	1315	75	115272	1765314	2283
379	2016-04-23 09:53:35	0	0	0	0	0	0	6.53	0.44	0.07	184862	0	11526	123117	184862	173336	811	82	1315	75	115272	1765347	2283
380	2016-04-23 10:04:53	0	0	0	0	0	0	6.53	0.44	0.07	184865	0	11526	123117	184865	173339	811	82	1315	75	115272	1765388	2283
381	2016-04-23 10:14:53	0	0	0	0	0	0	6.53	0.44	0.07	184867	0	11526	123117	184867	173341	811	82	1315	75	115272	1765419	2283
382	2016-04-23 10:23:39	0	0	0	0	0	0	6.53	0.44	0.07	184867	0	11526	123117	184867	173341	811	82	1315	75	115272	1765448	2283
383	2016-04-23 10:33:38	0	0	0	0	0	0	6.53	0.44	0.07	184870	0	11527	123190	184870	173343	811	82	1315	75	115337	1765478	2283
384	2016-04-23 10:43:37	0	0	0	0	0	0	6.53	0.44	0.07	184873	0	11528	123190	184873	173345	811	82	1315	75	115337	1765511	2283
385	2016-04-23 10:54:56	0	0	0	0	0	0	6.53	0.44	0.07	184878	0	11529	123190	184878	173349	811	82	1315	75	115337	1765550	2283
386	2016-04-23 11:03:39	0	0	0	0	0	0	6.53	0.44	0.07	184879	0	11529	123190	184879	173350	811	82	1315	75	115337	1765580	2283
387	2016-04-23 11:13:39	0	0	0	0	0	0	6.53	0.44	0.07	184880	0	11530	123190	184880	173350	811	82	1315	75	115337	1765612	2283
388	2016-04-23 11:23:39	0	0	0	0	0	0	6.53	0.44	0.07	184885	0	11530	123190	184885	173355	811	82	1315	75	115337	1765633	2283
389	2016-04-23 11:33:39	0	0	0	0	0	0	6.53	0.44	0.07	184888	0	11531	123190	184888	173357	811	82	1315	75	115337	1765662	2283
390	2016-04-23 11:44:52	0	0	0	0	0	0	6.53	0.44	0.07	184889	0	11532	123190	184889	173357	811	82	1315	75	115337	1765702	2283
391	2016-04-23 11:53:38	0	0	0	0	0	0	6.53	0.44	0.07	184890	0	11532	123190	184890	173358	811	82	1315	75	115337	1765724	2283
392	2016-04-23 12:03:41	0	0	0	0	0	0	6.53	0.44	0.07	184896	0	11533	123190	184896	173363	811	82	1315	75	115337	1765750	2283
393	2016-04-23 12:13:40	0	0	0	0	0	0	6.53	0.44	0.07	184899	0	11534	123190	184899	173365	811	82	1315	75	115337	1765782	2283
394	2016-04-23 12:23:40	0	0	0	0	0	0	6.53	0.44	0.07	184904	0	11535	123190	184904	173369	811	82	1315	75	115337	1765809	2283
395	2016-04-23 12:35:14	0	0	0	0	0	0	6.53	0.44	0.07	184907	0	11537	123190	184907	173370	811	82	1315	75	115337	1765854	2283
396	2016-04-23 12:43:39	0	0	0	0	0	0	6.53	0.44	0.07	184908	0	11537	123190	184908	173371	811	82	1315	75	115337	1765885	2283
397	2016-04-23 12:53:38	0	0	0	0	0	0	6.53	0.44	0.07	184912	0	11538	123190	184912	173374	811	82	1315	75	115337	1765916	2283
398	2016-04-23 13:03:40	0	0	0	0	0	0	6.53	0.44	0.07	184914	0	11538	123190	184914	173376	811	82	1315	75	115337	1765969	2283
399	2016-04-23 13:14:59	0	0	0	0	0	0	6.53	0.44	0.07	184919	0	11539	123190	184919	173380	811	82	1315	75	115337	1766007	2283
400	2016-04-23 13:25:05	0	0	0	0	0	0	6.53	0.44	0.07	184921	0	11539	123190	184921	173382	811	82	1315	75	115337	1766057	2283
401	2016-04-23 13:33:38	0	0	0	0	0	0	6.53	0.44	0.07	184922	0	11539	123190	184922	173383	811	82	1315	75	115337	1766094	2283
402	2016-04-23 13:43:39	0	0	0	0	0	0	6.53	0.44	0.07	184926	0	11539	123190	184926	173387	811	82	1315	75	115337	1766144	2283
