1	2017-01-17 21:55:53	0	0	0	0	0	0	0	0	0	0	1	0	0	0	0	0	0	25	1	0	2540113	0
2	2017-01-17 22:05:53	0	0	0	0	0	0	1.32	2.15	0	37712	1	72	33584	37712	37640	810	8	95	6	33424	2540191	919
3	2017-01-17 22:16:00	0	0	0	0	0	0	2.4	2.96	0	73451	1	332	61221	73451	73119	2177	16	158	9	61009	2540245	2360
4	2017-01-17 22:26:14	0	0	0	0	0	0	3.23	3.32	0.01	103528	1	724	82559	103528	102804	3437	18	198	14	82160	2540315	3667
5	2017-01-17 22:36:42	0	0	0	0	0	0	4.09	3.62	0.01	136463	1	1254	104723	136463	135209	4936	20	237	18	103824	2540383	5211
6	2017-01-17 22:47:22	0	0	0	0	0	0	4.42	3.71	0.01	154222	1	1622	113337	154222	152600	5717	22	279	21	112175	2540455	6039
7	2017-01-17 22:58:12	0	0	0	0	0	0	4.89	3.78	0.01	170461	1	1923	125350	170461	168538	6445	24	301	22	124199	2540513	6792
8	2017-01-17 23:09:21	0	0	0	0	0	0	5.25	3.81	0.01	185495	1	2209	134790	185495	183286	7066	30	325	22	133322	2540567	7443
9	2017-01-17 23:20:39	0	0	0	0	0	0	5.64	3.84	0.01	198570	1	2469	144982	198570	196101	7617	38	343	23	143173	2540631	8021
10	2017-01-17 23:32:06	0	0	0	0	0	0	6.02	3.86	0.01	215408	1	2771	155279	215408	212637	8322	38	358	23	153027	2540687	8741
11	2017-01-17 23:43:46	0	0	0	0	0	0	6.32	3.88	0.01	224860	1	2997	163139	224860	221863	8733	38	375	24	160555	2540738	9170
12	2017-01-17 23:55:37	0	0	0	0	0	0	6.54	3.89	0.01	232964	1	3178	168809	232964	229786	9056	38	390	24	166089	2540788	9508
13	2017-01-18 00:07:37	0	0	0	0	0	0	6.87	3.88	0.01	243721	1	3411	177510	243721	240310	9453	40	406	24	174490	2540827	9923
14	2017-01-18 00:18:17	0	0	0	0	0	0	7.05	3.88	0.01	249576	1	3504	182028	249576	246072	9694	40	410	25	179009	2540858	10169
15	2017-01-18 00:29:07	0	0	0	0	0	0	7.23	3.88	0.01	254609	1	3611	186899	254609	250998	9886	40	419	25	183673	2540873	10370
16	2017-01-18 00:40:03	0	0	0	0	0	0	7.32	3.89	0.01	259340	1	3702	189396	259340	255638	10082	40	427	25	185950	2540896	10574
17	2017-01-18 00:51:09	0	0	0	0	0	0	7.44	3.89	0.01	263632	1	3781	192528	263632	259851	10264	44	432	25	188968	2540909	10765
18	2017-01-18 01:02:21	0	0	0	0	0	0	7.6	3.89	0.01	269911	1	3902	196906	269911	266009	10506	44	441	25	193232	2540927	11016
19	2017-01-18 01:13:46	0	0	0	0	0	0	7.74	3.9	0.01	273503	1	3978	200547	273503	269525	10669	44	448	25	196738	2540954	11186
20	2017-01-18 01:25:19	0	0	0	0	0	0	7.79	3.89	0.01	276719	1	4034	201734	276719	272685	10777	44	450	25	197880	2540964	11296
21	2017-01-18 01:36:53	0	0	0	0	0	0	7.87	3.9	0.01	281022	1	4105	203965	281022	276917	10962	44	456	26	200026	2540974	11488
22	2017-01-18 01:48:36	0	0	0	0	0	0	8.01	3.9	0.01	283406	1	4141	207276	283406	279265	11059	44	459	26	203423	2540981	11588
23	2017-01-18 02:00:31	0	0	0	0	0	0	8.04	3.9	0.01	285406	1	4169	208343	285406	281237	11143	44	462	26	204667	2544421	11675
24	2017-01-18 02:12:34	0	0	0	0	0	0	8.14	3.91	0.01	288032	1	4216	211041	288032	283816	11248	44	463	26	207159	2544421	11781
25	2017-01-18 02:24:52	0	0	0	0	0	0	8.18	3.9	0.01	289389	1	4227	212468	289389	285162	11290	44	465	26	208197	2544425	11825
26	2017-01-18 02:43:04	0	0	0	0	0	0	8.26	3.9	0.01	291920	1	4276	214744	291920	287644	11399	44	466	26	210211	2544442	11935
27	2017-01-18 02:56:31	0	0	0	0	0	0	8.31	3.91	0.01	292995	1	4297	216161	292995	288698	11444	44	467	26	211569	2544446	11981
28	2017-01-18 03:10:20	0	0	0	0	0	0	8.33	3.91	0.01	294437	1	4321	216645	294437	290116	11510	44	468	26	212032	2544451	12048
29	2017-01-18 03:24:16	0	0	0	0	0	0	8.37	3.91	0.01	295607	1	4335	217646	295607	291272	11567	44	471	26	212874	2544453	12108
30	2017-01-18 03:40:22	0	0	0	0	0	0	8.39	3.92	0.01	296711	1	4355	218375	296711	292356	11622	44	472	26	213579	2544457	12164
31	2017-01-18 03:53:28	0	0	0	0	0	0	8.53	3.92	0.01	297792	1	4374	221650	297792	293418	11668	44	475	26	216953	2544461	12213
32	2017-01-18 04:07:05	0	0	0	0	0	0	8.56	3.92	0.01	298416	1	4398	222463	298416	294027	11697	44	476	26	217731	2544468	12243
33	2017-01-18 04:21:16	0	0	0	0	0	0	8.61	3.92	0.01	299388	1	4411	223927	299388	294977	11739	44	477	26	219134	2544475	12286
34	2017-01-18 04:36:28	0	0	0	0	0	0	8.62	3.92	0.01	300235	1	4428	224052	300235	295807	11783	44	477	26	219254	2544479	12330
35	2017-01-18 04:53:35	0	0	0	0	0	0	8.65	3.93	0.02	301426	1	4460	224931	301426	296966	11839	44	480	26	220158	2544486	12389
36	2017-01-18 05:08:37	0	0	0	0	0	0	8.68	3.93	0.02	302456	1	4480	225611	302456	297976	11885	46	483	26	220810	2544487	12440
37	2017-01-18 05:23:53	0	0	0	0	0	0	8.71	3.93	0.02	303681	1	4508	226536	303681	299173	11930	46	485	26	221695	2544496	12487
38	2017-01-18 05:39:15	0	0	0	0	0	0	8.73	3.93	0.02	305130	1	4534	227366	305130	300596	12004	46	487	27	222108	2544504	12564
39	2017-01-18 05:54:29	0	0	0	0	0	0	8.83	3.94	0.02	306887	1	4569	229916	306887	302318	12089	46	489	27	224605	2544511	12651
40	2017-01-18 06:23:47	0	0	0	0	0	0	8.95	3.95	0.02	311479	1	4678	233008	311479	306801	12303	48	502	27	227689	2544535	12880
41	2017-01-18 06:39:32	0	0	0	0	0	0	9.07	3.96	0.02	314370	1	4747	235574	314370	309623	12445	48	504	27	230894	2544561	13024
42	2017-01-18 06:55:10	0	0	0	0	0	0	9.11	3.96	0.02	317412	1	4843	236781	317412	312569	12577	50	509	27	231914	2544577	13163
43	2017-01-18 07:19:01	0	0	0	0	0	0	9.26	3.97	0.02	323584	1	5000	240604	323584	318584	12836	50	515	27	235723	2544627	13428
44	2017-01-18 07:34:54	0	0	0	0	0	0	9.36	3.98	0.02	327867	1	5111	243069	327867	322756	13042	52	520	26	238089	2544667	13640
45	2017-01-18 07:58:50	0	0	0	0	0	0	9.58	3.99	0.02	335326	1	5319	248924	335326	330007	13384	52	533	26	243668	2544748	13995
46	2017-01-18 08:17:13	0	0	0	0	0	0	9.64	4	0.02	340237	1	5432	250683	340237	334805	13611	56	538	27	245220	2544810	14232
47	2017-01-18 08:40:41	0	0	0	0	0	0	9.83	4.01	0.02	349162	1	5638	255677	349162	343524	14014	56	554	28	250117	2544897	14652
48	2017-01-18 08:57:35	0	0	0	0	0	0	9.94	4.02	0.02	354569	1	5781	258505	354569	348788	14262	56	563	28	252989	2544964	14909
49	2017-01-18 09:25:54	0	0	0	0	0	0	10.2	4.03	0.02	365441	1	6067	264375	365441	359374	14736	64	571	28	259513	2545069	15399
50	2017-01-18 09:52:37	0	0	0	0	0	0	10.45	4.04	0.02	374425	1	6324	271266	374425	368101	15132	68	589	29	266057	2545159	15818
51	2017-01-18 10:12:24	0	0	0	0	0	0	10.52	4.05	0.02	380786	1	6491	273162	380786	374295	15411	68	597	29	267882	2545236	16105
52	2017-01-18 10:34:20	0	0	0	0	0	0	10.65	4.05	0.02	388782	1	6713	276056	388782	382069	15743	70	606	29	271067	2545309	16448
53	2017-01-18 11:08:42	0	0	0	0	0	0	10.83	4.05	0.02	399185	1	7038	280797	399185	392147	16173	70	623	31	275636	2545390	16897
54	2017-01-18 11:58:52	0	0	0	0	0	0	11.04	4.04	0.02	412684	1	7379	286088	412684	405305	16693	70	634	33	281039	2545543	17430
55	2017-01-18 12:08:54	0	0	0	0	0	0	11.05	4.04	0.02	415284	1	7438	286379	415284	407846	16783	70	638	33	281320	2545561	17524
56	2017-01-18 12:18:52	0	0	0	0	0	0	11.08	4.04	0.02	417910	1	7497	287189	417910	410413	16888	72	643	33	282101	2545585	17636
57	2017-01-18 12:28:54	0	0	0	0	0	0	11.16	4.04	0.02	420571	1	7562	289329	420571	413009	16979	72	644	33	284166	2545608	17728
58	2017-01-18 12:38:54	0	0	0	0	0	0	11.24	4.03	0.02	423130	1	7617	291388	423130	415513	17068	74	645	33	286152	2545631	17820
59	2017-01-18 12:48:54	0	0	0	0	0	0	11.31	4.03	0.02	425809	1	7670	293227	425809	418139	17170	74	646	33	287925	2545677	17923
60	2017-01-18 12:58:54	0	0	0	0	0	0	11.37	4.03	0.02	428540	1	7742	294790	428540	420798	17260	74	649	33	289324	2545711	18016
61	2017-01-18 13:08:57	0	0	0	0	0	0	11.41	4.02	0.02	431146	1	7800	295924	431146	423346	17335	74	650	33	290416	2545743	18092
62	2017-01-18 13:18:55	0	0	0	0	0	0	11.48	4.02	0.02	433715	1	7843	297716	433715	425872	17432	74	652	33	292149	2545765	18191
63	2017-01-18 13:28:58	0	0	0	0	0	0	11.57	4.02	0.02	436213	1	7894	300169	436213	428319	17533	74	653	33	294511	2545800	18293
64	2017-01-18 13:38:57	0	0	0	0	0	0	11.63	4.01	0.02	438506	1	7937	301896	438506	430569	17596	74	654	33	296173	2545835	18357
65	2017-01-18 13:48:57	0	0	0	0	0	0	11.67	4.01	0.02	441047	1	7977	302967	441047	433070	17687	74	657	33	297204	2545870	18451
66	2017-01-18 13:58:58	0	0	0	0	0	0	11.74	4.01	0.02	443565	1	8030	304696	443565	435535	17778	74	660	33	298867	2545900	18545
67	2017-01-18 14:09:00	0	0	0	0	0	0	11.83	4	0.02	445914	1	8075	307022	445914	437839	17854	74	665	33	301105	2545928	18626
68	2017-01-18 14:18:59	0	0	0	0	0	0	11.86	4	0.02	448265	1	8112	307969	448265	440153	17942	74	666	33	302016	2545962	18715
69	2017-01-18 14:28:59	0	0	0	0	0	0	11.91	4	0.02	450434	1	8150	309107	450434	442284	18021	76	668	33	303110	2545998	18798
70	2017-01-18 14:39:13	0	0	0	0	0	0	11.95	4	0.02	452482	1	8183	310253	452482	444299	18092	76	672	33	304212	2546025	18873
71	2017-01-18 14:49:37	0	0	0	0	0	0	12.03	4	0.02	454758	1	8223	312521	454758	446535	18173	76	673	33	306392	2546052	18955
72	2017-01-18 15:00:09	0	0	0	0	0	0	12.05	3.99	0.02	456957	1	8251	312987	456957	448706	18254	76	673	34	306840	2546086	19037
73	2017-01-18 15:10:53	0	0	0	0	0	0	12.11	3.99	0.02	458844	1	8280	314497	458844	450564	18328	76	674	34	308291	2546117	19112
74	2017-01-18 15:21:53	0	0	0	0	0	0	12.12	3.99	0.02	460629	1	8312	314881	460629	452317	18400	74	676	34	308660	2546156	19184
75	2017-01-18 15:33:05	0	0	0	0	0	0	12.15	4	0.02	462447	1	8363	315715	462447	454097	18480	74	677	34	309462	2546205	19265
76	2017-01-18 15:44:29	0	0	0	0	0	0	12.16	3.99	0.02	465094	1	8393	315844	465094	456701	18546	74	677	34	309586	2546237	19331
77	2017-01-18 15:56:06	0	0	0	0	0	0	12.19	3.99	0.02	466921	1	8427	316615	466921	458494	18614	74	677	34	310326	2546265	19399
78	2017-01-18 16:07:50	0	0	0	0	0	0	12.21	3.99	0.02	468783	1	8448	317134	468783	460335	18685	74	677	34	310825	2546303	19470
79	2017-01-18 16:19:52	0	0	0	0	0	0	12.29	3.98	0.02	471470	1	8482	319326	471470	462988	18780	74	677	34	312898	2546325	19565
80	2017-01-18 16:32:42	0	0	0	0	0	0	12.32	3.98	0.02	473210	1	8511	320151	473210	464699	18838	74	678	34	313690	2546355	19624
81	2017-01-18 16:46:41	0	0	0	0	0	0	12.42	3.98	0.02	475809	1	8544	322885	475809	467265	18930	74	679	34	316187	2546384	19717
82	2017-01-18 16:59:49	0	0	0	0	0	0	12.44	3.97	0.02	478412	1	8571	323611	478412	469841	19009	76	680	34	316850	2546413	19799
83	2017-01-18 17:12:43	0	0	0	0	0	0	12.49	3.97	0.02	480098	1	8607	324797	480098	471491	19069	76	683	34	317987	2546453	19862
84	2017-01-18 17:25:43	0	0	0	0	0	0	12.53	3.97	0.02	482407	1	8657	326131	482407	473750	19147	76	685	34	319003	2546509	19942
85	2017-01-18 17:39:00	0	0	0	0	0	0	12.6	3.97	0.02	484827	1	8692	328049	484827	476135	19248	76	685	34	320837	2546543	20043
86	2017-01-18 17:52:26	0	0	0	0	0	0	12.64	3.97	0.02	486291	1	8724	329217	486291	477567	19304	76	688	34	321955	2546579	20102
87	2017-01-18 18:08:33	0	0	0	0	0	0	12.72	3.97	0.02	489254	1	8758	331473	489254	480496	19414	76	690	34	323976	2546627	20214
88	2017-01-18 18:24:46	0	0	0	0	0	0	12.8	3.96	0.02	491471	1	8799	333616	491471	482672	19473	76	694	35	326023	2546670	20278
89	2017-01-18 18:41:23	0	0	0	0	0	0	12.89	3.96	0.02	493646	1	8844	335942	493646	484802	19540	76	696	35	328244	2546741	20347
90	2017-01-18 18:58:19	0	0	0	0	0	0	12.93	3.96	0.02	496063	1	8904	337021	496063	487172	19637	76	696	35	329274	2546795	20444
91	2017-01-18 19:15:33	0	0	0	0	0	0	12.97	3.95	0.02	498959	1	8939	338143	498959	490020	19709	76	696	35	330345	2546846	20516
92	2017-01-18 19:33:07	0	0	0	0	0	0	13.02	3.95	0.02	501091	1	8970	339441	501091	492121	19787	76	696	35	331583	2546894	20594
93	2017-01-18 19:51:01	0	0	0	0	0	0	13.06	3.94	0.02	504036	1	9023	340448	504036	495013	19880	78	699	36	332545	2546947	20693
94	2017-01-18 20:09:49	0	0	0	0	0	0	13.12	3.94	0.02	507401	1	9088	342028	507401	498313	19980	80	699	36	334052	2547008	20795
95	2017-01-18 20:29:49	0	0	0	0	0	0	13.26	3.93	0.02	510657	1	9137	345919	510657	501520	20082	80	701	36	337767	2547074	20899
96	2017-01-18 20:50:43	0	0	0	0	0	0	13.36	3.93	0.02	513918	1	9201	348548	513918	504717	20172	82	703	36	340273	2547142	20993
97	2017-01-18 21:12:44	0	0	0	0	0	0	13.45	3.92	0.02	517157	1	9253	350362	517157	507904	20276	82	705	36	342607	2547219	21099
98	2017-01-18 21:33:26	0	0	0	0	0	0	13.56	3.92	0.02	520371	1	9319	353664	520371	511065	20397	82	708	36	345301	2547267	21223
99	2017-01-18 21:58:55	0	0	0	0	0	0	13.66	3.9	0.02	524906	1	9382	356432	524906	515524	20491	82	713	36	347940	2547331	21322
100	2017-01-18 22:22:38	0	0	0	0	0	0	13.68	3.9	0.02	527609	1	9438	356776	527609	518171	20567	82	714	36	348390	2547423	21399
101	2017-01-18 22:44:41	0	0	0	0	0	0	13.78	3.89	0.02	530782	1	9518	359677	530782	521264	20638	82	715	36	351076	2547498	21471
102	2017-01-18 23:09:59	0	0	0	0	0	0	13.85	3.88	0.02	533574	1	9576	361979	533574	523998	20709	82	717	36	352947	2547577	21544
103	2017-01-18 23:27:40	0	0	0	0	0	0	13.9	3.88	0.02	535000	1	9604	362944	535000	525396	20756	82	718	36	354188	2547633	21592
104	2017-01-18 23:45:31	0	0	0	0	0	0	13.93	3.88	0.02	536660	1	9638	363616	536660	527022	20805	82	720	36	354828	2547685	21643
105	2017-01-19 00:16:41	0	0	0	0	0	0	13.99	3.88	0.02	538772	1	9671	365203	538772	529101	20882	82	722	36	356420	2547753	21722
106	2017-01-19 00:34:32	0	0	0	0	0	0	14.01	3.88	0.02	539911	1	9689	365677	539911	530222	20926	82	722	36	356872	2547783	21766
107	2017-01-19 00:53:08	0	0	0	0	0	0	14.02	3.88	0.02	540579	1	9696	366045	540579	530883	20951	82	722	36	357222	2547808	21791
108	2017-01-19 01:11:56	0	0	0	0	0	0	14.02	3.87	0.02	541346	1	9702	366045	541346	531644	20976	82	722	36	357222	2547821	21816
109	2017-01-19 01:40:44	0	0	0	0	0	0	14.06	3.88	0.02	542180	1	9715	366045	542180	532465	21011	82	722	36	358214	2547848	21851
110	2017-01-19 02:00:19	0	0	0	0	0	0	14.06	3.88	0.02	542606	1	9721	366391	542606	532885	21027	82	722	36	358546	2549822	21867
111	2017-01-19 02:19:59	0	0	0	0	0	0	14.07	3.88	0.02	542970	1	9728	366521	542970	533242	21041	82	722	36	358671	2549835	21881
112	2017-01-19 02:50:05	0	0	0	0	0	0	14.07	3.88	0.02	543456	1	9730	366738	543456	533726	21060	82	723	36	358878	2549840	21901
113	2017-01-19 03:10:44	0	0	0	0	0	0	14.09	3.87	0.02	543680	1	9731	367086	543680	533949	21066	82	723	36	359212	2549844	21907
114	2017-01-19 03:49:10	0	0	0	0	0	0	14.1	3.87	0.02	543999	1	9734	367435	543999	534265	21078	82	723	36	359545	2549849	21919
115	2017-01-19 04:15:10	0	0	0	0	0	0	14.11	3.87	0.02	544228	1	9737	367740	544228	534491	21083	82	723	36	359838	2549857	21924
116	2017-01-19 04:41:53	0	0	0	0	0	0	14.11	3.87	0.02	544403	1	9739	367740	544403	534664	21090	82	724	36	359838	2549865	21932
117	2017-01-19 05:07:40	0	0	0	0	0	0	14.11	3.87	0.02	544569	1	9741	367740	544569	534828	21096	82	724	36	359838	2549869	21938
118	2017-01-19 05:27:11	0	0	0	0	0	0	14.11	3.87	0.02	544741	1	9744	367740	544741	534997	21101	82	724	36	359838	2549871	21943
119	2017-01-19 05:47:24	0	0	0	0	0	0	14.11	3.87	0.02	544962	1	9752	367740	544962	535210	21110	82	724	36	359838	2549878	21952
120	2017-01-19 06:11:03	0	0	0	0	0	0	14.11	3.87	0.02	545281	1	9754	367740	545281	535527	21124	82	724	36	359838	2549891	21966
121	2017-01-19 09:25:17	0	0	0	0	0	0	14.17	3.88	0.02	550939	1	9919	370252	550939	541020	21364	82	724	37	361313	2550280	22207
122	2017-01-19 09:42:29	0	0	0	0	0	0	14.17	3.88	0.02	551323	1	9934	370252	551323	541389	21385	82	724	37	361313	2550323	22228
123	2017-01-19 09:52:30	0	0	0	0	0	0	14.19	3.88	0.02	551544	1	9940	370341	551544	541604	21390	82	724	37	361904	2550357	22233
124	2017-01-19 10:02:28	0	0	0	0	0	0	14.19	3.88	0.02	551776	1	9948	370341	551776	541828	21398	82	724	37	361904	2550393	22241
125	2017-01-19 10:12:29	0	0	0	0	0	0	14.19	3.88	0.02	551971	1	9954	370341	551971	542017	21403	82	724	37	361904	2550417	22246
126	2017-01-19 10:22:32	0	0	0	0	0	0	14.19	3.88	0.02	552129	1	9959	370341	552129	542170	21409	82	724	37	361904	2550463	22252
127	2017-01-19 10:32:32	0	0	0	0	0	0	14.2	3.88	0.02	552233	1	9964	370651	552233	542269	21411	82	724	37	362073	2550494	22254
128	2017-01-19 10:42:33	0	0	0	0	0	0	14.2	3.88	0.02	552329	1	9969	370651	552329	542360	21416	82	724	37	362073	2550520	22259
129	2017-01-19 10:52:35	0	0	0	0	0	0	14.2	3.88	0.02	552425	1	9973	370651	552425	542452	21420	82	724	37	362073	2550538	22263
130	2017-01-19 11:02:37	0	0	0	0	0	0	14.2	3.88	0.02	552522	1	9978	370651	552522	542544	21422	82	724	37	362073	2550567	22265
131	2017-01-19 11:12:41	0	0	0	0	0	0	14.2	3.88	0.02	552622	1	9982	370651	552622	542640	21425	82	724	37	362073	2550599	22268
132	2017-01-19 11:22:44	0	0	0	0	0	0	14.2	3.88	0.02	552713	1	9986	370651	552713	542727	21427	82	724	37	362073	2550633	22270
133	2017-01-19 11:33:27	0	0	0	0	0	0	14.2	3.88	0.02	552772	1	9987	370651	552772	542785	21431	82	724	37	362073	2550669	22274
134	2017-01-19 11:44:46	0	0	0	0	0	0	14.2	3.88	0.02	552849	1	9993	370651	552849	542857	21436	82	724	37	362073	2550697	22279
135	2017-01-19 11:56:10	0	0	0	0	0	0	14.19	3.88	0.02	552945	1	9994	370651	552945	542951	21439	82	724	37	362073	2550736	22282
136	2017-01-19 12:07:15	0	0	0	0	0	0	14.19	3.88	0.02	553005	1	10000	370651	553005	543005	21443	82	724	37	362073	2550770	22286
137	2017-01-19 12:18:26	0	0	0	0	0	0	14.19	3.88	0.02	553060	1	10002	370651	553060	543058	21446	82	724	37	362073	2550805	22289
138	2017-01-19 12:29:50	0	0	0	0	0	0	14.2	3.88	0.02	553116	1	10005	370695	553116	543111	21447	82	724	37	362115	2550835	22290
139	2017-01-19 12:41:35	0	0	0	0	0	0	14.2	3.88	0.02	553187	1	10007	370695	553187	543180	21448	82	724	37	362115	2550864	22291
140	2017-01-19 12:53:18	0	0	0	0	0	0	14.2	3.88	0.02	553245	1	10013	370828	553245	543232	21450	82	724	37	362243	2550901	22293
141	2017-01-19 13:05:32	0	0	0	0	0	0	14.2	3.88	0.02	553307	1	10016	370828	553307	543291	21453	82	724	37	362243	2550932	22296
142	2017-01-19 13:17:45	0	0	0	0	0	0	14.2	3.88	0.02	553358	1	10020	370828	553358	543338	21454	82	724	37	362243	2550968	22297
143	2017-01-19 13:30:32	0	0	0	0	0	0	14.2	3.88	0.02	553420	1	10021	370828	553420	543399	21454	82	724	37	362243	2551005	22297
144	2017-01-19 13:43:31	0	0	0	0	0	0	14.2	3.88	0.02	553462	1	10027	370828	553462	543435	21456	82	724	37	362243	2551045	22299
145	2017-01-19 13:56:44	0	0	0	0	0	0	14.2	3.88	0.02	553510	1	10029	370828	553510	543481	21457	82	724	37	362243	2551076	22300
146	2017-01-19 14:10:04	0	0	0	0	0	0	14.2	3.88	0.02	553571	1	10033	370828	553571	543538	21457	82	724	37	362243	2551107	22300
147	2017-01-19 14:23:35	0	0	0	0	0	0	14.2	3.88	0.02	553612	1	10036	370828	553612	543576	21460	82	724	37	362243	2551149	22303
148	2017-01-19 14:37:33	0	0	0	0	0	0	14.2	3.88	0.02	553671	1	10039	370828	553671	543632	21461	82	724	37	362243	2551191	22304
149	2017-01-19 14:51:36	0	0	0	0	0	0	14.2	3.88	0.02	553731	1	10040	370828	553731	543691	21463	82	724	37	362243	2551230	22306
150	2017-01-19 15:05:39	0	0	0	0	0	0	14.2	3.88	0.02	553802	1	10044	370828	553802	543758	21465	82	724	37	362243	2551279	22308
151	2017-01-19 15:20:02	0	0	0	0	0	0	14.2	3.88	0.02	553846	1	10047	370828	553846	543824	21467	82	724	37	362243	2551325	22310
152	2017-01-19 15:34:43	0	0	0	0	0	0	14.2	3.88	0.02	553909	1	10049	370828	553909	543860	21469	82	724	37	362243	2551359	22312
153	2017-01-19 15:49:38	0	0	0	0	0	0	14.2	3.88	0.02	553959	1	10057	371006	553959	543902	21470	82	724	37	362412	2551393	22313
154	2017-01-19 16:05:00	0	0	0	0	0	0	14.2	3.88	0.02	554014	1	10060	371006	554014	543954	21474	82	724	37	362412	2551439	22317
155	2017-01-19 16:21:16	0	0	0	0	0	0	14.2	3.88	0.02	554076	1	10066	371006	554076	544010	21474	82	724	37	362412	2551486	22317
156	2017-01-19 16:37:53	0	0	0	0	0	0	14.2	3.88	0.02	554118	1	10074	371006	554118	544044	21480	82	724	37	362412	2551544	22323
157	2017-01-19 16:54:10	0	0	0	0	0	0	14.2	3.88	0.02	554162	1	10077	371006	554162	544085	21483	82	724	37	362412	2551586	22326
158	2017-01-19 17:11:01	0	0	0	0	0	0	14.2	3.88	0.02	554211	1	10077	371006	554211	544134	21486	82	724	37	362412	2551637	22329
159	2017-01-19 17:29:34	0	0	0	0	0	0	14.2	3.88	0.02	554240	1	10082	371006	554240	544158	21486	82	724	37	362412	2551687	22329
160	2017-01-19 17:50:35	0	0	0	0	0	0	14.2	3.88	0.02	554310	1	10087	371006	554310	544223	21490	82	724	37	362412	2551743	22333
161	2017-01-19 18:08:30	0	0	0	0	0	0	14.2	3.88	0.02	554344	1	10088	371006	554344	544256	21491	82	724	37	362412	2551793	22334
162	2017-01-19 18:27:32	0	0	0	0	0	0	14.2	3.88	0.02	554405	1	10092	371006	554405	544313	21492	82	724	37	362412	2551850	22335
163	2017-01-19 18:45:28	0	0	0	0	0	0	14.21	3.88	0.02	554456	1	10096	371184	554456	544360	21494	82	724	37	362582	2551894	22337
164	2017-01-19 19:08:13	0	0	0	0	0	0	14.21	3.88	0.02	554513	1	10100	371184	554513	544413	21494	82	724	37	362582	2551952	22337
165	2017-01-19 19:31:05	0	0	0	0	0	0	14.21	3.88	0.02	554586	1	10107	371184	554586	544479	21495	82	724	37	362582	2552014	22338
166	2017-01-19 19:58:47	0	0	0	0	0	0	14.21	3.88	0.02	554664	1	10115	371184	554664	544549	21495	82	724	37	362582	2552114	22338
167	2017-01-19 20:22:33	0	0	0	0	0	0	14.21	3.88	0.02	554719	1	10120	371184	554719	544599	21496	82	724	37	362582	2552180	22339
168	2017-01-19 20:47:09	0	0	0	0	0	0	14.21	3.88	0.02	554785	1	10123	371184	554785	544662	21500	82	724	37	362582	2552241	22343
169	2017-01-19 21:12:05	0	0	0	0	0	0	14.23	3.88	0.02	554884	1	10129	371719	554884	544755	21503	82	724	37	363092	2552298	22346
170	2017-01-19 21:37:02	0	0	0	0	0	0	14.23	3.88	0.02	554959	1	10132	371719	554959	544827	21508	82	724	37	363092	2552374	22351
171	2017-01-19 22:12:47	0	0	0	0	0	0	14.23	3.88	0.02	555038	1	10136	372076	555038	544902	21508	82	724	37	363092	2552469	22351
172	2017-01-19 22:39:13	0	0	0	0	0	0	14.22	3.88	0.02	555099	1	10143	372076	555099	544956	21511	82	724	37	363092	2552546	22354
173	2017-01-19 23:21:29	0	0	0	0	0	0	14.22	3.87	0.02	555191	1	10154	372076	555191	545037	21512	82	724	37	363092	2552654	22355
174	2017-01-19 23:54:26	0	0	0	0	0	0	14.22	3.87	0.02	555233	1	10157	372076	555233	545076	21512	82	724	37	363092	2552732	22355
175	2017-01-20 00:22:37	0	0	0	0	0	0	14.22	3.87	0.02	555259	1	10161	372076	555259	545098	21512	82	724	37	363092	2552773	22355
176	2017-01-20 00:55:28	0	0	0	0	0	0	14.22	3.87	0.02	555279	1	10165	372076	555279	545114	21513	82	724	37	363092	2552809	22356
177	2017-01-20 01:33:57	0	0	0	0	0	0	14.22	3.87	0.02	555303	1	10168	372076	555303	545135	21513	82	724	37	363092	2552827	22356
178	2017-01-20 01:54:17	0	0	0	0	0	0	14.22	3.87	0.02	555308	1	10169	372076	555308	545139	21513	82	724	37	363092	2552837	22356
179	2017-01-20 02:35:43	0	0	0	0	0	0	14.21	3.87	0.02	555318	1	10170	372076	555318	545148	21513	82	724	37	363092	2554930	22356
180	2017-01-20 03:02:14	0	0	0	0	0	0	14.21	3.87	0.02	555324	1	10171	372076	555324	545153	21514	82	724	37	363092	2554938	22357
181	2017-01-20 03:30:20	0	0	0	0	0	0	14.21	3.87	0.02	555329	1	10171	372076	555329	545158	21514	82	724	37	363092	2554939	22357
182	2017-01-20 03:55:35	0	0	0	0	0	0	14.21	3.87	0.02	555333	1	10172	372076	555333	545161	21515	82	724	37	363092	2554938	22358
183	2017-01-20 04:27:55	0	0	0	0	0	0	14.21	3.87	0.02	555336	1	10172	372076	555336	545164	21515	82	724	37	363092	2554942	22358
184	2017-01-20 05:01:26	0	0	0	0	0	0	14.21	3.87	0.02	555338	1	10172	372076	555338	545166	21515	82	724	37	363092	2554948	22358
185	2017-01-20 05:28:34	0	0	0	0	0	0	14.21	3.87	0.02	555341	1	10173	372076	555341	545168	21515	82	724	37	363092	2554959	22358
186	2017-01-20 06:00:15	0	0	0	0	0	0	14.21	3.87	0.02	555348	1	10177	372076	555348	545171	21515	82	724	37	363092	2554973	22358
187	2017-01-20 06:29:33	0	0	0	0	0	0	14.21	3.87	0.02	555353	1	10177	372076	555353	545176	21515	82	724	37	363092	2554998	22358
188	2017-01-20 06:57:10	0	0	0	0	0	0	14.21	3.87	0.02	555354	1	10177	372076	555354	545177	21515	82	724	37	363092	2555018	22358
189	2017-01-20 07:42:23	0	0	0	0	0	0	14.21	3.87	0.02	555364	1	10179	372076	555364	545185	21515	82	724	37	363092	2555074	22358
190	2017-01-20 08:18:00	0	0	0	0	0	0	14.21	3.87	0.02	555376	1	10181	372076	555376	545195	21515	82	724	37	363092	2555139	22358
191	2017-01-20 08:48:09	0	0	0	0	0	0	14.21	3.87	0.02	555392	1	10184	372076	555392	545208	21516	82	724	37	363092	2555203	22359
192	2017-01-20 09:20:46	0	0	0	0	0	0	14.21	3.87	0.02	555401	1	10184	372076	555401	545217	21516	82	724	37	363092	2555290	22359
193	2017-01-20 10:01:15	0	0	0	0	0	0	14.21	3.87	0.02	555414	1	10185	372076	555414	545229	21516	82	724	37	363092	2555343	22359
194	2017-01-20 10:36:08	0	0	0	0	0	0	14.21	3.87	0.02	555427	1	10187	372076	555427	545240	21516	82	724	37	363092	2555409	22359
195	2017-01-20 11:53:23	0	0	0	0	0	0	14.21	3.87	0.02	555457	1	10190	372076	555457	545267	21517	82	724	37	363092	2555569	22360
196	2017-01-20 12:03:21	0	0	0	0	0	0	14.21	3.87	0.02	555462	1	10192	372076	555462	545270	21517	82	724	37	363092	2555583	22360
197	2017-01-20 12:13:21	0	0	0	0	0	0	14.21	3.87	0.02	555463	1	10193	372076	555463	545270	21517	82	724	37	363092	2555599	22360
198	2017-01-20 12:15:43	0	0	0	0	0	0	14.21	3.87	0.02	555463	1	10193	372076	555463	545270	21517	82	724	37	363092	2555596	22360
199	2017-01-20 12:25:55	0	0	0	0	0	0	14.21	3.87	0.02	555465	1	10193	372076	555465	545272	21517	82	724	37	363092	2555612	22360
200	2017-01-20 12:35:49	0	0	0	0	0	0	14.21	3.87	0.02	555466	1	10193	372076	555466	545273	21517	82	724	37	363092	2555624	22360
201	2017-01-20 12:45:53	0	0	0	0	0	0	14.21	3.87	0.02	555469	1	10193	372076	555469	545276	21517	82	724	37	363092	2555656	22360
202	2017-01-20 12:55:55	0	0	0	0	0	0	14.21	3.87	0.02	555470	1	10194	372076	555470	545276	21517	82	724	37	363092	2555676	22360
203	2017-01-20 13:05:54	0	0	0	0	0	0	14.21	3.87	0.02	555472	1	10194	372076	555472	545278	21517	82	724	37	363092	2555710	22360
204	2017-01-20 13:15:54	0	0	0	0	0	0	14.21	3.87	0.02	555474	1	10194	372076	555474	545280	21517	82	724	37	363092	2555749	22360
205	2017-01-20 13:25:55	0	0	0	0	0	0	14.21	3.87	0.02	555475	1	10194	372076	555475	545281	21517	82	724	37	363092	2555764	22360
206	2017-01-20 13:35:55	0	0	0	0	0	0	14.21	3.87	0.02	555478	1	10194	372076	555478	545284	21517	82	724	37	363092	2555796	22360
207	2017-01-20 13:45:54	0	0	0	0	0	0	14.21	3.87	0.02	555484	1	10195	372076	555484	545289	21519	82	724	37	363092	2555821	22362
208	2017-01-20 13:55:57	0	0	0	0	0	0	14.21	3.87	0.02	555486	1	10195	372076	555486	545291	21519	82	724	37	363092	2555837	22362
209	2017-01-20 14:05:57	0	0	0	0	0	0	14.21	3.87	0.02	555487	1	10195	372076	555487	545292	21519	82	724	37	363092	2555861	22362
210	2017-01-20 14:15:58	0	0	0	0	0	0	14.21	3.87	0.02	555496	1	10196	372076	555496	545300	21519	82	724	37	363092	2555887	22362
211	2017-01-20 14:26:01	0	0	0	0	0	0	14.21	3.87	0.02	555496	1	10196	372076	555496	545300	21519	82	724	37	363092	2555902	22362
212	2017-01-20 14:36:13	0	0	0	0	0	0	14.21	3.87	0.02	555500	1	10197	372076	555500	545303	21519	82	724	37	363092	2555929	22362
213	2017-01-20 14:46:35	0	0	0	0	0	0	14.21	3.87	0.02	555503	1	10197	372076	555503	545306	21519	82	724	37	363092	2555950	22362
214	2017-01-20 14:57:14	0	0	0	0	0	0	14.21	3.87	0.02	555510	1	10199	372076	555510	545311	21519	82	724	37	363092	2555975	22362
215	2017-01-20 15:08:01	0	0	0	0	0	0	14.21	3.87	0.02	555513	1	10200	372076	555513	545313	21519	82	724	37	363092	2555988	22362
216	2017-01-20 15:18:54	0	0	0	0	0	0	14.21	3.87	0.02	555515	1	10200	372076	555515	545315	21519	82	724	37	363092	2556005	22362
217	2017-01-20 15:30:10	0	0	0	0	0	0	14.21	3.87	0.02	555516	1	10201	372076	555516	545315	21519	82	724	37	363092	2556019	22362
218	2017-01-20 15:41:24	0	0	0	0	0	0	14.21	3.87	0.02	555520	1	10202	372076	555520	545318	21519	82	724	37	363092	2556037	22362
219	2017-01-20 15:53:04	0	0	0	0	0	0	14.21	3.87	0.02	555520	1	10202	372076	555520	545318	21519	82	724	37	363092	2556060	22362
220	2017-01-20 16:04:46	0	0	0	0	0	0	14.21	3.87	0.02	555522	1	10202	372076	555522	545320	21519	82	724	37	363092	2556082	22362
221	2017-01-20 16:16:43	0	0	0	0	0	0	14.2	3.87	0.02	555526	1	10203	372076	555526	545323	21519	82	724	37	363092	2556110	22362
222	2017-01-20 16:28:45	0	0	0	0	0	0	14.2	3.87	0.02	555530	1	10203	372076	555530	545327	21519	82	724	37	363092	2556143	22362
223	2017-01-20 16:41:07	0	0	0	0	0	0	14.2	3.87	0.02	555535	1	10203	372076	555535	545332	21519	82	724	37	363092	2556170	22362
224	2017-01-20 16:53:37	0	0	0	0	0	0	14.2	3.87	0.02	555540	1	10203	372076	555540	545337	21519	82	724	37	363092	2556196	22362
225	2017-01-20 17:06:35	0	0	0	0	0	0	14.2	3.87	0.02	555544	1	10203	372076	555544	545341	21519	82	724	37	363092	2556218	22362
226	2017-01-20 17:19:57	0	0	0	0	0	0	14.2	3.87	0.02	555547	1	10204	372076	555547	545343	21520	82	724	37	363092	2556247	22363
227	2017-01-20 17:34:24	0	0	0	0	0	0	14.2	3.87	0.02	555553	1	10206	372076	555553	545347	21520	82	724	37	363092	2556274	22363
228	2017-01-20 17:48:12	0	0	0	0	0	0	14.2	3.87	0.02	555562	1	10208	372076	555562	545354	21520	82	724	37	363092	2556297	22363
229	2017-01-20 18:01:35	0	0	0	0	0	0	14.2	3.87	0.02	555565	1	10208	372076	555565	545357	21520	82	724	37	363092	2556316	22363
230	2017-01-20 18:15:19	0	0	0	0	0	0	14.2	3.87	0.02	555567	1	10209	372076	555567	545358	21520	82	724	37	363092	2556342	22363
231	2017-01-20 18:29:11	0	0	0	0	0	0	14.2	3.87	0.02	555573	1	10210	372076	555573	545363	21520	82	724	37	363092	2556358	22363
232	2017-01-20 18:43:14	0	0	0	0	0	0	14.2	3.87	0.02	555581	1	10210	372076	555581	545371	21520	82	724	37	363092	2556385	22363
233	2017-01-20 19:00:59	0	0	0	0	0	0	14.2	3.87	0.02	555589	1	10210	372076	555589	545379	21520	82	724	37	363092	2556419	22363
234	2017-01-20 19:20:04	0	0	0	0	0	0	14.2	3.87	0.02	555594	1	10211	372076	555594	545383	21520	82	724	37	363092	2556443	22363
235	2017-01-20 19:39:34	0	0	0	0	0	0	14.2	3.87	0.02	555599	1	10211	372076	555599	545388	21520	82	724	37	363092	2556461	22363
236	2017-01-20 19:59:13	0	0	0	0	0	0	14.2	3.87	0.02	555605	1	10212	372076	555605	545393	21520	82	724	37	363092	2556502	22363
237	2017-01-20 20:19:39	0	0	0	0	0	0	14.2	3.87	0.02	555608	1	10212	372076	555608	545396	21520	82	724	37	363092	2556539	22363
238	2017-01-20 20:40:40	0	0	0	0	0	0	14.2	3.87	0.02	555619	1	10212	372076	555619	545407	21520	82	724	37	363092	2556584	22363
239	2017-01-20 21:01:38	0	0	0	0	0	0	14.2	3.87	0.02	555627	1	10215	372076	555627	545412	21520	82	724	37	363092	2556636	22363
240	2017-01-20 21:23:55	0	0	0	0	0	0	14.2	3.87	0.02	555636	1	10216	372076	555636	545420	21520	82	724	37	363092	2556669	22363
241	2017-01-20 21:49:44	0	0	0	0	0	0	14.2	3.87	0.02	555642	1	10218	372076	555642	545424	21520	82	724	37	363092	2556710	22363
