1	2015-12-29 13:10:43	0	0	0	0	0	0	0.32	0.49	0	5060	0	1	4434	5060	5059	25	1	13	0	4434	1395995	0
2	2015-12-29 13:20:42	0	0	0	0	0	0	0.99	0.86	0	16811	0	70	4434	16811	16741	144	1	13	5	13783	1395992	163
3	2015-12-29 13:30:42	0	0	0	0	0	0	0.99	0.86	0	16811	0	70	25544	16811	16741	144	15	107	16	13783	1395993	282
4	2015-12-29 13:40:43	0	0	0	0	0	0	2.55	1.18	0.01	47569	0	538	30971	47569	47031	559	18	153	18	35576	1395998	748
5	2015-12-29 13:50:42	0	0	0	0	0	0	2.55	1.18	0.01	47569	0	538	43955	47569	47031	559	26	199	29	35576	1396001	813
6	2015-12-29 14:00:43	0	0	0	0	0	0	3.35	1.09	0.02	66405	0	1248	47669	66405	65157	727	29	218	29	46769	1396005	1003
7	2015-12-29 14:10:43	0	0	0	0	0	0	3.88	1.28	0.02	78434	0	1870	55430	78434	76564	1006	35	255	37	54216	1396014	1333
8	2015-12-29 14:20:43	0	0	0	0	0	0	3.88	1.28	0.02	78434	0	1870	58611	78434	76564	1006	40	273	37	54216	1396013	1356
9	2015-12-29 14:30:44	0	0	0	0	0	0	4.38	1.36	0.03	88724	0	2492	66282	88724	86232	1207	42	291	41	61179	1396015	1581
10	2015-12-29 14:40:44	0	0	0	0	0	0	4.85	1.31	0.03	98476	0	3123	69673	98476	95353	1286	47	299	51	67660	1396019	1683
11	2015-12-29 14:50:43	0	0	0	0	0	0	5.14	1.21	0.04	106198	0	3648	74255	106198	102550	1286	47	299	57	71750	1396021	1689
12	2015-12-29 15:00:43	0	0	0	0	0	0	5.31	1.29	0.04	110110	0	3961	78308	110110	106149	1422	54	332	62	74139	1396026	1870
13	2015-12-29 15:10:44	0	0	0	0	0	0	5.72	1.29	0.04	121026	0	4852	83202	121026	116174	1564	60	357	63	79921	1396029	2044
14	2015-12-29 15:20:44	0	0	0	0	0	0	5.72	1.29	0.04	121026	0	4852	83202	121026	116174	1564	62	357	63	79921	1396034	2046
15	2015-12-29 15:30:44	0	0	0	0	0	0	6.06	1.3	0.04	127522	0	5318	88058	127522	122204	1657	62	376	69	84608	1396038	2164
16	2015-12-29 15:40:44	0	0	0	0	0	0	6.31	1.31	0.05	134642	0	5902	95725	134642	128740	1766	67	405	75	88078	1396044	2313
17	2015-12-29 15:50:44	0	0	0	0	0	0	6.82	1.32	0.05	145329	0	6732	100086	145329	138597	1918	68	422	81	95165	1396052	2489
18	2015-12-29 16:00:44	0	0	0	0	0	0	6.92	1.32	0.05	148257	0	6989	101618	148257	141268	1952	71	429	81	96651	1396056	2533
19	2015-12-29 16:10:44	0	0	0	0	0	0	7.09	1.32	0.05	151884	0	7296	104270	151884	144588	2004	73	436	81	98961	1396064	2594
20	2015-12-29 16:20:44	0	0	0	0	0	0	7.44	1.32	0.05	161512	0	8147	109410	161512	153365	2127	76	456	89	103902	1396064	2748
21	2015-12-29 16:30:44	0	0	0	0	0	0	7.44	1.32	0.05	161512	0	8147	109410	161512	153365	2127	76	456	89	103902	1396065	2748
22	2015-12-29 16:40:44	0	0	0	0	0	0	7.87	1.32	0.06	169830	0	8873	115749	169830	160957	2235	80	477	94	109870	1396068	2886
23	2015-12-29 16:50:44	0	0	0	0	0	0	8.04	1.32	0.06	174929	0	9304	118568	174929	165625	2303	80	489	95	112227	1396077	2967
24	2015-12-29 17:00:44	0	0	0	0	0	0	8.14	1.32	0.06	177812	0	9568	121030	177812	168244	2341	80	496	95	113641	1396081	3012
25	2015-12-29 17:10:45	0	0	0	0	0	0	8.36	1.31	0.06	182921	0	9971	124888	182921	172950	2397	83	512	95	116754	1396084	3087
26	2015-12-29 17:20:44	0	0	0	0	0	0	8.43	1.31	0.06	185191	0	10205	126004	185191	174986	2432	84	515	95	117729	1396085	3126
27	2015-12-29 17:30:45	0	0	0	0	0	0	8.55	1.32	0.06	189563	0	10602	128317	189563	178961	2499	85	528	95	119404	1396086	3207
28	2015-12-29 17:40:44	0	0	0	0	0	0	8.8	1.29	0.06	194194	0	11019	128317	194194	178961	2499	85	528	95	122896	1396090	3207
29	2015-12-29 17:50:44	0	0	0	0	0	0	9.04	1.31	0.06	199126	0	11408	135986	199126	187718	2606	89	549	101	126233	1396091	3345
30	2015-12-29 18:00:45	0	0	0	0	0	0	9.15	1.31	0.06	201273	0	11605	137270	201273	189668	2630	89	556	101	127674	1396095	3376
31	2015-12-29 18:10:45	0	0	0	0	0	0	9.3	1.31	0.06	205753	0	11969	139295	205753	193784	2688	90	566	103	129881	1396099	3447
32	2015-12-29 18:20:46	0	0	0	0	0	0	9.5	1.3	0.06	210193	0	12157	143966	210193	197799	2723	92	570	104	132594	1396104	3489
33	2015-12-29 18:30:48	0	0	0	0	0	0	9.71	1.3	0.06	212570	0	12589	145405	212570	199981	2769	93	581	104	135587	1396115	3547
34	2015-12-29 18:40:45	0	0	0	0	0	0	9.71	1.3	0.06	212570	0	12589	145405	212570	199981	2769	93	581	104	135587	1396118	3547
35	2015-12-29 18:50:45	0	0	0	0	0	0	9.92	1.3	0.06	219397	0	13240	148305	219397	206157	2843	95	590	104	138538	1396121	3632
36	2015-12-29 19:00:45	0	0	0	0	0	0	9.92	1.3	0.06	219397	0	13240	149494	219397	206157	2843	95	590	104	138538	1396120	3632
37	2015-12-29 19:10:46	0	0	0	0	0	0	10.21	1.28	0.07	224603	0	13778	152604	224603	210825	2883	96	602	107	142581	1396124	3688
38	2015-12-29 19:20:46	0	0	0	0	0	0	10.36	1.29	0.07	228079	0	14115	155215	228079	213964	2944	101	609	108	144695	1396128	3762
39	2015-12-29 19:30:45	0	0	0	0	0	0	10.36	1.29	0.07	228079	0	14115	155215	228079	213964	2944	101	609	108	144695	1396135	3762
40	2015-12-29 19:40:45	0	0	0	0	0	0	10.65	1.28	0.07	233560	0	14617	159729	233560	218943	2999	103	625	112	148725	1396140	3839
41	2015-12-29 19:50:45	0	0	0	0	0	0	10.8	1.28	0.07	237071	0	14953	162163	237071	222118	3045	103	633	114	150774	1396145	3895
42	2015-12-29 20:00:46	0	0	0	0	0	0	10.92	1.28	0.07	239028	0	15133	163758	239028	223895	3062	104	639	114	152421	1396150	3919
43	2015-12-29 20:10:45	0	0	0	0	0	0	10.97	1.28	0.07	240625	0	15293	164559	240625	225332	3080	104	643	114	153145	1396159	3941
44	2015-12-29 20:20:46	0	0	0	0	0	0	11.27	1.28	0.07	246186	0	15822	169065	246186	230364	3142	109	659	114	157320	1396164	4024
45	2015-12-29 20:30:46	0	0	0	0	0	0	11.41	1.27	0.07	249210	0	16145	170955	249210	233065	3157	109	664	114	159254	1396167	4044
46	2015-12-29 20:40:45	0	0	0	0	0	0	11.41	1.27	0.07	249210	0	16145	170955	249210	233065	3157	109	664	114	159254	1396169	4044
47	2015-12-29 20:50:45	0	0	0	0	0	0	11.69	1.27	0.07	254187	0	16672	174959	254187	237515	3240	112	676	116	163177	1396174	4144
48	2015-12-29 21:00:46	0	0	0	0	0	0	11.74	1.28	0.07	256074	0	16843	175743	256074	239231	3268	112	681	117	163894	1396176	4178
49	2015-12-29 21:10:47	0	0	0	0	0	0	11.9	1.27	0.07	259131	0	17156	177517	259131	241975	3300	113	693	117	166145	1396180	4223
50	2015-12-29 21:20:46	0	0	0	0	0	0	11.9	1.27	0.07	259131	0	17156	177517	259131	241975	3300	113	693	117	166145	1396181	4223
51	2015-12-29 21:30:47	0	0	0	0	0	0	12.07	1.27	0.07	263375	0	17623	180600	263375	245752	3343	115	702	117	168544	1396189	4277
52	2015-12-29 21:40:47	0	0	0	0	0	0	12.17	1.27	0.07	264977	0	17815	181942	264977	247162	3355	115	704	118	169936	1396190	4292
53	2015-12-29 21:50:46	0	0	0	0	0	0	12.26	1.26	0.07	269113	0	18347	183695	269113	250766	3397	119	715	119	171161	1396193	4350
54	2015-12-29 22:00:47	0	0	0	0	0	0	12.36	1.26	0.07	270763	0	18570	184758	270763	252193	3418	119	720	120	172583	1396195	4377
55	2015-12-29 22:10:47	0	0	0	0	0	0	12.51	1.26	0.07	273361	0	18917	187261	273361	254444	3442	120	725	120	174646	1396201	4407
56	2015-12-29 22:20:47	0	0	0	0	0	0	12.65	1.26	0.07	275857	0	19237	187261	275857	256620	3475	120	733	120	176613	1396202	4448
57	2015-12-29 22:30:46	0	0	0	0	0	0	12.84	1.26	0.08	278440	0	19531	191801	278440	258909	3503	121	739	120	179230	1396208	4483
58	2015-12-29 22:40:47	0	0	0	0	0	0	12.85	1.26	0.08	279662	0	19673	191825	279662	259989	3518	121	741	120	179375	1396215	4500
59	2015-12-29 22:50:47	0	0	0	0	0	0	12.9	1.25	0.08	282249	0	19938	192730	282249	262311	3525	121	744	120	180145	1396223	4510
60	2015-12-29 23:00:49	0	0	0	0	0	0	12.99	1.25	0.08	284793	0	20226	194675	284793	264567	3563	122	751	120	181422	1396224	4556
61	2015-12-29 23:10:48	0	0	0	0	0	0	12.99	1.25	0.08	284793	0	20226	194675	284793	264567	3563	122	751	120	181422	1396226	4556
62	2015-12-29 23:20:47	0	0	0	0	0	0	13.15	1.25	0.08	288906	0	20673	196929	288906	268233	3601	126	760	120	183552	1396228	4607
63	2015-12-29 23:30:47	0	0	0	0	0	0	13.27	1.24	0.08	291899	0	20959	198226	291899	270940	3630	126	770	121	185253	1396232	4647
64	2015-12-29 23:40:48	0	0	0	0	0	0	13.29	1.24	0.08	293289	0	21120	198633	293289	272169	3642	126	771	121	185608	1396230	4660
65	2015-12-29 23:50:48	0	0	0	0	0	0	13.4	1.23	0.08	296236	0	21440	200316	296236	274796	3642	129	776	123	187123	1396235	4670
66	2015-12-30 00:00:48	0	0	0	0	0	0	13.51	1.24	0.08	298908	0	21728	202222	298908	277180	3704	129	783	123	188601	1396242	4739
67	2015-12-30 00:10:48	0	0	0	0	0	0	13.58	1.24	0.08	300481	0	21899	202792	300481	278582	3715	130	785	125	189560	1396247	4755
68	2015-12-30 00:20:48	0	0	0	0	0	0	13.63	1.23	0.08	301737	0	22032	203592	301737	279705	3721	130	789	125	190282	1396251	4765
69	2015-12-30 00:30:48	0	0	0	0	0	0	13.8	1.23	0.08	305569	0	22454	206719	305569	283115	3766	132	803	127	192708	1396258	4828
70	2015-12-30 00:40:48	0	0	0	0	0	0	13.8	1.23	0.08	305569	0	22454	206719	305569	283115	3766	132	803	127	192708	1396268	4828
71	2015-12-30 00:50:49	0	0	0	0	0	0	13.84	1.23	0.08	307537	0	22719	207898	307537	284818	3784	132	810	131	193189	1396276	4857
72	2015-12-30 01:00:48	0	0	0	0	0	0	13.95	1.23	0.08	310720	0	23100	210142	310720	287620	3812	133	819	134	194756	1396279	4898
73	2015-12-30 01:10:48	0	0	0	0	0	0	14.02	1.22	0.08	312736	0	23315	211033	312736	289421	3812	134	822	136	195707	1396286	4904
74	2015-12-30 01:20:48	0	0	0	0	0	0	14.02	1.23	0.08	312736	0	23315	211033	312736	289421	3849	134	822	136	195707	1396290	4941
75	2015-12-30 01:30:49	0	0	0	0	0	0	14.12	1.23	0.08	315510	0	23654	212562	315510	291856	3867	135	827	136	197197	1396296	4965
76	2015-12-30 01:40:48	0	0	0	0	0	0	14.25	1.22	0.08	317381	0	23857	214387	317381	293524	3867	135	831	136	198971	1396296	4969
77	2015-12-30 01:50:49	0	0	0	0	0	0	14.34	1.22	0.08	318868	0	24002	215893	318868	294866	3887	136	836	136	200267	1396300	4995
78	2015-12-30 02:00:47	0	0	0	0	0	0	14.38	1.22	0.08	319675	0	24119	216463	319675	295556	3912	137	838	136	200758	1396301	5023
79	2015-12-30 02:10:48	0	0	0	0	0	0	14.41	1.22	0.08	320933	0	24257	217298	320933	296676	3924	137	841	137	201266	1396304	5039
80	2015-12-30 02:20:48	0	0	0	0	0	0	14.44	1.22	0.08	322168	0	24382	217757	322168	297786	3932	137	845	137	201660	1396304	5051
81	2015-12-30 02:30:48	0	0	0	0	0	0	14.44	1.22	0.08	322168	0	24382	217757	322168	297786	3932	137	845	137	201660	1396309	5051
82	2015-12-30 02:40:47	0	0	0	0	0	0	14.48	1.22	0.08	323808	0	24556	218456	323808	299252	3956	137	849	139	202206	1396313	5081
83	2015-12-30 02:50:48	0	0	0	0	0	0	14.52	1.22	0.08	324773	0	24675	219252	324773	300098	3970	138	855	139	202769	1396318	5102
84	2015-12-30 03:00:49	0	0	0	0	0	0	14.6	1.22	0.08	325242	0	24715	220000	325242	300527	3975	139	855	139	203944	1397206	5108
85	2015-12-30 03:10:48	0	0	0	0	0	0	14.62	1.22	0.08	326088	0	24807	220329	326088	301281	3988	141	857	139	204335	1397208	5125
86	2015-12-30 03:20:48	0	0	0	0	0	0	14.64	1.22	0.08	326944	0	24843	220576	326944	301619	3991	141	858	140	204547	1397211	5130
87	2015-12-30 03:30:48	0	0	0	0	0	0	14.74	1.22	0.08	327384	0	24933	221999	327384	302451	4000	141	861	140	205935	1397210	5142
88	2015-12-30 03:40:48	0	0	0	0	0	0	14.74	1.22	0.08	327384	0	24933	221999	327384	302451	4000	141	861	140	205935	1397210	5142
89	2015-12-30 03:50:50	0	0	0	0	0	0	14.76	1.22	0.08	328494	0	25046	222286	328494	303448	4016	142	865	140	206182	1397211	5163
90	2015-12-30 04:00:48	0	0	0	0	0	0	14.77	1.22	0.08	328786	0	25083	222542	328786	303703	4022	142	866	140	206402	1397211	5170
91	2015-12-30 04:10:47	0	0	0	0	0	0	14.78	1.22	0.08	329013	0	25114	222606	329013	303899	4022	142	866	140	206457	1397213	5170
92	2015-12-30 04:20:47	0	0	0	0	0	0	14.8	1.22	0.08	329456	0	25172	223031	329456	304284	4034	142	866	140	206822	1397215	5182
93	2015-12-30 04:30:47	0	0	0	0	0	0	14.84	1.22	0.08	329788	0	25201	223594	329788	304587	4037	142	868	140	207307	1397214	5187
94	2015-12-30 04:40:49	0	0	0	0	0	0	14.84	1.22	0.08	330101	0	25235	223703	330101	304866	4040	142	868	140	207401	1397215	5190
95	2015-12-30 04:50:48	0	0	0	0	0	0	14.84	1.22	0.08	330283	0	25255	223703	330283	305028	4044	142	870	140	207401	1397214	5196
96	2015-12-30 05:00:48	0	0	0	0	0	0	14.85	1.23	0.08	330602	0	25277	223833	330602	305325	4050	142	871	140	207512	1397216	5203
97	2015-12-30 05:10:47	0	0	0	0	0	0	14.85	1.23	0.08	330602	0	25277	223833	330602	305325	4050	142	871	140	207512	1397216	5203
98	2015-12-30 05:20:48	0	0	0	0	0	0	14.87	1.23	0.08	330888	0	25305	224092	330888	305583	4054	142	872	140	207734	1397216	5208
99	2015-12-30 05:30:48	0	0	0	0	0	0	14.87	1.22	0.08	331252	0	25341	224214	331252	305911	4056	142	872	140	207790	1397215	5210
100	2015-12-30 05:40:48	0	0	0	0	0	0	14.87	1.22	0.08	331499	0	25375	224214	331499	306124	4060	142	873	140	207790	1397215	5215
101	2015-12-30 05:50:48	0	0	0	0	0	0	14.88	1.23	0.08	331618	0	25384	224409	331618	306234	4065	142	874	140	207958	1397212	5221
102	2015-12-30 06:00:48	0	0	0	0	0	0	14.9	1.23	0.08	331851	0	25405	224669	331851	306446	4069	142	875	140	208181	1397211	5226
103	2015-12-30 06:10:49	0	0	0	0	0	0	14.92	1.23	0.08	332045	0	25433	224734	332045	306612	4075	143	875	141	208462	1397212	5234
104	2015-12-30 06:20:50	0	0	0	0	0	0	14.92	1.23	0.08	332152	0	25449	224734	332152	306703	4081	143	875	141	208462	1397215	5240
105	2015-12-30 06:30:54	0	0	0	0	0	0	14.92	1.23	0.08	332380	0	25479	224734	332380	306901	4084	143	875	141	208462	1397216	5243
106	2015-12-30 06:40:49	0	0	0	0	0	0	14.92	1.23	0.08	332527	0	25508	224734	332527	307019	4086	143	876	141	208462	1397218	5246
107	2015-12-30 06:50:48	0	0	0	0	0	0	14.92	1.23	0.08	332743	0	25544	224734	332743	307199	4089	143	876	141	208462	1397218	5249
108	2015-12-30 07:00:47	0	0	0	0	0	0	14.92	1.23	0.08	332743	0	25544	224734	332743	307199	4089	143	876	141	208462	1397218	5249
109	2015-12-30 07:10:48	0	0	0	0	0	0	14.93	1.23	0.08	333136	0	25597	224865	333136	307539	4093	143	876	141	208574	1397222	5253
110	2015-12-30 07:20:47	0	0	0	0	0	0	14.93	1.23	0.08	333136	0	25597	224865	333136	307539	4095	143	876	141	208574	1397220	5255
111	2015-12-30 07:30:49	0	0	0	0	0	0	14.93	1.23	0.08	333597	0	25661	224865	333597	307936	4097	143	876	141	208574	1397219	5257
112	2015-12-30 07:40:49	0	0	0	0	0	0	14.93	1.23	0.08	333597	0	25661	225290	333597	307936	4097	143	876	141	208574	1397220	5257
113	2015-12-30 07:50:48	0	0	0	0	0	0	14.98	1.23	0.08	334090	0	25726	225750	334090	308364	4103	143	876	141	209336	1397221	5263
114	2015-12-30 08:00:48	0	0	0	0	0	0	14.98	1.23	0.08	334478	0	25776	225750	334478	308702	4107	143	876	141	209336	1397220	5267
115	2015-12-30 08:10:48	0	0	0	0	0	0	15.02	1.23	0.08	334910	0	25851	226311	334910	309059	4110	143	877	141	209846	1397219	5271
116	2015-12-30 08:20:48	0	0	0	0	0	0	15.02	1.23	0.08	334910	0	25851	226311	334910	309257	4112	143	878	141	209846	1397222	5274
117	2015-12-30 08:30:49	0	0	0	0	0	0	15.04	1.23	0.08	335656	0	25976	226709	335656	309680	4114	143	878	141	210188	1397223	5276
118	2015-12-30 08:40:49	0	0	0	0	0	0	15.06	1.23	0.08	335983	0	26021	227025	335983	309962	4119	144	878	142	210360	1397225	5283
119	2015-12-30 08:50:49	0	0	0	0	0	0	15.06	1.23	0.08	336328	0	26069	227025	336328	310259	4125	144	880	142	210360	1397226	5291
120	2015-12-30 09:00:49	0	0	0	0	0	0	15.1	1.23	0.08	337339	0	26209	227542	337339	311130	4137	145	886	143	210918	1397227	5311
121	2015-12-30 09:10:47	0	0	0	0	0	0	15.1	1.23	0.08	337679	0	26260	227542	337679	311419	4140	145	888	143	210918	1397227	5316
122	2015-12-30 09:20:48	0	0	0	0	0	0	15.1	1.23	0.08	338481	0	26390	227609	338481	312091	4154	145	892	143	210976	1397229	5334
123	2015-12-30 09:30:49	0	0	0	0	0	0	15.13	1.23	0.08	338900	0	26520	227860	338900	312759	4161	145	898	144	211422	1397229	5348
124	2015-12-30 09:40:50	0	0	0	0	0	0	15.16	1.23	0.08	339691	0	26594	228499	339691	313097	4162	145	899	144	211885	1397228	5350
125	2015-12-30 09:50:49	0	0	0	0	0	0	15.2	1.23	0.09	340061	0	26668	229618	340061	313393	4167	145	899	144	212394	1397230	5355
126	2015-12-30 10:00:49	0	0	0	0	0	0	15.25	1.22	0.09	341264	0	26843	229890	341264	314421	4177	145	900	144	213140	1397234	5366
127	2015-12-30 10:10:48	0	0	0	0	0	0	15.27	1.22	0.09	341629	0	26899	230142	341629	314730	4180	145	900	144	213356	1397236	5369
128	2015-12-30 10:20:49	0	0	0	0	0	0	15.27	1.22	0.09	341629	0	26899	230142	341629	314730	4180	145	900	144	213356	1397236	5369
129	2015-12-30 10:30:48	0	0	0	0	0	0	15.3	1.22	0.09	342680	0	27131	230852	342680	316002	4195	146	900	144	213811	1397238	5385
130	2015-12-30 10:40:48	0	0	0	0	0	0	15.4	1.22	0.09	344094	0	27264	232551	344094	316830	4205	146	904	144	215148	1397239	5399
131	2015-12-30 10:50:48	0	0	0	0	0	0	15.4	1.22	0.09	344094	0	27264	232551	344094	316830	4205	146	904	144	215148	1397243	5399
132	2015-12-30 11:00:47	0	0	0	0	0	0	15.41	1.22	0.09	344985	0	27390	232829	344985	317595	4219	147	906	145	215326	1397248	5417
133	2015-12-30 11:10:51	0	0	0	0	0	0	15.51	1.22	0.09	346357	0	27615	233875	346357	318742	4229	147	911	145	216735	1397248	5432
134	2015-12-30 11:20:49	0	0	0	0	0	0	15.52	1.23	0.09	346842	0	27683	234655	346842	319159	4250	147	911	148	216917	1397252	5456
135	2015-12-30 11:30:49	0	0	0	0	0	0	15.58	1.23	0.09	347718	0	27816	235763	347718	319902	4263	147	914	148	217680	1397251	5472
136	2015-12-30 11:40:49	0	0	0	0	0	0	15.58	1.23	0.09	347718	0	27816	235763	347718	319902	4263	147	914	148	217680	1397252	5472
137	2015-12-30 11:50:48	0	0	0	0	0	0	15.65	1.23	0.09	349378	0	28055	237135	349378	321323	4280	147	921	148	218602	1397257	5496
138	2015-12-30 12:00:49	0	0	0	0	0	0	15.65	1.23	0.09	349815	0	28130	237135	349815	321685	4294	147	926	149	218602	1397257	5516
139	2015-12-30 12:10:56	0	0	0	0	0	0	15.74	1.23	0.09	350607	0	28247	238671	350607	322360	4305	147	927	149	219969	1397261	5528
140	2015-12-30 12:17:50	0	0	0	0	0	0	15.75	1.23	0.09	350937	0	28298	239316	350937	322639	4312	147	927	149	220078	1397260	5535
141	2015-12-30 12:20:56	0	0	0	0	0	0	15.74	1.23	0.09	350607	0	28247	238671	350607	322360	4305	147	927	149	219969	1397260	5528
142	2015-12-30 12:27:41	0	0	0	0	0	0	15.79	1.23	0.09	351698	0	28411	239979	351698	323287	4324	149	930	149	220639	1397261	5552
143	2015-12-30 12:30:50	0	0	0	0	0	0	15.79	1.23	0.09	351698	0	28411	239979	351698	323287	4324	149	930	149	220639	1397262	5552
144	2015-12-30 12:37:38	0	0	0	0	0	0	15.83	1.23	0.09	352363	0	28526	240338	352363	323837	4333	150	930	149	221131	1397268	5562
145	2015-12-30 12:40:49	0	0	0	0	0	0	15.83	1.23	0.09	352363	0	28526	240338	352363	323837	4333	150	930	149	221131	1397269	5562
146	2015-12-30 12:47:37	0	0	0	0	0	0	15.83	1.23	0.09	352363	0	28526	240338	352363	323837	4333	150	930	149	221131	1397271	5562
147	2015-12-30 12:50:49	0	0	0	0	0	0	15.86	1.23	0.09	353216	0	28688	240932	353216	324528	4352	150	934	152	221574	1397271	5588
148	2015-12-30 12:57:43	0	0	0	0	0	0	15.86	1.23	0.09	353629	0	28769	240932	353629	324860	4357	150	936	153	221574	1397280	5596
149	2015-12-30 13:00:50	0	0	0	0	0	0	15.86	1.23	0.09	353629	0	28769	240932	353629	324860	4357	150	936	153	221574	1397280	5596
150	2015-12-30 13:07:37	0	0	0	0	0	0	15.86	1.23	0.09	353629	0	28769	240932	353629	324860	4357	150	936	153	221574	1397282	5596
151	2015-12-30 13:10:50	0	0	0	0	0	0	15.86	1.23	0.09	353629	0	28769	240932	353629	324860	4357	150	936	153	221574	1397284	5596
152	2015-12-30 13:17:39	0	0	0	0	0	0	15.87	1.23	0.09	354728	0	28968	241213	354728	325760	4372	151	938	155	221812	1397280	5616
153	2015-12-30 13:20:49	0	0	0	0	0	0	15.87	1.23	0.09	354728	0	28968	241213	354728	325760	4372	151	938	155	221812	1397279	5616
154	2015-12-30 13:27:40	0	0	0	0	0	0	15.88	1.23	0.09	355487	0	29092	241223	355487	326395	4384	151	942	156	221820	1397285	5633
155	2015-12-30 13:30:51	0	0	0	0	0	0	15.88	1.23	0.09	355487	0	29092	241223	355487	326395	4384	151	942	156	221820	1397284	5633
156	2015-12-30 13:37:38	0	0	0	0	0	0	15.88	1.23	0.09	355851	0	29148	241373	355851	326703	4389	151	943	157	221820	1397287	5640
157	2015-12-30 13:40:50	0	0	0	0	0	0	15.88	1.23	0.09	355851	0	29148	241373	355851	326703	4389	151	943	157	221820	1397290	5640
158	2015-12-30 13:47:40	0	0	0	0	0	0	15.91	1.23	0.09	356413	0	29246	241939	356413	327167	4394	151	944	157	222298	1397291	5646
159	2015-12-30 13:50:50	0	0	0	0	0	0	15.92	1.23	0.09	356705	0	29299	241939	356705	327406	4400	151	945	157	222426	1397293	5653
160	2015-12-30 13:57:39	0	0	0	0	0	0	15.91	1.23	0.09	356413	0	29246	241939	356413	327167	4394	151	944	157	222298	1397296	5646
161	2015-12-30 14:00:51	0	0	0	0	0	0	15.93	1.23	0.09	357274	0	29397	242105	357274	327877	4405	151	947	158	222566	1397295	5661
162	2015-12-30 14:07:38	0	0	0	0	0	0	15.93	1.23	0.09	357274	0	29397	242105	357274	327877	4405	151	947	158	222566	1397298	5661
163	2015-12-30 14:10:52	0	0	0	0	0	0	15.93	1.23	0.09	357533	0	29397	242993	357533	328097	4405	152	947	158	222594	1397300	5662
164	2015-12-30 14:17:38	0	0	0	0	0	0	15.93	1.23	0.09	357533	0	29492	242993	357533	328097	4409	152	947	158	222594	1397303	5666
165	2015-12-30 14:20:50	0	0	0	0	0	0	15.93	1.23	0.09	357533	0	29492	242993	357533	328097	4409	152	947	158	222594	1397304	5666
166	2015-12-30 14:27:38	0	0	0	0	0	0	15.93	1.23	0.09	358406	0	29604	243069	358406	328802	4422	152	949	158	222658	1397304	5681
167	2015-12-30 14:30:51	0	0	0	0	0	0	15.93	1.23	0.09	358406	0	29604	243069	358406	328802	4422	152	949	158	222658	1397304	5681
168	2015-12-30 14:37:39	0	0	0	0	0	0	15.95	1.23	0.09	358920	0	29693	243350	358920	329227	4429	153	950	158	222893	1397305	5690
169	2015-12-30 14:40:51	0	0	0	0	0	0	15.95	1.23	0.09	358920	0	29693	243350	358920	329227	4429	153	950	158	222893	1397307	5690
170	2015-12-30 14:47:39	0	0	0	0	0	0	16.01	1.23	0.09	359411	0	29797	243733	359411	329614	4435	153	950	158	223731	1397311	5696
171	2015-12-30 14:50:51	0	0	0	0	0	0	16.01	1.23	0.09	359411	0	29797	243733	359411	329614	4435	153	950	158	223731	1397312	5696
172	2015-12-30 14:57:39	0	0	0	0	0	0	16.01	1.23	0.09	359678	0	29853	243769	359678	329825	4439	154	950	158	223761	1397313	5701
173	2015-12-30 15:00:50	0	0	0	0	0	0	16.01	1.23	0.09	359411	0	29797	243733	359411	329614	4435	153	950	158	223731	1397314	5696
174	2015-12-30 15:10:52	0	0	0	0	0	0	16.03	1.23	0.09	360196	0	29987	243918	360196	330209	4441	154	952	158	223923	1397317	5705
175	2015-12-30 15:20:53	0	0	0	0	0	0	16.05	1.23	0.09	360688	0	30081	244298	360688	330607	4444	154	954	158	224243	1397318	5710
176	2015-12-30 15:30:52	0	0	0	0	0	0	16.05	1.23	0.09	360885	0	30120	244298	360885	330765	4448	154	954	158	224243	1397320	5714
177	2015-12-30 15:40:52	0	0	0	0	0	0	16.05	1.23	0.09	361128	0	30164	244370	361128	330964	4451	154	955	158	224304	1397319	5718
178	2015-12-30 15:50:52	0	0	0	0	0	0	16.06	1.23	0.09	361585	0	30265	244486	361585	331320	4458	154	958	160	224402	1397319	5730
179	2015-12-30 16:00:53	0	0	0	0	0	0	16.11	1.23	0.09	361993	0	30340	244960	361993	331653	4466	154	958	160	225050	1397321	5738
180	2015-12-30 16:10:52	0	0	0	0	0	0	16.11	1.23	0.09	361993	0	30340	244960	361993	331653	4466	154	958	160	225050	1397324	5738
181	2015-12-30 16:20:53	0	0	0	0	0	0	16.12	1.23	0.09	362583	0	30470	245260	362583	332113	4473	154	958	160	225304	1397331	5745
182	2015-12-30 16:30:53	0	0	0	0	0	0	16.14	1.23	0.09	363162	0	30581	245552	363162	332581	4481	154	963	160	225550	1397337	5758
183	2015-12-30 16:40:53	0	0	0	0	0	0	16.14	1.23	0.09	363162	0	30581	245552	363162	332581	4481	154	963	160	225550	1397340	5758
184	2015-12-30 16:50:53	0	0	0	0	0	0	16.15	1.23	0.09	363505	0	30645	245688	363505	332860	4487	154	966	160	225665	1397343	5767
185	2015-12-30 17:00:52	0	0	0	0	0	0	16.18	1.23	0.09	364039	0	30771	246152	364039	333268	4491	155	968	160	226056	1397346	5774
186	2015-12-30 17:10:54	0	0	0	0	0	0	16.18	1.23	0.09	364407	0	30852	246152	364407	333555	4494	155	968	160	226056	1397351	5777
187	2015-12-30 17:20:52	0	0	0	0	0	0	16.18	1.23	0.09	364407	0	30852	246152	364407	333555	4495	155	968	160	226056	1397355	5778
188	2015-12-30 17:30:53	0	0	0	0	0	0	16.18	1.24	0.09	364820	0	30939	246192	364820	333881	4509	156	973	160	226155	1397362	5798
189	2015-12-30 17:40:54	0	0	0	0	0	0	16.24	1.24	0.09	365213	0	31040	246879	365213	334173	4518	156	975	160	227001	1397369	5809
190	2015-12-30 17:50:54	0	0	0	0	0	0	16.24	1.24	0.09	365434	0	31127	246879	365434	334353	4518	156	975	160	227001	1397373	5809
191	2015-12-30 18:00:56	0	0	0	0	0	0	16.26	1.24	0.09	365823	0	31166	247076	365823	334657	4524	156	976	160	227167	1397374	5816
192	2015-12-30 18:11:00	0	0	0	0	0	0	16.29	1.24	0.09	366202	0	31231	247649	366202	334971	4535	156	976	160	227652	1397374	5827
193	2015-12-30 18:20:57	0	0	0	0	0	0	16.29	1.24	0.09	366382	0	31263	247649	366382	335119	4536	156	979	160	227652	1397379	5831
194	2015-12-30 18:30:54	0	0	0	0	0	0	16.29	1.24	0.09	366788	0	31302	247649	366788	335436	4540	156	980	160	227652	1397386	5836
195	2015-12-30 18:40:52	0	0	0	0	0	0	16.29	1.24	0.09	366788	0	31387	247807	366788	335436	4546	156	980	160	227652	1397388	5842
196	2015-12-30 18:50:53	0	0	0	0	0	0	16.31	1.24	0.09	367321	0	31463	247966	367321	335858	4550	156	980	160	227920	1397394	5846
197	2015-12-30 19:00:52	0	0	0	0	0	0	16.31	1.24	0.09	367321	0	31463	247966	367321	335858	4552	156	980	160	227920	1397393	5848
198	2015-12-30 19:10:53	0	0	0	0	0	0	16.32	1.24	0.09	367793	0	31544	248115	367793	336249	4555	157	986	160	228046	1397399	5858
199	2015-12-30 19:20:54	0	0	0	0	0	0	16.34	1.24	0.09	368091	0	31611	248394	368091	336480	4561	157	986	162	228281	1397404	5866
200	2015-12-30 19:30:53	0	0	0	0	0	0	16.34	1.24	0.09	368091	0	31611	248394	368091	336480	4561	157	986	162	228281	1397409	5866
201	2015-12-30 19:40:53	0	0	0	0	0	0	16.36	1.24	0.09	368549	0	31697	248693	368549	336852	4570	157	986	162	228669	1397415	5875
202	2015-12-30 19:50:55	0	0	0	0	0	0	16.4	1.24	0.09	368840	0	31757	249213	368840	337083	4572	157	986	162	229109	1397418	5877
203	2015-12-30 20:00:52	0	0	0	0	0	0	16.4	1.24	0.09	369171	0	31812	249233	369171	337359	4574	157	987	163	229228	1397428	5881
204	2015-12-30 20:10:54	0	0	0	0	0	0	16.42	1.24	0.09	369349	0	31838	249555	369349	337511	4575	157	987	163	229499	1397431	5882
205	2015-12-30 20:20:54	0	0	0	0	0	0	16.42	1.24	0.09	369349	0	31838	249555	369349	337511	4575	157	987	163	229499	1397436	5882
206	2015-12-30 20:30:55	0	0	0	0	0	0	16.48	1.24	0.09	369981	0	31968	250483	369981	338013	4584	157	988	164	230285	1397443	5893
207	2015-12-30 20:40:55	0	0	0	0	0	0	16.48	1.24	0.09	370143	0	32005	250483	370143	338138	4586	157	988	164	230285	1397446	5895
208	2015-12-30 20:50:56	0	0	0	0	0	0	16.48	1.24	0.09	370312	0	32035	250483	370312	338277	4590	157	989	164	230285	1397451	5900
209	2015-12-30 21:00:54	0	0	0	0	0	0	16.52	1.24	0.09	370764	0	32127	251235	370764	338637	4595	157	989	165	230920	1397456	5906
210	2015-12-30 21:10:56	0	0	0	0	0	0	16.53	1.24	0.09	370945	0	32166	251256	370945	338779	4598	157	990	165	230937	1397458	5910
211	2015-12-30 21:20:53	0	0	0	0	0	0	16.53	1.24	0.09	370945	0	32166	251256	370945	338779	4598	157	990	165	230937	1397460	5910
212	2015-12-30 21:30:54	0	0	0	0	0	0	16.53	1.24	0.1	371394	0	32251	251358	371394	339143	4606	158	991	167	230937	1397456	5922
213	2015-12-30 21:40:55	0	0	0	0	0	0	16.53	1.24	0.1	371711	0	32327	251358	371711	339384	4606	159	994	167	230937	1397458	5926
214	2015-12-30 21:50:55	0	0	0	0	0	0	16.54	1.24	0.1	371881	0	32368	251358	371881	339513	4607	159	994	167	231075	1397462	5927
215	2015-12-30 22:00:54	0	0	0	0	0	0	16.54	1.24	0.1	372051	0	32408	251358	372051	339643	4608	159	995	167	231075	1397462	5929
216	2015-12-30 22:10:54	0	0	0	0	0	0	16.54	1.24	0.1	372468	0	32493	251358	372468	339975	4613	159	996	167	231075	1397468	5935
217	2015-12-30 22:20:55	0	0	0	0	0	0	16.55	1.24	0.1	372779	0	32573	251644	372779	340206	4619	160	998	167	231317	1397469	5944
218	2015-12-30 22:30:54	0	0	0	0	0	0	16.55	1.24	0.1	372779	0	32573	251644	372779	340206	4619	160	998	167	231317	1397469	5944
219	2015-12-30 22:40:57	0	0	0	0	0	0	16.55	1.24	0.1	373180	0	32666	251651	373180	340514	4623	160	1000	167	231323	1397474	5950
220	2015-12-30 22:50:56	0	0	0	0	0	0	16.55	1.24	0.1	373180	0	32666	251651	373180	340514	4623	160	1000	167	231323	1397480	5950
221	2015-12-30 23:00:55	0	0	0	0	0	0	16.55	1.24	0.1	373791	0	32784	251651	373791	341007	4630	160	1003	167	231323	1397482	5960
222	2015-12-30 23:10:56	0	0	0	0	0	0	16.57	1.24	0.1	373967	0	32819	252000	373967	341148	4630	160	1003	167	231566	1397482	5960
223	2015-12-30 23:20:55	0	0	0	0	0	0	16.57	1.24	0.1	373967	0	32819	252000	373967	341148	4630	160	1003	167	231566	1397481	5960
224	2015-12-30 23:30:57	0	0	0	0	0	0	16.58	1.24	0.1	374533	0	32920	252308	374533	341613	4641	160	1005	167	231687	1397487	5973
225	2015-12-30 23:40:57	0	0	0	0	0	0	16.58	1.24	0.1	374533	0	32920	252308	374533	341613	4641	160	1005	167	231687	1397494	5973
226	2015-12-30 23:50:54	0	0	0	0	0	0	16.59	1.24	0.1	374955	0	32994	252841	374955	341961	4645	160	1005	168	231893	1397497	5978
227	2015-12-31 00:00:58	0	0	0	0	0	0	16.6	1.24	0.1	375254	0	33048	252841	375254	342206	4652	160	1006	168	231962	1397506	5986
228	2015-12-31 00:10:54	0	0	0	0	0	0	16.62	1.24	0.1	375368	0	33065	253254	375368	342303	4653	160	1006	168	232310	1397509	5987
229	2015-12-31 00:20:54	0	0	0	0	0	0	16.62	1.24	0.1	375626	0	33114	253254	375626	342512	4655	160	1006	168	232310	1397516	5989
230	2015-12-31 00:30:55	0	0	0	0	0	0	16.63	1.24	0.1	375872	0	33158	253337	375872	342714	4659	160	1006	168	232380	1397523	5993
231	2015-12-31 00:40:55	0	0	0	0	0	0	16.63	1.24	0.1	375872	0	33158	253337	375872	342714	4659	160	1006	168	232380	1397522	5993
232	2015-12-31 00:50:55	0	0	0	0	0	0	16.64	1.24	0.1	376149	0	33208	253521	376149	342941	4662	160	1006	168	232535	1397530	5996
233	2015-12-31 01:00:56	0	0	0	0	0	0	16.66	1.24	0.1	376507	0	33278	253916	376507	343229	4674	160	1009	169	232867	1397529	6012
234	2015-12-31 01:10:52	0	0	0	0	0	0	16.66	1.24	0.1	376507	0	33278	253916	376507	343229	4674	160	1009	169	232867	1397534	6012
235	2015-12-31 01:20:54	0	0	0	0	0	0	16.66	1.24	0.1	376833	0	33335	253916	376833	343498	4674	160	1010	169	232867	1397539	6013
236	2015-12-31 01:30:57	0	0	0	0	0	0	16.67	1.24	0.1	377016	0	33381	254000	377016	343635	4686	161	1014	169	232937	1397544	6030
237	2015-12-31 01:40:58	0	0	0	0	0	0	16.67	1.24	0.1	377158	0	33418	254083	377158	343740	4688	161	1015	169	233008	1397545	6033
238	2015-12-31 01:50:58	0	0	0	0	0	0	16.67	1.24	0.1	377158	0	33418	254083	377158	343740	4688	161	1015	169	233008	1397548	6033
239	2015-12-31 02:01:02	0	0	0	0	0	0	16.67	1.24	0.1	377272	0	33449	254083	377272	343823	4689	161	1015	169	233008	1397552	6034
240	2015-12-31 02:10:57	0	0	0	0	0	0	16.68	1.24	0.1	377364	0	33477	254250	377364	343887	4692	161	1016	169	233148	1397554	6038
241	2015-12-31 02:20:58	0	0	0	0	0	0	16.68	1.24	0.1	377439	0	33499	254250	377439	343940	4695	161	1017	169	233148	1397553	6042
242	2015-12-31 02:30:59	0	0	0	0	0	0	16.68	1.24	0.1	377504	0	33521	254250	377504	343983	4697	161	1019	169	233148	1397553	6046
243	2015-12-31 02:41:01	0	0	0	0	0	0	16.68	1.24	0.1	377535	0	33530	254250	377535	344005	4698	161	1020	169	233148	1397555	6048
244	2015-12-31 02:50:59	0	0	0	0	0	0	16.68	1.24	0.1	377590	0	33544	254250	377590	344046	4700	161	1020	169	233148	1397555	6050
245	2015-12-31 03:01:02	0	0	0	0	0	0	16.67	1.24	0.1	377627	0	33554	254250	377627	344073	4700	161	1020	169	233148	1398879	6050
246	2015-12-31 03:11:02	0	0	0	0	0	0	16.67	1.24	0.1	377647	0	33563	254250	377647	344084	4700	161	1020	169	233148	1398880	6050
247	2015-12-31 03:20:59	0	0	0	0	0	0	16.67	1.24	0.1	377647	0	33563	254250	377647	344084	4700	161	1020	169	233148	1398882	6050
248	2015-12-31 03:31:04	0	0	0	0	0	0	16.67	1.24	0.1	377698	0	33580	254250	377698	344118	4701	161	1021	169	233148	1398881	6052
249	2015-12-31 03:41:01	0	0	0	0	0	0	16.67	1.24	0.1	377698	0	33580	254250	377698	344118	4701	161	1021	169	233148	1398886	6052
250	2015-12-31 03:50:59	0	0	0	0	0	0	16.67	1.24	0.1	377721	0	33587	254250	377721	344134	4701	161	1021	169	233148	1398889	6052
251	2015-12-31 04:00:59	0	0	0	0	0	0	16.67	1.24	0.1	377757	0	33602	254250	377757	344155	4701	161	1021	169	233148	1398892	6052
252	2015-12-31 04:11:02	0	0	0	0	0	0	16.67	1.24	0.1	377780	0	33611	254250	377780	344169	4701	161	1022	170	233148	1398893	6054
253	2015-12-31 04:20:58	0	0	0	0	0	0	16.67	1.24	0.1	377780	0	33611	254250	377780	344169	4701	161	1022	170	233148	1398894	6054
254	2015-12-31 04:30:59	0	0	0	0	0	0	16.67	1.24	0.1	377805	0	33619	254250	377805	344186	4701	161	1023	170	233148	1398895	6055
255	2015-12-31 04:41:02	0	0	0	0	0	0	16.67	1.24	0.1	377826	0	33633	254250	377826	344193	4702	161	1023	170	233148	1398897	6056
256	2015-12-31 04:50:59	0	0	0	0	0	0	16.67	1.24	0.1	377840	0	33638	254250	377840	344202	4702	161	1023	170	233148	1398899	6056
257	2015-12-31 05:00:59	0	0	0	0	0	0	16.67	1.24	0.1	377854	0	33644	254250	377854	344210	4702	161	1023	170	233148	1398900	6056
258	2015-12-31 05:10:58	0	0	0	0	0	0	16.67	1.24	0.1	377854	0	33644	254250	377854	344210	4702	161	1023	170	233148	1398901	6056
259	2015-12-31 05:20:59	0	0	0	0	0	0	16.67	1.24	0.1	377874	0	33655	254250	377874	344219	4702	161	1023	170	233148	1398901	6056
260	2015-12-31 05:31:00	0	0	0	0	0	0	16.67	1.24	0.1	377874	0	33655	254250	377874	344219	4702	161	1023	170	233148	1398901	6056
261	2015-12-31 05:41:01	0	0	0	0	0	0	16.67	1.24	0.1	377890	0	33660	254250	377890	344230	4702	161	1023	170	233148	1398899	6056
262	2015-12-31 05:50:59	0	0	0	0	0	0	16.67	1.24	0.1	377895	0	33663	254417	377895	344232	4702	161	1023	170	233148	1398901	6056
263	2015-12-31 06:01:01	0	0	0	0	0	0	16.67	1.24	0.1	377898	0	33663	254417	377898	344235	4702	161	1023	170	233148	1398901	6056
264	2015-12-31 06:11:00	0	0	0	0	0	0	16.67	1.24	0.1	377905	0	33665	254417	377905	344240	4702	161	1023	170	233148	1398902	6056
265	2015-12-31 06:20:59	0	0	0	0	0	0	16.67	1.24	0.1	377905	0	33665	254417	377905	344240	4702	161	1023	170	233148	1398903	6056
266	2015-12-31 06:30:59	0	0	0	0	0	0	16.67	1.24	0.1	377920	0	33671	254417	377920	344249	4702	161	1023	170	233148	1398900	6056
267	2015-12-31 06:40:59	0	0	0	0	0	0	16.67	1.24	0.1	377931	0	33675	254417	377931	344256	4703	161	1023	170	233148	1398900	6057
268	2015-12-31 06:51:00	0	0	0	0	0	0	16.67	1.24	0.1	377938	0	33679	254417	377938	344259	4703	161	1023	170	233148	1398897	6057
269	2015-12-31 07:01:01	0	0	0	0	0	0	16.67	1.24	0.1	377942	0	33680	254417	377942	344262	4703	161	1023	170	233148	1398896	6057
270	2015-12-31 07:11:01	0	0	0	0	0	0	16.67	1.24	0.1	377942	0	33680	254417	377942	344262	4703	161	1023	170	233148	1398895	6057
271	2015-12-31 07:20:59	0	0	0	0	0	0	16.67	1.24	0.1	377972	0	33692	254417	377972	344280	4704	161	1023	170	233148	1398896	6058
272	2015-12-31 07:30:59	0	0	0	0	0	0	16.67	1.24	0.1	377972	0	33692	254417	377972	344280	4704	161	1023	170	233148	1398899	6058
273	2015-12-31 07:40:59	0	0	0	0	0	0	16.7	1.24	0.1	377995	0	33699	254920	377995	344296	4704	161	1023	170	233570	1398897	6058
274	2015-12-31 07:51:00	0	0	0	0	0	0	16.7	1.24	0.1	378000	0	33700	254920	378000	344300	4705	161	1023	170	233570	1398897	6059
275	2015-12-31 08:01:01	0	0	0	0	0	0	16.7	1.24	0.1	378017	0	33704	254920	378017	344313	4705	161	1023	170	233570	1398895	6059
276	2015-12-31 08:10:58	0	0	0	0	0	0	16.7	1.24	0.1	378023	0	33709	254920	378023	344314	4705	161	1023	170	233570	1398899	6059
277	2015-12-31 08:21:01	0	0	0	0	0	0	16.7	1.24	0.1	378051	0	33719	254920	378051	344332	4706	161	1023	170	233570	1398902	6060
278	2015-12-31 08:31:00	0	0	0	0	0	0	16.7	1.24	0.1	378051	0	33719	254920	378051	344332	4706	161	1023	170	233570	1398903	6060
279	2015-12-31 08:41:03	0	0	0	0	0	0	16.7	1.24	0.1	378084	0	33731	254920	378084	344353	4706	161	1023	170	233570	1398905	6060
280	2015-12-31 08:51:03	0	0	0	0	0	0	16.7	1.24	0.1	378108	0	33740	254920	378108	344368	4706	161	1023	170	233570	1398905	6060
281	2015-12-31 09:01:02	0	0	0	0	0	0	16.7	1.24	0.1	378134	0	33746	254920	378134	344388	4706	161	1023	170	233570	1398910	6060
282	2015-12-31 09:10:59	0	0	0	0	0	0	16.7	1.24	0.1	378134	0	33746	254920	378134	344388	4706	161	1023	170	233570	1398912	6060
283	2015-12-31 09:21:01	0	0	0	0	0	0	16.7	1.24	0.1	378179	0	33757	254920	378179	344422	4706	161	1023	170	233570	1398913	6060
284	2015-12-31 09:31:00	0	0	0	0	0	0	16.7	1.24	0.1	378179	0	33757	254920	378179	344422	4706	161	1023	170	233570	1398915	6060
285	2015-12-31 09:41:01	0	0	0	0	0	0	16.7	1.24	0.1	378225	0	33774	254920	378225	344451	4706	162	1023	170	233570	1398918	6061
286	2015-12-31 09:51:00	0	0	0	0	0	0	16.7	1.24	0.1	378257	0	33774	254920	378257	344473	4706	162	1023	170	233570	1398920	6061
287	2015-12-31 10:01:03	0	0	0	0	0	0	16.7	1.24	0.1	378291	0	33794	254920	378291	344497	4707	162	1024	170	233570	1398921	6063
288	2015-12-31 10:11:05	0	0	0	0	0	0	16.7	1.25	0.1	378303	0	33799	254920	378303	344504	4710	162	1024	170	233570	1398924	6066
289	2015-12-31 10:21:01	0	0	0	0	0	0	16.7	1.25	0.1	378350	0	33817	254920	378350	344533	4712	162	1024	170	233570	1398924	6068
290	2015-12-31 10:31:01	0	0	0	0	0	0	16.7	1.25	0.1	378375	0	33827	254920	378375	344548	4713	162	1024	170	233570	1398924	6069
291	2015-12-31 10:41:05	0	0	0	0	0	0	16.7	1.25	0.1	378388	0	33832	254920	378388	344556	4713	162	1024	170	233570	1398926	6069
292	2015-12-31 10:51:03	0	0	0	0	0	0	16.7	1.25	0.1	378388	0	33832	254920	378388	344556	4713	162	1024	170	233570	1398931	6069
293	2015-12-31 11:01:04	0	0	0	0	0	0	16.7	1.25	0.1	378462	0	33864	254920	378462	344598	4714	162	1024	170	233570	1398935	6070
294	2015-12-31 11:11:03	0	0	0	0	0	0	16.7	1.25	0.1	378462	0	33864	254920	378462	344598	4714	162	1024	170	233570	1398938	6070
295	2015-12-31 11:21:03	0	0	0	0	0	0	16.7	1.25	0.1	378502	0	33877	254920	378502	344625	4714	162	1024	170	233570	1398942	6070
296	2015-12-31 11:31:02	0	0	0	0	0	0	16.7	1.25	0.1	378502	0	33877	254920	378502	344625	4714	162	1024	170	233570	1398942	6070
297	2015-12-31 11:41:06	0	0	0	0	0	0	16.7	1.25	0.1	378555	0	33902	254920	378555	344653	4714	162	1024	170	233570	1398947	6070
298	2015-12-31 11:51:06	0	0	0	0	0	0	16.7	1.25	0.1	378576	0	33911	254920	378576	344653	4714	162	1024	170	233570	1398950	6070
299	2015-12-31 12:01:04	0	0	0	0	0	0	16.7	1.25	0.1	378585	0	33917	254920	378585	344668	4714	162	1024	170	233570	1398950	6070
300	2015-12-31 12:11:08	0	0	0	0	0	0	16.7	1.25	0.1	378603	0	33923	254920	378603	344680	4714	162	1024	170	233570	1398955	6070
301	2015-12-31 12:21:06	0	0	0	0	0	0	16.7	1.25	0.1	378623	0	33931	254920	378623	344692	4714	162	1024	170	233570	1398956	6070
302	2015-12-31 12:31:05	0	0	0	0	0	0	16.7	1.24	0.1	378645	0	33938	254920	378645	344707	4714	162	1024	170	233570	1398960	6070
303	2015-12-31 12:41:05	0	0	0	0	0	0	16.7	1.24	0.1	378658	0	33946	254920	378658	344712	4714	162	1024	170	233570	1398956	6070
304	2015-12-31 12:51:03	0	0	0	0	0	0	16.7	1.24	0.1	378658	0	33946	254920	378658	344712	4714	162	1024	170	233570	1398960	6070
305	2015-12-31 13:01:05	0	0	0	0	0	0	16.7	1.25	0.1	378697	0	33960	254920	378697	344737	4716	162	1024	170	233570	1398957	6072
306	2015-12-31 13:11:05	0	0	0	0	0	0	16.7	1.25	0.1	378697	0	33960	254920	378697	344737	4716	162	1024	170	233570	1398958	6072
307	2015-12-31 13:21:06	0	0	0	0	0	0	16.7	1.25	0.1	378724	0	33965	254920	378724	344759	4716	162	1024	170	233570	1398962	6072
308	2015-12-31 13:31:04	0	0	0	0	0	0	16.7	1.25	0.1	378754	0	33980	254920	378754	344774	4716	162	1024	170	233570	1398977	6072
309	2015-12-31 13:41:07	0	0	0	0	0	0	16.7	1.25	0.1	378762	0	33982	254920	378762	344780	4716	162	1024	170	233570	1399029	6072
310	2015-12-31 13:51:10	0	0	0	0	0	0	16.69	1.25	0.1	378762	0	33982	254920	378762	344780	4716	162	1024	170	233570	1399053	6072
311	2015-12-31 14:01:05	0	0	0	0	0	0	16.69	1.25	0.1	378798	0	33999	254920	378798	344799	4717	162	1024	170	233570	1399088	6073
312	2015-12-31 14:11:05	0	0	0	0	0	0	16.69	1.25	0.1	378798	0	33999	254920	378798	344799	4717	162	1024	170	233570	1399119	6073
313	2015-12-31 14:21:05	0	0	0	0	0	0	16.69	1.25	0.1	378824	0	34006	254993	378824	344818	4718	162	1024	170	233570	1399151	6074
314	2015-12-31 14:31:06	0	0	0	0	0	0	16.69	1.25	0.1	378834	0	34009	254993	378834	344825	4718	162	1024	170	233570	1399195	6074
315	2015-12-31 14:41:01	0	0	0	0	0	0	16.69	1.25	0.1	378849	0	34016	254993	378849	344833	4718	162	1024	170	233570	1399236	6074
316	2015-12-31 14:51:02	0	0	0	0	0	0	16.69	1.25	0.1	378849	0	34016	254993	378849	344833	4718	162	1024	170	233570	1399266	6074
317	2015-12-31 15:01:04	0	0	0	0	0	0	16.69	1.25	0.1	378873	0	34025	254993	378873	344848	4718	162	1024	170	233570	1399317	6074
318	2015-12-31 15:10:58	0	0	0	0	0	0	16.69	1.25	0.1	378873	0	34025	254993	378873	344848	4718	162	1024	170	233570	1399365	6074
319	2015-12-31 15:21:02	0	0	0	0	0	0	16.69	1.25	0.1	378904	0	34036	254993	378904	344868	4718	162	1024	170	233570	1399423	6074
320	2015-12-31 15:31:03	0	0	0	0	0	0	16.69	1.25	0.1	378918	0	34040	254993	378918	344878	4718	162	1024	170	233570	1399464	6074
321	2015-12-31 15:41:02	0	0	0	0	0	0	16.69	1.25	0.1	378918	0	34040	254993	378918	344878	4718	162	1024	170	233570	1399506	6074
322	2015-12-31 15:51:04	0	0	0	0	0	0	16.69	1.25	0.1	378942	0	34044	254993	378942	344898	4718	162	1024	170	233570	1399546	6074
323	2015-12-31 16:01:02	0	0	0	0	0	0	16.69	1.25	0.1	378942	0	34044	254993	378942	344898	4718	162	1024	170	233570	1399592	6074
324	2015-12-31 16:11:01	0	0	0	0	0	0	16.69	1.24	0.1	378967	0	34056	254993	378967	344911	4718	162	1025	170	233570	1399622	6075
325	2015-12-31 16:21:04	0	0	0	0	0	0	16.69	1.25	0.1	378977	0	34059	254993	378977	344918	4719	162	1025	170	233570	1399654	6076
326	2015-12-31 16:31:02	0	0	0	0	0	0	16.69	1.25	0.1	378990	0	34064	254993	378990	344926	4719	162	1025	170	233570	1399668	6076
327	2015-12-31 16:41:02	0	0	0	0	0	0	16.69	1.25	0.1	379000	0	34067	254993	379000	344933	4719	162	1025	170	233570	1399686	6076
328	2015-12-31 16:51:01	0	0	0	0	0	0	16.69	1.25	0.1	379008	0	34068	254993	379008	344940	4719	162	1025	170	233570	1399708	6076
329	2015-12-31 17:01:01	0	0	0	0	0	0	16.69	1.25	0.1	379020	0	34072	254993	379020	344948	4719	162	1025	170	233570	1399729	6076
330	2015-12-31 17:11:05	0	0	0	0	0	0	16.69	1.25	0.1	379029	0	34072	254993	379029	344957	4719	162	1025	170	233570	1399753	6076
331	2015-12-31 17:21:05	0	0	0	0	0	0	16.69	1.25	0.1	379033	0	34072	254993	379033	344961	4719	162	1025	170	233570	1399769	6076
332	2015-12-31 17:31:03	0	0	0	0	0	0	16.69	1.25	0.1	379033	0	34072	254993	379033	344961	4719	162	1025	170	233570	1399783	6076
333	2015-12-31 17:41:03	0	0	0	0	0	0	16.69	1.24	0.1	379050	0	34075	254993	379050	344975	4719	162	1025	170	233570	1399804	6076
334	2015-12-31 17:51:06	0	0	0	0	0	0	16.69	1.24	0.1	379063	0	34078	254993	379063	344985	4719	162	1026	170	233570	1399823	6077
335	2015-12-31 18:01:04	0	0	0	0	0	0	16.69	1.24	0.1	379063	0	34078	254993	379063	344985	4719	162	1026	170	233570	1399835	6077
336	2015-12-31 18:11:02	0	0	0	0	0	0	16.69	1.24	0.1	379078	0	34083	254993	379078	344995	4719	162	1026	170	233570	1399839	6077
337	2015-12-31 18:21:06	0	0	0	0	0	0	16.69	1.24	0.1	379087	0	34087	254993	379087	345000	4719	162	1026	170	233570	1399845	6077
338	2015-12-31 18:31:06	0	0	0	0	0	0	16.69	1.24	0.1	379093	0	34090	254993	379093	345003	4719	162	1026	170	233570	1399849	6077
339	2015-12-31 18:41:04	0	0	0	0	0	0	16.69	1.24	0.1	379098	0	34092	254993	379098	345006	4719	162	1026	170	233570	1399854	6077
340	2015-12-31 18:51:03	0	0	0	0	0	0	16.69	1.24	0.1	379109	0	34096	254993	379109	345013	4719	162	1026	170	233570	1399864	6077
341	2015-12-31 19:01:05	0	0	0	0	0	0	16.69	1.24	0.1	379115	0	34098	254993	379115	345017	4719	162	1026	170	233570	1399871	6077
342	2015-12-31 19:11:08	0	0	0	0	0	0	16.69	1.24	0.1	379126	0	34102	254993	379126	345024	4719	162	1026	170	233570	1399875	6077
343	2015-12-31 19:21:06	0	0	0	0	0	0	16.68	1.24	0.1	379126	0	34102	254993	379126	345024	4719	162	1026	170	233570	1399881	6077
344	2015-12-31 19:31:04	0	0	0	0	0	0	16.68	1.24	0.1	379136	0	34104	254993	379136	345032	4719	162	1026	170	233570	1399888	6077
345	2015-12-31 19:41:06	0	0	0	0	0	0	16.68	1.24	0.1	379146	0	34107	254993	379146	345039	4719	162	1026	170	233570	1399901	6077
346	2015-12-31 19:51:05	0	0	0	0	0	0	16.68	1.24	0.1	379146	0	34107	254993	379146	345039	4719	162	1026	170	233570	1399904	6077
347	2015-12-31 20:01:07	0	0	0	0	0	0	16.68	1.24	0.1	379177	0	34118	254993	379177	345059	4719	162	1026	170	233570	1399908	6077
348	2015-12-31 20:11:04	0	0	0	0	0	0	16.68	1.24	0.1	379177	0	34118	254993	379177	345059	4719	162	1026	170	233570	1399910	6077
349	2015-12-31 20:21:06	0	0	0	0	0	0	16.68	1.24	0.1	379190	0	34121	254993	379190	345069	4720	162	1026	170	233570	1399917	6078
350	2015-12-31 20:31:08	0	0	0	0	0	0	16.68	1.24	0.1	379201	0	34127	254993	379201	345074	4720	162	1026	170	233570	1399925	6078
351	2015-12-31 20:41:07	0	0	0	0	0	0	16.68	1.24	0.1	379206	0	34127	254993	379206	345079	4720	162	1026	170	233570	1399932	6078
352	2015-12-31 20:51:05	0	0	0	0	0	0	16.68	1.24	0.1	379206	0	34127	254993	379206	345079	4720	162	1026	170	233570	1399941	6078
353	2015-12-31 21:01:06	0	0	0	0	0	0	16.68	1.24	0.1	379218	0	34131	254993	379218	345087	4720	162	1026	170	233570	1399949	6078
354	2015-12-31 21:11:05	0	0	0	0	0	0	16.68	1.24	0.1	379218	0	34137	254993	379218	345087	4720	162	1026	170	233570	1399953	6078
355	2015-12-31 21:21:04	0	0	0	0	0	0	16.68	1.24	0.1	379238	0	34140	254993	379238	345098	4720	162	1026	170	233570	1399960	6078
356	2015-12-31 21:31:07	0	0	0	0	0	0	16.68	1.24	0.1	379239	0	34140	254993	379239	345099	4720	162	1026	170	233570	1399963	6078
357	2015-12-31 21:41:06	0	0	0	0	0	0	16.68	1.24	0.1	379239	0	34140	254993	379239	345099	4720	162	1026	170	233570	1399973	6078
358	2015-12-31 21:51:06	0	0	0	0	0	0	16.68	1.24	0.1	379256	0	34148	254993	379256	345108	4720	162	1026	170	233570	1399977	6078
359	2015-12-31 22:01:06	0	0	0	0	0	0	16.68	1.24	0.1	379260	0	34150	254993	379260	345110	4720	162	1026	170	233570	1399982	6078
360	2015-12-31 22:11:07	0	0	0	0	0	0	16.68	1.24	0.1	379271	0	34155	254993	379271	345116	4720	162	1026	170	233570	1399981	6078
361	2015-12-31 22:21:07	0	0	0	0	0	0	16.68	1.24	0.1	379271	0	34155	254993	379271	345116	4720	162	1026	170	233570	1399983	6078
362	2015-12-31 22:31:04	0	0	0	0	0	0	16.68	1.24	0.1	379291	0	34160	254993	379291	345131	4720	162	1028	171	233570	1399990	6081
363	2015-12-31 22:41:08	0	0	0	0	0	0	16.68	1.24	0.1	379298	0	34164	254993	379298	345134	4720	162	1028	171	233570	1399996	6081
364	2015-12-31 22:51:05	0	0	0	0	0	0	16.68	1.24	0.1	379298	0	34164	254993	379298	345134	4720	162	1028	171	233570	1399997	6081
365	2015-12-31 23:01:07	0	0	0	0	0	0	16.68	1.24	0.1	379312	0	34172	254993	379312	345140	4720	162	1028	171	233570	1400002	6081
366	2015-12-31 23:11:05	0	0	0	0	0	0	16.68	1.24	0.1	379312	0	34172	254993	379312	345140	4720	162	1028	171	233570	1400002	6081
367	2015-12-31 23:21:07	0	0	0	0	0	0	16.68	1.24	0.1	379328	0	34179	254993	379328	345149	4720	162	1028	171	233570	1400002	6081
368	2015-12-31 23:31:05	0	0	0	0	0	0	16.68	1.24	0.1	379337	0	34181	254993	379337	345156	4721	162	1028	171	233570	1400000	6082
369	2015-12-31 23:41:09	0	0	0	0	0	0	16.68	1.24	0.1	379346	0	34186	254993	379346	345160	4721	162	1028	171	233570	1400001	6082
370	2015-12-31 23:51:06	0	0	0	0	0	0	16.68	1.24	0.1	379349	0	34187	254993	379349	345162	4721	162	1028	171	233570	1400005	6082
371	2016-01-01 00:01:04	0	0	0	0	0	0	16.68	1.24	0.1	379349	0	34187	254993	379349	345162	4721	162	1028	171	233570	1400007	6082
372	2016-01-01 00:11:03	0	0	0	0	0	0	16.68	1.24	0.1	379357	0	34189	254993	379357	345168	4721	162	1028	171	233570	1400008	6082
373	2016-01-01 00:21:08	0	0	0	0	0	0	16.68	1.24	0.1	379361	0	34190	254993	379361	345171	4721	162	1028	171	233570	1400010	6082
374	2016-01-01 00:31:07	0	0	0	0	0	0	16.68	1.24	0.1	379370	0	34191	254993	379370	345179	4721	162	1028	171	233570	1400016	6082
375	2016-01-01 00:41:06	0	0	0	0	0	0	16.68	1.24	0.1	379370	0	34191	254993	379370	345179	4721	162	1028	171	233570	1400021	6082
376	2016-01-01 00:51:05	0	0	0	0	0	0	16.68	1.24	0.1	379380	0	34194	254993	379380	345186	4721	162	1028	171	233570	1400027	6082
377	2016-01-01 01:01:09	0	0	0	0	0	0	16.68	1.24	0.1	379382	0	34194	254993	379382	345188	4721	162	1028	171	233570	1400031	6082
378	2016-01-01 01:11:04	0	0	0	0	0	0	16.68	1.24	0.1	379386	0	34196	254993	379386	345190	4721	162	1028	171	233570	1400036	6082
379	2016-01-01 01:21:06	0	0	0	0	0	0	16.68	1.24	0.1	379391	0	34197	254993	379391	345194	4722	162	1028	171	233570	1400033	6083
380	2016-01-01 01:31:04	0	0	0	0	0	0	16.68	1.24	0.1	379396	0	34197	254993	379396	345199	4722	162	1028	171	233570	1400032	6083
381	2016-01-01 01:41:06	0	0	0	0	0	0	16.68	1.24	0.1	379399	0	34199	254993	379399	345200	4722	162	1028	171	233570	1400036	6083
382	2016-01-01 01:51:06	0	0	0	0	0	0	16.68	1.24	0.1	379408	0	34202	254993	379408	345206	4722	162	1028	171	233570	1400037	6083
383	2016-01-01 02:01:08	0	0	0	0	0	0	16.68	1.24	0.1	379412	0	34203	254993	379412	345209	4722	162	1028	171	233570	1400038	6083
384	2016-01-01 02:11:06	0	0	0	0	0	0	16.68	1.24	0.1	379415	0	34203	254993	379415	345212	4722	162	1028	171	233570	1400049	6083
385	2016-01-01 02:21:07	0	0	0	0	0	0	16.68	1.24	0.1	379424	0	34206	254993	379424	345218	4722	162	1028	171	233570	1400053	6083
386	2016-01-01 02:31:04	0	0	0	0	0	0	16.68	1.24	0.1	379424	0	34206	254993	379424	345218	4722	162	1028	171	233570	1400051	6083
387	2016-01-01 02:41:05	0	0	0	0	0	0	16.68	1.24	0.1	379431	0	34208	254993	379431	345223	4722	162	1028	171	233570	1400056	6083
388	2016-01-01 02:51:05	0	0	0	0	0	0	16.68	1.24	0.1	379434	0	34209	254993	379434	345225	4722	162	1028	171	233570	1400059	6083
389	2016-01-01 03:01:10	0	0	0	0	0	0	16.69	1.24	0.1	379436	0	34210	254993	379436	345226	4722	162	1028	171	233570	1399681	6083
390	2016-01-01 03:11:09	0	0	0	0	0	0	16.69	1.24	0.1	379436	0	34210	254993	379436	345226	4722	162	1028	171	233570	1399687	6083
391	2016-01-01 03:21:09	0	0	0	0	0	0	16.69	1.24	0.1	379444	0	34212	254993	379444	345232	4722	162	1028	171	233570	1399692	6083
392	2016-01-01 03:31:07	0	0	0	0	0	0	16.69	1.24	0.1	379445	0	34212	254993	379445	345232	4722	162	1028	171	233570	1399695	6083
393	2016-01-01 03:41:07	0	0	0	0	0	0	16.69	1.24	0.1	379447	0	34213	254993	379447	345234	4722	162	1028	171	233570	1399698	6083
394	2016-01-01 03:51:06	0	0	0	0	0	0	16.69	1.24	0.1	379447	0	34213	254993	379447	345234	4722	162	1028	171	233570	1399699	6083
395	2016-01-01 04:01:08	0	0	0	0	0	0	16.69	1.24	0.1	379456	0	34215	254993	379456	345241	4722	162	1028	171	233570	1399700	6083
396	2016-01-01 04:11:04	0	0	0	0	0	0	16.69	1.24	0.1	379456	0	34215	254993	379456	345241	4722	162	1028	171	233570	1399703	6083
397	2016-01-01 04:21:07	0	0	0	0	0	0	16.69	1.24	0.1	379464	0	34217	254993	379464	345247	4722	162	1028	171	233570	1399707	6083
398	2016-01-01 04:31:08	0	0	0	0	0	0	16.69	1.24	0.1	379467	0	34217	254993	379467	345250	4722	162	1028	171	233570	1399710	6083
399	2016-01-01 04:41:05	0	0	0	0	0	0	16.69	1.24	0.1	379469	0	34218	254993	379469	345251	4722	162	1028	171	233570	1399714	6083
400	2016-01-01 04:51:07	0	0	0	0	0	0	16.69	1.24	0.1	379471	0	34218	254993	379471	345253	4722	162	1028	171	233570	1399715	6083
401	2016-01-01 05:01:07	0	0	0	0	0	0	16.69	1.24	0.1	379471	0	34218	254993	379471	345253	4722	162	1028	171	233570	1399715	6083
402	2016-01-01 05:11:06	0	0	0	0	0	0	16.69	1.24	0.1	379471	0	34218	254993	379471	345253	4722	162	1028	171	233570	1399715	6083
403	2016-01-01 05:21:07	0	0	0	0	0	0	16.69	1.24	0.1	379478	0	34222	254993	379478	345256	4722	162	1028	171	233570	1399715	6083
404	2016-01-01 05:31:04	0	0	0	0	0	0	16.69	1.24	0.1	379478	0	34222	254993	379478	345256	4722	162	1028	171	233570	1399716	6083
405	2016-01-01 05:41:05	0	0	0	0	0	0	16.69	1.24	0.1	379479	0	34222	254993	379479	345257	4723	162	1028	171	233570	1399718	6084
406	2016-01-01 05:51:08	0	0	0	0	0	0	16.69	1.24	0.1	379480	0	34223	254993	379480	345257	4723	162	1028	171	233570	1399716	6084
407	2016-01-01 06:01:07	0	0	0	0	0	0	16.69	1.24	0.1	379480	0	34223	254993	379480	345257	4723	162	1028	171	233570	1399718	6084
408	2016-01-01 06:11:04	0	0	0	0	0	0	16.69	1.24	0.1	379483	0	34223	254993	379483	345260	4723	162	1028	171	233570	1399718	6084
409	2016-01-01 06:21:07	0	0	0	0	0	0	16.69	1.24	0.1	379483	0	34223	254993	379483	345260	4723	162	1028	171	233570	1399720	6084
410	2016-01-01 06:31:06	0	0	0	0	0	0	16.69	1.24	0.1	379484	0	34224	254993	379484	345260	4723	162	1028	171	233570	1399721	6084
411	2016-01-01 06:41:08	0	0	0	0	0	0	16.69	1.24	0.1	379485	0	34225	254993	379485	345260	4723	162	1028	171	233570	1399721	6084
412	2016-01-01 06:51:06	0	0	0	0	0	0	16.69	1.24	0.1	379485	0	34225	254993	379485	345260	4723	162	1028	171	233570	1399722	6084
413	2016-01-01 07:01:12	0	0	0	0	0	0	16.69	1.24	0.1	379486	0	34225	254993	379486	345261	4723	162	1028	171	233570	1399718	6084
414	2016-01-01 07:11:06	0	0	0	0	0	0	16.69	1.24	0.1	379487	0	34225	254993	379487	345262	4723	162	1028	171	233570	1399718	6084
415	2016-01-01 07:21:09	0	0	0	0	0	0	16.69	1.24	0.1	379488	0	34225	254993	379488	345263	4723	162	1028	171	233570	1399718	6084
416	2016-01-01 07:31:05	0	0	0	0	0	0	16.69	1.24	0.1	379489	0	34225	254993	379489	345264	4723	162	1028	171	233570	1399718	6084
417	2016-01-01 07:41:08	0	0	0	0	0	0	16.69	1.24	0.1	379490	0	34226	254993	379490	345264	4723	162	1028	171	233570	1399718	6084
418	2016-01-01 07:51:12	0	0	0	0	0	0	16.69	1.24	0.1	379491	0	34226	254993	379491	345265	4723	162	1028	171	233570	1399718	6084
419	2016-01-01 08:01:09	0	0	0	0	0	0	16.69	1.24	0.1	379491	0	34226	254993	379491	345265	4723	162	1028	171	233570	1399719	6084
420	2016-01-01 08:11:09	0	0	0	0	0	0	16.69	1.24	0.1	379492	0	34226	254993	379492	345266	4723	162	1028	171	233570	1399719	6084
421	2016-01-01 08:21:14	0	0	0	0	0	0	16.69	1.24	0.1	379492	0	34226	254993	379492	345266	4723	162	1028	171	233570	1399718	6084
422	2016-01-01 08:31:12	0	0	0	0	0	0	16.69	1.24	0.1	379492	0	34226	254993	379492	345266	4723	162	1028	171	233570	1399719	6084
423	2016-01-01 08:41:10	0	0	0	0	0	0	16.69	1.24	0.1	379492	0	34226	254993	379492	345266	4723	162	1028	171	233570	1399720	6084
424	2016-01-01 08:51:09	0	0	0	0	0	0	16.69	1.24	0.1	379496	0	34229	254993	379496	345267	4723	162	1028	171	233570	1399722	6084
425	2016-01-01 09:01:10	0	0	0	0	0	0	16.69	1.24	0.1	379496	0	34229	254993	379496	345267	4723	162	1028	171	233570	1399720	6084
426	2016-01-01 09:11:08	0	0	0	0	0	0	16.69	1.24	0.1	379496	0	34229	254993	379496	345267	4723	162	1028	171	233570	1399720	6084
427	2016-01-01 09:21:13	0	0	0	0	0	0	16.69	1.24	0.1	379500	0	34230	254993	379500	345270	4723	162	1028	171	233570	1399725	6084
428	2016-01-01 09:31:08	0	0	0	0	0	0	16.69	1.24	0.1	379500	0	34230	254993	379500	345270	4723	162	1028	171	233570	1399728	6084
429	2016-01-01 09:41:06	0	0	0	0	0	0	16.69	1.24	0.1	379504	0	34234	254993	379504	345270	4723	162	1028	171	233570	1399726	6084
430	2016-01-01 09:51:10	0	0	0	0	0	0	16.69	1.24	0.1	379505	0	34235	254993	379505	345270	4723	162	1028	171	233570	1399725	6084
431	2016-01-01 10:01:08	0	0	0	0	0	0	16.69	1.24	0.1	379505	0	34235	254993	379505	345270	4723	162	1028	171	233570	1399727	6084
432	2016-01-01 10:11:09	0	0	0	0	0	0	16.69	1.24	0.1	379508	0	34235	254993	379508	345273	4723	162	1028	171	233570	1399728	6084
433	2016-01-01 10:21:08	0	0	0	0	0	0	16.69	1.24	0.1	379508	0	34235	254993	379508	345273	4723	162	1028	171	233570	1399728	6084
434	2016-01-01 10:31:05	0	0	0	0	0	0	16.69	1.24	0.1	379517	0	34239	254993	379517	345278	4723	162	1028	171	233570	1399727	6084
435	2016-01-01 10:41:09	0	0	0	0	0	0	16.69	1.24	0.1	379521	0	34239	254993	379521	345282	4723	162	1028	171	233570	1399732	6084
436	2016-01-01 10:51:10	0	0	0	0	0	0	16.69	1.24	0.1	379524	0	34240	254993	379524	345284	4723	162	1028	171	233570	1399732	6084
437	2016-01-01 11:01:05	0	0	0	0	0	0	16.69	1.24	0.1	379524	0	34240	254993	379524	345284	4723	162	1028	171	233570	1399733	6084
438	2016-01-01 11:11:10	0	0	0	0	0	0	16.69	1.24	0.1	379526	0	34240	254993	379526	345286	4723	162	1028	171	233570	1399734	6084
439	2016-01-01 11:21:11	0	0	0	0	0	0	16.69	1.24	0.1	379527	0	34240	254993	379527	345287	4723	162	1028	171	233570	1399736	6084
440	2016-01-01 11:31:10	0	0	0	0	0	0	16.69	1.24	0.1	379533	0	34241	254993	379533	345292	4723	162	1028	171	233570	1399737	6084
441	2016-01-01 11:41:07	0	0	0	0	0	0	16.69	1.24	0.1	379535	0	34241	254993	379535	345294	4723	162	1028	171	233570	1399737	6084
442	2016-01-01 11:51:09	0	0	0	0	0	0	16.69	1.24	0.1	379539	0	34241	254993	379539	345298	4723	162	1028	171	233570	1399735	6084
443	2016-01-01 12:01:07	0	0	0	0	0	0	16.69	1.24	0.1	379539	0	34241	254993	379539	345298	4723	162	1028	171	233570	1399737	6084
444	2016-01-01 12:11:07	0	0	0	0	0	0	16.69	1.24	0.1	379545	0	34244	254993	379545	345301	4723	162	1028	172	233570	1399739	6085
445	2016-01-01 12:21:10	0	0	0	0	0	0	16.69	1.24	0.1	379549	0	34244	254993	379549	345305	4723	162	1028	172	233570	1399743	6085
446	2016-01-01 12:31:06	0	0	0	0	0	0	16.69	1.24	0.1	379549	0	34244	254993	379549	345306	4723	162	1028	172	233570	1399749	6085
447	2016-01-01 12:41:11	0	0	0	0	0	0	16.69	1.24	0.1	379556	0	34247	254993	379556	345309	4723	162	1028	172	233570	1399750	6085
448	2016-01-01 12:51:08	0	0	0	0	0	0	16.69	1.24	0.1	379557	0	34247	254993	379557	345310	4723	162	1028	172	233570	1399753	6085
449	2016-01-01 13:01:09	0	0	0	0	0	0	16.69	1.24	0.1	379560	0	34248	254993	379560	345312	4723	162	1028	172	233570	1399757	6085
