1	2017-04-04 10:36:20	0	0	0	0	0	0	0	0	0	0	1	0	0	0	0	0	0	10	1	0	2879524	0
2	2017-04-04 10:46:23	0	0	0	0	0	0	0.64	1.43	0	22601	1	57	18595	22601	22544	323	6	45	7	18549	2879536	381
3	2017-04-04 10:56:27	0	0	0	0	0	0	1.05	1.74	0.01	38076	1	241	30494	38076	37835	663	10	67	16	30266	2879553	756
4	2017-04-04 11:06:27	0	0	0	0	0	0	1.27	2.02	0.01	47991	1	421	36739	47991	47570	968	12	79	17	36511	2879572	1076
5	2017-04-04 11:16:27	0	0	0	0	0	0	1.42	2.22	0.01	55034	1	571	41317	55034	54463	1222	16	89	17	40846	2879584	1344
6	2017-04-04 11:26:28	0	0	0	0	0	0	1.53	2.33	0.01	60699	1	719	44753	60699	59980	1412	17	101	17	44115	2879604	1547
7	2017-04-04 11:36:38	0	0	0	0	0	0	1.66	2.43	0.01	65653	1	876	48347	65653	64777	1594	19	107	19	47816	2879628	1739
8	2017-04-04 11:46:33	0	0	0	0	0	0	1.76	2.51	0.01	70378	1	1000	51293	70378	69378	1766	21	114	19	50750	2879650	1920
9	2017-04-04 11:56:33	0	0	0	0	0	0	1.85	2.53	0.02	74783	1	1156	54147	74783	73627	1889	23	120	19	53390	2879675	2051
10	2017-04-04 12:06:31	0	0	0	0	0	0	1.95	2.58	0.02	79100	1	1282	57003	79100	77818	2040	23	122	19	56147	2879694	2204
11	2017-04-04 12:16:31	0	0	0	0	0	0	2.04	2.58	0.02	83128	1	1388	59520	83128	81740	2146	24	128	20	58652	2879717	2318
12	2017-04-04 12:26:32	0	0	0	0	0	0	2.1	2.59	0.02	86659	1	1492	61482	86659	85167	2241	26	134	20	60556	2879737	2421
13	2017-04-04 12:36:32	0	0	0	0	0	0	2.16	2.59	0.02	89660	1	1591	63205	89660	88069	2325	26	136	20	62207	2879754	2507
14	2017-04-04 12:46:32	0	0	0	0	0	0	2.22	2.6	0.02	92535	1	1688	64728	92535	90847	2408	27	139	20	63892	2879775	2594
15	2017-04-04 12:56:54	0	0	0	0	0	0	2.26	2.6	0.02	95558	1	1795	65976	95558	93763	2481	29	145	20	65037	2879796	2675
16	2017-04-04 13:06:37	0	0	0	0	0	0	2.31	2.62	0.02	98494	1	1931	67950	98494	96563	2576	31	148	20	66523	2879812	2775
17	2017-04-04 13:16:36	0	0	0	0	0	0	2.38	2.62	0.02	101351	1	2081	69799	101351	99270	2651	31	156	20	68475	2879817	2858
18	2017-04-04 13:26:38	0	0	0	0	0	0	2.44	2.62	0.02	104124	1	2212	71600	104124	101912	2724	31	156	20	70208	2879828	2931
19	2017-04-04 13:36:42	0	0	0	0	0	0	2.5	2.62	0.02	106183	1	2312	73542	106183	103871	2786	32	158	20	71943	2879851	2996
20	2017-04-04 13:46:44	0	0	0	0	0	0	2.54	2.63	0.02	108161	1	2444	74892	108161	105717	2847	32	159	20	73183	2879874	3058
21	2017-04-04 13:56:41	0	0	0	0	0	0	2.57	2.64	0.02	110199	1	2555	75581	110199	107644	2904	33	163	20	73953	2879906	3120
22	2017-04-04 14:06:40	0	0	0	0	0	0	2.6	2.64	0.02	112237	1	2645	76566	112237	109592	2963	33	167	20	75016	2879942	3183
23	2017-04-04 14:16:42	0	0	0	0	0	0	2.66	2.64	0.02	114128	1	2739	78279	114128	111389	3014	33	168	20	76599	2879971	3235
24	2017-04-04 14:26:40	0	0	0	0	0	0	2.68	2.64	0.02	116017	1	2798	78837	116017	113219	3058	33	170	20	77133	2880003	3281
25	2017-04-04 14:36:42	0	0	0	0	0	0	2.71	2.63	0.02	117934	1	2869	79448	117934	115065	3102	33	174	20	77937	2880041	3329
26	2017-04-04 14:46:41	0	0	0	0	0	0	2.76	2.64	0.03	119935	1	2951	81027	119935	116984	3165	33	179	20	79374	2880079	3397
27	2017-04-04 14:56:43	0	0	0	0	0	0	2.79	2.63	0.03	121977	1	3025	82035	121977	118952	3205	33	179	22	80483	2880124	3439
28	2017-04-04 15:06:42	0	0	0	0	0	0	2.84	2.63	0.03	123897	1	3092	83518	123897	120805	3263	33	180	22	81858	2880165	3498
29	2017-04-04 15:16:43	0	0	0	0	0	0	2.89	2.64	0.03	125806	1	3157	84947	125806	122649	3317	34	184	22	83303	2880218	3557
30	2017-04-04 15:27:00	0	0	0	0	0	0	2.93	2.64	0.03	127689	1	3211	86229	127689	124478	3365	34	188	22	84535	2880270	3609
31	2017-04-04 15:36:47	0	0	0	0	0	0	2.97	2.64	0.03	129298	1	3270	87371	129298	126028	3413	34	190	22	85689	2880329	3659
32	2017-04-04 15:46:51	0	0	0	0	0	0	2.99	2.65	0.03	130851	1	3323	87986	130851	127528	3465	34	192	22	86251	2880382	3713
33	2017-04-04 15:56:47	0	0	0	0	0	0	3.03	2.66	0.03	132447	1	3372	89087	132447	129075	3524	34	194	22	87309	2880434	3774
34	2017-04-04 16:06:47	0	0	0	0	0	0	3.07	2.67	0.03	133748	1	3412	90193	133748	130336	3566	34	194	23	88371	2880483	3817
35	2017-04-04 16:16:52	0	0	0	0	0	0	3.1	2.68	0.03	135102	1	3441	91090	135102	131661	3616	34	194	23	89232	2880529	3867
36	2017-04-04 16:26:50	0	0	0	0	0	0	3.13	2.67	0.03	136539	1	3470	92087	136539	133069	3648	34	195	23	90251	2880588	3900
37	2017-04-04 16:36:53	0	0	0	0	0	0	3.15	2.67	0.03	137911	1	3506	92566	137911	134405	3684	34	196	23	90754	2880626	3937
38	2017-04-04 16:46:53	0	0	0	0	0	0	3.17	2.67	0.03	139269	1	3547	93178	139269	135722	3722	34	198	23	91386	2880678	3977
39	2017-04-04 16:56:57	0	0	0	0	0	0	3.19	2.67	0.03	140699	1	3582	93842	140699	137117	3758	34	198	24	92024	2880723	4014
40	2017-04-04 17:07:06	0	0	0	0	0	0	3.22	2.66	0.03	142031	1	3617	94610	142031	138414	3785	34	199	24	92763	2880768	4042
41	2017-04-04 17:16:55	0	0	0	0	0	0	3.27	2.67	0.03	143297	1	3652	95837	143297	139645	3821	34	200	24	94079	2880825	4079
42	2017-04-04 17:26:54	0	0	0	0	0	0	3.29	2.66	0.03	144621	1	3679	96418	144621	140942	3849	34	202	24	94679	2880864	4109
43	2017-04-04 17:36:53	0	0	0	0	0	0	3.31	2.66	0.03	146015	1	3712	97319	146015	142303	3880	34	202	24	95501	2880907	4140
44	2017-04-04 17:46:53	0	0	0	0	0	0	3.34	2.65	0.03	147455	1	3748	98191	147455	143707	3911	34	203	24	96269	2880960	4172
45	2017-04-04 17:57:01	0	0	0	0	0	0	3.36	2.65	0.03	148856	1	3787	98787	148856	145069	3944	34	203	25	96889	2881009	4206
46	2017-04-04 18:07:00	0	0	0	0	0	0	3.37	2.65	0.03	149937	1	3822	99004	149937	146115	3972	35	203	25	97099	2881056	4235
47	2017-04-04 18:16:58	0	0	0	0	0	0	3.41	2.65	0.03	151062	1	3872	100240	151062	147190	4004	36	205	25	98287	2881080	4270
48	2017-04-04 18:27:00	0	0	0	0	0	0	3.43	2.65	0.03	152319	1	3908	100762	152319	148411	4031	36	206	26	98789	2881105	4299
49	2017-04-04 18:37:06	0	0	0	0	0	0	3.45	2.64	0.03	153490	1	3956	101555	153490	149534	4054	36	208	26	99506	2881135	4324
50	2017-04-04 18:47:36	0	0	0	0	0	0	3.47	2.64	0.03	154637	1	3987	102134	154637	150650	4075	36	210	26	100049	2881169	4347
51	2017-04-04 18:57:08	0	0	0	0	0	0	3.5	2.64	0.03	155905	1	4033	103079	155905	151872	4110	36	213	26	100956	2881193	4385
52	2017-04-04 19:07:02	0	0	0	0	0	0	3.55	2.63	0.03	157045	1	4077	104460	157045	152968	4123	36	213	26	102199	2881221	4398
53	2017-04-04 19:17:04	0	0	0	0	0	0	3.57	2.63	0.03	158149	1	4121	105209	158149	154028	4152	38	216	26	102779	2881247	4432
54	2017-04-04 19:27:03	0	0	0	0	0	0	3.58	2.62	0.03	159321	1	4182	105643	159321	155139	4174	38	220	26	103193	2881274	4458
55	2017-04-04 19:37:02	0	0	0	0	0	0	3.62	2.62	0.03	160548	1	4244	106674	160548	156304	4208	39	223	26	104163	2881306	4496
56	2017-04-04 19:47:36	0	0	0	0	0	0	3.64	2.62	0.03	161790	1	4306	107589	161790	157484	4242	40	225	26	104986	2881331	4533
57	2017-04-04 19:57:32	0	0	0	0	0	0	3.66	2.62	0.03	162985	1	4398	108115	162985	158587	4263	40	226	26	105573	2881354	4555
58	2017-04-04 20:07:28	0	0	0	0	0	0	3.69	2.61	0.03	164009	1	4450	108927	164009	159559	4284	40	227	26	106361	2881377	4577
59	2017-04-04 20:17:23	0	0	0	0	0	0	3.7	2.61	0.03	165096	1	4491	109366	165096	160605	4307	40	229	26	106677	2881402	4602
60	2017-04-04 20:27:27	0	0	0	0	0	0	3.73	2.61	0.03	166322	1	4530	110168	166322	161792	4337	40	229	27	107499	2881430	4633
61	2017-04-04 20:37:23	0	0	0	0	0	0	3.76	2.6	0.03	167554	1	4577	110988	167554	162977	4360	41	231	27	108265	2881455	4659
62	2017-04-04 20:47:46	0	0	0	0	0	0	3.82	2.59	0.03	168831	1	4639	112823	168831	164192	4380	41	232	27	110010	2881479	4680
63	2017-04-04 20:58:40	0	0	0	0	0	0	3.85	2.6	0.03	170082	1	4682	113848	170082	165400	4417	41	233	27	110984	2881507	4718
64	2017-04-04 21:08:55	0	0	0	0	0	0	3.89	2.59	0.03	171307	1	4736	114964	171307	166587	4444	41	235	27	112012	2881541	4747
65	2017-04-04 21:18:53	0	0	0	0	0	0	3.92	2.6	0.03	172321	1	4777	115841	172321	167562	4473	41	237	27	112878	2881568	4778
66	2017-04-04 21:28:52	0	0	0	0	0	0	3.95	2.6	0.03	173392	1	4788	116728	173392	168604	4500	42	238	27	113753	2881608	4807
67	2017-04-04 21:38:51	0	0	0	0	0	0	3.99	2.59	0.03	174611	1	4834	117843	174611	169777	4522	42	238	27	114880	2881635	4829
68	2017-04-04 21:48:50	0	0	0	0	0	0	4	2.58	0.03	175813	1	4877	118250	175813	170936	4537	42	238	27	115267	2881674	4844
69	2017-04-04 21:59:36	0	0	0	0	0	0	4.04	2.57	0.03	177716	1	4926	119289	177716	172790	4576	42	239	27	116306	2881726	4884
70	2017-04-04 22:11:44	0	0	0	0	0	0	4.06	2.57	0.03	178797	1	4962	120169	178797	173835	4599	42	241	27	117142	2881788	4909
71	2017-04-04 22:21:35	0	0	0	0	0	0	4.09	2.57	0.03	179793	1	4992	121042	179793	174801	4619	42	241	27	117972	2881834	4929
72	2017-04-04 22:31:35	0	0	0	0	0	0	4.11	2.57	0.03	180646	1	5021	121431	180646	175625	4638	42	242	27	118341	2881878	4949
73	2017-04-04 22:41:36	0	0	0	0	0	0	4.12	2.57	0.03	181459	1	5052	121734	181459	176407	4655	42	242	27	118701	2881929	4966
74	2017-04-04 22:51:36	0	0	0	0	0	0	4.13	2.56	0.03	182272	1	5072	122070	182272	177200	4671	42	242	27	119021	2881985	4982
75	2017-04-04 23:01:37	0	0	0	0	0	0	4.15	2.56	0.03	183186	1	5093	122538	183186	178093	4690	42	242	27	119577	2882039	5001
76	2017-04-04 23:11:53	0	0	0	0	0	0	4.17	2.56	0.03	184158	1	5117	123117	184158	179041	4710	42	243	27	120073	2882104	5022
77	2017-04-04 23:21:57	0	0	0	0	0	0	4.17	2.55	0.03	185108	1	5157	123358	185108	179951	4724	42	243	27	120231	2882174	5036
78	2017-04-04 23:32:00	0	0	0	0	0	0	4.18	2.55	0.03	185973	1	5183	123709	185973	180790	4743	42	244	27	120491	2882259	5056
79	2017-04-04 23:43:08	0	0	0	0	0	0	4.19	2.55	0.03	186856	1	5201	123937	186856	181655	4761	42	247	27	120820	2882337	5077
80	2017-04-04 23:54:06	0	0	0	0	0	0	4.22	2.54	0.03	187792	1	5229	124834	187792	182563	4776	43	247	28	121558	2882417	5094
81	2017-04-05 00:16:36	0	0	0	0	0	0	4.24	2.54	0.03	189795	1	5291	125624	189795	184504	4815	45	249	28	122200	2882542	5137
82	2017-04-05 01:16:40	0	0	0	0	0	0	4.34	2.52	0.03	193481	1	5395	128668	193481	188086	4880	45	253	28	125038	2882746	5206
83	2017-04-05 02:16:40	0	0	0	0	0	0	4.39	2.53	0.03	195506	1	5443	130057	195506	190063	4937	46	254	28	126432	2882762	5265
84	2017-04-05 03:16:50	0	0	0	0	0	0	4.41	2.52	0.03	196619	1	5478	130771	196619	191141	4962	47	256	28	127107	2882794	5293
85	2017-04-05 04:16:50	0	0	0	0	0	0	4.43	2.52	0.03	197374	1	5497	131448	197374	191877	4980	47	257	28	127747	2882803	5312
86	2017-04-05 05:16:50	0	0	0	0	0	0	4.44	2.52	0.03	198051	1	5521	131660	198051	192530	5000	47	258	28	127947	2882809	5333
87	2017-04-05 06:16:59	0	0	0	0	0	0	4.45	2.52	0.03	199200	1	5545	132234	199200	193655	5019	47	258	28	128318	2882856	5352
88	2017-04-05 07:04:29	0	0	0	0	0	0	4.52	2.51	0.03	200795	1	5595	134289	200795	195200	5041	47	260	28	130253	2882930	5376
89	2017-04-05 07:14:20	0	0	0	0	0	0	4.52	2.51	0.03	201180	1	5602	134382	201180	195578	5043	47	261	28	130341	2882947	5379
90	2017-04-05 07:24:19	0	0	0	0	0	0	4.53	2.51	0.03	201586	1	5612	134780	201586	195974	5054	47	262	28	130715	2882980	5391
91	2017-04-05 07:35:48	0	0	0	0	0	0	4.54	2.51	0.03	202304	1	5624	135086	202304	196680	5069	47	262	28	131002	2883002	5406
92	2017-04-05 07:45:01	0	0	0	0	0	0	4.55	2.51	0.03	202529	1	5631	135180	202529	196901	5076	47	262	28	131091	2883016	5413
93	2017-04-05 07:54:45	0	0	0	0	0	0	4.55	2.5	0.03	203000	1	5637	135310	203000	197363	5081	47	262	28	131213	2883041	5418
94	2017-04-05 08:05:17	0	0	0	0	0	0	4.57	2.5	0.03	203486	1	5657	135865	203486	198083	5097	47	262	28	131735	2883070	5434
95	2017-04-05 08:17:13	0	0	0	0	0	0	4.58	2.5	0.03	204308	1	5670	136116	204308	198638	5112	47	263	28	131971	2883110	5450
96	2017-04-05 08:27:11	0	0	0	0	0	0	4.63	2.5	0.03	204874	1	5691	137579	204874	199183	5126	47	264	28	133346	2883132	5465
97	2017-04-05 08:37:15	0	0	0	0	0	0	4.64	2.5	0.03	205425	1	5708	137971	205425	199717	5133	47	264	28	133714	2883163	5472
98	2017-04-05 08:47:09	0	0	0	0	0	0	4.65	2.5	0.03	205992	1	5722	138313	205992	200270	5151	47	265	28	134035	2883210	5491
99	2017-04-05 08:58:25	0	0	0	0	0	0	4.66	2.5	0.03	206557	1	5731	138677	206557	200826	5162	47	265	28	134447	2883254	5502
100	2017-04-05 09:07:34	0	0	0	0	0	0	4.69	2.5	0.03	207244	1	5742	139226	207244	201502	5171	47	266	28	135199	2883293	5512
101	2017-04-05 09:18:36	0	0	0	0	0	0	4.69	2.49	0.03	207826	1	5757	139251	207826	202069	5184	47	266	28	135222	2883341	5525
102	2017-04-05 09:31:11	0	0	0	0	0	0	4.69	2.49	0.03	208563	1	5781	139439	208563	202782	5198	47	266	28	135222	2883394	5539
103	2017-04-05 09:40:30	0	0	0	0	0	0	4.71	2.49	0.03	208972	1	5796	139779	208972	202982	5209	47	266	28	135941	2883447	5550
104	2017-04-05 09:52:37	0	0	0	0	0	0	4.73	2.49	0.03	209292	1	5811	140656	209292	203481	5221	47	266	28	136366	2883498	5562
105	2017-04-05 10:03:10	0	0	0	0	0	0	4.74	2.49	0.03	209582	1	5820	140963	209582	203762	5228	47	267	28	136655	2883543	5570
106	2017-04-05 10:18:32	0	0	0	0	0	0	4.75	2.49	0.03	210044	1	5836	141452	210044	204208	5237	48	268	28	137115	2883631	5581
107	2017-04-05 10:28:29	0	0	0	0	0	0	4.76	2.49	0.03	210412	1	5844	141737	210412	204568	5248	48	268	28	137382	2883673	5592
108	2017-04-05 10:39:07	0	0	0	0	0	0	4.77	2.49	0.03	210806	1	5856	141945	210806	204950	5256	48	268	28	137578	2883685	5600
109	2017-04-05 10:49:03	0	0	0	0	0	0	4.77	2.49	0.03	211165	1	5865	142059	211165	205300	5260	49	268	28	137685	2883694	5605
110	2017-04-05 11:01:22	0	0	0	0	0	0	4.78	2.49	0.03	211697	1	5881	142366	211697	205816	5268	49	268	28	137973	2883705	5613
111	2017-04-05 11:12:35	0	0	0	0	0	0	4.79	2.49	0.03	211962	1	5889	142471	211962	206073	5274	49	268	28	138071	2883728	5619
112	2017-04-05 11:24:26	0	0	0	0	0	0	4.79	2.49	0.03	212198	1	5900	142576	212198	206298	5279	49	269	28	138170	2883739	5625
113	2017-04-05 11:35:36	0	0	0	0	0	0	4.8	2.49	0.03	212502	1	5905	142852	212502	206597	5289	49	269	28	138430	2883759	5635
114	2017-04-05 11:48:39	0	0	0	0	0	0	4.81	2.49	0.03	212907	1	5922	143130	212907	206985	5295	49	269	28	138690	2883778	5641
115	2017-04-05 11:59:00	0	0	0	0	0	0	4.81	2.49	0.03	213161	1	5932	143130	213161	207229	5304	49	269	28	138690	2883804	5650
116	2017-04-05 12:09:35	0	0	0	0	0	0	4.82	2.49	0.03	213404	1	5946	143551	213404	207458	5309	49	269	28	138989	2883818	5655
117	2017-04-05 12:19:31	0	0	0	0	0	0	4.83	2.49	0.03	213616	1	5957	143803	213616	207659	5318	49	269	28	139225	2883828	5664
118	2017-04-05 12:30:07	0	0	0	0	0	0	4.85	2.49	0.03	213809	1	5960	144379	213809	207849	5323	49	269	28	139765	2883833	5669
119	2017-04-05 12:41:13	0	0	0	0	0	0	4.85	2.49	0.03	214084	1	5972	144433	214084	208112	5333	49	269	28	139816	2883858	5679
120	2017-04-05 12:55:46	0	0	0	0	0	0	4.85	2.49	0.03	214370	1	5980	144541	214370	208390	5341	49	269	28	139917	2883885	5687
121	2017-04-05 13:05:50	0	0	0	0	0	0	4.85	2.49	0.03	214563	1	5986	144588	214563	208577	5344	49	269	28	139917	2883904	5690
122	2017-04-05 13:17:22	0	0	0	0	0	0	4.85	2.49	0.03	214724	1	5991	144636	214724	208733	5348	49	269	28	139961	2883917	5694
123	2017-04-05 17:01:21	0	0	0	0	0	0	4.91	2.5	0.03	218180	1	6108	146398	218180	212072	5449	49	273	28	141559	2884317	5799
124	2017-04-05 17:03:03	0	0	0	0	0	0	4.91	2.5	0.03	218180	1	6108	146398	218180	212072	5449	49	273	28	141559	2884320	5799
125	2017-04-05 17:13:12	0	0	0	0	0	0	4.91	2.5	0.03	218363	1	6109	146398	218363	212254	5453	49	273	28	141559	2884333	5803
126	2017-04-05 17:23:02	0	0	0	0	0	0	4.91	2.5	0.03	218450	1	6109	146398	218450	212341	5456	49	273	28	141559	2884357	5806
127	2017-04-05 17:33:05	0	0	0	0	0	0	4.91	2.5	0.03	218532	1	6112	146495	218532	212420	5460	49	274	28	141650	2884373	5811
128	2017-04-05 17:43:05	0	0	0	0	0	0	4.91	2.5	0.03	218618	1	6119	146495	218618	212499	5468	49	274	28	141650	2884384	5819
129	2017-04-05 17:53:11	0	0	0	0	0	0	4.92	2.5	0.03	218710	1	6126	146715	218710	212584	5470	49	274	28	141856	2884396	5821
130	2017-04-05 18:03:12	0	0	0	0	0	0	4.92	2.5	0.03	218791	1	6129	146715	218791	212662	5473	49	274	28	141856	2884418	5824
131	2017-04-05 18:13:12	0	0	0	0	0	0	4.92	2.5	0.03	218863	1	6131	146715	218863	212732	5476	49	274	28	141856	2884436	5827
132	2017-04-05 18:23:12	0	0	0	0	0	0	4.92	2.5	0.03	218944	1	6132	146715	218944	212812	5476	49	274	28	141856	2884460	5827
133	2017-04-05 18:33:08	0	0	0	0	0	0	4.92	2.5	0.03	219013	1	6141	146715	219013	212872	5480	49	274	28	141856	2884484	5831
134	2017-04-05 18:43:07	0	0	0	0	0	0	4.92	2.5	0.03	219080	1	6143	146715	219080	212937	5481	49	274	28	141856	2884518	5832
135	2017-04-05 18:53:15	0	0	0	0	0	0	4.92	2.5	0.03	219154	1	6149	146715	219154	213005	5484	49	274	28	141856	2884551	5835
136	2017-04-05 19:03:10	0	0	0	0	0	0	4.92	2.5	0.03	219218	1	6154	146771	219218	213064	5485	49	274	28	141908	2884574	5836
137	2017-04-05 19:13:11	0	0	0	0	0	0	4.92	2.5	0.03	219292	1	6162	146771	219292	213130	5488	49	274	28	141908	2884604	5839
138	2017-04-05 19:23:09	0	0	0	0	0	0	4.92	2.5	0.03	219387	1	6165	146771	219387	213222	5489	49	274	28	141908	2884632	5840
139	2017-04-05 19:33:09	0	0	0	0	0	0	4.92	2.5	0.03	219466	1	6166	146792	219466	213300	5490	49	274	28	141927	2884653	5841
140	2017-04-05 19:43:39	0	0	0	0	0	0	4.92	2.5	0.03	219547	1	6173	146792	219547	213374	5492	49	274	28	141927	2884698	5843
141	2017-04-05 19:53:34	0	0	0	0	0	0	4.92	2.5	0.03	219600	1	6175	146792	219600	213425	5492	49	274	28	141927	2884732	5843
142	2017-04-05 20:03:37	0	0	0	0	0	0	4.93	2.5	0.03	219623	1	6175	146959	219623	213448	5494	49	274	28	142084	2884758	5845
143	2017-04-05 20:13:37	0	0	0	0	0	0	4.93	2.5	0.03	219661	1	6178	147015	219661	213483	5494	49	274	28	142136	2884798	5845
144	2017-04-05 20:23:40	0	0	0	0	0	0	4.93	2.5	0.03	219706	1	6184	147183	219706	213522	5497	49	274	28	142293	2884834	5848
145	2017-04-05 20:33:39	0	0	0	0	0	0	4.93	2.5	0.03	219755	1	6188	147183	219755	213567	5497	49	274	28	142293	2884865	5848
146	2017-04-05 20:43:37	0	0	0	0	0	0	4.93	2.5	0.03	219807	1	6193	147183	219807	213614	5500	49	274	28	142293	2884889	5851
147	2017-04-05 20:53:39	0	0	0	0	0	0	4.93	2.5	0.03	219847	1	6197	147183	219847	213650	5501	49	274	28	142293	2884924	5852
148	2017-04-05 21:03:38	0	0	0	0	0	0	4.93	2.5	0.03	219891	1	6203	147183	219891	213688	5501	49	274	28	142293	2884950	5852
149	2017-04-05 21:13:40	0	0	0	0	0	0	4.93	2.5	0.03	219932	1	6207	147183	219932	213725	5501	49	274	28	142293	2885001	5852
150	2017-04-05 21:23:42	0	0	0	0	0	0	4.93	2.5	0.03	219972	1	6210	147183	219972	213762	5501	49	274	28	142293	2885050	5852
151	2017-04-05 21:33:45	0	0	0	0	0	0	4.93	2.5	0.03	220007	1	6212	147183	220007	213795	5503	49	275	28	142293	2885112	5855
152	2017-04-05 21:43:42	0	0	0	0	0	0	4.93	2.5	0.03	220049	1	6216	147183	220049	213833	5504	49	275	28	142293	2885180	5856
153	2017-04-05 21:53:40	0	0	0	0	0	0	4.93	2.5	0.03	220092	1	6222	147183	220092	213870	5505	49	275	28	142293	2885234	5857
154	2017-04-05 22:03:44	0	0	0	0	0	0	4.94	2.5	0.03	220132	1	6224	147295	220132	213908	5506	49	275	28	142397	2885289	5858
155	2017-04-05 22:13:45	0	0	0	0	0	0	4.95	2.5	0.03	220171	1	6226	147660	220171	213945	5506	49	275	28	142739	2885338	5858
156	2017-04-05 22:23:48	0	0	0	0	0	0	4.95	2.5	0.03	220201	1	6229	147660	220201	213972	5506	49	275	28	142739	2885396	5858
157	2017-04-05 22:33:48	0	0	0	0	0	0	4.95	2.5	0.03	220237	1	6232	147660	220237	214005	5507	49	275	28	142739	2885467	5859
158	2017-04-05 22:43:46	0	0	0	0	0	0	4.95	2.5	0.03	220269	1	6236	147660	220269	214033	5507	49	275	28	142739	2885536	5859
159	2017-04-05 22:53:48	0	0	0	0	0	0	4.95	2.5	0.03	220295	1	6239	147660	220295	214056	5508	49	275	28	142739	2885606	5860
160	2017-04-05 23:03:42	0	0	0	0	0	0	4.95	2.5	0.03	220317	1	6241	147660	220317	214076	5509	49	275	28	142739	2885669	5861
161	2017-04-05 23:13:41	0	0	0	0	0	0	4.95	2.5	0.03	220338	1	6243	147660	220338	214095	5509	49	275	28	142739	2885717	5861
162	2017-04-05 23:23:15	0	0	0	0	0	0	4.95	2.5	0.03	220363	1	6247	147660	220363	214116	5509	49	275	28	142739	2885788	5861
163	2017-04-05 23:33:13	0	0	0	0	0	0	4.95	2.5	0.03	220380	1	6250	147660	220380	214130	5510	49	276	28	142739	2885839	5863
164	2017-04-05 23:43:13	0	0	0	0	0	0	4.95	2.5	0.03	220398	1	6252	147766	220398	214146	5510	49	276	28	142837	2885907	5863
165	2017-04-05 23:53:13	0	0	0	0	0	0	4.95	2.5	0.03	220425	1	6255	147766	220425	214170	5510	49	276	28	142837	2885952	5863
166	2017-04-06 00:15:42	0	0	0	0	0	0	4.95	2.5	0.03	220464	1	6263	147865	220464	214201	5510	49	276	28	142930	2886046	5863
167	2017-04-06 01:15:44	0	0	0	0	0	0	4.96	2.5	0.03	220535	1	6276	148063	220535	214259	5510	49	276	28	143115	2886230	5863
168	2017-04-06 02:15:43	0	0	0	0	0	0	4.96	2.5	0.03	220558	1	6279	148119	220558	214279	5514	49	276	28	143168	2885411	5867
169	2017-04-06 03:15:44	0	0	0	0	0	0	4.96	2.5	0.03	220571	1	6280	148119	220571	214291	5514	49	276	28	143168	2885447	5867
170	2017-04-06 04:15:44	0	0	0	0	0	0	4.96	2.5	0.03	220581	1	6280	148119	220581	214301	5515	49	276	28	143168	2885460	5868
171	2017-04-06 05:15:43	0	0	0	0	0	0	4.96	2.5	0.03	220592	1	6282	148119	220592	214310	5515	49	276	28	143168	2885472	5868
172	2017-04-06 06:15:50	0	0	0	0	0	0	4.96	2.5	0.03	220609	1	6282	148119	220609	214327	5517	49	276	28	143168	2885520	5870
173	2017-04-06 07:03:15	0	0	0	0	0	0	4.96	2.5	0.03	220641	1	6282	148119	220641	214359	5518	49	276	28	143168	2885571	5871
174	2017-04-06 07:13:17	0	0	0	0	0	0	4.96	2.5	0.03	220647	1	6283	148119	220647	214364	5518	49	276	28	143168	2885584	5871
175	2017-04-06 07:23:17	0	0	0	0	0	0	4.96	2.5	0.03	220653	1	6285	148119	220653	214368	5518	49	276	28	143168	2885601	5871
176	2017-04-06 07:33:16	0	0	0	0	0	0	4.96	2.5	0.03	220665	1	6285	148119	220665	214380	5519	49	276	28	143168	2885619	5872
177	2017-04-06 07:43:15	0	0	0	0	0	0	4.96	2.5	0.03	220676	1	6287	148119	220676	214389	5520	49	276	28	143168	2885639	5873
178	2017-04-06 07:53:16	0	0	0	0	0	0	4.96	2.5	0.03	220687	1	6288	148119	220687	214399	5520	49	276	28	143168	2885650	5873
179	2017-04-06 08:03:16	0	0	0	0	0	0	4.96	2.5	0.03	220694	1	6289	148119	220694	214405	5520	49	276	28	143168	2885671	5873
180	2017-04-06 08:13:16	0	0	0	0	0	0	4.96	2.5	0.03	220706	1	6289	148119	220706	214417	5520	49	276	28	143168	2885690	5873
181	2017-04-06 08:23:17	0	0	0	0	0	0	4.96	2.5	0.03	220711	1	6289	148119	220711	214422	5520	49	276	28	143168	2885703	5873
182	2017-04-06 08:33:16	0	0	0	0	0	0	4.96	2.5	0.03	220722	1	6289	148119	220722	214433	5520	48	276	28	143168	2885726	5872
183	2017-04-06 08:43:17	0	0	0	0	0	0	4.96	2.5	0.03	220732	1	6290	148119	220732	214442	5521	48	276	28	143168	2885752	5873
184	2017-04-06 08:53:21	0	0	0	0	0	0	4.96	2.5	0.03	220748	1	6291	148119	220748	214457	5521	48	276	28	143168	2885776	5873
185	2017-04-06 09:03:22	0	0	0	0	0	0	4.96	2.5	0.03	220759	1	6293	148119	220759	214466	5521	48	276	28	143168	2885808	5873
186	2017-04-06 09:13:19	0	0	0	0	0	0	4.96	2.5	0.03	220768	1	6293	148119	220768	214475	5522	48	276	28	143168	2885836	5874
187	2017-04-06 09:23:20	0	0	0	0	0	0	4.96	2.5	0.03	220776	1	6293	148119	220776	214483	5522	48	276	28	143168	2885858	5874
188	2017-04-06 09:33:19	0	0	0	0	0	0	4.96	2.5	0.03	220783	1	6293	148119	220783	214490	5522	48	276	28	143168	2885881	5874
189	2017-04-06 09:43:18	0	0	0	0	0	0	4.96	2.5	0.03	220790	1	6294	148119	220790	214496	5523	48	276	28	143168	2885904	5875
190	2017-04-06 09:53:18	0	0	0	0	0	0	4.96	2.5	0.03	220797	1	6294	148119	220797	214503	5524	48	276	28	143168	2885929	5876
191	2017-04-06 10:03:21	0	0	0	0	0	0	4.96	2.5	0.03	220803	1	6296	148119	220803	214507	5524	48	276	28	143168	2885958	5876
192	2017-04-06 10:13:19	0	0	0	0	0	0	4.96	2.5	0.03	220809	1	6296	148119	220809	214513	5525	48	276	28	143168	2885986	5877
193	2017-04-06 10:23:18	0	0	0	0	0	0	4.96	2.5	0.03	220817	1	6296	148119	220817	214521	5525	48	276	28	143168	2886019	5877
194	2017-04-06 10:33:22	0	0	0	0	0	0	4.96	2.5	0.03	220827	1	6296	148119	220827	214531	5526	48	276	28	143168	2886051	5878
195	2017-04-06 10:43:25	0	0	0	0	0	0	4.96	2.5	0.03	220833	1	6296	148119	220833	214537	5526	48	276	28	143168	2886080	5878
196	2017-04-06 10:53:30	0	0	0	0	0	0	4.96	2.5	0.03	220843	1	6297	148119	220843	214546	5527	48	276	28	143168	2886109	5879
197	2017-04-06 11:03:35	0	0	0	0	0	0	4.96	2.5	0.03	220847	1	6298	148119	220847	214549	5527	48	277	28	143168	2886128	5880
198	2017-04-06 11:24:37	0	0	0	0	0	0	4.96	2.5	0.03	220864	1	6298	148119	220864	214566	5527	48	277	28	143168	2886181	5880
199	2017-04-06 11:48:21	0	0	0	0	0	0	4.96	2.5	0.03	220883	1	6300	148119	220883	214583	5528	48	277	28	143168	2886247	5881
200	2017-04-06 11:57:57	0	0	0	0	0	0	4.96	2.5	0.03	220887	1	6300	148119	220887	214587	5528	48	277	28	143168	2886281	5881
201	2017-04-06 12:07:59	0	0	0	0	0	0	4.96	2.5	0.03	220889	1	6300	148119	220889	214589	5528	48	277	28	143168	2886312	5881
202	2017-04-06 12:17:59	0	0	0	0	0	0	4.96	2.5	0.03	220894	1	6301	148119	220894	214593	5528	48	277	28	143168	2886350	5881
203	2017-04-06 12:28:02	0	0	0	0	0	0	4.96	2.5	0.03	220896	1	6301	148119	220896	214595	5528	48	277	28	143168	2886382	5881
204	2017-04-06 12:38:06	0	0	0	0	0	0	4.96	2.5	0.03	220899	1	6301	148119	220899	214598	5528	48	277	28	143168	2886414	5881
205	2017-04-06 12:48:13	0	0	0	0	0	0	4.96	2.5	0.03	220905	1	6302	148119	220905	214603	5528	48	277	28	143168	2886433	5881
206	2017-04-06 12:58:14	0	0	0	0	0	0	4.96	2.5	0.03	220905	1	6302	148119	220905	214603	5528	48	277	28	143168	2886460	5881
207	2017-04-06 13:03:51	0	0	0	0	0	0	4.96	2.5	0.03	220908	1	6302	148119	220908	214606	5528	48	277	28	143168	2886483	5881
208	2017-04-06 13:04:48	0	0	0	0	0	0	4.96	2.5	0.03	220908	1	6302	148119	220908	214606	5528	48	277	28	143168	2886485	5881
209	2017-04-06 13:08:15	0	0	0	0	0	0	4.96	2.5	0.03	220908	1	6302	148119	220908	214606	5528	48	277	28	143168	2886494	5881
210	2017-04-06 13:14:18	0	0	0	0	0	0	4.96	2.5	0.03	220916	1	6302	148119	220916	214614	5528	48	277	28	143168	2886505	5881
211	2017-04-06 13:15:15	0	0	0	0	0	0	4.96	2.5	0.03	220916	1	6302	148119	220916	214614	5528	48	277	28	143168	2886507	5881
212	2017-04-06 13:18:38	0	0	0	0	0	0	4.96	2.5	0.03	220916	1	6302	148119	220916	214614	5528	48	277	28	143168	2886517	5881
213	2017-04-06 13:24:37	0	0	0	0	0	0	4.96	2.5	0.03	220919	1	6302	148119	220919	214617	5528	48	277	28	143168	2886531	5881
214	2017-04-06 13:25:30	0	0	0	0	0	0	4.96	2.5	0.03	220919	1	6302	148119	220919	214617	5528	48	277	28	143168	2886536	5881
215	2017-04-06 13:28:54	0	0	0	0	0	0	4.96	2.5	0.03	220919	1	6302	148119	220919	214617	5528	48	277	28	143168	2886550	5881
216	2017-04-06 13:34:58	0	0	0	0	0	0	4.96	2.5	0.03	220924	1	6302	148119	220924	214622	5528	48	277	28	143168	2886576	5881
217	2017-04-06 13:35:55	0	0	0	0	0	0	4.96	2.5	0.03	220924	1	6302	148119	220924	214622	5528	48	277	28	143168	2886577	5881
218	2017-04-06 13:39:18	0	0	0	0	0	0	4.96	2.5	0.03	220924	1	6302	148119	220924	214622	5528	48	277	28	143168	2886587	5881
219	2017-04-06 13:45:17	0	0	0	0	0	0	4.96	2.5	0.03	220928	1	6303	148119	220928	214625	5528	48	277	28	143168	2886614	5881
220	2017-04-06 13:46:12	0	0	0	0	0	0	4.96	2.5	0.03	220928	1	6303	148119	220928	214625	5528	48	277	28	143168	2886613	5881
221	2017-04-06 13:49:34	0	0	0	0	0	0	4.96	2.5	0.03	220928	1	6303	148119	220928	214625	5528	48	277	28	143168	2886627	5881
222	2017-04-06 13:55:35	0	0	0	0	0	0	4.96	2.5	0.03	220935	1	6304	148119	220935	214631	5528	48	277	28	143168	2886645	5881
223	2017-04-06 13:56:30	0	0	0	0	0	0	4.96	2.5	0.03	220935	1	6304	148119	220935	214631	5528	48	277	28	143168	2886648	5881
224	2017-04-06 13:59:54	0	0	0	0	0	0	4.96	2.5	0.03	220935	1	6304	148119	220935	214631	5528	48	277	28	143168	2886668	5881
225	2017-04-06 14:05:54	0	0	0	0	0	0	4.96	2.5	0.03	220938	1	6304	148119	220938	214634	5528	48	277	28	143168	2886684	5881
226	2017-04-06 14:06:48	0	0	0	0	0	0	4.96	2.5	0.03	220938	1	6304	148119	220938	214634	5528	48	277	28	143168	2886687	5881
227	2017-04-06 14:10:10	0	0	0	0	0	0	4.96	2.5	0.03	220938	1	6304	148119	220938	214634	5528	48	277	28	143168	2886697	5881
228	2017-04-06 14:16:09	0	0	0	0	0	0	4.96	2.5	0.03	220941	1	6304	148119	220941	214637	5528	48	277	28	143168	2886721	5881
229	2017-04-06 14:17:05	0	0	0	0	0	0	4.96	2.5	0.03	220941	1	6304	148119	220941	214637	5528	48	277	28	143168	2886725	5881
230	2017-04-06 14:20:27	0	0	0	0	0	0	4.96	2.5	0.03	220941	1	6304	148119	220941	214637	5528	48	277	28	143168	2886735	5881
231	2017-04-06 14:26:25	0	0	0	0	0	0	4.96	2.5	0.03	220948	1	6304	148119	220948	214644	5528	48	277	28	143168	2886754	5881
232	2017-04-06 14:27:17	0	0	0	0	0	0	4.96	2.5	0.03	220948	1	6304	148119	220948	214644	5528	48	277	28	143168	2886756	5881
233	2017-04-06 14:30:36	0	0	0	0	0	0	4.96	2.5	0.03	220948	1	6304	148119	220948	214644	5528	48	277	28	143168	2886768	5881
234	2017-04-06 14:36:34	0	0	0	0	0	0	4.96	2.5	0.03	220950	1	6304	148119	220950	214646	5528	48	277	28	143168	2886785	5881
235	2017-04-06 14:37:28	0	0	0	0	0	0	4.96	2.5	0.03	220950	1	6304	148119	220950	214646	5528	48	277	28	143168	2886787	5881
236	2017-04-06 14:40:50	0	0	0	0	0	0	4.96	2.5	0.03	220950	1	6304	148119	220950	214646	5528	48	277	28	143168	2886800	5881
237	2017-04-06 14:46:49	0	0	0	0	0	0	4.96	2.5	0.03	220955	1	6304	148119	220955	214651	5528	48	277	28	143168	2886817	5881
238	2017-04-06 14:47:43	0	0	0	0	0	0	4.96	2.5	0.03	220955	1	6304	148119	220955	214651	5528	48	277	28	143168	2886822	5881
239	2017-04-06 14:51:08	0	0	0	0	0	0	4.96	2.5	0.03	220955	1	6304	148119	220955	214651	5528	48	277	28	143168	2886835	5881
240	2017-04-06 14:57:09	0	0	0	0	0	0	4.96	2.5	0.03	220959	1	6304	148119	220959	214655	5528	48	277	28	143168	2886865	5881
241	2017-04-06 14:58:04	0	0	0	0	0	0	4.96	2.5	0.03	220959	1	6304	148119	220959	214655	5528	48	277	28	143168	2886869	5881
242	2017-04-06 15:01:26	0	0	0	0	0	0	4.96	2.5	0.03	220959	1	6304	148119	220959	214655	5528	48	277	28	143168	2886880	5881
243	2017-04-06 15:07:24	0	0	0	0	0	0	4.96	2.5	0.03	220961	1	6304	148119	220961	214657	5528	48	277	28	143168	2886898	5881
244	2017-04-06 15:08:17	0	0	0	0	0	0	4.96	2.5	0.03	220961	1	6304	148119	220961	214657	5528	48	277	28	143168	2886903	5881
245	2017-04-06 15:11:37	0	0	0	0	0	0	4.96	2.5	0.03	220961	1	6304	148119	220961	214657	5528	48	277	28	143168	2886916	5881
246	2017-04-06 15:17:36	0	0	0	0	0	0	4.96	2.5	0.03	220962	1	6304	148119	220962	214658	5529	48	277	28	143168	2886936	5882
247	2017-04-06 15:18:28	0	0	0	0	0	0	4.96	2.5	0.03	220962	1	6304	148119	220962	214658	5529	48	277	28	143168	2886939	5882
248	2017-04-06 15:21:49	0	0	0	0	0	0	4.96	2.5	0.03	220962	1	6304	148119	220962	214658	5529	48	277	28	143168	2886957	5882
249	2017-04-06 15:27:48	0	0	0	0	0	0	4.96	2.5	0.03	220969	1	6304	148119	220969	214665	5529	48	277	28	143168	2886990	5882
250	2017-04-06 15:28:40	0	0	0	0	0	0	4.96	2.5	0.03	220969	1	6304	148119	220969	214665	5529	48	277	28	143168	2886995	5882
251	2017-04-06 15:32:08	0	0	0	0	0	0	4.96	2.5	0.03	220969	1	6304	148119	220969	214665	5529	48	277	28	143168	2887004	5882
252	2017-04-06 15:38:30	0	0	0	0	0	0	4.96	2.5	0.03	220971	1	6304	148119	220971	214667	5529	48	277	28	143168	2887039	5882
253	2017-04-06 15:39:25	0	0	0	0	0	0	4.96	2.5	0.03	220971	1	6304	148119	220971	214667	5529	48	277	28	143168	2887042	5882
254	2017-04-06 15:42:47	0	0	0	0	0	0	4.96	2.5	0.03	220971	1	6304	148119	220971	214667	5529	48	277	28	143168	2887059	5882
255	2017-04-06 15:48:48	0	0	0	0	0	0	4.96	2.5	0.03	220976	1	6304	148119	220976	214672	5529	48	277	28	143168	2887086	5882
256	2017-04-06 15:49:47	0	0	0	0	0	0	4.96	2.5	0.03	220976	1	6304	148119	220976	214672	5529	48	277	28	143168	2887091	5882
257	2017-04-06 15:53:09	0	0	0	0	0	0	4.96	2.5	0.03	220976	1	6304	148119	220976	214672	5529	48	277	28	143168	2887111	5882
258	2017-04-06 15:59:08	0	0	0	0	0	0	4.96	2.5	0.03	220981	1	6304	148119	220981	214677	5529	48	277	28	143168	2887129	5882
259	2017-04-06 16:00:03	0	0	0	0	0	0	4.96	2.5	0.03	220981	1	6304	148119	220981	214677	5529	48	277	28	143168	2887131	5882
260	2017-04-06 16:03:26	0	0	0	0	0	0	4.96	2.5	0.03	220981	1	6304	148119	220981	214677	5529	48	277	28	143168	2887147	5882
261	2017-04-06 16:09:24	0	0	0	0	0	0	4.96	2.5	0.03	220984	1	6304	148119	220984	214680	5529	48	277	28	143168	2887169	5882
262	2017-04-06 16:10:19	0	0	0	0	0	0	4.96	2.5	0.03	220984	1	6304	148119	220984	214680	5529	48	277	28	143168	2887174	5882
263	2017-04-06 16:13:41	0	0	0	0	0	0	4.96	2.5	0.03	220984	1	6304	148119	220984	214680	5529	48	277	28	143168	2887192	5882
264	2017-04-06 16:19:48	0	0	0	0	0	0	4.96	2.5	0.03	220988	1	6305	148119	220988	214683	5530	48	277	28	143168	2887219	5883
265	2017-04-06 16:20:46	0	0	0	0	0	0	4.96	2.5	0.03	220988	1	6305	148119	220988	214683	5530	48	277	28	143168	2887221	5883
266	2017-04-06 16:24:22	0	0	0	0	0	0	4.96	2.5	0.03	220988	1	6305	148119	220988	214683	5530	48	277	28	143168	2887243	5883
267	2017-04-06 16:30:26	0	0	0	0	0	0	4.96	2.5	0.03	220991	1	6305	148119	220991	214686	5530	48	277	28	143168	2887276	5883
268	2017-04-06 16:31:32	0	0	0	0	0	0	4.96	2.5	0.03	220991	1	6305	148119	220991	214686	5530	48	277	28	143168	2887282	5883
269	2017-04-06 16:35:04	0	0	0	0	0	0	4.96	2.5	0.03	220991	1	6305	148119	220991	214686	5530	48	277	28	143168	2887298	5883
270	2017-04-06 16:41:35	0	0	0	0	0	0	4.96	2.5	0.03	220993	1	6305	148119	220993	214688	5530	48	277	28	143168	2887327	5883
271	2017-04-06 16:42:41	0	0	0	0	0	0	4.96	2.5	0.03	220993	1	6305	148119	220993	214688	5530	48	277	28	143168	2887337	5883
272	2017-04-06 16:45:13	0	0	0	0	0	0	4.96	2.5	0.03	220993	1	6305	148119	220993	214688	5530	48	277	28	143168	2887352	5883
273	2017-04-06 16:51:28	0	0	0	0	0	0	4.96	2.5	0.03	220996	1	6305	148119	220996	214691	5530	48	277	28	143168	2887388	5883
274	2017-04-06 16:52:51	0	0	0	0	0	0	4.96	2.5	0.03	220996	1	6305	148119	220996	214691	5530	48	277	28	143168	2887393	5883
275	2017-04-06 16:55:16	0	0	0	0	0	0	4.96	2.5	0.03	220996	1	6305	148119	220996	214691	5530	48	277	28	143168	2887402	5883
276	2017-04-06 17:01:44	0	0	0	0	0	0	4.96	2.5	0.03	221003	1	6306	148119	221003	214697	5530	48	277	28	143168	2887427	5883
277	2017-04-06 17:02:46	0	0	0	0	0	0	4.96	2.5	0.03	221003	1	6306	148119	221003	214697	5530	48	277	28	143168	2887433	5883
278	2017-04-06 17:05:15	0	0	0	0	0	0	4.96	2.5	0.03	221003	1	6306	148119	221003	214697	5530	48	277	28	143168	2887441	5883
279	2017-04-06 17:11:37	0	0	0	0	0	0	4.96	2.5	0.03	221011	1	6307	148119	221011	214704	5530	48	277	28	143168	2887467	5883
280	2017-04-06 17:12:45	0	0	0	0	0	0	4.96	2.5	0.03	221011	1	6307	148119	221011	214704	5530	48	277	28	143168	2887472	5883
281	2017-04-06 17:15:18	0	0	0	0	0	0	4.96	2.5	0.03	221011	1	6307	148119	221011	214704	5530	48	277	28	143168	2887477	5883
282	2017-04-06 17:21:45	0	0	0	0	0	0	4.96	2.5	0.03	221014	1	6307	148119	221014	214707	5530	48	277	28	143168	2887501	5883
283	2017-04-06 17:22:46	0	0	0	0	0	0	4.96	2.5	0.03	221014	1	6307	148119	221014	214707	5530	48	277	28	143168	2887508	5883
284	2017-04-06 17:25:19	0	0	0	0	0	0	4.96	2.5	0.03	221014	1	6307	148119	221014	214707	5530	48	277	28	143168	2887518	5883
285	2017-04-06 17:31:34	0	0	0	0	0	0	4.96	2.5	0.03	221016	1	6307	148119	221016	214709	5530	48	277	28	143168	2887547	5883
286	2017-04-06 17:32:54	0	0	0	0	0	0	4.96	2.5	0.03	221016	1	6307	148119	221016	214709	5530	48	277	28	143168	2887552	5883
287	2017-04-06 17:35:18	0	0	0	0	0	0	4.96	2.5	0.03	221016	1	6307	148119	221016	214709	5530	48	277	28	143168	2887561	5883
288	2017-04-06 17:41:42	0	0	0	0	0	0	4.96	2.5	0.03	221021	1	6307	148119	221021	214714	5530	48	277	28	143168	2887583	5883
289	2017-04-06 17:42:40	0	0	0	0	0	0	4.96	2.5	0.03	221021	1	6307	148119	221021	214714	5530	48	277	28	143168	2887586	5883
290	2017-04-06 17:45:18	0	0	0	0	0	0	4.96	2.5	0.03	221021	1	6307	148119	221021	214714	5530	48	277	28	143168	2887595	5883
291	2017-04-06 17:51:36	0	0	0	0	0	0	4.96	2.5	0.03	221024	1	6307	148119	221024	214717	5530	48	277	28	143168	2887638	5883
292	2017-04-06 17:53:00	0	0	0	0	0	0	4.96	2.5	0.03	221024	1	6307	148119	221024	214717	5530	48	277	28	143168	2887637	5883
293	2017-04-06 17:55:28	0	0	0	0	0	0	4.96	2.5	0.03	221024	1	6307	148119	221024	214717	5530	48	277	28	143168	2887644	5883
294	2017-04-06 18:01:38	0	0	0	0	0	0	4.96	2.5	0.03	221026	1	6307	148119	221026	214719	5530	48	277	28	143168	2887671	5883
295	2017-04-06 18:02:41	0	0	0	0	0	0	4.96	2.5	0.03	221026	1	6307	148119	221026	214719	5530	48	277	28	143168	2887674	5883
296	2017-04-06 18:05:24	0	0	0	0	0	0	4.96	2.5	0.03	221026	1	6307	148119	221026	214719	5530	48	277	28	143168	2887690	5883
297	2017-04-06 18:11:46	0	0	0	0	0	0	4.96	2.5	0.03	221027	1	6307	148119	221027	214720	5530	48	277	28	143168	2887717	5883
298	2017-04-06 18:12:47	0	0	0	0	0	0	4.96	2.5	0.03	221027	1	6307	148119	221027	214720	5530	48	277	28	143168	2887724	5883
299	2017-04-06 18:15:17	0	0	0	0	0	0	4.96	2.5	0.03	221027	1	6307	148119	221027	214720	5530	48	277	28	143168	2887738	5883
300	2017-04-06 18:21:37	0	0	0	0	0	0	4.96	2.5	0.03	221037	1	6307	148119	221037	214730	5530	48	277	28	143168	2887772	5883
301	2017-04-06 18:22:52	0	0	0	0	0	0	4.96	2.5	0.03	221037	1	6307	148119	221037	214730	5530	48	277	28	143168	2887779	5883
302	2017-04-06 18:25:51	0	0	0	0	0	0	4.96	2.5	0.03	221037	1	6307	148119	221037	214730	5530	48	277	28	143168	2887792	5883
303	2017-04-06 18:32:14	0	0	0	0	0	0	4.96	2.5	0.03	221042	1	6308	148119	221042	214734	5530	48	277	28	143168	2887819	5883
304	2017-04-06 18:33:17	0	0	0	0	0	0	4.96	2.5	0.03	221042	1	6308	148119	221042	214734	5530	48	277	28	143168	2887825	5883
305	2017-04-06 18:36:03	0	0	0	0	0	0	4.96	2.5	0.03	221042	1	6308	148119	221042	214734	5530	48	277	28	143168	2887841	5883
306	2017-04-06 18:42:08	0	0	0	0	0	0	4.96	2.5	0.03	221046	1	6308	148119	221046	214738	5530	48	277	28	143168	2887872	5883
307	2017-04-06 18:43:20	0	0	0	0	0	0	4.96	2.5	0.03	221046	1	6308	148119	221046	214738	5530	48	277	28	143168	2887876	5883
308	2017-04-06 18:47:21	0	0	0	0	0	0	4.96	2.5	0.03	221049	1	6309	148119	221049	214740	5530	48	277	28	143168	2887892	5883
309	2017-04-06 18:54:09	0	0	0	0	0	0	4.96	2.5	0.03	221054	1	6310	148119	221054	214744	5530	48	277	28	143168	2887931	5883
310	2017-04-06 18:55:46	0	0	0	0	0	0	4.96	2.5	0.03	221054	1	6310	148119	221054	214744	5530	48	277	28	143168	2887937	5883
311	2017-04-06 18:57:12	0	0	0	0	0	0	4.96	2.5	0.03	221054	1	6310	148119	221054	214744	5530	48	277	28	143168	2887943	5883
312	2017-04-06 19:04:33	0	0	0	0	0	0	4.96	2.5	0.03	221060	1	6311	148148	221060	214749	5530	48	277	28	143194	2887985	5883
313	2017-04-06 19:05:43	0	0	0	0	0	0	4.96	2.5	0.03	221060	1	6311	148148	221060	214749	5530	48	277	28	143194	2887989	5883
314	2017-04-06 19:09:23	0	0	0	0	0	0	4.96	2.5	0.03	221060	1	6311	148148	221060	214749	5530	48	277	28	143194	2888001	5883
315	2017-04-06 19:17:07	0	0	0	0	0	0	4.96	2.5	0.03	221066	1	6312	148148	221066	214754	5530	48	277	28	143194	2888021	5883
316	2017-04-06 19:19:19	0	0	0	0	0	0	4.96	2.5	0.03	221066	1	6312	148148	221066	214754	5530	48	277	28	143194	2888030	5883
317	2017-04-06 19:21:07	0	0	0	0	0	0	4.96	2.5	0.03	221066	1	6312	148148	221066	214754	5530	48	277	28	143194	2888041	5883
318	2017-04-06 19:25:55	0	0	0	0	0	0	4.96	2.5	0.03	221076	1	6312	148148	221076	214764	5530	48	277	28	143194	2888056	5883
319	2017-04-06 19:27:20	0	0	0	0	0	0	4.96	2.5	0.03	221076	1	6312	148148	221076	214764	5530	48	277	28	143194	2888060	5883
320	2017-04-06 19:31:38	0	0	0	0	0	0	4.96	2.5	0.03	221080	1	6312	148148	221080	214768	5530	48	277	28	143194	2888071	5883
321	2017-04-06 19:41:50	0	0	0	0	0	0	4.96	2.5	0.03	221089	1	6314	148148	221089	214775	5532	48	277	28	143194	2888112	5885
