1	2017-12-12 13:01:37		0	0	0	0	0	0	0.32	0.71	0	12358	0	0	11332	12358	12358	88	0	8	2	11212	3488735	98
2	2017-12-12 13:12:07		0	0	0	0	0	0	0.5	1.03	0	19974	0	0	17602	19974	19974	206	0	18	3	17412	3488746	227
3	2017-12-12 13:22:36		0	0	0	0	0	0	0.61	1.12	0	24904	0	0	21628	24904	24904	280	0	25	3	21385	3488764	308
4	2017-12-12 13:33:06		0	0	0	0	0	0	0.69	1.21	0	28300	0	0	24299	28300	28300	342	0	27	4	23953	3488771	373
5	2017-12-12 13:43:35		0	0	0	0	0	0	0.76	1.23	0	31355	0	0	26909	31355	31355	387	0	33	4	26557	3488784	424
6	2017-12-12 13:54:09		0	0	0	0	0	0	0.82	1.26	0	34081	0	0	28959	34081	34081	429	0	36	4	28636	3488798	469
7	2017-12-12 14:04:35		0	0	0	0	0	0	0.87	1.3	0	36548	0	1	30534	36548	36547	475	0	36	4	30196	3488816	515
8	2017-12-12 14:15:06		0	0	0	0	0	0	0.9	1.33	0	38626	0	6	31908	38626	38622	515	0	38	4	31570	3488827	557
9	2017-12-12 14:25:37		0	0	0	0	0	0	0.96	1.37	0	41569	0	6	34097	41569	41563	571	0	38	4	33604	3488834	613
10	2017-12-12 14:36:06		0	0	0	0	0	0	1	1.38	0	43229	0	9	35547	43229	43220	596	0	41	4	35012	3488848	641
11	2017-12-12 14:46:35		0	0	0	0	0	0	1.04	1.39	0	44851	0	13	36932	44851	44838	624	0	44	4	36355	3488858	672
12	2017-12-12 14:57:05		0	0	0	0	0	0	1.07	1.39	0	46391	0	13	37866	46391	46378	643	0	44	4	37259	3488865	691
13	2017-12-12 15:07:36		0	0	0	0	0	0	1.1	1.41	0	47473	0	15	38811	47473	47458	669	0	45	4	38235	3488881	718
14	2017-12-12 15:18:05		0	0	0	0	0	0	1.12	1.42	0	48560	0	16	39532	48560	48544	688	0	48	4	38934	3488895	740
15	2017-12-12 15:28:38		0	0	0	0	0	0	1.14	1.43	0	49683	0	19	40244	49683	49664	711	0	48	5	39617	3488903	764
16	2017-12-12 15:39:05		0	0	0	0	0	0	1.15	1.43	0	50855	0	20	40943	50855	50835	725	0	48	5	40247	3488917	778
17	2017-12-12 15:49:35		0	0	0	0	0	0	1.17	1.43	0	52083	0	22	41757	52083	52061	745	0	48	5	40982	3488933	798
18	2017-12-12 16:00:05		0	0	0	0	0	0	1.19	1.42	0	53231	0	22	42300	53231	53209	757	0	50	5	41531	3488943	812
19	2017-12-12 16:10:35		0	0	0	0	0	0	1.22	1.43	0	54661	0	25	43224	54661	54636	783	0	51	5	42496	3488974	839
20	2017-12-12 16:21:06		0	0	0	0	0	0	1.24	1.43	0	55743	0	27	44033	55743	55716	799	0	51	5	43362	3488992	855
21	2017-12-12 16:31:36		0	0	0	0	0	0	1.26	1.42	0	56831	0	29	44699	56831	56802	807	0	54	5	43859	3489019	866
22	2017-12-12 16:42:06		0	0	0	0	0	0	1.27	1.42	0	57771	0	29	45295	57771	57742	818	0	54	5	44392	3489056	877
23	2017-12-12 16:52:38		0	0	0	0	0	0	1.29	1.41	0	58680	0	29	45856	58680	58651	830	0	54	5	44930	3489063	889
24	2017-12-12 17:03:04		0	0	0	0	0	0	1.3	1.42	0	59414	0	29	46306	59414	59385	842	0	54	5	45362	3489085	901
25	2017-12-12 17:13:37		0	0	0	0	0	0	1.31	1.41	0	60103	0	29	46598	60103	60074	849	0	54	5	45635	3489118	908
26	2017-12-12 17:24:10		0	0	0	0	0	0	1.32	1.41	0	60783	0	29	47018	60783	60754	857	0	54	5	46081	3489143	916
27	2017-12-12 17:34:35		0	0	0	0	0	0	1.34	1.41	0	61573	0	29	47472	61573	61544	871	0	54	5	46597	3489163	930
28	2017-12-12 17:45:05		0	0	0	0	0	0	1.36	1.42	0	62372	0	29	48093	62372	62343	888	0	56	5	47415	3489186	949
29	2017-12-12 17:55:37		0	0	0	0	0	0	1.37	1.42	0	63593	0	31	48632	63593	63562	901	0	58	5	47754	3489214	964
30	2017-12-12 18:06:05		0	0	0	0	0	0	1.39	1.41	0	64328	0	32	49373	64328	64296	907	0	58	5	48658	3489247	970
31	2017-12-12 18:16:35		0	0	0	0	0	0	1.4	1.41	0	65047	0	33	49625	65047	65014	919	0	58	5	48890	3489265	982
32	2017-12-12 18:27:05		0	0	0	0	0	0	1.42	1.41	0	65800	0	33	50213	65800	65767	931	0	60	5	49440	3489302	996
33	2017-12-12 18:37:35		0	0	0	0	0	0	1.43	1.41	0	66602	0	34	50735	66602	66568	937	0	63	5	49939	3489322	1005
34	2017-12-12 18:48:06		0	0	0	0	0	0	1.44	1.41	0	67454	0	34	51117	67454	67420	950	0	64	5	50309	3489356	1019
35	2017-12-12 18:58:36		0	0	0	0	0	0	1.46	1.4	0	68214	0	34	51664	68214	68180	958	0	64	5	50852	3489380	1027
36	2017-12-12 19:09:05		0	0	0	0	0	0	1.47	1.41	0	68868	0	37	52249	68868	68831	970	0	65	5	51364	3489405	1040
37	2017-12-12 19:19:42		0	0	0	0	0	0	1.48	1.4	0	69590	0	37	52658	69590	69553	975	0	65	5	51759	3489429	1045
38	2017-12-12 19:30:05		0	0	0	0	0	0	1.51	1.41	0	70331	0	38	53588	70331	70293	989	0	67	5	52658	3489446	1061
39	2017-12-12 19:40:37		0	0	0	0	0	0	1.52	1.41	0	71059	0	38	54027	71059	71021	1002	0	68	5	53080	3489475	1075
40	2017-12-12 19:51:07		0	0	0	0	0	0	1.55	1.4	0	72192	0	39	55025	72192	72153	1011	0	68	5	53997	3489500	1084
41	2017-12-12 20:01:36		0	0	0	0	0	0	1.56	1.4	0	72876	0	39	55462	72876	72837	1017	0	68	5	54599	3489537	1090
42	2017-12-12 20:12:06		0	0	0	0	0	0	1.57	1.39	0	73467	0	39	55692	73467	73428	1024	0	70	5	54806	3489557	1099
43	2017-12-12 20:22:35		0	0	0	0	0	0	1.58	1.39	0	74013	0	40	55908	74013	73973	1030	0	70	5	55062	3489583	1105
44	2017-12-12 20:33:05		0	0	0	0	0	0	1.58	1.39	0	74515	0	41	56137	74515	74474	1038	0	70	5	55280	3489605	1113
45	2017-12-12 20:43:36		0	0	0	0	0	0	1.6	1.39	0	75054	0	41	56612	75054	75013	1043	0	71	5	55741	3489644	1119
46	2017-12-12 20:54:05		0	0	0	0	0	0	1.61	1.39	0	75634	0	42	56983	75634	75592	1054	0	72	5	56101	3489669	1131
47	2017-12-12 21:04:40		0	0	0	0	0	0	1.62	1.39	0	76209	0	43	57261	76209	76166	1057	0	73	5	56370	3489694	1135
48	2017-12-12 21:15:06		0	0	0	0	0	0	1.62	1.38	0	76762	0	43	57361	76762	76719	1061	0	73	5	56467	3489722	1139
49	2017-12-12 21:25:36		0	0	0	0	0	0	1.63	1.39	0	77404	0	44	57843	77404	77360	1074	0	73	5	56934	3489757	1152
50	2017-12-12 21:36:06		0	0	0	0	0	0	1.64	1.38	0	78417	0	45	58327	78417	78372	1086	0	73	5	57402	3489800	1164
51	2017-12-12 21:46:35		0	0	0	0	0	0	1.66	1.38	0	79033	0	47	58944	79033	78986	1088	0	75	5	58000	3489827	1168
52	2017-12-12 21:57:04		0	0	0	0	0	0	1.67	1.37	0	79781	0	50	59340	79781	79731	1094	0	76	5	58252	3489862	1175
53	2017-12-12 22:07:35		0	0	0	0	0	0	1.68	1.37	0	80566	0	53	59929	80566	80513	1105	0	78	5	58801	3489885	1188
54	2017-12-12 22:18:05		0	0	0	0	0	0	1.69	1.37	0	81279	0	53	60206	81279	81226	1113	0	79	5	59109	3489921	1197
55	2017-12-12 22:28:35		0	0	0	0	0	0	1.7	1.37	0	81962	0	53	60583	81962	81909	1121	0	79	5	59472	3489964	1205
56	2017-12-12 22:39:04		0	0	0	0	0	0	1.73	1.36	0	82631	0	53	61595	82631	82578	1126	0	79	5	60278	3489998	1210
57	2017-12-12 22:49:35		0	0	0	0	0	0	1.74	1.36	0	83271	0	53	61908	83271	83218	1133	0	79	5	60577	3490032	1217
58	2017-12-12 23:00:06		0	0	0	0	0	0	1.75	1.35	0	83952	0	53	62209	83952	83899	1137	0	81	5	60942	3490055	1223
59	2017-12-12 23:10:34		0	0	0	0	0	0	1.76	1.36	0	84621	0	53	62693	84621	84568	1147	0	81	5	61406	3490110	1233
60	2017-12-12 23:21:06		0	0	0	0	0	0	1.79	1.36	0	85601	0	54	63655	85601	85547	1165	0	83	5	62450	3490134	1253
61	2017-12-12 23:31:35		0	0	0	0	0	0	1.8	1.36	0	86238	0	54	63939	86238	86184	1175	0	85	5	62784	3490158	1265
62	2017-12-12 23:42:05		0	0	0	0	0	0	1.82	1.36	0	86792	0	54	64716	86792	86738	1181	0	85	5	63534	3490196	1271
63	2017-12-12 23:52:36		0	0	0	0	0	0	1.83	1.36	0	87288	0	54	65073	87288	87234	1185	0	85	5	63877	3490213	1275
64	2017-12-13 00:20:06		0	0	0	0	0	0	1.85	1.35	0	88296	0	54	65647	88296	88242	1196	0	85	6	64559	3490273	1287
65	2017-12-13 01:25:05		0	0	0	0	0	0	1.9	1.37	0	90293	0	60	67471	90293	90233	1234	0	85	6	66323	3490330	1325
66	2017-12-13 02:30:06		0	0	0	0	0	0	1.92	1.38	0	91393	0	60	68320	91393	91333	1258	0	86	7	67142	3490352	1351
67	2017-12-13 03:35:07		0	0	0	0	0	0	1.93	1.38	0	91961	0	60	68644	91961	91901	1271	0	88	7	67455	3490351	1366
68	2017-12-13 04:40:05		0	0	0	0	0	0	1.95	1.38	0	92414	0	68	69116	92414	92346	1275	0	89	7	67911	3490350	1371
69	2017-12-13 05:45:06		0	0	0	0	0	0	1.95	1.38	0	92925	0	68	69404	92925	92857	1282	0	90	7	68171	3490357	1379
70	2017-12-13 06:50:07		0	0	0	0	0	0	1.97	1.38	0	94063	0	69	70010	94063	93994	1299	0	90	8	68756	3490392	1397
71	2017-12-13 07:13:05		0	0	0	0	0	0	1.98	1.38	0	94807	0	71	70305	94807	94736	1311	0	93	8	69041	3490407	1412
72	2017-12-13 07:23:36		0	0	0	0	0	0	1.98	1.38	0	95163	0	72	70472	95163	95091	1314	0	94	8	69201	3490415	1416
73	2017-12-13 07:34:04		0	0	0	0	0	0	1.98	1.38	0	95503	0	72	70552	95503	95431	1316	0	94	8	69279	3490432	1418
74	2017-12-13 07:44:35		0	0	0	0	0	0	1.99	1.38	0	95886	0	72	70590	95886	95814	1323	0	94	8	69315	3490450	1425
75	2017-12-13 07:55:05		0	0	0	0	0	0	1.99	1.38	0	96288	0	73	70745	96288	96215	1327	0	94	8	69464	3490467	1429
76	2017-12-13 08:05:38		0	0	0	0	0	0	2	1.38	0	96676	0	74	71082	96676	96602	1331	0	94	8	69765	3490481	1433
77	2017-12-13 08:16:05		0	0	0	0	0	0	2	1.37	0	97045	0	74	71147	97045	96971	1333	0	95	8	69929	3490494	1436
78	2017-12-13 08:26:36		0	0	0	0	0	0	2.01	1.37	0	97432	0	74	71350	97432	97358	1338	0	95	8	70125	3490507	1441
79	2017-12-13 08:37:07		0	0	0	0	0	0	2.02	1.37	0	97996	0	74	71660	97996	97922	1342	0	95	8	70424	3490524	1445
80	2017-12-13 08:47:58		0	0	0	0	0	0	2.03	1.37	0	98401	0	74	72012	98401	98327	1344	0	95	8	70842	3490550	1447
81	2017-12-13 08:58:08		0	0	0	0	0	0	2.03	1.37	0	98778	0	74	72187	98778	98704	1350	0	96	8	71011	3490571	1454
82	2017-12-13 09:08:37		0	0	0	0	0	0	2.04	1.37	0	99090	0	74	72535	99090	99016	1356	0	96	8	71348	3490579	1460
83	2017-12-13 09:19:08		0	0	0	0	0	0	2.05	1.37	0	99390	0	74	72773	99390	99316	1361	0	96	8	71579	3490595	1465
84	2017-12-13 09:29:35		0	0	0	0	0	0	2.05	1.37	0	99705	0	77	73007	99705	99628	1364	0	96	8	71711	3490615	1468
85	2017-12-13 09:40:06		0	0	0	0	0	0	2.06	1.37	0	99983	0	77	73077	99983	99906	1365	0	96	8	71779	3490633	1469
86	2017-12-13 09:50:36		0	0	0	0	0	0	2.06	1.36	0	100264	0	77	73160	100264	100187	1368	0	96	8	71859	3490653	1472
87	2017-12-13 10:01:04		0	0	0	0	0	0	2.06	1.36	0	100537	0	77	73250	100537	100460	1372	0	96	8	72053	3490658	1476
88	2017-12-13 10:11:36		0	0	0	0	0	0	2.07	1.37	0	100768	0	77	73306	100768	100691	1379	0	96	8	72107	3490665	1483
89	2017-12-13 10:22:06		0	0	0	0	0	0	2.07	1.37	0	101125	0	77	73361	101125	101048	1381	0	97	8	72161	3490679	1486
90	2017-12-13 10:32:34		0	0	0	0	0	0	2.07	1.37	0	101331	0	77	73620	101331	101254	1385	0	98	8	72411	3490687	1491
91	2017-12-13 10:43:05		0	0	0	0	0	0	2.08	1.37	0	101550	0	77	73679	101550	101473	1395	0	98	8	72468	3490697	1501
92	2017-12-13 10:53:38		0	0	0	0	0	0	2.08	1.37	0	101814	0	78	73806	101814	101736	1396	0	98	8	72590	3490709	1502
93	2017-12-13 11:04:06		0	0	0	0	0	0	2.08	1.37	0	102029	0	78	73960	102029	101951	1398	0	98	8	72727	3490710	1504
94	2017-12-13 11:14:36		0	0	0	0	0	0	2.08	1.37	0	102208	0	78	74101	102208	102130	1402	0	98	8	72754	3490716	1508
95	2017-12-13 11:25:05		0	0	0	0	0	0	2.09	1.37	0	102407	0	78	74165	102407	102329	1405	0	98	8	72816	3490733	1511
96	2017-12-13 11:35:36		0	0	0	0	0	0	2.09	1.37	0	102567	0	78	74165	102567	102489	1408	0	98	8	72816	3490749	1514
97	2017-12-13 11:46:07		0	0	0	0	0	0	2.09	1.37	0	102748	0	78	74451	102748	102670	1410	0	98	8	73091	3490760	1516
98	2017-12-13 11:56:35		0	0	0	0	0	0	2.09	1.37	0	102941	0	78	74451	102941	102863	1413	0	99	8	73091	3490774	1520
99	2017-12-13 12:07:10		0	0	0	0	0	0	2.1	1.38	0	103243	0	78	74847	103243	103165	1421	0	99	8	73472	3490785	1528
100	2017-12-13 12:11:35		0	0	0	0	0	0	2.1	1.38	0	103243	0	78	74847	103243	103165	1421	0	99	8	73472	3490788	1528
101	2017-12-13 12:22:07		0	0	0	0	0	0	2.11	1.38	0	103586	0	78	75086	103586	103508	1427	0	99	8	73703	3490794	1534
102	2017-12-13 12:32:37		0	0	0	0	0	0	2.11	1.38	0	103780	0	78	75086	103780	103702	1432	0	99	8	73703	3490802	1539
103	2017-12-13 12:43:06		0	0	0	0	0	0	2.12	1.38	0	103975	0	78	75283	103975	103897	1434	0	100	8	74006	3490820	1542
104	2017-12-13 12:53:40		0	0	0	0	0	0	2.13	1.38	0	104190	0	78	75529	104190	104112	1437	0	101	8	74244	3490837	1546
105	2017-12-13 13:04:05		0	0	0	0	0	0	2.13	1.38	0	104361	0	78	75537	104361	104283	1437	0	101	8	74251	3490842	1546
106	2017-12-13 13:14:35		0	0	0	0	0	0	2.13	1.38	0	104500	0	78	75591	104500	104422	1438	0	101	8	74304	3490855	1547
107	2017-12-13 13:25:05		0	0	0	0	0	0	2.13	1.38	0	104640	0	78	75619	104640	104562	1440	0	102	8	74330	3490863	1550
108	2017-12-13 13:35:42		0	0	0	0	0	0	2.13	1.37	0	104743	0	78	75619	104743	104665	1440	0	102	8	74330	3490875	1550
109	2017-12-13 13:46:06		0	0	0	0	0	0	2.13	1.37	0	104863	0	78	75711	104863	104785	1441	0	102	8	74420	3490890	1551
110	2017-12-13 13:56:40		0	0	0	0	0	0	2.13	1.37	0	104981	0	78	75711	104981	104903	1443	0	102	8	74420	3490900	1553
111	2017-12-13 14:07:09		0	0	0	0	0	0	2.13	1.38	0	105141	0	78	75778	105141	105063	1446	0	102	8	74484	3490910	1556
112	2017-12-13 14:17:38		0	0	0	0	0	0	2.14	1.38	0	105222	0	78	75971	105222	105144	1447	0	102	8	74671	3490921	1557
113	2017-12-13 14:28:08		0	0	0	0	0	0	2.14	1.37	0	105306	0	78	76001	105306	105228	1447	0	102	8	74700	3490929	1557
114	2017-12-13 14:38:38		0	0	0	0	0	0	2.14	1.38	0	105393	0	78	76181	105393	105315	1451	0	102	8	74873	3490936	1561
115	2017-12-13 14:49:10		0	0	0	0	0	0	2.15	1.38	0	105478	0	78	76192	105478	105400	1451	0	102	8	74884	3490949	1561
116	2017-12-13 14:59:40		0	0	0	0	0	0	2.15	1.38	0	105575	0	78	76207	105575	105497	1455	0	102	8	74928	3490954	1565
117	2017-12-13 15:10:10		0	0	0	0	0	0	2.15	1.38	0	105643	0	78	76207	105643	105565	1456	0	102	8	74928	3490963	1566
118	2017-12-13 15:20:39		0	0	0	0	0	0	2.15	1.38	0	105709	0	78	76207	105709	105631	1457	0	102	8	74928	3490963	1567
119	2017-12-13 15:31:08		0	0	0	0	0	0	2.15	1.38	0	105786	0	78	76355	105786	105708	1457	0	102	8	75071	3490969	1567
120	2017-12-13 15:41:38		0	0	0	0	0	0	2.15	1.38	0	105862	0	78	76355	105862	105784	1458	0	103	8	75071	3490973	1569
121	2017-12-13 15:52:08		0	0	0	0	0	0	2.16	1.38	0	105997	0	78	76628	105997	105919	1460	0	103	8	75246	3490982	1571
122	2017-12-13 16:02:39		0	0	0	0	0	0	2.16	1.38	0	106060	0	78	76673	106060	105982	1461	0	103	8	75290	3490987	1572
123	2017-12-13 16:13:12		0	0	0	0	0	0	2.16	1.38	0	106140	0	78	76673	106140	106062	1463	0	103	8	75290	3490992	1574
124	2017-12-13 16:23:41		0	0	0	0	0	0	2.16	1.38	0	106203	0	79	76673	106203	106124	1464	0	103	8	75290	3491002	1575
125	2017-12-13 16:34:16		0	0	0	0	0	0	2.16	1.38	0	106274	0	79	76734	106274	106195	1465	0	103	8	75349	3491013	1576
126	2017-12-13 16:44:40		0	0	0	0	0	0	2.16	1.38	0	106344	0	79	76741	106344	106265	1466	0	103	8	75356	3491018	1577
127	2017-12-13 16:55:09		0	0	0	0	0	0	2.16	1.38	0	106435	0	79	76787	106435	106356	1468	0	103	8	75400	3491026	1579
128	2017-12-13 17:05:40		0	0	0	0	0	0	2.16	1.38	0	106497	0	79	76833	106497	106418	1469	0	103	8	75444	3491029	1580
129	2017-12-13 17:16:12		0	0	0	0	0	0	2.16	1.38	0	106591	0	79	76833	106591	106512	1470	0	103	8	75444	3491033	1581
130	2017-12-13 17:26:41		0	0	0	0	0	0	2.16	1.38	0	106665	0	79	76886	106665	106586	1471	0	103	8	75496	3491043	1582
131	2017-12-13 17:37:11		0	0	0	0	0	0	2.16	1.38	0	106736	0	79	76951	106736	106657	1473	0	103	8	75496	3491050	1584
132	2017-12-13 17:47:41		0	0	0	0	0	0	2.16	1.38	0	106854	0	79	76951	106854	106775	1474	0	103	8	75558	3491058	1585
133	2017-12-13 17:58:12		0	0	0	0	0	0	2.16	1.38	0	106931	0	79	76959	106931	106852	1474	0	103	8	75566	3491063	1585
134	2017-12-13 18:08:54		0	0	0	0	0	0	2.17	1.38	0	106989	0	80	77020	106989	106909	1474	0	103	8	75625	3491072	1585
135	2017-12-13 18:19:18		0	0	0	0	0	0	2.17	1.38	0	107044	0	80	77020	107044	106964	1476	0	103	8	75625	3491078	1587
136	2017-12-13 18:29:43		0	0	0	0	0	0	2.17	1.38	0	107105	0	82	77112	107105	107023	1477	0	103	8	75714	3491095	1588
137	2017-12-13 18:40:18		0	0	0	0	0	0	2.17	1.38	0	107167	0	82	77205	107167	107085	1478	0	103	8	75803	3491106	1589
138	2017-12-13 18:50:44		0	0	0	0	0	0	2.17	1.38	0	107233	0	82	77235	107233	107151	1478	0	103	8	75832	3491113	1589
139	2017-12-13 19:01:14		0	0	0	0	0	0	2.17	1.38	0	107306	0	84	77235	107306	107222	1479	0	103	8	75832	3491131	1590
140	2017-12-13 19:11:47		0	0	0	0	0	0	2.17	1.38	0	107374	0	86	77235	107374	107288	1480	0	103	8	75832	3491135	1591
141	2017-12-13 19:22:15		0	0	0	0	0	0	2.17	1.38	0	107456	0	87	77316	107456	107369	1482	0	103	8	75910	3491142	1593
142	2017-12-13 19:32:47		0	0	0	0	0	0	2.18	1.38	0	107525	0	87	77378	107525	107438	1482	0	103	8	75970	3491150	1593
143	2017-12-13 19:43:15		0	0	0	0	0	0	2.18	1.38	0	107592	0	88	77440	107592	107504	1484	0	103	8	76030	3491165	1595
144	2017-12-13 19:53:48		0	0	0	0	0	0	2.18	1.38	0	107685	0	88	77440	107685	107597	1485	0	103	8	76030	3491180	1596
145	2017-12-13 20:04:27		0	0	0	0	0	0	2.18	1.38	0	107733	0	88	77440	107733	107645	1485	0	103	8	76030	3491191	1596
146	2017-12-13 20:14:47		0	0	0	0	0	0	2.18	1.38	0	107807	0	89	77440	107807	107718	1485	0	103	8	76030	3491206	1596
147	2017-12-13 20:25:23		0	0	0	0	0	0	2.18	1.38	0	107874	0	89	77502	107874	107785	1487	0	103	8	76089	3491219	1598
148	2017-12-13 20:35:49		0	0	0	0	0	0	2.18	1.38	0	107933	0	89	77502	107933	107844	1487	0	103	8	76089	3491223	1598
149	2017-12-13 20:46:22		0	0	0	0	0	0	2.18	1.38	0	107984	0	89	77502	107984	107895	1487	0	103	8	76089	3491237	1598
150	2017-12-13 20:56:51		0	0	0	0	0	0	2.18	1.38	0	108039	0	89	77502	108039	107950	1487	0	103	8	76089	3491243	1598
151	2017-12-13 21:07:22		0	0	0	0	0	0	2.18	1.38	0	108096	0	89	77533	108096	108007	1487	0	103	8	76119	3491259	1598
152	2017-12-13 21:17:52		0	0	0	0	0	0	2.18	1.38	0	108169	0	89	77564	108169	108080	1488	0	103	8	76149	3491269	1599
153	2017-12-13 21:29:29		0	0	0	0	0	0	2.18	1.37	0	108231	0	89	77564	108231	108142	1488	0	103	8	76149	3491279	1599
154	2017-12-13 21:38:59		0	0	0	0	0	0	2.18	1.37	0	108292	0	89	77578	108292	108203	1488	0	103	8	76163	3491281	1599
155	2017-12-13 21:49:32		0	0	0	0	0	0	2.18	1.37	0	108339	0	89	77594	108339	108250	1488	0	103	8	76178	3491293	1599
156	2017-12-13 22:00:04		0	0	0	0	0	0	2.18	1.38	0	108389	0	89	77598	108389	108300	1491	0	103	8	76182	3491294	1602
157	2017-12-13 22:10:31		0	0	0	0	0	0	2.18	1.38	0	108448	0	89	77621	108448	108359	1494	0	103	8	76204	3491300	1605
158	2017-12-13 22:22:31		0	0	0	0	0	0	2.18	1.38	0	108493	0	89	77621	108493	108404	1494	0	103	8	76204	3491310	1605
159	2017-12-13 22:32:42		0	0	0	0	0	0	2.18	1.38	0	108547	0	89	77621	108547	108458	1495	0	104	8	76204	3491322	1607
160	2017-12-13 22:42:37		0	0	0	0	0	0	2.18	1.38	0	108604	0	89	77675	108604	108496	1496	0	104	8	76256	3491332	1608
161	2017-12-13 22:53:05		0	0	0	0	0	0	2.18	1.38	0	108646	0	89	77675	108646	108557	1497	0	104	8	76256	3491331	1609
162	2017-12-13 23:05:10		0	0	0	0	0	0	2.18	1.38	0	108695	0	89	77675	108695	108606	1497	0	104	8	76256	3491332	1609
163	2017-12-13 23:17:23		0	0	0	0	0	0	2.19	1.38	0	108734	0	89	77737	108734	108645	1498	0	104	8	76316	3491338	1610
164	2017-12-13 23:27:51		0	0	0	0	0	0	2.19	1.38	0	108806	0	89	77800	108806	108717	1499	0	104	8	76376	3491334	1611
165	2017-12-13 23:39:15		0	0	0	0	0	0	2.19	1.38	0	108849	0	89	77800	108849	108760	1500	0	104	8	76376	3491327	1612
166	2017-12-13 23:49:45		0	0	0	0	0	0	2.19	1.38	0	108888	0	89	77800	108888	108799	1500	0	104	8	76376	3491326	1612
167	2017-12-14 00:03:26		0	0	0	0	0	0	2.19	1.38	0	108947	0	89	77831	108947	108858	1501	0	104	8	76406	3491326	1613
168	2017-12-14 01:09:16		0	0	0	0	0	0	2.19	1.38	0	109084	0	89	77831	109084	108995	1505	0	104	8	76406	3491330	1617
169	2017-12-14 02:18:10		0	0	0	0	0	0	2.19	1.38	0	109145	0	89	77831	109145	109054	1506	0	104	8	76406	3491327	1618
170	2017-12-14 03:22:34		0	0	0	0	0	0	2.19	1.38	0	109165	0	89	77831	109165	109076	1507	0	104	8	76406	3491310	1619
171	2017-12-14 04:33:30		0	0	0	0	0	0	2.19	1.38	0	109190	0	89	77831	109190	109101	1508	0	104	8	76406	3491308	1620
172	2017-12-14 05:36:21		0	0	0	0	0	0	2.19	1.38	0	109208	0	89	77831	109208	109119	1508	0	104	8	76406	3491303	1620
173	2017-12-14 06:45:05		0	0	0	0	0	0	2.19	1.38	0	109246	0	89	77862	109246	109157	1510	0	104	8	76436	3491304	1622
174	2017-12-14 07:19:47		0	0	0	0	0	0	2.19	1.38	0	109283	0	89	77862	109283	109194	1510	0	104	8	76436	3491308	1622
175	2017-12-14 07:29:51		0	0	0	0	0	0	2.19	1.38	0	109295	0	89	77886	109295	109206	1510	0	104	8	76459	3491307	1622
176	2017-12-14 07:40:18		0	0	0	0	0	0	2.19	1.38	0	109311	0	89	77886	109311	109222	1511	0	104	8	76459	3491305	1623
177	2017-12-14 07:51:40		0	0	0	0	0	0	2.19	1.38	0	109318	0	89	77886	109318	109229	1512	0	104	8	76459	3491306	1624
178	2017-12-14 08:06:51		0	0	0	0	0	0	2.19	1.38	0	109334	0	89	77886	109334	109245	1512	0	104	8	76459	3491313	1624
179	2017-12-14 08:24:37		0	0	0	0	0	0	2.19	1.38	0	109362	0	89	77886	109362	109273	1512	0	104	8	76459	3491320	1624
180	2017-12-14 08:34:08		0	0	0	0	0	0	2.19	1.38	0	109377	0	89	77886	109377	109288	1512	0	104	8	76459	3491322	1624
181	2017-12-14 08:47:32		0	0	0	0	0	0	2.19	1.38	0	109391	0	89	77886	109391	109302	1512	0	104	8	76459	3491321	1624
182	2017-12-14 09:02:08		0	0	0	0	0	0	2.19	1.38	0	109412	0	89	77886	109412	109323	1512	0	104	8	76459	3491322	1624
183	2017-12-14 09:15:04		0	0	0	0	0	0	2.19	1.38	0	109431	0	89	77886	109431	109342	1513	0	104	8	76459	3491325	1625
184	2017-12-14 09:27:05		0	0	0	0	0	0	2.19	1.38	0	109445	0	89	77886	109445	109356	1514	0	104	8	76459	3491331	1626
185	2017-12-14 09:57:49		0	0	0	0	0	0	2.19	1.38	0	109479	0	89	77886	109479	109390	1515	0	104	8	76459	3491330	1627
186	2017-12-14 10:08:16		0	0	0	0	0	0	2.19	1.38	0	109497	0	89	77886	109497	109408	1515	0	104	8	76459	3491333	1627
187	2017-12-14 10:18:46		0	0	0	0	0	0	2.19	1.38	0	109521	0	89	77886	109521	109432	1516	0	104	8	76459	3491335	1628
188	2017-12-14 10:29:23		0	0	0	0	0	0	2.19	1.38	0	109549	0	89	77980	109549	109460	1516	0	104	8	76459	3491340	1628
189	2017-12-14 10:39:48		0	0	0	0	0	0	2.19	1.38	0	109557	0	89	77980	109557	109468	1516	0	104	8	76459	3491348	1628
190	2017-12-14 10:50:18		0	0	0	0	0	0	2.19	1.38	0	109564	0	89	77980	109564	109475	1516	0	104	8	76459	3491353	1628
191	2017-12-14 11:00:47		0	0	0	0	0	0	2.19	1.38	0	109575	0	89	77980	109575	109486	1516	0	104	8	76459	3491352	1628
192	2017-12-14 11:11:16		0	0	0	0	0	0	2.19	1.38	0	109582	0	89	77980	109582	109493	1516	0	104	8	76459	3491353	1628
193	2017-12-14 11:21:47		0	0	0	0	0	0	2.19	1.38	0	109595	0	90	77980	109595	109505	1517	0	104	8	76459	3491352	1629
194	2017-12-14 11:32:16		0	0	0	0	0	0	2.19	1.38	0	109604	0	90	77980	109604	109514	1517	0	104	8	76459	3491359	1629
195	2017-12-14 11:42:47		0	0	0	0	0	0	2.19	1.38	0	109613	0	90	77980	109613	109523	1517	0	104	8	76459	3491368	1629
196	2017-12-14 11:53:18		0	0	0	0	0	0	2.19	1.38	0	109628	0	90	77980	109628	109538	1517	0	104	8	76459	3491363	1629
197	2017-12-14 12:03:48		0	0	0	0	0	0	2.19	1.38	0	109647	0	90	77980	109647	109557	1517	0	104	8	76459	3491357	1629
198	2017-12-14 12:14:17		0	0	0	0	0	0	2.19	1.38	0	109656	0	90	77980	109656	109566	1517	0	104	8	76459	3491355	1629
199	2017-12-14 12:24:53		0	0	0	0	0	0	2.19	1.38	0	109670	0	90	77980	109670	109580	1517	0	104	8	76459	3491359	1629
200	2017-12-14 12:35:20		0	0	0	0	0	0	2.19	1.38	0	109682	0	90	78007	109682	109592	1517	0	104	8	76486	3491366	1629
201	2017-12-14 12:45:49		0	0	0	0	0	0	2.19	1.38	0	109692	0	90	78007	109692	109602	1517	0	104	8	76486	3491373	1629
202	2017-12-14 12:56:19		0	0	0	0	0	0	2.19	1.38	0	109702	0	90	78007	109702	109612	1517	0	104	8	76486	3491379	1629
203	2017-12-14 13:06:49		0	0	0	0	0	0	2.19	1.38	0	109716	0	90	78007	109716	109626	1517	0	104	8	76486	3491385	1629
204	2017-12-14 13:17:18		0	0	0	0	0	0	2.19	1.38	0	109727	0	90	78007	109727	109637	1518	0	104	8	76486	3491393	1630
205	2017-12-14 13:27:49		0	0	0	0	0	0	2.19	1.38	0	109739	0	90	78023	109739	109649	1519	0	104	8	76501	3491397	1631
206	2017-12-14 13:38:18		0	0	0	0	0	0	2.19	1.38	0	109752	0	90	78023	109752	109662	1519	0	104	8	76501	3491403	1631
207	2017-12-14 13:48:49		0	0	0	0	0	0	2.19	1.38	0	109764	0	90	78023	109764	109674	1519	0	104	8	76501	3491405	1631
208	2017-12-14 13:59:23		0	0	0	0	0	0	2.19	1.38	0	109774	0	90	78023	109774	109684	1520	0	104	8	76501	3491411	1632
209	2017-12-14 14:09:50		0	0	0	0	0	0	2.19	1.38	0	109783	0	90	78023	109783	109693	1520	0	104	8	76501	3491413	1632
210	2017-12-14 14:20:19		0	0	0	0	0	0	2.19	1.38	0	109794	0	90	78039	109794	109704	1520	0	104	8	76516	3491417	1632
211	2017-12-14 14:30:48		0	0	0	0	0	0	2.19	1.38	0	109801	0	90	78039	109801	109711	1520	0	104	8	76516	3491425	1632
212	2017-12-14 14:41:19		0	0	0	0	0	0	2.19	1.38	0	109810	0	90	78039	109810	109720	1520	0	104	8	76516	3491426	1632
213	2017-12-14 14:51:48		0	0	0	0	0	0	2.19	1.38	0	109822	0	90	78039	109822	109732	1520	0	104	8	76516	3491438	1632
214	2017-12-14 15:02:19		0	0	0	0	0	0	2.19	1.38	0	109835	0	90	78039	109835	109745	1520	0	104	8	76516	3491442	1632
215	2017-12-14 15:12:49		0	0	0	0	0	0	2.19	1.38	0	109845	0	90	78039	109845	109755	1520	0	104	8	76516	3491453	1632
216	2017-12-14 15:23:20		0	0	0	0	0	0	2.19	1.39	0	109866	0	90	78039	109866	109776	1522	0	104	8	76516	3491454	1634
217	2017-12-14 15:33:51		0	0	0	0	0	0	2.19	1.39	0	109885	0	90	78039	109885	109795	1522	0	104	8	76516	3491460	1634
218	2017-12-14 15:44:35		0	0	0	0	0	0	2.19	1.38	0	109893	0	90	78039	109893	109803	1522	0	104	8	76516	3491471	1634
219	2017-12-14 15:54:52		0	0	0	0	0	0	2.19	1.38	0	109904	0	90	78039	109904	109814	1522	0	104	8	76516	3491475	1634
220	2017-12-14 16:05:20		0	0	0	0	0	0	2.19	1.38	0	109917	0	90	78039	109917	109827	1522	0	104	8	76516	3491483	1634
221	2017-12-14 16:15:54		0	0	0	0	0	0	2.19	1.39	0	109924	0	90	78039	109924	109834	1523	0	104	8	76516	3491482	1635
222	2017-12-14 16:26:20		0	0	0	0	0	0	2.19	1.39	0	109934	0	90	78039	109934	109844	1523	0	104	8	76516	3491485	1635
223	2017-12-14 16:36:50		0	0	0	0	0	0	2.19	1.39	0	109945	0	90	78102	109945	109855	1523	0	104	8	76576	3491489	1635
224	2017-12-14 16:47:34		0	0	0	0	0	0	2.19	1.39	0	109953	0	90	78102	109953	109863	1523	0	104	8	76576	3491495	1635
225	2017-12-14 16:57:57		0	0	0	0	0	0	2.19	1.39	0	109962	0	90	78102	109962	109872	1523	0	104	8	76576	3491494	1635
226	2017-12-14 17:08:23		0	0	0	0	0	0	2.19	1.38	0	109970	0	90	78102	109970	109880	1523	0	104	8	76576	3491507	1635
227	2017-12-14 17:18:56		0	0	0	0	0	0	2.19	1.39	0	109986	0	90	78149	109986	109896	1524	0	104	8	76622	3491511	1636
228	2017-12-14 17:29:22		0	0	0	0	0	0	2.19	1.39	0	110000	0	90	78149	110000	109910	1524	0	104	8	76622	3491518	1636
229	2017-12-14 17:39:54		0	0	0	0	0	0	2.19	1.39	0	110015	0	90	78149	110015	109925	1524	0	104	8	76622	3491525	1636
230	2017-12-14 17:50:28		0	0	0	0	0	0	2.19	1.39	0	110028	0	90	78149	110028	109938	1524	0	104	8	76622	3491539	1636
231	2017-12-14 18:00:56		0	0	0	0	0	0	2.19	1.38	0	110040	0	90	78149	110040	109950	1524	0	104	8	76622	3491547	1636
232	2017-12-14 18:11:31		0	0	0	0	0	0	2.19	1.38	0	110048	0	90	78149	110048	109958	1524	0	104	8	76622	3491552	1636
233	2017-12-14 18:22:16		0	0	0	0	0	0	2.19	1.38	0	110070	0	90	78149	110070	109980	1524	0	104	8	76622	3491552	1636
234	2017-12-14 18:32:26		0	0	0	0	0	0	2.19	1.38	0	110081	0	90	78149	110081	109991	1524	0	104	8	76622	3491558	1636
235	2017-12-14 18:42:54		0	0	0	0	0	0	2.19	1.38	0	110100	0	90	78149	110100	110010	1524	0	104	8	76622	3491563	1636
236	2017-12-14 18:53:26		0	0	0	0	0	0	2.19	1.38	0	110112	0	90	78149	110112	110022	1524	0	104	8	76622	3491560	1636
237	2017-12-14 19:03:54		0	0	0	0	0	0	2.2	1.38	0	110124	0	90	78212	110124	110034	1524	0	104	8	76683	3491571	1636
238	2017-12-14 19:14:27		0	0	0	0	0	0	2.2	1.38	0	110142	0	90	78212	110142	110052	1524	0	104	8	76683	3491578	1636
239	2017-12-14 19:24:55		0	0	0	0	0	0	2.2	1.39	0	110160	0	90	78212	110160	110070	1526	0	104	8	76683	3491598	1638
240	2017-12-14 19:35:34		0	0	0	0	0	0	2.2	1.39	0	110172	0	90	78212	110172	110082	1526	0	104	8	76683	3491603	1638
241	2017-12-14 19:45:57		0	0	0	0	0	0	2.2	1.38	0	110181	0	90	78212	110181	110091	1526	0	104	8	76683	3491613	1638
242	2017-12-14 19:56:32		0	0	0	0	0	0	2.2	1.38	0	110190	0	90	78212	110190	110100	1526	0	104	8	76683	3491621	1638
243	2017-12-14 20:06:57		0	0	0	0	0	0	2.2	1.38	0	110200	0	90	78212	110200	110110	1526	0	104	8	76683	3491631	1638
244	2017-12-14 20:17:28		0	0	0	0	0	0	2.2	1.38	0	110211	0	90	78212	110211	110121	1526	0	104	8	76683	3491636	1638
245	2017-12-14 20:28:08		0	0	0	0	0	0	2.2	1.39	0	110225	0	90	78212	110225	110135	1527	0	104	8	76683	3491635	1639
246	2017-12-14 20:38:35		0	0	0	0	0	0	2.2	1.39	0	110240	0	90	78212	110240	110150	1527	0	104	8	76683	3491652	1639
247	2017-12-14 20:50:39		0	0	0	0	0	0	2.2	1.38	0	110267	0	90	78212	110267	110177	1527	0	104	8	76683	3491656	1639
248	2017-12-14 20:59:42		0	0	0	0	0	0	2.2	1.38	0	110285	0	90	78212	110285	110195	1527	0	104	8	76683	3491662	1639
249	2017-12-14 21:10:09		0	0	0	0	0	0	2.2	1.38	0	110296	0	90	78212	110296	110206	1527	0	104	8	76683	3491666	1639
250	2017-12-14 21:20:46		0	0	0	0	0	0	2.2	1.38	0	110304	0	90	78212	110304	110214	1527	0	104	8	76683	3491676	1639
251	2017-12-14 21:31:12		0	0	0	0	0	0	2.2	1.38	0	110325	0	90	78212	110325	110235	1527	0	104	8	76683	3491683	1639
252	2017-12-14 21:42:01		0	0	0	0	0	0	2.2	1.38	0	110338	0	90	78212	110338	110248	1528	0	104	8	76683	3491685	1640
253	2017-12-14 21:53:18		0	0	0	0	0	0	2.2	1.38	0	110347	0	90	78212	110347	110257	1528	0	104	8	76683	3491688	1640
254	2017-12-14 22:03:40		0	0	0	0	0	0	2.2	1.38	0	110358	0	90	78212	110358	110268	1528	0	104	8	76683	3491691	1640
255	2017-12-14 22:14:13		0	0	0	0	0	0	2.2	1.38	0	110369	0	90	78212	110369	110279	1528	0	104	8	76683	3491699	1640
256	2017-12-14 22:27:24		0	0	0	0	0	0	2.2	1.38	0	110402	0	90	78212	110402	110312	1528	0	104	8	76683	3491710	1640
257	2017-12-14 22:37:54		0	0	0	0	0	0	2.2	1.38	0	110411	0	90	78212	110411	110321	1528	0	104	8	76683	3491717	1640
258	2017-12-14 22:48:43		0	0	0	0	0	0	2.2	1.38	0	110420	0	90	78212	110420	110330	1528	0	104	8	76683	3491723	1640
259	2017-12-14 22:59:11		0	0	0	0	0	0	2.2	1.38	0	110430	0	90	78212	110430	110340	1528	0	104	8	76683	3491731	1640
260	2017-12-14 23:10:03		0	0	0	0	0	0	2.2	1.38	0	110448	0	91	78212	110448	110357	1528	0	104	8	76683	3491737	1640
261	2017-12-14 23:22:50		0	0	0	0	0	0	2.2	1.38	0	110466	0	91	78212	110466	110375	1528	0	104	8	76683	3491746	1640
262	2017-12-14 23:36:29		0	0	0	0	0	0	2.2	1.38	0	110488	0	91	78212	110488	110397	1528	0	104	8	76683	3491745	1640
263	2017-12-14 23:46:44		0	0	0	0	0	0	2.2	1.38	0	110505	0	91	78212	110505	110414	1529	0	104	8	76683	3491754	1641
264	2017-12-14 23:57:11		0	0	0	0	0	0	2.2	1.38	0	110519	0	91	78212	110519	110428	1529	0	104	8	76683	3491750	1641
265	2017-12-15 00:37:49		0	0	0	0	0	0	2.2	1.38	0	110555	0	91	78365	110555	110464	1529	0	104	8	76951	3491764	1641
266	2017-12-15 01:42:36		0	0	0	0	0	0	2.2	1.38	0	110591	0	91	78365	110591	110500	1529	0	104	8	76951	3491753	1641
267	2017-12-15 02:55:05		0	0	0	0	0	0	2.2	1.38	0	110605	0	91	78365	110605	110514	1530	0	104	8	76951	3491762	1642
268	2017-12-15 03:57:32		0	0	0	0	0	0	2.2	1.38	0	110620	0	91	78365	110620	110529	1530	0	104	8	76951	3491761	1642
269	2017-12-15 05:04:11		0	0	0	0	0	0	2.2	1.38	0	110629	0	91	78365	110629	110538	1530	0	104	8	76951	3491765	1642
270	2017-12-15 06:10:19		0	0	0	0	0	0	2.2	1.38	0	110642	0	91	78365	110642	110551	1531	0	104	8	76951	3491771	1643
271	2017-12-15 07:18:45		0	0	0	0	0	0	2.2	1.38	0	110664	0	91	78365	110664	110573	1531	0	104	8	76951	3491783	1643
272	2017-12-15 07:29:35		0	0	0	0	0	0	2.2	1.38	0	110670	0	91	78365	110670	110579	1531	0	104	8	76951	3491783	1643
273	2017-12-15 07:43:13		0	0	0	0	0	0	2.2	1.38	0	110680	0	91	78365	110680	110589	1531	0	104	8	76951	3491785	1643
274	2017-12-15 07:57:52		0	0	0	0	0	0	2.2	1.38	0	110692	0	91	78365	110692	110601	1531	0	104	8	76951	3491783	1643
275	2017-12-15 08:07:16		0	0	0	0	0	0	2.2	1.38	0	110703	0	91	78396	110703	110612	1532	0	104	8	76982	3491783	1644
276	2017-12-15 08:24:41		0	0	0	0	0	0	2.2	1.38	0	110720	0	91	78396	110720	110629	1532	0	104	8	76982	3491792	1644
277	2017-12-15 08:38:00		0	0	0	0	0	0	2.2	1.38	0	110733	0	91	78396	110733	110642	1533	0	104	8	76982	3491794	1645
278	2017-12-15 08:46:45		0	0	0	0	0	0	2.2	1.38	0	110740	0	91	78396	110740	110649	1533	0	104	8	76982	3491792	1645
279	2017-12-15 08:58:18		0	0	0	0	0	0	2.2	1.38	0	110745	0	91	78396	110745	110654	1533	0	104	8	76982	3491791	1645
280	2017-12-15 09:13:32		0	0	0	0	0	0	2.2	1.38	0	110757	0	91	78396	110757	110666	1533	0	104	8	76982	3491792	1645
281	2017-12-15 09:21:26		0	0	0	0	0	0	2.2	1.38	0	110764	0	91	78396	110764	110673	1533	0	104	8	76982	3491794	1645
282	2017-12-15 09:38:02		0	0	0	0	0	0	2.2	1.38	0	110770	0	91	78396	110770	110679	1534	0	104	8	76982	3491797	1646
283	2017-12-15 10:06:27		0	0	0	0	0	0	2.2	1.38	0	110784	0	91	78396	110784	110693	1534	0	104	8	76982	3491799	1646
284	2017-12-15 10:18:21		0	0	0	0	0	0	2.2	1.38	0	110793	0	91	78396	110793	110702	1534	0	104	8	76982	3491800	1646
285	2017-12-15 10:35:23		0	0	0	0	0	0	2.2	1.39	0	110801	0	91	78396	110801	110710	1535	0	104	8	76982	3491795	1647
286	2017-12-15 10:48:54		0	0	0	0	0	0	2.2	1.39	0	110809	0	91	78396	110809	110718	1535	0	104	8	76982	3491797	1647
287	2017-12-15 11:00:08		0	0	0	0	0	0	2.2	1.39	0	110812	0	91	78396	110812	110721	1535	0	104	8	76982	3491797	1647
288	2017-12-15 11:21:44		0	0	0	0	0	0	2.2	1.39	0	110837	0	91	78396	110837	110746	1536	0	104	8	76982	3491812	1648
289	2017-12-15 11:32:08		0	0	0	0	0	0	2.2	1.39	0	110845	0	91	78396	110845	110754	1536	0	104	8	76982	3491815	1648
290	2017-12-15 11:42:39		0	0	0	0	0	0	2.2	1.39	0	110851	0	91	78396	110851	110760	1536	0	104	8	76982	3491816	1648
291	2017-12-15 11:53:08		0	0	0	0	0	0	2.2	1.39	0	110857	0	91	78396	110857	110766	1536	0	104	8	76982	3491825	1648
292	2017-12-15 12:03:41		0	0	0	0	0	0	2.2	1.39	0	110863	0	91	78396	110863	110772	1536	0	104	8	76982	3491840	1648
293	2017-12-15 12:14:11		0	0	0	0	0	0	2.2	1.39	0	110870	0	91	78396	110870	110779	1536	0	104	8	76982	3491838	1648
294	2017-12-15 12:24:38		0	0	0	0	0	0	2.2	1.39	0	110876	0	91	78396	110876	110785	1536	0	104	8	76982	3491838	1648
295	2017-12-15 12:35:08		0	0	0	0	0	0	2.2	1.39	0	110880	0	91	78404	110880	110792	1536	0	104	8	76982	3491845	1648
296	2017-12-15 12:45:39		0	0	0	0	0	0	2.2	1.39	0	110886	0	91	78404	110886	110795	1536	0	104	8	76990	3491847	1648
