1	2016-05-29 13:59:57	0	0	0	0	0	0	0.6	0.41	0	12555	0	12	11031	12555	12543	52	2	0	0	11021	1835256	0
2	2016-05-29 14:09:57	0	0	0	0	0	0	1.09	0.53	0	23569	0	57	20018	23569	23512	125	6	0	0	19970	1835258	0
3	2016-05-29 14:19:58	0	0	0	0	0	0	1.68	0.68	0.01	39669	0	232	30968	39669	39437	269	9	0	0	30785	1835259	0
4	2016-05-29 14:29:57	0	0	0	0	0	0	1.9	0.7	0.01	46068	0	320	35073	46068	45748	322	9	1	0	34833	1835265	0
5	2016-05-29 14:39:57	0	0	0	0	0	0	2.32	0.76	0.01	59082	0	510	43124	59082	58572	448	12	2	0	42648	1835268	0
6	2016-05-29 14:49:59	0	0	0	0	0	0	2.53	0.78	0.01	64641	0	616	46901	64641	64025	507	12	2	0	46409	1835280	0
7	2016-05-29 14:59:58	0	0	0	0	0	0	2.93	0.79	0.01	74831	0	842	54539	74831	73989	593	12	3	0	53771	1835283	0
8	2016-05-29 15:09:57	0	0	0	0	0	0	3.12	0.81	0.01	80001	0	941	58132	80001	79060	645	12	4	0	57177	1835290	0
9	2016-05-29 15:19:57	0	0	0	0	0	0	3.43	0.82	0.01	89368	0	1190	64024	89368	88178	737	13	5	0	62908	1835296	0
10	2016-05-29 15:29:59	0	0	0	0	0	0	3.57	0.83	0.01	93662	0	1293	66683	93662	92369	782	14	5	0	65457	1835308	0
11	2016-05-29 15:39:59	0	0	0	0	0	0	3.81	0.84	0.01	101224	0	1483	71560	101224	99741	855	14	7	1	69888	1835311	877
12	2016-05-29 15:49:58	0	0	0	0	0	0	3.93	0.84	0.02	104786	0	1570	73828	104786	103216	881	14	7	1	72191	1835318	903
13	2016-05-29 15:59:57	0	0	0	0	0	0	4.14	0.87	0.02	111310	0	1730	77729	111310	109580	967	14	7	1	76021	1835326	989
14	2016-05-29 16:09:59	0	0	0	0	0	0	4.23	0.87	0.02	114011	0	1790	79356	114011	112221	995	14	7	1	77577	1835334	1017
15	2016-05-29 16:19:58	0	0	0	0	0	0	4.44	0.89	0.02	119768	0	1932	83516	119768	117836	1062	14	7	1	81565	1835339	1084
16	2016-05-29 16:29:58	0	0	0	0	0	0	4.55	0.89	0.02	122270	0	1981	85550	122270	120289	1084	14	7	1	83581	1835347	1106
17	2016-05-29 16:39:59	0	0	0	0	0	0	4.7	0.9	0.02	127333	0	2082	88243	127333	125251	1141	14	7	1	86303	1835360	1163
18	2016-05-29 16:50:00	0	0	0	0	0	0	4.78	0.9	0.02	130032	0	2133	89751	130032	127899	1172	14	7	1	87744	1835374	1194
19	2016-05-29 16:59:58	0	0	0	0	0	0	4.88	0.91	0.02	132889	0	2202	91601	132889	130687	1212	15	7	1	89512	1835387	1235
20	2016-05-29 17:10:00	0	0	0	0	0	0	5.04	0.92	0.02	137842	0	2315	94845	137842	135527	1271	16	7	1	92552	1835397	1295
21	2016-05-29 17:19:58	0	0	0	0	0	0	5.1	0.92	0.02	140428	0	2378	95707	140428	138050	1294	16	7	1	93536	1835414	1318
22	2016-05-29 17:30:00	0	0	0	0	0	0	5.27	0.93	0.02	145238	0	2499	99518	145238	142739	1351	16	7	1	96640	1835429	1375
23	2016-05-29 17:39:58	0	0	0	0	0	0	5.34	0.93	0.02	147590	0	2550	101106	147590	145040	1366	16	7	1	98099	1835432	1390
24	2016-05-29 17:50:00	0	0	0	0	0	0	5.52	0.93	0.02	151726	0	2645	104322	151726	149081	1406	16	7	1	101256	1835435	1430
25	2016-05-29 18:00:00	0	0	0	0	0	0	5.62	0.93	0.02	153960	0	2703	105887	153960	151257	1425	16	7	1	103161	1835451	1449
26	2016-05-29 18:10:02	0	0	0	0	0	0	5.72	0.93	0.02	157958	0	2784	107336	157958	155174	1476	16	7	1	104961	1835458	1500
27	2016-05-29 18:20:01	0	0	0	0	0	0	5.78	0.94	0.02	159682	0	2828	108493	159682	156854	1500	16	7	1	106009	1835461	1524
28	2016-05-29 18:30:00	0	0	0	0	0	0	6.01	0.94	0.02	163879	0	2959	113074	163879	160920	1544	17	7	1	110363	1835471	1569
29	2016-05-29 18:39:59	0	0	0	0	0	0	6.1	0.95	0.02	165899	0	3014	114909	165899	162885	1569	17	7	1	112004	1835484	1594
30	2016-05-29 18:50:00	0	0	0	0	0	0	6.22	0.94	0.02	169085	0	3105	117287	169085	165980	1597	17	7	1	114229	1835492	1622
31	2016-05-29 18:59:58	0	0	0	0	0	0	6.27	0.94	0.02	170947	0	3159	118439	170947	167788	1615	17	7	1	115172	1835508	1640
32	2016-05-29 19:09:59	0	0	0	0	0	0	6.39	0.94	0.02	174936	0	3276	120888	174936	171660	1651	17	7	1	117307	1835516	1676
33	2016-05-29 19:19:59	0	0	0	0	0	0	6.46	0.94	0.02	176938	0	3323	122047	176938	173615	1663	18	7	1	118635	1835525	1689
34	2016-05-29 19:30:02	0	0	0	0	0	0	6.52	0.94	0.02	180082	0	3384	123323	180082	176698	1693	18	7	1	119740	1835536	1719
35	2016-05-29 19:40:02	0	0	0	0	0	0	6.54	0.94	0.02	181587	0	3418	123697	181587	178169	1707	18	7	1	120093	1835551	1733
36	2016-05-29 19:50:07	0	0	0	0	0	0	6.64	0.94	0.02	184608	0	3503	125515	184608	181105	1735	19	7	1	121806	1835563	1762
37	2016-05-29 20:00:09	0	0	0	0	0	0	6.78	0.94	0.02	187854	0	3598	128043	187854	184256	1760	19	7	1	124424	1835566	1787
38	2016-05-29 20:10:10	0	0	0	0	0	0	6.84	0.93	0.02	189673	0	3647	129213	189673	186026	1767	20	7	1	125488	1835577	1795
39	2016-05-29 20:20:09	0	0	0	0	0	0	6.9	0.94	0.02	192696	0	3739	130232	192696	188957	1802	20	8	1	126698	1835591	1831
40	2016-05-29 20:30:07	0	0	0	0	0	0	6.96	0.93	0.02	194104	0	3777	131534	194104	190327	1810	20	8	1	127845	1835610	1839
41	2016-05-29 20:40:11	0	0	0	0	0	0	7.05	0.93	0.02	196843	0	3848	133254	196843	192995	1835	20	8	1	129415	1835618	1864
42	2016-05-29 20:50:08	0	0	0	0	0	0	7.08	0.93	0.02	198402	0	3892	133772	198402	194510	1846	20	8	1	129903	1835628	1875
43	2016-05-29 21:00:08	0	0	0	0	0	0	7.17	0.93	0.02	201462	0	3977	134855	201462	197485	1878	20	8	1	131548	1835646	1907
44	2016-05-29 21:10:09	0	0	0	0	0	0	7.2	0.93	0.02	202666	0	4006	135802	202666	198660	1888	20	8	1	132132	1835662	1917
45	2016-05-29 21:20:11	0	0	0	0	0	0	7.29	0.93	0.02	205648	0	4104	137453	205648	201544	1916	20	8	1	133880	1835675	1945
46	2016-05-29 21:30:11	0	0	0	0	0	0	7.34	0.93	0.02	206980	0	4136	138301	206980	202844	1925	20	8	1	134684	1835690	1954
47	2016-05-29 21:40:09	0	0	0	0	0	0	7.46	0.93	0.02	210068	0	4215	140777	210068	205853	1956	20	8	1	137006	1835704	1985
48	2016-05-29 21:50:11	0	0	0	0	0	0	7.5	0.93	0.02	211471	0	4249	141510	211471	207222	1977	20	8	1	137701	1835728	2006
49	2016-05-29 22:00:18	0	0	0	0	0	0	7.55	0.94	0.02	214228	0	4315	142099	214228	209913	2004	20	8	1	138581	1835739	2033
50	2016-05-29 22:10:18	0	0	0	0	0	0	7.61	0.93	0.02	216760	0	4382	143302	216760	212378	2026	20	8	1	139699	1835755	2055
51	2016-05-29 22:20:15	0	0	0	0	0	0	7.64	0.94	0.02	217961	0	4409	143861	217961	213552	2039	20	8	1	140231	1835772	2068
52	2016-05-29 22:30:15	0	0	0	0	0	0	7.7	0.94	0.02	220536	0	4475	145350	220536	216061	2070	20	8	1	141386	1835796	2099
53	2016-05-29 22:40:14	0	0	0	0	0	0	7.76	0.94	0.02	221726	0	4507	146652	221726	217219	2084	20	8	1	142512	1835810	2113
54	2016-05-29 22:50:15	0	0	0	0	0	0	7.81	0.93	0.02	224262	0	4556	147472	224262	219706	2092	20	8	1	143287	1835826	2121
55	2016-05-29 23:00:18	0	0	0	0	0	0	7.87	0.93	0.02	225794	0	4594	148926	225794	221200	2102	20	8	1	144444	1835859	2131
56	2016-05-29 23:10:15	0	0	0	0	0	0	7.98	0.92	0.02	228538	0	4644	151107	228538	223894	2111	20	8	1	146480	1835872	2140
57	2016-05-29 23:20:17	0	0	0	0	0	0	8	0.93	0.02	229806	0	4669	151476	229806	225137	2129	20	8	1	146827	1835883	2158
58	2016-05-29 23:30:14	0	0	0	0	0	0	8.1	0.92	0.02	232033	0	4714	153423	232033	227319	2139	21	8	1	148656	1835897	2169
59	2016-05-29 23:40:16	0	0	0	0	0	0	8.12	0.93	0.02	233277	0	4737	153900	233277	228540	2162	21	8	1	149110	1835902	2192
60	2016-05-29 23:50:24	0	0	0	0	0	0	8.19	0.92	0.02	235526	0	4789	155394	235526	230737	2165	21	8	1	150367	1835908	2195
61	2016-05-30 00:00:18	0	0	0	0	0	0	8.27	0.92	0.02	236698	0	4818	156429	236698	231880	2189	22	8	1	151810	1835915	2220
62	2016-05-30 00:10:17	0	0	0	0	0	0	8.3	0.93	0.02	237726	0	4848	157072	237726	232878	2199	22	8	1	152416	1835934	2230
63	2016-05-30 00:20:15	0	0	0	0	0	0	8.38	0.92	0.02	239568	0	4885	158661	239568	234683	2210	22	8	1	153911	1835959	2241
64	2016-05-30 00:30:19	0	0	0	0	0	0	8.39	0.92	0.02	240563	0	4910	158775	240563	235653	2217	22	8	1	154019	1835973	2248
65	2016-05-30 00:40:16	0	0	0	0	0	0	8.43	0.92	0.02	242108	0	4942	159513	242108	237166	2234	23	8	1	154713	1835987	2266
66	2016-05-30 00:50:16	0	0	0	0	0	0	8.45	0.92	0.02	243572	0	4978	159909	243572	238594	2245	23	8	1	155147	1835999	2277
67	2016-05-30 01:00:16	0	0	0	0	0	0	8.46	0.92	0.02	244271	0	4999	160058	244271	239272	2253	24	8	1	155287	1836014	2286
68	2016-05-30 01:10:15	0	0	0	0	0	0	8.51	0.92	0.02	245438	0	5026	161107	245438	240412	2261	24	8	1	156275	1836022	2294
69	2016-05-30 01:20:04	0	0	0	0	0	0	8.53	0.92	0.02	246050	0	5041	161376	246050	241009	2271	24	8	1	156528	1836029	2304
70	2016-05-30 01:30:06	0	0	0	0	0	0	8.55	0.92	0.02	247104	0	5057	161899	247104	242047	2280	24	8	1	157020	1836034	2313
71	2016-05-30 01:40:04	0	0	0	0	0	0	8.56	0.92	0.02	247977	0	5080	162170	247977	242897	2287	25	8	1	157211	1836040	2321
72	2016-05-30 01:50:03	0	0	0	0	0	0	8.59	0.92	0.02	248437	0	5089	162750	248437	243348	2293	25	8	1	157756	1836049	2327
73	2016-05-30 02:00:05	0	0	0	0	0	0	8.62	0.92	0.02	249200	0	5106	163348	249200	244094	2301	25	8	1	158318	1835896	2335
74	2016-05-30 02:10:03	0	0	0	0	0	0	8.62	0.92	0.02	249582	0	5118	163348	249582	244464	2303	25	8	1	158318	1835903	2337
75	2016-05-30 02:20:03	0	0	0	0	0	0	8.62	0.92	0.02	249921	0	5130	163365	249921	244791	2305	25	8	1	158334	1835903	2339
76	2016-05-30 02:30:04	0	0	0	0	0	0	8.67	0.92	0.02	250491	0	5148	164168	250491	245343	2312	25	8	1	159154	1835909	2346
77	2016-05-30 02:40:03	0	0	0	0	0	0	8.67	0.92	0.02	250689	0	5154	164177	250689	245535	2313	25	8	1	159162	1835909	2347
78	2016-05-30 02:50:03	0	0	0	0	0	0	8.68	0.92	0.02	251126	0	5164	164342	251126	245962	2317	25	8	1	159317	1835908	2351
79	2016-05-30 03:00:05	0	0	0	0	0	0	8.68	0.92	0.02	251342	0	5166	164351	251342	246176	2318	25	8	1	159326	1835914	2352
80	2016-05-30 03:10:02	0	0	0	0	0	0	8.7	0.92	0.02	251693	0	5173	164736	251693	246520	2320	25	8	1	159687	1835916	2354
81	2016-05-30 03:20:04	0	0	0	0	0	0	8.7	0.92	0.02	251843	0	5174	164780	251843	246669	2323	25	8	1	159728	1835914	2357
82	2016-05-30 03:30:03	0	0	0	0	0	0	8.71	0.92	0.02	252111	0	5178	165017	252111	246933	2324	25	8	1	159951	1835916	2358
83	2016-05-30 03:40:03	0	0	0	0	0	0	8.71	0.92	0.02	252270	0	5181	165030	252270	247089	2325	25	8	1	159964	1835917	2359
84	2016-05-30 03:50:06	0	0	0	0	0	0	8.72	0.92	0.02	252524	0	5186	165171	252524	247338	2326	25	8	1	160096	1835918	2360
85	2016-05-30 04:00:03	0	0	0	0	0	0	8.72	0.92	0.02	252771	0	5189	165171	252771	247582	2327	25	8	1	160096	1835918	2361
86	2016-05-30 04:10:04	0	0	0	0	0	0	8.72	0.92	0.02	252893	0	5192	165171	252893	247701	2328	25	8	1	160096	1835922	2362
87	2016-05-30 04:20:04	0	0	0	0	0	0	8.73	0.92	0.02	253090	0	5198	165312	253090	247892	2330	25	8	1	160228	1835921	2364
88	2016-05-30 04:30:03	0	0	0	0	0	0	8.73	0.92	0.02	253214	0	5204	165383	253214	248010	2331	25	8	1	160295	1835921	2365
89	2016-05-30 04:40:03	0	0	0	0	0	0	8.74	0.92	0.02	253443	0	5210	165595	253443	248233	2332	25	8	1	160494	1835922	2366
90	2016-05-30 04:50:05	0	0	0	0	0	0	8.74	0.92	0.02	253534	0	5212	165595	253534	248322	2333	25	8	1	160494	1835922	2367
91	2016-05-30 05:00:04	0	0	0	0	0	0	8.74	0.92	0.02	253746	0	5216	165595	253746	248530	2334	25	8	1	160494	1835923	2368
92	2016-05-30 05:10:04	0	0	0	0	0	0	8.74	0.92	0.02	253851	0	5216	165595	253851	248635	2334	25	8	1	160494	1835924	2368
93	2016-05-30 05:20:03	0	0	0	0	0	0	8.74	0.92	0.02	254056	0	5224	165595	254056	248832	2335	25	8	1	160494	1835925	2369
94	2016-05-30 05:30:05	0	0	0	0	0	0	8.74	0.92	0.02	254163	0	5227	165595	254163	248936	2335	25	8	1	160494	1835926	2369
95	2016-05-30 05:40:03	0	0	0	0	0	0	8.77	0.92	0.02	254453	0	5234	166128	254453	249219	2337	25	8	1	161062	1835928	2371
96	2016-05-30 05:50:04	0	0	0	0	0	0	8.77	0.92	0.02	254593	0	5236	166128	254593	249357	2337	25	8	1	161062	1835931	2371
97	2016-05-30 06:00:03	0	0	0	0	0	0	8.78	0.92	0.02	254981	0	5252	166235	254981	249729	2340	25	8	1	161162	1835931	2374
98	2016-05-30 06:10:03	0	0	0	0	0	0	8.79	0.92	0.02	255182	0	5257	166520	255182	249925	2340	25	8	1	161430	1835932	2374
99	2016-05-30 06:20:02	0	0	0	0	0	0	8.79	0.92	0.02	255644	0	5269	166556	255644	250375	2343	25	8	1	161464	1835935	2377
100	2016-05-30 06:30:06	0	0	0	0	0	0	8.79	0.92	0.02	255888	0	5278	166556	255888	250610	2345	25	8	1	161464	1835937	2379
101	2016-05-30 06:40:04	0	0	0	0	0	0	8.81	0.91	0.02	256411	0	5288	166833	256411	251123	2346	25	8	1	161691	1835944	2380
102	2016-05-30 06:50:04	0	0	0	0	0	0	8.81	0.92	0.02	256682	0	5295	166833	256682	251387	2350	25	8	1	161691	1835947	2384
103	2016-05-30 07:00:04	0	0	0	0	0	0	8.85	0.92	0.02	257272	0	5304	167691	257272	251968	2356	25	8	1	162497	1835948	2390
104	2016-05-30 07:10:03	0	0	0	0	0	0	8.85	0.92	0.02	257598	0	5308	167709	257598	252290	2360	25	8	1	162514	1835951	2394
105	2016-05-30 07:20:05	0	0	0	0	0	0	8.88	0.92	0.02	258307	0	5333	168220	258307	252974	2367	25	8	1	162993	1835951	2401
106	2016-05-30 07:30:07	0	0	0	0	0	0	8.89	0.92	0.02	258717	0	5348	168453	258717	253369	2372	25	8	1	163212	1835956	2406
107	2016-05-30 07:40:05	0	0	0	0	0	0	8.94	0.92	0.02	259636	0	5381	169365	259636	254255	2382	25	8	1	164051	1835962	2416
108	2016-05-30 07:50:07	0	0	0	0	0	0	8.94	0.92	0.02	260017	0	5393	169514	260017	254624	2386	26	8	1	164190	1835970	2421
109	2016-05-30 08:00:08	0	0	0	0	0	0	8.95	0.92	0.02	260979	0	5413	169698	260979	255566	2400	26	8	1	164328	1835975	2435
110	2016-05-30 08:10:06	0	0	0	0	0	0	8.97	0.92	0.02	261415	0	5427	170055	261415	255988	2407	26	8	1	164662	1835981	2442
111	2016-05-30 08:20:08	0	0	0	0	0	0	8.98	0.92	0.02	262470	0	5463	170333	262470	257007	2416	26	8	1	164923	1835992	2451
112	2016-05-30 08:30:08	0	0	0	0	0	0	8.99	0.92	0.02	263043	0	5479	170520	263043	257564	2420	26	8	1	165099	1835997	2455
113	2016-05-30 08:40:05	0	0	0	0	0	0	9.03	0.92	0.02	264119	0	5507	171341	264119	258612	2432	26	8	1	165868	1836007	2467
114	2016-05-30 08:50:08	0	0	0	0	0	0	9.06	0.92	0.02	265134	0	5530	171778	265134	259604	2444	26	8	1	166421	1836017	2479
115	2016-05-30 09:00:08	0	0	0	0	0	0	9.09	0.92	0.02	265770	0	5543	172256	265770	260227	2452	26	8	1	166869	1836027	2487
116	2016-05-30 09:10:06	0	0	0	0	0	0	9.12	0.92	0.02	266931	0	5575	172862	266931	261356	2458	26	8	1	167438	1836036	2493
117	2016-05-30 09:20:09	0	0	0	0	0	0	9.13	0.92	0.02	267524	0	5594	173130	267524	261930	2473	27	8	1	167689	1836048	2509
118	2016-05-30 09:30:05	0	0	0	0	0	0	9.16	0.93	0.02	268200	0	5612	173615	268200	262588	2485	27	8	1	168145	1836052	2521
119	2016-05-30 09:40:05	0	0	0	0	0	0	9.21	0.93	0.02	269303	0	5644	174632	269303	263659	2497	27	8	1	169098	1836064	2533
120	2016-05-30 09:50:10	0	0	0	0	0	0	9.25	0.92	0.02	270494	0	5671	175354	270494	264823	2501	27	8	1	169775	1836075	2537
121	2016-05-30 10:00:09	0	0	0	0	0	0	9.26	0.92	0.02	271144	0	5696	175632	271144	265448	2504	27	8	1	170036	1836083	2540
122	2016-05-30 10:10:11	0	0	0	0	0	0	9.27	0.92	0.02	272074	0	5729	175912	272074	266345	2514	27	8	1	170260	1836091	2550
123	2016-05-30 10:20:10	0	0	0	0	0	0	9.29	0.93	0.02	272493	0	5743	176182	272493	266750	2522	27	8	1	170514	1836098	2558
124	2016-05-30 10:22:41	0	0	0	0	0	0	9.31	0.93	0.02	272910	0	5762	176695	272910	267148	2527	28	8	1	170928	1836101	2564
125	2016-05-30 10:32:37	0	0	0	0	0	0	9.31	0.93	0.02	273377	0	5773	176695	273377	267604	2534	28	8	1	170928	1836110	2571
126	2016-05-30 10:42:36	0	0	0	0	0	0	9.34	0.93	0.02	274437	0	5821	177378	274437	268616	2549	28	9	1	171434	1836122	2587
127	2016-05-30 10:52:36	0	0	0	0	0	0	9.36	0.93	0.02	274907	0	5834	177888	274907	269073	2563	28	9	1	171910	1836134	2601
128	2016-05-30 11:02:36	0	0	0	0	0	0	9.41	0.93	0.02	276024	0	5877	178758	276024	270147	2569	28	9	1	172723	1836146	2607
129	2016-05-30 11:12:36	0	0	0	0	0	0	9.41	0.93	0.02	276883	0	5915	178882	276883	270968	2575	28	9	1	172800	1836161	2613
130	2016-05-30 11:22:36	0	0	0	0	0	0	9.43	0.93	0.02	277296	0	5932	179192	277296	271364	2582	28	9	1	173090	1836169	2620
131	2016-05-30 11:32:39	0	0	0	0	0	0	9.48	0.93	0.02	278165	0	5955	180215	278165	272210	2587	28	9	1	174043	1836181	2625
132	2016-05-30 11:42:38	0	0	0	0	0	0	9.5	0.93	0.02	278616	0	5967	180572	278616	272649	2593	28	9	1	174376	1836192	2631
133	2016-05-30 11:52:41	0	0	0	0	0	0	9.51	0.93	0.02	279428	0	5991	180857	279428	273437	2603	28	10	1	174642	1836198	2642
134	2016-05-30 12:02:38	0	0	0	0	0	0	9.51	0.93	0.02	279790	0	6006	180857	279790	273784	2603	28	10	1	174642	1836203	2642
135	2016-05-30 12:12:40	0	0	0	0	0	0	9.54	0.93	0.02	280486	0	6027	181599	280486	274459	2611	28	10	1	175235	1836220	2650
136	2016-05-30 12:22:39	0	0	0	0	0	0	9.55	0.93	0.02	280819	0	6041	181684	280819	274778	2615	28	10	1	175314	1836231	2654
137	2016-05-30 12:32:39	0	0	0	0	0	0	9.55	0.93	0.02	281609	0	6066	181778	281609	275543	2625	28	10	1	175401	1836236	2664
138	2016-05-30 12:42:39	0	0	0	0	0	0	9.56	0.93	0.02	281935	0	6071	181991	281935	275864	2626	28	10	1	175600	1836241	2665
139	2016-05-30 12:52:38	0	0	0	0	0	0	9.58	0.93	0.02	282608	0	6097	182249	282608	276511	2634	28	10	1	175839	1836246	2673
140	2016-05-30 13:02:39	0	0	0	0	0	0	9.6	0.93	0.02	283022	0	6115	182722	283022	276907	2638	30	10	1	176280	1836255	2679
141	2016-05-30 13:12:43	0	0	0	0	0	0	9.6	0.93	0.02	283677	0	6137	182722	283677	277540	2646	30	10	1	176280	1836265	2687
142	2016-05-30 13:22:39	0	0	0	0	0	0	9.6	0.93	0.02	284048	0	6147	182808	284048	277901	2649	30	10	1	176360	1836276	2690
143	2016-05-30 13:32:40	0	0	0	0	0	0	9.61	0.93	0.02	284850	0	6170	182975	284850	278680	2660	30	10	1	176436	1836290	2701
144	2016-05-30 13:42:40	0	0	0	0	0	0	9.61	0.93	0.02	285203	0	6182	183062	285203	279021	2661	30	10	1	176516	1836297	2702
145	2016-05-30 13:52:37	0	0	0	0	0	0	9.63	0.93	0.02	285898	0	6205	183338	285898	279693	2669	30	10	1	176773	1836311	2710
146	2016-05-30 14:02:38	0	0	0	0	0	0	9.66	0.93	0.02	286250	0	6208	183968	286250	280042	2672	30	10	1	177358	1836323	2713
147	2016-05-30 14:12:39	0	0	0	0	0	0	9.67	0.94	0.02	286793	0	6221	184472	286793	280572	2682	30	10	1	177582	1836336	2723
148	2016-05-30 14:22:38	0	0	0	0	0	0	9.68	0.93	0.02	287158	0	6231	184494	287158	280927	2683	30	10	1	177765	1836341	2724
149	2016-05-30 14:32:39	0	0	0	0	0	0	9.71	0.93	0.02	287880	0	6249	185139	287880	281631	2686	30	10	1	178364	1836347	2727
150	2016-05-30 14:42:39	0	0	0	0	0	0	9.74	0.93	0.02	288221	0	6258	185622	288221	281963	2688	31	10	1	178812	1836364	2730
151	2016-05-30 14:52:38	0	0	0	0	0	0	9.75	0.93	0.02	288765	0	6274	185889	288765	282491	2699	31	10	1	179060	1836373	2741
152	2016-05-30 15:02:40	0	0	0	0	0	0	9.76	0.94	0.02	289038	0	6283	186068	289038	282755	2704	31	10	1	179226	1836378	2746
153	2016-05-30 15:12:40	0	0	0	0	0	0	9.77	0.94	0.02	289531	0	6305	186483	289531	283226	2715	31	10	1	179486	1836385	2757
154	2016-05-30 15:22:39	0	0	0	0	0	0	9.79	0.94	0.02	290031	0	6322	186843	290031	283709	2717	31	10	1	179819	1836397	2759
155	2016-05-30 15:32:40	0	0	0	0	0	0	9.83	0.94	0.02	290494	0	6338	187624	290494	284156	2720	31	10	1	180543	1836414	2762
156	2016-05-30 15:42:39	0	0	0	0	0	0	9.84	0.94	0.02	290731	0	6343	187715	290731	284388	2723	31	10	1	180627	1836425	2765
157	2016-05-30 15:52:39	0	0	0	0	0	0	9.91	0.94	0.02	291223	0	6364	189206	291223	284859	2728	31	10	1	182007	1836443	2770
158	2016-05-30 16:02:40	0	0	0	0	0	0	9.91	0.94	0.02	291440	0	6371	189249	291440	285069	2732	31	10	1	182047	1836453	2774
159	2016-05-30 16:12:40	0	0	0	0	0	0	9.92	0.94	0.02	291992	0	6401	189596	291992	285591	2737	31	10	1	182240	1836464	2779
160	2016-05-30 16:22:39	0	0	0	0	0	0	9.92	0.94	0.02	292241	0	6414	189596	292241	285827	2742	31	10	1	182240	1836472	2784
161	2016-05-30 16:32:39	0	0	0	0	0	0	9.93	0.94	0.02	292685	0	6440	189631	292685	286245	2746	31	10	1	182272	1836486	2788
162	2016-05-30 16:42:40	0	0	0	0	0	0	9.93	0.94	0.02	292927	0	6450	189957	292927	286477	2750	31	10	1	182401	1836505	2792
163	2016-05-30 16:52:40	0	0	0	0	0	0	9.94	0.94	0.02	293396	0	6466	190047	293396	286930	2754	31	10	1	182484	1836533	2796
164	2016-05-30 17:02:40	0	0	0	0	0	0	9.94	0.94	0.02	293614	0	6476	190211	293614	287138	2758	32	10	1	182635	1836554	2801
165	2016-05-30 17:12:40	0	0	0	0	0	0	9.95	0.94	0.02	293982	0	6491	190281	293982	287491	2762	32	10	1	182699	1836572	2805
166	2016-05-30 17:22:38	0	0	0	0	0	0	9.95	0.94	0.02	294160	0	6503	190515	294160	287657	2764	32	10	1	182742	1836592	2807
167	2016-05-30 17:32:38	0	0	0	0	0	0	9.98	0.94	0.02	294566	0	6527	191073	294566	288039	2770	32	10	1	183256	1836600	2813
168	2016-05-30 17:42:39	0	0	0	0	0	0	9.98	0.94	0.02	294802	0	6531	191115	294802	288271	2771	32	10	1	183294	1836612	2814
169	2016-05-30 17:52:39	0	0	0	0	0	0	10	0.94	0.02	295156	0	6543	191304	295156	288613	2776	32	10	1	183642	1836633	2819
170	2016-05-30 18:02:42	0	0	0	0	0	0	10.01	0.94	0.02	295357	0	6547	191588	295357	288810	2777	32	10	1	183904	1836654	2820
171	2016-05-30 18:12:39	0	0	0	0	0	0	10.02	0.94	0.02	295727	0	6561	191777	295727	289166	2779	32	10	1	184079	1836672	2822
172	2016-05-30 18:22:40	0	0	0	0	0	0	10.02	0.94	0.02	296055	0	6574	191801	296055	289481	2782	32	10	1	184101	1836699	2825
173	2016-05-30 18:32:40	0	0	0	0	0	0	10.03	0.94	0.02	296255	0	6579	191884	296255	289676	2784	32	10	1	184177	1836721	2827
174	2016-05-30 18:42:39	0	0	0	0	0	0	10.03	0.94	0.02	296572	0	6593	191884	296572	289979	2794	32	10	1	184177	1836733	2837
175	2016-05-30 18:52:40	0	0	0	0	0	0	10.03	0.94	0.02	296751	0	6598	191884	296751	290153	2794	32	10	1	184177	1836759	2837
176	2016-05-30 19:02:46	0	0	0	0	0	0	10.03	0.94	0.02	297128	0	6605	192027	297128	290523	2802	32	10	1	184309	1836785	2845
177	2016-05-30 19:12:43	0	0	0	0	0	0	10.03	0.94	0.02	297299	0	6611	192027	297299	290688	2803	32	10	1	184309	1836806	2846
178	2016-05-30 19:22:40	0	0	0	0	0	0	10.04	0.94	0.02	297630	0	6623	192242	297630	291007	2805	32	10	1	184507	1836832	2848
179	2016-05-30 19:32:40	0	0	0	0	0	0	10.04	0.94	0.02	297767	0	6625	192242	297767	291142	2806	32	10	1	184507	1836863	2849
180	2016-05-30 19:42:39	0	0	0	0	0	0	10.06	0.94	0.02	298053	0	6636	192529	298053	291417	2812	32	10	1	184815	1836891	2855
181	2016-05-30 19:52:40	0	0	0	0	0	0	10.06	0.94	0.02	298192	0	6644	192529	298192	291548	2815	32	10	1	184815	1836909	2858
182	2016-05-30 20:02:40	0	0	0	0	0	0	10.06	0.94	0.02	298477	0	6652	192553	298477	291825	2815	32	10	1	184837	1836926	2858
183	2016-05-30 20:12:41	0	0	0	0	0	0	10.06	0.94	0.02	298632	0	6655	192601	298632	291977	2815	32	10	1	184881	1836944	2858
184	2016-05-30 20:22:41	0	0	0	0	0	0	10.06	0.94	0.02	298862	0	6663	192601	298862	292199	2818	32	10	1	184881	1836968	2861
185	2016-05-30 20:32:40	0	0	0	0	0	0	10.06	0.94	0.02	299104	0	6668	192601	299104	292436	2821	32	10	1	184881	1836999	2864
186	2016-05-30 20:42:41	0	0	0	0	0	0	10.06	0.94	0.02	299255	0	6676	192601	299255	292579	2823	32	10	1	184881	1837030	2866
187	2016-05-30 20:52:40	0	0	0	0	0	0	10.07	0.94	0.02	299503	0	6686	192647	299503	292817	2825	32	10	1	184924	1837052	2868
188	2016-05-30 21:02:41	0	0	0	0	0	0	10.07	0.94	0.02	299645	0	6690	192647	299645	292955	2827	32	10	1	184924	1837083	2870
189	2016-05-30 21:12:41	0	0	0	0	0	0	10.07	0.94	0.02	299891	0	6695	192647	299891	293196	2830	32	10	1	184924	1837120	2873
190	2016-05-30 21:22:40	0	0	0	0	0	0	10.07	0.94	0.02	300027	0	6702	192647	300027	293325	2831	32	10	1	184924	1837145	2874
191	2016-05-30 21:32:40	0	0	0	0	0	0	10.07	0.94	0.02	300286	0	6707	192647	300286	293579	2835	32	10	1	184924	1837161	2878
192	2016-05-30 21:42:40	0	0	0	0	0	0	10.07	0.94	0.02	300423	0	6712	192647	300423	293711	2838	32	10	1	184924	1837188	2881
193	2016-05-30 21:52:41	0	0	0	0	0	0	10.07	0.94	0.02	300691	0	6718	192647	300691	293973	2841	32	10	1	184924	1837213	2884
194	2016-05-30 22:02:41	0	0	0	0	0	0	10.07	0.94	0.02	300856	0	6724	192647	300856	294132	2843	32	10	1	184924	1837226	2886
195	2016-05-30 22:12:41	0	0	0	0	0	0	10.07	0.94	0.02	301074	0	6733	192647	301074	294341	2843	32	10	1	184924	1837251	2886
196	2016-05-30 22:22:41	0	0	0	0	0	0	10.07	0.94	0.02	301166	0	6735	192647	301166	294431	2843	32	10	1	184924	1837284	2886
197	2016-05-30 22:32:42	0	0	0	0	0	0	10.07	0.94	0.02	301401	0	6744	192839	301401	294657	2844	32	10	1	185101	1837309	2887
198	2016-05-30 22:42:41	0	0	0	0	0	0	10.09	0.94	0.02	301547	0	6750	193176	301547	294797	2846	32	10	1	185411	1837331	2889
199	2016-05-30 22:52:42	0	0	0	0	0	0	10.11	0.94	0.02	301807	0	6760	193453	301807	295047	2849	32	10	1	185667	1837357	2892
200	2016-05-30 23:02:41	0	0	0	0	0	0	10.11	0.94	0.02	301916	0	6766	193453	301916	295150	2851	32	10	1	185667	1837375	2894
201	2016-05-30 23:12:41	0	0	0	0	0	0	10.1	0.94	0.02	302173	0	6771	193453	302173	295402	2854	32	10	1	185667	1837400	2897
202	2016-05-30 23:22:41	0	0	0	0	0	0	10.11	0.94	0.02	302271	0	6772	193599	302271	295499	2855	32	10	1	185801	1837421	2898
203	2016-05-30 23:32:41	0	0	0	0	0	0	10.12	0.94	0.02	302451	0	6786	193683	302451	295665	2857	32	10	1	185879	1837440	2900
204	2016-05-30 23:42:41	0	0	0	0	0	0	10.12	0.95	0.02	302563	0	6789	193683	302563	295774	2860	32	10	1	185879	1837465	2903
205	2016-05-30 23:52:41	0	0	0	0	0	0	10.12	0.95	0.02	302747	0	6795	193756	302747	295952	2861	32	10	1	185946	1837481	2904
206	2016-05-31 00:02:41	0	0	0	0	0	0	10.12	0.94	0.02	302831	0	6797	193756	302831	296034	2861	32	10	1	185946	1837486	2904
207	2016-05-31 00:12:41	0	0	0	0	0	0	10.12	0.94	0.02	302979	0	6799	193780	302979	296180	2861	32	10	1	185968	1837509	2904
208	2016-05-31 00:22:43	0	0	0	0	0	0	10.12	0.95	0.02	303049	0	6802	193780	303049	296247	2865	32	10	1	185968	1837549	2908
209	2016-05-31 00:32:40	0	0	0	0	0	0	10.12	0.95	0.02	303186	0	6807	193780	303186	296379	2867	32	10	1	185968	1837584	2910
210	2016-05-31 00:42:41	0	0	0	0	0	0	10.12	0.95	0.02	303281	0	6814	193780	303281	296467	2867	32	10	1	185968	1837611	2910
211	2016-05-31 00:52:40	0	0	0	0	0	0	10.14	0.95	0.02	303329	0	6820	194121	303329	296509	2868	32	10	1	186281	1837636	2911
212	2016-05-31 01:02:40	0	0	0	0	0	0	10.15	0.95	0.02	303424	0	6827	194291	303424	296597	2870	32	10	1	186438	1837648	2913
213	2016-05-31 01:12:44	0	0	0	0	0	0	10.15	0.95	0.02	303473	0	6828	194291	303473	296645	2870	32	10	1	186438	1837660	2913
214	2016-05-31 01:22:41	0	0	0	0	0	0	10.15	0.95	0.02	303539	0	6830	194291	303539	296709	2871	32	10	1	186438	1837682	2914
215	2016-05-31 01:32:41	0	0	0	0	0	0	10.15	0.95	0.02	303571	0	6832	194291	303571	296739	2871	32	10	1	186438	1837697	2914
216	2016-05-31 01:42:40	0	0	0	0	0	0	10.15	0.95	0.02	303634	0	6834	194480	303634	296800	2871	32	10	1	186612	1837705	2914
217	2016-05-31 01:52:41	0	0	0	0	0	0	10.15	0.95	0.02	303671	0	6835	194480	303671	296836	2871	32	10	1	186612	1837710	2914
218	2016-05-31 02:02:42	0	0	0	0	0	0	10.16	0.95	0.02	303725	0	6836	194480	303725	296889	2871	32	10	1	186612	1836728	2914
219	2016-05-31 02:12:42	0	0	0	0	0	0	10.16	0.95	0.02	303744	0	6836	194480	303744	296908	2871	32	10	1	186612	1836734	2914
220	2016-05-31 02:22:42	0	0	0	0	0	0	10.16	0.95	0.02	303763	0	6837	194480	303763	296926	2871	32	10	1	186612	1836739	2914
221	2016-05-31 02:32:41	0	0	0	0	0	0	10.16	0.95	0.02	303767	0	6837	194480	303767	296930	2871	32	10	1	186612	1836740	2914
222	2016-05-31 02:42:41	0	0	0	0	0	0	10.16	0.95	0.02	303780	0	6837	194480	303780	296943	2871	32	10	1	186612	1836738	2914
223	2016-05-31 02:52:41	0	0	0	0	0	0	10.16	0.95	0.02	303786	0	6837	194480	303786	296949	2871	32	10	1	186612	1836742	2914
224	2016-05-31 03:02:41	0	0	0	0	0	0	10.16	0.95	0.02	303795	0	6838	194480	303795	296957	2871	32	10	1	186612	1836744	2914
225	2016-05-31 03:12:41	0	0	0	0	0	0	10.16	0.95	0.02	303806	0	6840	194480	303806	296966	2871	32	10	1	186612	1836747	2914
226	2016-05-31 03:22:41	0	0	0	0	0	0	10.16	0.94	0.02	303818	0	6840	194480	303818	296978	2871	32	10	1	186612	1836750	2914
227	2016-05-31 03:32:40	0	0	0	0	0	0	10.16	0.95	0.02	303825	0	6841	194480	303825	296984	2872	32	10	1	186612	1836752	2915
228	2016-05-31 03:42:41	0	0	0	0	0	0	10.16	0.95	0.02	303827	0	6841	194480	303827	296986	2872	32	10	1	186612	1836751	2915
229	2016-05-31 03:52:41	0	0	0	0	0	0	10.16	0.95	0.02	303834	0	6841	194480	303834	296993	2872	32	10	1	186612	1836752	2915
230	2016-05-31 04:02:41	0	0	0	0	0	0	10.16	0.95	0.02	303838	0	6841	194480	303838	296997	2872	32	10	1	186612	1836752	2915
231	2016-05-31 04:12:41	0	0	0	0	0	0	10.16	0.95	0.02	303838	0	6841	194480	303838	296997	2872	32	10	1	186612	1836752	2915
232	2016-05-31 04:22:41	0	0	0	0	0	0	10.16	0.95	0.02	303844	0	6841	194480	303844	297003	2872	32	10	1	186612	1836752	2915
233	2016-05-31 04:32:41	0	0	0	0	0	0	10.16	0.95	0.02	303854	0	6841	194480	303854	297013	2872	32	10	1	186612	1836753	2915
234	2016-05-31 04:42:41	0	0	0	0	0	0	10.16	0.95	0.02	303854	0	6841	194480	303854	297013	2872	32	10	1	186612	1836753	2915
235	2016-05-31 04:52:41	0	0	0	0	0	0	10.16	0.95	0.02	303857	0	6842	194480	303857	297015	2872	32	10	1	186612	1836755	2915
236	2016-05-31 05:02:41	0	0	0	0	0	0	10.16	0.95	0.02	303859	0	6842	194480	303859	297017	2872	32	10	1	186612	1836757	2915
237	2016-05-31 05:12:41	0	0	0	0	0	0	10.16	0.95	0.02	303868	0	6842	194480	303868	297026	2872	32	10	1	186612	1836758	2915
238	2016-05-31 05:22:42	0	0	0	0	0	0	10.16	0.95	0.02	303877	0	6842	194480	303877	297035	2872	32	10	1	186612	1836759	2915
239	2016-05-31 05:32:48	0	0	0	0	0	0	10.16	0.95	0.02	303878	0	6842	194480	303878	297036	2872	32	10	1	186612	1836760	2915
240	2016-05-31 05:42:53	0	0	0	0	0	0	10.16	0.95	0.02	303883	0	6842	194480	303883	297041	2873	32	10	1	186612	1836761	2916
241	2016-05-31 05:52:45	0	0	0	0	0	0	10.16	0.95	0.02	303886	0	6842	194480	303886	297044	2873	32	10	1	186612	1836762	2916
242	2016-05-31 06:02:41	0	0	0	0	0	0	10.16	0.95	0.02	303898	0	6844	194480	303898	297054	2873	32	10	1	186612	1836763	2916
243	2016-05-31 06:12:43	0	0	0	0	0	0	10.16	0.95	0.02	303902	0	6845	194480	303902	297057	2873	32	10	1	186612	1836765	2916
244	2016-05-31 06:22:42	0	0	0	0	0	0	10.17	0.95	0.02	303917	0	6846	194651	303917	297071	2873	32	10	1	186770	1836769	2916
245	2016-05-31 06:32:43	0	0	0	0	0	0	10.17	0.95	0.02	303924	0	6848	194651	303924	297076	2874	32	10	1	186770	1836776	2917
246	2016-05-31 06:42:43	0	0	0	0	0	0	10.17	0.95	0.02	303930	0	6849	194651	303930	297081	2874	32	10	1	186770	1836777	2917
247	2016-05-31 06:52:42	0	0	0	0	0	0	10.17	0.95	0.02	303951	0	6852	194651	303951	297099	2875	32	10	1	186770	1836785	2918
248	2016-05-31 07:02:42	0	0	0	0	0	0	10.17	0.95	0.02	303961	0	6852	194651	303961	297109	2875	32	10	1	186770	1836789	2918
249	2016-05-31 07:12:44	0	0	0	0	0	0	10.17	0.95	0.02	303982	0	6854	194651	303982	297128	2875	32	10	1	186770	1836796	2918
250	2016-05-31 07:22:42	0	0	0	0	0	0	10.17	0.95	0.02	304017	0	6855	194651	304017	297162	2875	32	10	1	186770	1836804	2918
251	2016-05-31 07:32:44	0	0	0	0	0	0	10.17	0.95	0.02	304027	0	6856	194651	304027	297171	2875	32	10	1	186770	1836810	2918
252	2016-05-31 07:42:43	0	0	0	0	0	0	10.17	0.95	0.02	304057	0	6859	194651	304057	297198	2875	32	10	1	186770	1836814	2918
253	2016-05-31 07:52:44	0	0	0	0	0	0	10.17	0.95	0.02	304072	0	6861	194651	304072	297211	2876	32	10	1	186770	1836824	2919
254	2016-05-31 08:02:43	0	0	0	0	0	0	10.17	0.95	0.02	304102	0	6863	194651	304102	297239	2876	32	10	1	186770	1836838	2919
255	2016-05-31 08:12:43	0	0	0	0	0	0	10.17	0.95	0.02	304126	0	6865	194651	304126	297261	2877	32	10	1	186770	1836851	2920
256	2016-05-31 08:22:43	0	0	0	0	0	0	10.17	0.95	0.02	304145	0	6868	194651	304145	297277	2877	32	10	1	186770	1836862	2920
257	2016-05-31 08:32:43	0	0	0	0	0	0	10.17	0.95	0.02	304172	0	6874	194651	304172	297298	2878	32	10	1	186770	1836886	2921
258	2016-05-31 08:42:44	0	0	0	0	0	0	10.17	0.95	0.02	304183	0	6875	194651	304183	297308	2878	32	10	1	186770	1836907	2921
259	2016-05-31 08:52:45	0	0	0	0	0	0	10.17	0.95	0.02	304225	0	6877	194651	304225	297348	2878	32	10	1	186770	1836929	2921
260	2016-05-31 09:02:44	0	0	0	0	0	0	10.17	0.95	0.02	304236	0	6877	194651	304236	297359	2878	32	10	1	186770	1836949	2921
261	2016-05-31 09:12:43	0	0	0	0	0	0	10.17	0.95	0.02	304265	0	6879	194651	304265	297386	2878	32	10	1	186770	1836971	2921
262	2016-05-31 09:22:47	0	0	0	0	0	0	10.17	0.95	0.02	304281	0	6880	194651	304281	297401	2879	32	10	1	186770	1836992	2922
263	2016-05-31 09:32:44	0	0	0	0	0	0	10.17	0.95	0.02	304308	0	6881	194651	304308	297427	2879	32	10	1	186770	1837004	2922
264	2016-05-31 09:42:44	0	0	0	0	0	0	10.17	0.95	0.02	304322	0	6886	194651	304322	297436	2879	32	10	1	186770	1837026	2922
265	2016-05-31 09:52:44	0	0	0	0	0	0	10.17	0.95	0.02	304359	0	6887	194651	304359	297471	2879	32	10	1	186770	1837044	2922
266	2016-05-31 10:02:46	0	0	0	0	0	0	10.17	0.95	0.02	304367	0	6889	194651	304367	297478	2879	32	10	1	186770	1837063	2922
267	2016-05-31 10:12:45	0	0	0	0	0	0	10.17	0.95	0.02	304376	0	6892	194651	304376	297484	2879	32	10	1	186770	1837080	2922
268	2016-05-31 10:22:46	0	0	0	0	0	0	10.17	0.95	0.02	304405	0	6894	194651	304405	297511	2879	32	10	1	186770	1837097	2922
269	2016-05-31 10:32:44	0	0	0	0	0	0	10.17	0.95	0.02	304423	0	6895	194651	304423	297528	2880	32	10	1	186770	1837117	2923
270	2016-05-31 10:42:51	0	0	0	0	0	0	10.17	0.95	0.02	304432	0	6896	194651	304432	297536	2880	32	10	1	186770	1837136	2923
271	2016-05-31 12:48:55	0	0	0	0	0	0	10.16	0.95	0.02	304586	0	6920	194749	304586	297666	2880	32	10	1	186770	1837420	2923
272	2016-05-31 12:58:53	0	0	0	0	0	0	10.17	0.95	0.02	304595	0	6920	194823	304595	297675	2880	32	10	1	186838	1837435	2923
273	2016-05-31 13:08:52	0	0	0	0	0	0	10.17	0.95	0.02	304604	0	6921	194823	304604	297683	2880	32	10	1	186838	1837448	2923
274	2016-05-31 13:18:55	0	0	0	0	0	0	10.17	0.95	0.02	304610	0	6922	194823	304610	297688	2880	32	10	1	186838	1837469	2923
275	2016-05-31 13:28:55	0	0	0	0	0	0	10.17	0.95	0.02	304626	0	6922	194823	304626	297704	2880	32	10	1	186838	1837489	2923
276	2016-05-31 13:38:54	0	0	0	0	0	0	10.17	0.95	0.02	304629	0	6923	194823	304629	297706	2880	32	10	1	186838	1837514	2923
277	2016-05-31 13:48:54	0	0	0	0	0	0	10.17	0.95	0.02	304635	0	6924	194823	304635	297711	2880	32	10	1	186838	1837537	2923
278	2016-05-31 13:58:53	0	0	0	0	0	0	10.17	0.95	0.02	304645	0	6926	194823	304645	297719	2880	32	10	1	186838	1837561	2923
279	2016-05-31 14:08:53	0	0	0	0	0	0	10.17	0.95	0.02	304650	0	6927	194823	304650	297723	2880	32	10	1	186838	1837583	2923
280	2016-05-31 14:18:53	0	0	0	0	0	0	10.17	0.95	0.02	304658	0	6929	194823	304658	297729	2880	32	10	1	186838	1837615	2923
281	2016-05-31 14:28:53	0	0	0	0	0	0	10.17	0.95	0.02	304670	0	6932	194823	304670	297738	2880	32	10	1	186838	1837655	2923
282	2016-05-31 14:38:54	0	0	0	0	0	0	10.17	0.95	0.02	304680	0	6933	194823	304680	297747	2880	32	10	1	186838	1837694	2923
283	2016-05-31 14:48:54	0	0	0	0	0	0	10.17	0.95	0.02	304683	0	6934	194823	304683	297749	2880	32	10	1	186838	1837731	2923
284	2016-05-31 15:13:19	0	0	0	0	0	0	10.17	0.95	0.02	304702	0	6935	194823	304702	297767	2880	32	10	1	186838	1837792	2923
285	2016-05-31 15:13:56	0	0	0	0	0	0	10.17	0.95	0.02	304702	0	6935	194823	304702	297767	2880	32	10	1	186838	1837794	2923
286	2016-05-31 15:18:56	0	0	0	0	0	0	10.17	0.95	0.02	304702	0	6935	194823	304702	297767	2880	32	10	1	186838	1837809	2923
287	2016-05-31 15:29:01	0	0	0	0	0	0	10.17	0.95	0.02	304707	0	6935	194823	304707	297772	2880	32	10	1	186838	1837839	2923
288	2016-05-31 15:39:03	0	0	0	0	0	0	10.17	0.95	0.02	304713	0	6935	194823	304713	297778	2880	32	10	1	186838	1837857	2923
289	2016-05-31 15:49:10	0	0	0	0	0	0	10.17	0.95	0.02	304721	0	6936	194823	304721	297785	2881	32	10	1	186838	1837883	2924
290	2016-05-31 15:59:11	0	0	0	0	0	0	10.17	0.95	0.02	304729	0	6938	194823	304729	297791	2881	32	10	1	186838	1837912	2924
291	2016-05-31 16:09:11	0	0	0	0	0	0	10.17	0.95	0.02	304731	0	6938	194823	304731	297793	2881	32	10	1	186838	1837945	2924
292	2016-05-31 16:19:11	0	0	0	0	0	0	10.17	0.95	0.02	304739	0	6939	194823	304739	297800	2881	32	10	1	186838	1837976	2924
293	2016-05-31 16:29:03	0	0	0	0	0	0	10.17	0.95	0.02	304748	0	6940	194823	304748	297808	2881	32	10	1	186838	1837999	2924
294	2016-05-31 16:39:06	0	0	0	0	0	0	10.17	0.95	0.02	304751	0	6941	194823	304751	297810	2881	32	10	1	186838	1838034	2924
295	2016-05-31 16:49:05	0	0	0	0	0	0	10.16	0.95	0.02	304758	0	6941	194823	304758	297817	2881	32	10	1	186838	1838058	2924
296	2016-05-31 16:59:05	0	0	0	0	0	0	10.16	0.95	0.02	304762	0	6943	194823	304762	297819	2881	32	10	1	186838	1838085	2924
297	2016-05-31 17:09:06	0	0	0	0	0	0	10.16	0.95	0.02	304773	0	6945	194823	304773	297828	2881	32	10	1	186838	1838114	2924
298	2016-05-31 17:19:08	0	0	0	0	0	0	10.16	0.95	0.02	304781	0	6947	194823	304781	297834	2882	32	10	1	186838	1838149	2925
299	2016-05-31 17:29:05	0	0	0	0	0	0	10.16	0.95	0.02	304787	0	6947	194823	304787	297840	2882	32	10	1	186838	1838196	2925
300	2016-05-31 17:39:17	0	0	0	0	0	0	10.16	0.95	0.02	304791	0	6947	194823	304791	297844	2882	32	10	1	186838	1838231	2925
301	2016-05-31 17:49:21	0	0	0	0	0	0	10.16	0.95	0.02	304791	0	6947	194823	304791	297844	2882	32	10	1	186838	1838254	2925
302	2016-05-31 17:59:16	0	0	0	0	0	0	10.16	0.95	0.02	304799	0	6949	194823	304799	297850	2882	32	10	1	186838	1838279	2925
303	2016-05-31 18:09:12	0	0	0	0	0	0	10.16	0.95	0.02	304801	0	6949	194823	304801	297852	2882	32	10	1	186838	1838310	2925
304	2016-05-31 18:19:12	0	0	0	0	0	0	10.16	0.95	0.02	304814	0	6953	194823	304814	297861	2882	32	10	1	186838	1838349	2925
305	2016-05-31 18:29:15	0	0	0	0	0	0	10.16	0.95	0.02	304817	0	6953	194823	304817	297864	2882	32	10	1	186838	1838385	2925
306	2016-05-31 18:39:12	0	0	0	0	0	0	10.16	0.95	0.02	304821	0	6954	194823	304821	297867	2882	32	10	1	186838	1838419	2925
307	2016-05-31 18:49:15	0	0	0	0	0	0	10.16	0.95	0.02	304825	0	6956	194823	304825	297869	2882	32	10	1	186838	1838455	2925
308	2016-05-31 18:59:18	0	0	0	0	0	0	10.16	0.95	0.02	304828	0	6957	194823	304828	297871	2882	32	10	1	186838	1838489	2925
309	2016-05-31 19:09:17	0	0	0	0	0	0	10.16	0.95	0.02	304838	0	6958	194823	304838	297880	2882	32	10	1	186838	1838534	2925
310	2016-05-31 19:19:13	0	0	0	0	0	0	10.16	0.95	0.02	304840	0	6958	194823	304840	297882	2882	32	10	1	186838	1838576	2925
311	2016-05-31 19:29:13	0	0	0	0	0	0	10.16	0.95	0.02	304845	0	6958	194823	304845	297887	2882	32	10	1	186838	1838615	2925
312	2016-05-31 19:39:16	0	0	0	0	0	0	10.16	0.95	0.02	304851	0	6959	194823	304851	297892	2882	32	10	1	186838	1838655	2925
313	2016-05-31 19:49:17	0	0	0	0	0	0	10.16	0.95	0.02	304856	0	6959	194823	304856	297897	2882	32	10	1	186838	1838701	2925
314	2016-05-31 19:59:18	0	0	0	0	0	0	10.16	0.95	0.02	304858	0	6959	194823	304858	297899	2882	32	10	1	186838	1838733	2925
315	2016-05-31 20:09:16	0	0	0	0	0	0	10.16	0.95	0.02	304867	0	6960	194823	304867	297907	2882	32	10	1	186838	1838773	2925
316	2016-05-31 20:19:12	0	0	0	0	0	0	10.16	0.95	0.02	304870	0	6960	194823	304870	297910	2882	32	10	1	186838	1838804	2925
317	2016-05-31 20:29:15	0	0	0	0	0	0	10.16	0.95	0.02	304871	0	6961	194823	304871	297910	2882	32	10	1	186838	1838835	2925
318	2016-05-31 20:39:24	0	0	0	0	0	0	10.16	0.95	0.02	304877	0	6961	194823	304877	297916	2882	32	10	1	186838	1838885	2925
319	2016-05-31 20:49:41	0	0	0	0	0	0	10.16	0.95	0.02	304880	0	6961	194823	304880	297919	2882	32	10	1	186838	1838927	2925
320	2016-05-31 20:59:19	0	0	0	0	0	0	10.16	0.95	0.02	304890	0	6963	194823	304890	297927	2882	32	10	1	186838	1838967	2925
321	2016-05-31 21:09:31	0	0	0	0	0	0	10.16	0.95	0.02	304893	0	6963	194823	304893	297930	2882	32	10	1	186838	1839010	2925
322	2016-05-31 21:19:33	0	0	0	0	0	0	10.16	0.95	0.02	304899	0	6964	194872	304899	297935	2882	32	10	1	186883	1839050	2925
323	2016-05-31 21:29:17	0	0	0	0	0	0	10.16	0.95	0.02	304907	0	6966	194872	304907	297941	2882	32	10	1	186883	1839089	2925
324	2016-05-31 21:39:25	0	0	0	0	0	0	10.16	0.95	0.02	304914	0	6966	194872	304914	297948	2882	32	10	1	186883	1839134	2925
325	2016-05-31 21:49:19	0	0	0	0	0	0	10.16	0.95	0.02	304917	0	6966	194872	304917	297951	2882	32	10	1	186883	1839173	2925
326	2016-05-31 21:59:43	0	0	0	0	0	0	10.16	0.95	0.02	304924	0	6968	194872	304924	297956	2882	32	10	1	186883	1839222	2925
327	2016-05-31 22:09:16	0	0	0	0	0	0	10.16	0.95	0.02	304930	0	6970	194872	304930	297960	2882	32	10	1	186883	1839257	2925
328	2016-05-31 22:19:01	0	0	0	0	0	0	10.16	0.95	0.02	304939	0	6972	194872	304939	297967	2882	32	10	1	186883	1839305	2925
329	2016-05-31 22:28:58	0	0	0	0	0	0	10.16	0.95	0.02	304943	0	6973	194872	304943	297970	2882	32	10	1	186883	1839343	2925
330	2016-05-31 22:38:58	0	0	0	0	0	0	10.16	0.95	0.02	304957	0	6976	194872	304957	297981	2882	32	10	1	186883	1839370	2925
331	2016-05-31 22:48:58	0	0	0	0	0	0	10.16	0.95	0.02	304965	0	6977	194872	304965	297988	2882	32	10	1	186883	1839393	2925
332	2016-05-31 22:58:59	0	0	0	0	0	0	10.16	0.95	0.02	304969	0	6977	194872	304969	297992	2882	32	10	1	186883	1839417	2925
333	2016-05-31 23:08:57	0	0	0	0	0	0	10.16	0.94	0.02	304976	0	6977	194872	304976	297999	2882	32	10	1	186883	1839434	2925
334	2016-05-31 23:18:59	0	0	0	0	0	0	10.16	0.94	0.02	304979	0	6978	194872	304979	298001	2882	32	10	1	186883	1839449	2925
335	2016-05-31 23:28:57	0	0	0	0	0	0	10.16	0.94	0.02	304985	0	6978	194872	304985	298007	2882	32	10	1	186883	1839456	2925
336	2016-05-31 23:38:57	0	0	0	0	0	0	10.16	0.94	0.02	304989	0	6979	194872	304989	298010	2882	32	10	1	186883	1839468	2925
337	2016-05-31 23:48:58	0	0	0	0	0	0	10.16	0.94	0.02	304991	0	6980	194872	304991	298011	2882	32	10	1	186883	1839504	2925
338	2016-05-31 23:58:58	0	0	0	0	0	0	10.16	0.94	0.02	304998	0	6981	194872	304998	298017	2882	32	10	1	186883	1839539	2925
339	2016-06-01 00:08:58	0	0	0	0	0	0	10.16	0.94	0.02	305001	0	6981	194872	305001	298020	2882	32	10	1	186883	1839575	2925
340	2016-06-01 00:18:57	0	0	0	0	0	0	10.16	0.94	0.02	305005	0	6982	194872	305005	298023	2882	32	10	1	186883	1839596	2925
341	2016-06-01 00:28:57	0	0	0	0	0	0	10.16	0.94	0.02	305006	0	6982	194872	305006	298024	2882	32	10	1	186883	1839612	2925
342	2016-06-01 00:38:56	0	0	0	0	0	0	10.16	0.94	0.02	305011	0	6983	194872	305011	298028	2882	32	10	1	186883	1839628	2925
343	2016-06-01 00:48:58	0	0	0	0	0	0	10.16	0.95	0.02	305011	0	6983	194872	305011	298028	2883	32	10	1	186883	1839637	2926
344	2016-06-01 00:58:57	0	0	0	0	0	0	10.16	0.95	0.02	305015	0	6985	194872	305015	298030	2883	32	10	1	186883	1839644	2926
345	2016-06-01 01:08:57	0	0	0	0	0	0	10.16	0.95	0.02	305018	0	6986	194872	305018	298032	2883	32	10	1	186883	1839650	2926
346	2016-06-01 01:18:57	0	0	0	0	0	0	10.16	0.95	0.02	305018	0	6986	194872	305018	298032	2883	32	10	1	186883	1839657	2926
347	2016-06-01 01:28:57	0	0	0	0	0	0	10.16	0.95	0.02	305021	0	6986	194872	305021	298035	2883	32	10	1	186883	1839661	2926
348	2016-06-01 01:38:57	0	0	0	0	0	0	10.16	0.95	0.02	305021	0	6986	194872	305021	298035	2883	32	10	1	186883	1839671	2926
349	2016-06-01 01:48:58	0	0	0	0	0	0	10.16	0.95	0.02	305023	0	6987	194872	305023	298036	2883	32	10	1	186883	1839675	2926
350	2016-06-01 01:58:57	0	0	0	0	0	0	10.16	0.95	0.02	305025	0	6987	194872	305025	298038	2883	32	10	1	186883	1839677	2926
351	2016-06-01 02:08:59	0	0	0	0	0	0	10.17	0.95	0.02	305025	0	6987	194872	305025	298038	2883	32	10	1	186883	1837375	2926
352	2016-06-01 02:18:59	0	0	0	0	0	0	10.17	0.95	0.02	305026	0	6987	194872	305026	298039	2883	32	10	1	186883	1837381	2926
353	2016-06-01 02:28:59	0	0	0	0	0	0	10.17	0.95	0.02	305026	0	6987	194872	305026	298039	2883	32	10	1	186883	1837385	2926
354	2016-06-01 02:38:57	0	0	0	0	0	0	10.17	0.95	0.02	305026	0	6987	194872	305026	298039	2883	32	10	1	186883	1837388	2926
355	2016-06-01 02:48:57	0	0	0	0	0	0	10.17	0.95	0.02	305027	0	6987	194872	305027	298040	2883	32	10	1	186883	1837389	2926
356	2016-06-01 02:58:58	0	0	0	0	0	0	10.17	0.95	0.02	305028	0	6987	194872	305028	298041	2883	32	10	1	186883	1837393	2926
357	2016-06-01 03:08:58	0	0	0	0	0	0	10.17	0.95	0.02	305029	0	6987	194872	305029	298042	2883	32	10	1	186883	1837392	2926
358	2016-06-01 03:18:57	0	0	0	0	0	0	10.17	0.95	0.02	305029	0	6987	194872	305029	298042	2883	32	10	1	186883	1837393	2926
359	2016-06-01 03:28:58	0	0	0	0	0	0	10.17	0.95	0.02	305031	0	6987	194872	305031	298044	2883	32	10	1	186883	1837394	2926
360	2016-06-01 03:38:57	0	0	0	0	0	0	10.17	0.95	0.02	305032	0	6987	194872	305032	298045	2883	32	10	1	186883	1837397	2926
361	2016-06-01 03:48:57	0	0	0	0	0	0	10.17	0.95	0.02	305033	0	6987	194872	305033	298046	2883	32	10	1	186883	1837399	2926
362	2016-06-01 03:58:58	0	0	0	0	0	0	10.17	0.95	0.02	305033	0	6987	194872	305033	298046	2883	32	10	1	186883	1837401	2926
363	2016-06-01 04:08:59	0	0	0	0	0	0	10.17	0.95	0.02	305033	0	6987	194872	305033	298046	2883	32	10	1	186883	1837403	2926
364	2016-06-01 04:18:57	0	0	0	0	0	0	10.17	0.95	0.02	305033	0	6987	194872	305033	298046	2883	32	10	1	186883	1837405	2926
365	2016-06-01 04:28:58	0	0	0	0	0	0	10.17	0.95	0.02	305033	0	6987	194872	305033	298046	2883	32	10	1	186883	1837406	2926
366	2016-06-01 04:38:57	0	0	0	0	0	0	10.17	0.95	0.02	305033	0	6987	194872	305033	298046	2883	32	10	1	186883	1837409	2926
367	2016-06-01 04:48:58	0	0	0	0	0	0	10.17	0.95	0.02	305033	0	6987	194872	305033	298046	2883	32	10	1	186883	1837411	2926
368	2016-06-01 04:58:58	0	0	0	0	0	0	10.17	0.95	0.02	305033	0	6987	194872	305033	298046	2883	32	10	1	186883	1837410	2926
369	2016-06-01 05:08:57	0	0	0	0	0	0	10.17	0.95	0.02	305033	0	6987	194872	305033	298046	2883	32	10	1	186883	1837411	2926
370	2016-06-01 05:18:58	0	0	0	0	0	0	10.17	0.95	0.02	305035	0	6987	194872	305035	298048	2883	32	10	1	186883	1837411	2926
371	2016-06-01 05:28:58	0	0	0	0	0	0	10.17	0.95	0.02	305035	0	6987	194872	305035	298048	2883	32	10	1	186883	1837412	2926
372	2016-06-01 05:38:58	0	0	0	0	0	0	10.17	0.95	0.02	305035	0	6987	194872	305035	298048	2883	32	10	1	186883	1837415	2926
373	2016-06-01 05:48:59	0	0	0	0	0	0	10.17	0.95	0.02	305036	0	6987	194872	305036	298049	2883	32	10	1	186883	1837419	2926
374	2016-06-01 05:58:58	0	0	0	0	0	0	10.17	0.95	0.02	305036	0	6987	194872	305036	298049	2883	32	10	1	186883	1837422	2926
375	2016-06-01 06:08:58	0	0	0	0	0	0	10.17	0.95	0.02	305036	0	6987	194872	305036	298049	2883	32	10	1	186883	1837427	2926
376	2016-06-01 06:18:58	0	0	0	0	0	0	10.17	0.95	0.02	305036	0	6987	194872	305036	298049	2883	32	10	1	186883	1837428	2926
377	2016-06-01 06:28:59	0	0	0	0	0	0	10.17	0.95	0.02	305036	0	6987	194872	305036	298049	2883	32	10	1	186883	1837433	2926
378	2016-06-01 06:38:58	0	0	0	0	0	0	10.17	0.95	0.02	305036	0	6987	194872	305036	298049	2883	32	10	1	186883	1837439	2926
379	2016-06-01 06:48:58	0	0	0	0	0	0	10.17	0.95	0.02	305036	0	6987	194872	305036	298049	2883	32	10	1	186883	1837443	2926
380	2016-06-01 06:58:59	0	0	0	0	0	0	10.17	0.95	0.02	305036	0	6987	194872	305036	298049	2883	32	10	1	186883	1837447	2926
381	2016-06-01 07:09:00	0	0	0	0	0	0	10.17	0.95	0.02	305037	0	6988	194872	305037	298049	2883	32	10	1	186883	1837455	2926
382	2016-06-01 07:19:00	0	0	0	0	0	0	10.17	0.95	0.02	305039	0	6989	194872	305039	298050	2883	32	10	1	186883	1837462	2926
383	2016-06-01 07:28:59	0	0	0	0	0	0	10.17	0.95	0.02	305040	0	6990	194872	305040	298050	2883	32	10	1	186883	1837471	2926
384	2016-06-01 07:39:00	0	0	0	0	0	0	10.17	0.95	0.02	305043	0	6992	194872	305043	298051	2883	32	10	1	186883	1837482	2926
385	2016-06-01 07:48:59	0	0	0	0	0	0	10.17	0.95	0.02	305043	0	6992	194872	305043	298051	2883	32	10	1	186883	1837489	2926
386	2016-06-01 07:58:59	0	0	0	0	0	0	10.17	0.95	0.02	305043	0	6992	194872	305043	298051	2883	32	10	1	186883	1837498	2926
387	2016-06-01 08:09:01	0	0	0	0	0	0	10.17	0.95	0.02	305046	0	6994	194872	305046	298052	2883	32	10	1	186883	1837507	2926
388	2016-06-01 08:18:59	0	0	0	0	0	0	10.17	0.95	0.02	305048	0	6995	194872	305048	298053	2883	32	10	1	186883	1837518	2926
389	2016-06-01 08:29:00	0	0	0	0	0	0	10.17	0.95	0.02	305051	0	6995	194872	305051	298056	2884	32	10	1	186883	1837525	2927
390	2016-06-01 08:39:00	0	0	0	0	0	0	10.17	0.95	0.02	305055	0	6996	194872	305055	298059	2884	32	10	1	186883	1837534	2927
391	2016-06-01 08:48:59	0	0	0	0	0	0	10.17	0.95	0.02	305055	0	6996	194872	305055	298059	2884	32	10	1	186883	1837543	2927
