1	2016-01-08 20:21:54	0	0	0	0	0	0	0.73	0.7	0	12940	0	24	10466	12940	12916	91	4	33	1	10366	1415108	129
2	2016-01-08 20:31:54	0	0	0	0	0	0	1.47	0.9	0.01	27669	0	171	21134	27669	27498	250	16	85	4	20799	1415143	355
3	2016-01-08 20:41:54	0	0	0	0	0	0	1.71	0.94	0.01	33257	0	274	24605	33257	32983	312	25	105	5	24156	1415193	447
4	2016-01-08 20:51:54	0	0	0	0	0	0	1.71	0.94	0.01	33257	0	274	24605	33257	32983	312	25	105	5	24156	1415239	447
5	2016-01-08 21:01:55	0	0	0	0	0	0	2.5	1.01	0.02	50683	0	907	36510	50683	49776	510	42	151	13	35422	1415272	716
6	2016-01-08 21:11:55	0	0	0	0	0	0	2.68	1.02	0.02	55202	0	1107	39253	55202	54095	561	43	164	13	37959	1415308	781
7	2016-01-08 21:21:55	0	0	0	0	0	0	3.02	1.17	0.02	55202	0	1107	44242	55202	54095	648	51	189	14	42688	1415346	902
8	2016-01-08 21:31:55	0	0	0	0	0	0	3.27	0.94	0.03	68748	0	1972	44242	68748	66776	648	51	189	14	46261	1415394	902
9	2016-01-08 21:41:54	0	0	0	0	0	0	3.27	1.13	0.03	68748	0	1972	50105	68748	66776	776	60	226	14	46261	1415442	1076
10	2016-01-08 21:51:54	0	0	0	0	0	0	3.65	1.04	0.03	77098	0	2485	53898	77098	74613	803	65	246	15	51685	1415480	1129
11	2016-01-08 22:01:55	0	0	0	0	0	0	3.83	1.05	0.04	82179	0	2843	56927	82179	79336	860	70	258	15	54239	1415517	1203
12	2016-01-08 22:11:56	0	0	0	0	0	0	4.03	1.06	0.04	86228	0	3168	60218	86228	83060	911	71	265	17	56979	1415544	1264
13	2016-01-08 22:21:55	0	0	0	0	0	0	4.03	1.06	0.04	86228	0	3168	60218	86228	83060	911	71	265	17	56979	1415587	1264
14	2016-01-08 22:31:55	0	0	0	0	0	0	4.35	1.04	0.04	93493	0	3734	65357	93493	89759	974	74	284	17	61518	1415614	1349
15	2016-01-08 22:41:55	0	0	0	0	0	0	4.35	1.04	0.04	93493	0	3734	65357	93493	89759	974	74	284	17	61518	1415651	1349
16	2016-01-08 22:51:55	0	0	0	0	0	0	4.69	1.04	0.04	102115	0	4383	70891	102115	97732	1059	78	314	18	66412	1415689	1469
17	2016-01-08 23:01:55	0	0	0	0	0	0	4.79	1.02	0.05	104334	0	4551	70891	104334	99783	1059	80	321	18	67773	1415720	1478
18	2016-01-08 23:11:55	0	0	0	0	0	0	4.79	1.07	0.05	104334	0	4551	74567	104334	99783	1115	80	321	18	67773	1415751	1534
19	2016-01-08 23:21:55	0	0	0	0	0	0	5.08	1.03	0.05	111346	0	5052	76699	111346	106294	1150	83	350	18	71870	1415793	1601
20	2016-01-08 23:31:56	0	0	0	0	0	0	5.15	1.03	0.05	113055	0	5189	77870	113055	107866	1165	84	358	18	72870	1415822	1625
21	2016-01-08 23:41:56	0	0	0	0	0	0	5.33	1	0.05	116607	0	5442	80779	116607	111165	1165	85	365	18	75514	1415854	1633
22	2016-01-08 23:51:56	0	0	0	0	0	0	5.46	1.01	0.05	120095	0	5736	83115	120095	114359	1211	86	374	19	77284	1415892	1690
23	2016-01-09 00:01:55	0	0	0	0	0	0	5.46	1.01	0.05	120095	0	5736	83115	120095	114359	1211	86	374	19	77284	1415913	1690
24	2016-01-09 00:11:56	0	0	0	0	0	0	5.66	1.01	0.05	124316	0	6067	86105	124316	118249	1256	87	386	19	80120	1415962	1748
25	2016-01-09 00:21:56	0	0	0	0	0	0	5.78	1.01	0.05	127200	0	6309	88244	127200	120891	1283	90	400	20	81800	1415994	1793
26	2016-01-09 00:31:55	0	0	0	0	0	0	5.78	1.01	0.05	127200	0	6309	88244	127200	120891	1283	90	400	20	81800	1416021	1793
27	2016-01-09 00:41:56	0	0	0	0	0	0	5.97	1.01	0.05	131459	0	6627	90769	131459	124832	1326	94	410	21	84480	1416043	1851
28	2016-01-09 00:51:56	0	0	0	0	0	0	6.08	1.01	0.05	133984	0	6836	92496	133984	127148	1355	94	414	21	86041	1416071	1884
29	2016-01-09 01:01:55	0	0	0	0	0	0	6.08	1.01	0.05	133984	0	6836	92496	133984	127148	1355	94	414	21	86041	1416101	1884
30	2016-01-09 01:11:55	0	0	0	0	0	0	6.22	1	0.05	138299	0	7122	95129	138299	131177	1378	94	428	22	88134	1416120	1922
31	2016-01-09 01:21:55	0	0	0	0	0	0	6.29	1	0.05	139516	0	7200	96293	139516	132316	1400	95	436	22	89009	1416141	1953
32	2016-01-09 01:31:56	0	0	0	0	0	0	6.37	1	0.05	141584	0	7340	97391	141584	134244	1419	99	446	22	90219	1416157	1986
33	2016-01-09 01:41:56	0	0	0	0	0	0	6.46	1	0.05	143446	0	7448	99011	143446	135998	1431	100	451	22	91421	1416174	2004
34	2016-01-09 01:51:55	0	0	0	0	0	0	6.47	1	0.05	144293	0	7495	99295	144293	136798	1442	101	453	22	91685	1416187	2018
35	2016-01-09 02:01:55	0	0	0	0	0	0	6.56	1	0.05	146212	0	7611	100660	146212	138601	1458	101	461	22	92937	1416193	2042
36	2016-01-09 02:11:55	0	0	0	0	0	0	6.6	0.99	0.06	147840	0	7711	101117	147840	140129	1469	101	465	22	93461	1416209	2057
37	2016-01-09 02:21:55	0	0	0	0	0	0	6.66	0.99	0.06	148700	0	7762	102300	148700	140938	1478	101	468	22	94307	1416228	2069
38	2016-01-09 02:31:56	0	0	0	0	0	0	6.7	0.99	0.06	150082	0	7846	102984	150082	142236	1487	102	471	22	94888	1416238	2082
39	2016-01-09 02:41:56	0	0	0	0	0	0	6.76	0.99	0.06	151352	0	7917	103794	151352	143435	1496	102	473	22	95682	1416248	2093
40	2016-01-09 02:51:56	0	0	0	0	0	0	6.78	0.99	0.06	152002	0	7969	104122	152002	144033	1503	102	475	22	95961	1416257	2102
41	2016-01-09 03:01:55	0	0	0	0	0	0	6.84	0.99	0.06	153003	0	8038	105261	153003	144965	1511	102	477	22	96830	1416454	2112
42	2016-01-09 03:11:56	0	0	0	0	0	0	6.91	0.98	0.06	153969	0	8089	106539	153969	145880	1513	102	478	22	97892	1416464	2115
43	2016-01-09 03:21:55	0	0	0	0	0	0	6.91	0.99	0.06	153969	0	8089	106539	153969	145880	1518	102	478	22	97892	1416466	2120
44	2016-01-09 03:31:55	0	0	0	0	0	0	6.99	0.98	0.06	155367	0	8169	107712	155367	147198	1518	103	483	22	98989	1416476	2126
45	2016-01-09 03:41:56	0	0	0	0	0	0	7	0.98	0.06	155771	0	8193	108066	155771	147578	1529	103	484	22	99097	1416482	2138
46	2016-01-09 03:51:56	0	0	0	0	0	0	7.03	0.98	0.06	156555	0	8243	108672	156555	148312	1533	103	485	22	99562	1416488	2143
47	2016-01-09 04:01:55	0	0	0	0	0	0	7.03	0.98	0.06	156555	0	8243	108672	156555	148312	1533	103	485	22	99562	1416492	2143
48	2016-01-09 04:11:55	0	0	0	0	0	0	7.04	0.98	0.06	157466	0	8298	108859	157466	149168	1540	103	487	22	99719	1416493	2152
49	2016-01-09 04:21:56	0	0	0	0	0	0	7.06	0.98	0.06	158068	0	8339	109089	158068	149729	1544	103	487	22	100016	1416501	2156
50	2016-01-09 04:31:56	0	0	0	0	0	0	7.09	0.98	0.06	158550	0	8370	109535	158550	150180	1547	103	488	22	100494	1416509	2160
51	2016-01-09 04:41:56	0	0	0	0	0	0	7.1	0.98	0.06	158750	0	8391	109597	158750	150359	1549	103	488	22	100547	1416514	2162
52	2016-01-09 04:51:55	0	0	0	0	0	0	7.1	0.98	0.06	158750	0	8391	109597	158750	150359	1549	103	488	22	100547	1416517	2162
53	2016-01-09 05:01:55	0	0	0	0	0	0	7.14	0.98	0.06	159615	0	8452	110237	159615	151163	1559	104	489	22	101072	1416520	2174
54	2016-01-09 05:11:55	0	0	0	0	0	0	7.14	0.98	0.06	159843	0	8466	110265	159843	151377	1561	104	489	22	101095	1416525	2176
55	2016-01-09 05:21:55	0	0	0	0	0	0	7.14	0.98	0.06	159843	0	8466	110265	159843	151377	1561	104	489	22	101095	1416527	2176
56	2016-01-09 05:31:55	0	0	0	0	0	0	7.17	0.98	0.06	160354	0	8518	110746	160354	151836	1565	104	489	22	101499	1416530	2180
57	2016-01-09 05:41:55	0	0	0	0	0	0	7.17	0.98	0.06	160694	0	8555	110825	160694	151836	1571	104	492	22	101552	1416534	2189
58	2016-01-09 05:51:56	0	0	0	0	0	0	7.18	0.98	0.06	161000	0	8584	111016	161000	152416	1572	104	493	22	101713	1416536	2191
59	2016-01-09 06:01:55	0	0	0	0	0	0	7.18	0.98	0.06	161000	0	8584	111016	161000	152416	1572	104	493	22	101713	1416542	2191
60	2016-01-09 06:11:56	0	0	0	0	0	0	7.2	0.98	0.06	161376	0	8619	111343	161376	152757	1575	104	493	22	101987	1416546	2194
61	2016-01-09 06:21:56	0	0	0	0	0	0	7.2	0.98	0.06	161376	0	8619	111343	161376	152757	1575	104	493	22	101987	1416550	2194
62	2016-01-09 06:31:56	0	0	0	0	0	0	7.21	0.98	0.06	161875	0	8665	111632	161875	153210	1581	104	496	22	102149	1416552	2203
63	2016-01-09 06:41:56	0	0	0	0	0	0	7.23	0.98	0.06	162138	0	8691	111681	162138	153447	1582	104	496	22	102351	1416553	2204
64	2016-01-09 06:51:56	0	0	0	0	0	0	7.23	0.97	0.06	162401	0	8716	112321	162401	153685	1582	104	496	22	102351	1416559	2204
65	2016-01-09 07:01:56	0	0	0	0	0	0	7.25	0.97	0.06	162401	0	8732	112361	162401	153808	1583	104	496	22	102711	1416559	2205
66	2016-01-09 07:11:55	0	0	0	0	0	0	7.25	0.97	0.06	162786	0	8732	112361	162786	153808	1583	104	496	22	102711	1416563	2205
67	2016-01-09 07:21:56	0	0	0	0	0	0	7.27	0.97	0.06	163050	0	8772	112637	163050	154278	1585	104	497	22	102983	1416568	2208
68	2016-01-09 07:31:55	0	0	0	0	0	0	7.27	0.97	0.06	163175	0	8788	112711	163175	154387	1586	104	497	22	103038	1416574	2209
69	2016-01-09 07:41:56	0	0	0	0	0	0	7.32	0.97	0.06	163543	0	8827	112925	163543	154716	1590	104	499	22	103631	1416576	2215
70	2016-01-09 07:51:55	0	0	0	0	0	0	7.33	0.97	0.06	163889	0	8866	113106	163889	155023	1590	104	499	22	103895	1416578	2215
71	2016-01-09 08:01:56	0	0	0	0	0	0	7.34	0.97	0.06	164078	0	8884	113106	164078	155194	1590	104	500	22	104007	1416580	2216
72	2016-01-09 08:11:55	0	0	0	0	0	0	7.34	0.97	0.06	164078	0	8884	113106	164078	155194	1590	104	500	22	104007	1416584	2216
73	2016-01-09 08:21:56	0	0	0	0	0	0	7.4	0.97	0.06	165016	0	8982	113989	165016	156034	1595	104	503	22	104866	1416587	2224
74	2016-01-09 08:31:56	0	0	0	0	0	0	7.41	0.97	0.06	165546	0	9030	114124	165546	156516	1598	105	504	22	104980	1416595	2229
75	2016-01-09 08:41:55	0	0	0	0	0	0	7.41	0.97	0.06	165546	0	9030	114124	165546	156516	1598	105	504	22	104980	1416603	2229
76	2016-01-09 08:51:56	0	0	0	0	0	0	7.44	0.97	0.06	166567	0	9147	114609	166567	157420	1611	106	507	22	105448	1416614	2246
77	2016-01-09 09:01:56	0	0	0	0	0	0	7.44	0.96	0.06	167360	0	9147	115192	167360	158120	1612	106	509	23	105448	1416619	2250
78	2016-01-09 09:11:56	0	0	0	0	0	0	7.48	0.97	0.06	167866	0	9284	115364	167866	158582	1621	107	512	23	105974	1416624	2263
79	2016-01-09 09:21:56	0	0	0	0	0	0	7.53	0.97	0.06	168874	0	9399	116191	168874	159475	1630	109	513	24	106716	1416634	2276
80	2016-01-09 09:31:56	0	0	0	0	0	0	7.57	0.97	0.06	169481	0	9478	116624	169481	160003	1636	109	513	26	107207	1416642	2284
81	2016-01-09 09:41:56	0	0	0	0	0	0	7.6	0.97	0.06	170431	0	9579	116941	170431	160852	1655	109	514	26	107714	1416656	2304
82	2016-01-09 09:51:56	0	0	0	0	0	0	7.65	0.97	0.06	171496	0	9688	117687	171496	161808	1665	110	515	26	108415	1416668	2316
83	2016-01-09 10:01:56	0	0	0	0	0	0	7.7	0.97	0.06	172134	0	9753	118298	172134	162381	1671	110	517	26	109048	1416691	2324
84	2016-01-09 10:11:55	0	0	0	0	0	0	7.77	0.97	0.06	173267	0	9861	119318	173267	163406	1680	112	520	26	110118	1416702	2338
85	2016-01-09 10:21:56	0	0	0	0	0	0	7.79	0.97	0.06	174454	0	9971	119473	174454	164483	1694	112	521	26	110371	1416720	2353
86	2016-01-09 10:31:56	0	0	0	0	0	0	7.86	0.97	0.06	175509	0	10081	119473	175509	164483	1694	112	521	26	111326	1416733	2353
87	2016-01-09 10:41:56	0	0	0	0	0	0	7.9	0.97	0.06	176233	0	10138	121116	176233	166095	1716	113	524	26	111854	1416748	2379
88	2016-01-09 10:51:55	0	0	0	0	0	0	7.89	0.98	0.06	176233	0	10138	121116	176233	166095	1731	113	524	26	111854	1416773	2394
89	2016-01-09 11:01:56	0	0	0	0	0	0	7.98	0.98	0.06	178716	0	10375	122531	178716	168341	1745	114	529	26	113126	1416785	2414
90	2016-01-09 11:11:56	0	0	0	0	0	0	8.01	0.98	0.06	179367	0	10444	122969	179367	168923	1758	114	529	26	113432	1416807	2427
91	2016-01-09 11:21:57	0	0	0	0	0	0	8.08	0.98	0.06	180502	0	10562	124056	180502	169940	1773	115	530	27	114508	1416822	2445
92	2016-01-09 11:31:56	0	0	0	0	0	0	8.08	0.98	0.06	180502	0	10562	124056	180502	169940	1773	115	530	27	114508	1416843	2445
93	2016-01-09 11:41:55	0	0	0	0	0	0	8.14	0.98	0.06	182265	0	10760	125028	182265	171505	1791	116	532	28	115301	1416862	2467
94	2016-01-09 11:51:57	0	0	0	0	0	0	8.19	0.98	0.06	183324	0	10883	125850	183324	172441	1803	117	535	28	116001	1416874	2483
95	2016-01-09 12:01:56	0	0	0	0	0	0	8.23	0.99	0.06	184384	0	10992	126607	184384	173392	1818	117	536	28	116590	1416890	2499
96	2016-01-09 12:11:55	0	0	0	0	0	0	8.23	0.99	0.06	184384	0	10992	126607	184384	173392	1818	117	536	28	116590	1416907	2499
97	2016-01-09 12:21:56	0	0	0	0	0	0	8.27	0.99	0.06	186096	0	11213	127438	186096	174883	1836	119	538	28	117162	1416927	2521
98	2016-01-09 12:31:56	0	0	0	0	0	0	8.29	0.99	0.06	187179	0	11350	127854	187179	175829	1849	119	541	28	117478	1416947	2537
99	2016-01-09 12:41:56	0	0	0	0	0	0	8.3	0.99	0.06	187589	0	11399	128055	187589	176190	1854	119	541	28	117647	1416965	2542
100	2016-01-09 12:51:56	0	0	0	0	0	0	8.33	0.99	0.06	188617	0	11508	128576	188617	177109	1865	119	541	28	118087	1416976	2553
101	2016-01-09 13:01:56	0	0	0	0	0	0	8.38	0.99	0.07	189660	0	11623	129375	189660	178037	1877	119	543	29	118724	1416990	2568
102	2016-01-09 13:11:56	0	0	0	0	0	0	8.38	0.99	0.07	189660	0	11623	129375	189660	178037	1877	119	543	29	118724	1416996	2568
103	2016-01-09 13:21:56	0	0	0	0	0	0	8.42	0.99	0.07	191087	0	11781	129576	191087	179306	1895	120	547	30	119296	1417006	2592
104	2016-01-09 13:31:56	0	0	0	0	0	0	8.51	0.99	0.07	192185	0	11935	131361	192185	180250	1912	120	550	31	120619	1417022	2613
105	2016-01-09 13:41:57	0	0	0	0	0	0	8.52	1	0.07	193151	0	12049	131674	193151	181102	1922	120	550	32	120732	1417051	2624
106	2016-01-09 13:51:58	0	0	0	0	0	0	8.53	0.99	0.07	193627	0	12102	131966	193627	181525	1925	120	550	32	120921	1417066	2627
107	2016-01-09 14:01:57	0	0	0	0	0	0	8.58	0.99	0.07	194715	0	12266	132556	194715	182449	1935	121	553	33	121531	1417090	2642
108	2016-01-09 14:11:57	0	0	0	0	0	0	8.58	0.99	0.07	194715	0	12266	132556	194715	182449	1935	121	553	33	121531	1417114	2642
109	2016-01-09 14:21:57	0	0	0	0	0	0	8.59	0.99	0.07	196036	0	12449	132800	196036	183587	1944	122	556	34	121698	1417134	2656
110	2016-01-09 14:31:58	0	0	0	0	0	0	8.62	0.99	0.07	196884	0	12555	133528	196884	184329	1949	122	557	34	122212	1417158	2662
111	2016-01-09 14:41:58	0	0	0	0	0	0	8.64	0.99	0.07	197353	0	12608	133805	197353	184745	1953	123	559	34	122444	1417172	2669
112	2016-01-09 14:51:58	0	0	0	0	0	0	8.65	0.99	0.07	198285	0	12694	134216	198285	185591	1959	123	564	34	122633	1417194	2680
113	2016-01-09 15:01:58	0	0	0	0	0	0	8.66	0.99	0.07	198691	0	12733	134350	198691	185958	1963	123	564	34	122745	1417210	2684
114	2016-01-09 15:11:58	0	0	0	0	0	0	8.73	0.99	0.07	199611	0	12825	135591	199611	186786	1972	123	566	34	123780	1417233	2695
115	2016-01-09 15:21:59	0	0	0	0	0	0	8.74	0.99	0.07	200310	0	12896	135636	200310	187414	1978	123	567	34	123817	1417257	2702
116	2016-01-09 15:31:59	0	0	0	0	0	0	8.78	0.99	0.07	201110	0	12975	136152	201110	188135	1987	123	568	34	124477	1417278	2712
117	2016-01-09 15:41:59	0	0	0	0	0	0	8.78	0.99	0.07	201110	0	12975	136152	201110	188135	1987	123	568	34	124477	1417298	2712
118	2016-01-09 15:51:59	0	0	0	0	0	0	8.8	0.99	0.07	202272	0	13094	136320	202272	189178	2005	124	569	34	124677	1417313	2732
119	2016-01-09 16:01:59	0	0	0	0	0	0	8.84	0.99	0.07	202997	0	13172	136862	202997	189825	2013	124	569	35	125293	1417329	2741
120	2016-01-09 16:11:59	0	0	0	0	0	0	8.84	0.99	0.07	202997	0	13172	136862	202997	189825	2013	124	569	35	125293	1417353	2741
121	2016-01-09 16:21:59	0	0	0	0	0	0	8.89	0.99	0.07	204022	0	13303	137800	204022	190719	2022	125	570	35	125965	1417370	2752
122	2016-01-09 16:31:59	0	0	0	0	0	0	8.92	0.99	0.07	204762	0	13387	138064	204762	191375	2025	125	574	35	126464	1417384	2759
123	2016-01-09 16:41:59	0	0	0	0	0	0	8.92	0.99	0.07	204762	0	13387	138379	204762	191375	2025	125	574	35	126464	1417398	2759
124	2016-01-09 16:51:59	0	0	0	0	0	0	8.93	0.99	0.07	205917	0	13498	138478	205917	192419	2033	126	578	35	126630	1417411	2772
125	2016-01-09 17:01:59	0	0	0	0	0	0	8.94	0.99	0.07	206288	0	13535	138528	206288	192753	2035	126	578	35	126713	1417427	2774
126	2016-01-09 17:11:59	0	0	0	0	0	0	8.94	0.99	0.07	206288	0	13535	138528	206288	192753	2035	126	578	35	126713	1417441	2774
127	2016-01-09 17:22:00	0	0	0	0	0	0	8.99	0.99	0.07	207609	0	13636	139482	207609	193973	2052	126	582	35	127469	1417452	2795
128	2016-01-09 17:31:59	0	0	0	0	0	0	8.99	0.99	0.07	207849	0	13661	139482	207849	194188	2057	126	582	35	127469	1417466	2800
129	2016-01-09 17:42:00	0	0	0	0	0	0	9.02	0.99	0.07	208494	0	13707	139796	208494	194787	2064	128	583	35	127805	1417478	2810
130	2016-01-09 18:02:00	0	0	0	0	0	0	9.06	0.99	0.07	209415	0	13810	140618	209415	195605	2075	128	586	35	128364	1417504	2824
131	2016-01-09 18:12:00	0	0	0	0	0	0	9.1	0.99	0.07	209967	0	13872	141337	209967	196095	2080	128	587	35	128946	1417520	2830
132	2016-01-09 18:22:00	0	0	0	0	0	0	9.1	0.99	0.07	209967	0	13872	141337	209967	196095	2080	128	587	35	128946	1417541	2830
133	2016-01-09 18:32:00	0	0	0	0	0	0	9.13	0.99	0.07	211012	0	13991	141975	211012	197021	2088	128	588	35	129413	1417553	2839
134	2016-01-09 18:41:59	0	0	0	0	0	0	9.15	0.99	0.07	211318	0	14016	142223	211318	197302	2088	128	588	35	129745	1417573	2839
135	2016-01-09 18:52:01	0	0	0	0	0	0	9.18	0.99	0.07	211963	0	14079	142524	211963	197884	2098	128	590	35	130083	1417589	2851
136	2016-01-09 19:02:00	0	0	0	0	0	0	9.18	0.99	0.07	211963	0	14079	142524	211963	197884	2098	128	590	35	130083	1417606	2851
137	2016-01-09 19:12:02	0	0	0	0	0	0	9.19	0.99	0.07	212786	0	14181	142760	212786	198605	2108	129	590	35	130214	1417623	2862
138	2016-01-09 19:22:00	0	0	0	0	0	0	9.19	0.99	0.07	212786	0	14181	142760	212786	198605	2108	129	590	35	130214	1417639	2862
139	2016-01-09 19:32:01	0	0	0	0	0	0	9.27	0.99	0.07	213794	0	14326	144297	213794	199468	2120	130	591	35	131402	1417653	2876
140	2016-01-09 19:42:00	0	0	0	0	0	0	9.27	0.99	0.07	213794	0	14326	144297	213794	199468	2120	130	591	35	131402	1417661	2876
141	2016-01-09 19:52:00	0	0	0	0	0	0	9.3	0.99	0.07	215085	0	14457	144973	215085	200628	2134	131	596	35	131850	1417676	2896
142	2016-01-09 20:02:01	0	0	0	0	0	0	9.32	0.99	0.07	215438	0	14502	145409	215438	200936	2138	131	597	35	132120	1417688	2901
143	2016-01-09 20:12:00	0	0	0	0	0	0	9.34	0.99	0.07	216055	0	14576	145864	216055	201479	2145	131	597	35	132476	1417699	2908
144	2016-01-09 20:22:00	0	0	0	0	0	0	9.35	0.99	0.07	216388	0	14605	145947	216388	201783	2149	131	598	35	132567	1417702	2913
145	2016-01-09 20:32:02	0	0	0	0	0	0	9.37	0.99	0.07	217005	0	14676	146511	217005	202329	2159	131	602	35	132874	1417719	2927
146	2016-01-09 20:42:00	0	0	0	0	0	0	9.37	0.99	0.07	217005	0	14676	146511	217005	202329	2159	131	602	35	132874	1417738	2927
147	2016-01-09 20:52:01	0	0	0	0	0	0	9.39	0.99	0.07	218301	0	14814	146810	218301	203487	2169	131	603	35	133119	1417744	2938
148	2016-01-09 21:02:02	0	0	0	0	0	0	9.39	0.99	0.07	218609	0	14846	146810	218609	203763	2171	131	604	35	133119	1417755	2941
149	2016-01-09 21:12:00	0	0	0	0	0	0	9.39	0.99	0.07	218609	0	14846	146810	218609	203763	2171	131	604	35	133119	1417771	2941
150	2016-01-09 21:22:02	0	0	0	0	0	0	9.49	0.99	0.07	219738	0	14980	148550	219738	204758	2178	132	606	35	134548	1417774	2951
151	2016-01-09 21:32:02	0	0	0	0	0	0	9.5	0.99	0.07	219738	0	14980	148550	219738	205159	2184	132	606	35	134636	1417780	2957
152	2016-01-09 21:42:02	0	0	0	0	0	0	9.5	0.99	0.07	220508	0	15087	148771	220508	205421	2188	132	608	36	134730	1417809	2964
153	2016-01-09 21:52:01	0	0	0	0	0	0	9.54	0.99	0.07	221045	0	15129	149531	221045	205916	2196	132	610	36	135270	1417838	2974
154	2016-01-09 22:02:02	0	0	0	0	0	0	9.55	1	0.07	221602	0	15197	149820	221602	206405	2205	132	612	36	135412	1417860	2985
155	2016-01-09 22:12:03	0	0	0	0	0	0	9.57	0.99	0.07	221871	0	15227	150111	221871	206644	2207	132	612	36	135649	1417883	2987
156	2016-01-09 22:22:02	0	0	0	0	0	0	9.57	0.99	0.07	221871	0	15227	150111	221871	206644	2207	132	612	36	135649	1417914	2987
157	2016-01-09 22:32:02	0	0	0	0	0	0	9.62	1	0.07	222876	0	15338	151052	222876	207538	2223	132	613	36	136372	1417939	3004
158	2016-01-09 22:42:02	0	0	0	0	0	0	9.62	1	0.07	222876	0	15338	151052	222876	207538	2223	132	613	36	136372	1417972	3004
159	2016-01-09 22:52:02	0	0	0	0	0	0	9.65	1	0.07	223639	0	15419	151706	223639	208220	2230	132	613	36	136887	1418012	3011
160	2016-01-09 23:02:02	0	0	0	0	0	0	9.65	1	0.07	224033	0	15471	151706	224033	208562	2232	133	615	36	136887	1418038	3016
161	2016-01-09 23:12:02	0	0	0	0	0	0	9.65	1	0.07	224033	0	15471	151706	224033	208562	2232	133	615	36	136887	1418061	3016
162	2016-01-09 23:22:03	0	0	0	0	0	0	9.67	1	0.07	224634	0	15543	152004	224634	209091	2236	133	615	36	137129	1418081	3020
163	2016-01-09 23:32:03	0	0	0	0	0	0	9.7	1	0.07	225094	0	15613	152333	225094	209481	2243	133	619	37	137531	1418106	3032
164	2016-01-09 23:42:02	0	0	0	0	0	0	9.7	1	0.07	225094	0	15613	152333	225094	209481	2243	133	619	37	137531	1418140	3032
165	2016-01-09 23:52:02	0	0	0	0	0	0	9.71	1	0.07	225674	0	15668	152701	225674	210006	2248	133	623	37	137745	1418182	3041
166	2016-01-10 00:02:03	0	0	0	0	0	0	9.74	0.99	0.07	226044	0	15713	152821	226044	210331	2249	133	624	37	138089	1418211	3043
167	2016-01-10 00:12:02	0	0	0	0	0	0	9.74	0.99	0.07	226044	0	15713	152821	226044	210331	2249	133	624	37	138089	1418230	3043
168	2016-01-10 00:21:59	0	0	0	0	0	0	9.77	0.99	0.07	226554	0	15780	153078	226554	210774	2254	133	627	37	138497	1418255	3051
169	2016-01-10 00:32:03	0	0	0	0	0	0	9.79	1	0.07	226869	0	15813	153241	226869	211056	2259	133	627	37	138779	1418274	3056
170	2016-01-10 00:42:02	0	0	0	0	0	0	9.78	1	0.07	226869	0	15813	153241	226869	211056	2259	133	627	37	138779	1418299	3056
171	2016-01-10 00:52:02	0	0	0	0	0	0	9.79	1	0.07	227319	0	15854	153363	227319	211465	2264	133	628	37	138829	1418312	3062
172	2016-01-10 01:02:02	0	0	0	0	0	0	9.8	1	0.08	227631	0	15883	153637	227631	211748	2272	133	629	37	139054	1418325	3071
173	2016-01-10 01:12:02	0	0	0	0	0	0	9.81	1	0.08	227918	0	15909	153637	227918	212009	2274	133	630	37	139204	1418353	3074
174	2016-01-10 01:22:03	0	0	0	0	0	0	9.81	1	0.08	228064	0	15924	153637	228064	212140	2279	133	630	37	139204	1418378	3079
175	2016-01-10 01:32:02	0	0	0	0	0	0	9.81	1	0.08	228064	0	15924	153637	228064	212140	2283	133	630	37	139204	1418399	3083
176	2016-01-10 01:42:02	0	0	0	0	0	0	9.86	1	0.08	228530	0	15971	154103	228530	212559	2285	133	631	37	139820	1418423	3086
177	2016-01-10 01:52:02	0	0	0	0	0	0	9.86	1	0.08	228622	0	15985	154103	228622	212637	2286	133	632	37	139820	1418437	3088
178	2016-01-10 02:02:02	0	0	0	0	0	0	9.86	1	0.08	228622	0	15985	154103	228622	212637	2286	133	632	37	139820	1418450	3088
179	2016-01-10 02:12:02	0	0	0	0	0	0	9.9	1	0.08	229004	0	16021	154441	229004	212983	2291	133	633	37	140403	1418464	3094
180	2016-01-10 02:22:01	0	0	0	0	0	0	9.9	1	0.08	229004	0	16021	154441	229004	212983	2291	133	633	37	140403	1418480	3094
181	2016-01-10 02:32:02	0	0	0	0	0	0	9.91	1	0.08	229316	0	16046	154688	229316	213270	2295	133	634	37	140607	1418495	3099
182	2016-01-10 02:42:02	0	0	0	0	0	0	9.91	1	0.08	229316	0	16046	154688	229316	213270	2295	133	634	37	140607	1418508	3099
183	2016-01-10 02:52:02	0	0	0	0	0	0	9.91	1	0.08	229553	0	16073	154688	229553	213480	2299	134	636	37	140607	1418523	3106
184	2016-01-10 03:02:02	0	0	0	0	0	0	9.91	1	0.08	229684	0	16097	154719	229684	213587	2299	134	637	37	140632	1419481	3107
185	2016-01-10 03:12:02	0	0	0	0	0	0	9.91	1	0.08	229737	0	16100	154719	229737	213637	2299	134	637	37	140632	1419480	3107
186	2016-01-10 03:22:02	0	0	0	0	0	0	9.91	1	0.08	229858	0	16113	154719	229858	213745	2302	134	637	37	140632	1419493	3110
187	2016-01-10 03:32:02	0	0	0	0	0	0	9.91	1	0.08	229965	0	16125	154719	229965	213840	2303	134	638	37	140632	1419502	3112
188	2016-01-10 03:42:02	0	0	0	0	0	0	9.91	1	0.08	230007	0	16129	154719	230007	213878	2303	134	638	37	140632	1419513	3112
189	2016-01-10 03:52:03	0	0	0	0	0	0	9.91	1	0.08	230123	0	16145	154719	230123	213978	2303	134	638	37	140632	1419521	3112
190	2016-01-10 04:02:02	0	0	0	0	0	0	9.91	1	0.08	230197	0	16150	154843	230197	214047	2303	134	638	37	140632	1419521	3112
191	2016-01-10 04:12:02	0	0	0	0	0	0	9.91	1	0.08	230197	0	16150	154843	230197	214047	2303	134	638	37	140632	1419526	3112
192	2016-01-10 04:22:02	0	0	0	0	0	0	9.91	1	0.08	230359	0	16163	154843	230359	214196	2308	134	639	37	140632	1419528	3118
193	2016-01-10 04:32:02	0	0	0	0	0	0	9.91	1	0.08	230399	0	16167	154843	230399	214232	2308	134	639	37	140632	1419534	3118
194	2016-01-10 04:42:02	0	0	0	0	0	0	9.91	1	0.08	230443	0	16170	154843	230443	214273	2309	134	639	37	140632	1419539	3119
195	2016-01-10 04:52:02	0	0	0	0	0	0	9.91	1	0.08	230498	0	16174	154901	230498	214324	2310	134	639	37	140680	1419543	3120
196	2016-01-10 05:02:02	0	0	0	0	0	0	9.91	1	0.08	230563	0	16179	154901	230563	214384	2310	134	639	37	140680	1419550	3120
197	2016-01-10 05:12:02	0	0	0	0	0	0	9.91	1	0.08	230619	0	16183	154901	230619	214436	2310	134	639	37	140680	1419554	3120
198	2016-01-10 05:22:02	0	0	0	0	0	0	9.91	1	0.08	230619	0	16183	154901	230619	214436	2310	134	639	37	140680	1419556	3120
199	2016-01-10 05:32:02	0	0	0	0	0	0	9.91	1	0.08	230703	0	16195	154901	230703	214508	2311	134	640	37	140680	1419558	3122
200	2016-01-10 05:42:02	0	0	0	0	0	0	9.91	1	0.08	230703	0	16195	154901	230703	214508	2311	134	640	37	140680	1419558	3122
201	2016-01-10 05:52:02	0	0	0	0	0	0	9.92	1	0.08	230764	0	16202	155025	230764	214562	2311	134	641	37	140783	1419563	3123
202	2016-01-10 06:02:04	0	0	0	0	0	0	9.92	1	0.08	230795	0	16207	155025	230795	214588	2314	134	641	37	140783	1419567	3126
203	2016-01-10 06:12:02	0	0	0	0	0	0	9.92	1	0.08	230795	0	16214	155025	230795	214588	2315	134	641	37	140783	1419568	3127
204	2016-01-10 06:22:03	0	0	0	0	0	0	9.92	1	0.08	230846	0	16215	155025	230846	214631	2315	134	641	37	140783	1419571	3127
205	2016-01-10 06:32:02	0	0	0	0	0	0	9.92	1	0.08	230846	0	16215	155025	230846	214631	2315	134	641	37	140783	1419573	3127
206	2016-01-10 06:42:03	0	0	0	0	0	0	9.92	1	0.08	230918	0	16231	155025	230918	214687	2316	134	641	38	140783	1419573	3129
207	2016-01-10 06:52:02	0	0	0	0	0	0	9.92	1	0.08	230954	0	16239	155025	230954	214715	2316	134	641	38	140783	1419575	3129
208	2016-01-10 07:02:02	0	0	0	0	0	0	9.92	1	0.08	230973	0	16240	155025	230973	214733	2317	134	641	38	140783	1419578	3130
209	2016-01-10 07:12:02	0	0	0	0	0	0	9.92	1	0.08	231014	0	16248	155025	231014	214766	2317	134	641	38	140783	1419578	3130
210	2016-01-10 07:22:02	0	0	0	0	0	0	9.92	1	0.08	231031	0	16248	155025	231031	214783	2317	134	641	38	140783	1419579	3130
211	2016-01-10 07:32:03	0	0	0	0	0	0	9.92	1	0.08	231073	0	16256	155025	231073	214817	2317	134	641	38	140783	1419580	3130
212	2016-01-10 07:42:02	0	0	0	0	0	0	9.92	1	0.08	231106	0	16265	155025	231106	214841	2317	134	641	38	140783	1419581	3130
213	2016-01-10 07:52:02	0	0	0	0	0	0	9.92	1	0.08	231106	0	16265	155025	231106	214841	2317	134	641	38	140783	1419583	3130
214	2016-01-10 08:02:03	0	0	0	0	0	0	9.93	1	0.08	231176	0	16279	155274	231176	214897	2319	134	641	38	140988	1419585	3132
215	2016-01-10 08:12:03	0	0	0	0	0	0	9.94	1	0.08	231238	0	16292	155398	231238	214946	2319	134	641	38	141091	1419588	3132
216	2016-01-10 08:21:44	0	0	0	0	0	0	9.94	1	0.08	231238	0	16292	155398	231238	214946	2319	134	641	38	141091	1419591	3132
217	2016-01-10 08:31:46	0	0	0	0	0	0	9.94	1	0.08	231329	0	16296	155398	231329	215033	2320	134	643	38	141091	1419596	3135
218	2016-01-10 08:41:44	0	0	0	0	0	0	9.94	1	0.08	231356	0	16303	155445	231356	215053	2320	134	643	38	141129	1419602	3135
219	2016-01-10 08:51:45	0	0	0	0	0	0	9.94	1	0.08	231400	0	16310	155445	231400	215090	2320	135	644	38	141129	1419606	3137
220	2016-01-10 09:01:45	0	0	0	0	0	0	9.94	1	0.08	231435	0	16312	155445	231435	215090	2320	135	644	38	141129	1419610	3137
221	2016-01-10 09:11:46	0	0	0	0	0	0	9.94	1	0.08	231468	0	16323	155445	231468	215145	2321	135	644	38	141129	1419621	3138
222	2016-01-10 09:21:46	0	0	0	0	0	0	9.94	1	0.08	231523	0	16337	155445	231523	215186	2321	135	644	38	141129	1419631	3138
223	2016-01-10 09:31:45	0	0	0	0	0	0	9.94	1	0.08	231523	0	16337	155445	231523	215186	2321	135	644	38	141129	1419649	3138
224	2016-01-10 09:41:45	0	0	0	0	0	0	9.96	1	0.08	231634	0	16356	155691	231634	215278	2322	135	644	38	141332	1419661	3139
225	2016-01-10 09:51:44	0	0	0	0	0	0	9.97	1	0.08	231690	0	16368	155942	231690	215322	2322	135	644	38	141539	1419678	3139
226	2016-01-10 10:01:46	0	0	0	0	0	0	9.97	1	0.08	231730	0	16373	155942	231730	215357	2322	135	644	38	141539	1419685	3139
227	2016-01-10 10:11:44	0	0	0	0	0	0	9.97	1	0.08	231780	0	16388	155942	231780	215392	2323	135	645	38	141539	1419701	3141
228	2016-01-10 10:21:44	0	0	0	0	0	0	9.97	1	0.08	231837	0	16405	155942	231837	215432	2324	135	645	38	141539	1419718	3142
229	2016-01-10 10:31:45	0	0	0	0	0	0	9.97	1	0.08	231870	0	16418	155942	231870	215452	2324	135	646	38	141539	1419734	3143
230	2016-01-10 10:41:44	0	0	0	0	0	0	9.97	1	0.08	231870	0	16418	155942	231870	215452	2324	135	646	38	141539	1419743	3143
231	2016-01-10 10:52:03	0	0	0	0	0	0	9.97	1	0.08	232017	0	16460	156005	232017	215557	2327	135	647	38	141539	1419749	3147
232	2016-01-10 11:02:03	0	0	0	0	0	0	10	1	0.08	232085	0	16466	156494	232085	215619	2328	135	647	38	141941	1419757	3148
233	2016-01-10 11:12:04	0	0	0	0	0	0	10	1	0.08	232155	0	16476	156494	232155	215679	2328	135	647	38	141941	1419769	3148
234	2016-01-10 11:22:06	0	0	0	0	0	0	10	1	0.08	232197	0	16489	156494	232197	215708	2330	135	647	38	141941	1419789	3150
235	2016-01-10 11:32:03	0	0	0	0	0	0	10	1	0.08	232197	0	16489	156494	232197	215708	2330	135	647	38	141941	1419793	3150
236	2016-01-10 11:42:05	0	0	0	0	0	0	10.03	1	0.08	232338	0	16526	156684	232338	215812	2330	135	647	38	142411	1419798	3150
237	2016-01-10 11:52:04	0	0	0	0	0	0	10.03	1	0.08	232380	0	16540	156684	232380	215840	2330	135	647	38	142411	1419806	3150
238	2016-01-10 12:02:04	0	0	0	0	0	0	10.03	1	0.08	232431	0	16551	156684	232431	215880	2330	135	647	38	142411	1419817	3150
239	2016-01-10 12:12:04	0	0	0	0	0	0	10.03	1	0.08	232431	0	16551	156684	232431	215880	2330	135	647	38	142411	1419840	3150
240	2016-01-10 12:22:05	0	0	0	0	0	0	10.03	1	0.08	232534	0	16578	156684	232534	215956	2332	135	647	38	142411	1419855	3152
241	2016-01-10 12:32:06	0	0	0	0	0	0	10.03	1	0.08	232562	0	16583	156684	232562	215979	2332	135	647	38	142411	1419866	3152
242	2016-01-10 12:42:05	0	0	0	0	0	0	10.03	1	0.08	232607	0	16594	156684	232607	216013	2332	135	648	38	142411	1419881	3153
243	2016-01-10 12:52:06	0	0	0	0	0	0	10.03	1	0.08	232636	0	16602	156684	232636	216034	2333	135	648	38	142411	1419896	3154
244	2016-01-10 13:02:07	0	0	0	0	0	0	10.03	1	0.08	232689	0	16614	156684	232689	216075	2333	135	648	38	142411	1419906	3154
245	2016-01-10 13:12:09	0	0	0	0	0	0	10.03	1	0.08	232719	0	16622	156684	232719	216097	2333	135	648	38	142411	1419926	3154
246	2016-01-10 13:22:07	0	0	0	0	0	0	10.03	1	0.08	232719	0	16622	156684	232719	216097	2333	135	648	38	142411	1419947	3154
247	2016-01-10 13:32:08	0	0	0	0	0	0	10.03	1	0.08	232823	0	16645	156684	232823	216178	2335	135	648	38	142411	1419980	3156
248	2016-01-10 13:42:06	0	0	0	0	0	0	10.03	1	0.08	232823	0	16645	156684	232823	216178	2335	135	648	38	142411	1420024	3156
249	2016-01-10 13:52:06	0	0	0	0	0	0	10.03	1	0.08	232906	0	16670	157002	232906	216236	2335	135	648	38	142411	1420085	3156
250	2016-01-10 14:02:06	0	0	0	0	0	0	10.03	1	0.08	232927	0	16675	157002	232927	216252	2335	135	648	38	142411	1420128	3156
251	2016-01-10 14:12:09	0	0	0	0	0	0	10.03	1	0.08	232989	0	16694	157002	232989	216295	2335	135	648	38	142411	1420195	3156
252	2016-01-10 14:22:08	0	0	0	0	0	0	10.03	1	0.08	232989	0	16694	157002	232989	216295	2335	135	648	38	142411	1420254	3156
253	2016-01-10 14:32:07	0	0	0	0	0	0	10.03	1	0.08	233085	0	16720	157002	233085	216365	2337	135	648	38	142411	1420317	3158
254	2016-01-10 14:42:07	0	0	0	0	0	0	10.03	1	0.08	233109	0	16723	157050	233109	216386	2337	135	648	38	142451	1420413	3158
255	2016-01-10 14:52:08	0	0	0	0	0	0	10.03	1	0.08	233150	0	16730	157050	233150	216420	2337	135	648	38	142451	1420491	3158
256	2016-01-10 15:02:09	0	0	0	0	0	0	10.03	1	0.08	233200	0	16738	157050	233200	216462	2339	135	649	38	142451	1420565	3161
257	2016-01-10 15:12:11	0	0	0	0	0	0	10.03	1	0.08	233245	0	16749	157050	233245	216496	2339	135	649	38	142451	1420636	3161
258	2016-01-10 15:22:07	0	0	0	0	0	0	10.03	1	0.08	233245	0	16749	157050	233245	216496	2339	135	649	38	142451	1420703	3161
259	2016-01-10 15:32:06	0	0	0	0	0	0	10.03	1	0.08	233302	0	16758	157050	233302	216544	2339	135	649	38	142451	1420779	3161
260	2016-01-10 15:42:08	0	0	0	0	0	0	10.03	1	0.08	233339	0	16766	157050	233339	216573	2339	135	649	38	142451	1420854	3161
261	2016-01-10 15:52:08	0	0	0	0	0	0	10.03	1	0.08	233374	0	16777	157050	233374	216597	2339	135	649	38	142451	1420928	3161
262	2016-01-10 16:02:09	0	0	0	0	0	0	10.02	1	0.08	233410	0	16785	157050	233410	216625	2340	135	649	38	142451	1421000	3162
263	2016-01-10 16:12:07	0	0	0	0	0	0	10.02	1	0.08	233410	0	16788	157050	233410	216645	2340	135	649	38	142451	1421074	3162
264	2016-01-10 16:22:08	0	0	0	0	0	0	10.02	1	0.08	233479	0	16797	157050	233479	216682	2340	135	649	38	142451	1421147	3162
265	2016-01-10 16:32:08	0	0	0	0	0	0	10.02	1	0.08	233500	0	16805	157050	233500	216695	2341	135	649	38	142451	1421217	3163
266	2016-01-10 16:42:10	0	0	0	0	0	0	10.02	1	0.08	233544	0	16819	157050	233544	216725	2341	135	649	38	142451	1421294	3163
267	2016-01-10 16:52:08	0	0	0	0	0	0	10.02	1	0.08	233574	0	16826	157050	233574	216748	2342	135	649	38	142451	1421368	3164
268	2016-01-10 17:02:07	0	0	0	0	0	0	10.02	1	0.08	233594	0	16832	157050	233594	216762	2342	135	649	38	142451	1421437	3164
269	2016-01-10 17:12:08	0	0	0	0	0	0	10.02	1	0.08	233635	0	16844	157050	233635	216791	2342	135	649	38	142451	1421525	3164
270	2016-01-10 17:22:09	0	0	0	0	0	0	10.02	1	0.08	233654	0	16847	157050	233654	216807	2343	135	649	38	142451	1421603	3165
271	2016-01-10 17:32:08	0	0	0	0	0	0	10.02	1	0.08	233654	0	16847	157050	233654	216807	2343	135	649	38	142451	1421664	3165
272	2016-01-10 17:42:08	0	0	0	0	0	0	10.02	1	0.08	233726	0	16859	157082	233726	216867	2343	135	649	38	142477	1421725	3165
273	2016-01-10 17:52:13	0	0	0	0	0	0	10.02	1	0.08	233735	0	16860	157082	233735	216875	2343	135	649	38	142477	1421804	3165
274	2016-01-10 18:02:08	0	0	0	0	0	0	10.02	1	0.08	233761	0	16860	157082	233761	216875	2343	135	649	38	142477	1421880	3165
275	2016-01-10 18:12:12	0	0	0	0	0	0	10.02	1	0.08	233789	0	16872	157082	233789	216917	2343	135	649	38	142477	1421955	3165
276	2016-01-10 18:22:11	0	0	0	0	0	0	10.02	1	0.08	233789	0	16872	157082	233789	216917	2343	135	649	38	142477	1422028	3165
277	2016-01-10 18:32:08	0	0	0	0	0	0	10.02	1	0.08	233833	0	16876	157082	233833	216957	2343	135	649	38	142477	1422103	3165
278	2016-01-10 18:42:08	0	0	0	0	0	0	10.02	1	0.08	233833	0	16876	157082	233833	216957	2343	135	649	38	142477	1422168	3165
279	2016-01-10 18:52:08	0	0	0	0	0	0	10.02	1	0.08	233883	0	16888	157082	233883	216995	2343	135	649	38	142477	1422237	3165
280	2016-01-10 19:02:09	0	0	0	0	0	0	10.02	1	0.08	233915	0	16894	157082	233915	217021	2343	135	649	38	142477	1422306	3165
281	2016-01-10 19:12:11	0	0	0	0	0	0	10.02	1	0.08	233945	0	16896	157082	233945	217038	2343	135	649	38	142477	1422371	3165
282	2016-01-10 19:22:11	0	0	0	0	0	0	10.02	1	0.08	233945	0	16896	157082	233945	217065	2344	135	649	38	142477	1422423	3166
283	2016-01-10 19:32:09	0	0	0	0	0	0	10.02	1	0.08	234004	0	16905	157082	234004	217065	2344	135	649	38	142477	1422488	3166
284	2016-01-10 19:42:08	0	0	0	0	0	0	10.02	1	0.08	234017	0	16908	157137	234017	217109	2344	135	649	38	142477	1422546	3166
285	2016-01-10 19:52:08	0	0	0	0	0	0	10.02	1	0.08	234032	0	16910	157137	234032	217122	2344	135	649	38	142477	1422613	3166
286	2016-01-10 20:02:09	0	0	0	0	0	0	10.01	1	0.08	234070	0	16917	157137	234070	217153	2345	135	650	38	142477	1422670	3168
287	2016-01-10 20:12:35	0	0	0	0	0	0	10.01	1	0.08	234089	0	16919	157137	234089	217170	2345	135	650	38	142477	1422726	3168
288	2016-01-10 20:22:09	0	0	0	0	0	0	10.01	1	0.08	234106	0	16924	157137	234106	217182	2345	135	650	38	142477	1422802	3168
289	2016-01-10 20:32:10	0	0	0	0	0	0	10.01	1	0.08	234137	0	16930	157137	234137	217207	2345	135	650	38	142477	1422871	3168
290	2016-01-10 20:42:35	0	0	0	0	0	0	10.01	1	0.08	234163	0	16935	157137	234163	217228	2345	135	650	38	142477	1422934	3168
291	2016-01-10 20:52:09	0	0	0	0	0	0	10.01	1	0.08	234163	0	16935	157137	234163	217228	2345	135	650	38	142477	1422998	3168
292	2016-01-10 21:02:10	0	0	0	0	0	0	10.01	1	0.08	234204	0	16943	157585	234204	217261	2347	135	650	38	142477	1423077	3170
293	2016-01-10 21:12:10	0	0	0	0	0	0	10.01	1	0.08	234204	0	16943	157585	234204	217261	2347	135	650	38	142477	1423152	3170
294	2016-01-10 21:22:10	0	0	0	0	0	0	10.01	1	0.08	234246	0	16949	157585	234246	217297	2347	135	650	38	142477	1423228	3170
295	2016-01-10 21:32:10	0	0	0	0	0	0	10.02	1	0.08	234288	0	16957	157714	234288	217331	2347	135	650	38	142582	1423303	3170
296	2016-01-10 21:42:11	0	0	0	0	0	0	10.02	1	0.08	234320	0	16958	157714	234320	217362	2347	135	650	38	142582	1423372	3170
297	2016-01-10 21:52:09	0	0	0	0	0	0	10.02	1	0.08	234343	0	16965	157714	234343	217378	2348	135	650	38	142582	1423442	3171
298	2016-01-10 22:02:10	0	0	0	0	0	0	10.02	1	0.08	234378	0	16974	157714	234378	217404	2348	135	650	38	142582	1423505	3171
299	2016-01-10 22:12:09	0	0	0	0	0	0	10.02	1	0.08	234378	0	16974	157714	234378	217404	2348	135	650	38	142582	1423562	3171
300	2016-01-10 22:22:10	0	0	0	0	0	0	10.02	1	0.08	234430	0	16979	157714	234430	217451	2348	135	650	38	142582	1423638	3171
301	2016-01-10 22:32:09	0	0	0	0	0	0	10.01	1	0.08	234455	0	16981	157714	234455	217474	2348	135	650	38	142582	1423709	3171
302	2016-01-10 22:42:36	0	0	0	0	0	0	10.01	1	0.08	234489	0	16987	157714	234489	217502	2349	135	650	38	142582	1423779	3172
303	2016-01-10 22:52:10	0	0	0	0	0	0	10.01	1	0.08	234489	0	16987	157714	234489	217502	2349	135	650	38	142582	1423833	3172
304	2016-01-10 23:02:36	0	0	0	0	0	0	10.01	1	0.08	234533	0	16990	157714	234533	217543	2349	135	650	38	142582	1423896	3172
305	2016-01-10 23:12:36	0	0	0	0	0	0	10.02	1	0.08	234569	0	16994	157870	234569	217575	2349	135	650	38	142710	1423965	3172
306	2016-01-10 23:22:33	0	0	0	0	0	0	10.02	1	0.08	234588	0	17001	157870	234588	217587	2349	135	650	38	142710	1424030	3172
307	2016-01-10 23:32:36	0	0	0	0	0	0	10.03	1	0.08	234621	0	17004	158096	234621	217617	2349	135	650	38	142894	1424091	3172
308	2016-01-10 23:42:40	0	0	0	0	0	0	10.04	1	0.08	234638	0	17008	158161	234638	217630	2349	135	650	38	142947	1424160	3172
309	2016-01-10 23:52:10	0	0	0	0	0	0	10.04	1	0.08	234638	0	17008	158161	234638	217630	2349	135	650	38	142947	1424226	3172
310	2016-01-11 00:02:12	0	0	0	0	0	0	10.04	1	0.08	234677	0	17015	158161	234677	217662	2349	135	650	38	142947	1424284	3172
311	2016-01-11 00:12:38	0	0	0	0	0	0	10.04	1	0.08	234684	0	17017	158161	234684	217667	2349	135	650	38	142947	1424340	3172
312	2016-01-11 00:22:11	0	0	0	0	0	0	10.04	1	0.08	234684	0	17017	158161	234684	217667	2350	135	650	38	142947	1424389	3173
313	2016-01-11 00:32:10	0	0	0	0	0	0	10.04	1	0.08	234717	0	17029	158161	234717	217688	2350	135	650	38	142947	1424452	3173
314	2016-01-11 00:42:36	0	0	0	0	0	0	10.04	1	0.08	234722	0	17030	158258	234722	217692	2350	135	650	38	143026	1424507	3173
315	2016-01-11 00:52:09	0	0	0	0	0	0	10.04	1	0.08	234722	0	17030	158258	234722	217692	2350	135	650	38	143026	1424559	3173
316	2016-01-11 01:02:10	0	0	0	0	0	0	10.04	1	0.08	234750	0	17034	158258	234750	217716	2350	135	650	38	143026	1424605	3173
317	2016-01-11 01:12:09	0	0	0	0	0	0	10.04	1	0.08	234759	0	17035	158258	234759	217724	2350	135	650	38	143026	1424674	3173
318	2016-01-11 01:22:09	0	0	0	0	0	0	10.04	1	0.08	234772	0	17036	158258	234772	217736	2350	135	650	38	143026	1424762	3173
319	2016-01-11 01:32:13	0	0	0	0	0	0	10.04	1	0.08	234783	0	17036	158258	234783	217747	2350	135	650	38	143026	1424825	3173
320	2016-01-11 01:42:10	0	0	0	0	0	0	10.04	1	0.08	234786	0	17036	158258	234786	217750	2350	135	650	38	143026	1424875	3173
321	2016-01-11 01:52:10	0	0	0	0	0	0	10.04	1	0.08	234786	0	17036	158258	234786	217750	2350	135	650	38	143026	1424901	3173
322	2016-01-11 02:02:10	0	0	0	0	0	0	10.04	1	0.08	234803	0	17037	158258	234803	217766	2350	135	650	38	143026	1424937	3173
323	2016-01-11 02:12:11	0	0	0	0	0	0	10.04	1	0.08	234809	0	17038	158258	234809	217771	2350	135	650	38	143026	1424967	3173
324	2016-01-11 02:22:12	0	0	0	0	0	0	10.04	1	0.08	234814	0	17038	158258	234814	217776	2350	135	650	38	143026	1424998	3173
325	2016-01-11 02:32:10	0	0	0	0	0	0	10.04	1	0.08	234814	0	17038	158258	234814	217781	2350	135	650	38	143026	1425029	3173
326	2016-01-11 02:42:09	0	0	0	0	0	0	10.04	1	0.08	234822	0	17039	158258	234822	217781	2350	135	650	38	143026	1425056	3173
327	2016-01-11 02:52:13	0	0	0	0	0	0	10.04	1	0.08	234828	0	17041	158258	234828	217787	2350	135	650	38	143026	1425082	3173
328	2016-01-11 03:02:13	0	0	0	0	0	0	10.06	1	0.08	234831	0	17041	158258	234831	217790	2350	135	650	38	143026	1421198	3173
329	2016-01-11 03:12:11	0	0	0	0	0	0	10.06	1	0.08	234831	0	17041	158258	234831	217790	2350	135	650	38	143026	1421217	3173
330	2016-01-11 03:22:11	0	0	0	0	0	0	10.06	1	0.08	234842	0	17044	158258	234842	217798	2350	135	650	38	143026	1421242	3173
331	2016-01-11 03:32:10	0	0	0	0	0	0	10.06	1	0.08	234848	0	17044	158258	234848	217804	2350	135	650	38	143026	1421254	3173
332	2016-01-11 03:42:11	0	0	0	0	0	0	10.06	1	0.08	234848	0	17044	158258	234848	217804	2350	135	650	38	143026	1421259	3173
333	2016-01-11 03:52:13	0	0	0	0	0	0	10.06	1	0.08	234850	0	17044	158258	234850	217806	2350	135	650	38	143026	1421268	3173
334	2016-01-11 04:02:12	0	0	0	0	0	0	10.06	1	0.08	234853	0	17044	158258	234853	217809	2350	135	650	38	143026	1421274	3173
335	2016-01-11 04:12:10	0	0	0	0	0	0	10.06	1	0.08	234853	0	17044	158258	234853	217809	2350	135	650	38	143026	1421289	3173
336	2016-01-11 04:22:09	0	0	0	0	0	0	10.06	1	0.08	234856	0	17044	158258	234856	217812	2350	135	650	38	143026	1421298	3173
337	2016-01-11 04:32:13	0	0	0	0	0	0	10.06	1	0.08	234858	0	17044	158258	234858	217814	2350	135	650	38	143026	1421307	3173
338	2016-01-11 04:42:11	0	0	0	0	0	0	10.06	1	0.08	234858	0	17044	158258	234858	217814	2350	135	650	38	143026	1421310	3173
339	2016-01-11 04:52:12	0	0	0	0	0	0	10.06	1	0.08	234860	0	17044	158258	234860	217816	2350	135	650	38	143026	1421317	3173
340	2016-01-11 05:02:12	0	0	0	0	0	0	10.06	1	0.08	234861	0	17045	158258	234861	217816	2350	135	650	38	143026	1421323	3173
341	2016-01-11 05:12:12	0	0	0	0	0	0	10.06	1	0.08	234861	0	17045	158258	234861	217816	2350	135	650	38	143026	1421328	3173
342	2016-01-11 05:22:13	0	0	0	0	0	0	10.06	1	0.08	234864	0	17046	158258	234864	217818	2350	135	650	38	143026	1421334	3173
343	2016-01-11 05:32:09	0	0	0	0	0	0	10.06	1	0.08	234864	0	17046	158258	234864	217818	2350	135	650	38	143026	1421337	3173
344	2016-01-11 05:42:10	0	0	0	0	0	0	10.06	1	0.08	234864	0	17046	158258	234864	217818	2350	135	650	38	143026	1421344	3173
345	2016-01-11 05:52:12	0	0	0	0	0	0	10.06	1	0.08	234865	0	17047	158258	234865	217818	2350	135	650	38	143026	1421349	3173
346	2016-01-11 06:02:13	0	0	0	0	0	0	10.06	1	0.08	234870	0	17048	158258	234870	217822	2350	135	650	38	143026	1421358	3173
347	2016-01-11 06:12:10	0	0	0	0	0	0	10.06	1	0.08	234871	0	17048	158258	234871	217822	2350	135	650	38	143026	1421363	3173
348	2016-01-11 06:22:11	0	0	0	0	0	0	10.06	1	0.08	234871	0	17048	158258	234871	217823	2350	135	650	38	143026	1421366	3173
349	2016-01-11 06:32:10	0	0	0	0	0	0	10.06	1	0.08	234871	0	17048	158258	234871	217823	2350	135	650	38	143026	1421372	3173
350	2016-01-11 06:42:15	0	0	0	0	0	0	10.06	1	0.08	234871	0	17048	158258	234871	217823	2350	135	650	38	143026	1421384	3173
351	2016-01-11 06:52:16	0	0	0	0	0	0	10.06	1	0.08	234873	0	17048	158258	234873	217825	2350	135	650	38	143026	1421390	3173
352	2016-01-11 07:02:14	0	0	0	0	0	0	10.06	1	0.08	234873	0	17048	158258	234873	217825	2350	135	650	38	143026	1421393	3173
353	2016-01-11 07:12:11	0	0	0	0	0	0	10.06	1	0.08	234874	0	17048	158258	234874	217826	2350	135	650	38	143026	1421402	3173
354	2016-01-11 07:22:11	0	0	0	0	0	0	10.06	1	0.08	234874	0	17048	158258	234874	217826	2350	135	650	38	143026	1421416	3173
355	2016-01-11 07:32:12	0	0	0	0	0	0	10.06	1	0.08	234878	0	17050	158258	234878	217828	2350	135	650	38	143026	1421427	3173
356	2016-01-11 07:42:14	0	0	0	0	0	0	10.06	1	0.08	234880	0	17051	158258	234880	217829	2350	135	650	38	143026	1421439	3173
357	2016-01-11 07:52:10	0	0	0	0	0	0	10.06	1	0.08	234880	0	17051	158258	234880	217829	2350	135	650	38	143026	1421458	3173
358	2016-01-11 08:02:11	0	0	0	0	0	0	10.06	1	0.08	234883	0	17051	158258	234883	217832	2350	135	650	38	143026	1421473	3173
359	2016-01-11 08:12:10	0	0	0	0	0	0	10.06	1	0.08	234884	0	17051	158258	234884	217833	2350	135	650	38	143026	1421485	3173
360	2016-01-11 08:22:12	0	0	0	0	0	0	10.06	1	0.08	234886	0	17051	158258	234886	217835	2350	135	650	38	143026	1421508	3173
361	2016-01-11 08:32:10	0	0	0	0	0	0	10.06	1	0.08	234886	0	17051	158258	234886	217835	2350	135	650	38	143026	1421529	3173
362	2016-01-11 08:42:27	0	0	0	0	0	0	10.06	1	0.08	234892	0	17051	158258	234892	217841	2350	135	650	38	143026	1421555	3173
363	2016-01-11 08:52:10	0	0	0	0	0	0	10.06	1	0.08	234892	0	17051	158258	234892	217844	2350	135	650	38	143026	1421585	3173
364	2016-01-11 09:02:11	0	0	0	0	0	0	10.06	1	0.08	234900	0	17051	158258	234900	217849	2350	135	650	38	143026	1421601	3173
365	2016-01-11 09:12:13	0	0	0	0	0	0	10.06	1	0.08	234902	0	17051	158258	234902	217851	2350	135	650	38	143026	1421623	3173
366	2016-01-11 09:22:11	0	0	0	0	0	0	10.07	1	0.08	234907	0	17051	158452	234907	217856	2350	135	650	38	143185	1421651	3173
367	2016-01-11 09:32:12	0	0	0	0	0	0	10.07	1	0.08	234912	0	17051	158452	234912	217861	2350	135	650	38	143185	1421679	3173
368	2016-01-11 09:42:15	0	0	0	0	0	0	10.07	1	0.08	234914	0	17052	158452	234914	217862	2350	135	650	38	143185	1421703	3173
369	2016-01-11 09:52:14	0	0	0	0	0	0	10.07	1	0.08	234915	0	17052	158452	234915	217863	2350	135	650	38	143185	1421737	3173
370	2016-01-11 10:02:11	0	0	0	0	0	0	10.07	1	0.08	234915	0	17052	158452	234915	217863	2350	135	650	38	143185	1421775	3173
371	2016-01-11 10:12:13	0	0	0	0	0	0	10.07	1	0.08	234927	0	17053	158452	234927	217874	2350	135	650	38	143185	1421819	3173
372	2016-01-11 10:22:11	0	0	0	0	0	0	10.07	1	0.08	234938	0	17056	158452	234938	217882	2350	135	650	38	143185	1421862	3173
373	2016-01-11 10:32:11	0	0	0	0	0	0	10.07	1	0.08	234950	0	17056	158452	234950	217894	2350	135	650	38	143185	1421907	3173
374	2016-01-11 10:42:11	0	0	0	0	0	0	10.07	1	0.08	234954	0	17056	158452	234954	217898	2350	135	650	38	143185	1421949	3173
375	2016-01-11 10:52:10	0	0	0	0	0	0	10.07	1	0.08	234954	0	17056	158452	234954	217898	2350	135	650	38	143185	1421992	3173
376	2016-01-11 11:02:11	0	0	0	0	0	0	10.07	1	0.08	234968	0	17059	158452	234968	217909	2350	135	650	38	143185	1422030	3173
377	2016-01-11 11:12:13	0	0	0	0	0	0	10.07	1	0.08	234973	0	17059	158452	234973	217914	2350	135	650	38	143185	1422072	3173
378	2016-01-11 11:22:15	0	0	0	0	0	0	10.07	1	0.08	234981	0	17061	158452	234981	217920	2350	135	650	38	143185	1422112	3173
379	2016-01-11 11:32:12	0	0	0	0	0	0	10.07	1	0.08	234981	0	17061	158452	234981	217920	2350	135	650	38	143185	1422151	3173
380	2016-01-11 11:42:13	0	0	0	0	0	0	10.07	1	0.08	234990	0	17062	158452	234990	217928	2350	135	650	38	143185	1422200	3173
381	2016-01-11 11:52:15	0	0	0	0	0	0	10.07	1	0.08	234996	0	17062	158452	234996	217934	2350	135	650	38	143185	1422237	3173
382	2016-01-11 12:02:12	0	0	0	0	0	0	10.07	1	0.08	235001	0	17063	158452	235001	217938	2350	135	650	38	143185	1422268	3173
383	2016-01-11 12:12:18	0	0	0	0	0	0	10.07	1	0.08	235009	0	17064	158452	235009	217945	2350	135	650	38	143185	1422314	3173
384	2016-01-11 12:22:24	0	0	0	0	0	0	10.07	1	0.08	235015	0	17064	158452	235015	217951	2350	135	650	38	143185	1422350	3173
385	2016-01-11 12:32:20	0	0	0	0	0	0	10.07	1	0.08	235019	0	17065	158452	235019	217954	2350	135	650	38	143185	1422386	3173
386	2016-01-11 12:42:16	0	0	0	0	0	0	10.07	1	0.08	235026	0	17066	158452	235026	217960	2350	135	650	38	143185	1422440	3173
387	2016-01-11 12:52:18	0	0	0	0	0	0	10.07	1	0.08	235035	0	17067	158452	235035	217968	2350	135	650	38	143185	1422481	3173
388	2016-01-11 13:02:14	0	0	0	0	0	0	10.07	1	0.08	235035	0	17067	158452	235035	217968	2350	135	650	38	143185	1422514	3173
389	2016-01-11 13:12:16	0	0	0	0	0	0	10.07	1	0.08	235048	0	17068	158452	235048	217980	2350	135	650	38	143185	1422556	3173
390	2016-01-11 13:22:22	0	0	0	0	0	0	10.07	1	0.08	235058	0	17068	158452	235058	217990	2350	135	650	38	143185	1422598	3173
391	2016-01-11 13:32:15	0	0	0	0	0	0	10.06	1	0.08	235064	0	17068	158452	235064	217996	2350	135	650	38	143185	1422640	3173
392	2016-01-11 13:42:16	0	0	0	0	0	0	10.06	1	0.08	235071	0	17069	158452	235071	218002	2350	135	650	38	143185	1422683	3173
393	2016-01-11 13:52:21	0	0	0	0	0	0	10.06	1	0.08	235078	0	17070	158452	235078	218008	2350	135	650	38	143185	1422720	3173
394	2016-01-11 14:02:20	0	0	0	0	0	0	10.06	1	0.08	235078	0	17071	158452	235078	218018	2350	135	650	38	143185	1422763	3173
395	2016-01-11 14:12:16	0	0	0	0	0	0	10.06	1	0.08	235096	0	17073	158452	235096	218023	2350	135	650	38	143185	1422804	3173
396	2016-01-11 14:22:21	0	0	0	0	0	0	10.06	1	0.08	235100	0	17073	158452	235100	218027	2350	135	650	38	143185	1422837	3173
397	2016-01-11 14:32:19	0	0	0	0	0	0	10.06	1	0.08	235104	0	17074	158452	235104	218030	2350	135	650	38	143185	1422875	3173
398	2016-01-11 14:42:16	0	0	0	0	0	0	10.06	1	0.08	235119	0	17076	158452	235119	218043	2350	135	650	38	143185	1422906	3173
399	2016-01-11 14:52:18	0	0	0	0	0	0	10.06	1	0.08	235123	0	17076	158452	235123	218047	2350	135	650	38	143185	1422953	3173
400	2016-01-11 15:02:27	0	0	0	0	0	0	10.06	1	0.08	235129	0	17076	158452	235129	218053	2350	135	650	38	143185	1423005	3173
401	2016-01-11 15:12:28	0	0	0	0	0	0	10.06	1	0.08	235133	0	17078	158452	235133	218055	2350	135	650	38	143185	1423060	3173
402	2016-01-11 15:22:30	0	0	0	0	0	0	10.06	1	0.08	235139	0	17079	158452	235139	218060	2350	135	650	38	143185	1423102	3173
403	2016-01-11 15:32:19	0	0	0	0	0	0	10.06	1	0.08	235139	0	17079	158452	235139	218060	2350	135	650	38	143185	1423142	3173
404	2016-01-11 15:42:41	0	0	0	0	0	0	10.06	1	0.08	235153	0	17083	158501	235153	218070	2350	135	650	38	143225	1423181	3173
405	2016-01-11 15:52:16	0	0	0	0	0	0	10.06	1	0.08	235161	0	17087	158501	235161	218074	2350	135	650	38	143225	1423234	3173
406	2016-01-11 16:02:21	0	0	0	0	0	0	10.06	1	0.08	235168	0	17087	158501	235168	218081	2350	135	650	38	143225	1423278	3173
407	2016-01-11 16:12:21	0	0	0	0	0	0	10.06	1	0.08	235182	0	17088	158564	235182	218094	2350	135	650	38	143225	1423327	3173
408	2016-01-11 16:22:24	0	0	0	0	0	0	10.06	1	0.08	235189	0	17088	158564	235189	218101	2350	135	651	38	143225	1423379	3174
409	2016-01-11 16:32:17	0	0	0	0	0	0	10.06	1	0.08	235189	0	17088	158564	235189	218101	2350	135	651	38	143225	1423421	3174
410	2016-01-11 16:42:23	0	0	0	0	0	0	10.06	1	0.08	235198	0	17088	158564	235198	218110	2350	135	651	38	143225	1423459	3174
411	2016-01-11 16:52:21	0	0	0	0	0	0	10.06	1	0.08	235198	0	17088	158564	235198	218110	2350	135	651	38	143225	1423511	3174
412	2016-01-11 17:02:18	0	0	0	0	0	0	10.06	1	0.08	235209	0	17088	158564	235209	218121	2350	135	651	38	143225	1423570	3174
413	2016-01-11 17:12:17	0	0	0	0	0	0	10.06	1	0.08	235209	0	17088	158564	235209	218121	2350	135	651	38	143225	1423648	3174
414	2016-01-11 17:22:17	0	0	0	0	0	0	10.06	1	0.08	235221	0	17089	158564	235221	218132	2350	135	651	38	143225	1423703	3174
415	2016-01-11 17:32:18	0	0	0	0	0	0	10.06	1	0.08	235227	0	17090	158564	235227	218137	2350	135	651	38	143225	1423756	3174
416	2016-01-11 17:42:17	0	0	0	0	0	0	10.06	1	0.08	235230	0	17090	158564	235230	218140	2350	135	651	38	143225	1423811	3174
417	2016-01-11 17:52:19	0	0	0	0	0	0	10.06	1	0.08	235239	0	17091	158564	235239	218148	2350	135	651	38	143225	1423867	3174
418	2016-01-11 18:02:16	0	0	0	0	0	0	10.06	1	0.08	235243	0	17092	158564	235243	218151	2350	135	651	38	143225	1423926	3174
419	2016-01-11 18:12:16	0	0	0	0	0	0	10.06	1	0.08	235245	0	17092	158564	235245	218153	2350	135	651	38	143225	1423986	3174
420	2016-01-11 18:22:16	0	0	0	0	0	0	10.06	1	0.08	235245	0	17092	158564	235245	218153	2350	135	651	38	143225	1424033	3174
421	2016-01-11 18:32:19	0	0	0	0	0	0	10.06	1	0.08	235260	0	17093	158564	235260	218167	2350	135	651	38	143225	1424073	3174
422	2016-01-11 18:42:25	0	0	0	0	0	0	10.06	1	0.08	235265	0	17093	158564	235265	218172	2350	135	651	38	143225	1424137	3174
423	2016-01-11 18:52:22	0	0	0	0	0	0	10.06	1	0.08	235265	0	17093	158564	235265	218172	2350	135	651	38	143225	1424176	3174
424	2016-01-11 19:02:20	0	0	0	0	0	0	10.06	1	0.08	235272	0	17095	158564	235272	218177	2350	135	651	38	143225	1424205	3174
425	2016-01-11 19:12:20	0	0	0	0	0	0	10.06	1	0.08	235272	0	17095	158564	235272	218177	2350	135	651	38	143225	1424242	3174
426	2016-01-11 19:22:18	0	0	0	0	0	0	10.06	1	0.08	235281	0	17095	158564	235281	218186	2350	135	651	38	143225	1424274	3174
427	2016-01-11 19:32:24	0	0	0	0	0	0	10.06	1	0.08	235292	0	17096	158564	235292	218196	2350	135	651	38	143225	1424321	3174
428	2016-01-11 19:42:42	0	0	0	0	0	0	10.06	1	0.08	235295	0	17096	158564	235295	218199	2350	135	651	38	143225	1424360	3174
429	2016-01-11 19:52:18	0	0	0	0	0	0	10.06	1	0.08	235298	0	17096	158564	235298	218202	2350	135	651	38	143225	1424395	3174
430	2016-01-11 20:02:22	0	0	0	0	0	0	10.05	1	0.08	235309	0	17097	158564	235309	218212	2350	135	651	38	143225	1424434	3174
431	2016-01-11 20:12:19	0	0	0	0	0	0	10.05	1	0.08	235309	0	17097	158564	235309	218212	2350	135	651	38	143225	1424474	3174
