1	2016-01-28 18:02:12	0	0	0	0	0	0	1.14	0.71	0	20034	0	86	16780	20034	19948	143	18	114	9	16649	1464325	284
2	2016-01-28 18:12:16	0	0	0	0	0	0	1.92	0.87	0.01	35805	0	361	28596	35805	35444	311	32	195	17	28177	1464341	555
3	2016-01-28 18:22:12	0	0	0	0	0	0	2.81	1.02	0.02	56130	0	1073	42092	56130	55057	575	46	302	28	41144	1464354	951
4	2016-01-28 18:32:12	0	0	0	0	0	0	3.42	1.06	0.02	70292	0	1632	51648	70292	68660	742	55	357	32	50131	1464367	1186
5	2016-01-28 18:42:12	0	0	0	0	0	0	3.42	1.06	0.02	70292	0	1632	51648	70292	68660	742	55	357	32	50131	1464387	1186
6	2016-01-28 18:52:13	0	0	0	0	0	0	4.11	1.07	0.03	87548	0	2432	62583	87548	85116	938	64	426	41	60260	1464402	1469
7	2016-01-28 19:02:12	0	0	0	0	0	0	4.11	1.07	0.03	87548	0	2432	62583	87548	85116	938	64	426	41	60260	1464417	1469
8	2016-01-28 19:12:17	0	0	0	0	0	0	4.5	1.07	0.03	97554	0	2936	68276	97554	94618	1046	65	462	43	65832	1464429	1616
9	2016-01-28 19:22:14	0	0	0	0	0	0	5.04	1.07	0.03	110017	0	3556	76987	110017	106461	1178	69	510	48	73825	1464444	1805
10	2016-01-28 19:32:13	0	0	0	0	0	0	5.25	1.02	0.04	115793	0	3936	80285	115793	111857	1178	70	533	51	76920	1464470	1832
11	2016-01-28 19:42:13	0	0	0	0	0	0	5.42	1.06	0.04	120786	0	4280	82117	120786	116506	1275	70	533	51	79391	1464506	1929
12	2016-01-28 19:52:13	0	0	0	0	0	0	5.42	1.06	0.04	120786	0	4280	83834	120786	116506	1275	72	555	55	79391	1464554	1957
13	2016-01-28 20:02:13	0	0	0	0	0	0	5.72	1.11	0.04	126350	0	4863	86705	126350	124391	1401	73	598	56	83825	1464591	2128
14	2016-01-28 20:12:15	0	0	0	0	0	0	5.77	1.09	0.04	131342	0	4996	89677	131342	126346	1432	73	603	56	84440	1464632	2164
15	2016-01-28 20:22:14	0	0	0	0	0	0	5.77	1.09	0.04	131342	0	4996	89677	131342	126346	1432	73	603	56	84440	1464684	2164
16	2016-01-28 20:32:15	0	0	0	0	0	0	5.94	1.11	0.04	137893	0	5440	92547	137893	132453	1536	77	629	59	87077	1464745	2301
17	2016-01-28 20:42:15	0	0	0	0	0	0	6.12	1.1	0.04	142673	0	5770	95361	142673	136903	1575	77	629	59	89642	1464802	2340
18	2016-01-28 20:52:15	0	0	0	0	0	0	6.26	1.1	0.04	147147	0	6084	97890	147147	141063	1622	83	657	63	91735	1464867	2425
19	2016-01-28 21:02:15	0	0	0	0	0	0	6.37	1.1	0.04	151528	0	6405	99723	151528	145123	1669	89	676	65	93331	1464927	2499
20	2016-01-28 21:12:15	0	0	0	0	0	0	6.49	1.1	0.04	153355	0	6530	99723	153355	146825	1688	89	684	66	95028	1464985	2527
21	2016-01-28 21:22:14	0	0	0	0	0	0	6.65	1.1	0.05	157290	0	6791	104212	157290	150499	1728	90	697	67	97485	1465046	2582
22	2016-01-28 21:32:15	0	0	0	0	0	0	6.65	1.13	0.05	157290	0	6791	107404	157290	150499	1775	90	697	67	97485	1465125	2629
23	2016-01-28 21:42:15	0	0	0	0	0	0	6.84	1.09	0.05	163431	0	7095	107404	163431	154343	1775	92	715	72	100157	1465195	2654
24	2016-01-28 21:52:15	0	0	0	0	0	0	7.1	1.1	0.05	167466	0	7500	111462	167466	159966	1843	93	725	81	103969	1465256	2742
25	2016-01-28 22:02:15	0	0	0	0	0	0	7.16	1.1	0.05	169328	0	7607	111462	169328	161721	1864	94	733	81	104920	1465315	2772
26	2016-01-28 22:12:16	0	0	0	0	0	0	7.23	1.12	0.05	169328	0	7766	113680	169328	163774	1891	96	736	81	105998	1465368	2804
27	2016-01-28 22:22:15	0	0	0	0	0	0	7.4	1.1	0.05	175473	0	8026	116357	175473	167447	1925	97	743	83	108413	1465441	2848
28	2016-01-28 22:32:16	0	0	0	0	0	0	7.57	1.09	0.05	179085	0	8239	119423	179085	170846	1954	98	751	83	110954	1465525	2886
29	2016-01-28 22:42:15	0	0	0	0	0	0	7.57	1.09	0.05	179085	0	8239	119423	179085	170846	1954	98	751	83	110954	1465593	2886
30	2016-01-28 22:52:16	0	0	0	0	0	0	7.77	1.08	0.05	184718	0	8674	122660	184718	176044	1996	100	770	85	113927	1465658	2951
31	2016-01-28 23:02:17	0	0	0	0	0	0	7.93	1.08	0.05	188281	0	8949	125424	188281	179332	2034	102	781	91	116273	1465737	3008
32	2016-01-28 23:12:16	0	0	0	0	0	0	7.93	1.08	0.05	188281	0	8949	125424	188281	179332	2034	102	781	91	116273	1465796	3008
33	2016-01-28 23:22:15	0	0	0	0	0	0	8.14	1.08	0.05	191390	0	9269	128704	191390	183520	2062	103	792	93	119380	1465861	3050
34	2016-01-28 23:32:16	0	0	0	0	0	0	8.24	1.07	0.05	196228	0	9506	130252	196228	186722	2098	104	809	94	120815	1465940	3105
35	2016-01-28 23:42:16	0	0	0	0	0	0	8.24	1.07	0.05	196228	0	9506	130252	196228	186722	2098	104	809	94	120815	1466013	3105
36	2016-01-28 23:52:16	0	0	0	0	0	0	8.48	1.07	0.05	201019	0	9795	133228	201019	191224	2141	105	826	95	124282	1466093	3167
37	2016-01-29 00:02:16	0	0	0	0	0	0	8.5	1.05	0.05	204150	0	10002	134531	204150	194148	2151	105	830	95	124582	1466169	3181
38	2016-01-29 00:12:16	0	0	0	0	0	0	8.6	1.06	0.05	205457	0	10075	135194	205457	195382	2178	105	836	96	126035	1466243	3215
39	2016-01-29 00:22:15	0	0	0	0	0	0	8.73	1.06	0.05	208093	0	10246	137449	208093	197847	2203	106	843	97	128034	1466316	3249
40	2016-01-29 00:32:21	0	0	0	0	0	0	8.77	1.06	0.05	209486	0	10330	138057	209486	199156	2211	106	846	97	128562	1466376	3260
41	2016-01-29 00:42:15	0	0	0	0	0	0	8.88	1.05	0.05	212118	0	10503	140258	212118	201615	2228	106	854	98	130271	1466434	3286
42	2016-01-29 00:52:16	0	0	0	0	0	0	8.98	1.05	0.05	214350	0	10642	141917	214350	203708	2250	108	863	98	131706	1466479	3319
43	2016-01-29 01:02:16	0	0	0	0	0	0	9.01	1.05	0.05	215277	0	10713	142311	215277	204564	2257	108	865	98	132088	1466519	3328
44	2016-01-29 01:12:18	0	0	0	0	0	0	9.1	1.05	0.05	217361	0	10848	143884	217361	206513	2277	108	870	98	133396	1466571	3353
45	2016-01-29 01:22:16	0	0	0	0	0	0	9.1	1.05	0.05	217361	0	10848	143884	217361	206513	2277	108	870	98	133396	1466618	3353
46	2016-01-29 01:32:17	0	0	0	0	0	0	9.29	1.05	0.05	220265	0	11027	146630	220265	209238	2304	109	886	99	136183	1466657	3398
47	2016-01-29 01:42:16	0	0	0	0	0	0	9.34	1.04	0.05	221878	0	11114	147412	221878	210764	2315	109	895	99	136930	1466687	3418
48	2016-01-29 01:52:16	0	0	0	0	0	0	9.34	1.04	0.05	221878	0	11114	147412	221878	210764	2315	109	895	99	136930	1466713	3418
49	2016-01-29 02:02:16	0	0	0	0	0	0	9.45	1.04	0.05	224632	0	11245	149660	224632	213387	2341	110	908	99	138544	1466743	3458
50	2016-01-29 02:12:17	0	0	0	0	0	0	9.45	1.05	0.05	224632	0	11245	149660	224632	213387	2349	110	908	99	138544	1466770	3466
51	2016-01-29 02:22:16	0	0	0	0	0	0	9.5	1.04	0.05	226312	0	11321	150592	226312	214991	2349	111	916	99	139399	1466794	3475
52	2016-01-29 02:32:16	0	0	0	0	0	0	9.51	1.04	0.05	227208	0	11368	150848	227208	215840	2371	111	919	100	139543	1466816	3501
53	2016-01-29 02:42:17	0	0	0	0	0	0	9.53	1.04	0.05	227674	0	11383	151187	227674	216291	2374	111	922	100	139833	1466838	3507
54	2016-01-29 02:52:16	0	0	0	0	0	0	9.57	1.04	0.05	228391	0	11409	151832	228391	216982	2383	111	925	100	140385	1466848	3519
55	2016-01-29 03:02:15	0	0	0	0	0	0	9.61	1.04	0.05	228782	0	11428	151922	228782	217354	2384	111	926	100	140716	1464093	3521
56	2016-01-29 03:12:16	0	0	0	0	0	0	9.66	1.04	0.05	229772	0	11465	152611	229772	218307	2396	112	930	101	141462	1464106	3539
57	2016-01-29 03:22:15	0	0	0	0	0	0	9.7	1.04	0.05	230042	0	11490	153230	230042	218552	2401	112	931	101	141968	1464120	3545
58	2016-01-29 03:32:16	0	0	0	0	0	0	9.74	1.05	0.05	230538	0	11513	153900	230538	219025	2411	112	933	101	142648	1464126	3557
59	2016-01-29 03:42:17	0	0	0	0	0	0	9.77	1.05	0.05	230977	0	11529	154480	230977	219448	2415	112	936	102	143093	1464132	3565
60	2016-01-29 03:52:15	0	0	0	0	0	0	9.8	1.04	0.05	231188	0	11539	154866	231188	219649	2415	112	938	102	143425	1464140	3567
61	2016-01-29 04:02:16	0	0	0	0	0	0	9.82	1.04	0.05	231560	0	11557	155363	231560	220003	2417	112	938	102	143851	1464145	3569
62	2016-01-29 04:12:15	0	0	0	0	0	0	9.82	1.04	0.05	231711	0	11557	155426	231711	220003	2417	112	938	102	143851	1464151	3569
63	2016-01-29 04:22:16	0	0	0	0	0	0	9.84	1.04	0.05	232051	0	11575	155754	232051	220476	2421	112	941	102	144119	1464155	3576
64	2016-01-29 04:32:16	0	0	0	0	0	0	9.84	1.04	0.05	232178	0	11575	155754	232178	220476	2421	112	941	102	144119	1464158	3576
65	2016-01-29 04:42:16	0	0	0	0	0	0	9.89	1.04	0.05	232579	0	11603	156190	232579	220976	2425	112	943	102	144779	1464164	3582
66	2016-01-29 04:52:16	0	0	0	0	0	0	9.89	1.04	0.05	232717	0	11607	156190	232717	221110	2429	112	944	102	144779	1464166	3587
67	2016-01-29 05:02:16	0	0	0	0	0	0	9.93	1.04	0.05	232882	0	11620	156538	232882	221262	2431	112	944	102	145453	1464166	3589
68	2016-01-29 05:12:16	0	0	0	0	0	0	9.94	1.04	0.05	232977	0	11628	156585	232977	221349	2431	112	944	102	145494	1464172	3589
69	2016-01-29 05:22:15	0	0	0	0	0	0	9.95	1.04	0.05	233231	0	11638	156744	233231	221593	2436	112	945	102	145631	1464178	3595
70	2016-01-29 05:32:17	0	0	0	0	0	0	9.95	1.04	0.05	233326	0	11646	156839	233326	221680	2437	112	946	102	145713	1464181	3597
71	2016-01-29 05:42:22	0	0	0	0	0	0	9.95	1.04	0.05	233535	0	11646	156839	233535	221881	2437	112	946	102	145713	1464189	3597
72	2016-01-29 05:52:15	0	0	0	0	0	0	9.96	1.04	0.05	233623	0	11664	156998	233623	221959	2439	112	946	102	145905	1464191	3599
73	2016-01-29 06:02:16	0	0	0	0	0	0	9.98	1.04	0.05	233788	0	11669	157189	233788	222119	2441	112	946	102	146070	1464198	3601
74	2016-01-29 06:12:16	0	0	0	0	0	0	9.98	1.04	0.05	233980	0	11678	157189	233980	222302	2442	112	946	102	146070	1464204	3602
75	2016-01-29 06:22:15	0	0	0	0	0	0	9.98	1.04	0.05	233980	0	11678	157189	233980	222302	2442	112	946	102	146070	1464209	3602
76	2016-01-29 06:32:17	0	0	0	0	0	0	9.98	1.04	0.05	234278	0	11695	157189	234278	222583	2442	112	946	102	146070	1464219	3602
77	2016-01-29 06:42:18	0	0	0	0	0	0	9.98	1.04	0.05	234509	0	11703	157189	234509	222806	2445	112	946	102	146070	1464224	3605
78	2016-01-29 06:52:17	0	0	0	0	0	0	9.98	1.04	0.05	234786	0	11728	157333	234786	223058	2449	112	947	102	146174	1464233	3610
79	2016-01-29 07:02:16	0	0	0	0	0	0	9.98	1.04	0.05	234938	0	11743	157637	234938	223195	2449	112	947	102	146174	1464245	3610
80	2016-01-29 07:12:16	0	0	0	0	0	0	9.99	1.04	0.05	235335	0	11763	157895	235335	223557	2454	112	948	102	146229	1464252	3616
81	2016-01-29 07:22:17	0	0	0	0	0	0	10.01	1.04	0.05	235533	0	11794	157959	235533	223739	2460	112	950	102	146506	1464265	3624
82	2016-01-29 07:32:17	0	0	0	0	0	0	10.01	1.04	0.05	235533	0	11794	157959	235533	223739	2460	112	950	102	146506	1464275	3624
83	2016-01-29 07:42:16	0	0	0	0	0	0	10.02	1.04	0.05	236563	0	11849	158266	236563	224409	2472	112	954	102	146658	1464295	3640
84	2016-01-29 07:52:19	0	0	0	0	0	0	10.04	1.05	0.05	236751	0	11895	158676	236751	224856	2480	113	955	102	147010	1464310	3650
85	2016-01-29 08:02:17	0	0	0	0	0	0	10.04	1.05	0.05	236751	0	11895	158676	236751	224856	2480	113	955	102	147010	1464324	3650
86	2016-01-29 08:12:17	0	0	0	0	0	0	10.06	1.05	0.05	237533	0	11946	159116	237533	225587	2491	113	959	102	147332	1464351	3665
87	2016-01-29 08:22:16	0	0	0	0	0	0	10.09	1.05	0.05	238580	0	12027	159116	238580	226553	2496	113	961	103	147736	1464379	3673
88	2016-01-29 08:32:16	0	0	0	0	0	0	10.13	1.05	0.05	238928	0	12054	160290	238928	226874	2504	115	964	103	148338	1464396	3686
89	2016-01-29 08:42:16	0	0	0	0	0	0	10.16	1.04	0.05	239731	0	12133	160739	239731	227598	2504	116	965	103	148722	1464422	3688
90	2016-01-29 08:52:17	0	0	0	0	0	0	10.19	1.05	0.05	240580	0	12174	161241	240580	228055	2524	116	966	103	149267	1464449	3709
91	2016-01-29 09:02:17	0	0	0	0	0	0	10.24	1.05	0.05	241096	0	12254	162102	241096	228842	2530	117	970	104	149939	1464488	3721
92	2016-01-29 09:12:17	0	0	0	0	0	0	10.26	1.05	0.05	242062	0	12335	162484	242062	229727	2553	117	972	104	150332	1464514	3746
93	2016-01-29 09:22:17	0	0	0	0	0	0	10.26	1.05	0.05	242062	0	12335	162484	242062	229727	2553	117	972	104	150332	1464550	3746
94	2016-01-29 09:32:17	0	0	0	0	0	0	10.33	1.06	0.05	243625	0	12487	163825	243625	231138	2577	118	976	104	151242	1464603	3775
95	2016-01-29 09:42:17	0	0	0	0	0	0	10.45	1.06	0.05	244766	0	12588	165466	244766	232178	2586	118	979	104	153001	1464650	3787
96	2016-01-29 09:52:19	0	0	0	0	0	0	10.47	1.05	0.05	245455	0	12645	165713	245455	232810	2589	118	982	105	153365	1464695	3794
97	2016-01-29 10:02:20	0	0	0	0	0	0	10.47	1.05	0.05	245455	0	12645	165713	245455	232810	2589	118	982	105	153365	1464733	3794
98	2016-01-29 10:12:19	0	0	0	0	0	0	10.54	1.06	0.05	247829	0	12860	166928	247829	234969	2615	119	991	106	154420	1464780	3831
99	2016-01-29 10:22:16	0	0	0	0	0	0	10.54	1.06	0.05	247829	0	12860	166928	247829	234969	2615	119	991	106	154420	1464825	3831
100	2016-01-29 10:32:18	0	0	0	0	0	0	10.63	1.06	0.05	249647	0	12991	168500	249647	236656	2645	119	999	106	155749	1464878	3869
101	2016-01-29 10:42:20	0	0	0	0	0	0	10.71	1.06	0.06	250798	0	13092	170045	250798	237706	2652	120	1001	107	156829	1464918	3880
102	2016-01-29 10:52:18	0	0	0	0	0	0	10.71	1.06	0.06	250798	0	13092	170045	250798	237706	2652	120	1001	107	156829	1464972	3880
103	2016-01-29 11:02:21	0	0	0	0	0	0	10.77	1.06	0.06	252820	0	13258	171020	252820	239562	2673	121	1017	110	157722	1465028	3921
104	2016-01-29 11:12:20	0	0	0	0	0	0	10.77	1.06	0.06	252820	0	13258	171020	252820	239562	2673	121	1017	110	157722	1465089	3921
105	2016-01-29 11:22:18	0	0	0	0	0	0	10.78	1.06	0.06	253894	0	13361	171247	253894	240533	2687	122	1021	110	157915	1465136	3940
106	2016-01-29 11:32:21	0	0	0	0	0	0	10.82	1.06	0.06	255080	0	13486	171996	255080	241594	2697	122	1027	111	158536	1465176	3957
107	2016-01-29 11:42:19	0	0	0	0	0	0	10.86	1.06	0.06	256742	0	13670	172706	256742	243072	2717	123	1030	111	159114	1465221	3981
108	2016-01-29 11:52:20	0	0	0	0	0	0	10.86	1.06	0.06	257690	0	13724	172860	257690	243923	2722	123	1031	111	159114	1465272	3987
109	2016-01-29 12:02:29	0	0	0	0	0	0	10.9	1.06	0.06	258135	0	13822	173470	258135	244313	2735	124	1035	111	159763	1465310	4005
110	2016-01-29 12:12:21	0	0	0	0	0	0	10.95	1.06	0.06	258135	0	13933	173470	258135	244313	2748	124	1035	111	160525	1465360	4018
111	2016-01-29 12:22:25	0	0	0	0	0	0	10.98	1.06	0.06	259917	0	14024	175128	259917	245893	2759	124	1040	111	160975	1465414	4034
112	2016-01-29 12:32:22	0	0	0	0	0	0	10.98	1.06	0.06	259917	0	14024	175128	259917	245893	2759	124	1040	111	160975	1465448	4034
113	2016-01-29 12:42:21	0	0	0	0	0	0	11.01	1.06	0.06	261211	0	14142	175825	261211	247069	2780	124	1043	111	161328	1465495	4058
114	2016-01-29 12:52:19	0	0	0	0	0	0	11.01	1.06	0.06	261654	0	14183	175904	261654	247471	2786	124	1045	111	161395	1465541	4066
115	2016-01-29 13:02:20	0	0	0	0	0	0	11.04	1.06	0.06	262589	0	14269	176555	262589	248320	2795	124	1047	111	161816	1465585	4077
116	2016-01-29 13:12:21	0	0	0	0	0	0	11.11	1.07	0.06	263374	0	14332	177435	263374	249042	2806	124	1049	111	162897	1465627	4090
117	2016-01-29 13:22:22	0	0	0	0	0	0	11.12	1.06	0.06	263778	0	14374	177512	263778	249404	2808	124	1050	111	162961	1465669	4093
118	2016-01-29 13:32:20	0	0	0	0	0	0	11.14	1.06	0.06	264758	0	14445	177838	264758	250313	2816	124	1054	111	163236	1465714	4105
119	2016-01-29 13:42:19	0	0	0	0	0	0	11.14	1.06	0.06	264758	0	14445	177838	264758	250313	2816	124	1054	111	163236	1465755	4105
120	2016-01-29 13:52:21	0	0	0	0	0	0	11.2	1.06	0.06	265995	0	14544	178932	265995	251451	2832	124	1060	112	164158	1465801	4128
121	2016-01-29 14:02:22	0	0	0	0	0	0	11.2	1.07	0.06	266838	0	14612	179269	266838	252226	2843	124	1063	112	164197	1465838	4142
122	2016-01-29 14:12:23	0	0	0	0	0	0	11.21	1.07	0.06	267515	0	14667	179455	267515	252848	2850	125	1068	113	164388	1465863	4156
123	2016-01-29 14:22:22	0	0	0	0	0	0	11.22	1.07	0.06	267923	0	14693	179621	267923	253230	2857	125	1069	113	164527	1465906	4164
124	2016-01-29 14:32:23	0	0	0	0	0	0	11.24	1.06	0.06	268661	0	14759	179955	268661	253902	2859	126	1074	113	164808	1465961	4172
125	2016-01-29 14:42:23	0	0	0	0	0	0	11.25	1.06	0.06	269416	0	14822	180448	269416	254594	2861	126	1076	113	164939	1465993	4176
126	2016-01-29 14:52:23	0	0	0	0	0	0	11.25	1.06	0.06	269416	0	14822	180448	269416	254594	2861	126	1076	113	164939	1466033	4176
127	2016-01-29 15:02:31	0	0	0	0	0	0	11.29	1.07	0.06	270145	0	14884	180955	270145	255261	2878	126	1078	116	165557	1466073	4198
128	2016-01-29 15:12:21	0	0	0	0	0	0	11.38	1.06	0.06	270885	0	14951	182383	270885	255934	2878	127	1082	116	166787	1466113	4203
129	2016-01-29 15:22:21	0	0	0	0	0	0	11.4	1.06	0.06	271196	0	14982	182770	271196	256214	2884	128	1082	116	167111	1466162	4210
130	2016-01-29 15:32:24	0	0	0	0	0	0	11.4	1.06	0.06	272072	0	15076	182857	272072	256996	2896	128	1084	116	167184	1466200	4224
131	2016-01-29 15:42:23	0	0	0	0	0	0	11.41	1.06	0.06	272661	0	15123	182961	272661	257538	2900	129	1086	116	167307	1466251	4231
132	2016-01-29 15:52:22	0	0	0	0	0	0	11.41	1.06	0.06	272661	0	15123	182961	272661	257538	2900	129	1086	116	167307	1466295	4231
133	2016-01-29 16:02:22	0	0	0	0	0	0	11.43	1.06	0.06	273322	0	15200	183307	273322	258122	2907	129	1092	116	167596	1466329	4244
134	2016-01-29 16:12:23	0	0	0	0	0	0	11.45	1.06	0.06	273991	0	15265	183721	273991	258726	2914	129	1092	116	167942	1466372	4251
135	2016-01-29 16:22:25	0	0	0	0	0	0	11.47	1.06	0.06	274570	0	15339	184081	274570	259231	2921	129	1094	116	168225	1466411	4260
136	2016-01-29 16:32:25	0	0	0	0	0	0	11.47	1.07	0.06	274570	0	15339	184081	274570	259231	2928	129	1094	116	168225	1466455	4267
137	2016-01-29 16:42:21	0	0	0	0	0	0	11.5	1.06	0.06	275795	0	15450	184848	275795	260345	2928	129	1099	117	168717	1466491	4273
138	2016-01-29 16:52:23	0	0	0	0	0	0	11.5	1.06	0.06	276081	0	15481	184848	276081	260600	2938	129	1101	117	168717	1466526	4285
139	2016-01-29 17:02:23	0	0	0	0	0	0	11.52	1.06	0.06	276719	0	15532	185179	276719	261187	2946	129	1104	117	168901	1466565	4296
140	2016-01-29 17:12:23	0	0	0	0	0	0	11.52	1.06	0.06	276719	0	15532	185179	276719	261187	2946	129	1104	117	168901	1466605	4296
141	2016-01-29 17:22:26	0	0	0	0	0	0	11.57	1.06	0.06	277603	0	15604	186022	277603	261999	2951	129	1106	117	169714	1466649	4303
142	2016-01-29 17:32:25	0	0	0	0	0	0	11.58	1.06	0.06	278203	0	15647	186151	278203	262556	2956	129	1107	118	169826	1466679	4310
143	2016-01-29 17:42:34	0	0	0	0	0	0	11.61	1.06	0.06	278720	0	15701	186701	278720	263019	2958	130	1113	118	170321	1466712	4319
144	2016-01-29 17:52:23	0	0	0	0	0	0	11.61	1.06	0.06	278720	0	15701	186701	278720	263019	2958	130	1113	118	170321	1466741	4319
145	2016-01-29 18:02:24	0	0	0	0	0	0	11.61	1.06	0.06	279511	0	15782	186825	279511	263729	2969	131	1115	118	170349	1466766	4333
146	2016-01-29 18:12:28	0	0	0	0	0	0	11.62	1.06	0.06	279931	0	15826	186997	279931	264105	2973	131	1116	118	170492	1466794	4338
147	2016-01-29 18:22:26	0	0	0	0	0	0	11.62	1.06	0.06	279931	0	15826	186997	279931	264105	2973	131	1116	118	170492	1466840	4338
148	2016-01-29 18:32:25	0	0	0	0	0	0	11.63	1.06	0.06	280674	0	15920	187121	280674	264754	2980	131	1116	118	170595	1466881	4345
149	2016-01-29 18:42:25	0	0	0	0	0	0	11.63	1.06	0.06	280674	0	15920	187121	280674	264754	2985	131	1116	118	170595	1466930	4350
150	2016-01-29 18:52:28	0	0	0	0	0	0	11.63	1.06	0.06	281303	0	15972	187211	281303	265331	2987	131	1118	118	170670	1466967	4354
151	2016-01-29 19:02:25	0	0	0	0	0	0	11.63	1.06	0.06	281303	0	15972	187211	281303	265331	2987	131	1118	118	170670	1467004	4354
152	2016-01-29 19:12:24	0	0	0	0	0	0	11.66	1.06	0.06	282149	0	16050	187753	282149	266099	2995	131	1123	118	171083	1467041	4367
153	2016-01-29 19:22:25	0	0	0	0	0	0	11.66	1.06	0.06	282319	0	16069	187793	282319	266250	2996	131	1123	118	171083	1467077	4368
154	2016-01-29 19:32:27	0	0	0	0	0	0	11.66	1.06	0.06	282534	0	16095	187793	282534	266439	3000	131	1125	118	171083	1467114	4374
155	2016-01-29 19:42:25	0	0	0	0	0	0	11.7	1.06	0.06	283066	0	16163	188502	283066	266903	3004	131	1130	118	171671	1467140	4383
156	2016-01-29 19:52:24	0	0	0	0	0	0	11.73	1.06	0.06	283406	0	16198	188778	283406	267208	3010	132	1131	118	172053	1467161	4391
157	2016-01-29 20:02:26	0	0	0	0	0	0	11.74	1.06	0.06	283612	0	16222	189008	283612	267390	3012	132	1131	118	172206	1467193	4393
158	2016-01-29 20:12:29	0	0	0	0	0	0	11.74	1.06	0.06	283787	0	16241	189008	283787	267546	3013	133	1132	118	172206	1467221	4396
159	2016-01-29 20:22:26	0	0	0	0	0	0	11.76	1.06	0.06	284406	0	16322	189446	284406	268084	3021	133	1133	118	172569	1467261	4405
160	2016-01-29 20:32:25	0	0	0	0	0	0	11.76	1.06	0.06	284614	0	16357	189470	284614	268257	3027	133	1134	118	172588	1467285	4412
161	2016-01-29 20:42:25	0	0	0	0	0	0	11.76	1.06	0.06	284844	0	16387	189632	284844	268457	3030	133	1135	118	172588	1467316	4416
162	2016-01-29 20:52:26	0	0	0	0	0	0	11.77	1.07	0.06	285441	0	16462	189713	285441	268979	3040	133	1135	119	172656	1467358	4427
163	2016-01-29 21:02:30	0	0	0	0	0	0	11.77	1.06	0.06	285641	0	16479	189824	285641	269162	3041	133	1135	119	172747	1467389	4428
164	2016-01-29 21:12:27	0	0	0	0	0	0	11.77	1.06	0.06	285641	0	16479	189824	285641	269162	3041	133	1135	119	172747	1467419	4428
165	2016-01-29 21:22:37	0	0	0	0	0	0	11.81	1.07	0.06	286395	0	16563	190501	286395	269832	3054	134	1139	119	173289	1467457	4446
166	2016-01-29 21:32:28	0	0	0	0	0	0	11.81	1.07	0.06	286395	0	16563	190501	286395	269832	3054	134	1139	119	173289	1467486	4446
167	2016-01-29 21:42:28	0	0	0	0	0	0	11.84	1.07	0.06	286966	0	16636	190948	286966	270330	3060	134	1139	119	173736	1467513	4452
168	2016-01-29 21:52:29	0	0	0	0	0	0	11.84	1.07	0.06	287293	0	16665	191101	287293	270628	3067	134	1141	119	173765	1467549	4461
169	2016-01-29 22:02:26	0	0	0	0	0	0	11.87	1.07	0.06	287630	0	16704	191473	287630	270926	3067	134	1145	119	174230	1467583	4465
170	2016-01-29 22:12:27	0	0	0	0	0	0	11.88	1.07	0.06	287771	0	16720	191568	287771	271051	3069	134	1146	119	174308	1467609	4468
171	2016-01-29 22:22:27	0	0	0	0	0	0	11.88	1.07	0.06	287771	0	16720	191568	287771	271051	3069	134	1146	119	174308	1467648	4468
172	2016-01-29 22:32:27	0	0	0	0	0	0	11.88	1.07	0.06	288523	0	16814	191568	288523	271709	3079	134	1147	120	174308	1467690	4480
173	2016-01-29 22:42:29	0	0	0	0	0	0	11.88	1.07	0.06	288523	0	16814	191568	288523	271709	3079	134	1147	120	174308	1467726	4480
174	2016-01-29 22:52:26	0	0	0	0	0	0	11.9	1.07	0.06	289086	0	16886	191568	289086	272200	3084	134	1152	120	174603	1467763	4490
175	2016-01-29 23:02:28	0	0	0	0	0	0	11.9	1.07	0.06	289409	0	16934	191894	289409	272475	3089	135	1154	120	174662	1467788	4498
176	2016-01-29 23:12:28	0	0	0	0	0	0	11.9	1.07	0.06	289613	0	16957	191894	289613	272656	3091	135	1154	120	174662	1467821	4500
177	2016-01-29 23:22:26	0	0	0	0	0	0	11.9	1.07	0.06	289613	0	16957	191894	289613	272656	3092	135	1154	120	174662	1467852	4501
178	2016-01-29 23:32:26	0	0	0	0	0	0	11.91	1.07	0.06	289941	0	17014	192109	289941	272927	3097	135	1155	120	174840	1467889	4507
179	2016-01-29 23:42:28	0	0	0	0	0	0	11.92	1.07	0.06	290476	0	17095	192300	290476	273381	3103	135	1156	120	174998	1467930	4514
180	2016-01-29 23:52:26	0	0	0	0	0	0	11.92	1.07	0.06	290476	0	17095	192300	290476	273381	3103	135	1156	120	174998	1467971	4514
181	2016-01-30 00:02:34	0	0	0	0	0	0	11.94	1.07	0.06	291208	0	17171	192629	291208	274037	3111	135	1159	120	175270	1468012	4525
182	2016-01-30 00:12:28	0	0	0	0	0	0	11.94	1.07	0.06	291208	0	17171	192629	291208	274037	3111	135	1159	120	175270	1468033	4525
183	2016-01-30 00:22:48	0	0	0	0	0	0	11.94	1.07	0.06	291744	0	17247	192869	291744	274497	3120	135	1165	120	175310	1468063	4540
184	2016-01-30 00:32:26	0	0	0	0	0	0	11.95	1.07	0.06	292075	0	17288	193037	292075	274787	3124	135	1165	120	175449	1468085	4544
185	2016-01-30 00:42:27	0	0	0	0	0	0	11.95	1.07	0.06	292380	0	17288	193118	292380	274787	3128	135	1171	120	175449	1468120	4554
186	2016-01-30 00:52:26	0	0	0	0	0	0	11.95	1.07	0.06	292380	0	17333	193118	292380	275047	3128	135	1171	120	175516	1468144	4554
187	2016-01-30 01:02:52	0	0	0	0	0	0	11.96	1.07	0.06	292837	0	17385	193239	292837	275452	3135	135	1173	120	175616	1468169	4563
188	2016-01-30 01:12:56	0	0	0	0	0	0	11.96	1.07	0.06	292974	0	17402	193239	292974	275572	3136	135	1173	120	175616	1468188	4564
189	2016-01-30 01:22:34	0	0	0	0	0	0	11.96	1.07	0.06	292974	0	17402	193239	292974	275572	3136	135	1173	120	175616	1468209	4564
190	2016-01-30 01:32:26	0	0	0	0	0	0	11.97	1.07	0.06	293324	0	17442	193408	293324	275882	3142	136	1176	120	175755	1468222	4574
191	2016-01-30 01:42:28	0	0	0	0	0	0	11.97	1.07	0.06	293527	0	17477	193504	293527	276050	3146	136	1176	120	175755	1468250	4578
192	2016-01-30 01:52:29	0	0	0	0	0	0	12.02	1.07	0.06	293696	0	17494	193783	293696	276202	3147	136	1176	120	176547	1468264	4579
193	2016-01-30 02:02:27	0	0	0	0	0	0	12.02	1.07	0.06	293696	0	17494	193783	293696	276202	3147	136	1176	120	176547	1468281	4579
194	2016-01-30 02:12:26	0	0	0	0	0	0	12.02	1.07	0.06	293968	0	17514	193783	293968	276454	3148	136	1179	120	176547	1468298	4583
195	2016-01-30 02:22:26	0	0	0	0	0	0	12.03	1.07	0.06	294093	0	17525	193977	294093	276568	3149	136	1179	120	176708	1468307	4584
196	2016-01-30 02:32:27	0	0	0	0	0	0	12.03	1.07	0.06	294160	0	17529	193977	294160	276631	3151	136	1179	120	176708	1468324	4586
197	2016-01-30 02:42:27	0	0	0	0	0	0	12.03	1.07	0.06	294160	0	17529	193977	294160	276631	3151	136	1179	120	176708	1468338	4586
198	2016-01-30 02:52:27	0	0	0	0	0	0	12.03	1.07	0.06	294326	0	17549	193977	294326	276777	3154	136	1179	120	176708	1468350	4589
199	2016-01-30 03:02:28	0	0	0	0	0	0	12.06	1.07	0.06	294473	0	17571	194002	294473	276902	3157	136	1179	120	176728	1465842	4592
200	2016-01-30 03:12:27	0	0	0	0	0	0	12.06	1.07	0.06	294526	0	17575	194002	294526	276951	3159	136	1179	120	176728	1465850	4594
201	2016-01-30 03:22:26	0	0	0	0	0	0	12.06	1.07	0.06	294526	0	17575	194002	294526	276951	3159	136	1182	120	176728	1465859	4597
202	2016-01-30 03:32:27	0	0	0	0	0	0	12.06	1.07	0.06	294707	0	17596	194002	294707	277111	3160	136	1183	120	176728	1465862	4599
203	2016-01-30 03:42:34	0	0	0	0	0	0	12.06	1.07	0.06	294776	0	17606	194002	294776	277170	3161	136	1183	120	176728	1465870	4600
204	2016-01-30 03:52:26	0	0	0	0	0	0	12.06	1.07	0.06	294776	0	17606	194002	294776	277170	3161	136	1183	120	176728	1465874	4600
205	2016-01-30 04:02:26	0	0	0	0	0	0	12.06	1.07	0.06	294838	0	17614	194002	294838	277224	3161	136	1183	120	176728	1465880	4600
206	2016-01-30 04:12:28	0	0	0	0	0	0	12.06	1.07	0.06	294920	0	17619	194002	294920	277301	3162	136	1183	120	176728	1465884	4601
207	2016-01-30 04:22:26	0	0	0	0	0	0	12.06	1.07	0.06	294957	0	17620	194002	294957	277337	3163	136	1183	120	176728	1465886	4602
208	2016-01-30 04:32:26	0	0	0	0	0	0	12.06	1.07	0.06	294992	0	17624	194002	294992	277368	3165	136	1183	120	176728	1465889	4604
209	2016-01-30 04:42:27	0	0	0	0	0	0	12.08	1.07	0.06	295045	0	17628	194367	295045	277417	3166	136	1183	120	177031	1465891	4605
210	2016-01-30 04:52:25	0	0	0	0	0	0	12.08	1.07	0.06	295065	0	17632	194465	295065	277433	3166	136	1183	120	177031	1465896	4605
211	2016-01-30 05:02:26	0	0	0	0	0	0	12.08	1.07	0.06	295115	0	17636	194465	295115	277479	3166	136	1185	120	177031	1465898	4607
212	2016-01-30 05:12:28	0	0	0	0	0	0	12.08	1.07	0.06	295131	0	17636	194465	295131	277495	3166	136	1185	120	177031	1465903	4607
213	2016-01-30 05:22:26	0	0	0	0	0	0	12.08	1.07	0.06	295131	0	17636	194465	295131	277495	3167	136	1185	120	177031	1465909	4608
214	2016-01-30 05:32:27	0	0	0	0	0	0	12.08	1.07	0.06	295205	0	17641	194465	295205	277564	3169	136	1185	120	177031	1465916	4610
215	2016-01-30 05:42:26	0	0	0	0	0	0	12.08	1.07	0.06	295205	0	17641	194465	295205	277564	3169	136	1185	120	177031	1465921	4610
216	2016-01-30 05:52:25	0	0	0	0	0	0	12.08	1.07	0.06	295258	0	17642	194465	295258	277616	3170	136	1185	120	177031	1465921	4611
217	2016-01-30 06:02:26	0	0	0	0	0	0	12.08	1.07	0.06	295295	0	17649	194465	295295	277646	3170	136	1185	120	177031	1465923	4611
218	2016-01-30 06:12:27	0	0	0	0	0	0	12.08	1.07	0.06	295295	0	17649	194465	295295	277646	3170	136	1185	120	177031	1465926	4611
219	2016-01-30 06:22:26	0	0	0	0	0	0	12.08	1.07	0.06	295321	0	17660	194465	295321	277666	3170	136	1185	120	177031	1465925	4611
220	2016-01-30 06:32:26	0	0	0	0	0	0	12.08	1.07	0.06	295347	0	17664	194465	295347	277683	3170	136	1185	120	177031	1465932	4611
221	2016-01-30 06:42:27	0	0	0	0	0	0	12.08	1.07	0.06	295371	0	17673	194465	295371	277698	3170	136	1185	120	177031	1465935	4611
222	2016-01-30 06:52:27	0	0	0	0	0	0	12.08	1.07	0.06	295386	0	17677	194465	295386	277709	3170	136	1185	120	177031	1465940	4611
223	2016-01-30 07:02:31	0	0	0	0	0	0	12.08	1.07	0.06	295393	0	17680	194465	295393	277713	3170	136	1185	120	177031	1465947	4611
224	2016-01-30 07:12:28	0	0	0	0	0	0	12.08	1.07	0.06	295413	0	17683	194465	295413	277730	3170	136	1185	120	177031	1465951	4611
225	2016-01-30 07:22:27	0	0	0	0	0	0	12.08	1.07	0.06	295424	0	17687	194465	295424	277737	3170	136	1185	120	177031	1465956	4611
226	2016-01-30 07:32:27	0	0	0	0	0	0	12.08	1.07	0.06	295448	0	17695	194465	295448	277753	3170	136	1185	120	177031	1465967	4611
227	2016-01-30 07:42:26	0	0	0	0	0	0	12.08	1.07	0.06	295466	0	17699	194465	295466	277767	3170	136	1185	120	177031	1465973	4611
228	2016-01-30 07:52:27	0	0	0	0	0	0	12.08	1.07	0.06	295481	0	17706	194465	295481	277775	3170	136	1185	120	177031	1465978	4611
229	2016-01-30 08:02:30	0	0	0	0	0	0	12.08	1.07	0.06	295510	0	17714	194465	295510	277796	3170	136	1185	120	177031	1465981	4611
230	2016-01-30 08:12:29	0	0	0	0	0	0	12.08	1.07	0.06	295510	0	17714	194465	295510	277796	3170	136	1185	120	177031	1465993	4611
231	2016-01-30 08:22:27	0	0	0	0	0	0	12.08	1.07	0.06	295566	0	17725	194465	295566	277841	3170	136	1185	120	177031	1466010	4611
232	2016-01-30 08:32:28	0	0	0	0	0	0	12.08	1.07	0.06	295600	0	17728	194465	295600	277872	3170	136	1185	120	177031	1466022	4611
233	2016-01-30 08:42:30	0	0	0	0	0	0	12.08	1.07	0.06	295639	0	17734	194465	295639	277905	3170	136	1185	120	177031	1466033	4611
234	2016-01-30 08:52:28	0	0	0	0	0	0	12.08	1.07	0.06	295666	0	17739	194465	295666	277927	3170	136	1187	120	177031	1466049	4613
235	2016-01-30 09:02:29	0	0	0	0	0	0	12.08	1.07	0.06	295711	0	17745	194465	295711	277966	3171	136	1187	120	177031	1466065	4614
236	2016-01-30 09:12:28	0	0	0	0	0	0	12.08	1.07	0.06	295711	0	17745	194465	295711	277966	3172	136	1187	120	177031	1466079	4615
237	2016-01-30 09:22:28	0	0	0	0	0	0	12.08	1.07	0.06	295810	0	17763	194556	295810	278047	3172	136	1187	120	177107	1466100	4615
238	2016-01-30 09:32:33	0	0	0	0	0	0	12.08	1.07	0.06	295837	0	17765	194556	295837	278072	3173	136	1187	120	177107	1466115	4616
239	2016-01-30 09:42:30	0	0	0	0	0	0	12.08	1.07	0.06	295837	0	17765	194556	295837	278072	3173	136	1187	120	177107	1466138	4616
240	2016-01-30 09:52:30	0	0	0	0	0	0	12.08	1.07	0.06	295976	0	17790	194556	295976	278186	3176	136	1187	120	177107	1466161	4619
241	2016-01-30 10:02:27	0	0	0	0	0	0	12.08	1.07	0.06	296013	0	17798	194556	296013	278215	3177	136	1187	120	177107	1466194	4620
242	2016-01-30 10:12:30	0	0	0	0	0	0	12.08	1.07	0.06	296086	0	17810	194605	296086	278276	3178	137	1187	120	177148	1466218	4622
243	2016-01-30 10:22:26	0	0	0	0	0	0	12.08	1.07	0.06	296086	0	17810	194605	296086	278276	3178	137	1187	120	177148	1466240	4622
244	2016-01-30 10:32:30	0	0	0	0	0	0	12.08	1.07	0.06	296174	0	17823	194605	296174	278351	3182	138	1187	120	177148	1466265	4627
245	2016-01-30 10:42:32	0	0	0	0	0	0	12.08	1.07	0.06	296235	0	17837	194605	296235	278398	3182	138	1187	120	177148	1466286	4627
246	2016-01-30 10:52:34	0	0	0	0	0	0	12.08	1.07	0.06	296270	0	17848	194605	296270	278422	3183	138	1187	120	177148	1466310	4628
247	2016-01-30 11:02:27	0	0	0	0	0	0	12.08	1.07	0.06	296321	0	17864	194605	296321	278457	3185	138	1188	120	177148	1466334	4631
248	2016-01-30 11:12:32	0	0	0	0	0	0	12.08	1.07	0.06	296375	0	17882	194605	296375	278493	3186	138	1189	121	177148	1466350	4634
249	2016-01-30 11:22:29	0	0	0	0	0	0	12.08	1.07	0.06	296375	0	17882	194605	296375	278493	3186	138	1189	121	177148	1466372	4634
250	2016-01-30 11:32:30	0	0	0	0	0	0	12.08	1.07	0.06	296467	0	17897	194642	296467	278570	3186	138	1189	121	177148	1466390	4634
251	2016-01-30 11:42:31	0	0	0	0	0	0	12.08	1.07	0.06	296532	0	17914	194642	296532	278618	3187	138	1189	121	177148	1466416	4635
252	2016-01-30 11:52:29	0	0	0	0	0	0	12.08	1.07	0.06	296563	0	17922	194642	296563	278641	3187	138	1189	121	177148	1466438	4635
253	2016-01-30 12:02:33	0	0	0	0	0	0	12.08	1.08	0.06	296624	0	17937	194642	296624	278687	3190	138	1189	122	177148	1466456	4639
254	2016-01-30 12:12:29	0	0	0	0	0	0	12.08	1.08	0.06	296624	0	17937	194642	296624	278687	3190	138	1189	122	177148	1466477	4639
255	2016-01-30 12:22:28	0	0	0	0	0	0	12.08	1.08	0.06	296683	0	17952	194642	296683	278731	3190	138	1189	122	177148	1466500	4639
256	2016-01-30 12:32:30	0	0	0	0	0	0	12.08	1.08	0.06	296729	0	17964	194740	296729	278765	3191	138	1189	122	177148	1466519	4640
257	2016-01-30 12:42:30	0	0	0	0	0	0	12.08	1.08	0.06	296781	0	17977	194740	296781	278804	3192	138	1189	122	177148	1466531	4641
258	2016-01-30 12:52:32	0	0	0	0	0	0	12.08	1.08	0.06	296805	0	17981	194740	296805	278824	3192	138	1189	122	177148	1466563	4641
259	2016-01-30 13:02:31	0	0	0	0	0	0	12.08	1.08	0.06	296846	0	17992	194740	296846	278854	3192	138	1189	122	177148	1466581	4641
260	2016-01-30 13:12:30	0	0	0	0	0	0	12.08	1.08	0.06	296846	0	17992	194740	296846	278854	3192	138	1189	122	177148	1466603	4641
261	2016-01-30 13:22:31	0	0	0	0	0	0	12.08	1.08	0.06	296891	0	17998	194740	296891	278893	3192	138	1189	122	177148	1466629	4641
262	2016-01-30 13:32:32	0	0	0	0	0	0	12.08	1.08	0.06	296926	0	18004	194740	296926	278922	3192	138	1189	122	177148	1466656	4641
263	2016-01-30 13:42:35	0	0	0	0	0	0	12.08	1.07	0.06	296943	0	18007	194740	296943	278936	3192	138	1189	122	177148	1466669	4641
264	2016-01-30 13:52:41	0	0	0	0	0	0	12.08	1.07	0.06	296970	0	18013	194740	296970	278957	3192	138	1189	122	177148	1466693	4641
265	2016-01-30 14:02:50	0	0	0	0	0	0	12.08	1.07	0.06	296996	0	18020	194740	296996	278976	3192	138	1189	122	177148	1466713	4641
266	2016-01-30 14:12:47	0	0	0	0	0	0	12.08	1.07	0.06	296996	0	18020	194740	296996	278976	3192	138	1189	122	177148	1466729	4641
267	2016-01-30 14:22:44	0	0	0	0	0	0	12.08	1.07	0.06	297038	0	18025	194740	297038	279013	3192	138	1189	122	177148	1466753	4641
268	2016-01-30 14:32:57	0	0	0	0	0	0	12.08	1.07	0.06	297075	0	18035	194740	297075	279040	3192	138	1189	122	177148	1466782	4641
269	2016-01-30 14:42:34	0	0	0	0	0	0	12.08	1.07	0.06	297104	0	18039	194740	297104	279065	3192	138	1189	122	177148	1466804	4641
270	2016-01-30 14:52:30	0	0	0	0	0	0	12.08	1.07	0.06	297133	0	18043	194837	297133	279090	3193	138	1189	122	177228	1466833	4642
271	2016-01-30 15:02:32	0	0	0	0	0	0	12.08	1.07	0.06	297164	0	18051	194837	297164	279113	3193	138	1190	122	177228	1466855	4643
272	2016-01-30 15:12:36	0	0	0	0	0	0	12.08	1.07	0.06	297183	0	18055	194837	297183	279128	3194	138	1190	122	177228	1466882	4644
273	2016-01-30 15:22:37	0	0	0	0	0	0	12.08	1.08	0.06	297208	0	18061	194984	297208	279147	3196	138	1191	122	177228	1466911	4647
274	2016-01-30 15:32:31	0	0	0	0	0	0	12.08	1.08	0.06	297208	0	18061	194984	297208	279147	3196	138	1191	122	177228	1466939	4647
275	2016-01-30 15:42:37	0	0	0	0	0	0	12.08	1.08	0.06	297251	0	18071	195009	297251	279180	3197	138	1191	122	177228	1466950	4648
276	2016-01-30 15:52:32	0	0	0	0	0	0	12.08	1.08	0.06	297251	0	18071	195009	297251	279180	3197	138	1191	122	177228	1466982	4648
277	2016-01-30 16:02:33	0	0	0	0	0	0	12.08	1.08	0.06	297295	0	18079	195009	297295	279216	3198	138	1191	122	177228	1467014	4649
278	2016-01-30 16:12:36	0	0	0	0	0	0	12.08	1.08	0.06	297335	0	18090	195009	297335	279245	3198	138	1191	122	177228	1467035	4649
279	2016-01-30 16:22:34	0	0	0	0	0	0	12.08	1.08	0.06	297335	0	18090	195009	297335	279245	3198	138	1191	122	177228	1467063	4649
280	2016-01-30 16:32:32	0	0	0	0	0	0	12.08	1.08	0.06	297390	0	18103	195009	297390	279287	3200	138	1191	122	177228	1467080	4651
281	2016-01-30 16:42:38	0	0	0	0	0	0	12.08	1.08	0.06	297412	0	18107	195082	297412	279305	3200	138	1191	122	177228	1467104	4651
282	2016-01-30 16:52:33	0	0	0	0	0	0	12.08	1.08	0.06	297412	0	18107	195082	297412	279305	3200	138	1191	122	177228	1467131	4651
283	2016-01-30 17:02:34	0	0	0	0	0	0	12.08	1.08	0.06	297446	0	18111	195082	297446	279335	3200	138	1191	122	177228	1467146	4651
284	2016-01-30 17:12:37	0	0	0	0	0	0	12.08	1.08	0.06	297488	0	18116	195082	297488	279372	3200	138	1191	122	177228	1467169	4651
285	2016-01-30 17:22:33	0	0	0	0	0	0	12.08	1.08	0.06	297488	0	18116	195082	297488	279372	3200	138	1191	122	177228	1467192	4651
286	2016-01-30 17:32:33	0	0	0	0	0	0	12.09	1.08	0.06	297528	0	18125	195267	297528	279403	3200	138	1191	122	177381	1467222	4651
287	2016-01-30 17:42:42	0	0	0	0	0	0	12.09	1.08	0.06	297556	0	18131	195267	297556	279425	3200	138	1191	122	177381	1467256	4651
288	2016-01-30 17:52:36	0	0	0	0	0	0	12.09	1.08	0.06	297556	0	18131	195267	297556	279425	3200	138	1191	122	177381	1467277	4651
289	2016-01-30 18:02:34	0	0	0	0	0	0	12.09	1.08	0.06	297595	0	18140	195267	297595	279455	3201	138	1191	122	177381	1467300	4652
290	2016-01-30 18:12:43	0	0	0	0	0	0	12.09	1.08	0.06	297616	0	18142	195267	297616	279474	3201	138	1191	122	177381	1467316	4652
291	2016-01-30 18:22:38	0	0	0	0	0	0	12.09	1.08	0.06	297616	0	18142	195267	297616	279474	3201	138	1191	122	177381	1467342	4652
292	2016-01-30 18:32:51	0	0	0	0	0	0	12.09	1.08	0.06	297672	0	18154	195267	297672	279518	3201	138	1191	122	177381	1467364	4652
293	2016-01-30 18:42:51	0	0	0	0	0	0	12.09	1.08	0.06	297672	0	18154	195267	297672	279518	3201	138	1191	122	177381	1467382	4652
294	2016-01-30 18:52:39	0	0	0	0	0	0	12.09	1.08	0.06	297711	0	18159	195267	297711	279552	3201	138	1192	122	177381	1467395	4653
295	2016-01-30 19:02:33	0	0	0	0	0	0	12.09	1.08	0.06	297711	0	18159	195267	297711	279552	3201	138	1192	122	177381	1467410	4653
296	2016-01-30 19:12:53	0	0	0	0	0	0	12.09	1.08	0.06	297755	0	18168	195267	297755	279587	3201	138	1192	122	177381	1467430	4653
297	2016-01-30 19:22:39	0	0	0	0	0	0	12.09	1.08	0.06	297755	0	18168	195267	297755	279587	3201	138	1192	122	177381	1467445	4653
298	2016-01-30 19:32:59	0	0	0	0	0	0	12.09	1.07	0.06	297796	0	18174	195366	297796	279622	3201	138	1192	122	177462	1467471	4653
299	2016-01-30 19:42:51	0	0	0	0	0	0	12.09	1.07	0.06	297804	0	18175	195366	297804	279629	3201	138	1192	122	177462	1467491	4653
300	2016-01-30 19:52:40	0	0	0	0	0	0	12.09	1.07	0.07	297830	0	18178	195366	297830	279652	3201	138	1192	122	177462	1467502	4653
301	2016-01-30 20:02:38	0	0	0	0	0	0	12.09	1.07	0.07	297845	0	18179	195464	297845	279666	3201	138	1192	122	177462	1467526	4653
302	2016-01-30 20:12:57	0	0	0	0	0	0	12.09	1.07	0.07	297860	0	18181	195464	297860	279679	3201	138	1192	122	177462	1467544	4653
303	2016-01-30 20:22:40	0	0	0	0	0	0	12.09	1.07	0.07	297887	0	18190	195464	297887	279697	3201	138	1192	122	177462	1467564	4653
304	2016-01-30 20:32:47	0	0	0	0	0	0	12.09	1.07	0.07	297895	0	18192	195464	297895	279703	3202	138	1192	122	177462	1467581	4654
305	2016-01-30 20:42:48	0	0	0	0	0	0	12.1	1.07	0.07	297926	0	18198	195464	297926	279728	3202	138	1192	122	177625	1467602	4654
306	2016-01-30 20:53:05	0	0	0	0	0	0	12.1	1.07	0.07	297952	0	18203	195464	297952	279749	3202	138	1192	122	177625	1467618	4654
307	2016-01-30 21:02:42	0	0	0	0	0	0	12.1	1.07	0.07	297952	0	18203	195464	297952	279749	3202	138	1192	122	177625	1467652	4654
308	2016-01-30 21:12:48	0	0	0	0	0	0	12.1	1.07	0.07	297983	0	18208	195464	297983	279775	3202	138	1192	122	177625	1467680	4654
309	2016-01-30 21:22:36	0	0	0	0	0	0	12.1	1.07	0.07	297983	0	18208	195464	297983	279775	3202	138	1192	122	177625	1467708	4654
310	2016-01-30 21:32:35	0	0	0	0	0	0	12.1	1.07	0.07	298024	0	18216	195464	298024	279808	3202	138	1192	122	177625	1467728	4654
311	2016-01-30 21:42:44	0	0	0	0	0	0	12.1	1.07	0.07	298049	0	18220	195464	298049	279829	3202	138	1192	122	177625	1467749	4654
312	2016-01-30 21:52:40	0	0	0	0	0	0	12.1	1.07	0.07	298057	0	18221	195464	298057	279836	3202	138	1192	122	177625	1467770	4654
313	2016-01-30 22:02:38	0	0	0	0	0	0	12.1	1.07	0.07	298057	0	18221	195464	298057	279836	3202	138	1192	122	177625	1467788	4654
314	2016-01-30 22:12:47	0	0	0	0	0	0	12.1	1.07	0.07	298093	0	18229	195464	298093	279864	3202	138	1192	122	177625	1467820	4654
315	2016-01-30 22:22:39	0	0	0	0	0	0	12.1	1.07	0.07	298093	0	18233	195464	298093	279869	3202	138	1192	122	177625	1467850	4654
316	2016-01-30 22:32:47	0	0	0	0	0	0	12.1	1.07	0.07	298124	0	18237	195464	298124	279887	3202	138	1192	122	177625	1467873	4654
317	2016-01-30 22:42:41	0	0	0	0	0	0	12.1	1.07	0.07	298156	0	18247	195464	298156	279909	3202	138	1192	122	177625	1467886	4654
318	2016-01-30 22:52:38	0	0	0	0	0	0	12.1	1.07	0.07	298163	0	18248	195464	298163	279915	3202	138	1192	122	177625	1467903	4654
319	2016-01-30 23:02:38	0	0	0	0	0	0	12.1	1.07	0.07	298181	0	18251	195464	298181	279930	3202	138	1192	122	177625	1467916	4654
320	2016-01-30 23:12:43	0	0	0	0	0	0	12.1	1.07	0.07	298191	0	18254	195464	298191	279937	3202	138	1192	122	177625	1467947	4654
321	2016-01-30 23:22:37	0	0	0	0	0	0	12.1	1.07	0.07	298225	0	18263	195464	298225	279962	3202	138	1192	122	177625	1467969	4654
322	2016-01-30 23:32:37	0	0	0	0	0	0	12.1	1.07	0.07	298241	0	18266	195464	298241	279975	3202	138	1192	122	177625	1467993	4654
323	2016-01-30 23:42:40	0	0	0	0	0	0	12.1	1.07	0.07	298257	0	18267	195464	298257	279990	3202	138	1192	122	177625	1468008	4654
324	2016-01-30 23:52:35	0	0	0	0	0	0	12.1	1.07	0.07	298257	0	18267	195464	298257	279990	3202	138	1192	122	177625	1468031	4654
325	2016-01-31 00:02:36	0	0	0	0	0	0	12.1	1.07	0.07	298285	0	18271	195563	298285	280014	3202	138	1192	122	177706	1468051	4654
326	2016-01-31 00:12:44	0	0	0	0	0	0	12.1	1.07	0.07	298301	0	18273	195563	298301	280028	3202	138	1192	122	177706	1468062	4654
327	2016-01-31 00:22:36	0	0	0	0	0	0	12.1	1.07	0.07	298311	0	18274	195563	298311	280037	3202	138	1192	122	177706	1468076	4654
328	2016-01-31 00:32:38	0	0	0	0	0	0	12.1	1.07	0.07	298330	0	18280	195563	298330	280050	3202	138	1192	122	177706	1468098	4654
329	2016-01-31 00:42:40	0	0	0	0	0	0	12.1	1.07	0.07	298346	0	18285	195563	298346	280061	3202	138	1192	122	177706	1468119	4654
330	2016-01-31 00:52:36	0	0	0	0	0	0	12.1	1.07	0.07	298346	0	18285	195563	298346	280061	3202	138	1192	122	177706	1468133	4654
331	2016-01-31 01:02:34	0	0	0	0	0	0	12.1	1.07	0.07	298362	0	18289	195563	298362	280073	3202	138	1192	122	177706	1468151	4654
332	2016-01-31 01:12:45	0	0	0	0	0	0	12.1	1.07	0.07	298376	0	18292	195563	298376	280084	3202	138	1192	122	177706	1468161	4654
333	2016-01-31 01:23:01	0	0	0	0	0	0	12.1	1.07	0.07	298384	0	18294	195563	298384	280090	3202	138	1192	122	177706	1468183	4654
334	2016-01-31 01:33:37	0	0	0	0	0	0	12.1	1.07	0.07	298398	0	18295	195563	298398	280103	3202	138	1192	122	177706	1468207	4654
335	2016-01-31 01:42:51	0	0	0	0	0	0	12.1	1.07	0.07	298398	0	18295	195563	298398	280103	3202	138	1192	122	177706	1468220	4654
336	2016-01-31 01:52:52	0	0	0	0	0	0	12.1	1.07	0.07	298417	0	18296	195736	298417	280121	3202	138	1192	122	177706	1468237	4654
337	2016-01-31 02:02:34	0	0	0	0	0	0	12.1	1.07	0.07	298417	0	18296	195736	298417	280121	3202	138	1192	122	177706	1468246	4654
338	2016-01-31 02:12:56	0	0	0	0	0	0	12.1	1.07	0.07	298431	0	18298	195736	298431	280133	3202	138	1192	122	177706	1468260	4654
339	2016-01-31 02:23:33	0	0	0	0	0	0	12.1	1.07	0.07	298435	0	18298	195736	298435	280137	3202	138	1192	122	177706	1468270	4654
340	2016-01-31 02:33:08	0	0	0	0	0	0	12.1	1.07	0.07	298438	0	18298	195736	298438	280140	3202	138	1192	122	177706	1468274	4654
341	2016-01-31 02:43:45	0	0	0	0	0	0	12.1	1.07	0.07	298448	0	18302	195736	298448	280146	3202	138	1192	122	177706	1468284	4654
342	2016-01-31 02:53:47	0	0	0	0	0	0	12.1	1.07	0.07	298452	0	18303	195736	298452	280149	3202	138	1192	122	177706	1468290	4654
343	2016-01-31 03:03:43	0	0	0	0	0	0	12.1	1.07	0.07	298452	0	18303	195736	298452	280149	3202	138	1192	122	177706	1468793	4654
344	2016-01-31 03:13:00	0	0	0	0	0	0	12.1	1.07	0.07	298456	0	18304	195736	298456	280152	3202	138	1192	122	177706	1468803	4654
345	2016-01-31 03:22:35	0	0	0	0	0	0	12.1	1.07	0.07	298456	0	18304	195736	298456	280152	3202	138	1192	122	177706	1468811	4654
346	2016-01-31 03:32:43	0	0	0	0	0	0	12.1	1.07	0.07	298462	0	18305	195736	298462	280157	3202	138	1192	122	177706	1468811	4654
347	2016-01-31 03:42:43	0	0	0	0	0	0	12.1	1.07	0.07	298466	0	18306	195736	298466	280160	3202	138	1192	122	177706	1468814	4654
348	2016-01-31 03:52:38	0	0	0	0	0	0	12.1	1.07	0.07	298466	0	18306	195736	298466	280160	3202	138	1192	122	177706	1468815	4654
349	2016-01-31 04:02:36	0	0	0	0	0	0	12.1	1.07	0.07	298471	0	18306	195736	298471	280165	3202	138	1192	122	177706	1468819	4654
350	2016-01-31 04:12:45	0	0	0	0	0	0	12.1	1.07	0.07	298471	0	18306	195736	298471	280165	3202	138	1192	122	177706	1468822	4654
351	2016-01-31 04:22:35	0	0	0	0	0	0	12.1	1.07	0.07	298471	0	18306	195736	298471	280165	3202	138	1192	122	177706	1468823	4654
352	2016-01-31 04:32:36	0	0	0	0	0	0	12.1	1.07	0.07	298475	0	18306	195736	298475	280169	3202	138	1192	122	177706	1468826	4654
353	2016-01-31 04:42:44	0	0	0	0	0	0	12.1	1.07	0.07	298475	0	18306	195736	298475	280169	3202	138	1192	122	177706	1468828	4654
354	2016-01-31 04:52:36	0	0	0	0	0	0	12.1	1.07	0.07	298475	0	18306	195736	298475	280169	3202	138	1192	122	177706	1468828	4654
355	2016-01-31 05:02:37	0	0	0	0	0	0	12.1	1.07	0.07	298480	0	18306	195736	298480	280174	3202	138	1192	122	177706	1468830	4654
356	2016-01-31 05:12:40	0	0	0	0	0	0	12.1	1.07	0.07	298481	0	18306	195736	298481	280175	3202	138	1192	122	177706	1468833	4654
357	2016-01-31 05:22:35	0	0	0	0	0	0	12.1	1.07	0.07	298483	0	18308	195736	298483	280175	3202	138	1192	122	177706	1468833	4654
358	2016-01-31 05:32:38	0	0	0	0	0	0	12.1	1.07	0.07	298483	0	18308	195736	298483	280175	3202	138	1192	122	177706	1468835	4654
359	2016-01-31 05:42:41	0	0	0	0	0	0	12.1	1.07	0.07	298484	0	18308	195736	298484	280176	3202	138	1192	122	177706	1468836	4654
360	2016-01-31 05:52:36	0	0	0	0	0	0	12.1	1.07	0.07	298484	0	18308	195736	298484	280176	3202	138	1192	122	177706	1468840	4654
361	2016-01-31 06:02:36	0	0	0	0	0	0	12.1	1.07	0.07	298486	0	18308	195736	298486	280178	3202	138	1192	122	177706	1468842	4654
362	2016-01-31 06:12:40	0	0	0	0	0	0	12.1	1.07	0.07	298487	0	18308	195736	298487	280179	3202	138	1192	122	177706	1468846	4654
363	2016-01-31 06:22:36	0	0	0	0	0	0	12.1	1.07	0.07	298489	0	18310	195736	298489	280179	3202	138	1192	122	177706	1468846	4654
364	2016-01-31 06:32:37	0	0	0	0	0	0	12.1	1.07	0.07	298489	0	18310	195736	298489	280179	3202	138	1192	122	177706	1468845	4654
365	2016-01-31 06:42:38	0	0	0	0	0	0	12.1	1.07	0.07	298494	0	18312	195736	298494	280182	3202	138	1192	122	177706	1468845	4654
366	2016-01-31 06:52:35	0	0	0	0	0	0	12.1	1.07	0.07	298494	0	18312	195736	298494	280182	3202	138	1192	122	177706	1468847	4654
367	2016-01-31 07:02:39	0	0	0	0	0	0	12.1	1.07	0.07	298495	0	18312	195736	298495	280183	3202	138	1192	122	177706	1468849	4654
368	2016-01-31 07:12:44	0	0	0	0	0	0	12.1	1.07	0.07	298497	0	18312	195736	298497	280185	3202	138	1192	122	177706	1468851	4654
369	2016-01-31 07:22:37	0	0	0	0	0	0	12.1	1.07	0.07	298497	0	18312	195736	298497	280185	3202	138	1192	122	177706	1468853	4654
370	2016-01-31 07:32:37	0	0	0	0	0	0	12.1	1.07	0.07	298497	0	18312	195736	298497	280185	3202	138	1192	122	177706	1468857	4654
371	2016-01-31 07:42:41	0	0	0	0	0	0	12.1	1.07	0.07	298497	0	18312	195736	298497	280185	3202	138	1192	122	177706	1468864	4654
372	2016-01-31 07:52:38	0	0	0	0	0	0	12.1	1.07	0.07	298498	0	18313	195736	298498	280185	3202	138	1192	122	177706	1468866	4654
373	2016-01-31 08:02:39	0	0	0	0	0	0	12.1	1.07	0.07	298498	0	18313	195736	298498	280185	3202	138	1192	122	177706	1468868	4654
374	2016-01-31 08:12:42	0	0	0	0	0	0	12.1	1.07	0.07	298498	0	18313	195736	298498	280185	3202	138	1192	122	177706	1468869	4654
375	2016-01-31 08:22:36	0	0	0	0	0	0	12.1	1.07	0.07	298498	0	18313	195736	298498	280185	3202	138	1192	122	177706	1468870	4654
376	2016-01-31 08:32:40	0	0	0	0	0	0	12.1	1.07	0.07	298499	0	18313	195736	298499	280186	3202	138	1192	122	177706	1468876	4654
377	2016-01-31 08:42:41	0	0	0	0	0	0	12.1	1.07	0.07	298499	0	18313	195736	298499	280186	3202	138	1192	122	177706	1468886	4654
378	2016-01-31 08:52:42	0	0	0	0	0	0	12.1	1.07	0.07	298506	0	18314	195736	298506	280192	3202	138	1192	122	177706	1468893	4654
379	2016-01-31 09:02:43	0	0	0	0	0	0	12.1	1.07	0.07	298507	0	18314	195736	298507	280193	3203	138	1192	122	177706	1468898	4655
380	2016-01-31 09:12:42	0	0	0	0	0	0	12.1	1.07	0.07	298511	0	18316	195736	298511	280195	3203	138	1192	122	177706	1468904	4655
381	2016-01-31 09:22:39	0	0	0	0	0	0	12.1	1.07	0.07	298513	0	18316	195736	298513	280197	3203	138	1192	122	177706	1468911	4655
382	2016-01-31 09:32:38	0	0	0	0	0	0	12.1	1.07	0.07	298515	0	18317	195736	298515	280197	3203	138	1192	122	177706	1468924	4655
383	2016-01-31 09:42:48	0	0	0	0	0	0	12.1	1.07	0.07	298521	0	18318	195736	298521	280203	3203	138	1192	122	177706	1468932	4655
384	2016-01-31 09:52:36	0	0	0	0	0	0	12.1	1.07	0.07	298529	0	18318	195736	298529	280211	3203	138	1192	122	177706	1468952	4655
385	2016-01-31 10:02:37	0	0	0	0	0	0	12.1	1.07	0.07	298530	0	18319	195736	298530	280211	3203	138	1192	122	177706	1468964	4655
386	2016-01-31 10:12:45	0	0	0	0	0	0	12.1	1.07	0.07	298536	0	18320	195736	298536	280216	3203	138	1192	122	177706	1468980	4655
387	2016-01-31 10:22:38	0	0	0	0	0	0	12.1	1.07	0.07	298536	0	18320	195736	298536	280216	3203	138	1192	122	177706	1468991	4655
388	2016-01-31 10:32:40	0	0	0	0	0	0	12.1	1.07	0.07	298551	0	18322	195736	298551	280229	3203	138	1192	122	177706	1469012	4655
389	2016-01-31 10:42:47	0	0	0	0	0	0	12.1	1.07	0.07	298552	0	18323	195736	298552	280229	3203	138	1192	122	177706	1469032	4655
390	2016-01-31 10:52:38	0	0	0	0	0	0	12.1	1.07	0.07	298552	0	18325	195736	298552	280229	3203	138	1192	122	177706	1469053	4655
391	2016-01-31 11:02:38	0	0	0	0	0	0	12.1	1.07	0.07	298567	0	18326	195736	298567	280241	3203	138	1192	122	177706	1469074	4655
392	2016-01-31 11:12:42	0	0	0	0	0	0	12.1	1.07	0.07	298568	0	18327	195736	298568	280241	3203	138	1192	122	177706	1469088	4655
393	2016-01-31 11:22:39	0	0	0	0	0	0	12.1	1.07	0.07	298568	0	18327	195736	298568	280241	3203	138	1192	122	177706	1469123	4655
394	2016-01-31 11:32:40	0	0	0	0	0	0	12.1	1.07	0.07	298579	0	18329	195736	298579	280250	3203	138	1192	122	177706	1469151	4655
395	2016-01-31 11:42:41	0	0	0	0	0	0	12.1	1.07	0.07	298580	0	18329	195736	298580	280251	3203	138	1192	122	177706	1469178	4655
396	2016-01-31 11:52:39	0	0	0	0	0	0	12.1	1.07	0.07	298580	0	18330	195736	298580	280260	3203	138	1192	122	177706	1469192	4655
397	2016-01-31 12:02:40	0	0	0	0	0	0	12.1	1.07	0.07	298594	0	18330	195736	298594	280264	3203	138	1192	122	177706	1469213	4655
398	2016-01-31 12:12:48	0	0	0	0	0	0	12.1	1.07	0.07	298600	0	18332	195736	298600	280268	3203	138	1192	122	177706	1469225	4655
399	2016-01-31 12:22:40	0	0	0	0	0	0	12.1	1.07	0.07	298600	0	18332	195736	298600	280268	3203	138	1192	122	177706	1469240	4655
400	2016-01-31 12:32:39	0	0	0	0	0	0	12.09	1.07	0.07	298611	0	18334	195736	298611	280277	3203	138	1192	122	177706	1469258	4655
401	2016-01-31 12:42:53	0	0	0	0	0	0	12.09	1.07	0.07	298622	0	18336	195736	298622	280286	3203	138	1192	122	177706	1469280	4655
402	2016-01-31 12:52:41	0	0	0	0	0	0	12.09	1.07	0.07	298624	0	18336	195736	298624	280288	3203	138	1192	122	177706	1469289	4655
403	2016-01-31 13:02:40	0	0	0	0	0	0	12.1	1.07	0.07	298635	0	18340	195885	298635	280295	3203	138	1192	122	177829	1469304	4655
404	2016-01-31 13:12:47	0	0	0	0	0	0	12.1	1.07	0.07	298638	0	18341	195885	298638	280297	3203	138	1192	122	177829	1469326	4655
405	2016-01-31 13:22:38	0	0	0	0	0	0	12.1	1.07	0.07	298645	0	18345	195885	298645	280300	3203	138	1192	122	177829	1469339	4655
406	2016-01-31 13:32:40	0	0	0	0	0	0	12.1	1.07	0.07	298649	0	18346	195885	298649	280303	3203	138	1192	122	177829	1469352	4655
407	2016-01-31 13:42:46	0	0	0	0	0	0	12.1	1.07	0.07	298655	0	18348	195885	298655	280307	3203	138	1192	122	177829	1469366	4655
408	2016-01-31 13:52:41	0	0	0	0	0	0	12.1	1.07	0.07	298655	0	18348	195885	298655	280307	3203	138	1192	122	177829	1469386	4655
409	2016-01-31 14:03:49	0	0	0	0	0	0	12.1	1.07	0.07	298660	0	18348	195885	298660	280312	3203	138	1192	122	177829	1469395	4655
410	2016-01-31 14:12:58	0	0	0	0	0	0	12.1	1.07	0.07	298660	0	18348	195885	298660	280312	3203	138	1192	122	177829	1469410	4655
411	2016-01-31 14:22:40	0	0	0	0	0	0	12.1	1.07	0.07	298679	0	18351	195885	298679	280328	3203	138	1192	122	177829	1469422	4655
412	2016-01-31 14:32:50	0	0	0	0	0	0	12.1	1.07	0.07	298683	0	18352	195885	298683	280331	3203	138	1192	122	177829	1469439	4655
413	2016-01-31 14:42:45	0	0	0	0	0	0	12.1	1.07	0.07	298683	0	18352	195885	298683	280334	3203	138	1192	122	177829	1469459	4655
414	2016-01-31 14:52:43	0	0	0	0	0	0	12.1	1.07	0.07	298692	0	18353	195885	298692	280339	3203	138	1192	122	177829	1469471	4655
415	2016-01-31 15:02:41	0	0	0	0	0	0	12.1	1.07	0.07	298696	0	18355	195885	298696	280341	3203	138	1192	122	177829	1469483	4655
416	2016-01-31 15:12:49	0	0	0	0	0	0	12.1	1.07	0.07	298698	0	18355	195885	298698	280343	3203	138	1192	122	177829	1469508	4655
417	2016-01-31 15:22:41	0	0	0	0	0	0	12.1	1.07	0.07	298701	0	18356	195885	298701	280345	3203	138	1192	122	177829	1469529	4655
418	2016-01-31 15:32:47	0	0	0	0	0	0	12.1	1.07	0.07	298703	0	18356	195885	298703	280347	3203	138	1192	122	177829	1469547	4655
419	2016-01-31 15:42:53	0	0	0	0	0	0	12.1	1.07	0.07	298707	0	18356	195885	298707	280351	3203	138	1192	122	177829	1469556	4655
420	2016-01-31 15:52:44	0	0	0	0	0	0	12.1	1.07	0.07	298707	0	18356	195885	298707	280351	3203	138	1192	122	177829	1469571	4655
421	2016-01-31 16:02:41	0	0	0	0	0	0	12.11	1.07	0.07	298720	0	18359	196083	298720	280361	3203	138	1192	122	177992	1469579	4655
422	2016-01-31 16:12:48	0	0	0	0	0	0	12.11	1.07	0.07	298725	0	18359	196083	298725	280366	3203	138	1192	122	177992	1469596	4655
423	2016-01-31 16:22:59	0	0	0	0	0	0	12.11	1.07	0.07	298734	0	18360	196083	298734	280374	3203	138	1193	122	177992	1469621	4656
424	2016-01-31 16:32:41	0	0	0	0	0	0	12.11	1.07	0.07	298734	0	18360	196083	298734	280374	3203	138	1193	122	177992	1469631	4656
425	2016-01-31 16:42:53	0	0	0	0	0	0	12.11	1.07	0.07	298743	0	18361	196083	298743	280382	3203	138	1193	122	177992	1469646	4656
426	2016-01-31 16:52:39	0	0	0	0	0	0	12.11	1.07	0.07	298743	0	18361	196083	298743	280382	3203	138	1193	122	177992	1469664	4656
427	2016-01-31 17:02:43	0	0	0	0	0	0	12.11	1.07	0.07	298755	0	18363	196133	298755	280392	3203	138	1193	122	178033	1469682	4656
428	2016-01-31 17:12:57	0	0	0	0	0	0	12.11	1.07	0.07	298757	0	18363	196133	298757	280394	3203	138	1193	122	178033	1469694	4656
429	2016-01-31 17:22:39	0	0	0	0	0	0	12.11	1.07	0.07	298761	0	18363	196133	298761	280398	3203	138	1193	122	178033	1469706	4656
430	2016-01-31 17:32:45	0	0	0	0	0	0	12.11	1.07	0.07	298772	0	18366	196133	298772	280406	3203	138	1193	122	178033	1469723	4656
431	2016-01-31 17:42:59	0	0	0	0	0	0	12.11	1.07	0.07	298778	0	18369	196133	298778	280409	3203	138	1193	122	178033	1469742	4656
432	2016-01-31 17:52:47	0	0	0	0	0	0	12.11	1.07	0.07	298787	0	18369	196133	298787	280418	3203	138	1193	122	178033	1469761	4656
