1	2018-01-11 15:29:18		0	0	0	0	0	0	0.05	0.16	0	1842	0	0	1753	1842	1842	3	0	5	3	1702	3535274	11
2	2018-01-11 15:39:49		0	0	0	0	0	0	0.15	1.2	0	6015	0	1	5453	6015	6014	72	0	15	3	5353	3535294	90
3	2018-01-11 15:50:18		0	0	0	0	0	0	0.22	1.51	0	8866	0	4	7882	8866	8862	134	0	21	3	7702	3535321	158
4	2018-01-11 16:00:52		0	0	0	0	0	0	0.26	1.87	0	11215	0	4	9510	11215	11211	210	0	27	3	9265	3535348	240
5	2018-01-11 16:11:18		0	0	0	0	0	0	0.31	1.84	0	13613	0	14	11225	13613	13599	250	0	29	3	10946	3535371	282
6	2018-01-11 16:21:49		0	0	0	0	0	0	0.33	1.9	0	14685	0	15	11895	14685	14670	279	0	29	3	11602	3535405	311
7	2018-01-11 16:32:19		0	0	0	0	0	0	0.35	1.9	0	15650	0	19	12561	15650	15631	298	0	29	3	12271	3535416	330
8	2018-01-11 16:42:49		0	0	0	0	0	0	0.36	1.95	0	16496	0	30	13050	16496	16466	321	0	30	4	12733	3535435	355
9	2018-01-11 16:53:19		0	0	0	0	0	0	0.37	1.94	0	17358	0	47	13575	17358	17311	337	0	31	4	13232	3535462	372
10	2018-01-11 17:03:50		0	0	0	0	0	0	0.39	1.99	0	18130	0	53	14237	18130	18077	361	0	33	4	13886	3535479	398
11	2018-01-11 17:14:20		0	0	0	0	0	0	0.41	1.98	0	18821	0	61	14711	18821	18760	372	0	34	5	14356	3535484	411
12	2018-01-11 17:24:50		0	0	0	0	0	0	0.42	1.99	0	19555	0	66	15102	19555	19489	389	0	35	5	14746	3535500	429
13	2018-01-11 17:35:20		0	0	0	0	0	0	0.43	2.01	0	20235	0	71	15244	20235	20164	406	0	37	5	15107	3535521	448
14	2018-01-11 17:45:51		0	0	0	0	0	0	0.44	2.03	0	20901	0	83	16104	20901	20824	425	0	38	5	15719	3535530	468
15	2018-01-11 17:56:21		0	0	0	0	0	0	0.46	2.02	0	21787	0	92	16497	21787	21695	440	0	40	5	16224	3535554	485
16	2018-01-11 18:06:49		0	0	0	0	0	0	0.47	2.08	0	22402	0	99	17069	22402	22303	467	0	41	5	16602	3535563	513
17	2018-01-11 18:17:20		0	0	0	0	0	0	0.48	2.07	0	23007	0	105	17439	23007	22902	477	0	41	5	16967	3535580	523
18	2018-01-11 18:27:50		0	0	0	0	0	0	0.48	2.09	0	23494	0	111	17630	23494	23383	491	0	41	5	17142	3535595	537
19	2018-01-11 18:38:21		0	0	0	0	0	0	0.49	2.11	0	23800	0	115	17730	23800	23685	503	0	41	5	17239	3535622	549
20	2018-01-11 18:48:50		0	0	0	0	0	0	0.49	2.13	0.01	24060	0	122	17980	24060	23938	512	0	42	5	17494	3535633	559
21	2018-01-11 18:59:22		0	0	0	0	0	0	0.5	2.14	0.01	24296	0	126	18201	24296	24170	521	0	42	5	17696	3535649	568
22	2018-01-11 19:09:52		0	0	0	0	0	0	0.5	2.14	0.01	24520	0	134	18336	24520	24386	525	0	46	5	17850	3535660	576
23	2018-01-11 19:20:21		0	0	0	0	0	0	0.51	2.14	0.01	24813	0	141	18467	24813	24672	530	0	47	5	18097	3535672	582
24	2018-01-11 19:30:52		0	0	0	0	0	0	0.52	2.16	0.01	25131	0	144	18777	25131	24987	543	0	47	5	18286	3535695	595
25	2018-01-11 19:41:21		0	0	0	0	0	0	0.53	2.14	0.01	25573	0	146	19167	25573	25427	548	0	47	5	18628	3535719	600
26	2018-01-11 19:51:50		0	0	0	0	0	0	0.53	2.16	0.01	25838	0	154	19278	25838	25684	557	0	47	5	18733	3535738	609
27	2018-01-11 20:02:22		0	0	0	0	0	0	0.53	2.18	0.01	26081	0	162	19373	26081	25919	568	0	48	5	18836	3535757	621
28	2018-01-11 20:12:51		0	0	0	0	0	0	0.53	2.18	0.01	26342	0	165	19467	26342	26177	575	0	48	6	18910	3535778	629
29	2018-01-11 20:23:23		0	0	0	0	0	0	0.54	2.17	0.01	26607	0	168	19616	26607	26439	578	0	50	6	19037	3535802	634
30	2018-01-11 20:33:53		0	0	0	0	0	0	0.54	2.17	0.01	26831	0	173	19819	26831	26658	582	0	50	6	19217	3535814	638
31	2018-01-11 20:44:24		0	0	0	0	0	0	0.55	2.16	0.01	27082	0	179	19999	27082	26903	586	0	51	6	19380	3535834	643
32	2018-01-11 20:54:50		0	0	0	0	0	0	0.55	2.15	0.01	27353	0	181	20198	27353	27172	588	0	54	6	19567	3535860	648
33	2018-01-11 21:05:21		0	0	0	0	0	0	0.56	2.15	0.01	27561	0	183	20288	27561	27378	593	0	54	6	19645	3535889	653
34	2018-01-11 21:15:51		0	0	0	0	0	0	0.56	2.16	0.01	27786	0	197	20445	27786	27589	600	0	54	6	19808	3535906	660
35	2018-01-11 21:26:20		0	0	0	0	0	0	0.57	2.16	0.01	28167	0	199	20699	28167	27968	609	0	55	6	20056	3535918	670
36	2018-01-11 21:36:52		0	0	0	0	0	0	0.57	2.15	0.01	28427	0	208	20909	28427	28219	612	0	56	6	20227	3535951	674
37	2018-01-11 21:47:21		0	0	0	0	0	0	0.58	2.15	0.01	28691	0	210	21038	28691	28481	618	0	57	6	20354	3535967	681
38	2018-01-11 21:57:52		0	0	0	0	0	0	0.59	2.15	0.01	28978	0	215	21394	28978	28763	622	0	57	6	20732	3535997	685
39	2018-01-11 22:08:25		0	0	0	0	0	0	0.59	2.14	0.01	29255	0	218	21566	29255	29037	625	0	57	6	20893	3536028	688
40	2018-01-11 22:18:51		0	0	0	0	0	0	0.59	2.14	0.01	29518	0	218	21719	29518	29300	631	0	57	6	21030	3536061	694
41	2018-01-11 22:29:28		0	0	0	0	0	0	0.6	2.13	0.01	29807	0	223	21990	29807	29584	635	0	58	6	21258	3536081	699
42	2018-01-11 22:39:57		0	0	0	0	0	0	0.61	2.13	0.01	30051	0	223	22277	30051	29828	641	0	59	6	21516	3536107	706
43	2018-01-11 22:50:22		0	0	0	0	0	0	0.62	2.12	0.01	30323	0	225	22578	30323	30098	644	0	60	7	21798	3536132	711
44	2018-01-11 23:00:52		0	0	0	0	0	0	0.62	2.12	0.01	30569	0	228	22804	30569	30341	649	0	61	7	21993	3536162	717
45	2018-01-11 23:11:23		0	0	0	0	0	0	0.63	2.12	0.01	30806	0	231	23005	30806	30576	653	0	62	7	22144	3536183	722
46	2018-01-11 23:21:52		0	0	0	0	0	0	0.63	2.11	0.01	31173	0	233	23142	31173	30940	657	0	62	7	22271	3536221	726
47	2018-01-11 23:32:26		0	0	0	0	0	0	0.63	2.11	0.01	31361	0	237	23243	31361	31124	662	0	62	7	22385	3536249	731
48	2018-01-11 23:42:53		0	0	0	0	0	0	0.64	2.12	0.01	31564	0	238	23344	31564	31326	670	0	63	7	22570	3536285	740
49	2018-01-11 23:53:33		0	0	0	0	0	0	0.64	2.12	0.01	31715	0	240	23497	31715	31475	673	0	63	7	22621	3536303	743
50	2018-01-12 00:20:54		0	0	0	0	0	0	0.65	2.11	0.01	32076	0	241	23803	32076	31835	678	0	63	7	22878	3536343	748
51	2018-01-12 01:26:00		0	0	0	0	0	0	0.66	2.1	0.01	32769	0	252	24341	32769	32517	687	0	63	7	23389	3536442	757
52	2018-01-12 02:31:03		0	0	0	0	0	0	0.67	2.08	0.01	33111	0	256	24632	33111	32855	690	0	64	7	23663	3536475	761
53	2018-01-12 03:35:55		0	0	0	0	0	0	0.67	2.09	0.01	33278	0	257	24721	33278	33021	694	0	64	7	23745	3536489	765
54	2018-01-12 04:40:59		0	0	0	0	0	0	0.67	2.08	0.01	33423	0	257	24797	33423	33166	696	0	64	7	23816	3536500	767
55	2018-01-12 05:45:59		0	0	0	0	0	0	0.68	2.08	0.01	33641	0	258	24954	33641	33383	700	0	64	7	23924	3536504	771
56	2018-01-12 06:50:58		0	0	0	0	0	0	0.68	2.08	0.01	34036	0	266	25117	34036	33770	708	0	64	7	24098	3536526	779
57	2018-01-12 07:14:00		0	0	0	0	0	0	0.69	2.08	0.01	34286	0	267	25390	34286	34019	712	0	65	7	24386	3536545	784
58	2018-01-12 07:24:28		0	0	0	0	0	0	0.69	2.07	0.01	34414	0	268	25523	34414	34146	714	0	65	7	24499	3536557	786
59	2018-01-12 07:35:33		0	0	0	0	0	0	0.69	2.07	0.01	34550	0	269	25606	34550	34281	715	0	65	7	24575	3536562	787
60	2018-01-12 07:45:34		0	0	0	0	0	0	0.7	2.07	0.01	34710	0	269	25724	34710	34441	719	0	65	7	24722	3536566	791
61	2018-01-12 07:56:01		0	0	0	0	0	0	0.7	2.07	0.01	34858	0	270	25792	34858	34588	722	0	65	7	24785	3536580	794
62	2018-01-12 08:06:37		0	0	0	0	0	0	0.7	2.07	0.01	35011	0	271	25807	35011	34740	723	0	65	7	24799	3536591	795
63	2018-01-12 08:17:10		0	0	0	0	0	0	0.71	2.07	0.01	35186	0	275	25962	35186	34912	728	0	65	7	24937	3536598	800
64	2018-01-12 08:27:35		0	0	0	0	0	0	0.72	2.07	0.01	35481	0	276	26268	35481	35205	736	0	65	7	25305	3536605	808
65	2018-01-12 08:38:04		0	0	0	0	0	0	0.72	2.08	0.01	35677	0	282	26409	35677	35395	743	0	65	7	25426	3536619	815
66	2018-01-12 08:48:36		0	0	0	0	0	0	0.72	2.08	0.01	35903	0	287	26525	35903	35616	746	0	66	8	25520	3536630	820
67	2018-01-12 08:59:05		0	0	0	0	0	0	0.73	2.08	0.01	36130	0	288	26723	36130	35842	750	0	66	8	25710	3536651	824
68	2018-01-12 09:09:36		0	0	0	0	0	0	0.73	2.07	0.01	36294	0	289	26789	36294	36005	753	0	67	9	25771	3536667	829
69	2018-01-12 09:20:15		0	0	0	0	0	0	0.73	2.07	0.01	36457	0	291	26828	36457	36166	756	0	67	9	25807	3536688	832
70	2018-01-12 09:31:45		0	0	0	0	0	0	0.73	2.08	0.01	36636	0	295	26872	36636	36341	761	0	68	9	25847	3536705	838
71	2018-01-12 09:41:57		0	0	0	0	0	0	0.74	2.07	0.01	36792	0	297	26990	36792	36495	763	0	68	9	26005	3536718	840
72	2018-01-12 09:53:09		0	0	0	0	0	0	0.74	2.07	0.01	37050	0	305	27290	37050	36745	766	0	68	9	26299	3536734	843
73	2018-01-12 10:03:28		0	0	0	0	0	0	0.75	2.06	0.01	37187	0	307	27449	37187	36880	767	0	68	9	26415	3536750	844
74	2018-01-12 10:13:56		0	0	0	0	0	0	0.75	2.06	0.01	37340	0	310	27614	37340	37030	769	0	68	9	26562	3536765	846
75	2018-01-12 10:26:52		0	0	0	0	0	0	0.76	2.06	0.01	37502	0	312	27807	37502	37190	774	0	68	9	26781	3536793	851
76	2018-01-12 10:41:13		0	0	0	0	0	0	0.76	2.05	0.01	37687	0	317	27886	37687	37370	774	0	68	9	26854	3536814	851
77	2018-01-12 10:53:27		0	0	0	0	0	0	0.76	2.06	0.01	37807	0	321	27919	37807	37488	780	0	68	9	26885	3536836	857
78	2018-01-12 11:06:07		0	0	0	0	0	0	0.76	2.06	0.01	37980	0	321	27961	37980	37659	783	0	69	9	26924	3536854	861
79	2018-01-12 11:20:12		0	0	0	0	0	0	0.76	2.06	0.01	38180	0	325	28101	38180	37855	787	0	69	9	27039	3536878	865
80	2018-01-12 11:35:23		0	0	0	0	0	0	0.77	2.06	0.01	38351	0	327	28217	38351	38024	790	0	70	9	27146	3536904	869
81	2018-01-12 11:45:26		0	0	0	0	0	0	0.77	2.05	0.01	38467	0	328	28253	38467	38139	790	0	70	9	27179	3536921	869
82	2018-01-12 11:56:43		0	0	0	0	0	0	0.77	2.05	0.01	38621	0	331	28340	38621	38290	793	0	70	9	27260	3536925	872
83	2018-01-12 12:18:24		0	0	0	0	0	0	0.78	2.05	0.01	38895	0	338	28618	38895	38557	796	0	71	9	27501	3536959	876
84	2018-01-12 12:28:06		0	0	0	0	0	0	0.78	2.05	0.01	39006	0	339	28686	39006	38667	799	0	71	9	27564	3536966	879
85	2018-01-12 12:44:50		0	0	0	0	0	0	0.78	2.05	0.01	39190	0	340	28812	39190	38850	802	0	71	9	27680	3536986	882
86	2018-01-12 12:57:57		0	0	0	0	0	0	0.79	2.04	0.01	39371	0	342	28901	39371	39029	805	0	71	9	27786	3537013	885
87	2018-01-12 13:16:36		0	0	0	0	0	0	0.79	2.04	0.01	39530	0	345	28994	39530	39185	808	0	71	9	27842	3537035	888
88	2018-01-12 13:31:37		0	0	0	0	0	0	0.79	2.04	0.01	39711	0	351	29305	39711	39360	812	0	72	9	28056	3537052	893
89	2018-01-12 13:46:51		0	0	0	0	0	0	0.8	2.04	0.01	39923	0	355	29426	39923	39568	816	0	72	9	28166	3537076	897
90	2018-01-12 13:57:41		0	0	0	0	0	0	0.8	2.05	0.01	40071	0	357	29475	40071	39714	820	0	73	9	28236	3537104	902
91	2018-01-12 14:10:09		0	0	0	0	0	0	0.8	2.05	0.01	40252	0	358	29717	40252	39894	825	0	73	9	28458	3537124	907
92	2018-01-12 14:22:08		0	0	0	0	0	0	0.81	2.05	0.01	40389	0	362	29735	40389	40027	826	0	73	9	28475	3537128	908
93	2018-01-12 14:34:48		0	0	0	0	0	0	0.81	2.05	0.01	40533	0	366	29758	40533	40167	831	0	73	9	28496	3537142	913
94	2018-01-12 14:47:55		0	0	0	0	0	0	0.81	2.05	0.01	40631	0	367	29786	40631	40264	831	0	74	9	28521	3537158	914
95	2018-01-12 15:04:02		0	0	0	0	0	0	0.81	2.04	0.01	40858	0	370	29890	40858	40488	834	0	74	9	28617	3537179	917
96	2018-01-12 15:14:22		0	0	0	0	0	0	0.81	2.04	0.01	40960	0	372	30050	40960	40588	835	0	74	9	28813	3537194	918
97	2018-01-12 15:26:39		0	0	0	0	0	0	0.82	2.04	0.01	41073	0	373	30097	41073	40700	837	0	75	9	28856	3537211	921
98	2018-01-12 15:41:01		0	0	0	0	0	0	0.82	2.04	0.01	41176	0	377	30238	41176	40799	839	0	75	9	28985	3537229	923
99	2018-01-12 15:56:52		0	0	0	0	0	0	0.82	2.04	0.01	41277	0	381	30252	41277	40896	841	0	75	9	28998	3537247	925
100	2018-01-12 16:08:54		0	0	0	0	0	0	0.82	2.04	0.01	41361	0	382	30452	41361	40979	843	0	75	9	29182	3537257	927
101	2018-01-12 16:23:11		0	0	0	0	0	0	0.83	2.04	0.01	41435	0	382	30471	41435	41053	845	0	76	9	29199	3537274	930
102	2018-01-12 16:36:58		0	0	0	0	0	0	0.83	2.04	0.01	41488	0	383	30473	41488	41105	845	0	76	9	29201	3537291	930
103	2018-01-12 17:25:23		0	0	0	0	0	0	0.83	2.03	0.01	41754	0	387	30639	41754	41367	849	0	79	9	29380	3537325	937
104	2018-01-12 17:33:40		0	0	0	0	0	0	0.83	2.03	0.01	41796	0	390	30651	41796	41406	849	0	79	9	29392	3537336	937
105	2018-01-12 17:44:20		0	0	0	0	0	0	0.83	2.03	0.01	41852	0	394	30680	41852	41458	851	0	79	9	29418	3537343	939
106	2018-01-12 17:55:11		0	0	0	0	0	0	0.83	2.03	0.01	41903	0	394	30699	41903	41509	852	0	79	9	29422	3537357	940
107	2018-01-12 18:12:41		0	0	0	0	0	0	0.83	2.04	0.01	41946	0	399	30699	41946	41547	855	0	79	9	29458	3537377	943
108	2018-01-12 18:22:46		0	0	0	0	0	0	0.83	2.04	0.01	42000	0	401	30699	42000	41599	856	0	79	9	29458	3537385	944
109	2018-01-12 18:37:26		0	0	0	0	0	0	0.83	2.04	0.01	42063	0	406	30745	42063	41657	857	0	79	9	29493	3537410	945
110	2018-01-12 18:49:51		0	0	0	0	0	0	0.83	2.04	0.01	42109	0	409	30760	42109	41700	859	0	79	9	29507	3537423	947
111	2018-01-12 19:00:34		0	0	0	0	0	0	0.83	2.04	0.01	42144	0	412	30769	42144	41732	859	0	79	9	29515	3537430	947
112	2018-01-12 19:12:15		0	0	0	0	0	0	0.83	2.04	0.01	42174	0	414	30769	42174	41760	859	0	80	9	29515	3537434	948
113	2018-01-12 19:21:53		0	0	0	0	0	0	0.84	2.04	0.01	42213	0	415	30841	42213	41798	860	0	80	9	29582	3537440	949
114	2018-01-12 19:32:39		0	0	0	0	0	0	0.84	2.04	0.01	42241	0	419	30851	42241	41822	861	0	80	9	29591	3537448	950
115	2018-01-12 19:46:28		0	0	0	0	0	0	0.84	2.04	0.01	42288	0	419	30880	42288	41869	863	0	80	9	29654	3537464	952
116	2018-01-12 19:57:56		0	0	0	0	0	0	0.84	2.04	0.01	42327	0	421	30880	42327	41906	864	0	80	9	29654	3537465	953
117	2018-01-12 20:08:16		0	0	0	0	0	0	0.84	2.04	0.01	42381	0	424	30895	42381	41957	866	0	82	9	29668	3537480	957
118	2018-01-12 20:18:57		0	0	0	0	0	0	0.84	2.05	0.01	42407	0	427	30895	42407	41980	869	0	82	9	29668	3537491	960
119	2018-01-12 20:35:41		0	0	0	0	0	0	0.84	2.05	0.01	42454	0	428	30932	42454	42026	869	0	82	9	29702	3537508	960
120	2018-01-12 20:45:35		0	0	0	0	0	0	0.84	2.05	0.01	42481	0	429	30947	42481	42052	871	0	82	9	29716	3537526	962
121	2018-01-12 20:56:37		0	0	0	0	0	0	0.84	2.05	0.01	42509	0	430	30947	42509	42079	872	0	82	9	29716	3537537	963
122	2018-01-12 21:07:11		0	0	0	0	0	0	0.84	2.05	0.01	42534	0	432	31001	42534	42102	872	0	82	9	29748	3537555	963
123	2018-01-12 21:18:10		0	0	0	0	0	0	0.84	2.05	0.01	42568	0	436	31001	42568	42132	872	0	82	9	29748	3537572	963
124	2018-01-12 21:38:11		0	0	0	0	0	0	0.84	2.05	0.01	42617	0	438	31016	42617	42179	872	0	82	9	29761	3537603	963
125	2018-01-12 21:49:17		0	0	0	0	0	0	0.84	2.04	0.01	42644	0	438	31016	42644	42206	872	0	82	9	29761	3537613	963
126	2018-01-12 22:04:34		0	0	0	0	0	0	0.84	2.05	0.01	42679	0	440	31021	42679	42239	873	0	82	9	29766	3537645	964
127	2018-01-12 22:16:20		0	0	0	0	0	0	0.84	2.04	0.01	42700	0	442	31041	42700	42258	873	0	83	9	29784	3537658	965
128	2018-01-12 22:27:14		0	0	0	0	0	0	0.84	2.04	0.01	42719	0	443	31041	42719	42276	873	0	83	9	29784	3537683	965
129	2018-01-12 22:46:05		0	0	0	0	0	0	0.84	2.04	0.01	42761	0	446	31059	42761	42315	873	0	83	9	29800	3537712	965
130	2018-01-12 23:01:59		0	0	0	0	0	0	0.84	2.04	0.01	42786	0	447	31059	42786	42339	873	0	83	9	29800	3537735	965
131	2018-01-12 23:31:03		0	0	0	0	0	0	0.84	2.04	0.01	42846	0	455	31086	42846	42391	873	0	84	9	29826	3537768	966
132	2018-01-12 23:40:33		0	0	0	0	0	0	0.84	2.04	0.01	42859	0	455	31105	42859	42404	875	0	84	9	29843	3537773	968
133	2018-01-13 00:28:56		0	0	0	0	0	0	0.84	2.04	0.01	42912	0	459	31135	42912	42453	876	0	84	9	29870	3537806	969
134	2018-01-13 02:04:17		0	0	0	0	0	0	0.85	2.04	0.01	42997	0	465	31254	42997	42532	878	0	84	9	29999	3537848	971
135	2018-01-13 04:08:35		0	0	0	0	0	0	0.85	2.04	0.01	43034	0	468	31254	43034	42566	879	0	84	9	29999	3537860	972
136	2018-01-13 06:03:06		0	0	0	0	0	0	0.85	2.04	0.01	43049	0	470	31274	43049	42579	879	0	84	9	29999	3537871	972
137	2018-01-13 07:20:41		0	0	0	0	0	0	0.85	2.04	0.01	43069	0	471	31294	43069	42598	879	0	84	9	30017	3537892	972
138	2018-01-13 07:48:29		0	0	0	0	0	0	0.85	2.04	0.01	43084	0	473	31294	43084	42611	881	0	84	9	30017	3537907	974
139	2018-01-13 07:56:30		0	0	0	0	0	0	0.85	2.04	0.01	43088	0	473	31294	43088	42615	881	0	84	9	30017	3537914	974
140	2018-01-13 08:26:44		0	0	0	0	0	0	0.85	2.05	0.01	43110	0	475	31294	43110	42635	882	0	84	9	30017	3537948	975
141	2018-01-13 08:36:25		0	0	0	0	0	0	0.85	2.05	0.01	43121	0	475	31294	43121	42646	882	0	84	9	30017	3537967	975
142	2018-01-13 08:46:50		0	0	0	0	0	0	0.85	2.05	0.01	43128	0	475	31294	43128	42653	882	0	84	9	30017	3537979	975
143	2018-01-13 08:58:53		0	0	0	0	0	0	0.85	2.04	0.01	43137	0	475	31294	43137	42662	882	0	84	9	30017	3537984	975
144	2018-01-13 09:46:09		0	0	0	0	0	0	0.85	2.04	0.01	43179	0	481	31303	43179	42698	882	0	84	9	30025	3538027	975
145	2018-01-13 10:28:21		0	0	0	0	0	0	0.85	2.04	0.01	43229	0	484	31303	43229	42745	883	0	84	9	30025	3538075	976
146	2018-01-13 10:41:22		0	0	0	0	0	0	0.85	2.04	0.01	43240	0	484	31323	43240	42756	883	0	84	9	30044	3538084	976
147	2018-01-13 12:03:08		0	0	0	0	0	0	0.85	2.06	0.01	43334	0	506	31351	43334	42828	894	0	84	9	30062	3538178	987
148	2018-01-13 12:11:34		0	0	0	0	0	0	0.85	2.06	0.01	43336	0	507	31351	43336	42829	894	0	84	9	30062	3538178	987
149	2018-01-13 12:29:04		0	0	0	0	0	0	0.85	2.06	0.01	43341	0	507	31351	43341	42834	894	0	84	9	30062	3538187	987
150	2018-01-13 13:12:29		0	0	0	0	0	0	0.85	2.07	0.01	43372	0	511	31366	43372	42861	896	0	84	9	30076	3538256	989
151	2018-01-13 13:28:29		0	0	0	0	0	0	0.85	2.07	0.01	43382	0	513	31366	43382	42869	896	0	84	9	30076	3538271	989
152	2018-01-13 14:05:56		0	0	0	0	0	0	0.85	2.07	0.01	43407	0	517	31366	43407	42890	899	0	84	9	30076	3538320	992
153	2018-01-13 14:15:05		0	0	0	0	0	0	0.85	2.07	0.01	43412	0	517	31366	43412	42895	899	0	84	9	30076	3538322	992
154	2018-01-13 14:32:14		0	0	0	0	0	0	0.85	2.07	0.01	43420	0	517	31366	43420	42903	899	0	84	9	30076	3538325	992
155	2018-01-13 15:02:09		0	0	0	0	0	0	0.85	2.07	0.01	43433	0	518	31366	43433	42915	900	0	84	9	30076	3538355	993
156	2018-01-13 16:10:18		0	0	0	0	0	0	0.85	2.07	0.01	43443	0	520	31366	43443	42923	900	0	84	9	30076	3538400	993
157	2018-01-13 16:23:15		0	0	0	0	0	0	0.85	2.08	0.01	43473	0	521	31374	43473	42952	903	0	84	9	30083	3538467	996
158	2018-01-13 17:13:11		0	0	0	0	0	0	0.85	2.08	0.01	43514	0	525	31412	43514	42989	904	0	84	9	30119	3538521	997
159	2018-01-13 18:12:28		0	0	0	0	0	0	0.85	2.08	0.01	43555	0	527	31412	43555	43028	905	0	85	9	30119	3538582	999
160	2018-01-13 18:56:47		0	0	0	0	0	0	0.85	2.08	0.01	43587	0	530	31415	43587	43057	907	0	85	9	30119	3538632	1001
161	2018-01-13 20:38:57		0	0	0	0	0	0	0.85	2.08	0.01	43617	0	531	31454	43617	43086	908	0	85	9	30155	3538681	1002
162	2018-01-13 22:18:55		0	0	0	0	0	0	0.85	2.08	0.01	43728	0	536	31482	43728	43192	910	0	85	9	30181	3538872	1004
163	2018-01-14 03:20:46		0	0	0	0	0	0	0.86	2.09	0.01	43889	0	541	31714	43889	43348	916	0	86	9	30374	3539052	1011
164	2018-01-14 05:53:38		0	0	0	0	0	0	0.86	2.09	0.01	43906	0	542	31732	43906	43364	916	0	86	9	30391	3539073	1011
165	2018-01-14 07:38:57		0	0	0	0	0	0	0.86	2.09	0.01	43926	0	545	31773	43926	43381	916	0	86	9	30467	3539102	1011
166	2018-01-14 07:48:57		0	0	0	0	0	0	0.86	2.09	0.01	43929	0	546	31773	43929	43383	916	0	86	9	30467	3539109	1011
167	2018-01-14 08:39:54		0	0	0	0	0	0	0.86	2.08	0.01	43944	0	547	31797	43944	43397	916	0	86	9	30472	3539138	1011
168	2018-01-14 13:46:36		0	0	0	0	0	0	0.86	2.09	0.01	44140	0	551	31861	44140	43589	921	0	86	9	30531	3539415	1016
169	2018-01-14 13:53:14		0	0	0	0	0	0	0.86	2.09	0.01	44143	0	551	31861	44143	43592	921	0	86	9	30531	3539418	1016
170	2018-01-14 13:54:50		0	0	0	0	0	0	0.86	2.09	0.01	44143	0	551	31861	44143	43592	921	0	86	9	30531	3539422	1016
171	2018-01-14 14:05:19		0	0	0	0	0	0	0.86	2.09	0.01	44149	0	551	31861	44149	43598	921	0	86	9	30531	3539439	1016
172	2018-01-14 14:15:50		0	0	0	0	0	0	0.86	2.09	0.01	44156	0	551	31865	44156	43605	921	0	86	9	30534	3539445	1016
173	2018-01-14 14:26:23		0	0	0	0	0	0	0.86	2.09	0.01	44161	0	551	31865	44161	43610	922	0	86	9	30534	3539458	1017
174	2018-01-14 14:36:51		0	0	0	0	0	0	0.86	2.09	0.01	44165	0	551	31865	44165	43614	922	0	86	9	30534	3539474	1017
175	2018-01-14 14:47:22		0	0	0	0	0	0	0.86	2.09	0.01	44166	0	551	31865	44166	43615	923	0	86	9	30534	3539479	1018
176	2018-01-14 14:57:50		0	0	0	0	0	0	0.86	2.09	0.01	44172	0	551	31865	44172	43621	923	0	86	9	30534	3539493	1018
177	2018-01-14 15:08:19		0	0	0	0	0	0	0.86	2.09	0.01	44177	0	551	31873	44177	43626	923	0	86	9	30542	3539504	1018
178	2018-01-14 15:18:49		0	0	0	0	0	0	0.86	2.09	0.01	44182	0	552	31873	44182	43630	924	0	86	9	30542	3539511	1019
