1	2017-05-25 13:57:28	0	0	0	0	0	0	0	1.11	0.01	23035	1	162	21753	23035	22873	255	92	102	25	0	3064923	474
2	2017-05-25 14:08:32	0	0	0	0	0	0	1.84	2.04	0.04	66270	1	2247	58285	66270	64023	1351	336	290	69	56317	3064923	2046
3	2017-05-25 14:18:30	0	0	0	0	0	0	2.68	2.35	0.06	99359	1	5430	86874	99359	93929	2331	488	399	104	81991	3064923	3322
4	2017-05-25 14:31:02	0	0	0	0	0	0	3.26	2.52	0.08	130933	1	9541	107458	130933	121392	3294	684	534	132	99929	3064923	4644
5	2017-05-25 15:13:42	0	0	0	0	0	0	5.29	2.79	0.15	246948	1	32589	186210	246948	214359	6879	1198	844	211	162197	3064923	9132
6	2017-05-25 15:28:26	0	0	0	0	0	0	5.83	2.82	0.17	280212	1	41222	210357	280212	238990	7911	1352	932	232	178815	3064923	10427
7	2017-05-25 15:41:13	0	0	0	0	0	0	6.22	2.84	0.19	300888	1	47026	225774	300888	253862	8532	1464	994	256	190758	3064923	11246
8	2017-05-25 15:51:15	0	0	0	0	0	0	6.63	2.84	0.2	321835	1	53233	242153	321835	268602	9154	1564	1048	272	203354	3064923	12038
9	2017-05-25 16:02:02	0	0	0	0	0	0	6.94	2.85	0.21	342134	1	59743	255390	342134	282391	9743	1620	1094	281	212700	3064923	12738
10	2017-05-25 16:20:32	0	0	0	0	0	0	7.53	2.85	0.24	378834	1	72264	281862	378834	306570	10812	1766	1176	299	230781	3064923	14053
11	2017-05-25 17:03:05	0	0	0	0	0	0	8.54	2.83	0.28	449951	1	97743	332265	449951	352208	12748	1990	1323	342	261887	3064923	16403
12	2017-05-25 18:22:22	0	0	0	0	0	0	10.28	2.79	0.33	557445	1	138451	414113	557445	418994	15575	2422	1573	397	314972	3064923	19967
13	2017-05-25 18:32:21	0	0	0	0	0	0	10.45	2.79	0.34	571356	1	143642	420031	571356	427714	15922	2458	1607	403	320155	3064923	20390
14	2017-05-25 18:42:21	0	0	0	0	0	0	10.67	2.78	0.34	585295	1	148950	429998	585295	436345	16255	2506	1636	408	326980	3064923	20805
15	2017-05-25 18:52:22	0	0	0	0	0	0	10.95	2.77	0.35	599127	1	154189	441976	599127	444938	16568	2542	1668	416	335652	3064923	21194
16	2017-05-25 19:02:23	0	0	0	0	0	0	11.28	2.76	0.35	613098	1	159533	449825	613098	453565	16892	2582	1694	423	345733	3064923	21591
17	2017-05-25 19:12:23	0	0	0	0	0	0	11.48	2.75	0.36	626935	1	164762	458074	626935	462173	17216	2676	1732	427	351722	3064923	22051
18	2017-05-25 19:22:24	0	0	0	0	0	0	11.67	2.74	0.36	640898	1	170243	467319	640898	470655	17532	2708	1758	432	357767	3064923	22430
19	2017-05-25 19:32:24	0	0	0	0	0	0	11.87	2.73	0.37	654754	1	175842	476255	654754	478912	17869	2756	1787	438	363835	3064923	22850
20	2017-05-25 19:42:26	0	0	0	0	0	0	12.04	2.72	0.37	668180	1	181547	482561	668180	486633	18194	2794	1815	446	368917	3064923	23249
21	2017-05-25 19:52:27	0	0	0	0	0	0	12.18	2.72	0.38	681546	1	187314	492874	681546	494232	18547	2854	1848	449	373433	3064923	23698
22	2017-05-25 20:02:26	0	0	0	0	0	0	12.37	2.72	0.38	694682	1	192967	499250	694682	501715	18881	2886	1874	462	379195	3064923	24103
23	2017-05-25 20:12:25	0	0	0	0	0	0	12.61	2.72	0.39	707419	1	198610	509038	707419	508809	19219	2930	1892	468	386592	3064923	24509
24	2017-05-25 20:22:25	0	0	0	0	0	0	12.77	2.71	0.4	719246	1	203903	516917	719246	515343	19507	2964	1917	472	391430	3064923	24860
25	2017-05-25 20:32:26	0	0	0	0	0	0	12.94	2.7	0.4	731473	1	209409	526160	731473	522064	19786	3016	1946	476	396542	3064923	25224
26	2017-05-25 20:42:25	0	0	0	0	0	0	13.09	2.71	0.41	743317	1	214808	534701	743317	528509	20109	3052	1967	478	401348	3064923	25606
27	2017-05-25 20:52:31	0	0	0	0	0	0	13.24	2.7	0.41	755324	1	220220	541948	755324	535104	20403	3096	1988	483	405660	3064923	25970
28	2017-05-25 21:02:27	0	0	0	0	0	0	13.46	2.7	0.42	767531	1	225584	547648	767531	541947	20709	3130	2007	485	412536	3064923	26331
29	2017-05-25 21:12:27	0	0	0	0	0	0	13.63	2.69	0.42	778898	1	230695	554886	778898	548203	20978	3178	2026	492	417789	3064923	26674
30	2017-05-25 21:22:27	0	0	0	0	0	0	13.76	2.69	0.43	789713	1	235614	559158	789713	554099	21234	3220	2053	498	421751	3064923	27005
31	2017-05-25 21:32:28	0	0	0	0	0	0	13.83	2.68	0.43	801173	1	240810	564227	801173	560363	21463	3270	2076	502	423989	3064923	27311
32	2017-05-25 21:42:27	0	0	0	0	0	0	13.97	2.67	0.43	812684	1	246032	571484	812684	566652	21701	3300	2102	511	428285	3064923	27614
33	2017-05-25 21:52:28	0	0	0	0	0	0	14.03	2.66	0.44	824555	1	251303	574973	824555	573252	21948	3354	2133	514	430069	3064923	27949
34	2017-05-25 22:02:31	0	0	0	0	0	0	14.17	2.66	0.44	836751	1	257018	581779	836751	579733	22225	3388	2153	522	434414	3064923	28288
35	2017-05-25 22:12:28	0	0	0	0	0	0	14.27	2.65	0.45	849765	1	262966	587517	849765	586799	22543	3418	2185	524	437235	3064923	28670
36	2017-05-25 22:22:33	0	0	0	0	0	0	14.38	2.65	0.45	861798	1	268304	593422	861798	593494	22823	3456	2206	526	440877	3064923	29011
37	2017-05-25 22:32:39	0	0	0	0	0	0	14.49	2.64	0.46	872914	1	273219	599849	872914	599695	23060	3488	2234	528	444159	3064923	29310
38	2017-05-25 22:42:34	0	0	0	0	0	0	14.66	2.64	0.46	884233	1	278133	607015	884233	606100	23334	3526	2251	534	449201	3064923	29645
39	2017-05-25 22:52:30	0	0	0	0	0	0	14.73	2.63	0.46	895851	1	283218	612032	895851	612633	23576	3548	2274	536	451366	3064923	29934
40	2017-05-25 23:02:32	0	0	0	0	0	0	14.85	2.63	0.46	906489	1	287690	617144	906489	618799	23803	3566	2296	542	455100	3064923	30207
41	2017-05-25 23:12:34	0	0	0	0	0	0	15	2.62	0.47	917787	1	292557	621479	917787	625230	24031	3596	2320	546	459644	3064923	30493
42	2017-05-25 23:22:32	0	0	0	0	0	0	15.19	2.61	0.47	928680	1	297311	630875	928680	631369	24270	3624	2338	552	465410	3064923	30784
43	2017-05-25 23:32:33	0	0	0	0	0	0	15.35	2.61	0.47	939025	1	301555	639863	939025	637470	24500	3658	2373	554	470525	3064923	31085
44	2017-05-25 23:42:34	0	0	0	0	0	0	15.45	2.61	0.48	949021	1	305686	645581	949021	643335	24722	3692	2397	559	473393	3064923	31370
45	2017-05-25 23:52:34	0	0	0	0	0	0	15.57	2.6	0.48	958011	1	309307	648318	958011	648704	24913	3710	2412	561	477316	3064923	31596
46	2017-05-26 00:15:04	0	0	0	0	0	0	15.91	2.59	0.48	977188	1	316771	662110	977188	660417	25319	3756	2439	570	487767	3064923	32084
47	2017-05-26 01:15:05	0	0	0	0	0	0	0	2.58	0.48	1005264	1	327035	679534	1005264	678229	25917	3822	2493	577	496911	0	32809
48	2017-05-26 02:15:05	0	0	0	0	0	0	0	2.57	0.48	1018815	1	331682	686902	1018815	687133	26163	3860	2524	581	502384	0	33128
49	2017-05-26 03:15:04	0	0	0	0	0	0	0	2.56	0.48	1026005	1	334131	692025	1026005	691874	26284	3878	2540	586	507042	0	33288
50	2017-05-26 04:15:04	0	0	0	0	0	0	0	2.56	0.48	1030511	1	335841	693498	1030511	694670	26341	3886	2545	587	509001	0	33359
51	2017-05-26 05:15:05	0	0	0	0	0	0	0	2.55	0.48	1034699	1	337580	694159	1034699	697119	26385	3888	2548	587	509294	0	33408
52	2017-05-26 06:15:06	0	0	0	0	0	0	0	2.54	0.49	1041751	1	340933	698296	1041751	700818	26498	3898	2560	589	510800	0	33545
53	2017-05-26 07:02:35	0	0	0	0	0	0	0	2.54	0.49	1051414	1	345547	706341	1051414	705867	26682	3934	2578	591	514257	0	33785
54	2017-05-26 07:12:39	0	0	0	0	0	0	0	2.54	0.49	1054282	1	346893	708077	1054282	707389	26731	3940	2583	592	515456	0	33846
55	2017-05-26 07:22:43	0	0	0	0	0	0	0	2.53	0.49	1057418	1	348413	709273	1057418	709005	26776	3946	2589	594	515928	0	33905
56	2017-05-26 07:32:42	0	0	0	0	0	0	0	2.53	0.49	1060726	1	350004	709924	1060726	710722	26832	3958	2600	596	515928	0	33986
57	2017-05-26 07:42:38	0	0	0	0	0	0	0	2.53	0.49	1064150	1	351667	712230	1064150	712483	26892	3964	2606	596	516595	0	34058
58	2017-05-26 07:52:39	0	0	0	0	0	0	0	2.52	0.49	1067546	1	353314	714531	1067546	714232	26952	3970	2613	596	518238	0	34131
59	2017-05-26 08:02:36	0	0	0	0	0	0	0	2.52	0.5	1071006	1	354983	717211	1071006	716023	27021	3986	2620	597	520782	0	34224
60	2017-05-26 08:12:38	0	0	0	0	0	0	0	2.52	0.5	1074533	1	356668	717772	1074533	717865	27103	3992	2633	597	521429	0	34325
61	2017-05-26 08:22:38	0	0	0	0	0	0	0	2.52	0.5	1078311	1	358488	717772	1078311	719823	27177	4002	2636	598	521605	0	34413
62	2017-05-26 08:32:38	0	0	0	0	0	0	0	2.52	0.5	1082208	1	360364	718678	1082208	721844	27262	4016	2643	599	521951	0	34520
63	2017-05-26 08:42:39	0	0	0	0	0	0	0	2.52	0.5	1086117	1	362261	725094	1086117	723856	27321	4022	2649	600	525550	0	34592
64	2017-05-26 08:52:39	0	0	0	0	0	0	0	2.51	0.5	1089959	1	364130	729192	1089959	725829	27394	4026	2656	600	527745	0	34676
65	2017-05-26 09:02:49	0	0	0	0	0	0	0	2.51	0.5	1093674	1	365987	730569	1093674	727687	27466	4034	2663	603	528375	0	34766
66	2017-05-26 09:12:39	0	0	0	0	0	0	0	2.51	0.5	1097453	1	367854	732860	1097453	729599	27522	4044	2670	604	529052	0	34840
67	2017-05-26 09:22:59	0	0	0	0	0	0	0	2.5	0.51	1101114	1	369618	735678	1101114	731496	27577	4052	2674	605	531065	0	34908
68	2017-05-26 09:32:54	0	0	0	0	0	0	0	2.5	0.51	1104786	1	371388	738563	1104786	733398	27653	4062	2682	607	533169	0	35004
69	2017-05-26 09:43:16	0	0	0	0	0	0	0	2.5	0.51	1108390	1	373116	740504	1108390	735274	27719	4068	2687	610	535937	0	35084
70	2017-05-26 09:53:43	0	0	0	0	0	0	0	2.5	0.51	1112137	1	374790	742814	1112137	737347	27780	4076	2691	610	538594	0	35157
71	2017-05-26 10:03:53	0	0	0	0	0	0	0	2.5	0.51	1115661	1	376357	743438	1115661	739304	27844	4086	2697	610	539251	0	35237
72	2017-05-26 10:14:05	0	0	0	0	0	0	0	2.49	0.51	1119048	1	377937	745676	1119048	741111	27907	4094	2703	613	539909	0	35317
73	2017-05-26 10:24:52	0	0	0	0	0	0	0	2.49	0.51	1123905	1	380255	748713	1123905	743650	27977	4110	2710	613	542543	0	35410
74	2017-05-26 10:35:10	0	0	0	0	0	0	0	2.49	0.51	1127136	1	381752	750164	1127136	745384	28026	4120	2714	613	543305	0	35473
75	2017-05-26 10:45:07	0	0	0	0	0	0	0	2.49	0.51	1130263	1	383088	751884	1130263	747175	28089	4126	2718	615	543877	0	35548
76	2017-05-26 10:55:19	0	0	0	0	0	0	0	2.48	0.51	1133474	1	384534	753347	1133474	748940	28162	4134	2724	615	544068	0	35635
77	2017-05-26 11:05:28	0	0	0	0	0	0	0	2.48	0.51	1136680	1	385902	754885	1136680	750778	28235	4146	2726	615	544212	0	35722
78	2017-05-26 11:10:32	0	0	0	0	0	0	0	2.48	0.51	1138270	1	386640	754885	1138270	751630	28262	4148	2727	616	544212	0	35753
79	2017-05-26 11:21:16	0	0	0	0	0	0	17.78	2.48	0.52	1141475	1	388040	759433	1141475	753435	28320	4160	2731	616	545578	3067981	35827
80	2017-05-26 11:31:17	0	0	0	0	0	0	17.84	2.48	0.52	1144626	1	389420	762801	1144626	755206	28387	4164	2735	616	547411	3067981	35902
81	2017-05-26 11:33:29	0	0	0	0	0	0	0	2.48	0.52	1144626	1	389420	762801	1144626	755206	28387	4164	2736	616	547411	0	35903
82	2017-05-26 11:40:03	0	0	0	0	0	0	0	2.48	0.52	1147717	1	390752	763271	1147717	756965	28443	4166	2737	617	549012	0	35963
83	2017-05-26 11:45:07	0	0	0	0	0	0	17.89	2.48	0.52	1149253	1	391404	763435	1149253	757849	28469	4168	2739	617	549683	3072903	35993
84	2017-05-26 11:55:10	0	0	0	0	0	0	17.93	2.48	0.52	1152283	1	392720	764802	1152283	759563	28537	4170	2742	617	550881	3072931	36066
85	2017-05-26 12:05:10	0	0	0	0	0	0	17.99	2.47	0.52	1155153	1	393895	765654	1155153	761258	28588	4172	2747	618	552946	3072950	36125
86	2017-05-26 12:15:14	0	0	0	0	0	0	18.05	2.47	0.52	1157879	1	395078	769065	1157879	762801	28635	4178	2752	620	554605	3072967	36185
87	2017-05-26 12:25:20	0	0	0	0	0	0	18.07	2.47	0.52	1160548	1	396202	771604	1160548	764346	28677	4178	2756	620	555327	3072986	36231
88	2017-05-26 12:35:10	0	0	0	0	0	0	18.13	2.47	0.52	1163203	1	397346	772760	1163203	765857	28741	4184	2760	620	557125	3073010	36305
89	2017-05-26 12:45:09	0	0	0	0	0	0	18.19	2.47	0.52	1165943	1	398486	776247	1165943	767457	28790	4188	2768	620	558935	3073027	36366
90	2017-05-26 12:55:11	0	0	0	0	0	0	18.19	2.47	0.52	1168736	1	399617	776539	1168736	769119	28844	4196	2775	624	558986	3073032	36439
91	2017-05-26 13:05:12	0	0	0	0	0	0	18.25	2.47	0.52	1171289	1	400696	779422	1171289	770593	28884	4200	2777	627	560681	3073056	36488
92	2017-05-26 13:15:14	0	0	0	0	0	0	18.3	2.46	0.52	1173884	1	401743	782018	1173884	772141	28934	4212	2783	628	562387	3073072	36557
93	2017-05-26 13:25:17	0	0	0	0	0	0	18.35	2.46	0.52	1176684	1	402908	783205	1176684	773776	28984	4234	2789	628	564026	3073083	36635
94	2017-05-26 13:35:24	0	0	0	0	0	0	18.36	2.46	0.52	1179233	1	404025	784693	1179233	775208	29025	4240	2790	628	564309	3073097	36683
95	2017-05-26 13:45:22	0	0	0	0	0	0	18.39	2.46	0.52	1181036	1	404874	786637	1181036	776162	29067	4246	2795	628	565133	3073120	36736
96	2017-05-26 13:55:13	0	0	0	0	0	0	18.41	2.46	0.52	1183916	1	406177	787537	1183916	777739	29116	4246	2798	628	565752	3073130	36788
97	2017-05-26 14:05:12	0	0	0	0	0	0	18.41	2.46	0.52	1186249	1	407341	787613	1186249	778908	29166	4254	2803	630	565843	3073144	36853
98	2017-05-26 14:15:12	0	0	0	0	0	0	18.43	2.46	0.52	1188324	1	408433	788013	1188324	779891	29205	4256	2805	630	566464	3073155	36896
99	2017-05-26 14:25:16	0	0	0	0	0	0	18.44	2.46	0.52	1190297	1	409507	788716	1190297	780790	29248	4260	2811	631	566619	3073176	36950
100	2017-05-26 14:35:26	0	0	0	0	0	0	18.45	2.46	0.53	1192218	1	410556	789420	1192218	781662	29295	4270	2812	632	566931	3073198	37009
101	2017-05-26 14:45:27	0	0	0	0	0	0	18.45	2.46	0.53	1194098	1	411629	789823	1194098	782469	29326	4272	2814	632	566931	3073209	37044
102	2017-05-26 14:55:17	0	0	0	0	0	0	18.47	2.46	0.53	1196051	1	412714	790781	1196051	783337	29369	4276	2817	632	567658	3073225	37094
103	2017-05-26 15:05:22	0	0	0	0	0	0	18.47	2.46	0.53	1197901	1	413760	790781	1197901	784141	29420	4280	2822	632	567658	3073230	37154
104	2017-05-26 15:15:24	0	0	0	0	0	0	18.5	2.45	0.53	1199678	1	414797	792755	1199678	784881	29448	4286	2823	632	568675	3073256	37189
105	2017-05-26 15:25:31	0	0	0	0	0	0	18.56	2.45	0.53	1201483	1	415817	792755	1201483	785666	29486	4294	2826	632	570246	3073270	37238
106	2017-05-26 15:35:18	0	0	0	0	0	0	18.55	2.45	0.53	1203291	1	416900	792958	1203291	786391	29524	4298	2833	633	570246	3073284	37288
107	2017-05-26 15:45:14	0	0	0	0	0	0	18.57	2.45	0.53	1205053	1	417973	793059	1205053	787080	29563	4304	2836	633	570719	3073298	37336
108	2017-05-26 15:55:16	0	0	0	0	0	0	18.57	2.45	0.53	1206689	1	418902	793415	1206689	787787	29599	4308	2841	634	570771	3073318	37382
109	2017-05-26 16:05:17	0	0	0	0	0	0	18.58	2.45	0.53	1208327	1	419904	795607	1208327	788423	29636	4314	2846	634	571166	3073332	37430
110	2017-05-26 16:15:16	0	0	0	0	0	0	18.58	2.45	0.53	1209961	1	420942	795607	1209961	789019	29673	4316	2849	634	571166	3073338	37472
111	2017-05-26 16:25:16	0	0	0	0	0	0	18.63	2.45	0.53	1211479	1	421920	800026	1211479	789559	29707	4322	2853	637	572592	3073358	37519
112	2017-05-26 16:35:16	0	0	0	0	0	0	18.63	2.45	0.54	1213070	1	422935	800440	1213070	790135	29744	4324	2855	638	572592	3073383	37561
113	2017-05-26 16:45:17	0	0	0	0	0	0	18.65	2.45	0.54	1214576	1	423916	802879	1214576	790660	29769	4324	2857	638	573334	3073396	37588
114	2017-05-26 16:55:17	0	0	0	0	0	0	18.67	2.45	0.54	1216065	1	424833	802879	1216065	791232	29793	4326	2859	638	573759	3073407	37616
115	2017-05-26 17:05:17	0	0	0	0	0	0	18.68	2.45	0.54	1217471	1	425708	803504	1217471	791763	29820	4328	2862	639	573972	3073425	37649
116	2017-05-26 17:15:17	0	0	0	0	0	0	18.69	2.45	0.54	1218925	1	426602	804495	1218925	792323	29852	4334	2863	639	574291	3073441	37688
117	2017-05-26 17:25:15	0	0	0	0	0	0	18.69	2.45	0.54	1220221	1	427444	804495	1220221	792777	29883	4336	2866	639	574291	3073461	37724
118	2017-05-26 17:35:15	0	0	0	0	0	0	18.71	2.45	0.54	1221625	1	428320	805332	1221625	793305	29905	4340	2869	639	574931	3073474	37753
119	2017-05-26 17:45:16	0	0	0	0	0	0	18.71	2.45	0.54	1222990	1	429232	805542	1222990	793758	29923	4340	2869	639	575038	3073484	37771
120	2017-05-26 17:55:24	0	0	0	0	0	0	18.71	2.45	0.54	1224273	1	430030	805751	1224273	794243	29946	4344	2872	640	575038	3073504	37802
121	2017-05-26 18:05:28	0	0	0	0	0	0	18.71	2.45	0.54	1225484	1	430768	805751	1225484	794716	29970	4344	2873	641	575038	3073517	37828
122	2017-05-26 18:15:27	0	0	0	0	0	0	18.71	2.44	0.54	1226659	1	431465	806933	1226659	795194	29988	4346	2874	641	575038	3073527	37849
123	2017-05-26 18:25:22	0	0	0	0	0	0	18.72	2.44	0.54	1227851	1	432196	807564	1227851	795655	30010	4348	2877	641	575358	3073532	37876
124	2017-05-26 18:35:22	0	0	0	0	0	0	18.72	2.44	0.54	1228960	1	432882	807564	1228960	796078	30028	4350	2879	641	575358	3073541	37898
125	2017-05-26 18:45:22	0	0	0	0	0	0	18.72	2.44	0.54	1230064	1	433565	807972	1230064	796499	30058	4356	2880	641	575465	3073558	37935
126	2017-05-26 18:55:21	0	0	0	0	0	0	18.78	2.44	0.55	1231141	1	434362	808711	1231141	796779	30085	4358	2880	641	577128	3073575	37964
127	2017-05-26 19:05:21	0	0	0	0	0	0	18.8	2.44	0.55	1232101	1	435078	809451	1232101	797023	30101	4358	2881	642	577828	3073587	37982
128	2017-05-26 19:15:21	0	0	0	0	0	0	18.8	2.44	0.55	1232986	1	435751	810723	1232986	797235	30116	4360	2882	642	577828	3073604	38000
129	2017-05-26 19:25:38	0	0	0	0	0	0	18.8	2.44	0.55	1233919	1	436414	810935	1233919	797505	30137	4362	2883	642	577828	3073655	38024
130	2017-05-26 19:35:22	0	0	0	0	0	0	18.82	2.44	0.55	1234869	1	437102	812584	1234869	797767	30152	4364	2884	642	578476	3073699	38042
131	2017-05-26 19:45:42	0	0	0	0	0	0	18.83	2.44	0.55	1235787	1	437762	812584	1235787	798025	30174	4368	2886	643	578692	3073737	38071
132	2017-05-26 19:55:45	0	0	0	0	0	0	18.83	2.44	0.55	1236759	1	438468	812584	1236759	798291	30190	4368	2886	643	578692	3073790	38087
133	2017-05-26 20:06:01	0	0	0	0	0	0	18.83	2.44	0.55	1237621	1	439108	812584	1237621	798513	30209	4372	2888	643	578692	3073831	38112
134	2017-05-26 20:15:50	0	0	0	0	0	0	18.84	2.44	0.55	1238553	1	439798	814508	1238553	798755	30235	4374	2889	644	579179	3073866	38142
135	2017-05-26 20:25:46	0	0	0	0	0	0	18.84	2.44	0.55	1239385	1	440426	814508	1239385	798959	30258	4380	2889	644	579179	3073893	38171
136	2017-05-26 20:36:02	0	0	0	0	0	0	18.84	2.44	0.55	1240233	1	441062	815796	1240233	799171	30268	4380	2890	644	579179	3073918	38182
137	2017-05-26 20:46:15	0	0	0	0	0	0	18.84	2.44	0.55	1241073	1	441697	815796	1241073	799376	30282	4384	2891	644	579179	3073937	38201
138	2017-05-26 20:56:14	0	0	0	0	0	0	18.84	2.44	0.55	1241971	1	442364	816226	1241971	799607	30301	4388	2892	644	579179	3073979	38225
139	2017-05-26 21:06:21	0	0	0	0	0	0	18.86	2.44	0.55	1242779	1	442970	817303	1242779	799809	30318	4392	2892	644	579613	3074012	38246
140	2017-05-26 21:16:32	0	0	0	0	0	0	18.86	2.44	0.55	1243797	1	443766	817519	1243797	800031	30331	4396	2892	644	579613	3074049	38263
141	2017-05-26 21:26:33	0	0	0	0	0	0	18.88	2.44	0.56	1244703	1	444470	817721	1244703	800233	30360	4398	2893	644	580482	3074083	38295
142	2017-05-26 21:38:02	0	0	0	0	0	0	18.88	2.44	0.56	1245585	1	445147	818478	1245585	800438	30377	4404	2895	644	580482	3074125	38320
143	2017-05-26 21:47:13	0	0	0	0	0	0	18.88	2.44	0.56	1246452	1	445810	818478	1246452	800642	30402	4406	2896	644	580482	3074154	38348
144	2017-05-26 21:57:13	0	0	0	0	0	0	18.9	2.44	0.56	1247302	1	446435	818478	1247302	800867	30424	4408	2899	644	580918	3074182	38375
145	2017-05-26 22:07:29	0	0	0	0	0	0	18.9	2.44	0.56	1248214	1	447112	818478	1248214	801102	30438	4410	2899	645	580918	3074209	38392
146	2017-05-26 22:17:29	0	0	0	0	0	0	18.9	2.44	0.56	1249059	1	447722	818478	1249059	801337	30449	4412	2900	645	580918	3074235	38406
147	2017-05-26 22:27:26	0	0	0	0	0	0	18.9	2.44	0.56	1249894	1	448348	820158	1249894	801546	30464	4412	2901	645	580918	3074255	38422
148	2017-05-26 22:37:50	0	0	0	0	0	0	18.9	2.44	0.56	1250713	1	448981	820158	1250713	801732	30476	4412	2901	646	580918	3074283	38435
149	2017-05-26 22:58:46	0	0	0	0	0	0	18.9	2.44	0.56	1252706	1	450475	821736	1252706	802231	30523	4416	2901	647	580918	3074333	38487
150	2017-05-26 23:08:33	0	0	0	0	0	0	18.9	2.44	0.56	1253443	1	451024	821736	1253443	802419	30539	4418	2901	647	580918	3074345	38505
151	2017-05-26 23:20:46	0	0	0	0	0	0	18.9	2.44	0.56	1254133	1	451531	821736	1254133	802602	30556	4420	2901	647	580918	3074377	38524
152	2017-05-26 23:34:35	0	0	0	0	0	0	18.9	2.44	0.56	1255122	1	452264	821954	1255122	802858	30574	4424	2903	647	580918	3074410	38548
153	2017-05-26 23:47:01	0	0	0	0	0	0	18.9	2.44	0.56	1255700	1	452711	822363	1255700	802989	30584	4424	2904	647	580918	3074439	38559
154	2017-05-26 23:57:06	0	0	0	0	0	0	18.89	2.44	0.56	1256317	1	453145	822363	1256317	803172	30593	4424	2904	647	580918	3074457	38568
155	2017-05-27 00:33:06	0	0	0	0	0	0	18.89	2.43	0.57	1258016	1	454369	822739	1258016	803647	30625	4428	2904	647	580918	3074556	38604
156	2017-05-27 01:33:32	0	0	0	0	0	0	18.89	2.43	0.57	1259916	1	455723	823614	1259916	804193	30670	4432	2905	647	580918	3074651	38654
157	2017-05-27 02:35:49	0	0	0	0	0	0	18.9	2.43	0.57	1260991	1	456542	823820	1260991	804449	30692	4434	2906	647	581020	3074720	38679
158	2017-05-27 03:35:54	0	0	0	0	0	0	18.9	2.43	0.57	1261482	1	456919	823820	1261482	804563	30697	4438	2907	647	581020	3074757	38689
159	2017-05-27 04:37:56	0	0	0	0	0	0	18.9	2.43	0.57	1261801	1	457159	823820	1261801	804642	30704	4438	2907	647	581020	3074795	38696
160	2017-05-27 05:37:29	0	0	0	0	0	0	18.9	2.43	0.57	1262091	1	457385	823820	1262091	804706	30710	4438	2907	647	581020	3074833	38702
161	2017-05-27 06:37:28	0	0	0	0	0	0	18.9	2.43	0.57	1262515	1	457708	823820	1262515	804807	30719	4438	2907	647	581020	3074887	38711
162	2017-05-27 07:12:31	0	0	0	0	0	0	18.91	2.43	0.57	1262900	1	458027	823820	1262900	804873	30723	4442	2909	647	581347	3074954	38721
163	2017-05-27 07:30:57	0	0	0	0	0	0	18.91	2.43	0.57	1263219	1	458294	825137	1263219	804925	30726	4442	2910	647	581347	3075012	38725
164	2017-05-27 07:40:46	0	0	0	0	0	0	18.91	2.43	0.57	1263392	1	458446	825137	1263392	804946	30731	4442	2910	647	581347	3075056	38730
165	2017-05-27 08:01:26	0	0	0	0	0	0	18.9	2.43	0.57	1263776	1	458780	825467	1263776	804996	30735	4442	2910	647	581347	3075156	38734
166	2017-05-27 08:11:36	0	0	0	0	0	0	18.9	2.43	0.57	1263985	1	458947	825467	1263985	805038	30738	4444	2911	647	581347	3075225	38740
167	2017-05-27 08:25:29	0	0	0	0	0	0	18.9	2.43	0.57	1264298	1	459198	825467	1264298	805100	30739	4444	2911	647	581347	3075322	38741
168	2017-05-27 08:36:35	0	0	0	0	0	0	18.9	2.43	0.57	1264521	1	459382	825467	1264521	805139	30748	4444	2911	647	581347	3075413	38750
169	2017-05-27 08:56:48	0	0	0	0	0	0	18.9	2.43	0.57	1264983	1	459772	825467	1264983	805211	30760	4444	2911	647	581347	3075558	38762
170	2017-05-27 09:13:37	0	0	0	0	0	0	18.9	2.43	0.57	1265295	1	460029	825467	1265295	805266	30766	4444	2912	647	581347	3075690	38769
171	2017-05-27 09:24:32	0	0	0	0	0	0	18.9	2.43	0.57	1265638	1	460313	825467	1265638	805325	30772	4444	2912	647	581347	3075781	38775
172	2017-05-27 09:35:15	0	0	0	0	0	0	18.9	2.43	0.57	1265883	1	460511	825467	1265883	805372	30778	4444	2912	647	581347	3075851	38781
173	2017-05-27 10:01:10	0	0	0	0	0	0	18.9	2.43	0.57	1266375	1	460914	825990	1266375	805461	30786	4446	2912	647	581347	3076044	38791
174	2017-05-27 10:36:11	0	0	0	0	0	0	18.9	2.43	0.57	1267150	1	461575	825990	1267150	805575	30802	4444	2912	648	581347	3076295	38806
175	2017-05-27 10:46:54	0	0	0	0	0	0	18.9	2.43	0.57	1267362	1	461754	825990	1267362	805608	30805	4444	2912	648	581347	3076375	38809
176	2017-05-27 11:02:15	0	0	0	0	0	0	18.9	2.43	0.57	1267671	1	462016	825990	1267671	805655	30807	4444	2912	648	581347	3076470	38811
177	2017-05-27 11:12:23	0	0	0	0	0	0	18.9	2.43	0.57	1267849	1	462159	825990	1267849	805690	30811	4444	2912	648	581347	3076534	38815
178	2017-05-27 11:29:44	0	0	0	0	0	0	18.9	2.43	0.57	1268217	1	462461	826376	1268217	805756	30828	4444	2913	648	581347	3076640	38833
179	2017-05-27 12:09:08	0	0	0	0	0	0	18.89	2.43	0.57	1268841	1	462971	826376	1268841	805870	30842	4446	2913	648	581347	3076874	38849
180	2017-05-27 12:26:45	0	0	0	0	0	0	18.89	2.43	0.57	1269188	1	463264	826376	1269188	805924	30848	4446	2913	648	581347	3076960	38855
181	2017-05-27 12:44:18	0	0	0	0	0	0	18.89	2.43	0.58	1269443	1	463475	826376	1269443	805968	30854	4448	2914	648	581347	3077046	38864
182	2017-05-27 12:56:12	0	0	0	0	0	0	18.89	2.43	0.58	1269692	1	463673	826376	1269692	806019	30858	4448	2914	648	581347	3077099	38868
183	2017-05-27 13:06:19	0	0	0	0	0	0	18.94	2.43	0.58	1269821	1	463779	826376	1269821	806042	30860	4448	2914	648	582879	3077146	38870
184	2017-05-27 13:30:55	0	0	0	0	0	0	18.94	2.43	0.58	1270175	1	464079	826541	1270175	806096	30864	4448	2914	648	582879	3077297	38874
185	2017-05-27 13:40:56	0	0	0	0	0	0	18.94	2.43	0.58	1270317	1	464200	826541	1270317	806117	30865	4450	2914	648	582879	3077373	38877
186	2017-05-27 14:45:08	0	0	0	0	0	0	18.95	2.43	0.58	1271245	1	464953	827204	1271245	806292	30887	4454	2914	648	583209	3077645	38903
187	2017-05-27 14:57:09	0	0	0	0	0	0	18.95	2.43	0.58	1271393	1	465052	827204	1271393	806341	30890	4454	2914	648	583209	3077700	38906
188	2017-05-27 15:35:23	0	0	0	0	0	0	18.95	2.43	0.58	1272019	1	465511	827204	1272019	806508	30905	4456	2914	648	583209	3077874	38923
189	2017-05-27 15:44:17	0	0	0	0	0	0	18.95	2.43	0.58	1272120	1	465585	827204	1272120	806535	30907	4456	2914	648	583209	3077925	38925
190	2017-05-27 15:54:25	0	0	0	0	0	0	18.95	2.43	0.58	1272272	1	465697	827204	1272272	806575	30910	4458	2914	648	583209	3077977	38930
191	2017-05-27 16:04:41	0	0	0	0	0	0	18.95	2.43	0.58	1272453	1	465836	827204	1272453	806617	30913	4464	2914	648	583209	3078020	38939
192	2017-05-27 16:33:59	0	0	0	0	0	0	18.95	2.43	0.58	1273025	1	466266	827204	1273025	806759	30921	4464	2914	648	583209	3078183	38947
193	2017-05-27 16:46:06	0	0	0	0	0	0	18.95	2.43	0.58	1273291	1	466462	827867	1273291	806829	30924	4464	2914	648	583209	3078292	38950
194	2017-05-27 16:55:40	0	0	0	0	0	0	18.95	2.43	0.58	1273457	1	466588	827867	1273457	806869	30924	4464	2915	648	583209	3078387	38951
195	2017-05-27 18:23:35	0	0	0	0	0	0	18.94	2.43	0.58	1274874	1	467557	827867	1274874	807317	30948	4470	2916	648	583209	3079090	38982
196	2017-05-27 18:35:57	0	0	0	0	0	0	18.94	2.43	0.58	1275156	1	467762	828532	1275156	807394	30953	4472	2916	648	583209	3079186	38989
197	2017-05-27 18:57:52	0	0	0	0	0	0	18.94	2.43	0.58	1275474	1	468009	828532	1275474	807465	30960	4470	2916	648	583209	3079397	38994
198	2017-05-27 19:41:59	0	0	0	0	0	0	18.94	2.43	0.58	1276204	1	468491	830059	1276204	807713	30974	4470	2916	649	583209	3079767	39009
199	2017-05-27 19:51:55	0	0	0	0	0	0	18.94	2.43	0.58	1276357	1	468583	830059	1276357	807774	30978	4470	2917	649	583209	3079849	39014
200	2017-05-27 20:19:11	0	0	0	0	0	0	18.93	2.43	0.58	1276749	1	468836	830170	1276749	807913	30981	4470	2917	648	583209	3080089	39016
201	2017-05-27 21:10:16	0	0	0	0	0	0	18.93	2.43	0.58	1277478	1	469296	831508	1277478	808199	30986	4470	2918	648	583209	3080550	39022
202	2017-05-27 21:29:15	0	0	0	0	0	0	18.93	2.43	0.58	1277791	1	469499	831508	1277791	808292	30992	4470	2919	648	583209	3080713	39029
203	2017-05-28 01:21:42	0	0	0	0	0	0	18.92	2.42	0.58	1280948	1	471466	832178	1280948	809482	31035	4480	2920	648	583209	3082216	39083
204	2017-05-28 02:22:15	0	0	0	0	0	0	18.92	2.42	0.58	1281222	1	471624	832178	1281222	809598	31039	4480	2921	648	583209	3082392	39088
205	2017-05-28 05:09:44	0	0	0	0	0	0	18.92	2.42	0.58	1281632	1	471814	832626	1281632	809818	31045	4482	2921	648	583209	3082552	39096
206	2017-05-28 06:23:06	0	0	0	0	0	0	18.92	2.42	0.58	1281775	1	471874	832626	1281775	809901	31046	4480	2921	648	583209	3082612	39095
207	2017-05-28 07:18:03	0	0	0	0	0	0	18.92	2.42	0.58	1281926	1	471938	832626	1281926	809988	31049	4480	2921	648	583209	3082684	39098
208	2017-05-28 07:29:48	0	0	0	0	0	0	18.92	2.42	0.58	1281957	1	471955	832626	1281957	810002	31049	4480	2921	648	583209	3082720	39098
209	2017-05-28 11:02:30	0	0	0	0	0	0	18.91	2.42	0.58	1283333	1	472630	833298	1283333	810703	31072	4480	2921	648	583209	3083889	39121
210	2017-05-28 11:15:58	0	0	0	0	0	0	18.91	2.42	0.58	1283389	1	472654	833298	1283389	810735	31074	4480	2921	648	583209	3083968	39123
211	2017-05-28 11:48:30	0	0	0	0	0	0	18.91	2.42	0.58	1283621	1	472769	833298	1283621	810852	31082	4480	2921	648	583209	3084149	39131
212	2017-05-28 12:00:32	0	0	0	0	0	0	18.91	2.42	0.58	1283671	1	472801	833298	1283671	810870	31085	4480	2921	648	583209	3084239	39134
213	2017-05-28 12:17:36	0	0	0	0	0	0	18.91	2.42	0.58	1283794	1	472870	833634	1283794	810924	31090	4480	2921	648	583209	3084367	39139
214	2017-05-28 12:33:55	0	0	0	0	0	0	18.91	2.42	0.58	1283897	1	472916	833634	1283897	810981	31093	4480	2921	648	583209	3084478	39142
215	2017-05-28 13:06:49	0	0	0	0	0	0	18.92	2.42	0.58	1284113	1	473031	834084	1284113	811082	31097	4480	2921	648	583648	3084748	39146
216	2017-05-28 13:21:42	0	0	0	0	0	0	18.92	2.42	0.58	1284179	1	473069	834084	1284179	811125	31098	4484	2921	648	583648	3084858	39151
217	2017-05-28 13:36:48	0	0	0	0	0	0	18.92	2.42	0.58	1284316	1	473143	834084	1284316	811173	31099	4484	2921	648	583648	3084960	39152
