1	2016-05-31 10:02:25	0	0	0	0	0	0	1.21	1.44	0	25490	0	58	22237	25490	25432	368	5	0	0	22178	1837062	0
2	2016-05-31 10:12:24	0	0	0	0	0	0	2.09	1.73	0	44057	0	218	38461	44057	43839	764	11	1	0	38380	1837080	0
3	2016-05-31 10:22:24	0	0	0	0	0	0	3.45	2.05	0.01	78403	0	784	63687	78403	77619	1611	21	1	0	63294	1837096	0
4	2016-05-31 10:32:24	0	0	0	0	0	0	4.06	2.14	0.01	94384	0	1127	75116	94384	93257	2023	21	2	0	74502	1837115	0
5	2016-05-31 10:42:25	0	0	0	0	0	0	4.89	2.31	0.01	121618	0	1690	91293	121618	119928	2812	24	2	1	89783	1837135	2839
6	2016-05-31 12:48:35	0	0	0	0	0	0	9.5	2.61	0.02	263384	0	6186	180121	263384	257198	6874	39	3	1	174530	1837419	6917
7	2016-05-31 12:58:34	0	0	0	0	0	0	9.59	2.61	0.02	267887	0	6338	181695	267887	261549	6997	41	4	1	176137	1837434	7043
8	2016-05-31 13:08:33	0	0	0	0	0	0	9.8	2.62	0.02	274594	0	6596	185504	274594	267998	7190	41	5	1	180028	1837449	7237
9	2016-05-31 13:18:36	0	0	0	0	0	0	9.9	2.62	0.02	278145	0	6739	187421	278145	271406	7298	41	5	1	181929	1837467	7345
10	2016-05-31 13:28:34	0	0	0	0	0	0	10.09	2.64	0.03	285494	0	7033	191266	285494	278461	7523	41	5	1	185461	1837489	7570
11	2016-05-31 13:38:34	0	0	0	0	0	0	10.2	2.63	0.03	288568	0	7153	193304	288568	281415	7587	41	5	1	187421	1837513	7634
12	2016-05-31 13:48:35	0	0	0	0	0	0	10.39	2.63	0.03	295224	0	7439	197471	295224	287785	7767	44	5	1	191005	1837538	7817
13	2016-05-31 13:58:35	0	0	0	0	0	0	10.53	2.64	0.03	300631	0	7660	199972	300631	292971	7924	45	5	1	193562	1837559	7975
14	2016-05-31 14:08:34	0	0	0	0	0	0	10.57	2.64	0.03	303343	0	7777	200721	303343	295566	7996	45	5	1	194263	1837583	8047
15	2016-05-31 14:18:34	0	0	0	0	0	0	10.72	2.63	0.03	309174	0	8037	204047	309174	301137	8138	47	5	1	197001	1837612	8191
16	2016-05-31 14:28:34	0	0	0	0	0	0	10.84	2.63	0.03	312591	0	8194	206454	312591	304397	8210	48	5	1	199243	1837655	8264
17	2016-05-31 14:38:34	0	0	0	0	0	0	10.96	2.62	0.03	318662	0	8483	208780	318662	310179	8360	52	5	1	201357	1837692	8418
18	2016-05-31 14:48:34	0	0	0	0	0	0	11.02	2.62	0.03	321491	0	8627	210312	321491	312864	8417	53	5	1	202463	1837729	8476
19	2016-05-31 15:06:05	0	0	0	0	0	0	11.27	2.63	0.03	329359	0	9036	214629	329359	320323	8649	54	5	1	207068	1837775	8709
20	2016-05-31 15:13:36	0	0	0	0	0	0	11.38	2.63	0.03	331917	0	9147	216804	331917	322770	8731	54	5	1	209120	1837793	8791
21	2016-05-31 15:18:36	0	0	0	0	0	0	11.38	2.63	0.03	331917	0	9147	216804	331917	322770	8731	54	5	1	209120	1837808	8791
22	2016-05-31 15:28:37	0	0	0	0	0	0	11.5	2.64	0.03	336243	0	9380	219416	336243	326863	8868	55	5	1	211304	1837838	8929
23	2016-05-31 15:38:38	0	0	0	0	0	0	11.63	2.64	0.03	338842	0	9502	222154	338842	329340	8939	55	6	1	213754	1837856	9001
24	2016-05-31 15:48:42	0	0	0	0	0	0	11.76	2.64	0.03	343748	0	9733	224376	343748	334015	9083	56	6	1	216051	1837883	9146
25	2016-05-31 15:58:44	0	0	0	0	0	0	11.88	2.64	0.03	348346	0	9923	224954	348346	338423	9208	56	6	1	218378	1837909	9271
26	2016-05-31 16:08:44	0	0	0	0	0	0	11.92	2.64	0.03	350838	0	10039	228119	350838	340799	9269	57	6	1	218996	1837943	9333
27	2016-05-31 16:18:45	0	0	0	0	0	0	12.04	2.64	0.03	355087	0	10255	230599	355087	344832	9359	57	6	1	221281	1837974	9423
28	2016-05-31 16:28:39	0	0	0	0	0	0	12.11	2.64	0.03	358046	0	10408	231964	358046	347638	9459	58	6	1	222601	1837996	9524
29	2016-05-31 16:38:42	0	0	0	0	0	0	12.17	2.65	0.03	360706	0	10544	233046	360706	350162	9546	58	6	1	223598	1838033	9611
30	2016-05-31 16:48:40	0	0	0	0	0	0	12.34	2.65	0.03	365112	0	10754	235829	365112	354358	9667	58	6	1	226754	1838058	9732
31	2016-05-31 16:58:41	0	0	0	0	0	0	12.38	2.64	0.03	367162	0	10845	236369	367162	356317	9707	58	6	1	227521	1838084	9772
32	2016-05-31 17:08:41	0	0	0	0	0	0	12.47	2.65	0.03	370776	0	11019	238708	370776	359757	9810	58	6	1	229160	1838114	9875
33	2016-05-31 17:18:43	0	0	0	0	0	0	12.54	2.64	0.03	372947	0	11113	240245	372947	361834	9862	58	6	1	230456	1838145	9927
34	2016-05-31 17:28:40	0	0	0	0	0	0	12.65	2.64	0.03	376409	0	11267	242370	376409	365142	9927	58	6	1	232551	1838194	9992
35	2016-05-31 17:38:48	0	0	0	0	0	0	12.75	2.64	0.03	379489	0	11437	244959	379489	368052	10028	61	6	1	234435	1838230	10096
36	2016-05-31 17:48:46	0	0	0	0	0	0	12.79	2.64	0.03	381026	0	11526	245639	381026	369500	10069	61	7	1	235058	1838254	10138
37	2016-05-31 17:58:47	0	0	0	0	0	0	12.85	2.64	0.03	384496	0	11712	246863	384496	372784	10147	62	8	1	236178	1838277	10218
38	2016-05-31 18:08:43	0	0	0	0	0	0	12.88	2.64	0.03	386202	0	11799	247691	386202	374403	10190	63	9	1	236865	1838310	10263
39	2016-05-31 18:18:45	0	0	0	0	0	0	12.98	2.63	0.03	389832	0	11988	249563	389832	377844	10263	63	10	3	238576	1838348	10339
40	2016-05-31 18:28:44	0	0	0	0	0	0	13.05	2.63	0.03	391503	0	12075	250765	391503	379428	10304	64	11	3	239972	1838380	10382
41	2016-05-31 18:38:43	0	0	0	0	0	0	13.15	2.63	0.03	394700	0	12264	252760	394700	382436	10381	64	11	3	241798	1838417	10459
42	2016-05-31 18:48:42	0	0	0	0	0	0	13.21	2.63	0.03	397529	0	12435	253848	397529	385094	10457	64	11	3	242793	1838455	10535
43	2016-05-31 18:58:44	0	0	0	0	0	0	13.21	2.63	0.03	399073	0	12514	253889	399073	386559	10496	64	11	3	242831	1838489	10574
44	2016-05-31 19:08:48	0	0	0	0	0	0	13.31	2.63	0.03	402415	0	12670	255941	402415	389745	10575	64	11	3	244668	1838532	10653
45	2016-05-31 19:18:43	0	0	0	0	0	0	13.35	2.63	0.03	404152	0	12758	256705	404152	391394	10609	64	11	3	245366	1838573	10687
46	2016-05-31 19:28:45	0	0	0	0	0	0	13.44	2.62	0.03	407463	0	12906	257881	407463	394557	10672	64	11	3	247030	1838615	10750
47	2016-05-31 19:38:48	0	0	0	0	0	0	13.46	2.62	0.03	409340	0	13001	258440	409340	396339	10719	65	11	3	247544	1838652	10798
48	2016-05-31 19:48:47	0	0	0	0	0	0	13.54	2.62	0.03	412630	0	13169	260594	412630	399461	10800	66	11	3	248957	1838699	10880
49	2016-05-31 19:58:48	0	0	0	0	0	0	13.56	2.61	0.03	414441	0	13280	260989	414441	401161	10836	66	11	3	249318	1838731	10916
50	2016-05-31 20:08:47	0	0	0	0	0	0	13.63	2.62	0.03	417708	0	13471	262510	417708	404237	10936	67	11	3	250706	1838771	11017
51	2016-05-31 20:18:44	0	0	0	0	0	0	13.69	2.62	0.03	419177	0	13548	263448	419177	405629	10975	67	11	3	251725	1838803	11056
52	2016-05-31 20:28:48	0	0	0	0	0	0	13.74	2.61	0.03	422132	0	13722	264483	422132	408410	11030	67	11	3	252670	1838835	11111
53	2016-05-31 20:38:49	0	0	0	0	0	0	13.81	2.61	0.03	425075	0	13906	266326	425075	411169	11097	68	11	3	253871	1838882	11179
54	2016-05-31 20:48:57	0	0	0	0	0	0	13.9	2.61	0.03	426806	0	13995	268003	426806	412811	11124	68	11	3	255605	1838927	11206
55	2016-05-31 20:58:47	0	0	0	0	0	0	13.96	2.6	0.03	429937	0	14161	268987	429937	415776	11187	68	11	3	256670	1838966	11269
56	2016-05-31 21:08:55	0	0	0	0	0	0	13.98	2.6	0.03	431704	0	14249	269666	431704	417455	11221	68	11	3	257160	1839006	11303
57	2016-05-31 21:18:54	0	0	0	0	0	0	14.12	2.6	0.03	434786	0	14419	272394	434786	420367	11290	69	11	3	259727	1839048	11373
58	2016-05-31 21:28:46	0	0	0	0	0	0	14.16	2.59	0.03	436472	0	14498	273175	436472	421974	11324	69	11	3	260360	1839086	11407
59	2016-05-31 21:38:52	0	0	0	0	0	0	14.17	2.59	0.03	439801	0	14678	273392	439801	425123	11393	69	11	3	260558	1839133	11476
60	2016-05-31 21:48:49	0	0	0	0	0	0	14.18	2.59	0.03	441484	0	14758	273682	441484	426726	11424	69	11	3	260821	1839171	11507
61	2016-05-31 21:58:58	0	0	0	0	0	0	14.26	2.59	0.03	444383	0	14887	275264	444383	429496	11496	69	11	3	262190	1839220	11579
62	2016-05-31 22:08:46	0	0	0	0	0	0	14.32	2.59	0.03	446089	0	14980	276493	446089	431109	11536	70	12	3	263350	1839255	11621
63	2016-05-31 22:18:42	0	0	0	0	0	0	14.37	2.58	0.03	449280	0	15167	277509	449280	434113	11604	71	12	3	264362	1839304	11690
64	2016-05-31 22:28:38	0	0	0	0	0	0	14.4	2.58	0.04	450762	0	15258	277907	450762	435504	11631	72	13	3	264905	1839342	11719
65	2016-05-31 22:38:38	0	0	0	0	0	0	14.46	2.58	0.04	453640	0	15409	278984	453640	438231	11682	72	13	3	265883	1839370	11770
66	2016-05-31 22:48:38	0	0	0	0	0	0	14.59	2.57	0.04	456292	0	15541	281290	456292	440751	11733	72	13	3	268325	1839390	11821
67	2016-05-31 22:58:39	0	0	0	0	0	0	14.61	2.57	0.04	457657	0	15610	281700	457657	442047	11757	72	13	3	268698	1839414	11845
68	2016-05-31 23:08:38	0	0	0	0	0	0	14.69	2.57	0.04	460279	0	15743	283123	460279	444536	11814	73	13	3	270181	1839434	11903
69	2016-05-31 23:18:39	0	0	0	0	0	0	14.72	2.57	0.04	461569	0	15826	283885	461569	445743	11845	74	13	3	270830	1839449	11935
70	2016-05-31 23:28:37	0	0	0	0	0	0	14.79	2.57	0.04	463663	0	15972	285318	463663	447691	11894	74	13	3	272134	1839456	11984
71	2016-05-31 23:38:37	0	0	0	0	0	0	14.81	2.56	0.04	465891	0	16098	285699	465891	449793	11938	74	13	3	272481	1839468	12028
72	2016-05-31 23:48:38	0	0	0	0	0	0	14.89	2.56	0.04	467147	0	16171	286917	467147	450976	11967	75	13	3	273976	1839502	12058
73	2016-05-31 23:58:38	0	0	0	0	0	0	14.92	2.56	0.04	469335	0	16301	287503	469335	453034	12007	75	13	3	274510	1839538	12098
74	2016-06-01 00:08:38	0	0	0	0	0	0	14.95	2.56	0.04	470497	0	16365	288011	470497	454132	12030	75	13	3	274973	1839572	12121
75	2016-06-01 00:18:37	0	0	0	0	0	0	15	2.56	0.04	472539	0	16483	289195	472539	456056	12075	75	13	3	275904	1839595	12166
76	2016-06-01 00:28:37	0	0	0	0	0	0	15.06	2.55	0.04	473388	0	16520	289736	473388	456868	12092	75	13	3	276990	1839612	12183
77	2016-06-01 00:38:37	0	0	0	0	0	0	15.13	2.55	0.04	475088	0	16596	291235	475088	458492	12135	75	13	3	278360	1839627	12226
78	2016-06-01 00:48:38	0	0	0	0	0	0	15.13	2.55	0.04	475818	0	16639	291235	475818	459179	12152	75	13	3	278360	1839635	12243
79	2016-06-01 00:58:37	0	0	0	0	0	0	15.18	2.55	0.04	477153	0	16708	292183	477153	460445	12184	75	13	3	279226	1839642	12275
80	2016-06-01 01:08:38	0	0	0	0	0	0	15.18	2.55	0.04	478183	0	16762	292183	478183	461421	12214	78	13	3	279226	1839650	12308
81	2016-06-01 01:18:38	0	0	0	0	0	0	15.18	2.55	0.04	478761	0	16799	292238	478761	461962	12226	78	13	3	279226	1839657	12320
82	2016-06-01 01:28:38	0	0	0	0	0	0	15.2	2.55	0.04	479728	0	16840	292625	479728	462888	12257	78	13	3	279579	1839661	12351
83	2016-06-01 01:38:38	0	0	0	0	0	0	15.24	2.55	0.04	480175	0	16863	293554	480175	463312	12266	78	13	3	280338	1839671	12360
84	2016-06-01 01:48:38	0	0	0	0	0	0	15.26	2.56	0.04	480984	0	16898	293889	480984	464086	12299	78	13	3	280643	1839675	12393
85	2016-06-01 01:58:37	0	0	0	0	0	0	15.26	2.56	0.04	481335	0	16919	293889	481335	464416	12302	78	13	3	280643	1839677	12396
86	2016-06-01 02:08:38	0	0	0	0	0	0	15.3	2.55	0.04	482106	0	16946	294322	482106	465160	12315	78	13	3	281038	1837374	12409
87	2016-06-01 02:18:38	0	0	0	0	0	0	15.32	2.55	0.04	482424	0	16955	294714	482424	465469	12322	78	13	3	281396	1837380	12416
88	2016-06-01 02:28:38	0	0	0	0	0	0	15.32	2.55	0.04	483039	0	16976	294714	483039	466063	12340	78	13	3	281396	1837384	12434
89	2016-06-01 02:38:38	0	0	0	0	0	0	15.32	2.56	0.04	483312	0	16985	294812	483312	466327	12350	78	13	3	281485	1837387	12444
90	2016-06-01 02:48:38	0	0	0	0	0	0	15.33	2.55	0.04	483769	0	16999	295079	483769	466770	12357	78	13	3	281729	1837389	12451
91	2016-06-01 02:58:39	0	0	0	0	0	0	15.33	2.55	0.04	483965	0	17005	295079	483965	466960	12362	78	13	3	281729	1837393	12456
92	2016-06-01 03:08:38	0	0	0	0	0	0	15.33	2.55	0.04	484324	0	17026	295079	484324	467298	12372	79	13	3	281729	1837391	12467
93	2016-06-01 03:18:38	0	0	0	0	0	0	15.33	2.55	0.04	484465	0	17031	295079	484465	467434	12375	79	13	3	281729	1837393	12470
94	2016-06-01 03:28:38	0	0	0	0	0	0	15.33	2.56	0.04	484837	0	17045	295079	484837	467792	12392	79	13	3	281729	1837394	12487
95	2016-06-01 03:38:38	0	0	0	0	0	0	15.34	2.56	0.04	484992	0	17046	295192	484992	467946	12398	79	13	3	281831	1837397	12493
96	2016-06-01 03:48:38	0	0	0	0	0	0	15.34	2.56	0.04	485274	0	17053	295220	485274	468221	12402	79	13	3	281857	1837399	12497
97	2016-06-01 03:58:38	0	0	0	0	0	0	15.34	2.56	0.04	485402	0	17059	295220	485402	468343	12406	79	13	3	281857	1837401	12501
98	2016-06-01 04:08:38	0	0	0	0	0	0	15.35	2.56	0.04	485618	0	17068	295431	485618	468550	12410	79	13	3	282049	1837403	12505
99	2016-06-01 04:18:37	0	0	0	0	0	0	15.37	2.56	0.04	485766	0	17078	295431	485766	468688	12416	79	13	3	282358	1837405	12511
100	2016-06-01 04:28:38	0	0	0	0	0	0	15.39	2.56	0.04	486013	0	17083	295671	486013	468930	12422	79	13	3	282783	1837406	12517
101	2016-06-01 04:38:38	0	0	0	0	0	0	15.39	2.56	0.04	486133	0	17087	295671	486133	469046	12425	79	13	3	282783	1837409	12520
102	2016-06-01 04:48:38	0	0	0	0	0	0	15.4	2.56	0.04	486372	0	17105	295770	486372	469267	12430	79	13	3	282874	1837411	12525
103	2016-06-01 04:58:38	0	0	0	0	0	0	15.4	2.56	0.04	486468	0	17106	295770	486468	469362	12433	79	13	3	282874	1837410	12528
104	2016-06-01 05:08:38	0	0	0	0	0	0	15.42	2.56	0.04	486710	0	17123	296208	486710	469587	12437	79	13	3	283275	1837411	12532
105	2016-06-01 05:18:38	0	0	0	0	0	0	15.42	2.56	0.04	486866	0	17135	296208	486866	469731	12443	79	13	3	283275	1837411	12538
106	2016-06-01 05:28:38	0	0	0	0	0	0	15.42	2.56	0.04	487195	0	17153	296208	487195	470042	12450	79	13	3	283275	1837412	12545
107	2016-06-01 05:38:38	0	0	0	0	0	0	15.42	2.56	0.04	487353	0	17167	296208	487353	470186	12454	79	13	3	283275	1837415	12549
108	2016-06-01 05:48:39	0	0	0	0	0	0	15.42	2.55	0.04	487716	0	17189	296322	487716	470527	12460	79	13	3	283379	1837419	12555
109	2016-06-01 05:58:38	0	0	0	0	0	0	15.43	2.55	0.04	488061	0	17202	296431	488061	470859	12465	79	13	3	283479	1837422	12560
110	2016-06-01 06:08:38	0	0	0	0	0	0	15.43	2.55	0.04	488271	0	17217	296431	488271	471054	12469	79	13	3	283479	1837426	12564
111	2016-06-01 06:18:38	0	0	0	0	0	0	15.46	2.55	0.04	488815	0	17244	297086	488815	471571	12480	80	13	3	284077	1837428	12576
112	2016-06-01 06:28:39	0	0	0	0	0	0	15.48	2.55	0.04	489085	0	17260	297485	489085	471825	12484	80	13	3	284443	1837434	12580
113	2016-06-01 06:38:39	0	0	0	0	0	0	15.49	2.55	0.04	489673	0	17299	297714	489673	472374	12495	80	13	3	284652	1837439	12591
114	2016-06-01 06:48:39	0	0	0	0	0	0	15.49	2.55	0.04	490335	0	17358	297714	490335	472977	12502	80	13	3	284652	1837442	12598
115	2016-06-01 06:58:39	0	0	0	0	0	0	15.51	2.55	0.04	490675	0	17379	298001	490675	473296	12514	80	13	3	284914	1837447	12610
116	2016-06-01 07:08:39	0	0	0	0	0	0	15.53	2.55	0.04	491357	0	17410	298403	491357	473947	12530	80	13	3	285281	1837455	12626
117	2016-06-01 07:18:39	0	0	0	0	0	0	15.53	2.55	0.04	492175	0	17465	298460	492175	474710	12539	80	13	3	285334	1837462	12635
118	2016-06-01 07:28:39	0	0	0	0	0	0	15.54	2.55	0.04	492607	0	17490	298691	492607	475117	12551	81	13	3	285492	1837471	12648
119	2016-06-01 07:38:40	0	0	0	0	0	0	15.57	2.55	0.04	493696	0	17568	299384	493696	476128	12568	82	13	3	286125	1837482	12666
120	2016-06-01 07:48:39	0	0	0	0	0	0	15.57	2.55	0.04	494132	0	17594	299384	494132	476538	12584	83	13	3	286125	1837489	12683
121	2016-06-01 07:58:39	0	0	0	0	0	0	15.58	2.55	0.04	495267	0	17646	299514	495267	477621	12613	83	13	3	286244	1837496	12712
122	2016-06-01 08:08:40	0	0	0	0	0	0	15.58	2.55	0.04	495745	0	17671	299572	495745	478074	12617	83	13	3	286297	1837507	12716
123	2016-06-01 08:18:39	0	0	0	0	0	0	15.58	2.54	0.04	496733	0	17712	299572	496733	479021	12637	83	13	3	286297	1837518	12736
124	2016-06-01 08:28:40	0	0	0	0	0	0	15.62	2.54	0.04	497246	0	17735	300269	497246	479511	12651	84	13	3	287040	1837525	12751
125	2016-06-01 08:38:40	0	0	0	0	0	0	15.66	2.54	0.04	498466	0	17802	301116	498466	480664	12682	84	13	3	287814	1837533	12782
126	2016-06-01 08:48:39	0	0	0	0	0	0	15.67	2.54	0.04	499078	0	17834	301233	499078	481244	12695	84	13	3	287921	1837543	12795
127	2016-06-01 08:58:41	0	0	0	0	0	0	15.71	2.54	0.04	500272	0	17918	301997	500272	482354	12721	85	13	3	288619	1837554	12822
128	2016-06-01 09:08:40	0	0	0	0	0	0	15.74	2.54	0.04	500767	0	17957	302646	500767	482810	12728	86	13	3	289212	1837562	12830
129	2016-06-01 09:18:39	0	0	0	0	0	0	15.85	2.54	0.04	501910	0	18030	304544	501910	483880	12761	86	13	3	291273	1837578	12863
130	2016-06-01 09:28:40	0	0	0	0	0	0	15.87	2.54	0.04	502509	0	18071	305024	502509	484438	12780	86	13	3	291712	1837591	12882
131	2016-06-01 09:38:41	0	0	0	0	0	0	15.97	2.54	0.04	503618	0	18139	306709	503618	485479	12801	87	13	3	293419	1837600	12904
132	2016-06-01 09:48:40	0	0	0	0	0	0	15.99	2.54	0.04	504171	0	18186	307074	504171	485985	12814	87	13	3	293753	1837609	12917
133	2016-06-01 09:58:42	0	0	0	0	0	0	16.03	2.54	0.04	505321	0	18225	308727	505321	487063	12826	87	13	3	294612	1837618	12929
134	2016-06-01 10:08:50	0	0	0	0	0	0	16.09	2.54	0.04	505757	0	18309	309213	505757	487448	12846	87	13	3	295710	1837629	12949
135	2016-06-01 10:18:42	0	0	0	0	0	0	16.1	2.54	0.04	506297	0	18353	309336	506297	487944	12854	87	13	3	295823	1837639	12957
136	2016-06-01 10:28:41	0	0	0	0	0	0	16.12	2.54	0.04	507263	0	18425	309831	507263	488838	12873	87	13	3	296275	1837647	12976
137	2016-06-01 10:38:42	0	0	0	0	0	0	16.13	2.54	0.04	508133	0	18500	310080	508133	489633	12883	87	13	3	296502	1837656	12986
138	2016-06-01 10:48:41	0	0	0	0	0	0	16.14	2.54	0.04	508625	0	18530	310204	508625	490095	12906	87	13	3	296616	1837668	13009
139	2016-06-01 10:58:44	0	0	0	0	0	0	16.16	2.54	0.04	509077	0	18558	310764	509077	490519	12926	87	13	3	297014	1837689	13029
140	2016-06-01 11:08:43	0	0	0	0	0	0	16.18	2.54	0.04	509901	0	18621	311076	509901	491280	12940	88	13	3	297300	1837697	13044
141	2016-06-01 11:18:49	0	0	0	0	0	0	16.21	2.54	0.04	510323	0	18671	311891	510323	491652	12955	89	14	3	297814	1837712	13061
142	2016-06-01 11:28:43	0	0	0	0	0	0	16.22	2.54	0.04	510797	0	18732	312237	510797	492065	12965	89	14	3	298130	1837724	13071
143	2016-06-01 11:38:46	0	0	0	0	0	0	16.25	2.54	0.04	511612	0	18832	312742	511612	492780	12986	89	14	3	298590	1837737	13092
144	2016-06-01 11:48:43	0	0	0	0	0	0	16.25	2.54	0.04	512273	0	18905	312931	512273	493368	13001	91	14	3	298705	1837750	13109
145	2016-06-01 11:58:46	0	0	0	0	0	0	16.27	2.54	0.04	512575	0	18935	313343	512575	493640	13006	91	14	3	299080	1837760	13114
146	2016-06-01 12:08:55	0	0	0	0	0	0	16.32	2.54	0.04	513246	0	18998	314233	513246	494248	13025	92	14	3	299891	1837773	13134
147	2016-06-01 12:18:44	0	0	0	0	0	0	16.34	2.54	0.04	513618	0	19039	314585	513618	494579	13038	92	14	3	300211	1837780	13147
148	2016-06-01 12:28:49	0	0	0	0	0	0	16.34	2.54	0.04	514221	0	19109	314585	514221	495112	13062	93	14	3	300211	1837789	13172
149	2016-06-01 12:38:47	0	0	0	0	0	0	16.34	2.54	0.04	514801	0	19164	314649	514801	495637	13069	93	14	3	300269	1837805	13179
150	2016-06-01 12:48:46	0	0	0	0	0	0	16.36	2.54	0.04	515039	0	19183	315097	515039	495856	13082	93	14	3	300677	1837820	13192
151	2016-06-01 12:58:45	0	0	0	0	0	0	16.38	2.54	0.04	515634	0	19245	315482	515634	496389	13096	93	14	3	301028	1837837	13206
152	2016-06-01 13:08:45	0	0	0	0	0	0	16.38	2.54	0.04	515897	0	19266	315482	515897	496631	13106	93	14	3	301028	1837855	13216
153	2016-06-01 13:18:45	0	0	0	0	0	0	16.38	2.54	0.04	516429	0	19322	315611	516429	497107	13120	94	14	3	301028	1837869	13231
154	2016-06-01 13:28:46	0	0	0	0	0	0	16.38	2.54	0.04	516735	0	19358	315611	516735	497377	13130	94	14	3	301028	1837883	13241
155	2016-06-01 13:38:45	0	0	0	0	0	0	16.38	2.54	0.04	517441	0	19428	315860	517441	498013	13154	94	14	3	301028	1837902	13265
156	2016-06-01 13:48:46	0	0	0	0	0	0	16.38	2.54	0.04	517744	0	19456	315860	517744	498288	13163	94	14	3	301028	1837928	13274
157	2016-06-01 13:58:47	0	0	0	0	0	0	16.38	2.54	0.04	518432	0	19529	315860	518432	498903	13178	94	14	3	301028	1837949	13289
158	2016-06-01 14:08:48	0	0	0	0	0	0	16.38	2.54	0.04	518760	0	19561	315860	518760	499199	13189	94	14	3	301028	1837975	13300
159	2016-06-01 14:18:51	0	0	0	0	0	0	16.38	2.54	0.04	519295	0	19603	315989	519295	499692	13204	94	14	3	301145	1837991	13315
160	2016-06-01 14:28:46	0	0	0	0	0	0	16.43	2.54	0.04	519810	0	19638	317122	519810	500172	13219	94	14	3	302056	1838007	13330
161	2016-06-01 14:38:48	0	0	0	0	0	0	16.43	2.54	0.04	520087	0	19664	317122	520087	500423	13226	94	14	3	302056	1838026	13337
162	2016-06-01 14:48:48	0	0	0	0	0	0	16.47	2.54	0.04	520729	0	19717	317773	520729	501012	13240	94	14	3	302646	1838046	13351
163	2016-06-01 14:58:48	0	0	0	0	0	0	16.47	2.54	0.04	521041	0	19740	317838	521041	501301	13242	94	14	3	302646	1838061	13353
164	2016-06-01 15:08:52	0	0	0	0	0	0	16.47	2.54	0.04	521553	0	19789	318001	521553	501764	13248	94	14	3	302794	1838070	13359
165	2016-06-01 15:18:48	0	0	0	0	0	0	16.47	2.54	0.04	521822	0	19808	318001	521822	502014	13257	94	14	3	302794	1838092	13368
166	2016-06-01 15:28:48	0	0	0	0	0	0	16.47	2.54	0.04	522275	0	19841	318001	522275	502434	13270	94	15	3	302794	1838110	13382
167	2016-06-01 15:38:48	0	0	0	0	0	0	16.49	2.54	0.04	522504	0	19860	318263	522504	502644	13277	94	15	3	303031	1838123	13389
168	2016-06-01 15:48:50	0	0	0	0	0	0	16.49	2.54	0.04	522963	0	19901	318263	522963	503062	13286	94	15	3	303031	1838155	13398
169	2016-06-01 15:58:50	0	0	0	0	0	0	16.49	2.54	0.04	523198	0	19926	318263	523198	503272	13291	94	15	3	303031	1838192	13403
170	2016-06-01 16:08:49	0	0	0	0	0	0	16.51	2.54	0.04	523617	0	19970	318836	523617	503647	13302	94	15	3	303551	1838225	13414
171	2016-06-01 16:18:49	0	0	0	0	0	0	16.51	2.54	0.04	523820	0	19992	318836	523820	503828	13319	94	15	3	303551	1838264	13431
172	2016-06-01 16:28:48	0	0	0	0	0	0	16.51	2.54	0.04	524212	0	20026	318836	524212	504186	13329	94	15	3	303551	1838298	13441
173	2016-06-01 16:38:49	0	0	0	0	0	0	16.52	2.54	0.04	524415	0	20042	318935	524415	504373	13333	94	15	3	303641	1838324	13445
174	2016-06-01 16:48:51	0	0	0	0	0	0	16.52	2.54	0.04	524854	0	20072	318935	524854	504782	13347	94	15	3	303641	1838359	13459
175	2016-06-01 16:58:53	0	0	0	0	0	0	16.52	2.54	0.04	525082	0	20090	318935	525082	504992	13350	94	15	3	303641	1838384	13462
176	2016-06-01 17:08:56	0	0	0	0	0	0	16.54	2.54	0.04	525472	0	20127	319066	525472	505345	13360	94	15	3	303998	1838412	13472
177	2016-06-01 17:18:46	0	0	0	0	0	0	16.54	2.54	0.04	525663	0	20147	319066	525663	505516	13367	94	15	3	303998	1838441	13479
178	2016-06-01 17:28:46	0	0	0	0	0	0	16.54	2.54	0.04	526012	0	20177	319066	526012	505835	13377	94	15	3	303998	1838458	13489
179	2016-06-01 17:38:46	0	0	0	0	0	0	16.55	2.54	0.04	526178	0	20190	319297	526178	505988	13385	95	15	3	304207	1838484	13498
180	2016-06-01 17:48:46	0	0	0	0	0	0	16.56	2.55	0.04	526600	0	20227	319560	526600	506373	13403	95	15	3	304447	1838519	13516
181	2016-06-01 17:58:47	0	0	0	0	0	0	16.56	2.55	0.04	526835	0	20245	319560	526835	506590	13410	95	15	3	304447	1838546	13523
182	2016-06-01 18:08:46	0	0	0	0	0	0	16.56	2.54	0.04	527219	0	20279	319560	527219	506940	13417	95	15	3	304447	1838572	13530
183	2016-06-01 18:18:48	0	0	0	0	0	0	16.56	2.54	0.04	527409	0	20296	319560	527409	507113	13419	95	15	3	304447	1838600	13532
184	2016-06-01 18:28:46	0	0	0	0	0	0	16.56	2.54	0.04	527756	0	20333	319560	527756	507423	13431	95	15	3	304447	1838631	13544
185	2016-06-01 18:38:47	0	0	0	0	0	0	16.56	2.55	0.04	528078	0	20359	319659	528078	507719	13444	95	15	3	304537	1838651	13557
186	2016-06-01 18:48:47	0	0	0	0	0	0	16.56	2.55	0.04	528266	0	20371	319659	528266	507895	13449	95	15	3	304537	1838676	13562
187	2016-06-01 18:58:50	0	0	0	0	0	0	16.57	2.55	0.04	528643	0	20409	319857	528643	508234	13460	95	15	3	304716	1838708	13573
188	2016-06-01 19:08:48	0	0	0	0	0	0	16.57	2.55	0.04	528790	0	20421	319857	528790	508369	13464	95	15	3	304716	1838731	13577
189	2016-06-01 19:18:49	0	0	0	0	0	0	16.57	2.55	0.04	529092	0	20451	319857	529092	508641	13474	95	15	3	304716	1838752	13587
190	2016-06-01 19:28:48	0	0	0	0	0	0	16.57	2.55	0.04	529373	0	20479	319857	529373	508894	13485	95	15	3	304716	1838775	13598
191	2016-06-01 19:38:51	0	0	0	0	0	0	16.57	2.55	0.04	529531	0	20494	319857	529531	509037	13488	95	15	3	304716	1838793	13601
192	2016-06-01 19:48:50	0	0	0	0	0	0	16.59	2.55	0.04	529871	0	20525	320252	529871	509346	13492	95	15	3	305075	1838817	13605
193	2016-06-01 19:58:50	0	0	0	0	0	0	16.6	2.55	0.04	530061	0	20543	320376	530061	509518	13495	95	15	3	305188	1838836	13608
194	2016-06-01 20:08:49	0	0	0	0	0	0	16.62	2.55	0.04	530430	0	20579	320841	530430	509851	13513	95	15	3	305609	1838861	13626
195	2016-06-01 20:28:50	0	0	0	0	0	0	16.63	2.55	0.04	530936	0	20625	321499	530936	510311	13524	95	15	3	305783	1838892	13637
196	2016-06-01 20:38:52	0	0	0	0	0	0	16.63	2.55	0.04	531115	0	20641	321499	531115	510474	13525	95	15	3	305783	1838922	13638
197	2016-06-01 20:48:50	0	0	0	0	0	0	16.63	2.55	0.04	531411	0	20671	321499	531411	510740	13534	95	15	3	305783	1838943	13647
198	2016-06-01 20:58:54	0	0	0	0	0	0	16.64	2.55	0.04	531579	0	20687	321792	531579	510892	13538	95	15	3	306047	1838963	13651
199	2016-06-01 21:08:51	0	0	0	0	0	0	16.64	2.55	0.04	531930	0	20718	321792	531930	511212	13551	95	15	3	306047	1838986	13664
200	2016-06-01 21:18:50	0	0	0	0	0	0	16.65	2.55	0.04	532107	0	20743	321992	532107	511364	13559	95	15	3	306229	1839018	13672
201	2016-06-01 21:28:49	0	0	0	0	0	0	16.69	2.55	0.04	532384	0	20770	322722	532384	511614	13571	95	15	3	306889	1839038	13684
202	2016-06-01 21:38:51	0	0	0	0	0	0	16.69	2.55	0.04	532684	0	20806	322857	532684	511878	13579	95	15	3	306889	1839059	13692
203	2016-06-01 21:48:52	0	0	0	0	0	0	16.69	2.55	0.04	532863	0	20837	322857	532863	512026	13581	96	15	3	306889	1839084	13695
204	2016-06-01 21:58:51	0	0	0	0	0	0	16.69	2.55	0.04	533130	0	20874	322857	533130	512256	13590	96	15	3	306889	1839112	13704
205	2016-06-01 22:08:50	0	0	0	0	0	0	16.71	2.55	0.04	533342	0	20903	323380	533342	512439	13591	96	15	3	307361	1839133	13705
206	2016-06-01 22:18:50	0	0	0	0	0	0	16.75	2.55	0.04	533666	0	20941	324056	533666	512725	13602	96	15	3	307973	1839160	13716
207	2016-06-01 22:28:50	0	0	0	0	0	0	16.76	2.55	0.04	533869	0	20966	324260	533869	512903	13610	96	15	3	308157	1839183	13724
208	2016-06-01 22:38:50	0	0	0	0	0	0	16.75	2.55	0.04	533975	0	20986	324260	533975	512989	13615	96	15	3	308157	1839217	13729
209	2016-06-01 22:48:50	0	0	0	0	0	0	16.75	2.55	0.04	534082	0	21006	324260	534082	513076	13620	96	15	3	308157	1839235	13734
210	2016-06-01 22:58:50	0	0	0	0	0	0	16.76	2.55	0.04	534225	0	21032	324396	534225	513193	13620	96	15	3	308279	1839261	13734
211	2016-06-01 23:08:51	0	0	0	0	0	0	16.76	2.55	0.04	534319	0	21049	324396	534319	513270	13622	96	15	3	308279	1839289	13736
212	2016-06-01 23:18:50	0	0	0	0	0	0	16.81	2.55	0.04	534476	0	21077	324804	534476	513399	13628	96	15	3	309141	1839307	13742
213	2016-06-01 23:28:50	0	0	0	0	0	0	16.81	2.55	0.04	534557	0	21088	324804	534557	513469	13631	96	15	3	309141	1839324	13745
214	2016-06-01 23:38:50	0	0	0	0	0	0	16.84	2.55	0.04	534679	0	21117	325419	534679	513562	13635	96	15	3	309698	1839350	13749
215	2016-06-01 23:48:49	0	0	0	0	0	0	16.84	2.55	0.04	534744	0	21129	325419	534744	513615	13637	96	15	3	309698	1839364	13751
216	2016-06-01 23:58:49	0	0	0	0	0	0	16.84	2.55	0.04	534842	0	21152	325419	534842	513690	13643	96	15	3	309698	1839377	13757
217	2016-06-02 00:08:48	0	0	0	0	0	0	16.84	2.55	0.04	534875	0	21159	325487	534875	513716	13644	96	15	3	309760	1839387	13758
218	2016-06-02 00:18:50	0	0	0	0	0	0	16.84	2.55	0.04	534945	0	21171	325487	534945	513774	13651	96	16	3	309760	1839392	13766
219	2016-06-02 00:28:49	0	0	0	0	0	0	16.84	2.55	0.04	535001	0	21184	325487	535001	513817	13653	96	16	3	309760	1839403	13768
220	2016-06-02 00:38:50	0	0	0	0	0	0	16.84	2.55	0.04	535036	0	21196	325487	535036	513840	13654	96	16	3	309760	1839412	13769
221	2016-06-02 00:48:51	0	0	0	0	0	0	16.84	2.55	0.04	535092	0	21211	325487	535092	513881	13656	96	16	3	309760	1839417	13771
222	2016-06-02 00:58:49	0	0	0	0	0	0	16.84	2.55	0.04	535112	0	21217	325487	535112	513895	13656	96	16	3	309760	1839421	13771
223	2016-06-02 01:08:49	0	0	0	0	0	0	16.84	2.55	0.04	535165	0	21225	325487	535165	513940	13658	96	16	3	309760	1839426	13773
224	2016-06-02 01:18:49	0	0	0	0	0	0	16.84	2.55	0.04	535177	0	21227	325487	535177	513950	13659	96	17	3	309760	1839430	13775
225	2016-06-02 01:28:49	0	0	0	0	0	0	16.84	2.55	0.04	535207	0	21236	325487	535207	513971	13659	96	17	3	309760	1839438	13775
226	2016-06-02 01:38:49	0	0	0	0	0	0	16.84	2.55	0.04	535235	0	21243	325487	535235	513992	13661	96	17	3	309760	1839444	13777
227	2016-06-02 01:48:49	0	0	0	0	0	0	16.84	2.55	0.04	535246	0	21249	325487	535246	513997	13661	96	17	3	309760	1839448	13777
228	2016-06-02 01:58:49	0	0	0	0	0	0	16.84	2.55	0.04	535269	0	21253	325487	535269	514016	13661	96	17	3	309760	1839449	13777
229	2016-06-02 02:08:50	0	0	0	0	0	0	16.85	2.55	0.04	535274	0	21254	325487	535274	514020	13661	96	17	3	309760	1838313	13777
230	2016-06-02 02:18:50	0	0	0	0	0	0	16.85	2.55	0.04	535294	0	21264	325487	535294	514030	13661	96	17	3	309760	1838316	13777
231	2016-06-02 02:28:49	0	0	0	0	0	0	16.85	2.55	0.04	535303	0	21268	325487	535303	514035	13661	96	17	3	309760	1838317	13777
232	2016-06-02 02:38:49	0	0	0	0	0	0	16.85	2.55	0.04	535321	0	21269	325487	535321	514052	13663	96	17	3	309760	1838317	13779
233	2016-06-02 02:48:49	0	0	0	0	0	0	16.85	2.55	0.04	535326	0	21270	325487	535326	514056	13663	96	17	3	309760	1838320	13779
234	2016-06-02 02:58:49	0	0	0	0	0	0	16.85	2.55	0.04	535336	0	21271	325487	535336	514065	13663	96	17	3	309760	1838323	13779
235	2016-06-02 03:08:49	0	0	0	0	0	0	16.85	2.55	0.04	535340	0	21273	325487	535340	514067	13663	96	17	3	309760	1838326	13779
236	2016-06-02 03:18:49	0	0	0	0	0	0	16.85	2.55	0.04	535346	0	21275	325487	535346	514071	13664	96	17	3	309760	1838328	13780
237	2016-06-02 03:28:49	0	0	0	0	0	0	16.85	2.55	0.04	535350	0	21276	325487	535350	514074	13664	96	17	3	309760	1838327	13780
238	2016-06-02 03:38:48	0	0	0	0	0	0	16.85	2.55	0.04	535359	0	21280	325487	535359	514079	13666	96	17	3	309760	1838329	13782
239	2016-06-02 03:48:50	0	0	0	0	0	0	16.85	2.55	0.04	535365	0	21281	325487	535365	514084	13666	96	17	3	309760	1838327	13782
240	2016-06-02 03:58:49	0	0	0	0	0	0	16.85	2.55	0.04	535366	0	21281	325487	535366	514085	13666	96	17	3	309760	1838326	13782
241	2016-06-02 04:08:49	0	0	0	0	0	0	16.85	2.55	0.04	535372	0	21283	325487	535372	514089	13666	96	17	3	309760	1838328	13782
242	2016-06-02 04:18:49	0	0	0	0	0	0	16.85	2.55	0.04	535375	0	21283	325487	535375	514092	13666	96	17	3	309760	1838331	13782
243	2016-06-02 04:28:49	0	0	0	0	0	0	16.85	2.55	0.04	535377	0	21284	325487	535377	514093	13666	96	17	3	309760	1838330	13782
244	2016-06-02 04:38:50	0	0	0	0	0	0	16.85	2.55	0.04	535381	0	21285	325487	535381	514096	13666	96	17	3	309760	1838333	13782
245	2016-06-02 04:48:49	0	0	0	0	0	0	16.85	2.55	0.04	535386	0	21286	325487	535386	514100	13666	96	17	3	309760	1838334	13782
246	2016-06-02 04:58:49	0	0	0	0	0	0	16.85	2.55	0.04	535389	0	21287	325487	535389	514102	13666	96	17	3	309760	1838337	13782
247	2016-06-02 05:08:50	0	0	0	0	0	0	16.85	2.55	0.04	535392	0	21288	325487	535392	514104	13666	96	17	3	309760	1838338	13782
248	2016-06-02 05:18:49	0	0	0	0	0	0	16.85	2.55	0.04	535401	0	21290	325487	535401	514111	13666	96	17	3	309760	1838344	13782
249	2016-06-02 05:28:50	0	0	0	0	0	0	16.85	2.55	0.04	535403	0	21290	325487	535403	514113	13666	96	17	3	309760	1838348	13782
250	2016-06-02 05:38:49	0	0	0	0	0	0	16.85	2.55	0.04	535408	0	21291	325487	535408	514117	13666	96	17	3	309760	1838350	13782
251	2016-06-02 05:48:50	0	0	0	0	0	0	16.85	2.55	0.04	535418	0	21294	325487	535418	514124	13666	96	17	3	309760	1838353	13782
252	2016-06-02 05:58:50	0	0	0	0	0	0	16.85	2.55	0.04	535427	0	21298	325487	535427	514129	13666	96	17	3	309760	1838357	13782
253	2016-06-02 06:08:57	0	0	0	0	0	0	16.85	2.55	0.04	535434	0	21300	325487	535434	514134	13666	96	17	3	309760	1838357	13782
254	2016-06-02 06:18:58	0	0	0	0	0	0	16.85	2.55	0.04	535442	0	21300	325487	535442	514142	13666	96	17	3	309760	1838357	13782
255	2016-06-02 06:28:52	0	0	0	0	0	0	16.85	2.55	0.04	535446	0	21300	325487	535446	514146	13666	96	17	3	309760	1838360	13782
256	2016-06-02 06:38:51	0	0	0	0	0	0	16.85	2.55	0.04	535455	0	21303	325487	535455	514152	13666	96	17	3	309760	1838366	13782
257	2016-06-02 06:48:54	0	0	0	0	0	0	16.85	2.55	0.04	535481	0	21315	325487	535481	514166	13666	96	17	3	309760	1838377	13782
258	2016-06-02 06:58:50	0	0	0	0	0	0	16.85	2.55	0.04	535489	0	21319	325487	535489	514170	13666	96	17	3	309760	1838379	13782
259	2016-06-02 07:08:51	0	0	0	0	0	0	16.85	2.55	0.04	535507	0	21330	325487	535507	514177	13667	96	17	3	309760	1838383	13783
260	2016-06-02 07:18:50	0	0	0	0	0	0	16.85	2.55	0.04	535521	0	21335	325487	535521	514186	13667	96	17	3	309760	1838386	13783
261	2016-06-02 07:28:51	0	0	0	0	0	0	16.85	2.55	0.04	535555	0	21351	325487	535555	514204	13669	96	17	3	309760	1838394	13785
262	2016-06-02 07:38:52	0	0	0	0	0	0	16.85	2.55	0.04	535564	0	21353	325487	535564	514211	13669	96	17	3	309760	1838404	13785
263	2016-06-02 07:48:52	0	0	0	0	0	0	16.85	2.55	0.04	535586	0	21362	325487	535586	514224	13669	96	17	3	309760	1838414	13785
264	2016-06-02 07:58:51	0	0	0	0	0	0	16.85	2.55	0.04	535614	0	21370	325487	535614	514244	13670	96	17	3	309760	1838423	13786
265	2016-06-02 08:09:01	0	0	0	0	0	0	16.85	2.55	0.04	535625	0	21373	325487	535625	514252	13670	96	17	3	309760	1838430	13786
266	2016-06-02 08:18:51	0	0	0	0	0	0	16.85	2.55	0.04	535652	0	21386	325487	535652	514266	13671	96	17	3	309760	1838441	13787
267	2016-06-02 08:28:51	0	0	0	0	0	0	16.85	2.55	0.04	535665	0	21391	325487	535665	514274	13671	96	17	3	309760	1838454	13787
268	2016-06-02 08:38:51	0	0	0	0	0	0	16.85	2.55	0.04	535684	0	21399	325487	535684	514285	13673	96	17	3	309760	1838464	13789
269	2016-06-02 08:48:52	0	0	0	0	0	0	16.85	2.55	0.04	535695	0	21403	325487	535695	514292	13673	96	17	3	309760	1838472	13789
270	2016-06-02 08:58:55	0	0	0	0	0	0	16.85	2.55	0.04	535715	0	21410	325487	535715	514305	13673	96	17	3	309760	1838482	13789
271	2016-06-02 09:08:53	0	0	0	0	0	0	16.85	2.55	0.04	535729	0	21413	325487	535729	514316	13673	96	17	3	309760	1838502	13789
272	2016-06-02 09:18:55	0	0	0	0	0	0	16.85	2.55	0.04	535747	0	21420	325487	535747	514327	13673	96	17	3	309760	1838510	13789
273	2016-06-02 09:28:59	0	0	0	0	0	0	16.85	2.55	0.04	535769	0	21426	325487	535769	514343	13673	96	17	3	309760	1838523	13789
274	2016-06-02 09:39:10	0	0	0	0	0	0	16.85	2.55	0.04	535779	0	21430	325487	535779	514349	13673	96	17	3	309760	1838540	13789
275	2016-06-02 09:48:51	0	0	0	0	0	0	16.85	2.55	0.04	535794	0	21432	325487	535794	514362	13673	96	17	3	309760	1838551	13789
276	2016-06-02 09:58:52	0	0	0	0	0	0	16.85	2.55	0.04	535814	0	21439	325487	535814	514375	13673	96	17	3	309760	1838559	13789
277	2016-06-02 10:07:33	0	0	0	0	0	0	16.85	2.55	0.04	535827	0	21443	325487	535827	514384	13673	96	17	3	309760	1838571	13789
278	2016-06-02 10:17:32	0	0	0	0	0	0	16.85	2.55	0.04	535837	0	21448	325487	535837	514389	13674	96	17	3	309760	1838582	13790
279	2016-06-02 10:27:33	0	0	0	0	0	0	16.85	2.55	0.04	535848	0	21449	325487	535848	514399	13674	96	17	3	309760	1838594	13790
280	2016-06-02 10:37:33	0	0	0	0	0	0	16.85	2.55	0.04	535862	0	21452	325487	535862	514410	13677	96	17	3	309760	1838603	13793
281	2016-06-02 10:47:33	0	0	0	0	0	0	16.85	2.55	0.04	535880	0	21456	325487	535880	514424	13678	96	17	3	309760	1838613	13794
282	2016-06-02 10:57:37	0	0	0	0	0	0	16.85	2.55	0.04	535892	0	21459	325487	535892	514433	13679	96	17	3	309760	1838618	13795
283	2016-06-02 11:07:43	0	0	0	0	0	0	16.85	2.55	0.04	535896	0	21461	325487	535896	514435	13679	96	17	3	309760	1838625	13795
284	2016-06-02 11:17:42	0	0	0	0	0	0	16.85	2.55	0.04	535916	0	21463	325487	535916	514446	13679	96	17	3	309760	1838631	13795
285	2016-06-02 11:27:38	0	0	0	0	0	0	16.85	2.55	0.04	535920	0	21473	325487	535920	514447	13679	96	17	3	309760	1838637	13795
286	2016-06-02 11:37:34	0	0	0	0	0	0	16.85	2.55	0.04	535932	0	21477	325487	535932	514455	13679	96	17	3	309760	1838649	13795
287	2016-06-02 11:47:35	0	0	0	0	0	0	16.85	2.55	0.04	535939	0	21480	325487	535939	514459	13680	96	17	3	309760	1838663	13796
288	2016-06-02 11:57:35	0	0	0	0	0	0	16.85	2.55	0.04	535951	0	21485	325487	535951	514466	13682	96	17	3	309760	1838675	13798
289	2016-06-02 12:07:34	0	0	0	0	0	0	16.85	2.55	0.04	535957	0	21486	325487	535957	514471	13682	96	17	3	309760	1838684	13798
290	2016-06-02 12:17:56	0	0	0	0	0	0	16.85	2.55	0.04	535968	0	21488	325487	535968	514480	13682	96	17	3	309760	1838693	13798
291	2016-06-02 12:27:40	0	0	0	0	0	0	16.85	2.55	0.04	535974	0	21493	325487	535974	514481	13682	96	17	3	309760	1838702	13798
292	2016-06-02 12:37:41	0	0	0	0	0	0	16.85	2.55	0.04	535984	0	21498	325487	535984	514486	13683	96	17	3	309760	1838708	13799
293	2016-06-02 12:47:36	0	0	0	0	0	0	16.85	2.55	0.04	535988	0	21500	325487	535988	514488	13683	96	17	3	309760	1838710	13799
294	2016-06-02 12:57:35	0	0	0	0	0	0	16.85	2.55	0.04	536001	0	21506	325487	536001	514495	13683	96	17	3	309760	1838721	13799
295	2016-06-02 13:07:36	0	0	0	0	0	0	16.85	2.55	0.04	536007	0	21508	325487	536007	514499	13683	96	17	3	309760	1838728	13799
296	2016-06-02 13:17:36	0	0	0	0	0	0	16.85	2.55	0.04	536018	0	21511	325487	536018	514507	13683	96	17	3	309760	1838728	13799
297	2016-06-02 13:28:05	0	0	0	0	0	0	16.85	2.55	0.04	536024	0	21513	325487	536024	514511	13683	96	17	3	309760	1838738	13799
298	2016-06-02 13:37:37	0	0	0	0	0	0	16.85	2.55	0.04	536031	0	21515	325487	536031	514516	13684	96	17	3	309760	1838745	13800
299	2016-06-02 13:47:36	0	0	0	0	0	0	16.85	2.55	0.04	536037	0	21517	325487	536037	514520	13684	96	17	3	309760	1838756	13800
300	2016-06-02 13:57:37	0	0	0	0	0	0	16.85	2.55	0.04	536050	0	21520	325761	536050	514530	13684	96	17	3	309760	1838768	13800
301	2016-06-02 14:07:40	0	0	0	0	0	0	16.85	2.55	0.04	536057	0	21524	325761	536057	514533	13684	96	17	3	309760	1838778	13800
302	2016-06-02 14:17:37	0	0	0	0	0	0	16.85	2.55	0.04	536067	0	21527	325761	536067	514540	13684	96	17	3	309760	1838783	13800
303	2016-06-02 14:27:36	0	0	0	0	0	0	16.85	2.55	0.04	536077	0	21531	325761	536077	514546	13684	96	17	3	309760	1838791	13800
304	2016-06-02 14:37:36	0	0	0	0	0	0	16.85	2.55	0.04	536092	0	21538	325761	536092	514554	13684	96	17	3	309760	1838801	13800
305	2016-06-02 14:47:36	0	0	0	0	0	0	16.85	2.55	0.04	536101	0	21540	325761	536101	514561	13684	96	17	3	309760	1838810	13800
306	2016-06-02 14:57:58	0	0	0	0	0	0	16.85	2.55	0.04	536114	0	21547	325761	536114	514567	13684	96	17	3	309760	1838817	13800
307	2016-06-02 15:07:38	0	0	0	0	0	0	16.85	2.55	0.04	536123	0	21552	325761	536123	514571	13684	96	17	3	309760	1838827	13800
308	2016-06-02 15:17:38	0	0	0	0	0	0	16.85	2.55	0.04	536133	0	21556	325761	536133	514577	13684	96	17	3	309760	1838838	13800
309	2016-06-02 15:27:37	0	0	0	0	0	0	16.85	2.55	0.04	536145	0	21562	325761	536145	514583	13684	96	17	3	309760	1838855	13800
310	2016-06-02 15:37:38	0	0	0	0	0	0	16.85	2.55	0.04	536151	0	21565	325761	536151	514586	13684	96	17	3	309760	1838873	13800
311	2016-06-02 15:47:41	0	0	0	0	0	0	16.85	2.55	0.04	536164	0	21571	325761	536164	514593	13685	96	17	3	309760	1838882	13801
312	2016-06-02 15:58:41	0	0	0	0	0	0	16.84	2.55	0.04	536170	0	21573	325761	536170	514597	13686	96	17	3	309760	1838898	13802
313	2016-06-02 16:07:40	0	0	0	0	0	0	16.84	2.55	0.04	536185	0	21577	325761	536185	514608	13686	96	17	3	309760	1838908	13802
314	2016-06-02 16:17:38	0	0	0	0	0	0	16.84	2.55	0.04	536189	0	21577	325761	536189	514612	13686	96	17	3	309760	1838919	13802
315	2016-06-02 16:27:38	0	0	0	0	0	0	16.84	2.55	0.04	536194	0	21577	325761	536194	514617	13686	96	17	3	309760	1838925	13802
316	2016-06-02 16:37:37	0	0	0	0	0	0	16.84	2.55	0.04	536210	0	21583	325761	536210	514627	13686	96	17	3	309760	1838934	13802
317	2016-06-02 16:47:53	0	0	0	0	0	0	16.84	2.55	0.04	536213	0	21583	325761	536213	514630	13686	96	17	3	309760	1838948	13802
318	2016-06-02 16:57:44	0	0	0	0	0	0	16.84	2.55	0.04	536224	0	21589	325761	536224	514635	13686	96	17	3	309760	1838964	13802
319	2016-06-02 17:07:41	0	0	0	0	0	0	16.84	2.55	0.04	536231	0	21592	325761	536231	514639	13686	96	17	3	309760	1838993	13802
320	2016-06-02 17:17:39	0	0	0	0	0	0	16.84	2.55	0.04	536233	0	21594	325761	536233	514639	13686	96	17	3	309760	1839013	13802
321	2016-06-02 17:27:39	0	0	0	0	0	0	16.84	2.55	0.04	536240	0	21596	325761	536240	514644	13686	96	17	3	309760	1839026	13802
322	2016-06-02 17:37:38	0	0	0	0	0	0	16.84	2.55	0.04	536244	0	21596	325761	536244	514648	13686	96	17	3	309760	1839036	13802
323	2016-06-02 17:47:39	0	0	0	0	0	0	16.84	2.55	0.04	536258	0	21600	325761	536258	514658	13686	96	17	3	309760	1839042	13802
324	2016-06-02 17:57:38	0	0	0	0	0	0	16.84	2.55	0.04	536262	0	21600	325761	536262	514662	13686	96	17	3	309760	1839050	13802
325	2016-06-02 18:07:38	0	0	0	0	0	0	16.84	2.55	0.04	536269	0	21603	325761	536269	514666	13687	96	17	3	309760	1839061	13803
326	2016-06-02 18:17:39	0	0	0	0	0	0	16.84	2.55	0.04	536273	0	21605	325761	536273	514668	13687	96	17	3	309760	1839068	13803
327	2016-06-02 18:27:38	0	0	0	0	0	0	16.84	2.55	0.04	536279	0	21608	325761	536279	514671	13687	96	17	3	309760	1839078	13803
328	2016-06-02 18:37:40	0	0	0	0	0	0	16.84	2.55	0.04	536280	0	21608	325761	536280	514672	13687	96	17	3	309760	1839086	13803
329	2016-06-02 18:47:39	0	0	0	0	0	0	16.84	2.55	0.04	536289	0	21609	325761	536289	514680	13687	96	17	3	309760	1839097	13803
330	2016-06-02 18:57:44	0	0	0	0	0	0	16.84	2.55	0.04	536296	0	21611	325761	536296	514685	13687	96	17	3	309760	1839111	13803
331	2016-06-02 19:07:53	0	0	0	0	0	0	16.84	2.55	0.04	536300	0	21611	325761	536300	514689	13687	96	17	3	309760	1839117	13803
332	2016-06-02 19:17:48	0	0	0	0	0	0	16.84	2.55	0.04	536303	0	21612	325761	536303	514691	13687	96	17	3	309760	1839121	13803
333	2016-06-02 19:27:39	0	0	0	0	0	0	16.84	2.55	0.04	536312	0	21614	325761	536312	514698	13687	96	17	3	309760	1839131	13803
334	2016-06-02 19:37:40	0	0	0	0	0	0	16.84	2.55	0.04	536317	0	21616	325761	536317	514701	13687	96	17	3	309760	1839141	13803
335	2016-06-02 19:47:43	0	0	0	0	0	0	16.84	2.55	0.04	536323	0	21618	325761	536323	514705	13687	96	17	3	309760	1839153	13803
336	2016-06-02 19:57:40	0	0	0	0	0	0	16.84	2.55	0.04	536328	0	21618	325761	536328	514710	13687	96	17	3	309760	1839160	13803
337	2016-06-02 20:07:40	0	0	0	0	0	0	16.84	2.55	0.04	536339	0	21623	325761	536339	514716	13687	96	17	3	309760	1839165	13803
338	2016-06-02 20:17:41	0	0	0	0	0	0	16.84	2.55	0.04	536346	0	21625	325761	536346	514721	13687	96	17	3	309760	1839173	13803
339	2016-06-02 20:27:39	0	0	0	0	0	0	16.84	2.55	0.04	536350	0	21626	325761	536350	514724	13687	96	17	3	309760	1839189	13803
340	2016-06-02 20:37:41	0	0	0	0	0	0	16.84	2.55	0.04	536355	0	21628	325761	536355	514727	13687	96	17	3	309760	1839197	13803
341	2016-06-02 20:47:41	0	0	0	0	0	0	16.84	2.55	0.04	536358	0	21630	325761	536358	514728	13687	96	17	3	309760	1839204	13803
342	2016-06-02 20:57:42	0	0	0	0	0	0	16.84	2.55	0.04	536365	0	21634	325761	536365	514731	13687	96	17	3	309760	1839211	13803
343	2016-06-02 21:07:40	0	0	0	0	0	0	16.84	2.55	0.04	536371	0	21637	325761	536371	514734	13687	96	17	3	309760	1839216	13803
344	2016-06-02 21:17:40	0	0	0	0	0	0	16.84	2.55	0.04	536375	0	21638	325761	536375	514737	13687	96	17	3	309760	1839223	13803
345	2016-06-02 21:27:41	0	0	0	0	0	0	16.84	2.55	0.04	536382	0	21640	325761	536382	514742	13687	96	17	3	309760	1839242	13803
346	2016-06-02 21:37:40	0	0	0	0	0	0	16.84	2.55	0.04	536383	0	21640	325761	536383	514743	13687	96	17	3	309760	1839252	13803
347	2016-06-02 21:47:40	0	0	0	0	0	0	16.84	2.55	0.04	536391	0	21642	325761	536391	514749	13687	96	17	3	309760	1839265	13803
348	2016-06-02 21:57:42	0	0	0	0	0	0	16.84	2.55	0.04	536395	0	21642	325761	536395	514753	13687	96	17	3	309760	1839270	13803
349	2016-06-02 22:07:41	0	0	0	0	0	0	16.84	2.55	0.04	536406	0	21643	325761	536406	514763	13687	96	17	3	309760	1839281	13803
350	2016-06-02 22:17:40	0	0	0	0	0	0	16.84	2.55	0.04	536413	0	21646	325761	536413	514767	13688	96	17	3	309760	1839295	13804
351	2016-06-02 22:27:40	0	0	0	0	0	0	16.84	2.55	0.04	536419	0	21646	325761	536419	514772	13688	96	17	3	309760	1839308	13804
352	2016-06-02 22:37:41	0	0	0	0	0	0	16.84	2.55	0.04	536424	0	21648	325761	536424	514776	13688	96	17	3	309760	1839320	13804
353	2016-06-02 22:47:40	0	0	0	0	0	0	16.84	2.55	0.04	536430	0	21649	325761	536430	514781	13688	96	17	3	309760	1839330	13804
354	2016-06-02 22:57:40	0	0	0	0	0	0	16.84	2.55	0.04	536433	0	21650	325761	536433	514783	13688	96	17	3	309760	1839342	13804
355	2016-06-02 23:07:41	0	0	0	0	0	0	16.84	2.55	0.04	536438	0	21653	325761	536438	514785	13688	96	17	3	309760	1839352	13804
356	2016-06-02 23:17:40	0	0	0	0	0	0	16.84	2.55	0.04	536441	0	21654	325761	536441	514787	13688	96	17	3	309760	1839359	13804
357	2016-06-02 23:27:41	0	0	0	0	0	0	16.84	2.55	0.04	536447	0	21655	325761	536447	514792	13688	96	17	3	309760	1839361	13804
358	2016-06-02 23:37:41	0	0	0	0	0	0	16.84	2.55	0.04	536451	0	21657	325761	536451	514794	13688	96	17	3	309760	1839376	13804
359	2016-06-02 23:47:41	0	0	0	0	0	0	16.84	2.55	0.04	536458	0	21659	325761	536458	514799	13688	96	17	3	309760	1839380	13804
360	2016-06-02 23:57:40	0	0	0	0	0	0	16.84	2.55	0.04	536459	0	21660	325761	536459	514799	13688	96	17	3	309760	1839388	13804
361	2016-06-03 00:07:42	0	0	0	0	0	0	16.84	2.55	0.04	536463	0	21661	325761	536463	514802	13688	96	17	3	309760	1839395	13804
362	2016-06-03 00:17:43	0	0	0	0	0	0	16.84	2.55	0.04	536466	0	21661	325761	536466	514805	13688	96	17	3	309760	1839401	13804
363	2016-06-03 00:27:40	0	0	0	0	0	0	16.84	2.55	0.04	536471	0	21662	325761	536471	514809	13690	96	17	3	309760	1839411	13806
364	2016-06-03 00:37:41	0	0	0	0	0	0	16.84	2.55	0.04	536471	0	21662	325761	536471	514809	13690	96	17	3	309760	1839417	13806
365	2016-06-03 00:47:41	0	0	0	0	0	0	16.84	2.55	0.04	536475	0	21663	325761	536475	514812	13690	96	17	3	309760	1839420	13806
366	2016-06-03 00:57:39	0	0	0	0	0	0	16.84	2.55	0.04	536476	0	21663	325761	536476	514813	13690	96	17	3	309760	1839427	13806
367	2016-06-03 01:07:40	0	0	0	0	0	0	16.84	2.55	0.04	536476	0	21663	325761	536476	514813	13690	96	17	3	309760	1839430	13806
368	2016-06-03 01:17:40	0	0	0	0	0	0	16.84	2.55	0.04	536479	0	21663	325761	536479	514816	13690	96	17	3	309760	1839431	13806
369	2016-06-03 01:27:40	0	0	0	0	0	0	16.84	2.55	0.04	536482	0	21663	325761	536482	514819	13690	96	17	3	309760	1839439	13806
370	2016-06-03 01:37:37	0	0	0	0	0	0	16.84	2.55	0.04	536484	0	21663	325761	536484	514821	13690	96	17	3	309760	1839442	13806
371	2016-06-03 01:47:37	0	0	0	0	0	0	16.84	2.55	0.04	536486	0	21664	325761	536486	514822	13690	96	17	3	309760	1839445	13806
372	2016-06-03 01:57:38	0	0	0	0	0	0	16.84	2.55	0.04	536487	0	21665	325761	536487	514822	13690	96	17	3	309760	1839446	13806
373	2016-06-03 02:07:40	0	0	0	0	0	0	16.83	2.55	0.04	536487	0	21665	325761	536487	514822	13690	96	17	3	309760	1840047	13806
374	2016-06-03 02:17:38	0	0	0	0	0	0	16.83	2.55	0.04	536487	0	21665	325761	536487	514822	13690	96	17	3	309760	1840051	13806
375	2016-06-03 02:27:38	0	0	0	0	0	0	16.83	2.55	0.04	536489	0	21665	325761	536489	514824	13690	96	17	3	309760	1840053	13806
376	2016-06-03 02:37:41	0	0	0	0	0	0	16.83	2.55	0.04	536490	0	21666	325761	536490	514824	13690	96	17	3	309760	1840056	13806
377	2016-06-03 02:47:40	0	0	0	0	0	0	16.83	2.55	0.04	536490	0	21666	325761	536490	514824	13690	96	17	3	309760	1840055	13806
378	2016-06-03 02:57:40	0	0	0	0	0	0	16.83	2.55	0.04	536491	0	21666	325761	536491	514825	13690	96	17	3	309760	1840055	13806
379	2016-06-03 03:07:41	0	0	0	0	0	0	16.83	2.55	0.04	536494	0	21666	325761	536494	514828	13690	96	17	3	309760	1840057	13806
380	2016-06-03 03:17:40	0	0	0	0	0	0	16.83	2.55	0.04	536496	0	21668	325761	536496	514828	13690	96	17	3	309760	1840057	13806
381	2016-06-03 03:27:41	0	0	0	0	0	0	16.83	2.55	0.04	536497	0	21669	325761	536497	514828	13690	96	17	3	309760	1840057	13806
382	2016-06-03 03:37:42	0	0	0	0	0	0	16.83	2.55	0.04	536498	0	21669	325761	536498	514829	13690	96	17	3	309760	1840057	13806
383	2016-06-03 03:47:41	0	0	0	0	0	0	16.83	2.55	0.04	536500	0	21671	325761	536500	514829	13690	96	17	3	309760	1840056	13806
384	2016-06-03 03:57:41	0	0	0	0	0	0	16.83	2.55	0.04	536500	0	21671	325761	536500	514829	13690	96	17	3	309760	1840056	13806
385	2016-06-03 04:17:41	0	0	0	0	0	0	16.83	2.55	0.04	536500	0	21671	325761	536500	514829	13690	96	17	3	309760	1840058	13806
386	2016-06-03 04:27:41	0	0	0	0	0	0	16.83	2.55	0.04	536500	0	21671	325761	536500	514829	13690	96	17	3	309760	1840057	13806
387	2016-06-03 04:37:40	0	0	0	0	0	0	16.83	2.55	0.04	536500	0	21671	325761	536500	514829	13690	96	17	3	309760	1840058	13806
388	2016-06-03 04:47:41	0	0	0	0	0	0	16.83	2.55	0.04	536500	0	21671	325761	536500	514829	13690	96	17	3	309760	1840058	13806
