1	2018-06-12 18:45:09		0	0	0	0	0	0	0	0	0	0	0	0	0	0	0	0	1	5	0	0	0	0	0	0	0	3851050	0
2	2018-06-12 18:55:09		0	0	0	0	0	0	0.55	13.27	0	22025	0	90	17212	22025	22025	2922	17	90	1	113	2	0	1	15	21160	3851088	3044
3	2018-06-12 19:28:37		0	0	0	0	0	0	2.2	15.03	0.01	89532	0	1079	64968	89532	89532	13459	43	258	18	520	11	1	1	39	84836	3851147	13799
4	2018-06-12 23:57:04		0	0	0	0	0	0	7.61	12.43	0.02	314963	0	6963	222852	314963	314963	39159	99	665	32	1169	20	2	1	95	293058	3851750	40018
5	2018-06-13 00:07:00		0	0	0	0	0	0	7.71	12.42	0.02	319052	0	7077	226251	319052	319052	39642	101	671	33	1179	20	2	1	96	296899	3851760	40510
6	2018-06-13 00:17:00		0	0	0	0	0	0	7.8	12.42	0.02	322729	0	7145	229539	322729	322729	40090	102	677	33	1188	20	2	1	97	300338	3851777	40966
7	2018-06-13 00:27:01		0	0	0	0	0	0	7.89	12.42	0.02	326380	0	7208	231104	326380	326380	40528	102	682	34	1196	20	2	1	99	303767	3851784	41411
8	2018-06-13 00:37:02		0	0	0	0	0	0	7.97	12.4	0.02	329793	0	7278	234229	329793	329793	40907	102	684	34	1206	20	2	1	99	306963	3851797	41792
9	2018-06-13 00:47:02		0	0	0	0	0	0	8.04	12.4	0.02	332916	0	7353	237421	332916	332916	41266	102	686	34	1212	20	2	1	100	309852	3851806	42154
10	2018-06-13 00:57:04		0	0	0	0	0	0	8.11	12.39	0.02	335475	0	7413	239367	335475	335475	41565	103	691	34	1212	20	2	1	100	312251	3851812	42459
11	2018-06-13 01:07:03		0	0	0	0	0	0	8.16	12.38	0.02	337734	0	7443	240742	337734	337734	41813	103	696	34	1216	20	2	1	100	314359	3851820	42712
12	2018-06-13 01:17:03		0	0	0	0	0	0	8.21	12.38	0.02	339618	0	7480	242566	339618	339618	42045	103	699	34	1218	21	2	1	100	316116	3851824	42947
13	2018-06-13 01:27:04		0	0	0	0	0	0	8.25	12.37	0.02	341301	0	7520	243760	341301	341301	42222	103	701	34	1220	21	2	1	100	317677	3851829	43126
14	2018-06-13 01:37:09		0	0	0	0	0	0	8.28	12.37	0.02	342767	0	7553	245431	342767	342767	42409	103	705	34	1222	21	2	1	100	319020	3851837	43317
15	2018-06-13 01:47:04		0	0	0	0	0	0	8.31	12.37	0.02	344089	0	7572	246978	344089	344089	42559	105	706	34	1226	21	2	1	101	320253	3851848	43471
16	2018-06-13 01:57:11		0	0	0	0	0	0	8.34	12.37	0.02	345160	0	7600	247333	345160	345160	42698	105	706	35	1229	21	2	1	101	321235	3851851	43610
17	2018-06-13 02:07:06		0	0	0	0	0	0	8.36	12.37	0.02	346184	0	7632	247610	346184	346184	42812	105	710	35	1232	21	2	1	102	322188	3851858	43729
18	2018-06-13 02:17:07		0	0	0	0	0	0	8.39	12.36	0.02	347075	0	7645	248001	347075	347075	42913	105	711	35	1236	21	2	1	102	323019	3851856	43831
19	2018-06-13 02:27:19		0	0	0	0	0	0	8.41	12.36	0.02	348060	0	7657	248300	348060	348060	43025	105	712	35	1239	21	2	1	102	323940	3851860	43944
20	2018-06-13 02:37:09		0	0	0	0	0	0	8.43	12.36	0.02	348938	0	7681	248559	348938	348938	43129	105	713	35	1240	21	2	1	102	324756	3851865	44049
21	2018-06-13 02:47:09		0	0	0	0	0	0	8.45	12.35	0.02	349772	0	7696	249360	349772	349772	43213	105	713	35	1242	21	2	1	102	325539	3851865	44133
22	2018-06-13 02:57:10		0	0	0	0	0	0	8.47	12.35	0.02	350442	0	7715	249679	350442	350442	43277	105	713	35	1243	21	2	1	102	326167	3851867	44197
23	2018-06-13 03:07:09		0	0	0	0	0	0	8.49	12.35	0.02	351185	0	7726	250745	351185	351185	43363	105	713	35	1243	21	2	1	102	326865	3851869	44283
24	2018-06-13 03:17:10		0	0	0	0	0	0	8.5	12.35	0.02	351871	0	7737	251234	351871	351871	43453	104	714	35	1244	21	2	1	103	327510	3851870	44374
25	2018-06-13 03:27:09		0	0	0	0	0	0	8.52	12.34	0.02	352497	0	7753	251806	352497	352497	43515	104	715	35	1245	21	2	1	103	328087	3851875	44437
26	2018-06-13 03:37:10		0	0	0	0	0	0	8.53	12.34	0.02	353052	0	7759	251970	353052	353052	43581	104	715	35	1246	21	2	1	103	328589	3851873	44503
27	2018-06-13 03:47:11		0	0	0	0	0	0	8.54	12.34	0.02	353522	0	7771	252000	353522	353522	43629	105	716	35	1247	21	2	1	103	329029	3851874	44553
28	2018-06-13 03:57:11		0	0	0	0	0	0	8.55	12.34	0.02	354041	0	7780	252288	354041	354041	43685	105	716	35	1249	21	2	1	103	329517	3851875	44609
29	2018-06-13 04:07:13		0	0	0	0	0	0	8.57	12.33	0.02	354555	0	7790	252350	354555	354555	43731	105	716	35	1250	21	2	1	103	329999	3851876	44655
30	2018-06-13 04:17:14		0	0	0	0	0	0	8.58	12.33	0.02	355028	0	7797	252350	355028	355028	43782	106	717	35	1251	21	2	1	103	330447	3851878	44708
31	2018-06-13 04:27:15		0	0	0	0	0	0	8.59	12.33	0.02	355501	0	7805	252411	355501	355501	43830	106	718	35	1252	21	2	1	103	330886	3851877	44757
32	2018-06-13 04:37:16		0	0	0	0	0	0	8.6	12.32	0.02	355913	0	7813	252576	355913	355913	43865	106	719	35	1252	21	2	1	103	331256	3851879	44793
33	2018-06-13 04:47:15		0	0	0	0	0	0	8.61	12.32	0.02	356420	0	7819	252700	356420	356420	43928	106	720	35	1252	21	2	1	103	331727	3851879	44857
34	2018-06-13 04:57:15		0	0	0	0	0	0	8.63	12.32	0.02	356973	0	7831	253278	356973	356973	43993	106	721	35	1252	21	2	1	103	332247	3851881	44923
35	2018-06-13 05:07:17		0	0	0	0	0	0	8.64	12.32	0.02	357587	0	7854	253642	357587	357587	44049	106	723	35	1252	21	2	1	103	332815	3851882	44981
36	2018-06-13 05:17:17		0	0	0	0	0	0	8.66	12.31	0.02	358211	0	7875	254141	358211	358211	44109	106	724	35	1252	21	2	1	103	333383	3851880	45042
37	2018-06-13 05:27:17		0	0	0	0	0	0	8.67	12.31	0.02	358954	0	7899	254622	358954	358954	44187	106	724	35	1252	21	2	1	103	334059	3851878	45120
38	2018-06-13 05:37:17		0	0	0	0	0	0	8.69	12.31	0.02	359724	0	7925	255315	359724	359724	44276	106	724	35	1254	21	2	1	103	334772	3851873	45209
39	2018-06-13 05:47:20		0	0	0	0	0	0	8.71	12.3	0.02	360581	0	7949	255378	360581	360581	44361	106	726	35	1254	21	2	1	103	335562	3851873	45296
40	2018-06-13 05:57:22		0	0	0	0	0	0	8.73	12.3	0.02	361538	0	7967	256011	361538	361538	44462	106	726	36	1254	21	2	1	104	336455	3851871	45398
41	2018-06-13 06:07:21		0	0	0	0	0	0	8.76	12.29	0.02	362526	0	7987	257149	362526	362526	44551	107	728	36	1259	21	2	1	104	337374	3851871	45490
42	2018-06-13 06:17:22		0	0	0	0	0	0	8.79	12.28	0.02	363713	0	8012	258655	363713	363713	44662	109	730	36	1261	21	2	1	104	338497	3851873	45605
43	2018-06-13 06:27:22		0	0	0	0	0	0	8.82	12.27	0.02	365182	0	8051	259675	365182	365182	44816	110	732	36	1263	21	2	1	105	339874	3851877	45763
44	2018-06-13 06:37:23		0	0	0	0	0	0	8.86	12.27	0.02	366724	0	8081	260787	366724	366724	44979	110	733	36	1265	21	2	1	105	341326	3851883	45927
45	2018-06-13 06:47:22		0	0	0	0	0	0	8.9	12.26	0.02	368331	0	8132	261845	368331	368331	45168	111	734	36	1267	21	2	1	105	342808	3851887	46118
46	2018-06-13 06:57:23		0	0	0	0	0	0	8.94	12.26	0.02	369913	0	8171	262778	369913	369913	45336	111	735	36	1273	21	2	1	105	344297	3851891	46287
47	2018-06-13 07:07:24		0	0	0	0	0	0	8.98	12.25	0.02	371518	0	8202	264422	371518	371518	45498	111	738	37	1276	21	2	1	105	345799	3851896	46452
48	2018-06-13 07:17:30		0	0	0	0	0	0	9.02	12.24	0.02	373132	0	8242	265647	373132	373132	45665	111	740	38	1278	21	2	1	105	347298	3851899	46621
49	2018-06-13 07:27:26		0	0	0	0	0	0	9.06	12.23	0.02	374980	0	8304	267304	374980	374980	45847	111	741	38	1283	21	2	1	105	349003	3851904	46804
50	2018-06-13 07:37:25		0	0	0	0	0	0	9.11	12.21	0.02	376944	0	8356	269652	376944	376944	46029	111	744	38	1288	21	2	1	105	350833	3851910	46989
51	2018-06-13 07:47:26		0	0	0	0	0	0	9.16	12.2	0.02	378953	0	8417	270606	378953	378953	46229	111	744	38	1292	21	2	1	105	352672	3851916	47189
52	2018-06-13 07:57:27		0	0	0	0	0	0	9.21	12.18	0.02	381113	0	8484	272548	381113	381113	46436	111	746	38	1293	21	2	1	105	354661	3851926	47398
53	2018-06-13 08:07:29		0	0	0	0	0	0	9.26	12.17	0.02	383356	0	8521	274748	383356	383356	46640	112	749	38	1295	21	2	1	105	356786	3851929	47606
54	2018-06-13 08:17:31		0	0	0	0	0	0	9.32	12.15	0.02	385646	0	8574	277348	385646	385646	46858	112	750	38	1300	21	2	1	105	358920	3851937	47825
55	2018-06-13 08:27:37		0	0	0	0	0	0	9.38	12.14	0.02	388287	0	8655	278419	388287	388287	47141	112	754	38	1305	21	2	1	105	361386	3851947	48112
56	2018-06-13 08:37:30		0	0	0	0	0	0	9.45	12.13	0.02	390946	0	8706	281101	390946	390946	47427	114	754	38	1314	21	2	1	105	363861	3851950	48400
57	2018-06-13 08:47:32		0	0	0	0	0	0	9.52	12.12	0.02	393800	0	8766	282071	393800	393800	47727	114	760	38	1321	21	2	1	106	366536	3851964	48707
58	2018-06-13 08:57:33		0	0	0	0	0	0	9.59	12.11	0.02	396708	0	8835	284179	396708	396708	48023	114	763	38	1333	22	2	1	107	369220	3851965	49007
59	2018-06-13 09:07:40		0	0	0	0	0	0	9.65	12.1	0.02	399424	0	8896	285746	399424	399424	48317	114	769	38	1337	22	2	1	108	371749	3851980	49308
60	2018-06-13 09:17:47		0	0	0	0	0	0	9.71	12.08	0.02	401983	0	8975	287317	401983	401983	48567	114	772	38	1349	22	2	1	108	374141	3851982	49561
61	2018-06-13 09:27:36		0	0	0	0	0	0	9.78	12.07	0.02	404608	0	9047	288240	404608	404608	48819	115	774	38	1356	23	2	1	111	376611	3851990	49819
62	2018-06-13 09:37:39		0	0	0	0	0	0	9.84	12.05	0.02	407092	0	9103	289988	407092	407092	49054	115	776	38	1357	23	2	1	111	378942	3852014	50056
63	2018-06-13 09:47:41		0	0	0	0	0	0	9.9	12.03	0.02	409542	0	9166	291551	409542	409542	49282	115	780	38	1361	23	2	1	113	381206	3852047	50290
64	2018-06-13 09:57:38		0	0	0	0	0	0	9.95	12.02	0.02	411959	0	9224	293220	411959	411959	49512	116	781	38	1371	24	2	1	113	383447	3852080	50522
65	2018-06-13 10:07:40		0	0	0	0	0	0	10.01	12	0.02	414296	0	9273	295134	414296	414296	49729	116	788	38	1373	24	2	1	113	385641	3852137	50746
66	2018-06-13 10:17:39		0	0	0	0	0	0	10.07	11.99	0.02	416560	0	9333	295662	416560	416560	49949	116	792	38	1382	24	2	1	113	387736	3852207	50970
67	2018-06-13 10:27:37	23842860650530399	0	0	0	0	0	0	10.1	11.98	0.02	418216	0	9384	296342	418216	418216	50108	116	794	0	0	0	0	0	113	389249	3852280	51131
68	2018-06-13 10:37:36	23842860650530399	0	0	0	0	0	0	10.14	11.98	0.02	419616	0	9439	297380	419616	419616	50257	116	796	0	0	0	0	0	113	390521	3852359	51282
69	2018-06-13 10:47:37	23842860650530399	0	0	0	0	0	0	10.17	11.97	0.02	421030	0	9483	298154	421030	421030	50394	116	797	0	0	0	0	0	114	391803	3852460	51421
70	2018-06-13 10:57:39	23842860650530399	0	0	0	0	0	0	10.2	11.96	0.02	422450	0	9529	298154	422450	422450	50525	117	799	0	0	0	0	0	114	393093	3852555	51555
71	2018-06-13 11:07:45	23842860650530399	0	0	0	0	0	0	10.23	11.95	0.02	423799	0	9570	299652	423799	423799	50643	117	800	0	0	0	0	0	114	394313	3852646	51674
72	2018-06-13 11:17:40	23842860650530399	0	0	0	0	0	0	10.27	0	0.02	425100	0	9612	300319	0	425100	50753	117	802	0	0	0	0	0	114	395495	3852723	51786
73	2018-06-13 11:27:48	23842860650530399	0	0	0	0	0	0	10.29	0	0.02	426353	0	9654	301217	0	426353	50888	117	805	0	0	0	0	0	114	396624	3852800	51924
74	2018-06-13 11:37:41	23842860650530399	1.14	38	0.03	4.09	30	30	10.32	11.95	0.02	427897	929	9686	304288	0	427545	51067	117	808	0	0	0	0	0	114	397749	3852896	52106
75	2018-06-13 11:47:41	23842860650530399	1.52	166	0.009157	13.29	9.16	9.157	10.35	11.94	0.02	429971	1249	9743	306574	0	428776	51339	117	808	0	0	0	0	0	116	398965	3852972	52380
76	2018-06-13 11:57:42	23842860650530399	1.65	222	0.007432	16.08	7.43	7.432	10.38	11.93	0.02	431413	1381	9786	307732	0	430036	51504	117	811	0	0	0	0	0	116	400133	3853057	52548
77	2018-06-13 12:07:46	23842860650530399	1.78	241	0.007386	16.27	7.39	7.386	10.41	11.92	0.02	432550	1481	9825	308345	0	431084	51645	117	812	0	0	0	0	0	116	401123	3853140	52690
78	2018-06-13 12:17:46	23842860650530399	1.92	257	0.007471	15.79	7.47	7.471	10.43	11.92	0.02	433546	1628	9850	308591	0	431999	51749	117	813	0	0	0	0	0	117	401984	3853226	52796
79	2018-06-13 12:27:44	23842860650530399	3.07	314	0.009777	11.17	9.78	9.777	10.46	11.94	0.02	435336	2812	9895	309207	0	433072	51966	119	814	0	0	0	0	0	117	403129	3853312	53016
80	2018-06-13 12:37:46	23842860650530399	5.7	666	0.008559	12.49	8.56	8.559	10.5	11.95	0.02	438379	5332	9947	310377	0	434138	52412	119	816	0	0	0	0	0	117	404464	3853399	53464
81	2018-06-13 12:47:57	23842860650530399	10.78	1086	0.009926	11.11	9.93	9.926	10.53	12.01	0.02	442784	9772	9995	315563	0	435190	53094	120	817	0	0	0	0	0	119	405920	3853492	54150
82	2018-06-13 12:57:48	23842860650530399	17.3	1955	0.008849	12.81	8.85	8.849	10.57	12	0.02	448960	15260	10034	320147	0	436158	54010	121	820	0	0	0	0	0	121	407490	3853578	55072
83	2018-06-13 13:07:47	23842860650530399	21.26	2571	0.008269	13.64	8.27	8.269	10.61	12.02	0.02	454713	18850	10066	321418	0	437032	54964	122	821	0	0	0	0	0	123	408905	3853673	56030
84	2018-06-13 13:10:26	23842860650530399	23.39	2571	0.009098	12.39	9.1	9.098	10.61	12.07	0.02	454713	20745	10066	324560	0	437032	54964	122	821	0	0	0	0	0	123	408905	3853690	56030
85	2018-06-13 13:20:28	23842860650530399	29.28	3709	0.007894	14.24	7.89	7.894	10.66	12.02	0.02	463170	26049	10141	328215	0	438333	56271	122	825	0	0	0	0	0	125	411003	3853783	57343
86	2018-06-13 13:30:30	23842860650530399	37.26	4507	0.008267	13.62	8.27	8.267	10.71	12.11	0.02	470677	33091	10192	336093	0	439223	57501	124	829	0	0	0	0	0	126	412671	3853870	58580
87	2018-06-13 13:40:29	23842860650530399	44.65	5390	0.008284	13.63	8.28	8.284	10.75	12.17	0.02	479400	39559	10254	342936	0	440083	58904	127	837	0	0	0	0	0	127	414439	3853968	59995
88	2018-06-13 13:50:29	23842860650530399	53.87	6914	0.007791	14.45	7.79	7.791	10.8	12.13	0.02	488276	47857	10327	350947	0	440963	60345	129	842	0	0	0	0	0	132	416260	3854060	61448
89	2018-06-13 14:00:30	23842860650530399	63.17	8060	0.007837	14.34	7.84	7.837	10.85	12.18	0.02	497469	56205	10405	360748	0	441915	61804	133	850	0	0	0	0	0	135	418174	3854143	62922
90	2018-06-13 14:10:30	23842860650530399	72.04	9691	0.007434	15.1	7.43	7.434	10.9	12.11	0.02	506181	64194	10472	371554	0	442759	63218	136	855	0	0	0	0	0	139	420036	3854240	64348
91	2018-06-13 14:20:32	23842860650530399	81.3	10757	0.007558	14.84	7.56	7.558	10.95	12.18	0.02	515130	72470	10567	378052	0	443707	64668	137	860	0	0	0	0	0	140	421908	3854324	65805
92	2018-06-13 14:30:31	23842860650530399	90.87	11801	0.0077	14.59	7.7	7.7	10.97	12.22	0.02	519576	80890	10614	383732	0	444127	65409	139	866	0	0	0	0	0	143	422851	3854412	66557
93	2018-06-13 14:40:32	23842860650530399	99.77	13420	0.007434	15.08	7.43	7.434	11.05	12.2	0.02	533087	89010	10735	396413	0	445426	67590	145	872	0	0	0	0	0	145	425755	3854514	68752
94	2018-06-13 14:50:45	23842860650530399	110.11	15017	0.007332	15.27	7.33	7.332	11.1	12.18	0.02	542891	98363	10845	403129	0	446255	69145	146	874	0	0	0	0	0	147	427870	3854613	70312
95	2018-06-13 15:00:35	23842860650530399	122.72	16270	0.007543	14.9	7.54	7.543	11.16	12.31	0.02	553790	109208	10965	413289	0	447121	70986	149	882	0	0	0	0	0	149	430176	3854708	72166
96	2018-06-13 15:10:39	23842860650530399	135.16	18407	0.007343	15.34	7.34	7.343	11.22	12.22	0.02	565730	120031	11113	424975	0	447970	72882	153	886	0	0	0	0	0	152	432664	3854808	74073
97	2018-06-13 15:20:46	23842860650530399	143.74	19767	0.007272	15.5	7.27	7.272	11.28	12.22	0.03	576114	127560	11253	433900	0	448856	74564	155	893	0	0	0	0	0	155	434955	3854901	75767
98	2018-06-13 15:30:39	23842860650530399	154.72	21600	0.007163	15.78	7.16	7.163	11.34	12.16	0.03	586127	136889	11373	442591	0	449724	76211	156	899	0	0	0	0	0	160	437189	3854980	77426
99	2018-06-13 15:40:37	23842860650530399	165.16	22840	0.007231	15.66	7.23	7.231	11.4	12.21	0.03	595766	145843	11520	448911	0	450664	77767	160	907	0	0	0	0	0	161	439389	3855075	78995
100	2018-06-13 15:50:48	23842860650530399	175.34	24490	0.00716	15.84	7.16	7.16	11.46	12.16	0.03	605470	154584	11679	456363	0	451578	79316	163	916	0	0	0	0	0	163	441658	3855156	80558
101	2018-06-13 16:00:51	23842860650530399	185.9	25444	0.007306	15.56	7.31	7.306	11.51	12.28	0.03	615118	163506	11867	468242	0	452540	80893	166	924	0	0	0	0	0	167	443832	3855241	82150
102	2018-06-13 16:10:41	23842860650530399	196.02	27078	0.007239	15.73	7.24	7.239	11.57	12.23	0.03	624344	172099	12050	474014	0	453436	82392	169	928	0	0	0	0	0	167	445939	3855319	83656
103	2018-06-13 16:20:38	23842860650530399	206.22	28354	0.007273	15.69	7.27	7.273	11.62	12.25	0.03	633643	180712	12224	478621	0	454293	83839	174	935	0	0	0	0	0	167	447960	3855401	85115
104	2018-06-13 16:30:39	23842860650530399	216.49	30073	0.007199	15.89	7.2	7.199	11.67	12.17	0.03	643013	189289	12412	492297	0	455135	85289	175	942	0	0	0	0	0	168	449980	3855470	86574
105	2018-06-13 16:40:40	23842860650530399	227.26	31198	0.007284	15.75	7.28	7.284	11.72	12.25	0.03	652168	198099	12554	493160	0	455961	86814	179	950	0	0	0	0	0	169	451897	3855551	88112
106	2018-06-13 16:50:40	23842860650530399	239.02	33044	0.007233	15.93	7.23	7.233	11.77	12.21	0.03	662327	207470	12733	506467	0	456805	88592	180	960	0	0	0	0	0	170	453813	3855631	89902
107	2018-06-13 17:00:41	23842860650530399	249.5	34213	0.007293	15.84	7.29	7.293	11.82	12.29	0.03	671638	215939	12915	512869	0	457690	90228	182	970	0	0	0	0	0	174	455649	3855710	91554
108	2018-06-13 17:10:42	23842860650530399	257.98	35949	0.007176	16.13	7.18	7.176	11.87	12.19	0.03	681106	222925	13086	523179	0	458533	91799	184	976	0	0	0	0	0	175	457526	3855796	93134
109	2018-06-13 17:20:42	23842860650530399	270.69	37137	0.007289	15.92	7.29	7.289	11.92	12.31	0.03	691712	233272	13235	527386	0	459353	93554	184	986	0	0	0	0	0	178	459517	3855871	94902
110	2018-06-13 17:30:42	23842860650530399	287.08	39483	0.007271	16.02	7.27	7.271	11.98	12.28	0.03	705299	246501	13392	537628	0	460149	95842	185	1001	0	0	0	0	0	179	461917	3855960	97207
111	2018-06-13 17:40:42	23842860650530399	300.58	41052	0.007322	15.93	7.32	7.322	12.04	12.34	0.03	717515	257744	13558	546711	0	461006	97799	187	1007	0	0	0	0	0	180	464237	3856029	99173
112	2018-06-13 17:50:43	23842860650530399	313.17	43299	0.007233	16.14	7.23	7.233	12.09	12.24	0.03	728822	268278	13706	555951	0	461904	99658	188	1013	0	0	0	0	0	183	466380	3856110	101042
113	2018-06-13 18:00:46	23842860650530399	325.88	44475	0.007327	15.95	7.33	7.327	12.15	12.36	0.03	739827	278887	13851	560885	0	462730	101440	192	1021	0	0	0	0	0	183	468405	3856194	102836
114	2018-06-13 18:10:55	23842860650530399	337.68	46353	0.007285	16.06	7.29	7.285	12.2	12.31	0.03	750395	288638	14013	575132	0	463544	103190	195	1029	0	0	0	0	0	184	470302	3856265	104598
115	2018-06-13 18:20:56	23842860650530399	350.74	47802	0.007337	15.96	7.34	7.337	12.25	12.38	0.03	761544	299541	14167	585173	0	464372	104992	196	1037	0	0	0	0	0	187	472337	3856350	106412
116	2018-06-13 18:30:48	23842860650530399	365.57	50038	0.007306	16.04	7.31	7.306	12.31	12.31	0.03	774196	311902	14314	596097	0	465245	106962	198	1051	0	0	0	0	0	194	474584	3856429	108405
117	2018-06-13 18:40:57	23842860650530399	377.8	51640	0.007316	16.02	7.32	7.316	12.37	12.35	0.03	787728	322389	14442	603316	0	466051	109100	207	1060	0	0	0	0	0	195	476895	3856498	110562
118	2018-06-13 18:50:47	23842860650530399	389.06	53752	0.007238	16.18	7.24	7.238	12.42	12.24	0.03	798999	332141	14639	612256	0	467143	110917	213	1065	0	0	0	0	0	197	478922	3856574	112392
119	2018-06-13 19:00:47	23842860650530399	393.47	54358	0.007238	16.2	7.24	7.238	12.45	12.26	0.03	803463	335557	14800	616477	0	468240	111723	215	1066	0	0	0	0	0	200	480022	3856670	113204
120	2018-06-13 19:10:48	23842860650530399	397.19	55039	0.007217	16.26	7.22	7.217	12.47	12.24	0.03	807108	338436	15000	618231	0	469151	112404	216	1068	0	0	0	0	0	202	480956	3856787	113890
121	2018-06-13 19:20:48	23842860650530399	408.89	55940	0.007309	16.04	7.31	7.309	12.52	12.39	0.03	817095	348680	15184	624906	0	469933	113958	218	1079	0	0	0	0	0	203	482823	3856903	115458
122	2018-06-13 19:30:49	23842860650530399	423.76	58216	0.007279	16.06	7.28	7.279	12.58	12.32	0.03	831032	362516	15347	634273	0	470628	115940	220	1090	0	0	0	0	0	207	485268	3857021	117457
123	2018-06-13 19:40:51	23842860650530399	443.69	59953	0.007401	15.77	7.4	7.401	12.65	12.47	0.03	848453	380289	15544	650153	0	471324	118351	223	1102	0	0	0	0	0	210	488049	3857152	119886
124	2018-06-13 19:50:52	23842860650530399	470.93	63225	0.007448	15.68	7.45	7.448	12.74	12.45	0.03	870605	403156	15743	671505	0	471983	121420	228	1120	0	0	0	0	0	213	491231	3857247	122981
125	2018-06-13 20:00:57	23842860650530399	495.27	65741	0.007534	15.5	7.53	7.534	12.82	12.55	0.03	893270	424189	15960	697531	0	472651	124598	235	1141	0	0	0	0	0	216	494510	3857380	126190
126	2018-06-13 20:10:53	23842860650530399	512.35	68558	0.007473	15.61	7.47	7.473	12.88	12.38	0.03	909500	439150	16194	713566	0	473346	126807	240	1150	0	0	0	0	0	219	496904	3857489	128416
127	2018-06-13 20:20:53	23842860650530399	523.76	70079	0.007474	15.6	7.47	7.474	12.93	12.37	0.03	922766	449253	16447	728754	0	474023	128653	248	1155	0	0	0	0	0	220	498936	3857595	130276
128	2018-06-13 20:30:53	23842860650530399	536.59	71958	0.007457	15.61	7.46	7.457	12.98	12.31	0.04	934791	460827	16705	734456	0	474762	130309	254	1163	0	0	0	0	0	220	500791	3857699	131946
129	2018-06-13 20:40:53	23842860650530399	548.44	73099	0.007503	15.51	7.5	7.503	13.03	12.37	0.04	945885	471247	16979	749478	0	475480	131788	260	1169	0	0	0	0	0	222	502544	3857808	133439
130	2018-06-13 20:51:05	23842860650530399	559.9	74693	0.007496	15.52	7.5	7.496	13.07	12.33	0.04	956393	481324	17255	758631	0	476205	133253	263	1177	0	0	0	0	0	223	504131	3857923	134916
131	2018-06-13 21:01:06	23842860650530399	572	75887	0.007538	15.43	7.54	7.538	13.11	12.38	0.04	967552	491923	17564	767017	0	476989	134755	267	1182	0	0	0	0	0	224	505800	3858026	136428
132	2018-06-13 21:11:07	23842860650530399	584	77603	0.007525	15.44	7.52	7.525	13.16	12.32	0.04	978721	502668	17807	779386	0	477728	136264	273	1189	0	0	0	0	0	226	507572	3858162	137952
133	2018-06-13 21:20:56	23842860650530399	591.15	78612	0.00752	15.45	7.52	7.52	13.19	12.3	0.04	986836	508774	18042	785640	0	478429	137391	276	1198	0	0	0	0	0	226	508921	3858256	139091
134	2018-06-13 21:31:17	23842860650530399	593.88	79272	0.007492	15.52	7.49	7.492	13.21	12.23	0.04	989730	510831	18266	788641	0	479134	137850	276	1202	0	0	0	0	0	227	509615	3858370	139555
135	2018-06-13 21:41:14	23842860650530399	596.18	79532	0.007496	15.52	7.5	7.496	13.22	12.24	0.04	992057	512469	18465	791464	0	479845	138224	275	1204	0	0	0	0	0	228	510262	3858474	139931
136	2018-06-13 21:51:14	23842860650530399	597.59	79828	0.007486	15.55	7.49	7.486	13.24	12.22	0.04	994139	513503	18693	792781	0	480574	138541	277	1206	0	0	0	0	0	228	510893	3858576	140252
137	2018-06-13 22:01:14	23842860650530399	599.23	80028	0.007488	15.55	7.49	7.488	13.25	12.22	0.04	995932	514659	18877	794765	0	481207	138849	277	1206	0	0	0	0	0	228	511425	3858682	140560
138	2018-06-13 22:11:15	23842860650530399	600.94	80272	0.007486	15.56	7.49	7.486	13.27	12.22	0.04	997669	515805	19087	799098	0	481852	139139	278	1208	0	0	0	0	0	229	511943	3858800	140854
139	2018-06-13 22:21:17	23842860650530399	602.3	80459	0.007486	15.57	7.49	7.486	13.28	12.22	0.04	999343	516824	19294	799098	0	482523	139426	279	1208	0	0	0	0	0	229	512473	3858928	141142
140	2018-06-13 22:31:16	23842860650530399	603.84	80659	0.007486	15.58	7.49	7.486	13.3	12.22	0.04	1001026	517799	19509	800415	0	483267	139699	279	1210	0	0	0	0	0	230	513083	3859053	141418
141	2018-06-13 22:41:01	23842860650530399	604.95	80767	0.00749	15.57	7.49	7.49	13.31	12.23	0.04	1002499	518592	19692	800829	0	483904	139942	279	1211	0	0	0	0	0	231	513550	3859191	141663
142	2018-06-13 22:51:01	23842860650530399	605.94	80948	0.007486	15.59	7.49	7.486	13.32	12.21	0.04	1003969	519323	19893	801762	0	484604	140143	280	1213	0	0	0	0	0	233	514067	3859319	141869
143	2018-06-13 23:01:06	23842860650530399	607.08	81080	0.007487	15.59	7.49	7.487	13.33	12.21	0.04	1005368	520108	20073	801762	0	485272	140354	280	1214	0	0	0	0	0	233	514586	3859424	142081
144	2018-06-13 23:11:03	23842860650530399	607.97	81248	0.007483	15.6	7.48	7.483	13.35	12.21	0.04	1006609	520722	20232	804784	0	485873	140569	281	1215	0	0	0	0	0	233	515068	3859516	142298
145	2018-06-13 23:21:03	23842860650530399	608.66	81329	0.007484	15.6	7.48	7.484	13.36	12.21	0.04	1007750	521184	20400	804784	0	486475	140750	281	1216	0	0	0	0	0	233	515545	3859596	142480
146	2018-06-13 23:31:03	23842860650530399	609.41	81435	0.007483	15.61	7.48	7.483	13.37	12.21	0.04	1008742	521735	20549	805516	0	487010	140912	281	1216	0	0	0	0	0	233	515921	3859669	142642
147	2018-06-13 23:41:03	23842860650530399	609.97	81511	0.007483	15.61	7.48	7.483	13.38	12.22	0.04	1009716	522120	20724	806460	0	487572	141073	283	1216	0	0	0	0	0	233	516343	3859751	142805
148	2018-06-13 23:51:04	23842860650530399	610.37	81607	0.007479	15.62	7.48	7.479	13.39	12.21	0.04	1010554	522383	20878	807881	0	488077	141228	283	1218	0	0	0	0	0	233	516732	3859826	142962
149	2018-06-14 00:01:05	23842860650530399	610.74	81665	0.007479	15.62	7.48	7.479	13.4	12.21	0.04	1011302	522662	21015	808672	0	488525	141346	283	1218	0	0	0	0	0	233	517049	3859904	143080
150	2018-06-14 00:11:17	23842860650530399	611.2	81694	0.007482	15.62	7.48	7.482	13.4	12.22	0.04	1011954	522967	21100	808672	0	488915	141461	283	1220	0	0	0	0	0	233	517340	3859970	143197
151	2018-06-14 00:21:08	23842860650530399	611.5	81771	0.007478	15.63	7.48	7.478	13.41	12.22	0.04	1012564	523156	21186	809095	0	489315	141565	283	1221	0	0	0	0	0	233	517645	3860028	143302
152	2018-06-14 00:31:08	23842860650530399	611.72	81827	0.007476	15.64	7.48	7.476	13.42	12.22	0.04	1013105	523341	21262	809095	0	489674	141658	283	1221	0	0	0	0	0	233	517907	3860091	143395
153	2018-06-14 00:41:07	23842860650530399	611.96	81858	0.007476	15.64	7.48	7.476	13.42	12.22	0.04	1013563	523494	21340	809941	0	489984	141730	283	1221	0	0	0	0	0	233	518124	3860134	143467
154	2018-06-14 00:51:07	23842860650530399	612.2	81884	0.007476	15.64	7.48	7.476	13.43	12.22	0.04	1013945	523686	21395	809994	0	490237	141807	283	1223	0	0	0	0	0	233	518312	3860162	143546
155	2018-06-14 01:01:08	23842860650530399	612.4	81924	0.007475	15.64	7.47	7.475	13.43	12.22	0.04	1014303	523808	21453	809994	0	490489	141862	283	1223	0	0	0	0	0	233	518505	3860206	143601
156	2018-06-14 01:11:10	23842860650530399	612.43	81947	0.007473	15.64	7.47	7.473	13.44	12.22	0.04	1014603	523839	21503	812545	0	490705	141914	283	1223	0	0	0	0	0	233	518663	3860249	143653
157	2018-06-14 01:21:09	23842860650530399	612.54	81975	0.007472	15.65	7.47	7.472	13.44	12.22	0.04	1014878	523916	21542	812918	0	490905	141964	284	1223	0	0	0	0	0	234	518812	3860268	143705
158	2018-06-14 01:31:10	23842860650530399	612.68	81986	0.007473	15.65	7.47	7.473	13.44	12.22	0.04	1015138	523995	21585	812918	0	491102	142006	284	1223	0	0	0	0	0	234	518961	3860299	143747
159	2018-06-14 01:41:10	23842860650530399	612.72	82003	0.007472	15.65	7.47	7.472	13.45	12.22	0.04	1015357	524038	21630	812918	0	491277	142037	284	1223	0	0	0	0	0	234	519097	3860316	143778
160	2018-06-14 01:51:13	23842860650530399	612.77	82014	0.007472	15.65	7.47	7.472	13.45	12.22	0.04	1015521	524068	21658	812918	0	491410	142071	284	1223	0	0	0	0	0	234	519198	3860338	143812
161	2018-06-14 02:01:11	23842860650530399	612.87	82028	0.007471	15.65	7.47	7.471	13.45	12.22	0.04	1015702	524113	21701	812918	0	491571	142102	284	1223	0	0	0	0	0	234	519308	3860354	143843
162	2018-06-14 02:11:10	23842860650530399	612.89	82031	0.007471	15.65	7.47	7.471	13.45	12.22	0.04	1015836	524131	21720	812918	0	491688	142116	284	1223	0	0	0	0	0	234	519399	3860366	143857
163	2018-06-14 02:21:11	23842860650530399	612.89	82040	0.007471	15.65	7.47	7.471	13.46	12.22	0.04	1015936	524131	21745	812918	0	491777	142140	284	1223	0	0	0	0	0	234	519466	3860377	143881
164	2018-06-14 02:31:12	23842860650530399	612.94	82045	0.007471	15.65	7.47	7.471	13.46	12.22	0.04	1016037	524164	21775	812918	0	491865	142158	284	1223	0	0	0	0	0	234	519516	3860390	143899
165	2018-06-14 02:41:13	23842860650530399	612.96	82052	0.00747	15.65	7.47	7.47	13.46	12.22	0.04	1016152	524173	21798	812918	0	491971	142181	284	1223	0	0	0	0	0	234	519598	3860401	143922
166	2018-06-14 02:51:13	23842860650530399	612.96	82061	0.00747	15.66	7.47	7.47	13.46	12.22	0.04	1016233	524173	21818	812918	0	492050	142200	284	1223	0	0	0	0	0	234	519645	3860410	143941
167	2018-06-14 03:01:15	23842860650530399	612.97	82068	0.007469	15.66	7.47	7.469	13.46	12.22	0.04	1016308	524183	21831	812918	0	492124	142222	284	1223	0	0	0	0	0	234	519704	3860417	143963
168	2018-06-14 03:11:14	23842860650530399	612.97	82073	0.007469	15.66	7.47	7.469	13.46	12.22	0.04	1016380	524183	21850	812918	0	492195	142230	284	1223	0	0	0	0	0	234	519751	3860426	143971
169	2018-06-14 03:21:14	23842860650530399	612.97	82075	0.007468	15.66	7.47	7.468	13.46	12.22	0.04	1016467	524183	21877	812918	0	492282	142237	284	1224	0	0	0	0	0	234	519805	3860434	143979
170	2018-06-14 03:31:18	23842860650530399	612.97	82078	0.007468	15.66	7.47	7.468	13.47	12.22	0.04	1016534	524183	21893	812918	0	492349	142253	284	1224	0	0	0	0	0	234	519849	3860442	143995
171	2018-06-14 03:41:15	23842860650530399	612.97	82081	0.007468	15.66	7.47	7.468	13.47	12.22	0.04	1016602	524184	21905	812918	0	492417	142262	284	1224	0	0	0	0	0	234	519898	3860450	144004
172	2018-06-14 03:51:17	23842860650530399	612.97	82083	0.007468	15.66	7.47	7.468	13.47	12.22	0.04	1016643	524184	21918	812918	0	492458	142265	284	1224	0	0	0	0	0	234	519922	3860455	144007
173	2018-06-14 04:01:17	23842860650530399	612.97	82088	0.007467	15.66	7.47	7.467	13.47	12.22	0.04	1016709	524184	21932	812918	0	492524	142276	284	1224	0	0	0	0	0	234	519970	3860462	144018
174	2018-06-14 04:11:17	23842860650530399	612.97	82091	0.007467	15.66	7.47	7.467	13.47	12.22	0.04	1016757	524184	21941	812918	0	492572	142283	284	1224	0	0	0	0	0	234	520005	3860468	144025
175	2018-06-14 04:21:23	23842860650530399	612.97	82094	0.007467	15.66	7.47	7.467	13.47	12.22	0.04	1016812	524184	21953	812918	0	492627	142292	284	1225	0	0	0	0	0	234	520043	3860474	144035
176	2018-06-14 04:31:17	23842860650530399	612.97	82097	0.007466	15.66	7.47	7.466	13.47	12.22	0.04	1016869	524184	21960	812918	0	492684	142311	284	1225	0	0	0	0	0	234	520088	3860474	144054
177	2018-06-14 04:41:20	23842860650530399	612.97	82103	0.007466	15.66	7.47	7.466	13.47	12.22	0.04	1016909	524184	21969	812918	0	492724	142317	284	1225	0	0	0	0	0	234	520114	3860480	144060
178	2018-06-14 04:51:21	23842860650530399	612.97	82106	0.007466	15.66	7.47	7.466	13.47	12.22	0.04	1016956	524184	21980	812918	0	492771	142327	284	1225	0	0	0	0	0	234	520149	3860477	144070
179	2018-06-14 05:01:21	23842860650530399	612.97	82110	0.007465	15.66	7.46	7.465	13.47	12.22	0.04	1016998	524184	21987	813559	0	492813	142336	284	1225	0	0	0	0	0	234	520179	3860481	144079
180	2018-06-14 05:11:20	23842860650530399	612.97	82113	0.007465	15.66	7.46	7.465	13.48	12.22	0.04	1017051	524184	21998	813559	0	492866	142345	284	1225	0	0	0	0	0	234	520217	3860483	144088
181	2018-06-14 05:21:20	23842860650530399	612.97	82117	0.007465	15.67	7.46	7.465	13.48	12.22	0.04	1017123	524184	22013	813559	0	492938	142357	284	1226	0	0	0	0	0	234	520265	3860489	144101
182	2018-06-14 05:31:23	23842860650530399	612.97	82119	0.007464	15.67	7.46	7.464	13.48	12.22	0.04	1017186	524184	22032	813559	0	493001	142372	284	1226	0	0	0	0	0	234	520304	3860491	144116
183	2018-06-14 05:41:22	23842860650530399	612.97	82129	0.007464	15.67	7.46	7.464	13.48	12.22	0.04	1017259	524184	22052	813559	0	493074	142394	284	1226	0	0	0	0	0	234	520353	3860494	144138
184	2018-06-14 05:51:22	23842860650530399	612.97	82135	0.007463	15.67	7.46	7.463	13.48	12.22	0.04	1017361	524184	22078	813559	0	493176	142416	284	1226	0	0	0	0	0	234	520425	3860499	144160
185	2018-06-14 06:01:22	23842860650530399	612.97	82140	0.007463	15.67	7.46	7.463	13.48	12.22	0.04	1017465	524184	22103	813559	0	493280	142439	284	1227	0	0	0	0	0	234	520501	3860507	144184
186	2018-06-14 06:21:25	23842860650530399	612.97	82159	0.007461	15.67	7.46	7.461	13.49	12.23	0.04	1017702	524184	22168	813559	0	493517	142504	284	1228	0	0	0	0	0	234	520664	3860534	144250
187	2018-06-14 06:31:25	23842860650530399	612.97	82165	0.00746	15.67	7.46	7.46	13.49	12.23	0.04	1017847	524184	22205	813559	0	493662	142526	284	1228	0	0	0	0	0	234	520768	3860549	144272
188	2018-06-14 06:41:26	23842860650530399	612.97	82176	0.007459	15.68	7.46	7.459	13.49	12.23	0.05	1017989	524184	22249	813666	0	493804	142557	284	1228	0	0	0	0	0	234	520859	3860558	144303
189	2018-06-14 06:51:25	23842860650530399	612.97	82183	0.007459	15.68	7.46	7.459	13.5	12.23	0.05	1018174	524184	22291	813666	0	493989	142593	284	1228	0	0	0	0	0	234	520991	3860583	144339
190	2018-06-14 07:01:26	23842860650530399	612.97	82201	0.007457	15.68	7.46	7.457	13.5	12.23	0.05	1018374	524184	22355	813987	0	494189	142635	284	1229	0	0	0	0	0	234	521123	3860605	144382
191	2018-06-14 07:11:26	23842860650530399	612.97	82205	0.007457	15.68	7.46	7.457	13.5	12.23	0.05	1018574	524184	22412	813987	0	494389	142689	284	1229	0	0	0	0	0	234	521263	3860626	144436
192	2018-06-14 07:21:28	23842860650530399	612.97	82221	0.007455	15.69	7.46	7.455	13.51	12.23	0.05	1018790	524184	22464	813987	0	494605	142732	284	1230	0	0	0	0	0	234	521425	3860642	144480
193	2018-06-14 07:31:28	23842860650530399	612.97	82235	0.007454	15.69	7.45	7.454	13.51	12.24	0.05	1019036	524184	22529	813987	0	494851	142806	284	1230	0	0	0	0	0	234	521600	3860676	144554
194	2018-06-14 07:41:28	23842860650530399	612.97	82254	0.007452	15.69	7.45	7.452	13.52	12.24	0.05	1019278	524184	22587	813987	0	495093	142860	284	1230	0	0	0	0	0	234	521787	3860714	144608
195	2018-06-14 07:51:28	23842860650530399	612.97	82263	0.007451	15.69	7.45	7.451	13.52	12.25	0.05	1019518	524184	22655	813987	0	495333	142917	284	1231	0	0	0	0	0	234	521961	3860760	144666
196	2018-06-14 08:01:32	23842860650530399	612.97	82292	0.007449	15.7	7.45	7.449	13.52	12.25	0.05	1019725	524184	22701	813987	0	495540	142990	284	1233	0	0	0	0	0	234	522116	3860791	144741
197	2018-06-14 08:11:34	23842860650530399	612.97	82303	0.007448	15.7	7.45	7.448	13.53	12.25	0.05	1019979	524184	22769	813987	0	495794	143029	285	1234	0	0	0	0	0	234	522287	3860830	144782
198	2018-06-14 08:21:32	23842860650530399	612.97	82324	0.007446	15.71	7.45	7.446	13.53	12.25	0.05	1020253	524184	22837	813987	0	496068	143089	285	1234	0	0	0	0	0	235	522480	3860884	144843
199	2018-06-14 08:31:32	23842860650530399	612.97	82335	0.007445	15.71	7.45	7.445	13.54	12.25	0.05	1020518	524184	22891	813987	0	496333	143154	285	1235	0	0	0	0	0	235	522666	3860931	144909
200	2018-06-14 08:41:32	23842860650530399	612.97	82358	0.007443	15.71	7.44	7.443	13.54	12.26	0.05	1020784	524184	22949	813987	0	496599	143219	285	1235	0	0	0	0	0	236	522859	3860974	144975
201	2018-06-14 08:51:33	23842860650530399	612.97	82372	0.007441	15.71	7.44	7.441	13.55	12.26	0.05	1021058	524184	23012	813987	0	496873	143283	285	1235	0	0	0	0	0	236	523050	3861007	145039
202	2018-06-14 09:01:34	23842860650530399	612.97	82388	0.00744	15.72	7.44	7.44	13.55	12.26	0.05	1021355	524184	23098	813987	0	497170	143341	285	1235	0	0	0	0	0	236	523255	3861057	145097
203	2018-06-14 09:11:34	23842860650530399	612.97	82399	0.007439	15.72	7.44	7.439	13.56	12.26	0.05	1021616	524184	23169	814308	0	497431	143380	285	1235	0	0	0	0	0	236	523439	3861100	145136
204	2018-06-14 09:21:35	23842860650530399	612.97	82412	0.007438	15.72	7.44	7.438	13.56	12.26	0.05	1021871	524184	23215	814736	0	497686	143443	285	1235	0	0	0	0	0	236	523626	3861147	145199
205	2018-06-14 09:31:35	23842860650530399	612.97	82430	0.007436	15.73	7.44	7.436	13.57	12.26	0.05	1022118	524184	23285	814736	0	497933	143485	285	1235	0	0	0	0	0	236	523801	3861180	145241
206	2018-06-14 09:41:35	23842860650530399	612.97	82439	0.007435	15.73	7.43	7.435	13.57	12.26	0.05	1022321	524184	23328	814944	0	498136	143528	285	1235	0	0	0	0	0	236	523950	3861237	145284
207	2018-06-14 09:51:37	23842860650530399	612.97	82453	0.007434	15.73	7.43	7.434	13.57	12.26	0.05	1022518	524184	23374	814944	0	498333	143573	285	1235	0	0	0	0	0	236	524090	3861272	145329
208	2018-06-14 10:01:37	23842860650530399	612.97	82468	0.007433	15.73	7.43	7.433	13.58	12.27	0.05	1022732	524184	23430	814944	0	498547	143617	285	1235	0	0	0	0	0	236	524236	3861320	145373
209	2018-06-14 10:11:43	23842860650530399	612.97	82477	0.007432	15.73	7.43	7.432	13.58	12.27	0.05	1022961	524184	23504	815158	0	498776	143662	284	1235	0	0	0	0	0	236	524390	3861375	145417
210	2018-06-14 10:21:37	23842860650530399	612.97	82485	0.007431	15.74	7.43	7.431	13.58	12.27	0.05	1023195	524184	23578	815158	0	499010	143709	284	1237	0	0	0	0	0	236	524547	3861411	145466
211	2018-06-14 10:31:39	23842860650530399	612.97	82500	0.00743	15.74	7.43	7.43	13.59	12.27	0.05	1023446	524184	23641	815158	0	499261	143755	284	1238	0	0	0	0	0	236	524717	3861447	145513
212	2018-06-14 10:41:39	23842860650530399	612.97	82511	0.007429	15.74	7.43	7.429	13.59	12.27	0.05	1023653	524184	23700	815158	0	499468	143793	284	1238	0	0	0	0	0	236	524854	3861486	145551
213	2018-06-14 10:51:40	23842860650530399	612.97	82516	0.007428	15.74	7.43	7.428	13.59	12.27	0.05	1023823	524184	23756	815158	0	499638	143816	284	1238	0	0	0	0	0	236	524960	3861533	145574
214	2018-06-14 11:01:41	23842860650530399	612.97	82523	0.007428	15.74	7.43	7.428	13.6	12.27	0.05	1024022	524184	23802	815158	0	499837	143858	284	1238	0	0	0	0	0	236	525109	3861570	145616
215	2018-06-14 11:11:41	23842860650530399	612.97	82539	0.007426	15.75	7.43	7.426	13.6	12.27	0.05	1024198	524184	23855	815158	0	500013	143896	284	1240	0	0	0	0	0	236	525225	3861628	145656
216	2018-06-14 11:21:41	23842860650530399	612.97	82550	0.007425	15.75	7.42	7.425	13.6	12.27	0.05	1024387	524184	23904	815561	0	500202	143931	284	1240	0	0	0	0	0	236	525356	3861686	145691
217	2018-06-14 11:31:42	23842860650530399	612.97	82564	0.007424	15.75	7.42	7.424	13.61	12.27	0.05	1024580	524184	23964	815561	0	500395	143976	284	1240	0	0	0	0	0	236	525481	3861731	145736
218	2018-06-14 11:41:44	23842860650530399	612.97	82568	0.007424	15.75	7.42	7.424	13.61	12.27	0.05	1024775	524184	24015	815561	0	500590	144003	284	1240	0	0	0	0	0	236	525608	3861764	145763
219	2018-06-14 11:51:43	23842860650530399	612.97	82575	0.007423	15.75	7.42	7.423	13.61	12.27	0.05	1024963	524184	24065	816421	0	500778	144039	284	1241	0	0	0	0	0	236	525742	3861805	145800
220	2018-06-14 12:01:48	23842860650530399	612.97	82585	0.007422	15.75	7.42	7.422	13.62	12.27	0.05	1025140	524184	24106	816421	0	500955	144060	284	1242	0	0	0	0	0	235	525863	3861845	145821
221	2018-06-14 12:11:46	23842860650530399	612.97	82589	0.007422	15.76	7.42	7.422	13.62	12.27	0.05	1025319	524184	24149	816421	0	501134	144086	284	1242	0	0	0	0	0	235	525999	3861880	145847
222	2018-06-14 12:21:57	23842860650530399	612.97	82592	0.007422	15.76	7.42	7.422	13.62	12.27	0.05	1025528	524184	24201	816421	0	501343	144110	284	1242	0	0	0	0	0	235	526141	3861925	145871
223	2018-06-14 12:31:49	23842860650530399	612.97	82599	0.007421	15.76	7.42	7.421	13.63	12.27	0.05	1025685	524184	24246	816421	0	501500	144152	284	1242	0	0	0	0	0	235	526260	3861964	145913
224	2018-06-14 12:42:38	23842860650530399	612.97	82610	0.00742	15.76	7.42	7.42	13.63	12.27	0.05	1025862	524184	24293	816421	0	501677	144172	284	1242	0	0	0	0	0	235	526381	3862006	145933
225	2018-06-14 12:51:48	23842860650530399	612.97	82615	0.00742	15.76	7.42	7.42	13.63	12.27	0.05	1026050	524184	24343	817175	0	501865	144209	284	1243	0	0	0	0	0	235	526517	3862059	145971
226	2018-06-14 13:02:01	23842860650530399	612.97	82621	0.007419	15.76	7.42	7.419	13.64	12.27	0.05	1026237	524184	24384	817175	0	502052	144237	284	1243	0	0	0	0	0	235	526648	3862103	145999
227	2018-06-14 13:12:00	23842860650530399	612.97	82624	0.007419	15.76	7.42	7.419	13.64	12.27	0.05	1026380	524184	24423	817607	0	502195	144261	284	1243	0	0	0	0	0	235	526743	3862148	146023
228	2018-06-14 13:22:02	23842860650530399	612.97	82631	0.007418	15.76	7.42	7.418	13.64	12.27	0.05	1026552	524184	24451	817607	0	502367	144285	284	1243	0	0	0	0	0	235	526868	3862186	146047
229	2018-06-14 13:32:19	23842860650530399	612.97	82635	0.007418	15.76	7.42	7.418	13.65	12.27	0.05	1026735	524184	24488	817607	0	502550	144296	284	1243	0	0	0	0	0	235	527006	3862228	146058
230	2018-06-14 13:41:52	23842860650530399	612.97	82636	0.007418	15.76	7.42	7.418	13.65	12.27	0.05	1026913	524184	24531	817607	0	502728	144323	284	1244	0	0	0	0	0	235	527130	3862267	146086
231	2018-06-14 13:52:03	23842860650530399	612.97	82643	0.007417	15.77	7.42	7.417	13.65	12.27	0.05	1027088	524184	24574	817607	0	502903	144349	284	1245	0	0	0	0	0	235	527251	3862304	146113
232	2018-06-14 14:02:05	23842860650530399	612.97	82646	0.007417	15.77	7.42	7.417	13.65	12.27	0.05	1027284	524184	24614	817607	0	503099	144371	284	1246	0	0	0	0	0	235	527393	3862344	146136
233	2018-06-14 14:11:54	23842860650530399	612.97	82649	0.007417	15.77	7.42	7.417	13.66	12.27	0.05	1027492	524184	24656	817607	0	503307	144389	284	1247	0	0	0	0	0	235	527550	3862382	146155
234	2018-06-14 14:21:57	23842860650530399	612.97	82651	0.007416	15.77	7.42	7.416	13.66	12.27	0.05	1027670	524184	24697	817607	0	503485	144411	286	1247	0	0	0	0	0	235	527688	3862432	146179
235	2018-06-14 14:32:07	23842860650530399	612.97	82653	0.007416	15.77	7.42	7.416	13.67	12.26	0.05	1027854	524184	24732	817607	0	503669	144423	286	1248	0	0	0	0	0	235	527825	3862470	146192
236	2018-06-14 14:41:56	23842860650530399	612.97	82654	0.007416	15.77	7.42	7.416	13.67	12.26	0.05	1028064	524184	24776	817607	0	503879	144448	286	1248	0	0	0	0	0	235	527981	3862515	146217
237	2018-06-14 14:52:07	23842860650530399	612.97	82661	0.007415	15.77	7.42	7.415	13.67	12.26	0.05	1028255	524184	24811	817607	0	504070	144469	286	1248	0	0	0	0	0	235	528125	3862541	146238
238	2018-06-14 15:02:09	23842860650530399	612.97	82662	0.007415	15.77	7.42	7.415	13.68	12.26	0.05	1028456	524184	24843	817607	0	504271	144490	286	1248	0	0	0	0	0	235	528265	3862591	146259
239	2018-06-14 15:11:56	23842860650530399	612.97	82665	0.007415	15.77	7.42	7.415	13.68	12.26	0.05	1028616	524184	24876	818471	0	504431	144509	286	1248	0	0	0	0	0	235	528385	3862636	146278
240	2018-06-14 15:22:09	23842860650530399	612.97	82666	0.007415	15.77	7.42	7.415	13.68	12.26	0.05	1028776	524184	24904	819988	0	504591	144532	286	1248	0	0	0	0	0	235	528506	3862678	146301
241	2018-06-14 15:32:09	23842860650530399	612.97	82674	0.007414	15.77	7.41	7.414	13.69	12.26	0.05	1028963	524184	24944	819988	0	504778	144555	286	1248	0	0	0	0	0	235	528643	3862714	146324
242	2018-06-14 15:42:09	23842860650530399	612.97	82675	0.007414	15.77	7.41	7.414	13.69	12.26	0.05	1029174	524184	24992	819988	0	504989	144578	287	1249	0	0	0	0	0	235	528804	3862757	146349
243	2018-06-14 15:51:59	23842860650530399	612.97	82682	0.007414	15.77	7.41	7.414	13.69	12.26	0.05	1029354	524184	25055	819988	0	505169	144612	287	1249	0	0	0	0	0	235	528927	3862797	146383
244	2018-06-14 16:02:04	23842860650530399	612.97	82692	0.007413	15.78	7.41	7.413	13.7	12.26	0.05	1029560	524184	25102	820151	0	505375	144655	287	1249	0	0	0	0	0	235	529079	3862822	146426
245	2018-06-14 16:12:02	23842860650530399	612.97	82700	0.007412	15.78	7.41	7.412	13.7	12.26	0.05	1029739	524184	25153	820151	0	505554	144671	287	1249	0	0	0	0	0	235	529206	3862869	146442
246	2018-06-14 16:22:12	23842860650530399	612.97	82702	0.007412	15.78	7.41	7.412	13.7	12.26	0.05	1029928	524184	25206	820151	0	505743	144682	287	1249	0	0	0	0	0	235	529344	3862908	146453
247	2018-06-14 16:32:01	23842860650530399	612.97	82705	0.007412	15.78	7.41	7.412	13.71	12.25	0.05	1030097	524184	25244	820151	0	505912	144698	287	1249	0	0	0	0	0	235	529466	3862942	146469
248	2018-06-14 16:42:14	23842860650530399	612.97	82708	0.007411	15.78	7.41	7.411	13.71	12.25	0.05	1030330	524184	25325	820151	0	506145	144722	287	1249	0	0	0	0	0	235	529631	3862971	146493
249	2018-06-14 16:52:16	23842860650530399	612.97	82715	0.007411	15.78	7.41	7.411	13.71	12.25	0.05	1030563	524184	25380	820151	0	506378	144747	287	1250	0	0	0	0	0	235	529792	3863018	146519
250	2018-06-14 17:02:15	23842860650530399	612.97	82718	0.00741	15.78	7.41	7.41	13.72	12.25	0.05	1030777	524184	25434	820151	0	506592	144776	287	1250	0	0	0	0	0	235	529956	3863072	146548
251	2018-06-14 17:12:05	23842860650530399	612.97	82722	0.00741	15.78	7.41	7.41	13.72	12.25	0.05	1030957	524184	25488	820151	0	506772	144794	287	1250	0	0	0	0	0	235	530081	3863104	146566
252	2018-06-14 17:22:05	23842860650530399	612.97	82723	0.00741	15.78	7.41	7.41	13.72	12.25	0.05	1031144	524184	25533	820151	0	506959	144815	287	1250	0	0	0	0	0	235	530211	3863151	146587
253	2018-06-14 17:32:16	23842860650530399	612.97	82728	0.007409	15.78	7.41	7.409	13.73	12.25	0.05	1031337	524184	25582	820369	0	507152	144835	287	1250	0	0	0	0	0	235	530348	3863184	146607
254	2018-06-14 17:42:17	23842860650530399	612.97	82731	0.007409	15.78	7.41	7.409	13.73	12.25	0.05	1031516	524184	25623	820369	0	507331	144855	287	1250	0	0	0	0	0	235	530480	3863230	146627
255	2018-06-14 17:52:18	23842860650530399	612.97	82735	0.007409	15.78	7.41	7.409	13.73	12.24	0.05	1031692	524184	25664	820369	0	507507	144871	287	1251	0	0	0	0	0	235	530620	3863272	146644
256	2018-06-14 18:02:18	23842860650530399	612.97	82737	0.007409	15.78	7.41	7.409	13.74	12.24	0.05	1031875	524184	25711	820695	0	507690	144890	287	1250	0	0	0	0	0	235	530755	3863305	146662
257	2018-06-14 18:12:20	23842860650530399	612.97	82740	0.007408	15.78	7.41	7.408	13.74	12.24	0.05	1032052	524184	25751	820695	0	507867	144910	287	1250	0	0	0	0	0	235	530887	3863348	146682
258	2018-06-14 18:22:08	23842860650530399	612.97	82743	0.007408	15.79	7.41	7.408	13.74	12.24	0.05	1032181	524184	25788	820695	0	507996	144923	287	1250	0	0	0	0	0	235	530975	3863385	146695
259	2018-06-14 18:32:09	23842860650530399	612.97	82749	0.007408	15.79	7.41	7.408	13.75	12.24	0.05	1032321	524184	25827	820695	0	508136	144947	287	1250	0	0	0	0	0	235	531074	3863432	146719
260	2018-06-14 18:42:10	23842860650530399	612.97	82752	0.007407	15.79	7.41	7.407	13.75	12.24	0.05	1032523	524184	25872	820695	0	508338	144971	287	1250	0	0	0	0	0	235	531225	3863469	146743
261	2018-06-14 18:52:21	23842860650530399	612.97	82754	0.007407	15.79	7.41	7.407	13.75	12.24	0.05	1032725	524184	25913	821348	0	508540	144992	287	1250	0	0	0	0	0	235	531379	3863509	146764
262	2018-06-14 19:02:11	23842860650530399	612.97	82761	0.007407	15.79	7.41	7.407	13.76	12.24	0.05	1032917	524184	25958	821348	0	508732	145009	287	1250	0	0	0	0	0	235	531526	3863539	146781
263	2018-06-14 19:12:24	23842860650530399	612.97	82763	0.007406	15.79	7.41	7.406	13.76	12.23	0.05	1033110	524184	26007	821348	0	508925	145026	287	1250	0	0	0	0	0	235	531664	3863570	146798
264	2018-06-14 19:22:11	23842860650530399	612.97	82763	0.007406	15.79	7.41	7.406	13.76	12.23	0.05	1033290	524184	26048	821348	0	509105	145044	287	1250	0	0	0	0	0	235	531794	3863610	146816
265	2018-06-14 19:32:13	23842860650530399	612.97	82765	0.007406	15.79	7.41	7.406	13.77	12.23	0.05	1033484	524184	26087	821348	0	509299	145060	287	1250	0	0	0	0	0	235	531945	3863640	146832
266	2018-06-14 19:42:13	23842860650530399	612.97	82768	0.007406	15.79	7.41	7.406	13.77	12.23	0.05	1033700	524184	26127	821348	0	509515	145073	287	1250	0	0	0	0	0	235	532112	3863674	146845
267	2018-06-14 19:52:15	23842860650530399	612.97	82770	0.007406	15.79	7.41	7.406	13.78	12.23	0.05	1033886	524184	26170	821348	0	509701	145086	287	1250	0	0	0	0	0	235	532247	3863711	146858
268	2018-06-14 20:02:35	23842860650530399	612.97	82773	0.007405	15.79	7.41	7.405	13.78	12.22	0.05	1034071	524184	26212	821348	0	509886	145106	286	1250	0	0	0	0	0	235	532381	3863770	146877
269	2018-06-14 20:12:30	23842860650530399	612.97	82776	0.007405	15.79	7.41	7.405	13.78	12.23	0.05	1034239	524184	26236	821348	0	510054	145132	287	1250	0	0	0	0	0	235	532514	3863803	146904
270	2018-06-14 20:22:31	23842860650530399	612.97	82778	0.007405	15.79	7.41	7.405	13.79	12.22	0.05	1034438	524184	26270	822657	0	510253	145149	287	1250	0	0	0	0	0	235	532665	3863837	146921
271	2018-06-14 20:32:31	23842860650530399	612.97	82778	0.007405	15.79	7.41	7.405	13.79	12.22	0.05	1034620	524184	26312	823971	0	510435	145165	287	1250	0	0	0	0	0	235	532802	3863881	146937
272	2018-06-14 20:42:32	23842860650530399	612.97	82782	0.007405	15.79	7.41	7.405	13.79	12.22	0.05	1034819	524184	26340	824074	0	510634	145187	287	1250	0	0	0	0	0	235	532960	3863916	146959
273	2018-06-14 20:52:36	23842860650530399	612.97	82785	0.007404	15.79	7.4	7.404	13.8	12.22	0.05	1035006	524184	26378	824074	0	510821	145203	287	1250	0	0	0	0	0	235	533100	3863944	146975
274	2018-06-14 21:02:35	23842860650530399	612.97	82789	0.007404	15.79	7.4	7.404	13.8	12.22	0.05	1035177	524184	26417	825392	0	510992	145217	287	1251	0	0	0	0	0	235	533230	3863968	146990
275	2018-06-14 21:12:38	23842860650530399	612.97	82791	0.007404	15.79	7.4	7.404	13.8	12.22	0.05	1035344	524184	26444	826245	0	511159	145233	287	1251	0	0	0	0	0	235	533361	3864008	147006
276	2018-06-14 21:22:37	23842860650530399	612.97	82791	0.007404	15.79	7.4	7.404	13.81	12.21	0.05	1035520	524184	26474	827570	0	511335	145244	287	1252	0	0	0	0	0	235	533501	3864044	147018
277	2018-06-14 21:32:36	23842860650530399	612.97	82794	0.007404	15.79	7.4	7.404	13.81	12.21	0.05	1035693	524184	26506	827570	0	511508	145264	287	1252	0	0	0	0	0	235	533631	3864076	147038
278	2018-06-14 21:42:37	23842860650530399	612.97	82795	0.007403	15.8	7.4	7.403	13.81	12.21	0.05	1035855	524184	26547	827570	0	511670	145278	287	1253	0	0	0	0	0	235	533736	3864103	147053
279	2018-06-14 21:52:36	23842860650530399	612.97	82796	0.007403	15.8	7.4	7.403	13.82	12.21	0.05	1036032	524184	26586	827570	0	511847	145290	287	1253	0	0	0	0	0	235	533869	3864137	147065
280	2018-06-14 22:02:38	23842860650530399	612.97	82796	0.007403	15.8	7.4	7.403	13.82	12.21	0.05	1036175	524184	26606	827570	0	511990	145296	287	1253	0	0	0	0	0	236	533980	3864191	147072
281	2018-06-14 22:12:40	23842860650530399	612.97	82797	0.007403	15.8	7.4	7.403	13.82	12.21	0.05	1036321	524184	26633	828234	0	512136	145308	287	1254	0	0	0	0	0	236	534085	3864230	147085
282	2018-06-14 22:22:39	23842860650530399	612.97	82797	0.007403	15.8	7.4	7.403	13.82	12.2	0.05	1036450	524184	26661	828234	0	512265	145314	287	1255	0	0	0	0	0	236	534180	3864279	147092
283	2018-06-14 22:32:41	23842860650530399	612.97	82798	0.007403	15.8	7.4	7.403	13.83	12.2	0.05	1036605	524184	26696	828234	0	512420	145325	287	1255	0	0	0	0	0	236	534294	3864313	147103
284	2018-06-14 22:43:13	23842860650530399	612.97	82799	0.007403	15.8	7.4	7.403	13.83	12.2	0.05	1036756	524184	26728	828234	0	512571	145329	288	1255	0	0	0	0	0	236	534397	3864360	147108
285	2018-06-14 22:52:32	23842860650530399	612.97	82799	0.007403	15.8	7.4	7.403	13.83	12.2	0.05	1036884	524184	26760	828234	0	512699	145336	288	1255	0	0	0	0	0	236	534485	3864401	147115
286	2018-06-14 23:02:29	23842860650530399	612.97	82799	0.007403	15.8	7.4	7.403	13.83	12.2	0.05	1036996	524184	26789	828234	0	512811	145346	288	1255	0	0	0	0	0	236	534557	3864426	147125
287	2018-06-14 23:12:29	23842860650530399	612.97	82799	0.007403	15.8	7.4	7.403	13.83	12.2	0.05	1037109	524184	26811	828345	0	512924	145352	288	1255	0	0	0	0	0	236	534640	3864462	147131
288	2018-06-14 23:22:28	23842860650530399	612.97	82799	0.007403	15.8	7.4	7.403	13.84	12.2	0.05	1037209	524184	26828	828345	0	513024	145363	288	1255	0	0	0	0	0	236	534718	3864496	147142
289	2018-06-14 23:32:29	23842860650530399	612.97	82799	0.007403	15.8	7.4	7.403	13.84	12.19	0.05	1037314	524184	26850	828788	0	513129	145370	288	1255	0	0	0	0	0	236	534795	3864533	147149
290	2018-06-14 23:42:30	23842860650530399	612.97	82799	0.007403	15.8	7.4	7.403	13.84	12.19	0.05	1037413	524184	26862	828788	0	513228	145378	288	1255	0	0	0	0	0	236	534879	3864552	147157
291	2018-06-14 23:52:30	23842860650530399	612.97	82799	0.007403	15.8	7.4	7.403	13.84	12.19	0.05	1037509	524184	26879	828788	0	513324	145382	288	1255	0	0	0	0	0	236	534947	3864575	147161
292	2018-06-15 00:02:32	23842860650530399	612.97	82799	0.007403	15.8	7.4	7.403	13.84	12.19	0.05	1037588	524184	26894	828788	0	513403	145385	288	1255	0	0	0	0	0	236	535009	3864607	147164
293	2018-06-15 00:12:31	23842860650530399	612.97	82799	0.007403	15.8	7.4	7.403	13.85	12.19	0.05	1037667	524184	26913	828955	0	513482	145390	288	1255	0	0	0	0	0	236	535066	3864638	147169
294	2018-06-15 00:22:32	23842860650530399	612.97	82799	0.007403	15.8	7.4	7.403	13.85	12.19	0.05	1037742	524184	26926	828955	0	513557	145395	288	1255	0	0	0	0	0	236	535123	3864657	147174
295	2018-06-15 00:32:34	23842860650530399	612.97	82799	0.007403	15.8	7.4	7.403	13.85	12.19	0.05	1037802	524184	26936	828955	0	513617	145400	288	1255	0	0	0	0	0	236	535165	3864671	147179
296	2018-06-15 00:42:34	23842860650530399	612.97	82799	0.007403	15.8	7.4	7.403	13.85	12.19	0.05	1037862	524184	26950	828955	0	513677	145404	288	1255	0	0	0	0	0	236	535207	3864682	147183
297	2018-06-15 00:52:35	23842860650530399	612.97	82799	0.007403	15.8	7.4	7.403	13.85	12.19	0.05	1037929	524184	26971	829343	0	513744	145406	288	1255	0	0	0	0	0	236	535252	3864694	147185
298	2018-06-15 01:02:34	23842860650530399	612.97	82799	0.007403	15.8	7.4	7.403	13.85	12.19	0.05	1037984	524184	26980	829343	0	513799	145414	288	1255	0	0	0	0	0	236	535292	3864699	147193
299	2018-06-15 01:12:34	23842860650530399	612.97	82799	0.007403	15.8	7.4	7.403	13.85	12.19	0.05	1038022	524184	26988	829343	0	513837	145418	288	1255	0	0	0	0	0	236	535315	3864709	147197
300	2018-06-15 01:22:35	23842860650530399	612.97	82799	0.007403	15.8	7.4	7.403	13.85	12.19	0.05	1038052	524184	26993	829343	0	513867	145420	288	1255	0	0	0	0	0	236	535340	3864718	147199
301	2018-06-15 01:32:47	23842860650530399	612.97	82799	0.007403	15.8	7.4	7.403	13.85	12.19	0.05	1038094	524184	26998	829343	0	513909	145422	288	1255	0	0	0	0	0	236	535373	3864725	147201
302	2018-06-15 01:42:36	23842860650530399	612.97	82799	0.007403	15.8	7.4	7.403	13.85	12.19	0.05	1038126	524184	27009	829343	0	513941	145423	288	1255	0	0	0	0	0	236	535394	3864732	147202
303	2018-06-15 01:52:37	23842860650530399	612.97	82799	0.007403	15.8	7.4	7.403	13.85	12.18	0.05	1038154	524184	27015	829343	0	513969	145426	288	1255	0	0	0	0	0	236	535416	3864736	147205
304	2018-06-15 02:02:39	23842860650530399	612.97	82799	0.007403	15.8	7.4	7.403	13.85	12.18	0.05	1038182	524184	27029	829343	0	513997	145427	288	1255	0	0	0	0	0	236	535426	3864740	147206
305	2018-06-15 02:12:38	23842860650530399	612.97	82799	0.007403	15.8	7.4	7.403	13.85	12.18	0.05	1038219	524184	27040	829343	0	514034	145429	288	1255	0	0	0	0	0	236	535451	3864751	147208
306	2018-06-15 02:22:40	23842860650530399	612.97	82799	0.007403	15.8	7.4	7.403	13.85	12.18	0.05	1038234	524184	27045	829343	0	514049	145434	288	1255	0	0	0	0	0	236	535461	3864755	147213
307	2018-06-15 02:32:40	23842860650530399	612.97	82799	0.007403	15.8	7.4	7.403	13.86	12.18	0.05	1038258	524184	27046	829343	0	514073	145435	288	1255	0	0	0	0	0	236	535483	3864754	147214
308	2018-06-15 02:42:40	23842860650530399	612.97	82799	0.007403	15.8	7.4	7.403	13.86	12.18	0.05	1038286	524184	27053	829343	0	514101	145436	288	1255	0	0	0	0	0	236	535501	3864752	147215
309	2018-06-15 02:52:55	23842860650530399	612.97	82799	0.007403	15.8	7.4	7.403	13.86	12.18	0.05	1038304	524184	27058	829343	0	514119	145437	288	1255	0	0	0	0	0	236	535517	3864750	147216
310	2018-06-15 03:02:41	23842860650530399	612.97	82799	0.007403	15.8	7.4	7.403	13.86	12.18	0.05	1038324	524184	27063	829343	0	514139	145439	288	1255	0	0	0	0	0	236	535531	3864754	147218
311	2018-06-15 03:12:58	23842860650530399	612.97	82799	0.007403	15.8	7.4	7.403	13.86	12.18	0.05	1038331	524184	27066	829343	0	514146	145440	288	1255	0	0	0	0	0	236	535533	3864753	147219
312	2018-06-15 03:22:41	23842860650530399	612.97	82799	0.007403	15.8	7.4	7.403	13.86	12.18	0.05	1038345	524184	27067	829343	0	514160	145440	288	1255	0	0	0	0	0	236	535545	3864759	147219
313	2018-06-15 03:32:42	23842860650530399	612.97	82799	0.007403	15.8	7.4	7.403	13.86	12.18	0.05	1038352	524184	27068	829343	0	514167	145440	288	1255	0	0	0	0	0	236	535551	3864760	147219
314	2018-06-15 03:42:43	23842860650530399	612.97	82799	0.007403	15.8	7.4	7.403	13.86	12.18	0.05	1038371	524184	27070	829343	0	514186	145442	288	1255	0	0	0	0	0	236	535563	3864755	147221
315	2018-06-15 03:52:44	23842860650530399	612.97	82799	0.007403	15.8	7.4	7.403	13.86	12.18	0.05	1038382	524184	27072	829343	0	514197	145442	288	1255	0	0	0	0	0	236	535572	3864756	147221
316	2018-06-15 04:02:46	23842860650530399	612.97	82799	0.007403	15.8	7.4	7.403	13.86	12.18	0.05	1038388	524184	27073	829343	0	514203	145443	288	1255	0	0	0	0	0	236	535576	3864760	147222
317	2018-06-15 04:12:47	23842860650530399	612.97	82799	0.007403	15.8	7.4	7.403	13.86	12.18	0.05	1038400	524184	27073	829343	0	514215	145444	288	1255	0	0	0	0	0	236	535587	3864762	147223
318	2018-06-15 04:22:46	23842860650530399	612.97	82799	0.007403	15.8	7.4	7.403	13.86	12.18	0.05	1038410	524184	27076	829343	0	514225	145445	288	1255	0	0	0	0	0	236	535594	3864761	147224
319	2018-06-15 04:32:46	23842860650530399	612.97	82799	0.007403	15.8	7.4	7.403	13.86	12.18	0.05	1038423	524184	27080	829343	0	514238	145445	288	1255	0	0	0	0	0	236	535602	3864759	147224
320	2018-06-15 04:42:47	23842860650530399	612.97	82799	0.007403	15.8	7.4	7.403	13.86	12.18	0.05	1038432	524184	27084	829343	0	514247	145445	288	1255	0	0	0	0	0	236	535607	3864762	147224
321	2018-06-15 04:52:52	23842860650530399	612.97	82799	0.007403	15.8	7.4	7.403	13.86	12.18	0.05	1038454	524184	27087	829343	0	514269	145447	288	1255	0	0	0	0	0	236	535626	3864763	147226
322	2018-06-15 05:02:47	23842860650530399	612.97	82799	0.007403	15.8	7.4	7.403	13.86	12.18	0.05	1038466	524184	27088	829343	0	514281	145448	288	1255	0	0	0	0	0	236	535634	3864764	147227
323	2018-06-15 05:13:10	23842860650530399	612.97	82799	0.007403	15.8	7.4	7.403	13.86	12.18	0.05	1038483	524184	27095	829343	0	514298	145448	288	1255	0	0	0	0	0	236	535648	3864768	147227
324	2018-06-15 05:22:48	23842860650530399	612.97	82799	0.007403	15.8	7.4	7.403	13.86	12.18	0.05	1038493	524184	27097	829343	0	514308	145448	288	1255	0	0	0	0	0	236	535654	3864768	147227
325	2018-06-15 05:32:50	23842860650530399	612.97	82799	0.007403	15.8	7.4	7.403	13.86	12.18	0.05	1038504	524184	27099	829343	0	514319	145448	288	1255	0	0	0	0	0	236	535664	3864768	147227
326	2018-06-15 05:42:55	23842860650530399	612.97	82799	0.007403	15.8	7.4	7.403	13.86	12.18	0.05	1038520	524184	27100	829343	0	514335	145449	288	1255	0	0	0	0	0	236	535677	3864769	147228
327	2018-06-15 05:52:51	23842860650530399	612.97	82799	0.007403	15.8	7.4	7.403	13.86	12.18	0.05	1038533	524184	27103	829343	0	514348	145451	288	1255	0	0	0	0	0	236	535686	3864775	147230
328	2018-06-15 06:02:52	23842860650530399	612.97	82799	0.007403	15.8	7.4	7.403	13.86	12.18	0.05	1038548	524184	27106	829343	0	514363	145454	288	1255	0	0	0	0	0	236	535696	3864778	147233
329	2018-06-15 06:12:52	23842860650530399	612.97	82799	0.007403	15.8	7.4	7.403	13.86	12.18	0.05	1038561	524184	27109	829343	0	514376	145456	288	1255	0	0	0	0	0	236	535706	3864781	147235
330	2018-06-15 06:22:52	23842860650530399	612.97	82799	0.007403	15.8	7.4	7.403	13.86	12.18	0.05	1038594	524184	27112	829343	0	514409	145459	288	1255	0	0	0	0	0	236	535733	3864787	147238
331	2018-06-15 06:32:52	23842860650530399	612.97	82799	0.007403	15.8	7.4	7.403	13.86	12.18	0.05	1038621	524184	27120	829343	0	514436	145459	288	1255	0	0	0	0	0	236	535751	3864793	147238
332	2018-06-15 06:42:53	23842860650530399	612.97	82799	0.007403	15.8	7.4	7.403	13.86	12.18	0.05	1038648	524184	27123	829343	0	514463	145460	288	1255	0	0	0	0	0	236	535772	3864799	147239
333	2018-06-15 06:52:54	23842860650530399	612.97	82799	0.007403	15.8	7.4	7.403	13.86	12.18	0.05	1038692	524184	27132	829343	0	514507	145464	288	1255	0	0	0	0	0	236	535802	3864805	147243
334	2018-06-15 07:02:54	23842860650530399	612.97	82799	0.007403	15.8	7.4	7.403	13.86	12.18	0.05	1038729	524184	27141	829343	0	514544	145468	288	1255	0	0	0	0	0	236	535827	3864818	147247
335	2018-06-15 07:12:56	23842860650530399	612.97	82799	0.007403	15.8	7.4	7.403	13.86	12.18	0.05	1038761	524184	27154	829343	0	514576	145470	288	1255	0	0	0	0	0	236	535849	3864821	147249
336	2018-06-15 07:22:54	23842860650530399	612.97	82799	0.007403	15.8	7.4	7.403	13.87	12.18	0.05	1038793	524184	27165	829343	0	514608	145473	288	1255	0	0	0	0	0	236	535868	3864831	147252
337	2018-06-15 07:32:55	23842860650530399	612.97	82799	0.007403	15.8	7.4	7.403	13.87	12.18	0.05	1038834	524184	27176	829343	0	514649	145476	288	1255	0	0	0	0	0	236	535897	3864846	147255
338	2018-06-15 07:42:58	23842860650530399	612.97	82799	0.007403	15.8	7.4	7.403	13.87	12.18	0.05	1038880	524184	27190	829343	0	514695	145480	288	1255	0	0	0	0	0	236	535935	3864853	147259
339	2018-06-15 07:52:59	23842860650530399	612.97	82799	0.007403	15.8	7.4	7.403	13.87	12.18	0.05	1038959	524184	27205	829343	0	514774	145485	288	1256	0	0	0	0	0	236	535994	3864867	147265
340	2018-06-15 08:02:59	23842860650530399	612.97	82799	0.007403	15.8	7.4	7.403	13.87	12.18	0.05	1039005	524184	27215	829343	0	514820	145493	288	1256	0	0	0	0	0	236	536028	3864881	147273
341	2018-06-15 08:13:03	23842860650530399	612.97	82799	0.007403	15.8	7.4	7.403	13.87	12.18	0.05	1039053	524184	27227	829343	0	514868	145496	288	1256	0	0	0	0	0	236	536066	3864899	147276
342	2018-06-15 08:22:59	23842860650530399	612.97	82799	0.007403	15.8	7.4	7.403	13.87	12.18	0.05	1039097	524184	27234	829343	0	514912	145501	288	1256	0	0	0	0	0	236	536097	3864922	147281
343	2018-06-15 08:32:59	23842860650530399	612.97	82799	0.007403	15.8	7.4	7.403	13.87	12.18	0.05	1039160	524184	27243	829343	0	514975	145504	288	1256	0	0	0	0	0	236	536142	3864935	147284
344	2018-06-15 08:43:01	23842860650530399	612.97	82799	0.007403	15.8	7.4	7.403	13.87	12.18	0.05	1039201	524184	27245	829399	0	515016	145508	288	1256	0	0	0	0	0	236	536175	3864950	147288
345	2018-06-15 08:53:01	23842860650530399	612.97	82799	0.007403	15.8	7.4	7.403	13.87	12.18	0.05	1039261	524184	27253	829399	0	515076	145512	288	1256	0	0	0	0	0	236	536218	3864972	147292
346	2018-06-15 09:03:02	23842860650530399	612.97	82799	0.007403	15.8	7.4	7.403	13.87	12.17	0.05	1039316	524184	27262	829399	0	515131	145515	288	1256	0	0	0	0	0	236	536261	3864981	147295
347	2018-06-15 09:13:03	23842860650530399	612.97	82799	0.007403	15.8	7.4	7.403	13.88	12.17	0.05	1039357	524184	27268	829399	0	515172	145521	288	1256	0	0	0	0	0	236	536294	3864997	147301
348	2018-06-15 09:23:03	23842860650530399	612.97	82799	0.007403	15.8	7.4	7.403	13.88	12.17	0.05	1039445	524184	27282	829399	0	515260	145523	288	1256	0	0	0	0	0	236	536354	3865019	147303
349	2018-06-15 09:33:07	23842860650530399	612.97	82799	0.007403	15.8	7.4	7.403	13.88	12.17	0.05	1039492	524184	27290	829399	0	515307	145530	288	1256	0	0	0	0	0	236	536388	3865038	147310
350	2018-06-15 09:43:05	23842860650530399	612.97	82799	0.007403	15.8	7.4	7.403	13.88	12.17	0.05	1039545	524184	27297	829399	0	515360	145533	288	1256	0	0	0	0	0	236	536428	3865066	147313
351	2018-06-15 09:53:08	23842860650530399	612.97	82799	0.007403	15.8	7.4	7.403	13.88	12.17	0.05	1039597	524184	27310	829399	0	515412	145536	288	1256	0	0	0	0	0	236	536464	3865084	147316
352	2018-06-15 10:03:08	23842860650530399	612.97	82799	0.007403	15.8	7.4	7.403	13.88	12.17	0.05	1039656	524184	27318	829399	0	515471	145541	288	1257	0	0	0	0	0	236	536508	3865094	147322
353	2018-06-15 10:13:15	23842860650530399	612.97	82799	0.007403	15.8	7.4	7.403	13.88	12.17	0.05	1039691	524184	27331	829399	0	515506	145543	288	1257	0	0	0	0	0	236	536529	3865119	147324
354	2018-06-15 10:23:07	23842860650530399	612.97	82799	0.007403	15.8	7.4	7.403	13.88	12.17	0.05	1039740	524184	27340	829399	0	515555	145545	288	1257	0	0	0	0	0	236	536561	3865135	147326
355	2018-06-15 10:33:08	23842860650530399	612.97	82799	0.007403	15.8	7.4	7.403	13.88	12.17	0.05	1039791	524184	27353	829399	0	515606	145549	288	1257	0	0	0	0	0	236	536592	3865166	147330
356	2018-06-15 10:43:08	23842860650530399	612.97	82799	0.007403	15.8	7.4	7.403	13.88	12.17	0.05	1039832	524184	27365	829399	0	515647	145556	288	1257	0	0	0	0	0	236	536623	3865175	147337
357	2018-06-15 10:53:08	23842860650530399	612.97	82799	0.007403	15.8	7.4	7.403	13.88	12.17	0.05	1039879	524184	27379	829399	0	515694	145561	288	1257	0	0	0	0	0	236	536655	3865191	147342
358	2018-06-15 11:03:10	23842860650530399	612.97	82799	0.007403	15.8	7.4	7.403	13.88	12.17	0.05	1039913	524184	27387	829399	0	515728	145563	288	1257	0	0	0	0	0	236	536679	3865206	147344
359	2018-06-15 11:13:10	23842860650530399	612.97	82799	0.007403	15.8	7.4	7.403	13.89	12.17	0.05	1039946	524184	27389	829399	0	515761	145563	288	1257	0	0	0	0	0	236	536702	3865229	147344
360	2018-06-15 11:23:11	23842860650530399	612.97	82799	0.007403	15.8	7.4	7.403	13.89	12.17	0.05	1039980	524184	27399	829399	0	515795	145568	288	1257	0	0	0	0	0	236	536721	3865246	147349
361	2018-06-15 11:33:11	23842860650530399	612.97	82799	0.007403	15.8	7.4	7.403	13.89	12.17	0.05	1040024	524184	27409	829399	0	515839	145573	288	1257	0	0	0	0	0	236	536749	3865262	147354
362	2018-06-15 11:43:13	23842860650530399	612.97	82799	0.007403	15.8	7.4	7.403	13.89	12.17	0.05	1040079	524184	27418	830289	0	515894	145581	288	1257	0	0	0	0	0	236	536788	3865282	147362
363	2018-06-15 11:53:25	23842860650530399	612.97	82799	0.007403	15.8	7.4	7.403	13.89	12.17	0.05	1040120	524184	27425	830289	0	515935	145585	288	1257	0	0	0	0	0	236	536810	3865297	147366
364	2018-06-15 12:03:28	23842860650530399	612.97	82799	0.007403	15.8	7.4	7.403	13.89	12.17	0.05	1040159	524184	27439	830289	0	515974	145588	288	1257	0	0	0	0	0	236	536829	3865306	147369
365	2018-06-15 12:13:28	23842860650530399	612.97	82799	0.007403	15.8	7.4	7.403	13.89	12.17	0.05	1040199	524184	27454	830289	0	516014	145593	288	1257	0	0	0	0	0	236	536852	3865319	147374
366	2018-06-15 12:23:16	23842860650530399	612.97	82799	0.007403	15.8	7.4	7.403	13.89	12.17	0.05	1040225	524184	27460	830289	0	516040	145595	288	1257	0	0	0	0	0	236	536864	3865325	147376
367	2018-06-15 12:33:16	23842860650530399	612.97	82799	0.007403	15.8	7.4	7.403	13.89	12.17	0.05	1040257	524184	27467	830289	0	516072	145596	287	1257	0	0	0	0	0	236	536881	3865333	147376
368	2018-06-15 12:43:16	23842860650530399	612.97	82799	0.007403	15.8	7.4	7.403	13.89	12.17	0.05	1040291	524184	27475	831627	0	516106	145597	287	1258	0	0	0	0	0	235	536905	3865348	147377
369	2018-06-15 12:53:15	23842860650530399	612.97	82799	0.007403	15.8	7.4	7.403	13.89	12.17	0.05	1040326	524184	27486	831627	0	516141	145598	287	1258	0	0	0	0	0	235	536931	3865360	147378
370	2018-06-15 13:03:17	23842860650530399	612.97	82799	0.007403	15.8	7.4	7.403	13.89	12.17	0.05	1040363	524184	27493	831627	0	516178	145601	287	1258	0	0	0	0	0	235	536956	3865380	147381
371	2018-06-15 13:13:17	23842860650530399	612.97	82799	0.007403	15.8	7.4	7.403	13.89	12.17	0.05	1040409	524184	27507	831627	0	516224	145604	287	1258	0	0	0	0	0	235	536988	3865395	147384
372	2018-06-15 13:23:20	23842860650530399	612.97	82799	0.007403	15.8	7.4	7.403	13.89	12.17	0.05	1040438	524184	27516	831627	0	516253	145604	287	1258	0	0	0	0	0	235	537004	3865415	147384
373	2018-06-15 13:33:33	23842860650530399	612.97	82799	0.007403	15.8	7.4	7.403	13.89	12.17	0.05	1040455	524184	27521	831627	0	516270	145604	287	1258	0	0	0	0	0	235	537015	3865436	147384
374	2018-06-15 13:43:20	23842860650530399	612.97	82799	0.007403	15.8	7.4	7.403	13.89	12.17	0.05	1040493	524184	27529	831627	0	516308	145609	287	1258	0	0	0	0	0	235	537047	3865454	147389
375	2018-06-15 13:53:21	23842860650530399	612.97	82799	0.007403	15.8	7.4	7.403	13.89	12.16	0.05	1040528	524184	27535	831627	0	516343	145611	287	1258	0	0	0	0	0	235	537074	3865469	147391
376	2018-06-15 14:03:22	23842860650530399	612.97	82799	0.007403	15.8	7.4	7.403	13.89	12.16	0.05	1040554	524184	27543	831627	0	516369	145611	287	1258	0	0	0	0	0	235	537086	3865489	147391
377	2018-06-15 14:13:23	23842860650530399	612.97	82799	0.007403	15.8	7.4	7.403	13.89	12.16	0.05	1040583	524184	27548	831627	0	516398	145615	288	1258	0	0	0	0	0	235	537105	3865497	147396
378	2018-06-15 14:23:21	23842860650530399	612.97	82799	0.007403	15.8	7.4	7.403	13.9	12.16	0.05	1040619	524184	27556	831627	0	516434	145617	288	1258	0	0	0	0	0	235	537128	3865510	147398
379	2018-06-15 14:24:33		0	0	0	0	0	0	13.9	13.99	0.05	1040619	524185	27556	831627	516434	516434	145617	288	1258	79	2542	64	3	5	235	537128	3865512	147398
380	2018-06-15 14:34:34		0	0	0	0	0	0	13.9	13.99	0.05	1040669	524185	27571	831627	516484	516484	145621	288	1258	79	2542	64	3	5	235	537161	3865523	147402
381	2018-06-15 14:44:34		0	0	0	0	0	0	13.9	13.99	0.05	1040703	524185	27589	831627	516518	516518	145622	288	1258	79	2542	64	3	5	235	537178	3865540	147403
382	2018-06-15 14:54:36		0	0	0	0	0	0	13.9	13.99	0.05	1040741	524185	27604	831627	516556	516556	145625	288	1258	79	2542	64	3	5	235	537201	3865554	147406
383	2018-06-15 15:04:37		0	0	0	0	0	0	13.9	13.99	0.05	1040776	524185	27614	831627	516591	516591	145627	288	1258	79	2542	64	3	5	235	537224	3865562	147408
384	2018-06-15 15:14:38		0	0	0	0	0	0	13.9	13.99	0.05	1040817	524185	27629	831627	516632	516632	145629	288	1258	79	2542	64	3	5	235	537247	3865583	147410
385	2018-06-15 15:24:36		0	0	0	0	0	0	13.9	13.99	0.05	1040854	524185	27646	831627	516669	516669	145630	288	1258	79	2542	64	3	5	235	537269	3865598	147411
386	2018-06-15 15:34:38		0	0	0	0	0	0	13.9	13.99	0.05	1040890	524185	27663	831627	516705	516705	145633	288	1258	79	2542	64	3	5	235	537292	3865620	147414
387	2018-06-15 15:44:38		0	0	0	0	0	0	13.9	13.99	0.05	1040925	524185	27679	831627	516740	516740	145634	288	1258	79	2542	64	3	5	235	537305	3865641	147415
388	2018-06-15 15:54:38		0	0	0	0	0	0	13.9	13.99	0.05	1040963	524185	27691	831627	516778	516778	145635	288	1258	79	2542	64	3	5	235	537327	3865657	147416
389	2018-06-15 16:04:42		0	0	0	0	0	0	13.9	13.99	0.05	1040995	524185	27706	831627	516810	516810	145637	288	1258	79	2542	64	3	5	235	537345	3865667	147418
390	2018-06-15 16:14:40		0	0	0	0	0	0	13.9	13.99	0.05	1041025	524185	27710	831627	516840	516840	145639	288	1258	79	2542	64	3	5	235	537368	3865681	147420
391	2018-06-25 18:45:59	23842860650530399	612.97	82799	0.007403	15.8	7.4	7.403	13.92	12.09	0.06	1046804	524184	29963	832521	0	522619	145980	289	1262	0	0	0	0	0	235	540588	3884408	147766
392	2018-06-25 18:55:59	23842860650530399	612.97	82799	0.007403	15.8	7.4	7.403	13.92	12.09	0.06	1046804	524184	29963	832521	0	522619	145980	289	1262	0	0	0	0	0	235	540588	3884423	147766
393	2018-06-25 19:05:59	23842860650530399	615.45	82854	0.007428	15.74	7.43	7.428	13.92	12.13	0.06	1046804	526280	29963	832521	0	522619	145980	289	1262	0	0	0	0	0	235	540588	3884429	147766
394	2018-06-25 19:16:12	23842860650530399	625.69	83598	0.007485	15.63	7.49	7.485	13.94	12.23	0.06	1054989	534835	29964	842316	0	522621	147200	291	1267	0	0	0	0	0	235	541515	3884433	148993
395	2018-06-25 19:26:02	23842860650530399	630.4	84783	0.007435	15.72	7.43	7.435	13.94	12.11	0.06	1054989	539393	29964	842316	0	522621	147200	292	1267	0	0	0	0	0	235	541515	3884442	148994
396	2018-06-25 19:36:03	23842860650530399	639.51	85503	0.007479	15.59	7.48	7.479	13.94	12.18	0.06	1054989	548353	29964	842316	0	522621	147200	292	1273	0	0	0	0	0	236	541515	3884453	149001
397	2018-06-25 19:46:04	23842860650530399	660.44	87788	0.007523	15.45	7.52	7.523	13.94	12.2	0.06	1054989	568151	29964	842316	0	522621	147200	295	1283	0	0	0	0	0	240	541515	3884471	149018
398	2018-06-25 19:56:13	23842860650530399	687.4	90253	0.007616	15.19	7.62	7.616	13.94	12.35	0.06	1054989	594062	29964	842316	0	522621	147200	298	1297	0	0	0	0	0	242	541515	3884489	149037
399	2018-06-25 20:06:08	23842860650530399	715.14	94375	0.007578	15.2	7.58	7.578	13.94	12.17	0.06	1054989	620795	29964	842316	0	522621	147200	301	1306	0	0	0	0	0	244	541515	3884507	149051
400	2018-06-25 20:16:06	23842860650530399	742.77	97196	0.007642	15.02	7.64	7.642	13.94	12.26	0.06	1054989	647044	29964	842316	0	522621	147200	303	1312	0	0	0	0	0	246	541515	3884522	149061
