1	2018-04-14 14:58:10		0	0	0	0	0	0	0.02	0.35	0.01	852	0	5	664	852	852	3	0	2	0	643	3676895	5
2	2018-04-14 15:08:11		0	0	0	0	0	0	0.05	0.5	0	2585	0	7	1923	2585	2585	13	0	4	0	1850	3676910	17
3	2018-04-14 15:18:11		0	0	0	0	0	0	0.07	0.6	0	3487	0	11	2601	3487	3487	21	0	7	0	2477	3676913	28
4	2018-04-14 15:28:14		0	0	0	0	0	0	0.08	0.66	0	4232	0	14	3131	4232	4232	28	1	8	1	2988	3676927	38
5	2018-04-14 15:38:20		0	0	0	0	0	0	0.09	0.68	0	4863	0	15	3324	4863	4863	33	2	9	1	3386	3676937	45
6	2018-04-14 15:48:15		0	0	0	0	0	0	0.1	0.71	0	5356	0	20	3867	5356	5356	38	2	9	1	3684	3676951	50
7	2018-04-14 15:58:16		0	0	0	0	0	0	0.11	0.71	0	5913	0	26	4251	5913	5913	42	2	9	1	4039	3676965	54
8	2018-04-14 16:08:14		0	0	0	0	0	0	0.12	0.75	0	6419	0	27	4408	6419	6419	48	2	9	1	4408	3676981	60
9	2018-04-14 16:18:16		0	0	0	0	0	0	0.13	0.9	0	6897	0	27	4869	6897	6897	62	2	10	1	4635	3677002	75
10	2018-04-14 16:28:16		0	0	0	0	0	0	0.13	0.94	0	7364	0	31	5257	7364	7364	69	2	12	1	4880	3677002	84
11	2018-04-14 16:38:15		0	0	0	0	0	0	0.14	1.04	0	7783	0	31	5449	7783	7783	81	2	12	1	5324	3677017	96
12	2018-04-14 16:48:16		0	0	0	0	0	0	0.15	1.15	0	8192	0	33	5765	8192	8192	94	2	14	1	5512	3677039	111
13	2018-04-14 16:58:16		0	0	0	0	0	0	0.16	1.15	0	8619	0	36	6061	8619	8619	99	2	14	1	5807	3677054	116
14	2018-04-14 17:08:18		0	0	0	0	0	0	0.16	1.21	0	8905	0	38	6257	8905	8905	108	2	14	1	5977	3677071	125
15	2018-04-14 17:18:17		0	0	0	0	0	0	0.16	1.27	0	9078	0	42	6362	9078	9078	115	2	14	1	6061	3677084	132
16	2018-04-14 17:28:18		0	0	0	0	0	0	0.17	1.34	0	9273	0	45	6389	9273	9273	124	2	14	1	6114	3677093	141
17	2018-04-14 17:38:18		0	0	0	0	0	0	0.17	1.42	0	9469	0	47	6571	9469	9469	134	2	16	1	6226	3677116	153
18	2018-04-14 17:48:19		0	0	0	0	0	0	0.17	1.46	0.01	9629	0	51	6669	9629	9629	141	2	16	1	6301	3677137	160
19	2018-04-14 17:58:19		0	0	0	0	0	0	0.17	1.46	0.01	9790	0	52	6740	9790	9790	143	2	16	1	6402	3677152	162
20	2018-04-14 18:08:20		0	0	0	0	0	0	0.18	1.52	0.01	9932	0	52	6879	9932	9932	151	2	17	1	6489	3677165	171
21	2018-04-14 18:18:20		0	0	0	0	0	0	0.18	1.6	0.01	10066	0	56	6961	10066	10066	161	2	17	1	6550	3677181	181
22	2018-04-14 18:28:21		0	0	0	0	0	0	0.18	1.67	0.01	10195	0	57	7105	10195	10195	170	2	17	1	6670	3677200	190
23	2018-04-14 18:38:21		0	0	0	0	0	0	0.18	1.69	0.01	10326	0	58	7189	10326	10326	175	2	17	1	6750	3677225	195
24	2018-04-14 18:48:23		0	0	0	0	0	0	0.19	1.76	0.01	10435	0	59	7304	10435	10435	184	2	17	1	6864	3677247	204
25	2018-04-14 18:58:22		0	0	0	0	0	0	0.19	1.76	0.01	10539	0	59	7369	10539	10539	185	2	17	1	6915	3677274	205
26	2018-04-14 19:08:23		0	0	0	0	0	0	0.19	1.75	0.01	10676	0	61	7520	10676	10676	187	2	17	1	7025	3677288	207
27	2018-04-14 19:18:29		0	0	0	0	0	0	0.19	1.74	0.01	10791	0	62	7580	10791	10791	188	2	17	1	7080	3677300	208
28	2018-04-14 19:28:28		0	0	0	0	0	0	0.19	1.74	0.01	10904	0	63	7645	10904	10904	190	2	17	1	7137	3677311	210
29	2018-04-14 19:38:29		0	0	0	0	0	0	0.2	1.74	0.01	11007	0	64	7726	11007	11007	192	2	17	1	7193	3677328	212
30	2018-04-14 19:48:29		0	0	0	0	0	0	0.2	1.74	0.01	11121	0	64	7772	11121	11121	194	2	17	1	7241	3677347	214
31	2018-04-14 19:58:29		0	0	0	0	0	0	0.2	1.73	0.01	11238	0	67	7864	11238	11238	194	2	17	1	7313	3677365	214
32	2018-04-14 20:08:33		0	0	0	0	0	0	0.2	1.72	0.01	11329	0	68	7909	11329	11329	195	2	17	1	7351	3677369	215
33	2018-04-14 20:18:32		0	0	0	0	0	0	0.2	1.71	0.01	11436	0	70	7995	11436	11436	195	2	17	1	7424	3677387	215
34	2018-04-14 20:28:31		0	0	0	0	0	0	0.2	1.69	0.01	11526	0	70	8062	11526	11526	195	2	17	1	7443	3677413	215
35	2018-04-14 20:38:34		0	0	0	0	0	0	0.2	1.68	0.01	11618	0	74	8128	11618	11618	195	2	17	1	7487	3677430	215
36	2018-04-14 20:48:32		0	0	0	0	0	0	0.21	1.66	0.01	11729	0	79	8186	11729	11729	195	2	17	1	7548	3677450	215
37	2018-04-14 20:58:34		0	0	0	0	0	0	0.21	1.65	0.01	11823	0	79	8249	11823	11823	195	2	17	1	7618	3677464	215
38	2018-04-14 21:08:34		0	0	0	0	0	0	0.21	1.64	0.01	11926	0	81	8308	11926	11926	196	2	17	1	7677	3677482	216
39	2018-04-14 21:18:33		0	0	0	0	0	0	0.21	1.64	0.01	12021	0	84	8381	12021	12021	197	2	17	1	7740	3677497	217
40	2018-04-14 21:28:34		0	0	0	0	0	0	0.21	1.64	0.01	12110	0	84	8442	12110	12110	198	2	17	1	7787	3677515	218
41	2018-04-14 21:38:36		0	0	0	0	0	0	0.21	1.64	0.01	12206	0	85	8487	12206	12206	200	2	17	1	7819	3677529	220
42	2018-04-14 21:48:38		0	0	0	0	0	0	0.21	1.63	0.01	12306	0	85	8545	12306	12306	200	2	17	1	7865	3677538	220
43	2018-04-14 21:58:37		0	0	0	0	0	0	0.22	1.61	0.01	12416	0	86	8616	12416	12416	200	2	17	1	7922	3677558	220
44	2018-04-14 22:08:38		0	0	0	0	0	0	0.22	1.6	0.01	12504	0	86	8696	12504	12504	200	2	17	1	7992	3677573	220
45	2018-04-14 22:18:41		0	0	0	0	0	0	0.22	1.59	0.01	12606	0	86	8795	12606	12606	200	2	17	1	8086	3677597	220
46	2018-04-14 22:28:39		0	0	0	0	0	0	0.22	1.57	0.01	12710	0	87	8867	12710	12710	200	2	17	1	8142	3677620	220
47	2018-04-14 22:38:39		0	0	0	0	0	0	0.22	1.56	0.01	12820	0	87	8947	12820	12820	200	2	17	1	8201	3677641	220
48	2018-04-14 22:48:39		0	0	0	0	0	0	0.22	1.55	0.01	12906	0	88	8993	12906	12906	200	2	17	1	8263	3677657	220
49	2018-04-14 22:58:40		0	0	0	0	0	0	0.23	1.55	0.01	13008	0	88	9082	13008	13008	201	2	17	1	8353	3677666	221
50	2018-04-14 23:08:42		0	0	0	0	0	0	0.23	1.54	0.01	13110	0	90	9237	13110	13110	202	2	17	1	8447	3677694	222
51	2018-04-14 23:18:41		0	0	0	0	0	0	0.23	1.53	0.01	13202	0	90	9259	13202	13202	202	2	17	1	8466	3677719	222
52	2018-04-14 23:28:42		0	0	0	0	0	0	0.23	1.52	0.01	13320	0	91	9310	13320	13320	202	2	17	1	8501	3677735	222
53	2018-04-14 23:38:42		0	0	0	0	0	0	0.23	1.51	0.01	13407	0	91	9381	13407	13407	203	2	17	1	8568	3677761	223
54	2018-04-14 23:48:38		0	0	0	0	0	0	0.23	1.51	0.01	13485	0	91	9405	13485	13485	204	2	17	1	8605	3677783	224
55	2018-04-14 23:58:40		0	0	0	0	0	0	0.24	1.5	0.01	13556	0	92	9496	13556	13556	204	2	17	1	8643	3677801	224
56	2018-04-15 00:08:40		0	0	0	0	0	0	0.24	1.5	0.01	13620	0	92	9525	13620	13620	204	2	17	1	8663	3677812	224
57	2018-04-15 00:18:40		0	0	0	0	0	0	0.24	1.49	0.01	13685	0	92	9582	13685	13685	204	2	17	1	8710	3677825	224
58	2018-04-15 00:28:41		0	0	0	0	0	0	0.24	1.49	0.01	13762	0	97	9628	13762	13762	205	3	17	1	8728	3677838	226
59	2018-04-15 00:38:41		0	0	0	0	0	0	0.24	1.48	0.01	13824	0	100	9724	13824	13824	205	3	17	1	8815	3677848	226
60	2018-04-15 00:48:42		0	0	0	0	0	0	0.24	1.48	0.01	13876	0	102	9750	13876	13876	205	3	17	1	8835	3677865	226
61	2018-04-15 00:58:43		0	0	0	0	0	0	0.24	1.47	0.01	13928	0	102	9771	13928	13928	205	3	18	1	8851	3677876	227
62	2018-04-15 01:08:42		0	0	0	0	0	0	0.24	1.47	0.01	13973	0	102	9831	13973	13973	205	3	18	1	8888	3677887	227
63	2018-04-15 01:18:42		0	0	0	0	0	0	0.24	1.46	0.01	14027	0	104	9892	14027	14027	205	3	18	1	8931	3677896	227
64	2018-04-15 01:28:43		0	0	0	0	0	0	0.24	1.46	0.01	14078	0	106	9943	14078	14078	205	3	18	1	8973	3677904	227
65	2018-04-15 01:38:46		0	0	0	0	0	0	0.24	1.45	0.01	14120	0	107	9961	14120	14120	205	3	18	1	8998	3677912	227
66	2018-04-15 01:48:45		0	0	0	0	0	0	0.25	1.45	0.01	14152	0	107	9996	14152	14152	205	3	18	1	9023	3677926	227
67	2018-04-15 01:58:47		0	0	0	0	0	0	0.25	1.44	0.01	14189	0	107	10017	14189	14189	205	3	18	1	9041	3677932	227
68	2018-04-15 02:08:48		0	0	0	0	0	0	0.25	1.44	0.01	14215	0	109	10059	14215	14215	205	3	18	1	9085	3677942	227
69	2018-04-15 02:18:48		0	0	0	0	0	0	0.25	1.44	0.01	14244	0	110	10094	14244	14244	205	3	18	1	9108	3677944	227
70	2018-04-15 02:28:46		0	0	0	0	0	0	0.25	1.44	0.01	14265	0	111	10097	14265	14265	205	3	18	1	9121	3677950	227
71	2018-04-15 02:38:46		0	0	0	0	0	0	0.25	1.44	0.01	14280	0	111	10113	14280	14280	205	3	18	1	9134	3677957	227
72	2018-04-15 02:48:49		0	0	0	0	0	0	0.25	1.44	0.01	14314	0	113	10159	14314	14314	206	3	18	1	9172	3677966	228
73	2018-04-15 02:58:48		0	0	0	0	0	0	0.25	1.44	0.01	14337	0	114	10168	14337	14337	206	3	18	1	9179	3677968	228
74	2018-04-15 03:08:50		0	0	0	0	0	0	0.25	1.43	0.01	14358	0	114	10169	14358	14358	206	3	18	1	9180	3677973	228
75	2018-04-15 03:18:49		0	0	0	0	0	0	0.25	1.43	0.01	14373	0	114	10181	14373	14373	206	3	18	1	9193	3677975	228
76	2018-04-15 03:28:50		0	0	0	0	0	0	0.25	1.43	0.01	14398	0	114	10194	14398	14398	206	3	18	1	9206	3677977	228
77	2018-04-15 03:38:52		0	0	0	0	0	0	0.25	1.43	0.01	14411	0	114	10194	14411	14411	206	3	18	1	9206	3677983	228
78	2018-04-15 03:48:52		0	0	0	0	0	0	0.25	1.43	0.01	14420	0	114	10194	14420	14420	206	3	18	1	9206	3677982	228
79	2018-04-15 03:58:54		0	0	0	0	0	0	0.25	1.43	0.01	14433	0	114	10194	14433	14433	206	3	18	1	9206	3677986	228
80	2018-04-15 04:08:56		0	0	0	0	0	0	0.25	1.43	0.01	14446	0	114	10194	14446	14446	206	3	18	1	9206	3677988	228
81	2018-04-15 04:18:54		0	0	0	0	0	0	0.25	1.42	0.01	14465	0	114	10203	14465	14465	206	3	18	1	9213	3677991	228
82	2018-04-15 04:28:53		0	0	0	0	0	0	0.25	1.42	0.01	14471	0	114	10204	14471	14471	206	3	18	1	9215	3677992	228
83	2018-04-15 04:38:54		0	0	0	0	0	0	0.25	1.42	0.01	14483	0	114	10258	14483	14483	206	3	18	1	9252	3677995	228
84	2018-04-15 04:48:54		0	0	0	0	0	0	0.25	1.42	0.01	14495	0	114	10271	14495	14495	206	3	18	1	9252	3677997	228
85	2018-04-15 04:58:57		0	0	0	0	0	0	0.25	1.42	0.01	14509	0	114	10287	14509	14509	206	3	18	1	9264	3677997	228
86	2018-04-15 05:08:55		0	0	0	0	0	0	0.25	1.42	0.01	14515	0	114	10289	14515	14515	206	3	18	1	9266	3678001	228
87	2018-04-15 05:19:02		0	0	0	0	0	0	0.25	1.42	0.01	14525	0	114	10291	14525	14525	206	3	18	1	9267	3678002	228
88	2018-04-15 05:29:07		0	0	0	0	0	0	0.25	1.42	0.01	14536	0	114	10304	14536	14536	206	3	18	1	9292	3678003	228
89	2018-04-15 05:39:05		0	0	0	0	0	0	0.25	1.42	0.01	14543	0	114	10304	14543	14543	206	3	18	1	9292	3678008	228
90	2018-04-15 05:48:59		0	0	0	0	0	0	0.25	1.42	0.01	14557	0	114	10304	14557	14557	206	3	18	1	9292	3678009	228
91	2018-04-15 05:58:59		0	0	0	0	0	0	0.25	1.41	0.01	14569	0	114	10306	14569	14569	206	3	18	1	9294	3678010	228
92	2018-04-15 06:08:59		0	0	0	0	0	0	0.25	1.41	0.01	14571	0	114	10311	14571	14571	206	3	18	1	9297	3678013	228
93	2018-04-15 06:18:59		0	0	0	0	0	0	0.25	1.41	0.01	14578	0	114	10311	14578	14578	206	3	18	1	9297	3678009	228
94	2018-04-15 06:29:00		0	0	0	0	0	0	0.25	1.41	0.01	14582	0	114	10318	14582	14582	206	3	18	1	9303	3678014	228
95	2018-04-15 06:39:01		0	0	0	0	0	0	0.25	1.41	0.01	14589	0	114	10318	14589	14589	206	3	18	1	9303	3678014	228
96	2018-04-15 06:49:01		0	0	0	0	0	0	0.25	1.41	0.01	14598	0	114	10326	14598	14598	206	3	18	1	9310	3678017	228
97	2018-04-15 06:59:02		0	0	0	0	0	0	0.25	1.41	0.01	14610	0	114	10326	14610	14610	206	3	18	1	9310	3678015	228
98	2018-04-15 07:09:04		0	0	0	0	0	0	0.25	1.41	0.01	14626	0	114	10350	14626	14626	206	3	18	1	9312	3678018	228
99	2018-04-15 07:19:05		0	0	0	0	0	0	0.25	1.41	0.01	14644	0	115	10369	14644	14644	206	3	18	1	9319	3678020	228
100	2018-04-15 07:29:10		0	0	0	0	0	0	0.25	1.4	0.01	14668	0	115	10404	14668	14668	206	3	18	1	9329	3678025	228
101	2018-04-15 07:39:03		0	0	0	0	0	0	0.25	1.4	0.01	14682	0	115	10404	14682	14682	206	3	18	1	9329	3678035	228
102	2018-04-15 07:49:04		0	0	0	0	0	0	0.25	1.4	0.01	14708	0	115	10419	14708	14708	206	3	18	1	9371	3678037	228
103	2018-04-15 07:59:05		0	0	0	0	0	0	0.25	1.4	0.01	14743	0	115	10424	14743	14743	206	3	18	1	9374	3678046	228
104	2018-04-15 08:09:06		0	0	0	0	0	0	0.26	1.39	0.01	14773	0	116	10439	14773	14773	206	3	18	1	9397	3678055	228
105	2018-04-15 08:19:07		0	0	0	0	0	0	0.26	1.39	0.01	14813	0	118	10460	14813	14813	206	3	18	1	9414	3678058	228
106	2018-04-15 08:29:05		0	0	0	0	0	0	0.26	1.39	0.01	14856	0	119	10469	14856	14856	206	3	18	1	9421	3678067	228
107	2018-04-15 08:39:06		0	0	0	0	0	0	0.26	1.38	0.01	14917	0	121	10513	14917	14917	206	3	18	1	9457	3678076	228
108	2018-04-15 08:49:06		0	0	0	0	0	0	0.26	1.38	0.01	14957	0	121	10531	14957	14957	206	3	18	1	9472	3678081	228
109	2018-04-15 08:59:08		0	0	0	0	0	0	0.26	1.38	0.01	15006	0	121	10572	15006	15006	207	3	18	1	9486	3678090	229
110	2018-04-15 09:09:09		0	0	0	0	0	0	0.26	1.37	0.01	15058	0	121	10595	15058	15058	207	3	18	1	9505	3678101	229
111	2018-04-15 09:19:11		0	0	0	0	0	0	0.26	1.38	0.01	15112	0	121	10613	15112	15112	208	3	18	1	9520	3678109	230
112	2018-04-15 09:29:11		0	0	0	0	0	0	0.26	1.37	0.01	15177	0	123	10683	15177	15177	208	3	18	1	9561	3678124	230
113	2018-04-15 09:39:11		0	0	0	0	0	0	0.26	1.36	0.01	15249	0	124	10715	15249	15249	208	3	18	1	9594	3678136	230
114	2018-04-15 09:49:10		0	0	0	0	0	0	0.26	1.36	0.01	15322	0	125	10768	15322	15322	208	3	18	1	9669	3678147	230
115	2018-04-15 09:59:11		0	0	0	0	0	0	0.26	1.35	0.01	15385	0	126	10852	15385	15385	208	3	18	1	9686	3678167	230
116	2018-04-15 10:09:12		0	0	0	0	0	0	0.26	1.35	0.01	15444	0	126	10899	15444	15444	208	3	18	1	9741	3678175	230
117	2018-04-15 10:19:10		0	0	0	0	0	0	0.27	1.34	0.01	15479	0	126	10916	15479	15479	208	3	18	1	9768	3678184	230
118	2018-04-15 10:29:12		0	0	0	0	0	0	0.27	1.34	0.01	15529	0	126	10944	15529	15529	208	3	18	1	9794	3678189	230
119	2018-04-15 10:39:12		0	0	0	0	0	0	0.27	1.34	0.01	15576	0	129	10967	15576	15576	209	3	18	1	9815	3678190	231
120	2018-04-15 10:49:13		0	0	0	0	0	0	0.27	1.34	0.01	15619	0	129	10978	15619	15619	209	3	18	1	9832	3678199	231
121	2018-04-15 10:59:13		0	0	0	0	0	0	0.27	1.33	0.01	15671	0	129	11023	15671	15671	209	3	18	1	9860	3678205	231
122	2018-04-15 11:09:17		0	0	0	0	0	0	0.27	1.33	0.01	15725	0	130	11050	15725	15725	209	3	18	1	9874	3678215	231
123	2018-04-15 11:19:15		0	0	0	0	0	0	0.27	1.33	0.01	15770	0	130	11099	15770	15770	209	3	18	1	9904	3678226	231
124	2018-04-15 11:29:16		0	0	0	0	0	0	0.27	1.32	0.01	15823	0	130	11121	15823	15823	209	3	18	1	9913	3678229	231
125	2018-04-15 11:39:16		0	0	0	0	0	0	0.27	1.32	0.01	15869	0	131	11155	15869	15869	209	3	18	1	9941	3678233	231
126	2018-04-15 11:49:17		0	0	0	0	0	0	0.27	1.31	0.01	15921	0	131	11155	15921	15921	209	3	18	1	9941	3678240	231
127	2018-04-15 11:59:17		0	0	0	0	0	0	0.27	1.31	0.01	15949	0	133	11159	15949	15949	209	3	18	1	9944	3678250	231
128	2018-04-15 12:09:19		0	0	0	0	0	0	0.27	1.31	0.01	15993	0	134	11229	15993	15993	209	3	18	1	9995	3678266	231
129	2018-04-15 12:19:17		0	0	0	0	0	0	0.27	1.3	0.01	16038	0	134	11254	16038	16038	209	3	18	1	10012	3678266	231
130	2018-04-15 12:29:19		0	0	0	0	0	0	0.27	1.3	0.01	16075	0	135	11267	16075	16075	209	3	18	1	10016	3678280	231
131	2018-04-15 12:39:19		0	0	0	0	0	0	0.27	1.3	0.01	16114	0	135	11270	16114	16114	209	3	18	1	10016	3678291	231
132	2018-04-15 12:49:19		0	0	0	0	0	0	0.27	1.29	0.01	16144	0	135	11310	16144	16144	209	3	18	1	10045	3678296	231
133	2018-04-15 12:59:19		0	0	0	0	0	0	0.27	1.29	0.01	16182	0	136	11322	16182	16182	209	3	18	1	10052	3678305	231
134	2018-04-15 13:09:22		0	0	0	0	0	0	0.27	1.29	0.01	16229	0	136	11345	16229	16229	209	3	18	1	10072	3678310	231
135	2018-04-15 13:19:23		0	0	0	0	0	0	0.27	1.28	0.01	16265	0	136	11369	16265	16265	209	3	18	1	10093	3678317	231
136	2018-04-15 13:29:24		0	0	0	0	0	0	0.28	1.28	0.01	16309	0	137	11419	16309	16309	209	3	18	1	10128	3678321	231
137	2018-04-15 13:39:23		0	0	0	0	0	0	0.28	1.28	0.01	16345	0	137	11427	16345	16345	209	3	18	1	10148	3678329	231
138	2018-04-15 13:49:22		0	0	0	0	0	0	0.28	1.28	0.01	16369	0	137	11427	16369	16369	209	3	18	1	10148	3678336	231
139	2018-04-15 13:59:22		0	0	0	0	0	0	0.28	1.27	0.01	16407	0	137	11450	16407	16407	209	3	18	1	10154	3678345	231
140	2018-04-15 14:09:24		0	0	0	0	0	0	0.28	1.28	0.01	16449	0	137	11477	16449	16449	210	3	18	1	10175	3678361	232
141	2018-04-15 14:19:25		0	0	0	0	0	0	0.28	1.27	0.01	16478	0	137	11508	16478	16478	210	3	18	1	10200	3678368	232
142	2018-04-15 14:29:25		0	0	0	0	0	0	0.28	1.27	0.01	16503	0	138	11516	16503	16503	210	3	18	1	10202	3678371	232
143	2018-04-15 14:39:26		0	0	0	0	0	0	0.28	1.27	0.01	16529	0	138	11527	16529	16529	210	3	18	1	10215	3678380	232
144	2018-04-15 14:49:26		0	0	0	0	0	0	0.28	1.27	0.01	16558	0	138	11536	16558	16558	210	3	18	1	10240	3678387	232
145	2018-04-15 14:59:29		0	0	0	0	0	0	0.28	1.27	0.01	16587	0	141	11579	16587	16587	211	3	18	1	10250	3678389	233
146	2018-04-15 15:09:30		0	0	0	0	0	0	0.28	1.27	0.01	16623	0	142	11604	16623	16623	211	3	18	1	10263	3678395	233
147	2018-04-15 15:19:32		0	0	0	0	0	0	0.28	1.27	0.01	16643	0	142	11604	16643	16643	211	3	18	1	10280	3678405	233
148	2018-04-15 15:29:31		0	0	0	0	0	0	0.28	1.26	0.01	16686	0	143	11644	16686	16686	211	3	18	1	10294	3678409	233
149	2018-04-15 15:39:32		0	0	0	0	0	0	0.28	1.26	0.01	16723	0	143	11705	16723	16723	211	3	18	1	10339	3678416	233
150	2018-04-15 15:49:31		0	0	0	0	0	0	0.28	1.26	0.01	16749	0	143	11718	16749	16749	211	3	18	1	10348	3678430	233
151	2018-04-15 15:59:30		0	0	0	0	0	0	0.28	1.26	0.01	16782	0	143	11747	16782	16782	211	3	18	1	10375	3678438	233
152	2018-04-15 16:09:31		0	0	0	0	0	0	0.28	1.26	0.01	16805	0	144	11788	16805	16805	211	3	18	1	10407	3678447	233
153	2018-04-15 16:19:32		0	0	0	0	0	0	0.28	1.25	0.01	16844	0	144	11788	16844	16844	211	3	18	1	10425	3678465	233
154	2018-04-15 16:29:33		0	0	0	0	0	0	0.28	1.25	0.01	16881	0	144	11800	16881	16881	211	3	18	1	10433	3678472	233
155	2018-04-15 16:39:33		0	0	0	0	0	0	0.28	1.25	0.01	16912	0	144	11821	16912	16912	211	3	18	1	10449	3678480	233
156	2018-04-15 16:49:33		0	0	0	0	0	0	0.28	1.25	0.01	16937	0	144	11849	16937	16937	211	3	18	1	10467	3678499	233
157	2018-04-15 16:59:37		0	0	0	0	0	0	0.29	1.24	0.01	16961	0	144	11890	16961	16961	211	3	18	1	10495	3678511	233
158	2018-04-15 17:09:35		0	0	0	0	0	0	0.29	1.24	0.01	16991	0	144	11922	16991	16991	211	3	18	1	10516	3678517	233
159	2018-04-15 17:19:36		0	0	0	0	0	0	0.29	1.24	0.01	17014	0	144	11977	17014	17014	211	3	18	1	10533	3678528	233
160	2018-04-15 17:29:37		0	0	0	0	0	0	0.29	1.24	0.01	17031	0	144	11977	17031	17031	211	3	18	1	10533	3678538	233
161	2018-04-15 17:39:36		0	0	0	0	0	0	0.29	1.24	0.01	17067	0	144	12012	17067	17067	211	3	18	1	10552	3678546	233
162	2018-04-15 17:49:36		0	0	0	0	0	0	0.29	1.23	0.01	17098	0	144	12074	17098	17098	211	3	18	1	10584	3678557	233
163	2018-04-15 17:59:37		0	0	0	0	0	0	0.29	1.23	0.01	17125	0	144	12146	17125	17125	211	4	18	1	10648	3678564	234
164	2018-04-15 18:09:38		0	0	0	0	0	0	0.29	1.23	0.01	17145	0	145	12156	17145	17145	211	4	19	1	10693	3678566	235
165	2018-04-15 18:19:38		0	0	0	0	0	0	0.29	1.23	0.01	17164	0	145	12157	17164	17164	211	4	19	1	10693	3678564	235
166	2018-04-15 18:29:38		0	0	0	0	0	0	0.29	1.23	0.01	17188	0	146	12161	17188	17188	211	4	19	1	10700	3678568	235
167	2018-04-15 18:39:42		0	0	0	0	0	0	0.29	1.23	0.01	17210	0	148	12186	17210	17210	211	4	19	1	10719	3678573	235
168	2018-04-15 18:49:44		0	0	0	0	0	0	0.29	1.22	0.01	17248	0	149	12214	17248	17248	211	4	19	1	10747	3678585	235
169	2018-04-15 19:00:08		0	0	0	0	0	0	0.29	1.22	0.01	17279	0	149	12253	17279	17279	211	4	19	1	10786	3678588	235
170	2018-04-15 19:09:46		0	0	0	0	0	0	0.29	1.22	0.01	17300	0	150	12264	17300	17300	211	4	19	1	10786	3678595	235
171	2018-04-15 19:19:45		0	0	0	0	0	0	0.29	1.22	0.01	17335	0	150	12296	17335	17335	211	4	19	1	10813	3678600	235
172	2018-04-15 19:29:44		0	0	0	0	0	0	0.29	1.22	0.01	17360	0	150	12321	17360	17360	211	4	19	1	10832	3678612	235
173	2018-04-15 19:39:46		0	0	0	0	0	0	0.29	1.21	0.01	17384	0	150	12333	17384	17384	211	4	19	1	10837	3678619	235
174	2018-04-15 19:49:49		0	0	0	0	0	0	0.29	1.21	0.01	17405	0	150	12350	17405	17405	211	4	19	1	10851	3678630	235
175	2018-04-15 19:59:46		0	0	0	0	0	0	0.3	1.21	0.01	17427	0	151	12375	17427	17427	211	4	19	1	10870	3678640	235
176	2018-04-15 20:09:48		0	0	0	0	0	0	0.3	1.21	0.01	17441	0	151	12378	17441	17441	211	4	19	1	10873	3678654	235
177	2018-04-15 20:19:48		0	0	0	0	0	0	0.3	1.21	0.01	17457	0	151	12402	17457	17457	211	4	19	1	10891	3678661	235
178	2018-04-15 20:29:49		0	0	0	0	0	0	0.3	1.21	0.01	17485	0	151	12430	17485	17485	211	4	19	1	10911	3678671	235
179	2018-04-15 20:39:54		0	0	0	0	0	0	0.3	1.2	0.01	17512	0	152	12455	17512	17512	211	4	19	1	10922	3678680	235
180	2018-04-15 20:49:53		0	0	0	0	0	0	0.3	1.2	0.01	17540	0	154	12473	17540	17540	211	4	19	1	10943	3678685	235
181	2018-04-15 20:59:52		0	0	0	0	0	0	0.3	1.2	0.01	17571	0	154	12537	17571	17571	211	4	19	1	10988	3678692	235
182	2018-04-15 21:09:51		0	0	0	0	0	0	0.3	1.2	0.01	17586	0	155	12550	17586	17586	211	4	19	1	10998	3678693	235
183	2018-04-15 21:19:51		0	0	0	0	0	0	0.3	1.2	0.01	17614	0	156	12566	17614	17614	211	4	19	1	11010	3678697	235
184	2018-04-15 21:29:52		0	0	0	0	0	0	0.3	1.2	0.01	17643	0	156	12580	17643	17643	211	4	19	1	11020	3678702	235
185	2018-04-15 21:39:53		0	0	0	0	0	0	0.3	1.19	0.01	17676	0	156	12599	17676	17676	211	4	19	1	11041	3678712	235
186	2018-04-15 21:49:52		0	0	0	0	0	0	0.3	1.19	0.01	17700	0	156	12606	17700	17700	211	4	19	1	11041	3678722	235
187	2018-04-15 21:59:53		0	0	0	0	0	0	0.3	1.19	0.01	17733	0	156	12612	17733	17733	211	4	19	1	11056	3678731	235
188	2018-04-15 22:09:54		0	0	0	0	0	0	0.3	1.19	0.01	17769	0	157	12621	17769	17769	211	4	19	1	11063	3678740	235
189	2018-04-15 22:19:54		0	0	0	0	0	0	0.3	1.19	0.01	17791	0	157	12621	17791	17791	211	4	19	1	11063	3678746	235
190	2018-04-15 22:29:55		0	0	0	0	0	0	0.3	1.18	0.01	17822	0	158	12632	17822	17822	211	4	19	1	11069	3678758	235
191	2018-04-15 22:39:55		0	0	0	0	0	0	0.3	1.18	0.01	17836	0	158	12632	17836	17836	211	4	19	1	11069	3678764	235
192	2018-04-15 22:49:57		0	0	0	0	0	0	0.3	1.18	0.01	17851	0	158	12639	17851	17851	211	4	19	1	11074	3678772	235
193	2018-04-15 22:59:58		0	0	0	0	0	0	0.3	1.18	0.01	17866	0	158	12640	17866	17866	211	4	19	1	11074	3678779	235
194	2018-04-15 23:09:54		0	0	0	0	0	0	0.3	1.18	0.01	17890	0	158	12640	17890	17890	211	4	19	1	11074	3678792	235
195	2018-04-15 23:19:53		0	0	0	0	0	0	0.3	1.18	0.01	17901	0	159	12665	17901	17901	211	4	19	1	11093	3678799	235
196	2018-04-15 23:29:55		0	0	0	0	0	0	0.3	1.18	0.01	17921	0	159	12676	17921	17921	211	4	19	1	11102	3678811	235
197	2018-04-15 23:39:56		0	0	0	0	0	0	0.3	1.18	0.01	17944	0	160	12700	17944	17944	211	4	19	1	11110	3678829	235
198	2018-04-15 23:49:55		0	0	0	0	0	0	0.3	1.17	0.01	17961	0	160	12700	17961	17961	211	4	19	1	11110	3678838	235
199	2018-04-15 23:59:57		0	0	0	0	0	0	0.3	1.17	0.01	17972	0	160	12717	17972	17972	211	4	19	1	11123	3678836	235
200	2018-04-16 00:09:58		0	0	0	0	0	0	0.3	1.17	0.01	17984	0	160	12717	17984	17984	211	4	19	1	11123	3678848	235
201	2018-04-16 00:20:09		0	0	0	0	0	0	0.3	1.17	0.01	17998	0	160	12732	17998	17998	211	4	19	1	11135	3678852	235
202	2018-04-16 00:30:11		0	0	0	0	0	0	0.3	1.17	0.01	18009	0	160	12732	18009	18009	211	4	19	1	11135	3678857	235
203	2018-04-16 00:40:09		0	0	0	0	0	0	0.3	1.17	0.01	18017	0	160	12744	18017	18017	211	4	19	1	11142	3678867	235
204	2018-04-16 00:50:11		0	0	0	0	0	0	0.3	1.17	0.01	18026	0	160	12756	18026	18026	211	4	19	1	11151	3678870	235
205	2018-04-16 01:00:11		0	0	0	0	0	0	0.3	1.17	0.01	18035	0	161	12756	18035	18035	211	4	19	1	11151	3678869	235
206	2018-04-16 01:10:12		0	0	0	0	0	0	0.3	1.17	0.01	18054	0	161	12770	18054	18054	211	4	19	1	11162	3678874	235
207	2018-04-16 01:20:12		0	0	0	0	0	0	0.3	1.17	0.01	18064	0	161	12770	18064	18064	211	4	19	1	11162	3678882	235
208	2018-04-16 01:30:13		0	0	0	0	0	0	0.3	1.17	0.01	18070	0	161	12770	18070	18070	211	4	19	1	11162	3678883	235
209	2018-04-16 01:40:12		0	0	0	0	0	0	0.3	1.17	0.01	18070	0	161	12770	18070	18070	211	4	19	1	11162	3678889	235
210	2018-04-16 01:50:15		0	0	0	0	0	0	0.3	1.17	0.01	18080	0	161	12770	18080	18080	211	4	19	1	11162	3678888	235
211	2018-04-16 02:00:45		0	0	0	0	0	0	0.3	1.17	0.01	18081	0	161	12770	18081	18081	211	4	19	1	11162	3678886	235
212	2018-04-16 02:10:17		0	0	0	0	0	0	0.3	1.17	0.01	18087	0	161	12770	18087	18087	211	4	19	1	11162	3678884	235
213	2018-04-16 02:20:16		0	0	0	0	0	0	0.3	1.17	0.01	18092	0	161	12776	18092	18092	211	4	19	1	11167	3678884	235
214	2018-04-16 02:30:15		0	0	0	0	0	0	0.3	1.17	0.01	18096	0	161	12776	18096	18096	211	4	19	1	11167	3678883	235
215	2018-04-16 02:40:16		0	0	0	0	0	0	0.3	1.17	0.01	18100	0	161	12776	18100	18100	211	4	19	1	11167	3678886	235
216	2018-04-16 02:50:18		0	0	0	0	0	0	0.3	1.17	0.01	18102	0	161	12776	18102	18102	211	4	19	1	11167	3678882	235
217	2018-04-16 03:00:17		0	0	0	0	0	0	0.3	1.17	0.01	18106	0	161	12776	18106	18106	211	4	19	1	11167	3678883	235
218	2018-04-16 03:10:18		0	0	0	0	0	0	0.3	1.17	0.01	18107	0	161	12776	18107	18107	211	4	19	1	11167	3678883	235
219	2018-04-16 03:20:18		0	0	0	0	0	0	0.3	1.17	0.01	18109	0	161	12776	18109	18109	211	4	19	1	11167	3678884	235
220	2018-04-16 03:30:18		0	0	0	0	0	0	0.3	1.17	0.01	18111	0	161	12776	18111	18111	211	4	19	1	11167	3678882	235
221	2018-04-16 03:40:20		0	0	0	0	0	0	0.3	1.17	0.01	18112	0	161	12776	18112	18112	212	4	19	1	11167	3678886	236
222	2018-04-16 03:50:22		0	0	0	0	0	0	0.3	1.17	0.01	18112	0	161	12776	18112	18112	212	4	19	1	11167	3678890	236
223	2018-04-16 04:00:22		0	0	0	0	0	0	0.3	1.17	0.01	18113	0	161	12776	18113	18113	212	4	19	1	11167	3678887	236
224	2018-04-16 04:10:23		0	0	0	0	0	0	0.3	1.17	0.01	18113	0	161	12776	18113	18113	212	4	19	1	11167	3678889	236
225	2018-04-16 04:20:21		0	0	0	0	0	0	0.3	1.17	0.01	18115	0	161	12776	18115	18115	212	4	19	1	11167	3678887	236
226	2018-04-16 04:30:23		0	0	0	0	0	0	0.3	1.17	0.01	18117	0	161	12776	18117	18117	212	4	19	1	11167	3678885	236
227	2018-04-16 04:40:22		0	0	0	0	0	0	0.3	1.17	0.01	18119	0	161	12776	18119	18119	212	4	19	1	11167	3678885	236
228	2018-04-16 04:50:22		0	0	0	0	0	0	0.3	1.17	0.01	18119	0	161	12776	18119	18119	212	4	19	1	11167	3678884	236
229	2018-04-16 05:00:24		0	0	0	0	0	0	0.3	1.17	0.01	18121	0	161	12776	18121	18121	212	4	19	1	11167	3678884	236
230	2018-04-16 05:10:24		0	0	0	0	0	0	0.3	1.17	0.01	18125	0	161	12776	18125	18125	212	4	19	1	11167	3678886	236
231	2018-04-16 05:20:24		0	0	0	0	0	0	0.3	1.17	0.01	18126	0	161	12776	18126	18126	212	4	19	1	11167	3678887	236
232	2018-04-16 05:30:29		0	0	0	0	0	0	0.3	1.17	0.01	18127	0	161	12776	18127	18127	212	4	19	1	11167	3678888	236
233	2018-04-16 05:40:26		0	0	0	0	0	0	0.3	1.17	0.01	18130	0	161	12776	18130	18130	212	4	19	1	11167	3678889	236
234	2018-04-16 05:50:26		0	0	0	0	0	0	0.3	1.17	0.01	18135	0	161	12776	18135	18135	212	4	19	1	11167	3678889	236
235	2018-04-16 06:00:27		0	0	0	0	0	0	0.3	1.17	0.01	18140	0	161	12776	18140	18140	212	4	19	1	11167	3678889	236
236	2018-04-16 06:10:28		0	0	0	0	0	0	0.3	1.17	0.01	18147	0	161	12777	18147	18147	212	4	19	1	11167	3678889	236
237	2018-04-16 06:20:27		0	0	0	0	0	0	0.3	1.17	0.01	18150	0	161	12777	18150	18150	212	4	19	1	11167	3678890	236
238	2018-04-16 06:30:28		0	0	0	0	0	0	0.3	1.17	0.01	18152	0	161	12777	18152	18152	212	4	19	1	11167	3678890	236
239	2018-04-16 06:40:28		0	0	0	0	0	0	0.3	1.17	0.01	18155	0	161	12777	18155	18155	212	4	19	1	11167	3678890	236
240	2018-04-16 06:50:28		0	0	0	0	0	0	0.3	1.17	0.01	18163	0	161	12777	18163	18163	212	4	19	1	11167	3678892	236
241	2018-04-16 07:00:29		0	0	0	0	0	0	0.3	1.17	0.01	18170	0	161	12777	18170	18170	212	4	19	1	11167	3678890	236
242	2018-04-16 07:10:31		0	0	0	0	0	0	0.3	1.17	0.01	18171	0	161	12777	18171	18171	212	4	19	1	11167	3678891	236
243	2018-04-16 07:20:31		0	0	0	0	0	0	0.3	1.17	0.01	18177	0	161	12778	18177	18177	212	4	19	1	11168	3678894	236
244	2018-04-16 07:30:35		0	0	0	0	0	0	0.3	1.17	0.01	18180	0	161	12779	18180	18180	212	4	19	1	11177	3678898	236
245	2018-04-16 07:40:31		0	0	0	0	0	0	0.3	1.17	0.01	18184	0	161	12779	18184	18184	212	4	19	1	11177	3678904	236
246	2018-04-16 07:50:31		0	0	0	0	0	0	0.3	1.17	0.01	18192	0	161	12779	18192	18192	212	4	19	1	11177	3678907	236
247	2018-04-16 08:00:33		0	0	0	0	0	0	0.3	1.16	0.01	18198	0	162	12793	18198	18198	212	4	19	1	11188	3678908	236
248	2018-04-16 08:10:33		0	0	0	0	0	0	0.3	1.16	0.01	18217	0	162	12799	18217	18217	212	4	19	1	11188	3678911	236
249	2018-04-16 08:20:34		0	0	0	0	0	0	0.3	1.16	0.01	18223	0	162	12799	18223	18223	212	4	19	1	11188	3678917	236
250	2018-04-16 08:30:33		0	0	0	0	0	0	0.3	1.16	0.01	18231	0	162	12799	18231	18231	212	4	19	1	11188	3678924	236
251	2018-04-16 08:40:33		0	0	0	0	0	0	0.3	1.16	0.01	18234	0	162	12799	18234	18234	212	4	19	1	11188	3678926	236
252	2018-04-16 08:50:36		0	0	0	0	0	0	0.3	1.16	0.01	18242	0	162	12809	18242	18242	212	4	19	1	11190	3678928	236
253	2018-04-16 09:00:37		0	0	0	0	0	0	0.3	1.16	0.01	18259	0	162	12812	18259	18259	212	4	19	1	11198	3678937	236
254	2018-04-16 09:10:39		0	0	0	0	0	0	0.3	1.16	0.01	18271	0	162	12813	18271	18271	212	4	19	1	11199	3678940	236
255	2018-04-16 09:20:39		0	0	0	0	0	0	0.3	1.16	0.01	18276	0	162	12813	18276	18276	212	4	19	1	11199	3678942	236
256	2018-04-16 09:30:38		0	0	0	0	0	0	0.3	1.16	0.01	18285	0	162	12837	18285	18285	212	4	19	1	11217	3678956	236
257	2018-04-16 09:40:40		0	0	0	0	0	0	0.3	1.16	0.01	18293	0	162	12837	18293	18293	212	4	19	1	11217	3678965	236
258	2018-04-16 09:50:39		0	0	0	0	0	0	0.3	1.16	0.01	18305	0	162	12837	18305	18305	212	4	19	1	11217	3678967	236
259	2018-04-16 10:00:40		0	0	0	0	0	0	0.3	1.16	0.01	18315	0	162	12837	18315	18315	212	4	19	1	11217	3678969	236
260	2018-04-16 10:10:39		0	0	0	0	0	0	0.31	1.16	0.01	18329	0	162	12844	18329	18329	213	4	19	1	11223	3678978	237
261	2018-04-16 10:20:43		0	0	0	0	0	0	0.31	1.16	0.01	18335	0	162	12851	18335	18335	213	4	19	1	11223	3678986	237
262	2018-04-16 10:30:46		0	0	0	0	0	0	0.31	1.16	0.01	18341	0	162	12851	18341	18341	213	4	19	1	11223	3678982	237
263	2018-04-16 10:40:42		0	0	0	0	0	0	0.31	1.16	0.01	18349	0	162	12851	18349	18349	213	4	19	1	11223	3678986	237
264	2018-04-16 11:46:58		0	0	0	0	0	0	0.31	1.16	0.01	18410	0	164	12902	18410	18410	213	4	19	1	11262	3679037	237
265	2018-04-16 11:56:59		0	0	0	0	0	0	0.31	1.16	0.01	18423	0	164	12902	18423	18423	213	4	19	1	11262	3679045	237
266	2018-04-16 12:07:03		0	0	0	0	0	0	0.31	1.16	0.01	18434	0	164	12928	18434	18434	213	4	19	1	11281	3679054	237
267	2018-04-16 12:17:00		0	0	0	0	0	0	0.31	1.15	0.01	18447	0	164	12928	18447	18447	213	4	19	1	11281	3679054	237
268	2018-04-16 12:27:01		0	0	0	0	0	0	0.31	1.15	0.01	18463	0	164	12928	18463	18463	213	4	19	1	11281	3679061	237
269	2018-04-16 12:37:01		0	0	0	0	0	0	0.31	1.15	0.01	18473	0	164	12944	18473	18473	213	4	19	1	11281	3679066	237
270	2018-04-16 12:47:01		0	0	0	0	0	0	0.31	1.15	0.01	18489	0	164	12957	18489	18489	213	4	19	1	11291	3679069	237
271	2018-04-16 12:57:05		0	0	0	0	0	0	0.31	1.15	0.01	18498	0	164	12965	18498	18498	213	4	19	1	11297	3679083	237
272	2018-04-16 13:07:03		0	0	0	0	0	0	0.31	1.15	0.01	18512	0	164	12980	18512	18512	213	4	19	1	11306	3679090	237
273	2018-04-16 13:17:04		0	0	0	0	0	0	0.31	1.15	0.01	18519	0	164	12980	18519	18519	213	4	19	1	11312	3679101	237
274	2018-04-16 13:27:04		0	0	0	0	0	0	0.31	1.15	0.01	18535	0	164	12980	18535	18535	213	4	19	1	11312	3679109	237
275	2018-04-16 13:37:03		0	0	0	0	0	0	0.31	1.15	0.01	18547	0	164	12980	18547	18547	213	4	19	1	11312	3679119	237
276	2018-04-16 13:47:04		0	0	0	0	0	0	0.31	1.15	0.01	18557	0	164	12992	18557	18557	213	4	19	1	11312	3679124	237
277	2018-04-16 13:57:07		0	0	0	0	0	0	0.31	1.15	0.01	18577	0	164	12999	18577	18577	213	4	19	1	11317	3679135	237
278	2018-04-16 14:07:33		0	0	0	0	0	0	0.31	1.15	0.01	18583	0	164	13027	18583	18583	213	4	19	1	11338	3679141	237
279	2018-04-16 14:17:09		0	0	0	0	0	0	0.31	1.15	0.01	18600	0	164	13046	18600	18600	213	4	19	1	11363	3679153	237
280	2018-04-16 14:27:09		0	0	0	0	0	0	0.31	1.14	0.01	18611	0	164	13064	18611	18611	213	4	19	1	11377	3679161	237
281	2018-04-16 14:37:15		0	0	0	0	0	0	0.31	1.14	0.01	18618	0	164	13074	18618	18622	213	4	19	1	11377	3679171	237
282	2018-04-16 14:47:10		0	0	0	0	0	0	0.31	1.14	0.01	18632	0	164	13074	18632	18632	213	4	19	1	11377	3679184	237
283	2018-04-16 14:57:10		0	0	0	0	0	0	0.31	1.14	0.01	18643	0	164	13074	18643	18634	213	4	19	1	11377	3679197	237
284	2018-04-16 15:07:13		0	0	0	0	0	0	0.31	1.14	0.01	18657	0	164	13074	18657	18657	213	4	19	1	11377	3679206	237
285	2018-04-16 15:17:15		0	0	0	0	0	0	0.31	1.14	0.01	18658	0	164	13074	18658	18664	213	4	19	1	11377	3679218	237
286	2018-04-16 15:27:12		0	0	0	0	0	0	0.31	1.14	0.01	18672	0	166	13076	18672	18672	213	4	19	1	11383	3679222	237
287	2018-04-16 15:37:16		0	0	0	0	0	0	0.31	1.14	0.01	18680	0	166	13078	18680	18680	213	4	19	1	11396	3679229	237
288	2018-04-16 15:47:12		0	0	0	0	0	0	0.31	1.14	0.01	18690	0	166	13113	18690	18690	213	4	19	1	11401	3679243	237
289	2018-04-16 15:57:13		0	0	0	0	0	0	0.31	1.14	0.01	18700	0	166	13113	18700	18700	213	4	19	1	11401	3679253	237
290	2018-04-16 16:07:17		0	0	0	0	0	0	0.31	1.14	0.01	18708	0	166	13113	18708	18706	213	4	19	1	11401	3679261	237
291	2018-04-16 16:17:19		0	0	0	0	0	0	0.31	1.14	0.01	18714	0	166	13117	18714	18714	213	4	19	1	11404	3679271	237
292	2018-04-16 16:27:21		0	0	0	0	0	0	0.31	1.14	0.01	18727	0	166	13117	18727	18727	213	4	19	1	11404	3679283	237
293	2018-04-16 16:37:16		0	0	0	0	0	0	0.31	1.14	0.01	18731	0	166	13117	18731	18737	213	4	19	1	11404	3679292	237
294	2018-04-16 16:47:17		0	0	0	0	0	0	0.31	1.14	0.01	18748	0	166	13122	18748	18748	213	4	19	1	11404	3679298	237
295	2018-04-16 16:57:20		0	0	0	0	0	0	0.31	1.14	0.01	18757	0	166	13136	18757	18757	213	4	19	1	11405	3679302	237
296	2018-04-16 17:07:26		0	0	0	0	0	0	0.31	1.14	0.01	18766	0	166	13136	18766	18766	213	4	19	1	11405	3679312	237
297	2018-04-16 17:17:20		0	0	0	0	0	0	0.31	1.13	0.01	18772	0	166	13136	18772	18772	213	4	19	1	11405	3679320	237
298	2018-04-16 17:27:20		0	0	0	0	0	0	0.31	1.13	0.01	18782	0	166	13161	18782	18782	213	4	19	1	11424	3679328	237
299	2018-04-16 17:37:21		0	0	0	0	0	0	0.31	1.13	0.01	18787	0	166	13168	18787	18791	213	4	19	1	11429	3679329	237
300	2018-04-16 17:47:20		0	0	0	0	0	0	0.31	1.13	0.01	18798	0	166	13168	18798	18798	213	4	19	1	11440	3679337	237
301	2018-04-16 17:57:21		0	0	0	0	0	0	0.31	1.13	0.01	18803	0	166	13170	18803	18803	213	4	19	1	11440	3679352	237
302	2018-04-16 18:07:22		0	0	0	0	0	0	0.31	1.13	0.01	18814	0	166	13187	18814	18814	213	4	19	1	11454	3679365	237
303	2018-04-16 18:17:22		0	0	0	0	0	0	0.31	1.13	0.01	18822	0	166	13220	18822	18822	213	4	19	1	11500	3679371	237
304	2018-04-16 18:27:22		0	0	0	0	0	0	0.31	1.13	0.01	18830	0	166	13220	18830	18830	213	4	19	1	11500	3679378	237
305	2018-04-16 18:37:29		0	0	0	0	0	0	0.31	1.13	0.01	18836	0	166	13220	18836	18836	213	4	19	1	11500	3679387	237
306	2018-04-16 18:47:33		0	0	0	0	0	0	0.31	1.13	0.01	18841	0	166	13220	18841	18841	213	4	19	1	11500	3679397	237
307	2018-04-16 18:57:37		0	0	0	0	0	0	0.31	1.13	0.01	18853	0	166	13247	18853	18853	213	4	19	1	11512	3679410	237
308	2018-04-16 19:07:51		0	0	0	0	0	0	0.31	1.13	0.01	18865	0	166	13247	18865	18865	213	4	19	1	11512	3679416	237
309	2018-04-16 19:17:51		0	0	0	0	0	0	0.31	1.13	0.01	18877	0	166	13271	18877	18877	213	4	19	1	11530	3679423	237
310	2018-04-16 19:27:51		0	0	0	0	0	0	0.31	1.13	0.01	18898	0	166	13302	18898	18898	213	4	19	1	11552	3679442	237
311	2018-04-16 19:37:52		0	0	0	0	0	0	0.31	1.13	0.01	18905	0	166	13309	18905	18905	213	4	19	1	11557	3679453	237
312	2018-04-16 19:47:53		0	0	0	0	0	0	0.31	1.13	0.01	18916	0	166	13309	18916	18916	213	4	19	1	11557	3679459	237
313	2018-04-16 19:57:54		0	0	0	0	0	0	0.31	1.13	0.01	18924	0	167	13309	18924	18924	213	4	19	1	11557	3679471	237
314	2018-04-16 20:08:00		0	0	0	0	0	0	0.31	1.12	0.01	18942	0	167	13309	18942	18942	213	4	19	1	11557	3679481	237
315	2018-04-16 20:17:55		0	0	0	0	0	0	0.31	1.12	0.01	18955	0	167	13309	18955	18955	213	4	19	1	11557	3679493	237
316	2018-04-16 20:27:55		0	0	0	0	0	0	0.31	1.12	0.01	18971	0	167	13314	18971	18971	213	4	19	1	11561	3679491	237
317	2018-04-16 20:37:57		0	0	0	0	0	0	0.31	1.12	0.01	18983	0	167	13334	18983	18983	213	4	19	1	11576	3679500	237
318	2018-04-16 20:47:58		0	0	0	0	0	0	0.32	1.13	0.01	18999	0	167	13362	18999	18999	214	4	19	1	11593	3679510	238
319	2018-04-16 20:57:57		0	0	0	0	0	0	0.32	1.12	0.01	19023	0	167	13377	19023	19023	214	4	19	1	11609	3679522	238
320	2018-04-16 21:07:57		0	0	0	0	0	0	0.32	1.12	0.01	19040	0	167	13392	19040	19040	214	4	19	1	11632	3679542	238
321	2018-04-16 21:17:58		0	0	0	0	0	0	0.32	1.12	0.01	19053	0	167	13392	19053	19053	214	4	19	1	11632	3679540	238
322	2018-04-16 21:27:57		0	0	0	0	0	0	0.32	1.12	0.01	19069	0	169	13404	19069	19069	214	4	19	1	11632	3679559	238
323	2018-04-16 21:37:59		0	0	0	0	0	0	0.32	1.12	0.01	19092	0	169	13404	19092	19092	214	4	19	1	11632	3679572	238
324	2018-04-16 21:47:59		0	0	0	0	0	0	0.32	1.12	0.01	19102	0	169	13409	19102	19102	214	4	19	1	11637	3679589	238
325	2018-04-16 21:58:03		0	0	0	0	0	0	0.32	1.12	0.01	19121	0	169	13479	19121	19121	214	4	19	1	11684	3679591	238
326	2018-04-16 22:08:02		0	0	0	0	0	0	0.32	1.12	0.01	19135	0	169	13487	19135	19135	214	4	19	1	11687	3679612	238
327	2018-04-16 22:18:03		0	0	0	0	0	0	0.32	1.12	0.01	19155	0	169	13487	19155	19155	214	4	19	1	11704	3679642	238
328	2018-04-16 22:28:05		0	0	0	0	0	0	0.32	1.12	0.01	19163	0	169	13498	19163	19163	214	4	19	1	11713	3679656	238
329	2018-04-16 22:38:08		0	0	0	0	0	0	0.32	1.12	0.01	19179	0	169	13540	19179	19179	214	4	19	1	11744	3679672	238
330	2018-04-16 22:48:07		0	0	0	0	0	0	0.32	1.11	0.01	19195	0	169	13540	19195	19195	214	4	19	1	11744	3679687	238
331	2018-04-16 22:58:05		0	0	0	0	0	0	0.32	1.11	0.01	19211	0	169	13553	19211	19211	214	4	19	1	11754	3679698	238
332	2018-04-16 23:08:05		0	0	0	0	0	0	0.32	1.11	0.01	19222	0	169	13553	19222	19222	214	4	19	1	11754	3679720	238
333	2018-04-16 23:18:05		0	0	0	0	0	0	0.32	1.11	0.01	19240	0	169	13553	19240	19240	214	4	19	1	11754	3679728	238
334	2018-04-16 23:28:05		0	0	0	0	0	0	0.32	1.11	0.01	19251	0	169	13559	19251	19251	214	4	19	1	11758	3679744	238
335	2018-04-16 23:38:06		0	0	0	0	0	0	0.32	1.11	0.01	19263	0	169	13562	19263	19263	214	4	19	1	11761	3679750	238
336	2018-04-16 23:48:07		0	0	0	0	0	0	0.32	1.11	0.01	19278	0	169	13599	19278	19278	214	4	19	1	11789	3679763	238
337	2018-04-16 23:58:07		0	0	0	0	0	0	0.32	1.11	0.01	19293	0	169	13599	19293	19293	214	4	19	1	11800	3679772	238
338	2018-04-17 00:08:06		0	0	0	0	0	0	0.32	1.11	0.01	19299	0	169	13599	19299	19299	214	4	19	1	11800	3679785	238
339	2018-04-17 00:18:05		0	0	0	0	0	0	0.32	1.11	0.01	19307	0	169	13599	19307	19307	214	4	19	1	11800	3679787	238
340	2018-04-17 00:28:10		0	0	0	0	0	0	0.32	1.11	0.01	19313	0	169	13622	19313	19313	214	4	19	1	11829	3679794	238
341	2018-04-17 00:38:06		0	0	0	0	0	0	0.32	1.11	0.01	19318	0	169	13622	19318	19318	214	4	19	1	11832	3679797	238
342	2018-04-17 00:48:05		0	0	0	0	0	0	0.32	1.11	0.01	19324	0	169	13634	19324	19324	214	4	19	1	11832	3679802	238
343	2018-04-17 00:58:06		0	0	0	0	0	0	0.32	1.11	0.01	19327	0	169	13638	19327	19327	214	4	19	1	11835	3679811	238
344	2018-04-17 01:08:09		0	0	0	0	0	0	0.32	1.11	0.01	19334	0	169	13638	19334	19334	214	4	19	1	11835	3679812	238
345	2018-04-17 01:18:07		0	0	0	0	0	0	0.32	1.11	0.01	19337	0	169	13644	19337	19337	214	4	19	1	11839	3679813	238
346	2018-04-17 01:28:08		0	0	0	0	0	0	0.32	1.11	0.01	19338	0	169	13644	19338	19338	214	4	19	1	11839	3679817	238
347	2018-04-17 01:38:09		0	0	0	0	0	0	0.32	1.11	0.01	19339	0	169	13644	19339	19339	214	4	19	1	11839	3679815	238
348	2018-04-17 01:48:10		0	0	0	0	0	0	0.32	1.11	0.01	19341	0	169	13644	19341	19341	214	4	19	1	11839	3679816	238
349	2018-04-17 01:58:09		0	0	0	0	0	0	0.32	1.11	0.01	19341	0	169	13644	19341	19341	214	4	19	1	11839	3679818	238
350	2018-04-17 02:08:11		0	0	0	0	0	0	0.32	1.11	0.01	19341	0	169	13644	19341	19341	214	4	19	1	11839	3679820	238
351	2018-04-17 02:18:11		0	0	0	0	0	0	0.32	1.11	0.01	19342	0	169	13644	19342	19342	214	4	19	1	11839	3679823	238
352	2018-04-17 02:28:13		0	0	0	0	0	0	0.32	1.11	0.01	19343	0	169	13644	19343	19343	214	4	19	1	11839	3679828	238
353	2018-04-17 02:38:11		0	0	0	0	0	0	0.32	1.11	0.01	19345	0	169	13644	19345	19345	214	4	19	1	11839	3679827	238
354	2018-04-17 02:48:13		0	0	0	0	0	0	0.32	1.11	0.01	19346	0	169	13644	19346	19346	214	4	19	1	11839	3679826	238
355	2018-04-17 02:58:13		0	0	0	0	0	0	0.32	1.11	0.01	19350	0	169	13651	19350	19350	214	4	19	1	11845	3679828	238
356	2018-04-17 03:08:14		0	0	0	0	0	0	0.32	1.11	0.01	19350	0	169	13651	19350	19350	214	4	19	1	11845	3679830	238
357	2018-04-17 03:18:20		0	0	0	0	0	0	0.32	1.11	0.01	19352	0	169	13651	19352	19352	214	4	19	1	11854	3679830	238
358	2018-04-17 03:28:17		0	0	0	0	0	0	0.32	1.11	0.01	19352	0	169	13651	19352	19352	214	4	19	1	11854	3679832	238
359	2018-04-17 03:38:16		0	0	0	0	0	0	0.32	1.11	0.01	19352	0	169	13651	19352	19352	214	4	19	1	11854	3679833	238
360	2018-04-17 03:48:16		0	0	0	0	0	0	0.32	1.11	0.01	19352	0	169	13651	19352	19352	214	4	19	1	11854	3679831	238
361	2018-04-17 03:58:17		0	0	0	0	0	0	0.32	1.11	0.01	19353	0	169	13651	19353	19353	214	4	19	1	11854	3679830	238
362	2018-04-17 04:08:17		0	0	0	0	0	0	0.32	1.11	0.01	19353	0	169	13651	19353	19353	214	4	19	1	11854	3679830	238
363	2018-04-17 04:18:18		0	0	0	0	0	0	0.32	1.11	0.01	19355	0	169	13651	19355	19355	214	4	19	1	11854	3679830	238
364	2018-04-17 04:28:18		0	0	0	0	0	0	0.32	1.11	0.01	19359	0	169	13655	19359	19359	214	4	19	1	11857	3679832	238
365	2018-04-17 04:38:18		0	0	0	0	0	0	0.32	1.11	0.01	19360	0	169	13655	19360	19360	214	4	19	1	11857	3679833	238
366	2018-04-17 04:48:19		0	0	0	0	0	0	0.32	1.11	0.01	19360	0	169	13655	19360	19360	214	4	19	1	11857	3679832	238
367	2018-04-17 04:58:20		0	0	0	0	0	0	0.32	1.11	0.01	19360	0	169	13655	19360	19360	214	4	19	1	11857	3679829	238
368	2018-04-17 05:08:20		0	0	0	0	0	0	0.32	1.11	0.01	19360	0	169	13655	19360	19360	214	4	19	1	11857	3679831	238
369	2018-04-17 05:18:20		0	0	0	0	0	0	0.32	1.11	0.01	19362	0	169	13655	19362	19362	214	4	19	1	11857	3679830	238
370	2018-04-17 05:28:23		0	0	0	0	0	0	0.32	1.11	0.01	19362	0	169	13655	19362	19362	214	4	19	1	11857	3679831	238
371	2018-04-17 05:38:24		0	0	0	0	0	0	0.32	1.11	0.01	19362	0	169	13655	19362	19362	214	4	19	1	11857	3679834	238
372	2018-04-17 05:48:26		0	0	0	0	0	0	0.32	1.11	0.01	19362	0	169	13655	19362	19362	214	4	19	1	11857	3679837	238
373	2018-04-17 05:58:24		0	0	0	0	0	0	0.32	1.1	0.01	19368	0	169	13659	19368	19368	214	4	19	1	11857	3679839	238
374	2018-04-17 06:08:26		0	0	0	0	0	0	0.32	1.1	0.01	19370	0	169	13659	19370	19370	214	4	19	1	11857	3679839	238
375	2018-04-17 06:18:26		0	0	0	0	0	0	0.32	1.1	0.01	19373	0	170	13659	19373	19373	214	4	19	1	11860	3679839	238
376	2018-04-17 06:28:25		0	0	0	0	0	0	0.32	1.1	0.01	19377	0	170	13659	19377	19377	214	4	19	1	11860	3679841	238
377	2018-04-17 06:38:26		0	0	0	0	0	0	0.32	1.1	0.01	19383	0	171	13659	19383	19383	214	4	19	1	11860	3679846	238
378	2018-04-17 06:48:27		0	0	0	0	0	0	0.32	1.1	0.01	19386	0	171	13667	19386	19386	214	4	19	1	11866	3679851	238
379	2018-04-17 06:58:28		0	0	0	0	0	0	0.32	1.1	0.01	19389	0	171	13671	19389	19389	214	4	19	1	11886	3679857	238
380	2018-04-17 07:08:28		0	0	0	0	0	0	0.32	1.1	0.01	19394	0	171	13694	19394	19394	214	4	19	1	11904	3679859	238
381	2018-04-17 07:18:29		0	0	0	0	0	0	0.32	1.1	0.01	19401	0	171	13694	19401	19401	214	4	19	1	11904	3679868	238
382	2018-04-17 07:28:31		0	0	0	0	0	0	0.32	1.1	0.01	19403	0	171	13697	19403	19403	214	4	19	1	11906	3679876	238
383	2018-04-17 07:38:31		0	0	0	0	0	0	0.32	1.1	0.01	19408	0	171	13701	19408	19408	214	4	19	1	11909	3679881	238
384	2018-04-17 07:48:31		0	0	0	0	0	0	0.32	1.1	0.01	19412	0	171	13722	19412	19412	214	4	19	1	11925	3679889	238
385	2018-04-17 07:58:32		0	0	0	0	0	0	0.32	1.1	0.01	19428	0	171	13730	19428	19428	214	4	19	1	11932	3679899	238
386	2018-04-17 08:08:33		0	0	0	0	0	0	0.32	1.1	0.01	19432	0	171	13738	19432	19432	214	4	19	1	11932	3679904	238
387	2018-04-17 08:18:35		0	0	0	0	0	0	0.32	1.1	0.01	19444	0	171	13738	19444	19444	214	4	19	1	11932	3679912	238
388	2018-04-17 08:28:33		0	0	0	0	0	0	0.32	1.1	0.01	19449	0	171	13738	19449	19449	214	4	19	1	11932	3679919	238
389	2018-04-17 08:38:31		0	0	0	0	0	0	0.32	1.1	0.01	19457	0	171	13753	19457	19457	214	4	19	1	11944	3679927	238
390	2018-04-17 08:48:34		0	0	0	0	0	0	0.32	1.1	0.01	19462	0	171	13753	19462	19462	214	4	19	1	11944	3679934	238
391	2018-04-17 08:58:36		0	0	0	0	0	0	0.32	1.1	0.01	19474	0	171	13753	19474	19474	214	4	19	1	11944	3679943	238
392	2018-04-17 09:08:36		0	0	0	0	0	0	0.32	1.1	0.01	19487	0	171	13753	19487	19487	214	4	19	1	11944	3679956	238
393	2018-04-17 09:18:35		0	0	0	0	0	0	0.32	1.1	0.01	19496	0	171	13761	19496	19496	214	4	19	1	11944	3679969	238
394	2018-04-17 09:28:36		0	0	0	0	0	0	0.32	1.1	0.01	19508	0	171	13761	19508	19508	214	4	19	1	11944	3679978	238
395	2018-04-17 09:38:37		0	0	0	0	0	0	0.32	1.1	0.01	19514	0	171	13769	19514	19514	214	4	19	1	11950	3679981	238
396	2018-04-17 09:48:36		0	0	0	0	0	0	0.32	1.1	0.01	19524	0	171	13775	19524	19524	214	4	19	1	11954	3679986	238
397	2018-04-17 09:58:36		0	0	0	0	0	0	0.32	1.1	0.01	19534	0	171	13775	19534	19534	214	4	19	1	11954	3679994	238
398	2018-04-17 10:08:38		0	0	0	0	0	0	0.32	1.1	0.01	19543	0	171	13790	19543	19543	214	4	19	1	11954	3679998	238
399	2018-04-17 10:18:39		0	0	0	0	0	0	0.33	1.09	0.01	19552	0	171	13806	19552	19552	214	4	19	1	11978	3680000	238
400	2018-04-17 10:28:39		0	0	0	0	0	0	0.33	1.09	0.01	19564	0	171	13806	19564	19564	214	4	19	1	11978	3680006	238
401	2018-04-17 10:38:39		0	0	0	0	0	0	0.33	1.09	0.01	19572	0	171	13810	19572	19572	214	4	19	1	11993	3680009	238
402	2018-04-17 10:48:40		0	0	0	0	0	0	0.33	1.09	0.01	19580	0	171	13810	19580	19580	214	4	19	1	11993	3680017	238
403	2018-04-17 10:58:40		0	0	0	0	0	0	0.33	1.09	0.01	19592	0	171	13817	19592	19592	214	4	19	1	11993	3680022	238
404	2018-04-17 11:08:42		0	0	0	0	0	0	0.33	1.09	0.01	19609	0	171	13833	19609	19609	214	4	19	1	12002	3680029	238
405	2018-04-17 11:18:41		0	0	0	0	0	0	0.33	1.09	0.01	19614	0	171	13849	19614	19614	214	4	19	1	12002	3680038	238
406	2018-04-17 11:28:44		0	0	0	0	0	0	0.33	1.09	0.01	19621	0	171	13857	19621	19621	214	4	19	1	12008	3680049	238
407	2018-04-17 11:38:43		0	0	0	0	0	0	0.33	1.09	0.01	19625	0	171	13857	19625	19625	214	4	19	1	12008	3680052	238
408	2018-04-17 11:48:45		0	0	0	0	0	0	0.33	1.1	0.01	19632	0	171	13857	19632	19632	215	4	19	1	12008	3680064	239
409	2018-04-17 11:58:46		0	0	0	0	0	0	0.33	1.09	0.01	19642	0	171	13857	19642	19642	215	4	19	1	12008	3680069	239
410	2018-04-17 12:08:47		0	0	0	0	0	0	0.33	1.09	0.01	19649	0	171	13857	19649	19649	215	4	19	1	12008	3680075	239
411	2018-04-17 12:18:45		0	0	0	0	0	0	0.33	1.09	0.01	19659	0	171	13865	19659	19659	215	4	19	1	12026	3680084	239
412	2018-04-17 12:28:47		0	0	0	0	0	0	0.33	1.09	0.01	19672	0	171	13865	19672	19672	215	4	19	1	12032	3680094	239
413	2018-04-17 12:38:46		0	0	0	0	0	0	0.33	1.09	0.01	19687	0	171	13865	19687	19687	215	4	19	1	12044	3680100	239
414	2018-04-17 12:48:46		0	0	0	0	0	0	0.33	1.09	0.01	19695	0	171	13865	19695	19695	215	4	19	1	12044	3680104	239
415	2018-04-17 12:58:46		0	0	0	0	0	0	0.33	1.09	0.01	19703	0	171	13877	19703	19703	215	4	19	1	12053	3680110	239
416	2018-04-17 13:08:48		0	0	0	0	0	0	0.33	1.1	0.01	19709	0	171	13889	19709	19709	216	4	19	1	12071	3680118	240
417	2018-04-17 13:18:49		0	0	0	0	0	0	0.33	1.1	0.01	19713	0	171	13893	19713	19713	216	4	19	1	12116	3680124	240
418	2018-04-17 13:28:50		0	0	0	0	0	0	0.33	1.1	0.01	19722	0	171	13901	19722	19722	216	4	19	1	12122	3680133	240
419	2018-04-17 13:38:50		0	0	0	0	0	0	0.33	1.09	0.01	19727	0	171	13913	19727	19727	216	4	19	1	12131	3680144	240
420	2018-04-17 13:48:51		0	0	0	0	0	0	0.33	1.09	0.01	19734	0	171	13913	19734	19734	216	4	19	1	12137	3680154	240
421	2018-04-17 13:59:01		0	0	0	0	0	0	0.33	1.1	0.01	19746	0	171	13945	19746	19746	217	4	19	1	12162	3680165	241
422	2018-04-17 14:08:59		0	0	0	0	0	0	0.33	1.1	0.01	19750	0	171	13946	19750	19750	217	4	19	1	12162	3680171	241
423	2018-04-17 14:18:56		0	0	0	0	0	0	0.33	1.1	0.01	19753	0	171	13946	19753	19753	217	4	19	1	12162	3680182	241
424	2018-04-17 14:28:55		0	0	0	0	0	0	0.33	1.1	0.01	19763	0	171	13953	19763	19763	217	4	19	1	12168	3680183	241
425	2018-04-17 14:38:54		0	0	0	0	0	0	0.33	1.1	0.01	19766	0	171	13953	19766	19766	217	4	19	1	12168	3680189	241
426	2018-04-17 14:48:54		0	0	0	0	0	0	0.33	1.1	0.01	19773	0	171	13953	19773	19773	217	4	19	1	12168	3680193	241
