1	2017-07-13 22:01:42		0	0	0	0	0	0	0.46	0.19	0	17055	0	38	14909	17055	17017	32	0	46	4	14842	3211935	82
2	2017-07-13 22:11:36		0	0	0	0	0	0	0.62	0.33	0	23040	0	76	20123	23040	22964	75	0	74	5	20010	3211943	154
3	2017-07-13 22:22:00		0	0	0	0	0	0	0.68	0.43	0	26792	0	102	22054	26792	26690	116	0	95	5	21943	3211947	216
4	2017-07-13 22:31:38		0	0	0	0	0	0	0.76	0.47	0	29835	0	116	24706	29835	29719	140	0	113	6	24542	3211950	259
5	2017-07-13 22:41:40		0	0	0	0	0	0	0.83	0.51	0	32530	0	135	26903	32530	32395	167	0	126	7	26739	3211950	300
6	2017-07-13 22:51:38		0	0	0	0	0	0	0.87	0.54	0	34663	0	146	28226	34663	34517	186	0	133	7	28054	3211958	326
7	2017-07-13 23:01:42		0	0	0	0	0	0	0.91	0.57	0	36496	0	162	29461	36496	36334	209	0	141	8	29253	3211961	358
8	2017-07-13 23:12:29		0	0	0	0	0	0	0.94	0.6	0.01	38063	0	196	30429	38063	37867	228	0	148	8	30131	3211968	384
9	2017-07-13 23:22:16		0	0	0	0	0	0	0.97	0.62	0.01	39556	0	244	31527	39556	39312	244	0	154	8	31197	3211974	406
10	2017-07-13 23:36:12		0	0	0	0	0	0	1	0.63	0.01	40845	0	290	32329	40845	40555	259	0	157	8	31971	3211982	424
11	2017-07-13 23:43:52		0	0	0	0	0	0	1.01	0.63	0.01	42103	0	345	32862	42103	41758	264	0	161	8	32464	3211986	433
12	2017-07-13 23:53:52		0	0	0	0	0	0	1.03	0.63	0.01	43155	0	384	33519	43155	42771	271	0	165	8	33082	3211992	444
13	2017-07-14 00:17:05		0	0	0	0	0	0	1.08	0.64	0.01	45447	0	474	35095	45447	44973	292	0	174	9	34605	3212000	475
14	2017-07-14 01:17:04		0	0	0	0	0	0	1.15	0.65	0.01	48767	0	555	37570	48767	48212	318	0	181	11	37009	3212016	510
15	2017-07-14 02:17:02		0	0	0	0	0	0	1.18	0.66	0.01	50392	0	615	38332	50392	49777	332	0	189	11	37811	3212024	532
16	2017-07-14 03:17:10		0	0	0	0	0	0	1.19	0.66	0.01	51283	0	647	38592	51283	50636	339	0	189	11	38075	3212017	539
17	2017-07-14 04:17:06		0	0	0	0	0	0	1.19	0.67	0.01	51814	0	679	38878	51814	51175	348	0	192	11	38353	3212018	551
18	2017-07-14 05:17:32		0	0	0	0	0	0	1.21	0.68	0.01	52438	0	697	39426	52438	51741	354	0	195	11	38910	3212015	560
19	2017-07-14 06:18:49		0	0	0	0	0	0	1.23	0.68	0.01	53463	0	744	40071	53463	52719	361	0	199	11	39554	3212017	571
20	2017-07-14 07:06:45		0	0	0	0	0	0	1.26	0.68	0.01	54680	0	779	40871	54680	53901	371	0	203	11	40418	3212019	585
21	2017-07-14 07:27:53		0	0	0	0	0	0	1.27	0.68	0.01	55019	0	792	41292	55019	54234	373	0	204	11	40829	3212020	588
22	2017-07-14 07:47:33		0	0	0	0	0	0	1.3	0.67	0.01	56172	0	818	42121	56172	55354	379	0	208	11	41631	3212020	598
23	2017-07-14 07:56:04		0	0	0	0	0	0	1.31	0.68	0.01	56620	0	831	42579	56620	55789	384	0	211	11	42078	3212023	606
24	2017-07-14 08:07:41		0	0	0	0	0	0	1.32	0.68	0.02	57284	0	847	42963	57284	56437	392	0	213	11	42453	3212024	616
25	2017-07-14 08:20:13		0	0	0	0	0	0	1.33	0.69	0.02	57751	0	856	43327	57751	56895	399	0	215	11	42808	3212021	625
26	2017-07-14 08:38:43		0	0	0	0	0	0	1.35	0.69	0.02	58700	0	874	43830	58700	57826	405	0	215	11	43299	3212033	631
27	2017-07-14 09:13:35		0	0	0	0	0	0	1.37	0.71	0.02	60348	0	928	44700	60348	59420	429	0	222	11	44078	3212044	662
28	2017-07-14 09:30:09		0	0	0	0	0	0	1.38	0.72	0.02	60560	0	936	44861	60560	59624	435	0	223	11	44235	3212045	669
29	2017-07-14 09:42:46		0	0	0	0	0	0	1.39	0.72	0.02	61374	0	966	45423	61374	60408	444	0	224	11	44771	3212048	679
30	2017-07-14 09:50:42		0	0	0	0	0	0	1.4	0.72	0.02	61742	0	976	45477	61742	60766	447	0	225	11	44822	3212054	683
31	2017-07-14 10:03:11		0	0	0	0	0	0	1.4	0.73	0.02	62225	0	994	45523	62225	61231	456	0	226	11	44889	3212056	693
32	2017-07-14 10:58:05		0	0	0	0	0	0	1.43	0.75	0.02	64397	0	1106	46534	64397	63291	481	0	234	11	45871	3212094	726
33	2017-07-14 11:08:05		0	0	0	0	0	0	1.44	0.75	0.02	64700	0	1132	46809	64700	63568	485	0	234	11	46138	3212100	730
34	2017-07-14 11:18:06		0	0	0	0	0	0	1.44	0.75	0.02	64973	0	1147	46910	64973	63826	486	0	234	11	46237	3212101	731
35	2017-07-14 11:28:06		0	0	0	0	0	0	1.45	0.75	0.02	65228	0	1159	47145	65228	64069	487	0	235	11	46464	3212110	733
36	2017-07-14 11:38:06		0	0	0	0	0	0	1.45	0.75	0.02	65509	0	1170	47202	65509	64339	489	0	236	11	46475	3212117	736
37	2017-07-14 11:48:05		0	0	0	0	0	0	1.45	0.75	0.02	65748	0	1192	47320	65748	64556	491	0	237	11	46568	3212124	739
38	2017-07-14 11:58:05		0	0	0	0	0	0	1.46	0.74	0.02	66007	0	1205	47611	66007	64802	491	0	239	11	46850	3212131	741
39	2017-07-14 12:08:05		0	0	0	0	0	0	1.46	0.74	0.02	66234	0	1216	47620	66234	65018	493	0	241	11	46858	3212142	745
40	2017-07-14 12:18:05		0	0	0	0	0	0	1.47	0.74	0.02	66487	0	1228	47929	66487	65259	494	0	242	11	47145	3212144	747
41	2017-07-14 12:28:05		0	0	0	0	0	0	1.47	0.74	0.02	66721	0	1248	47973	66721	65473	494	0	243	11	47188	3212145	748
42	2017-07-14 12:38:06		0	0	0	0	0	0	1.47	0.74	0.02	66930	0	1258	48092	66930	65672	495	0	244	11	47304	3212152	750
43	2017-07-14 12:48:05		0	0	0	0	0	0	1.48	0.74	0.02	67174	0	1270	48226	67174	65904	495	0	244	11	47433	3212155	750
44	2017-07-14 12:58:06		0	0	0	0	0	0	1.48	0.73	0.02	67384	0	1286	48333	67384	66098	495	0	245	11	47560	3212155	751
45	2017-07-14 13:08:06		0	0	0	0	0	0	1.49	0.74	0.02	67607	0	1299	48521	67607	66308	498	0	246	11	47789	3212157	755
46	2017-07-14 13:18:08		0	0	0	0	0	0	1.49	0.74	0.02	67846	0	1317	48618	67846	66529	500	0	247	11	47883	3212161	758
47	2017-07-14 13:28:06		0	0	0	0	0	0	1.49	0.74	0.02	68040	0	1334	48716	68040	66706	502	0	247	11	47978	3212165	760
48	2017-07-14 13:38:06		0	0	0	0	0	0	1.5	0.74	0.02	68260	0	1348	48814	68260	66912	502	0	251	11	48049	3212172	764
49	2017-07-14 13:48:06		0	0	0	0	0	0	1.5	0.73	0.02	68480	0	1368	48850	68480	67112	502	0	253	11	48084	3212175	766
50	2017-07-14 13:58:06		0	0	0	0	0	0	1.5	0.73	0.02	68704	0	1384	48917	68704	67320	504	0	253	11	48131	3212184	768
51	2017-07-14 14:08:06		0	0	0	0	0	0	1.5	0.73	0.02	68904	0	1393	49115	68904	67511	504	0	253	11	48275	3212192	768
52	2017-07-14 14:18:05		0	0	0	0	0	0	1.51	0.73	0.02	69098	0	1416	49309	69098	67682	505	0	253	11	48499	3212196	769
53	2017-07-14 14:28:05		0	0	0	0	0	0	1.52	0.73	0.02	69293	0	1429	49594	69293	67864	505	0	255	11	48700	3212205	771
54	2017-07-14 14:38:06		0	0	0	0	0	0	1.52	0.73	0.02	69509	0	1444	49619	69509	68065	505	0	255	11	48725	3212202	771
55	2017-07-14 14:48:06		0	0	0	0	0	0	1.52	0.73	0.02	69712	0	1455	49734	69712	68257	506	0	256	11	48835	3212208	773
56	2017-07-14 14:58:06		0	0	0	0	0	0	1.53	0.73	0.02	69906	0	1465	49975	69906	68441	507	0	257	11	49067	3212209	775
57	2017-07-14 15:08:06		0	0	0	0	0	0	1.53	0.72	0.02	70093	0	1478	50124	70093	68615	508	0	258	11	49211	3212212	777
58	2017-07-14 15:18:07		0	0	0	0	0	0	1.53	0.72	0.02	70275	0	1509	50270	70275	68766	508	0	258	11	49302	3212214	777
59	2017-07-14 15:28:06		0	0	0	0	0	0	1.53	0.72	0.02	70435	0	1532	50270	70435	68903	508	0	258	11	49302	3212217	777
60	2017-07-14 15:38:06		0	0	0	0	0	0	1.54	0.72	0.02	70617	0	1541	50283	70617	69076	509	0	259	11	49314	3212212	779
61	2017-07-14 15:48:08		0	0	0	0	0	0	1.54	0.72	0.02	70800	0	1551	50316	70800	69249	510	0	259	11	49346	3212219	780
62	2017-07-14 15:58:08		0	0	0	0	0	0	1.54	0.72	0.02	70978	0	1565	50440	70978	69413	510	0	259	11	49466	3212225	780
63	2017-07-14 16:08:06		0	0	0	0	0	0	1.54	0.72	0.02	71127	0	1569	50562	71127	69558	511	0	259	11	49589	3212231	781
64	2017-07-14 16:18:07		0	0	0	0	0	0	1.55	0.72	0.02	71302	0	1576	50731	71302	69726	512	0	260	11	49752	3212229	783
65	2017-07-14 16:28:07		0	0	0	0	0	0	1.55	0.72	0.02	71457	0	1585	50789	71457	69872	512	0	260	11	49808	3212227	783
66	2017-07-14 16:38:06		0	0	0	0	0	0	1.56	0.71	0.02	71624	0	1593	50984	71624	70031	512	0	261	11	49972	3212229	784
67	2017-07-14 16:48:06		0	0	0	0	0	0	1.56	0.71	0.02	71829	0	1601	51051	71829	70228	513	0	262	11	50036	3212235	786
68	2017-07-14 16:58:07		0	0	0	0	0	0	1.56	0.71	0.02	71984	0	1609	51081	71984	70375	514	0	264	11	50065	3212231	789
69	2017-07-14 17:08:07		0	0	0	0	0	0	1.56	0.71	0.02	72082	0	1620	51187	72082	70538	515	0	264	11	50168	3212232	790
70	2017-07-14 17:18:07		0	0	0	0	0	0	1.57	0.71	0.02	72331	0	1634	51471	72331	70697	516	0	264	11	50440	3212234	791
71	2017-07-14 17:28:07		0	0	0	0	0	0	1.57	0.71	0.02	72392	0	1641	51499	72392	70755	517	0	264	11	50467	3212240	792
72	2017-07-14 17:38:07		0	0	0	0	0	0	1.58	0.72	0.02	72564	0	1653	51664	72564	70918	519	0	265	11	50625	3212241	795
73	2017-07-14 17:48:08		0	0	0	0	0	0	1.58	0.71	0.02	72810	0	1665	51780	72810	71145	520	0	265	11	50777	3212239	796
74	2017-07-14 17:58:09		0	0	0	0	0	0	1.58	0.71	0.02	72897	0	1679	51979	72897	71292	520	0	266	11	50904	3212237	797
75	2017-07-14 18:08:08		0	0	0	0	0	0	1.59	0.71	0.02	73038	0	1681	52097	73038	71359	521	0	265	11	51017	3212243	797
76	2017-07-14 18:18:17		0	0	0	0	0	0	1.59	0.71	0.02	73201	0	1690	52207	73201	71586	522	0	265	11	51137	3212249	798
77	2017-07-14 18:28:08		0	0	0	0	0	0	1.59	0.71	0.02	73365	0	1694	52275	73365	71673	522	0	265	11	51216	3212249	798
78	2017-07-14 18:38:07		0	0	0	0	0	0	1.6	0.71	0.02	73596	0	1704	52427	73596	71892	522	0	266	11	51416	3212251	799
79	2017-07-14 18:48:13		0	0	0	0	0	0	1.6	0.71	0.02	73676	0	1712	52499	73676	71967	522	0	266	11	51430	3212255	799
80	2017-07-14 18:58:08		0	0	0	0	0	0	1.6	0.71	0.02	73807	0	1720	52609	73807	72089	524	0	267	11	51536	3212254	802
81	2017-07-14 19:08:10		0	0	0	0	0	0	1.61	0.71	0.02	73944	0	1727	52724	73944	72221	526	0	267	11	51646	3212256	804
82	2017-07-14 19:44:33		0	0	0	0	0	0	1.63	0.71	0.02	74501	0	1755	53408	74501	72746	527	0	268	11	52359	3212276	806
83	2017-07-14 19:53:09		0	0	0	0	0	0	1.63	0.71	0.02	74573	0	1764	53408	74573	72815	527	0	268	11	52359	3212276	806
84	2017-07-14 20:03:07		0	0	0	0	0	0	1.63	0.71	0.02	74718	0	1768	53481	74718	72950	527	0	269	11	52430	3212278	807
85	2017-07-14 20:13:07		0	0	0	0	0	0	1.63	0.71	0.02	74842	0	1779	53502	74842	73069	528	0	270	11	52449	3212280	809
86	2017-07-14 20:23:06		0	0	0	0	0	0	1.64	0.71	0.02	74979	0	1781	53524	74979	73198	530	0	272	11	52527	3212281	813
87	2017-07-14 20:33:05		0	0	0	0	0	0	1.64	0.71	0.02	75115	0	1790	53726	75115	73326	531	0	273	11	52722	3212282	815
88	2017-07-14 20:43:06		0	0	0	0	0	0	1.64	0.71	0.02	75242	0	1793	53756	75242	73449	532	0	274	11	52751	3212282	817
89	2017-07-14 20:53:06		0	0	0	0	0	0	1.64	0.71	0.02	75352	0	1802	53801	75352	73552	534	0	276	11	52794	3212286	821
90	2017-07-14 21:03:06		0	0	0	0	0	0	1.65	0.71	0.02	75470	0	1807	54056	75470	73663	535	0	276	11	53040	3212286	822
91	2017-07-14 21:13:06		0	0	0	0	0	0	1.66	0.71	0.02	75603	0	1813	54223	75603	73790	535	0	276	11	53201	3212292	822
92	2017-07-14 21:23:06		0	0	0	0	0	0	1.66	0.71	0.02	75724	0	1819	54284	75724	73905	536	0	276	11	53259	3212295	823
93	2017-07-14 21:33:06		0	0	0	0	0	0	1.66	0.71	0.02	75846	0	1826	54416	75846	74020	537	0	276	11	53358	3212298	824
94	2017-07-14 21:43:06		0	0	0	0	0	0	1.66	0.71	0.02	75965	0	1829	54507	75965	74136	537	0	276	11	53384	3212302	824
95	2017-07-14 21:53:07		0	0	0	0	0	0	1.66	0.71	0.02	76093	0	1835	54553	76093	74258	537	0	277	11	53428	3212305	825
96	2017-07-14 22:03:07		0	0	0	0	0	0	1.66	0.71	0.02	76182	0	1841	54566	76182	74341	538	0	278	11	53441	3212306	827
97	2017-07-14 22:13:07		0	0	0	0	0	0	1.66	0.71	0.02	76300	0	1855	54566	76300	74445	538	0	278	11	53441	3212305	827
98	2017-07-14 22:23:07		0	0	0	0	0	0	1.66	0.71	0.02	76374	0	1860	54589	76374	74514	539	0	278	11	53463	3212303	828
99	2017-07-14 22:33:07		0	0	0	0	0	0	1.66	0.71	0.03	76446	0	1865	54589	76446	74581	539	0	279	11	53463	3212301	829
100	2017-07-14 22:43:08		0	0	0	0	0	0	1.67	0.7	0.03	76516	0	1870	54689	76516	74646	539	0	279	11	53559	3212311	829
101	2017-07-14 22:53:07		0	0	0	0	0	0	1.67	0.7	0.03	76599	0	1877	54689	76599	74722	539	0	279	11	53559	3212308	829
102	2017-07-14 23:03:07		0	0	0	0	0	0	1.67	0.7	0.03	76658	0	1880	54689	76658	74778	539	0	279	11	53559	3212316	829
103	2017-07-14 23:13:08		0	0	0	0	0	0	1.67	0.7	0.03	76732	0	1889	54876	76732	74843	540	0	279	11	53738	3212316	830
104	2017-07-14 23:23:07		0	0	0	0	0	0	1.67	0.7	0.03	76799	0	1896	54876	76799	74903	540	0	280	11	53738	3212321	831
105	2017-07-14 23:33:07		0	0	0	0	0	0	1.67	0.7	0.03	76854	0	1898	54876	76854	74956	540	0	280	11	53738	3212325	831
106	2017-07-14 23:43:07		0	0	0	0	0	0	1.67	0.7	0.03	76924	0	1905	54938	76924	75019	540	0	280	11	53798	3212323	831
107	2017-07-14 23:53:06		0	0	0	0	0	0	1.67	0.7	0.03	76983	0	1909	54946	76983	75074	540	0	280	11	53805	3212329	831
108	2017-07-15 00:15:38		0	0	0	0	0	0	1.68	0.71	0.03	77109	0	1919	55094	77109	75190	544	0	280	11	53948	3212324	835
109	2017-07-15 01:15:38		0	0	0	0	0	0	1.68	0.71	0.03	77257	0	1931	55110	77257	75326	546	0	281	11	53963	3212324	838
110	2017-07-15 02:15:38		0	0	0	0	0	0	1.68	0.71	0.03	77331	0	1936	55157	77331	75395	546	0	282	11	54008	3212326	839
111	2017-07-15 03:15:40		0	0	0	0	0	0	1.68	0.71	0.03	77377	0	1942	55157	77377	75435	546	0	282	11	54008	3212330	839
112	2017-07-15 04:15:39		0	0	0	0	0	0	1.68	0.71	0.03	77399	0	1942	55192	77399	75457	546	0	282	11	54042	3212329	839
113	2017-07-15 05:15:40		0	0	0	0	0	0	1.68	0.71	0.03	77431	0	1943	55192	77431	75488	546	0	282	11	54042	3212335	839
114	2017-07-15 06:15:44		0	0	0	0	0	0	1.68	0.7	0.03	77471	0	1946	55206	77471	75525	546	0	282	11	54055	3212336	839
115	2017-07-15 07:03:08		0	0	0	0	0	0	1.68	0.7	0.03	77513	0	1951	55206	77513	75562	546	0	282	11	54055	3212338	839
116	2017-07-15 07:13:08		0	0	0	0	0	0	1.68	0.7	0.03	77531	0	1952	55206	77531	75579	546	0	282	11	54055	3212337	839
117	2017-07-15 07:23:09		0	0	0	0	0	0	1.68	0.7	0.03	77550	0	1954	55206	77550	75596	546	0	282	11	54055	3212336	839
118	2017-07-15 07:33:10		0	0	0	0	0	0	1.68	0.7	0.03	77565	0	1954	55206	77565	75611	546	0	282	11	54055	3212339	839
119	2017-07-15 07:43:08		0	0	0	0	0	0	1.68	0.7	0.03	77583	0	1955	55206	77583	75628	546	0	282	11	54055	3212340	839
120	2017-07-15 07:53:08		0	0	0	0	0	0	1.68	0.7	0.03	77612	0	1955	55238	77612	75657	546	0	282	11	54085	3212343	839
121	2017-07-15 08:03:08		0	0	0	0	0	0	1.68	0.7	0.03	77633	0	1956	55238	77633	75677	546	0	282	11	54085	3212345	839
122	2017-07-15 08:13:07		0	0	0	0	0	0	1.68	0.7	0.03	77653	0	1958	55238	77653	75695	546	0	282	11	54085	3212344	839
123	2017-07-15 08:23:08		0	0	0	0	0	0	1.69	0.7	0.03	77674	0	1960	55308	77674	75714	546	0	282	11	54153	3212344	839
124	2017-07-15 08:33:09		0	0	0	0	0	0	1.69	0.7	0.03	77698	0	1962	55340	77698	75736	546	0	282	11	54183	3212347	839
125	2017-07-15 08:43:09		0	0	0	0	0	0	1.69	0.7	0.03	77718	0	1962	55340	77718	75756	546	0	283	11	54183	3212354	840
126	2017-07-15 08:53:14		0	0	0	0	0	0	1.69	0.7	0.03	77744	0	1963	55347	77744	75781	546	0	283	11	54190	3212354	840
127	2017-07-15 09:03:09		0	0	0	0	0	0	1.69	0.7	0.03	77768	0	1968	55379	77768	75800	546	0	283	11	54221	3212356	840
128	2017-07-15 09:13:09		0	0	0	0	0	0	1.69	0.7	0.03	77803	0	1971	55379	77803	75832	546	0	283	11	54221	3212355	840
129	2017-07-15 09:23:13		0	0	0	0	0	0	1.69	0.7	0.03	77826	0	1974	55379	77826	75852	546	0	284	11	54221	3212359	841
130	2017-07-15 09:33:11		0	0	0	0	0	0	1.69	0.7	0.03	77852	0	1976	55379	77852	75876	546	0	284	11	54221	3212363	841
131	2017-07-15 09:43:11		0	0	0	0	0	0	1.69	0.7	0.03	77882	0	1977	55379	77882	75905	546	0	284	11	54221	3212363	841
132	2017-07-15 09:53:21		0	0	0	0	0	0	1.69	0.7	0.03	77904	0	1977	55379	77904	75927	546	0	285	11	54221	3212366	842
133	2017-07-15 10:03:16		0	0	0	0	0	0	1.69	0.7	0.03	77928	0	1978	55387	77928	75950	546	0	285	11	54228	3212372	842
134	2017-07-15 10:13:10		0	0	0	0	0	0	1.69	0.7	0.03	77945	0	1979	55387	77945	75966	546	0	285	11	54228	3212375	842
135	2017-07-15 10:23:11		0	0	0	0	0	0	1.69	0.7	0.03	77962	0	1979	55387	77962	75983	546	0	285	11	54228	3212378	842
136	2017-07-15 10:33:22		0	0	0	0	0	0	1.69	0.7	0.03	77984	0	1979	55419	77984	76005	546	0	285	11	54259	3212388	842
137	2017-07-15 10:43:10		0	0	0	0	0	0	1.69	0.7	0.03	78000	0	1979	55419	78000	76021	546	0	285	11	54259	3212391	842
138	2017-07-15 10:53:10		0	0	0	0	0	0	1.69	0.7	0.03	78014	0	1979	55419	78014	76035	546	0	285	11	54259	3212396	842
139	2017-07-15 11:03:14		0	0	0	0	0	0	1.69	0.7	0.03	78033	0	1979	55419	78033	76054	546	0	285	11	54259	3212402	842
140	2017-07-15 11:13:11		0	0	0	0	0	0	1.69	0.7	0.03	78046	0	1979	55419	78046	76067	546	0	285	11	54259	3212408	842
141	2017-07-15 11:23:13		0	0	0	0	0	0	1.69	0.7	0.03	78063	0	1979	55419	78063	76084	547	0	285	11	54259	3212409	843
142	2017-07-15 11:33:12		0	0	0	0	0	0	1.69	0.7	0.03	78076	0	1980	55419	78076	76096	547	0	285	11	54259	3212417	843
143	2017-07-15 11:44:26		0	0	0	0	0	0	1.69	0.7	0.03	78092	0	1981	55419	78092	76111	547	0	285	11	54259	3212423	843
144	2017-07-15 11:54:05		0	0	0	0	0	0	1.69	0.7	0.03	78104	0	1982	55419	78104	76122	548	0	287	11	54259	3212428	846
145	2017-07-15 12:04:23		0	0	0	0	0	0	1.69	0.7	0.03	78117	0	1983	55419	78117	76134	548	0	288	11	54259	3212441	847
146	2017-07-15 12:14:32		0	0	0	0	0	0	1.69	0.7	0.03	78127	0	1984	55419	78127	76143	548	0	288	11	54318	3212444	847
147	2017-07-15 12:24:26		0	0	0	0	0	0	1.69	0.7	0.03	78140	0	1984	55419	78140	76156	548	0	288	11	54318	3212444	847
148	2017-07-15 12:35:02		0	0	0	0	0	0	1.69	0.7	0.03	78159	0	1985	55419	78159	76174	548	0	288	11	54318	3212449	847
149	2017-07-15 12:44:53		0	0	0	0	0	0	1.69	0.7	0.03	78174	0	1986	55419	78174	76188	548	0	288	11	54318	3212454	847
150	2017-07-15 12:54:54		0	0	0	0	0	0	1.69	0.7	0.03	78191	0	1986	55419	78191	76205	548	0	288	11	54318	3212461	847
151	2017-07-15 13:05:12		0	0	0	0	0	0	1.69	0.7	0.03	78209	0	1987	55427	78209	76222	548	0	289	11	54325	3212462	848
152	2017-07-15 13:15:14		0	0	0	0	0	0	1.69	0.7	0.03	78222	0	1988	55427	78222	76234	548	0	289	11	54325	3212461	848
153	2017-07-15 13:25:12		0	0	0	0	0	0	1.69	0.7	0.03	78234	0	1989	55427	78234	76245	548	0	289	11	54325	3212462	848
154	2017-07-15 13:35:10		0	0	0	0	0	0	1.69	0.7	0.03	78249	0	1990	55486	78249	76259	549	0	289	11	54383	3212471	849
155	2017-07-15 13:45:09		0	0	0	0	0	0	1.69	0.7	0.03	78259	0	1990	55486	78259	76269	549	0	289	11	54383	3212473	849
156	2017-07-15 13:55:07		0	0	0	0	0	0	1.69	0.7	0.03	78271	0	1991	55486	78271	76280	549	0	289	11	54383	3212479	849
157	2017-07-15 14:12:01		0	0	0	0	0	0	1.69	0.7	0.03	78279	0	1992	55486	78279	76287	549	0	289	11	54383	3212480	849
158	2017-07-15 14:22:00		0	0	0	0	0	0	1.69	0.7	0.03	78296	0	1992	55486	78296	76304	550	0	289	11	54383	3212485	850
159	2017-07-15 14:31:54		0	0	0	0	0	0	1.69	0.7	0.03	78310	0	1992	55486	78310	76318	550	0	289	11	54383	3212492	850
160	2017-07-15 14:42:04		0	0	0	0	0	0	1.69	0.7	0.03	78321	0	1993	55486	78321	76328	550	0	289	11	54383	3212500	850
161	2017-07-15 15:10:10		0	0	0	0	0	0	1.69	0.7	0.03	78351	0	1995	55486	78351	76356	550	0	289	11	54383	3212499	850
162	2017-07-15 15:18:13		0	0	0	0	0	0	1.69	0.7	0.03	78362	0	1996	55486	78362	76366	550	0	289	11	54383	3212505	850
163	2017-07-15 15:28:36		0	0	0	0	0	0	1.69	0.7	0.03	78380	0	1996	55486	78380	76384	550	0	289	11	54383	3212513	850
164	2017-07-15 15:45:15		0	0	0	0	0	0	1.69	0.7	0.03	78404	0	1996	55486	78404	76408	551	0	289	11	54383	3212519	851
165	2017-07-15 15:58:18		0	0	0	0	0	0	1.69	0.7	0.03	78420	0	1997	55486	78420	76423	552	0	289	11	54383	3212525	852
166	2017-07-15 16:12:53		0	0	0	0	0	0	1.69	0.7	0.03	78441	0	2001	55486	78441	76440	552	0	289	11	54383	3212529	852
167	2017-07-15 16:47:52		0	0	0	0	0	0	1.69	0.7	0.03	78464	0	2004	55486	78464	76460	552	0	289	11	54383	3212550	852
168	2017-07-15 17:07:28		0	0	0	0	0	0	1.69	0.7	0.03	78501	0	2005	55486	78501	76496	552	0	289	11	54383	3212556	852
169	2017-07-15 17:21:20		0	0	0	0	0	0	1.69	0.7	0.03	78513	0	2006	55486	78513	76507	552	0	290	11	54383	3212564	853
170	2017-07-15 17:34:55		0	0	0	0	0	0	1.69	0.7	0.03	78526	0	2006	55486	78526	76520	552	0	290	11	54383	3212569	853
171	2017-07-15 17:47:45		0	0	0	0	0	0	1.69	0.7	0.03	78541	0	2008	55486	78541	76533	553	0	290	11	54383	3212574	854
172	2017-07-15 18:11:30		0	0	0	0	0	0	1.69	0.7	0.03	78569	0	2008	55486	78569	76561	553	0	290	11	54383	3212585	854
173	2017-07-15 18:21:32		0	0	0	0	0	0	1.69	0.7	0.03	78576	0	2008	55486	78576	76568	553	0	290	11	54383	3212587	854
174	2017-07-15 18:31:37		0	0	0	0	0	0	1.69	0.7	0.03	78592	0	2009	55550	78592	76583	553	0	290	11	54444	3212592	854
175	2017-07-15 18:41:39		0	0	0	0	0	0	1.7	0.7	0.03	78607	0	2009	55565	78607	76598	553	0	290	11	54459	3212601	854
176	2017-07-15 18:51:41		0	0	0	0	0	0	1.7	0.7	0.03	78616	0	2009	55565	78616	76607	553	0	290	11	54459	3212609	854
177	2017-07-15 19:01:40		0	0	0	0	0	0	1.7	0.7	0.03	78626	0	2009	55565	78626	76617	553	0	290	11	54459	3212614	854
178	2017-07-15 19:11:48		0	0	0	0	0	0	1.7	0.7	0.03	78639	0	2009	55605	78639	76630	553	0	290	11	54497	3212616	854
179	2017-07-15 19:21:38		0	0	0	0	0	0	1.7	0.7	0.03	78650	0	2009	55605	78650	76641	553	0	290	11	54497	3212624	854
180	2017-07-15 19:31:39		0	0	0	0	0	0	1.7	0.7	0.03	78666	0	2009	55605	78666	76657	553	0	290	11	54497	3212621	854
181	2017-07-15 19:41:39		0	0	0	0	0	0	1.7	0.7	0.03	78688	0	2009	55637	78688	76679	553	0	290	11	54528	3212620	854
182	2017-07-15 19:51:38		0	0	0	0	0	0	1.7	0.7	0.03	78699	0	2010	55637	78699	76689	553	0	290	11	54528	3212621	854
183	2017-07-15 20:01:42		0	0	0	0	0	0	1.7	0.7	0.03	78703	0	2010	55637	78703	76696	554	0	290	11	54528	3212631	855
184	2017-07-15 20:11:46		0	0	0	0	0	0	1.7	0.7	0.03	78719	0	2011	55637	78719	76708	554	0	290	11	54528	3212637	855
185	2017-07-15 20:21:48		0	0	0	0	0	0	1.7	0.71	0.03	78736	0	2014	55645	78736	76722	557	0	290	11	54535	3212647	858
186	2017-07-15 20:31:52		0	0	0	0	0	0	1.7	0.71	0.03	78746	0	2017	55645	78746	76729	557	0	290	11	54535	3212645	858
187	2017-07-15 20:41:54		0	0	0	0	0	0	1.7	0.71	0.03	78755	0	2017	55675	78755	76738	557	0	290	11	54564	3212645	858
188	2017-07-15 20:51:59		0	0	0	0	0	0	1.7	0.71	0.03	78766	0	2017	55675	78766	76749	557	0	290	11	54564	3212647	858
189	2017-07-15 21:01:43		0	0	0	0	0	0	1.7	0.71	0.03	78778	0	2017	55703	78778	76761	557	0	290	11	54591	3212659	858
190	2017-07-15 21:11:38		0	0	0	0	0	0	1.7	0.71	0.03	78795	0	2020	55703	78795	76775	557	0	290	11	54591	3212668	858
191	2017-07-15 21:21:39		0	0	0	0	0	0	1.7	0.71	0.03	78810	0	2023	55703	78810	76787	557	0	290	11	54591	3212665	858
192	2017-07-15 21:31:38		0	0	0	0	0	0	1.7	0.71	0.03	78820	0	2024	55816	78820	76796	557	0	290	11	54699	3212665	858
193	2017-07-15 21:41:38		0	0	0	0	0	0	1.7	0.71	0.03	78835	0	2027	55816	78835	76808	557	0	290	11	54699	3212663	858
194	2017-07-15 21:51:37		0	0	0	0	0	0	1.7	0.71	0.03	78848	0	2028	55816	78848	76820	557	0	290	11	54699	3212664	858
195	2017-07-15 22:01:39		0	0	0	0	0	0	1.7	0.71	0.03	78859	0	2028	55816	78859	76831	557	0	290	11	54699	3212671	858
196	2017-07-15 22:11:38		0	0	0	0	0	0	1.7	0.71	0.03	78867	0	2030	55816	78867	76837	557	0	290	11	54699	3212680	858
197	2017-07-15 22:21:38		0	0	0	0	0	0	1.7	0.71	0.03	78883	0	2030	55816	78883	76853	557	0	290	11	54699	3212691	858
198	2017-07-15 22:31:38		0	0	0	0	0	0	1.7	0.71	0.03	78898	0	2031	55816	78898	76867	557	0	290	11	54699	3212696	858
199	2017-07-15 22:41:39		0	0	0	0	0	0	1.7	0.71	0.03	78912	0	2031	55816	78912	76881	557	0	290	11	54699	3212702	858
200	2017-07-15 22:51:40		0	0	0	0	0	0	1.7	0.71	0.03	78932	0	2031	55816	78932	76901	557	0	290	11	54699	3212713	858
201	2017-07-15 23:01:38		0	0	0	0	0	0	1.7	0.71	0.03	78939	0	2031	55816	78939	76908	557	0	291	11	54699	3212719	859
202	2017-07-15 23:11:39		0	0	0	0	0	0	1.7	0.71	0.03	78952	0	2031	55816	78952	76921	557	0	291	11	54699	3212723	859
203	2017-07-15 23:21:39		0	0	0	0	0	0	1.7	0.71	0.03	78967	0	2031	55816	78967	76936	557	0	291	11	54699	3212730	859
204	2017-07-15 23:31:39		0	0	0	0	0	0	1.7	0.71	0.03	78981	0	2031	55824	78981	76950	557	0	291	11	54707	3212748	859
205	2017-07-15 23:41:38		0	0	0	0	0	0	1.7	0.71	0.03	78992	0	2031	55840	78992	76961	557	0	291	11	54722	3212754	859
206	2017-07-15 23:51:38		0	0	0	0	0	0	1.7	0.71	0.03	79006	0	2032	55840	79006	76974	557	0	291	11	54722	3212758	859
207	2017-07-16 00:01:39		0	0	0	0	0	0	1.7	0.7	0.03	79019	0	2033	55840	79019	76986	557	0	291	11	54722	3212763	859
208	2017-07-16 01:01:39		0	0	0	0	0	0	1.7	0.7	0.03	79075	0	2038	55872	79075	77037	557	0	291	11	54753	3212799	859
209	2017-07-16 02:01:43		0	0	0	0	0	0	1.7	0.7	0.03	79105	0	2039	55888	79105	77066	557	0	291	11	54769	3212818	859
210	2017-07-16 03:01:39		0	0	0	0	0	0	1.7	0.7	0.03	79120	0	2042	55888	79120	77078	557	0	291	11	54769	3212821	859
211	2017-07-16 04:01:40		0	0	0	0	0	0	1.7	0.7	0.03	79126	0	2042	55888	79126	77084	557	0	291	11	54769	3212819	859
212	2017-07-16 05:01:43		0	0	0	0	0	0	1.7	0.7	0.03	79133	0	2042	55888	79133	77091	557	0	291	11	54769	3212822	859
213	2017-07-16 06:01:39		0	0	0	0	0	0	1.7	0.7	0.03	79142	0	2042	55888	79142	77100	557	0	291	11	54769	3212822	859
214	2017-07-16 07:01:45		0	0	0	0	0	0	1.71	0.7	0.03	79165	0	2044	55913	79165	77121	558	0	291	11	54792	3212819	860
215	2017-07-16 07:11:40		0	0	0	0	0	0	1.71	0.7	0.03	79172	0	2044	55917	79172	77128	558	0	291	11	54796	3212820	860
216	2017-07-16 07:21:39		0	0	0	0	0	0	1.71	0.7	0.03	79175	0	2044	55917	79175	77131	558	0	291	11	54796	3212820	860
217	2017-07-16 07:31:46		0	0	0	0	0	0	1.71	0.7	0.03	79177	0	2044	55917	79177	77133	558	0	291	11	54796	3212820	860
218	2017-07-16 07:41:39		0	0	0	0	0	0	1.71	0.7	0.03	79186	0	2044	55949	79186	77142	558	0	291	11	54827	3212823	860
219	2017-07-16 07:51:47		0	0	0	0	0	0	1.71	0.7	0.03	79189	0	2044	55949	79189	77145	558	0	291	11	54827	3212827	860
220	2017-07-16 08:01:44		0	0	0	0	0	0	1.71	0.7	0.03	79192	0	2044	55949	79192	77148	558	0	291	11	54827	3212826	860
221	2017-07-16 08:11:40		0	0	0	0	0	0	1.71	0.7	0.03	79203	0	2046	55949	79203	77157	558	0	291	11	54827	3212826	860
222	2017-07-16 08:21:40		0	0	0	0	0	0	1.71	0.7	0.03	79211	0	2046	55949	79211	77165	558	0	291	11	54827	3212827	860
223	2017-07-16 08:31:41		0	0	0	0	0	0	1.71	0.7	0.03	79223	0	2047	55949	79223	77176	558	0	291	11	54827	3212835	860
224	2017-07-16 08:41:40		0	0	0	0	0	0	1.71	0.7	0.03	79225	0	2047	55949	79225	77178	558	0	291	11	54827	3212836	860
225	2017-07-16 08:51:41		0	0	0	0	0	0	1.71	0.7	0.03	79239	0	2047	55949	79239	77192	558	0	291	11	54827	3212840	860
226	2017-07-16 09:01:40		0	0	0	0	0	0	1.71	0.7	0.03	79244	0	2047	55949	79244	77197	558	0	291	11	54827	3212843	860
227	2017-07-16 09:11:42		0	0	0	0	0	0	1.71	0.7	0.03	79252	0	2048	55949	79252	77204	558	0	291	11	54827	3212844	860
228	2017-07-16 09:21:41		0	0	0	0	0	0	1.71	0.7	0.03	79264	0	2048	55949	79264	77211	558	0	291	11	54827	3212844	860
229	2017-07-16 09:31:41		0	0	0	0	0	0	1.71	0.7	0.03	79268	0	2049	55949	79268	77219	558	0	291	11	54827	3212842	860
230	2017-07-16 09:41:40		0	0	0	0	0	0	1.71	0.7	0.03	79277	0	2049	55981	79277	77223	558	0	291	11	54858	3212839	860
231	2017-07-16 09:51:41		0	0	0	0	0	0	1.71	0.7	0.03	79283	0	2049	55981	79283	77232	558	0	291	11	54858	3212839	860
232	2017-07-16 10:01:42		0	0	0	0	0	0	1.71	0.7	0.03	79288	0	2049	55981	79288	77239	558	0	291	11	54858	3212839	860
233	2017-07-16 10:11:41		0	0	0	0	0	0	1.71	0.7	0.03	79302	0	2049	55981	79302	77248	558	0	291	11	54858	3212844	860
234	2017-07-16 10:21:46		0	0	0	0	0	0	1.71	0.7	0.03	79309	0	2049	55981	79309	77258	558	0	291	11	54858	3212848	860
235	2017-07-16 10:31:42		0	0	0	0	0	0	1.71	0.7	0.03	79313	0	2049	55981	79313	77263	558	0	291	11	54858	3212850	860
236	2017-07-16 10:41:47		0	0	0	0	0	0	1.71	0.7	0.03	79320	0	2049	55981	79320	77268	558	0	291	11	54858	3212851	860
237	2017-07-16 10:51:42		0	0	0	0	0	0	1.71	0.7	0.03	79325	0	2049	55981	79325	77276	558	0	291	11	54858	3212853	860
238	2017-07-16 11:01:44		0	0	0	0	0	0	1.71	0.7	0.03	79342	0	2049	55981	79342	77288	558	0	291	11	54858	3212858	860
239	2017-07-16 11:11:45		0	0	0	0	0	0	1.71	0.7	0.03	79348	0	2049	55981	79348	77296	558	0	291	11	54858	3212867	860
240	2017-07-16 11:21:57		0	0	0	0	0	0	1.71	0.7	0.03	79354	0	2049	55981	79354	77302	558	0	291	11	54858	3212874	860
241	2017-07-16 11:31:53		0	0	0	0	0	0	1.71	0.7	0.03	79358	0	2049	55981	79358	77308	558	0	291	11	54858	3212878	860
242	2017-07-16 11:41:55		0	0	0	0	0	0	1.71	0.7	0.03	79367	0	2049	55981	79367	77312	558	0	291	11	54858	3212880	860
243	2017-07-16 11:51:42		0	0	0	0	0	0	1.71	0.7	0.03	79375	0	2049	55981	79375	77322	558	0	291	11	54858	3212886	860
244	2017-07-16 12:01:55		0	0	0	0	0	0	1.71	0.7	0.03	79380	0	2049	55981	79380	77327	558	0	291	11	54858	3212890	860
245	2017-07-16 12:13:16		0	0	0	0	0	0	1.71	0.7	0.03	79391	0	2049	55981	79391	77342	558	0	292	11	54858	3212895	861
246	2017-07-16 12:23:16		0	0	0	0	0	0	1.71	0.7	0.03	79398	0	2049	55981	79398	77349	558	0	292	11	54858	3212904	861
247	2017-07-16 12:33:30		0	0	0	0	0	0	1.71	0.7	0.03	79407	0	2050	56014	79407	77357	558	0	292	11	54889	3212911	861
248	2017-07-16 12:43:17		0	0	0	0	0	0	1.71	0.7	0.03	79413	0	2050	56014	79413	77363	558	0	292	11	54889	3212918	861
249	2017-07-16 12:53:17		0	0	0	0	0	0	1.71	0.7	0.03	79420	0	2050	56014	79420	77370	558	0	292	11	54889	3212925	861
250	2017-07-16 13:03:20		0	0	0	0	0	0	1.71	0.7	0.03	79425	0	2050	56014	79425	77375	558	0	292	11	54889	3212932	861
251	2017-07-16 13:16:10		0	0	0	0	0	0	1.71	0.7	0.03	79432	0	2050	56209	79432	77382	558	0	292	11	55077	3212942	861
252	2017-07-16 13:26:04		0	0	0	0	0	0	1.71	0.7	0.03	79437	0	2050	56209	79437	77387	558	0	292	11	55077	3212945	861
253	2017-07-16 13:36:04		0	0	0	0	0	0	1.71	0.7	0.03	79443	0	2050	56209	79443	77393	558	0	292	11	55077	3212952	861
254	2017-07-16 13:46:21		0	0	0	0	0	0	1.71	0.7	0.03	79449	0	2050	56209	79449	77399	560	0	292	11	55077	3212957	863
255	2017-07-16 13:56:20		0	0	0	0	0	0	1.71	0.7	0.03	79455	0	2051	56209	79455	77404	560	0	292	11	55077	3212961	863
256	2017-07-16 14:10:36		0	0	0	0	0	0	1.71	0.7	0.03	79463	0	2051	56209	79463	77412	560	0	292	11	55077	3212967	863
257	2017-07-16 14:18:32		0	0	0	0	0	0	1.71	0.7	0.03	79469	0	2051	56209	79469	77418	560	0	292	11	55077	3212968	863
258	2017-07-16 14:29:02		0	0	0	0	0	0	1.72	0.7	0.03	79481	0	2052	56258	79481	77429	560	0	292	11	55124	3212971	863
259	2017-07-16 14:39:34		0	0	0	0	0	0	1.72	0.7	0.03	79487	0	2052	56258	79487	77435	560	0	292	11	55124	3212974	863
260	2017-07-16 14:50:05		0	0	0	0	0	0	1.72	0.7	0.03	79494	0	2053	56258	79494	77441	560	0	292	11	55124	3212973	863
261	2017-07-16 15:00:07		0	0	0	0	0	0	1.72	0.7	0.03	79503	0	2054	56258	79503	77449	560	0	292	11	55124	3212974	863
262	2017-07-16 15:15:19		0	0	0	0	0	0	1.72	0.7	0.03	79511	0	2055	56258	79511	77456	560	0	292	11	55124	3212975	863
263	2017-07-16 15:23:01		0	0	0	0	0	0	1.72	0.7	0.03	79518	0	2055	56258	79518	77463	560	0	292	11	55124	3212974	863
264	2017-07-16 15:33:14		0	0	0	0	0	0	1.72	0.7	0.03	79525	0	2055	56258	79525	77470	560	0	292	11	55124	3212975	863
265	2017-07-16 15:45:07		0	0	0	0	0	0	1.72	0.7	0.03	79527	0	2055	56258	79527	77472	560	0	292	11	55124	3212985	863
266	2017-07-16 16:02:10		0	0	0	0	0	0	1.72	0.7	0.03	79536	0	2055	56258	79536	77481	560	0	292	11	55124	3212993	863
267	2017-07-16 16:10:59		0	0	0	0	0	0	1.72	0.7	0.03	79544	0	2055	56258	79544	77489	560	0	292	11	55124	3212996	863
268	2017-07-16 16:24:50		0	0	0	0	0	0	1.72	0.7	0.03	79554	0	2055	56290	79554	77499	560	0	292	11	55155	3212999	863
269	2017-07-16 16:39:55		0	0	0	0	0	0	1.72	0.7	0.03	79562	0	2055	56290	79562	77507	560	0	292	11	55155	3213002	863
270	2017-07-16 16:51:15		0	0	0	0	0	0	1.72	0.7	0.03	79570	0	2055	56290	79570	77515	560	0	292	11	55155	3213006	863
271	2017-07-16 17:01:17		0	0	0	0	0	0	1.72	0.7	0.03	79577	0	2056	56290	79577	77521	561	0	292	11	55155	3213009	864
272	2017-07-16 17:14:36		0	0	0	0	0	0	1.72	0.7	0.03	79586	0	2057	56290	79586	77529	561	0	292	11	55155	3213015	864
273	2017-07-16 17:30:11		0	0	0	0	0	0	1.72	0.7	0.03	79593	0	2057	56290	79593	77536	561	0	292	11	55155	3213019	864
274	2017-07-16 17:44:15		0	0	0	0	0	0	1.72	0.7	0.03	79600	0	2057	56290	79600	77543	561	0	292	11	55155	3213026	864
275	2017-07-16 17:57:55		0	0	0	0	0	0	1.72	0.7	0.03	79607	0	2057	56290	79607	77550	561	0	292	11	55155	3213034	864
276	2017-07-16 18:13:18		0	0	0	0	0	0	1.72	0.7	0.03	79612	0	2057	56290	79612	77555	561	0	292	11	55155	3213041	864
277	2017-07-16 18:35:24		0	0	0	0	0	0	1.72	0.7	0.03	79629	0	2058	56290	79629	77571	561	0	292	11	55155	3213057	864
278	2017-07-16 19:04:07		0	0	0	0	0	0	1.72	0.7	0.03	79652	0	2058	56290	79652	77594	561	0	292	11	55155	3213064	864
279	2017-07-16 19:13:10		0	0	0	0	0	0	1.72	0.7	0.03	79662	0	2061	56315	79662	77601	561	0	292	11	55178	3213067	864
280	2017-07-16 19:31:09		0	0	0	0	0	0	1.72	0.7	0.03	79672	0	2062	56315	79672	77610	561	0	292	11	55178	3213075	864
281	2017-07-16 20:20:08		0	0	0	0	0	0	1.72	0.7	0.03	79702	0	2064	56315	79702	77638	561	0	292	11	55178	3213091	864
282	2017-07-16 20:30:01		0	0	0	0	0	0	1.72	0.7	0.03	79710	0	2065	56315	79710	77645	561	0	292	11	55178	3213090	864
283	2017-07-16 20:44:51		0	0	0	0	0	0	1.72	0.7	0.03	79722	0	2066	56348	79722	77656	561	0	292	11	55210	3213088	864
284	2017-07-16 20:57:58		0	0	0	0	0	0	1.72	0.7	0.03	79728	0	2066	56348	79728	77662	561	0	292	11	55210	3213089	864
285	2017-07-16 21:08:40		0	0	0	0	0	0	1.72	0.7	0.03	79734	0	2066	56348	79734	77668	561	0	292	11	55210	3213095	864
286	2017-07-16 21:29:28		0	0	0	0	0	0	1.72	0.7	0.03	79750	0	2067	56348	79750	77683	561	0	293	11	55210	3213116	865
287	2017-07-16 21:40:21		0	0	0	0	0	0	1.72	0.7	0.03	79760	0	2067	56409	79760	77693	562	0	293	11	55269	3213123	866
288	2017-07-16 21:52:57		0	0	0	0	0	0	1.72	0.7	0.03	79770	0	2067	56409	79770	77703	562	0	293	11	55269	3213127	866
