1	2018-01-15 10:33:12		0	0	0	0	0	0	0.23	1.55	0	9134	0	2	8394	9134	9132	142	0	6	2	8300	3540782	150
2	2018-01-15 10:43:43		0	0	0	0	0	0	0.37	2.01	0	15102	0	11	13450	15102	15091	304	0	14	3	13156	3540782	321
3	2018-01-15 10:54:13		0	0	0	0	0	0	0.49	2.19	0	20274	0	19	17675	20274	20255	444	0	18	4	17301	3540790	466
4	2018-01-15 11:04:43		0	0	0	0	0	0	0.6	2.33	0	24515	0	42	21463	24515	24473	571	0	19	4	21166	3540800	594
5	2018-01-15 11:15:11		0	0	0	0	0	0	0.69	2.37	0	28710	0	61	24803	28710	28649	681	0	20	4	24344	3540816	705
6	2018-01-15 11:25:43		0	0	0	0	0	0	0.76	2.38	0	32363	0	78	27593	32363	32285	769	0	21	5	27078	3540826	795
7	2018-01-15 11:36:12		0	0	0	0	0	0	0.82	2.35	0	35565	0	92	28453	35565	35473	836	0	23	6	28982	3540838	865
8	2018-01-15 11:46:42		0	0	0	0	0	0	0.87	2.38	0	38122	0	97	31312	38122	38025	909	0	26	6	30691	3540846	941
9	2018-01-15 11:57:12		0	0	0	0	0	0	0.92	2.37	0	40435	0	115	33464	40435	40328	959	0	28	6	32701	3540852	993
10	2018-01-15 12:07:44		0	0	0	0	0	0	0.99	2.37	0	43158	0	138	35691	43158	43020	1023	0	30	6	35032	3540863	1059
11	2018-01-15 12:18:14		0	0	0	0	0	0	1.02	2.37	0	45089	0	159	36823	45089	44930	1067	0	33	6	36122	3540869	1106
12	2018-01-15 12:28:44		0	0	0	0	0	0	1.06	2.36	0	46875	0	174	38148	46875	46701	1107	0	35	6	37433	3540879	1148
13	2018-01-15 12:39:13		0	0	0	0	0	0	1.08	2.37	0	48472	0	197	39070	48472	48275	1147	0	36	6	38321	3540887	1189
14	2018-01-15 12:49:42		0	0	0	0	0	0	1.11	2.35	0	50088	0	211	40121	50088	49877	1178	0	37	6	39331	3540904	1221
15	2018-01-15 13:00:13		0	0	0	0	0	0	1.13	2.36	0	51551	0	238	40551	51551	51313	1218	0	37	6	39838	3540913	1261
16	2018-01-15 13:10:43		0	0	0	0	0	0	1.15	2.36	0	52696	0	259	41386	52696	52437	1243	0	39	7	40607	3540920	1289
17	2018-01-15 13:21:12		0	0	0	0	0	0	1.17	2.37	0.01	53962	0	278	42293	53962	53684	1279	0	41	8	41441	3540935	1328
18	2018-01-15 13:31:43		0	0	0	0	0	0	1.19	2.36	0.01	55311	0	301	43139	55311	55010	1305	0	42	8	42264	3540949	1355
19	2018-01-15 13:42:13		0	0	0	0	0	0	1.22	2.35	0.01	56409	0	316	43999	56409	56093	1327	0	44	9	43138	3540975	1380
20	2018-01-15 13:52:44		0	0	0	0	0	0	1.25	2.35	0.01	58330	0	342	44990	58330	57988	1370	0	44	9	44119	3540994	1423
21	2018-01-15 14:03:15		0	0	0	0	0	0	1.26	2.35	0.01	59317	0	355	45448	59317	58962	1391	0	44	9	44545	3541012	1444
22	2018-01-15 14:13:46		0	0	0	0	0	0	1.28	2.36	0.01	60329	0	367	46139	60329	59962	1422	0	45	9	45208	3541030	1476
23	2018-01-15 14:24:13		0	0	0	0	0	0	1.31	2.36	0.01	61444	0	388	47366	61444	61056	1449	0	45	9	46386	3541046	1503
24	2018-01-15 14:34:43		0	0	0	0	0	0	1.34	2.35	0.01	62498	0	409	48384	62498	62089	1471	0	46	9	47449	3541061	1526
25	2018-01-15 14:45:14		0	0	0	0	0	0	1.37	2.35	0.01	63791	0	428	49569	63791	63363	1502	0	48	9	48661	3541079	1559
26	2018-01-15 14:55:44		0	0	0	0	0	0	1.4	2.35	0.01	65141	0	435	50641	65141	64706	1531	0	48	10	49693	3541096	1589
27	2018-01-15 15:06:14		0	0	0	0	0	0	1.43	2.37	0.01	66150	0	446	51464	66150	65704	1567	0	48	10	50539	3541111	1625
28	2018-01-15 15:16:44		0	0	0	0	0	0	1.45	2.37	0.01	67214	0	457	52173	67214	66757	1595	0	50	10	51276	3541119	1655
29	2018-01-15 15:27:14		0	0	0	0	0	0	1.46	2.37	0.01	68331	0	482	52689	68331	67849	1621	0	51	11	51803	3541132	1683
30	2018-01-15 15:37:45		0	0	0	0	0	0	1.5	2.38	0.01	69975	0	545	54157	69975	69430	1668	0	52	13	53170	3541148	1733
31	2018-01-15 15:48:18		0	0	0	0	0	0	1.52	2.38	0.01	71058	0	574	54659	71058	70484	1690	0	53	13	53668	3541171	1756
32	2018-01-15 15:58:52		0	0	0	0	0	0	1.54	2.38	0.01	72125	0	597	55522	72125	71528	1714	0	53	14	54477	3541187	1781
33	2018-01-15 16:09:16		0	0	0	0	0	0	1.55	2.37	0.01	73031	0	616	55984	73031	72415	1734	0	53	14	54910	3541201	1801
34	2018-01-15 16:19:46		0	0	0	0	0	0	1.56	2.37	0.01	73972	0	627	56400	73972	73345	1756	0	54	15	55310	3541214	1825
35	2018-01-15 16:30:15		0	0	0	0	0	0	1.58	2.38	0.01	74954	0	648	56936	74954	74306	1786	0	57	15	55849	3541227	1858
36	2018-01-15 16:40:44		0	0	0	0	0	0	1.59	2.38	0.01	75975	0	661	57419	75975	75314	1807	0	58	15	56431	3541242	1880
37	2018-01-15 16:51:14		0	0	0	0	0	0	1.61	2.38	0.01	77065	0	672	57945	77065	76393	1835	0	58	15	56998	3541262	1908
38	2018-01-15 17:01:45		0	0	0	0	0	0	1.64	2.39	0.01	77967	0	690	58899	77967	77277	1861	0	59	15	57921	3541282	1935
39	2018-01-15 17:12:17		0	0	0	0	0	0	1.65	2.39	0.01	78850	0	717	59570	78850	78133	1881	0	59	15	58570	3541301	1955
40	2018-01-15 17:22:47		0	0	0	0	0	0	1.67	2.39	0.01	80279	0	745	60103	80279	79534	1916	0	60	15	59085	3541330	1991
41	2018-01-15 17:33:45		0	0	0	0	0	0	1.69	2.4	0.01	80975	0	760	60993	80975	80215	1945	0	60	15	59931	3541347	2020
42	2018-01-15 17:43:45		0	0	0	0	0	0	1.71	2.4	0.01	81750	0	781	61564	81750	80969	1961	0	60	16	60482	3541359	2037
43	2018-01-15 17:54:16		0	0	0	0	0	0	1.74	2.39	0.01	82550	0	794	62552	82550	81756	1974	0	62	16	61445	3541376	2052
44	2018-01-15 18:04:45		0	0	0	0	0	0	1.75	2.39	0.01	83210	0	805	63010	83210	82405	1989	0	63	16	61917	3541393	2068
45	2018-01-15 18:15:15		0	0	0	0	0	0	1.77	2.39	0.01	83923	0	816	63710	83923	83107	2002	0	64	17	62633	3541414	2083
46	2018-01-15 18:25:45		0	0	0	0	0	0	1.78	2.39	0.01	84730	0	830	64135	84730	83900	2022	0	64	17	63043	3541418	2103
47	2018-01-15 18:36:15		0	0	0	0	0	0	1.81	2.39	0.01	85376	0	839	65242	85376	84537	2039	0	67	17	64177	3541436	2123
48	2018-01-15 18:46:46		0	0	0	0	0	0	1.82	2.39	0.01	86027	0	847	65674	86027	85180	2055	0	67	17	64562	3541453	2139
49	2018-01-15 18:57:19		0	0	0	0	0	0	1.83	2.38	0.01	86704	0	856	65993	86704	85848	2064	0	69	17	64892	3541482	2150
50	2018-01-15 19:07:50		0	0	0	0	0	0	1.86	2.38	0.01	87673	0	864	66603	87673	86809	2083	0	69	17	65724	3541504	2169
51	2018-01-15 19:18:17		0	0	0	0	0	0	1.86	2.37	0.01	88360	0	872	66969	88360	87488	2094	0	69	17	65814	3541512	2180
52	2018-01-15 19:28:47		0	0	0	0	0	0	1.87	2.36	0.01	89046	0	881	67527	89046	88165	2104	0	69	17	66398	3541528	2190
53	2018-01-15 19:39:15		0	0	0	0	0	0	1.89	2.36	0.01	89662	0	887	68124	89662	88775	2113	0	69	17	66975	3541545	2199
54	2018-01-15 19:49:46		0	0	0	0	0	0	1.9	2.35	0.01	90366	0	900	68613	90366	89466	2124	0	70	18	67448	3541555	2212
55	2018-01-15 20:00:18		0	0	0	0	0	0	1.93	2.35	0.01	91074	0	911	69544	91074	90163	2139	0	70	18	68347	3541575	2227
56	2018-01-15 20:10:46		0	0	0	0	0	0	1.94	2.35	0.01	91733	0	918	69764	91733	90815	2156	0	72	18	68559	3541585	2246
57	2018-01-15 20:21:16		0	0	0	0	0	0	1.94	2.35	0.01	92454	0	925	69992	92454	91529	2175	0	72	18	68834	3541611	2265
58	2018-01-15 20:31:47		0	0	0	0	0	0	1.96	2.35	0.01	93160	0	933	70474	93160	92227	2187	0	73	18	69301	3541634	2278
59	2018-01-15 20:42:20		0	0	0	0	0	0	1.97	2.35	0.01	93722	0	941	70815	93722	92781	2201	0	73	18	69606	3541656	2292
60	2018-01-15 20:52:48		0	0	0	0	0	0	1.97	2.35	0.01	94316	0	951	71004	94316	93370	2212	0	73	18	69801	3541669	2303
61	2018-01-15 21:03:17		0	0	0	0	0	0	1.99	2.34	0.01	95236	0	955	71795	95236	94281	2228	0	74	18	70514	3541686	2320
62	2018-01-15 21:13:48		0	0	0	0	0	0	2	2.34	0.01	95889	0	967	72155	95889	94922	2245	0	75	18	70861	3541704	2338
63	2018-01-15 21:24:17		0	0	0	0	0	0	2.02	2.34	0.01	96506	0	972	72936	96506	95534	2262	0	75	18	71569	3541723	2355
64	2018-01-15 21:34:47		0	0	0	0	0	0	2.03	2.34	0.01	97033	0	980	73222	97033	96053	2274	0	76	18	71843	3541743	2368
65	2018-01-15 21:45:18		0	0	0	0	0	0	2.04	2.34	0.01	97617	0	988	73773	97617	96629	2287	0	76	18	72374	3541755	2381
66	2018-01-15 21:55:47		0	0	0	0	0	0	2.06	2.34	0.01	98268	0	997	74547	98268	97271	2300	0	77	18	73119	3541774	2395
67	2018-01-15 22:06:18		0	0	0	0	0	0	2.09	2.34	0.01	99044	0	1010	75596	99044	98034	2321	0	78	18	74135	3541796	2417
68	2018-01-15 22:16:52		0	0	0	0	0	0	2.1	2.34	0.01	99723	0	1024	75907	99723	98699	2336	0	78	18	74405	3541825	2432
69	2018-01-15 22:27:17		0	0	0	0	0	0	2.11	2.34	0.01	100429	0	1039	76138	100429	99390	2351	0	80	18	74627	3541846	2449
70	2018-01-15 22:37:47		0	0	0	0	0	0	2.11	2.34	0.01	101121	0	1050	76620	101121	100071	2365	0	80	19	74880	3541850	2464
71	2018-01-15 22:48:16		0	0	0	0	0	0	2.14	2.34	0.01	102142	0	1063	77274	102142	101079	2393	0	80	19	75652	3541868	2492
72	2018-01-15 22:58:47		0	0	0	0	0	0	2.15	2.35	0.01	102842	0	1066	77643	102842	101776	2412	0	80	19	76006	3541875	2511
73	2018-01-15 23:09:17		0	0	0	0	0	0	2.16	2.34	0.01	103553	0	1076	78100	103553	102477	2421	0	80	19	76443	3541894	2520
74	2018-01-15 23:19:48		0	0	0	0	0	0	2.17	2.34	0.01	104195	0	1080	78456	104195	103115	2438	0	80	19	76784	3541906	2537
75	2018-01-15 23:30:18		0	0	0	0	0	0	2.18	2.34	0.01	104808	0	1086	78984	104808	103722	2452	0	80	19	77352	3541910	2551
76	2018-01-15 23:40:51		0	0	0	0	0	0	2.2	2.34	0.01	105383	0	1089	79610	105383	104294	2466	0	80	19	77983	3541927	2565
77	2018-01-15 23:51:20		0	0	0	0	0	0	2.21	2.34	0.01	105886	0	1093	79967	105886	104793	2473	0	80	19	78390	3541941	2572
78	2018-01-16 00:01:50		0	0	0	0	0	0	2.23	2.34	0.01	106380	0	1100	80464	106380	105280	2484	0	82	19	78867	3541956	2585
79	2018-01-16 01:06:50		0	0	0	0	0	0	2.27	2.33	0.01	108976	0	1128	82148	108976	107848	2538	0	82	19	80418	3541998	2639
80	2018-01-16 02:11:52		0	0	0	0	0	0	2.3	2.33	0.01	110286	0	1139	83104	110286	109147	2570	0	85	19	81333	3542031	2674
81	2018-01-16 03:16:54		0	0	0	0	0	0	2.31	2.33	0.01	110976	0	1185	83697	110976	109791	2586	0	87	19	81901	3542046	2692
82	2018-01-16 04:21:53		0	0	0	0	0	0	2.32	2.33	0.01	111517	0	1224	83979	111517	110293	2598	0	87	19	82293	3542046	2704
83	2018-01-16 05:26:53		0	0	0	0	0	0	2.33	2.33	0.01	112016	0	1259	84270	112016	110757	2610	0	88	19	82542	3542061	2717
84	2018-01-16 06:31:59		0	0	0	0	0	0	2.35	2.33	0.01	112920	0	1287	85036	112920	111633	2627	0	89	19	83241	3542070	2735
85	2018-01-16 07:07:23		0	0	0	0	0	0	2.36	2.32	0.01	113804	0	1314	85525	113804	112490	2644	0	90	19	83709	3542080	2753
86	2018-01-16 07:18:10		0	0	0	0	0	0	2.37	2.32	0.01	114129	0	1324	85705	114129	112805	2651	0	90	19	83881	3542080	2760
87	2018-01-16 07:28:35		0	0	0	0	0	0	2.38	2.32	0.01	114460	0	1335	86124	114460	113125	2656	0	91	19	84283	3542081	2766
88	2018-01-16 07:39:03		0	0	0	0	0	0	2.39	2.32	0.01	115072	0	1349	86634	115072	113723	2665	0	91	19	84809	3542084	2775
89	2018-01-16 07:49:33		0	0	0	0	0	0	2.4	2.32	0.01	115463	0	1356	87039	115463	114107	2674	0	91	19	85084	3542093	2784
90	2018-01-16 08:00:15		0	0	0	0	0	0	2.41	2.32	0.01	115860	0	1365	87494	115860	114495	2685	0	91	19	85519	3542105	2795
91	2018-01-16 08:10:37		0	0	0	0	0	0	2.42	2.32	0.01	116259	0	1378	87768	116259	114881	2692	0	91	19	85781	3542113	2802
92	2018-01-16 08:21:06		0	0	0	0	0	0	2.43	2.32	0.01	116686	0	1384	88057	116686	115302	2708	0	92	19	86019	3542122	2819
93	2018-01-16 08:31:42		0	0	0	0	0	0	2.44	2.32	0.01	117117	0	1394	88332	117117	115723	2716	0	92	19	86282	3542138	2827
94	2018-01-16 08:42:24		0	0	0	0	0	0	2.44	2.32	0.01	117533	0	1403	88594	117533	116130	2724	0	92	19	86531	3542154	2835
95	2018-01-16 08:52:49		0	0	0	0	0	0	2.45	2.32	0.01	117964	0	1411	88976	117964	116553	2733	0	92	19	86701	3542161	2844
96	2018-01-16 09:03:33		0	0	0	0	0	0	2.46	2.31	0.01	118409	0	1418	89459	118409	116991	2741	0	92	19	87160	3542167	2852
97	2018-01-16 09:14:05		0	0	0	0	0	0	2.47	2.31	0.01	118868	0	1431	89739	118868	117442	2750	0	92	19	87426	3542168	2861
98	2018-01-16 09:24:23		0	0	0	0	0	0	2.49	2.31	0.01	119536	0	1438	90463	119536	118098	2757	0	92	19	88112	3542184	2868
99	2018-01-16 09:34:50		0	0	0	0	0	0	2.49	2.31	0.01	119890	0	1445	90475	119890	118445	2772	0	92	19	88124	3542198	2883
100	2018-01-16 09:45:39		0	0	0	0	0	0	2.5	2.31	0.01	120262	0	1452	90804	120262	118810	2778	0	92	19	88436	3542209	2889
101	2018-01-16 09:56:04		0	0	0	0	0	0	2.5	2.31	0.01	120673	0	1456	90889	120673	119217	2790	0	92	20	88517	3542223	2902
102	2018-01-16 10:06:25		0	0	0	0	0	0	2.51	2.31	0.01	120992	0	1464	91392	120992	119528	2798	0	92	20	89076	3542239	2910
103	2018-01-16 10:16:53		0	0	0	0	0	0	2.52	2.32	0.01	121325	0	1475	91630	121325	119850	2810	0	92	20	89302	3542246	2922
104	2018-01-16 10:27:27		0	0	0	0	0	0	2.53	2.32	0.01	121644	0	1484	91787	121644	120160	2819	0	93	20	89451	3542257	2932
105	2018-01-16 10:37:59		0	0	0	0	0	0	2.54	2.32	0.01	121908	0	1494	92268	121908	120414	2824	0	94	20	89913	3542269	2938
106	2018-01-16 10:48:26		0	0	0	0	0	0	2.54	2.32	0.01	122120	0	1500	92356	122120	120620	2830	0	94	20	89997	3542289	2944
107	2018-01-16 10:58:54		0	0	0	0	0	0	2.55	2.32	0.01	122337	0	1515	92754	122337	120827	2838	0	95	20	90375	3542295	2953
108	2018-01-16 11:09:29		0	0	0	0	0	0	2.56	2.32	0.01	122579	0	1525	93022	122579	121054	2846	0	95	20	90629	3542312	2961
109	2018-01-16 11:20:03		0	0	0	0	0	0	2.56	2.32	0.01	122691	0	1531	93044	122691	121160	2849	0	95	20	90650	3542323	2964
110	2018-01-16 11:32:28		0	0	0	0	0	0	2.56	2.33	0.01	122772	0	1535	93212	122772	121237	2855	0	95	20	90809	3542346	2970
111	2018-01-16 11:42:13		0	0	0	0	0	0	2.57	2.33	0.01	122850	0	1540	93482	122850	121310	2857	0	95	20	91066	3542360	2972
112	2018-01-16 11:52:36		0	0	0	0	0	0	2.57	2.32	0.01	122948	0	1543	93482	122948	121405	2858	0	95	20	91066	3542372	2973
113	2018-01-16 12:03:02		0	0	0	0	0	0	2.57	2.33	0.01	123045	0	1558	93573	123045	121487	2863	0	95	20	91151	3542393	2978
114	2018-01-16 12:13:48		0	0	0	0	0	0	2.57	2.33	0.01	123147	0	1565	93573	123147	121582	2866	0	95	20	91151	3542400	2981
115	2018-01-16 12:25:25		0	0	0	0	0	0	2.58	2.33	0.01	123240	0	1575	93663	123240	121666	2872	0	95	20	91237	3542422	2987
116	2018-01-16 12:28:50		0	0	0	0	0	0	2.58	2.33	0.01	123240	0	1575	93663	123240	121666	2872	0	95	20	91237	3542428	2987
117	2018-01-16 12:39:16		0	0	0	0	0	0	2.58	2.33	0.01	123377	0	1589	93663	123377	121788	2874	0	95	20	91237	3542447	2989
118	2018-01-16 12:49:46		0	0	0	0	0	0	2.58	2.33	0.01	123449	0	1594	93709	123449	121855	2875	0	95	20	91237	3542457	2990
119	2018-01-16 13:00:25		0	0	0	0	0	0	2.58	2.33	0.01	123507	0	1601	93709	123507	121906	2878	0	95	20	91237	3542472	2993
120	2018-01-16 13:10:51		0	0	0	0	0	0	2.58	2.33	0.01	123565	0	1605	93709	123565	121960	2879	0	95	21	91237	3542483	2995
121	2018-01-16 13:21:21		0	0	0	0	0	0	2.58	2.33	0.01	123624	0	1607	93731	123624	122017	2880	0	95	21	91259	3542504	2996
122	2018-01-16 13:31:55		0	0	0	0	0	0	2.58	2.33	0.01	123691	0	1612	93731	123691	122079	2883	0	95	21	91259	3542512	2999
123	2018-01-16 13:42:18		0	0	0	0	0	0	2.58	2.33	0.01	123742	0	1615	93731	123742	122127	2886	0	95	21	91259	3542524	3002
124	2018-01-16 13:52:47		0	0	0	0	0	0	2.58	2.33	0.01	123798	0	1622	93731	123798	122176	2887	0	95	21	91259	3542541	3003
125	2018-01-16 14:03:17		0	0	0	0	0	0	2.58	2.33	0.01	123854	0	1629	93731	123854	122225	2889	0	95	21	91259	3542557	3005
126	2018-01-16 14:13:47		0	0	0	0	0	0	2.58	2.33	0.01	123890	0	1631	93731	123890	122259	2891	0	95	21	91259	3542579	3007
127	2018-01-16 14:24:18		0	0	0	0	0	0	2.58	2.34	0.01	123988	0	1637	93731	123988	122351	2898	0	95	21	91259	3542602	3014
128	2018-01-16 14:27:15		0	0	0	0	0	0	2.58	2.34	0.01	123988	0	1637	93731	123988	122351	2898	0	95	21	91259	3542607	3014
129	2018-01-16 14:37:45		0	0	0	0	0	0	2.58	2.34	0.01	124055	0	1639	93731	124055	122416	2902	0	95	21	91259	3542633	3018
130	2018-01-16 14:48:15		0	0	0	0	0	0	2.58	2.34	0.01	124118	0	1643	93731	124118	122475	2904	0	95	21	91259	3542646	3020
131	2018-01-16 14:58:47		0	0	0	0	0	0	2.58	2.34	0.01	124186	0	1647	93913	124186	122539	2905	0	95	21	91431	3542664	3021
132	2018-01-16 15:09:19		0	0	0	0	0	0	2.58	2.34	0.01	124257	0	1656	93965	124257	122628	2909	0	95	21	91437	3542682	3025
133	2018-01-16 15:19:51		0	0	0	0	0	0	2.58	2.34	0.01	124336	0	1662	93987	124336	122674	2913	0	95	21	91458	3542698	3029
134	2018-01-16 15:30:16		0	0	0	0	0	0	2.58	2.34	0.01	124400	0	1667	93987	124400	122733	2914	0	95	21	91458	3542715	3030
135	2018-01-16 15:40:45		0	0	0	0	0	0	2.58	2.34	0.01	124460	0	1669	93987	124460	122791	2916	0	95	21	91458	3542730	3032
136	2018-01-16 15:51:16		0	0	0	0	0	0	2.58	2.34	0.01	124530	0	1673	94032	124530	122857	2917	0	95	21	91458	3542746	3033
137	2018-01-16 16:01:48		0	0	0	0	0	0	2.58	2.35	0.01	124587	0	1675	94072	124587	122912	2922	0	95	21	91496	3542760	3038
138	2018-01-16 16:12:16		0	0	0	0	0	0	2.58	2.34	0.01	124640	0	1678	94072	124640	122962	2922	0	95	21	91496	3542768	3038
139	2018-01-16 16:22:46		0	0	0	0	0	0	2.58	2.34	0.01	124700	0	1681	94072	124700	123019	2924	0	95	21	91496	3542784	3040
140	2018-01-16 16:33:19		0	0	0	0	0	0	2.58	2.35	0.01	124755	0	1684	94072	124755	123071	2928	0	95	21	91496	3542810	3044
141	2018-01-16 16:43:53		0	0	0	0	0	0	2.58	2.35	0.01	124826	0	1692	94072	124826	123134	2933	0	95	21	91496	3542835	3049
142	2018-01-16 16:54:20		0	0	0	0	0	0	2.59	2.35	0.01	124895	0	1697	94164	124895	123199	2934	0	95	21	91583	3542861	3050
143	2018-01-16 17:04:47		0	0	0	0	0	0	2.58	2.35	0.01	124966	0	1699	94164	124966	123267	2935	0	95	21	91583	3542892	3051
144	2018-01-16 17:15:17		0	0	0	0	0	0	2.59	2.35	0.01	125027	0	1700	94325	125027	123327	2935	0	95	21	91735	3542911	3051
145	2018-01-16 17:25:47		0	0	0	0	0	0	2.59	2.35	0.01	125090	0	1705	94325	125090	123385	2937	0	95	21	91735	3542931	3053
146	2018-01-16 17:36:16		0	0	0	0	0	0	2.59	2.35	0.01	125156	0	1708	94325	125156	123448	2938	0	95	21	91735	3542950	3054
147	2018-01-16 17:46:46		0	0	0	0	0	0	2.59	2.35	0.01	125213	0	1711	94325	125213	123502	2942	0	95	21	91735	3542974	3058
148	2018-01-16 17:57:18		0	0	0	0	0	0	2.59	2.35	0.01	125272	0	1712	94417	125272	123560	2946	0	95	21	91822	3542988	3062
149	2018-01-16 18:07:47		0	0	0	0	0	0	2.59	2.35	0.01	125335	0	1715	94463	125335	123620	2949	0	95	21	91865	3543018	3065
150	2018-01-16 18:18:16		0	0	0	0	0	0	2.59	2.35	0.01	125402	0	1723	94463	125402	123679	2951	0	95	21	91865	3543028	3067
151	2018-01-16 18:28:49		0	0	0	0	0	0	2.59	2.35	0.01	125455	0	1725	94463	125455	123730	2952	0	95	21	91865	3543048	3068
152	2018-01-16 18:39:17		0	0	0	0	0	0	2.59	2.36	0.01	125510	0	1729	94463	125510	123781	2957	0	95	21	91865	3543072	3073
153	2018-01-16 18:49:59		0	0	0	0	0	0	2.59	2.36	0.01	125600	0	1734	94503	125600	123866	2958	0	95	21	91865	3543092	3074
154	2018-01-16 19:00:18		0	0	0	0	0	0	2.59	2.36	0.01	125659	0	1740	94503	125659	123919	2961	0	95	21	91865	3543115	3077
155	2018-01-16 19:10:48		0	0	0	0	0	0	2.59	2.36	0.01	125737	0	1743	94526	125737	123994	2962	0	95	21	91887	3543137	3078
156	2018-01-16 19:21:19		0	0	0	0	0	0	2.59	2.36	0.01	125808	0	1746	94526	125808	124062	2963	0	95	21	91887	3543165	3079
157	2018-01-16 19:31:48		0	0	0	0	0	0	2.59	2.36	0.01	125881	0	1748	94526	125881	124133	2966	0	95	21	91887	3543194	3082
158	2018-01-16 19:42:17		0	0	0	0	0	0	2.59	2.36	0.01	125921	0	1750	94526	125921	124171	2967	0	95	21	91887	3543219	3083
159	2018-01-16 19:52:49		0	0	0	0	0	0	2.59	2.36	0.01	125980	0	1752	94526	125980	124228	2967	0	95	21	91887	3543253	3083
160	2018-01-16 20:03:21		0	0	0	0	0	0	2.59	2.35	0.01	126053	0	1757	94526	126053	124296	2967	0	96	21	91887	3543265	3084
161	2018-01-16 20:13:54		0	0	0	0	0	0	2.6	2.36	0.01	126109	0	1763	94665	126109	124346	2970	0	96	21	92018	3543281	3087
162	2018-01-16 20:24:20		0	0	0	0	0	0	2.6	2.36	0.01	126171	0	1769	94665	126171	124404	2974	0	96	21	92018	3543292	3091
163	2018-01-16 20:34:51		0	0	0	0	0	0	2.6	2.36	0.01	126230	0	1770	94665	126230	124460	2975	0	96	21	92018	3543299	3092
164	2018-01-16 20:45:54		0	0	0	0	0	0	2.6	2.36	0.01	126270	0	1773	94665	126270	124497	2976	0	96	21	92018	3543313	3093
165	2018-01-16 20:55:50		0	0	0	0	0	0	2.6	2.36	0.01	126336	0	1778	94665	126336	124558	2978	0	96	21	92018	3543321	3095
166	2018-01-16 21:06:20		0	0	0	0	0	0	2.6	2.36	0.01	126384	0	1780	94758	126384	124604	2980	0	96	21	92106	3543326	3097
167	2018-01-16 21:16:50		0	0	0	0	0	0	2.6	2.36	0.01	126447	0	1781	94932	126447	124666	2982	0	96	21	92271	3543335	3099
168	2018-01-16 21:27:34		0	0	0	0	0	0	2.6	2.36	0.01	126511	0	1785	94932	126511	124726	2982	0	96	21	92271	3543343	3099
169	2018-01-16 21:37:49		0	0	0	0	0	0	2.61	2.36	0.01	126571	0	1788	94944	126571	124783	2982	0	96	21	92370	3543358	3099
170	2018-01-16 21:48:26		0	0	0	0	0	0	2.61	2.36	0.01	126619	0	1792	95013	126619	124827	2983	0	96	21	92436	3543376	3100
171	2018-01-16 21:58:51		0	0	0	0	0	0	2.61	2.36	0.01	126678	0	1794	95037	126678	124884	2984	0	96	21	92436	3543380	3101
172	2018-01-16 22:09:22		0	0	0	0	0	0	2.61	2.36	0.01	126741	0	1797	95037	126741	124944	2986	0	96	21	92436	3543391	3103
173	2018-01-16 22:19:48		0	0	0	0	0	0	2.61	2.36	0.01	126820	0	1798	95107	126820	125022	2989	0	97	21	92502	3543404	3107
174	2018-01-16 22:30:20		0	0	0	0	0	0	2.61	2.36	0.01	126862	0	1798	95107	126862	125064	2991	0	97	21	92502	3543410	3109
175	2018-01-16 22:40:51		0	0	0	0	0	0	2.61	2.36	0.01	126903	0	1800	95107	126903	125103	2992	0	97	21	92502	3543421	3110
176	2018-01-16 22:51:20		0	0	0	0	0	0	2.61	2.36	0.01	126939	0	1802	95200	126939	125137	2992	0	97	21	92591	3543434	3110
177	2018-01-16 23:01:54		0	0	0	0	0	0	2.62	2.36	0.01	126981	0	1802	95282	126981	125179	2993	0	97	21	92668	3543444	3111
178	2018-01-16 23:12:22		0	0	0	0	0	0	2.62	2.36	0.01	127012	0	1804	95304	127012	125208	2993	0	97	21	92689	3543455	3111
179	2018-01-16 23:22:56		0	0	0	0	0	0	2.62	2.36	0.01	127039	0	1804	95304	127039	125235	2994	0	97	21	92689	3543465	3112
180	2018-01-16 23:33:26		0	0	0	0	0	0	2.62	2.36	0.01	127070	0	1805	95304	127070	125265	2994	0	97	21	92689	3543471	3112
181	2018-01-16 23:43:57		0	0	0	0	0	0	2.62	2.36	0.01	127103	0	1807	95304	127103	125296	2996	0	97	21	92689	3543476	3114
182	2018-01-16 23:54:21		0	0	0	0	0	0	2.62	2.36	0.01	127130	0	1808	95304	127130	125322	2998	0	97	21	92689	3543477	3116
183	2018-01-17 00:21:55		0	0	0	0	0	0	2.62	2.36	0.01	127192	0	1809	95398	127192	125383	3000	0	97	21	92778	3543498	3118
184	2018-01-17 01:27:25		0	0	0	0	0	0	2.62	2.36	0.01	127269	0	1815	95422	127269	125454	3002	0	97	21	92778	3543491	3120
185	2018-01-17 02:31:55		0	0	0	0	0	0	2.62	2.36	0.01	127311	0	1818	95422	127311	125493	3003	0	98	21	92778	3543477	3122
186	2018-01-17 03:37:07		0	0	0	0	0	0	2.62	2.36	0.01	127331	0	1821	95422	127331	125510	3005	0	98	21	92778	3543471	3124
187	2018-01-17 04:42:19		0	0	0	0	0	0	2.62	2.36	0.01	127341	0	1821	95422	127341	125520	3005	0	98	21	92778	3543465	3124
188	2018-01-17 05:47:08		0	0	0	0	0	0	2.62	2.36	0.01	127361	0	1822	95422	127361	125539	3007	0	98	21	92778	3543460	3126
189	2018-01-17 06:52:09		0	0	0	0	0	0	2.62	2.36	0.01	127405	0	1829	95469	127405	125576	3008	0	99	21	92778	3543460	3128
190	2018-01-17 07:15:05		0	0	0	0	0	0	2.62	2.36	0.01	127428	0	1830	95469	127428	125598	3008	0	99	21	92778	3543469	3128
191	2018-01-17 07:25:57		0	0	0	0	0	0	2.62	2.36	0.01	127444	0	1830	95469	127444	125614	3008	0	99	21	92778	3543472	3128
192	2018-01-17 07:36:10		0	0	0	0	0	0	2.62	2.36	0.01	127457	0	1831	95469	127457	125626	3009	0	99	21	92778	3543475	3129
193	2018-01-17 07:46:42		0	0	0	0	0	0	2.62	2.36	0.01	127470	0	1832	95487	127470	125638	3009	0	99	21	92795	3543481	3129
194	2018-01-17 07:57:08		0	0	0	0	0	0	2.62	2.36	0.01	127484	0	1832	95487	127484	125652	3010	0	99	21	92795	3543487	3130
195	2018-01-17 08:07:48		0	0	0	0	0	0	2.62	2.36	0.01	127490	0	1832	95487	127490	125658	3010	0	99	21	92795	3543493	3130
196	2018-01-17 08:19:57		0	0	0	0	0	0	2.62	2.36	0.01	127502	0	1833	95487	127502	125669	3010	0	99	21	92795	3543497	3130
197	2018-01-17 08:29:38		0	0	0	0	0	0	2.62	2.36	0.01	127520	0	1833	95487	127520	125687	3012	0	99	21	92795	3543507	3132
198	2018-01-17 08:41:08		0	0	0	0	0	0	2.62	2.36	0.01	127533	0	1835	95487	127533	125700	3014	0	99	21	92795	3543515	3134
199	2018-01-17 08:50:55		0	0	0	0	0	0	2.62	2.36	0.01	127559	0	1837	95487	127559	125722	3015	0	99	21	92795	3543515	3135
200	2018-01-17 09:01:24		0	0	0	0	0	0	2.62	2.36	0.01	127575	0	1837	95487	127575	125738	3015	0	99	21	92795	3543515	3135
201	2018-01-17 09:12:28		0	0	0	0	0	0	2.62	2.36	0.01	127591	0	1837	95487	127591	125754	3016	0	100	21	92795	3543521	3137
202	2018-01-17 09:22:29		0	0	0	0	0	0	2.62	2.36	0.01	127600	0	1838	95487	127600	125762	3016	0	100	21	92795	3543524	3137
203	2018-01-17 09:32:57		0	0	0	0	0	0	2.62	2.36	0.01	127610	0	1839	95487	127610	125771	3016	0	100	21	92795	3543529	3137
204	2018-01-17 09:43:26		0	0	0	0	0	0	2.62	2.36	0.01	127623	0	1840	95487	127623	125783	3016	0	100	21	92795	3543530	3137
205	2018-01-17 09:54:00		0	0	0	0	0	0	2.62	2.36	0.01	127636	0	1840	95487	127636	125796	3016	0	100	21	92795	3543530	3137
206	2018-01-17 10:04:40		0	0	0	0	0	0	2.62	2.36	0.01	127647	0	1840	95487	127647	125807	3017	0	100	21	92795	3543530	3138
207	2018-01-17 10:15:26		0	0	0	0	0	0	2.62	2.36	0.01	127659	0	1840	95487	127659	125819	3018	0	100	21	92795	3543532	3139
208	2018-01-17 10:26:35		0	0	0	0	0	0	2.62	2.36	0.01	127677	0	1840	95534	127677	125837	3018	0	100	21	92839	3543530	3139
209	2018-01-17 10:37:33		0	0	0	0	0	0	2.62	2.36	0.01	127692	0	1841	95534	127692	125851	3018	0	100	21	92839	3543534	3139
210	2018-01-17 10:53:55		0	0	0	0	0	0	2.62	2.36	0.01	127711	0	1841	95628	127711	125870	3018	0	100	21	92928	3543532	3139
211	2018-01-17 11:03:10		0	0	0	0	0	0	2.62	2.36	0.01	127728	0	1844	95628	127728	125884	3018	0	100	21	92928	3543532	3139
212	2018-01-17 11:13:48		0	0	0	0	0	0	2.62	2.36	0.01	127736	0	1844	95628	127736	125892	3018	0	100	21	92928	3543532	3139
213	2018-01-17 11:34:46		0	0	0	0	0	0	2.63	2.36	0.01	127756	0	1847	95817	127756	125909	3018	0	100	21	93106	3543538	3139
214	2018-01-17 11:45:15		0	0	0	0	0	0	2.63	2.36	0.01	127765	0	1847	95817	127765	125918	3018	0	100	21	93106	3543535	3139
215	2018-01-17 11:56:01		0	0	0	0	0	0	2.63	2.36	0.01	127780	0	1848	95864	127780	125928	3018	0	100	21	93106	3543539	3139
216	2018-01-17 12:06:43		0	0	0	0	0	0	2.63	2.36	0.01	127793	0	1849	95864	127793	125944	3019	0	100	21	93106	3543543	3140
217	2018-01-17 12:17:13		0	0	0	0	0	0	2.63	2.36	0.01	127798	0	1849	95864	127798	125949	3019	0	100	21	93106	3543547	3140
218	2018-01-17 12:30:57		0	0	0	0	0	0	2.63	2.36	0.01	127812	0	1849	95864	127812	125963	3019	0	100	21	93106	3543550	3140
219	2018-01-17 12:41:04		0	0	0	0	0	0	2.63	2.36	0.01	127822	0	1850	95864	127822	125972	3019	0	100	21	93106	3543554	3140
220	2018-01-17 12:52:58		0	0	0	0	0	0	2.63	2.36	0.01	127836	0	1850	95864	127836	125986	3019	0	100	21	93106	3543559	3140
221	2018-01-17 13:07:14		0	0	0	0	0	0	2.63	2.36	0.01	127845	0	1851	95864	127845	125994	3019	0	100	21	93106	3543568	3140
222	2018-01-17 13:15:44		0	0	0	0	0	0	2.63	2.36	0.01	127853	0	1852	95864	127853	126001	3019	0	100	21	93106	3543573	3140
223	2018-01-17 13:26:13		0	0	0	0	0	0	2.63	2.36	0.01	127868	0	1853	95864	127868	126015	3019	0	100	21	93106	3543582	3140
224	2018-01-17 13:37:08		0	0	0	0	0	0	2.63	2.36	0.01	127881	0	1853	95869	127881	126028	3019	0	100	21	93150	3543593	3140
225	2018-01-17 13:50:39		0	0	0	0	0	0	2.63	2.36	0.01	127895	0	1853	95869	127895	126042	3019	0	100	21	93150	3543603	3140
226	2018-01-17 14:03:38		0	0	0	0	0	0	2.63	2.36	0.01	127914	0	1854	95892	127914	126060	3020	0	100	21	93172	3543607	3141
227	2018-01-17 14:13:15		0	0	0	0	0	0	2.63	2.36	0.01	127933	0	1854	95892	127933	126079	3020	0	100	21	93172	3543607	3141
228	2018-01-17 14:28:58		0	0	0	0	0	0	2.63	2.36	0.01	127952	0	1856	95892	127952	126096	3020	0	100	21	93172	3543613	3141
229	2018-01-17 14:39:33		0	0	0	0	0	0	2.63	2.36	0.01	127965	0	1856	95934	127965	126109	3021	0	100	21	93211	3543619	3142
230	2018-01-17 14:49:52		0	0	0	0	0	0	2.63	2.36	0.01	127991	0	1856	95934	127991	126135	3021	0	101	21	93211	3543608	3143
231	2018-01-17 15:02:19		0	0	0	0	0	0	2.63	2.36	0.01	128017	0	1858	95934	128017	126159	3021	0	101	21	93211	3543617	3143
232	2018-01-17 15:13:48		0	0	0	0	0	0	2.63	2.36	0.01	128032	0	1858	95934	128032	126174	3021	0	101	21	93211	3543622	3143
233	2018-01-17 15:32:31		0	0	0	0	0	0	2.63	2.36	0.01	128043	0	1858	95934	128043	126185	3022	0	101	21	93211	3543636	3144
234	2018-01-17 15:45:04		0	0	0	0	0	0	2.63	2.36	0.01	128068	0	1859	95934	128068	126209	3023	0	101	21	93211	3543643	3145
235	2018-01-17 15:55:10		0	0	0	0	0	0	2.63	2.36	0.01	128082	0	1861	95934	128082	126221	3023	0	101	21	93211	3543652	3145
236	2018-01-17 16:09:31		0	0	0	0	0	0	2.63	2.36	0.01	128097	0	1862	95934	128097	126235	3024	0	101	21	93211	3543668	3146
237	2018-01-17 16:34:38		0	0	0	0	0	0	2.63	2.36	0.01	128127	0	1864	95934	128127	126263	3025	0	101	21	93211	3543677	3147
238	2018-01-17 16:49:03		0	0	0	0	0	0	2.63	2.36	0.01	128143	0	1864	95934	128143	126279	3025	0	101	21	93211	3543686	3147
239	2018-01-17 16:59:43		0	0	0	0	0	0	2.63	2.36	0.01	128153	0	1864	95934	128153	126289	3025	0	101	21	93211	3543686	3147
240	2018-01-17 17:11:27		0	0	0	0	0	0	2.63	2.36	0.01	128160	0	1865	95934	128160	126295	3025	0	101	21	93211	3543693	3147
241	2018-01-17 17:25:56		0	0	0	0	0	0	2.63	2.36	0.01	128173	0	1865	95934	128173	126308	3027	0	101	21	93211	3543706	3149
242	2018-01-17 17:40:44		0	0	0	0	0	0	2.63	2.36	0.01	128190	0	1869	95934	128190	126321	3027	0	101	21	93211	3543709	3149
243	2018-01-17 17:50:12		0	0	0	0	0	0	2.63	2.36	0.01	128200	0	1870	95934	128200	126330	3027	0	101	21	93211	3543718	3149
244	2018-01-17 18:01:56		0	0	0	0	0	0	2.63	2.36	0.01	128220	0	1872	95934	128220	126348	3029	0	102	21	93211	3543731	3152
245	2018-01-17 18:13:01		0	0	0	0	0	0	2.64	2.36	0.01	128231	0	1873	96119	128231	126358	3030	0	102	21	93386	3543732	3153
246	2018-01-17 19:01:24		0	0	0	0	0	0	2.64	2.36	0.01	128288	0	1877	96175	128288	126411	3031	0	102	21	93439	3543536	3154
247	2018-01-17 19:09:51		0	0	0	0	0	0	2.64	2.36	0.01	128307	0	1878	96175	128307	126429	3031	0	102	21	93439	3543475	3154
248	2018-01-17 19:20:34		0	0	0	0	0	0	2.64	2.36	0.01	128320	0	1881	96247	128320	126439	3032	0	102	21	93507	3543399	3155
249	2018-01-17 19:38:00		0	0	0	0	0	0	2.64	2.36	0.01	128345	0	1882	96247	128345	126463	3032	0	102	21	93507	3543382	3155
250	2018-01-17 19:48:06		0	0	0	0	0	0	2.64	2.36	0.01	128360	0	1883	96247	128360	126477	3032	0	102	21	93507	3543392	3155
251	2018-01-17 19:59:22		0	0	0	0	0	0	2.64	2.36	0.01	128373	0	1884	96247	128373	126489	3035	0	102	21	93507	3543395	3158
252	2018-01-17 20:14:14		0	0	0	0	0	0	2.64	2.36	0.01	128384	0	1885	96247	128384	126499	3036	0	102	21	93507	3543408	3159
253	2018-01-17 20:25:21		0	0	0	0	0	0	2.64	2.36	0.01	128392	0	1888	96247	128392	126504	3036	0	102	21	93507	3543413	3159
254	2018-01-17 20:36:40		0	0	0	0	0	0	2.64	2.36	0.01	128398	0	1889	96415	128398	126509	3036	0	102	21	93507	3543424	3159
255	2018-01-17 20:51:53		0	0	0	0	0	0	2.64	2.37	0.01	128409	0	1891	96415	128409	126518	3037	0	102	21	93552	3543429	3160
256	2018-01-17 21:02:03		0	0	0	0	0	0	2.64	2.36	0.01	128424	0	1891	96415	128424	126533	3037	0	102	21	93552	3543443	3160
257	2018-01-17 21:33:52		0	0	0	0	0	0	2.64	2.36	0.01	128459	0	1893	96439	128459	126566	3038	0	102	21	93575	3543456	3161
258	2018-01-17 21:41:46		0	0	0	0	0	0	2.64	2.36	0.01	128477	0	1894	96439	128477	126583	3038	0	102	21	93575	3543458	3161
259	2018-01-17 21:53:58		0	0	0	0	0	0	2.64	2.37	0.01	128485	0	1894	96439	128485	126591	3039	0	102	21	93575	3543455	3162
260	2018-01-17 22:19:16		0	0	0	0	0	0	2.64	2.37	0.01	128521	0	1895	96463	128521	126626	3041	0	103	21	93597	3543472	3165
261	2018-01-17 22:30:16		0	0	0	0	0	0	2.64	2.37	0.01	128540	0	1898	96463	128540	126642	3041	0	103	21	93597	3543474	3165
262	2018-01-17 22:42:00		0	0	0	0	0	0	2.64	2.37	0.01	128554	0	1899	96463	128554	126655	3041	0	103	21	93597	3543478	3165
263	2018-01-17 22:55:54		0	0	0	0	0	0	2.64	2.37	0.01	128572	0	1900	96463	128572	126672	3041	0	103	21	93597	3543488	3165
264	2018-01-17 23:13:39		0	0	0	0	0	0	2.64	2.36	0.02	128591	0	1902	96463	128591	126689	3041	0	103	21	93597	3543495	3165
265	2018-01-17 23:21:52		0	0	0	0	0	0	2.64	2.36	0.02	128608	0	1903	96463	128608	126705	3041	0	103	21	93597	3543493	3165
266	2018-01-17 23:37:21		0	0	0	0	0	0	2.64	2.37	0.02	128623	0	1903	96535	128623	126720	3042	0	103	21	93665	3543490	3166
267	2018-01-17 23:47:35		0	0	0	0	0	0	2.64	2.36	0.02	128632	0	1903	96535	128632	126729	3042	0	103	21	93665	3543492	3166
268	2018-01-18 00:00:01		0	0	0	0	0	0	2.64	2.36	0.02	128636	0	1904	96535	128636	126732	3042	0	103	21	93665	3543498	3166
269	2018-01-18 01:05:34		0	0	0	0	0	0	2.64	2.36	0.02	128670	0	1904	96535	128670	126766	3043	0	103	21	93665	3543514	3167
270	2018-01-18 02:43:46		0	0	0	0	0	0	2.64	2.37	0.02	128691	0	1907	96583	128691	126784	3045	0	103	21	93711	3543514	3169
271	2018-01-18 04:24:31		0	0	0	0	0	0	2.64	2.37	0.02	128693	0	1908	96583	128693	126785	3045	0	103	21	93711	3543517	3169
272	2018-01-18 05:31:02		0	0	0	0	0	0	2.64	2.37	0.02	128703	0	1908	96583	128703	126795	3045	0	103	21	93711	3543527	3169
273	2018-01-18 07:03:18		0	0	0	0	0	0	2.64	2.37	0.02	128718	0	1909	96583	128718	126809	3047	0	103	21	93711	3543559	3171
274	2018-01-18 07:40:14		0	0	0	0	0	0	2.64	2.37	0.02	128731	0	1910	96583	128731	126821	3049	0	103	21	93711	3543579	3173
275	2018-01-18 08:18:33		0	0	0	0	0	0	2.64	2.37	0.02	128758	0	1911	96583	128758	126847	3051	0	103	21	93711	3543606	3175
276	2018-01-18 08:39:05		0	0	0	0	0	0	2.64	2.37	0.02	128772	0	1913	96583	128772	126859	3051	0	103	21	93711	3543633	3175
277	2018-01-18 09:08:00		0	0	0	0	0	0	2.64	2.37	0.02	128776	0	1913	96583	128776	126863	3051	0	103	21	93711	3543637	3175
278	2018-01-18 09:18:02		0	0	0	0	0	0	2.64	2.37	0.02	128792	0	1914	96583	128792	126878	3052	0	103	21	93711	3543657	3176
279	2018-01-18 09:37:12		0	0	0	0	0	0	2.64	2.37	0.02	128804	0	1914	96583	128804	126890	3052	0	103	21	93711	3543673	3176
280	2018-01-18 09:48:04		0	0	0	0	0	0	2.64	2.37	0.02	128812	0	1914	96583	128812	126898	3052	0	103	21	93711	3543679	3176
281	2018-01-18 10:22:38		0	0	0	0	0	0	2.64	2.37	0.02	128836	0	1916	96583	128836	126920	3052	0	103	21	93711	3543695	3176
