1	2018-03-08 10:24:18		0	0	0	0	0	0	0	0	0	0	0	0	0	0	0	0	0	4	0	0	3612218	0
2	2018-03-08 10:34:53		0	0	0	0	0	0	0.02	0.7	0.01	1147	0	6	855	1147	1147	8	2	15	4	814	3612295	29
3	2018-03-08 10:45:18		0	0	0	0	0	0	0.05	0.6	0.01	2511	0	13	1569	2511	2511	15	3	17	4	1735	3612387	39
4	2018-03-08 10:55:53		0	0	0	0	0	0	0.06	0.52	0	3271	0	15	2363	3271	3271	17	4	21	4	2207	3612476	46
5	2018-03-08 11:07:23		0	0	0	0	0	0	0.07	0.59	0	3700	0	16	2535	3700	3700	22	4	22	4	2431	3612563	52
6	2018-03-08 11:16:49		0	0	0	0	0	0	0.07	0.61	0.01	3958	0	20	2807	3958	3958	24	4	25	4	2577	3612627	57
7	2018-03-08 11:27:20		0	0	0	0	0	0	0.07	0.65	0.01	4181	0	23	2867	4181	4181	27	4	25	4	2659	3612698	60
8	2018-03-08 11:37:50		0	0	0	0	0	0	0.08	0.69	0.01	4341	0	23	3054	4341	4341	30	4	26	4	2745	3612766	64
9	2018-03-08 11:48:22		0	0	0	0	0	0	0.08	0.73	0.01	4493	0	23	3136	4493	4493	33	4	29	4	2800	3612821	70
10	2018-03-08 11:58:53		0	0	0	0	0	0	0.08	0.77	0	4659	0	23	3230	4659	4659	36	4	30	4	2847	3612902	74
11	2018-03-08 12:09:30		0	0	0	0	0	0	0.08	0.87	0	4811	0	24	3350	4811	4811	42	4	32	4	2937	3612969	82
12	2018-03-08 12:19:55		0	0	0	0	0	0	0.08	0.89	0.01	4943	0	25	3439	4943	4943	44	4	32	4	3014	3613046	84
13	2018-03-08 12:30:29		0	0	0	0	0	0	0.09	0.86	0.01	5121	0	27	3532	5121	5121	44	4	33	4	3072	3613108	85
14	2018-03-08 12:40:58		0	0	0	0	0	0	0.09	0.84	0.01	5235	0	32	3595	5235	5235	44	4	33	4	3126	3613171	85
15	2018-03-08 12:51:26		0	0	0	0	0	0	0.09	0.82	0.01	5382	0	36	3690	5382	5382	44	4	34	4	3178	3613236	86
16	2018-03-08 13:01:56		0	0	0	0	0	0	0.09	0.8	0.01	5500	0	38	3795	5500	5500	44	4	34	4	3225	3613293	86
17	2018-03-08 13:12:28		0	0	0	0	0	0	0.09	0.78	0.01	5611	0	38	3834	5611	5611	44	4	35	4	3240	3613360	87
18	2018-03-08 13:22:57		0	0	0	0	0	0	0.09	0.77	0.01	5732	0	39	3934	5732	5732	44	4	36	4	3274	3613435	88
19	2018-03-08 13:33:28		0	0	0	0	0	0	0.09	0.76	0.01	5883	0	39	4090	5883	5883	45	4	36	4	3355	3613523	89
20	2018-03-08 13:43:58		0	0	0	0	0	0	0.09	0.78	0.01	6004	0	39	4203	6004	6004	47	4	36	4	3407	3613599	91
21	2018-03-08 13:54:28		0	0	0	0	0	0	0.1	0.77	0.01	6123	0	40	4307	6123	6123	47	4	36	4	3455	3613659	91
22	2018-03-08 14:05:01		0	0	0	0	0	0	0.1	0.74	0.01	6324	0	42	4382	6324	6324	47	4	36	4	3515	3613732	91
23	2018-03-08 14:15:32		0	0	0	0	0	0	0.1	0.73	0.01	6411	0	42	4425	6411	6411	47	5	37	4	3555	3613789	93
24	2018-03-08 14:26:01		0	0	0	0	0	0	0.1	0.74	0.01	6523	0	43	4532	6523	6523	48	6	37	4	3583	3613847	95
25	2018-03-08 14:36:54		0	0	0	0	0	0	0.1	0.72	0.01	6624	0	49	4569	6624	6624	48	6	38	4	3624	3613935	96
26	2018-03-08 14:47:04		0	0	0	0	0	0	0.1	0.71	0.01	6718	0	53	4674	6718	6718	48	6	38	5	3660	3613982	97
27	2018-03-08 14:57:39		0	0	0	0	0	0	0.1	0.72	0.01	6826	0	55	4744	6826	6826	49	6	38	5	3714	3614059	98
28	2018-03-08 15:08:03		0	0	0	0	0	0	0.1	0.71	0.01	6916	0	61	4848	6916	6916	49	6	38	5	3732	3614130	98
29	2018-03-08 15:18:35		0	0	0	0	0	0	0.1	0.7	0.01	7011	0	66	4924	7011	7011	49	6	38	5	3776	3614216	98
30	2018-03-08 15:29:04		0	0	0	0	0	0	0.11	0.69	0.01	7103	0	71	4980	7103	7103	49	6	39	5	3808	3614272	99
31	2018-03-08 15:39:37		0	0	0	0	0	0	0.11	0.68	0.01	7193	0	72	5137	7193	7240	49	6	39	5	3840	3614344	99
32	2018-03-08 15:50:05		0	0	0	0	0	0	0.11	0.68	0.01	7325	0	74	5186	7325	7325	50	7	40	6	3860	3614428	103
33	2018-03-08 16:00:36		0	0	0	0	0	0	0.11	0.68	0.01	7406	0	76	5201	7406	7406	50	7	40	6	3880	3614498	103
34	2018-03-08 16:11:13		0	0	0	0	0	0	0.11	0.67	0.01	7497	0	82	5290	7497	7497	50	7	40	6	3927	3614568	103
35	2018-03-08 16:21:36		0	0	0	0	0	0	0.11	0.67	0.01	7572	0	88	5330	7572	7572	51	7	40	6	3954	3614621	104
36	2018-03-08 16:32:07		0	0	0	0	0	0	0.11	0.67	0.01	7667	0	95	5386	7667	7667	51	7	40	6	3989	3614693	104
37	2018-03-08 16:42:44		0	0	0	0	0	0	0.11	0.66	0.01	7756	0	105	5423	7756	7756	51	7	40	6	4025	3614747	104
38	2018-03-08 16:53:09		0	0	0	0	0	0	0.11	0.66	0.01	7857	0	109	5471	7857	7857	52	7	40	6	4053	3614795	105
39	2018-03-08 17:03:43		0	0	0	0	0	0	0.11	0.65	0.01	7957	0	117	5516	7957	7957	52	7	40	6	4097	3614852	105
40	2018-03-08 17:14:11		0	0	0	0	0	0	0.11	0.65	0.02	8046	0	125	5584	8046	8046	52	7	40	6	4127	3614911	105
41	2018-03-08 17:24:41		0	0	0	0	0	0	0.12	0.64	0.02	8170	0	131	5669	8170	8135	52	7	41	6	4165	3614984	106
42	2018-03-08 17:35:11		0	0	0	0	0	0	0.12	0.64	0.02	8245	0	135	5716	8245	8245	53	7	42	6	4203	3615058	108
43	2018-03-08 17:45:40		0	0	0	0	0	0	0.12	0.64	0.02	8303	0	137	5774	8303	8303	53	9	44	6	4235	3615135	112
44	2018-03-08 17:56:12		0	0	0	0	0	0	0.12	0.64	0.02	8383	0	141	5855	8383	8383	54	10	44	6	4283	3615193	114
45	2018-03-08 18:06:48		0	0	0	0	0	0	0.12	0.65	0.02	8446	0	146	5905	8446	8446	55	10	44	6	4315	3615266	115
46	2018-03-08 18:17:14		0	0	0	0	0	0	0.12	0.66	0.02	8533	0	154	5966	8533	8533	56	10	44	6	4365	3615316	116
47	2018-03-08 18:27:55		0	0	0	0	0	0	0.12	0.65	0.02	8608	0	155	6023	8608	8608	56	10	44	6	4391	3615367	116
48	2018-03-08 18:38:21		0	0	0	0	0	0	0.12	0.64	0.02	8700	0	163	6106	8700	8700	56	10	44	6	4425	3615428	116
49	2018-03-08 18:48:58		0	0	0	0	0	0	0.12	0.64	0.02	8790	0	164	6160	8790	8790	56	10	44	6	4469	3615489	116
50	2018-03-08 18:59:21		0	0	0	0	0	0	0.13	0.63	0.02	8876	0	170	6235	8876	8876	56	10	44	6	4523	3615540	116
51	2018-03-08 19:10:01		0	0	0	0	0	0	0.13	0.62	0.02	9006	0	181	6315	9006	9006	56	11	45	6	4551	3615587	118
52	2018-03-08 19:20:21		0	0	0	0	0	0	0.13	0.62	0.02	9104	0	189	6380	9104	9104	56	11	45	6	4607	3615653	118
53	2018-03-08 19:30:52		0	0	0	0	0	0	0.13	0.61	0.02	9168	0	190	6415	9168	9168	56	11	45	6	4645	3615718	118
54	2018-03-08 19:41:24		0	0	0	0	0	0	0.13	0.61	0.02	9226	0	195	6451	9226	9226	56	11	45	6	4664	3615760	118
55	2018-03-08 19:51:53		0	0	0	0	0	0	0.13	0.6	0.02	9330	0	199	6511	9330	9330	56	11	45	6	4694	3615820	118
56	2018-03-08 20:02:27		0	0	0	0	0	0	0.13	0.59	0.02	9416	0	202	6571	9416	9416	56	11	45	6	4724	3615886	118
57	2018-03-08 20:12:55		0	0	0	0	0	0	0.13	0.59	0.02	9505	0	205	6641	9505	9505	56	11	47	6	4744	3615929	120
58	2018-03-08 20:23:24		0	0	0	0	0	0	0.13	0.58	0.02	9605	0	210	6701	9605	9605	56	11	47	6	4785	3615971	120
59	2018-03-08 20:33:56		0	0	0	0	0	0	0.13	0.58	0.02	9669	0	212	6734	9669	9669	56	11	47	6	4816	3616035	120
60	2018-03-08 20:44:28		0	0	0	0	0	0	0.13	0.58	0.02	9745	0	214	6795	9745	9745	57	11	47	6	4859	3616103	121
61	2018-03-08 20:55:00		0	0	0	0	0	0	0.14	0.59	0.02	9883	0	223	6931	9883	9883	58	11	47	6	4891	3616155	122
62	2018-03-08 21:05:27		0	0	0	0	0	0	0.14	0.58	0.02	9964	0	231	6987	9964	9964	58	11	47	6	4924	3616219	122
63	2018-03-08 21:15:58		0	0	0	0	0	0	0.14	0.58	0.02	10060	0	235	7032	10060	10060	58	11	47	6	5127	3616281	122
64	2018-03-08 21:26:29		0	0	0	0	0	0	0.14	0.57	0.02	10139	0	236	7087	10139	10139	58	11	47	6	5165	3616324	122
65	2018-03-08 21:37:00		0	0	0	0	0	0	0.14	0.57	0.02	10209	0	237	7108	10209	10209	58	11	49	6	5199	3616372	124
66	2018-03-08 21:47:30		0	0	0	0	0	0	0.15	0.56	0.02	10285	0	248	7175	10285	10285	58	11	49	6	5249	3616419	124
67	2018-03-08 21:58:01		0	0	0	0	0	0	0.15	0.56	0.02	10365	0	253	7227	10365	10365	58	11	50	6	5296	3616470	125
68	2018-03-08 22:08:30		0	0	0	0	0	0	0.15	0.57	0.02	10435	0	256	7272	10435	10435	59	11	50	6	5328	3616531	126
69	2018-03-08 22:19:02		0	0	0	0	0	0	0.15	0.56	0.02	10521	0	259	7354	10521	10521	59	11	50	6	5374	3616583	126
70	2018-03-08 22:29:32		0	0	0	0	0	0	0.15	0.56	0.03	10646	0	267	7430	10646	10646	60	11	50	6	5427	3616627	127
71	2018-03-08 22:40:05		0	0	0	0	0	0	0.15	0.56	0.02	10773	0	269	7517	10773	10773	60	11	50	6	5473	3616664	127
72	2018-03-08 22:50:41		0	0	0	0	0	0	0.15	0.55	0.03	10848	0	272	7557	10848	10848	60	12	50	6	5501	3616705	128
73	2018-03-08 23:01:03		0	0	0	0	0	0	0.15	0.55	0.02	10904	0	272	7611	10904	10904	60	12	51	6	5522	3616760	129
74	2018-03-08 23:11:31		0	0	0	0	0	0	0.15	0.55	0.02	10982	0	274	7670	10982	10982	60	12	51	6	5565	3616799	129
75	2018-03-08 23:22:01		0	0	0	0	0	0	0.16	0.54	0.03	11054	0	277	7730	11054	11054	60	12	52	6	5611	3616851	130
76	2018-03-08 23:32:30		0	0	0	0	0	0	0.16	0.54	0.03	11124	0	279	7801	11124	11124	60	12	52	6	5635	3616882	130
77	2018-03-08 23:43:02		0	0	0	0	0	0	0.16	0.54	0.03	11184	0	280	7875	11184	11184	60	12	53	6	5669	3616925	131
78	2018-03-08 23:53:33		0	0	0	0	0	0	0.16	0.53	0.03	11236	0	283	7918	11236	11236	60	12	53	6	5710	3616955	131
79	2018-03-09 00:21:03		0	0	0	0	0	0	0.16	0.53	0.03	11398	0	286	7972	11398	11398	60	12	53	6	5776	3617050	131
80	2018-03-09 01:26:04		0	0	0	0	0	0	0.16	0.52	0.02	11582	0	288	8163	11582	11582	60	12	53	6	5873	3617212	131
81	2018-03-09 02:31:06		0	0	0	0	0	0	0.16	0.51	0.02	11666	0	288	8235	11666	11666	60	12	53	6	5932	3617290	131
82	2018-03-09 03:36:06		0	0	0	0	0	0	0.16	0.51	0.02	11718	0	288	8258	11718	11718	60	12	53	6	5956	3617337	131
83	2018-03-09 04:41:06		0	0	0	0	0	0	0.17	0.52	0.02	11751	0	288	8277	11751	11751	61	12	53	6	5979	3617392	132
84	2018-03-09 05:46:07		0	0	0	0	0	0	0.17	0.52	0.02	11787	0	290	8301	11787	11787	61	12	53	6	5991	3617454	132
85	2018-03-09 06:51:09		0	0	0	0	0	0	0.17	0.51	0.02	11870	0	295	8368	11870	11870	61	13	53	6	6058	3617558	133
86	2018-03-09 07:14:07		0	0	0	0	0	0	0.17	0.51	0.02	11908	0	297	8402	11908	11908	61	13	53	6	6074	3617636	133
87	2018-03-09 07:24:41		0	0	0	0	0	0	0.17	0.51	0.03	11940	0	301	8422	11940	11940	61	13	53	6	6077	3617660	133
88	2018-03-09 07:35:12		0	0	0	0	0	0	0.17	0.51	0.03	11964	0	301	8430	11964	11964	61	13	53	6	6082	3617690	133
89	2018-03-09 07:45:41		0	0	0	0	0	0	0.17	0.51	0.03	12018	0	311	8522	12018	12018	61	13	54	6	6135	3617725	134
90	2018-03-09 07:56:18		0	0	0	0	0	0	0.17	0.51	0.03	12044	0	311	8546	12044	12044	61	13	54	6	6149	3617770	134
91	2018-03-09 08:06:41		0	0	0	0	0	0	0.17	0.51	0.03	12075	0	311	8564	12075	12075	61	13	54	6	6173	3617798	134
92	2018-03-09 08:17:12		0	0	0	0	0	0	0.17	0.5	0.03	12101	0	311	8573	12101	12101	61	13	54	6	6191	3617846	134
93	2018-03-09 08:27:43		0	0	0	0	0	0	0.17	0.5	0.03	12130	0	311	8579	12130	12130	61	13	54	6	6199	3617897	134
94	2018-03-09 08:38:11		0	0	0	0	0	0	0.17	0.5	0.03	12160	0	312	8611	12160	12160	61	13	54	6	6210	3617948	134
95	2018-03-09 08:48:42		0	0	0	0	0	0	0.17	0.5	0.03	12189	0	314	8613	12189	12189	61	13	55	6	6222	3618004	135
96	2018-03-09 08:59:14		0	0	0	0	0	0	0.17	0.5	0.03	12237	0	316	8641	12237	12237	61	13	55	6	6240	3618055	135
97	2018-03-09 09:09:42		0	0	0	0	0	0	0.17	0.5	0.03	12269	0	316	8679	12269	12269	61	13	55	6	6251	3618108	135
98	2018-03-09 09:20:15		0	0	0	0	0	0	0.17	0.5	0.03	12316	0	322	8707	12316	12316	61	13	55	6	6268	3618166	135
99	2018-03-09 09:30:46		0	0	0	0	0	0	0.17	0.49	0.03	12359	0	323	8726	12359	12359	61	13	55	6	6301	3618214	135
100	2018-03-09 09:41:21		0	0	0	0	0	0	0.17	0.49	0.03	12409	0	323	8791	12409	12409	61	13	55	6	6318	3618255	135
101	2018-03-09 09:51:47		0	0	0	0	0	0	0.17	0.49	0.03	12457	0	323	8819	12457	12457	61	13	55	6	6331	3618297	135
102	2018-03-09 10:02:17		0	0	0	0	0	0	0.18	0.49	0.03	12483	0	323	8832	12483	12483	61	13	55	6	6334	3618348	135
103	2018-03-09 10:12:47		0	0	0	0	0	0	0.18	0.49	0.03	12532	0	326	8876	12532	12532	61	13	55	6	6367	3618386	135
104	2018-03-09 10:23:16		0	0	0	0	0	0	0.18	0.48	0.03	12582	0	327	8911	12582	12582	61	13	55	6	6390	3618445	135
105	2018-03-09 10:33:47		0	0	0	0	0	0	0.18	0.48	0.03	12614	0	329	8944	12614	12614	61	13	56	6	6408	3618504	136
106	2018-03-09 10:44:19		0	0	0	0	0	0	0.18	0.48	0.03	12646	0	331	8965	12646	12646	61	13	56	6	6423	3618552	136
107	2018-03-09 10:54:48		0	0	0	0	0	0	0.18	0.48	0.03	12675	0	332	8966	12675	12675	61	13	56	6	6423	3618600	136
108	2018-03-09 11:05:19		0	0	0	0	0	0	0.18	0.48	0.03	12727	0	335	8999	12727	12727	61	13	56	6	6437	3618645	136
109	2018-03-09 11:15:50		0	0	0	0	0	0	0.18	0.48	0.03	12755	0	336	8999	12755	12755	61	13	56	6	6441	3618683	136
110	2018-03-09 11:26:19		0	0	0	0	0	0	0.18	0.48	0.03	12808	0	336	9045	12808	12808	61	13	56	6	6459	3618719	136
111	2018-03-09 11:36:49		0	0	0	0	0	0	0.18	0.48	0.03	12825	0	336	9061	12825	12825	61	13	56	6	6469	3618761	136
112	2018-03-09 11:47:25		0	0	0	0	0	0	0.18	0.47	0.03	12851	0	338	9069	12851	12851	61	13	56	6	6480	3618809	136
113	2018-03-09 11:57:56		0	0	0	0	0	0	0.18	0.47	0.03	12880	0	340	9073	12880	12880	61	13	56	6	6485	3618844	136
114	2018-03-09 12:08:26		0	0	0	0	0	0	0.18	0.47	0.03	12905	0	343	9101	12905	12905	61	13	56	6	6499	3618887	136
115	2018-03-09 12:18:52		0	0	0	0	0	0	0.18	0.47	0.03	12926	0	343	9107	12926	12926	61	13	56	6	6503	3618915	136
116	2018-03-09 12:29:23		0	0	0	0	0	0	0.18	0.47	0.03	12955	0	344	9136	12955	12955	61	13	56	6	6517	3618949	136
117	2018-03-09 12:39:53		0	0	0	0	0	0	0.18	0.47	0.03	12985	0	344	9178	12985	12985	61	13	56	6	6519	3618988	136
118	2018-03-09 12:50:25		0	0	0	0	0	0	0.18	0.47	0.03	13007	0	344	9178	13007	13007	61	13	56	6	6519	3619021	136
119	2018-03-09 13:00:54		0	0	0	0	0	0	0.18	0.47	0.03	13026	0	344	9182	13026	13026	61	13	56	6	6535	3619060	136
120	2018-03-09 13:11:24		0	0	0	0	0	0	0.18	0.47	0.03	13062	0	345	9210	13062	13062	61	13	56	6	6550	3619091	136
121	2018-03-09 13:21:55		0	0	0	0	0	0	0.18	0.47	0.03	13085	0	347	9210	13085	13085	61	13	56	6	6550	3619129	136
122	2018-03-09 13:32:26		0	0	0	0	0	0	0.18	0.47	0.03	13113	0	350	9217	13113	13113	61	13	56	6	6569	3619173	136
123	2018-03-09 13:42:56		0	0	0	0	0	0	0.18	0.46	0.03	13134	0	350	9226	13134	13134	61	13	56	6	6573	3619203	136
124	2018-03-09 13:53:29		0	0	0	0	0	0	0.18	0.46	0.03	13150	0	350	9250	13150	13150	61	13	56	6	6578	3619237	136
125	2018-03-09 14:03:57		0	0	0	0	0	0	0.18	0.46	0.03	13172	0	350	9250	13172	13172	61	13	56	6	6578	3619274	136
126	2018-03-09 14:14:27		0	0	0	0	0	0	0.18	0.46	0.03	13196	0	350	9264	13196	13196	61	13	56	6	6580	3619309	136
127	2018-03-09 14:24:57		0	0	0	0	0	0	0.18	0.46	0.03	13214	0	353	9264	13214	13214	61	13	56	6	6580	3619354	136
128	2018-03-09 14:35:29		0	0	0	0	0	0	0.18	0.46	0.03	13236	0	354	9282	13236	13236	61	13	56	6	6587	3619390	136
129	2018-03-09 14:46:04		0	0	0	0	0	0	0.18	0.46	0.03	13262	0	356	9323	13262	13262	61	13	56	6	6603	3619422	136
130	2018-03-09 14:56:31		0	0	0	0	0	0	0.18	0.46	0.03	13287	0	357	9356	13287	13287	61	13	56	6	6634	3619462	136
131	2018-03-09 15:07:01		0	0	0	0	0	0	0.18	0.46	0.03	13313	0	358	9362	13313	13313	61	13	56	6	6640	3619492	136
132	2018-03-09 15:17:32		0	0	0	0	0	0	0.18	0.46	0.03	13331	0	358	9364	13331	13331	61	13	56	6	6640	3619512	136
133	2018-03-09 15:28:03		0	0	0	0	0	0	0.18	0.46	0.03	13346	0	358	9371	13346	13346	61	13	56	6	6644	3619553	136
134	2018-03-09 15:38:42		0	0	0	0	0	0	0.18	0.46	0.03	13367	0	358	9399	13367	13367	61	13	56	6	6656	3619597	136
135	2018-03-09 15:49:14		0	0	0	0	0	0	0.18	0.46	0.03	13386	0	362	9410	13386	13386	61	13	56	6	6661	3619623	136
136	2018-03-09 15:59:43		0	0	0	0	0	0	0.18	0.46	0.03	13402	0	363	9424	13402	13402	61	13	56	6	6665	3619655	136
137	2018-03-09 16:10:07		0	0	0	0	0	0	0.18	0.45	0.03	13424	0	363	9435	13424	13424	61	13	56	6	6680	3619682	136
138	2018-03-09 16:20:36		0	0	0	0	0	0	0.18	0.45	0.03	13443	0	365	9450	13443	13443	61	13	56	6	6680	3619718	136
139	2018-03-09 16:31:07		0	0	0	0	0	0	0.18	0.45	0.03	13462	0	365	9474	13462	13462	61	13	56	6	6690	3619742	136
140	2018-03-09 16:41:36		0	0	0	0	0	0	0.19	0.45	0.03	13492	0	368	9485	13492	13492	61	13	56	6	6705	3619774	136
141	2018-03-09 16:52:08		0	0	0	0	0	0	0.19	0.45	0.03	13530	0	368	9519	13530	13530	61	13	56	6	6727	3619802	136
142	2018-03-09 17:02:42		0	0	0	0	0	0	0.19	0.45	0.03	13572	0	368	9579	13572	13572	61	13	56	6	6766	3619836	136
143	2018-03-09 17:13:14		0	0	0	0	0	0	0.19	0.45	0.03	13613	0	369	9607	13613	13613	61	13	57	6	6783	3619863	137
144	2018-03-09 17:23:49		0	0	0	0	0	0	0.19	0.45	0.03	13652	0	369	9642	13652	13652	61	13	57	6	6808	3619895	137
145	2018-03-09 17:34:20		0	0	0	0	0	0	0.19	0.46	0.03	13693	0	370	9693	13693	13693	63	13	57	6	6857	3619938	139
146	2018-03-09 17:44:44		0	0	0	0	0	0	0.19	0.46	0.03	13723	0	371	9726	13723	13723	63	13	57	6	6898	3619966	139
147	2018-03-09 17:55:14		0	0	0	0	0	0	0.19	0.46	0.03	13744	0	371	9734	13744	13744	63	13	57	6	6898	3619998	139
148	2018-03-09 18:05:44		0	0	0	0	0	0	0.19	0.46	0.03	13770	0	374	9769	13770	13770	63	13	57	6	6922	3620026	139
149	2018-03-09 18:16:14		0	0	0	0	0	0	0.19	0.46	0.03	13800	0	381	9796	13800	13800	63	13	57	6	6946	3620047	139
150	2018-03-09 18:26:44		0	0	0	0	0	0	0.19	0.46	0.03	13816	0	382	9808	13816	13816	63	13	57	6	6956	3620067	139
151	2018-03-09 18:37:15		0	0	0	0	0	0	0.19	0.46	0.03	13837	0	382	9836	13837	13837	63	13	57	6	6980	3620094	139
152	2018-03-09 18:47:46		0	0	0	0	0	0	0.19	0.45	0.03	13874	0	383	9842	13874	13874	63	13	57	6	6980	3620132	139
153	2018-03-09 18:58:22		0	0	0	0	0	0	0.19	0.45	0.03	13896	0	383	9857	13896	13896	63	13	57	6	6988	3620166	139
154	2018-03-09 19:08:51		0	0	0	0	0	0	0.19	0.45	0.03	13919	0	383	9866	13919	13919	63	13	57	6	6988	3620192	139
155	2018-03-09 19:19:22		0	0	0	0	0	0	0.19	0.45	0.03	13945	0	384	9873	13945	13945	63	14	57	6	6999	3620229	140
156	2018-03-09 19:29:54		0	0	0	0	0	0	0.19	0.45	0.03	13971	0	384	9884	13971	13971	63	14	57	6	7004	3620262	140
157	2018-03-09 19:40:24		0	0	0	0	0	0	0.19	0.45	0.03	13998	0	384	9892	13998	13998	63	14	57	6	7015	3620288	140
158	2018-03-09 19:50:54		0	0	0	0	0	0	0.19	0.45	0.03	14026	0	386	9892	14026	14026	63	14	57	6	7017	3620346	140
159	2018-03-09 20:01:30		0	0	0	0	0	0	0.19	0.45	0.03	14049	0	386	9892	14049	14049	63	14	57	6	7017	3620384	140
160	2018-03-09 20:11:55		0	0	0	0	0	0	0.19	0.45	0.03	14074	0	389	9916	14074	14074	63	14	57	6	7022	3620425	140
161	2018-03-09 20:22:25		0	0	0	0	0	0	0.19	0.45	0.03	14114	0	393	9944	14114	14114	63	14	57	6	7046	3620454	140
162	2018-03-09 20:32:56		0	0	0	0	0	0	0.2	0.45	0.03	14155	0	395	10011	14155	14155	63	14	57	6	7079	3620476	140
163	2018-03-09 20:43:25		0	0	0	0	0	0	0.2	0.44	0.03	14190	0	396	10039	14190	14190	63	14	57	6	7091	3620503	140
164	2018-03-09 20:53:57		0	0	0	0	0	0	0.2	0.44	0.03	14218	0	396	10085	14218	14218	63	14	57	6	7123	3620528	140
165	2018-03-09 21:04:27		0	0	0	0	0	0	0.2	0.44	0.03	14247	0	397	10101	14247	14247	63	14	57	6	7153	3620564	140
166	2018-03-09 21:14:59		0	0	0	0	0	0	0.2	0.44	0.03	14280	0	397	10152	14280	14280	63	14	57	6	7163	3620589	140
167	2018-03-09 21:25:28		0	0	0	0	0	0	0.2	0.44	0.03	14306	0	397	10171	14306	14306	63	14	57	6	7169	3620634	140
168	2018-03-09 21:35:59		0	0	0	0	0	0	0.2	0.44	0.03	14325	0	398	10199	14325	14325	63	14	57	6	7175	3620657	140
169	2018-03-09 21:46:30		0	0	0	0	0	0	0.2	0.44	0.03	14348	0	401	10204	14348	14348	63	14	57	6	7175	3620687	140
170	2018-03-09 21:57:02		0	0	0	0	0	0	0.2	0.44	0.03	14366	0	402	10207	14366	14366	63	14	57	6	7177	3620728	140
171	2018-03-09 22:07:31		0	0	0	0	0	0	0.2	0.44	0.03	14395	0	406	10226	14395	14395	63	14	57	6	7179	3620758	140
172	2018-03-09 22:18:01		0	0	0	0	0	0	0.2	0.44	0.03	14444	0	406	10286	14444	14444	63	14	57	6	7212	3620793	140
173	2018-03-09 22:28:32		0	0	0	0	0	0	0.2	0.44	0.03	14475	0	406	10295	14475	14475	63	14	57	6	7228	3620817	140
174	2018-03-09 22:39:03		0	0	0	0	0	0	0.2	0.43	0.03	14485	0	406	10314	14485	14485	63	14	57	6	7228	3620845	140
175	2018-03-09 22:49:33		0	0	0	0	0	0	0.2	0.43	0.03	14513	0	406	10322	14513	14513	63	14	57	6	7228	3620878	140
176	2018-03-09 23:00:03		0	0	0	0	0	0	0.2	0.43	0.03	14539	0	409	10322	14539	14539	63	14	57	6	7229	3620918	140
177	2018-03-09 23:10:29		0	0	0	0	0	0	0.2	0.43	0.03	14555	0	409	10351	14555	14555	63	14	57	6	7264	3620954	140
178	2018-03-09 23:21:01		0	0	0	0	0	0	0.2	0.43	0.03	14580	0	409	10371	14580	14580	63	14	57	6	7274	3620973	140
179	2018-03-09 23:31:30		0	0	0	0	0	0	0.2	0.43	0.03	14607	0	409	10383	14607	14607	63	14	57	6	7278	3621002	140
180	2018-03-09 23:42:03		0	0	0	0	0	0	0.2	0.43	0.03	14628	0	410	10392	14628	14628	63	14	57	6	7287	3621038	140
181	2018-03-09 23:52:34		0	0	0	0	0	0	0.2	0.43	0.03	14653	0	410	10405	14653	14653	63	14	57	6	7293	3621049	140
182	2018-03-10 00:03:04		0	0	0	0	0	0	0.2	0.43	0.03	14687	0	410	10423	14687	14687	63	14	57	6	7300	3621065	140
183	2018-03-10 01:08:03		0	0	0	0	0	0	0.2	0.43	0.03	14768	0	411	10486	14768	14768	63	14	58	6	7338	3621176	141
184	2018-03-10 02:13:03		0	0	0	0	0	0	0.2	0.43	0.03	14804	0	411	10499	14804	14804	63	14	58	6	7350	3621228	141
185	2018-03-10 03:18:06		0	0	0	0	0	0	0.2	0.42	0.03	14831	0	411	10541	14831	14831	63	14	58	6	7366	3621250	141
186	2018-03-10 04:23:05		0	0	0	0	0	0	0.2	0.42	0.03	14840	0	411	10541	14840	14840	63	14	58	6	7366	3621277	141
187	2018-03-10 05:28:06		0	0	0	0	0	0	0.2	0.42	0.03	14856	0	411	10560	14856	14856	63	14	58	6	7371	3621300	141
188	2018-03-10 06:33:09		0	0	0	0	0	0	0.2	0.42	0.03	14865	0	411	10579	14865	14865	63	14	58	6	7379	3621333	141
189	2018-03-10 07:08:38		0	0	0	0	0	0	0.2	0.42	0.03	14875	0	412	10579	14875	14875	63	14	58	6	7379	3621383	141
190	2018-03-10 07:19:09		0	0	0	0	0	0	0.2	0.42	0.03	14878	0	413	10581	14878	14878	63	14	58	6	7379	3621402	141
191	2018-03-10 07:29:38		0	0	0	0	0	0	0.2	0.42	0.03	14886	0	413	10583	14886	14886	63	14	58	6	7393	3621421	141
192	2018-03-10 07:40:09		0	0	0	0	0	0	0.2	0.42	0.03	14892	0	413	10592	14892	14892	63	14	58	6	7397	3621432	141
193	2018-03-10 07:50:39		0	0	0	0	0	0	0.2	0.42	0.03	14898	0	413	10594	14898	14898	63	14	58	6	7397	3621458	141
194	2018-03-10 08:01:17		0	0	0	0	0	0	0.2	0.42	0.03	14910	0	414	10594	14910	14910	63	14	58	6	7397	3621489	141
195	2018-03-10 08:11:40		0	0	0	0	0	0	0.2	0.42	0.03	14919	0	414	10594	14919	14919	63	14	58	6	7397	3621516	141
196	2018-03-10 08:22:13		0	0	0	0	0	0	0.2	0.42	0.03	14934	0	414	10602	14934	14934	63	14	58	6	7402	3621542	141
197	2018-03-10 08:32:43		0	0	0	0	0	0	0.2	0.42	0.03	14945	0	414	10618	14945	14945	63	14	58	6	7404	3621570	141
198	2018-03-10 08:43:12		0	0	0	0	0	0	0.2	0.42	0.03	14956	0	414	10626	14956	14956	63	14	58	6	7414	3621597	141
199	2018-03-10 08:53:43		0	0	0	0	0	0	0.2	0.42	0.03	14974	0	415	10631	14974	14974	63	14	58	6	7417	3621625	141
200	2018-03-10 09:04:12		0	0	0	0	0	0	0.21	0.42	0.03	14990	0	416	10631	14990	14990	63	14	58	6	7428	3621647	141
201	2018-03-10 09:14:42		0	0	0	0	0	0	0.21	0.42	0.03	15008	0	418	10644	15008	15008	63	14	58	6	7435	3621680	141
202	2018-03-10 09:25:15		0	0	0	0	0	0	0.21	0.42	0.03	15017	0	418	10648	15017	15017	63	14	58	6	7437	3621721	141
203	2018-03-10 09:35:45		0	0	0	0	0	0	0.21	0.42	0.03	15031	0	418	10648	15031	15031	63	14	58	6	7446	3621752	141
204	2018-03-10 09:46:14		0	0	0	0	0	0	0.21	0.43	0.03	15050	0	418	10668	15050	15050	64	14	58	6	7460	3621776	142
205	2018-03-10 09:56:44		0	0	0	0	0	0	0.21	0.42	0.03	15063	0	418	10669	15063	15063	64	14	58	6	7460	3621805	142
206	2018-03-10 10:07:16		0	0	0	0	0	0	0.21	0.43	0.03	15075	0	418	10673	15075	15075	65	14	58	6	7470	3621830	143
207	2018-03-10 10:17:47		0	0	0	0	0	0	0.21	0.43	0.03	15085	0	418	10673	15085	15085	65	14	58	6	7470	3621855	143
208	2018-03-10 10:28:18		0	0	0	0	0	0	0.21	0.43	0.03	15099	0	418	10692	15099	15099	65	14	58	6	7476	3621884	143
209	2018-03-10 10:38:48		0	0	0	0	0	0	0.21	0.43	0.03	15112	0	418	10695	15112	15112	65	14	58	6	7476	3621916	143
210	2018-03-10 10:49:17		0	0	0	0	0	0	0.21	0.43	0.03	15126	0	418	10695	15126	15126	65	14	58	6	7488	3621943	143
211	2018-03-10 10:59:48		0	0	0	0	0	0	0.21	0.43	0.03	15135	0	418	10695	15135	15135	65	14	58	6	7488	3621970	143
212	2018-03-10 11:10:19		0	0	0	0	0	0	0.21	0.43	0.03	15155	0	418	10718	15155	15155	65	14	58	6	7488	3622003	143
213	2018-03-10 11:20:48		0	0	0	0	0	0	0.21	0.43	0.03	15182	0	419	10765	15182	15182	65	14	58	6	7493	3622041	143
214	2018-03-10 11:31:19		0	0	0	0	0	0	0.21	0.43	0.03	15189	0	419	10765	15189	15189	65	14	58	6	7493	3622091	143
215	2018-03-10 11:41:51		0	0	0	0	0	0	0.21	0.43	0.03	15198	0	420	10765	15198	15198	65	14	58	6	7493	3622120	143
216	2018-03-10 11:52:20		0	0	0	0	0	0	0.21	0.43	0.03	15213	0	420	10782	15213	15213	65	14	58	6	7496	3622161	143
217	2018-03-10 12:02:51		0	0	0	0	0	0	0.21	0.43	0.03	15219	0	420	10792	15219	15219	65	14	58	6	7501	3622193	143
218	2018-03-10 12:13:24		0	0	0	0	0	0	0.21	0.43	0.03	15229	0	421	10813	15229	15229	65	14	58	6	7504	3622224	143
219	2018-03-10 12:23:53		0	0	0	0	0	0	0.21	0.43	0.03	15239	0	421	10820	15239	15239	65	14	58	6	7504	3622263	143
220	2018-03-10 12:34:30		0	0	0	0	0	0	0.21	0.43	0.03	15292	0	423	10861	15292	15292	65	14	58	6	7521	3622299	143
221	2018-03-10 12:44:52		0	0	0	0	0	0	0.21	0.42	0.03	15303	0	423	10876	15303	15303	65	14	58	6	7528	3622328	143
222	2018-03-10 12:55:23		0	0	0	0	0	0	0.21	0.42	0.03	15316	0	423	10895	15316	15316	65	14	58	6	7533	3622357	143
223	2018-03-10 13:05:54		0	0	0	0	0	0	0.21	0.42	0.03	15327	0	423	10916	15327	15327	65	14	59	6	7548	3622387	144
224	2018-03-10 13:16:26		0	0	0	0	0	0	0.21	0.42	0.03	15337	0	423	10928	15337	15337	65	14	59	6	7558	3622410	144
225	2018-03-10 13:26:55		0	0	0	0	0	0	0.21	0.42	0.03	15342	0	423	10928	15342	15342	65	14	59	6	7558	3622434	144
226	2018-03-10 13:37:24		0	0	0	0	0	0	0.21	0.42	0.03	15345	0	423	10958	15345	15345	65	14	59	6	7558	3622472	144
227	2018-03-10 13:48:01		0	0	0	0	0	0	0.21	0.42	0.03	15356	0	423	10959	15356	15356	65	14	59	6	7560	3622511	144
228	2018-03-10 13:58:28		0	0	0	0	0	0	0.21	0.42	0.03	15363	0	423	10964	15363	15365	65	14	59	6	7560	3622543	144
229	2018-03-10 14:09:01		0	0	0	0	0	0	0.21	0.42	0.03	15372	0	423	10964	15372	15372	65	14	59	6	7560	3622571	144
230	2018-03-10 14:19:28		0	0	0	0	0	0	0.21	0.42	0.03	15376	0	423	10964	15376	15376	65	14	59	6	7560	3622586	144
231	2018-03-10 14:29:58		0	0	0	0	0	0	0.21	0.42	0.03	15382	0	423	10969	15382	15382	65	14	59	6	7560	3622609	144
232	2018-03-10 14:40:28		0	0	0	0	0	0	0.21	0.42	0.03	15384	0	423	10974	15384	15384	65	14	59	6	7560	3622623	144
233	2018-03-10 14:50:57		0	0	0	0	0	0	0.21	0.42	0.03	15391	0	423	10983	15391	15391	65	14	59	6	7564	3622648	144
234	2018-03-10 15:01:27		0	0	0	0	0	0	0.21	0.42	0.03	15397	0	423	10983	15397	15397	65	14	59	6	7564	3622669	144
235	2018-03-10 15:11:58		0	0	0	0	0	0	0.21	0.42	0.03	15443	0	423	11060	15443	15443	65	14	59	6	7596	3622700	144
236	2018-03-10 15:22:30		0	0	0	0	0	0	0.21	0.42	0.03	15520	0	426	11102	15520	15520	65	14	59	6	7622	3622717	144
237	2018-03-10 15:32:58		0	0	0	0	0	0	0.21	0.42	0.03	15532	0	426	11144	15532	15532	65	14	59	6	7648	3622739	144
238	2018-03-10 15:43:30		0	0	0	0	0	0	0.21	0.42	0.03	15544	0	426	11164	15544	15544	65	14	59	6	7658	3622750	144
239	2018-03-10 15:54:01		0	0	0	0	0	0	0.21	0.42	0.03	15556	0	427	11164	15556	15556	65	14	59	6	7662	3622758	144
240	2018-03-10 16:04:33		0	0	0	0	0	0	0.21	0.42	0.03	15568	0	427	11169	15568	15568	65	14	59	6	7663	3622769	144
241	2018-03-10 16:15:01		0	0	0	0	0	0	0.21	0.42	0.03	15580	0	427	11175	15580	15580	65	14	59	6	7668	3622778	144
242	2018-03-10 16:25:32		0	0	0	0	0	0	0.21	0.42	0.03	15589	0	428	11199	15589	15589	65	14	59	6	7670	3622791	144
243	2018-03-10 16:36:02		0	0	0	0	0	0	0.21	0.42	0.03	15596	0	428	11207	15596	15596	65	14	59	6	7674	3622807	144
244	2018-03-10 16:46:33		0	0	0	0	0	0	0.21	0.42	0.03	15604	0	428	11207	15604	15604	65	14	59	6	7674	3622825	144
245	2018-03-10 16:57:02		0	0	0	0	0	0	0.21	0.42	0.03	15613	0	429	11207	15613	15613	65	14	59	6	7674	3622848	144
246	2018-03-10 17:07:32		0	0	0	0	0	0	0.21	0.42	0.03	15619	0	429	11216	15619	15619	65	14	59	6	7674	3622862	144
247	2018-03-10 17:18:04		0	0	0	0	0	0	0.21	0.42	0.03	15624	0	429	11221	15624	15624	65	14	59	6	7676	3622890	144
248	2018-03-10 17:28:36		0	0	0	0	0	0	0.21	0.42	0.03	15630	0	429	11229	15630	15630	65	14	59	6	7680	3622907	144
249	2018-03-10 17:39:06		0	0	0	0	0	0	0.21	0.42	0.03	15638	0	429	11229	15638	15638	65	14	59	6	7680	3622918	144
250	2018-03-10 17:49:41		0	0	0	0	0	0	0.21	0.42	0.03	15646	0	429	11229	15646	15646	65	14	59	6	7690	3622941	144
251	2018-03-10 18:00:08		0	0	0	0	0	0	0.21	0.42	0.03	15656	0	430	11232	15656	15656	65	14	59	6	7690	3622951	144
252	2018-03-10 18:10:35		0	0	0	0	0	0	0.21	0.41	0.03	15667	0	431	11260	15667	15667	65	14	59	6	7694	3622965	144
253	2018-03-10 18:21:07		0	0	0	0	0	0	0.21	0.41	0.03	15688	0	431	11297	15688	15679	65	14	59	6	7703	3622987	144
254	2018-03-10 18:31:37		0	0	0	0	0	0	0.21	0.41	0.03	15698	0	431	11307	15698	15698	65	14	59	6	7707	3623002	144
255	2018-03-10 18:42:08		0	0	0	0	0	0	0.21	0.41	0.03	15707	0	431	11315	15707	15707	65	14	59	6	7714	3623025	144
256	2018-03-10 18:52:42		0	0	0	0	0	0	0.21	0.41	0.03	15718	0	431	11315	15718	15718	65	14	59	6	7719	3623039	144
257	2018-03-10 19:03:13		0	0	0	0	0	0	0.21	0.41	0.03	15732	0	431	11316	15732	15732	65	14	59	6	7719	3623052	144
258	2018-03-10 19:13:42		0	0	0	0	0	0	0.21	0.41	0.03	15747	0	432	11323	15747	15747	65	14	59	6	7738	3623067	144
259	2018-03-10 19:24:13		0	0	0	0	0	0	0.21	0.41	0.03	15758	0	432	11323	15758	15758	65	14	59	6	7738	3623081	144
260	2018-03-10 19:34:44		0	0	0	0	0	0	0.21	0.41	0.03	15766	0	432	11323	15766	15766	65	14	59	6	7741	3623090	144
261	2018-03-10 19:45:15		0	0	0	0	0	0	0.21	0.41	0.03	15776	0	433	11351	15776	15776	65	14	59	6	7746	3623112	144
262	2018-03-10 19:55:46		0	0	0	0	0	0	0.21	0.41	0.03	15787	0	434	11360	15787	15787	65	14	59	6	7746	3623113	144
263	2018-03-10 20:06:15		0	0	0	0	0	0	0.21	0.41	0.03	15800	0	434	11360	15800	15800	65	14	59	6	7761	3623131	144
264	2018-03-10 20:16:45		0	0	0	0	0	0	0.21	0.42	0.03	15819	0	434	11360	15819	15819	66	14	59	6	7761	3623152	145
265	2018-03-10 20:27:16		0	0	0	0	0	0	0.21	0.42	0.03	15832	0	434	11372	15832	15832	66	14	59	6	7779	3623165	145
266	2018-03-10 20:37:47		0	0	0	0	0	0	0.21	0.42	0.03	15844	0	434	11372	15844	15844	66	14	59	6	7779	3623183	145
267	2018-03-10 20:48:18		0	0	0	0	0	0	0.21	0.42	0.03	15851	0	434	11381	15851	15851	66	14	59	6	7784	3623197	145
268	2018-03-10 20:58:48		0	0	0	0	0	0	0.21	0.42	0.03	15862	0	434	11387	15862	15862	66	14	59	6	7786	3623210	145
269	2018-03-10 21:09:18		0	0	0	0	0	0	0.22	0.42	0.03	15872	0	434	11398	15872	15872	66	14	59	6	7794	3623218	145
270	2018-03-10 21:19:49		0	0	0	0	0	0	0.22	0.42	0.03	15881	0	434	11403	15881	15881	66	14	59	6	7794	3623228	145
271	2018-03-10 21:30:25		0	0	0	0	0	0	0.22	0.42	0.03	15901	0	434	11410	15901	15901	66	14	59	6	7799	3623242	145
272	2018-03-10 21:40:51		0	0	0	0	0	0	0.22	0.41	0.03	15915	0	436	11429	15915	15915	66	14	59	6	7807	3623255	145
273	2018-03-10 21:51:21		0	0	0	0	0	0	0.22	0.41	0.03	15926	0	437	11432	15926	15926	66	14	59	6	7824	3623265	145
274	2018-03-10 22:01:51		0	0	0	0	0	0	0.22	0.41	0.03	15951	0	437	11437	15951	15951	66	14	59	6	7827	3623285	145
275	2018-03-10 22:12:23		0	0	0	0	0	0	0.22	0.41	0.03	15966	0	437	11437	15966	15966	66	14	59	6	7827	3623294	145
276	2018-03-10 22:22:53		0	0	0	0	0	0	0.22	0.41	0.03	15979	0	437	11463	15979	15979	66	14	59	6	7831	3623306	145
277	2018-03-10 22:33:23		0	0	0	0	0	0	0.22	0.41	0.03	15989	0	437	11465	15989	15989	66	14	59	6	7832	3623317	145
278	2018-03-10 22:43:53		0	0	0	0	0	0	0.22	0.41	0.03	16003	0	437	11465	16003	16003	66	14	59	6	7832	3623337	145
279	2018-03-10 22:54:25		0	0	0	0	0	0	0.22	0.41	0.03	16024	0	437	11471	16024	16024	66	14	59	6	7832	3623348	145
280	2018-03-10 23:04:56		0	0	0	0	0	0	0.22	0.41	0.03	16039	0	437	11476	16039	16039	66	14	59	6	7834	3623360	145
281	2018-03-10 23:15:21		0	0	0	0	0	0	0.22	0.41	0.03	16051	0	437	11487	16051	16051	66	14	59	6	7844	3623375	145
282	2018-03-10 23:25:52		0	0	0	0	0	0	0.22	0.41	0.03	16065	0	438	11487	16065	16065	66	14	59	6	7859	3623396	145
283	2018-03-10 23:36:22		0	0	0	0	0	0	0.22	0.41	0.03	16079	0	438	11501	16079	16079	66	14	59	6	7877	3623402	145
284	2018-03-10 23:46:51		0	0	0	0	0	0	0.22	0.41	0.03	16103	0	438	11581	16103	16103	66	14	59	6	7927	3623408	145
285	2018-03-10 23:57:23		0	0	0	0	0	0	0.22	0.41	0.03	16120	0	438	11581	16120	16120	66	14	59	6	7927	3623423	145
286	2018-03-11 00:37:24		0	0	0	0	0	0	0.22	0.41	0.03	16158	0	439	11615	16158	16158	66	14	59	6	7937	3623457	145
287	2018-03-11 01:42:24		0	0	0	0	0	0	0.22	0.41	0.03	16206	0	439	11670	16206	16206	66	14	59	6	8001	3623505	145
288	2018-03-11 02:47:24		0	0	0	0	0	0	0.22	0.41	0.03	16228	0	439	11689	16228	16228	66	14	59	6	8015	3623526	145
289	2018-03-11 03:52:24		0	0	0	0	0	0	0.22	0.41	0.03	16233	0	439	11689	16233	16233	66	14	59	6	8015	3623531	145
290	2018-03-11 04:57:25		0	0	0	0	0	0	0.22	0.41	0.03	16243	0	439	11689	16243	16243	66	14	59	6	8015	3623547	145
291	2018-03-11 06:02:27		0	0	0	0	0	0	0.22	0.41	0.03	16255	0	439	11706	16255	16255	66	14	59	6	8023	3623550	145
292	2018-03-11 07:07:26		0	0	0	0	0	0	0.22	0.41	0.03	16270	0	439	11715	16270	16270	66	14	59	6	8032	3623569	145
293	2018-03-11 07:17:57		0	0	0	0	0	0	0.22	0.41	0.03	16272	0	439	11715	16272	16272	66	14	59	6	8032	3623572	145
294	2018-03-11 07:28:28		0	0	0	0	0	0	0.22	0.41	0.03	16277	0	440	11737	16277	16277	66	14	59	6	8032	3623581	145
295	2018-03-11 07:38:59		0	0	0	0	0	0	0.22	0.41	0.03	16278	0	440	11737	16278	16278	66	14	59	6	8032	3623593	145
296	2018-03-11 07:49:29		0	0	0	0	0	0	0.22	0.41	0.03	16282	0	440	11745	16282	16282	66	14	59	6	8039	3623594	145
297	2018-03-11 08:00:00		0	0	0	0	0	0	0.22	0.41	0.03	16285	0	440	11751	16285	16285	66	14	59	6	8041	3623606	145
298	2018-03-11 08:10:30		0	0	0	0	0	0	0.22	0.41	0.03	16286	0	440	11751	16286	16286	66	14	59	6	8041	3623614	145
299	2018-03-11 08:21:02		0	0	0	0	0	0	0.22	0.41	0.03	16293	0	440	11751	16293	16293	66	14	59	6	8041	3623627	145
300	2018-03-11 08:31:34		0	0	0	0	0	0	0.22	0.4	0.03	16302	0	440	11763	16302	16302	66	14	59	6	8051	3623645	145
301	2018-03-11 08:42:10		0	0	0	0	0	0	0.22	0.4	0.03	16306	0	440	11771	16306	16306	66	14	59	6	8055	3623669	145
302	2018-03-11 08:52:32		0	0	0	0	0	0	0.22	0.4	0.03	16323	0	440	11792	16323	16323	66	14	59	6	8073	3623686	145
303	2018-03-11 09:03:02		0	0	0	0	0	0	0.22	0.4	0.03	16328	0	440	11814	16328	16328	66	14	59	6	8073	3623688	145
304	2018-03-11 09:13:34		0	0	0	0	0	0	0.22	0.4	0.03	16337	0	440	11816	16337	16337	66	14	59	6	8073	3623704	145
305	2018-03-11 09:24:03		0	0	0	0	0	0	0.22	0.4	0.03	16349	0	441	11816	16349	16349	66	14	59	6	8073	3623720	145
306	2018-03-11 09:34:34		0	0	0	0	0	0	0.22	0.4	0.03	16354	0	441	11816	16354	16354	66	14	59	6	8073	3623732	145
307	2018-03-11 09:45:04		0	0	0	0	0	0	0.22	0.4	0.03	16367	0	443	11838	16367	16367	66	14	59	6	8085	3623740	145
308	2018-03-11 09:55:34		0	0	0	0	0	0	0.22	0.4	0.03	16374	0	443	11841	16374	16374	66	14	59	6	8086	3623758	145
309	2018-03-11 10:06:04		0	0	0	0	0	0	0.22	0.4	0.03	16386	0	443	11870	16386	16386	66	14	59	6	8099	3623782	145
310	2018-03-11 10:16:36		0	0	0	0	0	0	0.22	0.4	0.03	16398	0	443	11889	16398	16398	66	14	59	6	8104	3623801	145
