1	2017-07-22 11:16:00		0	0	0	0	0	0	0.54	0.72	0.01	20591	0	180	17506	20591	20411	149	10	65	11	17281	3215913	235
2	2017-07-22 11:31:07		0	0	0	0	0	0	0.78	0.95	0.01	32042	0	413	25699	32042	31629	303	14	79	14	25173	3215925	410
3	2017-07-22 11:46:37		0	0	0	0	0	0	0.85	1	0.01	35737	0	506	28126	35737	35231	356	16	85	16	27462	3215935	473
4	2017-07-22 11:55:36		0	0	0	0	0	0	0.91	1.04	0.02	39162	0	610	30130	39162	38552	406	18	93	16	29364	3215943	533
5	2017-07-22 12:29:44		0	0	0	0	0	0	1.08	1.05	0.02	48226	0	922	36105	48226	47304	506	20	107	16	34883	3215981	649
6	2017-07-22 12:52:01		0	0	0	0	0	0	1.17	1.05	0.02	53326	0	1084	38944	53326	52242	561	20	116	18	37545	3215989	715
7	2017-07-22 13:01:26		0	0	0	0	0	0	1.2	1.05	0.02	54874	0	1142	40069	54874	53732	576	20	119	19	38490	3215999	734
8	2017-07-22 13:36:07		0	0	0	0	0	0	1.22	1.05	0.02	56223	0	1180	40710	56223	55043	589	20	120	19	39160	3216020	748
9	2017-07-22 13:42:31		0	0	0	0	0	0	1.28	1.04	0.02	59845	0	1302	42681	59845	58543	625	20	123	19	41190	3216031	787
10	2017-07-22 13:52:22		0	0	0	0	0	0	1.31	1.06	0.02	61072	0	1340	43716	61072	59732	645	20	124	19	42241	3216044	808
11	2017-07-22 14:54:55		0	0	0	0	0	0	1.44	1.06	0.02	67742	0	1516	47976	67742	66226	716	20	138	20	46202	3216113	894
12	2017-07-22 15:09:25		0	0	0	0	0	0	1.46	1.05	0.02	69357	0	1568	48997	69357	67789	729	20	144	20	47031	3216137	913
13	2017-07-22 15:19:08		0	0	0	0	0	0	1.48	1.05	0.02	70388	0	1595	49789	70388	68793	739	20	145	20	47708	3216155	924
14	2017-07-22 15:37:33		0	0	0	0	0	0	1.51	1.03	0.02	72513	0	1645	50654	72513	70868	749	22	151	20	48526	3216174	942
15	2017-07-22 15:50:40		0	0	0	0	0	0	1.52	1.04	0.02	73608	0	1672	51164	73608	71936	763	24	157	21	49017	3216197	965
16	2017-07-22 16:17:14		0	0	0	0	0	0	1.6	1.03	0.02	76828	0	1819	53771	76828	75009	793	28	165	22	51552	3216231	1008
17	2017-07-22 16:29:59		0	0	0	0	0	0	1.62	1.02	0.02	77877	0	1849	54269	77877	76028	798	28	165	23	52213	3216243	1014
18	2017-07-22 17:05:53		0	0	0	0	0	0	1.68	1.02	0.02	81306	0	1970	56310	81306	79336	830	28	170	23	54016	3216282	1051
19	2017-07-22 17:16:23		0	0	0	0	0	0	1.7	1.02	0.03	82273	0	2010	56878	82273	80263	838	28	173	23	54540	3216293	1062
20	2017-07-22 17:33:44		0	0	0	0	0	0	1.74	1.02	0.03	84277	0	2086	58280	84277	82191	859	30	175	23	55819	3216310	1087
21	2017-07-22 17:42:41		0	0	0	0	0	0	1.76	1.02	0.03	85334	0	2123	59179	85334	83211	871	30	179	24	56661	3216322	1104
22	2017-07-22 17:55:03		0	0	0	0	0	0	1.77	1.01	0.03	86348	0	2148	59645	86348	84200	875	30	180	24	57021	3216337	1109
23	2017-07-22 19:04:33		0	0	0	0	0	0	1.91	0.99	0.03	93624	0	2327	64071	93624	91297	931	30	192	26	61324	3216426	1179
24	2017-07-22 19:06:17		0	0	0	0	0	0	1.91	0.99	0.03	93624	0	2327	64071	93624	91297	931	30	192	26	61324	3216428	1179
25	2017-07-22 19:13:02		0	0	0	0	0	0	1.93	0.99	0.03	94595	0	2348	64673	94595	92247	935	30	192	26	62104	3216435	1183
26	2017-07-22 19:21:06		0	0	0	0	0	0	1.94	0.99	0.03	95115	0	2360	64895	95115	92755	939	30	193	26	62309	3216445	1188
27	2017-07-22 19:31:06		0	0	0	0	0	0	1.96	0.98	0.03	96104	0	2421	65576	96104	93707	946	32	195	26	62962	3216455	1199
28	2017-07-22 19:41:03		0	0	0	0	0	0	1.97	0.98	0.03	97084	0	2439	66172	97084	94645	950	32	196	26	63490	3216470	1204
29	2017-07-22 19:51:03		0	0	0	0	0	0	1.99	0.97	0.03	98097	0	2478	66730	98097	95631	953	32	197	26	64085	3216478	1208
30	2017-07-22 19:56:15		0	0	0	0	0	0	2.02	0.97	0.03	99133	0	2489	67518	99133	96644	965	32	197	26	64813	3216487	1220
31	2017-07-22 19:59:20		0	0	0	0	0	0	2.02	0.97	0.03	99133	0	2489	67518	99133	96644	965	32	198	26	64813	3216490	1221
32	2017-07-22 20:08:58		0	0	0	0	0	0	2.03	0.97	0.03	100186	0	2511	67985	100186	97675	972	32	200	26	65264	3216502	1230
33	2017-07-22 20:12:28		0	0	0	0	0	0	2.03	0.97	0.03	100186	0	2511	67985	100186	97675	972	32	200	26	65264	3216501	1230
34	2017-07-22 20:22:27		0	0	0	0	0	0	2.06	0.97	0.03	101778	0	2544	68920	101778	99234	989	32	204	26	66114	3216511	1251
35	2017-07-22 20:32:28		0	0	0	0	0	0	2.08	0.97	0.03	102923	0	2584	69673	102923	100339	999	34	210	26	66848	3216527	1269
36	2017-07-22 20:42:28		0	0	0	0	0	0	2.1	0.96	0.03	104084	0	2624	70540	104084	101460	1002	36	212	26	67562	3216538	1276
37	2017-07-22 20:52:28		0	0	0	0	0	0	2.12	0.96	0.03	105209	0	2657	71033	105209	102552	1008	36	215	27	68039	3216554	1286
38	2017-07-22 21:02:28		0	0	0	0	0	0	2.15	0.96	0.03	106304	0	2696	72267	106304	103608	1024	36	216	27	69170	3216567	1303
39	2017-07-22 21:12:29		0	0	0	0	0	0	2.18	0.96	0.03	107336	0	2754	73224	107336	104582	1033	38	219	27	70122	3216588	1317
40	2017-07-22 21:22:32		0	0	0	0	0	0	2.19	0.96	0.03	108338	0	2803	73685	108338	105535	1042	38	221	27	70571	3216601	1328
41	2017-07-22 21:32:29		0	0	0	0	0	0	2.21	0.96	0.03	109380	0	2852	74130	109380	106528	1045	40	222	28	71057	3216619	1335
42	2017-07-22 21:42:29		0	0	0	0	0	0	2.22	0.95	0.03	110382	0	2888	74546	110382	107494	1053	40	223	28	71488	3216627	1344
43	2017-07-22 21:52:29		0	0	0	0	0	0	2.25	0.95	0.03	111435	0	2914	75612	111435	108521	1060	40	228	28	72403	3216644	1356
44	2017-07-22 22:02:28		0	0	0	0	0	0	2.27	0.95	0.03	112394	0	2951	76491	112394	109443	1065	40	228	28	73099	3216657	1361
45	2017-07-22 22:12:29		0	0	0	0	0	0	2.29	0.94	0.03	113389	0	2990	77086	113389	110399	1071	40	231	28	73705	3216671	1370
46	2017-07-22 22:22:28		0	0	0	0	0	0	2.31	0.94	0.03	114453	0	3023	77597	114453	111430	1077	40	232	28	74173	3216682	1377
47	2017-07-22 22:32:28		0	0	0	0	0	0	2.32	0.94	0.03	115463	0	3059	77976	115463	112404	1084	40	234	28	74519	3216691	1386
48	2017-07-22 22:42:29		0	0	0	0	0	0	2.33	0.93	0.03	116369	0	3079	78565	116369	113290	1088	40	234	28	75092	3216705	1390
49	2017-07-22 22:52:31		0	0	0	0	0	0	2.35	0.93	0.03	117298	0	3109	79078	117298	114189	1093	40	234	28	75739	3216717	1395
50	2017-07-22 23:02:30		0	0	0	0	0	0	2.38	0.93	0.03	118244	0	3142	79824	118244	115102	1098	40	236	28	76423	3216729	1402
51	2017-07-22 23:12:30		0	0	0	0	0	0	2.39	0.93	0.03	119152	0	3170	80564	119152	115982	1104	40	238	28	77039	3216742	1410
52	2017-07-22 23:22:31		0	0	0	0	0	0	2.41	0.92	0.03	120053	0	3201	81234	120053	116852	1108	40	240	28	77652	3216749	1416
53	2017-07-22 23:32:29		0	0	0	0	0	0	2.44	0.92	0.03	120959	0	3219	82067	120959	117740	1114	40	243	28	78444	3216762	1425
54	2017-07-22 23:42:32		0	0	0	0	0	0	2.47	0.92	0.03	121820	0	3248	83004	121820	118572	1118	40	245	28	79332	3216782	1431
55	2017-07-22 23:52:29		0	0	0	0	0	0	2.48	0.91	0.03	122653	0	3265	83568	122653	119388	1122	40	245	28	79914	3216793	1435
56	2017-07-23 00:15:00		0	0	0	0	0	0	2.53	0.91	0.03	124234	0	3299	85302	124234	120935	1129	40	249	28	81421	3216803	1446
57	2017-07-23 00:20:11		0	0	0	0	0	0	2.54	0.91	0.03	124614	0	3309	85718	124614	121305	1133	40	251	28	81799	3216808	1452
58	2017-07-23 00:23:56		0	0	0	0	0	0	2.54	0.91	0.03	124614	0	3309	85718	124614	121305	1133	40	251	28	81799	3216808	1452
59	2017-07-23 01:23:56		0	0	0	0	0	0	2.64	0.9	0.03	128793	0	3443	88937	128793	125350	1153	40	261	29	85070	3216827	1483
60	2017-07-23 02:23:55		0	0	0	0	0	0	2.68	0.89	0.03	131122	0	3493	90344	131122	127629	1167	42	268	29	86275	3216837	1506
61	2017-07-23 03:23:55		0	0	0	0	0	0	2.72	0.89	0.03	132486	0	3526	91385	132486	128960	1175	42	269	29	87362	3216840	1515
62	2017-07-23 04:23:55		0	0	0	0	0	0	2.73	0.89	0.03	133418	0	3558	91889	133418	129860	1182	44	274	29	87862	3216847	1529
63	2017-07-23 05:23:55		0	0	0	0	0	0	2.75	0.89	0.03	134135	0	3578	92548	134135	130557	1188	44	276	29	88464	3216846	1537
64	2017-07-23 06:23:54		0	0	0	0	0	0	2.76	0.89	0.03	134789	0	3595	92837	134789	131194	1193	44	276	29	88728	3216845	1542
65	2017-07-23 07:11:25		0	0	0	0	0	0	2.78	0.88	0.03	135483	0	3614	93470	135483	131869	1198	44	277	29	89472	3216846	1548
66	2017-07-23 07:21:25		0	0	0	0	0	0	2.79	0.88	0.03	135707	0	3620	93924	135707	132087	1199	44	278	29	89887	3216849	1550
67	2017-07-23 07:31:25		0	0	0	0	0	0	2.8	0.88	0.03	135953	0	3629	94203	135953	132324	1200	46	279	29	90143	3216853	1554
68	2017-07-23 07:41:25		0	0	0	0	0	0	2.81	0.88	0.03	136265	0	3646	94426	136265	132619	1202	46	279	29	90431	3216854	1556
69	2017-07-23 07:51:25		0	0	0	0	0	0	2.82	0.88	0.03	136623	0	3668	94604	136623	132955	1204	46	280	29	90776	3216856	1559
70	2017-07-23 08:01:25		0	0	0	0	0	0	2.82	0.88	0.03	136993	0	3682	94697	136993	133311	1205	48	280	29	90861	3216858	1562
71	2017-07-23 08:11:27		0	0	0	0	0	0	2.83	0.88	0.03	137379	0	3698	94875	137379	133681	1208	48	280	29	91025	3216860	1565
72	2017-07-23 08:21:27		0	0	0	0	0	0	2.84	0.88	0.03	137854	0	3718	95039	137854	134136	1211	48	281	29	91219	3216860	1569
73	2017-07-23 08:31:27		0	0	0	0	0	0	2.85	0.88	0.03	138336	0	3732	95325	138336	134604	1218	48	281	29	91656	3216866	1576
74	2017-07-23 08:41:26		0	0	0	0	0	0	2.86	0.88	0.03	138813	0	3763	95490	138813	135050	1221	48	282	29	91917	3216876	1580
75	2017-07-23 08:51:27		0	0	0	0	0	0	2.87	0.88	0.03	139347	0	3793	95771	139347	135554	1225	48	284	29	92177	3216886	1586
76	2017-07-23 09:01:30		0	0	0	0	0	0	2.88	0.88	0.03	139889	0	3824	96316	139889	136065	1227	48	285	29	92726	3216897	1589
77	2017-07-23 09:11:25		0	0	0	0	0	0	2.89	0.88	0.03	140439	0	3850	96652	140439	136589	1230	48	286	29	93038	3216911	1593
78	2017-07-23 09:21:25		0	0	0	0	0	0	2.9	0.88	0.03	141015	0	3867	97068	141015	137148	1234	48	288	29	93424	3216917	1599
79	2017-07-23 09:31:24		0	0	0	0	0	0	2.93	0.87	0.03	141898	0	3883	97813	141898	138015	1239	48	290	29	94297	3216923	1606
80	2017-07-23 09:41:25		0	0	0	0	0	0	2.96	0.87	0.03	143205	0	3904	98770	143205	139301	1247	48	292	29	95186	3216930	1616
81	2017-07-23 09:51:24		0	0	0	0	0	0	2.98	0.87	0.03	144382	0	3944	99375	144382	140438	1256	48	292	29	95843	3216931	1625
82	2017-07-23 10:01:24		0	0	0	0	0	0	3.02	0.87	0.03	145376	0	3965	100444	145376	141411	1262	48	295	29	97152	3216932	1634
83	2017-07-23 10:11:25		0	0	0	0	0	0	3.04	0.87	0.03	146325	0	3980	101222	146325	142345	1269	48	295	29	97880	3216936	1641
84	2017-07-23 10:21:25		0	0	0	0	0	0	3.06	0.87	0.03	146895	0	4006	101915	146895	142889	1272	48	297	29	98516	3216937	1646
85	2017-07-23 10:31:26		0	0	0	0	0	0	3.07	0.87	0.03	147375	0	4036	102138	147375	143339	1278	52	298	29	98686	3216939	1657
86	2017-07-23 10:41:25		0	0	0	0	0	0	3.07	0.87	0.03	147765	0	4059	102192	147765	143706	1283	52	298	29	98736	3216940	1662
87	2017-07-23 10:51:26		0	0	0	0	0	0	3.07	0.87	0.03	148195	0	4076	102313	148195	144119	1285	52	300	29	98875	3216945	1666
88	2017-07-23 11:01:29		0	0	0	0	0	0	3.08	0.87	0.03	148597	0	4107	102451	148597	144490	1291	52	302	29	98998	3216949	1674
89	2017-07-23 11:11:26		0	0	0	0	0	0	3.09	0.87	0.03	148929	0	4130	102853	148929	144799	1295	52	302	29	99360	3216957	1678
90	2017-07-23 11:21:26		0	0	0	0	0	0	3.1	0.87	0.03	149260	0	4157	103209	149260	145103	1301	52	302	29	99692	3216965	1684
91	2017-07-23 11:31:26		0	0	0	0	0	0	3.1	0.87	0.03	149558	0	4181	103261	149558	145377	1303	52	302	29	99741	3216982	1686
92	2017-07-23 11:41:25		0	0	0	0	0	0	3.1	0.87	0.03	149785	0	4191	103344	149785	145594	1306	52	302	29	99818	3217003	1689
93	2017-07-23 11:51:26		0	0	0	0	0	0	3.1	0.87	0.03	149954	0	4207	103344	149954	145747	1309	52	303	29	99818	3217010	1693
94	2017-07-23 12:01:26		0	0	0	0	0	0	3.1	0.87	0.03	150087	0	4223	103344	150087	145864	1312	52	303	29	99818	3217021	1696
95	2017-07-23 12:11:26		0	0	0	0	0	0	3.11	0.87	0.03	150178	0	4227	103482	150178	145951	1312	52	303	29	99947	3217037	1696
96	2017-07-23 12:21:26		0	0	0	0	0	0	3.11	0.87	0.03	150279	0	4235	103482	150279	146044	1312	52	304	29	99998	3217048	1697
97	2017-07-23 12:31:27		0	0	0	0	0	0	3.11	0.87	0.03	150377	0	4242	103534	150377	146135	1312	52	305	29	100047	3217067	1698
98	2017-07-23 12:41:27		0	0	0	0	0	0	3.11	0.87	0.03	150473	0	4247	103534	150473	146226	1313	52	305	29	100202	3217079	1699
99	2017-07-23 12:51:27		0	0	0	0	0	0	3.11	0.87	0.03	150564	0	4253	103534	150564	146311	1313	52	305	29	100202	3217091	1699
100	2017-07-23 13:01:27		0	0	0	0	0	0	3.11	0.87	0.03	150667	0	4259	103534	150667	146408	1313	52	305	29	100202	3217104	1699
101	2017-07-23 13:11:28		0	0	0	0	0	0	3.12	0.87	0.03	150769	0	4265	103645	150769	146504	1313	52	306	29	100306	3217112	1700
102	2017-07-23 13:21:31		0	0	0	0	0	0	3.12	0.87	0.03	150863	0	4274	103811	150863	146589	1313	52	306	29	100462	3217133	1700
103	2017-07-23 13:31:28		0	0	0	0	0	0	3.12	0.87	0.03	150956	0	4283	103811	150956	146673	1315	52	306	29	100462	3217134	1702
104	2017-07-23 13:41:31		0	0	0	0	0	0	3.13	0.87	0.03	151034	0	4287	104090	151034	146747	1317	52	306	29	100723	3217144	1704
105	2017-07-23 13:51:28		0	0	0	0	0	0	3.13	0.87	0.03	151117	0	4291	104090	151117	146826	1318	52	306	29	100723	3217160	1705
106	2017-07-23 14:01:34		0	0	0	0	0	0	3.13	0.87	0.03	151216	0	4299	104104	151216	146917	1318	52	306	29	100736	3217173	1705
107	2017-07-23 14:11:31		0	0	0	0	0	0	3.13	0.87	0.03	151305	0	4302	104216	151305	147003	1320	52	307	29	100841	3217186	1708
108	2017-07-23 14:21:28		0	0	0	0	0	0	3.13	0.87	0.03	151388	0	4309	104216	151388	147079	1320	52	307	29	100841	3217198	1708
109	2017-07-23 14:31:29		0	0	0	0	0	0	3.13	0.87	0.03	151464	0	4311	104216	151464	147153	1320	52	307	29	100841	3217208	1708
110	2017-07-23 14:41:40		0	0	0	0	0	0	3.13	0.87	0.03	151555	0	4318	104219	151555	147237	1322	52	307	29	100844	3217219	1710
111	2017-07-23 14:51:48		0	0	0	0	0	0	3.13	0.87	0.03	151646	0	4322	104219	151646	147324	1322	52	307	29	100844	3217237	1710
112	2017-07-23 15:01:38		0	0	0	0	0	0	3.14	0.87	0.03	151738	0	4330	104374	151738	147408	1322	52	308	29	100989	3217242	1711
113	2017-07-23 15:11:41		0	0	0	0	0	0	3.14	0.87	0.03	151810	0	4336	104374	151810	147474	1324	52	308	29	100989	3217258	1713
114	2017-07-23 15:21:45		0	0	0	0	0	0	3.14	0.87	0.03	151905	0	4342	104451	151905	147563	1325	52	308	29	101061	3217265	1714
115	2017-07-23 15:31:39		0	0	0	0	0	0	3.14	0.87	0.03	151983	0	4349	104451	151983	147634	1326	52	308	29	101061	3217272	1715
116	2017-07-23 15:41:53		0	0	0	0	0	0	3.14	0.87	0.03	152073	0	4354	104508	152073	147719	1327	52	308	29	101114	3217281	1716
117	2017-07-23 15:51:53		0	0	0	0	0	0	3.14	0.87	0.03	152147	0	4357	104508	152147	147790	1327	52	309	29	101114	3217293	1717
118	2017-07-23 16:02:05		0	0	0	0	0	0	3.14	0.87	0.03	152227	0	4359	104522	152227	147868	1327	52	309	29	101127	3217308	1717
119	2017-07-23 16:11:38		0	0	0	0	0	0	3.14	0.87	0.03	152300	0	4368	104522	152300	147932	1327	52	309	29	101127	3217312	1717
120	2017-07-23 16:21:38		0	0	0	0	0	0	3.14	0.87	0.03	152392	0	4371	104522	152392	148021	1327	52	309	29	101147	3217318	1717
121	2017-07-23 16:34:25		0	0	0	0	0	0	3.14	0.87	0.03	152459	0	4373	104550	152459	148086	1328	52	309	29	101174	3217322	1718
122	2017-07-23 16:42:52		0	0	0	0	0	0	3.15	0.87	0.03	152534	0	4379	104564	152534	148155	1328	52	309	29	101187	3217324	1718
123	2017-07-23 16:52:51		0	0	0	0	0	0	3.15	0.87	0.03	152614	0	4383	104564	152614	148231	1329	52	309	29	101187	3217331	1719
124	2017-07-23 17:03:14		0	0	0	0	0	0	3.15	0.87	0.03	152681	0	4387	104621	152681	148294	1330	52	309	29	101240	3217343	1720
125	2017-07-23 17:12:53		0	0	0	0	0	0	3.15	0.87	0.03	152748	0	4387	104621	152748	148361	1331	52	309	29	101240	3217350	1721
126	2017-07-23 17:22:54		0	0	0	0	0	0	3.15	0.87	0.03	152826	0	4394	104621	152826	148432	1332	52	309	29	101240	3217366	1722
127	2017-07-23 17:35:21		0	0	0	0	0	0	3.15	0.87	0.03	152959	0	4400	104649	152959	148559	1333	54	309	29	101266	3217379	1725
128	2017-07-23 17:45:25		0	0	0	0	0	0	3.15	0.87	0.03	153034	0	4408	104677	153034	148626	1334	54	309	29	101293	3217397	1726
129	2017-07-23 17:54:59		0	0	0	0	0	0	3.15	0.87	0.03	153103	0	4412	104677	153103	148691	1335	54	309	29	101293	3217402	1727
130	2017-07-23 18:04:58		0	0	0	0	0	0	3.15	0.87	0.03	153194	0	4421	104706	153194	148773	1336	54	309	29	101319	3217410	1728
131	2017-07-23 18:20:41		0	0	0	0	0	0	3.15	0.87	0.03	153298	0	4429	104791	153298	148869	1337	54	309	29	101399	3217426	1729
132	2017-07-23 18:28:43		0	0	0	0	0	0	3.15	0.87	0.03	153384	0	4434	104791	153384	148950	1337	54	309	29	101399	3217442	1729
133	2017-07-23 18:39:59		0	0	0	0	0	0	3.15	0.87	0.03	153450	0	4440	104791	153450	149010	1337	54	309	29	101399	3217457	1729
134	2017-07-23 18:48:38		0	0	0	0	0	0	3.15	0.87	0.03	153520	0	4447	104791	153520	149073	1337	54	309	29	101399	3217467	1729
135	2017-07-23 19:06:41		0	0	0	0	0	0	3.15	0.87	0.03	153591	0	4452	104819	153591	149139	1337	54	309	29	101426	3217488	1729
136	2017-07-23 19:18:20		0	0	0	0	0	0	3.15	0.87	0.03	153719	0	4456	104819	153719	149263	1338	54	309	29	101426	3217517	1730
137	2017-07-23 19:28:01		0	0	0	0	0	0	3.15	0.87	0.03	153752	0	4457	104819	153752	149295	1338	54	309	29	101426	3217517	1730
138	2017-07-23 19:46:49		0	0	0	0	0	0	3.15	0.87	0.03	153882	0	4463	104819	153882	149419	1339	54	309	29	101426	3217508	1731
139	2017-07-23 19:55:49		0	0	0	0	0	0	3.15	0.87	0.03	153964	0	4468	104819	153964	149496	1339	54	309	29	101426	3217514	1731
140	2017-07-23 20:07:40		0	0	0	0	0	0	3.15	0.87	0.03	154034	0	4473	104876	154034	149561	1340	54	309	29	101479	3217512	1732
141	2017-07-23 20:20:39		0	0	0	0	0	0	3.15	0.87	0.03	154135	0	4484	104904	154135	149651	1340	54	309	29	101505	3217523	1732
142	2017-07-23 20:30:44		0	0	0	0	0	0	3.16	0.87	0.03	154209	0	4493	104933	154209	149716	1340	54	309	29	101532	3217529	1732
143	2017-07-23 20:45:29		0	0	0	0	0	0	3.16	0.87	0.03	154353	0	4498	104940	154353	149855	1340	54	309	29	101579	3217531	1732
144	2017-07-23 21:00:25		0	0	0	0	0	0	3.16	0.87	0.03	154465	0	4505	104940	154465	149960	1342	54	309	29	101579	3217548	1734
145	2017-07-23 21:14:02		0	0	0	0	0	0	3.16	0.87	0.03	154540	0	4509	104940	154540	150031	1342	54	309	29	101579	3217546	1734
146	2017-07-23 21:28:45		0	0	0	0	0	0	3.16	0.87	0.03	154644	0	4522	104968	154644	150127	1343	54	309	29	101604	3217555	1735
147	2017-07-23 21:40:48		0	0	0	0	0	0	3.16	0.87	0.03	154765	0	4524	105053	154765	150241	1343	54	309	29	101685	3217561	1735
148	2017-07-23 21:56:41		0	0	0	0	0	0	3.16	0.87	0.03	154873	0	4533	105167	154873	150340	1343	54	309	29	101792	3217569	1735
149	2017-07-23 22:06:59		0	0	0	0	0	0	3.17	0.87	0.03	154947	0	4537	105282	154947	150410	1343	54	309	29	101899	3217572	1735
150	2017-07-23 22:24:22		0	0	0	0	0	0	3.17	0.87	0.03	155062	0	4545	105282	155062	150517	1344	54	309	29	101899	3217589	1736
151	2017-07-23 22:41:58		0	0	0	0	0	0	3.18	0.87	0.03	155157	0	4549	105713	155157	150608	1344	54	309	29	102303	3217591	1736
152	2017-07-23 22:54:00		0	0	0	0	0	0	3.18	0.87	0.03	155238	0	4552	105756	155238	150686	1344	54	309	29	102343	3217597	1736
153	2017-07-23 23:07:07		0	0	0	0	0	0	3.18	0.87	0.03	155277	0	4555	105756	155277	150722	1344	54	309	29	102343	3217600	1736
154	2017-07-23 23:44:18		0	0	0	0	0	0	3.19	0.86	0.03	155438	0	4560	105807	155438	150878	1344	54	309	29	102499	3217604	1736
155	2017-07-23 23:55:57		0	0	0	0	0	0	3.19	0.86	0.03	155502	0	4561	105921	155502	150941	1344	54	309	29	102770	3217602	1736
156	2017-07-24 00:46:54		0	0	0	0	0	0	3.19	0.86	0.03	155620	0	4567	105921	155620	151053	1346	54	309	29	102770	3217600	1738
157	2017-07-24 02:00:51		0	0	0	0	0	0	3.2	0.86	0.03	155725	0	4571	106168	155725	151154	1346	54	309	29	103002	3217592	1738
158	2017-07-24 03:11:45		0	0	0	0	0	0	3.2	0.86	0.03	155783	0	4573	106168	155783	151210	1346	54	309	29	103002	3217581	1738
159	2017-07-24 04:08:17		0	0	0	0	0	0	3.2	0.86	0.03	155821	0	4575	106270	155821	151246	1346	54	309	29	103098	3217581	1738
160	2017-07-24 05:40:54		0	0	0	0	0	0	3.2	0.86	0.03	155857	0	4576	106270	155857	151281	1346	54	309	29	103098	3217573	1738
161	2017-07-24 07:09:52		0	0	0	0	0	0	3.21	0.86	0.03	155930	0	4580	106299	155930	151350	1346	54	309	29	103126	3217571	1738
162	2017-07-24 07:19:25		0	0	0	0	0	0	3.21	0.86	0.03	155941	0	4580	106475	155941	151361	1347	54	309	29	103291	3217571	1739
163	2017-07-24 07:35:54		0	0	0	0	0	0	3.21	0.86	0.03	155959	0	4580	106475	155959	151379	1347	54	309	29	103291	3217572	1739
164	2017-07-24 07:46:11		0	0	0	0	0	0	3.21	0.86	0.03	155974	0	4580	106475	155974	151394	1347	54	309	29	103291	3217571	1739
165	2017-07-24 07:56:09		0	0	0	0	0	0	3.21	0.86	0.03	155991	0	4582	106475	155991	151409	1347	54	309	29	103291	3217574	1739
166	2017-07-24 08:18:13		0	0	0	0	0	0	3.21	0.86	0.03	156021	0	4582	106475	156021	151439	1347	54	309	29	103291	3217577	1739
167	2017-07-24 08:30:41		0	0	0	0	0	0	3.21	0.86	0.03	156044	0	4584	106504	156044	151460	1347	54	309	29	103318	3217577	1739
168	2017-07-24 09:40:42		0	0	0	0	0	0	3.21	0.86	0.03	156194	0	4590	106548	156194	151604	1348	54	309	29	103360	3217594	1740
169	2017-07-24 10:06:37		0	0	0	0	0	0	3.21	0.86	0.03	156242	0	4591	106548	156242	151651	1348	54	309	29	103360	3217590	1740
170	2017-07-24 10:16:33		0	0	0	0	0	0	3.21	0.86	0.03	156268	0	4591	106548	156268	151677	1348	54	309	29	103360	3217592	1740
171	2017-07-24 10:26:34		0	0	0	0	0	0	3.21	0.86	0.03	156282	0	4592	106548	156282	151690	1348	54	309	29	103360	3217590	1740
172	2017-07-24 10:36:33		0	0	0	0	0	0	3.21	0.86	0.03	156294	0	4593	106548	156294	151701	1348	54	309	29	103360	3217589	1740
173	2017-07-24 10:46:33		0	0	0	0	0	0	3.21	0.86	0.03	156305	0	4593	106548	156305	151712	1348	54	309	29	103360	3217586	1740
174	2017-07-24 10:56:33		0	0	0	0	0	0	3.21	0.86	0.03	156323	0	4593	106548	156323	151730	1348	54	309	29	103360	3217585	1740
175	2017-07-24 11:06:33		0	0	0	0	0	0	3.21	0.86	0.03	156343	0	4594	106548	156343	151749	1348	54	309	29	103360	3217580	1740
176	2017-07-24 11:16:33		0	0	0	0	0	0	3.21	0.86	0.03	156361	0	4595	106548	156361	151766	1348	54	309	29	103360	3217579	1740
177	2017-07-24 11:26:33		0	0	0	0	0	0	3.21	0.86	0.03	156379	0	4595	106548	156379	151784	1348	56	309	29	103360	3217583	1742
178	2017-07-24 11:36:33		0	0	0	0	0	0	3.21	0.86	0.03	156394	0	4596	106548	156394	151798	1348	56	309	29	103360	3217583	1742
179	2017-07-24 11:46:33		0	0	0	0	0	0	3.21	0.86	0.03	156409	0	4596	106548	156409	151813	1348	56	309	29	103360	3217583	1742
180	2017-07-24 11:56:33		0	0	0	0	0	0	3.21	0.86	0.03	156423	0	4596	106548	156423	151827	1348	56	309	29	103360	3217584	1742
181	2017-07-24 12:06:33		0	0	0	0	0	0	3.21	0.86	0.03	156438	0	4597	106548	156438	151841	1348	56	309	29	103360	3217585	1742
182	2017-07-24 12:16:34		0	0	0	0	0	0	3.22	0.86	0.03	156454	0	4597	106665	156454	151857	1349	56	309	29	103470	3217581	1743
183	2017-07-24 12:26:33		0	0	0	0	0	0	3.22	0.86	0.03	156469	0	4597	106665	156469	151872	1349	56	309	29	103470	3217585	1743
184	2017-07-24 12:36:33		0	0	0	0	0	0	3.22	0.86	0.03	156485	0	4597	106665	156485	151888	1349	56	309	29	103470	3217584	1743
185	2017-07-24 12:46:34		0	0	0	0	0	0	3.22	0.86	0.03	156495	0	4597	106665	156495	151898	1349	56	309	29	103470	3217584	1743
186	2017-07-24 12:56:35		0	0	0	0	0	0	3.22	0.86	0.03	156514	0	4597	106665	156514	151917	1350	56	309	29	103470	3217586	1744
187	2017-07-24 13:06:35		0	0	0	0	0	0	3.22	0.86	0.03	156526	0	4597	106665	156526	151929	1350	56	309	29	103470	3217591	1744
188	2017-07-24 13:16:34		0	0	0	0	0	0	3.22	0.86	0.03	156538	0	4598	106665	156538	151940	1350	56	309	29	103470	3217589	1744
189	2017-07-24 13:26:35		0	0	0	0	0	0	3.22	0.86	0.03	156558	0	4598	106665	156558	151960	1350	56	309	29	103470	3217587	1744
190	2017-07-24 13:36:34		0	0	0	0	0	0	3.22	0.86	0.03	156569	0	4598	106665	156569	151971	1350	56	309	29	103470	3217590	1744
191	2017-07-24 13:46:33		0	0	0	0	0	0	3.22	0.86	0.03	156582	0	4598	106665	156582	151984	1350	56	309	29	103470	3217593	1744
192	2017-07-24 13:56:35		0	0	0	0	0	0	3.22	0.86	0.03	156596	0	4598	106665	156596	151998	1350	56	309	29	103470	3217591	1744
193	2017-07-24 14:06:34		0	0	0	0	0	0	3.22	0.86	0.03	156608	0	4598	106665	156608	152010	1351	56	309	29	103470	3217590	1745
194	2017-07-24 14:16:34		0	0	0	0	0	0	3.22	0.86	0.03	156623	0	4598	106665	156623	152025	1351	56	309	29	103470	3217588	1745
195	2017-07-24 14:26:34		0	0	0	0	0	0	3.22	0.86	0.03	156631	0	4599	106665	156631	152032	1351	56	309	29	103470	3217590	1745
196	2017-07-24 14:36:34		0	0	0	0	0	0	3.22	0.86	0.03	156650	0	4599	106665	156650	152051	1352	56	309	29	103470	3217594	1746
197	2017-07-24 14:46:34		0	0	0	0	0	0	3.22	0.86	0.03	156669	0	4599	106665	156669	152070	1352	56	309	29	103470	3217598	1746
198	2017-07-24 14:56:34		0	0	0	0	0	0	3.22	0.86	0.03	156690	0	4599	106665	156690	152091	1352	56	309	29	103470	3217599	1746
199	2017-07-24 15:06:35		0	0	0	0	0	0	3.22	0.86	0.03	156705	0	4600	106665	156705	152105	1352	56	309	29	103470	3217604	1746
200	2017-07-24 15:16:37		0	0	0	0	0	0	3.22	0.86	0.03	156719	0	4600	106842	156719	152119	1352	56	309	29	103692	3217605	1746
201	2017-07-24 15:26:35		0	0	0	0	0	0	3.22	0.86	0.03	156731	0	4601	106842	156731	152130	1352	56	309	29	103692	3217608	1746
202	2017-07-24 15:36:35		0	0	0	0	0	0	3.22	0.86	0.03	156745	0	4601	106842	156745	152144	1352	56	309	29	103692	3217602	1746
203	2017-07-24 15:46:35		0	0	0	0	0	0	3.22	0.86	0.03	156755	0	4602	106842	156755	152153	1352	56	309	29	103692	3217605	1746
204	2017-07-24 15:56:35		0	0	0	0	0	0	3.22	0.86	0.03	156774	0	4603	106901	156774	152171	1352	56	309	29	103748	3217606	1746
205	2017-07-24 16:06:36		0	0	0	0	0	0	3.22	0.86	0.03	156788	0	4603	106901	156788	152185	1352	56	309	29	103748	3217606	1746
206	2017-07-24 16:16:36		0	0	0	0	0	0	3.22	0.86	0.03	156806	0	4603	106901	156806	152203	1352	56	309	29	103748	3217608	1746
207	2017-07-24 16:26:36		0	0	0	0	0	0	3.22	0.86	0.03	156816	0	4604	106901	156816	152212	1352	56	310	29	103748	3217609	1747
208	2017-07-24 16:36:35		0	0	0	0	0	0	3.22	0.86	0.03	156829	0	4610	106901	156829	152219	1352	56	310	29	103748	3217613	1747
209	2017-07-24 16:46:36		0	0	0	0	0	0	3.23	0.86	0.03	156846	0	4611	107019	156846	152235	1352	56	310	29	103859	3217609	1747
210	2017-07-24 16:56:40		0	0	0	0	0	0	3.23	0.86	0.03	156858	0	4612	107019	156858	152246	1352	56	310	29	103859	3217610	1747
211	2017-07-24 17:06:36		0	0	0	0	0	0	3.23	0.86	0.03	156870	0	4612	107019	156870	152263	1352	56	310	29	103859	3217619	1747
212	2017-07-24 17:16:37		0	0	0	0	0	0	3.23	0.86	0.03	156882	0	4613	107019	156882	152277	1354	56	310	29	103859	3217624	1749
213	2017-07-24 17:26:43		0	0	0	0	0	0	3.23	0.86	0.03	156894	0	4613	107019	156894	152281	1354	56	310	29	103859	3217619	1749
214	2017-07-24 17:36:39		0	0	0	0	0	0	3.23	0.86	0.03	156911	0	4613	107019	156911	152298	1354	56	310	29	103859	3217621	1749
215	2017-07-24 17:46:36		0	0	0	0	0	0	3.23	0.86	0.03	156917	0	4613	107019	156917	152304	1355	56	310	29	103859	3217626	1750
216	2017-07-24 17:56:43		0	0	0	0	0	0	3.23	0.86	0.03	156929	0	4613	107019	156929	152316	1355	56	310	29	103859	3217634	1750
217	2017-07-24 18:06:41		0	0	0	0	0	0	3.23	0.86	0.03	156936	0	4613	107019	156936	152323	1355	56	310	29	103859	3217645	1750
218	2017-07-24 18:16:40		0	0	0	0	0	0	3.23	0.86	0.03	156951	0	4614	107019	156951	152337	1355	56	310	29	103859	3217650	1750
219	2017-07-24 18:26:44		0	0	0	0	0	0	3.23	0.86	0.03	156961	0	4614	107019	156961	152347	1355	56	310	29	103859	3217659	1750
220	2017-07-24 18:36:39		0	0	0	0	0	0	3.23	0.86	0.03	156985	0	4615	107019	156985	152370	1355	56	310	29	103859	3217665	1750
221	2017-07-24 18:46:42		0	0	0	0	0	0	3.23	0.86	0.03	157000	0	4615	107019	157000	152385	1355	56	310	29	103859	3217666	1750
222	2017-07-24 18:56:39		0	0	0	0	0	0	3.23	0.86	0.03	157010	0	4615	107019	157010	152395	1355	56	310	29	103859	3217668	1750
223	2017-07-24 19:07:06		0	0	0	0	0	0	3.23	0.86	0.03	157021	0	4615	107019	157021	152406	1355	56	310	29	103859	3217672	1750
224	2017-07-24 19:16:40		0	0	0	0	0	0	3.23	0.86	0.03	157035	0	4615	107019	157035	152420	1355	56	310	29	103859	3217678	1750
225	2017-07-24 19:26:45		0	0	0	0	0	0	3.23	0.86	0.03	157046	0	4615	107064	157046	152431	1355	56	310	29	103901	3217684	1750
226	2017-07-24 19:36:53		0	0	0	0	0	0	3.23	0.86	0.03	157055	0	4616	107064	157055	152439	1356	56	310	29	103901	3217685	1751
227	2017-07-24 19:46:45		0	0	0	0	0	0	3.23	0.86	0.03	157077	0	4616	107108	157077	152461	1356	56	310	29	103943	3217690	1751
228	2017-07-24 19:56:41		0	0	0	0	0	0	3.23	0.86	0.03	157085	0	4616	107108	157085	152469	1356	56	310	29	103943	3217695	1751
229	2017-07-24 20:06:46		0	0	0	0	0	0	3.23	0.86	0.03	157103	0	4617	107108	157103	152486	1356	56	310	29	103943	3217700	1751
230	2017-07-24 20:16:44		0	0	0	0	0	0	3.23	0.86	0.03	157118	0	4618	107108	157118	152500	1356	56	310	29	103943	3217705	1751
231	2017-07-24 20:26:43		0	0	0	0	0	0	3.23	0.86	0.03	157128	0	4618	107108	157128	152510	1356	56	310	29	103943	3217709	1751
232	2017-07-24 20:36:48		0	0	0	0	0	0	3.23	0.86	0.03	157136	0	4618	107108	157136	152518	1356	56	310	29	103943	3217716	1751
233	2017-07-24 20:46:44		0	0	0	0	0	0	3.23	0.86	0.03	157148	0	4619	107108	157148	152529	1357	56	310	29	103943	3217721	1752
234	2017-07-24 20:56:46		0	0	0	0	0	0	3.23	0.86	0.03	157158	0	4619	107108	157158	152539	1357	56	310	29	103943	3217728	1752
235	2017-07-24 21:06:45		0	0	0	0	0	0	3.23	0.86	0.03	157167	0	4620	107108	157167	152547	1357	56	310	29	103943	3217729	1752
236	2017-07-24 21:16:43		0	0	0	0	0	0	3.23	0.86	0.03	157182	0	4620	107108	157182	152562	1357	56	310	29	103943	3217735	1752
237	2017-07-24 21:27:19		0	0	0	0	0	0	3.23	0.86	0.03	157192	0	4620	107108	157192	152572	1357	56	310	29	103943	3217747	1752
238	2017-07-24 21:36:43		0	0	0	0	0	0	3.23	0.86	0.03	157206	0	4621	107108	157206	152585	1357	56	310	29	103943	3217750	1752
239	2017-07-24 21:46:47		0	0	0	0	0	0	3.23	0.86	0.03	157220	0	4621	107108	157220	152599	1357	56	310	29	103943	3217756	1752
240	2017-07-24 21:57:02		0	0	0	0	0	0	3.23	0.86	0.03	157229	0	4621	107108	157229	152608	1357	56	310	29	103943	3217765	1752
241	2017-07-24 22:07:22		0	0	0	0	0	0	3.23	0.86	0.03	157242	0	4622	107108	157242	152620	1357	56	310	29	103943	3217777	1752
242	2017-07-24 22:16:56		0	0	0	0	0	0	3.23	0.86	0.03	157253	0	4622	107108	157253	152631	1357	56	310	29	103943	3217785	1752
243	2017-07-24 22:27:35		0	0	0	0	0	0	3.23	0.86	0.03	157269	0	4624	107108	157269	152645	1358	56	310	29	103943	3217798	1753
244	2017-07-24 22:37:31		0	0	0	0	0	0	3.23	0.86	0.03	157280	0	4624	107108	157280	152656	1358	56	310	29	103943	3217810	1753
245	2017-07-24 22:47:31		0	0	0	0	0	0	3.23	0.86	0.03	157289	0	4625	107108	157289	152664	1358	56	310	29	103943	3217815	1753
246	2017-07-24 22:57:47		0	0	0	0	0	0	3.23	0.86	0.03	157296	0	4625	107108	157296	152671	1358	56	310	29	103943	3217820	1753
247	2017-07-24 23:07:42		0	0	0	0	0	0	3.23	0.86	0.03	157303	0	4625	107108	157303	152678	1358	56	310	29	103943	3217825	1753
248	2017-07-24 23:17:42		0	0	0	0	0	0	3.23	0.86	0.03	157315	0	4626	107108	157315	152689	1358	56	310	29	103943	3217843	1753
249	2017-07-24 23:29:03		0	0	0	0	0	0	3.23	0.86	0.03	157324	0	4626	107108	157324	152698	1358	56	310	29	103943	3217850	1753
250	2017-07-24 23:38:08		0	0	0	0	0	0	3.23	0.86	0.03	157332	0	4627	107108	157332	152705	1358	56	310	29	103943	3217861	1753
251	2017-07-24 23:47:59		0	0	0	0	0	0	3.23	0.86	0.03	157340	0	4629	107108	157340	152711	1358	56	310	29	103943	3217868	1753
252	2017-07-24 23:58:36		0	0	0	0	0	0	3.23	0.86	0.03	157347	0	4629	107108	157347	152718	1358	56	310	29	103943	3217885	1753
253	2017-07-25 00:46:54		0	0	0	0	0	0	3.23	0.86	0.03	157383	0	4630	107108	157383	152753	1358	56	310	29	103943	3217937	1753
254	2017-07-25 01:46:11		0	0	0	0	0	0	3.23	0.86	0.03	157412	0	4630	107108	157412	152782	1358	56	310	29	103943	3217972	1753
255	2017-07-25 02:47:11		0	0	0	0	0	0	3.23	0.86	0.03	157425	0	4630	107108	157425	152795	1358	56	310	29	103943	3217988	1753
256	2017-07-25 03:46:19		0	0	0	0	0	0	3.23	0.86	0.03	157431	0	4631	107108	157431	152800	1358	56	310	29	103943	3217998	1753
257	2017-07-25 04:49:38		0	0	0	0	0	0	3.23	0.86	0.03	157439	0	4631	107108	157439	152808	1358	56	310	29	103943	3217997	1753
258	2017-07-25 05:49:38		0	0	0	0	0	0	3.23	0.86	0.03	157445	0	4632	107108	157445	152813	1358	56	310	29	103943	3218005	1753
259	2017-07-25 06:54:47		0	0	0	0	0	0	3.23	0.86	0.03	157458	0	4632	107108	157458	152826	1358	56	310	29	103943	3218017	1753
260	2017-07-25 07:16:05		0	0	0	0	0	0	3.23	0.86	0.03	157469	0	4632	107108	157469	152837	1358	56	310	29	103943	3218022	1753
261	2017-07-25 07:31:56		0	0	0	0	0	0	3.23	0.86	0.03	157470	0	4632	107108	157470	152838	1358	56	310	29	103943	3218026	1753
262	2017-07-25 07:57:30		0	0	0	0	0	0	3.23	0.86	0.03	157482	0	4632	107108	157482	152850	1358	56	310	29	103943	3218044	1753
263	2017-07-25 08:18:46		0	0	0	0	0	0	3.23	0.86	0.03	157497	0	4632	107153	157497	152861	1358	56	310	29	103984	3218064	1753
264	2017-07-25 08:26:45		0	0	0	0	0	0	3.23	0.86	0.03	157502	0	4633	107153	157502	152869	1358	56	310	29	103984	3218068	1753
265	2017-07-25 08:38:43		0	0	0	0	0	0	3.23	0.86	0.03	157503	0	4633	107153	157503	152870	1358	56	310	29	103984	3218074	1753
266	2017-07-25 08:52:49		0	0	0	0	0	0	3.23	0.86	0.03	157518	0	4633	107153	157518	152885	1358	56	310	29	103984	3218088	1753
267	2017-07-25 09:13:27		0	0	0	0	0	0	3.23	0.86	0.03	157532	0	4633	107153	157532	152899	1358	56	310	29	103984	3218091	1753
268	2017-07-25 09:33:18		0	0	0	0	0	0	3.23	0.86	0.03	157544	0	4635	107208	157544	152909	1358	56	310	29	103984	3218104	1753
269	2017-07-25 09:45:03		0	0	0	0	0	0	3.24	0.86	0.03	157549	0	4635	107443	157549	152914	1358	56	310	29	104205	3218103	1753
270	2017-07-25 09:59:15		0	0	0	0	0	0	3.24	0.86	0.03	157560	0	4635	107555	157560	152925	1358	56	310	29	104423	3218108	1753
271	2017-07-25 10:09:20		0	0	0	0	0	0	3.24	0.86	0.03	157566	0	4635	107555	157566	152931	1358	56	310	29	104423	3218116	1753
272	2017-07-25 10:21:31		0	0	0	0	0	0	3.24	0.86	0.03	157573	0	4635	107555	157573	152938	1358	56	310	29	104423	3218122	1753
273	2017-07-25 10:37:51		0	0	0	0	0	0	3.24	0.86	0.03	157576	0	4636	107555	157576	152940	1358	56	310	29	104423	3218127	1753
