1	2017-01-01 18:44:15	0	0	0	0	0	0	16.49	4.13	0.02	569911	1	12100	406579	569911	557811	23544	102	655	18	399222	2420358	24319
2	2017-01-01 19:00:02	0	0	0	0	0	0	16.66	4.12	0.02	577818	1	12350	411697	577818	565468	23818	104	667	18	403221	2420408	24607
3	2017-01-01 19:16:02	0	0	0	0	0	0	16.85	4.11	0.02	585345	1	12641	416633	585345	572704	24085	106	673	19	407954	2420482	24883
4	2017-01-01 19:32:11	0	0	0	0	0	0	17.05	4.11	0.02	593048	1	12920	421032	593048	580128	24358	106	680	19	412611	2420520	25163
5	2017-01-01 19:48:19	0	0	0	0	0	0	17.19	4.1	0.02	602938	1	13274	425838	602938	589664	24696	108	693	19	416104	2420564	25516
6	2017-01-01 20:04:37	0	0	0	0	0	0	17.29	4.09	0.02	610558	1	13536	427933	610558	597022	24944	108	700	19	418556	2420614	25771
7	2017-01-01 20:08:16	0	0	0	0	0	0	17.3	4.08	0.02	612971	1	13627	428110	612971	599344	25027	108	701	19	418839	2420621	25855
8	2017-01-01 20:18:15	0	0	0	0	0	0	17.4	4.08	0.02	617759	1	13792	430599	617759	603967	25204	108	708	19	421221	2420644	26039
9	2017-01-01 20:25:39	0	0	0	0	0	0	17.48	4.08	0.02	620079	1	13858	432736	620079	606221	25302	110	711	19	423150	2420674	26142
10	2017-01-01 20:35:37	0	0	0	0	0	0	17.58	4.07	0.02	624947	1	14001	435214	624947	610946	25449	112	712	19	425520	2420713	26292
11	2017-01-01 20:45:36	0	0	0	0	0	0	17.7	4.07	0.02	629634	1	14126	438496	629634	615508	25601	114	717	19	428419	2420752	26451
12	2017-01-01 20:55:36	0	0	0	0	0	0	17.75	4.06	0.02	634448	1	14243	439734	634448	620205	25780	114	722	19	429690	2420784	26635
13	2017-01-01 21:05:37	0	0	0	0	0	0	17.81	4.06	0.02	639157	1	14357	441384	639157	624800	25957	114	726	19	431265	2420811	26816
14	2017-01-01 21:15:40	0	0	0	0	0	0	17.95	4.06	0.02	643536	1	14489	444552	643536	629047	26099	114	729	19	434564	2420848	26961
15	2017-01-01 21:25:37	0	0	0	0	0	0	18.08	4.05	0.02	647753	1	14633	447783	647753	633120	26257	114	733	19	437774	2420892	27123
16	2017-01-01 21:35:39	0	0	0	0	0	0	18.16	4.05	0.02	651804	1	14760	449669	651804	637044	26382	116	735	19	439576	2420928	27252
17	2017-01-01 21:45:39	0	0	0	0	0	0	18.2	4.05	0.02	655739	1	14877	450642	655739	640862	26527	116	738	19	440506	2420971	27400
18	2017-01-01 21:55:38	0	0	0	0	0	0	18.26	4.04	0.02	659632	1	14985	452271	659632	644647	26659	116	743	19	442063	2421002	27537
19	2017-01-01 22:05:41	0	0	0	0	0	0	18.36	4.03	0.02	663663	1	15103	454787	663663	648560	26774	116	745	19	444466	2421034	27654
20	2017-01-01 22:15:40	0	0	0	0	0	0	18.44	4.03	0.02	667311	1	15181	456596	667311	652130	26904	116	750	19	446451	2421069	27789
21	2017-01-01 22:25:37	0	0	0	0	0	0	18.58	4.03	0.02	670916	1	15271	461032	670916	655645	27038	118	753	19	449922	2421105	27928
22	2017-01-01 22:35:40	0	0	0	0	0	0	18.68	4.03	0.02	674726	1	15380	463204	674726	659346	27201	120	758	19	452255	2421159	28098
23	2017-01-01 22:45:39	0	0	0	0	0	0	18.78	4.03	0.02	678587	1	15495	465778	678587	663092	27353	120	758	19	454708	2421192	28250
24	2017-01-01 22:55:38	0	0	0	0	0	0	18.84	4.03	0.02	682388	1	15581	467395	682388	666807	27475	122	764	19	456249	2421232	28380
25	2017-01-01 23:05:39	0	0	0	0	0	0	18.93	4.03	0.02	686097	1	15691	469611	686097	670406	27623	122	767	19	458360	2421267	28531
26	2017-01-01 23:15:39	0	0	0	0	0	0	19.11	4.02	0.02	689581	1	15792	474668	689581	673789	27750	122	770	19	462761	2421294	28661
27	2017-01-01 23:25:40	0	0	0	0	0	0	19.19	4.02	0.02	693098	1	15893	476714	693098	677205	27876	122	773	19	464706	2421341	28790
28	2017-01-01 23:35:38	0	0	0	0	0	0	19.29	4.02	0.02	696478	1	15972	479112	696478	680506	28006	122	775	19	466983	2421366	28922
29	2017-01-01 23:45:38	0	0	0	0	0	0	19.39	4.02	0.02	699717	1	16046	481646	699717	683671	28121	124	779	19	469390	2421379	29043
30	2017-01-01 23:55:36	0	0	0	0	0	0	19.42	4.02	0.02	702967	1	16148	482583	702967	686819	28238	124	781	19	470280	2421388	29162
31	2017-01-02 00:05:41	0	0	0	0	0	0	19.5	4.02	0.02	706037	1	16221	484603	706037	689816	28357	124	783	19	472199	2421394	29283
32	2017-01-02 00:15:40	0	0	0	0	0	0	19.57	4.01	0.02	708836	1	16278	486354	708836	692558	28454	126	783	19	473861	2421400	29382
33	2017-01-02 00:25:40	0	0	0	0	0	0	19.62	4.01	0.02	711442	1	16335	487642	711442	695107	28539	126	784	19	475015	2421425	29468
34	2017-01-02 00:35:42	0	0	0	0	0	0	19.68	4.01	0.02	713963	1	16393	489163	713963	697570	28630	126	785	19	476459	2421467	29560
35	2017-01-02 00:45:38	0	0	0	0	0	0	19.74	4.01	0.02	716221	1	16443	490678	716221	699778	28713	126	785	19	477896	2421496	29643
36	2017-01-02 00:55:41	0	0	0	0	0	0	19.8	4.01	0.02	718379	1	16491	492278	718379	701888	28787	126	785	19	479413	2421533	29717
37	2017-01-02 01:05:26	0	0	0	0	0	0	19.84	4.01	0.02	720373	1	16538	493435	720373	703835	28859	126	785	19	480510	2421561	29789
38	2017-01-02 01:15:24	0	0	0	0	0	0	19.88	4	0.02	722293	1	16564	494281	722293	705729	28915	128	786	19	481313	2421593	29848
39	2017-01-02 01:25:24	0	0	0	0	0	0	19.91	4	0.02	724083	1	16603	495072	724083	707480	28988	130	787	19	482062	2421616	29924
40	2017-01-02 01:35:24	0	0	0	0	0	0	19.93	4	0.02	725752	1	16629	495716	725752	709123	29051	130	788	19	482673	2421635	29988
41	2017-01-02 01:45:24	0	0	0	0	0	0	19.96	4	0.02	727297	1	16654	495874	727297	710643	29094	130	789	20	483427	2421650	30033
42	2017-01-02 01:55:26	0	0	0	0	0	0	19.98	4	0.02	728766	1	16680	496302	728766	712086	29150	130	791	20	483833	2421679	30091
43	2017-01-02 02:05:26	0	0	0	0	0	0	20.05	4	0.02	730147	1	16717	496934	730147	713430	29206	134	791	20	484434	2416129	30151
44	2017-01-02 02:15:26	0	0	0	0	0	0	20.08	4	0.02	731552	1	16752	497728	731552	714800	29259	134	792	20	485188	2416150	30205
45	2017-01-02 02:25:24	0	0	0	0	0	0	20.09	4	0.02	732773	1	16785	497968	732773	715988	29312	134	793	20	485416	2416162	30259
46	2017-01-02 02:35:25	0	0	0	0	0	0	20.11	4	0.02	733894	1	16809	498589	733894	717085	29352	134	793	20	486007	2416172	30299
47	2017-01-02 02:45:25	0	0	0	0	0	0	20.15	4	0.02	734909	1	16844	499474	734909	718065	29389	134	793	20	486847	2416179	30336
48	2017-01-02 02:55:26	0	0	0	0	0	0	20.16	4	0.02	735863	1	16866	499796	735863	718997	29428	134	794	20	487154	2416190	30376
49	2017-01-02 03:05:25	0	0	0	0	0	0	20.16	4	0.02	736667	1	16888	499796	736667	719779	29466	134	795	20	487154	2416201	30415
50	2017-01-02 03:15:26	0	0	0	0	0	0	20.16	4	0.02	737449	1	16907	499796	737449	720542	29487	134	796	20	487154	2416209	30437
51	2017-01-02 03:25:25	0	0	0	0	0	0	20.19	4	0.02	738085	1	16925	500443	738085	721160	29514	134	796	21	487767	2416222	30465
52	2017-01-02 03:35:25	0	0	0	0	0	0	20.19	4	0.02	738692	1	16944	501091	738692	721748	29534	134	796	21	487767	2416227	30485
53	2017-01-02 03:45:27	0	0	0	0	0	0	20.2	4	0.02	739231	1	16956	501334	739231	722275	29547	134	796	21	487998	2416239	30498
54	2017-01-02 03:55:25	0	0	0	0	0	0	20.2	4	0.02	739752	1	16969	501456	739752	722783	29565	134	797	21	488113	2416244	30517
55	2017-01-02 04:05:26	0	0	0	0	0	0	20.21	4	0.02	740241	1	16980	501578	740241	723261	29580	134	797	21	488229	2416246	30532
56	2017-01-02 04:15:26	0	0	0	0	0	0	20.22	4	0.02	740751	1	16998	501862	740751	723753	29603	134	797	21	488499	2416255	30555
57	2017-01-02 04:25:27	0	0	0	0	0	0	20.22	4	0.02	741182	1	17012	501903	741182	724170	29618	134	798	21	488537	2416259	30571
58	2017-01-02 04:35:28	0	0	0	0	0	0	20.23	4	0.02	741606	1	17022	502066	741606	724584	29630	134	798	21	488691	2416265	30583
59	2017-01-02 04:45:27	0	0	0	0	0	0	20.23	4	0.02	741993	1	17031	502228	741993	724962	29646	134	798	21	488846	2416273	30599
60	2017-01-02 04:55:28	0	0	0	0	0	0	20.24	4	0.02	742372	1	17048	502473	742372	725324	29662	134	798	21	489077	2416274	30615
61	2017-01-02 05:05:31	0	0	0	0	0	0	20.25	4	0.02	742725	1	17058	502759	742725	725667	29676	134	798	21	489348	2416277	30629
62	2017-01-02 05:15:38	0	0	0	0	0	0	20.25	4	0.02	743082	1	17076	502820	743082	726006	29691	134	798	21	489406	2416282	30644
63	2017-01-02 05:25:46	0	0	0	0	0	0	20.26	4	0.02	743474	1	17090	502901	743474	726384	29703	134	798	21	489483	2416288	30656
64	2017-01-02 05:36:03	0	0	0	0	0	0	20.28	3.99	0.02	743892	1	17100	503391	743892	726792	29714	134	798	21	489947	2416310	30667
65	2017-01-02 05:46:20	0	0	0	0	0	0	20.29	3.99	0.02	744296	1	17113	503714	744296	727183	29732	134	798	21	490253	2416355	30685
66	2017-01-02 05:56:41	0	0	0	0	0	0	20.29	3.99	0.02	744728	1	17126	503714	744728	727602	29743	134	799	21	490253	2416411	30697
67	2017-01-02 06:07:08	0	0	0	0	0	0	20.29	3.99	0.02	745201	1	17141	503796	745201	728060	29754	134	799	21	490330	2416466	30708
68	2017-01-02 06:17:39	0	0	0	0	0	0	20.32	3.99	0.02	745667	1	17156	504493	745667	728511	29765	134	799	21	490991	2416534	30719
69	2017-01-02 06:28:12	0	0	0	0	0	0	20.36	3.99	0.02	746189	1	17170	505647	746189	729019	29779	134	799	21	492084	2416608	30733
70	2017-01-02 06:38:54	0	0	0	0	0	0	20.38	3.99	0.02	746749	1	17196	506143	746749	729561	29804	134	799	21	492553	2416690	30758
71	2017-01-02 06:49:36	0	0	0	0	0	0	20.39	3.99	0.02	747626	1	17210	506308	747626	730416	29835	134	800	21	492710	2416783	30790
72	2017-01-02 07:00:19	0	0	0	0	0	0	20.42	3.99	0.02	748339	1	17233	507138	748339	731106	29862	134	802	21	493495	2416887	30819
73	2017-01-02 07:11:05	0	0	0	0	0	0	20.42	3.99	0.02	749164	1	17264	507449	749164	731900	29894	134	803	21	493633	2416989	30852
74	2017-01-02 07:22:00	0	0	0	0	0	0	20.42	3.99	0.02	750116	1	17303	507449	750116	732813	29935	134	805	21	493633	2417122	30895
75	2017-01-02 07:33:21	0	0	0	0	0	0	20.42	3.99	0.02	751180	1	17329	507449	751180	733851	29973	134	805	22	493633	2417239	30934
76	2017-01-02 07:44:20	0	0	0	0	0	0	20.45	3.99	0.02	752799	1	17396	508105	752799	735403	30031	134	805	22	494411	2417369	30992
77	2017-01-02 07:56:28	0	0	0	0	0	0	20.46	3.99	0.02	753946	1	17421	508606	753946	736525	30064	136	805	22	494727	2417506	31027
78	2017-01-02 08:08:12	0	0	0	0	0	0	20.48	3.99	0.02	755172	1	17459	509024	755172	737713	30106	136	805	22	495123	2417623	31069
79	2017-01-02 08:19:38	0	0	0	0	0	0	20.57	3.99	0.02	757162	1	17524	511272	757162	739638	30181	136	805	22	497250	2417756	31144
80	2017-01-02 08:31:00	0	0	0	0	0	0	20.61	3.99	0.02	758564	1	17567	512415	758564	740997	30241	138	810	22	498330	2417896	31211
81	2017-01-02 08:43:24	0	0	0	0	0	0	20.63	3.99	0.02	760124	1	17613	512860	760124	742511	30299	138	813	22	498752	2418048	31272
82	2017-01-02 08:54:51	0	0	0	0	0	0	20.68	3.99	0.02	762634	1	17708	514138	762634	744926	30406	138	814	22	499960	2418179	31380
83	2017-01-02 09:06:21	0	0	0	0	0	0	20.71	3.99	0.02	764295	1	17771	514971	764295	746524	30499	138	819	22	500748	2418304	31478
84	2017-01-02 09:18:42	0	0	0	0	0	0	20.73	3.99	0.02	765964	1	17812	515507	765964	748152	30568	142	822	22	501437	2418449	31554
85	2017-01-02 09:31:18	0	0	0	0	0	0	20.75	3.99	0.02	768693	1	17909	516023	768693	750784	30685	142	824	22	501925	2418594	31673
86	2017-01-02 09:43:07	0	0	0	0	0	0	20.78	3.99	0.02	770643	1	17958	516711	770643	752685	30769	142	825	22	502577	2418724	31758
87	2017-01-02 09:54:55	0	0	0	0	0	0	20.84	4	0.02	773530	1	18048	518963	773530	755482	30913	142	826	22	504050	2418903	31903
88	2017-01-02 10:06:47	0	0	0	0	0	0	20.87	4	0.02	775379	1	18099	519813	775379	757280	31000	142	826	22	504851	2419047	31990
89	2017-01-02 10:28:26	0	0	0	0	0	0	20.93	4	0.02	778947	1	18178	521191	778947	760769	31171	144	829	22	506275	2419336	32166
90	2017-01-02 10:40:29	0	0	0	0	0	0	20.95	4	0.02	781821	1	18252	521937	781821	763569	31292	146	832	22	506979	2419496	32292
91	2017-01-02 10:52:32	0	0	0	0	0	0	20.96	4.01	0.02	783869	1	18300	522152	783869	765569	31400	148	833	24	507182	2419642	32405
92	2017-01-02 11:04:49	0	0	0	0	0	0	21.04	4.01	0.02	786843	1	18402	524274	786843	768441	31533	148	836	24	509183	2419799	32541
93	2017-01-02 11:17:00	0	0	0	0	0	0	21.11	4.01	0.02	788861	1	18457	525944	788861	770404	31610	150	839	24	510758	2419960	32623
94	2017-01-02 11:28:55	0	0	0	0	0	0	21.24	4.01	0.02	790791	1	18516	529496	790791	772275	31692	150	839	24	514108	2420112	32705
95	2017-01-02 11:40:30	0	0	0	0	0	0	21.31	4.01	0.02	793500	1	18596	531125	793500	774904	31830	150	840	24	515644	2420263	32844
96	2017-01-02 11:52:07	0	0	0	0	0	0	21.38	4.01	0.02	795190	1	18644	533137	795190	776546	31902	152	843	24	517540	2420396	32921
97	2017-01-02 12:03:57	0	0	0	0	0	0	21.43	4.01	0.02	796861	1	18722	534333	796861	778139	31955	154	845	24	518841	2420558	32978
98	2017-01-02 12:15:43	0	0	0	0	0	0	21.52	4.01	0.02	799312	1	18814	535906	799312	780498	32070	154	845	24	521024	2420704	33093
99	2017-01-02 12:27:30	0	0	0	0	0	0	21.52	4.01	0.02	800828	1	18858	535906	800828	781970	32126	154	846	24	521024	2420860	33150
100	2017-01-02 12:39:17	0	0	0	0	0	0	21.57	4.01	0.02	802394	1	18901	536265	802394	783493	32190	156	849	24	522243	2421006	33219
101	2017-01-02 12:51:04	0	0	0	0	0	0	21.57	4.01	0.02	804838	1	18995	536306	804838	785843	32295	156	849	24	522281	2421149	33324
102	2017-01-02 13:02:56	0	0	0	0	0	0	21.59	4.01	0.02	806362	1	19033	536864	806362	787329	32373	156	849	24	522810	2421267	33402
103	2017-01-02 13:14:46	0	0	0	0	0	0	21.65	4.02	0.02	808577	1	19096	538311	808577	789481	32468	156	849	24	524182	2421366	33497
104	2017-01-02 13:26:41	0	0	0	0	0	0	21.73	4.02	0.02	810136	1	19151	540021	810136	790985	32527	156	849	24	526117	2421462	33556
105	2017-01-02 13:38:36	0	0	0	0	0	0	21.79	4.02	0.02	811443	1	19189	541532	811443	792254	32593	156	849	24	527551	2421536	33622
106	2017-01-02 13:50:36	0	0	0	0	0	0	21.78	4.02	0.02	813519	1	19245	541532	813519	794274	32684	158	850	24	527551	2421646	33716
107	2017-01-02 14:02:39	0	0	0	0	0	0	21.78	4.02	0.02	814887	1	19273	541532	814887	795614	32746	158	851	24	527551	2421747	33779
108	2017-01-02 14:14:42	0	0	0	0	0	0	21.82	4.02	0.02	816122	1	19322	542933	816122	796815	32837	158	853	24	528339	2421785	33872
109	2017-01-02 14:26:52	0	0	0	0	0	0	21.82	4.02	0.02	817987	1	19354	543123	817987	798633	32884	158	853	24	528519	2421820	33919
110	2017-01-02 14:38:59	0	0	0	0	0	0	21.88	4.02	0.02	819244	1	19392	544664	819244	799852	32926	158	853	24	529978	2421834	33961
111	2017-01-02 14:51:02	0	0	0	0	0	0	21.91	4.02	0.02	821025	1	19441	545239	821025	801584	32996	158	854	24	530523	2421859	34032
112	2017-01-02 15:03:15	0	0	0	0	0	0	21.93	4.02	0.02	822188	1	19468	545528	822188	802720	33045	158	855	24	531160	2421909	34082
113	2017-01-02 15:15:26	0	0	0	0	0	0	21.96	4.02	0.02	823844	1	19525	546201	823844	804319	33123	158	855	25	531798	2421949	34161
114	2017-01-02 15:27:33	0	0	0	0	0	0	21.98	4.02	0.02	825076	1	19559	546876	825076	805517	33188	158	856	25	532438	2421982	34227
115	2017-01-02 15:39:46	0	0	0	0	0	0	21.98	4.03	0.02	826263	1	19605	546876	826263	806664	33260	158	856	25	532438	2422013	34299
116	2017-01-02 18:25:17	0	0	0	0	0	0	22.36	4.03	0.02	841479	1	19911	556672	841479	821568	33879	158	860	26	541719	2422303	34923
117	2017-01-02 18:39:53	0	0	0	0	0	0	22.39	4.03	0.02	842248	1	19924	557392	842248	822324	33905	158	861	26	542383	2422331	34950
118	2017-01-02 18:54:38	0	0	0	0	0	0	22.4	4.03	0.02	843427	1	19939	557593	843427	823488	33954	158	862	26	542573	2422362	35000
119	2017-01-02 19:09:26	0	0	0	0	0	0	22.49	4.03	0.02	844218	1	19966	560190	844218	824252	33988	158	862	26	544697	2422399	35034
120	2017-01-02 19:24:10	0	0	0	0	0	0	22.49	4.03	0.02	844902	1	20000	560292	844902	824902	34019	158	864	26	544793	2422435	35067
121	2017-01-02 19:39:09	0	0	0	0	0	0	22.51	4.03	0.02	845497	1	20033	560799	845497	825464	34042	158	864	26	545272	2422470	35090
122	2017-01-02 19:54:03	0	0	0	0	0	0	22.51	4.03	0.02	846059	1	20057	560799	846059	826002	34063	158	864	26	545272	2422504	35111
123	2017-01-02 20:09:03	0	0	0	0	0	0	22.51	4.03	0.02	846545	1	20074	560901	846545	826471	34081	158	864	26	545368	2422539	35129
124	2017-01-02 20:24:02	0	0	0	0	0	0	22.51	4.03	0.02	847041	1	20099	560901	847041	826942	34100	158	864	26	545368	2422573	35148
125	2017-01-02 20:39:09	0	0	0	0	0	0	22.51	4.03	0.02	847496	1	20119	560901	847496	827377	34124	158	864	26	545368	2422620	35172
126	2017-01-02 20:54:17	0	0	0	0	0	0	22.51	4.03	0.02	847974	1	20140	560901	847974	827834	34145	158	865	26	545368	2422661	35194
127	2017-01-02 21:09:21	0	0	0	0	0	0	22.51	4.03	0.02	848465	1	20154	560901	848465	828311	34163	158	865	26	545368	2422697	35212
128	2017-01-02 21:24:27	0	0	0	0	0	0	22.52	4.03	0.02	848942	1	20171	561053	848942	828771	34179	158	865	26	545512	2422736	35228
129	2017-01-02 21:39:38	0	0	0	0	0	0	22.52	4.03	0.02	849406	1	20189	561256	849406	829217	34203	158	865	26	545705	2422779	35252
130	2017-01-02 21:54:51	0	0	0	0	0	0	22.52	4.03	0.02	849864	1	20207	561256	849864	829657	34221	158	865	26	545705	2422812	35270
131	2017-01-02 22:10:01	0	0	0	0	0	0	22.54	4.03	0.02	850318	1	20229	561256	850318	830089	34255	158	865	26	546078	2422850	35304
132	2017-01-02 22:25:18	0	0	0	0	0	0	22.55	4.03	0.02	850854	1	20257	561460	850854	830605	34274	158	865	26	546270	2422891	35323
133	2017-01-02 22:40:43	0	0	0	0	0	0	22.55	4.03	0.02	851486	1	20269	561613	851486	831217	34282	158	865	26	546415	2422926	35331
134	2017-01-02 22:56:04	0	0	0	0	0	0	22.55	4.03	0.02	851929	1	20287	561613	851929	831642	34303	158	865	26	546415	2422979	35352
135	2017-01-02 23:11:26	0	0	0	0	0	0	22.57	4.03	0.02	852249	1	20304	562008	852249	831945	34316	158	867	26	546789	2423010	35367
136	2017-01-02 23:26:49	0	0	0	0	0	0	22.6	4.03	0.02	852470	1	20316	562774	852470	832154	34331	158	868	26	547514	2423046	35383
137	2017-01-02 23:42:15	0	0	0	0	0	0	22.6	4.03	0.02	852697	1	20337	562774	852697	832360	34341	158	868	26	547514	2423090	35393
138	2017-01-02 23:57:42	0	0	0	0	0	0	22.6	4.03	0.02	852852	1	20352	562774	852852	832500	34349	158	868	26	547514	2423124	35401
139	2017-01-03 00:13:14	0	0	0	0	0	0	22.6	4.03	0.02	852998	1	20367	562774	852998	832631	34356	158	868	26	547514	2423160	35408
140	2017-01-03 00:28:50	0	0	0	0	0	0	22.59	4.03	0.02	853104	1	20383	562774	853104	832721	34362	160	868	26	547514	2423191	35416
141	2017-01-03 00:41:14	0	0	0	0	0	0	22.59	4.03	0.02	853200	1	20398	562774	853200	832802	34364	160	868	26	547514	2423203	35418
142	2017-01-03 00:54:00	0	0	0	0	0	0	22.59	4.03	0.02	853249	1	20401	562774	853249	832848	34367	160	868	26	547514	2423228	35421
143	2017-01-03 01:06:58	0	0	0	0	0	0	22.59	4.03	0.02	853316	1	20407	562774	853316	832909	34368	160	868	26	547514	2423246	35422
144	2017-01-03 01:19:52	0	0	0	0	0	0	22.59	4.03	0.02	853350	1	20408	562774	853350	832942	34370	160	868	26	547514	2423259	35424
145	2017-01-03 01:32:43	0	0	0	0	0	0	22.59	4.03	0.02	853412	1	20414	562774	853412	832998	34371	160	868	26	547514	2423274	35425
146	2017-01-03 01:45:21	0	0	0	0	0	0	22.59	4.03	0.02	853456	1	20424	562774	853456	833032	34372	160	868	26	547514	2423279	35426
147	2017-01-03 01:58:10	0	0	0	0	0	0	22.59	4.03	0.02	853501	1	20433	562774	853501	833068	34376	160	868	26	547514	2423295	35430
148	2017-01-03 02:11:01	0	0	0	0	0	0	22.64	4.03	0.02	853542	1	20435	562774	853542	833107	34378	160	868	26	547514	2418719	35432
149	2017-01-03 02:23:54	0	0	0	0	0	0	22.64	4.03	0.02	853568	1	20439	562774	853568	833129	34380	160	868	26	547514	2418724	35434
150	2017-01-03 02:36:47	0	0	0	0	0	0	22.64	4.03	0.02	853591	1	20441	562774	853591	833150	34382	160	868	26	547514	2418727	35436
151	2017-01-03 02:49:44	0	0	0	0	0	0	22.64	4.03	0.02	853610	1	20443	562774	853610	833167	34382	160	868	26	547514	2418726	35436
152	2017-01-03 03:02:44	0	0	0	0	0	0	22.64	4.03	0.02	853627	1	20446	562774	853627	833181	34382	160	868	26	547514	2418731	35436
153	2017-01-03 03:15:51	0	0	0	0	0	0	22.64	4.03	0.02	853641	1	20446	562774	853641	833195	34382	160	868	26	547514	2418733	35436
154	2017-01-03 03:28:56	0	0	0	0	0	0	22.64	4.03	0.02	853652	1	20448	562774	853652	833204	34382	160	868	26	547514	2418736	35436
155	2017-01-03 03:42:04	0	0	0	0	0	0	22.64	4.03	0.02	853669	1	20452	562774	853669	833217	34383	160	868	26	547514	2418737	35437
156	2017-01-03 03:55:06	0	0	0	0	0	0	22.64	4.03	0.02	853676	1	20454	562774	853676	833222	34383	160	868	26	547514	2418738	35437
157	2017-01-03 04:08:16	0	0	0	0	0	0	22.64	4.03	0.02	853689	1	20457	562774	853689	833232	34383	160	868	26	547514	2418740	35437
158	2017-01-03 14:33:53	0	0	0	0	0	0	0	0	0	0	0	0	0	0	0	0	160	0	0	0	0	0
159	2017-01-04 10:25:26	0	0	0	0	0	0	22.59	4.03	0.02	856136	1	20796	564711	856136	835340	34460	160	869	26	549348	2432268	35515
160	2017-01-04 10:35:25	0	0	0	0	0	0	22.58	4.03	0.02	856142	1	20798	564711	856142	835344	34460	160	869	26	549348	2432449	35515
161	2017-01-04 10:45:26	0	0	0	0	0	0	22.58	4.03	0.02	856144	1	20798	564711	856144	835346	34460	160	869	26	549348	2432634	35515
