1	2016-09-16 13:41:28	0	0	0	0	0	0	0	0	0	0	1	0	0	0	0	0	80	534	14	0	2161993	0
2	2016-09-16 13:51:25	0	0	0	0	0	0	0	0	0	0	1	0	0	0	0	0	118	653	14	0	2162015	0
3	2016-09-16 14:01:27	0	0	0	0	0	0	0	0	0	0	1	0	0	0	0	0	148	757	14	0	2162041	0
4	2016-09-16 14:11:26	0	0	0	0	0	0	0	0	0	0	1	0	0	0	0	0	170	829	15	0	2162057	0
5	2016-09-16 14:21:26	0	0	0	0	0	0	0	0	0	0	1	0	0	0	0	0	182	893	14	0	2162078	0
6	2016-09-16 14:31:26	0	0	0	0	0	0	0	0	0	0	1	0	0	0	0	0	188	946	14	0	2162103	0
7	2016-09-16 14:41:27	0	0	0	0	0	0	0	0	0	0	1	0	0	0	0	0	200	1008	14	0	2162120	0
8	2016-09-16 14:51:27	0	0	0	0	0	0	0	0	0	0	1	0	0	0	0	0	206	1062	14	0	2162146	0
9	2016-09-16 15:01:27	0	0	0	0	0	0	0	0	0	0	1	0	0	0	0	0	214	1100	15	0	2162166	0
10	2016-09-16 15:11:26	0	0	0	0	0	0	0	0	0	0	1	0	0	0	0	0	230	1157	15	0	2162191	0
11	2016-09-16 15:21:26	0	0	0	0	0	0	0	0	0	0	1	0	0	0	0	0	234	1202	16	0	2162210	0
12	2016-09-16 15:31:24	0	0	0	0	0	0	0	0	0	0	1	0	0	0	0	0	246	1239	16	0	2162235	0
13	2016-09-16 15:41:27	0	0	0	0	0	0	0	0	0	0	1	0	0	0	0	0	254	1279	19	0	2162250	0
14	2016-09-16 15:51:26	0	0	0	0	0	0	0	0	0	0	1	0	0	0	0	0	256	1303	19	0	2162266	0
15	2016-09-16 16:01:26	0	0	0	0	0	0	0	0	0	0	1	0	0	0	0	0	260	1330	19	0	2162281	0
16	2016-09-16 16:11:26	0	0	0	0	0	0	0	0	0	0	1	0	0	0	0	0	264	1358	19	0	2162293	0
17	2016-09-16 16:21:24	0	0	0	0	0	0	0	0	0	0	1	0	0	0	0	0	276	1387	19	0	2162308	0
18	2016-09-16 16:31:28	0	0	0	0	0	0	0	0	0	0	1	0	0	0	0	0	288	1416	19	0	2162320	0
19	2016-09-16 16:41:26	0	0	0	0	0	0	0	0	0	0	1	0	0	0	0	0	304	1441	19	0	2162334	0
20	2016-09-16 16:51:26	0	0	0	0	0	0	0	0	0	0	1	0	0	0	0	0	308	1468	19	0	2162343	0
21	2016-09-16 17:01:24	0	0	0	0	0	0	0	0	0	0	1	0	0	0	0	0	308	1496	20	0	2162347	0
22	2016-09-16 17:11:26	0	0	0	0	0	0	0	0	0	0	1	0	0	0	0	0	316	1524	21	0	2162355	0
23	2016-09-16 17:21:29	0	0	0	0	0	0	0	0	0	0	1	0	0	0	0	0	326	1553	21	0	2162364	0
24	2016-09-16 17:31:35	0	0	0	0	0	0	0	0	0	0	1	0	0	0	0	0	334	1577	22	0	2162373	0
25	2016-09-16 17:41:33	0	0	0	0	0	0	0	0	0	0	1	0	0	0	0	0	340	1597	22	0	2162381	0
26	2016-09-16 17:51:26	0	0	0	0	0	0	0	0	0	0	1	0	0	0	0	0	342	1614	23	0	2162394	0
27	2016-09-16 18:01:27	0	0	0	0	0	0	0	0	0	0	1	0	0	0	0	0	342	1631	23	0	2162399	0
28	2016-09-16 18:11:29	0	0	0	0	0	0	0	0	0	0	1	0	0	0	0	0	348	1651	23	0	2162413	0
29	2016-09-16 18:21:28	0	0	0	0	0	0	0	0	0	0	1	0	0	0	0	0	348	1665	23	0	2162417	0
30	2016-09-16 18:31:27	0	0	0	0	0	0	0	0	0	0	1	0	0	0	0	0	348	1681	23	0	2162426	0
31	2016-09-16 18:41:27	0	0	0	0	0	0	0	0	0	0	1	0	0	0	0	0	352	1699	23	0	2162441	0
32	2016-09-16 18:51:27	0	0	0	0	0	0	0	0	0	0	1	0	0	0	0	0	356	1709	23	0	2162459	0
33	2016-09-16 19:01:28	0	0	0	0	0	0	0	0	0	0	1	0	0	0	0	0	360	1729	23	0	2162486	0
34	2016-09-16 19:11:29	0	0	0	0	0	0	0	0	0	0	1	0	0	0	0	0	362	1739	23	0	2162510	0
35	2016-09-16 19:21:30	0	0	0	0	0	0	0	0	0	0	1	0	0	0	0	0	370	1752	23	0	2162542	0
36	2016-09-16 19:31:29	0	0	0	0	0	0	0	0	0	0	1	0	0	0	0	0	372	1766	23	0	2162558	0
37	2016-09-16 19:41:28	0	0	0	0	0	0	0	0	0	0	1	0	0	0	0	0	372	1780	23	0	2162583	0
38	2016-09-16 19:51:30	0	0	0	0	0	0	0	0	0	0	1	0	0	0	0	0	372	1792	23	0	2162609	0
39	2016-09-16 20:01:30	0	0	0	0	0	0	0	0	0	0	1	0	0	0	0	0	380	1804	23	0	2162645	0
40	2016-09-16 20:11:29	0	0	0	0	0	0	0	0	0	0	1	0	0	0	0	0	386	1823	25	0	2162679	0
41	2016-09-16 20:21:31	0	0	0	0	0	0	0	0	0	0	1	0	0	0	0	0	392	1835	26	0	2162712	0
42	2016-09-16 20:31:31	0	0	0	0	0	0	0	0	0	0	1	0	0	0	0	0	400	1844	27	0	2162742	0
43	2016-09-16 20:41:32	0	0	0	0	0	0	0	0	0	0	1	0	0	0	0	0	402	1859	28	0	2162770	0
44	2016-09-16 20:51:40	0	0	0	0	0	0	0	0	0	0	1	0	0	0	0	0	408	1868	28	0	2162805	0
45	2016-09-16 21:01:52	0	0	0	0	0	0	0	0	0	0	1	0	0	0	0	0	406	1878	28	0	2162843	0
46	2016-09-16 21:11:42	0	0	0	0	0	0	0	0	0	0	1	0	0	0	0	0	412	1886	28	0	2162888	0
47	2016-09-16 21:21:56	0	0	0	0	0	0	0	0	0	0	1	0	0	0	0	0	416	1904	28	0	2162935	0
48	2016-09-16 21:31:43	0	0	0	0	0	0	0	0	0	0	1	0	0	0	0	0	418	1915	28	0	2162966	0
49	2016-09-16 21:41:56	0	0	0	0	0	0	0	0	0	0	1	0	0	0	0	0	418	1929	28	0	2163009	0
50	2016-09-16 21:51:46	0	0	0	0	0	0	0	0	0	0	1	0	0	0	0	0	418	1940	28	0	2163048	0
51	2016-09-16 22:01:59	0	0	0	0	0	0	0	0	0	0	1	0	0	0	0	0	424	1949	28	0	2163096	0
52	2016-09-16 22:11:45	0	0	0	0	0	0	0	0	0	0	1	0	0	0	0	0	424	1954	28	0	2163149	0
53	2016-09-16 22:21:53	0	0	0	0	0	0	0	0	0	0	1	0	0	0	0	0	428	1965	28	0	2163195	0
54	2016-09-16 22:31:47	0	0	0	0	0	0	0	0	0	0	1	0	0	0	0	0	430	1976	28	0	2163246	0
55	2016-09-16 22:41:53	0	0	0	0	0	0	0	0	0	0	1	0	0	0	0	0	436	1987	28	0	2163311	0
56	2016-09-16 22:51:45	0	0	0	0	0	0	0	0	0	0	1	0	0	0	0	0	440	2000	28	0	2163360	0
57	2016-09-16 23:01:55	0	0	0	0	0	0	0	0	0	0	1	0	0	0	0	0	442	2010	28	0	2163404	0
58	2016-09-16 23:11:46	0	0	0	0	0	0	0	0	0	0	1	0	0	0	0	0	442	2017	28	0	2163446	0
59	2016-09-16 23:21:53	0	0	0	0	0	0	0	0	0	0	1	0	0	0	0	0	442	2027	28	0	2163490	0
60	2016-09-16 23:31:51	0	0	0	0	0	0	0	0	0	0	1	0	0	0	0	0	442	2040	28	0	2163523	0
61	2016-09-16 23:41:51	0	0	0	0	0	0	0	0	0	0	1	0	0	0	0	0	446	2049	28	0	2163547	0
62	2016-09-16 23:51:44	0	0	0	0	0	0	0	0	0	0	1	0	0	0	0	0	446	2055	28	0	2163563	0
63	2016-09-17 00:01:57	0	0	0	0	0	0	0	0	0	0	1	0	0	0	0	0	448	2065	28	0	2163585	0
64	2016-09-17 00:11:48	0	0	0	0	0	0	0	0	0	0	1	0	0	0	0	0	456	2072	28	0	2163600	0
65	2016-09-17 00:21:57	0	0	0	0	0	0	0	0	0	0	1	0	0	0	0	0	456	2080	28	0	2163631	0
66	2016-09-17 00:31:46	0	0	0	0	0	0	0	0	0	0	1	0	0	0	0	0	458	2089	29	0	2163651	0
67	2016-09-17 00:41:56	0	0	0	0	0	0	0	0	0	0	1	0	0	0	0	0	458	2094	29	0	2163669	0
68	2016-09-17 00:51:47	0	0	0	0	0	0	0	0	0	0	1	0	0	0	0	0	458	2103	29	0	2163701	0
69	2016-09-17 01:01:58	0	0	0	0	0	0	0	0	0	0	1	0	0	0	0	0	460	2112	29	0	2163719	0
70	2016-09-17 01:11:47	0	0	0	0	0	0	0	0	0	0	1	0	0	0	0	0	462	2119	29	0	2163730	0
71	2016-09-17 01:21:57	0	0	0	0	0	0	0	0	0	0	1	0	0	0	0	0	462	2123	29	0	2163755	0
72	2016-09-17 01:31:47	0	0	0	0	0	0	0	0	0	0	1	0	0	0	0	0	462	2125	29	0	2163767	0
73	2016-09-17 01:41:58	0	0	0	0	0	0	0	0	0	0	1	0	0	0	0	0	468	2133	29	0	2163783	0
74	2016-09-17 01:51:49	0	0	0	0	0	0	0	0	0	0	1	0	0	0	0	0	468	2137	29	0	2163799	0
75	2016-09-17 02:02:04	0	0	0	0	0	0	0	0	0	0	1	0	0	0	0	0	470	2139	29	0	2162999	0
76	2016-09-17 02:11:46	0	0	0	0	0	0	0	0	0	0	1	0	0	0	0	0	472	2142	29	0	2162992	0
77	2016-09-17 02:21:58	0	0	0	0	0	0	0	0	0	0	1	0	0	0	0	0	472	2145	29	0	2163007	0
78	2016-09-17 02:31:53	0	0	0	0	0	0	0	0	0	0	1	0	0	0	0	0	472	2153	29	0	2163016	0
79	2016-09-17 02:41:58	0	0	0	0	0	0	0	0	0	0	1	0	0	0	0	0	472	2153	29	0	2163027	0
80	2016-09-17 02:51:46	0	0	0	0	0	0	0	0	0	0	1	0	0	0	0	0	472	2156	29	0	2163029	0
81	2016-09-17 03:01:34	0	0	0	0	0	0	0	0	0	0	1	0	0	0	0	0	474	2157	29	0	2163033	0
82	2016-09-17 03:11:34	0	0	0	0	0	0	0	0	0	0	1	0	0	0	0	0	474	2159	29	0	2163041	0
83	2016-09-17 03:21:33	0	0	0	0	0	0	0	0	0	0	1	0	0	0	0	0	474	2159	29	0	2163044	0
84	2016-09-17 03:31:37	0	0	0	0	0	0	0	0	0	0	1	0	0	0	0	0	474	2161	29	0	2163044	0
85	2016-09-17 03:41:34	0	0	0	0	0	0	0	0	0	0	1	0	0	0	0	0	476	2165	30	0	2163048	0
86	2016-09-17 03:51:34	0	0	0	0	0	0	0	0	0	0	1	0	0	0	0	0	476	2168	30	0	2163048	0
87	2016-09-17 04:01:35	0	0	0	0	0	0	0	0	0	0	1	0	0	0	0	0	476	2169	30	0	2163049	0
88	2016-09-17 04:11:40	0	0	0	0	0	0	0	0	0	0	1	0	0	0	0	0	476	2174	30	0	2163053	0
89	2016-09-17 04:21:53	0	0	0	0	0	0	0	0	0	0	1	0	0	0	0	0	476	2174	30	0	2163054	0
90	2016-09-17 04:31:46	0	0	0	0	0	0	0	0	0	0	1	0	0	0	0	0	476	2176	30	0	2163055	0
91	2016-09-17 04:42:00	0	0	0	0	0	0	0	0	0	0	1	0	0	0	0	0	476	2176	30	0	2163058	0
92	2016-09-17 04:51:45	0	0	0	0	0	0	0	0	0	0	1	0	0	0	0	0	476	2177	30	0	2163061	0
93	2016-09-17 05:01:36	0	0	0	0	0	0	0	0	0	0	1	0	0	0	0	0	476	2179	31	0	2163062	0
94	2016-09-17 05:11:35	0	0	0	0	0	0	0	0	0	0	1	0	0	0	0	0	476	2180	31	0	2163064	0
95	2016-09-17 05:21:35	0	0	0	0	0	0	0	0	0	0	1	0	0	0	0	0	476	2181	31	0	2163064	0
96	2016-09-17 05:31:33	0	0	0	0	0	0	0	0	0	0	1	0	0	0	0	0	476	2181	32	0	2163069	0
97	2016-09-17 05:41:35	0	0	0	0	0	0	0	0	0	0	1	0	0	0	0	0	476	2184	32	0	2163068	0
98	2016-09-17 05:51:34	0	0	0	0	0	0	0	0	0	0	1	0	0	0	0	0	476	2184	32	0	2163069	0
99	2016-09-17 06:01:34	0	0	0	0	0	0	0	0	0	0	1	0	0	0	0	0	476	2184	32	0	2163069	0
100	2016-09-17 06:11:34	0	0	0	0	0	0	0	0	0	0	1	0	0	0	0	0	476	2184	33	0	2163070	0
101	2016-09-17 06:21:35	0	0	0	0	0	0	0	0	0	0	1	0	0	0	0	0	476	2185	33	0	2163074	0
102	2016-09-17 06:31:34	0	0	0	0	0	0	0	0	0	0	1	0	0	0	0	0	478	2187	33	0	2163079	0
103	2016-09-17 06:41:36	0	0	0	0	0	0	0	0	0	0	1	0	0	0	0	0	478	2187	33	0	2163083	0
104	2016-09-17 06:51:36	0	0	0	0	0	0	0	0	0	0	1	0	0	0	0	0	478	2188	33	0	2163085	0
105	2016-09-17 07:01:35	0	0	0	0	0	0	0	0	0	0	1	0	0	0	0	0	478	2191	33	0	2163092	0
106	2016-09-17 07:11:35	0	0	0	0	0	0	0	0	0	0	1	0	0	0	0	0	480	2192	33	0	2163101	0
107	2016-09-17 07:21:35	0	0	0	0	0	0	0	0	0	0	1	0	0	0	0	0	480	2198	33	0	2163109	0
108	2016-09-17 07:31:35	0	0	0	0	0	0	0	0	0	0	1	0	0	0	0	0	480	2205	33	0	2163117	0
109	2016-09-17 07:41:35	0	0	0	0	0	0	0	0	0	0	1	0	0	0	0	0	480	2208	33	0	2163133	0
110	2016-09-17 07:51:37	0	0	0	0	0	0	0	0	0	0	1	0	0	0	0	0	480	2209	33	0	2163142	0
111	2016-09-17 08:01:36	0	0	0	0	0	0	0	0	0	0	1	0	0	0	0	0	480	2209	33	0	2163150	0
112	2016-09-17 08:11:36	0	0	0	0	0	0	0	0	0	0	1	0	0	0	0	0	486	2218	33	0	2163165	0
113	2016-09-17 08:21:37	0	0	0	0	0	0	0	0	0	0	1	0	0	0	0	0	486	2228	33	0	2163179	0
114	2016-09-17 08:31:36	0	0	0	0	0	0	0	0	0	0	1	0	0	0	0	0	486	2231	33	0	2163188	0
115	2016-09-17 08:41:40	0	0	0	0	0	0	0	0	0	0	1	0	0	0	0	0	490	2235	33	0	2163204	0
116	2016-09-17 08:51:36	0	0	0	0	0	0	0	0	0	0	1	0	0	0	0	0	492	2242	33	0	2163221	0
117	2016-09-17 09:01:36	0	0	0	0	0	0	0	0	0	0	1	0	0	0	0	0	492	2247	33	0	2163241	0
118	2016-09-17 09:11:37	0	0	0	0	0	0	0	0	0	0	1	0	0	0	0	0	492	2257	33	0	2163267	0
119	2016-09-17 09:21:38	0	0	0	0	0	0	0	0	0	0	1	0	0	0	0	0	496	2261	33	0	2163284	0
120	2016-09-17 09:31:36	0	0	0	0	0	0	0	0	0	0	1	0	0	0	0	0	498	2268	33	0	2163313	0
121	2016-09-17 09:41:36	0	0	0	0	0	0	0	0	0	0	1	0	0	0	0	0	504	2275	34	0	2163334	0
122	2016-09-17 09:51:38	0	0	0	0	0	0	0	0	0	0	1	0	0	0	0	0	506	2281	34	0	2163344	0
123	2016-09-17 10:01:46	0	0	0	0	0	0	0	0	0	0	1	0	0	0	0	0	506	2283	34	0	2163359	0
124	2016-09-17 10:11:36	0	0	0	0	0	0	0	0	0	0	1	0	0	0	0	0	512	2288	35	0	2163377	0
125	2016-09-17 10:21:37	0	0	0	0	0	0	0	0	0	0	1	0	0	0	0	0	518	2296	35	0	2163405	0
126	2016-09-17 10:31:36	0	0	0	0	0	0	0	0	0	0	1	0	0	0	0	0	520	2303	35	0	2163422	0
127	2016-09-17 10:41:39	0	0	0	0	0	0	0	0	0	0	1	0	0	0	0	0	522	2307	35	0	2163444	0
128	2016-09-17 10:51:38	0	0	0	0	0	0	0	0	0	0	1	0	0	0	0	0	522	2308	35	0	2163467	0
129	2016-09-17 11:01:38	0	0	0	0	0	0	0	0	0	0	1	0	0	0	0	0	522	2311	35	0	2163489	0
130	2016-09-17 11:11:38	0	0	0	0	0	0	0	0	0	0	1	0	0	0	0	0	522	2317	35	0	2163510	0
131	2016-09-17 11:21:39	0	0	0	0	0	0	0	0	0	0	1	0	0	0	0	0	530	2326	35	0	2163523	0
132	2016-09-17 11:31:37	0	0	0	0	0	0	0	0	0	0	1	0	0	0	0	0	532	2332	35	0	2163543	0
133	2016-09-17 11:42:04	0	0	0	0	0	0	0	0	0	0	1	0	0	0	0	0	532	2337	35	0	2163573	0
134	2016-09-17 11:51:51	0	0	0	0	0	0	0	0	0	0	1	0	0	0	0	0	532	2342	35	0	2163604	0
135	2016-09-17 12:01:40	0	0	0	0	0	0	0	0	0	0	1	0	0	0	0	0	532	2350	35	0	2163619	0
136	2016-09-17 12:11:51	0	0	0	0	0	0	0	0	0	0	1	0	0	0	0	0	532	2358	35	0	2163632	0
137	2016-09-17 12:22:02	0	0	0	0	0	0	0	0	0	0	1	0	0	0	0	0	536	2363	35	0	2163644	0
138	2016-09-17 12:31:58	0	0	0	0	0	0	0	0	0	0	1	0	0	0	0	0	540	2368	35	0	2163649	0
139	2016-09-17 12:42:07	0	0	0	0	0	0	0	0	0	0	1	0	0	0	0	0	544	2375	35	0	2163659	0
140	2016-09-17 12:52:00	0	0	0	0	0	0	0	0	0	0	1	0	0	0	0	0	546	2380	35	0	2163671	0
141	2016-09-17 13:02:11	0	0	0	0	0	0	0	0	0	0	1	0	0	0	0	0	546	2386	35	0	2163683	0
142	2016-09-17 13:11:57	0	0	0	0	0	0	0	0	0	0	1	0	0	0	0	0	546	2392	35	0	2163699	0
143	2016-09-17 13:22:12	0	0	0	0	0	0	0	0	0	0	1	0	0	0	0	0	546	2394	35	0	2163722	0
144	2016-09-17 13:32:00	0	0	0	0	0	0	0	0	0	0	1	0	0	0	0	0	546	2396	35	0	2163738	0
145	2016-09-17 13:42:12	0	0	0	0	0	0	0	0	0	0	1	0	0	0	0	0	548	2397	35	0	2163747	0
146	2016-09-17 13:52:02	0	0	0	0	0	0	0	0	0	0	1	0	0	0	0	0	548	2398	35	0	2163762	0
147	2016-09-17 14:01:45	0	0	0	0	0	0	0	0	0	0	1	0	0	0	0	0	550	2400	35	0	2163772	0
148	2016-09-17 14:12:06	0	0	0	0	0	0	0	0	0	0	1	0	0	0	0	0	552	2406	35	0	2163792	0
149	2016-09-17 14:22:17	0	0	0	0	0	0	0	0	0	0	1	0	0	0	0	0	552	2406	35	0	2163811	0
150	2016-09-17 14:32:01	0	0	0	0	0	0	0	0	0	0	1	0	0	0	0	0	554	2410	35	0	2163821	0
151	2016-09-17 14:42:17	0	0	0	0	0	0	0	0	0	0	1	0	0	0	0	0	554	2413	35	0	2163836	0
152	2016-09-17 14:52:05	0	0	0	0	0	0	0	0	0	0	1	0	0	0	0	0	558	2415	35	0	2163855	0
153	2016-09-17 15:02:20	0	0	0	0	0	0	0	0	0	0	1	0	0	0	0	0	560	2418	35	0	2163871	0
154	2016-09-17 15:12:04	0	0	0	0	0	0	0	0	0	0	1	0	0	0	0	0	562	2420	35	0	2163887	0
155	2016-09-17 15:22:17	0	0	0	0	0	0	0	0	0	0	1	0	0	0	0	0	562	2420	35	0	2163897	0
156	2016-09-17 15:32:07	0	0	0	0	0	0	0	0	0	0	1	0	0	0	0	0	562	2422	35	0	2163907	0
157	2016-09-17 15:42:20	0	0	0	0	0	0	0	0	0	0	1	0	0	0	0	0	562	2424	35	0	2163925	0
158	2016-09-17 15:52:07	0	0	0	0	0	0	0	0	0	0	1	0	0	0	0	0	562	2424	35	0	2163939	0
159	2016-09-17 16:02:15	0	0	0	0	0	0	0	0	0	0	1	0	0	0	0	0	562	2425	35	0	2163952	0
160	2016-09-17 16:12:03	0	0	0	0	0	0	0	0	0	0	1	0	0	0	0	0	562	2427	35	0	2163967	0
161	2016-09-17 16:22:12	0	0	0	0	0	0	0	0	0	0	1	0	0	0	0	0	562	2430	35	0	2163974	0
162	2016-09-17 16:32:07	0	0	0	0	0	0	0	0	0	0	1	0	0	0	0	0	562	2432	35	0	2163985	0
163	2016-09-17 16:42:21	0	0	0	0	0	0	0	0	0	0	1	0	0	0	0	0	564	2434	35	0	2164001	0
164	2016-09-17 16:52:05	0	0	0	0	0	0	0	0	0	0	1	0	0	0	0	0	564	2439	35	0	2164020	0
165	2016-09-17 17:02:22	0	0	0	0	0	0	0	0	0	0	1	0	0	0	0	0	564	2443	35	0	2164038	0
166	2016-09-17 17:12:06	0	0	0	0	0	0	0	0	0	0	1	0	0	0	0	0	564	2445	35	0	2164050	0
167	2016-09-17 17:22:19	0	0	0	0	0	0	0	0	0	0	1	0	0	0	0	0	566	2448	35	0	2164066	0
168	2016-09-17 17:32:04	0	0	0	0	0	0	0	0	0	0	1	0	0	0	0	0	568	2452	35	0	2164078	0
169	2016-09-17 17:42:20	0	0	0	0	0	0	0	0	0	0	1	0	0	0	0	0	568	2453	35	0	2164087	0
170	2016-09-17 17:52:10	0	0	0	0	0	0	0	0	0	0	1	0	0	0	0	0	568	2456	35	0	2164097	0
171	2016-09-17 18:01:41	0	0	0	0	0	0	0	0	0	0	1	0	0	0	0	0	568	2459	35	0	2164116	0
172	2016-09-17 18:11:43	0	0	0	0	0	0	0	0	0	0	1	0	0	0	0	0	570	2459	35	0	2164132	0
173	2016-09-17 18:21:40	0	0	0	0	0	0	0	0	0	0	1	0	0	0	0	0	570	2460	35	0	2164144	0
174	2016-09-17 18:31:41	0	0	0	0	0	0	0	0	0	0	1	0	0	0	0	0	570	2464	35	0	2164156	0
175	2016-09-17 18:41:42	0	0	0	0	0	0	0	0	0	0	1	0	0	0	0	0	570	2465	35	0	2164172	0
176	2016-09-17 18:51:40	0	0	0	0	0	0	0	0	0	0	1	0	0	0	0	0	570	2465	35	0	2164193	0
177	2016-09-17 19:01:43	0	0	0	0	0	0	0	0	0	0	1	0	0	0	0	0	572	2468	35	0	2164201	0
178	2016-09-17 19:11:44	0	0	0	0	0	0	0	0	0	0	1	0	0	0	0	0	572	2468	35	0	2164213	0
179	2016-09-17 19:21:42	0	0	0	0	0	0	0	0	0	0	1	0	0	0	0	0	572	2469	35	0	2164220	0
180	2016-09-17 19:31:47	0	0	0	0	0	0	0	0	0	0	1	0	0	0	0	0	570	2470	35	0	2164236	0
181	2016-09-17 19:41:43	0	0	0	0	0	0	0	0	0	0	1	0	0	0	0	0	570	2470	35	0	2164252	0
182	2016-09-17 19:51:44	0	0	0	0	0	0	0	0	0	0	1	0	0	0	0	0	570	2470	35	0	2164271	0
183	2016-09-17 20:01:42	0	0	0	0	0	0	0	0	0	0	1	0	0	0	0	0	570	2470	35	0	2164282	0
184	2016-09-17 20:11:42	0	0	0	0	0	0	0	0	0	0	1	0	0	0	0	0	570	2472	35	0	2164300	0
185	2016-09-17 20:21:42	0	0	0	0	0	0	0	0	0	0	1	0	0	0	0	0	570	2474	35	0	2164316	0
186	2016-09-17 20:31:46	0	0	0	0	0	0	0	0	0	0	1	0	0	0	0	0	570	2476	35	0	2164337	0
187	2016-09-17 20:41:43	0	0	0	0	0	0	0	0	0	0	1	0	0	0	0	0	570	2477	35	0	2164358	0
188	2016-09-17 20:51:43	0	0	0	0	0	0	0	0	0	0	1	0	0	0	0	0	570	2478	35	0	2164371	0
189	2016-09-17 21:01:45	0	0	0	0	0	0	0	0	0	0	1	0	0	0	0	0	574	2480	35	0	2164391	0
190	2016-09-17 21:11:43	0	0	0	0	0	0	0	0	0	0	1	0	0	0	0	0	574	2484	35	0	2164405	0
191	2016-09-17 21:21:43	0	0	0	0	0	0	0	0	0	0	1	0	0	0	0	0	574	2484	35	0	2164421	0
192	2016-09-17 21:31:43	0	0	0	0	0	0	0	0	0	0	1	0	0	0	0	0	574	2486	35	0	2164444	0
193	2016-09-17 21:41:45	0	0	0	0	0	0	0	0	0	0	1	0	0	0	0	0	574	2486	35	0	2164465	0
194	2016-09-17 21:51:44	0	0	0	0	0	0	0	0	0	0	1	0	0	0	0	0	574	2487	35	0	2164484	0
195	2016-09-17 22:01:46	0	0	0	0	0	0	0	0	0	0	1	0	0	0	0	0	574	2489	35	0	2164508	0
196	2016-09-17 22:11:47	0	0	0	0	0	0	0	0	0	0	1	0	0	0	0	0	574	2490	35	0	2164527	0
197	2016-09-17 22:21:46	0	0	0	0	0	0	0	0	0	0	1	0	0	0	0	0	574	2492	35	0	2164545	0
198	2016-09-17 22:31:49	0	0	0	0	0	0	0	0	0	0	1	0	0	0	0	0	574	2492	35	0	2164561	0
199	2016-09-17 22:41:49	0	0	0	0	0	0	0	0	0	0	1	0	0	0	0	0	574	2494	35	0	2164576	0
200	2016-09-17 22:51:49	0	0	0	0	0	0	0	0	0	0	1	0	0	0	0	0	574	2494	35	0	2164602	0
201	2016-09-17 23:01:48	0	0	0	0	0	0	0	0	0	0	1	0	0	0	0	0	574	2494	35	0	2164615	0
202	2016-09-17 23:11:47	0	0	0	0	0	0	0	0	0	0	1	0	0	0	0	0	574	2495	35	0	2164637	0
203	2016-09-17 23:21:51	0	0	0	0	0	0	0	0	0	0	1	0	0	0	0	0	572	2495	35	0	2164658	0
204	2016-09-17 23:31:48	0	0	0	0	0	0	0	0	0	0	1	0	0	0	0	0	572	2496	35	0	2164670	0
205	2016-09-17 23:41:49	0	0	0	0	0	0	0	0	0	0	1	0	0	0	0	0	572	2497	35	0	2164676	0
206	2016-09-17 23:51:47	0	0	0	0	0	0	0	0	0	0	1	0	0	0	0	0	572	2497	35	0	2164684	0
207	2016-09-18 00:01:50	0	0	0	0	0	0	0	0	0	0	1	0	0	0	0	0	572	2497	35	0	2164681	0
208	2016-09-18 00:11:50	0	0	0	0	0	0	0	0	0	0	1	0	0	0	0	0	574	2497	35	0	2164683	0
209	2016-09-18 00:21:44	0	0	0	0	0	0	0	0	0	0	1	0	0	0	0	0	574	2500	35	0	2164682	0
210	2016-09-18 00:31:45	0	0	0	0	0	0	0	0	0	0	1	0	0	0	0	0	574	2501	35	0	2164687	0
211	2016-09-18 00:41:43	0	0	0	0	0	0	0	0	0	0	1	0	0	0	0	0	574	2501	35	0	2164696	0
212	2016-09-18 00:51:44	0	0	0	0	0	0	0	0	0	0	1	0	0	0	0	0	574	2503	35	0	2164696	0
213	2016-09-18 01:01:47	0	0	0	0	0	0	0	0	0	0	1	0	0	0	0	0	574	2506	35	0	2164700	0
214	2016-09-18 01:11:43	0	0	0	0	0	0	0	0	0	0	1	0	0	0	0	0	574	2507	35	0	2164706	0
215	2016-09-18 01:21:45	0	0	0	0	0	0	0	0	0	0	1	0	0	0	0	0	574	2508	35	0	2164704	0
216	2016-09-18 01:31:44	0	0	0	0	0	0	0	0	0	0	1	0	0	0	0	0	574	2508	35	0	2164706	0
217	2016-09-18 01:41:43	0	0	0	0	0	0	0	0	0	0	1	0	0	0	0	0	574	2508	35	0	2164715	0
218	2016-09-18 01:51:44	0	0	0	0	0	0	0	0	0	0	1	0	0	0	0	0	574	2508	35	0	2164719	0
219	2016-09-18 02:01:42	0	0	0	0	0	0	0	0	0	0	1	0	0	0	0	0	574	2508	35	0	2163779	0
220	2016-09-18 02:11:42	0	0	0	0	0	0	0	0	0	0	1	0	0	0	0	0	574	2508	35	0	2163783	0
221	2016-09-18 02:21:42	0	0	0	0	0	0	0	0	0	0	1	0	0	0	0	0	574	2508	35	0	2163783	0
222	2016-09-18 02:31:47	0	0	0	0	0	0	0	0	0	0	1	0	0	0	0	0	574	2508	35	0	2163784	0
223	2016-09-18 02:41:47	0	0	0	0	0	0	0	0	0	0	1	0	0	0	0	0	574	2508	35	0	2163786	0
224	2016-09-18 02:51:43	0	0	0	0	0	0	0	0	0	0	1	0	0	0	0	0	574	2508	35	0	2163788	0
225	2016-09-18 03:01:43	0	0	0	0	0	0	0	0	0	0	1	0	0	0	0	0	574	2508	35	0	2163788	0
226	2016-09-18 03:11:42	0	0	0	0	0	0	0	0	0	0	1	0	0	0	0	0	574	2508	35	0	2163791	0
227	2016-09-18 03:21:44	0	0	0	0	0	0	0	0	0	0	1	0	0	0	0	0	574	2508	35	0	2163789	0
228	2016-09-18 03:31:42	0	0	0	0	0	0	0	0	0	0	1	0	0	0	0	0	574	2508	35	0	2163789	0
229	2016-09-18 03:41:43	0	0	0	0	0	0	0	0	0	0	1	0	0	0	0	0	574	2508	35	0	2163791	0
230	2016-09-18 03:51:45	0	0	0	0	0	0	0	0	0	0	1	0	0	0	0	0	574	2508	35	0	2163794	0
231	2016-09-18 04:01:41	0	0	0	0	0	0	0	0	0	0	1	0	0	0	0	0	574	2508	35	0	2163795	0
232	2016-09-18 04:11:42	0	0	0	0	0	0	0	0	0	0	1	0	0	0	0	0	574	2508	35	0	2163796	0
233	2016-09-18 04:21:42	0	0	0	0	0	0	0	0	0	0	1	0	0	0	0	0	574	2508	35	0	2163798	0
234	2016-09-18 04:31:46	0	0	0	0	0	0	0	0	0	0	1	0	0	0	0	0	574	2508	35	0	2163799	0
235	2016-09-18 04:41:42	0	0	0	0	0	0	0	0	0	0	1	0	0	0	0	0	574	2508	35	0	2163800	0
236	2016-09-18 04:51:44	0	0	0	0	0	0	0	0	0	0	1	0	0	0	0	0	574	2508	35	0	2163802	0
237	2016-09-18 05:01:42	0	0	0	0	0	0	0	0	0	0	1	0	0	0	0	0	574	2508	35	0	2163802	0
238	2016-09-18 05:11:42	0	0	0	0	0	0	0	0	0	0	1	0	0	0	0	0	574	2508	35	0	2163803	0
239	2016-09-18 05:21:42	0	0	0	0	0	0	0	0	0	0	1	0	0	0	0	0	574	2508	35	0	2163801	0
240	2016-09-18 05:31:51	0	0	0	0	0	0	0	0	0	0	1	0	0	0	0	0	574	2508	35	0	2163803	0
241	2016-09-18 05:41:44	0	0	0	0	0	0	0	0	0	0	1	0	0	0	0	0	574	2508	35	0	2163804	0
242	2016-09-18 05:51:41	0	0	0	0	0	0	0	0	0	0	1	0	0	0	0	0	574	2508	35	0	2163804	0
243	2016-09-18 06:01:43	0	0	0	0	0	0	0	0	0	0	1	0	0	0	0	0	574	2508	35	0	2163805	0
244	2016-09-18 06:11:43	0	0	0	0	0	0	0	0	0	0	1	0	0	0	0	0	574	2508	35	0	2163805	0
245	2016-09-18 06:21:45	0	0	0	0	0	0	0	0	0	0	1	0	0	0	0	0	574	2508	35	0	2163806	0
246	2016-09-18 06:31:42	0	0	0	0	0	0	0	0	0	0	1	0	0	0	0	0	574	2508	35	0	2163804	0
247	2016-09-18 06:41:43	0	0	0	0	0	0	0	0	0	0	1	0	0	0	0	0	574	2508	35	0	2163806	0
248	2016-09-18 06:51:43	0	0	0	0	0	0	0	0	0	0	1	0	0	0	0	0	574	2508	35	0	2163807	0
249	2016-09-18 07:01:44	0	0	0	0	0	0	0	0	0	0	1	0	0	0	0	0	574	2508	35	0	2163806	0
250	2016-09-18 07:11:45	0	0	0	0	0	0	0	0	0	0	1	0	0	0	0	0	574	2508	35	0	2163805	0
251	2016-09-18 07:21:44	0	0	0	0	0	0	0	0	0	0	1	0	0	0	0	0	574	2508	35	0	2163807	0
252	2016-09-18 07:31:45	0	0	0	0	0	0	0	0	0	0	1	0	0	0	0	0	574	2508	35	0	2163807	0
253	2016-09-18 07:41:46	0	0	0	0	0	0	0	0	0	0	1	0	0	0	0	0	574	2508	35	0	2163809	0
254	2016-09-18 07:51:46	0	0	0	0	0	0	0	0	0	0	1	0	0	0	0	0	574	2508	35	0	2163812	0
255	2016-09-18 08:01:49	0	0	0	0	0	0	0	0	0	0	1	0	0	0	0	0	574	2508	35	0	2163814	0
256	2016-09-18 08:11:48	0	0	0	0	0	0	0	0	0	0	1	0	0	0	0	0	574	2508	35	0	2163815	0
257	2016-09-18 08:21:46	0	0	0	0	0	0	0	0	0	0	1	0	0	0	0	0	574	2508	35	0	2163814	0
258	2016-09-18 08:31:45	0	0	0	0	0	0	0	0	0	0	1	0	0	0	0	0	574	2509	35	0	2163815	0
259	2016-09-18 08:41:45	0	0	0	0	0	0	0	0	0	0	1	0	0	0	0	0	574	2509	35	0	2163820	0
260	2016-09-18 08:51:47	0	0	0	0	0	0	0	0	0	0	1	0	0	0	0	0	574	2509	35	0	2163823	0
261	2016-09-18 09:01:48	0	0	0	0	0	0	0	0	0	0	1	0	0	0	0	0	574	2509	35	0	2163825	0
262	2016-09-18 09:11:49	0	0	0	0	0	0	0	0	0	0	1	0	0	0	0	0	574	2509	35	0	2163825	0
263	2016-09-18 09:21:48	0	0	0	0	0	0	0	0	0	0	1	0	0	0	0	0	574	2509	35	0	2163827	0
264	2016-09-18 09:31:49	0	0	0	0	0	0	0	0	0	0	1	0	0	0	0	0	574	2509	35	0	2163834	0
265	2016-09-18 09:41:48	0	0	0	0	0	0	0	0	0	0	1	0	0	0	0	0	574	2509	35	0	2163842	0
266	2016-09-18 09:51:50	0	0	0	0	0	0	0	0	0	0	1	0	0	0	0	0	574	2509	35	0	2163844	0
267	2016-09-18 10:01:47	0	0	0	0	0	0	0	0	0	0	1	0	0	0	0	0	574	2509	35	0	2163847	0
268	2016-09-18 10:11:50	0	0	0	0	0	0	0	0	0	0	1	0	0	0	0	0	574	2509	35	0	2163850	0
269	2016-09-18 10:21:49	0	0	0	0	0	0	0	0	0	0	1	0	0	0	0	0	574	2509	35	0	2163854	0
270	2016-09-18 10:31:50	0	0	0	0	0	0	0	0	0	0	1	0	0	0	0	0	574	2509	35	0	2163862	0
271	2016-09-18 10:41:48	0	0	0	0	0	0	0	0	0	0	1	0	0	0	0	0	574	2509	35	0	2163872	0
272	2016-09-18 10:51:48	0	0	0	0	0	0	0	0	0	0	1	0	0	0	0	0	574	2509	35	0	2163889	0
273	2016-09-18 11:01:53	0	0	0	0	0	0	0	0	0	0	1	0	0	0	0	0	574	2509	35	0	2163906	0
274	2016-09-18 11:11:52	0	0	0	0	0	0	0	0	0	0	1	0	0	0	0	0	574	2509	35	0	2163926	0
275	2016-09-18 11:21:49	0	0	0	0	0	0	0	0	0	0	1	0	0	0	0	0	574	2509	35	0	2163945	0
276	2016-09-18 11:31:50	0	0	0	0	0	0	0	0	0	0	1	0	0	0	0	0	574	2509	35	0	2163958	0
277	2016-09-18 11:41:52	0	0	0	0	0	0	0	0	0	0	1	0	0	0	0	0	574	2509	35	0	2163969	0
278	2016-09-18 11:51:52	0	0	0	0	0	0	0	0	0	0	1	0	0	0	0	0	574	2509	35	0	2163990	0
279	2016-09-18 12:01:53	0	0	0	0	0	0	0	0	0	0	1	0	0	0	0	0	574	2509	35	0	2164008	0
280	2016-09-18 12:11:50	0	0	0	0	0	0	0	0	0	0	1	0	0	0	0	0	574	2509	35	0	2164017	0
281	2016-09-18 12:21:51	0	0	0	0	0	0	0	0	0	0	1	0	0	0	0	0	574	2509	35	0	2164041	0
282	2016-09-18 12:31:54	0	0	0	0	0	0	0	0	0	0	1	0	0	0	0	0	574	2509	35	0	2164055	0
283	2016-09-18 12:41:52	0	0	0	0	0	0	0	0	0	0	1	0	0	0	0	0	574	2509	35	0	2164070	0
284	2016-09-18 12:51:50	0	0	0	0	0	0	0	0	0	0	1	0	0	0	0	0	574	2509	35	0	2164083	0
285	2016-09-18 13:01:54	0	0	0	0	0	0	0	0	0	0	1	0	0	0	0	0	574	2509	35	0	2164108	0
286	2016-09-18 13:11:54	0	0	0	0	0	0	0	0	0	0	1	0	0	0	0	0	574	2509	35	0	2164136	0
287	2016-09-18 13:21:54	0	0	0	0	0	0	0	0	0	0	1	0	0	0	0	0	574	2509	35	0	2164169	0
288	2016-09-18 13:31:54	0	0	0	0	0	0	0	0	0	0	1	0	0	0	0	0	574	2509	35	0	2164193	0
289	2016-09-18 13:41:53	0	0	0	0	0	0	0	0	0	0	1	0	0	0	0	0	574	2509	35	0	2164216	0
290	2016-09-18 13:51:54	0	0	0	0	0	0	0	0	0	0	1	0	0	0	0	0	574	2509	35	0	2164251	0
291	2016-09-18 14:01:54	0	0	0	0	0	0	0	0	0	0	1	0	0	0	0	0	574	2509	35	0	2164286	0
292	2016-09-18 14:11:55	0	0	0	0	0	0	0	0	0	0	1	0	0	0	0	0	574	2509	35	0	2164332	0
293	2016-09-18 14:21:54	0	0	0	0	0	0	0	0	0	0	1	0	0	0	0	0	574	2509	35	0	2164359	0
294	2016-09-18 14:31:56	0	0	0	0	0	0	0	0	0	0	1	0	0	0	0	0	574	2509	35	0	2164392	0
295	2016-09-18 14:41:55	0	0	0	0	0	0	0	0	0	0	1	0	0	0	0	0	574	2509	35	0	2164434	0
296	2016-09-18 14:51:54	0	0	0	0	0	0	0	0	0	0	1	0	0	0	0	0	574	2509	35	0	2164466	0
297	2016-09-18 15:01:56	0	0	0	0	0	0	0	0	0	0	1	0	0	0	0	0	574	2509	35	0	2164497	0
298	2016-09-18 15:12:00	0	0	0	0	0	0	0	0	0	0	1	0	0	0	0	0	574	2509	35	0	2164530	0
299	2016-09-18 15:22:05	0	0	0	0	0	0	0	0	0	0	1	0	0	0	0	0	574	2509	35	0	2164570	0
300	2016-09-18 15:32:02	0	0	0	0	0	0	0	0	0	0	1	0	0	0	0	0	574	2509	35	0	2164604	0
301	2016-09-18 15:42:04	0	0	0	0	0	0	0	0	0	0	1	0	0	0	0	0	574	2509	35	0	2164625	0
302	2016-09-18 15:51:54	0	0	0	0	0	0	0	0	0	0	1	0	0	0	0	0	574	2509	35	0	2164662	0
303	2016-09-18 16:01:55	0	0	0	0	0	0	0	0	0	0	1	0	0	0	0	0	574	2509	35	0	2164695	0
304	2016-09-18 16:11:57	0	0	0	0	0	0	0	0	0	0	1	0	0	0	0	0	574	2509	35	0	2164725	0
305	2016-09-18 16:21:57	0	0	0	0	0	0	0	0	0	0	1	0	0	0	0	0	574	2509	35	0	2164745	0
306	2016-09-18 16:31:56	0	0	0	0	0	0	0	0	0	0	1	0	0	0	0	0	574	2509	35	0	2164782	0
307	2016-09-18 16:41:56	0	0	0	0	0	0	0	0	0	0	1	0	0	0	0	0	574	2509	35	0	2164808	0
308	2016-09-18 16:51:57	0	0	0	0	0	0	0	0	0	0	1	0	0	0	0	0	574	2509	35	0	2164830	0
309	2016-09-18 17:01:57	0	0	0	0	0	0	0	0	0	0	1	0	0	0	0	0	574	2509	35	0	2164852	0
310	2016-09-18 17:11:56	0	0	0	0	0	0	0	0	0	0	1	0	0	0	0	0	574	2509	35	0	2164879	0
311	2016-09-18 17:21:57	0	0	0	0	0	0	0	0	0	0	1	0	0	0	0	0	574	2509	35	0	2164903	0
312	2016-09-18 17:31:56	0	0	0	0	0	0	0	0	0	0	1	0	0	0	0	0	574	2509	35	0	2164928	0
313	2016-09-18 17:41:55	0	0	0	0	0	0	0	0	0	0	1	0	0	0	0	0	574	2509	35	0	2164943	0
314	2016-09-18 17:51:56	0	0	0	0	0	0	0	0	0	0	1	0	0	0	0	0	574	2509	35	0	2164976	0
315	2016-09-18 18:01:59	0	0	0	0	0	0	0	0	0	0	1	0	0	0	0	0	574	2509	35	0	2165004	0
316	2016-09-18 18:11:55	0	0	0	0	0	0	0	0	0	0	1	0	0	0	0	0	574	2509	35	0	2165031	0
317	2016-09-18 18:21:56	0	0	0	0	0	0	0	0	0	0	1	0	0	0	0	0	574	2509	35	0	2165062	0
318	2016-09-18 18:31:55	0	0	0	0	0	0	0	0	0	0	1	0	0	0	0	0	574	2509	35	0	2165091	0
319	2016-09-18 18:41:58	0	0	0	0	0	0	0	0	0	0	1	0	0	0	0	0	574	2509	35	0	2165129	0
320	2016-09-18 18:51:57	0	0	0	0	0	0	0	0	0	0	1	0	0	0	0	0	574	2509	35	0	2165153	0
321	2016-09-18 19:01:59	0	0	0	0	0	0	0	0	0	0	1	0	0	0	0	0	574	2509	35	0	2165177	0
322	2016-09-18 19:11:55	0	0	0	0	0	0	0	0	0	0	1	0	0	0	0	0	574	2509	35	0	2165201	0
323	2016-09-18 19:21:56	0	0	0	0	0	0	0	0	0	0	1	0	0	0	0	0	574	2509	35	0	2165227	0
324	2016-09-18 19:31:58	0	0	0	0	0	0	0	0	0	0	1	0	0	0	0	0	574	2509	35	0	2165263	0
325	2016-09-18 19:41:55	0	0	0	0	0	0	0	0	0	0	1	0	0	0	0	0	574	2509	35	0	2165291	0
326	2016-09-18 19:51:59	0	0	0	0	0	0	0	0	0	0	1	0	0	0	0	0	574	2509	35	0	2165323	0
327	2016-09-18 20:01:58	0	0	0	0	0	0	0	0	0	0	1	0	0	0	0	0	574	2509	35	0	2165354	0
328	2016-09-18 20:11:58	0	0	0	0	0	0	0	0	0	0	1	0	0	0	0	0	574	2509	35	0	2165379	0
329	2016-09-18 20:22:01	0	0	0	0	0	0	0	0	0	0	1	0	0	0	0	0	574	2509	35	0	2165408	0
330	2016-09-18 20:31:59	0	0	0	0	0	0	0	0	0	0	1	0	0	0	0	0	574	2509	35	0	2165439	0
331	2016-09-18 20:41:56	0	0	0	0	0	0	0	0	0	0	1	0	0	0	0	0	574	2509	35	0	2165459	0
332	2016-09-18 20:51:57	0	0	0	0	0	0	0	0	0	0	1	0	0	0	0	0	574	2509	35	0	2165490	0
333	2016-09-18 21:02:01	0	0	0	0	0	0	0	0	0	0	1	0	0	0	0	0	574	2509	35	0	2165521	0
334	2016-09-18 21:11:58	0	0	0	0	0	0	0	0	0	0	1	0	0	0	0	0	574	2509	35	0	2165548	0
335	2016-09-18 21:21:59	0	0	0	0	0	0	0	0	0	0	1	0	0	0	0	0	574	2509	35	0	2165580	0
336	2016-09-18 21:31:59	0	0	0	0	0	0	0	0	0	0	1	0	0	0	0	0	574	2509	35	0	2165607	0
337	2016-09-18 21:42:00	0	0	0	0	0	0	0	0	0	0	1	0	0	0	0	0	574	2509	35	0	2165645	0
338	2016-09-18 21:51:59	0	0	0	0	0	0	0	0	0	0	1	0	0	0	0	0	574	2509	35	0	2165674	0
339	2016-09-18 22:02:12	0	0	0	0	0	0	0	0	0	0	1	0	0	0	0	0	574	2509	35	0	2165715	0
340	2016-09-18 22:12:21	0	0	0	0	0	0	0	0	0	0	1	0	0	0	0	0	574	2509	35	0	2165740	0
341	2016-09-18 22:22:01	0	0	0	0	0	0	0	0	0	0	1	0	0	0	0	0	574	2509	35	0	2165774	0
342	2016-09-18 22:32:01	0	0	0	0	0	0	0	0	0	0	1	0	0	0	0	0	574	2509	35	0	2165816	0
343	2016-09-18 22:42:03	0	0	0	0	0	0	0	0	0	0	1	0	0	0	0	0	574	2509	35	0	2165854	0
344	2016-09-18 22:52:00	0	0	0	0	0	0	0	0	0	0	1	0	0	0	0	0	574	2509	35	0	2165887	0
345	2016-09-18 23:02:00	0	0	0	0	0	0	0	0	0	0	1	0	0	0	0	0	574	2509	35	0	2165942	0
346	2016-09-18 23:11:59	0	0	0	0	0	0	0	0	0	0	1	0	0	0	0	0	574	2509	35	0	2165975	0
347	2016-09-18 23:22:00	0	0	0	0	0	0	0	0	0	0	1	0	0	0	0	0	574	2509	35	0	2166002	0
348	2016-09-18 23:31:59	0	0	0	0	0	0	0	0	0	0	1	0	0	0	0	0	574	2509	35	0	2166036	0
349	2016-09-18 23:41:58	0	0	0	0	0	0	0	0	0	0	1	0	0	0	0	0	574	2509	35	0	2166074	0
350	2016-09-18 23:51:59	0	0	0	0	0	0	0	0	0	0	1	0	0	0	0	0	574	2510	35	0	2166118	0
351	2016-09-19 00:01:57	0	0	0	0	0	0	0	0	0	0	1	0	0	0	0	0	574	2510	35	0	2166135	0
352	2016-09-19 00:11:59	0	0	0	0	0	0	0	0	0	0	1	0	0	0	0	0	574	2510	35	0	2166153	0
353	2016-09-19 00:21:58	0	0	0	0	0	0	0	0	0	0	1	0	0	0	0	0	574	2510	35	0	2166178	0
354	2016-09-19 00:32:00	0	0	0	0	0	0	0	0	0	0	1	0	0	0	0	0	574	2510	35	0	2166201	0
355	2016-09-19 00:41:58	0	0	0	0	0	0	0	0	0	0	1	0	0	0	0	0	574	2510	35	0	2166223	0
356	2016-09-19 00:51:59	0	0	0	0	0	0	0	0	0	0	1	0	0	0	0	0	574	2511	35	0	2166242	0
357	2016-09-19 01:01:59	0	0	0	0	0	0	0	0	0	0	1	0	0	0	0	0	574	2511	35	0	2166264	0
358	2016-09-19 01:11:57	0	0	0	0	0	0	0	0	0	0	1	0	0	0	0	0	574	2511	35	0	2166275	0
359	2016-09-19 01:21:57	0	0	0	0	0	0	0	0	0	0	1	0	0	0	0	0	574	2511	35	0	2166288	0
360	2016-09-19 01:32:01	0	0	0	0	0	0	0	0	0	0	1	0	0	0	0	0	574	2511	35	0	2166303	0
361	2016-09-19 01:41:59	0	0	0	0	0	0	0	0	0	0	1	0	0	0	0	0	574	2511	35	0	2166312	0
362	2016-09-19 01:51:58	0	0	0	0	0	0	0	0	0	0	1	0	0	0	0	0	574	2511	35	0	2166320	0
363	2016-09-19 02:02:00	0	0	0	0	0	0	0	0	0	0	1	0	0	0	0	0	574	2511	35	0	2165611	0
364	2016-09-19 02:11:59	0	0	0	0	0	0	0	0	0	0	1	0	0	0	0	0	574	2511	35	0	2165614	0
365	2016-09-19 02:21:55	0	0	0	0	0	0	0	0	0	0	1	0	0	0	0	0	574	2511	35	0	2165622	0
366	2016-09-19 02:31:59	0	0	0	0	0	0	0	0	0	0	1	0	0	0	0	0	574	2511	35	0	2165629	0
367	2016-09-19 02:41:57	0	0	0	0	0	0	0	0	0	0	1	0	0	0	0	0	574	2511	35	0	2165632	0
368	2016-09-19 02:51:57	0	0	0	0	0	0	0	0	0	0	1	0	0	0	0	0	574	2511	35	0	2165633	0
369	2016-09-19 03:01:59	0	0	0	0	0	0	0	0	0	0	1	0	0	0	0	0	574	2511	35	0	2165636	0
370	2016-09-19 03:11:58	0	0	0	0	0	0	0	0	0	0	1	0	0	0	0	0	574	2511	35	0	2165639	0
371	2016-09-19 03:21:56	0	0	0	0	0	0	0	0	0	0	1	0	0	0	0	0	574	2511	35	0	2165642	0
372	2016-09-19 03:31:57	0	0	0	0	0	0	0	0	0	0	1	0	0	0	0	0	574	2511	35	0	2165643	0
373	2016-09-19 03:41:56	0	0	0	0	0	0	0	0	0	0	1	0	0	0	0	0	574	2511	35	0	2165641	0
374	2016-09-19 03:51:59	0	0	0	0	0	0	0	0	0	0	1	0	0	0	0	0	574	2511	35	0	2165645	0
