1	2018-05-28 19:54:38		0	0	0	0	0	0	0.02	0.78	0	641	0	1	531	641	641	5	0	8	1	619	3801229	14
2	2018-05-28 20:04:41		0	0	0	0	0	0	0.13	1.54	0	4999	0	15	3815	4999	4999	77	15	46	16	4821	3801266	154
3	2018-05-28 20:14:38		0	0	0	0	0	0	0.27	1.1	0.02	10712	0	174	8250	10712	10712	118	34	84	24	10087	3801313	260
4	2018-05-28 20:24:46		0	0	0	0	0	0	0.4	1.07	0.03	16318	0	488	12317	16318	16318	175	49	117	37	15056	3801350	378
5	2018-05-28 20:34:44		0	0	0	0	0	0	0.52	1.07	0.04	21847	0	948	16294	21847	21847	233	70	163	46	19899	3801393	512
6	2018-05-28 20:44:45		0	0	0	0	0	0	0.66	1.01	0.06	27884	0	1550	21038	27884	27884	282	96	200	62	25079	3801439	640
7	2018-05-28 20:54:45		0	0	0	0	0	0	0.82	1.06	0.07	35090	0	2425	26472	35090	35090	371	122	251	75	31300	3801481	819
8	2018-05-28 21:04:47		0	0	0	0	0	0	1.01	0.96	0.08	43108	0	3527	32284	43108	43108	415	152	283	82	38218	3801538	932
9	2018-05-28 21:14:49		0	0	0	0	0	0	1.16	0.96	0.09	50254	0	4748	37372	50254	50254	484	167	308	93	44197	3801586	1052
10	2018-05-28 21:24:48		0	0	0	0	0	0	1.29	0.96	0.11	56076	0	6082	41706	56076	56076	540	182	327	98	48870	3801645	1147
11	2018-05-28 21:34:48		0	0	0	0	0	0	1.39	0.99	0.12	61024	0	7280	45356	61024	61024	607	200	351	103	52789	3801700	1261
12	2018-05-28 21:44:48		0	0	0	0	0	0	1.49	0.98	0.13	65944	0	8604	49591	65944	65944	648	213	374	109	56562	3801757	1344
13	2018-05-28 21:54:49		0	0	0	0	0	0	1.59	0.94	0.14	71084	0	9933	53042	71084	71084	670	226	403	114	60552	3801804	1413
14	2018-05-28 22:04:51		0	0	0	0	0	0	1.64	0.94	0.14	73424	0	10600	54548	73424	73424	693	239	420	120	62347	3801864	1472
15	2018-05-28 22:14:51		0	0	0	0	0	0	1.77	0.94	0.16	80007	0	12696	59460	80007	80007	755	246	432	128	67273	3801909	1561
16	2018-05-28 22:24:50		0	0	0	0	0	0	1.81	0.95	0.16	82037	0	13331	60774	82037	82037	776	255	443	130	68807	3801947	1604
17	2018-05-28 22:34:52		0	0	0	0	0	0	1.92	0.94	0.17	87745	0	15185	65219	87745	87745	827	266	449	133	72919	3802004	1675
18	2018-05-28 22:44:52		0	0	0	0	0	0	1.98	0.93	0.18	91095	0	16346	68418	91095	91095	849	271	466	138	75310	3802052	1724
19	2018-05-28 22:54:51		0	0	0	0	0	0	2.04	0.91	0.18	94417	0	17437	70537	94417	94417	860	281	472	143	77695	3802095	1756
20	2018-05-28 23:04:52		0	0	0	0	0	0	2.11	0.92	0.19	97823	0	18656	72704	97823	97823	902	294	484	147	80120	3802162	1827
21	2018-05-28 23:14:52		0	0	0	0	0	0	2.17	0.9	0.2	101095	0	20043	75396	101095	101095	914	302	488	153	82354	3802235	1857
22	2018-05-28 23:24:51		0	0	0	0	0	0	2.22	0.92	0.2	104106	0	21249	77310	104106	104106	954	310	502	157	84429	3802288	1923
23	2018-05-28 23:34:54		0	0	0	0	0	0	2.27	0.9	0.21	106955	0	22433	79123	106955	106955	966	317	515	159	86325	3802357	1957
24	2018-05-28 23:44:51		0	0	0	0	0	0	2.31	0.9	0.21	109439	0	23469	80806	109439	109439	990	327	520	164	87998	3802415	2001
25	2018-05-28 23:54:51		0	0	0	0	0	0	2.36	0.91	0.22	111827	0	24433	82490	111827	111827	1018	332	525	165	89610	3802465	2040
26	2018-05-29 00:04:52		0	0	0	0	0	0	2.4	0.91	0.22	114016	0	25293	84235	114016	114016	1032	338	537	166	91110	3802511	2073
27	2018-05-29 00:14:52		0	0	0	0	0	0	2.43	0.89	0.22	116055	0	26081	85937	116055	116055	1036	341	543	167	92494	3802561	2087
28	2018-05-29 00:24:52		0	0	0	0	0	0	2.47	0.89	0.23	117984	0	26904	87035	117984	117984	1048	346	544	167	93759	3802590	2105
29	2018-05-29 00:34:53		0	0	0	0	0	0	2.49	0.89	0.23	119658	0	27637	88343	119658	119658	1064	353	553	167	94819	3802635	2137
30	2018-05-29 00:44:53		0	0	0	0	0	0	2.52	0.88	0.23	121081	0	28247	89648	121081	121081	1066	352	561	167	95751	3802672	2146
31	2018-05-29 00:54:59		0	0	0	0	0	0	2.54	0.88	0.24	122261	0	28733	90331	122261	122261	1076	355	564	167	96538	3802701	2162
32	2018-05-29 01:04:57		0	0	0	0	0	0	2.56	0.88	0.24	123222	0	29084	90747	123222	123222	1083	359	565	168	97205	3802734	2175
33	2018-05-29 01:14:56		0	0	0	0	0	0	2.57	0.88	0.24	124143	0	29459	91427	124143	124143	1091	361	567	169	97829	3802755	2188
34	2018-05-29 01:24:56		0	0	0	0	0	0	2.59	0.88	0.24	124913	0	29752	92124	124913	124913	1093	364	573	169	98353	3802766	2199
35	2018-05-29 01:34:56		0	0	0	0	0	0	2.6	0.88	0.24	125570	0	30001	92807	125570	125570	1101	367	576	172	98819	3802784	2216
36	2018-05-29 01:44:56		0	0	0	0	0	0	2.61	0.87	0.24	126183	0	30244	93378	126183	126183	1104	368	579	173	99234	3802789	2224
37	2018-05-29 10:29:03		0	0	0	0	0	0	3.65	0.95	0.29	183572	0	52782	132754	183572	183572	1738	592	785	239	138879	3803948	3354
38	2018-05-29 10:39:02		0	0	0	0	0	0	3.74	0.95	0.29	188023	0	54525	137640	188023	188023	1784	601	806	246	142098	3803993	3437
39	2018-05-29 10:49:02		0	0	0	0	0	0	3.77	0.95	0.29	190022	0	55237	138788	190022	190022	1803	608	821	249	143531	3804032	3481
40	2018-05-29 10:59:03		0	0	0	0	0	0	3.89	0.95	0.29	196199	0	57598	142882	196199	196199	1866	619	837	252	147952	3804064	3574
41	2018-05-29 11:09:05		0	0	0	0	0	0	3.89	0.95	0.29	196199	0	57598	142882	196199	196199	1866	631	853	260	147952	3804100	3610
42	2018-05-29 11:19:04		0	0	0	0	0	0	4.03	0.96	0.3	203891	0	60460	148045	203891	203891	1950	638	865	266	153449	3804135	3719
43	2018-05-29 11:29:05		0	0	0	0	0	0	4.03	0.96	0.3	203891	0	60460	148045	203891	203891	1950	649	872	270	153449	3804172	3741
44	2018-05-29 11:39:05		0	0	0	0	0	0	4.13	0.96	0.3	209495	0	63086	152457	209495	209495	2006	656	877	272	157016	3804199	3811
45	2018-05-29 11:49:06		0	0	0	0	0	0	4.17	0.96	0.3	212124	0	64414	154188	212124	212124	2044	665	882	273	158630	3804233	3864
46	2018-05-29 11:59:08		0	0	0	0	0	0	4.21	0.97	0.31	214721	0	65744	155180	214721	214721	2075	672	889	276	160189	3804269	3912
47	2018-05-29 12:09:10		0	0	0	0	0	0	4.25	0.97	0.31	217218	0	67029	156336	217218	217218	2099	674	894	278	161660	3804316	3945
48	2018-05-29 12:19:14		0	0	0	0	0	0	4.29	0.97	0.31	219516	0	68172	157561	219516	219516	2130	685	899	280	163083	3804357	3994
49	2018-05-29 12:29:10		0	0	0	0	0	0	4.32	0.97	0.31	221815	0	69340	159306	221815	221815	2157	692	906	284	164447	3804398	4039
50	2018-05-29 12:39:08		0	0	0	0	0	0	4.34	0.97	0.31	222940	0	69906	160147	222940	222940	2171	697	910	287	165168	3804445	4065
51	2018-05-29 12:49:09		0	0	0	0	0	0	4.36	0.97	0.31	224127	0	70497	160385	224127	224127	2181	707	916	290	165866	3804491	4094
52	2018-05-29 12:59:10		0	0	0	0	0	0	4.43	0.98	0.32	228575	0	72669	164889	228575	228575	2243	715	923	292	168524	3804532	4173
53	2018-05-29 13:09:12		0	0	0	0	0	0	4.46	0.98	0.32	230790	0	73792	167223	230790	230790	2268	726	929	296	169854	3804571	4219
54	2018-05-29 13:19:10		0	0	0	0	0	0	4.5	0.98	0.32	233071	0	74889	168840	233071	233071	2290	732	935	298	171255	3804612	4255
55	2018-05-29 13:29:12		0	0	0	0	0	0	4.54	0.98	0.32	235318	0	75946	170514	235318	235318	2309	736	938	301	172667	3804651	4284
56	2018-05-29 13:39:12		0	0	0	0	0	0	4.57	0.98	0.32	237473	0	76988	171812	237473	237473	2330	745	944	303	173983	3804702	4322
57	2018-05-29 13:49:12		0	0	0	0	0	0	4.61	0.98	0.33	239764	0	78143	172977	239764	239764	2354	751	950	305	175372	3804737	4360
58	2018-05-29 13:59:18		0	0	0	0	0	0	4.64	0.98	0.33	241842	0	79146	174316	241842	241842	2375	757	956	307	176632	3804764	4395
59	2018-05-29 14:09:16		0	0	0	0	0	0	4.68	0.98	0.33	243964	0	80177	175706	243964	243964	2402	761	962	309	177914	3804808	4434
60	2018-05-29 14:19:16		0	0	0	0	0	0	4.71	0.99	0.33	245954	0	81168	177285	245954	245954	2425	769	969	309	179110	3804848	4472
61	2018-05-29 14:29:17		0	0	0	0	0	0	4.74	0.99	0.33	247994	0	82188	178247	247994	247994	2448	776	974	312	180306	3804883	4510
62	2018-05-29 14:39:19		0	0	0	0	0	0	4.77	0.99	0.33	249971	0	83176	179520	249971	249971	2467	781	979	314	181520	3804919	4541
63	2018-05-29 14:49:18		0	0	0	0	0	0	4.8	0.99	0.33	251735	0	84096	181009	251735	251735	2487	788	984	318	182547	3804950	4577
64	2018-05-29 14:59:16		0	0	0	0	0	0	4.82	0.99	0.34	253478	0	84976	182675	253478	253478	2505	795	989	320	183585	3804998	4609
65	2018-05-29 15:09:19		0	0	0	0	0	0	4.85	0.99	0.34	255261	0	85838	183551	255261	255261	2539	802	996	321	184665	3805046	4658
66	2018-05-29 15:19:18		0	0	0	0	0	0	4.88	1	0.34	257002	0	86610	186169	257002	257002	2559	807	999	323	185762	3805091	4688
67	2018-05-29 15:29:19		0	0	0	0	0	0	4.91	1	0.34	258701	0	87412	187196	258701	258701	2582	814	1007	327	186806	3805137	4730
68	2018-05-29 15:39:23		0	0	0	0	0	0	4.94	1	0.34	260485	0	88249	187462	260485	260485	2599	818	1010	328	187926	3805189	4755
69	2018-05-29 15:49:19		0	0	0	0	0	0	4.96	1	0.34	262104	0	89048	188099	262104	262104	2622	824	1016	329	188918	3805228	4791
70	2018-05-29 15:59:25		0	0	0	0	0	0	4.99	1	0.34	263771	0	89811	189225	263771	263771	2640	830	1021	331	189926	3805269	4822
71	2018-05-29 16:09:24		0	0	0	0	0	0	5.02	1	0.34	265393	0	90602	190541	265393	265393	2655	834	1026	333	190910	3805308	4848
72	2018-05-29 16:19:21		0	0	0	0	0	0	5.04	1	0.34	267019	0	91320	191259	267019	267019	2673	838	1031	333	191972	3805354	4875
73	2018-05-29 16:29:22		0	0	0	0	0	0	5.07	1	0.34	268567	0	92050	191970	268567	268567	2694	845	1033	337	192936	3805390	4909
74	2018-05-29 16:39:22		0	0	0	0	0	0	5.1	1	0.34	270145	0	92826	193207	270145	270145	2705	854	1035	338	193905	3805440	4932
75	2018-05-29 16:49:23		0	0	0	0	0	0	5.12	1	0.34	271704	0	93607	193930	271704	271704	2717	858	1039	341	194784	3805476	4955
76	2018-05-29 16:59:24		0	0	0	0	0	0	5.14	1	0.35	273080	0	94271	194417	273080	273080	2729	862	1039	341	195605	3805511	4971
77	2018-05-29 17:19:25		0	0	0	0	0	0	5.18	1	0.35	275626	0	95562	196818	275626	275626	2768	870	1043	342	197074	3805617	5023
78	2018-05-29 17:29:28		0	0	0	0	0	0	5.2	1	0.35	276899	0	96221	198910	276899	276899	2779	873	1046	343	197835	3805664	5041
79	2018-05-29 17:39:30		0	0	0	0	0	0	5.22	1.01	0.35	278154	0	96848	199835	278154	278154	2797	879	1052	345	198570	3805718	5073
80	2018-05-29 17:49:29		0	0	0	0	0	0	5.24	1	0.35	279367	0	97439	199835	279367	279367	2806	883	1056	346	199275	3805761	5091
81	2018-05-29 17:59:29		0	0	0	0	0	0	5.26	1	0.35	280628	0	98061	200387	280628	280628	2815	885	1061	347	199999	3805804	5108
82	2018-05-29 18:09:29		0	0	0	0	0	0	5.26	1	0.35	281259	0	98362	200751	281259	281259	2820	887	1063	350	200360	3805832	5120
83	2018-05-29 18:19:28		0	0	0	0	0	0	5.26	1	0.35	281259	0	98362	200751	281259	281259	2820	888	1066	352	200360	3805874	5126
84	2018-05-29 18:29:28		0	0	0	0	0	0	5.31	1	0.35	284300	0	99872	202177	284300	284300	2845	890	1070	352	202132	3805910	5157
85	2018-05-29 18:39:30		0	0	0	0	0	0	5.33	1	0.35	285480	0	100496	202362	285480	285480	2861	894	1074	352	202806	3805951	5181
86	2018-05-29 18:49:30		0	0	0	0	0	0	5.35	1	0.35	286778	0	101160	203716	286778	286778	2874	897	1075	354	203578	3806026	5200
87	2018-05-29 18:59:31		0	0	0	0	0	0	5.37	1	0.35	288056	0	101874	204541	288056	288056	2882	908	1081	354	204303	3806082	5225
88	2018-05-29 19:09:35		0	0	0	0	0	0	5.39	1	0.35	289291	0	102528	205627	289291	289291	2900	911	1091	357	204974	3806128	5259
89	2018-05-29 19:19:43		0	0	0	0	0	0	5.39	1	0.35	289291	0	102528	205627	289291	289291	2900	911	1095	359	204974	3806180	5265
90	2018-05-29 22:29:46		0	0	0	0	0	0	5.62	1	0.37	307446	0	113441	219420	307446	307446	3062	942	1135	370	214155	3807345	5509
91	2018-05-29 22:39:44		0	0	0	0	0	0	5.63	1	0.37	308123	0	113914	220040	308123	308123	3070	945	1137	370	214447	3807422	5522
92	2018-05-29 22:49:44		0	0	0	0	0	0	5.64	1	0.37	308852	0	114415	221235	308852	308852	3078	949	1138	371	214732	3807491	5536
93	2018-05-29 22:59:43		0	0	0	0	0	0	5.65	1	0.37	309562	0	114900	222419	309562	309562	3088	950	1139	372	215045	3807560	5549
94	2018-05-29 23:09:45		0	0	0	0	0	0	5.66	1	0.37	310241	0	115340	223090	310241	310241	3092	950	1140	372	215365	3807628	5554
95	2018-05-29 23:19:44		0	0	0	0	0	0	5.66	1	0.37	310891	0	115776	224628	310891	310891	3097	952	1140	373	215636	3807689	5562
96	2018-05-29 23:29:45		0	0	0	0	0	0	5.67	1	0.37	311617	0	116254	225445	311617	311617	3102	955	1141	373	215959	3807764	5571
97	2018-05-29 23:39:46		0	0	0	0	0	0	5.68	0.99	0.37	312272	0	116689	225445	312272	312272	3107	958	1141	373	216264	3807818	5579
98	2018-05-29 23:49:46		0	0	0	0	0	0	5.69	1	0.37	312818	0	117036	225675	312818	312818	3117	960	1141	375	216512	3807864	5593
99	2018-05-29 23:59:47		0	0	0	0	0	0	5.69	1	0.37	313286	0	117334	226054	313286	313286	3120	962	1142	376	216724	3807901	5600
100	2018-05-30 00:09:48		0	0	0	0	0	0	5.7	0.99	0.38	313802	0	117691	226650	313802	313802	3121	963	1142	377	216947	3807957	5603
101	2018-05-30 00:19:48		0	0	0	0	0	0	5.7	0.99	0.38	314227	0	117994	226650	314227	314227	3125	965	1143	377	217113	3808017	5610
102	2018-05-30 00:29:50		0	0	0	0	0	0	5.71	0.99	0.38	314593	0	118228	227541	314593	314593	3130	966	1143	377	217271	3808059	5616
103	2018-05-30 00:39:50		0	0	0	0	0	0	5.71	0.99	0.38	314938	0	118461	227558	314938	314938	3133	966	1143	377	217432	3808108	5619
104	2018-05-30 00:49:51		0	0	0	0	0	0	5.71	1	0.38	315241	0	118665	227893	315241	315241	3138	968	1143	377	217568	3808131	5626
105	2018-05-30 00:59:51		0	0	0	0	0	0	5.72	0.99	0.38	315516	0	118855	227960	315516	315516	3138	968	1143	377	217693	3808174	5626
106	2018-05-30 01:09:53		0	0	0	0	0	0	5.72	0.99	0.38	315776	0	119027	227960	315776	315776	3139	968	1144	377	217801	3808202	5628
107	2018-05-30 01:19:52		0	0	0	0	0	0	5.72	0.99	0.38	316019	0	119207	227960	316019	316019	3141	968	1144	377	217890	3808236	5630
108	2018-05-30 01:29:52		0	0	0	0	0	0	5.72	0.99	0.38	316181	0	119307	227960	316181	316181	3141	969	1145	377	217957	3808245	5632
109	2018-05-30 01:39:53		0	0	0	0	0	0	5.73	0.99	0.38	316358	0	119417	227960	316358	316358	3143	970	1147	377	218036	3808266	5637
110	2018-05-30 01:49:54		0	0	0	0	0	0	5.73	0.99	0.38	316502	0	119508	228027	316502	316502	3143	972	1147	377	218092	3808284	5639
111	2018-05-30 01:59:59		0	0	0	0	0	0	5.73	0.99	0.38	316627	0	119581	228027	316627	316627	3143	972	1147	377	218152	3808296	5639
112	2018-05-30 02:09:55		0	0	0	0	0	0	5.73	0.99	0.38	316731	0	119645	228027	316731	316731	3144	972	1147	377	218192	3808305	5640
113	2018-05-30 02:19:55		0	0	0	0	0	0	5.73	0.99	0.38	316808	0	119687	228027	316808	316808	3145	973	1147	377	218224	3808316	5642
114	2018-05-30 02:29:55		0	0	0	0	0	0	5.73	0.99	0.38	316890	0	119745	228027	316890	316890	3145	973	1147	377	218256	3808326	5642
115	2018-05-30 02:39:58		0	0	0	0	0	0	5.73	0.99	0.38	316950	0	119784	228162	316950	316950	3145	973	1147	377	218279	3808327	5642
116	2018-05-30 02:49:58		0	0	0	0	0	0	5.73	0.99	0.38	317007	0	119822	228162	317007	317007	3146	973	1147	377	218304	3808337	5643
117	2018-05-30 03:00:04		0	0	0	0	0	0	5.73	0.99	0.38	317073	0	119860	228296	317073	317073	3146	973	1147	377	218333	3808341	5643
118	2018-05-30 03:09:58		0	0	0	0	0	0	5.73	0.99	0.38	317117	0	119882	228296	317117	317117	3146	973	1147	377	218355	3808344	5643
119	2018-05-30 03:20:02		0	0	0	0	0	0	5.73	0.99	0.38	317117	0	119882	228296	317117	317117	3146	973	1147	377	218355	3808344	5643
120	2018-05-30 03:29:58		0	0	0	0	0	0	5.73	0.99	0.38	317234	0	119948	228347	317234	317234	3146	973	1147	377	218407	3808348	5643
121	2018-05-30 03:39:59		0	0	0	0	0	0	5.74	0.99	0.38	317277	0	119981	228347	317277	317277	3147	973	1147	377	218422	3808350	5644
122	2018-05-30 03:50:00		0	0	0	0	0	0	5.74	0.99	0.38	317306	0	119999	228347	317306	317306	3148	973	1147	377	218435	3808359	5645
123	2018-05-30 04:00:01		0	0	0	0	0	0	5.74	0.99	0.38	317342	0	120024	228347	317342	317342	3148	973	1147	377	218449	3808366	5645
124	2018-05-30 04:10:01		0	0	0	0	0	0	5.74	0.99	0.38	317378	0	120047	228477	317378	317378	3148	973	1147	377	218462	3808370	5645
125	2018-05-30 04:20:01		0	0	0	0	0	0	5.74	0.99	0.38	317410	0	120063	228477	317410	317410	3148	973	1147	377	218475	3808375	5645
126	2018-05-30 04:30:02		0	0	0	0	0	0	5.74	0.99	0.38	317460	0	120088	228477	317460	317460	3148	973	1148	377	218499	3808381	5646
127	2018-05-30 04:40:06		0	0	0	0	0	0	5.74	0.99	0.38	317503	0	120110	229017	317503	317503	3148	974	1148	377	218519	3808386	5647
128	2018-05-30 04:50:14		0	0	0	0	0	0	5.74	0.99	0.38	317540	0	120133	229017	317540	317540	3148	974	1148	378	218535	3808389	5648
129	2018-05-30 05:00:03		0	0	0	0	0	0	5.74	0.99	0.38	317585	0	120169	229017	317585	317585	3149	974	1149	378	218556	3808401	5650
130	2018-05-30 05:10:04		0	0	0	0	0	0	5.74	0.99	0.38	317636	0	120193	229017	317636	317636	3149	974	1149	378	218587	3808406	5650
131	2018-05-30 05:20:05		0	0	0	0	0	0	5.74	0.99	0.38	317685	0	120222	229017	317685	317685	3149	974	1149	378	218608	3808413	5650
132	2018-05-30 05:30:05		0	0	0	0	0	0	5.74	0.99	0.38	317727	0	120251	229017	317727	317727	3149	975	1149	378	218617	3808424	5651
133	2018-05-30 05:40:05		0	0	0	0	0	0	5.74	0.99	0.38	317785	0	120288	229017	317785	317785	3149	975	1149	378	218634	3808441	5651
134	2018-05-30 05:50:09		0	0	0	0	0	0	5.74	0.99	0.38	317839	0	120320	229017	317839	317839	3149	975	1149	378	218658	3808462	5651
135	2018-05-30 06:00:06		0	0	0	0	0	0	5.74	0.99	0.38	317897	0	120362	229017	317897	317897	3149	975	1149	378	218675	3808483	5651
136	2018-05-30 06:10:18		0	0	0	0	0	0	5.74	0.99	0.38	317994	0	120427	229017	317994	317994	3151	975	1149	378	218716	3808501	5653
137	2018-05-30 06:20:09		0	0	0	0	0	0	5.74	0.99	0.38	318077	0	120480	229017	318077	318077	3151	975	1149	378	218744	3808527	5653
138	2018-05-30 06:30:10		0	0	0	0	0	0	5.74	0.99	0.38	318190	0	120549	229017	318190	318190	3154	976	1149	378	218796	3808556	5657
139	2018-05-30 06:40:10		0	0	0	0	0	0	5.75	0.99	0.38	318288	0	120613	229017	318288	318288	3154	976	1149	378	218848	3808589	5657
140	2018-05-30 07:00:10		0	0	0	0	0	0	5.75	0.99	0.38	318538	0	120757	229017	318538	318538	3157	976	1151	378	218955	3808654	5662
141	2018-05-30 07:10:11		0	0	0	0	0	0	5.75	0.99	0.38	318704	0	120869	229017	318704	318704	3159	976	1151	378	219020	3808684	5664
142	2018-05-30 07:20:11		0	0	0	0	0	0	5.75	0.99	0.38	318761	0	120903	229017	318761	318761	3160	976	1151	378	219046	3808731	5665
143	2018-05-30 07:30:12		0	0	0	0	0	0	5.75	0.99	0.38	318761	0	120903	229017	318761	318761	3160	976	1152	378	219046	3808780	5666
144	2018-05-30 07:40:12		0	0	0	0	0	0	5.76	0.99	0.38	319217	0	121188	229017	319217	319217	3164	976	1152	378	219237	3808828	5670
145	2018-05-30 07:50:16		0	0	0	0	0	0	5.76	0.99	0.38	319418	0	121301	229970	319418	319418	3165	977	1153	378	219355	3808880	5673
146	2018-05-30 08:00:13		0	0	0	0	0	0	5.76	0.99	0.38	319670	0	121454	229970	319670	319670	3171	978	1153	378	219475	3808927	5680
147	2018-05-30 08:10:20		0	0	0	0	0	0	5.76	0.99	0.38	319889	0	121597	230243	319889	319889	3172	978	1153	378	219579	3808982	5681
148	2018-05-30 08:20:17		0	0	0	0	0	0	5.77	0.99	0.38	320124	0	121739	230243	320124	320124	3174	980	1153	378	219691	3809024	5685
149	2018-05-30 08:30:19		0	0	0	0	0	0	5.77	0.99	0.38	320124	0	121739	230243	320124	320124	3178	981	1154	378	219691	3809085	5691
150	2018-05-30 08:40:18		0	0	0	0	0	0	5.77	0.99	0.38	320642	0	122042	230646	320642	320642	3185	983	1155	378	219957	3809133	5701
151	2018-05-30 08:50:17		0	0	0	0	0	0	5.78	0.99	0.38	320880	0	122190	230646	320880	320880	3187	984	1157	378	220072	3809190	5706
152	2018-05-30 09:00:20		0	0	0	0	0	0	5.78	0.99	0.38	321119	0	122342	230853	321119	321119	3187	984	1157	379	220178	3809248	5707
153	2018-05-30 09:10:34		0	0	0	0	0	0	5.78	0.99	0.38	321370	0	122510	230853	321370	321370	3190	984	1157	380	220296	3809322	5711
154	2018-05-30 09:20:18		0	0	0	0	0	0	5.79	0.99	0.38	321612	0	122687	230853	321612	321612	3191	985	1158	380	220402	3809385	5714
155	2018-05-30 09:30:23		0	0	0	0	0	0	5.79	0.99	0.38	321906	0	122865	231258	321906	321906	3195	988	1159	381	220536	3809446	5723
156	2018-05-30 10:00:21		0	0	0	0	0	0	5.8	0.99	0.38	322840	0	123510	231379	322840	322840	3204	993	1163	382	220935	3809615	5742
157	2018-05-30 10:10:22		0	0	0	0	0	0	5.8	0.99	0.38	323124	0	123704	231379	323124	323124	3205	993	1163	382	221046	3809659	5743
158	2018-05-30 10:20:21		0	0	0	0	0	0	5.81	0.99	0.38	323389	0	123873	231552	323389	323389	3208	993	1164	382	221160	3809721	5747
159	2018-05-30 10:30:39		0	0	0	0	0	0	5.81	0.99	0.38	323699	0	124088	231812	323699	323699	3210	993	1164	382	221300	3809773	5749
160	2018-05-30 10:40:26		0	0	0	0	0	0	5.81	0.99	0.38	323977	0	124285	232090	323977	323977	3218	995	1165	382	221420	3809824	5760
161	2018-05-30 10:50:25		0	0	0	0	0	0	5.82	0.99	0.38	324316	0	124512	232334	324316	324316	3218	996	1165	382	221564	3809877	5761
162	2018-05-30 11:12:33		0	0	0	0	0	0	5.82	0.99	0.38	324903	0	124930	232613	324903	324903	3225	997	1167	384	221815	3809978	5773
163	2018-05-30 11:22:16		0	0	0	0	0	0	5.82	0.99	0.38	324903	0	124930	232613	324903	324903	3225	997	1167	384	221815	3810019	5773
164	2018-05-30 11:32:12		0	0	0	0	0	0	5.82	0.99	0.38	324903	0	124930	232613	324903	324903	3225	997	1167	384	221815	3810080	5773
165	2018-05-30 11:42:14		0	0	0	0	0	0	5.83	0.99	0.39	325493	0	125335	232831	325493	325493	3232	998	1167	384	222101	3810132	5781
166	2018-05-30 11:52:13		0	0	0	0	0	0	5.83	0.99	0.39	325809	0	125549	233143	325809	325809	3236	998	1167	384	222189	3810184	5785
167	2018-05-30 12:02:42		0	0	0	0	0	0	5.83	0.99	0.39	325908	0	125619	233143	325908	325908	3236	1000	1167	384	222261	3810238	5787
168	2018-05-30 12:12:13		0	0	0	0	0	0	5.84	0.99	0.39	326184	0	125798	233283	326184	326184	3236	1000	1167	384	222354	3810300	5787
169	2018-05-30 12:22:14		0	0	0	0	0	0	5.84	0.99	0.39	326379	0	125937	233283	326379	326379	3239	1000	1167	385	222430	3810351	5791
170	2018-05-30 12:26:46		0	0	0	0	0	0	5.84	0.99	0.39	326379	0	125937	233283	326379	326379	3239	1000	1167	385	222430	3810376	5791
171	2018-05-30 12:36:47		0	0	0	0	0	0	5.84	0.99	0.39	326588	0	126090	233283	326588	326588	3241	1000	1167	385	222510	3810434	5793
172	2018-05-30 12:46:47		0	0	0	0	0	0	5.84	0.99	0.39	326805	0	126246	233283	326805	326805	3242	1001	1167	385	222600	3810493	5795
173	2018-05-30 13:06:50		0	0	0	0	0	0	5.85	0.99	0.39	327140	0	126464	233552	327140	327140	3245	1001	1167	385	222739	3810590	5798
174	2018-05-30 13:16:49		0	0	0	0	0	0	5.85	0.99	0.39	327294	0	126571	233552	327294	327294	3250	1004	1167	385	222798	3810644	5806
175	2018-05-30 13:26:50		0	0	0	0	0	0	5.85	0.99	0.39	327467	0	126680	233552	327467	327467	3251	1004	1168	387	222861	3810694	5810
176	2018-05-30 13:36:50		0	0	0	0	0	0	5.85	0.99	0.39	327648	0	126805	233552	327648	327648	3252	1004	1168	387	222924	3810750	5811
177	2018-05-30 13:43:27		0	0	0	0	0	0	5.85	0.99	0.39	327843	0	126938	233962	327843	327843	3253	1004	1168	387	222993	3810789	5812
178	2018-05-30 13:53:28		0	0	0	0	0	0	5.85	0.99	0.39	328008	0	127052	234015	328008	328008	3257	1006	1168	387	223060	3810859	5818
179	2018-05-30 14:03:29		0	0	0	0	0	0	5.85	0.99	0.39	328179	0	127185	234351	328179	328179	3258	1010	1168	387	223110	3810913	5823
180	2018-05-30 14:13:29		0	0	0	0	0	0	5.86	0.99	0.39	328368	0	127317	234476	328368	328368	3258	1011	1169	387	223186	3810973	5825
181	2018-05-30 14:23:29		0	0	0	0	0	0	5.86	0.99	0.39	328557	0	127450	234476	328557	328557	3258	1012	1170	387	223257	3811027	5827
182	2018-05-30 14:33:30		0	0	0	0	0	0	5.86	0.99	0.39	328737	0	127589	234547	328737	328737	3259	1013	1170	387	223323	3811081	5829
183	2018-05-30 14:43:30		0	0	0	0	0	0	5.86	0.99	0.39	328942	0	127722	235036	328942	328942	3262	1015	1170	387	223411	3811131	5834
184	2018-05-30 14:53:31		0	0	0	0	0	0	5.86	0.99	0.39	329106	0	127832	235036	329106	329106	3263	1015	1170	387	223495	3811190	5835
185	2018-05-30 15:03:33		0	0	0	0	0	0	5.87	0.99	0.39	329254	0	127937	235251	329254	329254	3265	1016	1170	387	223568	3811247	5838
186	2018-05-30 15:13:34		0	0	0	0	0	0	5.87	0.99	0.39	329418	0	128048	235322	329418	329418	3265	1017	1170	387	223634	3811305	5839
187	2018-05-30 15:23:33		0	0	0	0	0	0	5.87	0.99	0.39	329598	0	128174	235322	329598	329598	3265	1017	1170	387	223701	3811353	5839
188	2018-05-30 15:33:34		0	0	0	0	0	0	5.87	0.99	0.39	329803	0	128317	235322	329803	329803	3268	1017	1170	387	223795	3811411	5842
189	2018-05-30 15:43:35		0	0	0	0	0	0	5.87	0.99	0.39	329975	0	128428	235322	329975	329975	3268	1018	1170	387	223853	3811457	5843
190	2018-05-30 15:53:35		0	0	0	0	0	0	5.87	0.99	0.39	330154	0	128558	235322	330154	330154	3271	1018	1170	387	223920	3811504	5846
191	2018-05-30 16:03:38		0	0	0	0	0	0	5.88	0.99	0.39	330300	0	128645	235429	330300	330300	3272	1018	1170	387	223983	3811557	5847
192	2018-05-30 16:13:37		0	0	0	0	0	0	5.88	0.99	0.39	330464	0	128757	235429	330464	330464	3272	1018	1170	387	224054	3811578	5847
193	2018-05-30 16:16:29		0	0	0	0	0	0	5.88	0.99	0.39	330464	0	128757	235429	330464	330464	3272	1018	1170	387	224054	3811586	5847
194	2018-05-30 16:26:29		0	0	0	0	0	0	5.88	0.99	0.39	330586	0	128844	235501	330586	330586	3272	1018	1170	387	224108	3811634	5847
195	2018-05-30 16:36:29		0	0	0	0	0	0	5.88	0.99	0.39	330726	0	128933	235716	330726	330726	3272	1022	1171	387	224162	3811676	5852
196	2018-05-30 16:46:30		0	0	0	0	0	0	5.88	0.99	0.39	330890	0	129044	236220	330890	330890	3273	1024	1171	387	224223	3811723	5855
197	2018-05-30 16:56:31		0	0	0	0	0	0	5.88	0.99	0.39	331027	0	129142	236220	331027	331027	3274	1024	1171	387	224260	3811764	5856
198	2018-05-30 17:06:32		0	0	0	0	0	0	5.88	0.99	0.39	331189	0	129260	236396	331189	331189	3274	1024	1171	387	224310	3811815	5856
199	2018-05-30 17:16:32		0	0	0	0	0	0	5.88	0.99	0.39	331189	0	129260	236396	331189	331189	3274	1024	1171	387	224310	3811836	5856
200	2018-05-30 17:36:33		0	0	0	0	0	0	5.89	0.99	0.39	331692	0	129599	236531	331692	331692	3280	1024	1171	387	224516	3811925	5862
201	2018-05-30 17:46:36		0	0	0	0	0	0	5.89	0.99	0.39	331809	0	129675	236531	331809	331809	3282	1026	1172	387	224559	3811971	5867
202	2018-05-30 17:56:34		0	0	0	0	0	0	5.89	0.99	0.39	331933	0	129762	236784	331933	331933	3283	1028	1172	387	224603	3812021	5870
203	2018-05-30 18:06:35		0	0	0	0	0	0	5.89	0.99	0.39	332090	0	129881	236784	332090	332090	3285	1027	1172	387	224655	3812058	5871
204	2018-05-30 18:16:35		0	0	0	0	0	0	5.89	0.99	0.39	332233	0	129987	236911	332233	332233	3285	1028	1172	387	224703	3812112	5872
205	2018-05-30 18:26:36		0	0	0	0	0	0	5.9	0.99	0.39	332385	0	130087	236984	332385	332385	3285	1028	1172	387	224753	3812155	5872
206	2018-05-30 18:36:36		0	0	0	0	0	0	5.9	0.99	0.39	332541	0	130203	236984	332541	332541	3288	1028	1172	387	224810	3812194	5875
207	2018-05-30 18:46:37		0	0	0	0	0	0	5.9	0.99	0.39	332614	0	130256	236984	332614	332614	3288	1030	1172	387	224835	3812248	5877
208	2018-05-30 18:56:38		0	0	0	0	0	0	5.9	0.99	0.39	332841	0	130398	237711	332841	332841	3289	1031	1174	388	224919	3812307	5882
209	2018-05-30 19:06:39		0	0	0	0	0	0	5.9	0.99	0.39	333014	0	130510	237711	333014	333014	3290	1031	1175	388	224970	3812362	5884
210	2018-05-30 19:16:39		0	0	0	0	0	0	5.9	0.99	0.39	333201	0	130619	237711	333201	333201	3291	1031	1175	388	225033	3812412	5885
211	2018-05-30 19:26:39		0	0	0	0	0	0	5.9	0.99	0.39	333375	0	130736	238150	333375	333375	3295	1031	1175	388	225117	3812456	5889
212	2018-05-30 19:36:41		0	0	0	0	0	0	5.91	0.99	0.39	333513	0	130818	238150	333513	333513	3297	1031	1176	390	225174	3812494	5894
213	2018-05-30 19:46:40		0	0	0	0	0	0	5.91	0.99	0.39	333592	0	130866	238168	333592	333592	3301	1031	1176	390	225201	3812540	5898
214	2018-05-30 19:56:41		0	0	0	0	0	0	5.91	0.99	0.39	333828	0	131024	238389	333828	333828	3303	1031	1177	390	225295	3812588	5901
215	2018-05-30 20:06:46		0	0	0	0	0	0	5.91	0.99	0.39	334003	0	131153	238526	334003	334003	3304	1031	1177	390	225344	3812651	5902
216	2018-05-30 20:16:43		0	0	0	0	0	0	5.91	0.99	0.39	334165	0	131260	238526	334165	334165	3304	1031	1177	390	225406	3812700	5902
217	2018-05-30 20:26:43		0	0	0	0	0	0	5.91	0.99	0.39	334321	0	131370	239116	334321	334321	3305	1031	1177	390	225472	3812764	5903
218	2018-05-30 20:36:44		0	0	0	0	0	0	5.92	0.99	0.39	334467	0	131441	239116	334467	334467	3305	1031	1177	390	225531	3812830	5903
219	2018-05-30 20:46:47		0	0	0	0	0	0	5.92	0.99	0.39	334652	0	131556	239245	334652	334652	3306	1034	1177	390	225586	3812890	5907
220	2018-05-30 20:56:46		0	0	0	0	0	0	5.92	0.99	0.39	334821	0	131673	239245	334821	334821	3307	1033	1177	390	225659	3812936	5907
221	2018-05-30 21:06:46		0	0	0	0	0	0	5.92	0.99	0.39	334913	0	131733	239245	334913	334913	3307	1033	1179	390	225703	3812987	5909
222	2018-05-30 21:16:45		0	0	0	0	0	0	5.92	0.99	0.39	335156	0	131868	239245	335156	335156	3308	1033	1179	390	225791	3813030	5910
223	2018-05-30 21:26:46		0	0	0	0	0	0	5.92	0.99	0.39	335300	0	131970	239245	335300	335300	3315	1035	1179	390	225842	3813087	5919
224	2018-05-30 21:36:47		0	0	0	0	0	0	5.92	0.99	0.39	335447	0	132065	239245	335447	335447	3315	1037	1179	390	225885	3813143	5921
225	2018-05-30 21:46:48		0	0	0	0	0	0	5.93	0.99	0.39	335614	0	132175	239245	335614	335614	3316	1037	1179	390	225942	3813185	5922
226	2018-05-30 21:56:51		0	0	0	0	0	0	5.93	0.99	0.39	335679	0	132212	239245	335679	335679	3318	1041	1179	390	225968	3813242	5928
227	2018-05-30 22:06:49		0	0	0	0	0	0	5.93	0.99	0.39	335941	0	132397	239801	335941	335941	3319	1044	1181	390	226063	3813311	5934
228	2018-05-30 22:16:49		0	0	0	0	0	0	5.93	0.99	0.39	336152	0	132561	239950	336152	336152	3323	1044	1181	390	226128	3813366	5938
229	2018-05-30 22:26:53		0	0	0	0	0	0	5.93	0.99	0.39	336356	0	132703	239950	336356	336356	3325	1044	1181	391	226210	3813414	5941
230	2018-05-30 22:36:50		0	0	0	0	0	0	5.93	0.99	0.39	336552	0	132851	239959	336552	336552	3325	1044	1181	391	226276	3813469	5941
231	2018-05-30 22:46:51		0	0	0	0	0	0	5.94	0.99	0.39	336738	0	132973	239959	336738	336738	3325	1045	1181	391	226337	3813530	5942
232	2018-05-30 22:56:51		0	0	0	0	0	0	5.94	0.99	0.4	336904	0	133079	239959	336904	336904	3325	1045	1181	391	226394	3813585	5942
233	2018-05-30 23:06:53		0	0	0	0	0	0	5.94	0.99	0.4	337106	0	133215	240108	337106	337106	3328	1046	1181	391	226460	3813631	5946
234	2018-05-30 23:16:52		0	0	0	0	0	0	5.94	0.99	0.4	337228	0	133292	240229	337228	337228	3329	1045	1181	391	226514	3813686	5946
235	2018-05-30 23:26:52		0	0	0	0	0	0	5.94	0.99	0.4	337368	0	133387	240303	337368	337368	3331	1045	1181	391	226564	3813743	5948
236	2018-05-30 23:36:53		0	0	0	0	0	0	5.94	0.99	0.4	337501	0	133463	240602	337501	337501	3333	1045	1181	391	226611	3813787	5950
237	2018-05-30 23:46:53		0	0	0	0	0	0	5.94	0.99	0.4	337609	0	133532	240602	337609	337609	3335	1045	1181	392	226647	3813827	5953
238	2018-05-30 23:56:54		0	0	0	0	0	0	5.94	0.99	0.4	337753	0	133633	240602	337753	337753	3336	1046	1181	392	226692	3813861	5955
239	2018-05-31 00:06:55		0	0	0	0	0	0	5.94	0.99	0.4	337824	0	133683	240602	337824	337824	3336	1047	1181	392	226713	3813892	5956
240	2018-05-31 00:16:55		0	0	0	0	0	0	5.95	0.99	0.4	337992	0	133797	240789	337992	337992	3338	1048	1181	392	226780	3813918	5959
241	2018-05-31 00:26:55		0	0	0	0	0	0	5.95	0.99	0.4	338100	0	133862	240789	338100	338100	3338	1050	1181	392	226824	3813945	5961
242	2018-05-31 00:36:58		0	0	0	0	0	0	5.95	0.99	0.4	338183	0	133913	240789	338183	338183	3338	1050	1181	392	226857	3813965	5961
243	2018-05-31 00:46:56		0	0	0	0	0	0	5.95	0.99	0.4	338257	0	133963	240789	338257	338257	3340	1052	1181	392	226887	3813980	5965
244	2018-05-31 00:56:57		0	0	0	0	0	0	5.95	0.99	0.4	338316	0	134005	240789	338316	338316	3340	1052	1181	392	226907	3814006	5965
245	2018-05-31 01:06:58		0	0	0	0	0	0	5.95	0.99	0.4	338368	0	134040	240789	338368	338368	3341	1052	1181	392	226929	3814022	5966
246	2018-05-31 01:17:01		0	0	0	0	0	0	5.95	0.99	0.4	338421	0	134070	240789	338421	338421	3341	1052	1181	392	226956	3814039	5966
247	2018-05-31 01:27:00		0	0	0	0	0	0	5.95	0.99	0.4	338458	0	134089	240789	338458	338458	3341	1052	1181	392	226966	3814059	5966
248	2018-05-31 01:36:59		0	0	0	0	0	0	5.95	0.99	0.4	338507	0	134117	240789	338507	338507	3341	1052	1181	392	226981	3814073	5966
249	2018-05-31 01:47:00		0	0	0	0	0	0	5.95	0.99	0.4	338538	0	134133	240789	338538	338538	3342	1052	1181	392	226990	3814082	5967
250	2018-05-31 01:57:00		0	0	0	0	0	0	5.95	0.99	0.4	338569	0	134155	240789	338569	338569	3342	1052	1181	392	226998	3814090	5967
251	2018-05-31 02:07:01		0	0	0	0	0	0	5.95	0.99	0.4	338587	0	134166	240789	338587	338587	3342	1052	1181	392	227007	3814096	5967
252	2018-05-31 02:17:01		0	0	0	0	0	0	5.95	0.99	0.4	338607	0	134181	240789	338607	338607	3343	1052	1181	392	227012	3814100	5968
253	2018-05-31 02:27:02		0	0	0	0	0	0	5.95	0.99	0.4	338623	0	134193	240789	338623	338623	3343	1052	1181	392	227012	3814102	5968
254	2018-05-31 02:37:05		0	0	0	0	0	0	5.95	0.99	0.4	338644	0	134209	240789	338644	338644	3343	1052	1181	392	227024	3814115	5968
255	2018-05-31 02:47:02		0	0	0	0	0	0	5.95	0.99	0.4	338657	0	134215	240789	338657	338657	3343	1052	1181	392	227027	3814116	5968
256	2018-05-31 02:57:05		0	0	0	0	0	0	5.95	0.99	0.4	338679	0	134226	241014	338679	338679	3343	1052	1181	392	227038	3814120	5968
257	2018-05-31 03:07:05		0	0	0	0	0	0	5.95	0.99	0.4	338694	0	134233	241014	338694	338694	3343	1052	1181	392	227041	3814127	5968
258	2018-05-31 03:17:04		0	0	0	0	0	0	5.95	0.99	0.4	338714	0	134244	241014	338714	338714	3343	1052	1181	393	227050	3814127	5969
259	2018-05-31 03:27:07		0	0	0	0	0	0	5.95	0.99	0.4	338731	0	134257	241014	338731	338731	3344	1052	1181	393	227057	3814133	5970
260	2018-05-31 03:37:06		0	0	0	0	0	0	5.95	0.99	0.4	338739	0	134262	241014	338739	338739	3344	1052	1181	393	227060	3814142	5970
261	2018-05-31 03:47:06		0	0	0	0	0	0	5.95	0.99	0.4	338755	0	134269	241014	338755	338755	3346	1052	1181	393	227066	3814141	5972
262	2018-05-31 03:57:07		0	0	0	0	0	0	5.95	0.99	0.4	338771	0	134282	241014	338771	338771	3346	1052	1181	393	227076	3814147	5972
263	2018-05-31 04:07:09		0	0	0	0	0	0	5.95	0.99	0.4	338779	0	134287	241014	338779	338779	3346	1052	1181	393	227079	3814149	5972
264	2018-05-31 04:17:07		0	0	0	0	0	0	5.95	0.99	0.4	338789	0	134294	241014	338789	338789	3346	1052	1181	393	227082	3814156	5972
265	2018-05-31 04:27:13		0	0	0	0	0	0	5.95	0.99	0.4	338796	0	134296	241014	338796	338796	3346	1052	1181	393	227086	3814164	5972
266	2018-05-31 04:37:08		0	0	0	0	0	0	5.95	0.99	0.4	338802	0	134302	241014	338802	338802	3346	1052	1181	393	227087	3814166	5972
267	2018-05-31 04:47:12		0	0	0	0	0	0	5.95	0.99	0.4	338812	0	134306	241014	338812	338807	3346	1052	1181	393	227088	3814176	5972
268	2018-05-31 04:57:09		0	0	0	0	0	0	5.95	0.99	0.4	338812	0	134306	241014	338812	338807	3346	1052	1181	393	227088	3814185	5972
269	2018-05-31 05:07:13		0	0	0	0	0	0	5.95	0.99	0.4	338812	0	134306	241014	338812	338812	3346	1052	1181	393	227090	3814197	5972
270	2018-05-31 05:17:10		0	0	0	0	0	0	5.95	0.99	0.4	338827	0	134318	241014	338827	338827	3346	1052	1181	393	227096	3814205	5972
271	2018-05-31 05:27:10		0	0	0	0	0	0	5.95	0.99	0.4	338861	0	134346	241014	338861	338861	3346	1052	1181	393	227108	3814213	5972
272	2018-05-31 05:37:12		0	0	0	0	0	0	5.95	0.99	0.4	338879	0	134356	241014	338879	338879	3346	1052	1181	393	227116	3814222	5972
273	2018-05-31 05:47:14		0	0	0	0	0	0	5.95	0.99	0.4	338897	0	134370	241014	338897	338897	3346	1052	1181	393	227125	3814232	5972
274	2018-05-31 05:57:15		0	0	0	0	0	0	5.95	0.99	0.4	338925	0	134392	241014	338925	338925	3346	1052	1181	393	227131	3814244	5972
275	2018-05-31 06:07:14		0	0	0	0	0	0	5.95	0.99	0.4	338936	0	134399	241014	338936	338936	3346	1052	1181	393	227133	3814252	5972
276	2018-05-31 06:17:18		0	0	0	0	0	0	5.96	0.99	0.4	338959	0	134407	241014	338959	338959	3346	1052	1181	393	227142	3814268	5972
277	2018-05-31 06:27:15		0	0	0	0	0	0	5.96	0.99	0.4	338983	0	134422	241014	338983	338983	3346	1052	1181	393	227153	3814284	5972
278	2018-05-31 06:37:18		0	0	0	0	0	0	5.96	0.99	0.4	339020	0	134448	241014	339020	339020	3347	1052	1181	393	227168	3814306	5973
279	2018-05-31 06:47:17		0	0	0	0	0	0	5.96	0.99	0.4	339020	0	134460	241014	339020	339020	3347	1052	1181	393	227173	3814322	5973
280	2018-05-31 06:57:17		0	0	0	0	0	0	5.96	0.99	0.4	339083	0	134486	241089	339083	339083	3347	1052	1181	393	227192	3814350	5973
281	2018-05-31 07:07:17		0	0	0	0	0	0	5.96	0.99	0.4	339120	0	134511	241089	339120	339120	3347	1053	1181	393	227205	3814364	5974
282	2018-05-31 07:17:21		0	0	0	0	0	0	5.96	0.99	0.4	339120	0	134511	241089	339120	339120	3347	1053	1181	393	227205	3814390	5974
283	2018-05-31 07:27:32		0	0	0	0	0	0	5.96	0.99	0.4	339234	0	134574	241089	339234	339234	3350	1053	1181	393	227250	3814407	5977
284	2018-05-31 07:37:20		0	0	0	0	0	0	5.96	0.99	0.4	339298	0	134607	241089	339298	339298	3351	1053	1181	393	227276	3814435	5978
285	2018-05-31 07:47:21		0	0	0	0	0	0	5.96	0.99	0.4	339357	0	134640	241089	339357	339357	3352	1053	1181	393	227299	3814471	5979
286	2018-05-31 07:57:20		0	0	0	0	0	0	5.96	0.99	0.4	339429	0	134686	241089	339429	339429	3352	1054	1181	393	227322	3814503	5980
287	2018-05-31 08:07:22		0	0	0	0	0	0	5.96	0.99	0.4	339498	0	134725	241994	339498	339498	3353	1054	1181	393	227353	3814535	5981
288	2018-05-31 08:17:22		0	0	0	0	0	0	5.96	0.99	0.4	339543	0	134754	241994	339543	339543	3353	1054	1181	393	227371	3814558	5981
289	2018-05-31 08:27:22		0	0	0	0	0	0	5.96	0.99	0.4	339612	0	134802	242278	339612	339612	3355	1056	1181	393	227396	3814582	5985
290	2018-05-31 08:37:22		0	0	0	0	0	0	5.96	0.99	0.4	339688	0	134856	242278	339688	339688	3358	1056	1181	393	227424	3814621	5988
291	2018-05-31 08:47:23		0	0	0	0	0	0	5.96	0.99	0.4	339764	0	134902	242278	339764	339764	3358	1056	1181	393	227457	3814654	5988
292	2018-05-31 08:57:23		0	0	0	0	0	0	5.96	0.99	0.4	339855	0	134954	242278	339855	339855	3358	1056	1181	393	227488	3814687	5988
293	2018-05-31 09:07:25		0	0	0	0	0	0	5.96	0.99	0.4	339922	0	134994	242278	339922	339922	3358	1056	1181	393	227523	3814719	5988
294	2018-05-31 09:17:25		0	0	0	0	0	0	5.96	0.99	0.4	339986	0	135031	242278	339986	339986	3358	1058	1181	393	227546	3814758	5990
295	2018-05-31 09:27:25		0	0	0	0	0	0	5.97	0.99	0.4	340078	0	135085	242278	340078	340078	3358	1058	1181	393	227589	3814801	5990
296	2018-05-31 09:37:27		0	0	0	0	0	0	5.97	0.99	0.4	340158	0	135135	242278	340158	340158	3358	1058	1181	393	227621	3814837	5990
297	2018-05-31 09:47:27		0	0	0	0	0	0	5.97	0.99	0.4	340216	0	135169	242278	340216	340216	3358	1058	1181	393	227652	3814873	5990
298	2018-05-31 09:57:28		0	0	0	0	0	0	5.97	0.99	0.4	340282	0	135214	242278	340282	340282	3358	1059	1181	393	227677	3814903	5991
299	2018-05-31 10:07:29		0	0	0	0	0	0	5.97	0.99	0.4	340357	0	135266	242278	340357	340357	3358	1059	1181	393	227714	3814943	5991
300	2018-05-31 10:17:29		0	0	0	0	0	0	5.97	0.99	0.4	340435	0	135314	242278	340435	340435	3359	1060	1181	393	227743	3814994	5993
301	2018-05-31 10:27:29		0	0	0	0	0	0	5.97	0.99	0.4	340523	0	135382	242743	340523	340523	3360	1060	1181	393	227778	3815027	5994
302	2018-05-31 10:37:30		0	0	0	0	0	0	5.97	0.99	0.4	340593	0	135430	242743	340593	340593	3361	1060	1181	393	227796	3815061	5995
303	2018-05-31 10:47:30		0	0	0	0	0	0	5.97	0.99	0.4	340656	0	135463	242743	340656	340656	3361	1060	1181	393	227807	3815096	5995
304	2018-05-31 10:57:33		0	0	0	0	0	0	5.97	0.99	0.4	340689	0	135487	242743	340689	340689	3361	1060	1181	393	227824	3815134	5995
305	2018-05-31 11:07:35		0	0	0	0	0	0	5.97	0.99	0.4	340793	0	135555	242743	340793	340793	3362	1060	1181	393	227865	3815172	5996
306	2018-05-31 11:17:32		0	0	0	0	0	0	5.97	0.99	0.4	340870	0	135603	242895	340870	340870	3362	1060	1181	393	227890	3815207	5996
307	2018-05-31 11:27:36		0	0	0	0	0	0	5.97	0.99	0.4	340912	0	135631	242895	340912	340912	3362	1060	1181	393	227910	3815252	5996
308	2018-05-31 11:37:35		0	0	0	0	0	0	5.97	0.99	0.4	341021	0	135694	242895	341021	341021	3364	1060	1181	393	227941	3815284	5998
309	2018-05-31 11:47:33		0	0	0	0	0	0	5.97	0.99	0.4	341071	0	135726	243124	341071	341071	3365	1062	1181	393	227958	3815306	6001
310	2018-05-31 11:57:34		0	0	0	0	0	0	5.98	0.99	0.4	341152	0	135779	243201	341152	341152	3366	1062	1181	393	227974	3815336	6002
311	2018-05-31 12:07:39		0	0	0	0	0	0	5.98	0.99	0.4	341219	0	135820	243201	341219	341219	3368	1062	1181	393	227997	3815354	6004
312	2018-05-31 12:17:37		0	0	0	0	0	0	5.98	0.99	0.4	341286	0	135863	243234	341286	341286	3368	1062	1181	393	228024	3815393	6004
313	2018-05-31 12:27:36		0	0	0	0	0	0	5.98	0.99	0.4	341345	0	135904	243234	341345	341345	3368	1062	1181	393	228047	3815421	6004
314	2018-05-31 12:37:47		0	0	0	0	0	0	5.98	0.99	0.4	341402	0	135944	243234	341402	341402	3368	1062	1181	393	228060	3815450	6004
315	2018-05-31 12:47:40		0	0	0	0	0	0	5.98	0.99	0.4	341402	0	135944	243234	341402	341402	3368	1063	1181	393	228060	3815485	6005
316	2018-05-31 12:57:45		0	0	0	0	0	0	5.98	0.99	0.4	341402	0	135944	243234	341402	341402	3368	1063	1182	393	228069	3815519	6006
317	2018-05-31 13:07:39		0	0	0	0	0	0	5.98	0.99	0.4	341402	0	135944	243234	341402	341402	3368	1063	1182	393	228069	3815557	6006
318	2018-05-31 13:17:39		0	0	0	0	0	0	5.98	0.99	0.4	341706	0	136148	243253	341706	341706	3370	1065	1182	393	228180	3815588	6010
319	2018-05-31 13:27:39		0	0	0	0	0	0	5.98	0.99	0.4	341780	0	136197	243416	341780	341780	3370	1065	1182	393	228206	3815615	6010
320	2018-05-31 13:37:41		0	0	0	0	0	0	5.98	0.99	0.4	341858	0	136240	243722	341858	341858	3370	1065	1182	393	228233	3815652	6010
321	2018-05-31 13:47:40		0	0	0	0	0	0	5.98	0.99	0.4	341916	0	136276	243722	341916	341916	3371	1065	1182	393	228257	3815684	6011
322	2018-05-31 13:57:42		0	0	0	0	0	0	5.98	0.99	0.4	342010	0	136334	243799	342010	342010	3372	1065	1182	393	228298	3815720	6012
323	2018-05-31 14:07:43		0	0	0	0	0	0	5.98	0.99	0.4	342070	0	136369	243799	342070	342070	3373	1065	1182	393	228328	3815752	6013
324	2018-05-31 14:17:42		0	0	0	0	0	0	5.98	0.99	0.4	342152	0	136421	244030	342152	342152	3374	1065	1183	393	228362	3815784	6015
325	2018-05-31 14:27:45		0	0	0	0	0	0	5.99	0.99	0.4	342244	0	136472	244030	342244	342244	3374	1066	1183	393	228401	3815817	6016
326	2018-05-31 14:37:45		0	0	0	0	0	0	5.99	0.99	0.4	342328	0	136512	244184	342328	342328	3374	1066	1183	393	228438	3815844	6016
327	2018-05-31 14:47:44		0	0	0	0	0	0	5.99	0.99	0.4	342428	0	136582	244184	342428	342428	3374	1066	1184	393	228479	3815885	6017
328	2018-05-31 14:57:45		0	0	0	0	0	0	5.99	0.99	0.4	342532	0	136631	244184	342532	342532	3375	1066	1184	393	228523	3815919	6018
329	2018-05-31 15:07:47		0	0	0	0	0	0	5.99	0.99	0.4	342613	0	136681	244184	342613	342613	3376	1066	1184	393	228570	3815948	6019
330	2018-05-31 15:17:46		0	0	0	0	0	0	5.99	0.99	0.4	342684	0	136725	244241	342684	342684	3376	1066	1185	393	228603	3815986	6020
331	2018-05-31 15:27:47		0	0	0	0	0	0	5.99	0.99	0.4	342776	0	136781	244241	342776	342776	3377	1066	1185	393	228649	3816018	6021
332	2018-05-31 15:37:47		0	0	0	0	0	0	5.99	0.99	0.4	342854	0	136829	244277	342854	342854	3378	1066	1185	393	228680	3816051	6022
333	2018-05-31 15:47:49		0	0	0	0	0	0	5.99	0.99	0.4	342914	0	136875	244277	342914	342914	3378	1066	1185	393	228699	3816081	6022
334	2018-05-31 15:57:55		0	0	0	0	0	0	5.99	0.99	0.4	342972	0	136911	244277	342972	342972	3379	1068	1185	393	228724	3816122	6025
335	2018-05-31 16:07:54		0	0	0	0	0	0	5.99	0.99	0.4	343052	0	136964	244277	343052	343052	3380	1068	1185	393	228756	3816166	6026
336	2018-05-31 16:17:49		0	0	0	0	0	0	6	0.98	0.4	343149	0	137028	244335	343149	343149	3380	1068	1185	393	228794	3816196	6026
337	2018-05-31 16:27:50		0	0	0	0	0	0	6	0.98	0.4	343353	0	137108	244412	343353	343353	3381	1070	1186	394	228931	3816235	6031
338	2018-05-31 16:37:52		0	0	0	0	0	0	6	0.98	0.4	343547	0	137174	244758	343547	343547	3383	1070	1186	394	229065	3816254	6033
339	2018-05-31 16:47:51		0	0	0	0	0	0	6	0.98	0.4	343710	0	137225	244913	343710	343710	3383	1070	1186	394	229166	3816289	6033
340	2018-05-31 16:57:52		0	0	0	0	0	0	6.01	0.98	0.4	343828	0	137287	244913	343828	343828	3384	1071	1186	394	229221	3816328	6035
341	2018-05-31 17:07:56		0	0	0	0	0	0	6.01	0.98	0.4	343899	0	137326	244913	343899	343899	3384	1071	1186	394	229256	3816350	6035
342	2018-05-31 17:17:53		0	0	0	0	0	0	6.01	0.98	0.4	343988	0	137381	244913	343988	343988	3384	1070	1186	394	229297	3816375	6034
343	2018-05-31 17:27:57		0	0	0	0	0	0	6.01	0.98	0.4	344077	0	137438	244913	344077	344077	3385	1070	1186	394	229335	3816397	6035
344	2018-05-31 17:37:58		0	0	0	0	0	0	6.01	0.98	0.4	344077	0	137438	244913	344077	344077	3385	1070	1187	394	229335	3816424	6036
345	2018-05-31 17:48:00		0	0	0	0	0	0	6.01	0.98	0.4	344184	0	137505	244913	344184	344184	3386	1070	1187	394	229367	3816446	6037
346	2018-05-31 17:57:58		0	0	0	0	0	0	6.01	0.98	0.4	344319	0	137592	244989	344319	344319	3386	1070	1187	394	229408	3816486	6037
347	2018-05-31 18:07:57		0	0	0	0	0	0	6.01	0.98	0.4	344396	0	137642	245611	344396	344396	3388	1070	1187	394	229430	3816511	6039
348	2018-05-31 18:17:57		0	0	0	0	0	0	6.01	0.98	0.4	344461	0	137681	245767	344461	344461	3388	1070	1187	394	229455	3816539	6039
349	2018-05-31 18:27:59		0	0	0	0	0	0	6.01	0.98	0.4	344545	0	137739	245767	344545	344545	3388	1070	1187	394	229484	3816576	6039
350	2018-05-31 18:37:59		0	0	0	0	0	0	6.01	0.98	0.4	344620	0	137782	245767	344620	344620	3388	1070	1187	394	229509	3816601	6039
351	2018-05-31 18:47:59		0	0	0	0	0	0	6.01	0.98	0.4	344687	0	137830	245767	344687	344687	3388	1070	1187	394	229530	3816632	6039
352	2018-05-31 18:58:00		0	0	0	0	0	0	6.01	0.98	0.4	344687	0	137830	245767	344687	344687	3388	1070	1187	394	229530	3816660	6039
353	2018-05-31 19:08:03		0	0	0	0	0	0	6.01	0.98	0.4	344687	0	137830	245767	344687	344687	3388	1070	1187	394	229530	3816697	6039
354	2018-05-31 19:18:02		0	0	0	0	0	0	6.02	0.98	0.4	344867	0	137929	245767	344867	344825	3388	1070	1187	394	229580	3816738	6039
355	2018-05-31 19:28:02		0	0	0	0	0	0	6.02	0.98	0.4	344978	0	138038	245767	344978	344978	3389	1070	1187	394	229636	3816772	6040
356	2018-05-31 19:38:02		0	0	0	0	0	0	6.02	0.98	0.4	345060	0	138098	245767	345060	345060	3389	1070	1187	394	229661	3816812	6040
357	2018-05-31 19:48:03		0	0	0	0	0	0	6.02	0.98	0.4	345128	0	138141	246079	345128	345128	3391	1070	1187	394	229688	3816844	6042
