1	2017-12-26 09:34:12		0	0	0	0	0	0	0.48	2.29	0	18529	0	0	17187	18529	18529	424	0	31	1	16904	3496362	456
2	2017-12-26 09:44:05		0	0	0	0	0	0	1.23	3.22	0	49293	0	0	43820	49293	49293	1589	0	48	1	43014	3496357	1638
3	2017-12-26 09:54:56		0	0	0	0	0	0	2.06	3.68	0	84116	0	0	73412	84116	84116	3092	0	60	3	72064	3496356	3155
4	2017-12-26 10:05:04		0	0	0	0	0	0	2.49	3.83	0	102370	0	0	89165	102370	102370	3924	0	66	3	87233	3496353	3993
5	2017-12-26 10:16:44		0	0	0	0	0	0	2.86	3.9	0	118616	0	0	101956	118616	118616	4626	0	82	4	100146	3496354	4712
6	2017-12-26 10:26:50		0	0	0	0	0	0	3.21	3.93	0	133865	0	0	113820	133865	133865	5258	0	91	5	112134	3496347	5354
7	2017-12-26 10:37:16		0	0	0	0	0	0	3.54	3.93	0	148153	0	0	125058	148153	148153	5819	0	95	6	123739	3496345	5920
8	2017-12-26 10:48:48		0	0	0	0	0	0	3.83	3.94	0	161568	0	0	135021	161568	161568	6361	0	101	6	134029	3496343	6468
9	2017-12-26 11:01:26		0	0	0	0	0	0	4.19	3.94	0	178947	0	0	147820	178947	178947	7055	0	109	6	146577	3496343	7170
10	2017-12-26 11:14:05		0	0	0	0	0	0	4.38	3.96	0	189053	0	0	154433	189053	189053	7489	0	113	6	153137	3496341	7608
11	2017-12-26 11:28:31		0	0	0	0	0	0	4.7	3.95	0	204107	0	4	166068	204107	204103	8056	0	117	6	164448	3496336	8179
12	2017-12-26 11:39:11		0	0	0	0	0	0	4.83	3.93	0	214182	0	19	170583	214182	214163	8426	0	123	6	168874	3496335	8555
13	2017-12-26 11:51:06		0	0	0	0	0	0	5.12	3.92	0	228113	0	22	180925	228113	228091	8949	0	128	8	179004	3496333	9085
14	2017-12-26 12:01:56		0	0	0	0	0	0	5.29	3.92	0	236422	0	30	187375	236422	236392	9279	0	134	9	185100	3496327	9422
15	2017-12-26 12:20:17		0	0	0	0	0	0	5.6	3.92	0	250240	0	39	198111	250240	250201	9817	0	137	9	195706	3496323	9963
16	2017-12-26 12:33:14		0	0	0	0	0	0	5.81	3.93	0	256558	0	40	205435	256558	256518	10082	0	141	9	203009	3496319	10232
17	2017-12-26 12:44:52		0	0	0	0	0	0	6.02	3.92	0	266000	0	41	213451	266000	265959	10423	0	146	10	210604	3496315	10579
18	2017-12-26 13:03:10		0	0	0	0	0	0	6.16	3.92	0	274598	0	47	218784	274598	274551	10763	0	149	10	215328	3496321	10922
19	2017-12-26 13:12:46		0	0	0	0	0	0	6.24	3.92	0	279864	0	49	221638	279864	279815	10963	0	154	10	218031	3496325	11127
20	2017-12-26 13:24:26		0	0	0	0	0	0	6.34	3.91	0	285176	0	53	225200	285176	285123	11153	0	158	10	221604	3496322	11321
21	2017-12-26 13:45:40		0	0	0	0	0	0	6.65	3.92	0	296752	0	77	236479	296752	296675	11638	0	166	10	232416	3496318	11814
22	2017-12-26 13:56:28		0	0	0	0	0	0	6.75	3.93	0	301166	0	82	240175	301166	301084	11826	0	168	10	235985	3496321	12004
23	2017-12-26 14:08:26		0	0	0	0	0	0	6.81	3.93	0	305286	0	86	242502	305286	305200	11992	0	171	10	238232	3496318	12173
24	2017-12-26 14:18:33		0	0	0	0	0	0	6.88	3.93	0	309442	0	89	244479	309442	309353	12154	0	171	10	240438	3496316	12335
25	2017-12-26 14:32:49		0	0	0	0	0	0	6.96	3.93	0	313568	0	90	247543	313568	313478	12313	0	174	10	243400	3496310	12497
26	2017-12-26 14:50:25		0	0	0	0	0	0	7.12	3.91	0	323521	0	96	252681	323521	323425	12654	0	186	10	248766	3496317	12850
27	2017-12-26 15:08:10		0	0	0	0	0	0	7.24	3.9	0	329352	0	100	257197	329352	329252	12859	0	191	11	253307	3496320	13061
28	2017-12-26 15:21:11		0	0	0	0	0	0	7.32	3.91	0	334730	0	103	259721	334730	334627	13077	0	193	12	255924	3496323	13282
29	2017-12-26 15:32:56		0	0	0	0	0	0	7.39	3.91	0	338414	0	104	262073	338414	338310	13216	0	196	12	258207	3496325	13424
30	2017-12-26 15:43:19		0	0	0	0	0	0	7.44	3.9	0	342092	0	106	263932	342092	341986	13351	0	201	12	260012	3496329	13564
31	2017-12-26 15:59:51		0	0	0	0	0	0	7.54	3.89	0	347866	0	110	267640	347866	347757	13545	0	207	13	263609	3496332	13765
32	2017-12-26 16:11:06		0	0	0	0	0	0	7.65	3.9	0	352538	0	111	270727	352538	352427	13742	0	209	13	267341	3496332	13964
33	2017-12-26 16:24:19		0	0	0	0	0	0	7.68	3.9	0	355725	0	114	271910	355725	355611	13862	0	212	13	268494	3496330	14087
34	2017-12-26 16:36:41		0	0	0	0	0	0	7.79	3.89	0	360299	0	115	275994	360299	360184	14023	0	212	13	272475	3496327	14248
35	2017-12-26 16:47:17		0	0	0	0	0	0	7.89	3.89	0	363111	0	117	279494	363111	362994	14127	0	212	13	275886	3496327	14352
36	2017-12-26 17:03:41		0	0	0	0	0	0	7.95	3.89	0	367275	0	120	281527	367275	367155	14274	0	214	13	277867	3496326	14501
37	2017-12-26 17:15:28		0	0	0	0	0	0	8	3.88	0	370069	0	120	283687	370069	369949	14377	0	215	13	279769	3496323	14605
38	2017-12-26 17:25:02		0	0	0	0	0	0	8.09	3.88	0	374330	0	121	287054	374330	374209	14523	0	215	13	282939	3496322	14751
39	2017-12-26 17:35:41		0	0	0	0	0	0	8.17	3.88	0	377137	0	125	289824	377137	377012	14633	0	216	13	285630	3496321	14862
40	2017-12-26 17:46:48		0	0	0	0	0	0	8.25	3.88	0	380036	0	126	292442	380036	379910	14732	0	217	13	288333	3496324	14962
41	2017-12-26 17:57:31		0	0	0	0	0	0	8.28	3.88	0	382946	0	127	293676	382946	382819	14845	0	219	13	289533	3496322	15077
42	2017-12-26 18:08:50		0	0	0	0	0	0	8.35	3.87	0	385751	0	128	296006	385751	385623	14945	0	221	13	291797	3496319	15179
43	2017-12-26 18:20:24		0	0	0	0	0	0	8.4	3.86	0	389848	0	131	298284	389848	389717	15064	0	223	13	293791	3496319	15300
44	2017-12-26 18:30:28		0	0	0	0	0	0	8.47	3.86	0	392818	0	132	300630	392818	392686	15158	0	226	13	296010	3496324	15397
45	2017-12-26 18:41:52		0	0	0	0	0	0	8.5	3.86	0	395700	0	133	302295	395700	395567	15265	0	227	13	297174	3496326	15505
46	2017-12-26 18:55:21		0	0	0	0	0	0	8.54	3.87	0	398796	0	136	303652	398796	398660	15416	0	232	13	298485	3496334	15661
47	2017-12-26 19:05:45		0	0	0	0	0	0	8.64	3.85	0	403386	0	136	307473	403386	403250	15531	0	236	13	302177	3496333	15780
48	2017-12-26 19:23:02		0	0	0	0	0	0	8.74	3.85	0	408022	0	138	311738	408022	407884	15695	0	241	13	305569	3496332	15949
49	2017-12-26 19:31:15		0	0	0	0	0	0	8.81	3.85	0	411340	0	141	313815	411340	411199	15832	0	243	13	307993	3496331	16088
50	2017-12-26 19:41:54		0	0	0	0	0	0	8.84	3.85	0	414494	0	143	315092	414494	414351	15954	0	247	14	309224	3496330	16215
51	2017-12-26 19:54:55		0	0	0	0	0	0	8.89	3.84	0	417751	0	144	316704	417751	417607	16058	0	247	14	310776	3496331	16319
52	2017-12-26 20:21:55		0	0	0	0	0	0	8.98	3.84	0	426927	0	149	320295	426927	426778	16412	0	251	14	314010	3496326	16677
53	2017-12-26 20:36:06		0	0	0	0	0	0	9.07	3.84	0	431590	0	153	323652	431590	431437	16583	0	256	16	317235	3496321	16855
54	2017-12-26 20:48:35		0	0	0	0	0	0	9.2	3.84	0	434964	0	153	328128	434964	434811	16691	0	260	17	321802	3496317	16968
55	2017-12-26 21:02:49		0	0	0	0	0	0	9.39	3.83	0	439898	0	154	334427	439898	439744	16858	0	265	17	328415	3496320	17140
56	2017-12-26 21:11:06		0	0	0	0	0	0	9.45	3.83	0	443223	0	154	336699	443223	443069	16977	0	267	17	330253	3496321	17261
57	2017-12-26 21:22:01		0	0	0	0	0	0	9.46	3.83	0	446397	0	154	337286	446397	446243	17106	0	270	17	330818	3496324	17393
58	2017-12-26 21:34:12		0	0	0	0	0	0	9.47	3.83	0	449546	0	158	337801	449546	449388	17237	0	270	17	331242	3496326	17524
59	2017-12-26 21:45:30		0	0	0	0	0	0	9.66	3.83	0	452864	0	160	344563	452864	452704	17343	0	273	17	337742	3496318	17633
60	2017-12-26 21:55:41		0	0	0	0	0	0	9.79	3.83	0	457993	0	160	349186	457993	457833	17525	0	279	17	342182	3496319	17821
61	2017-12-26 22:07:42		0	0	0	0	0	0	9.85	3.82	0	461424	0	160	351495	461424	461264	17648	0	283	17	344399	3496314	17948
62	2017-12-26 22:19:39		0	0	0	0	0	0	9.88	3.82	0	464621	0	160	352576	464621	464461	17765	0	286	17	345436	3496316	18068
63	2017-12-26 22:30:44		0	0	0	0	0	0	9.97	3.82	0	469432	0	164	355460	469432	469268	17945	0	286	17	348518	3496319	18248
64	2017-12-26 22:41:51		0	0	0	0	0	0	10.01	3.82	0	472521	0	165	356862	472521	472356	18065	0	289	17	349866	3496317	18371
65	2017-12-26 23:09:51		0	0	0	0	0	0	10.09	3.83	0	480032	0	169	359546	480032	479865	18367	0	298	17	352766	3496317	18682
66	2017-12-26 23:21:58		0	0	0	0	0	0	10.16	3.83	0	484556	0	171	362163	484556	484385	18552	0	300	17	355285	3496309	18869
67	2017-12-26 23:40:24		0	0	0	0	0	0	10.29	3.83	0	490321	0	172	366948	490321	490149	18798	0	304	17	359890	3496314	19119
68	2017-12-26 23:51:12		0	0	0	0	0	0	10.36	3.84	0	492890	0	172	369345	492890	492718	18910	0	307	17	362195	3496316	19234
69	2017-12-27 00:14:27		0	0	0	0	0	0	10.41	3.84	0	497710	0	172	371238	497710	497538	19122	0	309	17	364015	3496316	19448
70	2017-12-27 01:19:52		0	0	0	0	0	0	10.69	3.84	0	511343	0	175	380552	511343	511168	19655	0	321	17	373776	3496298	19993
71	2017-12-27 02:45:11		0	0	0	0	0	0	10.83	3.84	0	520434	0	175	385371	520434	520259	20004	0	327	18	378702	3496294	20349
72	2017-12-27 03:47:23		0	0	0	0	0	0	10.91	3.85	0	523499	0	176	388295	523499	523323	20132	0	330	19	381525	3496293	20481
73	2017-12-27 05:01:15		0	0	0	0	0	0	10.94	3.85	0	525963	0	176	389173	525963	525787	20250	0	330	19	382373	3496284	20599
74	2017-12-27 06:29:31		0	0	0	0	0	0	11.06	3.86	0	529366	0	177	393201	529366	529189	20414	0	336	19	386646	3496276	20769
75	2017-12-27 07:24:41		0	0	0	0	0	0	11.11	3.86	0	532979	0	178	394943	532979	532801	20569	0	339	19	388331	3496281	20927
76	2017-12-27 07:45:31		0	0	0	0	0	0	11.14	3.86	0	534630	0	179	396207	534630	534451	20641	0	343	19	389552	3496279	21003
77	2017-12-27 08:18:49		0	0	0	0	0	0	11.19	3.87	0	538107	0	180	397807	538107	537927	20811	0	346	19	391099	3496282	21176
78	2017-12-27 08:29:45		0	0	0	0	0	0	11.22	3.87	0	539229	0	180	398986	539229	539049	20847	0	347	19	392239	3496282	21213
79	2017-12-27 09:12:00		0	0	0	0	0	0	11.37	3.87	0	544209	0	183	403979	544209	544027	21062	0	352	19	397496	3496295	21433
80	2017-12-27 10:12:06		0	0	0	0	0	0	11.41	3.88	0	548356	0	184	405460	548356	548172	21263	0	355	19	398930	3496303	21637
81	2017-12-27 10:20:07		0	0	0	0	0	0	11.44	3.88	0	550796	0	188	406685	550796	550608	21397	0	358	19	400116	3496303	21774
82	2017-12-27 10:51:47		0	0	0	0	0	0	11.44	3.89	0	551997	0	188	406685	551997	551809	21459	0	360	19	400116	3496296	21838
83	2017-12-27 11:17:35		0	0	0	0	0	0	11.47	3.89	0	552978	0	189	407752	552978	552789	21519	0	361	19	401149	3496300	21899
84	2017-12-27 11:56:05		0	0	0	0	0	0	11.47	3.89	0	553270	0	190	407752	553270	553080	21535	0	361	19	401149	3496300	21915
85	2017-12-27 12:06:40		0	0	0	0	0	0	11.48	3.89	0	554216	0	193	408129	554216	554023	21581	0	361	19	401513	3496299	21961
86	2017-12-27 13:36:31		0	0	0	0	0	0	11.51	3.9	0	556261	0	196	409552	556261	556065	21696	0	365	19	402498	3496320	22080
87	2017-12-27 14:28:39		0	0	0	0	0	0	11.52	3.9	0	556807	0	196	409762	556807	556611	21720	0	366	19	402701	3496325	22105
88	2017-12-27 15:25:44		0	0	0	0	0	0	11.53	3.9	0	558343	0	197	410196	558343	558146	21792	0	367	19	403120	3496337	22178
89	2017-12-27 16:00:12		0	0	0	0	0	0	11.53	3.9	0	558596	0	197	410196	558596	558399	21807	0	367	19	403120	3496354	22193
90	2017-12-27 16:26:31		0	0	0	0	0	0	11.53	3.9	0	559389	0	197	410196	559389	559192	21840	0	367	19	403120	3496366	22226
91	2017-12-27 17:43:27		0	0	0	0	0	0	11.57	3.9	0	560578	0	199	411696	560578	560379	21887	0	367	19	404568	3496376	22273
92	2017-12-27 17:53:59		0	0	0	0	0	0	11.6	3.91	0	560756	0	199	412738	560756	560557	21900	0	367	19	405575	3496376	22286
93	2017-12-27 18:04:31		0	0	0	0	0	0	11.6	3.91	0	560911	0	199	412738	560911	560712	21904	0	367	19	405575	3496386	22290
94	2017-12-27 18:15:04		0	0	0	0	0	0	11.6	3.91	0	561068	0	199	412738	561068	560869	21912	0	367	19	405575	3496400	22298
95	2017-12-27 18:25:43		0	0	0	0	0	0	11.6	3.91	0	561239	0	199	412738	561239	561040	21920	0	367	19	405575	3496403	22306
96	2017-12-27 18:36:16		0	0	0	0	0	0	11.6	3.91	0	561497	0	200	412849	561497	561297	21930	0	367	19	405681	3496411	22316
97	2017-12-27 18:46:48		0	0	0	0	0	0	11.62	3.91	0	561669	0	200	413372	561669	561469	21938	0	367	19	406187	3496411	22324
98	2017-12-27 18:57:21		0	0	0	0	0	0	11.62	3.91	0	561857	0	200	413372	561857	561657	21949	0	367	19	406187	3496415	22335
99	2017-12-27 19:07:49		0	0	0	0	0	0	11.64	3.91	0	562016	0	201	414146	562016	561815	21958	0	367	19	406934	3496422	22344
100	2017-12-27 19:18:21		0	0	0	0	0	0	11.64	3.91	0	562216	0	201	414146	562216	562015	21966	0	367	19	406934	3496432	22352
101	2017-12-27 19:28:54		0	0	0	0	0	0	11.64	3.91	0	562411	0	201	414146	562411	562210	21972	0	367	19	406934	3496436	22358
102	2017-12-27 19:39:26		0	0	0	0	0	0	11.64	3.91	0	562591	0	201	414146	562591	562390	21984	0	368	19	406934	3496433	22371
103	2017-12-27 19:50:00		0	0	0	0	0	0	11.64	3.91	0	562785	0	201	414146	562785	562584	21991	0	368	19	406934	3496430	22378
104	2017-12-27 20:00:30		0	0	0	0	0	0	11.64	3.91	0	562987	0	201	414146	562987	562786	21999	0	368	19	407148	3496441	22386
105	2017-12-27 20:11:03		0	0	0	0	0	0	11.64	3.91	0	563174	0	201	414146	563174	562973	22012	0	369	19	407148	3496445	22400
106	2017-12-27 20:21:36		0	0	0	0	0	0	11.64	3.91	0	563433	0	201	414146	563433	563232	22021	0	369	19	407148	3496451	22409
107	2017-12-27 20:32:09		0	0	0	0	0	0	11.64	3.91	0	563619	0	201	414146	563619	563418	22029	0	369	19	407148	3496470	22417
108	2017-12-27 20:42:39		0	0	0	0	0	0	11.65	3.91	0	563823	0	201	414174	563823	563622	22038	0	369	19	407175	3496480	22426
109	2017-12-27 20:53:13		0	0	0	0	0	0	11.65	3.91	0	564029	0	202	414174	564029	563827	22053	0	369	19	407175	3496490	22441
110	2017-12-27 21:03:44		0	0	0	0	0	0	11.65	3.91	0	564218	0	202	414174	564218	564016	22062	0	369	19	407175	3496501	22450
111	2017-12-27 21:14:17		0	0	0	0	0	0	11.66	3.91	0	564418	0	202	414618	564418	564216	22069	0	370	19	407604	3496506	22458
112	2017-12-27 21:24:49		0	0	0	0	0	0	11.66	3.91	0	564590	0	202	414715	564590	564388	22078	0	370	19	407698	3496525	22467
113	2017-12-27 21:35:24		0	0	0	0	0	0	11.66	3.91	0	564746	0	202	414715	564746	564544	22085	0	370	19	407698	3496540	22474
114	2017-12-27 21:45:57		0	0	0	0	0	0	11.66	3.91	0	564867	0	202	414715	564867	564665	22087	0	370	19	407698	3496550	22476
115	2017-12-27 21:56:28		0	0	0	0	0	0	11.66	3.91	0	565074	0	203	414715	565074	564871	22095	0	371	19	407698	3496567	22485
116	2017-12-27 22:07:07		0	0	0	0	0	0	11.66	3.91	0	565214	0	203	414715	565214	565011	22102	0	371	19	407698	3496578	22492
117	2017-12-27 22:17:32		0	0	0	0	0	0	11.66	3.91	0	565320	0	203	414715	565320	565117	22105	0	371	19	407698	3496593	22495
118	2017-12-27 22:28:01		0	0	0	0	0	0	11.66	3.91	0	565461	0	204	414715	565461	565257	22114	0	371	19	407698	3496611	22504
119	2017-12-27 22:38:32		0	0	0	0	0	0	11.67	3.91	0	565605	0	204	414937	565605	565401	22120	0	373	20	407913	3496632	22513
120	2017-12-27 22:49:07		0	0	0	0	0	0	11.67	3.91	0	565758	0	204	414937	565758	565554	22125	0	373	20	407913	3496642	22518
121	2017-12-27 22:49:51		0	0	0	0	0	0	11.67	3.91	0	565758	0	204	414937	565758	565554	22125	0	373	20	407913	3496644	22518
122	2017-12-27 23:00:21		0	0	0	0	0	0	11.67	3.91	0	565891	0	204	415160	565891	565687	22132	0	373	20	408128	3496656	22525
123	2017-12-27 23:10:53		0	0	0	0	0	0	11.67	3.91	0	566015	0	204	415160	566015	565811	22140	0	373	20	408128	3496670	22533
124	2017-12-27 23:21:22		0	0	0	0	0	0	11.67	3.91	0	566125	0	204	415160	566125	565921	22145	0	373	20	408128	3496676	22538
125	2017-12-27 23:31:54		0	0	0	0	0	0	11.68	3.91	0	566285	0	206	415605	566285	566079	22154	0	373	20	408559	3496686	22547
126	2017-12-27 23:42:27		0	0	0	0	0	0	11.69	3.91	0	566390	0	206	415717	566390	566184	22164	0	373	20	408666	3496702	22557
127	2017-12-27 23:53:00		0	0	0	0	0	0	11.69	3.91	0	566488	0	206	415717	566488	566282	22166	0	373	20	408666	3496713	22559
128	2017-12-28 00:03:23		0	0	0	0	0	0	11.69	3.91	0	566590	0	206	415743	566590	566384	22170	0	373	20	408692	3496719	22563
129	2017-12-28 00:13:53		0	0	0	0	0	0	11.69	3.91	0	566682	0	206	415743	566682	566476	22174	0	373	20	408692	3496723	22567
130	2017-12-28 00:24:22		0	0	0	0	0	0	11.69	3.91	0	566773	0	206	415743	566773	566567	22181	0	373	20	408692	3496722	22574
131	2017-12-28 00:34:53		0	0	0	0	0	0	11.69	3.91	0	566858	0	207	415743	566858	566651	22188	0	373	20	408692	3496729	22581
132	2017-12-28 00:45:22		0	0	0	0	0	0	11.69	3.91	0	566942	0	207	415911	566942	566735	22192	0	374	20	408854	3496729	22586
133	2017-12-28 00:55:52		0	0	0	0	0	0	11.7	3.91	0	567033	0	207	416246	567033	566826	22196	0	375	20	409178	3496736	22591
134	2017-12-28 01:36:00		0	0	0	0	0	0	11.71	3.91	0	567286	0	208	416694	567286	567078	22209	0	375	20	409611	3496753	22604
135	2017-12-28 02:40:52		0	0	0	0	0	0	11.71	3.92	0	567511	0	208	416694	567511	567303	22226	0	375	20	409611	3496775	22621
136	2017-12-28 03:45:53		0	0	0	0	0	0	11.71	3.92	0	567635	0	209	416694	567635	567426	22232	0	375	20	409611	3496786	22627
137	2017-12-28 04:50:53		0	0	0	0	0	0	11.71	3.92	0	567730	0	209	416694	567730	567521	22236	0	375	20	409611	3496793	22631
138	2017-12-28 05:55:52		0	0	0	0	0	0	11.72	3.92	0	567840	0	209	416799	567840	567631	22242	0	375	20	409712	3496808	22637
139	2017-12-28 07:00:53		0	0	0	0	0	0	11.72	3.92	0	567992	0	209	416799	567992	567783	22246	0	376	20	409712	3496819	22642
140	2017-12-28 08:05:53		0	0	0	0	0	0	11.72	3.92	0	568253	0	209	416968	568253	568044	22261	0	376	20	409875	3496842	22657
141	2017-12-28 08:16:23		0	0	0	0	0	0	11.72	3.92	0	568305	0	209	416968	568305	568096	22266	0	376	20	409875	3496849	22662
142	2017-12-28 08:26:54		0	0	0	0	0	0	11.72	3.92	0	568366	0	209	416968	568366	568157	22269	0	376	20	409875	3496863	22665
143	2017-12-28 08:37:25		0	0	0	0	0	0	11.72	3.92	0	568451	0	209	416982	568451	568242	22274	0	376	20	409889	3496872	22670
144	2017-12-28 08:47:56		0	0	0	0	0	0	11.72	3.92	0	568493	0	209	416982	568493	568284	22276	0	376	20	409889	3496877	22672
145	2017-12-28 08:58:23		0	0	0	0	0	0	11.72	3.92	0	568537	0	209	416982	568537	568328	22280	0	376	20	409889	3496890	22676
146	2017-12-28 09:08:54		0	0	0	0	0	0	11.72	3.92	0	568599	0	209	416982	568599	568390	22283	0	376	20	409889	3496895	22679
147	2017-12-28 09:19:23		0	0	0	0	0	0	11.72	3.92	0	568654	0	209	416982	568654	568445	22287	0	376	20	409889	3496901	22683
148	2017-12-28 09:29:52		0	0	0	0	0	0	11.72	3.92	0	568703	0	209	416982	568703	568494	22291	0	376	20	409889	3496928	22687
149	2017-12-28 09:59:21		0	0	0	0	0	0	11.77	3.92	0	568830	0	209	418673	568830	568621	22300	0	376	20	411523	3496947	22696
150	2017-12-28 10:09:47		0	0	0	0	0	0	11.77	3.92	0	568882	0	210	418673	568882	568672	22304	0	376	20	411523	3496963	22700
151	2017-12-28 10:20:19		0	0	0	0	0	0	11.77	3.92	0	568938	0	213	418673	568938	568725	22305	0	376	20	411523	3496983	22701
152	2017-12-28 10:30:50		0	0	0	0	0	0	11.77	3.92	0	568976	0	213	418673	568976	568763	22307	0	376	20	411523	3497002	22703
153	2017-12-28 10:41:43		0	0	0	0	0	0	11.77	3.92	0	569017	0	214	418673	569017	568803	22309	0	376	20	411523	3497020	22705
154	2017-12-28 10:51:51		0	0	0	0	0	0	11.77	3.92	0	569059	0	214	418673	569059	568845	22309	0	376	20	411523	3497032	22705
155	2017-12-28 11:02:17		0	0	0	0	0	0	11.77	3.92	0	569093	0	214	418673	569093	568879	22313	0	376	20	411523	3497037	22709
156	2017-12-28 11:12:47		0	0	0	0	0	0	11.77	3.92	0	569149	0	214	418673	569149	568935	22315	0	376	20	411523	3497050	22711
157	2017-12-28 11:23:14		0	0	0	0	0	0	11.77	3.92	0	569187	0	214	418673	569187	568973	22315	0	376	20	411523	3497065	22711
158	2017-12-28 11:33:48		0	0	0	0	0	0	11.77	3.92	0	569222	0	215	418673	569222	569007	22316	0	376	20	411523	3497104	22712
159	2017-12-28 11:44:16		0	0	0	0	0	0	11.77	3.92	0	569243	0	215	418673	569243	569028	22318	0	376	20	411523	3497119	22714
160	2017-12-28 11:54:46		0	0	0	0	0	0	11.77	3.92	0	569281	0	215	418673	569281	569066	22321	0	376	20	411523	3497149	22717
161	2017-12-28 12:05:38		0	0	0	0	0	0	11.77	3.92	0	569318	0	216	418673	569318	569102	22325	0	376	20	411523	3497167	22721
162	2017-12-28 12:15:59		0	0	0	0	0	0	11.77	3.92	0	569361	0	216	418673	569361	569145	22326	0	376	20	411523	3497184	22722
163	2017-12-28 12:26:38		0	0	0	0	0	0	11.77	3.92	0	569395	0	216	418673	569395	569179	22331	0	376	20	411523	3497210	22727
164	2017-12-28 12:37:04		0	0	0	0	0	0	11.77	3.92	0	569427	0	216	418673	569427	569211	22332	0	376	20	411523	3497235	22728
165	2017-12-28 12:47:27		0	0	0	0	0	0	11.77	3.92	0	569482	0	218	418787	569482	569264	22336	0	376	20	411632	3497259	22732
166	2017-12-28 12:57:53		0	0	0	0	0	0	11.77	3.92	0	569519	0	218	418787	569519	569301	22337	0	376	20	411632	3497285	22733
167	2017-12-28 13:08:21		0	0	0	0	0	0	11.77	3.92	0	569570	0	218	418787	569570	569352	22342	0	376	20	411632	3497303	22738
168	2017-12-28 13:19:52		0	0	0	0	0	0	11.77	3.92	0	569610	0	218	418787	569610	569392	22343	0	376	20	411632	3497332	22739
169	2017-12-28 13:29:17		0	0	0	0	0	0	11.77	3.92	0	569643	0	218	418787	569643	569425	22344	0	376	20	411632	3497355	22740
170	2017-12-28 13:40:03		0	0	0	0	0	0	11.77	3.92	0	569682	0	219	418815	569682	569463	22346	0	376	20	411660	3497400	22742
171	2017-12-28 13:50:18		0	0	0	0	0	0	11.77	3.92	0	569715	0	219	418815	569715	569496	22351	0	376	20	411660	3497425	22747
172	2017-12-28 14:00:52		0	0	0	0	0	0	11.77	3.92	0	569753	0	219	418815	569753	569534	22351	0	376	20	411660	3497449	22747
173	2017-12-28 14:11:35		0	0	0	0	0	0	11.77	3.92	0	569800	0	219	418815	569800	569581	22352	0	376	20	411660	3497476	22748
174	2017-12-28 14:21:47		0	0	0	0	0	0	11.77	3.92	0	569829	0	219	418815	569829	569610	22353	0	376	20	411660	3497505	22749
175	2017-12-28 14:32:18		0	0	0	0	0	0	11.77	3.92	0	569866	0	219	418815	569866	569647	22357	0	376	20	411660	3497530	22753
176	2017-12-28 14:43:59		0	0	0	0	0	0	11.77	3.92	0	569930	0	219	418815	569930	569711	22359	0	376	20	411660	3497558	22755
177	2017-12-28 14:53:18		0	0	0	0	0	0	11.77	3.92	0	569967	0	219	418815	569967	569748	22363	0	376	20	411660	3497568	22759
178	2017-12-28 15:03:51		0	0	0	0	0	0	11.77	3.92	0	570007	0	219	418815	570007	569788	22366	0	376	20	411660	3497592	22762
179	2017-12-28 15:14:18		0	0	0	0	0	0	11.77	3.92	0	570038	0	219	418815	570038	569819	22368	0	375	20	411660	3497616	22763
180	2017-12-28 15:24:59		0	0	0	0	0	0	11.77	3.92	0	570063	0	220	418815	570063	569843	22368	0	375	20	411660	3497631	22763
181	2017-12-28 15:35:17		0	0	0	0	0	0	11.77	3.92	0	570094	0	220	418815	570094	569874	22372	0	375	20	411660	3497646	22767
182	2017-12-28 15:58:47		0	0	0	0	0	0	11.77	3.92	0	570183	0	220	418815	570183	569963	22377	0	375	20	411660	3497683	22772
183	2017-12-28 16:09:15		0	0	0	0	0	0	11.77	3.92	0	570220	0	221	418815	570220	569999	22379	0	375	20	411660	3497709	22774
184	2017-12-28 16:19:47		0	0	0	0	0	0	11.77	3.92	0	570254	0	221	418815	570254	570033	22382	0	375	20	411660	3497727	22777
185	2017-12-28 16:30:17		0	0	0	0	0	0	11.77	3.92	0	570294	0	221	418815	570294	570073	22382	0	375	20	411660	3497746	22777
186	2017-12-28 16:40:48		0	0	0	0	0	0	11.77	3.92	0	570330	0	221	418872	570330	570109	22384	0	375	20	411660	3497772	22779
187	2017-12-28 16:51:14		0	0	0	0	0	0	11.77	3.93	0	570360	0	221	418872	570360	570139	22388	0	375	20	411660	3497795	22783
188	2017-12-28 17:01:48		0	0	0	0	0	0	11.77	3.93	0	570393	0	221	418872	570393	570172	22393	0	375	20	411660	3497816	22788
189	2017-12-28 17:12:18		0	0	0	0	0	0	11.77	3.93	0	570425	0	221	418872	570425	570204	22394	0	375	20	411660	3497830	22789
190	2017-12-28 17:22:45		0	0	0	0	0	0	11.77	3.93	0	570469	0	222	418872	570469	570247	22396	0	375	20	411660	3497860	22791
191	2017-12-28 17:33:15		0	0	0	0	0	0	11.77	3.93	0	570510	0	224	418872	570510	570286	22399	0	375	20	411660	3497882	22794
192	2017-12-28 17:43:45		0	0	0	0	0	0	11.77	3.93	0	570550	0	224	418872	570550	570326	22401	0	376	20	411660	3497906	22797
193	2017-12-28 17:54:17		0	0	0	0	0	0	11.77	3.93	0	570589	0	224	418872	570589	570365	22402	0	376	20	411660	3497922	22798
194	2017-12-28 18:20:16		0	0	0	0	0	0	11.77	3.93	0	570674	0	224	418872	570674	570450	22406	0	376	20	411660	3497960	22802
195	2017-12-28 18:30:48		0	0	0	0	0	0	11.77	3.93	0	570709	0	224	418872	570709	570485	22407	0	376	20	411660	3497979	22803
196	2017-12-28 18:40:40		0	0	0	0	0	0	11.77	3.93	0	570753	0	224	418872	570753	570529	22409	0	376	20	411660	3498001	22805
197	2017-12-28 18:51:01		0	0	0	0	0	0	11.77	3.93	0	570799	0	225	418872	570799	570574	22412	0	376	20	411660	3498021	22808
198	2017-12-28 19:01:29		0	0	0	0	0	0	11.79	3.93	0	570847	0	225	419666	570847	570622	22413	0	376	20	412428	3498034	22809
199	2017-12-28 19:11:59		0	0	0	0	0	0	11.79	3.93	0	570885	0	225	419666	570885	570660	22413	0	376	20	412428	3498054	22809
200	2017-12-28 19:22:30		0	0	0	0	0	0	11.79	3.93	0	570921	0	225	419666	570921	570696	22415	0	376	20	412428	3498074	22811
201	2017-12-28 19:32:59		0	0	0	0	0	0	11.79	3.93	0	570993	0	225	419666	570993	570768	22417	0	376	20	412428	3498086	22813
202	2017-12-28 19:43:29		0	0	0	0	0	0	11.79	3.93	0	571039	0	225	419666	571039	570814	22418	0	376	20	412428	3498110	22814
203	2017-12-28 19:54:00		0	0	0	0	0	0	11.79	3.93	0	571101	0	225	419666	571101	570876	22421	0	376	20	412428	3498128	22817
204	2017-12-28 20:04:31		0	0	0	0	0	0	11.79	3.93	0	571145	0	225	419666	571145	570920	22421	0	376	20	412428	3498146	22817
205	2017-12-28 20:15:02		0	0	0	0	0	0	11.79	3.93	0	571190	0	227	419666	571190	570963	22421	0	376	20	412428	3498165	22817
206	2017-12-28 20:25:32		0	0	0	0	0	0	11.81	3.93	0	571243	0	227	420464	571243	571016	22422	0	376	20	413198	3498178	22818
207	2017-12-28 20:36:05		0	0	0	0	0	0	11.81	3.92	0	571296	0	227	420464	571296	571069	22423	0	376	20	413198	3498194	22819
208	2017-12-28 20:50:47		0	0	0	0	0	0	11.83	3.92	0	571387	0	228	421265	571387	571159	22426	0	376	20	413971	3498230	22822
209	2017-12-28 21:01:24		0	0	0	0	0	0	11.83	3.93	0	571445	0	228	421265	571445	571217	22431	0	376	20	413971	3498245	22827
210	2017-12-28 21:11:45		0	0	0	0	0	0	11.83	3.93	0	571512	0	228	421265	571512	571284	22432	0	376	20	413971	3498264	22828
211	2017-12-28 21:22:12		0	0	0	0	0	0	11.83	3.93	0	571571	0	228	421265	571571	571343	22437	0	376	20	413971	3498290	22833
212	2017-12-28 21:32:43		0	0	0	0	0	0	11.84	3.93	0	571632	0	228	421351	571632	571404	22437	0	376	20	414054	3498319	22833
213	2017-12-28 21:43:23		0	0	0	0	0	0	11.84	3.92	0	571732	0	228	421351	571732	571504	22438	0	376	20	414054	3498337	22834
214	2017-12-28 21:53:43		0	0	0	0	0	0	11.84	3.92	0	571784	0	228	421351	571784	571556	22439	0	376	20	414054	3498361	22835
215	2017-12-28 22:04:14		0	0	0	0	0	0	11.84	3.93	0	571841	0	228	421351	571841	571613	22446	0	376	20	414054	3498379	22842
216	2017-12-28 22:15:02		0	0	0	0	0	0	11.84	3.92	0	571900	0	228	421351	571900	571672	22447	0	376	20	414054	3498393	22843
217	2017-12-28 22:25:35		0	0	0	0	0	0	11.84	3.93	0	571964	0	228	421351	571964	571736	22450	0	376	20	414054	3498415	22846
218	2017-12-28 22:35:47		0	0	0	0	0	0	11.84	3.93	0	572026	0	228	421351	572026	571798	22453	0	376	20	414054	3498453	22849
219	2017-12-28 22:46:30		0	0	0	0	0	0	11.84	3.93	0	572084	0	228	421351	572084	571856	22460	0	377	20	414054	3498478	22857
220	2017-12-28 22:57:07		0	0	0	0	0	0	11.85	3.93	0	572143	0	228	421810	572143	571915	22462	0	377	20	414498	3498520	22859
221	2017-12-28 23:07:31		0	0	0	0	0	0	11.85	3.93	0	572191	0	228	421810	572191	571963	22466	0	377	20	414498	3498553	22863
222	2017-12-28 23:10:10		0	0	0	0	0	0	11.85	3.93	0	572222	0	228	421810	572222	571994	22467	0	377	20	414498	3498558	22864
223	2017-12-28 23:20:27		0	0	0	0	0	0	11.85	3.93	0	572283	0	228	421810	572283	572055	22469	0	377	20	414498	3498584	22866
224	2017-12-28 23:31:00		0	0	0	0	0	0	11.85	3.93	0	572338	0	229	421810	572338	572109	22472	0	377	20	414498	3498608	22869
225	2017-12-28 23:41:32		0	0	0	0	0	0	11.85	3.93	0	572397	0	229	421810	572397	572168	22475	0	377	20	414498	3498634	22872
226	2017-12-28 23:51:57		0	0	0	0	0	0	11.85	3.93	0	572439	0	229	421810	572439	572210	22477	0	377	20	414498	3498648	22874
227	2017-12-29 00:02:26		0	0	0	0	0	0	11.85	3.93	0	572487	0	230	421810	572487	572257	22478	0	377	20	414498	3498669	22875
228	2017-12-29 00:12:58		0	0	0	0	0	0	11.85	3.93	0	572540	0	230	421810	572540	572310	22482	0	377	20	414498	3498689	22879
229	2017-12-29 00:23:28		0	0	0	0	0	0	11.85	3.93	0	572604	0	230	421810	572604	572374	22486	0	378	20	414498	3498704	22884
230	2017-12-29 00:33:58		0	0	0	0	0	0	11.85	3.93	0	572646	0	230	421810	572646	572416	22490	0	379	20	414498	3498718	22889
231	2017-12-29 00:44:28		0	0	0	0	0	0	11.85	3.93	0	572676	0	230	421810	572676	572446	22491	0	379	20	414498	3498732	22890
232	2017-12-29 00:54:57		0	0	0	0	0	0	11.85	3.93	0	572715	0	230	421810	572715	572485	22492	0	379	20	414498	3498752	22891
233	2017-12-29 01:22:30		0	0	0	0	0	0	11.85	3.93	0	572805	0	230	421810	572805	572575	22504	0	379	20	414498	3498788	22903
234	2017-12-29 02:27:28		0	0	0	0	0	0	11.85	3.93	0	572929	0	230	421810	572929	572699	22512	0	379	20	414498	3498835	22911
235	2017-12-29 03:32:28		0	0	0	0	0	0	11.86	3.93	0	573003	0	230	422271	573003	572773	22514	0	380	20	414942	3498870	22914
236	2017-12-29 04:37:30		0	0	0	0	0	0	11.86	3.93	0	573055	0	230	422271	573055	572825	22517	0	380	20	414942	3498884	22917
237	2017-12-29 05:42:28		0	0	0	0	0	0	11.86	3.93	0	573114	0	230	422271	573114	572884	22518	0	380	20	414942	3498897	22918
238	2017-12-29 06:47:28		0	0	0	0	0	0	11.86	3.93	0	573197	0	230	422271	573197	572967	22519	0	380	20	414942	3498908	22919
239	2017-12-29 07:52:29		0	0	0	0	0	0	11.86	3.93	0	573362	0	230	422271	573362	573132	22527	0	380	20	414942	3498934	22927
240	2017-12-29 08:15:32		0	0	0	0	0	0	11.86	3.93	0	573449	0	230	422271	573449	573219	22532	0	380	20	414942	3498953	22932
241	2017-12-29 08:26:01		0	0	0	0	0	0	11.86	3.93	0	573478	0	230	422271	573478	573248	22539	0	380	20	414942	3498956	22939
242	2017-12-29 08:36:28		0	0	0	0	0	0	11.86	3.93	0	573514	0	230	422271	573514	573284	22542	0	380	20	414942	3498968	22942
243	2017-12-29 08:46:58		0	0	0	0	0	0	11.86	3.93	0	573543	0	230	422271	573543	573313	22542	0	380	20	414942	3498978	22942
244	2017-12-29 08:57:28		0	0	0	0	0	0	11.86	3.93	0	573566	0	230	422271	573566	573336	22544	0	380	20	414942	3498988	22944
245	2017-12-29 09:07:58		0	0	0	0	0	0	11.86	3.93	0	573615	0	230	422271	573615	573385	22547	0	380	20	414942	3499004	22947
246	2017-12-29 09:18:27		0	0	0	0	0	0	11.86	3.93	0	573641	0	230	422271	573641	573411	22549	0	380	20	414942	3499015	22949
