1	2017-07-19 11:28:25		0	0	0	0	0	0	0.33	0.77	0	12035	0	12	10775	12035	12023	93	18	32	4	10708	3214375	147
2	2017-07-19 11:38:17		0	0	0	0	0	0	0.55	1.2	0.01	20766	0	170	17908	20766	20680	250	32	88	7	17761	3214378	377
3	2017-07-19 11:48:17		0	0	0	0	0	0	0.86	1.64	0.01	33462	0	273	28012	33462	33189	549	46	130	9	27557	3214384	734
4	2017-07-19 11:58:19		0	0	0	0	0	0	1.09	1.84	0.01	43483	0	493	35985	43483	42990	800	56	149	9	34971	3214394	1014
5	2017-07-19 12:08:17		0	0	0	0	0	0	1.25	1.97	0.01	51118	0	686	41588	51118	50432	1008	62	161	9	40295	3214399	1240
6	2017-07-19 12:18:23		0	0	0	0	0	0	1.42	2.02	0.02	57548	0	940	46942	57548	56695	1163	70	176	9	45694	3214403	1418
7	2017-07-19 12:28:16		0	0	0	0	0	0	1.52	2.05	0.02	63426	0	1043	50494	63426	62383	1302	76	192	9	48973	3214414	1579
8	2017-07-19 12:38:16		0	0	0	0	0	0	1.62	2.07	0.02	68602	0	1260	53667	68602	67342	1422	86	201	9	52048	3214420	1718
9	2017-07-19 12:48:17		0	0	0	0	0	0	1.7	2.1	0.02	73175	0	1422	56693	73175	71753	1540	90	207	10	54708	3214429	1847
10	2017-07-19 12:58:16		0	0	0	0	0	0	1.8	2.13	0.02	77477	0	1588	60086	77477	75889	1648	92	219	11	57874	3214436	1970
11	2017-07-19 13:08:16		0	0	0	0	0	0	1.88	2.12	0.02	81820	0	1781	62847	81820	80101	1732	96	224	12	60414	3214444	2064
12	2017-07-19 13:18:16		0	0	0	0	0	0	2	2.12	0.02	85932	0	1849	67133	85932	84083	1825	102	238	13	64443	3214450	2178
13	2017-07-19 13:28:17		0	0	0	0	0	0	2.07	2.14	0.02	89173	0	2004	69330	89173	87169	1911	106	243	13	66528	3214454	2273
14	2017-07-19 13:38:17		0	0	0	0	0	0	2.16	2.14	0.02	92154	0	2153	72120	92154	90001	1976	110	253	15	69414	3214457	2354
15	2017-07-19 13:48:17		0	0	0	0	0	0	2.22	2.16	0.02	95242	0	2256	74494	95242	92986	2055	110	261	15	71280	3214456	2441
16	2017-07-19 13:58:17		0	0	0	0	0	0	2.28	2.17	0.02	98158	0	2387	76369	98158	95771	2127	114	270	16	73298	3214466	2527
17	2017-07-19 14:08:17		0	0	0	0	0	0	2.35	2.17	0.03	100956	0	2544	78577	100956	98412	2192	120	281	17	75389	3214474	2610
18	2017-07-19 14:18:16		0	0	0	0	0	0	2.39	2.16	0.03	103849	0	2663	80281	103849	101186	2248	126	286	17	76888	3214480	2677
19	2017-07-19 14:28:16		0	0	0	0	0	0	2.48	2.16	0.03	106949	0	2764	83251	106949	104185	2313	134	296	17	79854	3214487	2760
20	2017-07-19 14:38:18		0	0	0	0	0	0	2.56	2.16	0.03	110006	0	2880	85881	110006	107126	2378	138	299	17	82384	3214486	2832
21	2017-07-19 14:48:18		0	0	0	0	0	0	2.61	2.16	0.03	112913	0	2974	87406	112913	109939	2441	138	303	17	83786	3214486	2899
22	2017-07-19 14:58:17		0	0	0	0	0	0	2.66	2.17	0.03	115864	0	3081	89297	115864	112783	2515	140	310	17	85617	3214492	2982
23	2017-07-19 15:08:17		0	0	0	0	0	0	2.71	2.17	0.03	118424	0	3168	90803	118424	115256	2575	140	314	17	87226	3214500	3046
24	2017-07-19 15:18:17		0	0	0	0	0	0	2.79	2.17	0.03	120885	0	3251	93062	120885	117634	2626	142	322	18	89546	3214512	3108
25	2017-07-19 15:28:17		0	0	0	0	0	0	2.83	2.18	0.03	123478	0	3354	94643	123478	120124	2697	146	329	18	90924	3214522	3190
26	2017-07-19 15:38:18		0	0	0	0	0	0	2.87	2.19	0.03	125525	0	3457	96069	125525	122068	2746	148	337	18	92327	3214526	3249
27	2017-07-19 15:48:17		0	0	0	0	0	0	2.91	2.19	0.03	127461	0	3543	97318	127461	123918	2788	148	346	18	93480	3214536	3300
28	2017-07-19 15:58:17		0	0	0	0	0	0	2.95	2.19	0.03	129334	0	3638	98582	129334	125696	2836	150	351	18	94924	3214542	3355
29	2017-07-19 16:08:17		0	0	0	0	0	0	3	2.18	0.03	131495	0	3746	100213	131495	127749	2870	150	356	19	96388	3214561	3395
30	2017-07-19 16:18:17		0	0	0	0	0	0	3.03	2.19	0.03	133885	0	3854	101432	133885	130031	2931	158	365	19	97407	3214573	3473
31	2017-07-19 16:28:18		0	0	0	0	0	0	3.07	2.19	0.03	136316	0	3965	102871	136316	132351	2982	162	372	19	98658	3214582	3535
32	2017-07-19 16:38:17		0	0	0	0	0	0	3.09	2.18	0.03	138813	0	4081	103621	138813	134732	3026	164	376	19	99348	3214585	3585
33	2017-07-19 16:48:17		0	0	0	0	0	0	3.16	2.18	0.03	141117	0	4166	105812	141117	136951	3075	166	382	19	101466	3214599	3642
34	2017-07-19 16:58:18		0	0	0	0	0	0	3.2	2.17	0.03	143405	0	4250	106922	143405	139155	3114	170	383	19	102786	3214611	3686
35	2017-07-19 17:08:18		0	0	0	0	0	0	3.23	2.16	0.03	145476	0	4350	107729	145476	141126	3149	174	384	20	103841	3214624	3727
36	2017-07-19 17:18:17		0	0	0	0	0	0	3.27	2.17	0.03	147448	0	4437	108986	147448	143011	3193	180	395	20	105008	3214637	3788
37	2017-07-19 17:28:17		0	0	0	0	0	0	3.3	2.16	0.03	149430	0	4564	109629	149430	144866	3226	184	398	20	105959	3214655	3828
38	2017-07-19 17:38:20		0	0	0	0	0	0	3.32	2.16	0.03	151045	0	4673	110972	151045	146372	3260	184	399	20	106593	3214668	3863
39	2017-07-19 17:48:18		0	0	0	0	0	0	3.36	2.16	0.03	152494	0	4740	112382	152494	147754	3295	190	401	20	108104	3214673	3906
40	2017-07-19 17:58:18		0	0	0	0	0	0	3.4	2.16	0.03	154512	0	4856	113683	154512	149656	3331	192	407	20	109307	3214677	3950
41	2017-07-19 18:08:20		0	0	0	0	0	0	3.44	2.15	0.03	156505	0	4948	114901	156505	151557	3371	198	410	20	110607	3214683	3999
42	2017-07-19 18:18:18		0	0	0	0	0	0	3.48	2.15	0.03	158399	0	5066	116614	158399	153333	3409	198	416	20	111877	3214695	4043
43	2017-07-19 18:28:19		0	0	0	0	0	0	3.5	2.15	0.03	160047	0	5195	117487	160047	154852	3448	200	417	20	112631	3214711	4085
44	2017-07-19 18:38:19		0	0	0	0	0	0	3.52	2.15	0.03	161473	0	5287	117871	161473	156186	3476	200	422	20	113182	3214721	4118
45	2017-07-19 18:48:18		0	0	0	0	0	0	3.55	2.16	0.03	162518	0	5364	119017	162518	157154	3511	202	424	21	114104	3214736	4158
46	2017-07-19 18:58:19		0	0	0	0	0	0	3.56	2.16	0.03	163673	0	5454	119550	163673	158219	3539	208	427	22	114568	3214752	4196
47	2017-07-19 19:08:21		0	0	0	0	0	0	3.57	2.16	0.03	164734	0	5556	120429	164734	159178	3561	210	432	22	114861	3214772	4225
48	2017-07-19 19:18:19		0	0	0	0	0	0	3.58	2.16	0.04	165767	0	5645	120626	165767	160122	3585	212	433	22	115041	3214792	4252
49	2017-07-19 19:28:23		0	0	0	0	0	0	3.59	2.16	0.04	166765	0	5727	120965	166765	161038	3599	214	437	22	115315	3214811	4272
50	2017-07-19 19:38:19		0	0	0	0	0	0	3.6	2.16	0.04	167834	0	5808	121487	167834	162026	3627	216	439	22	115789	3214816	4304
51	2017-07-19 19:48:34		0	0	0	0	0	0	3.62	2.16	0.04	168833	0	5878	122279	168833	162955	3642	216	443	22	116508	3214820	4323
52	2017-07-19 19:58:19		0	0	0	0	0	0	3.64	2.15	0.04	169883	0	5951	122754	169883	163932	3651	216	444	22	117152	3214842	4333
53	2017-07-19 20:08:23		0	0	0	0	0	0	3.67	2.15	0.04	170948	0	6021	123572	170948	164927	3671	218	445	22	117968	3214845	4356
54	2017-07-19 20:18:20		0	0	0	0	0	0	3.7	2.14	0.04	171870	0	6091	124526	171870	165779	3685	216	448	22	118947	3214851	4371
55	2017-07-19 20:28:21		0	0	0	0	0	0	3.72	2.14	0.04	172796	0	6149	125089	172796	166647	3694	218	450	22	119461	3214861	4384
56	2017-07-19 20:38:20		0	0	0	0	0	0	3.74	2.13	0.04	173766	0	6217	125906	173766	167549	3709	222	450	22	120206	3214865	4403
57	2017-07-19 20:48:21		0	0	0	0	0	0	3.75	2.13	0.04	174788	0	6298	126337	174788	168490	3726	224	453	23	120571	3214875	4426
58	2017-07-19 20:58:20		0	0	0	0	0	0	3.77	2.13	0.04	175893	0	6365	126974	175893	169528	3743	226	454	23	121245	3214885	4446
59	2017-07-19 21:08:22		0	0	0	0	0	0	3.8	2.12	0.04	176903	0	6436	128039	176903	170467	3759	228	460	23	122139	3214893	4470
60	2017-07-19 21:18:20		0	0	0	0	0	0	3.81	2.12	0.04	177993	0	6520	128560	177993	171473	3781	230	469	23	122613	3214907	4503
61	2017-07-19 21:28:19		0	0	0	0	0	0	3.84	2.12	0.04	179141	0	6608	130050	179141	172533	3800	232	471	23	123611	3214912	4526
62	2017-07-19 21:38:22		0	0	0	0	0	0	3.86	2.12	0.04	180327	0	6695	130509	180327	173632	3824	234	476	23	124165	3214925	4557
63	2017-07-19 21:48:20		0	0	0	0	0	0	3.9	2.12	0.04	181509	0	6791	131910	181509	174718	3843	234	480	23	125392	3214935	4580
64	2017-07-19 21:58:32		0	0	0	0	0	0	3.94	2.11	0.04	182719	0	6882	133179	182719	175837	3856	234	482	24	126538	3214940	4596
65	2017-07-19 22:08:40		0	0	0	0	0	0	3.94	2.11	0.04	183871	0	6950	133610	183871	176921	3879	236	483	24	126802	3214954	4622
66	2017-07-19 22:18:32		0	0	0	0	0	0	3.96	2.1	0.04	185026	0	7035	134120	185026	177991	3889	242	486	24	127303	3214959	4641
67	2017-07-19 22:28:40		0	0	0	0	0	0	3.97	2.1	0.04	186241	0	7130	134656	186241	179111	3902	244	490	24	127786	3214966	4660
68	2017-07-19 22:38:32		0	0	0	0	0	0	4.01	2.09	0.04	187396	0	7200	136112	187396	180196	3922	244	495	24	129065	3214981	4685
69	2017-07-19 22:48:32		0	0	0	0	0	0	4.04	2.09	0.04	188609	0	7276	136676	188609	181333	3940	244	498	24	129745	3214986	4706
70	2017-07-19 22:58:47		0	0	0	0	0	0	4.06	2.09	0.04	189828	0	7347	137501	189828	182481	3958	244	499	24	130488	3214995	4725
71	2017-07-19 23:08:35		0	0	0	0	0	0	4.08	2.08	0.04	191046	0	7399	138250	191046	183647	3975	246	501	24	131162	3215009	4746
72	2017-07-19 23:18:37		0	0	0	0	0	0	4.1	2.08	0.04	192132	0	7470	138969	192132	184662	3999	250	503	24	131810	3215014	4776
73	2017-07-19 23:28:39		0	0	0	0	0	0	4.1	2.08	0.04	193175	0	7523	139063	193175	185652	4023	250	506	24	131894	3215025	4803
74	2017-07-19 23:38:36		0	0	0	0	0	0	4.12	2.08	0.04	194266	0	7586	139777	194266	186680	4035	250	509	24	132536	3215030	4818
75	2017-07-19 23:50:14		0	0	0	0	0	0	4.17	2.07	0.04	195859	0	7704	140762	195859	188155	4061	256	512	24	133929	3215036	4853
76	2017-07-20 00:00:13		0	0	0	0	0	0	4.18	2.07	0.04	196806	0	7745	141089	196806	189061	4082	256	513	24	134307	3215043	4875
77	2017-07-20 01:00:43		0	0	0	0	0	0	4.28	2.06	0.04	201417	0	7969	144797	201417	193448	4153	260	524	24	137724	3215095	4961
78	2017-07-20 02:00:33		0	0	0	0	0	0	4.36	2.06	0.04	203721	0	8081	147553	203721	195640	4189	262	528	24	140177	3215123	5003
79	2017-07-20 03:00:38		0	0	0	0	0	0	4.37	2.05	0.04	204995	0	8135	148005	204995	196860	4201	262	531	24	140585	3215137	5018
80	2017-07-20 04:00:41		0	0	0	0	0	0	4.39	2.05	0.04	205766	0	8175	148423	205766	197591	4209	264	532	25	141014	3215124	5030
81	2017-07-20 05:00:54		0	0	0	0	0	0	4.39	2.04	0.04	206399	0	8206	148673	206399	198193	4218	266	534	25	141239	3215118	5043
82	2017-07-20 06:02:15		0	0	0	0	0	0	4.42	2.04	0.04	207174	0	8259	149563	207174	198915	4234	268	535	25	142042	3215124	5062
83	2017-07-20 07:02:57		0	0	0	0	0	0	4.44	2.04	0.04	208502	0	8346	150428	208502	200156	4250	268	537	25	142822	3215124	5080
84	2017-07-20 07:12:51		0	0	0	0	0	0	4.45	2.04	0.04	208778	0	8363	150600	208778	200415	4256	270	537	25	142977	3215128	5088
85	2017-07-20 07:23:46		0	0	0	0	0	0	4.45	2.04	0.04	209106	0	8384	150600	209106	200722	4260	270	538	25	142977	3215128	5093
86	2017-07-20 07:54:39		0	0	0	0	0	0	4.47	2.04	0.04	210381	0	8471	151401	210381	201910	4282	272	541	25	143699	3215137	5120
87	2017-07-20 08:17:52		0	0	0	0	0	0	4.5	2.03	0.04	211621	0	8575	152715	211621	203046	4305	274	542	25	144666	3215142	5146
88	2017-07-20 08:39:20		0	0	0	0	0	0	4.52	2.03	0.04	212582	0	8655	153502	212582	203927	4322	274	544	25	145372	3215138	5165
89	2017-07-20 08:48:26		0	0	0	0	0	0	4.53	2.03	0.04	213108	0	8703	153746	213108	204405	4336	274	545	25	145591	3215138	5180
90	2017-07-20 08:58:21		0	0	0	0	0	0	4.53	2.03	0.04	213631	0	8728	153776	213631	204903	4346	274	545	25	145618	3215135	5190
91	2017-07-20 09:08:35		0	0	0	0	0	0	4.53	2.03	0.04	214069	0	8755	153807	214069	205314	4350	274	546	25	145645	3215134	5195
92	2017-07-20 09:22:16		0	0	0	0	0	0	4.54	2.03	0.04	214781	0	8808	154490	214781	205973	4363	274	546	25	146064	3215134	5208
93	2017-07-20 09:48:17		0	0	0	0	0	0	4.58	2.04	0.04	215990	0	8896	155765	215990	207094	4398	274	549	25	147147	3215137	5246
94	2017-07-20 09:56:37		0	0	0	0	0	0	4.59	2.04	0.04	216439	0	8937	156299	216439	207502	4409	276	550	26	147624	3215139	5261
95	2017-07-20 10:06:47		0	0	0	0	0	0	4.6	2.04	0.04	216920	0	8972	156600	216920	207948	4415	276	551	26	147998	3215149	5268
96	2017-07-20 10:20:39		0	0	0	0	0	0	4.61	2.03	0.04	217519	0	9020	156786	217519	208499	4424	282	553	26	148165	3215156	5285
97	2017-07-20 10:52:03		0	0	0	0	0	0	4.63	2.03	0.04	218528	0	9111	157608	218528	209417	4444	282	553	27	148899	3215176	5306
98	2017-07-20 10:58:20		0	0	0	0	0	0	4.64	2.03	0.04	218732	0	9128	157769	218732	209604	4446	282	553	27	149042	3215180	5308
99	2017-07-20 11:08:17		0	0	0	0	0	0	4.64	2.03	0.04	219073	0	9165	157897	219073	209908	4453	286	555	27	149157	3215186	5321
100	2017-07-20 11:18:19		0	0	0	0	0	0	4.64	2.03	0.04	219439	0	9206	158042	219439	210233	4465	286	555	27	149286	3215186	5333
101	2017-07-20 11:28:18		0	0	0	0	0	0	4.65	2.03	0.04	219811	0	9233	158317	219811	210578	4472	286	555	28	149531	3215192	5341
102	2017-07-20 11:38:18		0	0	0	0	0	0	4.66	2.03	0.04	220148	0	9267	158560	220148	210881	4478	286	558	28	149690	3215200	5350
103	2017-07-20 11:48:19		0	0	0	0	0	0	4.66	2.04	0.04	220472	0	9299	158722	220472	211173	4487	286	559	28	149748	3215206	5360
104	2017-07-20 11:58:19		0	0	0	0	0	0	4.66	2.04	0.04	220767	0	9330	158755	220767	211437	4493	286	561	28	149777	3215208	5368
105	2017-07-20 12:08:19		0	0	0	0	0	0	4.67	2.03	0.04	221049	0	9357	158982	221049	211692	4498	286	561	28	150067	3215215	5373
106	2017-07-20 12:18:19		0	0	0	0	0	0	4.67	2.03	0.04	221343	0	9383	158982	221343	211960	4504	286	563	28	150096	3215219	5381
107	2017-07-20 12:28:19		0	0	0	0	0	0	4.67	2.03	0.04	221655	0	9408	159203	221655	212247	4507	286	565	28	150293	3215220	5386
108	2017-07-20 12:38:19		0	0	0	0	0	0	4.67	2.03	0.04	221915	0	9436	159203	221915	212479	4512	286	567	28	150293	3215224	5393
109	2017-07-20 12:48:18		0	0	0	0	0	0	4.69	2.03	0.04	222174	0	9457	159496	222174	212717	4515	286	568	28	150671	3215230	5397
110	2017-07-20 12:48:50		0	0	0	0	0	0	4.69	2.03	0.04	222174	0	9457	159496	222174	212717	4515	286	568	28	150671	3215229	5397
111	2017-07-20 12:58:49		0	0	0	0	0	0	4.69	2.03	0.04	222401	0	9469	159496	222401	212932	4521	288	570	28	150671	3215239	5407
112	2017-07-20 13:08:49		0	0	0	0	0	0	4.69	2.03	0.04	222653	0	9510	159558	222653	213143	4527	288	570	28	150700	3215242	5413
113	2017-07-20 13:18:52		0	0	0	0	0	0	4.69	2.03	0.04	222855	0	9526	159558	222855	213329	4529	288	570	28	150700	3215242	5415
114	2017-07-20 13:28:50		0	0	0	0	0	0	4.69	2.03	0.04	223094	0	9550	159558	223094	213544	4532	288	570	28	150700	3215244	5418
115	2017-07-20 13:38:49		0	0	0	0	0	0	4.69	2.03	0.04	223296	0	9566	159607	223296	213730	4537	288	570	28	150744	3215245	5423
116	2017-07-20 13:48:50		0	0	0	0	0	0	4.69	2.03	0.04	223518	0	9583	159607	223518	213935	4539	288	572	28	150744	3215247	5427
117	2017-07-20 13:58:49		0	0	0	0	0	0	4.69	2.03	0.04	223744	0	9601	159854	223744	214143	4541	290	573	28	150855	3215253	5432
118	2017-07-20 14:08:49		0	0	0	0	0	0	4.69	2.03	0.04	223848	0	9625	159854	223848	214223	4544	290	573	28	150855	3215257	5435
119	2017-07-20 14:18:49		0	0	0	0	0	0	4.69	2.03	0.04	223956	0	9639	159953	223956	214317	4546	290	573	28	150943	3215258	5437
120	2017-07-20 14:20:51		0	0	0	0	0	0	4.69	2.03	0.04	223956	0	9639	159953	223956	214317	4546	290	573	28	150943	3215259	5437
121	2017-07-20 14:30:50		0	0	0	0	0	0	4.69	2.03	0.05	224097	0	9661	159953	224097	214436	4548	290	573	28	150943	3215266	5439
122	2017-07-20 14:40:51		0	0	0	0	0	0	4.7	2.03	0.05	224213	0	9678	160053	224213	214535	4551	290	575	28	151031	3215272	5444
123	2017-07-20 14:50:52		0	0	0	0	0	0	4.7	2.03	0.05	224309	0	9693	160185	224309	214616	4552	290	575	28	151149	3215270	5445
124	2017-07-20 15:00:53		0	0	0	0	0	0	4.7	2.03	0.05	224395	0	9709	160185	224395	214686	4556	290	575	28	151149	3215277	5449
125	2017-07-20 15:10:51		0	0	0	0	0	0	4.7	2.03	0.05	224504	0	9726	160185	224504	214778	4558	290	576	28	151149	3215270	5452
126	2017-07-20 15:21:08		0	0	0	0	0	0	4.7	2.03	0.05	224612	0	9742	160185	224612	214870	4560	290	576	28	151149	3215268	5454
127	2017-07-20 15:30:52		0	0	0	0	0	0	4.7	2.03	0.05	224712	0	9758	160185	224712	214954	4564	292	576	28	151149	3215271	5460
128	2017-07-20 15:40:55		0	0	0	0	0	0	4.7	2.03	0.05	224808	0	9768	160185	224808	215040	4565	292	576	28	151149	3215274	5461
129	2017-07-20 15:50:51		0	0	0	0	0	0	4.7	2.03	0.05	224907	0	9782	160185	224907	215125	4565	292	576	28	151149	3215284	5461
130	2017-07-20 16:00:51		0	0	0	0	0	0	4.7	2.03	0.05	224999	0	9793	160185	224999	215206	4569	292	577	28	151149	3215282	5466
131	2017-07-20 16:10:52		0	0	0	0	0	0	4.71	2.03	0.05	225095	0	9806	160384	225095	215289	4570	292	578	28	151326	3215289	5468
132	2017-07-20 16:20:53		0	0	0	0	0	0	4.71	2.03	0.05	225178	0	9813	160384	225178	215365	4572	292	578	28	151326	3215298	5470
133	2017-07-20 16:30:53		0	0	0	0	0	0	4.71	2.03	0.05	225261	0	9822	160417	225261	215439	4575	292	578	28	151326	3215300	5473
134	2017-07-20 16:40:52		0	0	0	0	0	0	4.71	2.03	0.05	225349	0	9834	160424	225349	215515	4576	292	578	28	151332	3215308	5474
135	2017-07-20 16:50:51		0	0	0	0	0	0	4.71	2.03	0.05	225452	0	9846	160424	225452	215606	4579	292	578	28	151332	3215313	5477
136	2017-07-20 17:00:52		0	0	0	0	0	0	4.71	2.03	0.05	225555	0	9873	160557	225555	215682	4582	292	578	28	151450	3215324	5480
137	2017-07-20 17:10:52		0	0	0	0	0	0	4.71	2.03	0.05	225654	0	9883	160690	225654	215771	4583	292	578	28	151569	3215319	5481
138	2017-07-20 17:20:52		0	0	0	0	0	0	4.71	2.03	0.05	225738	0	9900	160690	225738	215838	4585	292	578	28	151569	3215323	5483
139	2017-07-20 17:30:51		0	0	0	0	0	0	4.71	2.03	0.05	225827	0	9918	160690	225827	215909	4587	292	578	28	151569	3215327	5485
140	2017-07-20 17:40:52		0	0	0	0	0	0	4.71	2.03	0.05	225905	0	9937	160690	225905	215968	4592	292	578	28	151569	3215331	5490
141	2017-07-20 17:50:52		0	0	0	0	0	0	4.71	2.03	0.05	225976	0	9948	160723	225976	216028	4594	292	578	28	151599	3215332	5492
142	2017-07-20 18:00:52		0	0	0	0	0	0	4.71	2.03	0.05	226063	0	9963	160723	226063	216100	4594	292	578	28	151599	3215336	5492
143	2017-07-20 18:10:53		0	0	0	0	0	0	4.72	2.03	0.05	226123	0	9972	160757	226123	216151	4597	292	578	28	151628	3215337	5495
144	2017-07-20 18:20:53		0	0	0	0	0	0	4.72	2.03	0.05	226210	0	9990	160757	226210	216220	4599	292	578	28	151628	3215340	5497
145	2017-07-20 18:30:53		0	0	0	0	0	0	4.72	2.03	0.05	226319	0	10010	160757	226319	216309	4602	292	578	28	151747	3215347	5500
146	2017-07-20 18:40:57		0	0	0	0	0	0	4.72	2.03	0.05	226393	0	10026	160757	226393	216367	4604	292	578	28	151777	3215354	5502
147	2017-07-20 18:50:55		0	0	0	0	0	0	4.72	2.03	0.05	226491	0	10037	160757	226491	216454	4605	292	578	28	151777	3215362	5503
148	2017-07-20 19:01:01		0	0	0	0	0	0	4.72	2.03	0.05	226577	0	10053	160957	226577	216524	4608	292	578	28	151777	3215366	5506
149	2017-07-20 19:10:54		0	0	0	0	0	0	4.72	2.03	0.05	226659	0	10061	161112	226659	216598	4609	292	578	28	151915	3215376	5507
150	2017-07-20 19:20:54		0	0	0	0	0	0	4.72	2.03	0.05	226723	0	10070	161112	226723	216653	4609	292	578	28	151915	3215387	5507
151	2017-07-20 19:30:55		0	0	0	0	0	0	4.72	2.03	0.05	226798	0	10079	161112	226798	216719	4612	292	578	28	151915	3215397	5510
152	2017-07-20 19:41:04		0	0	0	0	0	0	4.72	2.04	0.05	226877	0	10092	161112	226877	216756	4617	292	578	28	151915	3215396	5515
153	2017-07-20 19:50:55		0	0	0	0	0	0	4.72	2.03	0.05	226968	0	10104	161112	226968	216864	4618	292	578	28	151915	3215397	5516
154	2017-07-20 20:00:55		0	0	0	0	0	0	4.72	2.04	0.05	227007	0	10117	161112	227007	216896	4620	292	578	28	151915	3215414	5518
155	2017-07-20 20:10:58		0	0	0	0	0	0	4.72	2.03	0.05	227093	0	10133	161112	227093	216970	4621	292	578	28	151915	3215423	5519
156	2017-07-20 20:20:54		0	0	0	0	0	0	4.72	2.03	0.05	227210	0	10139	161112	227210	217071	4621	292	578	28	151915	3215424	5519
157	2017-07-20 20:30:54		0	0	0	0	0	0	4.72	2.03	0.05	227249	0	10143	161112	227249	217106	4623	292	578	28	151915	3215429	5521
158	2017-07-20 20:40:54		0	0	0	0	0	0	4.73	2.03	0.05	227325	0	10147	161175	227325	217178	4625	292	578	28	151971	3215428	5523
159	2017-07-20 20:50:54		0	0	0	0	0	0	4.73	2.03	0.05	227433	0	10171	161276	227433	217239	4627	292	578	28	152060	3215429	5525
160	2017-07-20 21:00:55		0	0	0	0	0	0	4.73	2.04	0.05	227465	0	10177	161276	227465	217289	4630	292	578	28	152060	3215428	5528
161	2017-07-20 21:10:58		0	0	0	0	0	0	4.73	2.03	0.05	227528	0	10182	161276	227528	217348	4630	292	578	28	152060	3215435	5528
162	2017-07-20 21:20:55		0	0	0	0	0	0	4.73	2.03	0.05	227597	0	10191	161276	227597	217412	4631	292	578	28	152060	3215441	5529
163	2017-07-20 21:30:58		0	0	0	0	0	0	4.73	2.03	0.05	227669	0	10196	161377	227669	217473	4632	292	578	28	152150	3215451	5530
164	2017-07-20 21:40:56		0	0	0	0	0	0	4.73	2.03	0.05	227739	0	10210	161377	227739	217529	4632	292	578	28	152150	3215462	5530
165	2017-07-20 21:50:54		0	0	0	0	0	0	4.73	2.03	0.05	227832	0	10230	161377	227832	217610	4633	292	578	28	152150	3215467	5531
166	2017-07-20 22:00:58		0	0	0	0	0	0	4.74	2.03	0.05	227921	0	10234	161511	227921	217687	4634	292	578	28	152270	3215481	5532
167	2017-07-20 22:10:54		0	0	0	0	0	0	4.74	2.03	0.05	228015	0	10244	161579	228015	217771	4635	292	578	28	152330	3215484	5533
168	2017-07-20 22:20:59		0	0	0	0	0	0	4.74	2.03	0.05	228090	0	10254	161579	228090	217836	4636	292	578	28	152330	3215488	5534
169	2017-07-20 22:30:55		0	0	0	0	0	0	4.74	2.03	0.05	228171	0	10256	161680	228171	217915	4639	292	578	28	152420	3215492	5537
170	2017-07-20 22:40:54		0	0	0	0	0	0	4.74	2.03	0.05	228249	0	10266	161680	228249	217983	4639	292	578	28	152420	3215501	5537
171	2017-07-20 22:50:54		0	0	0	0	0	0	4.74	2.03	0.05	228323	0	10276	161714	228323	218047	4640	292	578	28	152450	3215508	5538
172	2017-07-20 23:00:58		0	0	0	0	0	0	4.74	2.03	0.05	228403	0	10289	161714	228403	218114	4642	292	578	28	152450	3215507	5540
173	2017-07-20 23:10:56		0	0	0	0	0	0	4.74	2.03	0.05	228474	0	10300	161714	228474	218174	4644	292	578	28	152450	3215509	5542
174	2017-07-20 23:20:55		0	0	0	0	0	0	4.74	2.03	0.05	228535	0	10307	161917	228535	218228	4645	292	578	28	152450	3215522	5543
175	2017-07-20 23:30:57		0	0	0	0	0	0	4.74	2.03	0.05	228601	0	10315	161917	228601	218286	4647	292	578	28	152450	3215527	5545
176	2017-07-20 23:41:20		0	0	0	0	0	0	4.74	2.03	0.05	228658	0	10326	161917	228658	218358	4648	292	578	28	152450	3215531	5546
177	2017-07-20 23:51:12		0	0	0	0	0	0	4.74	2.03	0.05	228711	0	10334	161917	228711	218380	4648	292	578	28	152450	3215546	5546
178	2017-07-21 00:01:17		0	0	0	0	0	0	4.74	2.03	0.05	228749	0	10339	161917	228749	218412	4649	292	578	28	152450	3215550	5547
179	2017-07-21 01:01:20		0	0	0	0	0	0	4.75	2.03	0.05	228963	0	10363	162171	228963	218601	4655	292	579	28	152675	3215580	5554
180	2017-07-21 02:01:15		0	0	0	0	0	0	4.75	2.03	0.05	229073	0	10386	162171	229073	218687	4656	292	581	28	152675	3215599	5557
181	2017-07-21 03:01:25		0	0	0	0	0	0	4.75	2.03	0.05	229145	0	10395	162171	229145	218750	4657	292	581	28	152675	3215595	5558
182	2017-07-21 04:01:23		0	0	0	0	0	0	4.75	2.03	0.05	229180	0	10398	162188	229180	218782	4657	292	581	28	152675	3215588	5558
183	2017-07-21 05:01:15		0	0	0	0	0	0	4.75	2.03	0.05	229204	0	10402	162188	229204	218802	4657	292	581	28	152675	3215593	5558
184	2017-07-21 06:01:24		0	0	0	0	0	0	4.75	2.03	0.05	229232	0	10408	162188	229232	218824	4657	292	581	28	152675	3215594	5558
185	2017-07-21 07:01:37		0	0	0	0	0	0	4.75	2.03	0.05	229290	0	10413	162324	229290	218877	4659	292	583	28	152796	3215590	5562
186	2017-07-21 07:12:54		0	0	0	0	0	0	4.75	2.03	0.05	229306	0	10414	162324	229306	218892	4659	292	583	28	152796	3215591	5562
187	2017-07-21 07:22:34		0	0	0	0	0	0	4.75	2.03	0.05	229326	0	10415	162324	229326	218911	4660	292	583	28	152796	3215591	5563
188	2017-07-21 07:32:33		0	0	0	0	0	0	4.75	2.03	0.05	229344	0	10421	162324	229344	218923	4660	292	583	28	152796	3215594	5563
189	2017-07-21 07:42:45		0	0	0	0	0	0	4.75	2.03	0.05	229365	0	10425	162324	229365	218940	4661	292	583	28	152796	3215598	5564
190	2017-07-21 08:03:27		0	0	0	0	0	0	4.75	2.03	0.05	229405	0	10431	162324	229405	218974	4663	292	584	28	152796	3215605	5567
191	2017-07-21 08:12:25		0	0	0	0	0	0	4.75	2.03	0.05	229430	0	10433	162324	229430	218997	4664	292	584	28	152796	3215611	5568
192	2017-07-21 08:22:47		0	0	0	0	0	0	4.75	2.03	0.05	229454	0	10435	162324	229454	219019	4665	292	584	28	152796	3215613	5569
193	2017-07-21 08:37:32		0	0	0	0	0	0	4.75	2.03	0.05	229477	0	10437	162324	229477	219040	4665	292	584	28	152796	3215616	5569
194	2017-07-21 08:52:46		0	0	0	0	0	0	4.75	2.03	0.05	229511	0	10442	162324	229511	219060	4667	292	584	28	152854	3215618	5571
195	2017-07-21 09:02:15		0	0	0	0	0	0	4.75	2.03	0.05	229520	0	10444	162424	229520	219076	4667	292	584	28	152884	3215622	5571
196	2017-07-21 09:12:16		0	0	0	0	0	0	4.75	2.03	0.05	229547	0	10446	162424	229547	219102	4668	292	584	28	152884	3215626	5572
197	2017-07-21 09:22:38		0	0	0	0	0	0	4.75	2.03	0.05	229576	0	10449	162424	229576	219127	4669	292	585	28	152884	3215630	5574
198	2017-07-21 09:37:10		0	0	0	0	0	0	4.75	2.03	0.05	229592	0	10451	162424	229592	219141	4670	292	585	28	152884	3215634	5575
199	2017-07-21 09:47:34		0	0	0	0	0	0	4.75	2.03	0.05	229609	0	10454	162433	229609	219155	4670	292	586	28	152892	3215631	5576
200	2017-07-21 10:11:11		0	0	0	0	0	0	4.75	2.03	0.05	229641	0	10456	162433	229641	219185	4670	292	586	28	152892	3215636	5576
201	2017-07-21 10:25:01		0	0	0	0	0	0	4.75	2.03	0.05	229669	0	10462	162433	229669	219207	4670	292	586	28	152892	3215635	5576
202	2017-07-21 10:33:57		0	0	0	0	0	0	4.75	2.03	0.05	229693	0	10464	162433	229693	219229	4670	292	586	28	152892	3215633	5576
203	2017-07-21 10:35:45		0	0	0	0	0	0	4.75	2.03	0.05	229693	0	10464	162433	229693	219229	4670	292	586	28	152892	3215634	5576
204	2017-07-21 10:45:46		0	0	0	0	0	0	4.75	2.03	0.05	229714	0	10465	162433	229714	219249	4670	292	586	28	152892	3215639	5576
205	2017-07-21 10:55:46		0	0	0	0	0	0	4.75	2.03	0.05	229730	0	10468	162433	229730	219262	4670	292	586	28	152892	3215648	5576
206	2017-07-21 11:05:46		0	0	0	0	0	0	4.75	2.03	0.05	229746	0	10472	162433	229746	219274	4670	292	586	28	152892	3215659	5576
207	2017-07-21 11:15:46		0	0	0	0	0	0	4.75	2.03	0.05	229760	0	10473	162433	229760	219287	4670	292	586	28	152892	3215665	5576
208	2017-07-21 11:25:46		0	0	0	0	0	0	4.75	2.03	0.05	229777	0	10475	162433	229777	219302	4671	292	586	28	152892	3215665	5577
209	2017-07-21 11:35:46		0	0	0	0	0	0	4.75	2.03	0.05	229788	0	10478	162433	229788	219310	4671	292	586	28	152892	3215671	5577
210	2017-07-21 11:45:45		0	0	0	0	0	0	4.75	2.03	0.05	229804	0	10480	162433	229804	219324	4671	292	586	28	152892	3215671	5577
211	2017-07-21 11:47:31		0	0	0	0	0	0	4.75	2.03	0.05	229804	0	10480	162433	229804	219324	4671	292	586	28	152892	3215670	5577
212	2017-07-21 11:57:30		0	0	0	0	0	0	4.76	2.03	0.05	229831	0	10488	162704	229831	219343	4673	292	586	28	153132	3215672	5579
213	2017-07-21 12:07:30		0	0	0	0	0	0	4.76	2.03	0.05	229845	0	10490	162704	229845	219355	4674	292	586	28	153132	3215675	5580
214	2017-07-21 12:17:30		0	0	0	0	0	0	4.76	2.03	0.05	229848	0	10491	162704	229848	219358	4674	292	586	28	153132	3215680	5580
215	2017-07-21 12:27:29		0	0	0	0	0	0	4.76	2.03	0.05	229864	0	10492	162704	229864	219373	4675	292	586	28	153132	3215679	5581
216	2017-07-21 12:35:39		0	0	0	0	0	0	4.76	2.03	0.05	229877	0	10492	162704	229877	219385	4677	292	586	28	153132	3215686	5583
217	2017-07-21 12:45:38		0	0	0	0	0	0	4.76	2.03	0.05	229885	0	10492	162704	229885	219393	4677	292	586	28	153132	3215689	5583
218	2017-07-21 12:55:39		0	0	0	0	0	0	4.76	2.03	0.05	229900	0	10493	162704	229900	219407	4677	292	586	28	153132	3215693	5583
219	2017-07-21 13:03:44		0	0	0	0	0	0	4.76	2.03	0.05	229913	0	10495	162704	229913	219418	4678	292	586	28	153132	3215700	5584
220	2017-07-21 13:13:43		0	0	0	0	0	0	4.76	2.04	0.05	229917	0	10496	162704	229917	219421	4679	292	586	28	153132	3215702	5585
221	2017-07-21 13:23:43		0	0	0	0	0	0	4.76	2.03	0.05	229940	0	10496	162704	229940	219444	4679	292	586	28	153132	3215705	5585
222	2017-07-21 13:33:42		0	0	0	0	0	0	4.76	2.03	0.05	229952	0	10496	162704	229952	219456	4679	292	586	28	153132	3215707	5585
223	2017-07-21 13:40:55		0	0	0	0	0	0	4.76	2.03	0.05	229965	0	10498	162704	229965	219467	4679	292	586	28	153132	3215712	5585
224	2017-07-21 13:43:58		0	0	0	0	0	0	4.76	2.03	0.05	229965	0	10498	162704	229965	219467	4679	292	586	28	153132	3215715	5585
225	2017-07-21 13:44:29		0	0	0	0	0	0	4.76	2.03	0.05	229965	0	10498	162704	229965	219467	4679	292	586	28	153132	3215715	5585
226	2017-07-21 13:49:51		0	0	0	0	0	0	4.76	2.03	0.05	229982	0	10500	162704	229982	219482	4679	292	586	28	153132	3215718	5585
227	2017-07-21 13:51:08		0	0	0	0	0	0	4.76	2.03	0.05	229982	0	10500	162704	229982	219482	4679	292	586	28	153132	3215720	5585
228	2017-07-21 14:01:07		0	0	0	0	0	0	4.76	2.03	0.05	230005	0	10504	162738	230005	219501	4679	292	586	28	153162	3215722	5585
229	2017-07-21 14:11:08		0	0	0	0	0	0	4.76	2.03	0.05	230018	0	10505	162738	230018	219513	4680	292	587	28	153162	3215721	5587
230	2017-07-21 14:21:07		0	0	0	0	0	0	4.76	2.04	0.05	230036	0	10512	162738	230036	219524	4682	292	587	28	153162	3215726	5589
231	2017-07-21 14:31:08		0	0	0	0	0	0	4.76	2.04	0.05	230049	0	10514	162738	230049	219535	4682	292	587	28	153162	3215730	5589
232	2017-07-21 14:41:08		0	0	0	0	0	0	4.76	2.04	0.05	230067	0	10515	162738	230067	219552	4682	292	587	28	153162	3215731	5589
233	2017-07-21 14:51:08		0	0	0	0	0	0	4.76	2.03	0.05	230088	0	10517	162738	230088	219571	4682	292	587	28	153162	3215734	5589
234	2017-07-21 15:01:08		0	0	0	0	0	0	4.76	2.03	0.05	230107	0	10518	162738	230107	219589	4682	292	588	28	153162	3215739	5590
235	2017-07-21 15:11:08		0	0	0	0	0	0	4.76	2.03	0.05	230128	0	10521	162738	230128	219607	4682	292	588	28	153162	3215741	5590
236	2017-07-21 15:21:08		0	0	0	0	0	0	4.76	2.03	0.05	230142	0	10522	162738	230142	219620	4683	292	588	28	153162	3215741	5591
237	2017-07-21 15:31:07		0	0	0	0	0	0	4.76	2.03	0.05	230172	0	10528	162738	230172	219644	4684	292	588	28	153162	3215746	5592
238	2017-07-21 15:41:09		0	0	0	0	0	0	4.76	2.04	0.05	230192	0	10530	162738	230192	219662	4687	292	588	28	153162	3215746	5595
239	2017-07-21 15:51:07		0	0	0	0	0	0	4.76	2.04	0.05	230212	0	10532	162738	230212	219680	4687	292	588	28	153162	3215746	5595
240	2017-07-21 16:01:08		0	0	0	0	0	0	4.76	2.04	0.05	230228	0	10535	162738	230228	219693	4687	292	588	28	153162	3215747	5595
241	2017-07-21 16:11:08		0	0	0	0	0	0	4.76	2.04	0.05	230243	0	10538	162755	230243	219705	4687	292	588	28	153177	3215745	5595
242	2017-07-21 16:21:08		0	0	0	0	0	0	4.76	2.04	0.05	230258	0	10541	162755	230258	219717	4687	292	588	28	153177	3215753	5595
243	2017-07-21 16:31:08		0	0	0	0	0	0	4.76	2.04	0.05	230273	0	10541	162755	230273	219732	4687	292	588	28	153177	3215756	5595
244	2017-07-21 16:41:09		0	0	0	0	0	0	4.76	2.04	0.05	230287	0	10544	162755	230287	219743	4690	292	588	28	153177	3215759	5598
245	2017-07-21 16:51:10		0	0	0	0	0	0	4.76	2.04	0.05	230302	0	10548	162755	230302	219754	4690	292	588	28	153177	3215768	5598
246	2017-07-21 17:01:08		0	0	0	0	0	0	4.76	2.04	0.05	230322	0	10548	162755	230322	219774	4692	292	588	28	153177	3215768	5600
247	2017-07-21 17:11:09		0	0	0	0	0	0	4.76	2.04	0.05	230340	0	10549	162755	230340	219791	4692	292	588	28	153177	3215772	5600
248	2017-07-21 17:21:08		0	0	0	0	0	0	4.77	2.04	0.05	230358	0	10551	162892	230358	219807	4693	292	588	28	153299	3215777	5601
249	2017-07-21 17:31:09		0	0	0	0	0	0	4.77	2.04	0.05	230377	0	10556	162892	230377	219821	4693	292	588	28	153299	3215779	5601
250	2017-07-21 17:41:09		0	0	0	0	0	0	4.77	2.04	0.05	230392	0	10559	162892	230392	219833	4694	292	588	28	153299	3215783	5602
251	2017-07-21 17:51:09		0	0	0	0	0	0	4.77	2.04	0.05	230406	0	10560	162892	230406	219846	4694	292	588	28	153299	3215781	5602
252	2017-07-21 18:01:09		0	0	0	0	0	0	4.77	2.04	0.05	230424	0	10561	162892	230424	219863	4695	292	588	28	153299	3215783	5603
253	2017-07-21 18:11:09		0	0	0	0	0	0	4.77	2.04	0.05	230439	0	10563	162892	230439	219876	4695	292	588	28	153299	3215782	5603
254	2017-07-21 18:21:08		0	0	0	0	0	0	4.77	2.04	0.05	230452	0	10563	162892	230452	219889	4696	292	588	28	153299	3215785	5604
255	2017-07-21 18:31:09		0	0	0	0	0	0	4.77	2.04	0.05	230475	0	10565	163029	230475	219910	4696	292	588	28	153420	3215785	5604
256	2017-07-21 18:41:09		0	0	0	0	0	0	4.77	2.04	0.05	230491	0	10566	163029	230491	219925	4696	292	588	28	153420	3215790	5604
257	2017-07-21 18:51:09		0	0	0	0	0	0	4.77	2.04	0.05	230514	0	10569	163029	230514	219945	4698	292	588	28	153420	3215790	5606
258	2017-07-21 19:01:10		0	0	0	0	0	0	4.77	2.04	0.05	230534	0	10570	163029	230534	219964	4699	292	588	28	153420	3215799	5607
259	2017-07-21 19:11:09		0	0	0	0	0	0	4.77	2.04	0.05	230553	0	10574	163029	230553	219979	4700	292	588	28	153420	3215793	5608
260	2017-07-21 19:21:11		0	0	0	0	0	0	4.77	2.04	0.05	230570	0	10579	163029	230570	219991	4700	292	589	28	153420	3215797	5609
261	2017-07-21 19:31:12		0	0	0	0	0	0	4.77	2.04	0.05	230570	0	10579	163029	230570	219991	4700	292	589	28	153420	3215800	5609
262	2017-07-21 19:41:17		0	0	0	0	0	0	4.77	2.04	0.05	230570	0	10579	163029	230570	219991	4700	292	589	28	153420	3215808	5609
263	2017-07-21 19:51:10		0	0	0	0	0	0	4.77	2.04	0.05	230570	0	10579	163029	230570	219991	4700	292	589	28	153420	3215812	5609
264	2017-07-21 20:01:10		0	0	0	0	0	0	4.77	2.04	0.05	230570	0	10579	163029	230570	220002	4700	292	589	28	153420	3215813	5609
265	2017-07-21 20:11:10		0	0	0	0	0	0	4.78	2.04	0.05	230671	0	10587	163236	230671	220084	4705	292	589	28	153664	3215813	5614
266	2017-07-21 20:21:09		0	0	0	0	0	0	4.78	2.04	0.05	230687	0	10588	163236	230687	220099	4705	292	589	28	153664	3215810	5614
267	2017-07-21 20:31:11		0	0	0	0	0	0	4.78	2.04	0.05	230697	0	10588	163236	230697	220109	4708	292	590	28	153664	3215808	5618
268	2017-07-21 20:41:16		0	0	0	0	0	0	4.78	2.04	0.05	230714	0	10589	163236	230714	220125	4709	292	590	28	153664	3215806	5619
269	2017-07-21 20:51:14		0	0	0	0	0	0	4.78	2.04	0.05	230740	0	10589	163236	230740	220151	4710	292	590	28	153664	3215809	5620
270	2017-07-21 21:01:12		0	0	0	0	0	0	4.78	2.04	0.05	230757	0	10589	163236	230757	220168	4711	292	590	28	153664	3215809	5621
271	2017-07-21 21:11:11		0	0	0	0	0	0	4.78	2.04	0.05	230775	0	10593	163236	230775	220182	4712	292	590	28	153664	3215806	5622
272	2017-07-21 21:21:13		0	0	0	0	0	0	4.78	2.04	0.05	230797	0	10597	163236	230797	220200	4712	292	590	28	153664	3215804	5622
273	2017-07-21 21:31:11		0	0	0	0	0	0	4.78	2.04	0.05	230818	0	10600	163236	230818	220218	4712	292	590	28	153664	3215801	5622
274	2017-07-21 21:41:13		0	0	0	0	0	0	4.78	2.04	0.05	230839	0	10603	163236	230839	220236	4712	292	590	28	153664	3215800	5622
275	2017-07-21 21:51:15		0	0	0	0	0	0	4.78	2.04	0.05	230869	0	10608	163236	230869	220261	4712	292	591	28	153664	3215804	5623
276	2017-07-21 22:01:18		0	0	0	0	0	0	4.78	2.04	0.05	230897	0	10610	163236	230897	220287	4712	292	591	28	153664	3215802	5623
277	2017-07-21 22:11:12		0	0	0	0	0	0	4.78	2.04	0.05	230920	0	10611	163236	230920	220309	4712	292	591	28	153664	3215805	5623
278	2017-07-21 22:21:21		0	0	0	0	0	0	4.78	2.04	0.05	230943	0	10615	163236	230943	220328	4712	292	591	28	153664	3215802	5623
279	2017-07-21 22:31:12		0	0	0	0	0	0	4.78	2.04	0.05	230964	0	10617	163236	230964	220347	4713	292	591	28	153664	3215800	5624
280	2017-07-21 22:41:13		0	0	0	0	0	0	4.78	2.04	0.05	230986	0	10619	163236	230986	220367	4713	292	591	28	153664	3215798	5624
281	2017-07-21 22:51:15		0	0	0	0	0	0	4.78	2.04	0.05	231010	0	10622	163374	231010	220388	4713	292	591	28	153786	3215799	5624
282	2017-07-21 23:01:13		0	0	0	0	0	0	4.78	2.04	0.05	231032	0	10623	163374	231032	220409	4714	292	591	28	153786	3215799	5625
283	2017-07-21 23:11:33		0	0	0	0	0	0	4.78	2.04	0.05	231046	0	10624	163374	231046	220422	4715	292	591	28	153786	3215811	5626
284	2017-07-21 23:21:20		0	0	0	0	0	0	4.78	2.04	0.05	231062	0	10625	163374	231062	220437	4715	292	591	28	153786	3215812	5626
285	2017-07-21 23:31:26		0	0	0	0	0	0	4.78	2.04	0.05	231083	0	10626	163374	231083	220457	4719	292	591	28	153786	3215817	5630
286	2017-07-21 23:41:32		0	0	0	0	0	0	4.78	2.04	0.05	231103	0	10627	163374	231103	220476	4719	292	591	28	153786	3215814	5630
287	2017-07-21 23:51:19		0	0	0	0	0	0	4.78	2.04	0.05	231118	0	10631	163374	231118	220487	4719	292	591	28	153786	3215811	5630
288	2017-07-22 00:01:19		0	0	0	0	0	0	4.78	2.04	0.05	231130	0	10633	163374	231130	220497	4719	292	591	28	153786	3215811	5630
289	2017-07-22 01:01:23		0	0	0	0	0	0	4.79	2.04	0.05	231208	0	10638	163477	231208	220570	4720	292	591	28	153878	3215815	5631
290	2017-07-22 02:01:25		0	0	0	0	0	0	4.79	2.04	0.05	231267	0	10646	163477	231267	220621	4720	294	591	28	153878	3215838	5633
291	2017-07-22 03:01:22		0	0	0	0	0	0	4.78	2.04	0.05	231306	0	10647	163477	231306	220659	4720	294	591	28	153878	3215851	5633
292	2017-07-22 04:01:26		0	0	0	0	0	0	4.78	2.04	0.05	231323	0	10648	163477	231323	220675	4720	294	591	28	153878	3215850	5633
293	2017-07-22 05:01:41		0	0	0	0	0	0	4.78	2.04	0.05	231337	0	10648	163477	231337	220689	4721	294	591	28	153878	3215856	5634
294	2017-07-22 06:01:34		0	0	0	0	0	0	4.78	2.04	0.05	231352	0	10649	163477	231352	220703	4721	294	591	28	153878	3215856	5634
295	2017-07-22 07:01:32		0	0	0	0	0	0	4.78	2.04	0.05	231383	0	10649	163477	231383	220734	4723	294	591	28	153878	3215857	5636
296	2017-07-22 07:11:56		0	0	0	0	0	0	4.78	2.04	0.05	231392	0	10649	163477	231392	220743	4724	294	591	28	153878	3215860	5637
297	2017-07-22 07:21:23		0	0	0	0	0	0	4.78	2.04	0.05	231399	0	10650	163477	231399	220749	4724	294	591	28	153878	3215858	5637
298	2017-07-22 07:31:54		0	0	0	0	0	0	4.78	2.04	0.05	231408	0	10650	163477	231408	220758	4724	294	591	28	153878	3215860	5637
299	2017-07-22 07:45:35		0	0	0	0	0	0	4.78	2.04	0.05	231415	0	10651	163477	231415	220764	4724	294	591	28	153878	3215860	5637
300	2017-07-22 07:56:04		0	0	0	0	0	0	4.78	2.04	0.05	231431	0	10654	163477	231431	220777	4724	294	591	28	153878	3215862	5637
301	2017-07-22 08:21:31		0	0	0	0	0	0	4.78	2.04	0.05	231446	0	10656	163477	231446	220790	4725	294	591	28	153878	3215864	5638
302	2017-07-22 08:43:12		0	0	0	0	0	0	4.78	2.04	0.05	231473	0	10658	163477	231473	220815	4725	294	591	28	153878	3215872	5638
303	2017-07-22 08:52:06		0	0	0	0	0	0	4.78	2.04	0.05	231486	0	10662	163477	231486	220824	4725	294	591	28	153878	3215872	5638
304	2017-07-22 09:04:13		0	0	0	0	0	0	4.78	2.04	0.05	231506	0	10663	163477	231506	220843	4726	294	591	28	153878	3215871	5639
305	2017-07-22 09:29:32		0	0	0	0	0	0	4.78	2.04	0.05	231526	0	10663	163477	231526	220863	4726	294	592	28	153878	3215868	5640
306	2017-07-22 09:47:00		0	0	0	0	0	0	4.78	2.04	0.05	231544	0	10664	163477	231544	220880	4726	294	592	28	153878	3215872	5640
307	2017-07-22 09:54:27		0	0	0	0	0	0	4.78	2.04	0.05	231559	0	10665	163477	231559	220894	4726	294	592	28	153878	3215872	5640
308	2017-07-22 10:06:49		0	0	0	0	0	0	4.78	2.04	0.05	231577	0	10666	163477	231577	220911	4726	294	592	28	153878	3215874	5640
309	2017-07-22 10:16:55		0	0	0	0	0	0	4.78	2.04	0.05	231587	0	10668	163477	231587	220919	4727	294	592	28	153878	3215877	5641
310	2017-07-22 10:33:45		0	0	0	0	0	0	4.78	2.04	0.05	231608	0	10670	163477	231608	220938	4727	294	592	28	153878	3215880	5641
311	2017-07-22 10:45:03		0	0	0	0	0	0	4.78	2.04	0.05	231615	0	10670	163477	231615	220945	4728	294	592	28	153878	3215889	5642
312	2017-07-22 11:18:08		0	0	0	0	0	0	4.78	2.04	0.05	231652	0	10675	163477	231652	220977	4728	294	592	28	153878	3215913	5642
