1	2018-04-13 22:07:21		0	0	0	0	0	0	0	0	0	0	0	0	0	0	0	0	1	5	2	0	3675268	8
2	2018-04-13 22:17:20		0	0	0	0	0	0	0	0	0	0	0	0	0	0	0	0	39	54	9	0	3675297	102
3	2018-04-13 22:27:22		0	0	0	0	0	0	0.92	40.5	0.01	43020	0	301	35333	43020	43020	17424	98	87	18	33850	3675333	17627
4	2018-04-13 22:37:22		0	0	0	0	0	0	1.3	41.05	0.01	62801	0	756	49943	62801	62801	25780	158	115	22	47632	3675362	26075
5	2018-04-13 22:47:24		0	0	0	0	0	0	1.66	41.17	0.04	81348	0	2880	65442	81348	81348	33489	211	144	28	60934	3675401	33872
6	2018-04-13 22:57:25		0	0	0	0	0	0	1.98	41.25	0.06	98904	0	5694	78882	98904	98904	40801	245	166	33	72752	3675437	41245
7	2018-04-13 23:07:26		0	0	0	0	0	0	2.27	41.24	0.07	115254	0	8040	92054	115254	115254	47525	279	178	36	83588	3675462	48018
8	2018-04-13 23:17:25		0	0	0	0	0	0	2.63	41.21	0.08	131345	0	10312	107374	131345	131345	54123	317	208	39	96717	3675500	54687
9	2018-04-13 23:27:24		0	0	0	0	0	0	2.92	41.14	0.08	145989	0	12334	118651	145989	145989	60059	351	226	41	107210	3675533	60677
10	2018-04-13 23:37:22		0	0	0	0	0	0	3.22	41.18	0.09	160095	0	14092	130918	160095	160095	65929	383	246	47	118444	3675559	66605
11	2018-04-13 23:47:22		0	0	0	0	0	0	3.52	41.22	0.09	172591	0	15750	142712	172591	172591	71150	411	271	49	129511	3675587	71881
12	2018-04-13 23:57:22		0	0	0	0	0	0	3.7	41.29	0.09	184198	0	17307	149306	184198	184198	76063	436	288	51	135872	3675608	76838
13	2018-04-14 00:07:23		0	0	0	0	0	0	3.86	41.34	0.1	195119	0	18668	156162	195119	195119	80657	460	299	52	141748	3675631	81468
14	2018-04-14 00:17:25		0	0	0	0	0	0	4.05	41.38	0.1	205702	0	19967	164395	205702	205702	85113	499	320	54	148934	3675663	85986
15	2018-04-14 00:27:24		0	0	0	0	0	0	4.23	41.42	0.1	216004	0	21260	170956	216004	216004	89460	522	331	58	155379	3675684	90371
16	2018-04-14 00:37:27		0	0	0	0	0	0	4.42	41.42	0.1	225073	0	22455	178882	225073	225073	93233	537	344	61	162504	3675700	94175
17	2018-04-14 00:47:28		0	0	0	0	0	0	4.63	41.47	0.1	233606	0	23527	186622	233606	233606	96876	551	356	65	170008	3675722	97848
18	2018-04-14 00:57:30		0	0	0	0	0	0	4.76	41.51	0.1	241232	0	24492	191504	241232	241232	100137	567	368	66	174846	3675743	101138
19	2018-04-14 01:07:29		0	0	0	0	0	0	4.88	41.57	0.1	247998	0	25322	196217	247998	247998	103090	584	383	67	179264	3675751	104124
20	2018-04-14 01:17:27		0	0	0	0	0	0	5.03	41.63	0.1	254326	0	26183	202409	254326	254326	105867	596	395	68	185002	3675767	106926
21	2018-04-14 01:27:27		0	0	0	0	0	0	5.1	41.66	0.1	259818	0	26858	205625	259818	259818	108235	613	411	69	187574	3675780	109328
22	2018-04-14 01:37:28		0	0	0	0	0	0	5.22	41.69	0.1	264706	0	27501	209505	264706	264706	110369	622	419	70	191921	3675785	111480
23	2018-04-14 01:47:29		0	0	0	0	0	0	5.3	41.75	0.1	269020	0	28057	212572	269020	269020	112312	642	428	72	194662	3675800	113454
24	2018-04-14 01:57:29		0	0	0	0	0	0	5.39	41.78	0.1	272906	0	28580	216163	272906	272906	114029	651	433	72	197954	3675808	115185
25	2018-04-14 02:07:30		0	0	0	0	0	0	5.42	41.82	0.11	276431	0	29067	218527	276431	276431	115594	660	445	72	199291	3675814	116771
26	2018-04-14 02:17:31		0	0	0	0	0	0	5.47	41.86	0.11	279563	0	29482	220476	279563	279563	117017	669	451	72	201145	3675822	118209
27	2018-04-14 02:27:30		0	0	0	0	0	0	5.51	41.9	0.11	282599	0	29925	222471	282599	282599	118414	680	459	75	202699	3675824	119628
28	2018-04-14 02:37:31		0	0	0	0	0	0	5.56	41.92	0.11	285355	0	30286	224280	285355	285355	119614	685	467	75	204307	3675830	120841
29	2018-04-14 02:47:32		0	0	0	0	0	0	5.62	41.95	0.11	287861	0	30617	227375	287861	287861	120765	692	471	75	206734	3675831	122003
30	2018-04-14 02:57:34		0	0	0	0	0	0	5.67	41.96	0.11	290225	0	30924	230126	290225	290225	121765	699	475	75	208388	3675837	123014
31	2018-04-14 03:07:35		0	0	0	0	0	0	5.7	41.98	0.11	292296	0	31157	231812	292296	292296	122707	702	475	75	209699	3675838	123959
32	2018-04-14 03:17:33		0	0	0	0	0	0	5.73	42.01	0.11	294106	0	31382	233272	294106	294106	123548	709	477	76	210694	3675842	124810
33	2018-04-14 03:27:34		0	0	0	0	0	0	5.75	42.03	0.11	295697	0	31571	234447	295697	295697	124286	716	480	76	211306	3675845	125558
34	2018-04-14 03:37:35		0	0	0	0	0	0	5.8	42.03	0.11	297230	0	31793	236193	297230	297230	124923	723	482	76	213074	3675844	126204
35	2018-04-14 03:47:34		0	0	0	0	0	0	5.81	42.04	0.11	298740	0	32118	236970	298740	298740	125590	727	486	76	213677	3675846	126879
36	2018-04-14 03:57:35		0	0	0	0	0	0	5.84	42.05	0.11	300137	0	32384	237424	300137	300137	126195	730	489	76	214506	3675851	127490
37	2018-04-14 04:07:36		0	0	0	0	0	0	5.86	41.96	0.11	301432	0	32600	238991	301432	301432	126476	737	493	75	215514	3675856	127781
38	2018-04-14 04:17:36		0	0	0	0	0	0	5.87	42.08	0.11	302655	0	32820	239426	302655	302655	127349	742	496	76	215927	3675857	128663
39	2018-04-14 04:27:39		0	0	0	0	0	0	5.88	42.09	0.11	303860	0	33024	239722	303860	303860	127905	745	497	76	216229	3675858	129223
40	2018-04-14 04:37:37		0	0	0	0	0	0	5.92	42.11	0.11	305076	0	33251	241197	305076	305076	128460	754	500	76	217566	3675860	129790
41	2018-04-14 04:47:38		0	0	0	0	0	0	5.92	42.12	0.11	306316	0	33493	241607	306316	306316	129020	763	503	76	217719	3675861	130362
42	2018-04-14 04:57:40		0	0	0	0	0	0	5.93	42.14	0.11	307527	0	33719	242193	307527	307527	129580	765	506	76	218087	3675864	130927
43	2018-04-14 05:07:39		0	0	0	0	0	0	5.95	42.07	0.11	308676	0	33956	243105	308676	308676	129857	772	510	76	218734	3675865	131215
44	2018-04-14 05:17:42		0	0	0	0	0	0	5.97	42.16	0.11	309985	0	34187	244314	309985	309985	130699	778	514	77	219478	3675869	132068
45	2018-04-14 05:27:40		0	0	0	0	0	0	5.98	42.19	0.11	311354	0	34458	244661	311354	311354	131347	779	515	77	219696	3675874	132718
46	2018-04-14 05:37:41		0	0	0	0	0	0	6	42.22	0.11	312961	0	34738	245690	312961	312961	132126	781	517	77	220635	3675877	133501
47	2018-04-14 05:47:41		0	0	0	0	0	0	6.03	42.23	0.11	314676	0	35084	246512	314676	314676	132897	784	523	77	221741	3675883	134281
48	2018-04-14 05:57:41		0	0	0	0	0	0	6.08	42.26	0.11	316557	0	35452	248957	316557	316557	133766	797	524	77	223524	3675888	135164
49	2018-04-14 06:07:42		0	0	0	0	0	0	6.1	42.28	0.11	318613	0	35888	249494	318613	318613	134711	804	525	77	224054	3675892	136117
50	2018-04-14 06:17:43		0	0	0	0	0	0	6.12	42.31	0.11	320872	0	36336	250675	320872	320872	135745	812	529	77	224949	3675895	137163
51	2018-04-14 06:27:43		0	0	0	0	0	0	6.16	42.16	0.11	323398	0	36856	252371	323398	323398	136346	818	532	77	226314	3675897	137773
52	2018-04-14 06:37:43		0	0	0	0	0	0	6.18	42.41	0.11	326055	0	37397	253858	326055	326055	138267	829	538	77	227175	3675899	139711
53	2018-04-14 06:47:44		0	0	0	0	0	0	6.24	42.45	0.12	328963	0	37952	256785	328963	328963	139639	838	543	77	229448	3675907	141097
54	2018-04-14 06:57:50		0	0	0	0	0	0	6.29	42.48	0.12	332313	0	38614	258728	332313	332313	141157	846	553	78	231170	3675910	142634
55	2018-04-14 07:07:49		0	0	0	0	0	0	6.35	42.53	0.12	335930	0	39292	262453	335930	335930	142879	859	562	78	233331	3675918	144378
56	2018-04-14 07:17:53		0	0	0	0	0	0	6.39	42.61	0.12	340376	0	40120	265957	340376	340376	145034	873	578	78	234951	3675922	146563
57	2018-04-14 07:27:49		0	0	0	0	0	0	6.45	42.72	0.12	345749	0	41074	270784	345749	345749	147705	894	588	79	237260	3675931	149266
58	2018-04-14 07:37:48		0	0	0	0	0	0	6.6	42.85	0.12	352252	0	42128	276148	352252	352252	150934	916	600	82	242445	3675945	152532
59	2018-04-14 07:47:48		0	0	0	0	0	0	6.67	43	0.12	359741	0	43349	280105	359741	359741	154680	951	615	83	245132	3675961	156329
60	2018-04-14 07:57:49		0	0	0	0	0	0	6.78	43.16	0.12	367986	0	44736	285631	367986	367986	158839	986	635	87	249353	3675971	160547
61	2018-04-14 08:07:54		0	0	0	0	0	0	6.95	43.31	0.12	377292	0	46278	295323	377292	377292	163403	1013	651	93	255537	3675979	165160
62	2018-04-14 08:17:51		0	0	0	0	0	0	7.04	43.47	0.12	386954	0	47894	299972	386954	386954	168200	1047	667	96	258708	3676004	170010
63	2018-04-14 08:27:52		0	0	0	0	0	0	7.16	43.65	0.12	397037	0	49591	309348	397037	397037	173292	1087	685	98	263348	3676026	175162
64	2018-04-14 08:37:52		0	0	0	0	0	0	7.34	43.82	0.13	407726	0	51332	319122	407726	407726	178660	1129	707	101	269841	3676058	180597
65	2018-04-14 08:47:52		0	0	0	0	0	0	7.51	43.97	0.13	418791	0	53262	330819	418791	418791	184131	1175	727	102	276166	3676084	186135
66	2018-04-14 08:57:53		0	0	0	0	0	0	7.63	44.15	0.13	429754	0	55159	337636	429754	429754	189727	1229	753	103	280382	3676107	191812
67	2018-04-14 09:07:55		0	0	0	0	0	0	7.77	44.3	0.13	441151	0	57228	344972	441151	441151	195408	1273	773	106	285640	3676135	197560
68	2018-04-14 09:17:57		0	0	0	0	0	0	7.88	43.73	0.13	454098	0	60370	352212	454098	454098	198570	1318	794	109	289804	3676166	200791
69	2018-04-14 09:27:58		0	0	0	0	0	0	7.99	44.58	0.14	467038	0	63355	360022	467038	467038	208212	1365	812	112	293558	3676191	210501
70	2018-04-14 09:37:59		0	0	0	0	0	0	8.13	44.71	0.14	480171	0	66320	372871	480171	480171	214666	1399	839	114	299026	3676211	217018
71	2018-04-14 09:47:57		0	0	0	0	0	0	8.27	44.84	0.14	493304	0	69135	381274	493304	493304	221191	1462	866	118	304077	3676236	223637
72	2018-04-14 09:57:56		0	0	0	0	0	0	8.45	44.98	0.14	507388	0	72033	394709	507388	507388	228220	1507	888	121	310763	3676256	230736
73	2018-04-14 10:07:58		0	0	0	0	0	0	8.68	45.14	0.14	521760	0	74875	409391	521760	521760	235539	1558	921	122	319116	3676279	238140
74	2018-04-14 10:17:57		0	0	0	0	0	0	8.81	45.29	0.14	535311	0	77545	419683	535311	535311	242420	1599	946	124	323703	3676308	245089
75	2018-04-14 10:27:57		0	0	0	0	0	0	8.94	45.43	0.15	548884	0	80324	429925	548884	548884	249357	1639	962	128	328690	3676345	252086
76	2018-04-14 10:37:58		0	0	0	0	0	0	9.11	45.56	0.15	562621	0	83142	438795	562621	562621	256327	1681	984	131	334780	3676364	259123
77	2018-04-14 10:47:58		0	0	0	0	0	0	9.33	45.68	0.15	576036	0	85909	452296	576036	576036	263144	1734	1003	132	342898	3676388	266013
78	2018-04-14 10:57:59		0	0	0	0	0	0	9.51	45.79	0.15	588821	0	88452	463831	588821	588821	269622	1782	1024	132	349788	3676409	272560
79	2018-04-14 11:08:01		0	0	0	0	0	0	9.67	45.88	0.15	601554	0	91031	475101	601554	601554	276001	1817	1051	135	355381	3676440	279004
80	2018-04-14 11:18:02		0	0	0	0	0	0	9.79	45.99	0.15	614233	0	93793	485684	614233	614233	282460	1857	1066	136	359764	3676461	285519
81	2018-04-14 11:28:05		0	0	0	0	0	0	9.91	46.08	0.15	626430	0	96549	493853	626430	626430	288632	1891	1086	139	364366	3676476	291748
82	2018-04-14 11:38:06		0	0	0	0	0	0	9.99	46.16	0.16	638351	0	99281	502927	638351	638351	294693	1941	1112	141	367365	3676516	297887
83	2018-04-14 11:48:04		0	0	0	0	0	0	10.08	46.22	0.16	649968	0	101994	508573	649968	649968	300433	1983	1139	147	370541	3676540	303702
84	2018-04-14 11:58:04		0	0	0	0	0	0	10.12	46.24	0.16	662121	0	105622	513379	662121	662121	306175	2016	1155	150	372088	3676555	309496
85	2018-04-14 12:08:03		0	0	0	0	0	0	10.23	45.88	0.16	673057	0	108633	520411	673057	673057	308823	2064	1171	151	376042	3676583	312209
86	2018-04-14 12:18:03		0	0	0	0	0	0	10.27	46.28	0.16	683512	0	111577	529344	683512	683512	316312	2092	1183	151	377753	3676612	319738
87	2018-04-14 12:28:05		0	0	0	0	0	0	10.38	46.31	0.16	693630	0	114424	536220	693630	693630	321226	2134	1198	152	381611	3676627	324710
88	2018-04-14 12:38:04		0	0	0	0	0	0	10.47	46.34	0.17	703177	0	117033	541850	703177	703177	325846	2168	1216	152	384765	3676650	329382
89	2018-04-14 12:48:05		0	0	0	0	0	0	10.56	46.35	0.17	712539	0	119572	550019	712539	712539	330284	2206	1234	155	388214	3676668	333879
90	2018-04-14 12:58:06		0	0	0	0	0	0	10.63	46.38	0.17	721721	0	122073	556388	721721	721721	334730	2237	1256	155	390953	3676691	338378
91	2018-04-14 13:08:05		0	0	0	0	0	0	10.73	46.4	0.17	730762	0	124495	560600	730762	730762	339102	2262	1273	157	394461	3676718	342794
92	2018-04-14 13:18:11		0	0	0	0	0	0	10.84	46.4	0.17	739732	0	126899	570924	739732	739732	343245	2300	1295	159	398382	3676738	346999
93	2018-04-14 13:28:11		0	0	0	0	0	0	10.91	46.41	0.17	748646	0	129291	577728	748646	748646	347472	2324	1310	163	400954	3676753	351269
94	2018-04-14 13:38:09		0	0	0	0	0	0	10.99	46.41	0.17	757403	0	131602	583801	757403	757403	351500	2356	1328	168	404213	3676769	355352
95	2018-04-14 13:48:09		0	0	0	0	0	0	11.14	46.42	0.17	765867	0	133885	593501	765867	765867	355495	2383	1342	169	409543	3676797	359389
96	2018-04-14 13:58:11		0	0	0	0	0	0	11.2	46.42	0.18	774160	0	136075	600607	774160	774160	359399	2408	1356	171	411733	3676813	363334
97	2018-04-14 14:08:10		0	0	0	0	0	0	11.33	46.44	0.18	782037	0	138031	609177	782037	782037	363211	2433	1372	171	416433	3676831	367187
98	2018-04-14 14:18:10		0	0	0	0	0	0	11.44	46.46	0.18	789658	0	140054	616261	789658	789658	366894	2458	1392	175	420501	3676840	370919
99	2018-04-14 14:28:10		0	0	0	0	0	0	11.47	46.46	0.18	797389	0	142173	621940	797389	797389	370474	2474	1404	177	421783	3676857	374529
100	2018-04-14 14:38:10		0	0	0	0	0	0	11.51	46.48	0.18	804323	0	144092	626027	804323	804323	373849	2495	1417	177	423224	3676871	377938
101	2018-04-14 14:48:10		0	0	0	0	0	0	11.61	46.49	0.18	811211	0	146000	632420	811211	811211	377093	2511	1428	178	427018	3676883	381210
102	2018-04-14 14:58:12		0	0	0	0	0	0	11.67	46.5	0.18	818059	0	147898	637367	818059	818059	380407	2533	1437	180	429119	3676895	384557
103	2018-04-14 15:08:12		0	0	0	0	0	0	11.78	46.51	0.18	825153	0	149787	642309	825153	825153	383751	2554	1451	181	433262	3676910	387937
104	2018-04-14 15:18:12		0	0	0	0	0	0	11.85	46.51	0.18	831917	0	151604	646246	831917	831917	386953	2577	1461	184	435877	3676913	391175
105	2018-04-14 15:28:14		0	0	0	0	0	0	11.96	46.52	0.18	838771	0	153479	655238	838771	838771	390215	2591	1472	185	439715	3676927	394463
106	2018-04-14 15:38:21		0	0	0	0	0	0	12	46.54	0.18	845270	0	155108	659227	845270	845270	393362	2611	1485	187	441376	3676937	397645
107	2018-04-14 15:48:15		0	0	0	0	0	0	12.06	46.54	0.18	851900	0	156865	663892	851900	851900	396514	2630	1495	188	443335	3676951	400827
108	2018-04-14 15:58:16		0	0	0	0	0	0	12.14	46.38	0.18	858358	0	158517	669883	858358	858358	398121	2650	1507	188	446208	3676965	402466
109	2018-04-14 16:08:15		0	0	0	0	0	0	12.17	46.58	0.19	864908	0	160141	674332	864908	864908	402909	2666	1514	188	447369	3676981	407277
110	2018-04-14 16:18:14		0	0	0	0	0	0	12.25	46.61	0.19	871623	0	161650	677773	871623	871623	406297	2684	1525	191	450264	3677002	410697
111	2018-04-14 16:28:16		0	0	0	0	0	0	12.27	46.65	0.19	878095	0	163142	680258	878095	878095	409645	2712	1531	192	451006	3677002	414080
112	2018-04-14 16:38:16		0	0	0	0	0	0	12.3	46.69	0.19	884227	0	164513	689910	884227	884227	412815	2735	1543	194	452352	3677017	417287
113	2018-04-14 16:48:16		0	0	0	0	0	0	12.41	46.72	0.19	890680	0	166043	697339	890680	890680	416142	2759	1557	196	456474	3677039	420654
114	2018-04-14 16:58:17		0	0	0	0	0	0	12.5	46.75	0.19	897012	0	167549	701998	897012	897012	419362	2778	1568	197	459487	3677054	423905
115	2018-04-14 17:08:18		0	0	0	0	0	0	12.57	46.78	0.19	903385	0	168971	706841	903385	903385	422607	2802	1575	197	462196	3677071	427181
116	2018-04-14 17:18:18		0	0	0	0	0	0	12.61	46.82	0.19	909510	0	170340	708337	909510	912729	425811	2816	1590	198	463806	3677084	430415
117	2018-04-14 17:28:18		0	0	0	0	0	0	12.7	46.84	0.19	915804	0	171734	717758	915804	915804	428995	2838	1603	203	466997	3677093	433639
118	2018-04-14 17:38:20		0	0	0	0	0	0	12.74	46.87	0.19	922124	0	173113	721836	922124	922124	432212	2858	1618	203	468295	3677116	436891
119	2018-04-14 17:48:19		0	0	0	0	0	0	12.79	46.9	0.19	928114	0	174426	725556	928114	928114	435322	2877	1625	205	470358	3677137	440029
120	2018-04-14 17:58:20		0	0	0	0	0	0	12.88	46.94	0.19	934072	0	175755	731924	934072	934072	438474	2895	1640	210	473577	3677152	443219
121	2018-04-14 18:08:22		0	0	0	0	0	0	12.91	46.96	0.19	940051	0	177163	735652	940051	940051	441486	2915	1655	213	474594	3677165	446269
122	2018-04-14 18:18:20		0	0	0	0	0	0	12.94	47	0.19	945568	0	178431	739328	945568	945568	444403	2937	1659	217	475755	3677181	449216
123	2018-04-14 18:28:22		0	0	0	0	0	0	12.97	47.03	0.19	951161	0	179689	740721	951161	951161	447296	2958	1673	217	476845	3677200	452144
124	2018-04-14 18:38:22		0	0	0	0	0	0	12.97	47.05	0.19	956736	0	181038	741774	956736	956736	450137	2970	1684	219	476845	3677225	455010
125	2018-04-14 18:48:23		0	0	0	0	0	0	12.97	47.08	0.19	962226	0	182298	746829	962226	962226	453027	2985	1691	219	476974	3677247	457922
126	2018-04-14 18:58:23		0	0	0	0	0	0	13.04	47.1	0.19	967623	0	183516	752318	967623	967623	455797	3004	1706	220	479652	3677274	460727
127	2018-04-14 19:08:24		0	0	0	0	0	0	13.09	47.14	0.19	973052	0	184815	755530	973052	973052	458702	3024	1715	222	481479	3677288	463663
128	2018-04-14 19:18:29		0	0	0	0	0	0	13.11	47.15	0.19	978561	0	186064	758097	978561	978561	461419	3044	1727	223	482079	3677300	466413
129	2018-04-14 19:28:29		0	0	0	0	0	0	13.2	47.18	0.19	983924	0	187307	762296	983924	983924	464258	3065	1738	225	485557	3677311	469286
130	2018-04-14 19:38:29		0	0	0	0	0	0	13.27	47.22	0.19	989209	0	188563	764142	989209	989209	467058	3081	1748	225	487924	3677328	472112
131	2018-04-14 19:48:30		0	0	0	0	0	0	13.32	47.25	0.19	994261	0	189758	766412	994261	994261	469758	3104	1753	227	489815	3677347	474842
132	2018-04-14 19:58:30		0	0	0	0	0	0	13.39	47.27	0.19	999371	0	190917	772398	999371	999371	472383	3129	1761	228	492581	3677365	477501
133	2018-04-14 20:08:31		0	0	0	0	0	0	13.41	47.29	0.19	1004616	0	192194	773701	1004616	1004616	475112	3146	1771	231	493032	3677369	480260
134	2018-04-14 20:18:33		0	0	0	0	0	0	13.46	47.2	0.19	1012341	0	193408	778424	1012341	1009862	477834	3176	1780	232	495081	3677387	483022
135	2018-04-14 20:28:31		0	0	0	0	0	0	13.52	47.34	0.19	1014825	0	194721	783297	1014825	1014825	480372	3201	1796	234	497029	3677413	485603
136	2018-04-14 20:38:33		0	0	0	0	0	0	13.55	47.35	0.19	1020033	0	196015	786830	1020033	1020033	483010	3224	1803	237	498308	3677430	488274
137	2018-04-14 20:48:33		0	0	0	0	0	0	13.56	47.37	0.19	1025267	0	197295	788571	1025267	1025267	485691	3244	1810	237	498830	3677450	490982
138	2018-04-14 20:58:33		0	0	0	0	0	0	13.61	47.4	0.19	1030439	0	198547	790686	1030439	1030439	488454	3262	1820	238	500685	3677464	493774
139	2018-04-14 21:08:35		0	0	0	0	0	0	13.63	47.32	0.19	1038037	0	199878	798652	1038037	1035641	491187	3281	1833	240	501410	3677482	496541
140	2018-04-14 21:18:34		0	0	0	0	0	0	13.69	47.45	0.19	1040608	0	201138	802872	1040608	1040608	493755	3297	1842	241	503377	3677497	499135
141	2018-04-14 21:28:35		0	0	0	0	0	0	13.7	47.46	0.19	1045714	0	202417	804698	1045714	1045714	496306	3321	1851	245	503766	3677515	501723
142	2018-04-14 21:38:37		0	0	0	0	0	0	13.76	47.48	0.19	1051077	0	203710	806899	1051077	1053667	499007	3338	1858	246	506133	3677529	504449
143	2018-04-14 21:48:37		0	0	0	0	0	0	13.83	47.49	0.19	1056272	0	205775	811207	1056272	1056272	501598	3359	1866	247	508763	3677538	507070
144	2018-04-14 21:58:39		0	0	0	0	0	0	13.87	47.51	0.19	1061727	0	206461	814836	1061727	1061727	504399	3381	1876	250	509957	3677558	509906
145	2018-04-14 22:08:38		0	0	0	0	0	0	13.91	47.52	0.19	1067562	0	208595	821504	1067562	1070212	507306	3407	1884	250	511378	3677573	512847
146	2018-04-14 22:18:42		0	0	0	0	0	0	13.94	47.53	0.2	1073500	0	209864	823689	1073500	1073500	510186	3429	1889	251	512564	3677597	515755
147	2018-04-14 22:28:40		0	0	0	0	0	0	13.99	47.53	0.2	1079896	0	212414	826107	1079896	1079896	513325	3445	1899	253	514523	3677620	518922
148	2018-04-14 22:38:40		0	0	0	0	0	0	14.01	47.54	0.2	1085914	0	214460	828869	1085914	1085914	516283	3455	1904	255	515293	3677641	521897
149	2018-04-14 22:48:41		0	0	0	0	0	0	14.02	47.56	0.2	1091545	0	216423	831457	1091545	1091545	519173	3468	1910	255	515755	3677657	524806
150	2018-04-14 22:58:41		0	0	0	0	0	0	14.08	47.59	0.2	1096961	0	218363	840770	1096961	1096961	521994	3480	1919	256	517781	3677666	527649
151	2018-04-14 23:08:42		0	0	0	0	0	0	14.1	47.6	0.2	1102356	0	220219	843748	1102356	1102356	524758	3499	1922	256	518388	3677694	530435
152	2018-04-14 23:18:42		0	0	0	0	0	0	14.17	47.62	0.2	1107499	0	221973	846632	1107499	1107499	527436	3518	1927	257	521158	3677719	533138
153	2018-04-14 23:28:43		0	0	0	0	0	0	14.21	47.64	0.2	1112588	0	224481	849157	1112588	1115071	530078	3534	1936	258	522687	3677735	535806
154	2018-04-14 23:38:44		0	0	0	0	0	0	14.27	47.67	0.2	1117452	0	225288	859074	1117452	1119682	532671	3545	1951	259	524791	3677761	538426
155	2018-04-14 23:48:38		0	0	0	0	0	0	14.29	47.69	0.2	1121991	0	226756	859850	1121991	1124137	535086	3559	1956	260	525392	3677783	540861
156	2018-04-14 23:58:39		0	0	0	0	0	0	14.37	47.71	0.2	1126357	0	228175	867468	1126357	1126357	537364	3582	1966	264	528351	3677801	543176
157	2018-04-15 00:08:41		0	0	0	0	0	0	14.37	47.73	0.2	1130815	0	229526	867954	1130815	1130815	539773	3597	1972	265	528531	3677812	545607
158	2018-04-15 00:18:41		0	0	0	0	0	0	14.37	47.75	0.2	1135145	0	230848	867954	1135145	1137276	542084	3611	1977	267	528531	3677825	547939
159	2018-04-15 00:28:41		0	0	0	0	0	0	14.37	47.78	0.2	1139249	0	232540	872049	1139249	1139249	544341	3624	1983	267	528531	3677838	550215
160	2018-04-15 00:38:41		0	0	0	0	0	0	14.41	47.81	0.2	1143177	0	233101	874018	1143177	1143177	546568	3646	1989	267	529797	3677848	552470
161	2018-04-15 00:48:41		0	0	0	0	0	0	14.44	47.84	0.2	1146694	0	234102	879384	1146694	1148424	548588	3654	1998	268	530943	3677865	554508
162	2018-04-15 00:58:42		0	0	0	0	0	0	14.47	47.86	0.2	1150142	0	235129	879884	1150142	1151763	550477	3660	2001	269	532038	3677876	556407
163	2018-04-15 01:08:43		0	0	0	0	0	0	14.48	47.83	0.2	1154783	0	235994	881324	1154783	1153335	552316	3668	2007	270	532564	3677887	558261
164	2018-04-15 01:18:44		0	0	0	0	0	0	14.5	47.91	0.2	1156159	0	236746	882391	1156159	1157563	553950	3680	2012	270	533321	3677896	559912
165	2018-04-15 01:28:43		0	0	0	0	0	0	14.5	47.93	0.21	1158964	0	237880	882643	1158964	1158964	555539	3689	2017	270	533321	3677904	561515
166	2018-04-15 01:38:46		0	0	0	0	0	0	14.51	47.91	0.21	1162609	0	238527	885103	1162609	1162609	557015	3696	2024	270	533505	3677912	563005
167	2018-04-15 01:48:46		0	0	0	0	0	0	14.51	47.98	0.2	1163707	0	238783	887577	1163707	1164800	558339	3707	2028	271	533505	3677926	564345
168	2018-04-15 01:58:47		0	0	0	0	0	0	14.51	48	0.21	1165861	0	239296	887577	1165861	1165861	559561	3717	2028	272	533505	3677932	565578
169	2018-04-15 02:08:48		0	0	0	0	0	0	14.51	47.98	0.21	1168583	0	239939	888787	1168583	1167677	560675	3722	2028	272	533677	3677942	566697
170	2018-04-15 02:18:47		0	0	0	0	0	0	14.53	48.03	0.21	1169496	0	240310	890064	1169496	1169496	561751	3726	2030	272	534506	3677944	567779
171	2018-04-15 02:28:46		0	0	0	0	0	0	14.53	48.05	0.21	1171172	0	240719	891313	1171172	1172003	562784	3731	2030	272	534587	3677950	568817
172	2018-04-15 02:38:47		0	0	0	0	0	0	14.58	48.07	0.21	1172746	0	240912	891827	1172746	1173505	563779	3732	2033	272	536068	3677957	569816
173	2018-04-15 02:48:47		0	0	0	0	0	0	14.58	48.09	0.21	1174247	0	241254	895761	1174247	1174247	564638	3735	2037	272	536068	3677966	570682
174	2018-04-15 02:58:49		0	0	0	0	0	0	14.59	48.1	0.21	1175641	0	241583	898621	1175641	1175641	565471	3740	2038	273	536718	3677968	571522
175	2018-04-15 03:08:50		0	0	0	0	0	0	14.59	48.09	0.21	1177466	0	242005	899796	1177466	1176879	566243	3745	2040	274	536718	3677973	572302
176	2018-04-15 03:18:49		0	0	0	0	0	0	14.59	48.13	0.21	1178052	0	242146	901360	1178052	1178052	566965	3748	2041	274	536718	3677975	573028
177	2018-04-15 03:28:51		0	0	0	0	0	0	14.6	48.12	0.21	1179653	0	242410	901753	1179653	1179653	567611	3749	2043	274	536858	3677977	573677
178	2018-04-15 03:38:52		0	0	0	0	0	0	14.6	48.13	0.21	1180618	0	242625	901753	1180618	1180618	568213	3753	2045	274	536858	3677983	574285
179	2018-04-15 03:48:53		0	0	0	0	0	0	14.63	48.16	0.21	1181116	0	242954	903859	1181116	1181116	568787	3758	2046	274	538071	3677982	574865
180	2018-04-15 03:58:55		0	0	0	0	0	0	14.63	48.16	0.21	1182036	0	243159	903859	1182036	1182446	569321	3760	2049	274	538071	3677986	575404
181	2018-04-15 04:08:55		0	0	0	0	0	0	14.63	48.16	0.21	1183163	0	243244	903859	1183163	1183163	569836	3764	2050	274	538071	3677988	575924
182	2018-04-15 04:18:55		0	0	0	0	0	0	14.63	48.17	0.21	1183797	0	243425	903859	1183797	1183489	570206	3770	2050	275	538071	3677991	576301
183	2018-04-15 04:28:54		0	0	0	0	0	0	14.63	48.17	0.21	1184421	0	243670	904387	1184421	1184421	570552	3771	2051	275	538071	3677992	576649
184	2018-04-15 04:38:55		0	0	0	0	0	0	14.63	48.16	0.21	1185026	0	243764	904453	1185026	1184726	570722	3775	2051	275	538071	3677995	576823
185	2018-04-15 04:48:56		0	0	0	0	0	0	14.63	48.19	0.21	1185291	0	243888	905511	1185291	1185598	571206	3777	2052	275	538071	3677997	577310
186	2018-04-15 04:58:56		0	0	0	0	0	0	14.65	48.19	0.21	1185871	0	244094	907236	1185871	1186125	571504	3781	2052	275	538820	3677997	577612
187	2018-04-15 05:08:57		0	0	0	0	0	0	14.65	48.19	0.21	1186639	0	244218	909768	1186639	1186639	571798	3781	2052	275	538820	3678001	577906
188	2018-04-15 05:19:02		0	0	0	0	0	0	14.65	48.19	0.21	1187148	0	244341	909768	1187148	1186924	572100	3785	2052	275	538820	3678002	578212
189	2018-04-15 05:29:07		0	0	0	0	0	0	14.65	48.2	0.21	1187637	0	244465	909768	1187637	1187637	572385	3790	2053	275	539007	3678003	578503
190	2018-04-15 05:39:04		0	0	0	0	0	0	14.66	48.19	0.21	1188179	0	244605	910036	1188179	1188179	572628	3790	2054	275	539101	3678008	578747
191	2018-04-15 05:48:59		0	0	0	0	0	0	14.66	48.2	0.21	1188686	0	244719	910036	1188686	1188686	572918	3791	2055	275	539101	3678009	579039
192	2018-04-15 05:58:59		0	0	0	0	0	0	14.66	48.21	0.21	1189230	0	244862	910036	1189230	1188957	573351	3793	2056	275	539101	3678010	579475
193	2018-04-15 06:08:59		0	0	0	0	0	0	14.67	48.21	0.21	1189745	0	245014	912920	1189745	1189745	573619	3794	2057	276	539454	3678013	579746
194	2018-04-15 06:19:00		0	0	0	0	0	0	14.69	48.2	0.21	1190331	0	245165	913459	1190331	1190055	573774	3796	2058	276	540395	3678009	579904
195	2018-04-15 06:29:01		0	0	0	0	0	0	14.69	48.22	0.21	1190651	0	245323	913459	1190651	1190980	574101	3800	2058	276	540395	3678014	580235
196	2018-04-15 06:39:02		0	0	0	0	0	0	14.7	48.22	0.21	1191324	0	245538	913459	1191324	1191324	574453	3802	2062	276	540584	3678014	580593
197	2018-04-15 06:49:02		0	0	0	0	0	0	14.7	48.2	0.21	1192487	0	245779	914403	1192487	1192487	574820	3804	2063	277	540584	3678017	580964
198	2018-04-15 06:59:01		0	0	0	0	0	0	14.7	48.21	0.21	1193398	0	246041	914403	1193398	1193398	575290	3813	2063	278	540584	3678015	581444
199	2018-04-15 07:09:04		0	0	0	0	0	0	14.7	48.2	0.21	1194340	0	246324	916840	1194340	1194340	575730	3816	2065	279	540584	3678018	581890
200	2018-04-15 07:19:05		0	0	0	0	0	0	14.7	48.23	0.21	1194854	0	246457	916840	1194854	1194854	576273	3820	2068	279	540584	3678020	582440
201	2018-04-15 07:29:10		0	0	0	0	0	0	14.7	48.24	0.21	1196038	0	246989	919426	1196038	1196038	576922	3825	2071	279	540584	3678025	583097
202	2018-04-15 07:39:05		0	0	0	0	0	0	14.72	48.24	0.21	1197404	0	247193	921272	1197404	1197404	577657	3829	2073	279	541269	3678035	583838
203	2018-04-15 07:49:05		0	0	0	0	0	0	14.72	48.25	0.21	1198866	0	247634	924677	1198866	1198866	578431	3838	2076	279	541506	3678037	584624
204	2018-04-15 07:59:05		0	0	0	0	0	0	14.77	48.26	0.21	1200598	0	248153	926510	1200598	1200598	579406	3845	2079	279	543096	3678046	585609
205	2018-04-15 08:09:06		0	0	0	0	0	0	14.83	48.27	0.21	1202630	0	248727	929709	1202630	1202630	580532	3856	2084	279	545392	3678055	586751
206	2018-04-15 08:19:07		0	0	0	0	0	0	14.88	48.29	0.21	1204871	0	249407	933353	1204871	1204871	581791	3866	2091	280	547127	3678058	588028
207	2018-04-15 08:29:05		0	0	0	0	0	0	14.89	48.3	0.21	1207297	0	250069	933353	1207297	1208616	583157	3872	2095	281	547514	3678067	589405
208	2018-04-15 08:39:07		0	0	0	0	0	0	14.91	48.32	0.21	1209968	0	250803	937375	1209968	1209968	584624	3881	2100	281	548581	3678076	590886
209	2018-04-15 08:49:07		0	0	0	0	0	0	14.93	48.34	0.21	1212811	0	251626	938654	1212811	1212811	586233	3903	2103	281	549311	3678081	592520
210	2018-04-15 08:59:09		0	0	0	0	0	0	14.99	48.36	0.21	1215823	0	252482	943732	1215823	1215823	587933	3916	2108	281	551169	3678090	594238
211	2018-04-15 09:09:10		0	0	0	0	0	0	15	48.38	0.21	1219039	0	253418	948865	1219039	1219039	589733	3927	2114	281	551562	3678101	596055
212	2018-04-15 09:19:11		0	0	0	0	0	0	15.01	48.4	0.21	1222318	0	254331	950353	1222318	1222318	591632	3938	2120	281	551955	3678109	597971
213	2018-04-15 09:29:11		0	0	0	0	0	0	15.1	48.43	0.21	1225689	0	255234	953462	1225689	1225689	593563	3952	2129	281	555321	3678124	599925
214	2018-04-15 09:39:09		0	0	0	0	0	0	15.2	48.45	0.21	1229147	0	256194	959148	1229147	1229147	595560	3965	2138	282	559131	3678136	601945
215	2018-04-15 09:49:10		0	0	0	0	0	0	15.2	48.48	0.21	1232633	0	257223	959743	1232633	1234471	597582	3977	2141	284	559131	3678147	603984
216	2018-04-15 09:59:11		0	0	0	0	0	0	15.2	48.44	0.21	1238088	0	258213	960264	1238088	1236291	599697	3986	2150	285	559131	3678167	606118
217	2018-04-15 10:09:12		0	0	0	0	0	0	15.22	48.45	0.21	1239946	0	259122	963005	1239946	1239946	600749	4004	2157	288	559915	3678175	607198
218	2018-04-15 10:19:11		0	0	0	0	0	0	15.24	48.56	0.21	1243552	0	260097	965407	1243552	1243552	603928	4013	2165	289	560675	3678184	610395
219	2018-04-15 10:29:12		0	0	0	0	0	0	15.28	48.59	0.21	1247253	0	261016	968578	1247253	1247253	606102	4026	2174	289	561896	3678189	612591
220	2018-04-15 10:39:12		0	0	0	0	0	0	15.29	48.63	0.21	1250898	0	261955	969905	1250898	1250898	608312	4036	2181	291	562304	3678190	614820
221	2018-04-15 10:49:12		0	0	0	0	0	0	15.31	48.59	0.21	1256372	0	262881	972094	1256372	1254543	610455	4048	2186	294	563116	3678199	616983
222	2018-04-15 10:59:14		0	0	0	0	0	0	15.33	48.69	0.21	1258196	0	263849	976078	1258196	1258196	612566	4060	2195	294	563834	3678205	619115
223	2018-04-15 11:09:17		0	0	0	0	0	0	15.33	48.72	0.21	1261677	0	264706	979552	1261677	1261677	614716	4073	2202	294	564039	3678215	621285
224	2018-04-15 11:19:17		0	0	0	0	0	0	15.34	48.69	0.21	1266814	0	265526	982188	1266814	1265116	616802	4082	2211	295	564346	3678226	623390
225	2018-04-15 11:29:17		0	0	0	0	0	0	15.4	48.79	0.21	1268511	0	266353	986098	1268511	1270181	618897	4090	2216	295	566281	3678229	625498
226	2018-04-15 11:39:18		0	0	0	0	0	0	15.4	48.83	0.21	1271848	0	267547	986412	1271848	1271848	621035	4105	2219	295	566281	3678233	627654
227	2018-04-15 11:49:16		0	0	0	0	0	0	15.41	48.86	0.21	1275187	0	267956	989683	1275187	1275187	623076	4123	2224	295	566903	3678240	629718
228	2018-04-15 11:59:17		0	0	0	0	0	0	15.42	48.9	0.21	1278654	0	268777	990000	1278654	1278654	625245	4135	2232	296	567111	3678250	631908
229	2018-04-15 12:09:19		0	0	0	0	0	0	15.42	48.94	0.21	1282365	0	269675	990633	1282365	1282365	627597	4151	2236	297	567215	3678266	634281
230	2018-04-15 12:19:18		0	0	0	0	0	0	15.45	48.89	0.21	1286096	0	270535	993175	1286096	1286096	628746	4165	2243	302	568360	3678266	635456
231	2018-04-15 12:29:19		0	0	0	0	0	0	15.45	49.02	0.21	1289911	0	271372	995090	1289911	1289911	632314	4182	2251	302	568465	3678280	639049
232	2018-04-15 12:39:19		0	0	0	0	0	0	15.49	49.06	0.21	1293787	0	272184	998178	1293787	1293787	634751	4191	2256	304	569811	3678291	641502
233	2018-04-15 12:49:19		0	0	0	0	0	0	15.51	49.1	0.21	1297630	0	273041	1004767	1297630	1297630	637121	4204	2260	305	570648	3678296	643890
234	2018-04-15 12:59:21		0	0	0	0	0	0	15.52	49.06	0.21	1303274	0	273840	1005338	1303274	1301397	639429	4216	2264	306	570832	3678305	646215
235	2018-04-15 13:09:21		0	0	0	0	0	0	15.52	49.16	0.21	1305282	0	275086	1012111	1305282	1307216	641716	4226	2270	310	571030	3678310	648522
236	2018-04-15 13:19:22		0	0	0	0	0	0	15.53	49.19	0.21	1309105	0	275800	1013602	1309105	1310993	643985	4237	2276	312	571082	3678317	650810
237	2018-04-15 13:29:24		0	0	0	0	0	0	15.53	49.16	0.21	1314683	0	276563	1015097	1314683	1314683	646262	4250	2282	314	571293	3678321	653108
238	2018-04-15 13:39:24		0	0	0	0	0	0	15.55	49.19	0.21	1318500	0	277358	1019862	1318500	1316595	648597	4272	2289	317	572138	3678329	655475
239	2018-04-15 13:49:22		0	0	0	0	0	0	15.55	49.22	0.21	1322427	0	278224	1023232	1322427	1320451	650874	4281	2293	322	572138	3678336	657770
240	2018-04-15 13:59:24		0	0	0	0	0	0	15.55	49.32	0.21	1324310	0	279018	1023909	1324310	1326223	653120	4292	2299	324	572138	3678345	660035
241	2018-04-15 14:09:23		0	0	0	0	0	0	15.57	49.36	0.21	1329728	0	279859	1023909	1329728	1329728	656345	4307	2304	325	572773	3678361	663281
242	2018-04-15 14:19:25		0	0	0	0	0	0	15.6	49.31	0.21	1333267	0	280700	1030511	1333267	1333267	657388	4322	2310	327	573728	3678368	664347
243	2018-04-15 14:29:24		0	0	0	0	0	0	15.61	49.34	0.21	1336612	0	281079	1032918	1336612	1336612	659450	4338	2315	328	574153	3678371	666431
244	2018-04-15 14:39:24		0	0	0	0	0	0	15.61	49.42	0.21	1338240	0	282270	1038265	1338240	1338240	661408	4349	2320	330	574366	3678380	668407
245	2018-04-15 14:49:24		0	0	0	0	0	0	15.62	49.38	0.21	1343293	0	282672	1039485	1343293	1343293	663379	4360	2327	331	574580	3678387	670397
246	2018-04-15 14:59:28		0	0	0	0	0	0	15.62	49.41	0.21	1346542	0	283923	1043733	1346542	1346542	665310	4370	2330	331	574686	3678389	672341
247	2018-04-15 15:09:31		0	0	0	0	0	0	15.63	49.43	0.21	1349725	0	284678	1047573	1349725	1349725	667200	4375	2337	333	574886	3678395	674245
248	2018-04-15 15:19:32		0	0	0	0	0	0	15.64	49.45	0.21	1352941	0	285489	1047795	1352941	1352941	669035	4389	2342	333	575367	3678405	676099
249	2018-04-15 15:29:30		0	0	0	0	0	0	15.64	49.47	0.21	1356170	0	286286	1051665	1356170	1356170	670923	4406	2346	335	575367	3678409	678010
250	2018-04-15 15:39:32		0	0	0	0	0	0	15.64	49.43	0.21	1359329	0	287096	1052559	1359329	1359329	671868	4410	2351	335	575367	3678416	678964
251	2018-04-15 15:49:31		0	0	0	0	0	0	15.64	49.52	0.21	1362404	0	287916	1054351	1362404	1362404	674625	4420	2357	335	575367	3678430	681737
252	2018-04-15 15:59:31		0	0	0	0	0	0	15.66	49.53	0.21	1365507	0	288691	1058677	1365507	1365507	676390	4430	2363	336	576224	3678438	683519
253	2018-04-15 16:09:31		0	0	0	0	0	0	15.71	49.56	0.21	1368550	0	289518	1062434	1368550	1368550	678241	4437	2369	336	577715	3678447	685383
254	2018-04-15 16:19:34		0	0	0	0	0	0	15.71	49.59	0.21	1371488	0	290270	1063346	1371488	1371488	680109	4451	2376	336	577715	3678465	687272
255	2018-04-15 16:29:32		0	0	0	0	0	0	15.72	49.61	0.21	1374433	0	291005	1065817	1374433	1374433	681840	4459	2385	337	578120	3678472	689021
256	2018-04-15 16:39:33		0	0	0	0	0	0	15.75	49.63	0.21	1377385	0	291768	1069222	1377385	1377385	683631	4472	2390	337	579391	3678480	690830
257	2018-04-15 16:49:35		0	0	0	0	0	0	15.76	49.66	0.21	1380312	0	292544	1071766	1380312	1380312	685445	4479	2400	338	579811	3678499	692662
258	2018-04-15 16:59:36		0	0	0	0	0	0	15.77	49.68	0.21	1383288	0	293429	1076517	1383288	1383288	687186	4487	2408	338	580029	3678511	694419
259	2018-04-15 17:09:37		0	0	0	0	0	0	15.77	49.68	0.21	1386787	0	294852	1078955	1386787	1386787	689013	4496	2413	339	580029	3678517	696261
260	2018-04-15 17:19:35		0	0	0	0	0	0	15.78	49.77	0.21	1390267	0	296142	1081122	1390267	1390267	691916	4508	2421	341	580464	3678528	699186
261	2018-04-15 17:29:35		0	0	0	0	0	0	15.79	49.71	0.21	1393635	0	297454	1083178	1393635	1393635	692845	4527	2425	342	581001	3678538	700139
262	2018-04-15 17:39:36		0	0	0	0	0	0	15.79	49.73	0.21	1396904	0	298628	1083510	1396904	1396904	694692	4537	2432	343	581001	3678546	702004
263	2018-04-15 17:49:37		0	0	0	0	0	0	15.79	49.75	0.21	1400066	0	299725	1088413	1400066	1400066	696591	4543	2437	344	581001	3678557	703915
264	2018-04-15 17:59:37		0	0	0	0	0	0	15.8	49.77	0.21	1403089	0	300667	1093700	1403089	1403089	698327	4551	2441	346	581192	3678564	705665
265	2018-04-15 18:09:38		0	0	0	0	0	0	15.81	49.79	0.21	1406022	0	301538	1095320	1406022	1406022	700026	4564	2446	347	581431	3678566	707383
266	2018-04-15 18:19:38		0	0	0	0	0	0	15.81	49.8	0.21	1409050	0	302384	1096678	1409050	1409050	701745	4569	2450	348	581431	3678564	709112
267	2018-04-15 18:29:37		0	0	0	0	0	0	15.81	49.82	0.21	1412025	0	303209	1101849	1412025	1412025	703486	4577	2457	348	581649	3678568	710868
268	2018-04-15 18:39:43		0	0	0	0	0	0	15.82	49.84	0.21	1414979	0	303986	1105339	1414979	1414979	705236	4586	2464	350	582032	3678573	712636
269	2018-04-15 18:49:44		0	0	0	0	0	0	15.82	49.86	0.21	1417993	0	304753	1107712	1417993	1417993	706990	4595	2466	351	582032	3678585	714402
270	2018-04-15 19:00:09		0	0	0	0	0	0	15.82	49.88	0.22	1421038	0	305583	1109399	1421038	1421038	708863	4608	2471	353	582059	3678588	716295
271	2018-04-15 19:09:45		0	0	0	0	0	0	15.82	49.9	0.22	1424081	0	306370	1110692	1424081	1424081	710593	4617	2474	354	582059	3678595	718038
272	2018-04-15 19:19:45		0	0	0	0	0	0	15.83	49.92	0.22	1427148	0	307173	1112488	1427148	1427148	712400	4629	2484	355	582224	3678600	719868
273	2018-04-15 19:29:44		0	0	0	0	0	0	15.84	49.94	0.22	1430032	0	307931	1114979	1430032	1430032	714192	4639	2493	355	582768	3678612	721679
274	2018-04-15 19:39:46		0	0	0	0	0	0	15.85	49.96	0.22	1433038	0	308729	1115959	1433038	1433038	715906	4644	2496	355	583097	3678619	723401
275	2018-04-15 19:49:51		0	0	0	0	0	0	15.86	49.98	0.22	1436210	0	309574	1118680	1436210	1436210	717760	4650	2501	356	583262	3678630	725267
276	2018-04-15 19:59:48		0	0	0	0	0	0	15.86	50.06	0.22	1439408	0	310382	1120705	1439408	1439408	720541	4661	2509	357	583262	3678640	728068
277	2018-04-15 20:09:49		0	0	0	0	0	0	15.86	50.07	0.22	1442633	0	311258	1122330	1442633	1442633	722390	4673	2514	358	583262	3678654	729935
278	2018-04-15 20:19:49		0	0	0	0	0	0	15.86	50.03	0.22	1445857	0	312181	1125134	1445857	1445857	723336	4680	2522	359	583482	3678661	730897
279	2018-04-15 20:29:49		0	0	0	0	0	0	15.86	50.05	0.22	1449110	0	313086	1126361	1449110	1449110	725243	4688	2525	359	583482	3678671	732815
280	2018-04-15 20:39:53		0	0	0	0	0	0	15.86	50.07	0.22	1452279	0	314021	1127900	1452279	1452279	727131	4700	2529	359	583482	3678680	734719
281	2018-04-15 20:49:54		0	0	0	0	0	0	15.91	50.08	0.22	1455449	0	314872	1135019	1455449	1455449	728945	4709	2532	361	585437	3678685	736547
282	2018-04-15 20:59:52		0	0	0	0	0	0	15.92	50.1	0.22	1458782	0	315717	1135383	1458782	1458782	730832	4716	2536	362	585547	3678692	738446
283	2018-04-15 21:09:50		0	0	0	0	0	0	15.94	50.11	0.22	1461940	0	316582	1138462	1461940	1461940	732629	4735	2544	362	586421	3678693	740270
284	2018-04-15 21:19:51		0	0	0	0	0	0	15.96	50.13	0.22	1465252	0	317502	1139667	1465252	1465252	734550	4743	2550	362	587199	3678697	742205
285	2018-04-15 21:29:51		0	0	0	0	0	0	15.98	50.15	0.22	1468530	0	318365	1140690	1468530	1468530	736427	4756	2550	364	587673	3678702	744097
286	2018-04-15 21:39:53		0	0	0	0	0	0	16	50.17	0.22	1471745	0	319230	1146810	1471745	1471745	738320	4767	2552	364	588734	3678712	746003
287	2018-04-15 21:49:53		0	0	0	0	0	0	16.03	50.19	0.22	1475099	0	320164	1150271	1475099	1475099	740281	4780	2557	366	589631	3678722	747984
288	2018-04-15 21:59:53		0	0	0	0	0	0	16.03	50.2	0.22	1478665	0	321064	1151929	1478665	1478665	742294	4791	2561	371	589631	3678731	750017
289	2018-04-15 22:09:53		0	0	0	0	0	0	16.03	50.21	0.22	1482183	0	321931	1153700	1482183	1482183	744258	4800	2565	374	589631	3678740	751997
290	2018-04-15 22:19:54		0	0	0	0	0	0	16.06	50.23	0.22	1485621	0	322770	1157947	1485621	1485621	746214	4804	2569	375	590640	3678746	753962
291	2018-04-15 22:29:56		0	0	0	0	0	0	16.1	50.24	0.22	1489018	0	323652	1161041	1489018	1489018	748156	4812	2573	375	592448	3678758	755916
292	2018-04-15 22:39:56		0	0	0	0	0	0	16.11	50.26	0.22	1492429	0	324542	1163659	1492429	1492429	750115	4822	2581	380	592732	3678764	757898
293	2018-04-15 22:49:57		0	0	0	0	0	0	16.12	50.27	0.22	1495928	0	325453	1165191	1495928	1495928	752059	4836	2588	381	592959	3678772	759864
294	2018-04-15 22:59:58		0	0	0	0	0	0	16.12	50.3	0.22	1499357	0	326317	1166289	1499357	1499357	754112	4844	2594	382	593072	3678779	761932
295	2018-04-15 23:09:54		0	0	0	0	0	0	16.12	50.32	0.22	1502754	0	327177	1171224	1502754	1502754	756186	4853	2599	381	593072	3678792	764019
296	2018-04-15 23:19:54		0	0	0	0	0	0	16.12	50.34	0.22	1505961	0	328004	1175643	1505961	1505961	758149	4864	2605	381	593072	3678799	765999
297	2018-04-15 23:29:54		0	0	0	0	0	0	16.14	50.37	0.22	1508987	0	328736	1176090	1508987	1508987	760029	4875	2612	381	593869	3678811	767897
298	2018-04-15 23:39:54		0	0	0	0	0	0	16.15	50.39	0.22	1511969	0	329452	1177208	1511969	1511969	761889	4879	2619	381	594096	3678829	769768
299	2018-04-15 23:49:56		0	0	0	0	0	0	16.15	50.41	0.22	1514870	0	330149	1177208	1514870	1514870	763689	4889	2626	381	594096	3678838	771585
300	2018-04-15 23:59:57		0	0	0	0	0	0	16.15	50.49	0.22	1517516	0	330753	1179450	1517516	1517516	766210	4901	2629	381	594096	3678836	774121
301	2018-04-16 00:09:57		0	0	0	0	0	0	16.15	50.52	0.22	1520088	0	331332	1180124	1520088	1520088	767896	4905	2630	381	594096	3678848	775812
302	2018-04-16 00:20:11		0	0	0	0	0	0	16.15	50.49	0.22	1522594	0	331867	1185036	1522594	1522594	768737	4916	2637	382	594096	3678852	776672
303	2018-04-16 00:30:10		0	0	0	0	0	0	16.16	50.52	0.22	1525052	0	332404	1186796	1525052	1525052	770381	4924	2642	382	594325	3678857	778329
304	2018-04-16 00:40:11		0	0	0	0	0	0	16.17	50.54	0.22	1527336	0	332879	1186796	1527336	1527336	771987	4930	2646	383	594781	3678867	779946
305	2018-04-16 00:50:10		0	0	0	0	0	0	16.17	50.57	0.22	1529537	0	333345	1187479	1529537	1529537	773486	4936	2649	384	594953	3678870	781455
306	2018-04-16 01:00:11		0	0	0	0	0	0	16.18	50.6	0.22	1531543	0	333710	1187479	1531543	1531543	774903	4941	2654	385	595410	3678869	782883
307	2018-04-16 01:10:11		0	0	0	0	0	0	16.18	50.62	0.22	1533342	0	334044	1187479	1533342	1533342	776150	4950	2656	386	595410	3678874	784142
308	2018-04-16 01:20:12		0	0	0	0	0	0	16.18	50.64	0.22	1534960	0	334336	1188847	1534960	1534960	777351	4954	2659	386	595410	3678882	785350
309	2018-04-16 01:30:13		0	0	0	0	0	0	16.19	50.66	0.22	1536412	0	334599	1189303	1536412	1536412	778405	4958	2662	386	595525	3678883	786411
310	2018-04-16 01:40:12		0	0	0	0	0	0	16.19	50.69	0.22	1537671	0	334826	1189303	1537671	1537671	779436	4963	2664	386	595525	3678889	787449
311	2018-04-16 01:50:14		0	0	0	0	0	0	16.2	50.7	0.22	1538874	0	335048	1190904	1538874	1538874	780280	4967	2664	388	595869	3678888	788299
312	2018-04-16 02:00:45		0	0	0	0	0	0	16.21	50.74	0.22	1539950	0	335232	1191706	1539950	1539950	781408	4970	2668	388	596213	3678886	789434
313	2018-04-16 02:10:15		0	0	0	0	0	0	16.21	50.73	0.22	1540860	0	335386	1193889	1540860	1540860	781731	4974	2670	388	596213	3678884	789763
314	2018-04-16 02:20:15		0	0	0	0	0	0	16.21	50.75	0.22	1541764	0	335544	1194234	1541764	1541764	782373	4979	2672	388	596213	3678884	790412
315	2018-04-16 02:30:16		0	0	0	0	0	0	16.23	50.76	0.22	1542587	0	335710	1194695	1542587	1542587	782968	4979	2672	388	597017	3678883	791007
316	2018-04-16 02:40:16		0	0	0	0	0	0	16.23	50.77	0.22	1543289	0	335839	1195791	1543289	1543289	783489	4979	2674	389	597017	3678886	791531
317	2018-04-16 02:50:19		0	0	0	0	0	0	16.23	50.78	0.22	1543869	0	335955	1195791	1543869	1543869	783936	4980	2675	389	597017	3678882	791980
318	2018-04-16 03:00:17		0	0	0	0	0	0	16.23	50.78	0.22	1544422	0	336060	1195791	1544422	1544422	784327	4984	2677	390	597017	3678883	792378
319	2018-04-16 03:10:18		0	0	0	0	0	0	16.23	50.79	0.22	1544964	0	336149	1196022	1544964	1544964	784737	4986	2678	390	597075	3678883	792791
320	2018-04-16 03:20:17		0	0	0	0	0	0	16.23	50.8	0.22	1545440	0	336222	1197641	1545440	1545440	785087	4988	2678	390	597075	3678884	793143
321	2018-04-16 03:30:17		0	0	0	0	0	0	16.23	50.81	0.22	1545903	0	336317	1198568	1545903	1545903	785398	4988	2679	390	597075	3678882	793455
322	2018-04-16 03:40:20		0	0	0	0	0	0	16.23	50.82	0.22	1546320	0	336402	1198568	1546320	1546320	785828	4993	2680	390	597075	3678886	793891
323	2018-04-16 03:50:21		0	0	0	0	0	0	16.23	50.83	0.22	1546713	0	336475	1198568	1546713	1546713	786119	4996	2681	390	597075	3678890	794186
324	2018-04-16 04:00:22		0	0	0	0	0	0	16.23	50.82	0.22	1547086	0	336557	1198568	1547086	1547086	786246	4999	2681	390	597075	3678887	794316
325	2018-04-16 04:10:21		0	0	0	0	0	0	16.23	50.83	0.22	1547438	0	336633	1199032	1547438	1547438	786495	5000	2682	390	597075	3678889	794567
326	2018-04-16 04:20:20		0	0	0	0	0	0	16.23	50.83	0.22	1547767	0	336716	1199381	1547767	1547767	786733	5002	2682	390	597075	3678887	794807
327	2018-04-16 04:30:22		0	0	0	0	0	0	16.23	50.83	0.22	1548100	0	336800	1201125	1548100	1548100	786931	5002	2683	390	597075	3678885	795006
328	2018-04-16 04:40:22		0	0	0	0	0	0	16.23	50.84	0.22	1548426	0	336879	1201592	1548426	1548426	787167	5003	2683	390	597248	3678885	795243
329	2018-04-16 04:50:22		0	0	0	0	0	0	16.23	50.84	0.22	1548772	0	336952	1201592	1548772	1548772	787368	5006	2684	391	597248	3678884	795449
330	2018-04-16 05:00:24		0	0	0	0	0	0	16.23	50.84	0.22	1549096	0	337032	1201592	1549096	1549096	787583	5006	2685	391	597248	3678884	795665
331	2018-04-16 05:10:25		0	0	0	0	0	0	16.23	50.84	0.22	1549435	0	337112	1201592	1549435	1549435	787786	5006	2686	391	597248	3678886	795869
332	2018-04-16 05:20:25		0	0	0	0	0	0	16.23	50.85	0.22	1549828	0	337218	1201592	1549828	1549828	788013	5006	2687	391	597248	3678887	796097
333	2018-04-16 05:30:28		0	0	0	0	0	0	16.23	50.86	0.22	1550267	0	337354	1201592	1550267	1550267	788398	5006	2689	391	597248	3678888	796484
334	2018-04-16 05:40:27		0	0	0	0	0	0	16.23	50.85	0.22	1550713	0	337473	1201592	1550713	1550713	788512	5008	2689	391	597248	3678889	796600
335	2018-04-16 05:50:27		0	0	0	0	0	0	16.23	50.85	0.22	1551197	0	337610	1201592	1551197	1551197	788809	5011	2690	391	597248	3678889	796901
336	2018-04-16 06:00:27		0	0	0	0	0	0	16.23	50.85	0.22	1551740	0	337754	1201592	1551740	1551740	789095	5013	2690	391	597248	3678889	797189
337	2018-04-16 06:10:28		0	0	0	0	0	0	16.23	50.85	0.22	1552363	0	337924	1201592	1552363	1552363	789450	5013	2692	391	597248	3678889	797546
338	2018-04-16 06:20:28		0	0	0	0	0	0	16.24	50.86	0.22	1553112	0	338165	1204630	1553112	1553112	789863	5018	2693	391	597421	3678890	797965
339	2018-04-16 06:30:27		0	0	0	0	0	0	16.24	50.86	0.22	1553974	0	338399	1204630	1553974	1553974	790332	5020	2694	391	597421	3678890	798437
340	2018-04-16 06:40:29		0	0	0	0	0	0	16.24	50.86	0.22	1554916	0	338661	1205451	1554916	1554916	790865	5023	2696	391	597421	3678890	798975
341	2018-04-16 06:50:28		0	0	0	0	0	0	16.24	50.86	0.22	1555932	0	338982	1205451	1555932	1555932	791405	5027	2698	391	597421	3678892	799521
342	2018-04-16 07:00:30		0	0	0	0	0	0	16.25	50.87	0.22	1557015	0	339275	1207331	1557015	1557015	792027	5030	2699	391	597767	3678890	800147
343	2018-04-16 07:10:31		0	0	0	0	0	0	16.25	50.87	0.22	1558175	0	339645	1208745	1558175	1558175	792706	5032	2701	391	597767	3678891	800830
344	2018-04-16 07:20:31		0	0	0	0	0	0	16.25	50.88	0.22	1559372	0	339978	1208745	1559372	1559372	793420	5037	2702	391	597767	3678894	801550
345	2018-04-16 07:30:36		0	0	0	0	0	0	16.25	50.91	0.22	1560736	0	340367	1208745	1560736	1560736	794615	5042	2703	391	597767	3678898	802751
346	2018-04-16 07:40:31		0	0	0	0	0	0	16.25	50.89	0.22	1562176	0	340735	1209689	1562176	1562176	795035	5048	2707	391	597767	3678904	803181
347	2018-04-16 07:50:32		0	0	0	0	0	0	16.25	50.9	0.22	1563843	0	341149	1211109	1563843	1563843	795947	5053	2709	392	597767	3678907	804101
348	2018-04-16 08:00:34		0	0	0	0	0	0	16.25	50.91	0.22	1565543	0	341591	1211109	1565543	1565543	796963	5061	2713	392	597767	3678908	805129
349	2018-04-16 08:10:34		0	0	0	0	0	0	16.25	50.92	0.22	1567317	0	342068	1211568	1567317	1567317	798048	5064	2716	392	597767	3678911	806220
350	2018-04-16 08:20:34		0	0	0	0	0	0	16.26	50.92	0.22	1569243	0	342573	1212754	1569243	1569243	799118	5068	2718	392	598229	3678917	807296
351	2018-04-16 08:30:34		0	0	0	0	0	0	16.26	50.94	0.22	1571110	0	343033	1212754	1571110	1571110	800315	5070	2719	392	598229	3678924	808496
352	2018-04-16 08:40:34		0	0	0	0	0	0	16.26	50.95	0.22	1573163	0	343597	1213586	1573163	1573163	801503	5073	2723	393	598229	3678926	809692
353	2018-04-16 08:50:35		0	0	0	0	0	0	16.26	50.97	0.22	1575204	0	344116	1213631	1575204	1575204	802823	5080	2726	393	598229	3678928	811022
354	2018-04-16 09:00:35		0	0	0	0	0	0	16.26	50.98	0.22	1577240	0	344629	1214047	1577240	1577240	804054	5089	2729	393	598229	3678937	812265
355	2018-04-16 09:10:38		0	0	0	0	0	0	16.26	50.99	0.22	1579410	0	345184	1214047	1579410	1579410	805363	5097	2736	394	598229	3678940	813590
356	2018-04-16 09:20:39		0	0	0	0	0	0	16.26	51	0.22	1581685	0	345793	1214404	1581685	1581685	806725	5105	2738	395	598229	3678942	814963
357	2018-04-16 09:30:37		0	0	0	0	0	0	16.27	51.02	0.22	1583750	0	346353	1216313	1583750	1583750	808058	5110	2743	395	598662	3678956	816306
358	2018-04-16 09:40:40		0	0	0	0	0	0	16.27	51.03	0.22	1585976	0	346924	1218436	1585976	1585976	809337	5118	2748	395	598662	3678965	817598
359	2018-04-16 09:50:40		0	0	0	0	0	0	16.27	51.04	0.22	1588222	0	347449	1220959	1588222	1588222	810683	5122	2750	396	598662	3678967	818951
360	2018-04-16 10:00:39		0	0	0	0	0	0	16.27	51.06	0.22	1590525	0	348015	1224278	1590525	1590525	812052	5128	2756	397	598662	3678969	820333
361	2018-04-16 10:10:40		0	0	0	0	0	0	16.27	51.07	0.22	1592721	0	348553	1225974	1592721	1592721	813426	5135	2762	397	598662	3678978	821720
362	2018-04-16 10:20:44		0	0	0	0	0	0	16.27	51.08	0.22	1594954	0	349071	1229565	1594954	1594954	814765	5148	2768	397	598662	3678986	823078
363	2018-04-16 10:30:45		0	0	0	0	0	0	16.27	51.1	0.22	1597165	0	349598	1229565	1597165	1597165	816110	5156	2772	397	598662	3678982	824435
364	2018-04-16 10:40:43		0	0	0	0	0	0	16.27	51.11	0.22	1599412	0	350052	1229565	1599412	1599412	817495	5164	2777	397	598662	3678986	825833
365	2018-04-16 11:46:59		0	0	0	0	0	0	16.43	51.24	0.22	1614006	0	353313	1244976	1614006	1614006	827057	5217	2811	399	604359	3679037	835484
366	2018-04-16 11:56:58		0	0	0	0	0	0	16.43	51.25	0.22	1616254	0	353855	1248301	1616254	1616254	828366	5228	2815	400	604359	3679045	836809
367	2018-04-16 12:07:01		0	0	0	0	0	0	16.43	51.26	0.22	1618486	0	354367	1249545	1618486	1618486	829678	5233	2817	400	604595	3679054	838128
368	2018-04-16 12:16:59		0	0	0	0	0	0	16.43	51.28	0.22	1620722	0	354859	1254608	1620722	1620722	831033	5245	2817	401	604595	3679054	839496
369	2018-04-16 12:27:01		0	0	0	0	0	0	16.43	51.29	0.22	1623228	0	355387	1257793	1623228	1623228	832510	5260	2818	403	604595	3679061	840991
370	2018-04-16 12:37:00		0	0	0	0	0	0	16.45	51.3	0.22	1625852	0	356002	1261701	1625852	1625852	834012	5271	2821	404	605171	3679066	842508
371	2018-04-16 12:47:02		0	0	0	0	0	0	16.47	51.26	0.22	1628551	0	356614	1263761	1628551	1628551	834815	5279	2822	404	605763	3679069	843320
372	2018-04-16 12:57:05		0	0	0	0	0	0	16.47	51.27	0.22	1631206	0	357190	1264923	1631206	1631206	836400	5291	2827	404	605852	3679083	844922
373	2018-04-16 13:07:03		0	0	0	0	0	0	16.47	51.29	0.22	1633807	0	357746	1268225	1633807	1633807	837952	5295	2834	405	605852	3679090	846486
374	2018-04-16 13:17:04		0	0	0	0	0	0	16.47	51.3	0.22	1636416	0	358260	1269135	1636416	1636416	839531	5307	2839	405	605852	3679101	848082
375	2018-04-16 13:27:04		0	0	0	0	0	0	16.47	51.32	0.22	1639010	0	358826	1271872	1639010	1639010	841109	5317	2842	410	605852	3679109	849678
376	2018-04-16 13:37:05		0	0	0	0	0	0	16.49	51.33	0.22	1641568	0	359372	1273834	1641568	1641568	842667	5323	2845	410	606564	3679119	851245
377	2018-04-16 13:47:05		0	0	0	0	0	0	16.49	51.34	0.22	1643965	0	359939	1275671	1643965	1643965	844084	5332	2848	411	606564	3679124	852675
378	2018-04-16 13:57:08		0	0	0	0	0	0	16.49	51.35	0.22	1646388	0	360497	1279295	1646388	1646388	845485	5336	2854	411	606802	3679135	854086
379	2018-04-16 14:07:34		0	0	0	0	0	0	16.49	51.41	0.22	1648839	0	360973	1280617	1648839	1648839	847688	5341	2859	411	606802	3679141	856299
380	2018-04-16 14:17:09		0	0	0	0	0	0	16.49	51.43	0.22	1651256	0	361480	1285402	1651256	1651256	849173	5345	2860	411	606802	3679153	857789
381	2018-04-16 14:27:10		0	0	0	0	0	0	16.49	51.44	0.22	1653457	0	361963	1286470	1653457	1653457	850517	5351	2862	411	606802	3679161	859141
382	2018-04-16 14:37:15		0	0	0	0	0	0	16.51	51.41	0.22	1655725	0	362434	1288176	1655725	1655725	851261	5358	2867	411	607516	3679171	859897
383	2018-04-16 14:47:10		0	0	0	0	0	0	16.53	51.42	0.22	1658074	0	362954	1290861	1658074	1658074	852626	5364	2872	412	607993	3679184	861274
384	2018-04-16 14:57:11		0	0	0	0	0	0	16.53	51.43	0.22	1660502	0	363507	1290861	1660502	1660502	854056	5369	2878	413	607993	3679197	862716
385	2018-04-16 15:07:11		0	0	0	0	0	0	16.53	51.44	0.22	1662948	0	364034	1293018	1662948	1662948	855503	5376	2881	413	607993	3679206	864173
386	2018-04-16 15:17:14		0	0	0	0	0	0	16.53	51.46	0.22	1665300	0	364547	1293828	1665300	1665300	857021	5387	2885	413	607993	3679218	865706
387	2018-04-16 15:27:12		0	0	0	0	0	0	16.53	51.48	0.22	1667604	0	365093	1296944	1667604	1667604	858426	5394	2887	413	607993	3679222	867120
388	2018-04-16 15:37:17		0	0	0	0	0	0	16.53	51.49	0.22	1669845	0	365597	1299257	1669845	1669845	859866	5401	2892	414	607993	3679229	868573
389	2018-04-16 15:47:13		0	0	0	0	0	0	16.52	51.55	0.22	1672030	0	366082	1300895	1672030	1672030	861930	5410	2893	414	607993	3679243	870647
390	2018-04-16 15:57:13		0	0	0	0	0	0	16.52	51.57	0.22	1674223	0	366547	1301852	1674223	1674223	863324	5417	2899	414	607993	3679253	872054
391	2018-04-16 16:07:17		0	0	0	0	0	0	16.52	51.58	0.22	1676574	0	367092	1301852	1676574	1676574	864777	5423	2901	415	607993	3679261	873516
392	2018-04-16 16:17:21		0	0	0	0	0	0	16.52	51.59	0.22	1678817	0	367589	1301903	1678817	1678817	866072	5430	2906	415	607993	3679271	874823
393	2018-04-16 16:27:19		0	0	0	0	0	0	16.52	51.6	0.22	1681081	0	368070	1302725	1681081	1681081	867440	5439	2909	416	607993	3679283	876204
394	2018-04-16 16:37:18		0	0	0	0	0	0	16.52	51.57	0.22	1683472	0	368576	1307953	1683472	1683472	868124	5448	2916	417	607993	3679292	876905
395	2018-04-16 16:47:16		0	0	0	0	0	0	16.55	51.57	0.22	1685920	0	369198	1311832	1685920	1685920	869478	5458	2923	418	608830	3679298	878277
396	2018-04-16 16:57:20		0	0	0	0	0	0	16.55	51.58	0.22	1688399	0	370005	1312944	1688399	1688399	870916	5463	2931	418	608830	3679302	879728
397	2018-04-16 17:07:25		0	0	0	0	0	0	16.56	51.59	0.22	1690749	0	370740	1316223	1690749	1690749	872238	5476	2934	419	609189	3679312	881067
398	2018-04-16 17:17:20		0	0	0	0	0	0	16.56	51.6	0.22	1693112	0	371442	1316779	1693112	1693112	873577	5482	2936	421	609189	3679320	882416
399	2018-04-16 17:27:20		0	0	0	0	0	0	16.56	51.64	0.22	1695405	0	372111	1320147	1695405	1695405	875474	5490	2940	422	609429	3679328	884326
400	2018-04-16 17:37:21		0	0	0	0	0	0	16.56	51.64	0.22	1697740	0	372787	1320147	1697740	1697740	876794	5498	2944	424	609429	3679329	885660
401	2018-04-16 17:47:21		0	0	0	0	0	0	16.56	51.62	0.22	1699959	0	373407	1322685	1699959	1699959	877472	5506	2952	424	609429	3679337	886354
402	2018-04-16 17:57:22		0	0	0	0	0	0	16.56	51.62	0.22	1702163	0	374036	1323250	1702163	1702163	878708	5508	2954	424	609429	3679352	887594
403	2018-04-16 18:07:22		0	0	0	0	0	0	16.56	51.63	0.22	1704362	0	374645	1325516	1704362	1704362	879991	5511	2959	424	609429	3679365	888885
404	2018-04-16 18:17:23		0	0	0	0	0	0	16.56	51.67	0.22	1706662	0	375290	1327647	1706662	1706662	881898	5523	2963	424	609429	3679371	890808
405	2018-04-16 18:27:23		0	0	0	0	0	0	16.56	51.68	0.22	1709121	0	375902	1327647	1709121	1709121	883290	5528	2967	425	609429	3679378	892210
406	2018-04-16 18:37:28		0	0	0	0	0	0	16.56	51.69	0.22	1711779	0	376567	1330214	1711779	1711779	884864	5538	2971	425	609429	3679387	893798
407	2018-04-16 18:47:34		0	0	0	0	0	0	16.56	51.7	0.22	1714559	0	377256	1330786	1714559	1714559	886502	5546	2976	425	609429	3679397	895449
408	2018-04-16 18:57:37		0	0	0	0	0	0	16.56	51.67	0.22	1717448	0	377925	1332056	1717448	1717448	887351	5551	2980	425	609429	3679410	896307
409	2018-04-16 19:07:53		0	0	0	0	0	0	16.6	51.68	0.22	1720191	0	378625	1333777	1720191	1720191	889003	5563	2985	425	610601	3679416	897976
410	2018-04-16 19:17:52		0	0	0	0	0	0	16.6	51.69	0.22	1723022	0	379328	1334909	1723022	1723022	890678	5569	2991	426	610601	3679423	899664
411	2018-04-16 19:27:52		0	0	0	0	0	0	16.61	51.7	0.22	1725925	0	380001	1338661	1725925	1725925	892377	5577	2994	427	611083	3679442	901375
412	2018-04-16 19:37:52		0	0	0	0	0	0	16.65	51.71	0.22	1728855	0	380667	1346191	1728855	1728855	894044	5589	2995	427	612715	3679453	903055
413	2018-04-16 19:47:53		0	0	0	0	0	0	16.65	51.73	0.22	1731716	0	381306	1346630	1731716	1731716	895805	5598	2998	427	612715	3679459	904828
414	2018-04-16 19:57:54		0	0	0	0	0	0	16.68	51.79	0.22	1734545	0	381966	1348389	1734545	1734545	898402	5603	2999	427	613687	3679471	907431
415	2018-04-16 20:08:01		0	0	0	0	0	0	16.68	51.81	0.22	1737546	0	382590	1351248	1737546	1737546	900179	5615	3002	428	613687	3679481	909224
416	2018-04-16 20:17:55		0	0	0	0	0	0	16.68	51.83	0.22	1740415	0	383162	1353149	1740415	1740415	901988	5629	3007	429	613687	3679493	911053
417	2018-04-16 20:27:54		0	0	0	0	0	0	16.68	51.84	0.22	1743294	0	383774	1354536	1743294	1743294	903722	5636	3014	429	613687	3679491	912801
418	2018-04-16 20:37:56		0	0	0	0	0	0	16.68	51.85	0.22	1746180	0	384508	1356595	1746180	1746180	905424	5644	3016	429	613687	3679500	914513
419	2018-04-16 20:47:57		0	0	0	0	0	0	16.68	51.82	0.22	1748980	0	385362	1357115	1748980	1748980	906275	5653	3018	429	613687	3679510	915375
420	2018-04-16 20:57:58		0	0	0	0	0	0	16.68	51.83	0.22	1751848	0	386238	1357412	1751848	1751848	907926	5658	3021	430	613687	3679522	917035
421	2018-04-16 21:07:58		0	0	0	0	0	0	16.68	51.84	0.22	1754700	0	387045	1358604	1754700	1754700	909549	5662	3021	430	613687	3679542	918662
422	2018-04-16 21:17:58		0	0	0	0	0	0	16.68	51.85	0.22	1757473	0	387729	1364187	1757473	1757473	911198	5668	3027	430	613687	3679540	920323
423	2018-04-16 21:27:59		0	0	0	0	0	0	16.68	51.86	0.22	1760466	0	388601	1369845	1760466	1760466	912918	5685	3035	431	613687	3679559	922069
424	2018-04-16 21:38:00		0	0	0	0	0	0	16.68	51.86	0.22	1764034	0	389951	1373567	1764034	1764034	914760	5694	3042	432	613687	3679572	923928
425	2018-04-16 21:48:00		0	0	0	0	0	0	16.68	51.87	0.22	1767292	0	391086	1379457	1767292	1767292	916621	5707	3049	433	613900	3679589	925810
426	2018-04-16 21:58:03		0	0	0	0	0	0	16.69	51.86	0.22	1770946	0	392513	1380918	1770946	1770946	918494	5717	3049	433	614143	3679591	927693
