1	2017-01-24 07:11:11	0	0	0	0	0	0	2.5	4.56	0.01	80067	1	898	64775	80067	79169	3650	42	138	16	64219	2568223	3846
2	2017-01-24 07:27:22	0	0	0	0	0	0	3.19	4.91	0.01	106812	1	1540	82753	106812	105272	5240	50	171	17	81832	2568249	5478
3	2017-01-24 07:43:38	0	0	0	0	0	0	3.87	5.1	0.02	132409	1	2214	100462	132409	130195	6754	60	215	21	99361	2568275	7050
4	2017-01-24 08:00:05	0	0	0	0	0	0	4.73	5.3	0.02	167014	1	3365	124018	167014	163649	8859	80	275	25	121597	2568303	9239
5	2017-01-24 08:16:41	0	0	0	0	0	0	5.5	5.37	0.02	196068	1	4453	144872	196068	191615	10533	94	343	23	141297	2568335	10993
6	2017-01-24 08:33:21	0	0	0	0	0	0	6.19	5.41	0.03	224224	1	5674	164486	224224	218550	12129	116	392	28	158957	2568384	12665
7	2017-01-24 08:50:16	0	0	0	0	0	0	7.16	5.43	0.03	259763	1	7402	183353	259763	252361	14093	138	450	29	183878	2568436	14710
8	2017-01-24 09:07:19	0	0	0	0	0	0	7.84	5.41	0.03	288516	1	8898	210568	288516	279618	15606	164	514	30	201437	2568492	16314
9	2017-01-24 11:01:25	0	0	0	0	0	0	11.85	5.28	0.05	457058	1	20247	317675	457058	436811	24110	294	767	47	304494	2568779	25218
10	2017-01-24 11:11:28	0	0	0	0	0	0	12.07	5.26	0.05	466967	1	21059	326918	466967	445908	24574	300	791	47	310177	2568809	25712
11	2017-01-24 11:21:27	0	0	0	0	0	0	12.22	5.25	0.05	476553	1	21762	330328	476553	454791	25002	304	801	48	314024	2568827	26155
12	2017-01-24 11:31:28	0	0	0	0	0	0	12.5	5.24	0.05	485437	1	22436	337016	485437	463001	25440	310	818	48	321057	2568849	26616
13	2017-01-24 11:41:27	0	0	0	0	0	0	12.66	5.23	0.05	493673	1	23142	342117	493673	470531	25831	320	824	48	325136	2568867	27023
14	2017-01-24 11:51:28	0	0	0	0	0	0	12.82	5.23	0.05	501653	1	23790	346883	501653	477863	26225	326	835	48	329211	2568888	27434
15	2017-01-24 12:01:30	0	0	0	0	0	0	12.98	5.22	0.05	509912	1	24405	349009	509912	485507	26601	332	847	49	333378	2568906	27829
16	2017-01-24 12:11:30	0	0	0	0	0	0	13.1	5.21	0.05	517558	1	24997	355336	517558	492561	26946	336	857	49	336522	2568927	28188
17	2017-01-24 12:21:29	0	0	0	0	0	0	13.25	5.2	0.05	524889	1	25559	360119	524889	499330	27300	340	868	49	340491	2568946	28557
18	2017-01-24 12:31:30	0	0	0	0	0	0	13.48	5.19	0.05	531580	1	26114	364791	531580	505466	27607	348	880	51	346303	2568966	28886
19	2017-01-24 12:41:29	0	0	0	0	0	0	13.6	5.18	0.05	537834	1	26627	369539	537834	511207	27884	352	890	51	349390	2568997	29177
20	2017-01-24 12:51:30	0	0	0	0	0	0	13.78	5.18	0.05	543980	1	27125	373529	543980	516855	28162	354	898	51	353917	2569024	29465
21	2017-01-24 13:01:31	0	0	0	0	0	0	13.87	5.17	0.05	549818	1	27583	376819	549818	522235	28413	356	908	51	356259	2569053	29728
22	2017-01-24 13:11:32	0	0	0	0	0	0	13.97	5.16	0.05	555193	1	28041	379929	555193	527152	28666	358	913	51	358912	2569073	29988
23	2017-01-24 13:21:31	0	0	0	0	0	0	14.04	5.15	0.05	560341	1	28414	382416	560341	531927	28868	360	924	52	360710	2569097	30204
24	2017-01-24 13:31:33	0	0	0	0	0	0	14.14	5.14	0.05	565520	1	28747	383870	565520	536773	29084	362	929	52	363364	2569123	30427
25	2017-01-24 13:41:32	0	0	0	0	0	0	14.2	5.13	0.05	570847	1	29092	387716	570847	541755	29279	366	939	52	364819	2569151	30636
26	2017-01-24 13:51:33	0	0	0	0	0	0	14.32	5.12	0.05	576165	1	29414	390873	576165	546751	29498	368	945	52	367809	2569190	30863
27	2017-01-24 14:01:32	0	0	0	0	0	0	14.45	5.11	0.05	581215	1	29764	392508	581215	551451	29707	372	947	53	371227	2569217	31079
28	2017-01-24 14:11:38	0	0	0	0	0	0	14.52	5.1	0.05	586011	1	30088	396897	586011	555923	29893	372	951	53	373049	2569233	31269
29	2017-01-24 14:21:53	0	0	0	0	0	0	14.64	5.09	0.05	590856	1	30427	400669	590856	560429	30066	378	956	53	376014	2569256	31453
30	2017-01-24 14:32:14	0	0	0	0	0	0	14.69	5.08	0.05	595887	1	30760	402071	595887	565127	30270	378	960	54	377478	2569275	31662
31	2017-01-24 14:42:48	0	0	0	0	0	0	14.75	5.07	0.05	600868	1	31079	402790	600868	569789	30470	384	968	54	379084	2569289	31876
32	2017-01-24 14:53:26	0	0	0	0	0	0	14.86	5.06	0.05	605856	1	31456	407327	605856	574400	30677	384	971	54	381871	2569306	32086
33	2017-01-24 15:04:17	0	0	0	0	0	0	14.96	5.06	0.05	610484	1	31821	408978	610484	578663	30861	390	976	54	384321	2569330	32281
34	2017-01-24 15:15:15	0	0	0	0	0	0	15.11	5.04	0.06	616886	1	32335	413025	616886	584551	31101	396	983	54	388282	2569354	32534
35	2017-01-24 15:26:16	0	0	0	0	0	0	15.22	5.03	0.06	621743	1	32680	416477	621743	589063	31284	400	987	54	391152	2569386	32725
36	2017-01-24 15:37:30	0	0	0	0	0	0	15.3	5.02	0.06	626418	1	33030	418051	626418	593388	31463	398	992	54	393138	2569402	32907
37	2017-01-24 15:48:57	0	0	0	0	0	0	15.41	5.01	0.06	630673	1	33324	421182	630673	597349	31624	400	997	54	395859	2569427	33075
38	2017-01-24 16:00:35	0	0	0	0	0	0	15.53	5	0.06	637208	1	33843	424146	637208	603365	31868	400	1000	54	399015	2569452	33322
39	2017-01-24 16:12:12	0	0	0	0	0	0	15.57	4.99	0.06	641511	1	34125	425662	641511	607386	32032	402	1006	54	400046	2569484	33494
40	2017-01-24 16:24:53	0	0	0	0	0	0	15.65	4.99	0.06	645562	1	34398	428182	645562	611164	32204	402	1010	54	402115	2569502	33670
41	2017-01-24 16:37:19	0	0	0	0	0	0	15.76	4.98	0.06	651544	1	34778	430142	651544	616766	32433	406	1013	54	404898	2569522	33906
42	2017-01-24 16:51:15	0	0	0	0	0	0	15.87	4.96	0.06	657456	1	35216	433636	657456	622240	32642	412	1015	55	407778	2569548	34124
43	2017-01-24 17:03:35	0	0	0	0	0	0	15.94	4.96	0.06	661054	1	35471	436443	661054	625583	32784	412	1020	55	409609	2569579	34271
44	2017-01-24 17:15:49	0	0	0	0	0	0	16.05	4.95	0.06	665822	1	35829	439510	665822	629993	32970	412	1022	55	412391	2569608	34459
45	2017-01-24 17:28:34	0	0	0	0	0	0	16.08	4.95	0.06	668665	1	36034	440622	668665	632631	33077	412	1025	55	413259	2569646	34569
46	2017-01-24 17:41:02	0	0	0	0	0	0	16.22	4.94	0.06	672803	1	36337	444281	672803	636466	33220	416	1028	55	416757	2569691	34719
47	2017-01-24 17:53:44	0	0	0	0	0	0	16.25	4.93	0.06	675336	1	36525	445111	675336	638811	33323	418	1031	55	417487	2569718	34827
48	2017-01-24 18:06:30	0	0	0	0	0	0	16.28	4.93	0.06	679099	1	36827	446202	679099	642272	33451	424	1034	55	418439	2569740	34964
49	2017-01-24 18:19:29	0	0	0	0	0	0	16.35	4.92	0.06	681514	1	37025	448374	681514	644489	33559	424	1042	55	420128	2569767	35080
50	2017-01-24 18:35:06	0	0	0	0	0	0	16.42	4.92	0.06	685337	1	37323	450462	685337	648014	33746	424	1045	55	421961	2569794	35270
51	2017-01-24 18:52:09	0	0	0	0	0	0	16.44	4.91	0.06	690191	1	37697	451184	690191	652494	33885	424	1051	55	422594	2569835	35415
52	2017-01-24 19:09:33	0	0	0	0	0	0	16.51	4.9	0.06	694041	1	38004	453381	694041	656037	34009	424	1057	55	424201	2569883	35545
53	2017-01-24 19:27:03	0	0	0	0	0	0	16.58	4.89	0.06	698999	1	38403	455664	698999	660596	34165	428	1063	55	426140	2569926	35711
54	2017-01-24 19:45:02	0	0	0	0	0	0	16.66	4.88	0.06	702718	1	38694	457866	702718	664024	34288	432	1067	55	428066	2569964	35842
55	2017-01-24 20:03:55	0	0	0	0	0	0	16.74	4.87	0.06	707834	1	39072	460548	707834	668762	34468	434	1072	55	430297	2570005	36029
56	2017-01-24 20:22:10	0	0	0	0	0	0	16.86	4.86	0.06	712660	1	39445	463972	712660	673215	34615	436	1077	55	433285	2570058	36183
57	2017-01-24 20:41:25	0	0	0	0	0	0	16.97	4.85	0.06	717681	1	39851	466111	717681	677830	34784	438	1083	55	436130	2570105	36360
58	2017-01-24 21:00:53	0	0	0	0	0	0	17.09	4.83	0.06	722446	1	40229	470052	722446	682217	34920	438	1087	55	439329	2570148	36500
59	2017-01-24 21:20:14	0	0	0	0	0	0	17.19	4.83	0.06	725949	1	40505	472878	725949	685444	35028	442	1090	55	441797	2570197	36615
60	2017-01-24 21:42:50	0	0	0	0	0	0	17.33	4.81	0.06	731739	1	40957	476114	731739	690782	35191	448	1092	56	445388	2570269	36787
61	2017-01-24 22:03:15	0	0	0	0	0	0	17.43	4.79	0.06	736564	1	41359	478987	736564	695205	35304	452	1096	56	447900	2570320	36908
62	2017-01-24 22:27:34	0	0	0	0	0	0	17.5	4.78	0.06	742293	1	41787	481744	742293	700506	35468	454	1104	56	449918	2570377	37082
63	2017-01-24 22:48:32	0	0	0	0	0	0	17.6	4.77	0.06	746758	1	42113	484638	746758	704645	35608	456	1113	57	452441	2570436	37234
64	2017-01-24 23:10:13	0	0	0	0	0	0	17.68	4.76	0.06	751168	1	42391	486043	751168	708777	35753	458	1115	57	454397	2570496	37383
65	2017-01-24 23:31:22	0	0	0	0	0	0	17.79	4.75	0.06	755921	1	42689	488919	755921	713232	35904	458	1117	57	457181	2570547	37536
66	2017-01-24 23:46:57	0	0	0	0	0	0	17.85	4.74	0.06	758385	1	42821	490779	758385	715564	35974	458	1120	57	458806	2570587	37609
67	2017-01-25 00:05:43	0	0	0	0	0	0	17.93	4.74	0.06	761442	1	43004	493301	761442	718438	36072	458	1121	57	460975	2570614	37708
68	2017-01-25 01:05:46	0	0	0	0	0	0	18.08	4.73	0.06	768295	1	43355	497142	768295	724940	36309	462	1124	57	464676	2570687	37952
69	2017-01-25 02:14:56	0	0	0	0	0	0	18.15	4.72	0.06	772360	1	43541	499337	772360	728819	36441	464	1126	57	466804	2571991	38088
70	2017-01-25 03:15:02	0	0	0	0	0	0	18.21	4.71	0.06	774447	1	43646	501115	774447	730801	36514	466	1128	57	468358	2571998	38165
71	2017-01-25 04:18:39	0	0	0	0	0	0	18.22	4.71	0.06	775895	1	43719	501399	775895	732176	36567	466	1129	57	468535	2572011	38219
72	2017-01-25 05:18:11	0	0	0	0	0	0	18.23	4.71	0.06	777102	1	43803	501846	777102	733299	36613	466	1129	57	468925	2572012	38265
73	2017-01-25 06:19:10	0	0	0	0	0	0	18.24	4.71	0.06	779045	1	43939	501968	779045	735106	36698	466	1131	57	469032	2572032	38352
74	2017-01-25 07:06:25	0	0	0	0	0	0	18.26	4.71	0.06	781398	1	44094	502253	781398	737083	36774	466	1132	57	469708	2572050	38429
75	2017-01-25 07:24:33	0	0	0	0	0	0	18.29	4.7	0.06	782283	1	44174	503744	782283	738109	36796	468	1132	57	470368	2572064	38453
76	2017-01-25 07:42:41	0	0	0	0	0	0	18.29	4.7	0.06	783450	1	44271	504401	783450	739179	36822	468	1133	57	470502	2572084	38480
77	2017-01-25 08:02:23	0	0	0	0	0	0	18.33	4.7	0.06	784679	1	44347	505378	784679	740332	36881	468	1133	57	471505	2572104	38539
78	2017-01-25 08:22:19	0	0	0	0	0	0	18.35	4.7	0.06	785946	1	44436	506039	785946	741510	36941	470	1137	57	472080	2572126	38605
79	2017-01-25 08:47:47	0	0	0	0	0	0	18.43	4.7	0.06	787533	1	44563	507948	787533	742970	36995	470	1139	57	474176	2572165	38661
80	2017-01-25 09:06:57	0	0	0	0	0	0	18.54	4.7	0.06	788725	1	44678	510692	788725	744047	37056	470	1139	57	477007	2572197	38722
81	2017-01-25 09:25:46	0	0	0	0	0	0	18.55	4.7	0.06	789553	1	44750	511367	789553	744803	37093	470	1139	57	477154	2572219	38759
82	2017-01-25 09:48:41	0	0	0	0	0	0	18.57	4.7	0.06	790951	1	44851	511980	790951	746100	37155	470	1140	57	477688	2572249	38822
83	2017-01-25 10:08:10	0	0	0	0	0	0	18.58	4.7	0.06	792052	1	44941	512149	792052	747111	37197	472	1142	57	477835	2572270	38868
84	2017-01-25 10:45:27	0	0	0	0	0	0	18.6	4.69	0.06	793797	1	45110	512892	793797	748687	37257	472	1143	57	478481	2572341	38929
85	2017-01-25 10:55:28	0	0	0	0	0	0	18.62	4.69	0.06	794256	1	45142	513551	794256	749114	37275	472	1143	57	479055	2572359	38947
86	2017-01-25 11:05:31	0	0	0	0	0	0	18.62	4.69	0.06	794686	1	45170	513551	794686	749516	37295	472	1144	57	479055	2572373	38968
87	2017-01-25 11:19:46	0	0	0	0	0	0	18.64	4.69	0.06	795341	1	45216	513807	795341	750125	37324	472	1145	57	479574	2572394	38998
88	2017-01-25 11:29:52	0	0	0	0	0	0	18.64	4.69	0.06	795803	1	45254	513807	795803	750549	37348	472	1145	57	479574	2572399	39022
89	2017-01-25 11:40:04	0	0	0	0	0	0	18.67	4.69	0.06	796212	1	45277	514148	796212	750935	37363	472	1145	57	480169	2572422	39037
90	2017-01-25 11:49:54	0	0	0	0	0	0	18.67	4.69	0.06	796596	1	45295	514148	796596	751301	37377	472	1145	57	480169	2572450	39051
91	2017-01-25 11:59:51	0	0	0	0	0	0	18.67	4.69	0.06	796977	1	45318	514148	796977	751659	37398	472	1145	57	480169	2572465	39072
92	2017-01-25 12:09:51	0	0	0	0	0	0	18.68	4.69	0.06	797341	1	45335	514447	797341	752006	37417	472	1146	57	480430	2572495	39092
93	2017-01-25 12:19:51	0	0	0	0	0	0	18.69	4.69	0.06	797730	1	45358	514960	797730	752372	37431	472	1146	57	480878	2572513	39106
94	2017-01-25 12:29:52	0	0	0	0	0	0	18.72	4.69	0.06	798072	1	45384	515818	798072	752688	37447	472	1146	57	481626	2572557	39122
95	2017-01-25 12:39:53	0	0	0	0	0	0	18.72	4.69	0.06	798406	1	45408	515818	798406	752998	37459	472	1146	57	481626	2572610	39134
96	2017-01-25 12:49:51	0	0	0	0	0	0	18.72	4.69	0.06	798758	1	45430	515904	798758	753328	37473	472	1146	57	481626	2572666	39148
97	2017-01-25 12:59:54	0	0	0	0	0	0	18.72	4.69	0.06	799076	1	45446	515904	799076	753630	37487	472	1147	57	481626	2572745	39163
98	2017-01-25 13:09:55	0	0	0	0	0	0	18.72	4.69	0.06	799383	1	45457	516571	799383	753926	37500	472	1147	57	481626	2572846	39176
99	2017-01-25 13:19:55	0	0	0	0	0	0	18.72	4.69	0.06	799723	1	45473	516571	799723	754250	37504	472	1147	57	481626	2572966	39180
100	2017-01-25 13:29:57	0	0	0	0	0	0	18.72	4.69	0.06	800036	1	45492	516571	800036	754544	37516	472	1147	57	481626	2573098	39192
101	2017-01-25 13:39:58	0	0	0	0	0	0	18.73	4.69	0.06	800360	1	45505	516959	800360	754855	37523	472	1148	57	481963	2573226	39200
102	2017-01-25 13:50:01	0	0	0	0	0	0	18.73	4.69	0.06	800708	1	45526	517121	800708	755182	37534	472	1148	57	481963	2573360	39211
103	2017-01-25 13:59:47	0	0	0	0	0	0	18.73	4.69	0.06	801050	1	45558	517121	801050	755492	37548	472	1149	58	481963	2573487	39227
104	2017-01-25 14:09:39	0	0	0	0	0	0	18.73	4.69	0.06	801363	1	45580	517121	801363	755783	37564	472	1149	58	481963	2573596	39243
105	2017-01-25 14:14:12	0	0	0	0	0	0	18.73	4.69	0.06	801363	1	45580	517121	801363	755783	37564	472	1150	58	481963	2573649	39244
106	2017-01-25 14:24:13	0	0	0	0	0	0	18.73	4.69	0.06	801879	1	45617	517121	801879	756262	37584	472	1150	58	482113	2573776	39264
107	2017-01-25 14:34:10	0	0	0	0	0	0	18.73	4.69	0.06	802228	1	45647	517294	802228	756581	37600	472	1150	58	482113	2573901	39280
108	2017-01-25 14:44:11	0	0	0	0	0	0	18.73	4.69	0.06	802558	1	45671	517294	802558	756887	37609	472	1151	58	482113	2574039	39290
109	2017-01-25 14:54:12	0	0	0	0	0	0	18.73	4.69	0.06	802904	1	45692	517294	802904	757212	37630	472	1151	58	482113	2574195	39311
110	2017-01-25 15:04:12	0	0	0	0	0	0	18.73	4.69	0.06	803214	1	45722	517294	803214	757492	37645	472	1151	58	482113	2574359	39326
111	2017-01-25 15:14:14	0	0	0	0	0	0	18.73	4.69	0.06	803504	1	45740	517378	803504	757764	37660	472	1151	58	482186	2574504	39341
112	2017-01-25 15:24:13	0	0	0	0	0	0	18.73	4.69	0.06	803769	1	45764	517378	803769	758005	37679	472	1151	58	482186	2574632	39360
113	2017-01-25 15:34:11	0	0	0	0	0	0	18.73	4.69	0.06	804041	1	45783	517378	804041	758258	37693	472	1152	58	482186	2574772	39375
114	2017-01-25 15:44:12	0	0	0	0	0	0	18.73	4.69	0.06	804303	1	45794	517724	804303	758509	37705	472	1153	58	482186	2574899	39388
115	2017-01-25 15:54:14	0	0	0	0	0	0	18.73	4.69	0.06	804552	1	45813	517724	804552	758739	37719	472	1153	58	482186	2574985	39402
116	2017-01-25 16:04:16	0	0	0	0	0	0	18.75	4.69	0.06	804842	1	45830	517724	804842	759012	37733	472	1153	58	482787	2575089	39416
117	2017-01-25 16:14:14	0	0	0	0	0	0	18.75	4.69	0.06	805095	1	45847	517724	805095	759248	37743	472	1153	58	482787	2575184	39426
118	2017-01-25 16:24:13	0	0	0	0	0	0	18.76	4.69	0.06	805331	1	45866	517724	805331	759465	37758	472	1153	58	483051	2575270	39441
119	2017-01-25 16:34:14	0	0	0	0	0	0	18.76	4.69	0.06	805573	1	45885	517724	805573	759688	37768	472	1153	58	483051	2575350	39451
120	2017-01-25 16:44:18	0	0	0	0	0	0	18.79	4.69	0.06	805823	1	45899	518591	805823	759924	37778	472	1153	58	483806	2575423	39461
121	2017-01-25 16:54:32	0	0	0	0	0	0	18.79	4.69	0.06	806075	1	45915	518591	806075	760160	37786	474	1154	58	483806	2575480	39472
122	2017-01-25 17:04:55	0	0	0	0	0	0	18.8	4.69	0.06	806324	1	45930	518591	806324	760394	37798	474	1154	58	484108	2575582	39484
123	2017-01-25 17:15:34	0	0	0	0	0	0	18.8	4.69	0.06	806592	1	45949	518591	806592	760643	37812	474	1154	58	484108	2575701	39498
124	2017-01-25 17:26:20	0	0	0	0	0	0	18.81	4.69	0.06	806805	1	45962	519199	806805	760843	37818	474	1154	58	484639	2575829	39504
125	2017-01-25 17:37:15	0	0	0	0	0	0	18.81	4.69	0.06	807068	1	45987	519199	807068	761081	37835	474	1155	58	484639	2575967	39522
126	2017-01-25 17:48:19	0	0	0	0	0	0	18.81	4.69	0.06	807234	1	46003	519199	807234	761231	37848	474	1156	58	484639	2576088	39536
127	2017-01-25 17:59:31	0	0	0	0	0	0	18.81	4.69	0.06	807398	1	46016	519199	807398	761382	37852	474	1156	58	484639	2576222	39540
128	2017-01-25 18:11:03	0	0	0	0	0	0	18.81	4.69	0.06	807542	1	46027	519199	807542	761515	37861	474	1156	58	484639	2576344	39549
129	2017-01-25 18:22:38	0	0	0	0	0	0	18.81	4.69	0.06	807776	1	46049	519199	807776	761727	37871	474	1156	58	484639	2576476	39559
130	2017-01-25 18:34:26	0	0	0	0	0	0	18.81	4.69	0.06	807907	1	46064	519199	807907	761843	37875	476	1156	58	484639	2576621	39565
131	2017-01-25 18:46:15	0	0	0	0	0	0	18.83	4.69	0.06	808040	1	46080	519810	808040	761960	37880	478	1156	58	485170	2576739	39572
132	2017-01-25 18:58:41	0	0	0	0	0	0	18.83	4.69	0.06	808194	1	46107	519810	808194	762087	37885	478	1156	58	485170	2576859	39577
133	2017-01-25 19:11:08	0	0	0	0	0	0	18.84	4.69	0.06	808290	1	46119	520159	808290	762171	37890	478	1156	58	485475	2576977	39582
134	2017-01-25 19:23:44	0	0	0	0	0	0	18.84	4.69	0.06	808400	1	46142	520159	808400	762258	37895	476	1156	58	485475	2577131	39585
135	2017-01-25 19:37:23	0	0	0	0	0	0	18.84	4.69	0.06	808520	1	46169	520159	808520	762351	37898	476	1156	58	485475	2577297	39588
136	2017-01-25 19:51:36	0	0	0	0	0	0	18.84	4.69	0.06	808579	1	46177	520159	808579	762402	37901	476	1156	58	485475	2577482	39591
137	2017-01-25 20:04:46	0	0	0	0	0	0	18.83	4.69	0.06	808690	1	46198	520159	808690	762492	37905	476	1156	58	485475	2577653	39595
138	2017-01-25 20:18:02	0	0	0	0	0	0	18.86	4.69	0.06	808806	1	46216	520159	808806	762590	37907	476	1157	58	486084	2577842	39598
139	2017-01-25 20:31:26	0	0	0	0	0	0	18.85	4.69	0.06	808876	1	46227	520859	808876	762649	37907	476	1157	58	486084	2578039	39598
140	2017-01-25 20:45:10	0	0	0	0	0	0	18.85	4.69	0.06	808995	1	46249	520859	808995	762746	37910	476	1157	58	486084	2578258	39601
141	2017-01-25 20:58:55	0	0	0	0	0	0	18.85	4.69	0.06	809105	1	46280	520859	809105	762825	37912	476	1157	58	486084	2578424	39603
142	2017-01-25 21:15:04	0	0	0	0	0	0	18.85	4.69	0.06	809205	1	46309	520859	809205	762896	37915	476	1157	58	486084	2578641	39606
143	2017-01-25 21:34:53	0	0	0	0	0	0	18.86	4.69	0.06	809340	1	46330	521210	809340	763010	37922	476	1157	58	486390	2578939	39613
144	2017-01-25 21:57:34	0	0	0	0	0	0	18.86	4.69	0.06	809494	1	46368	521210	809494	763126	37929	476	1157	58	486390	2579251	39620
145	2017-01-25 22:18:24	0	0	0	0	0	0	18.86	4.68	0.06	809621	1	46394	521210	809621	763227	37930	476	1157	58	486390	2579566	39621
146	2017-01-25 22:42:08	0	0	0	0	0	0	18.85	4.69	0.06	809729	1	46417	521210	809729	763312	37936	476	1157	58	486390	2579980	39627
147	2017-01-25 23:04:13	0	0	0	0	0	0	18.85	4.68	0.06	809872	1	46443	521210	809872	763429	37937	476	1157	58	486390	2580316	39628
148	2017-01-25 23:24:51	0	0	0	0	0	0	18.85	4.68	0.06	809970	1	46462	521210	809970	763508	37940	476	1157	58	486390	2580585	39631
149	2017-01-26 00:00:21	0	0	0	0	0	0	18.85	4.68	0.06	810110	1	46498	521210	810110	763612	37945	476	1157	58	486390	2580958	39636
150	2017-01-26 01:00:21	0	0	0	0	0	0	18.85	4.68	0.06	810253	1	46529	521210	810253	763724	37950	476	1157	58	486543	2581262	39641
151	2017-01-26 02:00:22	0	0	0	0	0	0	18.88	4.68	0.06	810335	1	46552	521210	810335	763783	37955	476	1157	58	486543	2577418	39646
152	2017-01-26 03:00:22	0	0	0	0	0	0	18.88	4.68	0.06	810364	1	46556	521210	810364	763808	37956	476	1157	58	486543	2577465	39647
153	2017-01-26 04:00:22	0	0	0	0	0	0	18.88	4.68	0.06	810386	1	46563	521210	810386	763823	37957	476	1157	58	486543	2577503	39648
154	2017-01-26 05:00:22	0	0	0	0	0	0	18.88	4.68	0.06	810405	1	46569	521210	810405	763836	37957	476	1157	58	486543	2577542	39648
155	2017-01-26 06:00:23	0	0	0	0	0	0	18.88	4.68	0.06	810431	1	46576	521210	810431	763855	37957	476	1157	58	486543	2577607	39648
156	2017-01-26 07:00:27	0	0	0	0	0	0	18.87	4.68	0.06	810473	1	46586	521210	810473	763887	37959	476	1157	58	486543	2577745	39650
157	2017-01-26 07:10:24	0	0	0	0	0	0	18.87	4.68	0.06	810482	1	46592	521210	810482	763890	37960	476	1157	58	486543	2577777	39651
158	2017-01-26 07:20:23	0	0	0	0	0	0	18.87	4.68	0.06	810490	1	46592	521210	810490	763898	37960	476	1157	58	486543	2577818	39651
159	2017-01-26 07:30:23	0	0	0	0	0	0	18.87	4.68	0.06	810500	1	46593	521210	810500	763907	37960	476	1157	58	486543	2577870	39651
160	2017-01-26 07:40:24	0	0	0	0	0	0	18.87	4.68	0.06	810509	1	46594	521210	810509	763915	37960	476	1157	58	486543	2577917	39651
161	2017-01-26 07:50:25	0	0	0	0	0	0	18.89	4.68	0.06	810516	1	46595	521737	810516	763921	37960	476	1157	58	487002	2577960	39651
162	2017-01-26 08:00:26	0	0	0	0	0	0	18.89	4.68	0.06	810527	1	46598	521737	810527	763929	37960	476	1157	58	487002	2578026	39651
163	2017-01-26 08:10:31	0	0	0	0	0	0	18.89	4.68	0.06	810537	1	46601	521737	810537	763936	37960	476	1157	58	487002	2578082	39651
164	2017-01-26 08:20:44	0	0	0	0	0	0	18.89	4.68	0.06	810544	1	46602	521737	810544	763942	37960	476	1157	58	487002	2578153	39651
165	2017-01-26 08:31:13	0	0	0	0	0	0	18.89	4.68	0.06	810550	1	46603	521737	810550	763947	37960	476	1157	58	487002	2578236	39651
166	2017-01-26 08:41:49	0	0	0	0	0	0	18.89	4.68	0.06	810562	1	46607	521737	810562	763955	37961	476	1158	58	487002	2578338	39653
167	2017-01-26 08:52:41	0	0	0	0	0	0	18.89	4.68	0.06	810572	1	46610	521737	810572	763962	37961	476	1158	58	487002	2578432	39653
168	2017-01-26 09:03:36	0	0	0	0	0	0	18.89	4.68	0.06	810588	1	46615	521737	810588	763973	37962	476	1158	58	487002	2578527	39654
169	2017-01-26 09:14:51	0	0	0	0	0	0	18.89	4.68	0.06	810599	1	46618	521737	810599	763981	37962	476	1158	58	487002	2578612	39654
170	2017-01-26 09:26:07	0	0	0	0	0	0	18.89	4.68	0.06	810606	1	46622	521737	810606	763984	37963	476	1158	58	487002	2578713	39655
171	2017-01-26 09:37:47	0	0	0	0	0	0	18.88	4.68	0.06	810613	1	46624	521737	810613	763989	37963	476	1158	58	487002	2578818	39655
172	2017-01-26 09:49:30	0	0	0	0	0	0	18.88	4.68	0.06	810625	1	46626	521737	810625	763999	37963	476	1158	58	487002	2578927	39655
173	2017-01-26 10:01:27	0	0	0	0	0	0	18.88	4.68	0.06	810633	1	46628	521737	810633	764005	37964	476	1158	58	487002	2579017	39656
174	2017-01-26 10:13:26	0	0	0	0	0	0	18.88	4.68	0.06	810647	1	46630	521737	810647	764017	37964	476	1158	58	487002	2579116	39656
175	2017-01-26 10:25:52	0	0	0	0	0	0	18.88	4.68	0.06	810659	1	46636	521737	810659	764023	37964	476	1158	58	487002	2579228	39656
176	2017-01-26 10:38:11	0	0	0	0	0	0	18.88	4.68	0.06	810667	1	46636	521737	810667	764031	37964	476	1158	58	487002	2579324	39656
177	2017-01-26 10:50:51	0	0	0	0	0	0	18.88	4.68	0.06	810679	1	46640	521737	810679	764039	37964	476	1158	58	487002	2579413	39656
178	2017-01-26 11:03:28	0	0	0	0	0	0	18.88	4.68	0.06	810693	1	46641	521737	810693	764052	37964	476	1158	58	487002	2579516	39656
179	2017-01-26 11:06:58	0	0	0	0	0	0	18.88	4.68	0.06	810693	1	46641	521737	810693	764052	37964	476	1158	58	487002	2579545	39656
180	2017-01-26 11:17:07	0	0	0	0	0	0	18.88	4.68	0.06	810695	1	46642	521737	810695	764053	37964	476	1158	58	487002	2579651	39656
181	2017-01-26 11:27:12	0	0	0	0	0	0	18.88	4.68	0.06	810708	1	46645	521737	810708	764063	37964	476	1158	58	487002	2579753	39656
182	2017-01-26 11:37:14	0	0	0	0	0	0	18.88	4.68	0.06	810718	1	46648	521737	810718	764070	37967	476	1158	58	487002	2579860	39659
183	2017-01-26 11:47:21	0	0	0	0	0	0	18.88	4.68	0.06	810727	1	46651	521737	810727	764076	37967	476	1158	58	487002	2579972	39659
184	2017-01-26 11:57:16	0	0	0	0	0	0	18.88	4.68	0.06	810733	1	46652	521737	810733	764081	37967	476	1158	58	487002	2580068	39659
185	2017-01-26 12:07:10	0	0	0	0	0	0	18.87	4.68	0.06	810738	1	46652	521737	810738	764086	37967	476	1158	58	487002	2580161	39659
186	2017-01-26 12:17:10	0	0	0	0	0	0	18.87	4.68	0.06	810749	1	46655	521737	810749	764094	37969	476	1158	58	487002	2580267	39661
187	2017-01-26 12:27:10	0	0	0	0	0	0	18.87	4.68	0.06	810758	1	46658	521737	810758	764100	37969	476	1158	58	487002	2580375	39661
188	2017-01-26 12:37:11	0	0	0	0	0	0	18.87	4.68	0.06	810766	1	46659	521737	810766	764107	37969	476	1158	58	487002	2580483	39661
189	2017-01-26 12:47:11	0	0	0	0	0	0	18.87	4.68	0.06	810773	1	46663	521737	810773	764110	37969	476	1158	58	487002	2580592	39661
190	2017-01-26 12:57:12	0	0	0	0	0	0	18.87	4.68	0.06	810778	1	46663	521737	810778	764115	37970	476	1158	58	487002	2580717	39662
191	2017-01-26 13:07:12	0	0	0	0	0	0	18.87	4.68	0.06	810784	1	46665	521737	810784	764119	37970	476	1158	58	487002	2580842	39662
192	2017-01-26 13:17:11	0	0	0	0	0	0	18.87	4.68	0.06	810788	1	46667	521737	810788	764121	37970	476	1158	58	487002	2580982	39662
193	2017-01-26 13:27:16	0	0	0	0	0	0	18.87	4.68	0.06	810797	1	46671	521737	810797	764126	37970	476	1158	58	487002	2581115	39662
194	2017-01-26 13:37:13	0	0	0	0	0	0	18.87	4.68	0.06	810802	1	46674	521737	810802	764128	37970	476	1158	58	487002	2581248	39662
195	2017-01-26 13:47:11	0	0	0	0	0	0	18.87	4.68	0.06	810807	1	46675	521737	810807	764132	37970	476	1158	58	487002	2581369	39662
196	2017-01-26 13:57:13	0	0	0	0	0	0	18.86	4.68	0.06	810813	1	46676	521737	810813	764137	37970	476	1158	58	487002	2581512	39662
197	2017-01-26 14:07:13	0	0	0	0	0	0	18.86	4.68	0.06	810820	1	46681	521737	810820	764139	37971	476	1158	58	487002	2581633	39663
198	2017-01-26 14:17:12	0	0	0	0	0	0	18.86	4.68	0.06	810821	1	46681	521737	810821	764140	37971	476	1158	58	487002	2581753	39663
199	2017-01-26 14:27:13	0	0	0	0	0	0	18.86	4.68	0.06	810828	1	46683	521737	810828	764145	37971	476	1158	58	487002	2581885	39663
200	2017-01-26 14:37:12	0	0	0	0	0	0	18.86	4.68	0.06	810833	1	46684	521737	810833	764149	37971	476	1158	58	487002	2582048	39663
201	2017-01-26 14:47:15	0	0	0	0	0	0	18.86	4.68	0.06	810838	1	46685	521737	810838	764153	37971	476	1158	58	487002	2582157	39663
202	2017-01-26 14:57:16	0	0	0	0	0	0	18.86	4.68	0.06	810843	1	46687	521737	810843	764156	37971	476	1158	58	487002	2582301	39663
203	2017-01-26 15:07:19	0	0	0	0	0	0	18.86	4.68	0.06	810848	1	46688	521737	810848	764160	37971	476	1158	58	487002	2582461	39663
204	2017-01-26 15:17:21	0	0	0	0	0	0	18.86	4.68	0.06	810858	1	46692	521737	810858	764166	37971	476	1158	58	487002	2582593	39663
205	2017-01-26 15:27:26	0	0	0	0	0	0	18.86	4.68	0.06	810867	1	46696	521737	810867	764171	37971	476	1158	58	487002	2582733	39663
206	2017-01-26 15:37:16	0	0	0	0	0	0	18.86	4.68	0.06	810874	1	46696	521737	810874	764178	37971	476	1158	58	487002	2582874	39663
207	2017-01-26 15:47:16	0	0	0	0	0	0	18.85	4.68	0.06	810880	1	46697	521737	810880	764183	37971	476	1158	58	487002	2582995	39663
208	2017-01-26 15:57:19	0	0	0	0	0	0	18.85	4.68	0.06	810886	1	46697	521737	810886	764189	37971	476	1158	58	487002	2583111	39663
209	2017-01-26 16:07:17	0	0	0	0	0	0	18.85	4.68	0.06	810891	1	46698	521737	810891	764193	37971	476	1158	58	487002	2583214	39663
210	2017-01-26 16:17:15	0	0	0	0	0	0	18.85	4.68	0.06	810900	1	46699	521737	810900	764201	37972	476	1158	58	487002	2583288	39664
211	2017-01-26 16:27:14	0	0	0	0	0	0	18.85	4.68	0.06	810911	1	46699	521737	810911	764212	37972	476	1158	58	487002	2583326	39664
212	2017-01-26 16:37:15	0	0	0	0	0	0	18.85	4.68	0.06	810915	1	46700	521737	810915	764215	37972	476	1158	58	487002	2583377	39664
213	2017-01-26 16:47:19	0	0	0	0	0	0	18.85	4.68	0.06	810920	1	46702	521737	810920	764218	37973	476	1158	58	487002	2583417	39665
214	2017-01-26 16:57:19	0	0	0	0	0	0	18.85	4.68	0.06	810924	1	46702	521737	810924	764222	37973	476	1158	58	487002	2583455	39665
215	2017-01-26 17:07:19	0	0	0	0	0	0	18.85	4.68	0.06	810936	1	46708	521737	810936	764228	37974	476	1158	58	487002	2583485	39666
216	2017-01-26 17:17:16	0	0	0	0	0	0	18.85	4.68	0.06	810944	1	46713	521737	810944	764231	37974	476	1158	58	487002	2583523	39666
217	2017-01-26 17:27:18	0	0	0	0	0	0	18.85	4.68	0.06	810948	1	46713	521737	810948	764235	37974	476	1158	58	487002	2583578	39666
218	2017-01-26 17:37:26	0	0	0	0	0	0	18.85	4.68	0.06	810956	1	46714	521868	810956	764242	37974	476	1158	58	487002	2583638	39666
219	2017-01-26 17:47:29	0	0	0	0	0	0	18.85	4.68	0.06	810961	1	46718	521868	810961	764243	37974	476	1158	58	487002	2583703	39666
220	2017-01-26 17:57:26	0	0	0	0	0	0	18.85	4.68	0.06	810967	1	46719	521868	810967	764248	37975	476	1158	58	487002	2583756	39667
221	2017-01-26 18:07:19	0	0	0	0	0	0	18.85	4.68	0.06	810972	1	46720	521868	810972	764252	37975	476	1158	58	487002	2583809	39667
222	2017-01-26 18:17:18	0	0	0	0	0	0	18.85	4.68	0.06	810980	1	46722	521868	810980	764258	37977	476	1158	58	487002	2583848	39669
223	2017-01-26 18:27:20	0	0	0	0	0	0	18.85	4.68	0.06	810991	1	46727	521868	810991	764264	37977	476	1158	58	487002	2583914	39669
224	2017-01-26 18:37:19	0	0	0	0	0	0	18.85	4.68	0.06	810999	1	46729	521868	810999	764270	37977	476	1158	58	487002	2583976	39669
225	2017-01-26 18:48:00	0	0	0	0	0	0	18.85	4.68	0.06	811002	1	46729	521868	811002	764273	37977	476	1158	58	487002	2584050	39669
226	2017-01-26 18:58:02	0	0	0	0	0	0	18.85	4.68	0.06	811006	1	46730	521868	811006	764276	37977	476	1158	58	487002	2584091	39669
227	2017-01-26 19:19:45	0	0	0	0	0	0	18.85	4.68	0.06	811023	1	46737	521868	811023	764286	37978	476	1158	58	487002	2584203	39670
228	2017-01-26 19:29:49	0	0	0	0	0	0	18.84	4.68	0.06	811026	1	46737	521868	811026	764289	37978	476	1158	58	487002	2584302	39670
229	2017-01-26 19:39:45	0	0	0	0	0	0	18.84	4.68	0.06	811035	1	46740	521868	811035	764295	37979	476	1158	58	487002	2584369	39671
230	2017-01-26 19:49:53	0	0	0	0	0	0	18.84	4.68	0.06	811044	1	46742	522209	811044	764302	37979	476	1158	58	487002	2584442	39671
231	2017-01-26 19:59:50	0	0	0	0	0	0	18.84	4.68	0.06	811051	1	46743	522209	811051	764308	37979	476	1158	58	487002	2584513	39671
232	2017-01-26 20:09:49	0	0	0	0	0	0	18.84	4.68	0.06	811060	1	46745	522209	811060	764315	37980	476	1158	58	487002	2584580	39672
233	2017-01-26 20:19:51	0	0	0	0	0	0	18.84	4.68	0.06	811071	1	46748	522209	811071	764323	37980	476	1158	58	487002	2584656	39672
234	2017-01-26 20:29:48	0	0	0	0	0	0	18.84	4.68	0.06	811076	1	46751	522209	811076	764325	37980	476	1158	58	487002	2584710	39672
235	2017-01-26 20:39:52	0	0	0	0	0	0	18.84	4.68	0.06	811090	1	46755	522209	811090	764335	37980	476	1158	58	487002	2584765	39672
236	2017-01-26 20:49:51	0	0	0	0	0	0	18.84	4.68	0.06	811105	1	46758	522209	811105	764347	37980	476	1158	58	487002	2584820	39672
237	2017-01-26 20:59:48	0	0	0	0	0	0	18.84	4.68	0.06	811115	1	46758	522209	811115	764357	37980	476	1158	58	487002	2584865	39672
238	2017-01-26 21:09:54	0	0	0	0	0	0	18.84	4.68	0.06	811120	1	46758	522209	811120	764362	37980	476	1158	58	487002	2584926	39672
239	2017-01-26 21:19:54	0	0	0	0	0	0	18.84	4.68	0.06	811128	1	46760	522209	811128	764368	37980	476	1158	58	487002	2584979	39672
240	2017-01-26 21:29:56	0	0	0	0	0	0	18.84	4.68	0.06	811135	1	46761	522209	811135	764374	37980	476	1158	58	487002	2585038	39672
241	2017-01-26 21:39:55	0	0	0	0	0	0	18.84	4.68	0.06	811147	1	46762	522209	811147	764385	37980	476	1158	58	487002	2585098	39672
242	2017-01-26 21:49:50	0	0	0	0	0	0	18.84	4.68	0.06	811163	1	46764	522209	811163	764399	37980	476	1158	58	487002	2585153	39672
243	2017-01-26 21:59:52	0	0	0	0	0	0	18.84	4.68	0.06	811172	1	46766	522209	811172	764406	37981	476	1158	58	487002	2585224	39673
244	2017-01-26 22:09:53	0	0	0	0	0	0	18.84	4.68	0.06	811188	1	46767	522209	811188	764421	37981	476	1158	58	487002	2585280	39673
245	2017-01-26 22:19:56	0	0	0	0	0	0	18.84	4.68	0.06	811194	1	46769	522209	811194	764425	37981	476	1158	58	487002	2585338	39673
246	2017-01-26 22:29:53	0	0	0	0	0	0	18.84	4.68	0.06	811204	1	46772	522209	811204	764432	37981	476	1158	58	487002	2585412	39673
247	2017-01-26 22:39:56	0	0	0	0	0	0	18.84	4.68	0.06	811214	1	46774	522209	811214	764440	37982	476	1158	58	487002	2585476	39674
248	2017-01-26 22:49:53	0	0	0	0	0	0	18.84	4.68	0.06	811225	1	46779	522209	811225	764446	37982	476	1158	58	487002	2585524	39674
249	2017-01-26 22:59:54	0	0	0	0	0	0	18.84	4.68	0.06	811231	1	46780	522209	811231	764451	37982	476	1158	58	487002	2585573	39674
250	2017-01-26 23:09:57	0	0	0	0	0	0	18.83	4.68	0.06	811243	1	46781	522209	811243	764462	37983	476	1158	58	487002	2585633	39675
251	2017-01-26 23:20:00	0	0	0	0	0	0	18.83	4.68	0.06	811260	1	46784	522209	811260	764476	37983	476	1158	58	487002	2585691	39675
252	2017-01-26 23:30:03	0	0	0	0	0	0	18.83	4.68	0.06	811266	1	46784	522209	811266	764482	37983	476	1158	58	487002	2585757	39675
253	2017-01-26 23:39:58	0	0	0	0	0	0	18.83	4.68	0.06	811273	1	46784	522209	811273	764489	37983	476	1158	58	487002	2585813	39675
254	2017-01-26 23:49:14	0	0	0	0	0	0	18.83	4.68	0.06	811283	1	46785	522209	811283	764498	37983	476	1158	58	487002	2585862	39675
255	2017-01-26 23:59:14	0	0	0	0	0	0	18.83	4.68	0.06	811288	1	46786	522209	811288	764502	37983	476	1158	58	487002	2585924	39675
256	2017-01-27 00:46:43	0	0	0	0	0	0	18.83	4.68	0.06	811314	1	46790	522209	811314	764524	37983	476	1158	58	487002	2586082	39675
257	2017-01-27 01:46:41	0	0	0	0	0	0	18.83	4.68	0.06	811337	1	46793	522209	811337	764544	37983	476	1158	58	487002	2586234	39675
258	2017-01-27 02:46:42	0	0	0	0	0	0	18.87	4.68	0.06	811346	1	46795	522209	811346	764551	37984	476	1158	58	487002	2581106	39676
259	2017-01-27 03:46:42	0	0	0	0	0	0	18.87	4.68	0.06	811351	1	46797	522209	811351	764554	37984	476	1158	58	487002	2581143	39676
260	2017-01-27 04:46:43	0	0	0	0	0	0	18.87	4.68	0.06	811355	1	46798	522209	811355	764557	37984	476	1158	58	487002	2581172	39676
261	2017-01-27 05:46:52	0	0	0	0	0	0	18.87	4.68	0.06	811358	1	46798	522209	811358	764560	37984	476	1158	58	487002	2581214	39676
