1	2017-12-14 13:27:49		0	0	0	0	0	0	0	0	0	91	0	0	91	91	91	0	0	50	4	90	3491397	0
2	2017-12-14 13:38:17		0	0	0	0	0	0	0.54	2.27	0	21599	0	96	19119	21599	21503	491	0	178	14	18855	3491403	683
3	2017-12-14 13:48:47		0	0	0	0	0	0	0.87	3.17	0.02	37423	0	555	30995	37423	36868	1187	0	288	18	30267	3491404	1493
4	2017-12-14 13:59:22		0	0	0	0	0	0	1.02	3.46	0.02	44536	0	903	36714	44536	43633	1543	0	387	22	35655	3491411	1952
5	2017-12-14 14:09:49		0	0	0	0	0	0	1.12	3.6	0.03	50316	0	1273	40450	50316	49043	1809	0	460	25	39188	3491413	2294
6	2017-12-14 14:20:18		0	0	0	0	0	0	1.24	3.69	0.03	56130	0	1653	45115	56130	54477	2072	0	532	28	43232	3491417	2632
7	2017-12-14 14:30:48		0	0	0	0	0	0	1.37	3.65	0.03	62937	0	2081	49404	62937	60856	2299	0	597	29	47684	3491425	2925
8	2017-12-14 14:41:17		0	0	0	0	0	0	1.5	3.67	0.04	69055	0	2496	54070	69055	66559	2536	0	647	29	52303	3491426	3212
9	2017-12-14 14:51:48		0	0	0	0	0	0	1.57	3.68	0.04	75168	0	2914	56957	75168	72254	2767	0	725	31	54949	3491438	3523
10	2017-12-14 15:02:18		0	0	0	0	0	0	1.67	3.64	0.04	81334	0	3344	60724	81334	77990	2960	0	770	32	58481	3491442	3762
11	2017-12-14 15:12:48		0	0	0	0	0	0	1.81	3.61	0.04	87576	0	3758	65755	87576	83818	3159	0	821	33	63228	3491453	4013
12	2017-12-14 15:23:19		0	0	0	0	0	0	1.88	3.6	0.05	93014	0	4157	68368	93014	88857	3346	0	870	35	65736	3491454	4251
13	2017-12-14 15:33:49		0	0	0	0	0	0	1.95	3.6	0.05	98255	0	4598	71032	98255	93657	3536	0	910	36	67922	3491460	4482
14	2017-12-14 15:44:33		0	0	0	0	0	0	2.07	3.59	0.05	105057	0	5121	75331	105057	99936	3776	0	946	37	72448	3491471	4759
15	2017-12-14 15:54:52		0	0	0	0	0	0	2.17	3.58	0.05	109665	0	5455	78737	109665	104210	3927	0	982	38	75743	3491475	4947
16	2017-12-14 16:05:20		0	0	0	0	0	0	2.26	3.56	0.05	114488	0	5799	82002	114488	108689	4072	0	1014	41	78861	3491483	5127
17	2017-12-14 16:15:52		0	0	0	0	0	0	2.34	3.56	0.05	119011	0	6171	84949	119011	112840	4234	0	1047	41	81583	3491482	5322
18	2017-12-14 16:26:19		0	0	0	0	0	0	2.43	3.53	0.06	123198	0	6490	88716	123198	116708	4344	0	1074	43	84685	3491485	5461
19	2017-12-14 16:36:49		0	0	0	0	0	0	2.47	3.52	0.06	126804	0	6809	90804	126804	119995	4468	0	1094	44	86376	3491489	5606
20	2017-12-14 16:47:32		0	0	0	0	0	0	2.52	3.53	0.06	129923	0	7146	92744	129923	122777	4583	0	1128	44	87990	3491495	5755
21	2017-12-14 16:57:56		0	0	0	0	0	0	2.57	3.51	0.06	133378	0	7457	94471	133378	125921	4685	0	1159	46	89658	3491494	5890
22	2017-12-14 17:08:21		0	0	0	0	0	0	2.62	3.5	0.06	136703	0	7786	96444	136703	128917	4791	0	1189	48	91437	3491507	6028
23	2017-12-14 17:18:54		0	0	0	0	0	0	2.69	3.49	0.06	140164	0	8222	98937	140164	132071	4886	0	1221	48	93871	3491511	6155
24	2017-12-14 17:29:21		0	0	0	0	0	0	2.8	3.46	0.06	145195	0	8541	103352	145195	136654	5031	0	1252	49	97898	3491517	6332
25	2017-12-14 17:39:54		0	0	0	0	0	0	2.85	3.46	0.06	148125	0	8839	105227	148125	139286	5119	0	1269	50	99567	3491525	6438
26	2017-12-14 17:50:28		0	0	0	0	0	0	2.9	3.44	0.06	151152	0	9179	107287	151152	141973	5202	0	1290	51	101280	3491539	6543
27	2017-12-14 18:00:54		0	0	0	0	0	0	2.97	3.43	0.07	154229	0	9511	109808	154229	144718	5295	0	1314	51	103663	3491547	6660
28	2017-12-14 18:11:28		0	0	0	0	0	0	3.01	3.42	0.07	157388	0	9879	111643	157388	147509	5387	0	1336	51	105254	3491552	6774
29	2017-12-14 18:22:12		0	0	0	0	0	0	3.06	3.4	0.07	160491	0	10202	113286	160491	150289	5457	0	1362	52	106720	3491552	6871
30	2017-12-14 18:32:25		0	0	0	0	0	0	3.11	3.37	0.07	163674	0	10550	115069	163674	153124	5514	0	1387	52	108437	3491558	6953
31	2017-12-14 18:42:53		0	0	0	0	0	0	3.16	3.36	0.07	166932	0	10873	117134	166932	156059	5601	0	1410	52	110333	3491563	7063
32	2017-12-14 18:53:25		0	0	0	0	0	0	3.24	3.33	0.07	170935	0	11204	119973	170935	159731	5690	0	1439	53	113062	3491560	7182
33	2017-12-14 19:03:54		0	0	0	0	0	0	3.39	3.29	0.07	176066	0	11531	125828	176066	164535	5792	0	1463	53	118247	3491571	7308
34	2017-12-14 19:14:26		0	0	0	0	0	0	3.57	3.23	0.07	184687	0	12054	132665	184687	172633	5957	0	1485	53	124506	3491578	7495
35	2017-12-14 19:24:54		0	0	0	0	0	0	3.66	3.19	0.07	190434	0	12365	135998	190434	178069	6068	0	1507	53	127720	3491598	7628
36	2017-12-14 19:35:33		0	0	0	0	0	0	3.75	3.15	0.07	195764	0	12801	141010	195764	182963	6158	0	1527	53	130941	3491603	7738
37	2017-12-14 19:45:55		0	0	0	0	0	0	3.85	3.11	0.07	200460	0	13193	144528	200460	187267	6239	0	1543	53	134283	3491613	7835
38	2017-12-14 19:56:31		0	0	0	0	0	0	3.95	3.08	0.07	205194	0	13592	148807	205194	191602	6330	0	1560	53	137920	3491621	7943
39	2017-12-14 20:06:56		0	0	0	0	0	0	4.03	3.07	0.07	209412	0	13917	152555	209412	195495	6420	0	1580	53	140775	3491631	8053
40	2017-12-14 20:17:27		0	0	0	0	0	0	4.14	3.04	0.07	213623	0	14262	156142	213623	199361	6499	0	1594	53	144521	3491636	8146
41	2017-12-14 20:28:07		0	0	0	0	0	0	4.19	3.02	0.07	217471	0	14589	157990	217471	202882	6574	0	1610	53	146214	3491635	8237
42	2017-12-14 20:38:34		0	0	0	0	0	0	4.26	3	0.07	221139	0	14959	161070	221139	206180	6631	0	1630	54	148905	3491652	8315
43	2017-12-14 20:50:32		0	0	0	0	0	0	4.33	2.98	0.07	226488	0	15412	163722	226488	211076	6754	0	1650	55	151169	3491656	8459
44	2017-12-14 20:59:40		0	0	0	0	0	0	4.42	2.97	0.07	229932	0	15683	167418	229932	214249	6820	0	1664	55	154169	3491662	8539
45	2017-12-14 21:10:08		0	0	0	0	0	0	4.46	2.95	0.07	233376	0	15970	169740	233376	217406	6884	0	1690	55	155774	3491666	8629
46	2017-12-14 21:20:45		0	0	0	0	0	0	4.52	2.94	0.07	236617	0	16231	171432	236617	220386	6959	0	1711	55	157678	3491676	8725
47	2017-12-14 21:31:11		0	0	0	0	0	0	4.6	2.92	0.07	240010	0	16497	175597	240010	223513	7015	0	1722	55	160652	3491683	8792
48	2017-12-14 21:42:00		0	0	0	0	0	0	4.65	2.91	0.07	243263	0	16753	177397	243263	226510	7085	0	1735	55	162378	3491685	8875
49	2017-12-14 21:53:16		0	0	0	0	0	0	4.71	2.9	0.07	246419	0	16984	179660	246419	229435	7155	0	1752	55	164377	3491688	8962
50	2017-12-14 22:03:39		0	0	0	0	0	0	4.78	2.89	0.07	249468	0	17270	181323	249468	232198	7218	0	1768	56	166839	3491691	9042
51	2017-12-14 22:14:13		0	0	0	0	0	0	4.86	2.88	0.07	252722	0	17527	184153	252722	235195	7275	0	1792	56	169529	3491699	9123
52	2017-12-14 22:27:24		0	0	0	0	0	0	4.96	2.86	0.07	257673	0	17886	187677	257673	239787	7378	0	1814	56	173051	3491710	9248
53	2017-12-14 22:37:52		0	0	0	0	0	0	5.03	2.85	0.07	260892	0	18144	190798	260892	242748	7444	0	1837	57	175771	3491717	9338
54	2017-12-14 22:48:40		0	0	0	0	0	0	5.09	2.85	0.07	263840	0	18381	192815	263840	245459	7518	0	1850	57	177787	3491723	9425
55	2017-12-14 22:59:08		0	0	0	0	0	0	5.16	2.84	0.07	266794	0	18611	195467	266794	248183	7588	0	1872	59	180102	3491731	9519
56	2017-12-14 23:10:02		0	0	0	0	0	0	5.25	2.84	0.08	271241	0	18936	199033	271241	252305	7693	0	1888	59	183255	3491737	9640
57	2017-12-14 23:22:38		0	0	0	0	0	0	5.29	2.83	0.08	274019	0	19160	200318	274019	254859	7762	0	1911	59	184586	3491746	9732
58	2017-12-14 23:36:01		0	0	0	0	0	0	5.38	2.83	0.08	277802	0	19426	202940	277802	258376	7851	0	1927	59	187716	3491745	9837
59	2017-12-14 23:46:41		0	0	0	0	0	0	5.42	2.82	0.08	280041	0	19596	204904	280041	260445	7901	0	1946	59	189222	3491754	9906
60	2017-12-14 23:57:09		0	0	0	0	0	0	5.47	2.81	0.08	282174	0	19751	207090	282174	262423	7939	0	1957	59	191084	3491750	9955
61	2017-12-15 00:37:42		0	0	0	0	0	0	5.63	2.8	0.08	289066	0	20278	211880	289066	268788	8100	0	2002	60	196430	3491764	10162
62	2017-12-15 01:42:34		0	0	0	0	0	0	5.76	2.79	0.08	295905	0	20799	216949	295905	275106	8258	0	2042	60	201197	3491754	10360
63	2017-12-15 02:54:20		0	0	0	0	0	0	5.85	2.79	0.08	299760	0	21044	219642	299760	278716	8349	0	2054	60	204128	3491762	10463
64	2017-12-15 03:57:24		0	0	0	0	0	0	5.9	2.78	0.08	301994	0	21185	221647	301994	280809	8391	0	2064	61	206187	3491761	10516
65	2017-12-15 05:04:07		0	0	0	0	0	0	5.94	2.78	0.08	303913	0	21350	222980	303913	282563	8439	0	2076	61	207507	3491765	10576
66	2017-12-15 06:10:07		0	0	0	0	0	0	6	2.77	0.08	306483	0	21562	225255	306483	284921	8489	0	2089	61	209448	3491771	10639
67	2017-12-15 07:17:52		0	0	0	0	0	0	6.07	2.76	0.08	312374	0	22048	227702	312374	290326	8622	0	2116	61	212084	3491783	10799
68	2017-12-15 07:29:08		0	0	0	0	0	0	6.09	2.76	0.08	313600	0	22158	228418	313600	291442	8645	0	2125	61	212592	3491783	10831
69	2017-12-15 07:43:11		0	0	0	0	0	0	6.13	2.75	0.08	315591	0	22325	230581	315591	293266	8688	0	2132	62	213901	3491785	10882
70	2017-12-15 07:57:50		0	0	0	0	0	0	6.17	2.75	0.08	317722	0	22534	231828	317722	295188	8733	0	2139	62	215572	3491783	10934
71	2017-12-15 08:07:12		0	0	0	0	0	0	6.23	2.75	0.08	319151	0	22656	233111	319151	296495	8763	0	2143	63	217411	3491783	10969
72	2017-12-15 08:23:20		0	0	0	0	0	0	6.29	2.74	0.08	321326	0	22825	235764	321326	298501	8820	0	2155	63	219562	3491793	11038
73	2017-12-15 08:37:51		0	0	0	0	0	0	6.33	2.74	0.08	322928	0	22949	237628	322928	299979	8851	0	2164	64	221067	3491793	11079
74	2017-12-15 08:46:42		0	0	0	0	0	0	6.39	2.74	0.08	325103	0	23117	240111	325103	301986	8902	0	2173	64	223118	3491792	11139
75	2017-12-15 08:58:12		0	0	0	0	0	0	6.45	2.74	0.08	326639	0	23249	242662	326639	303390	8937	0	2181	64	225089	3491791	11182
76	2017-12-15 09:12:53		0	0	0	0	0	0	6.46	2.74	0.08	327967	0	23369	243377	327967	304598	8977	0	2187	64	225738	3491791	11228
77	2017-12-15 09:21:20		0	0	0	0	0	0	6.48	2.74	0.08	329960	0	23549	243866	329960	306411	9029	0	2193	64	226199	3491794	11286
78	2017-12-15 09:37:08		0	0	0	0	0	0	6.5	2.73	0.08	331123	0	23655	244729	331123	307468	9053	0	2200	64	226941	3491797	11317
79	2017-12-15 10:06:16		0	0	0	0	0	0	6.55	2.73	0.08	333445	0	23909	246666	333445	309536	9115	0	2213	64	228727	3491799	11392
80	2017-12-15 10:18:06		0	0	0	0	0	0	6.58	2.73	0.08	335999	0	24193	247962	335999	311806	9159	0	2228	66	229773	3491800	11453
81	2017-12-15 10:35:20		0	0	0	0	0	0	6.61	2.72	0.08	337450	0	24349	248773	337450	313101	9184	0	2235	66	230676	3491795	11485
82	2017-12-15 10:48:52		0	0	0	0	0	0	6.63	2.72	0.08	338823	0	24509	249797	338823	314314	9208	0	2236	66	231486	3491797	11510
83	2017-12-15 11:00:05		0	0	0	0	0	0	6.64	2.72	0.08	339744	0	24619	250481	339744	315125	9232	0	2242	66	232004	3491797	11540
84	2017-12-15 11:21:42		0	0	0	0	0	0	6.71	2.71	0.08	341875	0	24845	252864	341875	317030	9272	0	2264	66	234189	3491812	11602
85	2017-12-15 11:32:07		0	0	0	0	0	0	6.71	2.71	0.08	342733	0	24932	252895	342733	317801	9289	0	2271	66	234428	3491815	11626
86	2017-12-15 11:42:37		0	0	0	0	0	0	6.73	2.71	0.08	343640	0	25017	253257	343640	318623	9312	0	2283	66	234886	3491816	11661
87	2017-12-15 11:53:08		0	0	0	0	0	0	6.75	2.71	0.08	344603	0	25104	254088	344603	319499	9332	0	2287	66	235601	3491825	11685
88	2017-12-15 12:03:41		0	0	0	0	0	0	6.76	2.71	0.08	345453	0	25166	254430	345453	320287	9349	0	2293	66	236183	3491840	11708
89	2017-12-15 12:14:10		0	0	0	0	0	0	6.78	2.71	0.08	346299	0	25252	254849	346299	321047	9372	0	2295	66	236833	3491838	11733
90	2017-12-15 12:24:39		0	0	0	0	0	0	6.81	2.7	0.08	347224	0	25331	255936	347224	321893	9392	0	2304	67	237845	3491838	11763
91	2017-12-15 12:35:07		0	0	0	0	0	0	6.82	2.7	0.08	348188	0	25417	256169	348188	322771	9412	0	2310	67	238046	3491845	11789
92	2017-12-15 12:45:39		0	0	0	0	0	0	6.83	2.7	0.08	349556	0	25547	256424	349556	324009	9444	0	2319	68	238321	3491847	11831
93	2017-12-15 12:56:11		0	0	0	0	0	0	6.83	2.7	0.08	350518	0	25637	256424	350518	324881	9460	0	2323	68	238321	3491849	11851
94	2017-12-15 13:06:39		0	0	0	0	0	0	6.83	2.7	0.08	351366	0	25727	256424	351366	325639	9478	0	2328	68	238615	3491855	11874
95	2017-12-15 13:17:09		0	0	0	0	0	0	6.84	2.7	0.08	352214	0	25822	256541	352214	326392	9494	0	2331	68	238716	3491862	11893
96	2017-12-15 13:27:39		0	0	0	0	0	0	6.85	2.69	0.08	353048	0	25889	257009	353048	327159	9513	0	2334	68	239122	3491866	11915
97	2017-12-15 13:38:09		0	0	0	0	0	0	6.87	2.7	0.08	353708	0	25963	257774	353708	327745	9534	0	2337	68	239784	3491871	11939
98	2017-12-15 13:48:41		0	0	0	0	0	0	6.87	2.69	0.08	354254	0	26040	257774	354254	328214	9543	0	2339	68	239784	3491876	11950
99	2017-12-15 13:59:16		0	0	0	0	0	0	6.87	2.69	0.08	354822	0	26122	257774	354822	328700	9557	0	2341	68	239784	3491884	11966
100	2017-12-15 14:09:40		0	0	0	0	0	0	6.87	2.69	0.08	355321	0	26200	258376	355321	329121	9568	0	2346	68	239784	3491892	11982
101	2017-12-15 14:20:11		0	0	0	0	0	0	6.87	2.69	0.08	355765	0	26274	258679	355765	329491	9584	0	2347	68	239784	3491896	11999
102	2017-12-15 14:30:41		0	0	0	0	0	0	6.88	2.69	0.08	356392	0	26372	259502	356392	330020	9596	0	2350	68	240230	3491902	12014
103	2017-12-15 14:41:10		0	0	0	0	0	0	6.88	2.69	0.08	356763	0	26415	259671	356763	330348	9604	0	2353	68	240375	3491908	12025
104	2017-12-15 14:51:49		0	0	0	0	0	0	6.88	2.69	0.08	357166	0	26475	259671	357166	330691	9614	0	2357	68	240375	3491902	12039
105	2017-12-15 15:02:10		0	0	0	0	0	0	6.89	2.69	0.08	357550	0	26553	259758	357550	330997	9617	0	2357	68	240449	3491900	12042
106	2017-12-15 15:12:40		0	0	0	0	0	0	6.9	2.69	0.08	357927	0	26615	260392	357927	331312	9629	0	2360	68	240992	3491906	12057
107	2017-12-15 15:23:10		0	0	0	0	0	0	6.92	2.69	0.08	358290	0	26675	260523	358290	331615	9638	0	2361	68	241707	3491913	12067
108	2017-12-15 15:33:40		0	0	0	0	0	0	6.92	2.69	0.08	358614	0	26738	260523	358614	331876	9645	0	2361	68	241707	3491915	12074
109	2017-12-15 15:44:10		0	0	0	0	0	0	6.92	2.69	0.08	358932	0	26800	260567	358932	332132	9652	0	2362	68	241745	3491918	12082
110	2017-12-15 15:54:40		0	0	0	0	0	0	6.93	2.69	0.08	359233	0	26849	260677	359233	332384	9663	0	2362	68	241820	3491919	12093
111	2017-12-15 16:05:11		0	0	0	0	0	0	6.93	2.69	0.08	359552	0	26914	260699	359552	332638	9668	0	2367	68	241839	3491914	12103
112	2017-12-15 16:15:41		0	0	0	0	0	0	6.94	2.69	0.08	359984	0	26982	260907	359984	332971	9688	0	2369	68	242246	3491921	12125
113	2017-12-15 16:26:14		0	0	0	0	0	0	6.94	2.69	0.08	360277	0	27074	261171	360277	333203	9694	0	2371	68	242246	3491924	12133
114	2017-12-15 16:36:41		0	0	0	0	0	0	6.94	2.69	0.08	360547	0	27116	261171	360547	333431	9697	0	2371	68	242246	3491935	12136
115	2017-12-15 16:47:13		0	0	0	0	0	0	6.94	2.69	0.08	360848	0	27179	261480	360848	333669	9703	0	2371	68	242246	3491943	12142
116	2017-12-15 16:57:41		0	0	0	0	0	0	6.95	2.69	0.08	361163	0	27241	261546	361163	333922	9709	0	2372	68	242607	3491940	12149
117	2017-12-15 17:08:12		0	0	0	0	0	0	6.95	2.69	0.08	361484	0	27309	261591	361484	334175	9715	0	2373	68	242645	3491947	12156
118	2017-12-15 17:18:41		0	0	0	0	0	0	6.95	2.69	0.08	361787	0	27367	261591	361787	334420	9728	0	2374	68	242645	3491953	12170
119	2017-12-15 17:29:12		0	0	0	0	0	0	6.95	2.69	0.08	362094	0	27416	261591	362094	334678	9734	0	2376	68	242645	3491967	12178
120	2017-12-15 17:39:42		0	0	0	0	0	0	6.95	2.69	0.08	362455	0	27458	261745	362455	334997	9741	0	2380	68	242778	3491973	12189
121	2017-12-15 17:50:13		0	0	0	0	0	0	6.95	2.69	0.08	362851	0	27511	261745	362851	335340	9750	0	2383	68	242778	3491986	12201
122	2017-12-15 18:00:45		0	0	0	0	0	0	6.96	2.69	0.08	363235	0	27599	261920	363235	335667	9762	0	2384	69	242928	3491993	12215
123	2017-12-15 18:11:17		0	0	0	0	0	0	6.96	2.69	0.08	363713	0	27656	261920	363713	336057	9766	0	2385	69	242928	3491996	12220
124	2017-12-15 18:21:43		0	0	0	0	0	0	6.96	2.68	0.08	364063	0	27711	261920	364063	336352	9770	0	2388	69	242928	3492000	12227
125	2017-12-15 18:32:14		0	0	0	0	0	0	6.96	2.68	0.08	364364	0	27757	261920	364364	336607	9777	0	2388	69	242928	3492010	12234
126	2017-12-15 18:42:45		0	0	0	0	0	0	6.96	2.68	0.08	364671	0	27811	261920	364671	336860	9787	0	2390	69	242928	3492014	12246
127	2017-12-15 18:53:15		0	0	0	0	0	0	6.96	2.68	0.08	364990	0	27881	261920	364990	337109	9791	0	2391	69	242928	3492012	12251
128	2017-12-15 19:03:45		0	0	0	0	0	0	6.97	2.68	0.08	365259	0	27933	262275	365259	337326	9795	0	2391	69	243233	3492014	12255
129	2017-12-15 19:14:30		0	0	0	0	0	0	6.97	2.68	0.08	365536	0	28006	262275	365536	337530	9803	0	2391	69	243233	3492025	12263
130	2017-12-15 19:24:47		0	0	0	0	0	0	6.98	2.68	0.08	365786	0	28058	262542	365786	337728	9810	0	2391	69	243616	3492028	12270
131	2017-12-15 19:35:20		0	0	0	0	0	0	6.98	2.68	0.08	366063	0	28121	262542	366063	337942	9815	0	2392	69	243616	3492036	12276
132	2017-12-15 19:45:47		0	0	0	0	0	0	6.98	2.68	0.08	366313	0	28173	262542	366313	338140	9822	0	2393	69	243616	3492036	12284
133	2017-12-15 19:56:36		0	0	0	0	0	0	6.98	2.68	0.08	366696	0	28246	262542	366696	338450	9827	0	2393	69	243616	3492037	12289
134	2017-12-15 20:07:01		0	0	0	0	0	0	6.98	2.68	0.08	366960	0	28316	262542	366960	338644	9832	0	2393	69	243616	3492048	12294
135	2017-12-15 20:17:40		0	0	0	0	0	0	6.98	2.68	0.08	367207	0	28391	262809	367207	338816	9834	0	2393	69	243846	3492058	12296
136	2017-12-15 20:27:59		0	0	0	0	0	0	6.98	2.68	0.08	367428	0	28456	262809	367428	338972	9839	0	2395	69	243846	3492065	12303
137	2017-12-15 20:38:28		0	0	0	0	0	0	6.98	2.68	0.08	367677	0	28523	262976	367677	339154	9842	0	2395	69	243846	3492073	12306
138	2017-12-15 20:48:53		0	0	0	0	0	0	6.98	2.68	0.08	367919	0	28576	262976	367919	339343	9852	0	2399	69	243846	3492074	12320
139	2017-12-15 20:59:20		0	0	0	0	0	0	7	2.68	0.08	368222	0	28649	263570	368222	339573	9857	0	2400	70	244356	3492074	12327
140	2017-12-15 21:10:02		0	0	0	0	0	0	7	2.68	0.08	368495	0	28706	263570	368495	339789	9866	0	2401	70	244356	3492076	12337
141	2017-12-15 21:20:22		0	0	0	0	0	0	7	2.68	0.08	368782	0	28760	263570	368782	340022	9870	0	2403	70	244356	3492083	12343
142	2017-12-15 21:31:12		0	0	0	0	0	0	7.02	2.68	0.08	369159	0	28842	264290	369159	340317	9881	0	2404	70	244975	3492087	12355
143	2017-12-15 21:41:23		0	0	0	0	0	0	7.02	2.68	0.08	369390	0	28882	264425	369390	340508	9886	0	2405	70	245091	3492093	12361
144	2017-12-15 21:51:52		0	0	0	0	0	0	7.03	2.68	0.08	369613	0	28923	264855	369613	340690	9897	0	2405	70	245460	3492096	12372
145	2017-12-15 22:02:27		0	0	0	0	0	0	7.03	2.68	0.09	369869	0	28985	264855	369869	340884	9903	0	2406	70	245460	3492100	12379
146	2017-12-15 22:12:54		0	0	0	0	0	0	7.03	2.68	0.09	370096	0	29037	264855	370096	341059	9910	0	2406	70	245460	3492106	12386
147	2017-12-15 22:23:25		0	0	0	0	0	0	7.03	2.68	0.09	370348	0	29094	265036	370348	341254	9915	0	2407	70	245460	3492111	12392
148	2017-12-15 22:34:00		0	0	0	0	0	0	7.04	2.68	0.09	370596	0	29146	265354	370596	341450	9919	0	2408	70	245733	3492114	12397
149	2017-12-15 22:44:28		0	0	0	0	0	0	7.04	2.68	0.09	370847	0	29201	265354	370847	341646	9928	0	2410	70	245733	3492122	12408
150	2017-12-15 22:55:24		0	0	0	0	0	0	7.04	2.68	0.09	371070	0	29247	265354	371070	341823	9932	0	2410	70	245733	3492132	12412
151	2017-12-15 23:05:54		0	0	0	0	0	0	7.04	2.68	0.09	371286	0	29294	265354	371286	341992	9939	0	2412	70	245733	3492137	12421
152	2017-12-15 23:16:03		0	0	0	0	0	0	7.04	2.68	0.09	371501	0	29335	265354	371501	342166	9944	0	2412	70	245733	3492143	12426
153	2017-12-15 23:26:33		0	0	0	0	0	0	7.04	2.68	0.09	371771	0	29385	265354	371771	342386	9952	0	2412	70	245733	3492149	12434
154	2017-12-15 23:39:35		0	0	0	0	0	0	7.04	2.68	0.09	371981	0	29430	265354	371981	342551	9952	0	2413	71	245733	3492155	12436
155	2017-12-15 23:50:52		0	0	0	0	0	0	7.04	2.68	0.09	372175	0	29456	265354	372175	342719	9956	0	2413	71	245733	3492155	12440
156	2017-12-16 00:01:09		0	0	0	0	0	0	7.04	2.68	0.09	372334	0	29487	265445	372334	342847	9961	0	2415	71	245811	3492154	12447
157	2017-12-16 01:09:43		0	0	0	0	0	0	7.04	2.67	0.09	373315	0	29671	265445	373315	343644	9979	0	2421	71	245811	3492161	12471
158	2017-12-16 02:11:33		0	0	0	0	0	0	7.04	2.67	0.09	373793	0	29759	265445	373793	344034	9996	0	2421	71	245811	3492163	12488
159	2017-12-16 03:17:29		0	0	0	0	0	0	7.04	2.67	0.09	374035	0	29808	265445	374035	344227	10001	0	2423	71	245811	3492157	12495
160	2017-12-16 04:22:37		0	0	0	0	0	0	7.04	2.67	0.09	374172	0	29835	265491	374172	344337	10005	0	2425	71	245811	3492156	12501
161	2017-12-16 05:28:56		0	0	0	0	0	0	7.04	2.67	0.09	374291	0	29853	265627	374291	344438	10009	0	2425	71	245928	3492156	12505
162	2017-12-16 06:34:59		0	0	0	0	0	0	7.04	2.67	0.09	374453	0	29893	265627	374453	344560	10016	0	2427	71	245928	3492156	12514
163	2017-12-16 07:10:12		0	0	0	0	0	0	7.05	2.67	0.09	374590	0	29929	266084	374590	344661	10017	0	2428	71	246163	3492160	12516
164	2017-12-16 07:20:47		0	0	0	0	0	0	7.05	2.67	0.09	374632	0	29937	266084	374632	344695	10017	0	2428	71	246163	3492162	12516
165	2017-12-16 07:34:18		0	0	0	0	0	0	7.05	2.67	0.09	374683	0	29949	266084	374683	344734	10019	0	2429	71	246163	3492170	12519
166	2017-12-16 07:45:11		0	0	0	0	0	0	7.05	2.67	0.09	374787	0	29972	266084	374787	344815	10021	0	2430	71	246163	3492170	12522
167	2017-12-16 07:54:30		0	0	0	0	0	0	7.05	2.67	0.09	374852	0	29989	266084	374852	344863	10022	0	2430	71	246163	3492173	12523
168	2017-12-16 08:05:37		0	0	0	0	0	0	7.05	2.67	0.09	374908	0	30000	266084	374908	344908	10024	0	2430	71	246163	3492171	12525
169	2017-12-16 08:20:53		0	0	0	0	0	0	7.05	2.67	0.09	375009	0	30016	266084	375009	344993	10027	0	2431	71	246163	3492171	12529
170	2017-12-16 08:49:28		0	0	0	0	0	0	7.05	2.67	0.09	375200	0	30065	266221	375200	345135	10029	0	2432	71	246280	3492187	12532
171	2017-12-16 09:06:26		0	0	0	0	0	0	7.05	2.67	0.09	375350	0	30102	266313	375350	345248	10032	0	2432	71	246359	3492193	12535
172	2017-12-16 09:24:02		0	0	0	0	0	0	7.05	2.67	0.09	375519	0	30126	266313	375519	345351	10038	0	2435	71	246359	3492203	12544
173	2017-12-16 09:32:35		0	0	0	0	0	0	7.06	2.67	0.09	375604	0	30145	266359	375604	345459	10040	0	2436	71	246398	3492204	12547
174	2017-12-16 09:47:52		0	0	0	0	0	0	7.06	2.67	0.09	375695	0	30161	266680	375695	345534	10043	0	2437	71	246673	3492206	12551
175	2017-12-16 10:00:57		0	0	0	0	0	0	7.07	2.67	0.09	375827	0	30192	266864	375827	345635	10048	0	2438	71	246830	3492203	12557
176	2017-12-16 10:12:42		0	0	0	0	0	0	7.07	2.67	0.09	375896	0	30210	266864	375896	345686	10050	0	2438	71	246830	3492209	12559
177	2017-12-16 10:29:49		0	0	0	0	0	0	7.07	2.67	0.09	376065	0	30247	266944	376065	345818	10056	0	2439	71	246899	3492214	12566
178	2017-12-16 10:42:59		0	0	0	0	0	0	7.07	2.67	0.09	376176	0	30271	266944	376176	345905	10060	0	2439	71	246899	3492220	12570
179	2017-12-16 10:56:48		0	0	0	0	0	0	7.07	2.67	0.09	376252	0	30295	266944	376252	345957	10063	0	2439	71	246899	3492225	12573
180	2017-12-16 11:09:31		0	0	0	0	0	0	7.07	2.67	0.09	376384	0	30327	266944	376384	346057	10064	0	2440	71	246899	3492240	12575
181	2017-12-16 11:28:44		0	0	0	0	0	0	7.08	2.67	0.09	376562	0	30363	267313	376562	346199	10069	0	2442	72	247372	3492250	12583
182	2017-12-16 11:44:31		0	0	0	0	0	0	7.08	2.67	0.09	376670	0	30397	267313	376670	346273	10072	0	2442	72	247372	3492254	12586
183	2017-12-16 12:04:12		0	0	0	0	0	0	7.08	2.67	0.09	376802	0	30443	267313	376802	346359	10075	0	2443	73	247372	3492257	12591
184	2017-12-16 12:12:15		0	0	0	0	0	0	7.08	2.67	0.09	376891	0	30464	267313	376891	346427	10079	0	2444	73	247372	3492257	12596
185	2017-12-16 12:27:36		0	0	0	0	0	0	7.08	2.68	0.09	376998	0	30500	267313	376998	346507	10085	0	2444	73	247372	3492259	12602
186	2017-12-16 12:56:44		0	0	0	0	0	0	7.08	2.68	0.09	377196	0	30535	267313	377196	346661	10092	0	2445	73	247372	3492261	12610
187	2017-12-16 13:05:53		0	0	0	0	0	0	7.08	2.68	0.09	377271	0	30547	267313	377271	346724	10098	0	2446	73	247372	3492268	12617
188	2017-12-16 13:33:19		0	0	0	0	0	0	7.08	2.68	0.09	377460	0	30583	267313	377460	346877	10105	0	2446	73	247372	3492280	12624
189	2017-12-16 14:01:38		0	0	0	0	0	0	7.09	2.68	0.09	377632	0	30611	267405	377632	347021	10110	0	2447	73	247451	3492304	12630
190	2017-12-16 14:19:16		0	0	0	0	0	0	7.09	2.68	0.09	377709	0	30622	267405	377709	347087	10112	0	2447	73	247451	3492308	12632
191	2017-12-16 14:32:19		0	0	0	0	0	0	7.09	2.68	0.09	377819	0	30658	267405	377819	347161	10116	0	2448	73	247451	3492314	12637
192	2017-12-16 14:47:25		0	0	0	0	0	0	7.09	2.68	0.09	377919	0	30685	267405	377919	347234	10122	0	2448	73	247451	3492314	12643
193	2017-12-16 15:01:34		0	0	0	0	0	0	7.09	2.68	0.09	378010	0	30713	267544	378010	347297	10126	0	2449	73	247570	3492314	12648
194	2017-12-16 15:18:32		0	0	0	0	0	0	7.09	2.68	0.09	378137	0	30742	267544	378137	347395	10131	0	2450	73	247570	3492324	12654
195	2017-12-16 15:56:15		0	0	0	0	0	0	7.09	2.68	0.09	378387	0	30801	267729	378387	347586	10136	0	2450	73	247570	3492339	12659
196	2017-12-16 16:05:38		0	0	0	0	0	0	7.09	2.68	0.09	378458	0	30818	267729	378458	347640	10139	0	2450	73	247570	3492338	12662
197	2017-12-16 16:27:52		0	0	0	0	0	0	7.09	2.68	0.09	378608	0	30846	267729	378608	347762	10143	0	2452	73	247570	3492339	12668
198	2017-12-16 17:04:42		0	0	0	0	0	0	7.09	2.68	0.09	378874	0	30899	267729	378874	347975	10148	0	2453	73	247570	3492356	12674
199	2017-12-16 17:15:16		0	0	0	0	0	0	7.09	2.68	0.09	378950	0	30916	267729	378950	348034	10150	0	2453	73	247570	3492357	12676
200	2017-12-16 17:35:23		0	0	0	0	0	0	7.1	2.68	0.09	379085	0	30933	267961	379085	348152	10153	0	2454	73	248125	3492365	12680
201	2017-12-16 18:05:04		0	0	0	0	0	0	7.11	2.68	0.09	379307	0	30961	268053	379307	348346	10157	0	2454	73	248205	3492375	12684
202	2017-12-16 18:23:43		0	0	0	0	0	0	7.11	2.68	0.09	379436	0	30976	268053	379436	348460	10158	0	2454	73	248205	3492380	12685
203	2017-12-16 18:35:59		0	0	0	0	0	0	7.11	2.68	0.09	379516	0	30986	268135	379516	348530	10158	0	2454	73	248275	3492382	12685
204	2017-12-16 18:46:24		0	0	0	0	0	0	7.11	2.68	0.09	379610	0	30996	268135	379610	348614	10160	0	2454	73	248275	3492384	12687
205	2017-12-16 19:25:38		0	0	0	0	0	0	7.11	2.68	0.09	379932	0	31031	268315	379932	348901	10164	0	2454	73	248429	3492396	12691
206	2017-12-16 19:36:38		0	0	0	0	0	0	7.11	2.68	0.09	379989	0	31036	268315	379989	348953	10166	0	2455	73	248429	3492392	12694
207	2017-12-16 19:47:22		0	0	0	0	0	0	7.11	2.67	0.09	380053	0	31047	268315	380053	349006	10166	0	2456	73	248429	3492394	12695
208	2017-12-16 20:27:40		0	0	0	0	0	0	7.12	2.67	0.09	380400	0	31122	268779	380400	349278	10172	0	2457	73	248509	3492398	12702
209	2017-12-16 21:07:23		0	0	0	0	0	0	7.12	2.67	0.09	380799	0	31185	269129	380799	349614	10180	0	2458	73	248808	3492393	12711
210	2017-12-16 21:16:31		0	0	0	0	0	0	7.13	2.67	0.09	380882	0	31191	269457	380882	349691	10182	0	2458	73	249089	3492397	12713
211	2017-12-16 21:27:07		0	0	0	0	0	0	7.13	2.67	0.09	380997	0	31207	269551	380997	349790	10183	0	2459	73	249089	3492403	12715
212	2017-12-16 22:06:04		0	0	0	0	0	0	7.14	2.67	0.09	381353	0	31267	269833	381353	350086	10192	0	2459	73	249329	3492413	12724
213	2017-12-16 22:16:29		0	0	0	0	0	0	7.14	2.67	0.09	381452	0	31283	269833	381452	350169	10193	0	2459	73	249329	3492414	12725
214	2017-12-16 22:46:56		0	0	0	0	0	0	7.14	2.67	0.09	381732	0	31330	269927	381732	350402	10204	0	2461	73	249329	3492410	12738
215	2017-12-16 22:58:05		0	0	0	0	0	0	7.14	2.67	0.09	381806	0	31345	269927	381806	350461	10208	0	2462	73	249329	3492410	12743
216	2017-12-16 23:28:21		0	0	0	0	0	0	7.14	2.67	0.09	382052	0	31388	269927	382052	350664	10213	0	2463	73	249329	3492406	12749
