1	2016-10-22 13:55:56	0	0	0	0	0	0	0	0	0	0	1	0	0	0	0	0	4	6	6	0	2239514	0
2	2016-10-22 14:05:56	0	0	0	0	0	0	1.11	2.04	0	29824	1	65	24902	29824	29759	608	36	100	27	24842	2239533	771
3	2016-10-22 14:15:56	0	0	0	0	0	0	2.61	2.64	0.01	71182	1	709	59650	71182	70473	1882	74	201	43	58441	2239550	2200
4	2016-10-22 14:25:56	0	0	0	0	0	0	3.63	3.07	0.02	102206	1	1748	83982	102206	100458	3138	110	307	56	81319	2239568	3611
5	2016-10-22 14:35:55	0	0	0	0	0	0	4.38	3.28	0.02	128404	1	2929	101484	128404	125475	4209	130	375	66	98068	2239585	4780
6	2016-10-22 14:45:58	0	0	0	0	0	0	5.01	3.39	0.03	151339	1	4060	116585	151339	147279	5136	138	437	72	112221	2239608	5783
7	2016-10-22 14:55:57	0	0	0	0	0	0	5.5	3.49	0.03	170469	1	5177	128522	170469	165292	5952	162	482	78	123244	2239632	6674
8	2016-10-22 15:05:58	0	0	0	0	0	0	5.95	3.54	0.03	187846	1	6184	139357	187846	181662	6644	176	530	83	133346	2239662	7433
9	2016-10-22 15:15:54	0	0	0	0	0	0	6.37	3.58	0.04	203353	1	7148	148931	203353	196205	7274	194	560	89	142733	2239687	8117
10	2016-10-22 15:25:58	0	0	0	0	0	0	6.68	3.59	0.04	217425	1	8102	155342	217425	209323	7812	214	612	93	149519	2239708	8731
11	2016-10-22 15:35:55	0	0	0	0	0	0	7.07	3.6	0.04	230874	1	9072	165017	230874	221802	8322	224	644	95	158299	2239733	9285
12	2016-10-22 15:45:55	0	0	0	0	0	0	7.32	3.62	0.04	243445	1	10034	170751	243445	233411	8808	230	661	98	163862	2239761	9797
13	2016-10-22 15:55:54	0	0	0	0	0	0	7.58	3.61	0.04	254518	1	10945	178600	254518	243573	9199	238	687	104	169821	2239794	10228
14	2016-10-22 16:05:55	0	0	0	0	0	0	7.84	3.6	0.05	265008	1	11845	185537	265008	253163	9541	252	708	105	175532	2239817	10606
15	2016-10-22 16:15:55	0	0	0	0	0	0	8.02	3.59	0.05	275051	1	12640	189853	275051	262411	9878	260	724	106	179564	2239840	10968
16	2016-10-22 16:25:55	0	0	0	0	0	0	8.29	3.58	0.05	284992	1	13348	195820	284992	271644	10216	266	742	108	185597	2239856	11332
17	2016-10-22 16:35:55	0	0	0	0	0	0	8.51	3.58	0.05	294191	1	14010	201458	294191	280181	10545	282	759	108	190618	2239875	11694
18	2016-10-22 16:45:55	0	0	0	0	0	0	8.7	3.59	0.05	302842	1	14679	205700	302842	288163	10878	290	778	108	194853	2239904	12054
19	2016-10-22 16:55:55	0	0	0	0	0	0	8.9	3.59	0.05	311353	1	15398	211265	311353	295955	11174	296	798	111	199407	2239928	12379
20	2016-10-22 17:05:56	0	0	0	0	0	0	9.12	3.59	0.05	319221	1	16112	217040	319221	303109	11446	304	814	112	204386	2239948	12676
21	2016-10-22 17:15:56	0	0	0	0	0	0	9.32	3.58	0.05	326574	1	16845	221039	326574	309729	11691	306	829	112	208756	2239969	12938
22	2016-10-22 17:25:56	0	0	0	0	0	0	9.49	3.57	0.06	333701	1	17455	226250	333701	316246	11899	318	841	113	212625	2239989	13171
23	2016-10-22 17:35:56	0	0	0	0	0	0	9.63	3.55	0.06	340755	1	18087	229778	340755	322668	12108	318	850	114	215722	2240006	13390
24	2016-10-22 17:45:56	0	0	0	0	0	0	9.81	3.55	0.06	347307	1	18600	234123	347307	328707	12330	320	856	115	219729	2240028	13621
25	2016-10-22 17:55:56	0	0	0	0	0	0	9.88	3.54	0.06	353730	1	19082	236177	353730	334648	12528	322	872	116	221411	2240043	13838
26	2016-10-22 18:05:57	0	0	0	0	0	0	10.02	3.53	0.06	359979	1	19648	239463	359979	340331	12706	328	877	117	224362	2240061	14028
27	2016-10-22 18:15:56	0	0	0	0	0	0	10.09	3.53	0.06	365382	1	20136	241913	365382	345246	12880	332	885	118	226114	2240076	14215
28	2016-10-22 18:25:57	0	0	0	0	0	0	10.23	3.53	0.06	370390	1	20586	245345	370390	349804	13063	332	891	118	229219	2240095	14404
29	2016-10-22 18:35:57	0	0	0	0	0	0	10.37	3.52	0.06	375160	1	21045	248210	375160	354115	13200	334	895	118	232344	2240115	14547
30	2016-10-22 18:45:57	0	0	0	0	0	0	10.5	3.52	0.06	379607	1	21438	251041	379607	358169	13353	336	901	118	235108	2240126	14708
31	2016-10-22 18:55:58	0	0	0	0	0	0	10.63	3.51	0.06	384020	1	21822	254095	384020	362198	13466	338	907	118	238151	2240143	14829
32	2016-10-22 19:05:57	0	0	0	0	0	0	10.85	3.49	0.06	388696	1	22253	259956	388696	366443	13584	342	918	118	243144	2240154	14962
33	2016-10-22 19:15:57	0	0	0	0	0	0	10.92	3.49	0.06	392975	1	22610	261744	392975	370365	13701	350	929	118	244712	2240181	15098
34	2016-10-22 19:25:57	0	0	0	0	0	0	11.03	3.48	0.06	397391	1	23004	264145	397391	374387	13822	350	933	119	247056	2240199	15224
35	2016-10-22 19:35:58	0	0	0	0	0	0	11.09	3.47	0.06	401717	1	23410	266097	401717	378307	13945	354	936	119	248363	2240210	15354
36	2016-10-22 19:45:58	0	0	0	0	0	0	11.17	3.47	0.06	406082	1	23739	267569	406082	382343	14080	360	944	119	250250	2240233	15503
37	2016-10-22 19:55:57	0	0	0	0	0	0	11.3	3.46	0.06	410440	1	24107	271053	410440	386333	14197	362	954	120	253114	2240247	15633
38	2016-10-22 20:05:58	0	0	0	0	0	0	11.42	3.45	0.06	414765	1	24495	274127	414765	390270	14316	362	961	121	255857	2240269	15760
39	2016-10-22 20:15:59	0	0	0	0	0	0	11.48	3.44	0.06	419025	1	24857	276326	419025	394168	14416	362	966	121	257108	2240284	15865
40	2016-10-22 20:25:58	0	0	0	0	0	0	11.53	3.43	0.06	423152	1	25227	277931	423152	397925	14535	368	976	121	258281	2240303	16000
41	2016-10-22 20:35:58	0	0	0	0	0	0	11.66	3.43	0.06	427509	1	25635	280833	427509	401874	14653	368	990	124	261313	2240326	16135
42	2016-10-22 20:45:58	0	0	0	0	0	0	11.71	3.42	0.06	431799	1	26016	282061	431799	405783	14765	372	1001	124	262287	2240330	16262
43	2016-10-22 20:55:58	0	0	0	0	0	0	11.79	3.41	0.06	436476	1	26424	283496	436476	410052	14868	372	1005	125	264067	2240346	16370
44	2016-10-22 21:05:59	0	0	0	0	0	0	11.86	3.4	0.06	440953	1	26771	285075	440953	414182	14992	374	1015	128	265744	2240365	16509
45	2016-10-22 21:15:59	0	0	0	0	0	0	11.94	3.39	0.06	445187	1	27101	287087	445187	418086	15105	374	1020	128	267417	2240377	16627
46	2016-10-22 21:25:58	0	0	0	0	0	0	11.99	3.38	0.06	449548	1	27424	287988	449548	422124	15207	374	1028	130	268687	2240389	16739
47	2016-10-22 21:35:59	0	0	0	0	0	0	12.08	3.37	0.07	453977	1	27791	290465	453977	426186	15319	376	1040	130	270658	2240409	16865
48	2016-10-22 21:45:58	0	0	0	0	0	0	12.21	3.36	0.07	458264	1	28127	293459	458264	430137	15417	376	1050	130	273642	2240418	16973
49	2016-10-22 21:55:58	0	0	0	0	0	0	12.39	3.36	0.07	462572	1	28440	297999	462572	434132	15531	376	1055	130	277486	2240430	17092
50	2016-10-22 22:06:00	0	0	0	0	0	0	12.42	3.35	0.07	466871	1	28757	298747	466871	438114	15640	378	1061	131	278234	2240439	17210
51	2016-10-22 22:15:59	0	0	0	0	0	0	12.5	3.34	0.07	471011	1	29062	301133	471011	441949	15731	382	1070	131	280049	2240450	17314
52	2016-10-22 22:25:59	0	0	0	0	0	0	12.67	3.33	0.07	475186	1	29357	305034	475186	445829	15824	386	1076	131	283966	2240477	17417
53	2016-10-22 22:35:59	0	0	0	0	0	0	12.88	3.32	0.07	479326	1	29632	310478	479326	449694	15924	390	1078	131	288679	2240488	17523
54	2016-10-22 22:46:00	0	0	0	0	0	0	13.13	3.32	0.07	483180	1	29876	315693	483180	453304	16037	394	1081	132	294073	2240508	17644
55	2016-10-22 22:55:59	0	0	0	0	0	0	13.2	3.31	0.07	487005	1	30147	317510	487005	456858	16122	398	1085	132	295649	2240518	17737
56	2016-10-22 23:05:59	0	0	0	0	0	0	13.27	3.3	0.07	490688	1	30436	319328	490688	460252	16206	402	1089	133	297224	2240540	17830
57	2016-10-22 23:16:00	0	0	0	0	0	0	13.33	3.29	0.07	494238	1	30711	320613	494238	463527	16274	406	1094	133	298568	2240556	17907
58	2016-10-22 23:26:00	0	0	0	0	0	0	13.38	3.28	0.07	497835	1	31001	322288	497835	466834	16352	406	1099	134	299736	2240572	17991
59	2016-10-22 23:35:59	0	0	0	0	0	0	13.48	3.28	0.07	501273	1	31280	324550	501273	469993	16424	410	1103	135	301928	2240583	18072
60	2016-10-22 23:46:00	0	0	0	0	0	0	13.54	3.27	0.07	504637	1	31551	326363	504637	473086	16495	412	1105	136	303377	2240606	18148
61	2016-10-22 23:55:59	0	0	0	0	0	0	13.59	3.26	0.07	507940	1	31797	327936	507940	476143	16572	414	1109	136	304556	2240618	18231
62	2016-10-23 00:06:00	0	0	0	0	0	0	13.72	3.26	0.07	511066	1	32051	330156	511066	479015	16644	416	1113	136	307444	2240628	18309
63	2016-10-23 00:16:00	0	0	0	0	0	0	13.77	3.25	0.07	514241	1	32292	331535	514241	481949	16710	416	1116	136	308639	2240637	18378
64	2016-10-23 00:25:59	0	0	0	0	0	0	13.84	3.25	0.07	517143	1	32487	332988	517143	484656	16795	420	1119	136	310146	2240646	18470
65	2016-10-23 00:35:59	0	0	0	0	0	0	13.9	3.24	0.07	520100	1	32690	334607	520100	487410	16870	420	1121	137	311550	2240656	18548
66	2016-10-23 00:45:59	0	0	0	0	0	0	13.93	3.24	0.07	522887	1	32851	335477	522887	490036	16941	420	1126	138	312179	2240666	18625
67	2016-10-23 00:55:59	0	0	0	0	0	0	13.99	3.24	0.07	525630	1	33018	336974	525630	492612	17010	422	1129	138	313474	2240678	18699
68	2016-10-23 01:06:00	0	0	0	0	0	0	14.04	3.23	0.07	528103	1	33156	337985	528103	494947	17071	424	1130	138	314540	2240686	18763
69	2016-10-23 01:15:59	0	0	0	0	0	0	14.12	3.23	0.07	530352	1	33314	339872	530352	497038	17127	426	1132	138	316336	2240691	18823
70	2016-10-23 01:25:59	0	0	0	0	0	0	14.16	3.23	0.07	532398	1	33480	341522	532398	498918	17174	426	1135	138	317178	2240697	18873
71	2016-10-23 01:36:00	0	0	0	0	0	0	14.21	3.22	0.07	534331	1	33592	342655	534331	500739	17217	426	1136	138	318418	2240707	18917
72	2016-10-23 01:46:01	0	0	0	0	0	0	14.24	3.22	0.07	536171	1	33709	343007	536171	502462	17257	426	1137	138	319082	2240710	18958
73	2016-10-23 01:56:02	0	0	0	0	0	0	14.26	3.21	0.07	537892	1	33806	343616	537892	504086	17291	426	1139	138	319609	2240712	18994
74	2016-10-23 02:06:02	0	0	0	0	0	0	14.3	3.21	0.07	539563	1	33924	344342	539563	505639	17338	426	1142	138	320502	2240555	19044
75	2016-10-23 02:16:03	0	0	0	0	0	0	14.34	3.21	0.07	541042	1	34003	345302	541042	507039	17367	428	1144	138	321334	2240564	19077
76	2016-10-23 02:26:02	0	0	0	0	0	0	14.41	3.21	0.07	542356	1	34078	346577	542356	508278	17408	430	1147	138	322976	2240568	19123
77	2016-10-23 02:36:04	0	0	0	0	0	0	14.44	3.21	0.07	543654	1	34148	347121	543654	509506	17443	432	1148	138	323584	2240571	19161
78	2016-10-23 02:46:02	0	0	0	0	0	0	14.46	3.21	0.07	544875	1	34218	347667	544875	510657	17469	434	1150	138	323922	2240574	19191
79	2016-10-23 02:56:04	0	0	0	0	0	0	14.47	3.21	0.07	545982	1	34278	347901	545982	511704	17499	434	1152	138	324126	2240575	19223
80	2016-10-23 03:06:01	0	0	0	0	0	0	14.49	3.2	0.07	547033	1	34340	348488	547033	512693	17526	434	1153	138	324636	2240576	19251
81	2016-10-23 03:16:04	0	0	0	0	0	0	14.49	3.2	0.07	548015	1	34401	348684	548015	513614	17549	434	1154	138	324669	2240582	19275
82	2016-10-23 03:26:02	0	0	0	0	0	0	14.52	3.2	0.07	548870	1	34446	349550	548870	514424	17568	434	1155	138	325420	2240585	19295
83	2016-10-23 03:36:02	0	0	0	0	0	0	14.56	3.2	0.07	549691	1	34488	349826	549691	515203	17589	434	1156	138	326208	2240595	19317
84	2016-10-23 03:46:02	0	0	0	0	0	0	14.57	3.2	0.07	550439	1	34534	349985	550439	515905	17600	436	1158	138	326346	2240601	19332
85	2016-10-23 03:56:03	0	0	0	0	0	0	14.57	3.2	0.07	551159	1	34577	350222	551159	516582	17615	436	1158	138	326552	2240599	19347
86	2016-10-23 04:06:02	0	0	0	0	0	0	14.58	3.2	0.07	551805	1	34625	350262	551805	517180	17632	438	1158	138	326587	2240601	19366
87	2016-10-23 04:16:03	0	0	0	0	0	0	14.58	3.19	0.07	552422	1	34673	350321	552422	517749	17646	438	1159	138	326638	2240603	19381
88	2016-10-23 04:26:02	0	0	0	0	0	0	14.62	3.19	0.07	552978	1	34713	351554	552978	518265	17654	438	1159	138	327467	2240605	19389
89	2016-10-23 04:36:03	0	0	0	0	0	0	14.62	3.19	0.07	553516	1	34756	351554	553516	518760	17662	438	1159	138	327467	2240611	19397
90	2016-10-23 04:46:03	0	0	0	0	0	0	14.62	3.19	0.07	554037	1	34791	351594	554037	519246	17669	438	1160	138	327502	2240615	19405
91	2016-10-23 04:56:04	0	0	0	0	0	0	14.62	3.19	0.07	554455	1	34822	351594	554455	519633	17688	438	1161	138	327502	2240612	19425
92	2016-10-23 05:06:02	0	0	0	0	0	0	14.63	3.19	0.07	554915	1	34857	351954	554915	520058	17699	438	1162	138	327814	2240613	19437
93	2016-10-23 05:16:05	0	0	0	0	0	0	14.64	3.19	0.07	555371	1	34885	352254	555371	520486	17705	438	1162	138	328075	2240612	19443
94	2016-10-23 05:26:02	0	0	0	0	0	0	14.65	3.19	0.07	555745	1	34916	352475	555745	520829	17720	438	1163	138	328266	2240615	19459
95	2016-10-23 05:36:02	0	0	0	0	0	0	14.67	3.19	0.07	556158	1	34943	352957	556158	521215	17728	438	1163	138	328684	2240616	19467
96	2016-10-23 05:46:03	0	0	0	0	0	0	14.67	3.19	0.07	556569	1	34979	352957	556569	521590	17736	438	1163	139	328684	2240619	19476
97	2016-10-23 05:56:04	0	0	0	0	0	0	14.69	3.19	0.07	556979	1	35011	353521	556979	521968	17748	438	1163	139	329173	2240620	19488
98	2016-10-23 06:06:02	0	0	0	0	0	0	14.69	3.19	0.07	557376	1	35039	353582	557376	522337	17764	438	1163	139	329226	2240621	19504
99	2016-10-23 06:16:04	0	0	0	0	0	0	14.7	3.19	0.07	557808	1	35078	353703	557808	522730	17778	438	1163	139	329331	2240623	19518
100	2016-10-23 06:26:02	0	0	0	0	0	0	14.72	3.19	0.07	558250	1	35121	354249	558250	523129	17787	438	1163	139	329804	2240624	19527
101	2016-10-23 06:36:05	0	0	0	0	0	0	14.72	3.19	0.07	558684	1	35151	354249	558684	523533	17802	438	1163	139	329804	2240627	19542
102	2016-10-23 06:46:04	0	0	0	0	0	0	14.73	3.19	0.07	559198	1	35192	354492	559198	524006	17811	438	1163	139	330015	2240630	19551
103	2016-10-23 06:56:05	0	0	0	0	0	0	14.76	3.18	0.07	559719	1	35236	355367	559719	524483	17822	438	1164	139	330703	2240629	19563
104	2016-10-23 07:06:02	0	0	0	0	0	0	14.76	3.18	0.07	560307	1	35288	355367	560307	525019	17833	438	1165	139	330703	2240633	19575
105	2016-10-23 07:16:06	0	0	0	0	0	0	14.82	3.18	0.07	561007	1	35346	356955	561007	525661	17850	438	1166	141	332077	2240632	19595
106	2016-10-23 07:26:04	0	0	0	0	0	0	14.85	3.18	0.07	561669	1	35389	357594	561669	526280	17862	438	1168	141	332630	2240633	19609
107	2016-10-23 07:36:04	0	0	0	0	0	0	14.88	3.18	0.07	562437	1	35464	358504	562437	526973	17880	438	1170	141	333418	2240635	19629
108	2016-10-23 07:46:03	0	0	0	0	0	0	14.93	3.18	0.07	563321	1	35542	359880	563321	527779	17900	438	1170	142	334607	2240640	19650
109	2016-10-23 07:56:06	0	0	0	0	0	0	14.93	3.18	0.07	564265	1	35629	360298	564265	528636	17919	438	1172	142	334607	2240645	19671
110	2016-10-23 08:06:02	0	0	0	0	0	0	14.96	3.17	0.07	565320	1	35733	360970	565320	529587	17944	440	1173	142	335187	2240646	19699
111	2016-10-23 08:16:06	0	0	0	0	0	0	15.01	3.17	0.07	566505	1	35856	361645	566505	530649	17976	440	1175	143	336352	2240646	19734
112	2016-10-23 08:26:03	0	0	0	0	0	0	15.03	3.17	0.07	567927	1	35983	362068	567927	531944	18006	440	1177	143	336717	2240655	19766
113	2016-10-23 08:36:05	0	0	0	0	0	0	15.1	3.17	0.07	569411	1	36118	363428	569411	533293	18043	440	1180	144	338336	2240663	19807
114	2016-10-23 08:46:04	0	0	0	0	0	0	15.15	3.17	0.07	570984	1	36270	364580	570984	534714	18084	440	1180	144	339447	2240681	19848
115	2016-10-23 08:56:07	0	0	0	0	0	0	15.2	3.17	0.07	572648	1	36431	365959	572648	536217	18132	440	1181	144	340642	2240690	19897
116	2016-10-23 09:06:03	0	0	0	0	0	0	15.24	3.17	0.07	574388	1	36587	367000	574388	537801	18184	442	1184	145	341544	2240705	19955
117	2016-10-23 09:16:05	0	0	0	0	0	0	15.29	3.16	0.07	576131	1	36760	368135	576131	539371	18232	442	1184	145	342526	2240720	20003
118	2016-10-23 09:26:03	0	0	0	0	0	0	15.33	3.16	0.07	577933	1	36943	369276	577933	540990	18269	442	1185	145	343514	2240733	20041
119	2016-10-23 09:36:04	0	0	0	0	0	0	15.37	3.16	0.07	579686	1	37095	370259	579686	542591	18304	442	1188	145	344364	2240762	20079
120	2016-10-23 09:46:03	0	0	0	0	0	0	15.39	3.16	0.07	581514	1	37260	370702	581514	544254	18360	444	1190	145	344747	2240782	20139
121	2016-10-23 09:56:07	0	0	0	0	0	0	15.42	3.16	0.07	583438	1	37423	371681	583438	546015	18408	444	1191	145	345594	2240802	20188
122	2016-10-23 10:06:05	0	0	0	0	0	0	15.48	3.15	0.07	585213	1	37581	373069	585213	547632	18451	444	1193	146	346794	2240821	20234
123	2016-10-23 10:16:07	0	0	0	0	0	0	15.49	3.15	0.07	586953	1	37774	373384	586953	549179	18509	444	1195	146	347066	2240829	20294
124	2016-10-23 10:26:05	0	0	0	0	0	0	15.6	3.15	0.07	588648	1	37922	374050	588648	550726	18562	444	1195	146	349603	2240863	20347
125	2016-10-23 10:36:05	0	0	0	0	0	0	15.64	3.15	0.07	590510	1	38086	375035	590510	552424	18606	446	1198	146	350474	2240897	20396
126	2016-10-23 10:46:04	0	0	0	0	0	0	15.71	3.15	0.07	592451	1	38269	376895	592451	554182	18658	450	1200	146	352098	2240923	20454
127	2016-10-23 10:56:07	0	0	0	0	0	0	15.72	3.15	0.07	594147	1	38423	376987	594147	555724	18708	450	1200	146	352178	2240943	20504
128	2016-10-23 11:06:04	0	0	0	0	0	0	15.75	3.15	0.07	595881	1	38575	377988	595881	557306	18755	450	1202	147	353051	2240974	20554
129	2016-10-23 11:16:07	0	0	0	0	0	0	15.78	3.15	0.07	597544	1	38720	378728	597544	558824	18808	450	1202	147	353697	2241018	20607
130	2016-10-23 11:26:06	0	0	0	0	0	0	15.85	3.15	0.07	599132	1	38858	380403	599132	560274	18860	452	1203	147	355157	2241045	20662
131	2016-10-23 11:36:08	0	0	0	0	0	0	15.88	3.15	0.07	600623	1	38973	381340	600623	561650	18895	452	1204	147	355974	2241076	20698
132	2016-10-23 11:46:07	0	0	0	0	0	0	15.88	3.14	0.07	602298	1	39175	381340	602298	563123	18942	454	1206	147	355974	2241102	20749
133	2016-10-23 11:56:10	0	0	0	0	0	0	15.89	3.14	0.07	603978	1	39417	381572	603978	564561	18994	456	1207	147	356176	2241133	20804
134	2016-10-23 12:06:08	0	0	0	0	0	0	15.94	3.14	0.07	605588	1	39655	382893	605588	565933	19029	456	1208	147	357327	2241167	20840
135	2016-10-23 12:16:08	0	0	0	0	0	0	15.99	3.14	0.07	607103	1	39879	384045	607103	567224	19072	456	1208	147	358330	2241206	20883
136	2016-10-23 12:26:09	0	0	0	0	0	0	16.01	3.14	0.07	608593	1	40086	384713	608593	568507	19123	456	1210	147	358911	2241244	20936
137	2016-10-23 12:36:11	0	0	0	0	0	0	16.02	3.14	0.07	610095	1	40285	384758	610095	569810	19161	456	1210	147	358950	2241278	20974
138	2016-10-23 12:46:09	0	0	0	0	0	0	16.04	3.14	0.07	611464	1	40434	385093	611464	571030	19212	456	1212	147	359492	2241309	21027
139	2016-10-23 12:56:30	0	0	0	0	0	0	16.1	3.14	0.07	612901	1	40619	386342	612901	572282	19246	458	1212	147	360749	2241343	21063
140	2016-10-23 13:06:11	0	0	0	0	0	0	16.13	3.14	0.07	614443	1	40792	387066	614443	573651	19285	458	1213	147	361549	2241383	21103
141	2016-10-23 13:16:11	0	0	0	0	0	0	16.14	3.14	0.07	615850	1	40952	387442	615850	574898	19333	460	1213	147	361876	2241418	21153
142	2016-10-23 13:26:11	0	0	0	0	0	0	16.15	3.14	0.07	617298	1	41166	387563	617298	576132	19383	462	1214	147	361961	2241443	21206
143	2016-10-23 13:36:13	0	0	0	0	0	0	16.21	3.14	0.07	618787	1	41367	388438	618787	577420	19406	462	1215	147	363235	2241465	21230
144	2016-10-23 13:46:14	0	0	0	0	0	0	16.22	3.14	0.07	620132	1	41536	388584	620132	578596	19453	462	1215	147	363533	2241487	21277
145	2016-10-23 13:56:18	0	0	0	0	0	0	16.22	3.14	0.07	621503	1	41705	388755	621503	579798	19490	462	1217	147	363683	2241516	21316
146	2016-10-23 14:06:13	0	0	0	0	0	0	16.27	3.14	0.07	622765	1	41880	390003	622765	580885	19524	462	1220	147	364775	2241537	21353
147	2016-10-23 14:16:17	0	0	0	0	0	0	16.31	3.13	0.07	624003	1	42071	390890	624003	581932	19556	462	1220	147	365550	2241550	21385
148	2016-10-23 14:26:13	0	0	0	0	0	0	16.32	3.13	0.07	625238	1	42217	391297	625238	583021	19585	462	1220	147	365756	2241574	21414
149	2016-10-23 14:36:17	0	0	0	0	0	0	16.32	3.13	0.07	626418	1	42348	391495	626418	584070	19623	464	1221	147	365928	2241596	21455
150	2016-10-23 14:46:13	0	0	0	0	0	0	16.34	3.13	0.07	627576	1	42513	391892	627576	585063	19659	464	1221	147	366275	2241607	21491
151	2016-10-23 14:56:19	0	0	0	0	0	0	16.34	3.13	0.07	628646	1	42677	391892	628646	585969	19688	464	1223	147	366275	2241620	21522
152	2016-10-23 15:06:15	0	0	0	0	0	0	16.35	3.13	0.07	629687	1	42826	392084	629687	586861	19712	464	1225	147	366616	2241626	21548
153	2016-10-23 15:16:19	0	0	0	0	0	0	16.41	3.13	0.07	630586	1	42947	392681	630586	587639	19734	464	1225	147	367814	2241647	21570
154	2016-10-23 15:26:17	0	0	0	0	0	0	16.43	3.13	0.07	631457	1	43071	393980	631457	588386	19764	466	1230	147	368339	2241666	21607
155	2016-10-23 15:36:19	0	0	0	0	0	0	16.45	3.13	0.07	632404	1	43203	394758	632404	589201	19793	468	1231	147	368844	2241690	21639
156	2016-10-23 15:46:15	0	0	0	0	0	0	16.47	3.13	0.07	633245	1	43327	395761	633245	589918	19816	470	1231	147	369190	2241708	21664
157	2016-10-23 15:56:07	0	0	0	0	0	0	16.49	3.13	0.07	634080	1	43447	396356	634080	590633	19837	470	1232	147	369708	2241722	21686
158	2016-10-23 16:06:15	0	0	0	0	0	0	16.51	3.13	0.07	634926	1	43568	396852	634926	591358	19859	472	1234	147	370139	2241744	21712
159	2016-10-23 16:16:08	0	0	0	0	0	0	16.53	3.13	0.07	635794	1	43703	397259	635794	592091	19887	472	1235	147	370493	2241762	21741
160	2016-10-23 16:26:09	0	0	0	0	0	0	16.53	3.13	0.07	636830	1	43825	397259	636830	593005	19927	472	1237	147	370493	2241778	21783
161	2016-10-23 16:36:08	0	0	0	0	0	0	16.53	3.13	0.07	637940	1	43942	397259	637940	593998	19946	472	1237	147	370493	2241786	21802
162	2016-10-23 16:46:14	0	0	0	0	0	0	16.56	3.13	0.07	639044	1	44083	397795	639044	594961	19983	472	1237	147	371315	2241801	21839
163	2016-10-23 16:56:18	0	0	0	0	0	0	16.64	3.13	0.07	640063	1	44193	399746	640063	595870	20010	472	1237	147	373015	2241820	21866
164	2016-10-23 17:06:17	0	0	0	0	0	0	16.67	3.12	0.07	641090	1	44287	400548	641090	596803	20032	472	1238	147	373713	2241834	21889
165	2016-10-23 17:16:20	0	0	0	0	0	0	16.69	3.13	0.07	642040	1	44378	401015	642040	597662	20068	472	1239	147	374119	2241842	21926
166	2016-10-23 17:26:16	0	0	0	0	0	0	16.74	3.12	0.07	642992	1	44478	402474	642992	598514	20085	472	1239	147	375389	2241858	21943
167	2016-10-23 17:36:20	0	0	0	0	0	0	16.74	3.12	0.07	643880	1	44573	402474	643880	599307	20120	472	1239	147	375389	2241866	21978
168	2016-10-23 17:46:18	0	0	0	0	0	0	16.77	3.12	0.07	644757	1	44656	403090	644757	600101	20142	472	1241	147	375925	2241877	22002
169	2016-10-23 17:56:21	0	0	0	0	0	0	16.8	3.12	0.07	645632	1	44744	403826	645632	600888	20175	472	1241	147	376565	2241893	22035
170	2016-10-23 18:06:17	0	0	0	0	0	0	16.85	3.12	0.07	646531	1	44821	404684	646531	601710	20196	472	1242	147	377863	2241908	22057
171	2016-10-23 18:16:21	0	0	0	0	0	0	16.86	3.12	0.07	647383	1	44918	404895	647383	602465	20210	472	1243	147	378047	2241931	22072
172	2016-10-23 18:26:18	0	0	0	0	0	0	16.87	3.12	0.07	648284	1	45045	405877	648284	603239	20232	478	1244	147	378209	2241947	22101
173	2016-10-23 18:36:22	0	0	0	0	0	0	16.88	3.12	0.07	649105	1	45164	406090	649105	603941	20256	478	1244	147	378394	2241969	22125
174	2016-10-23 18:46:18	0	0	0	0	0	0	16.89	3.12	0.07	649893	1	45270	406303	649893	604623	20280	478	1245	147	378764	2241986	22150
175	2016-10-23 18:56:22	0	0	0	0	0	0	16.93	3.12	0.07	650639	1	45363	406931	650639	605276	20312	478	1245	148	379588	2242000	22183
176	2016-10-23 19:06:17	0	0	0	0	0	0	16.95	3.12	0.08	651465	1	45460	407305	651465	606005	20333	478	1245	148	379914	2242020	22204
177	2016-10-23 19:16:21	0	0	0	0	0	0	16.96	3.12	0.08	652319	1	45563	407815	652319	606756	20353	480	1245	148	380358	2242030	22226
178	2016-10-23 19:26:17	0	0	0	0	0	0	16.98	3.12	0.08	653168	1	45671	408138	653168	607497	20370	480	1246	148	380638	2242036	22244
179	2016-10-23 19:36:25	0	0	0	0	0	0	16.99	3.12	0.08	653988	1	45763	408555	653988	608225	20392	480	1246	148	380814	2242032	22266
180	2016-10-23 19:46:18	0	0	0	0	0	0	16.99	3.12	0.08	654757	1	45859	408555	654757	608898	20405	480	1247	148	380814	2242037	22280
181	2016-10-24 10:06:27	0	0	0	0	0	0	17.36	3.1	0.08	680180	1	48551	418796	680180	631629	21108	482	1256	152	389054	2241609	22998
182	2016-10-24 10:16:21	0	0	0	0	0	0	17.36	3.1	0.08	680255	1	48573	418796	680255	631682	21111	482	1256	152	389054	2241612	23001
183	2016-10-24 10:26:21	0	0	0	0	0	0	17.36	3.1	0.08	680308	1	48591	418796	680308	631717	21113	482	1257	152	389054	2241615	23004
184	2016-10-24 10:36:21	0	0	0	0	0	0	17.36	3.1	0.08	680379	1	48617	418796	680379	631762	21115	482	1257	152	389054	2241624	23006
185	2016-10-24 10:46:22	0	0	0	0	0	0	17.36	3.1	0.08	680431	1	48635	418796	680431	631796	21117	482	1257	152	389054	2241624	23008
186	2016-10-24 10:56:23	0	0	0	0	0	0	17.36	3.1	0.08	680482	1	48653	418796	680482	631829	21120	482	1257	152	389054	2241627	23011
187	2016-10-24 11:06:22	0	0	0	0	0	0	17.36	3.1	0.08	680532	1	48666	419020	680532	631866	21122	482	1257	152	389247	2241627	23013
188	2016-10-24 11:16:24	0	0	0	0	0	0	17.36	3.1	0.08	680591	1	48689	419020	680591	631902	21123	482	1257	152	389247	2241633	23014
189	2016-10-24 11:26:27	0	0	0	0	0	0	17.36	3.1	0.08	680635	1	48710	419020	680635	631925	21127	482	1257	152	389247	2241637	23018
190	2016-10-24 11:36:31	0	0	0	0	0	0	17.36	3.1	0.08	680689	1	48732	419020	680689	631957	21128	482	1257	152	389247	2241644	23019
191	2016-10-24 11:46:25	0	0	0	0	0	0	17.36	3.1	0.08	680723	1	48745	419020	680723	631978	21128	482	1257	152	389247	2241651	23019
192	2016-10-24 11:56:25	0	0	0	0	0	0	17.36	3.1	0.08	680753	1	48756	419020	680753	631997	21130	482	1257	152	389247	2241654	23021
193	2016-10-24 12:06:24	0	0	0	0	0	0	17.36	3.1	0.08	680780	1	48767	419020	680780	632013	21130	482	1257	152	389247	2241666	23021
194	2016-10-24 12:16:23	0	0	0	0	0	0	17.36	3.1	0.08	680815	1	48780	419020	680815	632035	21131	482	1257	152	389247	2241671	23022
195	2016-10-24 12:26:25	0	0	0	0	0	0	17.36	3.1	0.08	680835	1	48786	419020	680835	632049	21132	482	1257	152	389247	2241693	23023
196	2016-10-24 12:36:25	0	0	0	0	0	0	17.36	3.1	0.08	680864	1	48796	419020	680864	632068	21133	482	1257	152	389247	2241709	23024
197	2016-10-24 12:46:25	0	0	0	0	0	0	17.36	3.1	0.08	680904	1	48816	419020	680904	632088	21135	482	1257	152	389247	2241735	23026
198	2016-10-24 12:56:25	0	0	0	0	0	0	17.36	3.1	0.08	680929	1	48826	419020	680929	632103	21135	482	1257	152	389247	2241753	23026
199	2016-10-24 13:06:28	0	0	0	0	0	0	17.36	3.1	0.08	680957	1	48834	419020	680957	632123	21137	482	1257	152	389247	2241765	23028
200	2016-10-24 13:16:31	0	0	0	0	0	0	17.36	3.1	0.08	680994	1	48849	419020	680994	632145	21137	482	1257	152	389247	2241780	23028
201	2016-10-24 13:26:33	0	0	0	0	0	0	17.36	3.1	0.08	681023	1	48856	419020	681023	632167	21139	482	1257	152	389247	2241793	23030
202	2016-10-24 13:36:30	0	0	0	0	0	0	17.36	3.1	0.08	681057	1	48867	419020	681057	632190	21140	482	1257	152	389247	2241803	23031
203	2016-10-24 13:46:27	0	0	0	0	0	0	17.36	3.1	0.08	681085	1	48875	419020	681085	632210	21140	482	1257	152	389247	2241827	23031
204	2016-10-24 13:56:28	0	0	0	0	0	0	17.36	3.1	0.08	681114	1	48889	419020	681114	632225	21140	482	1257	152	389247	2241847	23031
205	2016-10-24 14:06:28	0	0	0	0	0	0	17.36	3.1	0.08	681138	1	48896	419020	681138	632242	21140	482	1257	152	389247	2241860	23031
206	2016-10-24 14:16:28	0	0	0	0	0	0	17.36	3.1	0.08	681177	1	48910	419020	681177	632267	21141	482	1257	152	389247	2241878	23032
207	2016-10-24 14:26:28	0	0	0	0	0	0	17.36	3.1	0.08	681201	1	48919	419020	681201	632282	21141	482	1257	152	389247	2241889	23032
208	2016-10-24 14:36:27	0	0	0	0	0	0	17.36	3.1	0.08	681223	1	48928	419020	681223	632295	21143	482	1257	152	389247	2241897	23034
209	2016-10-24 14:46:28	0	0	0	0	0	0	17.36	3.1	0.08	681237	1	48934	419020	681237	632303	21144	482	1257	152	389247	2241916	23035
210	2016-10-24 14:56:30	0	0	0	0	0	0	17.36	3.1	0.08	681266	1	48943	419020	681266	632323	21144	482	1257	152	389247	2241948	23035
211	2016-10-24 15:06:30	0	0	0	0	0	0	17.36	3.1	0.08	681293	1	48953	419020	681293	632340	21144	482	1257	152	389247	2241978	23035
212	2016-10-24 15:16:28	0	0	0	0	0	0	17.36	3.1	0.08	681319	1	48959	419020	681319	632360	21144	482	1257	152	389247	2242011	23035
213	2016-10-24 15:26:28	0	0	0	0	0	0	17.36	3.1	0.08	681347	1	48974	419020	681347	632373	21145	482	1257	152	389247	2242034	23036
214	2016-10-24 15:36:29	0	0	0	0	0	0	17.36	3.1	0.08	681366	1	48979	419020	681366	632387	21146	482	1257	152	389247	2242071	23037
215	2016-10-24 15:46:30	0	0	0	0	0	0	17.36	3.1	0.08	681388	1	48991	419020	681388	632397	21146	484	1257	152	389247	2242112	23039
216	2016-10-24 15:56:31	0	0	0	0	0	0	17.36	3.1	0.08	681426	1	49007	419020	681426	632419	21147	484	1257	152	389247	2242150	23040
217	2016-10-24 16:06:29	0	0	0	0	0	0	17.37	3.1	0.08	681456	1	49017	419247	681456	632439	21148	484	1257	152	389442	2242181	23041
218	2016-10-24 16:16:31	0	0	0	0	0	0	17.37	3.1	0.08	681475	1	49024	419247	681475	632451	21149	484	1257	152	389442	2242207	23042
219	2016-10-24 16:26:29	0	0	0	0	0	0	17.37	3.1	0.08	681494	1	49031	419247	681494	632463	21150	484	1257	152	389442	2242235	23043
220	2016-10-24 16:36:28	0	0	0	0	0	0	17.37	3.1	0.08	681518	1	49044	419247	681518	632474	21150	484	1257	152	389442	2242257	23043
221	2016-10-24 16:46:28	0	0	0	0	0	0	17.37	3.1	0.08	681543	1	49050	419247	681543	632493	21150	484	1257	152	389442	2242278	23043
222	2016-10-24 16:56:29	0	0	0	0	0	0	17.37	3.1	0.08	681569	1	49065	419247	681569	632504	21150	484	1257	152	389442	2242286	23043
223	2016-10-24 17:06:29	0	0	0	0	0	0	17.37	3.1	0.08	681594	1	49077	419247	681594	632517	21151	484	1257	152	389442	2242300	23044
224	2016-10-24 17:16:28	0	0	0	0	0	0	17.37	3.1	0.08	681615	1	49086	419247	681615	632529	21152	484	1257	152	389442	2242320	23045
225	2016-10-24 17:26:33	0	0	0	0	0	0	17.37	3.1	0.08	681639	1	49096	419247	681639	632543	21152	484	1257	152	389442	2242328	23045
226	2016-10-24 17:36:36	0	0	0	0	0	0	17.37	3.1	0.08	681665	1	49106	419247	681665	632559	21152	484	1257	152	389442	2242338	23045
227	2016-10-24 17:46:36	0	0	0	0	0	0	17.37	3.1	0.08	681682	1	49114	419247	681682	632568	21153	484	1257	152	389442	2242353	23046
228	2016-10-24 17:56:32	0	0	0	0	0	0	17.37	3.1	0.08	681704	1	49119	419247	681704	632585	21154	484	1257	152	389442	2242363	23047
229	2016-10-24 18:06:30	0	0	0	0	0	0	17.37	3.1	0.08	681741	1	49125	419247	681741	632616	21155	484	1257	152	389442	2242375	23048
230	2016-10-24 18:16:30	0	0	0	0	0	0	17.37	3.1	0.08	681801	1	49131	419247	681801	632670	21156	484	1257	152	389442	2242385	23049
231	2016-10-24 18:26:29	0	0	0	0	0	0	17.37	3.1	0.08	681848	1	49135	419247	681848	632713	21157	484	1257	152	389442	2242398	23050
232	2016-10-24 18:36:29	0	0	0	0	0	0	17.37	3.1	0.08	681892	1	49143	419247	681892	632749	21157	484	1257	152	389442	2242410	23050
233	2016-10-24 18:46:30	0	0	0	0	0	0	17.37	3.1	0.08	681925	1	49146	419247	681925	632779	21157	484	1257	152	389442	2242417	23050
234	2016-10-24 18:56:31	0	0	0	0	0	0	17.37	3.1	0.08	681969	1	49152	419247	681969	632817	21157	484	1257	152	389442	2242425	23050
235	2016-10-24 19:06:30	0	0	0	0	0	0	17.37	3.1	0.08	682007	1	49160	419247	682007	632847	21157	484	1257	152	389442	2242433	23050
236	2016-10-24 19:16:30	0	0	0	0	0	0	17.37	3.1	0.08	682041	1	49164	419247	682041	632877	21157	484	1257	152	389442	2242440	23050
237	2016-10-24 19:26:29	0	0	0	0	0	0	17.37	3.1	0.08	682088	1	49171	419247	682088	632917	21157	484	1257	152	389442	2242447	23050
238	2016-10-24 19:36:30	0	0	0	0	0	0	17.37	3.1	0.08	682117	1	49174	419247	682117	632943	21158	484	1257	152	389442	2242452	23051
239	2016-10-24 19:46:30	0	0	0	0	0	0	17.37	3.1	0.08	682154	1	49181	419247	682154	632973	21158	484	1257	152	389442	2242455	23051
240	2016-10-24 19:56:31	0	0	0	0	0	0	17.37	3.1	0.08	682181	1	49193	419247	682181	632988	21159	484	1257	152	389442	2242469	23052
241	2016-10-24 20:06:30	0	0	0	0	0	0	17.37	3.1	0.08	682220	1	49197	419247	682220	633023	21159	484	1257	152	389442	2242485	23052
242	2016-10-24 20:16:32	0	0	0	0	0	0	17.37	3.1	0.08	682256	1	49205	419247	682256	633051	21159	484	1257	152	389442	2242500	23052
243	2016-10-24 20:26:33	0	0	0	0	0	0	17.37	3.1	0.08	682301	1	49212	419247	682301	633089	21159	484	1257	152	389442	2242508	23052
244	2016-10-24 20:36:32	0	0	0	0	0	0	17.37	3.1	0.08	682341	1	49216	419247	682341	633125	21159	484	1257	152	389442	2242518	23052
245	2016-10-24 20:46:30	0	0	0	0	0	0	17.37	3.1	0.08	682365	1	49222	419247	682365	633143	21160	484	1257	152	389442	2242527	23053
246	2016-10-24 20:56:32	0	0	0	0	0	0	17.37	3.1	0.08	682378	1	49229	419247	682378	633169	21161	484	1257	152	389442	2242540	23054
247	2016-10-24 21:06:30	0	0	0	0	0	0	17.37	3.1	0.08	682418	1	49231	419247	682418	633198	21161	484	1257	152	389442	2242546	23054
248	2016-10-24 21:16:31	0	0	0	0	0	0	17.37	3.1	0.08	682446	1	49240	419247	682446	633211	21162	484	1257	152	389442	2242557	23055
249	2016-10-24 21:26:30	0	0	0	0	0	0	17.37	3.1	0.08	682484	1	49244	419247	682484	633243	21162	484	1257	152	389442	2242566	23055
250	2016-10-24 21:36:30	0	0	0	0	0	0	17.37	3.1	0.08	682516	1	49251	419247	682516	633270	21162	484	1257	152	389442	2242571	23055
251	2016-10-24 21:46:33	0	0	0	0	0	0	17.37	3.1	0.08	682547	1	49255	419247	682547	633292	21162	484	1257	152	389442	2242585	23055
252	2016-10-24 21:56:32	0	0	0	0	0	0	17.37	3.1	0.08	682591	1	49267	419247	682591	633330	21162	484	1257	152	389442	2242598	23055
253	2016-10-24 22:06:32	0	0	0	0	0	0	17.37	3.1	0.08	682623	1	49271	419247	682623	633354	21163	484	1257	152	389442	2242608	23056
254	2016-10-24 22:16:32	0	0	0	0	0	0	17.37	3.1	0.08	682652	1	49278	419247	682652	633378	21164	484	1257	152	389442	2242617	23057
255	2016-10-24 22:26:31	0	0	0	0	0	0	17.37	3.1	0.08	682686	1	49282	419247	682686	633406	21164	484	1257	152	389442	2242629	23057
256	2016-10-24 22:36:31	0	0	0	0	0	0	17.37	3.1	0.08	682718	1	49287	419247	682718	633431	21164	484	1257	152	389442	2242631	23057
257	2016-10-24 22:46:31	0	0	0	0	0	0	17.37	3.1	0.08	682747	1	49290	419247	682747	633457	21166	484	1257	152	389442	2242641	23059
258	2016-10-24 22:56:31	0	0	0	0	0	0	17.37	3.1	0.08	682763	1	49297	419247	682763	633468	21166	484	1257	152	389442	2242653	23059
259	2016-10-24 23:06:31	0	0	0	0	0	0	17.37	3.1	0.08	682789	1	49298	419247	682789	633491	21166	484	1257	152	389442	2242658	23059
260	2016-10-24 23:16:31	0	0	0	0	0	0	17.37	3.1	0.08	682807	1	49299	419247	682807	633508	21166	484	1257	152	389442	2242669	23059
261	2016-10-24 23:26:31	0	0	0	0	0	0	17.37	3.1	0.08	682831	1	49305	419247	682831	633526	21166	484	1257	152	389442	2242677	23059
262	2016-10-24 23:36:30	0	0	0	0	0	0	17.37	3.1	0.08	682859	1	49315	419247	682859	633547	21166	484	1257	152	389442	2242680	23059
263	2016-10-24 23:46:31	0	0	0	0	0	0	17.36	3.1	0.08	682888	1	49318	419247	682888	633570	21168	484	1257	152	389442	2242695	23061
264	2016-10-24 23:56:31	0	0	0	0	0	0	17.36	3.1	0.08	682911	1	49321	419247	682911	633590	21169	484	1257	152	389442	2242698	23062
265	2016-10-25 00:06:30	0	0	0	0	0	0	17.36	3.1	0.08	682948	1	49325	419247	682948	633623	21170	484	1257	152	389442	2242702	23063
266	2016-10-25 00:16:32	0	0	0	0	0	0	17.36	3.1	0.08	682962	1	49326	419247	682962	633636	21170	484	1257	152	389442	2242706	23063
267	2016-10-25 00:26:31	0	0	0	0	0	0	17.36	3.1	0.08	682979	1	49328	419247	682979	633651	21170	484	1257	152	389442	2242714	23063
268	2016-10-25 00:36:30	0	0	0	0	0	0	17.36	3.1	0.08	682995	1	49328	419247	682995	633667	21171	484	1257	152	389442	2242721	23064
269	2016-10-25 00:46:31	0	0	0	0	0	0	17.36	3.1	0.08	683002	1	49331	419247	683002	633671	21172	484	1257	152	389442	2242721	23065
270	2016-10-25 00:56:31	0	0	0	0	0	0	17.36	3.1	0.08	683017	1	49334	419247	683017	633683	21172	484	1257	152	389442	2242723	23065
271	2016-10-25 01:06:31	0	0	0	0	0	0	17.36	3.1	0.08	683026	1	49335	419247	683026	633691	21172	484	1257	152	389442	2242728	23065
272	2016-10-25 01:16:32	0	0	0	0	0	0	17.36	3.1	0.08	683032	1	49336	419247	683032	633696	21172	484	1257	152	389442	2242726	23065
273	2016-10-25 01:26:30	0	0	0	0	0	0	17.36	3.1	0.08	683041	1	49338	419247	683041	633703	21172	484	1257	152	389442	2242724	23065
274	2016-10-25 01:36:30	0	0	0	0	0	0	17.36	3.1	0.08	683043	1	49339	419247	683043	633704	21172	484	1257	152	389442	2242724	23065
275	2016-10-25 01:46:30	0	0	0	0	0	0	17.36	3.1	0.08	683049	1	49341	419247	683049	633708	21172	484	1257	152	389442	2242725	23065
276	2016-10-25 01:56:31	0	0	0	0	0	0	17.36	3.1	0.08	683051	1	49343	419247	683051	633708	21172	484	1257	152	389442	2242723	23065
277	2016-10-25 02:06:31	0	0	0	0	0	0	17.36	3.1	0.08	683054	1	49343	419247	683054	633711	21172	484	1257	152	389442	2243328	23065
278	2016-10-25 02:16:30	0	0	0	0	0	0	17.36	3.1	0.08	683057	1	49343	419247	683057	633714	21172	484	1257	152	389442	2243326	23065
279	2016-10-25 02:26:31	0	0	0	0	0	0	17.36	3.1	0.08	683058	1	49344	419247	683058	633714	21172	484	1257	152	389442	2243323	23065
280	2016-10-25 02:36:31	0	0	0	0	0	0	17.36	3.1	0.08	683061	1	49344	419247	683061	633717	21172	484	1257	152	389442	2243320	23065
281	2016-10-25 02:46:31	0	0	0	0	0	0	17.36	3.1	0.08	683064	1	49347	419247	683064	633717	21172	484	1257	152	389442	2243320	23065
282	2016-10-25 02:56:30	0	0	0	0	0	0	17.36	3.1	0.08	683065	1	49348	419247	683065	633717	21172	484	1257	152	389442	2243318	23065
283	2016-10-25 03:06:31	0	0	0	0	0	0	17.36	3.1	0.08	683065	1	49348	419247	683065	633717	21172	484	1257	152	389442	2243318	23065
284	2016-10-25 03:16:31	0	0	0	0	0	0	17.36	3.1	0.08	683066	1	49349	419247	683066	633717	21172	484	1257	152	389442	2243316	23065
285	2016-10-25 03:26:30	0	0	0	0	0	0	17.36	3.1	0.08	683066	1	49349	419247	683066	633717	21172	484	1257	152	389442	2243316	23065
286	2016-10-25 03:36:31	0	0	0	0	0	0	17.36	3.1	0.08	683069	1	49349	419247	683069	633720	21172	484	1257	152	389442	2243315	23065
287	2016-10-25 03:46:30	0	0	0	0	0	0	17.36	3.1	0.08	683070	1	49349	419247	683070	633721	21172	484	1257	152	389442	2243316	23065
288	2016-10-25 03:56:31	0	0	0	0	0	0	17.36	3.1	0.08	683072	1	49350	419247	683072	633722	21172	484	1257	152	389442	2243316	23065
289	2016-10-25 04:06:30	0	0	0	0	0	0	17.36	3.1	0.08	683076	1	49352	419247	683076	633724	21172	484	1257	152	389442	2243316	23065
290	2016-10-25 04:16:31	0	0	0	0	0	0	17.36	3.1	0.08	683076	1	49352	419247	683076	633724	21172	484	1257	152	389442	2243317	23065
291	2016-10-25 04:26:30	0	0	0	0	0	0	17.36	3.1	0.08	683077	1	49352	419247	683077	633725	21172	484	1257	152	389442	2243318	23065
292	2016-10-25 04:36:31	0	0	0	0	0	0	17.36	3.1	0.08	683078	1	49352	419247	683078	633726	21172	484	1257	152	389442	2243316	23065
293	2016-10-25 04:46:30	0	0	0	0	0	0	17.36	3.1	0.08	683079	1	49353	419247	683079	633726	21172	484	1257	152	389442	2243315	23065
294	2016-10-25 04:56:30	0	0	0	0	0	0	17.36	3.1	0.08	683079	1	49353	419247	683079	633726	21172	484	1257	152	389442	2243315	23065
295	2016-10-25 05:06:30	0	0	0	0	0	0	17.36	3.1	0.08	683079	1	49353	419247	683079	633726	21172	484	1257	152	389442	2243315	23065
296	2016-10-25 05:16:30	0	0	0	0	0	0	17.36	3.1	0.08	683080	1	49354	419247	683080	633726	21172	484	1257	152	389442	2243315	23065
297	2016-10-25 05:26:30	0	0	0	0	0	0	17.36	3.1	0.08	683082	1	49355	419247	683082	633727	21172	484	1257	152	389442	2243316	23065
298	2016-10-25 05:36:32	0	0	0	0	0	0	17.36	3.1	0.08	683083	1	49355	419247	683083	633728	21172	484	1257	152	389442	2243318	23065
299	2016-10-25 05:46:31	0	0	0	0	0	0	17.36	3.1	0.08	683084	1	49356	419247	683084	633728	21172	484	1257	152	389442	2243319	23065
300	2016-10-25 05:56:30	0	0	0	0	0	0	17.36	3.1	0.08	683088	1	49357	419247	683088	633731	21172	484	1257	152	389442	2243319	23065
301	2016-10-25 06:06:32	0	0	0	0	0	0	17.36	3.1	0.08	683089	1	49357	419247	683089	633732	21172	484	1257	152	389442	2243317	23065
302	2016-10-25 06:16:33	0	0	0	0	0	0	17.36	3.1	0.08	683091	1	49357	419247	683091	633734	21172	484	1257	152	389442	2243316	23065
303	2016-10-25 06:26:31	0	0	0	0	0	0	17.36	3.1	0.08	683094	1	49358	419247	683094	633736	21172	484	1257	152	389442	2243318	23065
304	2016-10-25 06:36:32	0	0	0	0	0	0	17.36	3.1	0.08	683097	1	49358	419247	683097	633739	21172	484	1257	152	389442	2243316	23065
305	2016-10-25 06:46:32	0	0	0	0	0	0	17.36	3.1	0.08	683100	1	49360	419247	683100	633740	21172	484	1257	152	389442	2243315	23065
306	2016-10-25 06:56:32	0	0	0	0	0	0	17.36	3.1	0.08	683105	1	49361	419247	683105	633744	21172	484	1257	152	389442	2243315	23065
307	2016-10-25 07:06:32	0	0	0	0	0	0	17.36	3.1	0.08	683106	1	49361	419247	683106	633745	21172	484	1257	152	389442	2243318	23065
308	2016-10-25 07:16:33	0	0	0	0	0	0	17.36	3.1	0.08	683109	1	49362	419247	683109	633747	21172	484	1257	152	389442	2243319	23065
309	2016-10-25 07:26:32	0	0	0	0	0	0	17.36	3.1	0.08	683113	1	49363	419247	683113	633750	21172	484	1257	152	389442	2243320	23065
310	2016-10-25 07:36:33	0	0	0	0	0	0	17.36	3.1	0.08	683117	1	49363	419247	683117	633754	21172	484	1257	152	389442	2243321	23065
311	2016-10-25 07:46:34	0	0	0	0	0	0	17.36	3.1	0.08	683121	1	49364	419247	683121	633757	21172	484	1257	152	389442	2243322	23065
312	2016-10-25 07:56:34	0	0	0	0	0	0	17.36	3.1	0.08	683124	1	49366	419247	683124	633758	21172	484	1257	152	389442	2243327	23065
313	2016-10-25 08:06:34	0	0	0	0	0	0	17.36	3.1	0.08	683125	1	49366	419247	683125	633759	21172	484	1257	152	389442	2243330	23065
314	2016-10-25 08:16:34	0	0	0	0	0	0	17.36	3.1	0.08	683127	1	49368	419247	683127	633759	21172	484	1257	152	389442	2243332	23065
315	2016-10-25 08:26:33	0	0	0	0	0	0	17.36	3.1	0.08	683130	1	49368	419247	683130	633762	21172	484	1257	152	389442	2243338	23065
316	2016-10-25 08:36:33	0	0	0	0	0	0	17.36	3.1	0.08	683134	1	49371	419247	683134	633763	21172	484	1257	152	389442	2243343	23065
317	2016-10-25 08:46:35	0	0	0	0	0	0	17.36	3.1	0.08	683144	1	49371	419247	683144	633773	21172	484	1257	152	389442	2243346	23065
