1	2015-09-10 14:04:25	0	0	0	0	0	0	0	0	0	0	0	0	0	0	0	0	0	0	0	0	1213659	0
2	2015-09-10 14:10:25	0	0	0	0	0	0	0.7	0.1	0	29673	0	85	8643	29673	28717	30	24	159	10	8539	1213663	223
3	2015-09-10 14:16:23	0	0	0	0	0	0	0.7	0.1	0	29673	0	85	8643	29673	28717	30	24	159	10	8539	1213658	223
4	2015-09-10 14:28:24	0	0	0	0	0	0	3.06	0.47	0.06	48336	0	2661	39115	48336	45675	226	197	958	62	37165	1213659	1443
5	2015-09-10 14:34:23	0	0	0	0	0	0	4.38	0.49	0.11	74966	0	7287	57862	74966	67679	366	317	1574	132	53101	1213667	2389
6	2015-09-10 14:40:23	0	0	0	0	0	0	4.38	0.49	0.11	74966	0	7287	57862	74966	67679	366	317	1574	132	53101	1213663	2389
7	2015-09-10 14:46:22	0	0	0	0	0	0	5.34	0.57	0.19	103008	0	16807	75708	103008	86201	588	442	2136	175	64776	1213668	3341
8	2015-09-10 14:52:22	0	0	0	0	0	0	5.34	0.57	0.19	103008	0	16807	75708	103008	86201	588	442	2136	175	64776	1213653	3341
9	2015-09-10 14:58:22	0	0	0	0	0	0	6.43	0.64	0.28	134356	0	29146	95821	134356	105210	854	576	2709	238	78004	1213667	4377
10	2015-09-10 15:04:24	0	0	0	0	0	0	6.43	0.64	0.28	134356	0	29146	95821	134356	105210	854	576	2709	238	78004	1213652	4377
11	2015-09-10 15:10:23	0	0	0	0	0	0	7	0.67	0.33	157884	0	39399	109647	157884	118485	1053	657	3178	318	84998	1213657	5206
12	2015-09-10 15:16:24	0	0	0	0	0	0	7	0.67	0.33	157884	0	39399	109647	157884	118485	1053	657	3178	318	84998	1213651	5206
13	2015-09-10 15:22:29	0	0	0	0	0	0	7.68	0.67	0.38	180890	0	50254	124946	180890	130636	1221	732	3642	405	93196	1213663	6000
14	2015-09-10 15:28:23	0	0	0	0	0	0	7.68	0.67	0.38	180890	0	50254	124946	180890	130636	1221	732	3642	405	93196	1213651	6000
15	2015-09-10 15:34:23	0	0	0	0	0	0	8.29	0.69	0.43	200133	0	59708	139538	200133	140425	1380	804	3984	447	100556	1213657	6615
16	2015-09-10 15:40:23	0	0	0	0	0	0	8.29	0.69	0.43	200133	0	59708	139538	200133	140425	1380	804	3984	447	100556	1213646	6615
17	2015-09-10 15:46:22	0	0	0	0	0	0	8.96	0.69	0.47	219407	0	69684	153614	219407	149723	1514	881	4344	498	108729	1213657	7237
18	2015-09-10 15:52:23	0	0	0	0	0	0	8.96	0.69	0.47	219407	0	69684	153614	219407	149723	1514	881	4344	498	108729	1213643	7237
19	2015-09-10 15:58:24	0	0	0	0	0	0	9.4	0.7	0.5	236973	0	79065	163010	236973	157908	1651	933	4634	531	114045	1213653	7749
20	2015-09-10 16:04:25	0	0	0	0	0	0	9.4	0.7	0.5	236973	0	79065	163010	236973	157908	1651	933	4634	531	114045	1213650	7749
21	2015-09-10 16:10:24	0	0	0	0	0	0	9.59	0.7	0.52	245706	0	83834	168441	245706	161872	1724	966	4782	555	116369	1213661	8027
22	2015-09-10 16:16:23	0	0	0	0	0	0	9.59	0.7	0.52	245706	0	83834	168441	245706	161872	1724	966	4782	555	116369	1213656	8027
23	2015-09-10 16:22:23	0	0	0	0	0	0	9.97	0.7	0.55	260674	0	92201	178272	260674	168473	1834	1012	5031	593	120959	1213668	8470
24	2015-09-10 16:28:23	0	0	0	0	0	0	9.97	0.7	0.55	260674	0	92201	178272	260674	168473	1834	1012	5031	593	120959	1213655	8470
25	2015-09-10 16:34:24	0	0	0	0	0	0	10.15	0.71	0.58	275884	0	101153	186417	275884	174731	1957	1068	5253	620	123159	1213660	8898
26	2015-09-10 16:40:25	0	0	0	0	0	0	10.15	0.71	0.58	275884	0	101153	186417	275884	174731	1957	1068	5253	620	123159	1213642	8898
27	2015-09-10 16:46:25	0	0	0	0	0	0	10.46	0.71	0.6	288397	0	108538	194012	288397	179859	2053	1106	5473	653	126998	1213653	9285
28	2015-09-10 16:52:24	0	0	0	0	0	0	10.46	0.71	0.6	288397	0	108538	194012	288397	179859	2053	1106	5473	653	126998	1213647	9285
29	2015-09-10 16:58:24	0	0	0	0	0	0	10.68	0.71	0.63	300254	0	115586	201518	300254	184668	2145	1145	5675	670	129599	1213660	9635
30	2015-09-10 17:04:25	0	0	0	0	0	0	10.68	0.71	0.63	300254	0	115586	201518	300254	184668	2145	1145	5675	670	129599	1213643	9635
31	2015-09-10 17:10:25	0	0	0	0	0	0	10.95	0.71	0.65	311090	0	122277	207708	311090	188813	2219	1173	5863	686	132941	1213647	9941
32	2015-09-10 17:16:24	0	0	0	0	0	0	10.95	0.71	0.65	311090	0	122277	207708	311090	188813	2219	1173	5863	686	132941	1213642	9941
33	2015-09-10 17:22:24	0	0	0	0	0	0	11.2	0.71	0.67	322459	0	129144	213380	322459	193315	2290	1208	6033	708	135917	1213649	10239
34	2015-09-10 17:28:26	0	0	0	0	0	0	11.2	0.71	0.67	322459	0	129144	213380	322459	193315	2290	1208	6033	708	135917	1213637	10239
35	2015-09-10 17:34:24	0	0	0	0	0	0	11.45	0.71	0.69	333418	0	135735	219701	333418	197683	2373	1237	6201	736	138945	1213640	10547
36	2015-09-10 17:40:25	0	0	0	0	0	0	11.45	0.71	0.69	333418	0	135735	219701	333418	197683	2373	1237	6201	736	138945	1213642	10547
37	2015-09-10 17:46:25	0	0	0	0	0	0	11.63	0.71	0.7	342767	0	141306	224402	342767	201461	2432	1267	6357	761	141129	1213648	10817
38	2015-09-10 17:52:25	0	0	0	0	0	0	11.63	0.71	0.7	342767	0	141306	224402	342767	201461	2432	1267	6357	761	141129	1213633	10817
39	2015-09-10 17:58:26	0	0	0	0	0	0	11.83	0.7	0.72	352613	0	147117	229364	352613	205496	2482	1289	6505	787	143622	1213636	11063
40	2015-09-10 18:04:43	0	0	0	0	0	0	11.83	0.7	0.72	352613	0	147117	229364	352613	205496	2482	1289	6505	787	143622	1213633	11063
41	2015-09-10 18:10:34	0	0	0	0	0	0	11.92	0.7	0.73	360852	0	152024	233491	360852	208828	2530	1304	6616	805	144655	1213640	11255
42	2015-09-10 18:16:28	0	0	0	0	0	0	11.92	0.7	0.73	360852	0	152024	233491	360852	208828	2530	1304	6616	805	144655	1213628	11255
43	2015-09-10 18:21:18	0	0	0	0	0	0	11.92	0.7	0.73	360852	0	152024	233491	360852	208828	2530	1304	6616	805	144655	1213631	11255
44	2015-09-10 18:27:22	0	0	0	0	0	0	12.29	0.71	0.74	369151	0	157051	239688	369151	212100	2609	1324	6742	819	149133	1213628	11494
45	2015-09-10 18:33:13	0	0	0	0	0	0	12.29	0.71	0.74	369151	0	157051	239688	369151	212100	2609	1324	6742	819	149133	1213636	11494
46	2015-09-10 18:39:14	0	0	0	0	0	0	12.48	0.7	0.76	382330	0	165032	246213	382330	217298	2658	1355	6933	836	151468	1213623	11782
47	2015-09-10 18:45:12	0	0	0	0	0	0	12.48	0.7	0.76	382330	0	165032	246213	382330	217298	2658	1355	6933	836	151468	1213629	11782
48	2015-09-10 18:51:12	0	0	0	0	0	0	12.6	0.7	0.77	389099	0	169104	250551	389099	219995	2709	1372	7036	853	152881	1213622	11970
49	2015-09-10 18:57:12	0	0	0	0	0	0	12.6	0.7	0.77	389099	0	169104	250551	389099	219995	2709	1372	7036	853	152881	1213625	11970
50	2015-09-10 19:03:15	0	0	0	0	0	0	12.8	0.69	0.78	396881	0	173876	255524	396881	223005	2758	1385	7148	867	155328	1213613	12158
51	2015-09-10 19:09:20	0	0	0	0	0	0	12.8	0.69	0.78	396881	0	173876	255524	396881	223005	2758	1385	7148	867	155328	1213620	12158
52	2015-09-10 19:15:26	0	0	0	0	0	0	13.01	0.7	0.79	404727	0	178789	261681	404727	225938	2816	1409	7269	883	157838	1213614	12377
53	2015-09-10 19:21:13	0	0	0	0	0	0	13.01	0.7	0.79	404727	0	178789	261681	404727	225938	2816	1409	7269	883	157838	1213626	12377
54	2015-09-10 19:27:13	0	0	0	0	0	0	13.17	0.69	0.8	411331	0	182916	264390	411331	228415	2848	1420	7388	896	159836	1213615	12552
55	2015-09-10 19:33:12	0	0	0	0	0	0	13.17	0.69	0.8	411331	0	182916	264390	411331	228415	2848	1420	7388	896	159836	1213622	12552
56	2015-09-10 19:39:13	0	0	0	0	0	0	13.32	0.69	0.81	418765	0	187650	268183	418765	231115	2902	1443	7506	913	161657	1213613	12764
57	2015-09-10 19:45:22	0	0	0	0	0	0	13.32	0.69	0.81	418765	0	187650	268183	418765	231115	2902	1443	7506	913	161657	1213619	12764
58	2015-09-10 19:51:12	0	0	0	0	0	0	13.45	0.69	0.82	426047	0	192244	271093	426047	233803	2952	1456	7615	934	163208	1213620	12957
59	2015-09-10 19:57:13	0	0	0	0	0	0	13.45	0.69	0.82	426047	0	192244	271093	426047	233803	2952	1456	7615	934	163208	1213630	12957
60	2015-09-10 20:03:13	0	0	0	0	0	0	13.59	0.69	0.83	432177	0	196071	275250	432177	236106	2979	1476	7712	948	164971	1213619	13115
61	2015-09-10 20:09:13	0	0	0	0	0	0	13.59	0.69	0.83	432177	0	196071	275250	432177	236106	2979	1476	7712	948	164971	1213628	13115
62	2015-09-10 20:15:23	0	0	0	0	0	0	13.72	0.69	0.84	439317	0	200568	279941	439317	238749	3023	1494	7826	968	166564	1213615	13311
63	2015-09-10 20:21:23	0	0	0	0	0	0	13.72	0.69	0.84	439317	0	200568	279941	439317	238749	3023	1494	7826	968	166564	1213629	13311
64	2015-09-10 20:27:25	0	0	0	0	0	0	13.9	0.69	0.85	446301	0	204995	283744	446301	241306	3058	1507	7931	988	168657	1213606	13484
65	2015-09-10 20:33:14	0	0	0	0	0	0	13.9	0.69	0.85	446301	0	204995	283744	446301	241306	3058	1507	7931	988	168657	1213612	13484
66	2015-09-10 20:39:23	0	0	0	0	0	0	14.02	0.68	0.86	452832	0	209054	287232	452832	243778	3094	1525	8038	1006	170187	1213616	13663
67	2015-09-10 20:45:18	0	0	0	0	0	0	14.02	0.68	0.86	452832	0	209054	287232	452832	243778	3094	1525	8038	1006	170187	1213622	13663
68	2015-09-10 20:51:18	0	0	0	0	0	0	14.17	0.68	0.87	459250	0	213082	290190	459250	246168	3138	1532	8148	1022	172019	1213609	13840
69	2015-09-10 20:57:15	0	0	0	0	0	0	14.17	0.68	0.87	459250	0	213082	290190	459250	246168	3138	1532	8148	1022	172019	1213620	13840
70	2015-09-10 21:03:21	0	0	0	0	0	0	14.39	0.68	0.87	465352	0	216890	293296	465352	248462	3181	1548	8239	1031	174639	1213609	13999
71	2015-09-10 21:09:23	0	0	0	0	0	0	14.39	0.68	0.87	465352	0	216890	293296	465352	248462	3181	1548	8239	1031	174639	1213620	13999
72	2015-09-10 21:15:14	0	0	0	0	0	0	14.47	0.68	0.88	471794	0	220874	297259	471794	250920	3224	1567	8335	1052	175657	1213618	14178
73	2015-09-10 21:21:13	0	0	0	0	0	0	14.47	0.68	0.88	471794	0	220874	297259	471794	250920	3224	1567	8335	1052	175657	1213629	14178
74	2015-09-10 21:27:15	0	0	0	0	0	0	14.63	0.68	0.89	477595	0	224618	300023	477595	252977	3261	1579	8432	1076	177529	1213611	14348
75	2015-09-10 21:33:14	0	0	0	0	0	0	14.63	0.68	0.89	477595	0	224618	300023	477595	252977	3261	1579	8432	1076	177529	1213619	14348
76	2015-09-10 21:39:15	0	0	0	0	0	0	14.74	0.68	0.9	484033	0	228640	303925	484033	255393	3295	1588	8534	1094	178914	1213610	14511
77	2015-09-10 21:45:19	0	0	0	0	0	0	14.74	0.68	0.9	484033	0	228640	303925	484033	255393	3295	1588	8534	1094	178914	1213615	14511
78	2015-09-10 21:51:14	0	0	0	0	0	0	14.83	0.68	0.9	490002	0	232459	306164	490002	257543	3331	1597	8638	1111	179975	1213618	14677
79	2015-09-10 21:57:14	0	0	0	0	0	0	14.83	0.68	0.9	490002	0	232459	306164	490002	257543	3331	1597	8638	1111	179975	1213623	14677
80	2015-09-10 22:03:15	0	0	0	0	0	0	14.99	0.68	0.91	496415	0	236556	309585	496415	259859	3365	1616	8753	1125	181878	1213610	14859
81	2015-09-10 22:10:24	0	0	0	0	0	0	14.99	0.68	0.91	496415	0	236556	309585	496415	259859	3365	1616	8753	1125	181878	1213630	14859
82	2015-09-10 22:15:16	0	0	0	0	0	0	14.99	0.68	0.91	496415	0	236556	309585	496415	259859	3365	1616	8753	1125	181878	1213620	14859
83	2015-09-10 22:21:18	0	0	0	0	0	0	15.26	0.68	0.92	508403	0	244212	317343	508403	264191	3441	1643	8968	1149	185196	1213627	15201
84	2015-09-10 22:27:15	0	0	0	0	0	0	15.26	0.68	0.92	508403	0	244212	317343	508403	264191	3441	1643	8968	1149	185196	1213618	15201
85	2015-09-10 22:33:18	0	0	0	0	0	0	15.42	0.68	0.93	514062	0	247712	323223	514062	266350	3471	1654	9056	1159	187081	1213622	15340
86	2015-09-10 22:39:14	0	0	0	0	0	0	15.41	0.68	0.93	514062	0	247712	323223	514062	266350	3471	1654	9056	1159	187081	1213635	15340
87	2015-09-10 22:45:14	0	0	0	0	0	0	15.57	0.67	0.94	519988	0	251318	325964	519988	268670	3507	1657	9161	1181	188963	1213643	15506
88	2015-09-10 22:51:14	0	0	0	0	0	0	15.57	0.67	0.94	519988	0	251318	325964	519988	268670	3507	1657	9161	1181	188963	1213633	15506
89	2015-09-10 22:57:17	0	0	0	0	0	0	15.72	0.67	0.94	526864	0	255475	330161	526864	271389	3543	1669	9250	1190	190826	1213650	15652
90	2015-09-10 23:03:15	0	0	0	0	0	0	15.72	0.67	0.94	526864	0	255475	330161	526864	271389	3543	1669	9250	1190	190826	1213630	15652
91	2015-09-10 23:09:15	0	0	0	0	0	0	15.85	0.67	0.95	532297	0	258738	333697	532297	273559	3571	1681	9347	1195	192350	1213637	15794
92	2015-09-10 23:15:24	0	0	0	0	0	0	15.85	0.67	0.95	532297	0	258738	333697	532297	273559	3571	1681	9347	1195	192350	1213633	15794
93	2015-09-10 23:21:13	0	0	0	0	0	0	15.95	0.67	0.95	537322	0	261704	335924	537322	275618	3592	1695	9433	1211	193522	1213648	15931
94	2015-09-11 09:51:23	0	0	0	0	0	0	17.68	0.67	1.01	621711	0	312938	383674	621711	308773	4137	1869	10798	1375	214763	1214912	18179
95	2015-09-11 09:52:24	0	0	0	0	0	0	17.68	0.67	1.01	621711	0	312938	383674	621711	308773	4137	1869	10798	1375	214763	1214915	18179
96	2015-09-11 09:58:19	0	0	0	0	0	0	17.68	0.67	1.01	621711	0	312938	383674	621711	308773	4137	1869	10798	1375	214763	1214917	18179
97	2015-09-11 10:04:25	0	0	0	0	0	0	17.69	0.67	1.02	623597	0	314161	384956	623597	309436	4151	1871	10832	1378	214942	1214911	18232
98	2015-09-11 10:10:22	0	0	0	0	0	0	17.69	0.67	1.02	623597	0	314161	384956	623597	309436	4151	1871	10832	1378	214942	1214919	18232
99	2015-09-11 10:16:23	0	0	0	0	0	0	17.74	0.67	1.02	625582	0	315552	386777	625582	310030	4163	1875	10864	1382	215533	1214912	18284
100	2015-09-11 10:22:22	0	0	0	0	0	0	17.74	0.67	1.02	625582	0	315552	386777	625582	310030	4163	1875	10864	1382	215533	1214914	18284
101	2015-09-11 10:28:31	0	0	0	0	0	0	17.79	0.67	1.02	627678	0	316952	387746	627678	310726	4176	1879	10899	1385	216135	1214912	18339
102	2015-09-11 10:34:21	0	0	0	0	0	0	17.79	0.67	1.02	627678	0	316952	387746	627678	310726	4176	1879	10899	1385	216135	1214916	18339
103	2015-09-11 10:40:19	0	0	0	0	0	0	17.85	0.67	1.02	629681	0	318244	388719	629681	311437	4191	1883	10921	1386	216922	1214910	18381
104	2015-09-11 10:46:22	0	0	0	0	0	0	17.85	0.67	1.02	629681	0	318244	388719	629681	311437	4191	1883	10921	1386	216922	1214911	18381
105	2015-09-11 10:52:21	0	0	0	0	0	0	17.91	0.67	1.02	631910	0	319716	390299	631910	312194	4208	1886	10961	1391	217551	1214906	18446
106	2015-09-11 10:58:20	0	0	0	0	0	0	17.91	0.67	1.02	631910	0	319716	390299	631910	312194	4208	1886	10961	1391	217551	1214911	18446
107	2015-09-11 11:04:18	0	0	0	0	0	0	17.95	0.67	1.03	633767	0	320915	390829	633767	312852	4220	1890	10980	1393	218068	1214902	18483
108	2015-09-11 11:10:18	0	0	0	0	0	0	17.95	0.67	1.03	633767	0	320915	390829	633767	312852	4220	1890	10980	1393	218068	1214910	18483
109	2015-09-11 11:16:20	0	0	0	0	0	0	17.99	0.67	1.03	635500	0	322097	391967	635500	313403	4231	1898	11011	1395	218607	1214908	18535
110	2015-09-11 11:22:18	0	0	0	0	0	0	17.99	0.67	1.03	635500	0	322097	391967	635500	313403	4231	1898	11011	1395	218607	1214912	18535
111	2015-09-11 11:28:25	0	0	0	0	0	0	18.08	0.67	1.03	637155	0	323210	392414	637155	313945	4241	1899	11037	1397	219615	1214903	18574
112	2015-09-11 11:34:28	0	0	0	0	0	0	18.08	0.67	1.03	637155	0	323210	392414	637155	313945	4241	1899	11037	1397	219615	1214912	18574
113	2015-09-11 11:40:24	0	0	0	0	0	0	18.12	0.67	1.03	639130	0	324537	393924	639130	314593	4256	1906	11065	1405	220165	1214906	18632
114	2015-09-11 11:46:25	0	0	0	0	0	0	18.12	0.67	1.03	639130	0	324537	393924	639130	314593	4256	1906	11065	1405	220165	1214913	18632
115	2015-09-11 11:52:24	0	0	0	0	0	0	18.16	0.67	1.03	640884	0	325726	394576	640884	315158	4269	1913	11091	1406	220605	1214907	18679
116	2015-09-11 11:58:22	0	0	0	0	0	0	18.16	0.67	1.03	640884	0	325726	394576	640884	315158	4269	1913	11091	1406	220605	1214910	18679
117	2015-09-11 12:04:20	0	0	0	0	0	0	18.18	0.67	1.04	642611	0	326873	394967	642611	315738	4277	1920	11118	1415	220919	1214904	18730
118	2015-09-11 12:10:21	0	0	0	0	0	0	18.18	0.67	1.04	642611	0	326873	394967	642611	315738	4277	1920	11118	1415	220919	1214906	18730
119	2015-09-11 12:16:22	0	0	0	0	0	0	18.21	0.67	1.04	644517	0	328141	395319	644517	316376	4295	1924	11146	1421	221235	1214910	18786
120	2015-09-11 12:22:20	0	0	0	0	0	0	18.21	0.67	1.04	644517	0	328141	395319	644517	316376	4295	1924	11146	1421	221235	1214911	18786
121	2015-09-11 12:28:23	0	0	0	0	0	0	18.23	0.67	1.04	646367	0	329368	395622	646367	316999	4303	1930	11188	1431	221520	1214907	18852
122	2015-09-11 12:34:21	0	0	0	0	0	0	18.23	0.67	1.04	646367	0	329368	395622	646367	316999	4303	1930	11188	1431	221520	1214912	18852
123	2015-09-11 12:40:21	0	0	0	0	0	0	18.24	0.67	1.04	648065	0	330580	395774	648065	317485	4317	1937	11221	1434	221568	1214906	18909
124	2015-09-11 12:46:21	0	0	0	0	0	0	18.24	0.67	1.04	648065	0	330580	395774	648065	317485	4317	1937	11221	1434	221568	1214910	18909
125	2015-09-11 12:52:24	0	0	0	0	0	0	18.26	0.67	1.04	649748	0	331739	396986	649748	318009	4327	1939	11259	1447	221821	1214910	18972
126	2015-09-11 12:58:24	0	0	0	0	0	0	18.26	0.67	1.04	649748	0	331739	396986	649748	318009	4327	1939	11259	1447	221821	1214914	18972
127	2015-09-11 13:04:21	0	0	0	0	0	0	18.36	0.67	1.04	651228	0	332749	398211	651228	318479	4338	1942	11267	1448	223068	1214906	18995
128	2015-09-11 13:10:21	0	0	0	0	0	0	18.36	0.67	1.04	651228	0	332749	398211	651228	318479	4338	1942	11267	1448	223068	1214912	18995
129	2015-09-11 13:16:25	0	0	0	0	0	0	18.39	0.67	1.05	652031	0	333292	399341	652031	318739	4341	1945	11286	1451	223454	1214912	19023
130	2015-09-11 13:22:21	0	0	0	0	0	0	18.39	0.67	1.05	652031	0	333292	399341	652031	318739	4341	1945	11286	1451	223454	1214912	19023
131	2015-09-11 13:28:22	0	0	0	0	0	0	18.46	0.67	1.05	654330	0	334863	400957	654330	319467	4357	1950	11323	1460	224288	1214903	19090
132	2015-09-11 13:34:22	0	0	0	0	0	0	18.46	0.67	1.05	654330	0	334863	400957	654330	319467	4357	1950	11323	1460	224288	1214902	19090
133	2015-09-11 13:40:23	0	0	0	0	0	0	18.46	0.67	1.05	655978	0	335974	400957	655978	320004	4371	1953	11343	1461	224288	1214902	19128
134	2015-09-11 13:46:22	0	0	0	0	0	0	18.46	0.67	1.05	655978	0	335974	400957	655978	320004	4371	1953	11343	1461	224288	1214907	19128
135	2015-09-11 13:52:22	0	0	0	0	0	0	18.47	0.67	1.05	657351	0	336923	401998	657351	320428	4382	1958	11360	1463	224418	1214905	19163
136	2015-09-11 13:58:22	0	0	0	0	0	0	18.47	0.67	1.05	657351	0	336923	401998	657351	320428	4382	1958	11360	1463	224418	1214906	19163
137	2015-09-11 14:04:22	0	0	0	0	0	0	18.48	0.67	1.05	658949	0	337998	403622	658949	320951	4393	1960	11392	1469	224483	1214907	19214
138	2015-09-11 14:10:23	0	0	0	0	0	0	18.48	0.67	1.05	658949	0	337998	403622	658949	320951	4393	1960	11392	1469	224483	1214907	19214
139	2015-09-11 14:16:25	0	0	0	0	0	0	18.49	0.67	1.05	660402	0	339005	404136	660402	321397	4407	1963	11414	1471	224679	1214905	19255
140	2015-09-11 14:22:25	0	0	0	0	0	0	18.49	0.67	1.05	660402	0	339005	404136	660402	321397	4407	1963	11414	1471	224679	1214910	19255
141	2015-09-11 14:28:24	0	0	0	0	0	0	18.53	0.67	1.06	661770	0	339972	404242	661770	321798	4416	1967	11434	1474	225169	1214908	19291
142	2015-09-11 14:34:29	0	0	0	0	0	0	18.53	0.67	1.06	661770	0	339972	404242	661770	321798	4416	1967	11434	1474	225169	1214909	19291
143	2015-09-11 14:40:26	0	0	0	0	0	0	18.54	0.67	1.06	663243	0	341037	404347	663243	322206	4424	1970	11455	1475	225300	1214909	19324
144	2015-09-11 14:46:22	0	0	0	0	0	0	18.54	0.67	1.06	663243	0	341037	404347	663243	322206	4424	1970	11455	1475	225300	1214921	19324
145	2015-09-11 14:52:28	0	0	0	0	0	0	18.55	0.67	1.06	664629	0	342035	405804	664629	322594	4434	1974	11476	1477	225365	1214906	19361
146	2015-09-11 14:58:26	0	0	0	0	0	0	18.55	0.67	1.06	664629	0	342035	405804	664629	322594	4434	1974	11476	1477	225365	1214910	19361
147	2015-09-11 15:04:24	0	0	0	0	0	0	18.57	0.67	1.06	665378	0	342593	405911	665378	322785	4438	1976	11486	1479	225595	1214912	19379
148	2015-09-11 15:10:22	0	0	0	0	0	0	18.57	0.67	1.06	665378	0	342593	405911	665378	322785	4438	1976	11486	1479	225595	1214916	19379
149	2015-09-11 15:16:23	0	0	0	0	0	0	18.64	0.67	1.06	666849	0	343673	408278	666849	323176	4455	1977	11523	1482	226486	1214910	19437
150	2015-09-11 15:22:23	0	0	0	0	0	0	18.64	0.67	1.06	666849	0	343673	408278	666849	323176	4455	1977	11523	1482	226486	1214908	19437
151	2015-09-11 15:28:22	0	0	0	0	0	0	18.65	0.67	1.07	668145	0	344628	408763	668145	323517	4462	1981	11542	1484	226586	1214912	19469
152	2015-09-11 15:34:22	0	0	0	0	0	0	18.65	0.67	1.07	668145	0	344628	408763	668145	323517	4462	1981	11542	1484	226586	1214916	19469
153	2015-09-11 15:40:24	0	0	0	0	0	0	18.65	0.67	1.07	669437	0	345619	408763	669437	323818	4466	1983	11564	1485	226586	1214911	19498
154	2015-09-11 15:46:23	0	0	0	0	0	0	18.65	0.67	1.07	669437	0	345619	408763	669437	323818	4466	1983	11564	1485	226586	1214913	19498
155	2015-09-11 15:52:24	0	0	0	0	0	0	18.65	0.67	1.07	670688	0	346579	408925	670688	324109	4476	1986	11577	1491	226586	1214911	19530
156	2015-09-11 15:58:23	0	0	0	0	0	0	18.65	0.67	1.07	670688	0	346579	408925	670688	324109	4476	1986	11577	1491	226586	1214912	19530
157	2015-09-11 16:04:24	0	0	0	0	0	0	18.66	0.67	1.07	671979	0	347554	409080	671979	324425	4482	1989	11597	1495	226718	1214907	19563
158	2015-09-11 16:10:24	0	0	0	0	0	0	18.66	0.67	1.07	671979	0	347554	409080	671979	324425	4482	1989	11597	1495	226718	1214910	19563
159	2015-09-11 16:16:35	0	0	0	0	0	0	18.66	0.67	1.07	673088	0	348403	409296	673088	324685	4486	1991	11613	1497	226718	1214908	19587
160	2015-09-11 16:22:24	0	0	0	0	0	0	18.66	0.67	1.07	673088	0	348403	409296	673088	324685	4486	1991	11613	1497	226718	1214912	19587
161	2015-09-11 16:28:24	0	0	0	0	0	0	18.67	0.67	1.07	674121	0	349193	410422	674121	324928	4492	1992	11625	1498	226818	1214910	19607
162	2015-09-11 16:34:25	0	0	0	0	0	0	18.67	0.67	1.07	674121	0	349193	410422	674121	324928	4492	1992	11625	1498	226818	1214914	19607
163	2015-09-11 16:40:36	0	0	0	0	0	0	18.69	0.67	1.08	675356	0	350164	411076	675356	325192	4500	1999	11645	1499	227084	1214910	19643
164	2015-09-11 16:46:25	0	0	0	0	0	0	18.69	0.67	1.08	675356	0	350164	411076	675356	325192	4500	1999	11645	1499	227084	1214913	19643
165	2015-09-11 16:52:30	0	0	0	0	0	0	18.71	0.67	1.08	676584	0	351115	412061	676584	325469	4513	2001	11658	1504	227351	1214913	19676
166	2015-09-11 16:58:25	0	0	0	0	0	0	18.71	0.67	1.08	676584	0	351115	412061	676584	325469	4513	2001	11658	1504	227351	1214919	19676
167	2015-09-11 17:04:25	0	0	0	0	0	0	18.74	0.67	1.08	677714	0	351990	412390	677714	325724	4520	2002	11664	1505	227618	1214911	19691
168	2015-09-11 17:10:26	0	0	0	0	0	0	18.74	0.67	1.08	677714	0	351990	412390	677714	325724	4520	2002	11664	1505	227618	1214916	19691
169	2015-09-11 17:16:26	0	0	0	0	0	0	18.79	0.67	1.08	678760	0	352769	414134	678760	325991	4529	2002	11678	1508	228323	1214911	19717
170	2015-09-11 17:22:26	0	0	0	0	0	0	18.79	0.67	1.08	678760	0	352769	414134	678760	325991	4529	2002	11678	1508	228323	1214915	19717
171	2015-09-11 17:28:26	0	0	0	0	0	0	18.82	0.67	1.08	679775	0	353539	414439	679775	326236	4532	2003	11695	1511	228593	1214910	19741
172	2015-09-11 17:34:26	0	0	0	0	0	0	18.82	0.67	1.08	679775	0	353539	414439	679775	326236	4532	2003	11695	1511	228593	1214918	19741
173	2015-09-11 17:40:30	0	0	0	0	0	0	18.82	0.67	1.09	680897	0	354384	414772	680897	326513	4543	2012	11717	1511	228593	1214913	19783
174	2015-09-11 17:46:25	0	0	0	0	0	0	18.82	0.67	1.09	680897	0	354384	414772	680897	326513	4543	2012	11717	1511	228593	1214916	19783
175	2015-09-11 17:52:25	0	0	0	0	0	0	18.88	0.67	1.09	682050	0	355267	416026	682050	326783	4548	2015	11740	1518	229364	1214908	19821
176	2015-09-11 17:58:32	0	0	0	0	0	0	18.88	0.67	1.09	682050	0	355267	416026	682050	326783	4548	2015	11740	1518	229364	1214911	19821
177	2015-09-11 18:04:37	0	0	0	0	0	0	18.88	0.67	1.09	683052	0	356067	416110	683052	326985	4553	2018	11754	1521	229364	1214907	19846
178	2015-09-11 18:10:37	0	0	0	0	0	0	18.88	0.67	1.09	683052	0	356067	416110	683052	326985	4553	2018	11754	1521	229364	1214906	19846
179	2015-09-11 18:16:48	0	0	0	0	0	0	18.88	0.67	1.09	683957	0	356744	416110	683957	327213	4560	2018	11769	1523	229364	1214905	19870
180	2015-09-11 18:22:33	0	0	0	0	0	0	18.88	0.67	1.09	683957	0	356744	416110	683957	327213	4560	2018	11769	1523	229364	1214909	19870
181	2015-09-11 18:28:28	0	0	0	0	0	0	18.88	0.67	1.09	685047	0	357545	416320	685047	327502	4566	2024	11792	1526	229364	1214909	19908
182	2015-09-11 18:34:33	0	0	0	0	0	0	18.88	0.67	1.09	685047	0	357545	416320	685047	327502	4566	2024	11792	1526	229364	1214914	19908
183	2015-09-11 18:40:31	0	0	0	0	0	0	18.91	0.67	1.09	686082	0	358338	417893	686082	327744	4569	2024	11801	1531	229704	1214909	19925
184	2015-09-11 18:46:27	0	0	0	0	0	0	18.91	0.67	1.09	686082	0	358338	417893	686082	327744	4569	2024	11801	1531	229704	1214911	19925
185	2015-09-11 18:52:27	0	0	0	0	0	0	18.91	0.67	1.09	687004	0	359033	418345	687004	327971	4575	2027	11816	1534	229704	1214910	19952
186	2015-09-11 18:58:28	0	0	0	0	0	0	18.91	0.67	1.09	687004	0	359033	418345	687004	327971	4575	2027	11816	1534	229704	1214916	19952
187	2015-09-11 19:04:30	0	0	0	0	0	0	18.92	0.67	1.1	688099	0	359870	419335	688099	328229	4576	2027	11828	1537	229908	1214915	19968
188	2015-09-11 19:10:30	0	0	0	0	0	0	18.92	0.67	1.1	688099	0	359870	419335	688099	328229	4576	2027	11828	1537	229908	1214916	19968
189	2015-09-11 19:16:30	0	0	0	0	0	0	18.93	0.66	1.1	689012	0	360577	419847	689012	328435	4581	2028	11838	1537	230011	1214911	19984
190	2015-09-11 19:22:29	0	0	0	0	0	0	18.93	0.66	1.1	689012	0	360577	419847	689012	328435	4581	2028	11838	1537	230011	1214915	19984
191	2015-09-11 19:28:29	0	0	0	0	0	0	18.95	0.67	1.1	690059	0	361337	420760	690059	328722	4589	2030	11854	1542	230285	1214914	20015
192	2015-09-11 19:34:31	0	0	0	0	0	0	18.95	0.67	1.1	690059	0	361337	420760	690059	328722	4589	2030	11854	1542	230285	1214916	20015
193	2015-09-11 19:40:31	0	0	0	0	0	0	18.99	0.67	1.1	691239	0	362241	422022	691239	328998	4597	2033	11867	1546	230696	1214917	20043
194	2015-09-11 19:46:33	0	0	0	0	0	0	18.99	0.67	1.1	691239	0	362241	422022	691239	328998	4597	2033	11867	1546	230696	1214921	20043
195	2015-09-11 19:52:30	0	0	0	0	0	0	19.05	0.67	1.1	692449	0	363161	422670	692449	329288	4608	2037	11884	1553	231446	1214921	20082
196	2015-09-11 19:58:34	0	0	0	0	0	0	19.05	0.67	1.1	692449	0	363161	422670	692449	329288	4608	2037	11884	1553	231446	1214925	20082
197	2015-09-11 20:04:36	0	0	0	0	0	0	19.08	0.67	1.1	693472	0	363922	423190	693472	329550	4615	2037	11896	1558	231862	1214921	20106
198	2015-09-11 20:10:33	0	0	0	0	0	0	19.08	0.67	1.1	693472	0	363922	423190	693472	329550	4615	2037	11896	1558	231862	1214919	20106
199	2015-09-11 20:16:35	0	0	0	0	0	0	19.11	0.67	1.11	694574	0	364775	423190	694574	329799	4620	2040	11909	1559	232140	1214920	20128
200	2015-09-11 20:22:34	0	0	0	0	0	0	19.11	0.67	1.11	694574	0	364775	423190	694574	329799	4620	2040	11909	1559	232140	1214922	20128
201	2015-09-11 20:28:32	0	0	0	0	0	0	19.13	0.66	1.11	695547	0	365514	425034	695547	330033	4625	2041	11922	1562	232419	1214920	20150
202	2015-09-11 20:34:31	0	0	0	0	0	0	19.13	0.66	1.11	695547	0	365514	425034	695547	330033	4625	2041	11922	1562	232419	1214927	20150
203	2015-09-11 20:40:34	0	0	0	0	0	0	19.14	0.66	1.11	696560	0	366292	425501	696560	330268	4629	2043	11938	1564	232559	1214923	20174
204	2015-09-11 20:46:32	0	0	0	0	0	0	19.14	0.66	1.11	696560	0	366292	425501	696560	330268	4629	2043	11938	1564	232559	1214931	20174
205	2015-09-11 20:52:33	0	0	0	0	0	0	19.17	0.66	1.11	697534	0	367069	426079	697534	330465	4637	2046	11956	1565	232909	1214924	20204
206	2015-09-11 20:58:36	0	0	0	0	0	0	19.17	0.66	1.11	697534	0	367069	426079	697534	330465	4637	2046	11956	1565	232909	1214928	20204
207	2015-09-11 21:04:27	0	0	0	0	0	0	19.19	0.67	1.11	698531	0	367850	426667	698531	330681	4647	2050	11971	1565	233189	1214926	20233
208	2015-09-11 21:10:32	0	0	0	0	0	0	19.19	0.67	1.11	698531	0	367850	426667	698531	330681	4647	2050	11971	1565	233189	1214931	20233
209	2015-09-11 21:16:28	0	0	0	0	0	0	19.19	0.67	1.11	699585	0	368688	427373	699585	330897	4656	2054	11988	1569	233189	1214920	20267
210	2015-09-11 21:22:27	0	0	0	0	0	0	19.19	0.67	1.11	699585	0	368688	427373	699585	330897	4656	2054	11988	1569	233189	1214928	20267
211	2015-09-11 21:28:28	0	0	0	0	0	0	19.19	0.67	1.12	700792	0	369620	427609	700792	331172	4666	2057	12004	1571	233189	1214911	20298
212	2015-09-11 21:34:27	0	0	0	0	0	0	19.19	0.67	1.12	700792	0	369620	427609	700792	331172	4666	2057	12004	1571	233189	1214912	20298
213	2015-09-11 21:40:30	0	0	0	0	0	0	19.2	0.67	1.12	701786	0	370397	428023	701786	331389	4672	2058	12017	1573	233242	1214915	20320
214	2015-09-11 21:46:27	0	0	0	0	0	0	19.2	0.67	1.12	701786	0	370397	428023	701786	331389	4672	2058	12017	1573	233242	1214920	20320
215	2015-09-11 21:52:28	0	0	0	0	0	0	19.2	0.67	1.12	702752	0	371168	428141	702752	331584	4677	2059	12031	1573	233242	1214920	20340
216	2015-09-11 21:58:29	0	0	0	0	0	0	19.2	0.67	1.12	702752	0	371168	428141	702752	331584	4677	2059	12031	1573	233242	1214928	20340
217	2015-09-11 22:04:27	0	0	0	0	0	0	19.21	0.67	1.12	703700	0	371912	430164	703700	331788	4684	2060	12039	1574	233348	1214917	20357
218	2015-09-11 22:10:31	0	0	0	0	0	0	19.21	0.67	1.12	703700	0	371912	430164	703700	331788	4684	2060	12039	1574	233348	1214919	20357
219	2015-09-11 22:16:32	0	0	0	0	0	0	19.21	0.67	1.12	704638	0	372660	430164	704638	331978	4691	2062	12052	1576	233348	1214915	20381
220	2015-09-11 22:22:27	0	0	0	0	0	0	19.21	0.67	1.12	704638	0	372660	430164	704638	331978	4691	2062	12052	1576	233348	1214916	20381
221	2015-09-11 22:28:29	0	0	0	0	0	0	19.21	0.67	1.12	705571	0	373358	430343	705571	332213	4701	2065	12066	1578	233348	1214917	20410
222	2015-09-11 22:34:30	0	0	0	0	0	0	19.21	0.67	1.12	705571	0	373358	430343	705571	332213	4701	2065	12066	1578	233348	1214922	20410
223	2015-09-11 22:40:37	0	0	0	0	0	0	19.21	0.67	1.13	706556	0	374110	430583	706556	332446	4703	2065	12080	1581	233348	1214919	20429
224	2015-09-11 22:46:28	0	0	0	0	0	0	19.21	0.67	1.13	706556	0	374110	430583	706556	332446	4703	2065	12080	1581	233348	1214923	20429
225	2015-09-11 22:52:28	0	0	0	0	0	0	19.22	0.67	1.13	707586	0	374508	431032	707586	332719	4708	2068	12089	1582	233453	1214920	20447
226	2015-09-11 22:58:27	0	0	0	0	0	0	19.22	0.67	1.13	707586	0	374508	431032	707586	332719	4708	2068	12089	1582	233453	1214925	20447
227	2015-09-11 23:04:29	0	0	0	0	0	0	19.23	0.67	1.13	708378	0	375451	431032	708378	332927	4714	2070	12110	1588	233665	1214914	20482
228	2015-09-11 23:10:28	0	0	0	0	0	0	19.23	0.67	1.13	708378	0	375451	431032	708378	332927	4714	2070	12110	1588	233665	1214916	20482
229	2015-09-11 23:16:27	0	0	0	0	0	0	19.23	0.67	1.13	709086	0	376003	431152	709086	333083	4718	2072	12122	1589	233665	1214917	20501
230	2015-09-11 23:22:27	0	0	0	0	0	0	19.23	0.67	1.13	709086	0	376003	431152	709086	333083	4718	2072	12122	1589	233665	1214920	20501
231	2015-09-11 23:28:28	0	0	0	0	0	0	19.23	0.67	1.13	709960	0	376668	431152	709960	333292	4725	2075	12139	1591	233665	1214917	20530
232	2015-09-11 23:34:27	0	0	0	0	0	0	19.23	0.67	1.13	709960	0	376668	431152	709960	333292	4725	2075	12139	1591	233665	1214923	20530
233	2015-09-11 23:40:26	0	0	0	0	0	0	19.24	0.67	1.13	710746	0	377263	431152	710746	333483	4727	2079	12157	1596	233735	1214914	20559
234	2015-09-11 23:46:26	0	0	0	0	0	0	19.24	0.67	1.13	710746	0	377263	431152	710746	333483	4727	2079	12157	1596	233735	1214914	20559
235	2015-09-11 23:52:27	0	0	0	0	0	0	19.24	0.66	1.13	711553	0	377891	431265	711553	333662	4730	2080	12166	1596	233788	1214913	20572
236	2015-09-11 23:58:30	0	0	0	0	0	0	19.24	0.66	1.13	711553	0	377891	431265	711553	333662	4730	2080	12166	1596	233788	1214915	20572
237	2015-09-12 00:04:28	0	0	0	0	0	0	19.25	0.66	1.13	711925	0	378160	431686	711925	333765	4731	2081	12171	1596	233859	1214917	20579
238	2015-09-12 00:10:28	0	0	0	0	0	0	19.25	0.66	1.13	711925	0	378160	431686	711925	333765	4731	2081	12171	1596	233859	1214918	20579
239	2015-09-12 00:22:27	0	0	0	0	0	0	19.27	0.66	1.13	712956	0	378942	431926	712956	334014	4735	2083	12190	1597	234071	1214917	20605
240	2015-09-12 00:28:29	0	0	0	0	0	0	19.27	0.66	1.13	712956	0	378942	431926	712956	334014	4735	2083	12190	1597	234071	1214917	20605
241	2015-09-12 00:34:29	0	0	0	0	0	0	19.27	0.66	1.14	713496	0	379344	432349	713496	334152	4740	2083	12193	1599	234071	1214916	20615
242	2015-09-12 00:40:28	0	0	0	0	0	0	19.27	0.66	1.14	713496	0	379344	432349	713496	334152	4740	2083	12193	1599	234071	1214916	20615
243	2015-09-12 00:46:28	0	0	0	0	0	0	19.28	0.66	1.14	714215	0	379876	433317	714215	334339	4745	2084	12212	1603	234283	1214912	20644
244	2015-09-12 00:52:29	0	0	0	0	0	0	19.28	0.66	1.14	714215	0	379876	433317	714215	334339	4745	2084	12212	1603	234283	1214916	20644
245	2015-09-12 00:58:28	0	0	0	0	0	0	19.31	0.66	1.14	714674	0	380209	433802	714674	334465	4746	2089	12225	1604	234567	1214911	20664
246	2015-09-12 01:04:27	0	0	0	0	0	0	19.31	0.66	1.14	714674	0	380209	433802	714674	334465	4746	2089	12225	1604	234567	1214910	20664
247	2015-09-12 01:10:28	0	0	0	0	0	0	19.31	0.66	1.14	715054	0	380508	433802	715054	334546	4748	2092	12231	1604	234567	1214908	20675
248	2015-09-12 01:16:28	0	0	0	0	0	0	19.31	0.66	1.14	715054	0	380508	433802	715054	334546	4748	2092	12231	1604	234567	1214910	20675
249	2015-09-12 01:22:29	0	0	0	0	0	0	19.31	0.66	1.14	715424	0	380785	433802	715424	334639	4749	2093	12239	1604	234567	1214904	20685
250	2015-09-12 01:28:29	0	0	0	0	0	0	19.31	0.66	1.14	715424	0	380785	433802	715424	334639	4749	2093	12239	1604	234567	1214906	20685
251	2015-09-12 01:34:29	0	0	0	0	0	0	19.31	0.66	1.14	715785	0	381042	434046	715785	334743	4749	2096	12244	1604	234567	1214903	20693
252	2015-09-12 01:40:28	0	0	0	0	0	0	19.31	0.66	1.14	715785	0	381042	434046	715785	334743	4749	2096	12244	1604	234567	1214903	20693
253	2015-09-12 01:46:30	0	0	0	0	0	0	19.31	0.66	1.14	716092	0	381274	434046	716092	334818	4751	2097	12247	1604	234567	1214905	20699
254	2015-09-12 01:52:36	0	0	0	0	0	0	19.31	0.66	1.14	716092	0	381274	434046	716092	334818	4751	2097	12247	1604	234567	1214906	20699
255	2015-09-12 01:58:30	0	0	0	0	0	0	19.31	0.66	1.14	716327	0	381456	434777	716327	334871	4752	2097	12249	1604	234567	1214906	20702
256	2015-09-12 02:04:28	0	0	0	0	0	0	19.28	0.66	1.14	716327	0	381456	434777	716327	334871	4752	2097	12249	1604	234567	1216642	20702
257	2015-09-12 02:10:29	0	0	0	0	0	0	19.28	0.66	1.14	716510	0	381612	434777	716510	334898	4752	2098	12250	1604	234567	1216636	20704
258	2015-09-12 02:16:29	0	0	0	0	0	0	19.28	0.66	1.14	716510	0	381612	434777	716510	334898	4752	2098	12250	1604	234567	1216639	20704
259	2015-09-12 02:22:29	0	0	0	0	0	0	19.28	0.66	1.14	716654	0	381724	434777	716654	334930	4754	2099	12255	1605	234567	1216637	20713
260	2015-09-12 02:28:29	0	0	0	0	0	0	19.28	0.66	1.14	716654	0	381724	434777	716654	334930	4754	2099	12255	1605	234567	1216635	20713
261	2015-09-12 02:34:30	0	0	0	0	0	0	19.28	0.66	1.14	716791	0	381843	434777	716791	334948	4754	2099	12256	1605	234567	1216637	20714
262	2015-09-12 02:40:28	0	0	0	0	0	0	19.28	0.66	1.14	716791	0	381843	434777	716791	334948	4754	2099	12256	1605	234567	1216633	20714
263	2015-09-12 02:46:29	0	0	0	0	0	0	19.28	0.66	1.14	716900	0	381939	434777	716900	334961	4756	2100	12258	1605	234567	1216635	20719
264	2015-09-12 02:52:30	0	0	0	0	0	0	19.28	0.66	1.14	716900	0	381939	434777	716900	334961	4756	2100	12258	1605	234567	1216634	20719
265	2015-09-12 02:58:30	0	0	0	0	0	0	19.28	0.66	1.14	717025	0	382054	434777	717025	334971	4757	2100	12260	1606	234567	1216635	20723
266	2015-09-12 03:04:28	0	0	0	0	0	0	19.28	0.66	1.14	717025	0	382054	434777	717025	334971	4757	2100	12260	1606	234567	1216636	20723
267	2015-09-12 03:10:29	0	0	0	0	0	0	19.28	0.66	1.14	717130	0	382146	434777	717130	334984	4757	2100	12264	1609	234567	1216637	20730
268	2015-09-12 03:16:28	0	0	0	0	0	0	19.28	0.66	1.14	717130	0	382146	434777	717130	334984	4757	2100	12264	1609	234567	1216633	20730
269	2015-09-12 03:22:30	0	0	0	0	0	0	19.28	0.66	1.14	717210	0	382217	434777	717210	334993	4757	2100	12265	1609	234567	1216635	20731
270	2015-09-12 03:28:29	0	0	0	0	0	0	19.28	0.66	1.14	717210	0	382217	434777	717210	334993	4757	2100	12265	1609	234567	1216635	20731
271	2015-09-12 03:34:29	0	0	0	0	0	0	19.28	0.66	1.14	717269	0	382270	434777	717269	334999	4757	2100	12266	1609	234567	1216636	20732
272	2015-09-12 03:40:28	0	0	0	0	0	0	19.28	0.66	1.14	717269	0	382270	434777	717269	334999	4757	2100	12266	1609	234567	1216635	20732
273	2015-09-12 03:46:28	0	0	0	0	0	0	19.28	0.66	1.14	717331	0	382328	434777	717331	335003	4757	2100	12266	1609	234567	1216635	20732
274	2015-09-12 03:52:35	0	0	0	0	0	0	19.28	0.66	1.14	717331	0	382328	434777	717331	335003	4757	2100	12266	1609	234567	1216637	20732
275	2015-09-12 03:58:30	0	0	0	0	0	0	19.28	0.66	1.14	717398	0	382386	435266	717398	335012	4757	2100	12266	1609	234567	1216637	20732
276	2015-09-12 04:04:29	0	0	0	0	0	0	19.28	0.66	1.14	717398	0	382386	435266	717398	335012	4757	2100	12266	1609	234567	1216636	20732
277	2015-09-12 04:10:29	0	0	0	0	0	0	19.28	0.66	1.14	717495	0	382475	435266	717495	335020	4758	2100	12266	1609	234567	1216636	20733
278	2015-09-12 04:16:29	0	0	0	0	0	0	19.28	0.66	1.14	717495	0	382475	435266	717495	335020	4758	2100	12266	1609	234567	1216634	20733
279	2015-09-12 04:22:34	0	0	0	0	0	0	19.28	0.66	1.14	717557	0	382532	435266	717557	335025	4758	2100	12267	1609	234567	1216636	20734
280	2015-09-12 04:28:28	0	0	0	0	0	0	19.28	0.66	1.14	717557	0	382532	435266	717557	335025	4758	2100	12267	1609	234567	1216635	20734
281	2015-09-12 04:34:29	0	0	0	0	0	0	19.28	0.66	1.14	717607	0	382574	435266	717607	335033	4758	2100	12268	1609	234567	1216635	20735
282	2015-09-12 04:40:28	0	0	0	0	0	0	19.28	0.66	1.14	717607	0	382574	435266	717607	335033	4758	2100	12268	1609	234567	1216637	20735
283	2015-09-12 04:46:29	0	0	0	0	0	0	19.28	0.66	1.14	717638	0	382600	435266	717638	335038	4758	2100	12268	1609	234567	1216638	20735
284	2015-09-12 04:52:29	0	0	0	0	0	0	19.28	0.66	1.14	717638	0	382600	435266	717638	335038	4758	2100	12268	1609	234567	1216634	20735
285	2015-09-12 04:58:29	0	0	0	0	0	0	19.28	0.66	1.14	717675	0	382634	435748	717675	335041	4758	2100	12268	1609	234567	1216635	20735
286	2015-09-12 05:04:29	0	0	0	0	0	0	19.28	0.66	1.14	717675	0	382634	435748	717675	335041	4758	2100	12268	1609	234567	1216635	20735
287	2015-09-12 05:10:29	0	0	0	0	0	0	19.28	0.66	1.14	717704	0	382660	435748	717704	335044	4760	2101	12270	1609	234567	1216636	20740
288	2015-09-12 05:16:29	0	0	0	0	0	0	19.28	0.66	1.14	717704	0	382660	435748	717704	335044	4760	2101	12270	1609	234567	1216634	20740
289	2015-09-12 05:22:35	0	0	0	0	0	0	19.28	0.66	1.14	717744	0	382698	435748	717744	335046	4760	2101	12270	1609	234567	1216635	20740
290	2015-09-12 05:28:28	0	0	0	0	0	0	19.28	0.66	1.14	717744	0	382698	435748	717744	335046	4760	2101	12270	1609	234567	1216635	20740
291	2015-09-12 05:34:30	0	0	0	0	0	0	19.28	0.66	1.14	717777	0	382726	435748	717777	335051	4760	2101	12270	1609	234567	1216636	20740
292	2015-09-12 05:40:31	0	0	0	0	0	0	19.28	0.66	1.14	717799	0	382743	435748	717799	335056	4760	2101	12271	1609	234567	1216633	20741
293	2015-09-12 05:46:30	0	0	0	0	0	0	19.28	0.66	1.14	717799	0	382743	435748	717799	335056	4760	2101	12271	1609	234567	1216632	20741
294	2015-09-12 05:52:29	0	0	0	0	0	0	19.28	0.66	1.14	717842	0	382779	435748	717842	335063	4760	2101	12272	1609	234567	1216632	20742
295	2015-09-12 05:58:29	0	0	0	0	0	0	19.28	0.66	1.14	717842	0	382779	435748	717842	335063	4760	2101	12272	1609	234567	1216633	20742
296	2015-09-12 06:04:28	0	0	0	0	0	0	19.28	0.66	1.14	717898	0	382832	435748	717898	335066	4760	2101	12272	1609	234567	1216633	20742
297	2015-09-12 06:10:28	0	0	0	0	0	0	19.28	0.66	1.14	717898	0	382832	435748	717898	335066	4760	2101	12272	1609	234567	1216633	20742
298	2015-09-12 06:16:29	0	0	0	0	0	0	19.28	0.66	1.14	717949	0	382882	435748	717949	335067	4760	2101	12272	1609	234567	1216633	20742
299	2015-09-12 06:22:29	0	0	0	0	0	0	19.28	0.66	1.14	717949	0	382882	435748	717949	335067	4760	2101	12272	1609	234567	1216633	20742
300	2015-09-12 06:28:28	0	0	0	0	0	0	19.28	0.66	1.14	718020	0	382947	435748	718020	335073	4761	2102	12272	1609	234567	1216633	20744
301	2015-09-12 06:34:30	0	0	0	0	0	0	19.28	0.66	1.14	718020	0	382947	435748	718020	335073	4761	2102	12272	1609	234567	1216633	20744
302	2015-09-12 06:40:30	0	0	0	0	0	0	19.28	0.66	1.14	718063	0	382986	435748	718063	335077	4761	2102	12274	1609	234567	1216633	20746
303	2015-09-12 06:46:29	0	0	0	0	0	0	19.28	0.66	1.14	718063	0	382986	435748	718063	335077	4761	2102	12274	1609	234567	1216633	20746
304	2015-09-12 06:52:30	0	0	0	0	0	0	19.28	0.66	1.14	718192	0	383108	435748	718192	335084	4761	2102	12275	1609	234567	1216635	20747
305	2015-09-12 06:58:30	0	0	0	0	0	0	19.28	0.66	1.14	718192	0	383108	435748	718192	335084	4761	2102	12275	1609	234567	1216634	20747
306	2015-09-12 07:04:29	0	0	0	0	0	0	19.28	0.66	1.14	718297	0	383202	435748	718297	335095	4761	2102	12278	1609	234567	1216634	20750
307	2015-09-12 07:10:30	0	0	0	0	0	0	19.28	0.66	1.14	718297	0	383202	435748	718297	335095	4761	2102	12278	1609	234567	1216629	20750
308	2015-09-12 07:16:32	0	0	0	0	0	0	19.28	0.66	1.14	718408	0	383299	435748	718408	335109	4761	2103	12279	1609	234567	1216629	20752
309	2015-09-12 07:22:32	0	0	0	0	0	0	19.28	0.66	1.14	718408	0	383299	435748	718408	335109	4761	2103	12279	1609	234567	1216631	20752
310	2015-09-12 07:28:32	0	0	0	0	0	0	19.28	0.66	1.14	718517	0	383396	436485	718517	335121	4761	2103	12280	1609	234567	1216631	20753
311	2015-09-12 07:34:32	0	0	0	0	0	0	19.28	0.66	1.14	718517	0	383396	436485	718517	335121	4761	2103	12280	1609	234567	1216630	20753
312	2015-09-12 07:40:33	0	0	0	0	0	0	19.28	0.66	1.14	718641	0	383502	436732	718641	335139	4761	2103	12281	1609	234567	1216631	20754
313	2015-09-12 07:46:31	0	0	0	0	0	0	19.28	0.66	1.14	718641	0	383502	436732	718641	335139	4761	2103	12281	1609	234567	1216631	20754
314	2015-09-12 07:52:33	0	0	0	0	0	0	19.28	0.66	1.14	718823	0	383666	436732	718823	335157	4762	2104	12282	1609	234567	1216631	20757
315	2015-09-12 07:58:32	0	0	0	0	0	0	19.28	0.66	1.14	718823	0	383666	436732	718823	335157	4762	2104	12282	1609	234567	1216632	20757
316	2015-09-12 08:04:31	0	0	0	0	0	0	19.28	0.66	1.15	718967	0	383797	436732	718967	335170	4763	2105	12284	1609	234567	1216633	20761
317	2015-09-12 08:10:33	0	0	0	0	0	0	19.28	0.66	1.15	718967	0	383797	436732	718967	335170	4763	2105	12284	1609	234567	1216633	20761
318	2015-09-12 08:16:32	0	0	0	0	0	0	19.28	0.66	1.15	719150	0	383967	436732	719150	335183	4764	2105	12286	1609	234567	1216634	20764
319	2015-09-12 08:22:34	0	0	0	0	0	0	19.28	0.66	1.15	719150	0	383967	436732	719150	335183	4764	2105	12286	1609	234567	1216636	20764
320	2015-09-12 08:28:33	0	0	0	0	0	0	19.28	0.66	1.15	719346	0	384143	436840	719346	335203	4765	2106	12290	1609	234567	1216636	20770
321	2015-09-12 08:34:34	0	0	0	0	0	0	19.28	0.66	1.15	719346	0	384143	436840	719346	335203	4765	2106	12290	1609	234567	1216632	20770
322	2015-09-12 08:40:32	0	0	0	0	0	0	19.28	0.66	1.15	719458	0	384247	436932	719458	335211	4765	2106	12291	1609	234567	1216633	20771
323	2015-09-12 08:46:32	0	0	0	0	0	0	19.28	0.66	1.15	719458	0	384247	436932	719458	335211	4765	2106	12291	1609	234567	1216635	20771
324	2015-09-12 08:52:34	0	0	0	0	0	0	19.29	0.66	1.15	719636	0	384404	436932	719636	335232	4766	2109	12292	1610	234692	1216635	20777
325	2015-09-12 08:58:33	0	0	0	0	0	0	19.29	0.66	1.15	719636	0	384404	436932	719636	335232	4766	2109	12292	1610	234692	1216630	20777
326	2015-09-12 09:04:35	0	0	0	0	0	0	19.29	0.66	1.15	719848	0	384597	436932	719848	335251	4767	2109	12294	1610	234692	1216632	20780
327	2015-09-12 09:10:33	0	0	0	0	0	0	19.29	0.66	1.15	719848	0	384597	436932	719848	335251	4767	2109	12294	1610	234692	1216630	20780
328	2015-09-12 09:16:33	0	0	0	0	0	0	19.29	0.66	1.15	720029	0	384754	436932	720029	335275	4769	2110	12296	1610	234692	1216634	20785
329	2015-09-12 09:22:34	0	0	0	0	0	0	19.29	0.66	1.15	720029	0	384754	436932	720029	335275	4769	2110	12296	1610	234692	1216626	20785
330	2015-09-12 09:28:34	0	0	0	0	0	0	19.3	0.66	1.15	720245	0	384950	436932	720245	335295	4771	2110	12297	1611	234763	1216628	20789
331	2015-09-12 09:34:35	0	0	0	0	0	0	19.3	0.66	1.15	720245	0	384950	436932	720245	335295	4771	2110	12297	1611	234763	1216631	20789
332	2015-09-12 09:40:34	0	0	0	0	0	0	19.3	0.66	1.15	720567	0	385245	437025	720567	335322	4777	2111	12303	1611	234763	1216634	20802
333	2015-09-12 09:46:33	0	0	0	0	0	0	19.3	0.66	1.15	720567	0	385245	437025	720567	335322	4777	2111	12303	1611	234763	1216632	20802
334	2015-09-12 09:52:41	0	0	0	0	0	0	19.3	0.66	1.15	720775	0	385445	437025	720775	335330	4778	2113	12308	1614	234763	1216637	20813
335	2015-09-12 09:58:33	0	0	0	0	0	0	19.3	0.66	1.15	720775	0	385445	437025	720775	335330	4778	2113	12308	1614	234763	1216629	20813
336	2015-09-12 10:04:33	0	0	0	0	0	0	19.3	0.66	1.15	721013	0	385660	437025	721013	335353	4778	2113	12313	1617	234763	1216629	20821
337	2015-09-12 10:10:34	0	0	0	0	0	0	19.3	0.66	1.15	721013	0	385660	437025	721013	335353	4778	2113	12313	1617	234763	1216633	20821
338	2015-09-12 10:16:32	0	0	0	0	0	0	19.3	0.66	1.15	721206	0	385830	437210	721206	335376	4778	2114	12317	1620	234799	1216636	20829
339	2015-09-12 10:22:33	0	0	0	0	0	0	19.3	0.66	1.15	721206	0	385830	437210	721206	335376	4778	2114	12317	1620	234799	1216626	20829
340	2015-09-12 10:28:33	0	0	0	0	0	0	19.3	0.66	1.15	721451	0	386057	437210	721451	335394	4779	2115	12324	1624	234799	1216627	20842
341	2015-09-12 10:34:33	0	0	0	0	0	0	19.3	0.66	1.15	721451	0	386057	437210	721451	335394	4779	2115	12324	1624	234799	1216627	20842
342	2015-09-12 10:40:33	0	0	0	0	0	0	19.3	0.66	1.15	721755	0	386204	437210	721755	335425	4781	2115	12324	1625	234799	1216631	20845
343	2015-09-12 10:46:32	0	0	0	0	0	0	19.3	0.66	1.15	721755	0	386204	437210	721755	335425	4781	2115	12324	1625	234799	1216635	20845
344	2015-09-12 10:52:33	0	0	0	0	0	0	19.3	0.66	1.15	721884	0	386451	437210	721884	335433	4783	2115	12329	1625	234799	1216643	20852
345	2015-09-12 10:58:33	0	0	0	0	0	0	19.3	0.66	1.15	721884	0	386451	437210	721884	335433	4783	2115	12329	1625	234799	1216633	20852
346	2015-09-12 11:04:33	0	0	0	0	0	0	19.3	0.66	1.15	722144	0	386692	437210	722144	335452	4785	2116	12335	1627	234799	1216638	20863
347	2015-09-12 11:10:34	0	0	0	0	0	0	19.3	0.66	1.15	722144	0	386692	437210	722144	335452	4785	2116	12335	1627	234799	1216627	20863
348	2015-09-12 11:16:36	0	0	0	0	0	0	19.3	0.66	1.15	722394	0	386926	438138	722394	335468	4789	2116	12339	1627	234799	1216628	20871
349	2015-09-12 11:22:35	0	0	0	0	0	0	19.3	0.66	1.15	722394	0	386926	438138	722394	335468	4789	2116	12339	1627	234799	1216624	20871
350	2015-09-12 11:28:36	0	0	0	0	0	0	19.3	0.66	1.15	722645	0	387152	438138	722645	335493	4790	2116	12345	1628	234799	1216627	20879
351	2015-09-12 11:34:34	0	0	0	0	0	0	19.3	0.66	1.15	722645	0	387152	438138	722645	335493	4790	2116	12345	1628	234799	1216631	20879
352	2015-09-12 11:40:34	0	0	0	0	0	0	19.3	0.66	1.15	722883	0	387369	438138	722883	335514	4793	2120	12349	1630	234799	1216635	20892
353	2015-09-12 11:46:34	0	0	0	0	0	0	19.3	0.66	1.15	722883	0	387369	438138	722883	335514	4793	2120	12349	1630	234799	1216628	20892
354	2015-09-12 11:52:38	0	0	0	0	0	0	19.3	0.66	1.16	723166	0	387631	438138	723166	335535	4793	2120	12353	1631	234799	1216636	20897
355	2015-09-12 11:58:34	0	0	0	0	0	0	19.3	0.66	1.16	723166	0	387631	438138	723166	335535	4793	2120	12353	1631	234799	1216624	20897
356	2015-09-12 12:04:33	0	0	0	0	0	0	19.3	0.66	1.16	723415	0	387862	438626	723415	335553	4795	2120	12357	1631	234799	1216633	20903
357	2015-09-12 12:10:34	0	0	0	0	0	0	19.3	0.66	1.16	723415	0	387862	438626	723415	335553	4795	2120	12357	1631	234799	1216631	20903
358	2015-09-12 12:16:36	0	0	0	0	0	0	19.3	0.66	1.16	723616	0	388045	438626	723616	335571	4799	2120	12360	1632	234799	1216636	20911
359	2015-09-12 12:22:37	0	0	0	0	0	0	19.3	0.66	1.16	723616	0	388045	438626	723616	335571	4799	2120	12360	1632	234799	1216630	20911
360	2015-09-12 12:28:36	0	0	0	0	0	0	19.3	0.66	1.16	723775	0	388187	438626	723775	335588	4800	2120	12361	1632	234799	1216634	20913
361	2015-09-12 12:34:36	0	0	0	0	0	0	19.3	0.66	1.16	723775	0	388187	438626	723775	335588	4800	2120	12361	1632	234799	1216622	20913
362	2015-09-12 12:40:36	0	0	0	0	0	0	19.3	0.66	1.16	724023	0	388412	438626	724023	335611	4803	2120	12364	1634	234799	1216626	20921
363	2015-09-12 12:46:38	0	0	0	0	0	0	19.3	0.66	1.16	724023	0	388412	438626	724023	335611	4803	2120	12364	1634	234799	1216624	20921
364	2015-09-12 12:52:37	0	0	0	0	0	0	19.3	0.66	1.16	724230	0	388599	438626	724230	335631	4804	2120	12367	1636	234799	1216632	20927
365	2015-09-12 12:58:36	0	0	0	0	0	0	19.3	0.66	1.16	724230	0	388599	438626	724230	335631	4804	2120	12367	1636	234799	1216625	20927
366	2015-09-12 13:04:35	0	0	0	0	0	0	19.3	0.66	1.16	724398	0	388749	438626	724398	335649	4805	2120	12370	1637	234799	1216632	20932
367	2015-09-12 13:10:35	0	0	0	0	0	0	19.3	0.66	1.16	724398	0	388749	438626	724398	335649	4805	2120	12370	1637	234799	1216629	20932
368	2015-09-12 13:16:37	0	0	0	0	0	0	19.3	0.66	1.16	724558	0	388886	438875	724558	335672	4807	2120	12371	1638	234799	1216637	20936
369	2015-09-12 13:22:38	0	0	0	0	0	0	19.3	0.66	1.16	724558	0	388886	438875	724558	335672	4807	2120	12371	1638	234799	1216626	20936
370	2015-09-12 13:28:37	0	0	0	0	0	0	19.3	0.66	1.16	724711	0	389025	438875	724711	335686	4808	2120	12372	1638	234799	1216632	20938
371	2015-09-12 13:34:36	0	0	0	0	0	0	19.3	0.66	1.16	724711	0	389025	438875	724711	335686	4808	2120	12372	1638	234799	1216626	20938
372	2015-09-12 13:40:36	0	0	0	0	0	0	19.3	0.66	1.16	724840	0	389144	438875	724840	335696	4809	2120	12374	1638	234799	1216635	20941
373	2015-09-12 13:46:45	0	0	0	0	0	0	19.3	0.66	1.16	724840	0	389144	438875	724840	335696	4809	2120	12374	1638	234799	1216634	20941
374	2015-09-12 13:52:36	0	0	0	0	0	0	19.3	0.66	1.16	724990	0	389276	438875	724990	335714	4810	2120	12375	1638	234799	1216639	20943
375	2015-09-12 13:58:38	0	0	0	0	0	0	19.3	0.66	1.16	724990	0	389276	438875	724990	335714	4810	2120	12375	1638	234799	1216625	20943
376	2015-09-12 14:04:35	0	0	0	0	0	0	19.3	0.66	1.16	725155	0	389429	438875	725155	335726	4811	2120	12375	1638	234799	1216631	20944
377	2015-09-12 14:10:37	0	0	0	0	0	0	19.3	0.66	1.16	725155	0	389429	438875	725155	335726	4811	2120	12375	1638	234799	1216624	20944
378	2015-09-12 14:16:37	0	0	0	0	0	0	19.3	0.66	1.16	725309	0	389565	438875	725309	335744	4812	2120	12378	1638	234799	1216631	20948
379	2015-09-12 14:22:44	0	0	0	0	0	0	19.3	0.66	1.16	725309	0	389565	438875	725309	335744	4812	2120	12378	1638	234799	1216619	20948
380	2015-09-12 14:28:38	0	0	0	0	0	0	19.3	0.66	1.16	725474	0	389716	438875	725474	335758	4812	2121	12378	1638	234799	1216622	20949
381	2015-09-12 14:34:37	0	0	0	0	0	0	19.3	0.66	1.16	725474	0	389716	438875	725474	335758	4812	2121	12378	1638	234799	1216621	20949
382	2015-09-12 14:40:37	0	0	0	0	0	0	19.3	0.66	1.16	725606	0	389837	439093	725606	335769	4813	2122	12382	1639	234799	1216626	20956
383	2015-09-12 14:46:38	0	0	0	0	0	0	19.3	0.66	1.16	725606	0	389837	439093	725606	335769	4813	2122	12382	1639	234799	1216626	20956
384	2015-09-12 14:52:38	0	0	0	0	0	0	19.3	0.66	1.16	725741	0	389959	439093	725741	335782	4813	2122	12386	1639	234799	1216640	20960
385	2015-09-12 14:58:37	0	0	0	0	0	0	19.3	0.66	1.16	725741	0	389959	439093	725741	335782	4813	2122	12386	1639	234799	1216625	20960
386	2015-09-12 15:04:36	0	0	0	0	0	0	19.3	0.66	1.16	725877	0	390079	439093	725877	335798	4815	2122	12387	1639	234799	1216632	20963
387	2015-09-12 15:10:37	0	0	0	0	0	0	19.3	0.66	1.16	725877	0	390079	439093	725877	335798	4815	2122	12387	1639	234799	1216626	20963
388	2015-09-12 15:16:37	0	0	0	0	0	0	19.3	0.66	1.16	725994	0	390189	439093	725994	335805	4816	2122	12389	1639	234799	1216631	20966
389	2015-09-12 15:22:39	0	0	0	0	0	0	19.3	0.66	1.16	725994	0	390189	439093	725994	335805	4816	2122	12389	1639	234799	1216619	20966
390	2015-09-12 15:28:37	0	0	0	0	0	0	19.3	0.66	1.16	726127	0	390309	439093	726127	335818	4818	2122	12391	1640	234799	1216624	20971
391	2015-09-12 15:34:38	0	0	0	0	0	0	19.3	0.66	1.16	726127	0	390309	439093	726127	335818	4818	2122	12391	1640	234799	1216625	20971
392	2015-09-12 15:40:38	0	0	0	0	0	0	19.3	0.66	1.16	726248	0	390415	439093	726248	335833	4818	2124	12394	1641	234799	1216629	20977
393	2015-09-12 15:46:37	0	0	0	0	0	0	19.3	0.66	1.16	726248	0	390415	439093	726248	335833	4818	2124	12394	1641	234799	1216623	20977
394	2015-09-12 15:52:47	0	0	0	0	0	0	19.3	0.66	1.16	726372	0	390525	439093	726372	335847	4819	2125	12397	1641	234799	1216629	20982
395	2015-09-12 15:58:37	0	0	0	0	0	0	19.3	0.66	1.16	726372	0	390525	439093	726372	335847	4819	2125	12397	1641	234799	1216618	20982
396	2015-09-12 16:04:37	0	0	0	0	0	0	19.3	0.66	1.16	726502	0	390649	439592	726502	335853	4820	2126	12399	1642	234799	1216625	20987
397	2015-09-12 16:10:40	0	0	0	0	0	0	19.3	0.66	1.16	726502	0	390649	439592	726502	335853	4820	2126	12399	1642	234799	1216620	20987
398	2015-09-12 16:16:37	0	0	0	0	0	0	19.31	0.66	1.16	726631	0	390765	439592	726631	335866	4821	2126	12400	1644	234941	1216625	20991
399	2015-09-12 16:22:39	0	0	0	0	0	0	19.31	0.66	1.16	726631	0	390765	439592	726631	335866	4821	2126	12400	1644	234941	1216620	20991
400	2015-09-12 16:28:38	0	0	0	0	0	0	19.31	0.66	1.16	726756	0	390874	439592	726756	335882	4821	2126	12408	1645	234941	1216627	21000
401	2015-09-12 16:34:38	0	0	0	0	0	0	19.31	0.66	1.16	726756	0	390874	439592	726756	335882	4821	2126	12408	1645	234941	1216621	21000
402	2015-09-12 16:40:39	0	0	0	0	0	0	19.31	0.66	1.16	726883	0	390986	439592	726883	335897	4822	2127	12410	1646	234941	1216624	21005
403	2015-09-12 16:46:38	0	0	0	0	0	0	19.31	0.66	1.16	726883	0	390986	439592	726883	335897	4822	2127	12410	1646	234941	1216619	21005
404	2015-09-12 16:52:39	0	0	0	0	0	0	19.31	0.66	1.16	727005	0	391096	439592	727005	335909	4823	2127	12411	1646	234941	1216626	21007
405	2015-09-12 16:58:37	0	0	0	0	0	0	19.31	0.66	1.16	727005	0	391096	439592	727005	335909	4823	2127	12411	1646	234941	1216621	21007
406	2015-09-12 17:04:36	0	0	0	0	0	0	19.31	0.66	1.16	727106	0	391191	439592	727106	335915	4823	2127	12412	1647	234941	1216627	21009
407	2015-09-12 17:10:40	0	0	0	0	0	0	19.31	0.66	1.16	727106	0	391191	439592	727106	335915	4823	2127	12412	1647	234941	1216613	21009
408	2015-09-12 17:16:38	0	0	0	0	0	0	19.31	0.66	1.16	727214	0	391289	439592	727214	335925	4823	2127	12416	1647	234941	1216617	21013
409	2015-09-12 17:22:40	0	0	0	0	0	0	19.31	0.66	1.16	727214	0	391289	439592	727214	335925	4823	2127	12416	1647	234941	1216612	21013
410	2015-09-12 17:28:38	0	0	0	0	0	0	19.31	0.66	1.17	727322	0	391383	439592	727322	335939	4823	2127	12416	1647	234941	1216614	21013
411	2015-09-12 17:34:37	0	0	0	0	0	0	19.31	0.66	1.17	727322	0	391383	439592	727322	335939	4823	2127	12416	1647	234941	1216618	21013
412	2015-09-12 17:40:41	0	0	0	0	0	0	19.31	0.66	1.17	727436	0	391488	439592	727436	335948	4823	2127	12418	1647	234941	1216632	21015
413	2015-09-12 17:46:41	0	0	0	0	0	0	19.31	0.66	1.17	727436	0	391488	439592	727436	335948	4823	2127	12418	1647	234941	1216609	21015
414	2015-09-12 17:52:39	0	0	0	0	0	0	19.31	0.66	1.17	727538	0	391581	439592	727538	335957	4824	2127	12418	1647	234941	1216613	21016
415	2015-09-12 17:58:40	0	0	0	0	0	0	19.31	0.66	1.17	727538	0	391581	439592	727538	335957	4824	2127	12418	1647	234941	1216612	21016
416	2015-09-12 18:04:39	0	0	0	0	0	0	19.31	0.66	1.17	727626	0	391668	439592	727626	335958	4824	2127	12421	1647	234941	1216618	21019
417	2015-09-12 18:10:39	0	0	0	0	0	0	19.31	0.66	1.17	727626	0	391668	439592	727626	335958	4824	2127	12421	1647	234941	1216606	21019
418	2015-09-12 18:16:41	0	0	0	0	0	0	19.31	0.66	1.17	727730	0	391757	439592	727730	335973	4825	2127	12423	1647	234941	1216609	21022
419	2015-09-12 18:22:41	0	0	0	0	0	0	19.31	0.66	1.17	727730	0	391757	439592	727730	335973	4825	2127	12423	1647	234941	1216607	21022
420	2015-09-12 18:28:39	0	0	0	0	0	0	19.31	0.66	1.17	727824	0	391844	439592	727824	335980	4825	2129	12425	1647	234941	1216610	21026
421	2015-09-12 18:34:39	0	0	0	0	0	0	19.31	0.66	1.17	727824	0	391844	439592	727824	335980	4825	2129	12425	1647	234941	1216609	21026
422	2015-09-12 18:40:41	0	0	0	0	0	0	19.31	0.66	1.17	727959	0	391969	439592	727959	335990	4827	2129	12431	1647	234941	1216613	21034
423	2015-09-12 18:46:44	0	0	0	0	0	0	19.31	0.66	1.17	727959	0	391969	439592	727959	335990	4827	2129	12431	1647	234941	1216608	21034
424	2015-09-12 18:52:40	0	0	0	0	0	0	19.31	0.66	1.17	728050	0	392055	439717	728050	335995	4828	2129	12433	1647	234941	1216612	21037
425	2015-09-12 18:58:41	0	0	0	0	0	0	19.31	0.66	1.17	728050	0	392055	439717	728050	335995	4828	2129	12433	1647	234941	1216608	21037
426	2015-09-12 19:04:40	0	0	0	0	0	0	19.31	0.66	1.17	728132	0	392131	439717	728132	336001	4828	2129	12434	1648	234941	1216607	21039
427	2015-09-12 19:10:42	0	0	0	0	0	0	19.31	0.66	1.17	728132	0	392131	439717	728132	336001	4828	2129	12434	1648	234941	1216607	21039
428	2015-09-12 19:16:42	0	0	0	0	0	0	19.31	0.66	1.17	728210	0	392200	439717	728210	336010	4829	2131	12438	1649	234941	1216610	21047
429	2015-09-12 19:22:41	0	0	0	0	0	0	19.31	0.66	1.17	728210	0	392200	439717	728210	336010	4829	2131	12438	1649	234941	1216608	21047
430	2015-09-12 19:28:41	0	0	0	0	0	0	19.31	0.66	1.17	728332	0	392316	439717	728332	336016	4830	2131	12439	1649	234941	1216608	21049
431	2015-09-12 19:34:42	0	0	0	0	0	0	19.31	0.66	1.17	728332	0	392316	439717	728332	336016	4830	2131	12439	1649	234941	1216614	21049
432	2015-09-12 19:40:41	0	0	0	0	0	0	19.31	0.66	1.17	728386	0	392365	439717	728386	336021	4830	2131	12440	1649	234941	1216620	21050
433	2015-09-12 19:46:43	0	0	0	0	0	0	19.31	0.66	1.17	728386	0	392365	439717	728386	336021	4830	2131	12440	1649	234941	1216609	21050
434	2015-09-12 19:52:48	0	0	0	0	0	0	19.31	0.66	1.17	728508	0	392470	440217	728508	336038	4830	2131	12441	1649	234941	1216613	21051
435	2015-09-12 19:58:44	0	0	0	0	0	0	19.31	0.66	1.17	728508	0	392470	440217	728508	336038	4830	2131	12441	1649	234941	1216621	21051
436	2015-09-12 20:04:43	0	0	0	0	0	0	19.31	0.66	1.17	728613	0	392561	440217	728613	336052	4831	2131	12444	1650	234941	1216628	21056
437	2015-09-12 20:10:44	0	0	0	0	0	0	19.31	0.66	1.17	728613	0	392561	440217	728613	336052	4831	2131	12444	1650	234941	1216608	21056
438	2015-09-12 20:16:58	0	0	0	0	0	0	19.31	0.66	1.17	728715	0	392655	440217	728715	336060	4831	2132	12447	1651	234941	1216614	21061
439	2015-09-12 20:22:46	0	0	0	0	0	0	19.31	0.66	1.17	728715	0	392655	440217	728715	336060	4831	2132	12447	1651	234941	1216602	21061
440	2015-09-12 20:28:44	0	0	0	0	0	0	19.31	0.66	1.17	728823	0	392752	440217	728823	336071	4831	2132	12449	1651	234941	1216608	21063
441	2015-09-12 20:34:43	0	0	0	0	0	0	19.31	0.66	1.17	728823	0	392752	440217	728823	336071	4831	2132	12449	1651	234941	1216604	21063
442	2015-09-12 20:40:43	0	0	0	0	0	0	19.31	0.66	1.17	728917	0	392836	440217	728917	336081	4831	2132	12450	1651	234941	1216616	21064
443	2015-09-12 20:46:43	0	0	0	0	0	0	19.31	0.66	1.17	728917	0	392836	440217	728917	336081	4831	2132	12450	1651	234941	1216600	21064
444	2015-09-12 20:52:42	0	0	0	0	0	0	19.31	0.66	1.17	729002	0	392902	440217	729002	336100	4831	2132	12452	1651	234941	1216609	21066
445	2015-09-12 20:58:43	0	0	0	0	0	0	19.31	0.66	1.17	729002	0	392902	440217	729002	336100	4831	2132	12452	1651	234941	1216612	21066
446	2015-09-12 21:04:43	0	0	0	0	0	0	19.31	0.66	1.17	729107	0	393002	440217	729107	336105	4831	2133	12455	1651	234941	1216614	21070
447	2015-09-12 21:10:45	0	0	0	0	0	0	19.31	0.66	1.17	729107	0	393002	440217	729107	336105	4831	2133	12455	1651	234941	1216617	21070
448	2015-09-12 21:16:43	0	0	0	0	0	0	19.31	0.66	1.17	729213	0	393099	440279	729213	336114	4831	2133	12456	1651	234941	1216625	21071
449	2015-09-12 21:22:43	0	0	0	0	0	0	19.31	0.66	1.17	729213	0	393099	440279	729213	336114	4831	2133	12456	1651	234941	1216619	21071
450	2015-09-12 21:28:44	0	0	0	0	0	0	19.31	0.66	1.17	729306	0	393183	440875	729306	336123	4831	2133	12460	1651	234941	1216624	21075
451	2015-09-12 21:34:43	0	0	0	0	0	0	19.31	0.66	1.17	729306	0	393183	440875	729306	336123	4831	2133	12460	1651	234941	1216614	21075
452	2015-09-12 21:40:44	0	0	0	0	0	0	19.31	0.66	1.17	729413	0	393279	440875	729413	336134	4832	2133	12460	1651	234941	1216621	21076
453	2015-09-12 21:46:48	0	0	0	0	0	0	19.31	0.66	1.17	729413	0	393279	440875	729413	336134	4832	2133	12460	1651	234941	1216611	21076
454	2015-09-12 21:52:53	0	0	0	0	0	0	19.31	0.66	1.17	729526	0	393381	440875	729526	336145	4832	2133	12461	1651	234941	1216618	21077
455	2015-09-12 21:58:44	0	0	0	0	0	0	19.31	0.66	1.17	729526	0	393381	440875	729526	336145	4832	2133	12461	1651	234941	1216605	21077
456	2015-09-12 22:04:42	0	0	0	0	0	0	19.31	0.66	1.17	729635	0	393470	442481	729635	336165	4834	2133	12461	1651	234968	1216617	21079
457	2015-09-12 22:10:45	0	0	0	0	0	0	19.31	0.66	1.17	729635	0	393470	442481	729635	336165	4834	2133	12461	1651	234968	1216601	21079
458	2015-09-12 22:16:47	0	0	0	0	0	0	19.31	0.66	1.17	729689	0	393515	442481	729689	336174	4835	2133	12461	1651	234968	1216608	21080
459	2015-09-12 22:22:43	0	0	0	0	0	0	19.31	0.66	1.17	729689	0	393515	442481	729689	336174	4835	2133	12461	1651	234968	1216596	21080
460	2015-09-12 22:28:44	0	0	0	0	0	0	19.31	0.66	1.17	729786	0	393603	442481	729786	336183	4836	2133	12463	1654	234968	1216600	21086
461	2015-09-12 22:34:44	0	0	0	0	0	0	19.31	0.66	1.17	729786	0	393603	442481	729786	336183	4836	2133	12463	1654	234968	1216595	21086
462	2015-09-12 22:40:44	0	0	0	0	0	0	19.31	0.66	1.17	729869	0	393672	442481	729869	336197	4837	2133	12464	1654	234968	1216603	21088
463	2015-09-12 22:46:44	0	0	0	0	0	0	19.31	0.66	1.17	729869	0	393672	442481	729869	336197	4837	2133	12464	1654	234968	1216601	21088
464	2015-09-12 22:52:46	0	0	0	0	0	0	19.31	0.66	1.17	729953	0	393754	442481	729953	336199	4837	2133	12464	1654	234968	1216603	21088
465	2015-09-12 22:58:45	0	0	0	0	0	0	19.31	0.66	1.17	729953	0	393754	442481	729953	336199	4837	2133	12464	1654	234968	1216591	21088
466	2015-09-12 23:04:43	0	0	0	0	0	0	19.31	0.66	1.17	730052	0	393837	442734	730052	336215	4837	2133	12465	1654	234968	1216598	21089
467	2015-09-12 23:10:44	0	0	0	0	0	0	19.31	0.66	1.17	730052	0	393837	442734	730052	336215	4837	2133	12465	1654	234968	1216596	21089
468	2015-09-12 23:16:44	0	0	0	0	0	0	19.31	0.66	1.17	730123	0	393901	442734	730123	336222	4837	2133	12466	1654	234968	1216601	21090
469	2015-09-12 23:22:44	0	0	0	0	0	0	19.31	0.66	1.17	730123	0	393901	442734	730123	336222	4837	2133	12466	1654	234968	1216599	21090
470	2015-09-12 23:28:43	0	0	0	0	0	0	19.31	0.66	1.17	730201	0	393971	442734	730201	336230	4837	2133	12467	1654	234968	1216601	21091
471	2015-09-12 23:34:43	0	0	0	0	0	0	19.31	0.66	1.17	730201	0	393971	442734	730201	336230	4837	2133	12467	1654	234968	1216590	21091
472	2015-09-12 23:40:44	0	0	0	0	0	0	19.31	0.66	1.17	730283	0	394045	442734	730283	336238	4840	2133	12469	1654	234968	1216597	21096
473	2015-09-12 23:46:45	0	0	0	0	0	0	19.31	0.66	1.17	730283	0	394045	442734	730283	336238	4840	2133	12469	1654	234968	1216587	21096
474	2015-09-12 23:52:46	0	0	0	0	0	0	19.31	0.66	1.17	730353	0	394110	442734	730353	336243	4840	2133	12472	1654	234968	1216596	21099
475	2015-09-12 23:58:43	0	0	0	0	0	0	19.31	0.66	1.17	730353	0	394110	442734	730353	336243	4840	2133	12472	1654	234968	1216586	21099
476	2015-09-13 00:04:43	0	0	0	0	0	0	19.31	0.66	1.17	730421	0	394168	442734	730421	336253	4840	2133	12472	1654	234968	1216595	21099
477	2015-09-13 00:10:43	0	0	0	0	0	0	19.31	0.66	1.17	730421	0	394168	442734	730421	336253	4840	2133	12472	1654	234968	1216586	21099
478	2015-09-13 00:16:43	0	0	0	0	0	0	19.31	0.66	1.17	730490	0	394230	442734	730490	336260	4840	2133	12473	1654	234968	1216596	21100
479	2015-09-13 00:22:44	0	0	0	0	0	0	19.31	0.66	1.17	730490	0	394230	442734	730490	336260	4840	2133	12473	1654	234968	1216587	21100
480	2015-09-13 00:28:45	0	0	0	0	0	0	19.31	0.66	1.17	730547	0	394279	442734	730547	336268	4840	2133	12474	1654	234968	1216589	21101
481	2015-09-13 00:34:43	0	0	0	0	0	0	19.31	0.66	1.17	730547	0	394279	442734	730547	336268	4840	2133	12474	1654	234968	1216583	21101
482	2015-09-13 00:40:43	0	0	0	0	0	0	19.31	0.66	1.17	730588	0	394313	442734	730588	336275	4840	2133	12474	1654	234968	1216593	21101
483	2015-09-13 00:46:43	0	0	0	0	0	0	19.31	0.66	1.17	730588	0	394313	442734	730588	336275	4840	2133	12474	1654	234968	1216585	21101
484	2015-09-13 00:52:44	0	0	0	0	0	0	19.31	0.66	1.17	730634	0	394353	442734	730634	336281	4840	2133	12476	1654	234968	1216589	21103
485	2015-09-13 00:58:42	0	0	0	0	0	0	19.31	0.66	1.17	730634	0	394353	442734	730634	336281	4840	2133	12476	1654	234968	1216582	21103
486	2015-09-13 01:04:42	0	0	0	0	0	0	19.31	0.66	1.17	730670	0	394384	442734	730670	336286	4841	2133	12477	1654	234968	1216591	21105
487	2015-09-13 01:10:42	0	0	0	0	0	0	19.31	0.66	1.17	730670	0	394384	442734	730670	336286	4841	2133	12477	1654	234968	1216587	21105
488	2015-09-13 01:16:48	0	0	0	0	0	0	19.31	0.66	1.17	730711	0	394416	442734	730711	336295	4841	2133	12477	1654	234968	1216590	21105
489	2015-09-13 01:22:45	0	0	0	0	0	0	19.31	0.66	1.17	730711	0	394416	442734	730711	336295	4841	2133	12477	1654	234968	1216584	21105
490	2015-09-13 01:28:42	0	0	0	0	0	0	19.31	0.66	1.17	730740	0	394441	442845	730740	336299	4843	2133	12477	1654	234968	1216586	21107
491	2015-09-13 01:34:43	0	0	0	0	0	0	19.31	0.66	1.17	730740	0	394441	442845	730740	336299	4843	2133	12477	1654	234968	1216578	21107
492	2015-09-13 01:40:44	0	0	0	0	0	0	19.33	0.66	1.17	730759	0	394459	442845	730759	336300	4843	2133	12477	1654	235182	1216581	21107
493	2015-09-13 01:46:44	0	0	0	0	0	0	19.33	0.66	1.17	730759	0	394459	442845	730759	336300	4843	2133	12477	1654	235182	1216579	21107
494	2015-09-13 01:52:44	0	0	0	0	0	0	19.33	0.66	1.17	730785	0	394480	442845	730785	336305	4843	2133	12478	1654	235182	1216577	21108
495	2015-09-13 01:58:43	0	0	0	0	0	0	19.33	0.66	1.17	730785	0	394480	442845	730785	336305	4843	2133	12478	1654	235182	1216582	21108
496	2015-09-13 02:04:43	0	0	0	0	0	0	19.31	0.66	1.17	730809	0	394501	442845	730809	336308	4843	2133	12479	1654	235182	1218057	21109
497	2015-09-13 02:10:42	0	0	0	0	0	0	19.31	0.66	1.17	730809	0	394501	442845	730809	336308	4843	2133	12479	1654	235182	1218057	21109
498	2015-09-13 02:16:43	0	0	0	0	0	0	19.31	0.66	1.17	730826	0	394517	442845	730826	336309	4843	2133	12479	1654	235182	1218052	21109
499	2015-09-13 02:22:43	0	0	0	0	0	0	19.31	0.66	1.17	730826	0	394517	442845	730826	336309	4843	2133	12479	1654	235182	1218053	21109
500	2015-09-13 02:28:42	0	0	0	0	0	0	19.31	0.66	1.17	730850	0	394537	442845	730850	336313	4843	2133	12481	1654	235182	1218052	21111
501	2015-09-13 02:34:44	0	0	0	0	0	0	19.31	0.66	1.17	730850	0	394537	442845	730850	336313	4843	2133	12481	1654	235182	1218055	21111
502	2015-09-13 02:40:41	0	0	0	0	0	0	19.31	0.66	1.17	730868	0	394552	442845	730868	336316	4843	2133	12481	1654	235182	1218051	21111
503	2015-09-13 02:46:43	0	0	0	0	0	0	19.31	0.66	1.17	730868	0	394552	442845	730868	336316	4843	2133	12481	1654	235182	1218054	21111
504	2015-09-13 02:52:48	0	0	0	0	0	0	19.31	0.66	1.17	730889	0	394563	442845	730889	336326	4843	2133	12481	1654	235182	1218049	21111
505	2015-09-13 02:58:44	0	0	0	0	0	0	19.31	0.66	1.17	730889	0	394563	442845	730889	336326	4843	2133	12481	1654	235182	1218049	21111
506	2015-09-13 03:04:43	0	0	0	0	0	0	19.31	0.66	1.17	730898	0	394572	442845	730898	336326	4843	2133	12481	1654	235182	1218051	21111
507	2015-09-13 03:10:42	0	0	0	0	0	0	19.31	0.66	1.17	730898	0	394572	442845	730898	336326	4843	2133	12481	1654	235182	1218053	21111
508	2015-09-13 03:16:44	0	0	0	0	0	0	19.31	0.66	1.17	730912	0	394585	442845	730912	336327	4843	2133	12481	1654	235182	1218049	21111
509	2015-09-13 03:23:01	0	0	0	0	0	0	19.31	0.66	1.17	730912	0	394585	442845	730912	336327	4843	2133	12481	1654	235182	1218052	21111
510	2015-09-13 03:28:42	0	0	0	0	0	0	19.31	0.66	1.17	730927	0	394599	442845	730927	336328	4843	2133	12481	1654	235182	1218050	21111
511	2015-09-13 03:34:41	0	0	0	0	0	0	19.31	0.66	1.17	730927	0	394599	442845	730927	336328	4843	2133	12481	1654	235182	1218050	21111
512	2015-09-13 03:40:41	0	0	0	0	0	0	19.31	0.66	1.17	730941	0	394613	442845	730941	336328	4843	2133	12481	1654	235182	1218051	21111
513	2015-09-13 03:46:41	0	0	0	0	0	0	19.31	0.66	1.17	730941	0	394613	442845	730941	336328	4843	2133	12481	1654	235182	1218053	21111
514	2015-09-13 03:52:42	0	0	0	0	0	0	19.31	0.66	1.17	730953	0	394625	442845	730953	336328	4843	2133	12481	1654	235182	1218050	21111
515	2015-09-13 03:58:43	0	0	0	0	0	0	19.31	0.66	1.17	730953	0	394625	442845	730953	336328	4843	2133	12481	1654	235182	1218052	21111
516	2015-09-13 04:04:44	0	0	0	0	0	0	19.31	0.66	1.17	730961	0	394633	442845	730961	336328	4843	2133	12481	1654	235182	1218049	21111
517	2015-09-13 04:10:43	0	0	0	0	0	0	19.31	0.66	1.17	730961	0	394633	442845	730961	336328	4843	2133	12481	1654	235182	1218050	21111
518	2015-09-13 04:16:47	0	0	0	0	0	0	19.31	0.66	1.17	730971	0	394640	442845	730971	336331	4843	2133	12481	1654	235182	1218049	21111
519	2015-09-13 04:22:46	0	0	0	0	0	0	19.31	0.66	1.17	730971	0	394640	442845	730971	336331	4843	2133	12481	1654	235182	1218050	21111
520	2015-09-13 04:28:43	0	0	0	0	0	0	19.31	0.66	1.17	730976	0	394645	442845	730976	336331	4843	2133	12481	1654	235182	1218048	21111
521	2015-09-13 04:34:42	0	0	0	0	0	0	19.31	0.66	1.17	730976	0	394645	442845	730976	336331	4843	2133	12481	1654	235182	1218046	21111
522	2015-09-13 04:40:44	0	0	0	0	0	0	19.31	0.66	1.17	730981	0	394650	442845	730981	336331	4843	2133	12481	1654	235182	1218044	21111
523	2015-09-13 04:46:40	0	0	0	0	0	0	19.31	0.66	1.17	730981	0	394650	442845	730981	336331	4843	2133	12481	1654	235182	1218044	21111
524	2015-09-13 04:52:50	0	0	0	0	0	0	19.31	0.66	1.17	730986	0	394655	442845	730986	336331	4843	2133	12481	1654	235182	1218050	21111
525	2015-09-13 04:58:43	0	0	0	0	0	0	19.31	0.66	1.17	730986	0	394655	442845	730986	336331	4843	2133	12481	1654	235182	1218049	21111
526	2015-09-13 05:04:44	0	0	0	0	0	0	19.31	0.66	1.17	730989	0	394658	442845	730989	336331	4843	2133	12481	1654	235182	1218045	21111
527	2015-09-13 05:10:43	0	0	0	0	0	0	19.31	0.66	1.17	730989	0	394658	442845	730989	336331	4843	2133	12481	1654	235182	1218044	21111
528	2015-09-13 05:16:41	0	0	0	0	0	0	19.31	0.66	1.17	730996	0	394663	442845	730996	336333	4843	2133	12481	1654	235182	1218047	21111
529	2015-09-13 05:22:45	0	0	0	0	0	0	19.31	0.66	1.17	730996	0	394663	442845	730996	336333	4843	2133	12481	1654	235182	1218048	21111
530	2015-09-13 05:28:44	0	0	0	0	0	0	19.31	0.66	1.17	731000	0	394667	442845	731000	336333	4843	2133	12481	1654	235182	1218045	21111
531	2015-09-13 05:34:42	0	0	0	0	0	0	19.31	0.66	1.17	731000	0	394667	442845	731000	336333	4843	2133	12481	1654	235182	1218045	21111
532	2015-09-13 05:40:42	0	0	0	0	0	0	19.31	0.66	1.17	731014	0	394679	442845	731014	336335	4843	2133	12481	1654	235182	1218048	21111
533	2015-09-13 05:46:47	0	0	0	0	0	0	19.31	0.66	1.17	731014	0	394679	442845	731014	336335	4843	2133	12481	1654	235182	1218048	21111
534	2015-09-13 05:52:51	0	0	0	0	0	0	19.31	0.66	1.17	731018	0	394682	442845	731018	336336	4843	2133	12481	1654	235182	1218048	21111
535	2015-09-13 05:58:42	0	0	0	0	0	0	19.31	0.66	1.17	731018	0	394682	442845	731018	336336	4843	2133	12481	1654	235182	1218048	21111
536	2015-09-13 06:04:41	0	0	0	0	0	0	19.31	0.66	1.17	731021	0	394685	442845	731021	336336	4843	2133	12481	1654	235182	1218047	21111
537	2015-09-13 06:10:43	0	0	0	0	0	0	19.31	0.66	1.17	731021	0	394685	442845	731021	336336	4843	2133	12481	1654	235182	1218048	21111
538	2015-09-13 06:16:46	0	0	0	0	0	0	19.31	0.66	1.17	731030	0	394694	442845	731030	336336	4843	2133	12481	1654	235182	1218048	21111
539	2015-09-13 06:22:54	0	0	0	0	0	0	19.31	0.66	1.17	731030	0	394694	442845	731030	336336	4843	2133	12481	1654	235182	1218048	21111
540	2015-09-13 06:28:44	0	0	0	0	0	0	19.31	0.66	1.17	731034	0	394697	442845	731034	336337	4844	2133	12481	1654	235182	1218048	21112
541	2015-09-13 06:34:42	0	0	0	0	0	0	19.31	0.66	1.17	731034	0	394697	442845	731034	336337	4844	2133	12481	1654	235182	1218049	21112
542	2015-09-13 06:40:46	0	0	0	0	0	0	19.31	0.66	1.17	731043	0	394706	442845	731043	336337	4844	2133	12482	1654	235182	1218048	21113
543	2015-09-13 06:46:51	0	0	0	0	0	0	19.31	0.66	1.17	731043	0	394706	442845	731043	336337	4844	2133	12482	1654	235182	1218048	21113
544	2015-09-13 06:52:43	0	0	0	0	0	0	19.31	0.66	1.17	731049	0	394712	442845	731049	336337	4844	2133	12482	1654	235182	1218049	21113
545	2015-09-13 06:58:45	0	0	0	0	0	0	19.31	0.66	1.17	731049	0	394712	442845	731049	336337	4844	2133	12482	1654	235182	1218049	21113
546	2015-09-13 07:04:44	0	0	0	0	0	0	19.31	0.66	1.17	731054	0	394717	442845	731054	336337	4844	2133	12482	1654	235182	1218048	21113
547	2015-09-13 07:10:45	0	0	0	0	0	0	19.31	0.66	1.17	731054	0	394717	442845	731054	336337	4844	2133	12482	1654	235182	1218049	21113
548	2015-09-13 07:16:44	0	0	0	0	0	0	19.31	0.66	1.17	731064	0	394725	442845	731064	336339	4844	2133	12482	1654	235182	1218048	21113
549	2015-09-13 07:22:51	0	0	0	0	0	0	19.31	0.66	1.17	731064	0	394725	442845	731064	336339	4844	2133	12482	1654	235182	1218049	21113
550	2015-09-13 07:28:45	0	0	0	0	0	0	19.31	0.66	1.17	731074	0	394735	442845	731074	336339	4844	2133	12483	1654	235182	1218049	21114
551	2015-09-13 07:34:44	0	0	0	0	0	0	19.31	0.66	1.17	731074	0	394735	442845	731074	336339	4844	2133	12483	1654	235182	1218051	21114
552	2015-09-13 07:40:45	0	0	0	0	0	0	19.31	0.66	1.17	731092	0	394753	442845	731092	336339	4844	2133	12483	1654	235182	1218051	21114
553	2015-09-13 07:46:49	0	0	0	0	0	0	19.31	0.66	1.17	731092	0	394753	442845	731092	336339	4844	2133	12483	1654	235182	1218052	21114
554	2015-09-13 07:52:49	0	0	0	0	0	0	19.31	0.66	1.17	731104	0	394763	442845	731104	336341	4844	2133	12483	1654	235182	1218051	21114
555	2015-09-13 07:58:45	0	0	0	0	0	0	19.31	0.66	1.17	731104	0	394763	442845	731104	336341	4844	2133	12483	1654	235182	1218052	21114
556	2015-09-13 08:04:45	0	0	0	0	0	0	19.31	0.66	1.17	731122	0	394780	442845	731122	336342	4844	2133	12483	1654	235182	1218051	21114
557	2015-09-13 08:10:46	0	0	0	0	0	0	19.31	0.66	1.17	731122	0	394780	442845	731122	336342	4844	2133	12483	1654	235182	1218054	21114
558	2015-09-13 08:16:45	0	0	0	0	0	0	19.31	0.66	1.17	731136	0	394794	442845	731136	336342	4844	2133	12484	1654	235182	1218054	21115
559	2015-09-13 08:22:51	0	0	0	0	0	0	19.31	0.66	1.17	731136	0	394794	442845	731136	336342	4844	2133	12484	1654	235182	1218053	21115
560	2015-09-13 08:28:46	0	0	0	0	0	0	19.31	0.66	1.17	731154	0	394812	442845	731154	336342	4844	2133	12485	1654	235182	1218052	21116
561	2015-09-13 08:34:48	0	0	0	0	0	0	19.31	0.66	1.17	731154	0	394812	442845	731154	336342	4844	2133	12485	1654	235182	1218054	21116
562	2015-09-13 08:40:46	0	0	0	0	0	0	19.31	0.66	1.17	731168	0	394826	442845	731168	336342	4844	2133	12485	1654	235182	1218050	21116
563	2015-09-13 08:46:49	0	0	0	0	0	0	19.31	0.66	1.17	731168	0	394826	442845	731168	336342	4844	2133	12485	1654	235182	1218054	21116
564	2015-09-13 08:52:47	0	0	0	0	0	0	19.31	0.66	1.17	731196	0	394853	442845	731196	336343	4845	2133	12485	1654	235182	1218048	21117
565	2015-09-13 08:58:48	0	0	0	0	0	0	19.31	0.66	1.17	731196	0	394853	442845	731196	336343	4845	2133	12485	1654	235182	1218051	21117
566	2015-09-13 09:04:45	0	0	0	0	0	0	19.31	0.66	1.17	731208	0	394864	442845	731208	336344	4845	2133	12485	1654	235182	1218050	21117
567	2015-09-13 09:10:46	0	0	0	0	0	0	19.31	0.66	1.17	731208	0	394864	442845	731208	336344	4845	2133	12485	1654	235182	1218051	21117
568	2015-09-13 09:16:46	0	0	0	0	0	0	19.31	0.66	1.17	731239	0	394894	442845	731239	336345	4845	2133	12485	1654	235182	1218052	21117
569	2015-09-13 09:22:47	0	0	0	0	0	0	19.31	0.66	1.17	731239	0	394894	442845	731239	336345	4845	2133	12485	1654	235182	1218058	21117
570	2015-09-13 09:28:49	0	0	0	0	0	0	19.31	0.66	1.17	731271	0	394925	442845	731271	336346	4845	2133	12485	1654	235182	1218050	21117
571	2015-09-13 09:34:47	0	0	0	0	0	0	19.31	0.66	1.17	731271	0	394925	442845	731271	336346	4845	2133	12485	1654	235182	1218052	21117
572	2015-09-13 09:40:48	0	0	0	0	0	0	19.31	0.66	1.17	731289	0	394939	442845	731289	336350	4845	2133	12485	1654	235182	1218057	21117
573	2015-09-13 09:46:46	0	0	0	0	0	0	19.31	0.66	1.17	731289	0	394939	442845	731289	336350	4845	2133	12485	1654	235182	1218057	21117
574	2015-09-13 09:52:46	0	0	0	0	0	0	19.31	0.66	1.17	731307	0	394957	442845	731307	336350	4845	2133	12485	1654	235182	1218052	21117
575	2015-09-13 09:58:48	0	0	0	0	0	0	19.31	0.66	1.17	731307	0	394957	442845	731307	336350	4845	2133	12485	1654	235182	1218056	21117
576	2015-09-13 10:04:45	0	0	0	0	0	0	19.31	0.66	1.17	731326	0	394973	442845	731326	336353	4845	2133	12485	1654	235182	1218052	21117
577	2015-09-13 10:10:47	0	0	0	0	0	0	19.31	0.66	1.17	731326	0	394973	442845	731326	336353	4845	2133	12485	1654	235182	1218062	21117
578	2015-09-13 10:16:49	0	0	0	0	0	0	19.31	0.66	1.17	731353	0	394997	442845	731353	336356	4845	2133	12486	1654	235182	1218048	21118
579	2015-09-13 10:22:46	0	0	0	0	0	0	19.31	0.66	1.17	731353	0	394997	442845	731353	336356	4845	2133	12486	1654	235182	1218054	21118
580	2015-09-13 10:28:49	0	0	0	0	0	0	19.31	0.66	1.17	731391	0	395030	442845	731391	336361	4845	2133	12486	1654	235182	1218049	21118
581	2015-09-13 10:34:48	0	0	0	0	0	0	19.31	0.66	1.17	731391	0	395030	442845	731391	336361	4845	2133	12486	1654	235182	1218056	21118
582	2015-09-13 10:40:46	0	0	0	0	0	0	19.31	0.66	1.17	731406	0	395043	442845	731406	336363	4845	2133	12486	1654	235182	1218050	21118
583	2015-09-13 10:46:57	0	0	0	0	0	0	19.31	0.66	1.17	731406	0	395043	442845	731406	336363	4845	2133	12486	1654	235182	1218059	21118
584	2015-09-13 10:52:46	0	0	0	0	0	0	19.31	0.66	1.17	731429	0	395064	442845	731429	336365	4845	2133	12486	1654	235182	1218051	21118
585	2015-09-13 10:58:47	0	0	0	0	0	0	19.31	0.66	1.17	731429	0	395064	442845	731429	336365	4845	2133	12486	1654	235182	1218055	21118
586	2015-09-13 11:04:47	0	0	0	0	0	0	19.31	0.66	1.17	731463	0	395094	442845	731463	336369	4845	2133	12486	1654	235182	1218046	21118
587	2015-09-13 11:10:49	0	0	0	0	0	0	19.31	0.66	1.17	731463	0	395094	442845	731463	336369	4845	2133	12486	1654	235182	1218059	21118
588	2015-09-13 11:16:47	0	0	0	0	0	0	19.31	0.66	1.17	731495	0	395124	442845	731495	336371	4845	2133	12486	1654	235182	1218049	21118
589	2015-09-13 11:22:54	0	0	0	0	0	0	19.31	0.66	1.17	731495	0	395124	442845	731495	336371	4845	2133	12486	1654	235182	1218058	21118
590	2015-09-13 11:28:47	0	0	0	0	0	0	19.31	0.66	1.17	731522	0	395144	442845	731522	336378	4845	2133	12488	1654	235182	1218048	21120
591	2015-09-13 11:34:51	0	0	0	0	0	0	19.31	0.66	1.17	731522	0	395144	442845	731522	336378	4845	2133	12488	1654	235182	1218055	21120
592	2015-09-13 11:40:48	0	0	0	0	0	0	19.31	0.66	1.17	731550	0	395166	442845	731550	336384	4845	2133	12488	1654	235200	1218053	21120
593	2015-09-13 11:47:00	0	0	0	0	0	0	19.31	0.66	1.17	731550	0	395166	442845	731550	336384	4845	2133	12488	1654	235200	1218058	21120
594	2015-09-13 11:53:03	0	0	0	0	0	0	19.31	0.66	1.17	731590	0	395202	442845	731590	336388	4845	2133	12488	1654	235200	1218052	21120
595	2015-09-13 11:58:47	0	0	0	0	0	0	19.31	0.66	1.17	731590	0	395202	442845	731590	336388	4845	2133	12488	1654	235200	1218064	21120
596	2015-09-13 12:04:49	0	0	0	0	0	0	19.31	0.66	1.17	731617	0	395224	442845	731617	336393	4845	2133	12489	1654	235200	1218057	21121
597	2015-09-13 12:10:49	0	0	0	0	0	0	19.31	0.66	1.17	731617	0	395224	442845	731617	336393	4845	2133	12489	1654	235200	1218061	21121
598	2015-09-13 12:16:49	0	0	0	0	0	0	19.31	0.66	1.17	731644	0	395250	442845	731644	336394	4845	2133	12490	1654	235200	1218059	21122
599	2015-09-13 12:22:52	0	0	0	0	0	0	19.31	0.66	1.17	731644	0	395250	442845	731644	336394	4845	2133	12490	1654	235200	1218072	21122
600	2015-09-13 12:28:48	0	0	0	0	0	0	19.31	0.66	1.18	731672	0	395273	442845	731672	336399	4846	2133	12493	1654	235200	1218059	21126
601	2015-09-13 12:34:49	0	0	0	0	0	0	19.31	0.66	1.18	731672	0	395273	442845	731672	336399	4846	2133	12493	1654	235200	1218067	21126
602	2015-09-13 12:40:49	0	0	0	0	0	0	19.31	0.66	1.18	731700	0	395298	442845	731700	336402	4846	2133	12493	1654	235200	1218058	21126
603	2015-09-13 12:46:55	0	0	0	0	0	0	19.31	0.66	1.18	731700	0	395298	442845	731700	336402	4846	2133	12493	1654	235200	1218072	21126
604	2015-09-13 12:52:49	0	0	0	0	0	0	19.31	0.66	1.18	731722	0	395316	442845	731722	336406	4846	2133	12493	1654	235200	1218061	21126
605	2015-09-13 12:58:50	0	0	0	0	0	0	19.31	0.66	1.18	731722	0	395316	442845	731722	336406	4846	2133	12493	1654	235200	1218066	21126
606	2015-09-13 13:04:51	0	0	0	0	0	0	19.31	0.66	1.18	731744	0	395335	442845	731744	336409	4846	2133	12493	1654	235200	1218070	21126
607	2015-09-13 13:10:51	0	0	0	0	0	0	19.31	0.66	1.18	731744	0	395335	442845	731744	336409	4846	2133	12493	1654	235200	1218082	21126
608	2015-09-13 13:16:54	0	0	0	0	0	0	19.31	0.66	1.18	731768	0	395356	442972	731768	336412	4846	2133	12493	1654	235200	1218073	21126
609	2015-09-13 13:22:59	0	0	0	0	0	0	19.31	0.66	1.18	731768	0	395356	442972	731768	336412	4846	2133	12493	1654	235200	1218085	21126
610	2015-09-13 13:28:50	0	0	0	0	0	0	19.31	0.66	1.18	731796	0	395380	442972	731796	336416	4846	2133	12495	1654	235200	1218058	21128
611	2015-09-13 13:34:51	0	0	0	0	0	0	19.31	0.66	1.18	731796	0	395380	442972	731796	336416	4846	2133	12495	1654	235200	1218067	21128
612	2015-09-13 13:40:50	0	0	0	0	0	0	19.31	0.66	1.18	731835	0	395401	442972	731835	336424	4846	2133	12495	1654	235200	1218067	21128
613	2015-09-13 13:46:58	0	0	0	0	0	0	19.31	0.66	1.18	731835	0	395401	442972	731835	336424	4846	2133	12495	1654	235200	1218082	21128
614	2015-09-13 13:52:56	0	0	0	0	0	0	19.31	0.66	1.18	731852	0	395427	442972	731852	336425	4846	2133	12495	1654	235200	1218063	21128
615	2015-09-13 13:58:52	0	0	0	0	0	0	19.31	0.66	1.18	731852	0	395427	442972	731852	336425	4846	2133	12495	1654	235200	1218070	21128
