1	2015-09-21 21:52:49	0	0	0	0	0	0	0.37	0.17	0	5242	0	0	4569	5242	5242	9	0	26	3	4560	1226380	0
2	2015-09-21 21:58:48	0	0	0	0	0	0	0.37	0.17	0.02	5242	0	87	4569	5242	5242	9	3	26	3	4560	1226378	41
3	2015-09-21 22:04:48	0	0	0	0	0	0	1.45	0.3	0	24096	0	87	17971	24096	23880	73	3	161	15	17760	1226381	252
4	2015-09-21 22:10:49	0	0	0	0	0	0	1.45	0.3	0.01	24096	0	334	17971	24096	23880	73	6	161	15	17760	1226374	255
5	2015-09-21 22:16:49	0	0	0	0	0	0	1.84	0.34	0.01	31693	0	334	22935	31693	31289	107	6	217	20	22546	1226376	350
6	2015-09-21 22:22:49	0	0	0	0	0	0	1.84	0.34	0.02	31693	0	485	22935	31693	31289	107	7	217	20	22546	1226371	351
7	2015-09-21 22:28:49	0	0	0	0	0	0	2.04	0.34	0.01	36478	0	485	25513	36478	35929	123	7	249	21	25038	1226374	400
8	2015-09-21 22:34:49	0	0	0	0	0	0	2.04	0.34	0.02	36478	0	607	25513	36478	35929	123	9	249	21	25038	1226367	402
9	2015-09-21 22:40:48	0	0	0	0	0	0	2.2	0.36	0.02	40246	0	607	27696	40246	39573	143	9	286	23	27019	1226373	461
10	2015-09-21 22:46:49	0	0	0	0	0	0	2.2	0.36	0.02	40246	0	732	27696	40246	39573	143	12	286	23	27019	1226370	464
11	2015-09-21 22:52:49	0	0	0	0	0	0	2.39	0.35	0.02	43270	0	732	30127	43270	42480	152	12	309	25	29331	1226376	498
12	2015-09-21 22:58:48	0	0	0	0	0	0	2.39	0.35	0.02	43270	0	852	30127	43270	42480	152	12	309	25	29331	1226369	498
13	2015-09-21 23:04:48	0	0	0	0	0	0	2.52	0.35	0.02	45933	0	852	31807	45933	45023	161	12	333	26	30885	1226377	532
14	2015-09-21 23:10:49	0	0	0	0	0	0	2.52	0.35	0.02	45933	0	952	31807	45933	45023	161	13	333	26	30885	1226371	533
15	2015-09-21 23:16:48	0	0	0	0	0	0	2.58	0.36	0.02	47822	0	952	32736	47822	46827	170	13	349	26	31685	1226375	558
16	2015-09-21 23:22:48	0	0	0	0	0	0	2.58	0.36	0.02	47822	0	1029	32736	47822	46827	170	14	349	26	31685	1226369	559
17	2015-09-21 23:28:50	0	0	0	0	0	0	2.67	0.36	0.02	49796	0	1029	33965	49796	48730	179	14	369	26	32804	1226372	588
18	2015-09-21 23:34:48	0	0	0	0	0	0	2.67	0.36	0.02	49796	0	1115	33965	49796	48730	179	15	369	26	32804	1226373	589
19	2015-09-21 23:40:57	0	0	0	0	0	0	2.75	0.36	0.02	51299	0	1115	35065	51299	50157	185	15	379	26	33771	1226382	605
20	2015-09-21 23:46:51	0	0	0	0	0	0	2.75	0.36	0.02	51299	0	1186	35065	51299	50157	185	16	379	26	33771	1226378	606
21	2015-09-21 23:52:49	0	0	0	0	0	0	2.82	0.36	0.02	52870	0	1186	35846	52870	51648	190	16	393	26	34538	1226382	625
22	2015-09-21 23:58:48	0	0	0	0	0	0	2.82	0.36	0.02	52870	0	1261	35846	52870	51648	190	16	393	26	34538	1226374	625
23	2015-09-22 00:04:48	0	0	0	0	0	0	2.89	0.36	0.02	54389	0	1261	36963	54389	53108	194	16	400	26	35443	1226380	636
24	2015-09-22 00:10:55	0	0	0	0	0	0	2.89	0.36	0.02	54389	0	1306	36963	54389	53108	194	16	400	26	35443	1226376	636
25	2015-09-22 00:16:48	0	0	0	0	0	0	2.95	0.35	0.02	55643	0	1306	37839	55643	54313	195	16	408	26	36221	1226381	645
26	2015-09-22 00:22:49	0	0	0	0	0	0	2.95	0.35	0.02	55643	0	1353	37839	55643	54313	195	16	408	26	36221	1226385	645
27	2015-09-22 00:28:49	0	0	0	0	0	0	3.05	0.35	0.02	56782	0	1353	39028	56782	55413	201	16	423	27	37440	1226389	667
28	2015-09-22 00:34:48	0	0	0	0	0	0	3.05	0.35	0.02	56782	0	1384	39028	56782	55413	201	16	423	27	37440	1226384	667
29	2015-09-22 00:40:49	0	0	0	0	0	0	3.11	0.35	0.02	57943	0	1384	39669	57943	56535	202	16	429	27	38093	1226389	674
30	2015-09-22 00:46:49	0	0	0	0	0	0	3.11	0.35	0.03	57943	0	1420	39669	57943	56535	202	16	429	27	38093	1226381	674
31	2015-09-22 00:52:49	0	0	0	0	0	0	3.12	0.35	0.02	58322	0	1420	39848	58322	56902	203	16	433	27	38259	1226391	679
32	2015-09-22 00:58:48	0	0	0	0	0	0	3.12	0.35	0.03	58322	0	1430	39848	58322	56902	203	16	433	27	38259	1226381	679
33	2015-09-22 01:04:49	0	0	0	0	0	0	3.14	0.35	0.02	59039	0	1430	40067	59039	57601	206	16	436	27	38551	1226386	685
34	2015-09-22 01:10:55	0	0	0	0	0	0	3.14	0.35	0.03	59039	0	1441	40067	59039	57601	206	16	436	27	38551	1226389	685
35	2015-09-22 01:16:56	0	0	0	0	0	0	3.18	0.35	0.02	59740	0	1441	40529	59740	58284	210	16	440	27	38968	1226395	693
36	2015-09-22 01:22:49	0	0	0	0	0	0	3.18	0.35	0.03	59740	0	1464	40529	59740	58284	210	16	440	27	38968	1226382	693
37	2015-09-22 01:28:49	0	0	0	0	0	0	3.2	0.35	0.02	60218	0	1464	40826	60218	58743	212	16	445	27	39242	1226385	700
38	2015-09-22 01:34:48	0	0	0	0	0	0	3.2	0.35	0.03	60218	0	1475	40826	60218	58743	212	16	445	27	39242	1226384	700
39	2015-09-22 01:40:57	0	0	0	0	0	0	3.21	0.35	0.03	60464	0	1475	41003	60464	58987	213	16	447	27	39405	1226389	703
40	2015-09-22 01:46:48	0	0	0	0	0	0	3.21	0.35	0.03	60464	0	1485	41003	60464	58987	213	16	447	27	39405	1226382	703
41	2015-09-22 01:52:49	0	0	0	0	0	0	3.23	0.35	0.03	60782	0	1485	41250	60782	59292	215	16	448	27	39633	1226382	706
42	2015-09-22 01:58:48	0	0	0	0	0	0	3.23	0.35	0.03	60782	0	1494	41250	60782	59292	215	16	448	27	39633	1226377	706
43	2015-09-22 02:04:50	0	0	0	0	0	0	3.25	0.35	0.03	61095	0	1494	41563	61095	59598	216	16	448	27	39890	1227075	707
44	2015-09-22 02:10:51	0	0	0	0	0	0	3.25	0.35	0.03	61095	0	1501	41563	61095	59598	216	16	448	27	39890	1227077	707
45	2015-09-22 02:16:48	0	0	0	0	0	0	3.27	0.35	0.03	61369	0	1501	41823	61369	59865	217	16	449	27	40162	1227077	709
46	2015-09-22 02:22:48	0	0	0	0	0	0	3.27	0.35	0.03	61369	0	1508	41823	61369	59865	217	16	449	27	40162	1227076	709
47	2015-09-22 02:28:48	0	0	0	0	0	0	3.29	0.36	0.03	61559	0	1508	42044	61559	60050	220	16	449	27	40366	1227076	712
48	2015-09-22 02:34:49	0	0	0	0	0	0	3.29	0.36	0.03	61559	0	1510	42044	61559	60050	220	16	449	27	40366	1227076	712
49	2015-09-22 02:40:54	0	0	0	0	0	0	3.3	0.36	0.03	61775	0	1510	42289	61775	60262	220	16	451	27	40535	1227077	714
50	2015-09-22 02:46:48	0	0	0	0	0	0	3.3	0.36	0.03	61775	0	1516	42289	61775	60262	220	16	451	27	40535	1227077	714
51	2015-09-22 02:52:48	0	0	0	0	0	0	3.31	0.36	0.03	62012	0	1516	42326	62012	60490	222	16	452	27	40569	1227080	717
52	2015-09-22 02:58:48	0	0	0	0	0	0	3.31	0.36	0.03	62012	0	1527	42326	62012	60490	222	16	452	27	40569	1227078	717
53	2015-09-22 03:04:48	0	0	0	0	0	0	3.31	0.36	0.03	62211	0	1527	42435	62211	60683	222	16	452	27	40652	1227081	717
54	2015-09-22 03:10:51	0	0	0	0	0	0	3.31	0.36	0.03	62211	0	1531	42435	62211	60683	222	16	452	27	40652	1227076	717
55	2015-09-22 03:16:54	0	0	0	0	0	0	3.31	0.36	0.03	62375	0	1531	42454	62375	60839	223	16	453	27	40669	1227077	719
56	2015-09-22 03:22:48	0	0	0	0	0	0	3.31	0.36	0.03	62375	0	1539	42454	62375	60839	223	16	453	27	40669	1227076	719
57	2015-09-22 03:28:49	0	0	0	0	0	0	3.34	0.36	0.03	62539	0	1539	42703	62539	61000	223	16	454	27	40963	1227076	720
58	2015-09-22 03:34:48	0	0	0	0	0	0	3.34	0.36	0.03	62539	0	1541	42703	62539	61000	223	16	454	27	40963	1227076	720
59	2015-09-22 03:40:51	0	0	0	0	0	0	3.34	0.36	0.03	62681	0	1541	42732	62681	61136	224	16	455	27	40980	1227076	722
60	2015-09-22 03:46:56	0	0	0	0	0	0	3.34	0.36	0.03	62681	0	1550	42732	62681	61136	224	16	455	27	40980	1227076	722
61	2015-09-22 03:52:49	0	0	0	0	0	0	3.35	0.36	0.03	62772	0	1550	42838	62772	61221	225	16	455	27	41078	1227076	723
62	2015-09-22 03:58:48	0	0	0	0	0	0	3.35	0.36	0.03	62772	0	1554	42838	62772	61221	225	16	455	27	41078	1227077	723
63	2015-09-22 04:04:48	0	0	0	0	0	0	3.35	0.36	0.03	62893	0	1554	42919	62893	61338	226	16	455	27	41152	1227077	724
64	2015-09-22 04:10:54	0	0	0	0	0	0	3.35	0.36	0.03	62893	0	1556	42919	62893	61338	226	16	455	27	41152	1227075	724
65	2015-09-22 04:16:48	0	0	0	0	0	0	3.36	0.36	0.03	63005	0	1556	42938	63005	61447	226	16	455	27	41170	1227076	724
66	2015-09-22 04:22:48	0	0	0	0	0	0	3.36	0.36	0.03	63005	0	1562	42938	63005	61447	226	16	455	27	41170	1227074	724
67	2015-09-22 04:28:49	0	0	0	0	0	0	3.36	0.36	0.03	63105	0	1562	43031	63105	61542	227	16	455	27	41256	1227075	725
68	2015-09-22 04:34:48	0	0	0	0	0	0	3.36	0.36	0.03	63105	0	1567	43031	63105	61542	227	16	455	27	41256	1227075	725
69	2015-09-22 04:40:50	0	0	0	0	0	0	3.36	0.36	0.03	63197	0	1567	43136	63197	61629	227	16	455	27	41291	1227075	725
70	2015-09-22 04:46:57	0	0	0	0	0	0	3.36	0.36	0.03	63197	0	1570	43136	63197	61629	227	16	455	27	41291	1227075	725
71	2015-09-22 04:52:48	0	0	0	0	0	0	3.37	0.36	0.03	63308	0	1570	43242	63308	61734	227	16	456	27	41388	1227075	726
72	2015-09-22 04:58:48	0	0	0	0	0	0	3.37	0.36	0.03	63308	0	1575	43242	63308	61734	227	16	456	27	41388	1227075	726
73	2015-09-22 05:04:48	0	0	0	0	0	0	3.37	0.36	0.03	63418	0	1575	43261	63418	61843	227	16	458	27	41404	1227074	728
74	2015-09-22 05:10:52	0	0	0	0	0	0	3.37	0.36	0.03	63418	0	1576	43261	63418	61843	227	16	458	27	41404	1227076	728
75	2015-09-22 05:16:48	0	0	0	0	0	0	3.38	0.36	0.03	63559	0	1576	43350	63559	61981	228	16	458	28	41487	1227077	730
76	2015-09-22 05:22:50	0	0	0	0	0	0	3.38	0.36	0.03	63559	0	1583	43350	63559	61981	228	16	458	28	41487	1227076	730
77	2015-09-22 05:28:48	0	0	0	0	0	0	3.39	0.36	0.03	63711	0	1583	43407	63711	62124	229	16	459	28	41539	1227077	732
78	2015-09-22 05:34:48	0	0	0	0	0	0	3.39	0.36	0.03	63711	0	1587	43407	63711	62124	229	16	459	28	41539	1227076	732
79	2015-09-22 05:40:55	0	0	0	0	0	0	3.39	0.36	0.03	63878	0	1587	43422	63878	62281	229	16	460	28	41552	1227077	733
80	2015-09-22 05:46:48	0	0	0	0	0	0	3.39	0.36	0.03	63878	0	1599	43422	63878	62281	229	16	460	28	41552	1227074	733
81	2015-09-22 05:52:49	0	0	0	0	0	0	3.4	0.36	0.03	64062	0	1599	43659	64062	62458	230	16	462	28	41769	1227074	736
82	2015-09-22 05:58:48	0	0	0	0	0	0	3.4	0.36	0.03	64062	0	1608	43659	64062	62458	230	16	462	28	41769	1227075	736
83	2015-09-22 06:04:48	0	0	0	0	0	0	3.41	0.36	0.03	64253	0	1608	43777	64253	62639	231	16	463	28	41878	1227076	738
84	2015-09-22 06:10:48	0	0	0	0	0	0	3.41	0.36	0.03	64253	0	1621	43777	64253	62639	231	16	463	28	41878	1227075	738
85	2015-09-22 06:16:48	0	0	0	0	0	0	3.41	0.36	0.03	64497	0	1621	43800	64497	62872	233	16	464	28	41898	1227074	741
86	2015-09-22 06:22:48	0	0	0	0	0	0	3.41	0.36	0.03	64497	0	1632	43800	64497	62872	233	16	464	28	41898	1227074	741
87	2015-09-22 06:28:49	0	0	0	0	0	0	3.42	0.36	0.03	64750	0	1632	43919	64750	63115	234	16	466	28	42012	1227076	744
88	2015-09-22 06:34:48	0	0	0	0	0	0	3.42	0.36	0.03	64750	0	1642	43919	64750	63115	234	16	466	28	42012	1227075	744
89	2015-09-22 06:40:56	0	0	0	0	0	0	3.44	0.36	0.03	65086	0	1642	44139	65086	63433	234	16	469	28	42163	1227075	747
90	2015-09-22 06:46:48	0	0	0	0	0	0	3.44	0.36	0.03	65086	0	1653	44139	65086	63433	234	16	469	28	42163	1227075	747
91	2015-09-22 06:52:56	0	0	0	0	0	0	3.45	0.36	0.03	65376	0	1653	44366	65376	63707	236	16	471	28	42370	1227075	751
92	2015-09-22 06:58:55	0	0	0	0	0	0	3.45	0.36	0.03	65376	0	1677	44366	65376	63707	236	16	471	28	42370	1227075	751
93	2015-09-22 07:04:49	0	0	0	0	0	0	3.46	0.36	0.03	65526	0	1677	44443	65526	63849	236	16	474	28	42430	1227080	754
94	2015-09-22 07:10:51	0	0	0	0	0	0	3.46	0.36	0.03	65526	0	1689	44443	65526	63849	236	16	474	28	42430	1227076	754
95	2015-09-22 07:16:49	0	0	0	0	0	0	3.48	0.36	0.03	66141	0	1689	44810	66141	64436	240	16	478	28	42746	1227077	762
96	2015-09-22 07:22:59	0	0	0	0	0	0	3.48	0.36	0.03	66141	0	1705	44810	66141	64436	240	16	478	28	42746	1227072	762
97	2015-09-22 07:28:49	0	0	0	0	0	0	3.5	0.36	0.03	66373	0	1705	44967	66373	64657	240	16	478	28	42888	1227077	762
98	2015-09-22 07:34:49	0	0	0	0	0	0	3.5	0.36	0.03	66373	0	1733	44967	66373	64657	240	16	478	28	42888	1227077	762
99	2015-09-22 07:40:50	0	0	0	0	0	0	3.51	0.36	0.03	66838	0	1733	45206	66838	65092	243	16	478	28	43120	1227079	765
100	2015-09-22 07:46:49	0	0	0	0	0	0	3.51	0.36	0.03	66838	0	1756	45206	66838	65092	243	16	478	28	43120	1227078	765
101	2015-09-22 07:52:52	0	0	0	0	0	0	3.54	0.37	0.03	67372	0	1756	45541	67372	65602	247	16	485	30	43430	1227080	778
102	2015-09-22 07:58:49	0	0	0	0	0	0	3.54	0.37	0.03	67372	0	1788	45541	67372	65602	247	16	485	30	43430	1227073	778
103	2015-09-22 08:04:49	0	0	0	0	0	0	3.56	0.37	0.03	68029	0	1788	45908	68029	66234	251	16	489	30	43727	1227070	786
104	2015-09-22 08:10:58	0	0	0	0	0	0	3.56	0.37	0.03	68029	0	1803	45908	68029	66234	251	16	489	30	43727	1227073	786
105	2015-09-22 08:16:49	0	0	0	0	0	0	3.59	0.37	0.03	68638	0	1803	46195	68638	66820	253	16	493	30	44027	1227073	792
106	2015-09-22 08:22:50	0	0	0	0	0	0	3.59	0.37	0.03	68638	0	1828	46195	68638	66820	253	16	493	30	44027	1227076	792
107	2015-09-22 08:28:49	0	0	0	0	0	0	3.62	0.37	0.03	69260	0	1828	46620	69260	67420	258	16	498	30	44413	1227081	802
108	2015-09-22 08:34:50	0	0	0	0	0	0	3.62	0.37	0.03	69260	0	1851	46620	69260	67420	258	16	498	30	44413	1227076	802
109	2015-09-22 08:40:50	0	0	0	0	0	0	3.66	0.37	0.03	70004	0	1851	47074	70004	68129	262	16	505	30	44903	1227080	813
110	2015-09-22 08:46:50	0	0	0	0	0	0	3.66	0.37	0.03	70004	0	1893	47074	70004	68129	262	16	505	30	44903	1227074	813
111	2015-09-22 08:52:49	0	0	0	0	0	0	3.69	0.37	0.03	70672	0	1893	47363	70672	68768	265	16	509	30	45250	1227075	820
112	2015-09-22 08:58:50	0	0	0	0	0	0	3.69	0.37	0.03	70672	0	1921	47363	70672	68768	265	17	509	30	45250	1227073	821
113	2015-09-22 09:04:50	0	0	0	0	0	0	3.7	0.38	0.03	71296	0	1921	47556	71296	69362	270	17	513	30	45416	1227075	830
114	2015-09-22 09:10:50	0	0	0	0	0	0	3.7	0.38	0.03	71296	0	1950	47556	71296	69362	270	17	513	30	45416	1227074	830
115	2015-09-22 09:16:51	0	0	0	0	0	0	3.71	0.38	0.03	71874	0	1950	47756	71874	69906	270	17	522	31	45555	1227075	840
116	2015-09-22 09:22:51	0	0	0	0	0	0	3.71	0.38	0.03	71874	0	1989	47756	71874	69906	270	17	522	31	45555	1227073	840
117	2015-09-22 09:28:51	0	0	0	0	0	0	3.75	0.38	0.03	72513	0	1989	48344	72513	70507	274	17	526	32	46063	1227082	849
118	2015-09-22 09:34:51	0	0	0	0	0	0	3.75	0.38	0.03	72513	0	2023	48344	72513	70507	274	17	526	32	46063	1227075	849
119	2015-09-22 09:40:54	0	0	0	0	0	0	3.77	0.38	0.03	73100	0	2023	48545	73100	71053	276	17	529	32	46246	1227077	854
120	2015-09-22 09:46:53	0	0	0	0	0	0	3.77	0.38	0.03	73100	0	2062	48545	73100	71053	276	17	529	32	46246	1227075	854
121	2015-09-22 09:52:50	0	0	0	0	0	0	3.79	0.38	0.03	73694	0	2062	48872	73694	71615	281	17	535	32	46499	1227077	865
122	2015-09-22 09:58:57	0	0	0	0	0	0	3.79	0.38	0.03	73694	0	2093	48872	73694	71615	281	17	535	32	46499	1227070	865
123	2015-09-22 10:05:01	0	0	0	0	0	0	3.81	0.38	0.03	74315	0	2093	49167	74315	72203	284	17	538	32	46749	1227076	871
124	2015-09-22 10:11:03	0	0	0	0	0	0	3.81	0.38	0.03	74315	0	2112	49167	74315	72203	284	17	538	32	46749	1227075	871
125	2015-09-22 10:16:51	0	0	0	0	0	0	3.81	0.38	0.03	74786	0	2112	49387	74786	72430	285	17	538	33	46765	1227076	873
126	2015-09-22 10:22:51	0	0	0	0	0	0	3.81	0.38	0.03	74786	0	2159	49387	74786	72430	285	17	538	33	46765	1227077	873
127	2015-09-22 10:28:51	0	0	0	0	0	0	3.86	0.38	0.03	75272	0	2159	49945	75272	73104	286	17	540	33	47382	1227083	876
128	2015-09-22 10:34:51	0	0	0	0	0	0	3.86	0.38	0.03	75272	0	2181	49945	75272	73104	286	17	540	33	47382	1227072	876
129	2015-09-22 10:40:53	0	0	0	0	0	0	3.89	0.38	0.03	75738	0	2181	50318	75738	73547	286	17	541	34	47676	1227072	878
130	2015-09-22 10:46:51	0	0	0	0	0	0	3.89	0.38	0.03	75738	0	2191	50318	75738	73547	286	17	541	34	47676	1227076	878
131	2015-09-22 10:52:51	0	0	0	0	0	0	3.89	0.38	0.03	76007	0	2191	50397	76007	73804	287	17	546	34	47747	1227077	884
132	2015-09-22 10:58:52	0	0	0	0	0	0	3.89	0.38	0.03	76007	0	2215	50397	76007	73804	287	17	546	34	47747	1227079	884
133	2015-09-22 11:04:52	0	0	0	0	0	0	3.93	0.38	0.03	76485	0	2215	50996	76485	74259	287	17	551	34	48284	1227083	889
134	2015-09-22 11:11:03	0	0	0	0	0	0	3.93	0.38	0.03	76485	0	2234	50996	76485	74259	287	17	551	34	48284	1227078	889
135	2015-09-22 11:16:53	0	0	0	0	0	0	3.96	0.37	0.03	76957	0	2234	51360	76957	74707	288	17	554	34	48580	1227085	893
136	2015-09-22 11:22:52	0	0	0	0	0	0	3.96	0.37	0.03	76957	0	2262	51360	76957	74707	288	18	554	34	48580	1227072	894
137	2015-09-22 11:28:52	0	0	0	0	0	0	3.98	0.37	0.03	77459	0	2262	51591	77459	75182	289	18	560	34	48800	1227077	901
138	2015-09-22 11:34:52	0	0	0	0	0	0	3.98	0.37	0.03	77459	0	2294	51591	77459	75182	289	18	560	34	48800	1227075	901
139	2015-09-22 11:40:53	0	0	0	0	0	0	3.98	0.37	0.03	77961	0	2294	51695	77961	75650	291	18	561	35	48892	1227075	905
140	2015-09-22 11:46:54	0	0	0	0	0	0	3.98	0.37	0.03	77961	0	2324	51695	77961	75650	291	18	561	35	48892	1227066	905
141	2015-09-22 11:52:56	0	0	0	0	0	0	4	0.37	0.03	78362	0	2324	51764	78362	76026	292	18	562	35	49122	1227065	907
142	2015-09-22 11:58:54	0	0	0	0	0	0	4	0.37	0.03	78362	0	2343	51764	78362	76026	292	18	562	35	49122	1227065	907
143	2015-09-22 12:04:53	0	0	0	0	0	0	4.01	0.37	0.03	78747	0	2343	52016	78747	76391	295	18	563	36	49231	1227064	912
144	2015-09-22 12:10:57	0	0	0	0	0	0	4.01	0.37	0.03	78747	0	2365	52016	78747	76391	295	18	563	36	49231	1227070	912
145	2015-09-22 12:16:54	0	0	0	0	0	0	4.02	0.37	0.03	78956	0	2365	52121	78956	76591	295	18	565	36	49325	1227071	914
146	2015-09-22 12:22:55	0	0	0	0	0	0	4.02	0.37	0.03	78956	0	2381	52121	78956	76591	295	18	565	36	49325	1227084	914
147	2015-09-22 12:28:54	0	0	0	0	0	0	4.03	0.37	0.03	79357	0	2381	52199	79357	76976	295	18	567	36	49394	1227086	916
148	2015-09-22 12:34:55	0	0	0	0	0	0	4.03	0.37	0.03	79357	0	2389	52199	79357	76976	295	18	567	36	49394	1227072	916
149	2015-09-22 12:40:55	0	0	0	0	0	0	4.05	0.37	0.03	79896	0	2389	52615	79896	77496	296	18	568	36	49696	1227077	918
150	2015-09-22 12:46:54	0	0	0	0	0	0	4.05	0.37	0.03	79896	0	2400	52615	79896	77496	296	18	568	36	49696	1227077	918
151	2015-09-22 12:52:55	0	0	0	0	0	0	4.08	0.37	0.03	80123	0	2400	52870	80123	77717	298	18	572	36	50049	1227078	924
152	2015-09-22 12:58:55	0	0	0	0	0	0	4.08	0.37	0.03	80123	0	2414	52870	80123	77717	298	18	572	36	50049	1227078	924
153	2015-09-22 13:04:55	0	0	0	0	0	0	4.09	0.37	0.03	80504	0	2414	53135	80504	78082	300	18	574	36	50211	1227083	928
154	2015-09-22 13:10:57	0	0	0	0	0	0	4.09	0.37	0.03	80504	0	2435	53135	80504	78082	300	18	574	36	50211	1227080	928
155	2015-09-22 13:16:58	0	0	0	0	0	0	4.11	0.37	0.03	80854	0	2435	53420	80854	78404	303	18	575	36	50439	1227082	932
156	2015-09-22 13:22:56	0	0	0	0	0	0	4.11	0.37	0.03	80854	0	2458	53420	80854	78404	303	18	575	36	50439	1227078	932
157	2015-09-22 13:34:58	0	0	0	0	0	0	4.13	0.37	0.03	81390	0	2475	53605	81390	78915	304	19	577	36	50733	1227080	936
158	2015-09-22 13:41:00	0	0	0	0	0	0	4.13	0.37	0.03	81390	0	2475	53937	81390	78915	304	19	581	36	50733	1227086	940
159	2015-09-22 13:46:56	0	0	0	0	0	0	4.14	0.37	0.03	81677	0	2488	53937	81677	79189	305	19	581	36	50853	1227087	941
160	2015-09-22 13:52:57	0	0	0	0	0	0	4.14	0.37	0.03	81677	0	2488	54053	81677	79189	305	19	581	36	50853	1227090	941
161	2015-09-22 13:59:41	0	0	0	0	0	0	4.16	0.37	0.03	82211	0	2520	54053	82211	79691	308	19	581	36	51057	1227077	944
162	2015-09-22 14:05:17	0	0	0	0	0	0	4.16	0.37	0.03	82211	0	2520	54414	82211	79691	308	19	582	36	51057	1227082	945
163	2015-09-22 14:11:26	0	0	0	0	0	0	4.19	0.38	0.03	82546	0	2538	54414	82546	80008	310	19	582	36	51474	1227074	947
164	2015-09-22 14:17:04	0	0	0	0	0	0	4.19	0.38	0.03	82546	0	2538	54830	82546	80008	310	19	583	36	51474	1227076	948
165	2015-09-22 14:22:55	0	0	0	0	0	0	4.2	0.37	0.03	82742	0	2544	54830	82742	80198	310	19	583	36	51529	1227075	948
166	2015-09-22 14:28:56	0	0	0	0	0	0	4.2	0.37	0.03	82742	0	2544	54865	82742	80198	310	19	585	36	51529	1227080	950
167	2015-09-22 14:34:56	0	0	0	0	0	0	4.21	0.38	0.03	83119	0	2562	54865	83119	80557	315	19	585	36	51700	1227074	955
168	2015-09-22 14:40:56	0	0	0	0	0	0	4.21	0.38	0.03	83119	0	2562	55271	83119	80557	315	19	586	36	51700	1227078	956
169	2015-09-22 14:46:58	0	0	0	0	0	0	4.25	0.38	0.03	83594	0	2580	55271	83594	81014	316	19	586	36	52188	1227081	957
170	2015-09-22 14:52:57	0	0	0	0	0	0	4.25	0.38	0.03	83594	0	2580	55688	83594	81014	316	19	590	36	52188	1227087	961
171	2015-09-22 14:58:57	0	0	0	0	0	0	4.26	0.38	0.03	83795	0	2589	55688	83795	81206	316	19	590	36	52216	1227078	961
172	2015-09-22 15:05:01	0	0	0	0	0	0	4.26	0.38	0.03	83795	0	2589	55805	83795	81206	316	19	590	36	52216	1227087	961
173	2015-09-22 15:11:04	0	0	0	0	0	0	4.27	0.38	0.03	84173	0	2599	55805	84173	81574	318	19	590	36	52357	1227082	963
174	2015-09-22 15:16:59	0	0	0	0	0	0	4.27	0.38	0.03	84173	0	2599	56108	84173	81574	318	19	593	36	52357	1227089	966
175	2015-09-22 15:23:01	0	0	0	0	0	0	4.29	0.38	0.03	84489	0	2621	56108	84489	81868	320	19	593	36	52599	1227089	968
176	2015-09-22 15:28:59	0	0	0	0	0	0	4.29	0.38	0.03	84489	0	2621	56124	84489	81868	320	19	593	36	52599	1227088	968
177	2015-09-22 15:35:05	0	0	0	0	0	0	4.29	0.38	0.03	84785	0	2637	56124	84785	82148	322	20	593	36	52642	1227087	971
178	2015-09-22 15:40:56	0	0	0	0	0	0	4.29	0.38	0.03	84785	0	2637	56359	84785	82148	322	20	594	36	52642	1227093	972
179	2015-09-22 15:46:56	0	0	0	0	0	0	4.31	0.38	0.03	85100	0	2658	56359	85100	82442	322	20	594	36	52840	1227088	972
180	2015-09-22 15:53:02	0	0	0	0	0	0	4.31	0.38	0.03	85100	0	2658	56783	85100	82442	322	20	597	36	52840	1227096	975
181	2015-09-22 16:00:22	0	0	0	0	0	0	4.32	0.38	0.03	85453	0	2672	56783	85453	82781	322	20	597	36	53046	1227079	975
182	2015-09-22 16:05:15	0	0	0	0	0	0	4.32	0.38	0.03	85453	0	2672	56985	85453	82781	322	20	598	36	53046	1227082	976
183	2015-09-22 16:10:58	0	0	0	0	0	0	4.34	0.38	0.03	85760	0	2685	56985	85760	83075	324	20	598	36	53215	1227084	978
184	2015-09-22 16:16:57	0	0	0	0	0	0	4.34	0.38	0.03	85760	0	2685	57166	85760	83075	324	20	598	36	53215	1227089	978
185	2015-09-22 16:22:57	0	0	0	0	0	0	4.34	0.38	0.03	86002	0	2697	57166	86002	83305	326	20	598	36	53281	1227087	980
186	2015-09-22 16:28:57	0	0	0	0	0	0	4.34	0.38	0.03	86002	0	2697	57264	86002	83305	326	20	599	36	53281	1227093	981
187	2015-09-22 16:34:57	0	0	0	0	0	0	4.36	0.38	0.03	86355	0	2713	57264	86355	83642	329	20	599	36	53465	1227088	984
188	2015-09-22 16:40:57	0	0	0	0	0	0	4.36	0.38	0.03	86355	0	2713	57434	86355	83642	329	20	601	36	53465	1227093	986
189	2015-09-22 16:46:58	0	0	0	0	0	0	4.36	0.38	0.03	86482	0	2719	57434	86482	83763	329	20	601	36	53505	1227084	986
190	2015-09-22 16:53:08	0	0	0	0	0	0	4.36	0.38	0.03	86482	0	2719	57553	86482	83763	329	20	602	36	53505	1227088	987
191	2015-09-22 16:58:59	0	0	0	0	0	0	4.37	0.38	0.03	86733	0	2734	57553	86733	83999	331	21	602	36	53572	1227086	990
192	2015-09-22 17:04:59	0	0	0	0	0	0	4.37	0.38	0.03	86733	0	2734	57711	86733	83999	331	21	605	36	53572	1227093	993
193	2015-09-22 17:10:58	0	0	0	0	0	0	4.37	0.38	0.03	86955	0	2747	57711	86955	84208	334	21	605	36	53631	1227083	996
194	2015-09-22 17:17:00	0	0	0	0	0	0	4.37	0.38	0.03	86955	0	2747	57746	86955	84208	334	21	605	36	53631	1227089	996
195	2015-09-22 17:23:30	0	0	0	0	0	0	4.37	0.38	0.03	87192	0	2752	57746	87192	84440	335	21	605	36	53672	1227084	997
196	2015-09-22 17:28:59	0	0	0	0	0	0	4.37	0.38	0.03	87192	0	2752	57909	87192	84440	335	21	608	36	53672	1227092	1000
197	2015-09-22 17:34:58	0	0	0	0	0	0	4.38	0.38	0.03	87439	0	2766	57909	87439	84673	335	21	608	36	53802	1227084	1000
198	2015-09-22 17:40:58	0	0	0	0	0	0	4.38	0.38	0.03	87439	0	2766	57909	87439	84673	335	21	609	36	53802	1227089	1001
199	2015-09-22 17:46:59	0	0	0	0	0	0	4.38	0.38	0.03	87656	0	2769	57909	87656	84887	335	21	609	36	53802	1227088	1001
200	2015-09-22 17:53:00	0	0	0	0	0	0	4.38	0.38	0.03	87656	0	2769	57974	87656	84887	335	21	611	36	53802	1227094	1003
201	2015-09-22 17:58:58	0	0	0	0	0	0	4.4	0.38	0.03	87934	0	2792	57974	87934	85142	336	21	611	36	54035	1227088	1004
202	2015-09-22 18:04:59	0	0	0	0	0	0	4.4	0.38	0.03	87934	0	2792	58275	87934	85142	336	21	612	36	54035	1227097	1005
203	2015-09-22 18:10:59	0	0	0	0	0	0	4.42	0.39	0.03	88166	0	2803	58275	88166	85363	340	22	612	36	54235	1227086	1010
204	2015-09-22 18:16:58	0	0	0	0	0	0	4.42	0.39	0.03	88166	0	2803	58471	88166	85363	340	22	614	36	54235	1227092	1012
205	2015-09-22 18:23:00	0	0	0	0	0	0	4.43	0.39	0.03	88415	0	2821	58471	88415	85594	342	22	614	36	54369	1227083	1014
206	2015-09-22 18:28:59	0	0	0	0	0	0	4.43	0.39	0.03	88415	0	2821	58618	88415	85594	342	22	614	36	54369	1227091	1014
207	2015-09-22 18:35:03	0	0	0	0	0	0	4.43	0.39	0.03	88633	0	2831	58618	88633	85802	343	22	614	36	54398	1227081	1015
208	2015-09-22 18:41:04	0	0	0	0	0	0	4.43	0.39	0.03	88633	0	2831	58672	88633	85802	343	22	618	36	54398	1227082	1019
209	2015-09-22 18:47:08	0	0	0	0	0	0	4.44	0.39	0.03	88859	0	2840	58672	88859	86019	343	22	618	36	54444	1227079	1019
210	2015-09-22 18:53:04	0	0	0	0	0	0	4.44	0.39	0.03	88859	0	2840	58672	88859	86019	343	22	620	36	54444	1227078	1021
211	2015-09-22 18:59:03	0	0	0	0	0	0	4.44	0.39	0.03	89031	0	2847	58672	89031	86184	344	22	620	36	54475	1227076	1022
212	2015-09-22 19:05:20	0	0	0	0	0	0	4.44	0.39	0.03	89031	0	2847	58859	89031	86184	344	22	620	36	54475	1227077	1022
213	2015-09-23 09:34:50	0	0	0	0	0	0	4.73	0.38	0.03	94390	0	3176	63333	94390	91214	362	23	648	36	58071	1227865	1069
214	2015-09-23 09:40:48	0	0	0	0	0	0	4.73	0.38	0.03	94390	0	3176	63333	94390	91214	362	23	648	36	58071	1227867	1069
215	2015-09-23 09:46:49	0	0	0	0	0	0	4.73	0.38	0.03	94433	0	3177	63333	94433	91256	362	23	649	36	58071	1227869	1070
216	2015-09-23 09:52:49	0	0	0	0	0	0	4.73	0.38	0.03	94433	0	3177	63333	94433	91256	362	23	649	36	58071	1227870	1070
217	2015-09-23 09:58:48	0	0	0	0	0	0	4.73	0.38	0.03	94478	0	3178	63410	94478	91300	362	23	649	36	58136	1227871	1070
218	2015-09-23 10:04:46	0	0	0	0	0	0	4.73	0.38	0.03	94478	0	3178	63410	94478	91300	362	23	649	36	58136	1227871	1070
219	2015-09-23 10:10:47	0	0	0	0	0	0	4.73	0.38	0.03	94501	0	3178	63410	94501	91323	362	23	650	36	58136	1227869	1071
220	2015-09-23 10:16:47	0	0	0	0	0	0	4.73	0.38	0.03	94501	0	3178	63410	94501	91323	362	23	650	36	58136	1227880	1071
221	2015-09-23 10:22:48	0	0	0	0	0	0	4.73	0.38	0.03	94524	0	3179	63410	94524	91345	362	23	651	36	58136	1227864	1072
222	2015-09-23 10:28:49	0	0	0	0	0	0	4.73	0.38	0.03	94524	0	3179	63410	94524	91345	362	23	651	36	58136	1227869	1072
223	2015-09-23 10:34:49	0	0	0	0	0	0	4.75	0.38	0.03	94548	0	3180	63535	94548	91368	362	24	651	37	58272	1227867	1074
224	2015-09-23 10:40:48	0	0	0	0	0	0	4.75	0.38	0.03	94548	0	3180	63535	94548	91368	362	24	651	37	58272	1227872	1074
225	2015-09-23 10:46:48	0	0	0	0	0	0	4.75	0.38	0.03	94566	0	3181	63535	94566	91385	362	24	651	37	58272	1227869	1074
226	2015-09-23 10:52:49	0	0	0	0	0	0	4.75	0.38	0.03	94566	0	3181	63535	94566	91385	362	24	651	37	58272	1227873	1074
227	2015-09-23 10:58:48	0	0	0	0	0	0	4.75	0.38	0.03	94587	0	3182	63535	94587	91405	362	24	651	37	58272	1227867	1074
228	2015-09-23 11:04:48	0	0	0	0	0	0	4.75	0.38	0.03	94587	0	3182	63535	94587	91405	362	24	651	37	58272	1227875	1074
229	2015-09-23 11:10:49	0	0	0	0	0	0	4.75	0.38	0.03	94607	0	3183	63535	94607	91424	362	24	651	37	58272	1227867	1074
230	2015-09-23 11:16:49	0	0	0	0	0	0	4.75	0.38	0.03	94607	0	3183	63535	94607	91424	362	24	651	37	58272	1227869	1074
231	2015-09-23 11:22:52	0	0	0	0	0	0	4.75	0.38	0.03	94623	0	3183	63535	94623	91440	362	24	651	37	58272	1227870	1074
232	2015-09-23 11:28:49	0	0	0	0	0	0	4.75	0.38	0.03	94623	0	3183	63535	94623	91440	362	24	651	37	58272	1227873	1074
233	2015-09-23 11:34:50	0	0	0	0	0	0	4.75	0.38	0.03	94640	0	3184	63535	94640	91456	362	24	652	37	58272	1227869	1075
234	2015-09-23 11:40:52	0	0	0	0	0	0	4.75	0.38	0.03	94640	0	3184	63535	94640	91456	362	24	652	37	58272	1227877	1075
235	2015-09-23 11:47:06	0	0	0	0	0	0	4.75	0.38	0.03	94652	0	3184	63535	94652	91468	362	24	652	37	58272	1227869	1075
236	2015-09-23 11:52:55	0	0	0	0	0	0	4.75	0.38	0.03	94652	0	3184	63535	94652	91468	362	24	652	37	58272	1227878	1075
237	2015-09-23 11:58:59	0	0	0	0	0	0	4.75	0.38	0.03	94667	0	3185	63535	94667	91482	362	24	652	37	58272	1227865	1075
238	2015-09-23 12:04:57	0	0	0	0	0	0	4.75	0.38	0.03	94667	0	3185	63535	94667	91482	362	24	652	37	58272	1227869	1075
239	2015-09-23 12:10:55	0	0	0	0	0	0	4.75	0.38	0.03	94686	0	3187	63535	94686	91499	362	24	652	37	58272	1227870	1075
240	2015-09-23 12:16:49	0	0	0	0	0	0	4.75	0.38	0.03	94686	0	3187	63535	94686	91499	362	24	652	37	58272	1227873	1075
241	2015-09-23 12:22:49	0	0	0	0	0	0	4.75	0.38	0.03	94695	0	3187	63535	94695	91508	362	24	652	37	58272	1227876	1075
242	2015-09-23 12:28:48	0	0	0	0	0	0	4.75	0.38	0.03	94695	0	3187	63535	94695	91508	362	24	652	37	58272	1227880	1075
243	2015-09-23 12:34:57	0	0	0	0	0	0	4.75	0.38	0.03	94712	0	3188	63577	94712	91524	362	24	652	37	58307	1227874	1075
244	2015-09-23 12:40:56	0	0	0	0	0	0	4.75	0.38	0.03	94712	0	3188	63577	94712	91524	362	24	652	37	58307	1227876	1075
245	2015-09-23 12:46:59	0	0	0	0	0	0	4.75	0.38	0.03	94726	0	3188	63577	94726	91538	362	24	652	37	58307	1227873	1075
246	2015-09-23 12:52:50	0	0	0	0	0	0	4.75	0.38	0.03	94726	0	3188	63577	94726	91538	362	24	652	37	58307	1227882	1075
247	2015-09-23 12:58:49	0	0	0	0	0	0	4.75	0.38	0.03	94741	0	3189	63598	94741	91552	362	24	652	37	58325	1227870	1075
248	2015-09-23 13:04:48	0	0	0	0	0	0	4.75	0.38	0.03	94741	0	3189	63598	94741	91552	362	24	652	37	58325	1227874	1075
249	2015-09-23 13:10:58	0	0	0	0	0	0	4.75	0.38	0.03	94756	0	3190	63598	94756	91566	362	24	652	37	58325	1227871	1075
250	2015-09-23 13:16:51	0	0	0	0	0	0	4.75	0.38	0.03	94756	0	3190	63598	94756	91566	362	24	652	37	58325	1227878	1075
251	2015-09-23 13:22:50	0	0	0	0	0	0	4.75	0.38	0.03	94773	0	3192	63598	94773	91581	362	24	652	37	58325	1227870	1075
252	2015-09-23 13:28:56	0	0	0	0	0	0	4.75	0.38	0.03	94773	0	3192	63598	94773	91581	362	24	652	37	58325	1227879	1075
253	2015-09-23 13:34:54	0	0	0	0	0	0	4.75	0.38	0.03	94785	0	3192	63598	94785	91593	362	24	652	37	58325	1227870	1075
254	2015-09-23 13:40:54	0	0	0	0	0	0	4.75	0.38	0.03	94785	0	3192	63598	94785	91593	362	24	652	37	58325	1227877	1075
255	2015-09-23 13:46:51	0	0	0	0	0	0	4.75	0.38	0.03	94795	0	3194	63598	94795	91601	362	24	652	37	58325	1227868	1075
256	2015-09-23 13:52:53	0	0	0	0	0	0	4.75	0.38	0.03	94795	0	3194	63598	94795	91601	362	24	652	37	58325	1227874	1075
257	2015-09-23 13:58:52	0	0	0	0	0	0	4.75	0.38	0.03	94808	0	3194	63637	94808	91614	362	24	652	37	58357	1227869	1075
258	2015-09-23 14:04:51	0	0	0	0	0	0	4.75	0.38	0.03	94808	0	3194	63637	94808	91614	362	24	652	37	58357	1227874	1075
259	2015-09-23 14:10:55	0	0	0	0	0	0	4.75	0.38	0.03	94818	0	3194	63637	94818	91624	362	24	652	37	58357	1227875	1075
260	2015-09-23 14:16:50	0	0	0	0	0	0	4.75	0.38	0.03	94818	0	3194	63637	94818	91624	362	24	652	37	58357	1227883	1075
261	2015-09-23 14:22:51	0	0	0	0	0	0	4.75	0.38	0.03	94832	0	3195	63637	94832	91637	362	24	652	37	58357	1227882	1075
262	2015-09-23 14:28:52	0	0	0	0	0	0	4.75	0.38	0.03	94832	0	3195	63637	94832	91637	362	24	652	37	58357	1227890	1075
263	2015-09-23 14:34:51	0	0	0	0	0	0	4.75	0.38	0.03	94840	0	3196	63637	94840	91644	362	24	652	37	58357	1227877	1075
264	2015-09-23 14:40:52	0	0	0	0	0	0	4.75	0.38	0.03	94840	0	3196	63637	94840	91644	362	24	652	37	58357	1227885	1075
265	2015-09-23 14:46:52	0	0	0	0	0	0	4.75	0.38	0.03	94845	0	3197	63637	94845	91648	362	24	652	37	58357	1227883	1075
266	2015-09-23 14:52:54	0	0	0	0	0	0	4.75	0.38	0.03	94845	0	3197	63637	94845	91648	362	24	652	37	58357	1227890	1075
267	2015-09-23 14:58:55	0	0	0	0	0	0	4.75	0.38	0.03	94854	0	3197	63637	94854	91657	362	24	652	37	58357	1227883	1075
268	2015-09-23 15:04:53	0	0	0	0	0	0	4.75	0.38	0.03	94854	0	3197	63637	94854	91657	362	24	652	37	58357	1227890	1075
269	2015-09-23 15:10:53	0	0	0	0	0	0	4.75	0.38	0.03	94855	0	3197	63637	94855	91658	362	24	652	37	58357	1227892	1075
270	2015-09-23 15:16:55	0	0	0	0	0	0	4.75	0.38	0.03	94855	0	3197	63637	94855	91658	362	24	652	37	58357	1227898	1075
271	2015-09-23 15:22:56	0	0	0	0	0	0	4.75	0.38	0.03	94873	0	3197	63637	94873	91676	362	24	652	37	58357	1227883	1075
272	2015-09-23 15:28:56	0	0	0	0	0	0	4.75	0.38	0.03	94873	0	3197	63637	94873	91676	362	24	652	37	58357	1227889	1075
273	2015-09-23 15:34:57	0	0	0	0	0	0	4.75	0.38	0.03	94881	0	3197	63637	94881	91684	362	24	652	37	58357	1227882	1075
274	2015-09-23 15:40:57	0	0	0	0	0	0	4.75	0.38	0.03	94881	0	3197	63637	94881	91684	362	24	652	37	58357	1227888	1075
275	2015-09-23 15:47:04	0	0	0	0	0	0	4.75	0.38	0.03	94887	0	3197	63637	94887	91690	362	24	652	37	58357	1227883	1075
276	2015-09-23 15:52:57	0	0	0	0	0	0	4.75	0.38	0.03	94887	0	3197	63637	94887	91690	362	24	652	37	58357	1227890	1075
277	2015-09-23 15:58:56	0	0	0	0	0	0	4.75	0.38	0.03	94898	0	3198	63637	94898	91700	362	24	652	37	58357	1227889	1075
278	2015-09-23 16:05:02	0	0	0	0	0	0	4.75	0.38	0.03	94898	0	3198	63637	94898	91700	362	24	652	37	58357	1227896	1075
279	2015-09-23 16:10:58	0	0	0	0	0	0	4.75	0.38	0.03	94909	0	3199	63637	94909	91710	362	24	652	37	58357	1227887	1075
280	2015-09-23 16:16:58	0	0	0	0	0	0	4.75	0.38	0.03	94909	0	3199	63637	94909	91710	362	24	652	37	58357	1227892	1075
281	2015-09-23 16:22:59	0	0	0	0	0	0	4.75	0.38	0.03	94918	0	3200	63637	94918	91718	362	24	652	37	58357	1227890	1075
282	2015-09-23 16:28:55	0	0	0	0	0	0	4.75	0.38	0.03	94918	0	3200	63637	94918	91718	362	24	652	37	58357	1227900	1075
283	2015-09-23 16:34:59	0	0	0	0	0	0	4.75	0.38	0.03	94925	0	3201	63637	94925	91724	362	24	652	37	58357	1227898	1075
284	2015-09-23 16:40:59	0	0	0	0	0	0	4.75	0.38	0.03	94925	0	3201	63637	94925	91724	362	24	652	37	58357	1227902	1075
285	2015-09-23 16:47:00	0	0	0	0	0	0	4.75	0.38	0.03	94932	0	3202	63637	94932	91730	362	24	652	37	58357	1227897	1075
286	2015-09-23 16:52:56	0	0	0	0	0	0	4.75	0.38	0.03	94932	0	3202	63637	94932	91730	362	24	652	37	58357	1227898	1075
287	2015-09-23 16:58:59	0	0	0	0	0	0	4.75	0.38	0.03	94949	0	3205	63637	94949	91744	362	24	652	37	58357	1227904	1075
288	2015-09-23 17:04:56	0	0	0	0	0	0	4.75	0.38	0.03	94949	0	3205	63637	94949	91744	362	24	652	37	58357	1227912	1075
289	2015-09-23 17:11:01	0	0	0	0	0	0	4.75	0.38	0.03	94963	0	3206	63637	94963	91757	362	24	652	37	58357	1227896	1075
290	2015-09-23 17:16:56	0	0	0	0	0	0	4.75	0.38	0.03	94963	0	3206	63637	94963	91757	362	24	652	37	58357	1227906	1075
291	2015-09-23 17:23:30	0	0	0	0	0	0	4.75	0.38	0.03	94970	0	3208	63637	94970	91762	362	24	652	37	58357	1227905	1075
292	2015-09-23 17:28:56	0	0	0	0	0	0	4.75	0.38	0.03	94970	0	3208	63637	94970	91762	362	24	652	37	58357	1227912	1075
293	2015-09-23 17:34:58	0	0	0	0	0	0	4.75	0.38	0.03	94973	0	3209	63637	94973	91764	362	24	652	37	58357	1227905	1075
294	2015-09-23 17:40:58	0	0	0	0	0	0	4.75	0.38	0.03	94973	0	3209	63637	94973	91764	362	24	652	37	58357	1227911	1075
295	2015-09-23 17:48:05	0	0	0	0	0	0	4.75	0.38	0.03	95000	0	3212	63637	95000	91788	362	24	652	37	58357	1227905	1075
296	2015-09-23 17:53:10	0	0	0	0	0	0	4.75	0.38	0.03	95000	0	3212	63637	95000	91788	362	24	652	37	58357	1227909	1075
297	2015-09-23 17:59:34	0	0	0	0	0	0	4.75	0.38	0.04	95011	0	3214	63637	95011	91797	362	24	652	37	58357	1227908	1075
298	2015-09-23 18:05:21	0	0	0	0	0	0	4.75	0.38	0.04	95011	0	3214	63637	95011	91797	362	24	652	37	58357	1227912	1075
299	2015-09-23 18:11:07	0	0	0	0	0	0	4.75	0.38	0.04	95019	0	3215	63637	95019	91804	363	24	652	37	58357	1227906	1076
300	2015-09-23 18:17:04	0	0	0	0	0	0	4.75	0.38	0.04	95019	0	3215	63637	95019	91804	363	24	652	37	58357	1227911	1076
301	2015-09-23 18:23:02	0	0	0	0	0	0	4.75	0.38	0.04	95031	0	3215	63637	95031	91816	363	24	652	37	58357	1227907	1076
302	2015-09-23 18:29:01	0	0	0	0	0	0	4.75	0.38	0.04	95031	0	3215	63637	95031	91816	363	24	652	37	58357	1227917	1076
303	2015-09-23 18:35:07	0	0	0	0	0	0	4.75	0.38	0.04	95039	0	3217	63637	95039	91822	364	24	652	37	58357	1227914	1077
304	2015-09-23 18:41:00	0	0	0	0	0	0	4.75	0.38	0.04	95039	0	3217	63637	95039	91822	364	24	652	37	58357	1227921	1077
305	2015-09-23 18:47:01	0	0	0	0	0	0	4.75	0.38	0.04	95047	0	3217	63637	95047	91830	364	24	652	37	58357	1227910	1077
306	2015-09-23 18:52:58	0	0	0	0	0	0	4.75	0.38	0.04	95047	0	3217	63637	95047	91830	364	24	652	37	58357	1227917	1077
307	2015-09-23 18:59:04	0	0	0	0	0	0	4.75	0.38	0.04	95055	0	3219	63637	95055	91836	364	24	652	37	58357	1227910	1077
308	2015-09-23 19:05:06	0	0	0	0	0	0	4.75	0.38	0.04	95055	0	3219	63637	95055	91836	364	24	652	37	58357	1227917	1077
309	2015-09-23 19:11:00	0	0	0	0	0	0	4.75	0.38	0.04	95057	0	3219	63637	95057	91838	364	24	652	37	58357	1227905	1077
310	2015-09-23 19:17:01	0	0	0	0	0	0	4.75	0.38	0.04	95057	0	3219	63637	95057	91838	364	24	652	37	58357	1227914	1077
311	2015-09-23 19:23:00	0	0	0	0	0	0	4.75	0.38	0.04	95071	0	3219	63637	95071	91852	364	24	652	37	58357	1227906	1077
312	2015-09-23 19:28:59	0	0	0	0	0	0	4.75	0.38	0.04	95071	0	3219	63637	95071	91852	364	24	652	37	58357	1227911	1077
313	2015-09-23 19:34:59	0	0	0	0	0	0	4.75	0.38	0.04	95080	0	3222	63637	95080	91858	364	24	652	37	58357	1227902	1077
314	2015-09-23 19:41:08	0	0	0	0	0	0	4.75	0.38	0.04	95080	0	3222	63637	95080	91858	364	24	652	37	58357	1227907	1077
315	2015-09-23 19:47:03	0	0	0	0	0	0	4.75	0.38	0.04	95087	0	3222	63637	95087	91865	364	24	652	37	58357	1227907	1077
316	2015-09-23 19:53:00	0	0	0	0	0	0	4.75	0.38	0.04	95087	0	3222	63637	95087	91865	364	24	652	37	58357	1227911	1077
317	2015-09-23 19:59:03	0	0	0	0	0	0	4.75	0.38	0.04	95099	0	3223	63637	95099	91876	364	24	652	37	58357	1227907	1077
318	2015-09-23 20:05:00	0	0	0	0	0	0	4.75	0.38	0.04	95099	0	3223	63637	95099	91876	364	24	652	37	58357	1227916	1077
319	2015-09-23 20:11:01	0	0	0	0	0	0	4.75	0.38	0.04	95106	0	3223	63637	95106	91883	364	24	652	37	58357	1227903	1077
320	2015-09-23 20:17:00	0	0	0	0	0	0	4.75	0.38	0.04	95106	0	3223	63637	95106	91883	364	24	652	37	58357	1227911	1077
321	2015-09-23 20:23:02	0	0	0	0	0	0	4.75	0.38	0.04	95111	0	3223	63637	95111	91888	364	24	652	37	58357	1227902	1077
322	2015-09-23 20:29:15	0	0	0	0	0	0	4.75	0.38	0.04	95111	0	3223	63637	95111	91888	364	24	652	37	58357	1227910	1077
323	2015-09-23 20:35:06	0	0	0	0	0	0	4.75	0.38	0.04	95119	0	3224	63637	95119	91895	364	24	652	37	58357	1227900	1077
324	2015-09-23 20:41:00	0	0	0	0	0	0	4.75	0.38	0.04	95119	0	3224	63637	95119	91895	364	24	652	37	58357	1227903	1077
325	2015-09-23 20:47:01	0	0	0	0	0	0	4.75	0.38	0.04	95126	0	3225	63637	95126	91901	364	24	652	37	58357	1227895	1077
326	2015-09-23 20:53:00	0	0	0	0	0	0	4.75	0.38	0.04	95126	0	3225	63637	95126	91901	364	24	652	37	58357	1227908	1077
327	2015-09-23 20:59:07	0	0	0	0	0	0	4.75	0.38	0.04	95131	0	3226	63637	95131	91905	364	24	652	37	58357	1227899	1077
328	2015-09-23 21:05:08	0	0	0	0	0	0	4.75	0.38	0.04	95131	0	3226	63637	95131	91905	364	24	652	37	58357	1227912	1077
329	2015-09-23 21:11:08	0	0	0	0	0	0	4.75	0.38	0.04	95140	0	3227	63637	95140	91913	364	24	652	37	58357	1227908	1077
330	2015-09-23 21:16:59	0	0	0	0	0	0	4.75	0.38	0.04	95140	0	3227	63637	95140	91913	364	24	652	37	58357	1227920	1077
331	2015-09-23 21:23:00	0	0	0	0	0	0	4.75	0.38	0.04	95147	0	3228	63637	95147	91919	364	24	652	37	58357	1227900	1077
332	2015-09-23 21:28:59	0	0	0	0	0	0	4.75	0.38	0.04	95147	0	3228	63637	95147	91919	364	24	652	37	58357	1227912	1077
333	2015-09-23 21:35:40	0	0	0	0	0	0	4.75	0.38	0.04	95160	0	3228	63637	95160	91932	364	24	652	37	58357	1227905	1077
334	2015-09-23 21:41:00	0	0	0	0	0	0	4.75	0.38	0.04	95160	0	3228	63637	95160	91932	364	24	652	37	58357	1227911	1077
335	2015-09-23 21:47:07	0	0	0	0	0	0	4.75	0.38	0.04	95164	0	3228	63637	95164	91936	364	24	652	37	58357	1227894	1077
336	2015-09-23 21:53:07	0	0	0	0	0	0	4.75	0.38	0.04	95164	0	3228	63637	95164	91936	364	24	652	37	58357	1227905	1077
337	2015-09-23 21:59:11	0	0	0	0	0	0	4.75	0.38	0.04	95175	0	3229	63637	95175	91946	364	24	652	37	58357	1227899	1077
338	2015-09-23 22:05:04	0	0	0	0	0	0	4.75	0.38	0.04	95175	0	3229	63637	95175	91946	364	24	652	37	58357	1227906	1077
339	2015-09-23 22:11:38	0	0	0	0	0	0	4.75	0.38	0.04	95182	0	3230	63637	95182	91952	364	24	652	37	58357	1227903	1077
340	2015-09-23 22:17:03	0	0	0	0	0	0	4.75	0.38	0.04	95182	0	3230	63637	95182	91952	364	24	652	37	58357	1227910	1077
341	2015-09-23 22:23:00	0	0	0	0	0	0	4.75	0.38	0.04	95192	0	3230	63637	95192	91962	364	24	652	37	58357	1227902	1077
342	2015-09-23 22:29:04	0	0	0	0	0	0	4.75	0.38	0.04	95192	0	3230	63637	95192	91962	364	24	652	37	58357	1227909	1077
343	2015-09-23 22:35:02	0	0	0	0	0	0	4.75	0.38	0.04	95209	0	3231	63637	95209	91978	364	24	652	37	58357	1227893	1077
344	2015-09-23 22:41:18	0	0	0	0	0	0	4.75	0.38	0.04	95209	0	3231	63637	95209	91978	364	24	652	37	58357	1227898	1077
345	2015-09-23 22:47:03	0	0	0	0	0	0	4.75	0.38	0.04	95216	0	3232	63637	95216	91984	364	24	652	37	58357	1227895	1077
346	2015-09-23 22:53:01	0	0	0	0	0	0	4.75	0.38	0.04	95216	0	3232	63637	95216	91984	364	24	652	37	58357	1227903	1077
347	2015-09-23 22:59:03	0	0	0	0	0	0	4.75	0.38	0.04	95223	0	3234	63637	95223	91989	364	24	652	37	58357	1227892	1077
348	2015-09-23 23:05:14	0	0	0	0	0	0	4.75	0.38	0.04	95223	0	3234	63637	95223	91989	364	24	652	37	58357	1227897	1077
349	2015-09-23 23:11:01	0	0	0	0	0	0	4.75	0.38	0.04	95230	0	3236	63637	95230	91994	364	24	652	37	58357	1227895	1077
350	2015-09-23 23:17:13	0	0	0	0	0	0	4.75	0.38	0.04	95230	0	3236	63637	95230	91994	364	24	652	37	58357	1227905	1077
351	2015-09-23 23:23:00	0	0	0	0	0	0	4.75	0.38	0.04	95242	0	3236	63637	95242	92006	364	24	652	37	58357	1227898	1077
352	2015-09-23 23:29:00	0	0	0	0	0	0	4.75	0.38	0.04	95242	0	3236	63637	95242	92006	364	24	652	37	58357	1227909	1077
353	2015-09-23 23:35:01	0	0	0	0	0	0	4.75	0.38	0.04	95245	0	3236	63637	95245	92009	364	24	652	37	58357	1227890	1077
354	2015-09-23 23:41:12	0	0	0	0	0	0	4.75	0.38	0.04	95245	0	3236	63637	95245	92009	364	24	652	37	58357	1227900	1077
355	2015-09-23 23:47:02	0	0	0	0	0	0	4.75	0.38	0.04	95252	0	3237	63637	95252	92015	364	24	652	37	58357	1227893	1077
356	2015-09-23 23:52:59	0	0	0	0	0	0	4.75	0.38	0.04	95252	0	3237	63637	95252	92015	364	24	652	37	58357	1227901	1077
357	2015-09-23 23:59:04	0	0	0	0	0	0	4.75	0.38	0.04	95257	0	3238	63637	95257	92019	364	24	652	37	58357	1227885	1077
358	2015-09-24 00:05:02	0	0	0	0	0	0	4.75	0.38	0.04	95257	0	3238	63637	95257	92019	364	24	652	37	58357	1227896	1077
359	2015-09-24 00:10:59	0	0	0	0	0	0	4.75	0.38	0.04	95260	0	3239	63637	95260	92021	364	24	652	37	58357	1227891	1077
360	2015-09-24 00:17:01	0	0	0	0	0	0	4.75	0.38	0.04	95260	0	3239	63637	95260	92021	364	24	652	37	58357	1227895	1077
361	2015-09-24 00:22:59	0	0	0	0	0	0	4.75	0.38	0.04	95263	0	3239	63637	95263	92024	364	24	652	37	58357	1227894	1077
362	2015-09-24 00:28:59	0	0	0	0	0	0	4.75	0.38	0.04	95263	0	3239	63637	95263	92024	364	24	652	37	58357	1227910	1077
363	2015-09-24 00:35:35	0	0	0	0	0	0	4.75	0.38	0.04	95266	0	3239	63637	95266	92027	364	24	652	37	58357	1227889	1077
364	2015-09-24 00:40:59	0	0	0	0	0	0	4.75	0.38	0.04	95266	0	3239	63637	95266	92027	364	24	652	37	58357	1227893	1077
365	2015-09-24 00:46:58	0	0	0	0	0	0	4.75	0.38	0.04	95268	0	3239	63637	95268	92029	364	24	652	37	58357	1227889	1077
366	2015-09-24 00:52:57	0	0	0	0	0	0	4.75	0.38	0.04	95268	0	3239	63637	95268	92029	364	24	652	37	58357	1227894	1077
367	2015-09-24 00:59:02	0	0	0	0	0	0	4.75	0.38	0.04	95270	0	3240	63637	95270	92030	364	24	652	37	58357	1227895	1077
368	2015-09-24 01:05:18	0	0	0	0	0	0	4.75	0.38	0.04	95270	0	3240	63637	95270	92030	364	24	652	37	58357	1227894	1077
369	2015-09-24 01:11:01	0	0	0	0	0	0	4.75	0.38	0.04	95270	0	3240	63637	95270	92030	364	24	652	37	58357	1227907	1077
370	2015-09-24 01:16:59	0	0	0	0	0	0	4.75	0.38	0.04	95270	0	3240	63637	95270	92030	364	24	652	37	58357	1227912	1077
371	2015-09-24 01:23:00	0	0	0	0	0	0	4.75	0.38	0.04	95273	0	3240	63637	95273	92033	364	24	652	37	58357	1227897	1077
372	2015-09-24 01:28:58	0	0	0	0	0	0	4.75	0.38	0.04	95273	0	3240	63637	95273	92033	364	24	652	37	58357	1227899	1077
373	2015-09-24 01:35:00	0	0	0	0	0	0	4.75	0.38	0.04	95277	0	3241	63637	95277	92036	364	24	652	37	58357	1227894	1077
374	2015-09-24 01:40:59	0	0	0	0	0	0	4.75	0.38	0.04	95277	0	3241	63637	95277	92036	364	24	652	37	58357	1227899	1077
375	2015-09-24 01:47:06	0	0	0	0	0	0	4.75	0.38	0.04	95278	0	3241	63637	95278	92037	364	24	652	37	58357	1227900	1077
376	2015-09-24 01:52:58	0	0	0	0	0	0	4.75	0.38	0.04	95278	0	3241	63637	95278	92037	364	24	652	37	58357	1227905	1077
377	2015-09-24 01:59:01	0	0	0	0	0	0	4.75	0.38	0.04	95279	0	3241	63637	95279	92038	364	24	652	37	58357	1227897	1077
378	2015-09-24 02:04:58	0	0	0	0	0	0	4.75	0.38	0.04	95279	0	3241	63637	95279	92038	364	24	652	37	58357	1228801	1077
379	2015-09-24 02:10:59	0	0	0	0	0	0	4.75	0.38	0.04	95280	0	3241	63637	95280	92039	364	24	652	37	58357	1228799	1077
380	2015-09-24 02:17:08	0	0	0	0	0	0	4.75	0.38	0.04	95280	0	3241	63637	95280	92039	364	24	652	37	58357	1228798	1077
381	2015-09-24 02:22:59	0	0	0	0	0	0	4.75	0.38	0.04	95280	0	3241	63637	95280	92039	364	24	652	37	58357	1228799	1077
382	2015-09-24 02:28:58	0	0	0	0	0	0	4.75	0.38	0.04	95280	0	3241	63637	95280	92039	364	24	652	37	58357	1228799	1077
383	2015-09-24 02:34:56	0	0	0	0	0	0	4.75	0.38	0.04	95282	0	3242	63637	95282	92040	364	24	652	37	58357	1228798	1077
384	2015-09-24 02:40:59	0	0	0	0	0	0	4.75	0.38	0.04	95282	0	3242	63637	95282	92040	364	24	652	37	58357	1228798	1077
385	2015-09-24 02:46:59	0	0	0	0	0	0	4.75	0.38	0.04	95284	0	3243	63637	95284	92041	364	24	652	37	58357	1228798	1077
386	2015-09-24 02:52:57	0	0	0	0	0	0	4.75	0.38	0.04	95284	0	3243	63637	95284	92041	364	24	652	37	58357	1228797	1077
387	2015-09-24 02:58:59	0	0	0	0	0	0	4.75	0.38	0.04	95284	0	3243	63637	95284	92041	364	24	652	37	58357	1228799	1077
388	2015-09-24 03:05:05	0	0	0	0	0	0	4.75	0.38	0.04	95284	0	3243	63637	95284	92041	364	24	652	37	58357	1228798	1077
389	2015-09-24 03:11:07	0	0	0	0	0	0	4.75	0.38	0.04	95285	0	3243	63637	95285	92042	364	24	652	37	58357	1228801	1077
390	2015-09-24 03:16:57	0	0	0	0	0	0	4.75	0.38	0.04	95285	0	3243	63637	95285	92042	364	24	652	37	58357	1228802	1077
391	2015-09-24 03:22:59	0	0	0	0	0	0	4.75	0.38	0.04	95287	0	3243	63637	95287	92044	364	24	652	37	58357	1228799	1077
392	2015-09-24 03:29:00	0	0	0	0	0	0	4.75	0.38	0.04	95287	0	3243	63637	95287	92044	364	24	652	37	58357	1228801	1077
393	2015-09-24 03:35:12	0	0	0	0	0	0	4.75	0.38	0.04	95287	0	3243	63637	95287	92044	364	24	652	37	58357	1228799	1077
394	2015-09-24 03:40:59	0	0	0	0	0	0	4.75	0.38	0.04	95287	0	3243	63637	95287	92044	364	24	652	37	58357	1228800	1077
395	2015-09-24 03:46:58	0	0	0	0	0	0	4.75	0.38	0.04	95288	0	3243	63637	95288	92045	364	24	652	37	58357	1228798	1077
396	2015-09-24 03:53:21	0	0	0	0	0	0	4.75	0.38	0.04	95288	0	3243	63637	95288	92045	364	24	652	37	58357	1228799	1077
397	2015-09-24 03:59:00	0	0	0	0	0	0	4.75	0.38	0.04	95288	0	3243	63637	95288	92045	364	24	652	37	58357	1228799	1077
398	2015-09-24 04:05:02	0	0	0	0	0	0	4.75	0.38	0.04	95288	0	3243	63637	95288	92045	364	24	652	37	58357	1228799	1077
399	2015-09-24 04:10:59	0	0	0	0	0	0	4.75	0.38	0.04	95288	0	3243	63637	95288	92045	364	24	652	37	58357	1228799	1077
400	2015-09-24 04:16:57	0	0	0	0	0	0	4.75	0.38	0.04	95288	0	3243	63637	95288	92045	364	24	652	37	58357	1228799	1077
401	2015-09-24 04:22:57	0	0	0	0	0	0	4.75	0.38	0.04	95289	0	3243	63637	95289	92046	364	24	652	37	58357	1228797	1077
402	2015-09-24 04:29:00	0	0	0	0	0	0	4.75	0.38	0.04	95289	0	3243	63637	95289	92046	364	24	652	37	58357	1228798	1077
403	2015-09-24 04:34:58	0	0	0	0	0	0	4.75	0.38	0.04	95289	0	3243	63637	95289	92046	364	24	652	37	58357	1228797	1077
404	2015-09-24 04:41:34	0	0	0	0	0	0	4.75	0.38	0.04	95289	0	3243	63637	95289	92046	364	24	652	37	58357	1228798	1077
405	2015-09-24 04:46:58	0	0	0	0	0	0	4.75	0.38	0.04	95290	0	3243	63637	95290	92047	364	24	652	37	58357	1228798	1077
406	2015-09-24 04:53:19	0	0	0	0	0	0	4.75	0.38	0.04	95290	0	3243	63637	95290	92047	364	24	652	37	58357	1228801	1077
407	2015-09-24 04:58:59	0	0	0	0	0	0	4.75	0.38	0.04	95290	0	3243	63637	95290	92047	364	24	652	37	58357	1228800	1077
408	2015-09-24 05:05:16	0	0	0	0	0	0	4.75	0.38	0.04	95290	0	3243	63637	95290	92047	364	24	652	37	58357	1228799	1077
409	2015-09-24 05:11:00	0	0	0	0	0	0	4.75	0.38	0.04	95291	0	3243	63637	95291	92048	364	24	652	37	58357	1228798	1077
410	2015-09-24 05:16:57	0	0	0	0	0	0	4.75	0.38	0.04	95291	0	3243	63637	95291	92048	364	24	652	37	58357	1228800	1077
411	2015-09-24 05:22:58	0	0	0	0	0	0	4.75	0.38	0.04	95291	0	3243	63637	95291	92048	364	24	652	37	58357	1228799	1077
412	2015-09-24 05:28:57	0	0	0	0	0	0	4.75	0.38	0.04	95291	0	3243	63637	95291	92048	364	24	652	37	58357	1228800	1077
413	2015-09-24 05:35:30	0	0	0	0	0	0	4.75	0.38	0.04	95291	0	3243	63637	95291	92048	364	24	652	37	58357	1228799	1077
414	2015-09-24 05:41:30	0	0	0	0	0	0	4.75	0.38	0.04	95291	0	3243	63637	95291	92048	364	24	652	37	58357	1228799	1077
415	2015-09-24 05:47:53	0	0	0	0	0	0	4.75	0.38	0.04	95291	0	3243	63637	95291	92048	364	24	652	37	58357	1228800	1077
416	2015-09-24 05:53:06	0	0	0	0	0	0	4.75	0.38	0.04	95291	0	3243	63637	95291	92048	364	24	652	37	58357	1228801	1077
417	2015-09-24 05:59:24	0	0	0	0	0	0	4.75	0.38	0.04	95293	0	3243	63637	95293	92050	364	24	652	37	58357	1228797	1077
418	2015-09-24 06:05:17	0	0	0	0	0	0	4.75	0.38	0.04	95293	0	3243	63637	95293	92050	364	24	652	37	58357	1228796	1077
419	2015-09-24 06:11:07	0	0	0	0	0	0	4.75	0.38	0.04	95293	0	3243	63637	95293	92050	364	24	652	37	58357	1228795	1077
420	2015-09-24 06:16:57	0	0	0	0	0	0	4.75	0.38	0.04	95293	0	3243	63637	95293	92050	364	24	652	37	58357	1228794	1077
421	2015-09-24 06:22:58	0	0	0	0	0	0	4.75	0.38	0.04	95293	0	3243	63637	95293	92050	364	24	652	37	58357	1228800	1077
422	2015-09-24 06:28:59	0	0	0	0	0	0	4.75	0.38	0.04	95293	0	3243	63637	95293	92050	364	24	652	37	58357	1228804	1077
423	2015-09-24 06:35:08	0	0	0	0	0	0	4.75	0.38	0.04	95293	0	3243	63637	95293	92050	364	24	652	37	58357	1228799	1077
424	2015-09-24 06:41:16	0	0	0	0	0	0	4.75	0.38	0.04	95293	0	3243	63637	95293	92050	364	24	652	37	58357	1228800	1077
425	2015-09-24 06:46:59	0	0	0	0	0	0	4.75	0.38	0.04	95293	0	3243	63637	95293	92050	364	24	652	37	58357	1228798	1077
426	2015-09-24 06:52:58	0	0	0	0	0	0	4.75	0.38	0.04	95293	0	3243	63637	95293	92050	364	24	652	37	58357	1228801	1077
427	2015-09-24 06:59:02	0	0	0	0	0	0	4.75	0.38	0.04	95295	0	3243	63637	95295	92052	364	24	652	37	58357	1228798	1077
428	2015-09-24 07:04:59	0	0	0	0	0	0	4.75	0.38	0.04	95295	0	3243	63637	95295	92052	364	24	652	37	58357	1228802	1077
429	2015-09-24 07:10:58	0	0	0	0	0	0	4.75	0.38	0.04	95295	0	3243	63637	95295	92052	364	24	652	37	58357	1228800	1077
430	2015-09-24 07:17:00	0	0	0	0	0	0	4.75	0.38	0.04	95295	0	3243	63637	95295	92052	364	24	652	37	58357	1228803	1077
431	2015-09-24 07:23:31	0	0	0	0	0	0	4.75	0.38	0.04	95295	0	3243	63637	95295	92052	364	24	652	37	58357	1228798	1077
432	2015-09-24 07:29:00	0	0	0	0	0	0	4.75	0.38	0.04	95295	0	3243	63637	95295	92052	364	24	652	37	58357	1228799	1077
433	2015-09-24 07:35:07	0	0	0	0	0	0	4.75	0.38	0.04	95297	0	3243	63637	95297	92054	364	24	652	37	58357	1228799	1077
434	2015-09-24 07:41:01	0	0	0	0	0	0	4.75	0.38	0.04	95297	0	3243	63637	95297	92054	364	24	652	37	58357	1228802	1077
435	2015-09-24 07:47:02	0	0	0	0	0	0	4.76	0.38	0.04	95303	0	3243	63763	95303	92060	364	24	652	37	58463	1228797	1077
436	2015-09-24 07:53:11	0	0	0	0	0	0	4.76	0.38	0.04	95303	0	3243	63763	95303	92060	364	24	652	37	58463	1228797	1077
437	2015-09-24 07:59:08	0	0	0	0	0	0	4.76	0.38	0.04	95304	0	3243	63763	95304	92061	364	24	652	37	58463	1228798	1077
438	2015-09-24 08:05:11	0	0	0	0	0	0	4.76	0.38	0.04	95304	0	3243	63763	95304	92061	364	24	652	37	58463	1228799	1077
439	2015-09-24 08:11:08	0	0	0	0	0	0	4.76	0.38	0.04	95304	0	3243	63763	95304	92061	364	24	652	37	58463	1228796	1077
440	2015-09-24 08:17:00	0	0	0	0	0	0	4.76	0.38	0.04	95304	0	3243	63763	95304	92061	364	24	652	37	58463	1228798	1077
441	2015-09-24 08:23:03	0	0	0	0	0	0	4.76	0.38	0.04	95305	0	3243	63763	95305	92062	364	24	652	37	58463	1228799	1077
442	2015-09-24 08:29:05	0	0	0	0	0	0	4.76	0.38	0.04	95305	0	3243	63763	95305	92062	364	24	652	37	58463	1228801	1077
443	2015-09-24 08:35:59	0	0	0	0	0	0	4.76	0.38	0.04	95305	0	3243	63763	95305	92062	364	24	652	37	58463	1228798	1077
444	2015-09-24 08:41:04	0	0	0	0	0	0	4.76	0.38	0.04	95305	0	3243	63763	95305	92062	364	24	652	37	58463	1228801	1077
445	2015-09-24 08:47:04	0	0	0	0	0	0	4.76	0.38	0.04	95305	0	3243	63763	95305	92062	364	24	652	37	58463	1228798	1077
446	2015-09-24 08:53:02	0	0	0	0	0	0	4.76	0.38	0.04	95305	0	3243	63763	95305	92062	364	24	652	37	58463	1228807	1077
447	2015-09-24 08:59:22	0	0	0	0	0	0	4.76	0.38	0.04	95307	0	3243	63763	95307	92064	364	24	652	37	58463	1228804	1077
448	2015-09-24 09:05:07	0	0	0	0	0	0	4.76	0.38	0.04	95307	0	3243	63763	95307	92064	364	24	652	37	58463	1228809	1077
449	2015-09-24 09:11:04	0	0	0	0	0	0	4.76	0.38	0.04	95308	0	3243	63763	95308	92065	364	24	652	37	58463	1228806	1077
450	2015-09-24 09:17:20	0	0	0	0	0	0	4.76	0.38	0.04	95308	0	3243	63763	95308	92065	364	24	652	37	58463	1228812	1077
451	2015-09-24 09:23:23	0	0	0	0	0	0	4.76	0.38	0.04	95308	0	3243	63763	95308	92065	364	24	652	37	58463	1228803	1077
452	2015-09-24 09:29:16	0	0	0	0	0	0	4.76	0.38	0.04	95308	0	3243	63763	95308	92065	364	24	652	37	58463	1228806	1077
453	2015-09-24 09:35:11	0	0	0	0	0	0	4.76	0.38	0.04	95311	0	3243	63763	95311	92068	364	24	652	37	58463	1228803	1077
454	2015-09-24 09:41:12	0	0	0	0	0	0	4.76	0.38	0.04	95311	0	3243	63763	95311	92068	364	24	652	37	58463	1228812	1077
455	2015-09-24 09:47:02	0	0	0	0	0	0	4.76	0.38	0.04	95332	0	3259	63763	95332	92073	364	24	652	37	58463	1228800	1077
456	2015-09-24 09:53:21	0	0	0	0	0	0	4.76	0.38	0.04	95332	0	3259	63763	95332	92073	364	24	652	37	58463	1228809	1077
457	2015-09-24 09:59:21	0	0	0	0	0	0	4.76	0.38	0.04	95333	0	3259	63763	95333	92074	364	24	652	37	58463	1228796	1077
458	2015-09-24 10:05:03	0	0	0	0	0	0	4.76	0.38	0.04	95333	0	3259	63763	95333	92074	364	24	652	37	58463	1228800	1077
459	2015-09-24 10:11:08	0	0	0	0	0	0	4.76	0.38	0.04	95337	0	3259	63763	95337	92078	364	24	652	37	58463	1228799	1077
460	2015-09-24 10:17:13	0	0	0	0	0	0	4.76	0.38	0.04	95337	0	3259	63763	95337	92078	364	24	652	37	58463	1228799	1077
461	2015-09-24 10:23:06	0	0	0	0	0	0	4.76	0.38	0.04	95340	0	3259	63763	95340	92081	364	24	652	37	58463	1228795	1077
462	2015-09-24 10:29:20	0	0	0	0	0	0	4.76	0.38	0.04	95340	0	3259	63763	95340	92081	364	24	652	37	58463	1228798	1077
463	2015-09-24 10:35:29	0	0	0	0	0	0	4.76	0.38	0.04	95340	0	3259	63763	95340	92081	364	24	652	37	58463	1228802	1077
464	2015-09-24 10:41:12	0	0	0	0	0	0	4.76	0.38	0.04	95340	0	3259	63763	95340	92081	364	24	652	37	58463	1228810	1077
465	2015-09-24 10:47:05	0	0	0	0	0	0	4.76	0.38	0.04	95343	0	3259	63763	95343	92084	364	24	652	37	58463	1228799	1077
466	2015-09-24 10:53:05	0	0	0	0	0	0	4.76	0.38	0.04	95343	0	3259	63763	95343	92084	364	24	652	37	58463	1228810	1077
467	2015-09-24 11:00:06	0	0	0	0	0	0	4.76	0.38	0.04	95345	0	3259	63763	95345	92086	364	24	652	37	58463	1228803	1077
468	2015-09-24 11:09:20	0	0	0	0	0	0	4.76	0.38	0.04	95345	0	3259	63763	95345	92086	364	24	652	37	58463	1228812	1077
469	2015-09-24 11:11:20	0	0	0	0	0	0	4.76	0.38	0.04	95345	0	3259	63763	95345	92086	364	24	652	37	58463	1228801	1077
470	2015-09-24 11:17:28	0	0	0	0	0	0	4.76	0.38	0.04	95352	0	3260	63763	95352	92092	364	24	652	37	58463	1228805	1077
471	2015-09-24 11:23:16	0	0	0	0	0	0	4.76	0.38	0.04	95352	0	3260	63763	95352	92092	364	24	652	37	58463	1228798	1077
472	2015-09-24 11:53:21	0	0	0	0	0	0	4.76	0.38	0.04	95354	0	3260	63763	95354	92094	364	24	652	37	58463	1228801	1077
473	2015-09-24 12:01:45	0	0	0	0	0	0	4.76	0.38	0.04	95354	0	3260	63763	95354	92094	364	24	652	37	58463	1228797	1077
474	2015-09-24 12:06:04	0	0	0	0	0	0	4.76	0.38	0.04	95354	0	3260	63763	95354	92094	364	24	652	37	58463	1228798	1077
475	2015-09-24 12:11:42	0	0	0	0	0	0	4.76	0.38	0.04	95357	0	3261	63764	95357	92096	364	24	652	37	58463	1228802	1077
476	2015-09-24 12:17:29	0	0	0	0	0	0	4.76	0.38	0.04	95357	0	3261	63764	95357	92096	364	24	652	37	58463	1228808	1077
477	2015-09-24 12:23:34	0	0	0	0	0	0	4.76	0.38	0.04	95361	0	3261	63764	95361	92100	364	24	652	37	58463	1228802	1077
478	2015-09-24 12:29:29	0	0	0	0	0	0	4.76	0.38	0.04	95361	0	3261	63764	95361	92100	364	24	652	37	58463	1228802	1077
479	2015-09-24 12:35:09	0	0	0	0	0	0	4.76	0.38	0.04	95368	0	3261	63764	95368	92107	364	24	652	37	58463	1228800	1077
480	2015-09-24 12:41:07	0	0	0	0	0	0	4.76	0.38	0.04	95368	0	3261	63764	95368	92107	364	24	652	37	58463	1228806	1077
481	2015-09-24 12:47:08	0	0	0	0	0	0	4.76	0.38	0.04	95375	0	3261	63764	95375	92114	364	24	652	37	58463	1228796	1077
482	2015-09-24 12:53:09	0	0	0	0	0	0	4.76	0.38	0.04	95375	0	3261	63764	95375	92114	364	24	652	37	58463	1228799	1077
483	2015-09-24 12:59:24	0	0	0	0	0	0	4.76	0.38	0.04	95378	0	3262	63764	95378	92116	364	24	652	37	58463	1228797	1077
484	2015-09-24 13:11:06	0	0	0	0	0	0	4.76	0.38	0.04	95379	0	3262	63764	95379	92117	364	24	652	37	58463	1228796	1077
485	2015-09-24 13:17:05	0	0	0	0	0	0	4.76	0.38	0.04	95379	0	3262	63764	95379	92117	364	24	652	37	58463	1228807	1077
486	2015-09-24 13:23:11	0	0	0	0	0	0	4.76	0.38	0.04	95381	0	3262	63764	95381	92119	364	24	652	37	58463	1228797	1077
487	2015-09-24 13:29:14	0	0	0	0	0	0	4.76	0.38	0.04	95381	0	3262	63764	95381	92119	364	24	652	37	58463	1228801	1077
488	2015-09-24 13:35:26	0	0	0	0	0	0	4.76	0.38	0.04	95383	0	3262	63764	95383	92121	364	24	652	37	58463	1228803	1077
489	2015-09-24 13:41:10	0	0	0	0	0	0	4.76	0.38	0.04	95383	0	3262	63764	95383	92121	364	24	652	37	58463	1228804	1077
490	2015-09-24 13:47:12	0	0	0	0	0	0	4.76	0.38	0.04	95384	0	3262	63764	95384	92122	364	24	652	37	58463	1228798	1077
491	2015-09-24 13:53:12	0	0	0	0	0	0	4.76	0.38	0.04	95384	0	3262	63764	95384	92122	364	24	652	37	58463	1228808	1077
492	2015-09-24 13:59:13	0	0	0	0	0	0	4.76	0.38	0.04	95385	0	3262	63764	95385	92123	364	24	652	37	58463	1228805	1077
493	2015-09-24 14:05:11	0	0	0	0	0	0	4.76	0.38	0.04	95385	0	3262	63764	95385	92123	364	24	652	37	58463	1228811	1077
494	2015-09-24 14:11:09	0	0	0	0	0	0	4.76	0.38	0.04	95390	0	3262	63764	95390	92128	364	24	652	37	58463	1228797	1077
495	2015-09-24 14:17:09	0	0	0	0	0	0	4.76	0.38	0.04	95390	0	3262	63764	95390	92128	364	24	652	37	58463	1228812	1077
496	2015-09-24 14:23:10	0	0	0	0	0	0	4.76	0.38	0.04	95395	0	3262	63785	95395	92133	364	24	652	37	58481	1228811	1077
497	2015-09-24 14:29:23	0	0	0	0	0	0	4.76	0.38	0.04	95395	0	3262	63785	95395	92133	364	24	652	37	58481	1228831	1077
498	2015-09-24 14:35:17	0	0	0	0	0	0	4.76	0.38	0.04	95399	0	3262	63785	95399	92137	364	24	652	37	58481	1228811	1077
499	2015-09-24 14:41:21	0	0	0	0	0	0	4.76	0.38	0.04	95399	0	3262	63785	95399	92137	364	24	652	37	58481	1228824	1077
500	2015-09-24 14:47:13	0	0	0	0	0	0	4.76	0.38	0.04	95399	0	3262	63785	95399	92137	364	24	652	37	58481	1228798	1077
501	2015-09-24 14:53:35	0	0	0	0	0	0	4.76	0.38	0.04	95399	0	3262	63785	95399	92137	364	24	652	37	58481	1228815	1077
502	2015-09-24 14:59:21	0	0	0	0	0	0	4.76	0.38	0.04	95402	0	3262	63912	95402	92140	364	24	652	37	58481	1228801	1077
503	2015-09-24 15:05:19	0	0	0	0	0	0	4.76	0.38	0.04	95402	0	3262	63912	95402	92140	364	24	652	37	58481	1228811	1077
504	2015-09-24 15:11:18	0	0	0	0	0	0	4.76	0.38	0.04	95406	0	3262	63912	95406	92144	364	24	652	37	58481	1228814	1077
505	2015-09-24 15:17:11	0	0	0	0	0	0	4.76	0.38	0.04	95406	0	3262	63912	95406	92144	364	24	652	37	58481	1228827	1077
506	2015-09-24 15:24:03	0	0	0	0	0	0	4.76	0.38	0.04	95409	0	3262	63912	95409	92147	364	24	652	37	58481	1228828	1077
507	2015-09-24 15:29:18	0	0	0	0	0	0	4.76	0.38	0.04	95409	0	3262	63912	95409	92147	364	24	652	37	58481	1228835	1077
508	2015-09-24 15:35:15	0	0	0	0	0	0	4.76	0.38	0.04	95410	0	3263	63912	95410	92147	364	24	652	37	58481	1228816	1077
509	2015-09-24 15:41:19	0	0	0	0	0	0	4.76	0.38	0.04	95410	0	3263	63912	95410	92147	364	24	652	37	58481	1228827	1077
510	2015-09-24 15:47:15	0	0	0	0	0	0	4.76	0.38	0.04	95416	0	3263	63912	95416	92153	364	24	652	37	58481	1228812	1077
511	2015-09-24 15:53:13	0	0	0	0	0	0	4.76	0.38	0.04	95416	0	3263	63912	95416	92153	364	24	652	37	58481	1228821	1077
512	2015-09-24 15:59:33	0	0	0	0	0	0	4.76	0.38	0.04	95421	0	3263	63912	95421	92158	364	24	652	37	58481	1228806	1077
513	2015-09-24 16:06:02	0	0	0	0	0	0	4.76	0.38	0.04	95421	0	3263	63912	95421	92158	364	24	652	37	58481	1228816	1077
514	2015-09-24 16:11:32	0	0	0	0	0	0	4.76	0.38	0.04	95426	0	3263	63912	95426	92163	364	24	652	37	58481	1228817	1077
515	2015-09-24 16:17:19	0	0	0	0	0	0	4.76	0.38	0.04	95426	0	3263	63912	95426	92163	364	24	652	37	58481	1228829	1077
516	2015-09-24 16:23:14	0	0	0	0	0	0	4.76	0.38	0.04	95429	0	3263	63912	95429	92166	364	24	652	37	58481	1228841	1077
517	2015-09-24 16:29:19	0	0	0	0	0	0	4.76	0.38	0.04	95429	0	3263	63912	95429	92166	364	24	652	37	58481	1228858	1077
518	2015-09-24 16:35:11	0	0	0	0	0	0	4.76	0.38	0.04	95431	0	3263	63912	95431	92168	364	24	652	37	58481	1228832	1077
519	2015-09-24 16:41:28	0	0	0	0	0	0	4.76	0.38	0.04	95431	0	3263	63912	95431	92168	364	24	652	37	58481	1228850	1077
520	2015-09-24 16:47:20	0	0	0	0	0	0	4.76	0.38	0.04	95433	0	3263	63912	95433	92170	364	24	652	37	58481	1228802	1077
521	2015-09-24 16:53:14	0	0	0	0	0	0	4.76	0.38	0.04	95433	0	3263	63912	95433	92170	364	24	652	37	58481	1228817	1077
522	2015-09-24 16:59:52	0	0	0	0	0	0	4.76	0.38	0.04	95435	0	3263	63912	95435	92172	364	24	652	37	58481	1228800	1077
523	2015-09-24 17:05:25	0	0	0	0	0	0	4.76	0.38	0.04	95435	0	3263	63912	95435	92172	364	24	652	37	58481	1228808	1077
524	2015-09-24 17:11:20	0	0	0	0	0	0	4.76	0.38	0.04	95438	0	3263	63954	95438	92175	364	24	652	37	58516	1228798	1077
525	2015-09-24 17:17:18	0	0	0	0	0	0	4.76	0.38	0.04	95438	0	3263	63954	95438	92175	364	24	652	37	58516	1228808	1077
526	2015-09-24 17:23:19	0	0	0	0	0	0	4.76	0.38	0.04	95441	0	3263	63954	95441	92178	364	24	652	37	58516	1228801	1077
527	2015-09-24 17:29:34	0	0	0	0	0	0	4.76	0.38	0.04	95441	0	3263	63954	95441	92178	364	24	652	37	58516	1228814	1077
528	2015-09-24 17:35:20	0	0	0	0	0	0	4.76	0.38	0.04	95443	0	3263	63954	95443	92180	364	24	652	37	58516	1228798	1077
529	2015-09-24 17:41:18	0	0	0	0	0	0	4.76	0.38	0.04	95443	0	3263	63954	95443	92180	364	24	652	37	58516	1228808	1077
530	2015-09-24 17:47:14	0	0	0	0	0	0	4.76	0.38	0.04	95445	0	3263	63954	95445	92182	364	24	652	37	58516	1228784	1077
531	2015-09-24 17:53:18	0	0	0	0	0	0	4.76	0.38	0.04	95445	0	3263	63954	95445	92182	364	24	652	37	58516	1228798	1077
532	2015-09-24 17:59:14	0	0	0	0	0	0	4.76	0.38	0.04	95449	0	3263	63954	95449	92186	364	24	652	37	58516	1228778	1077
533	2015-09-24 18:05:19	0	0	0	0	0	0	4.76	0.38	0.04	95449	0	3263	63954	95449	92186	364	24	652	37	58516	1228785	1077
534	2015-09-24 18:11:16	0	0	0	0	0	0	4.76	0.38	0.04	95449	0	3263	63954	95449	92186	364	24	652	37	58516	1228772	1077
535	2015-09-24 18:17:12	0	0	0	0	0	0	4.76	0.38	0.04	95449	0	3263	63954	95449	92186	364	24	652	37	58516	1228778	1077
536	2015-09-24 18:23:12	0	0	0	0	0	0	4.76	0.38	0.04	95452	0	3264	63954	95452	92188	364	24	652	37	58516	1228780	1077
537	2015-09-24 18:29:20	0	0	0	0	0	0	4.76	0.38	0.04	95452	0	3264	63954	95452	92188	364	24	652	37	58516	1228787	1077
538	2015-09-24 18:35:22	0	0	0	0	0	0	4.76	0.38	0.04	95454	0	3264	63954	95454	92190	364	24	652	37	58516	1228790	1077
539	2015-09-24 18:41:18	0	0	0	0	0	0	4.76	0.38	0.04	95454	0	3264	63954	95454	92190	364	24	652	37	58516	1228795	1077
540	2015-09-24 18:47:35	0	0	0	0	0	0	4.76	0.38	0.04	95457	0	3265	64017	95457	92192	364	24	652	37	58516	1228779	1077
541	2015-09-24 18:53:23	0	0	0	0	0	0	4.76	0.38	0.04	95457	0	3265	64017	95457	92192	364	24	652	37	58516	1228783	1077
542	2015-09-24 18:59:26	0	0	0	0	0	0	4.76	0.38	0.04	95462	0	3265	64017	95462	92197	364	24	652	37	58516	1228776	1077
543	2015-09-24 19:05:25	0	0	0	0	0	0	4.76	0.38	0.04	95462	0	3265	64017	95462	92197	364	24	652	37	58516	1228782	1077
544	2015-09-24 19:11:17	0	0	0	0	0	0	4.76	0.38	0.04	95464	0	3265	64017	95464	92199	364	24	652	37	58516	1228777	1077
545	2015-09-24 19:17:19	0	0	0	0	0	0	4.76	0.38	0.04	95464	0	3265	64017	95464	92199	364	24	652	37	58516	1228791	1077
546	2015-09-24 19:23:13	0	0	0	0	0	0	4.76	0.38	0.04	95466	0	3265	64017	95466	92201	364	24	652	37	58516	1228772	1077
547	2015-09-24 19:29:21	0	0	0	0	0	0	4.76	0.38	0.04	95466	0	3265	64017	95466	92201	364	24	652	37	58516	1228778	1077
548	2015-09-24 19:35:13	0	0	0	0	0	0	4.76	0.38	0.04	95468	0	3266	64017	95468	92202	364	24	652	37	58516	1228769	1077
549	2015-09-24 19:41:12	0	0	0	0	0	0	4.76	0.38	0.04	95468	0	3266	64017	95468	92202	364	24	652	37	58516	1228778	1077
550	2015-09-24 19:47:16	0	0	0	0	0	0	4.76	0.38	0.04	95474	0	3266	64017	95474	92208	364	24	652	37	58516	1228770	1077
551	2015-09-24 19:53:17	0	0	0	0	0	0	4.76	0.38	0.04	95474	0	3266	64017	95474	92208	364	24	652	37	58516	1228777	1077
552	2015-09-24 19:59:30	0	0	0	0	0	0	4.76	0.38	0.04	95474	0	3266	64017	95474	92208	364	24	652	37	58516	1228776	1077
553	2015-09-24 20:05:23	0	0	0	0	0	0	4.76	0.38	0.04	95474	0	3266	64017	95474	92208	364	24	652	37	58516	1228782	1077
554	2015-09-24 20:11:17	0	0	0	0	0	0	4.76	0.38	0.04	95476	0	3267	64017	95476	92209	364	24	652	37	58516	1228778	1077
555	2015-09-24 20:17:15	0	0	0	0	0	0	4.76	0.38	0.04	95476	0	3267	64017	95476	92209	364	24	652	37	58516	1228786	1077
556	2015-09-24 20:23:15	0	0	0	0	0	0	4.76	0.38	0.04	95479	0	3268	64017	95479	92211	364	24	652	37	58516	1228779	1077
557	2015-09-24 20:29:23	0	0	0	0	0	0	4.76	0.38	0.04	95479	0	3268	64017	95479	92211	364	24	652	37	58516	1228785	1077
558	2015-09-24 20:35:18	0	0	0	0	0	0	4.76	0.38	0.04	95481	0	3268	64017	95481	92213	364	24	652	37	58516	1228784	1077
559	2015-09-24 20:41:21	0	0	0	0	0	0	4.76	0.38	0.04	95481	0	3268	64017	95481	92213	364	24	652	37	58516	1228795	1077
560	2015-09-24 20:47:18	0	0	0	0	0	0	4.76	0.38	0.04	95486	0	3268	64017	95486	92218	364	24	652	37	58516	1228790	1077
561	2015-09-24 20:53:17	0	0	0	0	0	0	4.76	0.38	0.04	95486	0	3268	64017	95486	92218	364	24	652	37	58516	1228799	1077
562	2015-09-24 20:59:25	0	0	0	0	0	0	4.76	0.38	0.04	95488	0	3268	64017	95488	92220	364	24	652	37	58516	1228791	1077
563	2015-09-24 21:05:27	0	0	0	0	0	0	4.76	0.38	0.04	95488	0	3268	64017	95488	92220	364	24	652	37	58516	1228803	1077
564	2015-09-24 21:11:34	0	0	0	0	0	0	4.76	0.38	0.04	95492	0	3269	64017	95492	92223	364	24	652	37	58516	1228791	1077
565	2015-09-24 21:17:16	0	0	0	0	0	0	4.76	0.38	0.04	95492	0	3269	64017	95492	92223	364	24	652	37	58516	1228801	1077
566	2015-09-24 21:23:22	0	0	0	0	0	0	4.76	0.38	0.04	95495	0	3270	64017	95495	92225	364	24	652	37	58516	1228805	1077
567	2015-09-24 21:29:22	0	0	0	0	0	0	4.76	0.38	0.04	95495	0	3270	64017	95495	92225	364	24	652	37	58516	1228818	1077
568	2015-09-24 21:35:21	0	0	0	0	0	0	4.76	0.38	0.04	95498	0	3270	64017	95498	92228	364	24	652	37	58516	1228810	1077
569	2015-09-24 21:41:18	0	0	0	0	0	0	4.76	0.38	0.04	95498	0	3270	64017	95498	92228	364	24	652	37	58516	1228822	1077
570	2015-09-24 21:47:20	0	0	0	0	0	0	4.76	0.38	0.04	95501	0	3270	64017	95501	92231	364	24	652	37	58516	1228815	1077
