1	2016-04-20 11:00:09	0	0	0	0	0	0	0.69	0.42	0.01	13695	0	69	12154	13695	13626	57	13	152	7	12115	1760745	229
2	2016-04-20 11:10:07	0	0	0	0	0	0	2.43	0.64	0.04	53825	0	2255	44823	53825	51570	344	64	796	36	42847	1760782	1240
3	2016-04-20 11:20:24	0	0	0	0	0	0	2.98	0.63	0.06	68680	0	3716	55487	68680	64964	433	86	987	47	52399	1760805	1553
4	2016-04-20 11:30:10	0	0	0	0	0	0	3.99	0.66	0.08	95463	0	7084	66203	95463	88379	633	106	1201	53	70248	1760827	1993
5	2016-04-20 11:40:10	0	0	0	0	0	0	4.32	0.65	0.09	105013	0	8418	82152	105013	96595	681	143	1480	74	76144	1760854	2378
6	2016-04-20 11:50:10	0	0	0	0	0	0	4.88	0.67	0.1	122848	0	11133	93145	122848	111715	824	167	1709	87	85895	1760880	2787
7	2016-04-20 12:00:10	0	0	0	0	0	0	5.11	0.68	0.11	131233	0	12686	98737	131233	118547	891	182	1821	89	89919	1760909	2983
8	2016-04-20 12:10:19	0	0	0	0	0	0	5.63	0.68	0.12	147694	0	15847	105019	147694	131847	1011	194	1929	91	99167	1760924	3225
9	2016-04-20 12:20:10	0	0	0	0	0	0	5.77	0.69	0.13	153852	0	17107	113480	153852	136745	1068	210	2120	96	101532	1760944	3494
10	2016-04-20 12:30:09	0	0	0	0	0	0	6.02	0.7	0.13	164868	0	19590	120357	164868	145278	1156	222	2250	102	105948	1760966	3730
11	2016-04-20 12:40:10	0	0	0	0	0	0	6.15	0.69	0.14	170081	0	20714	123163	170081	149367	1182	224	2323	108	108329	1760988	3837
12	2016-04-20 12:50:08	0	0	0	0	0	0	6.25	0.68	0.15	179822	0	22947	127999	179822	156875	1229	226	2378	115	110065	1761001	3948
13	2016-04-20 13:00:19	0	0	0	0	0	0	6.44	0.7	0.15	183828	0	23929	131035	183828	159899	1291	249	2496	123	113375	1761020	4159
14	2016-04-20 13:10:09	0	0	0	0	0	0	6.54	0.7	0.15	188630	0	25057	133904	188630	163573	1329	251	2556	131	115259	1761030	4267
15	2016-04-20 13:20:21	0	0	0	0	0	0	6.87	0.71	0.16	197398	0	27254	140383	197398	170144	1398	254	2621	140	120921	1761047	4413
16	2016-04-20 13:30:19	0	0	0	0	0	0	7.01	0.71	0.17	204675	0	29077	143574	204675	175598	1451	264	2749	156	123439	1761061	4620
17	2016-04-20 13:40:21	0	0	0	0	0	0	7.05	0.71	0.17	207920	0	29853	144833	207920	178067	1475	265	2794	157	124072	1761092	4691
18	2016-04-20 13:50:11	0	0	0	0	0	0	7.2	0.71	0.17	215019	0	31627	149133	215019	183392	1526	276	2883	165	126729	1761114	4850
19	2016-04-20 14:00:18	0	0	0	0	0	0	7.29	0.71	0.18	219143	0	32792	151730	219143	186351	1556	278	2938	166	128472	1761141	4938
20	2016-04-20 14:10:20	0	0	0	0	0	0	7.46	0.71	0.18	226184	0	34804	153261	226184	191380	1612	281	2992	168	131323	1761173	5053
21	2016-04-20 14:20:10	0	0	0	0	0	0	7.53	0.71	0.18	229134	0	35594	157633	229134	193540	1628	283	3076	177	132542	1761193	5164
22	2016-04-20 14:30:11	0	0	0	0	0	0	7.72	0.71	0.19	235513	0	37239	161714	235513	198274	1676	285	3145	180	135994	1761207	5286
23	2016-04-20 14:40:13	0	0	0	0	0	0	7.82	0.71	0.19	238305	0	37987	163772	238305	200318	1687	287	3179	183	137691	1761227	5336
24	2016-04-20 14:50:12	0	0	0	0	0	0	7.99	0.71	0.19	244161	0	39518	166629	244161	204643	1732	289	3219	188	140680	1761248	5428
25	2016-04-20 15:00:28	0	0	0	0	0	0	8.14	0.71	0.2	248845	0	40805	172492	248845	208040	1764	296	3288	189	143321	1761265	5537
26	2016-04-20 15:10:11	0	0	0	0	0	0	8.18	0.7	0.2	251682	0	41645	173272	251682	210037	1772	300	3326	192	144128	1761280	5590
27	2016-04-20 15:20:11	0	0	0	0	0	0	8.34	0.71	0.2	257329	0	43364	175556	257329	213965	1820	305	3383	195	146807	1761293	5703
28	2016-04-20 15:30:20	0	0	0	0	0	0	8.41	0.71	0.2	260000	0	44131	177137	260000	215869	1837	307	3411	196	148063	1761305	5751
29	2016-04-20 15:40:12	0	0	0	0	0	0	8.49	0.71	0.21	262734	0	44918	179026	262734	217816	1858	308	3446	200	149463	1761321	5812
30	2016-04-20 15:50:46	0	0	0	0	0	0	8.59	0.71	0.21	268717	0	46537	181822	268717	222180	1900	310	3524	204	151259	1761342	5938
31	2016-04-20 16:00:25	0	0	0	0	0	0	8.61	0.7	0.21	273320	0	47162	183713	273320	225546	1913	310	3551	205	151704	1761367	5979
32	2016-04-20 16:10:11	0	0	0	0	0	0	8.73	0.71	0.21	275748	0	48486	184738	275748	227262	1948	311	3615	208	153743	1761387	6082
33	2016-04-20 16:20:11	0	0	0	0	0	0	8.82	0.7	0.21	278115	0	49168	187100	278115	228947	1959	312	3641	209	155438	1761410	6121
34	2016-04-20 16:30:12	0	0	0	0	0	0	8.93	0.71	0.22	282555	0	50433	189714	282555	232122	2001	318	3700	209	157258	1761426	6228
35	2016-04-20 16:40:20	0	0	0	0	0	0	8.98	0.71	0.22	284689	0	51117	190604	284689	233572	2014	319	3723	211	158212	1761441	6267
36	2016-04-20 16:50:12	0	0	0	0	0	0	9.01	0.71	0.22	289547	0	52560	192260	289547	236987	2042	324	3797	219	158763	1761453	6382
37	2016-04-20 17:00:12	0	0	0	0	0	0	9.06	0.71	0.22	291904	0	53220	193976	291904	238684	2059	324	3831	220	159528	1761468	6434
38	2016-04-20 17:10:12	0	0	0	0	0	0	9.17	0.7	0.23	296424	0	54520	196693	296424	241904	2087	329	3901	226	161479	1761488	6543
39	2016-04-20 17:20:21	0	0	0	0	0	0	9.25	0.7	0.23	298240	0	55045	198414	298240	243195	2096	330	3914	227	163013	1761512	6567
40	2016-04-20 17:30:23	0	0	0	0	0	0	9.35	0.7	0.23	302005	0	56089	200184	302005	245916	2119	332	3964	233	164660	1761531	6648
41	2016-04-20 17:40:25	0	0	0	0	0	0	9.46	0.7	0.23	305812	0	57229	203232	305812	248583	2134	332	3991	233	166672	1761546	6690
42	2016-04-20 17:50:17	0	0	0	0	0	0	9.53	0.7	0.23	307531	0	57760	204605	307531	249771	2155	335	4037	235	167806	1761565	6762
43	2016-04-20 18:00:42	0	0	0	0	0	0	9.65	0.7	0.23	311421	0	58843	207316	311421	252578	2186	337	4086	235	170016	1761577	6844
44	2016-04-20 18:10:19	0	0	0	0	0	0	9.7	0.7	0.23	313405	0	59394	208264	313405	254011	2197	337	4102	236	170879	1761589	6872
45	2016-04-20 18:20:26	0	0	0	0	0	0	9.82	0.7	0.24	317291	0	60555	211342	317291	256736	2226	343	4157	237	173062	1761609	6963
46	2016-04-20 18:30:14	0	0	0	0	0	0	9.86	0.7	0.24	319279	0	61169	212721	319279	258110	2239	344	4183	240	173761	1761626	7006
47	2016-04-20 18:40:13	0	0	0	0	0	0	9.99	0.7	0.24	322770	0	62232	214910	322770	260538	2251	344	4215	241	175981	1761643	7051
48	2016-04-20 18:50:14	0	0	0	0	0	0	10.01	0.7	0.24	324716	0	62764	215411	324716	261952	2260	344	4246	241	176316	1761663	7091
49	2016-04-20 19:00:22	0	0	0	0	0	0	10.06	0.69	0.24	328720	0	63899	217878	328720	264821	2274	346	4271	241	177212	1761688	7132
50	2016-04-20 19:10:15	0	0	0	0	0	0	10.15	0.7	0.24	330600	0	64426	218739	330600	266174	2303	347	4308	242	178891	1761716	7200
51	2016-04-20 19:20:13	0	0	0	0	0	0	10.23	0.7	0.24	332512	0	64992	220084	332512	267520	2313	349	4334	242	180166	1761725	7238
52	2016-04-20 19:30:23	0	0	0	0	0	0	10.29	0.7	0.24	335979	0	66035	221841	335979	269944	2336	353	4364	245	181279	1761752	7298
53	2016-04-20 19:40:16	0	0	0	0	0	0	10.36	0.7	0.25	337736	0	66481	223733	337736	271255	2353	355	4384	245	182604	1761761	7337
54	2016-04-20 19:50:14	0	0	0	0	0	0	10.45	0.69	0.25	341223	0	67429	224948	341223	273794	2370	358	4431	247	184135	1761779	7406
55	2016-04-20 20:00:23	0	0	0	0	0	0	10.5	0.7	0.25	343249	0	67973	225702	343249	275276	2386	360	4444	249	185005	1761799	7439
56	2016-04-20 20:10:14	0	0	0	0	0	0	10.58	0.69	0.25	346739	0	68913	227861	346739	277826	2405	361	4496	250	186446	1761816	7512
57	2016-04-20 20:20:24	0	0	0	0	0	0	10.61	0.69	0.25	348224	0	69351	228212	348224	278873	2415	363	4511	254	186862	1761831	7543
58	2016-04-20 20:30:26	0	0	0	0	0	0	10.66	0.69	0.25	351649	0	70373	229996	351649	281276	2432	365	4553	259	187885	1761850	7609
59	2016-04-20 20:40:15	0	0	0	0	0	0	10.73	0.69	0.25	354614	0	71279	231514	354614	283335	2449	367	4597	260	189128	1761864	7673
60	2016-04-20 20:50:24	0	0	0	0	0	0	10.77	0.69	0.25	356155	0	71707	231929	356155	284448	2457	369	4611	260	189683	1761909	7697
61	2016-04-20 21:00:24	0	0	0	0	0	0	10.84	0.69	0.25	359821	0	72789	234996	359821	287032	2477	371	4650	263	190910	1761945	7761
62	2016-04-20 21:10:26	0	0	0	0	0	0	10.86	0.69	0.25	361581	0	73289	235568	361581	288292	2488	373	4674	263	191264	1761968	7798
63	2016-04-20 21:20:26	0	0	0	0	0	0	10.92	0.69	0.26	365074	0	74303	237798	365074	290771	2512	376	4717	265	192355	1761997	7870
64	2016-04-20 21:30:24	0	0	0	0	0	0	10.95	0.69	0.26	366726	0	74742	238903	366726	291984	2522	376	4735	267	192961	1762028	7900
65	2016-04-20 21:40:15	0	0	0	0	0	0	11.09	0.68	0.26	370186	0	75748	241225	370186	294438	2529	377	4753	269	195485	1762065	7928
66	2016-04-20 21:50:15	0	0	0	0	0	0	11.13	0.69	0.26	371991	0	76238	242240	371991	295753	2555	377	4797	270	196055	1762099	7999
67	2016-04-20 22:00:24	0	0	0	0	0	0	11.15	0.68	0.26	373733	0	76734	243679	373733	296999	2558	378	4818	272	196553	1762118	8026
68	2016-04-20 22:10:15	0	0	0	0	0	0	11.25	0.68	0.26	377097	0	77705	245233	377097	299392	2570	380	4873	273	198172	1762153	8096
69	2016-04-20 22:20:15	0	0	0	0	0	0	11.32	0.68	0.26	378463	0	78099	246261	378463	300364	2574	381	4895	274	199474	1762187	8124
70	2016-04-20 22:30:16	0	0	0	0	0	0	11.37	0.68	0.26	381592	0	78982	247571	381592	302610	2595	381	4921	277	200333	1762230	8174
71	2016-04-20 22:40:15	0	0	0	0	0	0	11.45	0.68	0.26	384312	0	79790	249625	384312	304522	2611	384	4953	279	201715	1762254	8227
72	2016-04-20 22:50:15	0	0	0	0	0	0	11.49	0.68	0.26	385951	0	80265	250301	385951	305686	2615	385	4971	279	202420	1762278	8250
73	2016-04-20 23:00:27	0	0	0	0	0	0	11.53	0.68	0.26	387590	0	80731	250990	387590	306859	2622	385	4991	279	203271	1762310	8277
74	2016-04-20 23:10:15	0	0	0	0	0	0	11.59	0.68	0.26	390635	0	81686	252073	390635	308949	2642	391	5023	282	204229	1762333	8338
75	2016-04-20 23:20:23	0	0	0	0	0	0	11.66	0.67	0.27	393098	0	82382	253507	393098	310716	2649	391	5038	283	205538	1762370	8361
76	2016-04-20 23:30:15	0	0	0	0	0	0	11.69	0.67	0.27	394295	0	82707	254298	394295	311588	2656	391	5051	283	205962	1762401	8381
77	2016-04-20 23:40:24	0	0	0	0	0	0	11.71	0.67	0.27	396824	0	83421	254885	396824	313403	2667	395	5077	287	206456	1762426	8426
78	2016-04-20 23:50:24	0	0	0	0	0	0	11.74	0.67	0.27	397904	0	83740	255584	397904	314164	2673	396	5085	287	206915	1762453	8441
79	2016-04-21 00:00:15	0	0	0	0	0	0	11.76	0.67	0.27	400057	0	84354	256250	400057	315703	2690	396	5108	289	207351	1762476	8483
80	2016-04-21 00:10:25	0	0	0	0	0	0	11.78	0.67	0.27	401149	0	84643	256548	401149	316506	2692	396	5125	289	207546	1762499	8502
81	2016-04-21 00:20:15	0	0	0	0	0	0	11.8	0.67	0.27	402924	0	85104	257155	402924	317820	2705	396	5145	293	207943	1762508	8539
82	2016-04-21 00:30:24	0	0	0	0	0	0	11.84	0.67	0.27	404628	0	85598	257969	404628	319030	2715	398	5175	295	208714	1762519	8583
83	2016-04-21 00:40:15	0	0	0	0	0	0	11.86	0.67	0.27	405382	0	85781	258378	405382	319601	2718	398	5183	295	208953	1762530	8594
84	2016-04-21 00:50:15	0	0	0	0	0	0	11.91	0.67	0.27	406728	0	86132	258940	406728	320596	2729	398	5202	296	209860	1762547	8625
85	2016-04-21 01:00:15	0	0	0	0	0	0	11.94	0.67	0.27	407264	0	86261	259853	407264	321003	2731	398	5207	296	210459	1762556	8632
86	2016-04-21 01:10:23	0	0	0	0	0	0	11.96	0.67	0.27	408479	0	86600	260454	408479	321879	2739	400	5228	296	210824	1762566	8663
87	2016-04-21 01:20:15	0	0	0	0	0	0	12	0.67	0.27	409328	0	86868	261465	409328	322460	2744	400	5239	297	211487	1762571	8680
88	2016-04-21 01:30:15	0	0	0	0	0	0	12	0.67	0.27	409806	0	87010	261554	409806	322796	2744	400	5246	297	211544	1762577	8687
89	2016-04-21 01:40:23	0	0	0	0	0	0	12.01	0.67	0.27	410134	0	87100	261797	410134	323034	2748	400	5251	298	211689	1762585	8697
90	2016-04-21 01:50:23	0	0	0	0	0	0	12.03	0.67	0.27	410779	0	87298	262063	410779	323481	2752	400	5253	299	212037	1762592	8704
91	2016-04-21 02:00:16	0	0	0	0	0	0	12.06	0.67	0.27	411369	0	87462	262452	411369	323907	2755	400	5257	299	212408	1761590	8711
92	2016-04-21 02:10:15	0	0	0	0	0	0	12.06	0.67	0.27	411632	0	87523	262585	411632	324109	2755	400	5262	299	212495	1761584	8716
93	2016-04-21 02:20:15	0	0	0	0	0	0	12.06	0.67	0.27	412042	0	87617	262585	412042	324425	2758	400	5264	299	212495	1761581	8721
94	2016-04-21 02:30:15	0	0	0	0	0	0	12.06	0.67	0.27	412214	0	87658	262585	412214	324556	2758	400	5265	299	212495	1761581	8722
95	2016-04-21 02:40:15	0	0	0	0	0	0	12.07	0.67	0.27	412609	0	87737	262674	412609	324872	2758	400	5270	299	212554	1761587	8727
96	2016-04-21 02:50:15	0	0	0	0	0	0	12.08	0.67	0.27	412780	0	87778	263031	412780	325002	2759	400	5271	299	212787	1761588	8729
97	2016-04-21 03:00:15	0	0	0	0	0	0	12.09	0.67	0.27	413081	0	87849	263389	413081	325232	2760	400	5274	299	212904	1761591	8733
98	2016-04-21 03:10:14	0	0	0	0	0	0	12.09	0.67	0.27	413213	0	87873	263389	413213	325340	2760	400	5277	299	212904	1761594	8736
99	2016-04-21 03:20:15	0	0	0	0	0	0	12.09	0.67	0.27	413437	0	87933	263389	413437	325504	2765	400	5279	299	212904	1761597	8743
100	2016-04-21 03:30:15	0	0	0	0	0	0	12.09	0.67	0.27	413535	0	87956	263389	413535	325579	2765	400	5280	299	212904	1761596	8744
101	2016-04-21 03:40:23	0	0	0	0	0	0	12.09	0.67	0.27	413758	0	88009	263389	413758	325749	2765	400	5280	299	212904	1761598	8744
102	2016-04-21 03:50:23	0	0	0	0	0	0	12.09	0.67	0.27	413848	0	88032	263389	413848	325816	2765	400	5281	299	212904	1761599	8745
103	2016-04-21 04:00:14	0	0	0	0	0	0	12.09	0.67	0.27	414059	0	88080	263389	414059	325979	2766	400	5283	299	212904	1761599	8748
104	2016-04-21 04:10:24	0	0	0	0	0	0	12.09	0.67	0.27	414152	0	88104	263389	414152	326048	2767	400	5283	299	212904	1761603	8749
105	2016-04-21 04:20:15	0	0	0	0	0	0	12.09	0.67	0.27	414322	0	88147	263608	414322	326175	2769	400	5290	299	213047	1761606	8758
106	2016-04-21 04:30:14	0	0	0	0	0	0	12.09	0.67	0.27	414413	0	88172	263608	414413	326241	2770	400	5291	299	213047	1761607	8760
107	2016-04-21 04:40:15	0	0	0	0	0	0	12.12	0.67	0.27	414580	0	88214	264193	414580	326366	2773	400	5293	299	213429	1761607	8765
108	2016-04-21 04:50:15	0	0	0	0	0	0	12.12	0.67	0.27	414651	0	88230	264509	414651	326421	2773	400	5294	299	213429	1761614	8766
109	2016-04-21 05:00:15	0	0	0	0	0	0	12.14	0.67	0.27	414827	0	88268	264599	414827	326559	2774	400	5297	299	213901	1761617	8770
110	2016-04-21 05:10:23	0	0	0	0	0	0	12.15	0.67	0.27	415012	0	88310	264690	415012	326702	2775	400	5298	299	213960	1761624	8772
111	2016-04-21 05:20:15	0	0	0	0	0	0	12.16	0.67	0.27	415104	0	88336	265052	415104	326768	2775	400	5298	299	214197	1761628	8772
112	2016-04-21 05:30:18	0	0	0	0	0	0	12.16	0.67	0.27	415335	0	88393	265370	415335	326942	2776	400	5301	299	214197	1761630	8776
113	2016-04-21 05:40:20	0	0	0	0	0	0	12.16	0.67	0.27	415485	0	88434	265381	415485	327051	2776	400	5301	299	214197	1761637	8776
114	2016-04-21 05:50:23	0	0	0	0	0	0	12.16	0.67	0.27	415786	0	88515	265381	415786	327271	2779	400	5302	299	214197	1761641	8780
115	2016-04-21 06:00:25	0	0	0	0	0	0	12.16	0.67	0.27	415946	0	88555	265381	415946	327391	2781	400	5304	299	214197	1761648	8784
116	2016-04-21 06:10:18	0	0	0	0	0	0	12.19	0.67	0.27	416315	0	88643	266194	416315	327672	2782	400	5308	299	214726	1761659	8789
117	2016-04-21 06:20:23	0	0	0	0	0	0	12.19	0.67	0.27	416521	0	88697	266377	416521	327824	2782	401	5309	299	214726	1761667	8791
118	2016-04-21 06:37:32	0	0	0	0	0	0	12.22	0.67	0.27	417230	0	88892	266836	417230	328338	2787	401	5314	299	215263	1761673	8801
119	2016-04-21 06:40:18	0	0	0	0	0	0	12.22	0.67	0.27	417230	0	88892	266836	417230	328338	2787	401	5314	299	215263	1761676	8801
120	2016-04-21 06:50:30	0	0	0	0	0	0	12.22	0.67	0.27	417689	0	89007	267250	417689	328682	2789	401	5321	299	215293	1761686	8810
121	2016-04-21 07:00:27	0	0	0	0	0	0	12.27	0.67	0.27	418340	0	89172	268223	418340	329168	2793	401	5328	299	216105	1761691	8821
122	2016-04-21 07:10:16	0	0	0	0	0	0	12.29	0.67	0.27	418656	0	89238	268595	418656	329418	2795	401	5331	300	216589	1761708	8827
123	2016-04-21 07:20:16	0	0	0	0	0	0	12.33	0.67	0.27	419497	0	89434	269577	419497	330063	2802	401	5339	301	217151	1761714	8843
124	2016-04-21 07:30:33	0	0	0	0	0	0	12.33	0.67	0.27	420244	0	89629	269577	420244	330615	2804	401	5346	301	217242	1761727	8852
125	2016-04-21 07:40:17	0	0	0	0	0	0	12.33	0.67	0.27	420753	0	89774	269577	420753	330979	2811	401	5356	301	217242	1761738	8869
126	2016-04-21 07:50:27	0	0	0	0	0	0	12.36	0.67	0.27	421645	0	89991	270254	421645	331654	2823	402	5362	301	217804	1761747	8888
127	2016-04-21 08:00:17	0	0	0	0	0	0	12.38	0.67	0.27	422141	0	90110	270454	422141	332031	2825	402	5365	301	218057	1761762	8893
128	2016-04-21 08:10:18	0	0	0	0	0	0	12.47	0.67	0.27	423189	0	90385	271754	423189	332804	2830	402	5374	301	219771	1761773	8907
129	2016-04-21 08:20:19	0	0	0	0	0	0	12.47	0.67	0.27	423766	0	90524	271754	423766	333242	2835	402	5376	301	219771	1761788	8914
130	2016-04-21 08:30:21	0	0	0	0	0	0	12.49	0.67	0.27	424369	0	90728	272136	424369	333641	2839	403	5378	301	220021	1761802	8921
131	2016-04-21 08:40:21	0	0	0	0	0	0	12.54	0.67	0.27	425419	0	91019	272256	425419	334400	2844	405	5386	301	220915	1761816	8936
132	2016-04-21 08:50:19	0	0	0	0	0	0	12.55	0.67	0.27	426591	0	91363	272600	426591	335228	2853	407	5395	301	221042	1761832	8956
133	2016-04-21 09:00:29	0	0	0	0	0	0	12.55	0.67	0.27	427126	0	91507	272840	427126	335619	2855	407	5401	301	221199	1761851	8964
134	2016-04-21 09:10:34	0	0	0	0	0	0	12.57	0.67	0.27	428061	0	91809	272931	428061	336252	2863	407	5408	301	221449	1761876	8979
135	2016-04-21 09:20:35	0	0	0	0	0	0	12.6	0.67	0.27	429060	0	92108	273799	429060	336952	2871	410	5419	301	221957	1761895	9001
136	2016-04-21 09:30:37	0	0	0	0	0	0	12.6	0.67	0.27	429581	0	92287	273799	429581	337294	2873	411	5422	301	221957	1761918	9007
137	2016-04-21 09:40:21	0	0	0	0	0	0	12.61	0.67	0.27	430476	0	92581	273993	430476	337895	2879	411	5423	302	222211	1761945	9015
138	2016-04-21 09:50:36	0	0	0	0	0	0	12.63	0.67	0.27	430965	0	92714	273999	430965	338251	2884	411	5431	302	222451	1761962	9028
139	2016-04-21 10:00:38	0	0	0	0	0	0	12.66	0.67	0.27	431844	0	92975	274884	431844	338869	2890	412	5440	302	223034	1761980	9044
140	2016-04-21 10:10:36	0	0	0	0	0	0	12.71	0.67	0.27	432592	0	93247	275545	432592	339345	2894	412	5450	302	223905	1762002	9058
141	2016-04-21 10:20:43	0	0	0	0	0	0	12.71	0.67	0.27	433076	0	93398	275594	433076	339678	2896	412	5452	302	223937	1762027	9062
142	2016-04-21 10:30:43	0	0	0	0	0	0	12.73	0.67	0.28	433901	0	93648	275888	433901	340253	2897	413	5457	302	224392	1762046	9069
143	2016-04-21 10:40:43	0	0	0	0	0	0	12.74	0.67	0.28	434346	0	93801	275986	434346	340545	2897	413	5459	302	224456	1762066	9071
144	2016-04-21 10:50:38	0	0	0	0	0	0	12.78	0.67	0.28	435154	0	94065	276874	435154	341089	2899	414	5466	302	225109	1762092	9081
145	2016-04-21 11:00:45	0	0	0	0	0	0	12.79	0.67	0.28	435505	0	94163	277265	435505	341342	2899	414	5469	302	225367	1762106	9084
146	2016-04-21 11:10:25	0	0	0	0	0	0	12.8	0.67	0.28	436219	0	94391	277462	436219	341828	2905	414	5476	302	225563	1762120	9097
147	2016-04-21 11:20:21	0	0	0	0	0	0	12.81	0.67	0.28	436624	0	94536	277611	436624	342088	2909	414	5478	302	225661	1762144	9103
148	2016-04-21 11:30:42	0	0	0	0	0	0	12.82	0.67	0.28	437359	0	94805	277960	437359	342554	2914	415	5480	302	225892	1762170	9111
149	2016-04-21 11:40:20	0	0	0	0	0	0	12.85	0.67	0.28	437715	0	94922	278507	437715	342793	2914	415	5482	302	226418	1762193	9113
150	2016-04-21 11:50:36	0	0	0	0	0	0	12.88	0.67	0.28	438377	0	95225	279160	438377	343152	2920	416	5494	302	226950	1762220	9132
151	2016-04-21 12:00:19	0	0	0	0	0	0	12.88	0.67	0.28	438731	0	95385	279245	438731	343346	2924	418	5497	302	226950	1762261	9141
152	2016-04-21 12:10:49	0	0	0	0	0	0	12.88	0.67	0.28	439065	0	95526	279346	439065	343539	2928	419	5501	302	227016	1762301	9150
153	2016-04-21 12:20:30	0	0	0	0	0	0	12.89	0.67	0.28	439566	0	95729	279598	439566	343837	2931	419	5507	302	227183	1762317	9159
154	2016-04-21 12:30:31	0	0	0	0	0	0	12.89	0.67	0.28	440085	0	95956	279598	440085	344129	2933	419	5512	302	227183	1762358	9166
155	2016-04-21 12:40:21	0	0	0	0	0	0	12.9	0.67	0.28	440362	0	96078	279952	440362	344284	2935	419	5516	302	227349	1762390	9172
156	2016-04-21 12:50:21	0	0	0	0	0	0	12.9	0.67	0.28	440780	0	96230	279952	440780	344550	2936	419	5517	302	227349	1762413	9174
157	2016-04-21 13:00:45	0	0	0	0	0	0	12.9	0.67	0.28	441006	0	96313	279952	441006	344693	2939	419	5520	302	227349	1762451	9180
158	2016-04-21 13:10:50	0	0	0	0	0	0	12.9	0.67	0.28	441449	0	96485	279952	441449	344964	2939	420	5523	302	227349	1762484	9184
159	2016-04-21 13:20:32	0	0	0	0	0	0	12.9	0.67	0.28	441684	0	96578	280154	441684	345106	2943	420	5524	302	227349	1762521	9189
160	2016-04-21 13:30:35	0	0	0	0	0	0	12.92	0.67	0.28	442041	0	96708	280650	442041	345333	2944	420	5529	302	227675	1762549	9195
161	2016-04-21 13:40:27	0	0	0	0	0	0	12.93	0.67	0.28	442397	0	96849	280841	442397	345548	2946	420	5530	302	227868	1762589	9198
162	2016-04-21 13:50:24	0	0	0	0	0	0	12.94	0.67	0.28	442632	0	96937	280841	442632	345695	2951	420	5540	302	228070	1762637	9213
163	2016-04-21 14:02:31	0	0	0	0	0	0	12.94	0.67	0.28	443117	0	97159	281492	443117	345958	2952	421	5544	303	228070	1762670	9220
164	2016-04-21 14:10:28	0	0	0	0	0	0	12.96	0.67	0.28	443329	0	97250	282030	443329	346079	2954	421	5545	303	228406	1762699	9223
165	2016-04-21 14:20:22	0	0	0	0	0	0	12.96	0.67	0.28	443723	0	97405	283243	443723	346318	2956	421	5549	303	228406	1762736	9229
166	2016-04-21 14:30:25	0	0	0	0	0	0	12.96	0.67	0.28	443888	0	97475	283243	443888	346413	2956	421	5550	303	228406	1762772	9230
167	2016-04-21 14:40:55	0	0	0	0	0	0	12.97	0.67	0.28	444303	0	97648	283762	444303	346655	2957	421	5558	303	228608	1762792	9239
168	2016-04-21 14:50:43	0	0	0	0	0	0	12.97	0.67	0.28	444478	0	97724	283762	444478	346754	2958	421	5558	303	228608	1762820	9240
169	2016-04-21 15:00:55	0	0	0	0	0	0	12.99	0.67	0.28	444844	0	97855	284074	444844	346989	2964	421	5561	303	229014	1762853	9249
170	2016-04-21 15:10:25	0	0	0	0	0	0	13.01	0.67	0.28	445048	0	97947	284283	445048	347101	2965	421	5562	303	229421	1762885	9251
171	2016-04-21 15:20:45	0	0	0	0	0	0	13.02	0.67	0.28	445352	0	98076	284335	445352	347276	2969	421	5566	303	229455	1762918	9259
172	2016-04-21 15:30:24	0	0	0	0	0	0	13.02	0.67	0.28	445531	0	98161	284335	445531	347370	2970	421	5568	303	229455	1762950	9262
173	2016-04-21 15:40:37	0	0	0	0	0	0	13.02	0.67	0.28	445708	0	98239	284335	445708	347469	2974	421	5570	304	229455	1762970	9269
174	2016-04-21 15:50:50	0	0	0	0	0	0	13.04	0.67	0.28	446065	0	98378	284440	446065	347687	2976	421	5573	304	229933	1762995	9274
175	2016-04-21 16:00:29	0	0	0	0	0	0	13.04	0.67	0.28	446224	0	98445	284440	446224	347779	2978	421	5575	304	229933	1763015	9278
176	2016-04-21 16:10:31	0	0	0	0	0	0	13.05	0.67	0.28	446514	0	98563	284440	446514	347951	2980	421	5579	304	230001	1763038	9284
177	2016-04-21 16:20:26	0	0	0	0	0	0	13.05	0.67	0.28	446676	0	98630	284440	446676	348046	2982	421	5580	304	230001	1763058	9287
178	2016-04-21 16:30:31	0	0	0	0	0	0	13.05	0.67	0.28	446928	0	98743	284440	446928	348185	2984	421	5582	304	230001	1763093	9291
179	2016-04-21 16:40:33	0	0	0	0	0	0	13.05	0.67	0.28	447065	0	98803	284596	447065	348262	2986	421	5583	304	230103	1763121	9294
180	2016-04-21 16:50:24	0	0	0	0	0	0	13.05	0.67	0.28	447382	0	98942	285016	447382	348440	2989	422	5590	304	230103	1763139	9305
181	2016-04-21 17:00:26	0	0	0	0	0	0	13.05	0.67	0.28	447559	0	99024	285016	447559	348535	2992	422	5591	304	230103	1763154	9309
182	2016-04-21 17:10:25	0	0	0	0	0	0	13.06	0.67	0.28	447854	0	99152	285173	447854	348702	2993	422	5594	304	230206	1763189	9313
183	2016-04-21 17:20:28	0	0	0	0	0	0	13.06	0.67	0.28	447969	0	99214	285173	447969	348755	2994	422	5595	304	230206	1763215	9315
184	2016-04-21 17:30:28	0	0	0	0	0	0	13.06	0.67	0.28	448283	0	99350	285383	448283	348933	2994	422	5597	304	230206	1763252	9317
185	2016-04-21 17:40:29	0	0	0	0	0	0	13.06	0.67	0.28	448412	0	99407	285581	448412	349005	2994	423	5598	304	230206	1763266	9319
186	2016-04-21 17:50:25	0	0	0	0	0	0	13.06	0.67	0.29	448704	0	99542	285765	448704	349162	2995	423	5598	304	230206	1763293	9320
187	2016-04-21 18:00:33	0	0	0	0	0	0	13.06	0.67	0.29	448973	0	99595	285765	448973	349321	2996	423	5600	304	230206	1763315	9323
188	2016-04-21 18:10:33	0	0	0	0	0	0	13.06	0.67	0.29	449132	0	99714	285765	449132	349418	2997	423	5605	304	230206	1763335	9329
189	2016-04-21 18:21:39	0	0	0	0	0	0	13.06	0.67	0.29	449262	0	99763	285765	449262	349499	2997	423	5606	306	230206	1763346	9332
190	2016-04-21 18:30:39	0	0	0	0	0	0	13.07	0.67	0.29	449552	0	99897	285765	449552	349655	2997	423	5608	309	230480	1763366	9337
191	2016-04-21 18:40:41	0	0	0	0	0	0	13.07	0.67	0.29	449665	0	99937	285765	449665	349728	2998	424	5609	309	230480	1763386	9340
192	2016-04-21 18:51:05	0	0	0	0	0	0	13.07	0.67	0.29	449925	0	100048	285765	449925	349877	2999	424	5610	310	230480	1763416	9343
193	2016-04-21 19:00:38	0	0	0	0	0	0	13.08	0.67	0.29	450028	0	100097	285924	450028	349931	2999	424	5612	310	230583	1763439	9345
194	2016-04-21 19:11:13	0	0	0	0	0	0	13.08	0.67	0.29	450281	0	100220	285975	450281	350061	2999	424	5617	310	230583	1763466	9350
195	2016-04-21 19:20:36	0	0	0	0	0	0	13.1	0.67	0.29	450546	0	100359	286610	450546	350187	3000	424	5621	310	230996	1763494	9355
196	2016-04-21 19:30:52	0	0	0	0	0	0	13.1	0.67	0.29	450679	0	100427	286610	450679	350252	3001	424	5622	310	230996	1763519	9357
197	2016-04-21 19:40:27	0	0	0	0	0	0	13.1	0.67	0.29	450930	0	100533	286610	450930	350397	3002	424	5623	310	230996	1763533	9359
198	2016-04-21 19:50:43	0	0	0	0	0	0	13.1	0.67	0.29	451081	0	100598	286716	451081	350483	3004	424	5623	310	230996	1763567	9361
199	2016-04-21 20:00:27	0	0	0	0	0	0	13.11	0.67	0.29	451310	0	100708	286929	451310	350602	3006	425	5625	310	231134	1763585	9366
200	2016-04-21 20:10:32	0	0	0	0	0	0	13.11	0.67	0.29	451447	0	100771	286929	451447	350676	3008	425	5626	310	231134	1763613	9369
201	2016-04-21 20:20:47	0	0	0	0	0	0	13.11	0.67	0.29	451747	0	100891	286929	451747	350856	3009	425	5627	310	231134	1763643	9371
202	2016-04-21 20:30:46	0	0	0	0	0	0	13.12	0.67	0.29	451899	0	100963	287348	451899	350936	3012	425	5627	310	231406	1763674	9374
203	2016-04-21 20:40:31	0	0	0	0	0	0	13.15	0.67	0.29	452143	0	101071	287722	452143	351072	3014	425	5628	310	231961	1763701	9377
204	2016-04-21 20:50:34	0	0	0	0	0	0	13.15	0.67	0.29	452287	0	101136	287722	452287	351151	3015	425	5630	311	231961	1763723	9381
205	2016-04-21 21:00:26	0	0	0	0	0	0	13.16	0.67	0.29	452558	0	101257	288043	452558	351301	3020	425	5634	311	232030	1763743	9390
206	2016-04-21 21:10:27	0	0	0	0	0	0	13.16	0.67	0.29	452665	0	101302	288043	452665	351363	3020	426	5637	311	232030	1763778	9394
207	2016-04-21 21:20:48	0	0	0	0	0	0	13.16	0.67	0.29	452947	0	101422	288043	452947	351525	3022	426	5640	312	232030	1763802	9400
208	2016-04-21 21:30:51	0	0	0	0	0	0	13.15	0.67	0.29	453061	0	101477	288043	453061	351584	3022	427	5640	312	232030	1763832	9401
209	2016-04-21 21:40:27	0	0	0	0	0	0	13.15	0.67	0.29	453316	0	101592	288043	453316	351724	3024	427	5644	312	232030	1763866	9407
210	2016-04-21 21:50:27	0	0	0	0	0	0	13.15	0.67	0.29	453451	0	101645	288043	453451	351806	3024	427	5647	313	232030	1763893	9411
211	2016-04-21 22:01:15	0	0	0	0	0	0	13.15	0.67	0.29	453761	0	101785	288177	453761	351976	3024	427	5650	313	232030	1763917	9414
212	2016-04-21 22:11:20	0	0	0	0	0	0	13.15	0.67	0.29	453906	0	101845	288177	453906	352061	3025	427	5651	313	232030	1763933	9416
213	2016-04-21 22:20:36	0	0	0	0	0	0	13.16	0.67	0.29	454232	0	101991	289126	454232	352241	3026	427	5655	313	232096	1763948	9421
214	2016-04-21 22:30:26	0	0	0	0	0	0	13.16	0.67	0.29	454362	0	102046	289126	454362	352316	3026	427	5656	313	232096	1763966	9422
215	2016-04-21 22:40:37	0	0	0	0	0	0	13.18	0.67	0.29	454626	0	102163	289965	454626	352463	3027	427	5659	313	232514	1763997	9426
216	2016-04-21 22:50:38	0	0	0	0	0	0	13.19	0.67	0.29	454894	0	102276	290182	454894	352618	3029	427	5662	314	232654	1764028	9432
217	2016-04-21 23:00:49	0	0	0	0	0	0	13.19	0.67	0.29	455008	0	102323	290182	455008	352685	3031	427	5663	314	232654	1764040	9435
218	2016-04-21 23:11:24	0	0	0	0	0	0	13.2	0.67	0.29	455276	0	102432	290387	455276	352844	3033	427	5670	314	232785	1764066	9444
219	2016-04-21 23:20:28	0	0	0	0	0	0	13.2	0.67	0.29	455373	0	102485	290387	455373	352888	3034	427	5671	314	232785	1764085	9446
220	2016-04-21 23:30:27	0	0	0	0	0	0	13.2	0.67	0.29	455517	0	102550	290387	455517	352967	3035	427	5673	314	232925	1764107	9449
221	2016-04-21 23:40:27	0	0	0	0	0	0	13.2	0.67	0.29	455582	0	102590	290441	455582	352992	3035	427	5676	314	232925	1764124	9452
222	2016-04-21 23:50:41	0	0	0	0	0	0	13.2	0.67	0.29	455680	0	102651	290441	455680	353029	3035	427	5677	314	232925	1764141	9453
223	2016-04-22 00:00:36	0	0	0	0	0	0	13.2	0.67	0.29	455724	0	102686	290441	455724	353038	3035	427	5678	314	232925	1764161	9454
224	2016-04-22 00:10:40	0	0	0	0	0	0	13.2	0.67	0.29	455816	0	102748	290441	455816	353068	3036	428	5679	314	232925	1764169	9457
225	2016-04-22 00:20:27	0	0	0	0	0	0	13.2	0.67	0.29	455903	0	102808	290441	455903	353095	3038	428	5680	317	232925	1764186	9463
226	2016-04-22 00:30:28	0	0	0	0	0	0	13.2	0.67	0.29	455934	0	102827	290441	455934	353107	3039	428	5680	317	232925	1764207	9464
227	2016-04-22 00:41:27	0	0	0	0	0	0	13.2	0.67	0.29	455997	0	102869	290441	455997	353128	3040	428	5683	317	232925	1764212	9468
228	2016-04-22 00:50:37	0	0	0	0	0	0	13.2	0.67	0.29	456030	0	102895	290441	456030	353135	3040	428	5684	317	232925	1764225	9469
229	2016-04-22 01:00:37	0	0	0	0	0	0	13.2	0.67	0.29	456089	0	102928	290441	456089	353161	3040	428	5684	317	232925	1764237	9469
230	2016-04-22 01:11:27	0	0	0	0	0	0	13.2	0.67	0.29	456133	0	102958	290441	456133	353175	3040	428	5684	317	232925	1764251	9469
231	2016-04-22 01:20:37	0	0	0	0	0	0	13.2	0.67	0.29	456152	0	102973	290441	456152	353179	3041	428	5685	317	232925	1764254	9471
232	2016-04-22 01:30:26	0	0	0	0	0	0	13.2	0.67	0.29	456166	0	102983	290441	456166	353183	3041	428	5685	317	232925	1764266	9471
233	2016-04-22 01:40:37	0	0	0	0	0	0	13.2	0.67	0.29	456207	0	103016	290441	456207	353191	3043	428	5685	317	232925	1764275	9473
234	2016-04-22 01:50:38	0	0	0	0	0	0	13.2	0.67	0.29	456218	0	103020	290441	456218	353198	3043	428	5685	317	232925	1764280	9473
235	2016-04-22 02:00:40	0	0	0	0	0	0	13.21	0.67	0.29	456237	0	103029	290441	456237	353208	3043	428	5685	317	232925	1763582	9473
236	2016-04-22 02:10:29	0	0	0	0	0	0	13.21	0.67	0.29	456248	0	103034	290441	456248	353214	3043	428	5685	317	232925	1763585	9473
237	2016-04-22 02:21:34	0	0	0	0	0	0	13.21	0.67	0.29	456265	0	103049	290441	456265	353216	3044	428	5685	317	232925	1763585	9474
238	2016-04-22 02:31:00	0	0	0	0	0	0	13.21	0.67	0.29	456275	0	103059	290605	456275	353216	3044	428	5685	317	232925	1763586	9474
239	2016-04-22 02:40:38	0	0	0	0	0	0	13.21	0.67	0.29	456283	0	103064	290605	456283	353219	3044	428	5685	317	232925	1763586	9474
240	2016-04-22 02:50:56	0	0	0	0	0	0	13.21	0.67	0.29	456294	0	103072	290605	456294	353222	3044	428	5685	317	232925	1763586	9474
241	2016-04-22 03:00:29	0	0	0	0	0	0	13.21	0.67	0.29	456297	0	103075	290605	456297	353222	3044	428	5685	317	232925	1763586	9474
242	2016-04-22 03:10:27	0	0	0	0	0	0	13.21	0.67	0.29	456318	0	103088	290605	456318	353230	3044	428	5685	317	232925	1763588	9474
243	2016-04-22 03:20:59	0	0	0	0	0	0	13.21	0.67	0.29	456322	0	103092	290605	456322	353230	3044	428	5685	317	232925	1763591	9474
244	2016-04-22 03:30:27	0	0	0	0	0	0	13.21	0.67	0.29	456327	0	103095	290605	456327	353232	3044	428	5685	317	232925	1763594	9474
245	2016-04-22 03:40:26	0	0	0	0	0	0	13.21	0.67	0.29	456333	0	103100	290605	456333	353233	3044	428	5685	317	232925	1763596	9474
246	2016-04-22 03:50:25	0	0	0	0	0	0	13.21	0.67	0.29	456344	0	103110	290605	456344	353234	3044	428	5685	317	232925	1763599	9474
247	2016-04-22 04:01:41	0	0	0	0	0	0	13.21	0.67	0.29	456356	0	103119	290605	456356	353237	3044	428	5685	317	232925	1763599	9474
248	2016-04-22 04:10:38	0	0	0	0	0	0	13.21	0.67	0.29	456358	0	103119	290605	456358	353239	3044	428	5685	317	232925	1763601	9474
249	2016-04-22 04:20:25	0	0	0	0	0	0	13.21	0.67	0.29	456361	0	103121	290605	456361	353240	3044	428	5685	317	232925	1763602	9474
250	2016-04-22 04:31:02	0	0	0	0	0	0	13.21	0.67	0.29	456367	0	103125	290605	456367	353242	3044	428	5685	317	232925	1763603	9474
251	2016-04-22 04:40:38	0	0	0	0	0	0	13.21	0.67	0.29	456372	0	103129	290605	456372	353243	3044	428	5685	317	232925	1763606	9474
252	2016-04-22 04:50:40	0	0	0	0	0	0	13.21	0.67	0.29	456377	0	103133	290605	456377	353244	3044	428	5685	317	232925	1763607	9474
253	2016-04-22 05:00:37	0	0	0	0	0	0	13.21	0.67	0.29	456377	0	103133	290605	456377	353244	3044	428	5685	317	232925	1763614	9474
254	2016-04-22 05:11:48	0	0	0	0	0	0	13.21	0.67	0.29	456387	0	103142	290605	456387	353245	3044	428	5685	317	232925	1763615	9474
255	2016-04-22 05:20:38	0	0	0	0	0	0	13.21	0.67	0.29	456392	0	103147	290605	456392	353245	3044	428	5685	317	232925	1763619	9474
256	2016-04-22 05:31:49	0	0	0	0	0	0	13.21	0.67	0.29	456405	0	103154	290605	456405	353251	3044	428	5685	317	232925	1763621	9474
257	2016-04-22 05:40:27	0	0	0	0	0	0	13.21	0.67	0.29	456417	0	103165	290605	456417	353252	3044	428	5685	317	232925	1763624	9474
258	2016-04-22 05:50:42	0	0	0	0	0	0	13.21	0.67	0.29	456423	0	103169	290605	456423	353254	3044	428	5685	317	232925	1763629	9474
259	2016-04-22 06:00:46	0	0	0	0	0	0	13.21	0.67	0.29	456431	0	103173	290605	456431	353258	3044	428	5685	317	232925	1763630	9474
260	2016-04-22 06:11:34	0	0	0	0	0	0	13.21	0.67	0.29	456446	0	103178	290605	456446	353264	3044	428	5685	317	232925	1763634	9474
261	2016-04-22 06:22:35	0	0	0	0	0	0	13.21	0.67	0.29	456455	0	103190	290605	456455	353265	3044	428	5685	317	232925	1763638	9474
262	2016-04-22 06:30:45	0	0	0	0	0	0	13.21	0.67	0.29	456460	0	103195	290605	456460	353265	3044	428	5685	317	232925	1763644	9474
263	2016-04-22 06:40:41	0	0	0	0	0	0	13.21	0.67	0.29	456476	0	103205	290605	456476	353271	3044	428	5685	317	232925	1763649	9474
264	2016-04-22 06:50:40	0	0	0	0	0	0	13.21	0.67	0.29	456486	0	103209	290605	456486	353277	3044	428	5685	317	232925	1763657	9474
265	2016-04-22 07:01:13	0	0	0	0	0	0	13.21	0.67	0.29	456506	0	103225	290605	456506	353281	3045	428	5685	317	232925	1763664	9475
266	2016-04-22 07:10:42	0	0	0	0	0	0	13.21	0.67	0.29	456524	0	103231	290605	456524	353293	3045	428	5685	317	232925	1763668	9475
267	2016-04-22 07:20:27	0	0	0	0	0	0	13.21	0.67	0.29	456548	0	103248	290605	456548	353300	3045	428	5685	317	232925	1763680	9475
268	2016-04-22 07:30:32	0	0	0	0	0	0	13.21	0.67	0.29	456564	0	103259	290605	456564	353305	3045	428	5686	317	232925	1763684	9476
269	2016-04-22 07:41:19	0	0	0	0	0	0	13.21	0.67	0.29	456581	0	103268	290605	456581	353313	3045	428	5686	317	232925	1763702	9476
270	2016-04-22 07:50:36	0	0	0	0	0	0	13.21	0.67	0.29	456591	0	103274	290605	456591	353317	3045	428	5686	317	232925	1763715	9476
271	2016-04-22 08:00:31	0	0	0	0	0	0	13.21	0.67	0.29	456610	0	103288	290605	456610	353322	3045	428	5686	317	232925	1763724	9476
272	2016-04-22 08:10:42	0	0	0	0	0	0	13.21	0.67	0.29	456635	0	103310	290823	456635	353325	3045	428	5686	317	233065	1763740	9476
273	2016-04-22 08:20:42	0	0	0	0	0	0	13.21	0.67	0.29	456662	0	103332	290823	456662	353330	3047	428	5686	317	233065	1763751	9478
274	2016-04-22 08:32:14	0	0	0	0	0	0	13.21	0.67	0.29	456681	0	103345	290823	456681	353336	3047	428	5686	317	233065	1763766	9478
275	2016-04-22 08:42:18	0	0	0	0	0	0	13.21	0.67	0.29	456711	0	103365	290823	456711	353346	3048	428	5686	317	233065	1763782	9479
276	2016-04-22 08:50:30	0	0	0	0	0	0	13.21	0.67	0.29	456726	0	103379	290823	456726	353347	3048	428	5686	317	233065	1763793	9479
277	2016-04-22 09:00:44	0	0	0	0	0	0	13.21	0.67	0.29	456759	0	103403	290878	456759	353356	3048	428	5687	317	233065	1763815	9480
278	2016-04-22 09:10:30	0	0	0	0	0	0	13.21	0.67	0.29	456781	0	103420	290878	456781	353361	3048	428	5688	317	233065	1763831	9481
279	2016-04-22 09:20:42	0	0	0	0	0	0	13.21	0.67	0.29	456805	0	103433	290878	456805	353372	3048	428	5688	317	233065	1763848	9481
280	2016-04-22 09:30:33	0	0	0	0	0	0	13.21	0.67	0.29	456821	0	103444	290878	456821	353377	3048	428	5688	317	233065	1763863	9481
281	2016-04-22 09:40:30	0	0	0	0	0	0	13.21	0.67	0.29	456852	0	103465	290878	456852	353387	3048	428	5688	317	233065	1763879	9481
282	2016-04-22 09:50:51	0	0	0	0	0	0	13.21	0.67	0.29	456872	0	103482	290878	456872	353390	3048	429	5689	317	233065	1763896	9483
283	2016-04-22 10:00:36	0	0	0	0	0	0	13.21	0.67	0.29	456912	0	103516	290878	456912	353396	3048	429	5689	317	233065	1763907	9483
284	2016-04-22 10:12:46	0	0	0	0	0	0	13.21	0.67	0.29	456929	0	103524	290878	456929	353405	3048	429	5689	317	233065	1763938	9483
285	2016-04-22 10:20:36	0	0	0	0	0	0	13.21	0.67	0.29	456953	0	103545	290878	456953	353408	3048	429	5689	317	233065	1763963	9483
286	2016-04-22 10:31:50	0	0	0	0	0	0	13.21	0.67	0.29	456969	0	103558	290878	456969	353411	3048	429	5689	317	233065	1763982	9483
287	2016-04-22 10:33:44	0	0	0	0	0	0	13.21	0.67	0.29	456969	0	103558	290878	456969	353411	3048	429	5689	317	233065	1763981	9483
288	2016-04-22 10:43:40	0	0	0	0	0	0	13.21	0.67	0.29	457001	0	103582	290878	457001	353419	3048	429	5689	317	233065	1764007	9483
289	2016-04-22 10:53:38	0	0	0	0	0	0	13.21	0.67	0.29	457011	0	103589	290878	457011	353422	3048	429	5689	317	233065	1764029	9483
290	2016-04-22 11:03:39	0	0	0	0	0	0	13.21	0.67	0.29	457018	0	103595	290878	457018	353423	3048	429	5689	317	233065	1764049	9483
291	2016-04-22 11:13:48	0	0	0	0	0	0	13.21	0.67	0.29	457045	0	103618	290878	457045	353427	3048	429	5690	317	233065	1764072	9484
292	2016-04-22 11:23:54	0	0	0	0	0	0	13.21	0.67	0.29	457065	0	103635	290878	457065	353430	3049	429	5691	317	233065	1764086	9486
293	2016-04-22 11:33:43	0	0	0	0	0	0	13.21	0.67	0.29	457082	0	103647	290878	457082	353435	3049	429	5691	317	233065	1764101	9486
294	2016-04-22 11:44:00	0	0	0	0	0	0	13.21	0.67	0.29	457099	0	103657	290878	457099	353442	3049	429	5691	317	233065	1764117	9486
295	2016-04-22 11:54:14	0	0	0	0	0	0	13.21	0.67	0.29	457108	0	103661	290878	457108	353447	3049	429	5692	317	233065	1764131	9487
296	2016-04-22 12:04:08	0	0	0	0	0	0	13.21	0.67	0.29	457136	0	103679	290878	457136	353457	3049	429	5692	317	233065	1764145	9487
297	2016-04-22 12:14:19	0	0	0	0	0	0	13.21	0.67	0.29	457152	0	103691	290878	457152	353461	3049	429	5693	317	233065	1764173	9488
298	2016-04-22 12:23:42	0	0	0	0	0	0	13.21	0.67	0.29	457168	0	103703	290878	457168	353465	3049	429	5693	317	233065	1764189	9488
299	2016-04-22 12:33:48	0	0	0	0	0	0	13.21	0.67	0.29	457176	0	103709	290878	457176	353467	3049	429	5693	317	233065	1764220	9488
300	2016-04-22 12:44:02	0	0	0	0	0	0	13.21	0.67	0.29	457192	0	103721	290878	457192	353471	3049	429	5693	317	233065	1764271	9488
301	2016-04-22 12:53:39	0	0	0	0	0	0	13.21	0.67	0.29	457217	0	103736	290878	457217	353481	3049	429	5693	317	233065	1764331	9488
302	2016-04-22 13:03:37	0	0	0	0	0	0	13.21	0.67	0.29	457225	0	103741	290878	457225	353484	3049	429	5693	317	233065	1764399	9488
303	2016-04-22 13:13:47	0	0	0	0	0	0	13.21	0.67	0.29	457237	0	103750	290878	457237	353487	3050	429	5693	317	233065	1764474	9489
304	2016-04-22 13:23:49	0	0	0	0	0	0	13.21	0.67	0.29	457246	0	103756	290878	457246	353490	3050	429	5694	317	233065	1764555	9490
305	2016-04-22 13:33:36	0	0	0	0	0	0	13.21	0.67	0.29	457269	0	103767	290878	457269	353502	3051	429	5694	317	233065	1764613	9491
306	2016-04-22 13:43:47	0	0	0	0	0	0	13.21	0.67	0.29	457277	0	103772	290878	457277	353505	3051	429	5694	317	233065	1764684	9491
307	2016-04-22 13:53:52	0	0	0	0	0	0	13.21	0.67	0.29	457292	0	103777	290878	457292	353508	3051	429	5694	317	233065	1764754	9491
308	2016-04-22 14:03:39	0	0	0	0	0	0	13.21	0.67	0.29	457301	0	103791	290878	457301	353510	3051	429	5694	317	233065	1764831	9491
309	2016-04-22 14:13:38	0	0	0	0	0	0	13.21	0.67	0.29	457309	0	103795	290878	457309	353514	3051	429	5694	317	233065	1764913	9491
310	2016-04-22 14:24:00	0	0	0	0	0	0	13.2	0.67	0.29	457336	0	103810	290878	457336	353526	3051	429	5695	317	233065	1764986	9492
311	2016-04-22 14:33:58	0	0	0	0	0	0	13.2	0.67	0.29	457340	0	103811	290878	457340	353529	3051	429	5695	317	233065	1765045	9492
312	2016-04-22 14:43:55	0	0	0	0	0	0	13.2	0.67	0.29	457351	0	103817	290878	457351	353534	3051	429	5695	317	233065	1765114	9492
313	2016-04-22 14:54:00	0	0	0	0	0	0	13.2	0.67	0.29	457366	0	103827	290878	457366	353539	3051	429	5695	317	233065	1765185	9492
314	2016-04-22 15:03:42	0	0	0	0	0	0	13.2	0.67	0.29	457374	0	103830	290878	457374	353544	3051	429	5695	317	233065	1765237	9492
315	2016-04-22 15:14:01	0	0	0	0	0	0	13.2	0.67	0.29	457377	0	103832	290878	457377	353545	3052	429	5695	317	233065	1765308	9493
316	2016-04-22 15:23:55	0	0	0	0	0	0	13.2	0.67	0.29	457397	0	103843	290987	457397	353554	3052	429	5696	318	233065	1765372	9495
317	2016-04-22 15:34:02	0	0	0	0	0	0	13.2	0.67	0.29	457403	0	103849	290987	457403	353554	3052	429	5696	318	233065	1765438	9495
318	2016-04-22 15:44:00	0	0	0	0	0	0	13.2	0.67	0.29	457424	0	103859	290987	457424	353565	3052	429	5696	318	233065	1765500	9495
319	2016-04-22 15:53:41	0	0	0	0	0	0	13.2	0.67	0.29	457429	0	103862	290987	457429	353567	3052	429	5696	318	233065	1765555	9495
320	2016-04-22 16:03:48	0	0	0	0	0	0	13.21	0.67	0.29	457445	0	103868	291014	457445	353577	3052	429	5696	318	233188	1765606	9495
321	2016-04-22 16:13:57	0	0	0	0	0	0	13.21	0.67	0.29	457447	0	103870	291014	457447	353577	3052	429	5696	318	233188	1765653	9495
322	2016-04-22 16:23:45	0	0	0	0	0	0	13.21	0.67	0.29	457455	0	103877	291014	457455	353578	3052	429	5696	318	233188	1765707	9495
323	2016-04-22 16:33:59	0	0	0	0	0	0	13.21	0.67	0.29	457461	0	103883	291014	457461	353578	3052	429	5696	318	233188	1765764	9495
324	2016-04-22 16:43:47	0	0	0	0	0	0	13.21	0.67	0.29	457467	0	103886	291014	457467	353581	3052	429	5696	318	233188	1765814	9495
325	2016-04-22 16:53:40	0	0	0	0	0	0	13.21	0.67	0.29	457473	0	103890	291014	457473	353583	3052	429	5696	318	233188	1765865	9495
326	2016-04-22 17:03:41	0	0	0	0	0	0	13.2	0.67	0.29	457490	0	103902	291014	457490	353588	3052	429	5696	318	233188	1765915	9495
327	2016-04-22 17:13:39	0	0	0	0	0	0	13.2	0.67	0.29	457502	0	103911	291014	457502	353591	3052	429	5696	318	233188	1765976	9495
328	2016-04-22 17:23:50	0	0	0	0	0	0	13.2	0.67	0.29	457521	0	103926	291014	457521	353595	3052	429	5696	318	233188	1766020	9495
329	2016-04-22 17:34:13	0	0	0	0	0	0	13.2	0.67	0.29	457524	0	103928	291014	457524	353596	3052	429	5696	318	233188	1766057	9495
330	2016-04-22 17:44:20	0	0	0	0	0	0	13.2	0.67	0.29	457545	0	103940	291014	457545	353605	3052	429	5697	318	233188	1766113	9496
331	2016-04-22 17:54:51	0	0	0	0	0	0	13.2	0.67	0.29	457554	0	103945	291014	457554	353609	3052	429	5697	318	233188	1766150	9496
332	2016-04-22 18:04:24	0	0	0	0	0	0	13.2	0.67	0.29	457559	0	103949	291014	457559	353610	3052	429	5697	318	233188	1766187	9496
333	2016-04-22 18:13:44	0	0	0	0	0	0	13.21	0.67	0.29	457572	0	103960	291096	457572	353612	3052	429	5697	318	233241	1766224	9496
334	2016-04-22 18:23:39	0	0	0	0	0	0	13.21	0.67	0.29	457592	0	103974	291096	457592	353618	3052	429	5697	318	233241	1766255	9496
335	2016-04-22 18:33:57	0	0	0	0	0	0	13.2	0.67	0.29	457598	0	103978	291096	457598	353620	3053	429	5697	318	233241	1766312	9497
336	2016-04-22 18:43:39	0	0	0	0	0	0	13.2	0.67	0.29	457620	0	103993	291096	457620	353627	3053	429	5698	318	233241	1766360	9498
337	2016-04-22 18:53:58	0	0	0	0	0	0	13.2	0.67	0.29	457631	0	104000	291096	457631	353631	3053	429	5698	318	233241	1766408	9498
338	2016-04-22 19:03:39	0	0	0	0	0	0	13.2	0.67	0.29	457647	0	104007	291096	457647	353640	3053	429	5699	318	233241	1766449	9499
339	2016-04-22 19:14:02	0	0	0	0	0	0	13.2	0.67	0.29	457651	0	104009	291096	457651	353642	3053	429	5699	318	233241	1766492	9499
340	2016-04-22 19:23:39	0	0	0	0	0	0	13.2	0.67	0.29	457665	0	104020	291096	457665	353645	3054	429	5699	318	233241	1766532	9500
341	2016-04-22 19:33:40	0	0	0	0	0	0	13.2	0.67	0.29	457678	0	104028	291096	457678	353650	3054	429	5699	318	233241	1766559	9500
342	2016-04-22 19:44:02	0	0	0	0	0	0	13.2	0.67	0.29	457694	0	104035	291096	457694	353659	3054	429	5699	318	233241	1766611	9500
343	2016-04-22 19:53:39	0	0	0	0	0	0	13.2	0.67	0.29	457709	0	104047	291096	457709	353662	3054	429	5699	318	233241	1766643	9500
344	2016-04-22 20:03:40	0	0	0	0	0	0	13.2	0.67	0.29	457730	0	104066	291096	457730	353664	3054	429	5699	318	233241	1766677	9500
345	2016-04-22 20:13:39	0	0	0	0	0	0	13.2	0.67	0.29	457737	0	104071	291096	457737	353666	3054	429	5699	318	233241	1766705	9500
346	2016-04-22 20:23:40	0	0	0	0	0	0	13.2	0.67	0.29	457751	0	104078	291096	457751	353673	3054	429	5699	318	233241	1766746	9500
347	2016-04-22 20:33:40	0	0	0	0	0	0	13.2	0.67	0.29	457765	0	104086	291096	457765	353679	3055	429	5699	318	233241	1766787	9501
348	2016-04-22 20:44:06	0	0	0	0	0	0	13.2	0.67	0.29	457773	0	104091	291096	457773	353682	3055	429	5699	318	233241	1766838	9501
349	2016-04-22 20:54:08	0	0	0	0	0	0	13.2	0.67	0.29	457787	0	104100	291096	457787	353687	3055	429	5699	318	233241	1766890	9501
350	2016-04-22 21:03:39	0	0	0	0	0	0	13.2	0.67	0.29	457798	0	104108	291206	457798	353690	3055	429	5699	318	233241	1766925	9501
351	2016-04-22 21:13:41	0	0	0	0	0	0	13.2	0.67	0.29	457804	0	104112	291206	457804	353692	3055	429	5699	318	233241	1766956	9501
352	2016-04-22 21:24:09	0	0	0	0	0	0	13.2	0.67	0.29	457826	0	104129	291206	457826	353697	3055	429	5699	318	233241	1766998	9501
353	2016-04-22 21:33:42	0	0	0	0	0	0	13.2	0.67	0.29	457835	0	104134	291206	457835	353701	3055	429	5699	318	233241	1767045	9501
354	2016-04-22 21:43:40	0	0	0	0	0	0	13.2	0.67	0.29	457841	0	104136	291206	457841	353705	3055	429	5699	318	233241	1767076	9501
355	2016-04-22 21:53:41	0	0	0	0	0	0	13.2	0.67	0.29	457856	0	104142	291206	457856	353714	3055	429	5699	318	233241	1767106	9501
356	2016-04-22 22:03:42	0	0	0	0	0	0	13.2	0.67	0.29	457861	0	104145	291206	457861	353716	3055	429	5699	318	233241	1767153	9501
357	2016-04-22 22:13:41	0	0	0	0	0	0	13.2	0.67	0.29	457876	0	104156	291206	457876	353720	3055	429	5699	318	233241	1767186	9501
358	2016-04-22 22:23:40	0	0	0	0	0	0	13.2	0.67	0.29	457886	0	104162	291206	457886	353724	3055	429	5699	318	233241	1767223	9501
359	2016-04-22 22:34:11	0	0	0	0	0	0	13.2	0.67	0.29	457894	0	104167	291206	457894	353727	3055	429	5699	318	233241	1767265	9501
360	2016-04-22 22:43:41	0	0	0	0	0	0	13.2	0.67	0.29	457902	0	104170	291206	457902	353732	3055	429	5699	318	233241	1767300	9501
361	2016-04-22 22:53:41	0	0	0	0	0	0	13.2	0.67	0.29	457910	0	104174	291206	457910	353736	3055	429	5699	318	233241	1767340	9501
362	2016-04-22 23:03:41	0	0	0	0	0	0	13.2	0.67	0.29	457928	0	104188	291206	457928	353740	3055	429	5699	318	233241	1767391	9501
363	2016-04-22 23:13:40	0	0	0	0	0	0	13.2	0.67	0.29	457935	0	104192	291206	457935	353743	3055	429	5699	318	233241	1767442	9501
364	2016-04-22 23:23:40	0	0	0	0	0	0	13.2	0.67	0.29	457952	0	104197	291206	457952	353755	3055	429	5699	318	233241	1767479	9501
365	2016-04-22 23:34:13	0	0	0	0	0	0	13.2	0.67	0.29	457956	0	104200	291206	457956	353756	3055	429	5699	318	233241	1767510	9501
366	2016-04-22 23:43:43	0	0	0	0	0	0	13.2	0.67	0.29	457969	0	104205	291206	457969	353764	3055	429	5699	318	233241	1767546	9501
367	2016-04-22 23:53:40	0	0	0	0	0	0	13.2	0.67	0.29	457973	0	104207	291206	457973	353766	3055	429	5699	318	233241	1767578	9501
368	2016-04-23 00:04:15	0	0	0	0	0	0	13.2	0.67	0.29	457989	0	104216	291206	457989	353773	3055	429	5699	318	233241	1767600	9501
369	2016-04-23 00:13:42	0	0	0	0	0	0	13.2	0.67	0.29	457995	0	104220	291206	457995	353775	3055	429	5699	318	233241	1767633	9501
370	2016-04-23 00:23:42	0	0	0	0	0	0	13.19	0.67	0.29	457998	0	104223	291206	457998	353775	3055	429	5699	318	233241	1767660	9501
371	2016-04-23 00:33:43	0	0	0	0	0	0	13.19	0.67	0.29	458005	0	104225	291206	458005	353780	3055	429	5699	318	233241	1767697	9501
372	2016-04-23 00:44:15	0	0	0	0	0	0	13.19	0.67	0.29	458012	0	104230	291206	458012	353782	3055	429	5699	318	233241	1767724	9501
373	2016-04-23 00:53:41	0	0	0	0	0	0	13.19	0.67	0.29	458013	0	104230	291206	458013	353783	3055	429	5699	318	233241	1767748	9501
374	2016-04-23 01:03:40	0	0	0	0	0	0	13.19	0.67	0.29	458019	0	104234	291206	458019	353785	3055	429	5699	318	233241	1767768	9501
375	2016-04-23 01:13:42	0	0	0	0	0	0	13.19	0.67	0.29	458021	0	104235	291206	458021	353786	3055	429	5699	318	233241	1767790	9501
376	2016-04-23 01:23:42	0	0	0	0	0	0	13.19	0.67	0.29	458023	0	104235	291206	458023	353788	3055	429	5699	318	233241	1767808	9501
377	2016-04-23 01:34:16	0	0	0	0	0	0	13.19	0.67	0.29	458024	0	104235	291206	458024	353789	3055	429	5699	318	233241	1767827	9501
378	2016-04-23 01:44:19	0	0	0	0	0	0	13.19	0.67	0.29	458030	0	104237	291206	458030	353793	3055	429	5699	318	233241	1767835	9501
379	2016-04-23 01:53:39	0	0	0	0	0	0	13.19	0.67	0.29	458037	0	104240	291206	458037	353797	3055	429	5699	318	233241	1767842	9501
380	2016-04-23 02:04:22	0	0	0	0	0	0	13.22	0.67	0.29	458039	0	104242	291206	458039	353797	3055	429	5699	318	233241	1764832	9501
381	2016-04-23 02:13:42	0	0	0	0	0	0	13.22	0.67	0.29	458040	0	104243	291206	458040	353797	3055	429	5699	318	233241	1764845	9501
382	2016-04-23 02:23:42	0	0	0	0	0	0	13.22	0.67	0.29	458044	0	104245	291206	458044	353799	3055	429	5699	318	233241	1764849	9501
383	2016-04-23 02:34:24	0	0	0	0	0	0	13.22	0.67	0.29	458047	0	104247	291206	458047	353800	3055	429	5699	318	233241	1764860	9501
384	2016-04-23 02:43:44	0	0	0	0	0	0	13.22	0.67	0.29	458048	0	104248	291206	458048	353800	3055	429	5699	318	233241	1764865	9501
385	2016-04-23 02:53:41	0	0	0	0	0	0	13.22	0.67	0.29	458050	0	104250	291206	458050	353800	3055	429	5699	318	233241	1764873	9501
386	2016-04-23 03:03:43	0	0	0	0	0	0	13.22	0.67	0.29	458051	0	104251	291206	458051	353800	3055	429	5699	318	233241	1764881	9501
387	2016-04-23 03:13:41	0	0	0	0	0	0	13.22	0.67	0.29	458052	0	104252	291206	458052	353800	3055	429	5699	318	233241	1764887	9501
388	2016-04-23 03:23:44	0	0	0	0	0	0	13.22	0.67	0.29	458054	0	104253	291206	458054	353801	3055	429	5699	318	233241	1764891	9501
389	2016-04-23 03:33:40	0	0	0	0	0	0	13.22	0.67	0.29	458055	0	104254	291206	458055	353801	3055	429	5699	318	233241	1764892	9501
390	2016-04-23 03:44:25	0	0	0	0	0	0	13.22	0.67	0.29	458058	0	104256	291206	458058	353802	3055	429	5699	318	233241	1764892	9501
391	2016-04-23 03:53:41	0	0	0	0	0	0	13.22	0.67	0.29	458059	0	104257	291206	458059	353802	3055	429	5699	318	233241	1764896	9501
392	2016-04-23 04:04:28	0	0	0	0	0	0	13.22	0.67	0.29	458061	0	104259	291206	458061	353802	3055	429	5699	318	233241	1764902	9501
393	2016-04-23 04:13:43	0	0	0	0	0	0	13.22	0.67	0.29	458061	0	104259	291206	458061	353802	3055	429	5699	318	233241	1764903	9501
394	2016-04-23 04:23:42	0	0	0	0	0	0	13.22	0.67	0.29	458064	0	104262	291206	458064	353802	3055	429	5699	318	233241	1764907	9501
395	2016-04-23 04:33:41	0	0	0	0	0	0	13.22	0.67	0.29	458064	0	104262	291206	458064	353802	3055	429	5699	318	233241	1764912	9501
396	2016-04-23 04:43:42	0	0	0	0	0	0	13.22	0.67	0.29	458064	0	104262	291206	458064	353802	3055	429	5699	318	233241	1764916	9501
397	2016-04-23 04:53:41	0	0	0	0	0	0	13.22	0.67	0.29	458066	0	104264	291206	458066	353802	3055	429	5699	318	233241	1764921	9501
398	2016-04-23 05:03:42	0	0	0	0	0	0	13.22	0.67	0.29	458067	0	104264	291206	458067	353803	3055	429	5699	318	233241	1764925	9501
399	2016-04-23 05:13:42	0	0	0	0	0	0	13.22	0.67	0.29	458067	0	104264	291206	458067	353803	3055	429	5699	318	233241	1764927	9501
400	2016-04-23 05:23:43	0	0	0	0	0	0	13.22	0.67	0.29	458068	0	104264	291206	458068	353804	3055	429	5699	318	233241	1764926	9501
401	2016-04-23 05:33:41	0	0	0	0	0	0	13.22	0.67	0.29	458068	0	104264	291206	458068	353804	3055	429	5699	318	233241	1764927	9501
402	2016-04-23 05:43:42	0	0	0	0	0	0	13.22	0.67	0.29	458068	0	104264	291206	458068	353804	3055	429	5699	318	233241	1764927	9501
