1	2017-02-22 21:04:04	0	0	0	0	0	0	2	0	0.02	31994	0	605	26330	31994	31389	3588	0	0	0	25404	1268553	0
2	2017-02-22 21:14:04	0.02	3	0.006667	1.1	0.07	6.667	2.17	11.61	0.02	35451	273	785	28676	35178	34393	4087	0	0	0	27541	1268566	0
3	2017-02-22 21:24:03	0.85	571	0.001489	18.57	0.28	1.489	2.38	10.6	0.03	41542	3075	983	32839	38467	37484	4647	0	0	0	30195	1268573	0
4	2017-02-22 21:34:03	6.1	3169	0.001925	15.55	0.3	1.925	2.67	8.18	0.03	61819	20382	1267	51169	41437	40170	6557	0	0	0	33923	1268590	0
5	2017-02-22 21:44:04	10.01	7406	0.001352	13.84	0.19	1.352	3.29	12.5	0.04	100186	53503	1933	87438	46683	44750	13243	0	0	0	41763	1268605	0
6	2017-02-22 21:54:03	12.97	9026	0.001437	15.17	0.22	1.437	3.48	12.09	0.05	107945	59508	2132	92792	48437	46305	14883	0	0	0	44153	1268615	0
7	2017-02-22 22:04:04	15.85	11478	0.001381	16.9	0.23	1.381	3.73	9.75	0.05	118144	67925	2342	101223	50219	47877	16372	0	0	0	47330	1268638	0
8	2017-02-22 22:14:04	21.37	14052	0.001521	14.92	0.23	1.521	4.28	14.07	0.06	147772	94194	2841	130657	53578	50737	21589	0	0	0	54313	1268655	0
9	2017-02-22 22:24:04	24.73	16838	0.001469	16.38	0.24	1.469	4.49	11.88	0.06	158064	102803	3089	139254	55261	52172	23402	0	0	0	56986	1268668	0
10	2017-02-22 22:34:04	26.98	18373	0.001468	16.13	0.24	1.468	4.71	12.2	0.06	170832	113907	3345	152735	56925	53580	25318	0	0	0	59741	1268684	0
11	2017-02-22 22:44:08	31.88	22171	0.001438	16.63	0.24	1.438	4.99	10.32	0.07	191821	133342	3606	175129	58479	54873	28205	0	0	0	63322	1268702	0
12	2017-02-22 22:54:06	36.19	25057	0.001444	15.14	0.22	1.444	5.36	14.24	0.07	226758	165548	4170	208628	61210	57040	33773	0	0	0	68009	1268711	0
13	2017-02-22 23:04:07	40.22	28978	0.001388	15.69	0.22	1.388	5.59	12.5	0.08	247191	184657	4471	224961	62534	58063	36795	0	0	0	70958	1268727	0
14	2017-02-22 23:14:08	43.07	31456	0.001369	15.6	0.21	1.369	5.81	12.61	0.08	265461	201644	4740	244582	63817	59077	39504	0	0	0	73761	1268742	0
15	2017-02-22 23:24:08	47.24	35316	0.001338	16.24	0.22	1.338	5.91	10.78	0.08	282461	217456	4993	259953	65005	60012	42321	0	0	0	75024	1268753	0
16	2017-02-22 23:34:07	51	37727	0.001352	16.24	0.22	1.352	6.07	11.14	0.09	298541	232307	5218	276858	66234	61016	45105	0	0	0	76970	1268764	0
17	2017-02-22 23:44:08	54.42	41148	0.001323	15.97	0.21	1.323	6.29	12.97	0.09	325932	257659	5679	298314	68273	62594	50000	0	0	0	79844	1268770	0
18	2017-02-22 23:54:04	57.49	43131	0.001333	16.06	0.21	1.333	6.41	13.08	0.09	337626	268479	5881	310638	69147	63266	52175	0	0	0	81301	1268781	0
19	2017-02-23 00:29:05	63.8	48971	0.001303	16.63	0.22	1.303	6.78	12.54	0.1	366591	294470	6519	340213	72121	65602	58012	0	0	0	86024	1268801	0
20	2017-02-23 01:29:05	69.26	52987	0.001307	16.97	0.22	1.307	7.04	12.76	0.1	387533	312293	7132	365396	75240	68108	62587	0	0	0	89310	1268827	0
21	2017-02-23 02:29:05	71.55	54527	0.001312	17.13	0.22	1.312	7.2	12.65	0.11	394938	318299	7326	372604	76639	69313	64220	0	0	0	91411	1268816	0
22	2017-02-23 03:29:06	72.52	55217	0.001313	17.19	0.23	1.313	7.29	12.79	0.11	398965	321245	7460	378040	77720	70260	65158	0	0	0	92509	1268822	0
23	2017-02-23 04:29:06	73.49	55862	0.001316	17.28	0.23	1.316	7.38	12.74	0.11	401956	323364	7585	378948	78592	71007	65876	0	0	0	93585	1268830	0
24	2017-02-23 05:29:07	74.78	56703	0.001319	17.34	0.23	1.319	7.46	12.87	0.11	406821	326944	7827	381987	79877	72050	66986	0	0	0	94600	1268842	0
25	2017-02-23 06:29:07	78.29	59012	0.001327	17.6	0.23	1.327	7.65	12.39	0.11	416981	335304	8215	392677	81677	73462	69131	0	0	0	97056	1268862	0
26	2017-02-23 07:04:07	81.93	61331	0.001336	17.57	0.23	1.336	7.85	13.13	0.12	432862	349026	8769	406203	83836	75067	72335	0	0	0	99623	1268876	0
27	2017-02-23 07:14:07	83.53	62624	0.001334	17.71	0.24	1.334	7.95	12.75	0.12	438173	353688	8927	414672	84485	75558	73398	0	0	0	100830	1268879	0
28	2017-02-23 07:24:09	85.56	63551	0.001346	17.73	0.24	1.346	8	12.86	0.12	443635	358520	9100	418186	85115	76015	74500	0	0	0	101560	1268888	0
29	2017-02-23 07:34:08	87.65	65088	0.001347	17.87	0.24	1.347	8.15	12.41	0.12	449991	364175	9283	425338	85816	76533	75740	0	0	0	103443	1268894	0
30	2017-02-23 07:44:08	89.02	66282	0.001343	17.93	0.24	1.343	8.22	12.37	0.12	456236	369725	9486	431834	86511	77025	76982	0	0	0	104322	1268901	0
31	2017-02-23 07:54:08	91.23	68000	0.001342	18.09	0.24	1.342	8.31	11.94	0.13	463166	375830	9731	436575	87336	77605	78426	0	0	0	105405	1268911	0
32	2017-02-23 08:04:08	93.7	69240	0.001353	17.89	0.24	1.353	8.47	13.35	0.13	475958	387114	10147	451454	88844	78697	81097	0	0	0	107486	1268917	0
33	2017-02-23 08:14:10	96.17	71076	0.001353	18.05	0.24	1.353	8.54	12.93	0.13	483431	393775	10406	455594	89656	79250	82665	0	0	0	108355	1268929	0
34	2017-02-23 08:24:09	98.17	72345	0.001357	18.05	0.24	1.357	8.61	13.24	0.13	491444	400874	10671	459940	90570	79899	84337	0	0	0	109261	1268939	0
35	2017-02-23 08:34:09	100.78	74411	0.001354	18.29	0.25	1.354	8.7	12.38	0.14	498082	406774	10904	465773	91308	80404	85713	0	0	0	110442	1268952	0
36	2017-02-23 08:44:09	103.25	75612	0.001366	18.33	0.25	1.366	8.78	12.42	0.14	504398	412394	11141	472019	92004	80863	87037	0	0	0	111355	1268962	0
37	2017-02-23 08:54:11	105.34	77504	0.001359	18.24	0.25	1.359	8.95	13.03	0.14	518553	424997	11640	486127	93556	81916	89691	0	0	0	113612	1268974	0
38	2017-02-23 09:04:11	107.97	78679	0.001372	18.22	0.25	1.372	9.03	13.2	0.14	526123	431734	11907	490855	94389	82482	91135	0	0	0	114643	1268982	0
39	2017-02-23 09:14:10	110.46	80690	0.001369	18.37	0.25	1.369	9.06	12.69	0.15	534465	439227	12195	497942	95238	83043	92773	0	0	0	114983	1268996	0
40	2017-02-23 09:24:11	112.2	81858	0.001371	18.37	0.25	1.371	9.09	12.72	0.15	541597	445647	12420	502363	95950	83530	94063	0	0	0	115326	1269006	0
41	2017-02-23 09:34:15	114.34	83917	0.001363	18.51	0.25	1.363	9.27	12.08	0.15	550109	453344	12678	508207	96765	84087	95605	0	0	0	117592	1269023	0
42	2017-02-23 09:44:21	116.69	85101	0.001371	18.49	0.25	1.371	9.38	12.27	0.15	557645	460184	12888	513602	97461	84573	97064	0	0	0	119043	1269035	0
43	2017-02-23 09:54:19	119.04	87060	0.001367	18.34	0.25	1.367	9.41	11.5	0.15	573635	474608	13120	530713	99027	85640	98446	0	0	0	119390	1269040	0
44	2017-02-23 10:04:18	121.05	88319	0.001371	18.34	0.25	1.371	9.48	13.04	0.16	581444	481631	13679	530713	99813	86134	101336	0	0	0	120310	1269048	0
45	2017-02-23 10:14:21	122.99	90149	0.001364	18.45	0.25	1.364	9.62	12.46	0.16	589061	488588	13915	543117	100473	86558	102672	0	0	0	122120	1269056	0
46	2017-02-23 10:24:20	125.54	91456	0.001373	18.45	0.25	1.373	9.68	12.5	0.16	596841	495670	14133	552832	101171	87038	104101	0	0	0	122825	1269065	0
47	2017-02-23 10:34:21	127.65	93274	0.001369	18.56	0.25	1.369	9.73	11.98	0.16	604456	502616	14345	557694	101840	87495	105474	0	0	0	123539	1269074	0
48	2017-02-23 10:44:21	129.64	94429	0.001373	18.53	0.25	1.373	9.79	12.05	0.17	611990	509484	14574	568875	102506	87932	106783	0	0	0	124295	1269090	0
49	2017-02-23 10:54:23	131.8	96278	0.001369	18.37	0.25	1.369	9.97	12.85	0.17	628181	524179	15075	585924	104002	88927	109646	0	0	0	126486	1269097	0
50	2017-02-23 11:04:22	133.92	97490	0.001374	18.35	0.25	1.374	10.02	12.94	0.17	636100	531413	15311	592242	104687	89376	111034	0	0	0	127159	1269105	0
51	2017-02-23 11:14:24	136.25	99331	0.001372	18.45	0.25	1.372	10.11	12.41	0.17	643620	538283	15552	599901	105337	89785	112399	0	0	0	128353	1269117	0
52	2017-02-23 11:24:22	138.46	100562	0.001377	18.43	0.25	1.377	10.18	12.53	0.17	651735	545758	15741	607113	105977	90236	113837	0	0	0	129196	1269128	0
53	2017-02-23 11:34:28	140.42	102283	0.001373	18.49	0.25	1.373	10.26	12.18	0.18	659893	553228	15995	615286	106665	90670	115276	0	0	0	130210	1269147	0
54	2017-02-23 11:46:56	142.63	103746	0.001375	18.34	0.25	1.375	10.38	12.89	0.18	673662	565608	16475	630144	108054	91579	117671	0	0	0	131730	1269155	0
55	2017-02-23 11:57:13	144.4	104742	0.001379	18.34	0.25	1.379	10.44	12.89	0.18	679966	571263	16721	637699	108703	91982	118756	0	0	0	132507	1269167	0
56	2017-02-23 12:07:14	145.96	106118	0.001375	18.38	0.25	1.375	10.5	12.53	0.18	686785	577357	16994	642659	109428	92434	119834	0	0	0	133311	1269175	0
57	2017-02-23 12:17:14	147.6	106966	0.00138	18.33	0.25	1.38	10.58	12.69	0.19	693600	583428	17260	646728	110172	92912	120951	0	0	0	134332	1269187	0
58	2017-02-23 12:27:18	149.08	108185	0.001378	18.39	0.25	1.378	10.6	12.35	0.19	699112	588394	17457	651765	110718	93261	121855	0	0	0	134472	1269196	0
59	2017-02-23 12:37:38	150.35	108985	0.00138	18.34	0.25	1.38	10.64	12.51	0.19	705669	594225	17734	657823	111444	93710	122925	0	0	0	134985	1269206	0
60	2017-02-23 12:49:51	152.37	110205	0.001383	18.21	0.25	1.383	10.78	13.03	0.19	718002	605282	18193	672613	112720	94527	124897	0	0	0	136874	1269218	0
61	2017-02-23 12:59:56	153.68	111466	0.001379	18.25	0.25	1.379	10.87	12.71	0.19	723930	610707	18390	677293	113223	94833	125852	0	0	0	137969	1269233	0
